raw_data/100% Glycerol, Impulsion 2Hz, Sonde 5MHz, Rampe 0.7Hz/temp0000245.CSV

Format,1.0B,
Memory Length,10000,Memory Length,10000,
IntpDistance,0,IntpDistance,0,
Trigger Address,159,Trigger Address,159,
Trigger Level,2.720E-01,Trigger Level,2.720E-01,
Source,CH1,Source,CH2,
Vertical Units,V,Vertical Units,V,
Vertical Units Div,0,Vertical Units Div,0,
Vertical Units Extend Div,16,Vertical Units Extend Div,16,
Label,,Label,,
Probe Type,0,Probe Type,0,
Probe Ratio,1.000e+00,Probe Ratio,1.000e+00,
Vertical Scale,2.000e-01,Vertical Scale,2.000e+00,
Vertical Position,0.000e+00,Vertical Position,0.000e+00,
Horizontal Units,S,Horizontal Units,S,
Horizontal Scale,5.000E-06,Horizontal Scale,5.000E-06,
Horizontal Position,2.420E-05,Horizontal Position,2.420E-05,
Horizontal Mode,Main,Horizontal Mode,Main,
SincET Mode,Real Time,SincET Mode,Real Time,
Sampling Period,5.000e-09,Sampling Period,5.000e-09,
Horizontal Old Scale,5.000E-06,Horizontal Old Scale,5.000E-06,
Horizontal Old Position,2.420E-05,Horizontal Old Position,2.420E-05,
Firmware,V1.32,Firmware,V1.32,
Mode,Fast,Mode,Fast,
Waveform Data,,Waveform Data,,
2, ,-34, ,
1, ,-34, ,
1, ,-34, ,
2, ,-34, ,
2, ,-34, ,
2, ,-34, ,
2, ,-34, ,
2, ,-34, ,
2, ,-34, ,
1, ,-34, ,
2, ,-34, ,
2, ,-34, ,
1, ,-34, ,
2, ,-34, ,
3, ,-34, ,
2, ,-34, ,
3, ,-34, ,
1, ,-34, ,
2, ,-34, ,
2, ,-34, ,
2, ,-34, ,
3, ,-34, ,
3, ,-34, ,
2, ,-34, ,
3, ,-34, ,
2, ,-34, ,
1, ,-34, ,
2, ,-34, ,
2, ,-34, ,
3, ,-34, ,
3, ,-34, ,
2, ,-34, ,
2, ,-34, ,
2, ,-34, ,
2, ,-34, ,
2, ,-34, ,
2, ,-34, ,
3, ,-34, ,
3, ,-34, ,
2, ,-34, ,
3, ,-34, ,
2, ,-34, ,
1, ,-34, ,
2, ,-33, ,
2, ,-34, ,
2, ,-34, ,
3, ,-34, ,
2, ,-34, ,
2, ,-34, ,
2, ,-34, ,
3, ,-34, ,
3, ,-34, ,
2, ,-34, ,
2, ,-34, ,
2, ,-34, ,
2, ,-34, ,
2, ,-34, ,
2, ,-34, ,
2, ,-34, ,
3, ,-34, ,
1, ,-34, ,
2, ,-34, ,
2, ,-34, ,
1, ,-34, ,
2, ,-34, ,
0, ,-34, ,
2, ,-34, ,
2, ,-34, ,
2, ,-34, ,
2, ,-34, ,
2, ,-34, ,
2, ,-34, ,
1, ,-34, ,
2, ,-34, ,
1, ,-34, ,
2, ,-33, ,
2, ,-34, ,
1, ,-34, ,
1, ,-34, ,
3, ,-34, ,
3, ,-34, ,
2, ,-34, ,
2, ,-34, ,
2, ,-34, ,
1, ,-34, ,
2, ,-34, ,
2, ,-34, ,
1, ,-34, ,
3, ,-34, ,
2, ,-34, ,
2, ,-34, ,
3, ,-34, ,
2, ,-34, ,
2, ,-34, ,
2, ,-34, ,
1, ,-34, ,
2, ,-34, ,
3, ,-34, ,
2, ,-34, ,
2, ,-34, ,
2, ,-34, ,
2, ,-34, ,
1, ,-34, ,
1, ,-34, ,
2, ,-34, ,
2, ,-34, ,
1, ,-34, ,
2, ,-34, ,
1, ,-34, ,
2, ,-34, ,
3, ,-34, ,
2, ,-34, ,
2, ,-34, ,
1, ,-34, ,
2, ,-34, ,
2, ,-34, ,
2, ,-34, ,
2, ,-34, ,
2, ,-34, ,
2, ,-34, ,
2, ,-34, ,
2, ,-34, ,
1, ,-34, ,
2, ,-34, ,
2, ,-34, ,
3, ,-34, ,
3, ,-34, ,
3, ,-34, ,
3, ,-34, ,
2, ,-34, ,
3, ,-34, ,
2, ,-34, ,
2, ,-34, ,
2, ,-34, ,
2, ,-34, ,
2, ,-34, ,
3, ,-33, ,
2, ,-33, ,
1, ,-34, ,
2, ,-34, ,
2, ,-34, ,
2, ,-34, ,
2, ,-34, ,
1, ,-34, ,
2, ,-34, ,
2, ,-34, ,
1, ,-34, ,
2, ,-34, ,
2, ,-34, ,
2, ,-34, ,
2, ,-34, ,
2, ,-34, ,
3, ,-34, ,
3, ,-34, ,
2, ,-34, ,
2, ,-34, ,
2, ,-34, ,
2, ,-34, ,
3, ,-34, ,
2, ,-34, ,
3, ,-34, ,
2, ,-34, ,
2, ,-34, ,
3, ,-34, ,
6, ,-34, ,
0, ,-34, ,
-1, ,-34, ,
1, ,-34, ,
29, ,-34, ,
85, ,-34, ,
125, ,-34, ,
125, ,-33, ,
125, ,-34, ,
121, ,-34, ,
16, ,-34, ,
-14, ,-34, ,
82, ,-34, ,
125, ,-34, ,
125, ,-34, ,
125, ,-34, ,
125, ,-34, ,
125, ,-34, ,
125, ,-34, ,
125, ,-34, ,
125, ,-34, ,
125, ,-34, ,
125, ,-34, ,
125, ,-34, ,
125, ,-34, ,
125, ,-34, ,
125, ,-34, ,
125, ,-34, ,
125, ,-34, ,
125, ,-34, ,
125, ,-34, ,
125, ,-34, ,
125, ,-34, ,
125, ,-34, ,
125, ,-34, ,
125, ,-34, ,
125, ,-34, ,
125, ,-34, ,
124, ,-34, ,
124, ,-34, ,
120, ,-34, ,
117, ,-34, ,
107, ,-34, ,
101, ,-34, ,
99, ,-34, ,
94, ,-34, ,
86, ,-34, ,
83, ,-34, ,
79, ,-34, ,
74, ,-34, ,
69, ,-34, ,
66, ,-34, ,
63, ,-34, ,
61, ,-34, ,
53, ,-34, ,
52, ,-34, ,
49, ,-34, ,
48, ,-34, ,
43, ,-34, ,
41, ,-34, ,
39, ,-34, ,
36, ,-34, ,
34, ,-34, ,
32, ,-34, ,
30, ,-34, ,
29, ,-34, ,
27, ,-34, ,
24, ,-34, ,
23, ,-34, ,
22, ,-34, ,
19, ,-34, ,
18, ,-34, ,
17, ,-34, ,
16, ,-34, ,
14, ,-34, ,
13, ,-34, ,
13, ,-34, ,
11, ,-34, ,
9, ,-34, ,
10, ,-34, ,
8, ,-34, ,
9, ,-34, ,
8, ,-34, ,
6, ,-34, ,
6, ,-34, ,
5, ,-34, ,
4, ,-34, ,
3, ,-34, ,
3, ,-33, ,
4, ,-34, ,
2, ,-34, ,
2, ,-34, ,
2, ,-34, ,
1, ,-34, ,
1, ,-34, ,
2, ,-34, ,
-1, ,-34, ,
0, ,-34, ,
0, ,-34, ,
-1, ,-34, ,
-1, ,-34, ,
-1, ,-34, ,
-2, ,-34, ,
-2, ,-34, ,
-2, ,-34, ,
-1, ,-34, ,
-1, ,-34, ,
-2, ,-34, ,
-1, ,-34, ,
-2, ,-34, ,
-2, ,-34, ,
-2, ,-34, ,
-3, ,-34, ,
-2, ,-34, ,
-3, ,-34, ,
-3, ,-34, ,
-2, ,-34, ,
-2, ,-34, ,
-3, ,-34, ,
-2, ,-34, ,
-3, ,-34, ,
-2, ,-34, ,
-1, ,-33, ,
-2, ,-34, ,
-2, ,-34, ,
-3, ,-33, ,
-2, ,-34, ,
-2, ,-34, ,
-2, ,-34, ,
-2, ,-34, ,
-1, ,-34, ,
-2, ,-34, ,
-1, ,-34, ,
-3, ,-34, ,
-2, ,-34, ,
-2, ,-34, ,
-2, ,-34, ,
-2, ,-34, ,
-2, ,-34, ,
-3, ,-34, ,
-2, ,-34, ,
-4, ,-34, ,
-1, ,-34, ,
-1, ,-34, ,
-1, ,-34, ,
-2, ,-34, ,
-1, ,-34, ,
-1, ,-34, ,
-2, ,-34, ,
-1, ,-34, ,
-1, ,-34, ,
-1, ,-34, ,
0, ,-34, ,
-1, ,-34, ,
0, ,-34, ,
0, ,-34, ,
-1, ,-34, ,
-1, ,-34, ,
-1, ,-34, ,
-1, ,-34, ,
-1, ,-34, ,
0, ,-34, ,
-1, ,-34, ,
-2, ,-34, ,
0, ,-34, ,
1, ,-34, ,
0, ,-34, ,
0, ,-34, ,
0, ,-34, ,
0, ,-34, ,
0, ,-34, ,
0, ,-34, ,
0, ,-34, ,
0, ,-34, ,
1, ,-34, ,
1, ,-34, ,
1, ,-34, ,
1, ,-34, ,
0, ,-34, ,
0, ,-34, ,
1, ,-34, ,
1, ,-34, ,
0, ,-34, ,
0, ,-34, ,
1, ,-34, ,
1, ,-34, ,
1, ,-34, ,
1, ,-34, ,
2, ,-34, ,
0, ,-34, ,
1, ,-34, ,
1, ,-34, ,
1, ,-34, ,
1, ,-34, ,
1, ,-34, ,
1, ,-34, ,
1, ,-34, ,
1, ,-34, ,
1, ,-34, ,
2, ,-34, ,
1, ,-34, ,
1, ,-34, ,
1, ,-34, ,
1, ,-34, ,
2, ,-34, ,
0, ,-34, ,
1, ,-34, ,
1, ,-34, ,
0, ,-34, ,
1, ,-34, ,
1, ,-34, ,
0, ,-34, ,
2, ,-34, ,
1, ,-34, ,
1, ,-34, ,
1, ,-34, ,
1, ,-34, ,
1, ,-34, ,
2, ,-34, ,
1, ,-34, ,
2, ,-34, ,
0, ,-34, ,
1, ,-34, ,
1, ,-34, ,
1, ,-34, ,
1, ,-34, ,
2, ,-34, ,
1, ,-34, ,
2, ,-34, ,
1, ,-34, ,
2, ,-34, ,
2, ,-34, ,
1, ,-34, ,
2, ,-34, ,
2, ,-34, ,
1, ,-34, ,
1, ,-34, ,
1, ,-34, ,
1, ,-34, ,
1, ,-34, ,
1, ,-34, ,
2, ,-34, ,
2, ,-34, ,
1, ,-34, ,
2, ,-34, ,
2, ,-34, ,
1, ,-34, ,
2, ,-34, ,
2, ,-34, ,
1, ,-34, ,
2, ,-34, ,
2, ,-34, ,
2, ,-34, ,
2, ,-34, ,
2, ,-34, ,
3, ,-34, ,
1, ,-34, ,
1, ,-34, ,
1, ,-34, ,
1, ,-34, ,
2, ,-34, ,
1, ,-34, ,
0, ,-34, ,
2, ,-34, ,
1, ,-34, ,
1, ,-34, ,
2, ,-34, ,
2, ,-34, ,
1, ,-34, ,
1, ,-34, ,
1, ,-34, ,
2, ,-34, ,
1, ,-34, ,
1, ,-34, ,
1, ,-34, ,
0, ,-34, ,
2, ,-34, ,
1, ,-34, ,
0, ,-34, ,
0, ,-34, ,
-1, ,-34, ,
0, ,-34, ,
0, ,-34, ,
0, ,-34, ,
0, ,-34, ,
0, ,-34, ,
0, ,-34, ,
0, ,-34, ,
0, ,-34, ,
1, ,-34, ,
1, ,-34, ,
1, ,-34, ,
2, ,-34, ,
1, ,-34, ,
1, ,-34, ,
2, ,-33, ,
1, ,-34, ,
1, ,-34, ,
1, ,-34, ,
1, ,-34, ,
1, ,-34, ,
0, ,-34, ,
1, ,-34, ,
2, ,-34, ,
1, ,-34, ,
2, ,-34, ,
1, ,-34, ,
2, ,-34, ,
2, ,-34, ,
1, ,-34, ,
2, ,-34, ,
2, ,-34, ,
2, ,-34, ,
2, ,-34, ,
2, ,-34, ,
0, ,-34, ,
0, ,-34, ,
0, ,-34, ,
0, ,-34, ,
0, ,-34, ,
0, ,-34, ,
0, ,-34, ,
0, ,-34, ,
0, ,-34, ,
0, ,-34, ,
0, ,-34, ,
0, ,-34, ,
3, ,-34, ,
2, ,-34, ,
2, ,-34, ,
2, ,-34, ,
2, ,-34, ,
2, ,-34, ,
0, ,-34, ,
1, ,-34, ,
1, ,-34, ,
0, ,-34, ,
0, ,-34, ,
0, ,-34, ,
0, ,-34, ,
0, ,-34, ,
0, ,-34, ,
0, ,-34, ,
1, ,-34, ,
1, ,-34, ,
1, ,-34, ,
1, ,-34, ,
0, ,-34, ,
1, ,-34, ,
0, ,-34, ,
0, ,-34, ,
1, ,-34, ,
-1, ,-34, ,
-1, ,-34, ,
-3, ,-34, ,
-4, ,-34, ,
-4, ,-34, ,
-5, ,-34, ,
-6, ,-34, ,
-6, ,-34, ,
-7, ,-34, ,
-7, ,-34, ,
-6, ,-34, ,
-7, ,-34, ,
-7, ,-34, ,
-7, ,-34, ,
-7, ,-34, ,
-7, ,-34, ,
-9, ,-34, ,
-8, ,-34, ,
-11, ,-34, ,
-13, ,-34, ,
-12, ,-34, ,
-15, ,-34, ,
-19, ,-34, ,
-20, ,-34, ,
-23, ,-34, ,
-23, ,-34, ,
-27, ,-34, ,
-28, ,-34, ,
-27, ,-34, ,
-30, ,-34, ,
-28, ,-34, ,
-28, ,-34, ,
-29, ,-34, ,
-28, ,-34, ,
-27, ,-34, ,
-27, ,-34, ,
-27, ,-34, ,
-28, ,-34, ,
-29, ,-34, ,
-30, ,-34, ,
-30, ,-34, ,
-32, ,-34, ,
-34, ,-34, ,
-34, ,-34, ,
-33, ,-34, ,
-32, ,-34, ,
-30, ,-34, ,
-29, ,-34, ,
-28, ,-34, ,
-25, ,-34, ,
-19, ,-34, ,
-17, ,-34, ,
-14, ,-34, ,
-12, ,-34, ,
-9, ,-34, ,
-7, ,-34, ,
-6, ,-34, ,
-6, ,-34, ,
-6, ,-34, ,
-8, ,-34, ,
-8, ,-34, ,
-9, ,-34, ,
-10, ,-34, ,
-10, ,-34, ,
-11, ,-34, ,
-9, ,-34, ,
-7, ,-34, ,
-8, ,-34, ,
-5, ,-34, ,
-4, ,-34, ,
-2, ,-34, ,
-1, ,-34, ,
-1, ,-34, ,
1, ,-34, ,
1, ,-34, ,
1, ,-34, ,
0, ,-34, ,
-1, ,-34, ,
-1, ,-34, ,
-2, ,-34, ,
-4, ,-34, ,
-4, ,-34, ,
-4, ,-34, ,
-6, ,-34, ,
-6, ,-34, ,
-7, ,-34, ,
-7, ,-34, ,
-7, ,-34, ,
-7, ,-34, ,
-7, ,-34, ,
-7, ,-34, ,
-7, ,-34, ,
-6, ,-34, ,
-9, ,-34, ,
-11, ,-34, ,
-13, ,-34, ,
-18, ,-34, ,
-18, ,-34, ,
-23, ,-34, ,
-25, ,-34, ,
-27, ,-34, ,
-29, ,-34, ,
-30, ,-34, ,
-30, ,-34, ,
-30, ,-34, ,
-30, ,-34, ,
-29, ,-34, ,
-27, ,-34, ,
-27, ,-34, ,
-27, ,-34, ,
-26, ,-34, ,
-26, ,-34, ,
-27, ,-34, ,
-28, ,-34, ,
-27, ,-34, ,
-27, ,-34, ,
-27, ,-34, ,
-27, ,-34, ,
-27, ,-34, ,
-27, ,-34, ,
-27, ,-34, ,
-27, ,-34, ,
-28, ,-34, ,
-28, ,-34, ,
-28, ,-34, ,
-29, ,-34, ,
-28, ,-34, ,
-28, ,-34, ,
-29, ,-34, ,
-29, ,-34, ,
-28, ,-34, ,
-29, ,-34, ,
-27, ,-34, ,
-28, ,-34, ,
-29, ,-34, ,
-29, ,-34, ,
-31, ,-34, ,
-31, ,-34, ,
-35, ,-34, ,
-35, ,-34, ,
-37, ,-34, ,
-39, ,-34, ,
-41, ,-34, ,
-41, ,-34, ,
-41, ,-34, ,
-39, ,-34, ,
-38, ,-34, ,
-38, ,-34, ,
-36, ,-34, ,
-37, ,-34, ,
-36, ,-34, ,
-36, ,-34, ,
-36, ,-33, ,
-37, ,-34, ,
-37, ,-34, ,
-40, ,-34, ,
-39, ,-34, ,
-42, ,-34, ,
-42, ,-34, ,
-41, ,-34, ,
-41, ,-34, ,
-41, ,-34, ,
-38, ,-34, ,
-38, ,-34, ,
-35, ,-34, ,
-35, ,-34, ,
-32, ,-34, ,
-30, ,-34, ,
-31, ,-34, ,
-28, ,-34, ,
-27, ,-34, ,
-25, ,-34, ,
-24, ,-34, ,
-23, ,-34, ,
-19, ,-34, ,
-18, ,-34, ,
-15, ,-34, ,
-13, ,-34, ,
-8, ,-34, ,
-6, ,-34, ,
-5, ,-34, ,
-3, ,-34, ,
-1, ,-34, ,
1, ,-34, ,
3, ,-34, ,
3, ,-34, ,
5, ,-34, ,
5, ,-34, ,
7, ,-34, ,
7, ,-34, ,
8, ,-34, ,
9, ,-34, ,
8, ,-34, ,
9, ,-34, ,
9, ,-34, ,
8, ,-34, ,
8, ,-34, ,
8, ,-34, ,
7, ,-34, ,
6, ,-34, ,
5, ,-34, ,
6, ,-34, ,
7, ,-34, ,
6, ,-34, ,
6, ,-34, ,
6, ,-34, ,
6, ,-34, ,
7, ,-34, ,
7, ,-34, ,
8, ,-34, ,
9, ,-34, ,
6, ,-34, ,
6, ,-34, ,
5, ,-34, ,
4, ,-34, ,
5, ,-34, ,
3, ,-34, ,
4, ,-34, ,
2, ,-34, ,
1, ,-34, ,
2, ,-34, ,
1, ,-34, ,
1, ,-34, ,
1, ,-34, ,
1, ,-34, ,
1, ,-34, ,
0, ,-34, ,
0, ,-34, ,
0, ,-34, ,
0, ,-34, ,
-3, ,-34, ,
-3, ,-34, ,
-4, ,-33, ,
-4, ,-34, ,
-5, ,-34, ,
-7, ,-34, ,
-6, ,-34, ,
-8, ,-34, ,
-10, ,-34, ,
-11, ,-33, ,
-12, ,-34, ,
-11, ,-34, ,
-13, ,-34, ,
-15, ,-34, ,
-17, ,-34, ,
-18, ,-34, ,
-19, ,-34, ,
-20, ,-34, ,
-20, ,-34, ,
-21, ,-34, ,
-24, ,-34, ,
-25, ,-34, ,
-25, ,-34, ,
-26, ,-34, ,
-28, ,-34, ,
-28, ,-34, ,
-30, ,-34, ,
-30, ,-34, ,
-31, ,-34, ,
-33, ,-34, ,
-33, ,-34, ,
-33, ,-34, ,
-34, ,-34, ,
-34, ,-34, ,
-33, ,-34, ,
-33, ,-34, ,
-33, ,-34, ,
-33, ,-34, ,
-33, ,-34, ,
-32, ,-34, ,
-31, ,-34, ,
-30, ,-34, ,
-31, ,-34, ,
-30, ,-34, ,
-30, ,-34, ,
-30, ,-34, ,
-29, ,-34, ,
-29, ,-34, ,
-29, ,-34, ,
-25, ,-34, ,
-25, ,-34, ,
-25, ,-34, ,
-22, ,-34, ,
-21, ,-34, ,
-18, ,-34, ,
-19, ,-34, ,
-15, ,-34, ,
-14, ,-34, ,
-15, ,-34, ,
-10, ,-34, ,
-10, ,-34, ,
-9, ,-34, ,
-7, ,-34, ,
-7, ,-34, ,
-4, ,-34, ,
-2, ,-34, ,
-1, ,-34, ,
1, ,-34, ,
4, ,-34, ,
5, ,-34, ,
7, ,-34, ,
8, ,-34, ,
10, ,-34, ,
11, ,-34, ,
11, ,-34, ,
11, ,-34, ,
11, ,-34, ,
10, ,-34, ,
12, ,-34, ,
11, ,-34, ,
12, ,-34, ,
11, ,-34, ,
11, ,-34, ,
11, ,-34, ,
11, ,-34, ,
11, ,-34, ,
9, ,-34, ,
9, ,-34, ,
8, ,-34, ,
7, ,-34, ,
6, ,-34, ,
6, ,-34, ,
5, ,-34, ,
5, ,-34, ,
5, ,-34, ,
4, ,-34, ,
3, ,-34, ,
4, ,-34, ,
2, ,-34, ,
2, ,-34, ,
2, ,-34, ,
1, ,-34, ,
2, ,-34, ,
0, ,-34, ,
-1, ,-34, ,
-3, ,-34, ,
-4, ,-34, ,
-5, ,-34, ,
-6, ,-34, ,
-8, ,-34, ,
-8, ,-34, ,
-10, ,-34, ,
-11, ,-34, ,
-12, ,-34, ,
-13, ,-34, ,
-13, ,-34, ,
-15, ,-34, ,
-16, ,-34, ,
-19, ,-34, ,
-20, ,-34, ,
-21, ,-34, ,
-21, ,-34, ,
-23, ,-34, ,
-24, ,-34, ,
-24, ,-34, ,
-25, ,-34, ,
-24, ,-34, ,
-26, ,-34, ,
-26, ,-34, ,
-26, ,-34, ,
-26, ,-34, ,
-25, ,-34, ,
-25, ,-34, ,
-25, ,-34, ,
-24, ,-34, ,
-25, ,-34, ,
-22, ,-34, ,
-22, ,-34, ,
-22, ,-34, ,
-21, ,-34, ,
-20, ,-34, ,
-20, ,-34, ,
-20, ,-34, ,
-19, ,-34, ,
-19, ,-34, ,
-17, ,-34, ,
-17, ,-34, ,
-17, ,-34, ,
-16, ,-34, ,
-18, ,-34, ,
-16, ,-34, ,
-16, ,-34, ,
-16, ,-34, ,
-16, ,-34, ,
-17, ,-34, ,
-16, ,-34, ,
-15, ,-34, ,
-17, ,-34, ,
-16, ,-34, ,
-17, ,-34, ,
-17, ,-34, ,
-16, ,-34, ,
-17, ,-34, ,
-16, ,-34, ,
-17, ,-34, ,
-17, ,-34, ,
-17, ,-34, ,
-17, ,-34, ,
-18, ,-34, ,
-19, ,-34, ,
-20, ,-34, ,
-20, ,-34, ,
-21, ,-34, ,
-21, ,-34, ,
-21, ,-34, ,
-21, ,-34, ,
-22, ,-34, ,
-22, ,-34, ,
-21, ,-34, ,
-21, ,-34, ,
-20, ,-34, ,
-20, ,-34, ,
-18, ,-34, ,
-19, ,-34, ,
-17, ,-34, ,
-16, ,-34, ,
-16, ,-34, ,
-15, ,-34, ,
-14, ,-34, ,
-13, ,-34, ,
-12, ,-34, ,
-13, ,-34, ,
-10, ,-34, ,
-9, ,-34, ,
-9, ,-34, ,
-7, ,-34, ,
-7, ,-34, ,
-8, ,-34, ,
-6, ,-34, ,
-7, ,-34, ,
-7, ,-34, ,
-7, ,-34, ,
-7, ,-34, ,
-7, ,-34, ,
-8, ,-34, ,
-9, ,-34, ,
-9, ,-34, ,
-10, ,-34, ,
-10, ,-34, ,
-10, ,-34, ,
-10, ,-34, ,
-9, ,-34, ,
-9, ,-34, ,
-9, ,-34, ,
-9, ,-34, ,
-9, ,-34, ,
-8, ,-34, ,
-7, ,-34, ,
-7, ,-34, ,
-7, ,-34, ,
-6, ,-34, ,
-6, ,-34, ,
-5, ,-34, ,
-5, ,-34, ,
-4, ,-34, ,
-4, ,-34, ,
-3, ,-34, ,
-3, ,-34, ,
-2, ,-34, ,
-1, ,-34, ,
-1, ,-34, ,
-2, ,-34, ,
-1, ,-34, ,
-1, ,-34, ,
-2, ,-34, ,
-1, ,-34, ,
-2, ,-34, ,
-3, ,-34, ,
-3, ,-34, ,
-3, ,-34, ,
-4, ,-34, ,
-3, ,-34, ,
-4, ,-34, ,
-3, ,-34, ,
-3, ,-34, ,
-3, ,-34, ,
-3, ,-34, ,
-4, ,-34, ,
-3, ,-34, ,
-3, ,-34, ,
-4, ,-34, ,
-4, ,-34, ,
-3, ,-34, ,
-4, ,-34, ,
-3, ,-34, ,
-4, ,-34, ,
-3, ,-34, ,
-2, ,-34, ,
-3, ,-34, ,
-3, ,-34, ,
-4, ,-34, ,
-5, ,-34, ,
-5, ,-34, ,
-6, ,-34, ,
-7, ,-34, ,
-6, ,-34, ,
-8, ,-34, ,
-9, ,-34, ,
-9, ,-34, ,
-10, ,-34, ,
-9, ,-34, ,
-10, ,-34, ,
-11, ,-34, ,
-10, ,-34, ,
-10, ,-34, ,
-10, ,-34, ,
-10, ,-34, ,
-10, ,-34, ,
-10, ,-34, ,
-10, ,-34, ,
-9, ,-34, ,
-8, ,-34, ,
-9, ,-34, ,
-8, ,-34, ,
-6, ,-34, ,
-7, ,-34, ,
-5, ,-34, ,
-5, ,-34, ,
-5, ,-34, ,
-4, ,-34, ,
-3, ,-34, ,
-3, ,-34, ,
-3, ,-34, ,
-4, ,-34, ,
-3, ,-34, ,
-4, ,-34, ,
-3, ,-34, ,
-3, ,-34, ,
-5, ,-34, ,
-4, ,-34, ,
-4, ,-34, ,
-4, ,-34, ,
-4, ,-34, ,
-4, ,-34, ,
-3, ,-34, ,
-3, ,-34, ,
-3, ,-34, ,
-2, ,-34, ,
-2, ,-33, ,
-3, ,-34, ,
-3, ,-34, ,
-4, ,-34, ,
-1, ,-34, ,
-1, ,-34, ,
-2, ,-34, ,
-2, ,-34, ,
-1, ,-34, ,
0, ,-34, ,
0, ,-34, ,
0, ,-34, ,
0, ,-34, ,
0, ,-34, ,
0, ,-34, ,
0, ,-34, ,
0, ,-33, ,
-1, ,-34, ,
-1, ,-34, ,
-1, ,-34, ,
-2, ,-34, ,
-2, ,-34, ,
-3, ,-34, ,
-3, ,-34, ,
-3, ,-34, ,
-4, ,-34, ,
-5, ,-34, ,
-3, ,-34, ,
-5, ,-34, ,
-4, ,-33, ,
-5, ,-34, ,
-4, ,-34, ,
-4, ,-34, ,
-5, ,-34, ,
-3, ,-34, ,
-5, ,-33, ,
-5, ,-34, ,
-5, ,-34, ,
-5, ,-34, ,
-5, ,-34, ,
-4, ,-34, ,
-4, ,-34, ,
-4, ,-34, ,
-4, ,-34, ,
-4, ,-34, ,
-3, ,-34, ,
-3, ,-34, ,
-2, ,-34, ,
-1, ,-34, ,
-1, ,-34, ,
-1, ,-34, ,
-2, ,-34, ,
-1, ,-34, ,
-1, ,-34, ,
-1, ,-34, ,
-1, ,-34, ,
1, ,-34, ,
0, ,-34, ,
2, ,-34, ,
2, ,-34, ,
2, ,-34, ,
2, ,-34, ,
2, ,-34, ,
2, ,-34, ,
2, ,-34, ,
3, ,-34, ,
4, ,-34, ,
3, ,-34, ,
3, ,-34, ,
4, ,-34, ,
2, ,-34, ,
2, ,-34, ,
2, ,-34, ,
1, ,-34, ,
1, ,-34, ,
0, ,-34, ,
0, ,-34, ,
0, ,-34, ,
0, ,-34, ,
0, ,-34, ,
0, ,-34, ,
0, ,-34, ,
-1, ,-34, ,
-1, ,-34, ,
-1, ,-34, ,
-1, ,-34, ,
-2, ,-34, ,
0, ,-34, ,
0, ,-34, ,
0, ,-34, ,
0, ,-34, ,
0, ,-34, ,
1, ,-34, ,
1, ,-34, ,
1, ,-34, ,
1, ,-34, ,
2, ,-34, ,
1, ,-34, ,
3, ,-34, ,
1, ,-34, ,
2, ,-34, ,
3, ,-34, ,
3, ,-34, ,
2, ,-34, ,
4, ,-34, ,
3, ,-34, ,
4, ,-34, ,
3, ,-34, ,
3, ,-34, ,
3, ,-34, ,
3, ,-34, ,
2, ,-34, ,
3, ,-34, ,
2, ,-34, ,
2, ,-34, ,
1, ,-34, ,
1, ,-34, ,
0, ,-34, ,
-1, ,-34, ,
-1, ,-34, ,
-1, ,-33, ,
-2, ,-34, ,
-2, ,-34, ,
-3, ,-34, ,
-3, ,-34, ,
-3, ,-34, ,
-4, ,-34, ,
-4, ,-34, ,
-3, ,-34, ,
-4, ,-34, ,
-3, ,-34, ,
-4, ,-34, ,
-4, ,-34, ,
-2, ,-34, ,
-3, ,-34, ,
-2, ,-34, ,
-1, ,-34, ,
-2, ,-34, ,
1, ,-34, ,
1, ,-34, ,
3, ,-34, ,
5, ,-34, ,
4, ,-34, ,
6, ,-34, ,
8, ,-34, ,
8, ,-34, ,
9, ,-34, ,
10, ,-34, ,
11, ,-34, ,
11, ,-34, ,
11, ,-34, ,
13, ,-34, ,
13, ,-34, ,
11, ,-34, ,
11, ,-34, ,
10, ,-34, ,
10, ,-34, ,
10, ,-34, ,
8, ,-34, ,
9, ,-34, ,
8, ,-34, ,
6, ,-34, ,
7, ,-34, ,
4, ,-34, ,
3, ,-34, ,
3, ,-34, ,
1, ,-34, ,
1, ,-34, ,
-1, ,-34, ,
-2, ,-34, ,
-1, ,-34, ,
-2, ,-34, ,
-3, ,-34, ,
-3, ,-34, ,
-3, ,-33, ,
-3, ,-34, ,
-3, ,-34, ,
-4, ,-34, ,
-4, ,-34, ,
-4, ,-34, ,
-3, ,-34, ,
-3, ,-34, ,
-4, ,-34, ,
-4, ,-34, ,
-4, ,-34, ,
-5, ,-34, ,
-5, ,-34, ,
-5, ,-34, ,
-5, ,-34, ,
-5, ,-34, ,
-6, ,-34, ,
-6, ,-34, ,
-5, ,-34, ,
-6, ,-34, ,
-6, ,-34, ,
-7, ,-33, ,
-7, ,-34, ,
-5, ,-34, ,
-6, ,-34, ,
-7, ,-34, ,
-7, ,-34, ,
-8, ,-34, ,
-7, ,-34, ,
-7, ,-34, ,
-8, ,-34, ,
-7, ,-34, ,
-8, ,-34, ,
-7, ,-34, ,
-7, ,-34, ,
-7, ,-34, ,
-7, ,-34, ,
-8, ,-34, ,
-7, ,-34, ,
-6, ,-34, ,
-7, ,-34, ,
-7, ,-34, ,
-7, ,-34, ,
-7, ,-34, ,
-6, ,-34, ,
-7, ,-34, ,
-7, ,-34, ,
-7, ,-34, ,
-8, ,-34, ,
-8, ,-34, ,
-7, ,-34, ,
-7, ,-34, ,
-6, ,-34, ,
-7, ,-34, ,
-7, ,-34, ,
-6, ,-34, ,
-6, ,-34, ,
-6, ,-34, ,
-6, ,-34, ,
-7, ,-34, ,
-6, ,-34, ,
-7, ,-34, ,
-5, ,-34, ,
-5, ,-34, ,
-5, ,-34, ,
-5, ,-34, ,
-4, ,-34, ,
-5, ,-34, ,
-4, ,-34, ,
-5, ,-34, ,
-4, ,-34, ,
-4, ,-34, ,
-4, ,-34, ,
-4, ,-34, ,
-4, ,-34, ,
-4, ,-34, ,
-4, ,-34, ,
-4, ,-34, ,
-5, ,-34, ,
-4, ,-34, ,
-3, ,-34, ,
-3, ,-34, ,
-3, ,-34, ,
-3, ,-34, ,
-2, ,-34, ,
-3, ,-34, ,
-2, ,-34, ,
-2, ,-34, ,
-2, ,-34, ,
-2, ,-34, ,
-3, ,-34, ,
-3, ,-34, ,
-3, ,-34, ,
-2, ,-34, ,
-3, ,-34, ,
-3, ,-34, ,
-2, ,-34, ,
-2, ,-34, ,
-3, ,-34, ,
-2, ,-34, ,
-2, ,-34, ,
-2, ,-34, ,
-2, ,-34, ,
-1, ,-34, ,
-2, ,-34, ,
-1, ,-34, ,
0, ,-34, ,
-1, ,-34, ,
0, ,-34, ,
-1, ,-34, ,
0, ,-34, ,
0, ,-33, ,
0, ,-34, ,
0, ,-34, ,
0, ,-34, ,
0, ,-34, ,
0, ,-34, ,
0, ,-34, ,
-1, ,-34, ,
-1, ,-34, ,
-1, ,-34, ,
0, ,-34, ,
0, ,-34, ,
0, ,-34, ,
0, ,-34, ,
0, ,-34, ,
0, ,-34, ,
0, ,-34, ,
0, ,-34, ,
0, ,-34, ,
0, ,-34, ,
-1, ,-34, ,
-1, ,-34, ,
-3, ,-34, ,
-2, ,-34, ,
-1, ,-34, ,
-2, ,-33, ,
-2, ,-34, ,
-1, ,-34, ,
-2, ,-34, ,
-2, ,-34, ,
-2, ,-34, ,
-2, ,-34, ,
-1, ,-34, ,
-2, ,-34, ,
-1, ,-34, ,
-1, ,-34, ,
-2, ,-34, ,
-1, ,-34, ,
-1, ,-34, ,
0, ,-34, ,
-1, ,-34, ,
-2, ,-34, ,
0, ,-34, ,
0, ,-34, ,
-1, ,-34, ,
-1, ,-33, ,
-1, ,-34, ,
-2, ,-34, ,
0, ,-34, ,
-1, ,-34, ,
-1, ,-34, ,
-1, ,-34, ,
-2, ,-34, ,
-2, ,-34, ,
-2, ,-34, ,
-2, ,-34, ,
-1, ,-34, ,
-3, ,-34, ,
-1, ,-34, ,
-2, ,-34, ,
-4, ,-34, ,
-2, ,-34, ,
-4, ,-34, ,
-3, ,-34, ,
-3, ,-34, ,
-4, ,-34, ,
-3, ,-34, ,
-4, ,-34, ,
-4, ,-34, ,
-3, ,-34, ,
-3, ,-34, ,
-3, ,-34, ,
-3, ,-34, ,
-2, ,-34, ,
-2, ,-34, ,
-1, ,-34, ,
-1, ,-34, ,
-1, ,-34, ,
0, ,-34, ,
-1, ,-34, ,
1, ,-34, ,
1, ,-34, ,
2, ,-34, ,
3, ,-34, ,
2, ,-34, ,
3, ,-34, ,
3, ,-34, ,
4, ,-34, ,
4, ,-34, ,
4, ,-34, ,
4, ,-34, ,
4, ,-34, ,
4, ,-34, ,
4, ,-34, ,
3, ,-34, ,
3, ,-34, ,
3, ,-34, ,
4, ,-34, ,
2, ,-34, ,
2, ,-34, ,
1, ,-34, ,
1, ,-34, ,
1, ,-34, ,
1, ,-34, ,
0, ,-34, ,
0, ,-34, ,
-1, ,-34, ,
-1, ,-34, ,
-2, ,-34, ,
-2, ,-34, ,
-2, ,-34, ,
-2, ,-34, ,
-2, ,-34, ,
-3, ,-34, ,
-3, ,-34, ,
-2, ,-34, ,
-3, ,-34, ,
-3, ,-34, ,
-4, ,-33, ,
-2, ,-34, ,
-2, ,-34, ,
-2, ,-34, ,
-2, ,-34, ,
-2, ,-34, ,
-3, ,-34, ,
-1, ,-34, ,
-1, ,-34, ,
-2, ,-34, ,
0, ,-34, ,
0, ,-34, ,
0, ,-34, ,
1, ,-34, ,
1, ,-34, ,
1, ,-34, ,
0, ,-34, ,
1, ,-34, ,
1, ,-34, ,
0, ,-34, ,
2, ,-34, ,
2, ,-34, ,
1, ,-34, ,
2, ,-34, ,
1, ,-34, ,
3, ,-34, ,
3, ,-34, ,
2, ,-34, ,
3, ,-34, ,
3, ,-34, ,
2, ,-34, ,
2, ,-34, ,
2, ,-34, ,
2, ,-34, ,
2, ,-34, ,
2, ,-34, ,
2, ,-34, ,
2, ,-34, ,
1, ,-34, ,
2, ,-34, ,
1, ,-34, ,
0, ,-34, ,
2, ,-34, ,
1, ,-34, ,
2, ,-34, ,
2, ,-34, ,
1, ,-34, ,
1, ,-34, ,
-1, ,-34, ,
1, ,-34, ,
2, ,-34, ,
1, ,-34, ,
1, ,-34, ,
0, ,-34, ,
0, ,-34, ,
0, ,-34, ,
0, ,-34, ,
0, ,-34, ,
0, ,-34, ,
0, ,-34, ,
0, ,-34, ,
0, ,-34, ,
0, ,-34, ,
0, ,-34, ,
-1, ,-34, ,
-2, ,-34, ,
0, ,-34, ,
-1, ,-34, ,
0, ,-34, ,
0, ,-34, ,
0, ,-34, ,
1, ,-34, ,
-1, ,-34, ,
-1, ,-34, ,
-1, ,-34, ,
-1, ,-34, ,
0, ,-34, ,
0, ,-34, ,
0, ,-34, ,
1, ,-34, ,
0, ,-34, ,
0, ,-34, ,
1, ,-34, ,
0, ,-34, ,
0, ,-34, ,
2, ,-34, ,
1, ,-34, ,
2, ,-34, ,
1, ,-34, ,
1, ,-34, ,
2, ,-34, ,
1, ,-34, ,
2, ,-34, ,
3, ,-34, ,
3, ,-34, ,
3, ,-34, ,
2, ,-34, ,
3, ,-34, ,
3, ,-34, ,
3, ,-34, ,
3, ,-34, ,
4, ,-34, ,
3, ,-34, ,
3, ,-34, ,
4, ,-34, ,
3, ,-34, ,
5, ,-34, ,
4, ,-34, ,
4, ,-34, ,
4, ,-34, ,
4, ,-34, ,
4, ,-34, ,
3, ,-34, ,
4, ,-34, ,
4, ,-34, ,
4, ,-34, ,
4, ,-34, ,
5, ,-34, ,
4, ,-34, ,
5, ,-34, ,
4, ,-34, ,
3, ,-34, ,
5, ,-34, ,
4, ,-34, ,
4, ,-34, ,
3, ,-34, ,
3, ,-34, ,
3, ,-34, ,
3, ,-34, ,
2, ,-34, ,
2, ,-34, ,
2, ,-34, ,
2, ,-34, ,
2, ,-34, ,
-1, ,-34, ,
2, ,-34, ,
1, ,-34, ,
0, ,-34, ,
1, ,-34, ,
0, ,-34, ,
1, ,-34, ,
0, ,-34, ,
0, ,-34, ,
0, ,-34, ,
-1, ,-34, ,
-1, ,-34, ,
0, ,-34, ,
-1, ,-34, ,
1, ,-34, ,
0, ,-34, ,
0, ,-34, ,
0, ,-34, ,
0, ,-34, ,
0, ,-34, ,
0, ,-34, ,
0, ,-34, ,
0, ,-34, ,
