raw_data/100% Glycerol, Impulsion 2Hz, Sonde 5MHz, Rampe 0.7Hz/temp0000300.CSV

Format,1.0B,
Memory Length,10000,Memory Length,10000,
IntpDistance,0,IntpDistance,0,
Trigger Address,159,Trigger Address,159,
Trigger Level,2.720E-01,Trigger Level,2.720E-01,
Source,CH1,Source,CH2,
Vertical Units,V,Vertical Units,V,
Vertical Units Div,0,Vertical Units Div,0,
Vertical Units Extend Div,16,Vertical Units Extend Div,16,
Label,,Label,,
Probe Type,0,Probe Type,0,
Probe Ratio,1.000e+00,Probe Ratio,1.000e+00,
Vertical Scale,2.000e-01,Vertical Scale,2.000e+00,
Vertical Position,0.000e+00,Vertical Position,0.000e+00,
Horizontal Units,S,Horizontal Units,S,
Horizontal Scale,5.000E-06,Horizontal Scale,5.000E-06,
Horizontal Position,2.420E-05,Horizontal Position,2.420E-05,
Horizontal Mode,Main,Horizontal Mode,Main,
SincET Mode,Real Time,SincET Mode,Real Time,
Sampling Period,5.000e-09,Sampling Period,5.000e-09,
Horizontal Old Scale,5.000E-06,Horizontal Old Scale,5.000E-06,
Horizontal Old Position,2.420E-05,Horizontal Old Position,2.420E-05,
Firmware,V1.32,Firmware,V1.32,
Mode,Fast,Mode,Fast,
Waveform Data,,Waveform Data,,
2, ,36, ,
1, ,36, ,
2, ,36, ,
2, ,36, ,
1, ,36, ,
2, ,36, ,
2, ,36, ,
1, ,35, ,
2, ,35, ,
2, ,35, ,
2, ,36, ,
2, ,36, ,
2, ,36, ,
2, ,36, ,
1, ,36, ,
1, ,36, ,
2, ,36, ,
2, ,36, ,
2, ,36, ,
2, ,36, ,
1, ,36, ,
1, ,36, ,
1, ,36, ,
1, ,36, ,
1, ,36, ,
1, ,36, ,
1, ,35, ,
1, ,35, ,
2, ,36, ,
2, ,36, ,
2, ,36, ,
1, ,36, ,
1, ,36, ,
1, ,36, ,
1, ,36, ,
1, ,36, ,
1, ,36, ,
1, ,36, ,
2, ,36, ,
2, ,36, ,
2, ,36, ,
1, ,36, ,
1, ,36, ,
2, ,36, ,
1, ,36, ,
2, ,35, ,
1, ,35, ,
1, ,35, ,
2, ,36, ,
1, ,36, ,
2, ,36, ,
2, ,36, ,
1, ,36, ,
1, ,36, ,
0, ,36, ,
2, ,36, ,
2, ,36, ,
1, ,36, ,
2, ,36, ,
2, ,36, ,
1, ,36, ,
1, ,36, ,
1, ,36, ,
1, ,36, ,
2, ,36, ,
1, ,36, ,
1, ,36, ,
2, ,36, ,
0, ,36, ,
2, ,36, ,
1, ,36, ,
2, ,36, ,
2, ,36, ,
1, ,36, ,
2, ,35, ,
1, ,35, ,
2, ,36, ,
2, ,36, ,
0, ,36, ,
2, ,36, ,
2, ,36, ,
1, ,36, ,
1, ,36, ,
2, ,35, ,
1, ,35, ,
1, ,35, ,
1, ,36, ,
0, ,36, ,
1, ,36, ,
1, ,36, ,
1, ,36, ,
1, ,36, ,
1, ,36, ,
2, ,35, ,
2, ,35, ,
2, ,36, ,
2, ,36, ,
1, ,36, ,
3, ,36, ,
2, ,36, ,
1, ,36, ,
2, ,36, ,
1, ,36, ,
1, ,35, ,
1, ,35, ,
2, ,36, ,
3, ,36, ,
2, ,36, ,
2, ,36, ,
2, ,36, ,
1, ,36, ,
1, ,36, ,
1, ,35, ,
1, ,35, ,
1, ,35, ,
2, ,36, ,
1, ,36, ,
2, ,36, ,
2, ,36, ,
2, ,36, ,
1, ,36, ,
1, ,36, ,
1, ,36, ,
2, ,36, ,
1, ,36, ,
1, ,36, ,
1, ,36, ,
2, ,36, ,
1, ,36, ,
1, ,36, ,
1, ,36, ,
1, ,36, ,
1, ,36, ,
2, ,36, ,
1, ,36, ,
1, ,36, ,
2, ,36, ,
2, ,36, ,
1, ,36, ,
1, ,36, ,
1, ,36, ,
1, ,35, ,
1, ,35, ,
1, ,36, ,
2, ,36, ,
1, ,36, ,
3, ,36, ,
3, ,36, ,
2, ,36, ,
3, ,36, ,
1, ,36, ,
1, ,36, ,
2, ,36, ,
2, ,36, ,
1, ,36, ,
2, ,36, ,
2, ,36, ,
1, ,36, ,
1, ,36, ,
1, ,36, ,
3, ,36, ,
1, ,36, ,
1, ,36, ,
7, ,36, ,
-2, ,36, ,
3, ,36, ,
-1, ,36, ,
35, ,36, ,
101, ,36, ,
125, ,36, ,
125, ,35, ,
125, ,35, ,
120, ,36, ,
116, ,36, ,
-1, ,36, ,
107, ,36, ,
125, ,36, ,
125, ,36, ,
125, ,36, ,
125, ,36, ,
125, ,36, ,
125, ,36, ,
125, ,36, ,
125, ,36, ,
125, ,36, ,
125, ,36, ,
125, ,36, ,
125, ,36, ,
125, ,36, ,
125, ,36, ,
125, ,36, ,
125, ,36, ,
125, ,36, ,
125, ,36, ,
125, ,36, ,
125, ,36, ,
125, ,36, ,
125, ,36, ,
125, ,36, ,
125, ,36, ,
125, ,36, ,
125, ,36, ,
124, ,35, ,
120, ,35, ,
115, ,35, ,
110, ,35, ,
105, ,36, ,
98, ,36, ,
94, ,36, ,
89, ,36, ,
85, ,36, ,
78, ,36, ,
73, ,36, ,
70, ,36, ,
68, ,36, ,
59, ,36, ,
58, ,36, ,
55, ,36, ,
53, ,36, ,
49, ,36, ,
48, ,36, ,
45, ,36, ,
41, ,36, ,
38, ,36, ,
36, ,35, ,
35, ,35, ,
33, ,35, ,
30, ,36, ,
27, ,36, ,
28, ,36, ,
25, ,36, ,
22, ,36, ,
22, ,36, ,
21, ,36, ,
19, ,36, ,
16, ,36, ,
15, ,36, ,
15, ,36, ,
14, ,36, ,
11, ,36, ,
11, ,36, ,
9, ,36, ,
10, ,36, ,
8, ,36, ,
7, ,36, ,
7, ,36, ,
6, ,36, ,
5, ,36, ,
5, ,36, ,
4, ,36, ,
4, ,36, ,
3, ,36, ,
3, ,36, ,
2, ,36, ,
2, ,36, ,
1, ,36, ,
1, ,36, ,
0, ,36, ,
0, ,36, ,
0, ,36, ,
-2, ,36, ,
0, ,36, ,
-1, ,36, ,
-2, ,36, ,
-1, ,36, ,
-2, ,36, ,
-1, ,36, ,
-1, ,36, ,
-2, ,36, ,
-1, ,36, ,
-2, ,36, ,
-2, ,36, ,
-1, ,36, ,
-3, ,36, ,
-2, ,36, ,
-3, ,36, ,
-3, ,36, ,
-3, ,36, ,
-3, ,36, ,
-4, ,36, ,
-3, ,36, ,
-4, ,36, ,
-3, ,36, ,
-3, ,36, ,
-4, ,36, ,
-3, ,36, ,
-4, ,36, ,
-4, ,36, ,
-3, ,36, ,
-5, ,35, ,
-2, ,35, ,
-2, ,36, ,
-2, ,36, ,
-2, ,36, ,
-2, ,36, ,
-2, ,35, ,
-2, ,35, ,
-2, ,36, ,
-2, ,36, ,
-2, ,36, ,
-2, ,36, ,
-1, ,36, ,
-2, ,36, ,
-2, ,36, ,
-2, ,36, ,
-2, ,36, ,
-2, ,36, ,
-2, ,36, ,
-2, ,36, ,
-1, ,36, ,
-1, ,36, ,
-2, ,36, ,
-2, ,36, ,
-2, ,36, ,
-2, ,36, ,
-2, ,36, ,
-2, ,36, ,
-1, ,35, ,
-2, ,35, ,
-2, ,36, ,
-2, ,36, ,
-1, ,36, ,
0, ,36, ,
-1, ,36, ,
-1, ,36, ,
-1, ,36, ,
-1, ,36, ,
-2, ,36, ,
-1, ,36, ,
-1, ,36, ,
-1, ,36, ,
0, ,36, ,
0, ,36, ,
0, ,35, ,
0, ,35, ,
0, ,36, ,
0, ,36, ,
0, ,36, ,
1, ,36, ,
0, ,36, ,
0, ,36, ,
0, ,36, ,
0, ,36, ,
0, ,36, ,
-1, ,36, ,
0, ,36, ,
0, ,36, ,
0, ,36, ,
0, ,36, ,
0, ,36, ,
0, ,36, ,
1, ,36, ,
1, ,36, ,
0, ,36, ,
0, ,36, ,
0, ,35, ,
0, ,35, ,
1, ,35, ,
1, ,36, ,
0, ,36, ,
1, ,36, ,
1, ,36, ,
2, ,36, ,
1, ,36, ,
0, ,36, ,
0, ,36, ,
0, ,36, ,
0, ,36, ,
0, ,36, ,
0, ,36, ,
1, ,36, ,
1, ,36, ,
0, ,36, ,
1, ,36, ,
0, ,36, ,
0, ,36, ,
2, ,36, ,
1, ,36, ,
1, ,36, ,
1, ,36, ,
1, ,36, ,
2, ,36, ,
1, ,36, ,
1, ,36, ,
1, ,36, ,
0, ,36, ,
1, ,36, ,
1, ,36, ,
1, ,36, ,
2, ,36, ,
1, ,36, ,
0, ,35, ,
2, ,35, ,
1, ,35, ,
1, ,36, ,
1, ,36, ,
1, ,36, ,
2, ,36, ,
1, ,36, ,
0, ,36, ,
2, ,36, ,
1, ,36, ,
2, ,36, ,
2, ,36, ,
1, ,36, ,
1, ,36, ,
1, ,36, ,
1, ,36, ,
2, ,36, ,
2, ,36, ,
1, ,36, ,
1, ,36, ,
1, ,36, ,
1, ,36, ,
1, ,36, ,
1, ,36, ,
2, ,36, ,
1, ,36, ,
2, ,36, ,
2, ,35, ,
1, ,35, ,
1, ,35, ,
1, ,35, ,
0, ,36, ,
1, ,36, ,
1, ,36, ,
1, ,36, ,
1, ,36, ,
0, ,36, ,
2, ,36, ,
1, ,36, ,
0, ,36, ,
1, ,36, ,
0, ,36, ,
1, ,36, ,
1, ,36, ,
1, ,35, ,
2, ,35, ,
0, ,35, ,
0, ,36, ,
0, ,36, ,
-1, ,36, ,
-1, ,36, ,
0, ,36, ,
-1, ,36, ,
-1, ,36, ,
-2, ,36, ,
-1, ,36, ,
0, ,36, ,
0, ,36, ,
1, ,36, ,
2, ,36, ,
1, ,36, ,
2, ,36, ,
1, ,36, ,
2, ,35, ,
1, ,35, ,
1, ,35, ,
2, ,36, ,
1, ,36, ,
1, ,36, ,
1, ,36, ,
1, ,36, ,
0, ,36, ,
1, ,36, ,
1, ,36, ,
1, ,36, ,
1, ,36, ,
1, ,36, ,
1, ,36, ,
1, ,36, ,
1, ,36, ,
2, ,36, ,
2, ,36, ,
2, ,36, ,
2, ,36, ,
2, ,36, ,
2, ,36, ,
1, ,36, ,
0, ,36, ,
1, ,36, ,
-1, ,36, ,
0, ,36, ,
0, ,36, ,
0, ,36, ,
0, ,36, ,
-1, ,36, ,
0, ,36, ,
1, ,36, ,
2, ,36, ,
2, ,36, ,
2, ,36, ,
2, ,36, ,
2, ,36, ,
1, ,35, ,
2, ,35, ,
1, ,36, ,
0, ,36, ,
1, ,36, ,
2, ,36, ,
-1, ,36, ,
0, ,36, ,
0, ,36, ,
0, ,36, ,
1, ,36, ,
0, ,36, ,
0, ,36, ,
1, ,36, ,
1, ,36, ,
1, ,36, ,
0, ,36, ,
0, ,36, ,
0, ,36, ,
-1, ,36, ,
0, ,36, ,
0, ,36, ,
-3, ,36, ,
-3, ,36, ,
-4, ,36, ,
-7, ,35, ,
-6, ,35, ,
-8, ,36, ,
-8, ,36, ,
-7, ,35, ,
-8, ,35, ,
-7, ,35, ,
-8, ,36, ,
-6, ,36, ,
-6, ,36, ,
-8, ,36, ,
-8, ,36, ,
-10, ,35, ,
-10, ,35, ,
-11, ,35, ,
-11, ,36, ,
-14, ,36, ,
-17, ,36, ,
-19, ,36, ,
-19, ,36, ,
-25, ,36, ,
-25, ,36, ,
-26, ,36, ,
-28, ,36, ,
-30, ,36, ,
-30, ,36, ,
-30, ,36, ,
-29, ,36, ,
-27, ,35, ,
-29, ,35, ,
-26, ,35, ,
-26, ,36, ,
-27, ,36, ,
-27, ,36, ,
-28, ,36, ,
-28, ,36, ,
-31, ,36, ,
-31, ,36, ,
-31, ,36, ,
-33, ,36, ,
-33, ,36, ,
-33, ,36, ,
-32, ,36, ,
-30, ,36, ,
-26, ,36, ,
-25, ,36, ,
-22, ,36, ,
-20, ,36, ,
-15, ,36, ,
-12, ,36, ,
-11, ,36, ,
-10, ,36, ,
-6, ,36, ,
-7, ,36, ,
-6, ,36, ,
-7, ,36, ,
-8, ,36, ,
-10, ,36, ,
-11, ,36, ,
-10, ,36, ,
-7, ,36, ,
-8, ,36, ,
-6, ,36, ,
-7, ,36, ,
-5, ,36, ,
-2, ,36, ,
0, ,36, ,
1, ,36, ,
2, ,36, ,
2, ,36, ,
2, ,36, ,
2, ,36, ,
0, ,36, ,
0, ,36, ,
-3, ,36, ,
-3, ,36, ,
-6, ,36, ,
-9, ,36, ,
-9, ,36, ,
-11, ,36, ,
-12, ,35, ,
-12, ,35, ,
-12, ,35, ,
-12, ,36, ,
-11, ,36, ,
-9, ,36, ,
-9, ,36, ,
-9, ,36, ,
-9, ,36, ,
-9, ,36, ,
-10, ,36, ,
-10, ,36, ,
-13, ,36, ,
-16, ,36, ,
-16, ,36, ,
-18, ,36, ,
-22, ,36, ,
-22, ,36, ,
-23, ,36, ,
-24, ,36, ,
-23, ,36, ,
-23, ,36, ,
-22, ,36, ,
-24, ,36, ,
-24, ,36, ,
-23, ,36, ,
-25, ,36, ,
-25, ,36, ,
-28, ,36, ,
-30, ,36, ,
-30, ,36, ,
-32, ,36, ,
-34, ,35, ,
-34, ,35, ,
-35, ,35, ,
-35, ,36, ,
-35, ,36, ,
-35, ,36, ,
-35, ,36, ,
-36, ,36, ,
-36, ,36, ,
-36, ,36, ,
-36, ,36, ,
-35, ,36, ,
-35, ,36, ,
-35, ,36, ,
-34, ,36, ,
-33, ,36, ,
-32, ,36, ,
-32, ,36, ,
-32, ,36, ,
-32, ,36, ,
-33, ,36, ,
-33, ,36, ,
-34, ,36, ,
-35, ,36, ,
-36, ,36, ,
-36, ,36, ,
-37, ,36, ,
-37, ,36, ,
-35, ,36, ,
-35, ,36, ,
-34, ,36, ,
-33, ,36, ,
-32, ,36, ,
-30, ,36, ,
-29, ,36, ,
-27, ,36, ,
-28, ,36, ,
-28, ,36, ,
-28, ,36, ,
-29, ,36, ,
-31, ,36, ,
-30, ,36, ,
-32, ,36, ,
-31, ,36, ,
-31, ,36, ,
-30, ,36, ,
-30, ,36, ,
-29, ,36, ,
-26, ,36, ,
-23, ,36, ,
-22, ,36, ,
-22, ,36, ,
-20, ,36, ,
-20, ,36, ,
-20, ,36, ,
-20, ,36, ,
-19, ,36, ,
-20, ,35, ,
-20, ,35, ,
-20, ,35, ,
-17, ,36, ,
-17, ,36, ,
-15, ,36, ,
-15, ,36, ,
-14, ,36, ,
-13, ,36, ,
-14, ,36, ,
-12, ,36, ,
-11, ,36, ,
-11, ,36, ,
-10, ,36, ,
-10, ,36, ,
-9, ,36, ,
-7, ,36, ,
-7, ,36, ,
-6, ,36, ,
-3, ,36, ,
-3, ,36, ,
-3, ,36, ,
-2, ,36, ,
-2, ,36, ,
-1, ,36, ,
-1, ,36, ,
0, ,36, ,
1, ,36, ,
1, ,36, ,
2, ,36, ,
2, ,36, ,
5, ,36, ,
6, ,36, ,
5, ,36, ,
7, ,36, ,
10, ,36, ,
9, ,36, ,
10, ,36, ,
10, ,36, ,
11, ,36, ,
11, ,36, ,
10, ,36, ,
10, ,36, ,
9, ,36, ,
8, ,36, ,
9, ,36, ,
7, ,36, ,
6, ,36, ,
7, ,36, ,
5, ,36, ,
5, ,36, ,
4, ,36, ,
1, ,36, ,
2, ,36, ,
-1, ,36, ,
-2, ,36, ,
-3, ,36, ,
-5, ,36, ,
-5, ,35, ,
-8, ,35, ,
-10, ,36, ,
-10, ,36, ,
-12, ,36, ,
-14, ,36, ,
-15, ,36, ,
-16, ,36, ,
-18, ,36, ,
-19, ,36, ,
-20, ,36, ,
-20, ,36, ,
-21, ,36, ,
-22, ,36, ,
-21, ,36, ,
-23, ,36, ,
-22, ,36, ,
-22, ,36, ,
-23, ,36, ,
-23, ,36, ,
-23, ,36, ,
-23, ,36, ,
-22, ,36, ,
-23, ,36, ,
-23, ,36, ,
-23, ,36, ,
-25, ,36, ,
-25, ,36, ,
-26, ,36, ,
-28, ,36, ,
-28, ,36, ,
-29, ,36, ,
-30, ,36, ,
-30, ,36, ,
-31, ,36, ,
-30, ,36, ,
-30, ,36, ,
-31, ,36, ,
-31, ,36, ,
-31, ,36, ,
-31, ,36, ,
-30, ,36, ,
-32, ,36, ,
-30, ,36, ,
-30, ,36, ,
-30, ,36, ,
-30, ,36, ,
-29, ,36, ,
-26, ,36, ,
-25, ,36, ,
-24, ,36, ,
-22, ,36, ,
-22, ,36, ,
-17, ,36, ,
-15, ,36, ,
-14, ,36, ,
-12, ,36, ,
-10, ,35, ,
-11, ,35, ,
-9, ,35, ,
-8, ,36, ,
-7, ,36, ,
-4, ,36, ,
-2, ,36, ,
-2, ,36, ,
0, ,36, ,
1, ,36, ,
3, ,36, ,
3, ,36, ,
8, ,36, ,
9, ,36, ,
8, ,36, ,
10, ,36, ,
13, ,36, ,
11, ,36, ,
13, ,36, ,
13, ,36, ,
15, ,35, ,
15, ,35, ,
16, ,36, ,
16, ,36, ,
16, ,36, ,
16, ,36, ,
16, ,36, ,
15, ,36, ,
14, ,36, ,
14, ,36, ,
13, ,35, ,
13, ,35, ,
10, ,36, ,
7, ,36, ,
8, ,36, ,
6, ,36, ,
4, ,36, ,
4, ,36, ,
3, ,36, ,
3, ,36, ,
0, ,35, ,
-1, ,35, ,
-1, ,35, ,
-3, ,35, ,
-5, ,36, ,
-5, ,36, ,
-6, ,36, ,
-7, ,36, ,
-7, ,36, ,
-9, ,36, ,
-9, ,36, ,
-10, ,36, ,
-11, ,36, ,
-11, ,36, ,
-12, ,36, ,
-12, ,36, ,
-12, ,36, ,
-14, ,36, ,
-14, ,35, ,
-14, ,35, ,
-15, ,36, ,
-16, ,36, ,
-18, ,36, ,
-18, ,36, ,
-18, ,36, ,
-20, ,36, ,
-20, ,36, ,
-20, ,36, ,
-21, ,36, ,
-22, ,36, ,
-23, ,36, ,
-23, ,35, ,
-23, ,35, ,
-23, ,36, ,
-23, ,36, ,
-25, ,36, ,
-25, ,36, ,
-25, ,35, ,
-25, ,35, ,
-25, ,35, ,
-25, ,36, ,
-25, ,36, ,
-25, ,36, ,
-25, ,36, ,
-26, ,36, ,
-25, ,36, ,
-25, ,36, ,
-25, ,36, ,
-26, ,36, ,
-24, ,36, ,
-24, ,36, ,
-24, ,36, ,
-22, ,36, ,
-22, ,36, ,
-22, ,36, ,
-22, ,36, ,
-20, ,36, ,
-21, ,36, ,
-20, ,36, ,
-20, ,36, ,
-20, ,35, ,
-19, ,35, ,
-19, ,36, ,
-19, ,36, ,
-18, ,35, ,
-18, ,35, ,
-17, ,36, ,
-17, ,36, ,
-17, ,36, ,
-16, ,36, ,
-16, ,36, ,
-15, ,36, ,
-15, ,36, ,
-15, ,36, ,
-14, ,36, ,
-14, ,36, ,
-15, ,36, ,
-14, ,36, ,
-13, ,36, ,
-14, ,36, ,
-13, ,36, ,
-14, ,36, ,
-12, ,36, ,
-13, ,36, ,
-13, ,36, ,
-11, ,36, ,
-12, ,36, ,
-12, ,36, ,
-11, ,36, ,
-14, ,36, ,
-13, ,36, ,
-14, ,36, ,
-14, ,36, ,
-14, ,36, ,
-14, ,36, ,
-14, ,36, ,
-14, ,36, ,
-14, ,36, ,
-13, ,36, ,
-15, ,36, ,
-13, ,36, ,
-13, ,36, ,
-12, ,36, ,
-12, ,36, ,
-11, ,36, ,
-12, ,36, ,
-10, ,36, ,
-10, ,36, ,
-10, ,36, ,
-9, ,36, ,
-9, ,36, ,
-9, ,36, ,
-7, ,36, ,
-8, ,36, ,
-6, ,36, ,
-5, ,36, ,
-5, ,36, ,
-5, ,36, ,
-5, ,36, ,
-5, ,36, ,
-4, ,36, ,
-4, ,36, ,
-4, ,36, ,
-4, ,36, ,
-4, ,36, ,
-4, ,36, ,
-5, ,36, ,
-5, ,36, ,
-4, ,36, ,
-4, ,36, ,
-4, ,36, ,
-4, ,36, ,
-5, ,36, ,
-5, ,36, ,
-6, ,36, ,
-5, ,36, ,
-5, ,36, ,
-6, ,36, ,
-6, ,36, ,
-7, ,36, ,
-7, ,36, ,
-7, ,36, ,
-7, ,36, ,
-7, ,36, ,
-8, ,36, ,
-9, ,36, ,
-8, ,36, ,
-8, ,36, ,
-9, ,36, ,
-9, ,36, ,
-9, ,36, ,
-9, ,36, ,
-9, ,36, ,
-9, ,36, ,
-9, ,36, ,
-8, ,36, ,
-8, ,36, ,
-6, ,36, ,
-7, ,36, ,
-6, ,36, ,
-5, ,36, ,
-5, ,36, ,
-4, ,36, ,
-4, ,36, ,
-3, ,36, ,
-3, ,36, ,
-4, ,36, ,
-4, ,36, ,
-5, ,36, ,
-5, ,36, ,
-5, ,36, ,
-4, ,36, ,
-4, ,36, ,
-4, ,36, ,
-4, ,36, ,
-5, ,36, ,
-4, ,36, ,
-4, ,36, ,
-5, ,36, ,
-5, ,36, ,
-6, ,36, ,
-6, ,36, ,
-6, ,36, ,
-7, ,36, ,
-7, ,36, ,
-8, ,36, ,
-8, ,36, ,
-9, ,36, ,
-9, ,36, ,
-8, ,36, ,
-9, ,36, ,
-9, ,35, ,
-8, ,35, ,
-9, ,36, ,
-8, ,36, ,
-9, ,36, ,
-8, ,36, ,
-8, ,36, ,
-9, ,36, ,
-9, ,36, ,
-8, ,36, ,
-7, ,36, ,
-7, ,36, ,
-7, ,36, ,
-6, ,36, ,
-6, ,36, ,
-4, ,36, ,
-3, ,36, ,
-2, ,36, ,
-2, ,36, ,
-1, ,36, ,
-2, ,36, ,
0, ,36, ,
0, ,36, ,
0, ,36, ,
1, ,36, ,
1, ,36, ,
1, ,36, ,
2, ,36, ,
1, ,36, ,
2, ,36, ,
3, ,36, ,
3, ,36, ,
3, ,36, ,
3, ,36, ,
2, ,36, ,
2, ,36, ,
2, ,36, ,
1, ,36, ,
1, ,36, ,
1, ,36, ,
1, ,36, ,
1, ,36, ,
-1, ,36, ,
-1, ,36, ,
-2, ,36, ,
-2, ,36, ,
-1, ,36, ,
-1, ,36, ,
-1, ,36, ,
-2, ,36, ,
-3, ,36, ,
-2, ,36, ,
-3, ,36, ,
-4, ,36, ,
-3, ,36, ,
-3, ,36, ,
-4, ,36, ,
-3, ,36, ,
-3, ,36, ,
-3, ,36, ,
-3, ,36, ,
-4, ,36, ,
-2, ,36, ,
-3, ,36, ,
-3, ,36, ,
-2, ,36, ,
-2, ,36, ,
-1, ,36, ,
-3, ,36, ,
-2, ,36, ,
-2, ,36, ,
-2, ,36, ,
-2, ,36, ,
-2, ,36, ,
-2, ,36, ,
-2, ,36, ,
-2, ,36, ,
-2, ,35, ,
-2, ,35, ,
-2, ,36, ,
-1, ,36, ,
-1, ,36, ,
-2, ,36, ,
-1, ,36, ,
-2, ,36, ,
-2, ,36, ,
-1, ,36, ,
-2, ,36, ,
-2, ,36, ,
-2, ,36, ,
-4, ,36, ,
-1, ,36, ,
-2, ,36, ,
-3, ,36, ,
-2, ,36, ,
-2, ,36, ,
-2, ,35, ,
-2, ,35, ,
-3, ,36, ,
-3, ,36, ,
-4, ,36, ,
-2, ,36, ,
-3, ,36, ,
-3, ,36, ,
-2, ,36, ,
-3, ,36, ,
-4, ,36, ,
-3, ,36, ,
-4, ,36, ,
-4, ,36, ,
-4, ,36, ,
-4, ,36, ,
-3, ,36, ,
-3, ,36, ,
-3, ,36, ,
-2, ,36, ,
-2, ,36, ,
-2, ,36, ,
-2, ,35, ,
-2, ,35, ,
0, ,35, ,
0, ,36, ,
0, ,36, ,
1, ,36, ,
1, ,36, ,
1, ,36, ,
3, ,36, ,
4, ,36, ,
4, ,36, ,
5, ,36, ,
6, ,36, ,
6, ,36, ,
7, ,36, ,
8, ,36, ,
8, ,36, ,
8, ,36, ,
8, ,36, ,
9, ,36, ,
8, ,36, ,
8, ,36, ,
7, ,36, ,
6, ,36, ,
7, ,36, ,
6, ,36, ,
7, ,36, ,
4, ,36, ,
4, ,36, ,
3, ,36, ,
2, ,36, ,
1, ,36, ,
1, ,36, ,
0, ,36, ,
-1, ,36, ,
-3, ,36, ,
-5, ,36, ,
-5, ,36, ,
-5, ,36, ,
-6, ,36, ,
-5, ,36, ,
-6, ,36, ,
-6, ,36, ,
-5, ,36, ,
-5, ,36, ,
-5, ,36, ,
-5, ,36, ,
-3, ,36, ,
-3, ,36, ,
-3, ,36, ,
-2, ,36, ,
0, ,36, ,
0, ,36, ,
1, ,36, ,
0, ,36, ,
3, ,36, ,
4, ,36, ,
3, ,36, ,
6, ,36, ,
7, ,36, ,
7, ,36, ,
8, ,36, ,
8, ,36, ,
8, ,36, ,
7, ,36, ,
7, ,36, ,
7, ,36, ,
6, ,36, ,
5, ,36, ,
5, ,36, ,
4, ,36, ,
1, ,36, ,
1, ,36, ,
0, ,36, ,
0, ,36, ,
-1, ,36, ,
-2, ,36, ,
-2, ,36, ,
-4, ,36, ,
-3, ,36, ,
-2, ,36, ,
-3, ,36, ,
-3, ,36, ,
-3, ,36, ,
-4, ,36, ,
-2, ,36, ,
-3, ,36, ,
-3, ,35, ,
-2, ,35, ,
-2, ,36, ,
-2, ,36, ,
-1, ,36, ,
-1, ,36, ,
0, ,36, ,
-2, ,36, ,
-1, ,36, ,
-1, ,36, ,
-1, ,36, ,
-1, ,36, ,
-3, ,36, ,
-4, ,36, ,
-3, ,36, ,
-5, ,36, ,
-6, ,36, ,
-5, ,36, ,
-6, ,36, ,
-7, ,36, ,
-7, ,36, ,
-8, ,36, ,
-8, ,36, ,
-9, ,36, ,
-9, ,36, ,
-8, ,36, ,
-10, ,36, ,
-10, ,36, ,
-9, ,36, ,
-10, ,36, ,
-9, ,36, ,
-9, ,36, ,
-9, ,36, ,
-9, ,36, ,
-9, ,36, ,
-7, ,36, ,
-7, ,35, ,
-6, ,35, ,
-6, ,36, ,
-7, ,36, ,
-4, ,36, ,
-4, ,36, ,
-4, ,36, ,
-4, ,36, ,
-1, ,36, ,
-2, ,35, ,
-1, ,35, ,
-1, ,35, ,
-2, ,36, ,
-1, ,36, ,
-2, ,36, ,
-1, ,36, ,
0, ,36, ,
-1, ,36, ,
-1, ,36, ,
-2, ,36, ,
-1, ,36, ,
-1, ,36, ,
-2, ,36, ,
-2, ,36, ,
-2, ,36, ,
-2, ,36, ,
-2, ,36, ,
-3, ,36, ,
-4, ,36, ,
-2, ,36, ,
-2, ,36, ,
-3, ,36, ,
-3, ,36, ,
-2, ,36, ,
-3, ,36, ,
-2, ,36, ,
-1, ,36, ,
-1, ,36, ,
-1, ,36, ,
-1, ,36, ,
-1, ,36, ,
-2, ,36, ,
-1, ,36, ,
-2, ,36, ,
0, ,36, ,
0, ,36, ,
-1, ,36, ,
-1, ,36, ,
-1, ,36, ,
-1, ,36, ,
-1, ,36, ,
-1, ,36, ,
-2, ,36, ,
-1, ,36, ,
-1, ,36, ,
-3, ,36, ,
-2, ,35, ,
-2, ,35, ,
-2, ,35, ,
-3, ,36, ,
-4, ,36, ,
-3, ,36, ,
-3, ,36, ,
-4, ,36, ,
-3, ,36, ,
-2, ,36, ,
-2, ,36, ,
-2, ,36, ,
-3, ,36, ,
-4, ,36, ,
-3, ,36, ,
-2, ,36, ,
-2, ,36, ,
-4, ,36, ,
-2, ,36, ,
-2, ,36, ,
-2, ,36, ,
-2, ,36, ,
-2, ,36, ,
-2, ,36, ,
-2, ,36, ,
-2, ,36, ,
-1, ,36, ,
-2, ,36, ,
-2, ,36, ,
-2, ,36, ,
-2, ,36, ,
-2, ,36, ,
-3, ,36, ,
-4, ,36, ,
-3, ,36, ,
-4, ,36, ,
-4, ,36, ,
-4, ,36, ,
-5, ,36, ,
-5, ,36, ,
-5, ,36, ,
-4, ,36, ,
-4, ,36, ,
-5, ,36, ,
-5, ,36, ,
-4, ,36, ,
-4, ,36, ,
-4, ,36, ,
-3, ,36, ,
-4, ,36, ,
-4, ,36, ,
-4, ,36, ,
-3, ,36, ,
-3, ,36, ,
-3, ,36, ,
-2, ,36, ,
-3, ,35, ,
-2, ,35, ,
-2, ,36, ,
-2, ,36, ,
-2, ,36, ,
-1, ,36, ,
-2, ,36, ,
-1, ,36, ,
-1, ,36, ,
-2, ,36, ,
0, ,36, ,
-1, ,36, ,
-2, ,36, ,
0, ,36, ,
0, ,36, ,
0, ,36, ,
0, ,36, ,
0, ,36, ,
0, ,36, ,
0, ,36, ,
0, ,36, ,
0, ,36, ,
0, ,36, ,
0, ,36, ,
0, ,36, ,
-1, ,36, ,
0, ,36, ,
0, ,36, ,
1, ,36, ,
1, ,36, ,
0, ,36, ,
0, ,36, ,
0, ,36, ,
0, ,36, ,
0, ,36, ,
0, ,36, ,
0, ,36, ,
0, ,36, ,
-1, ,36, ,
0, ,36, ,
0, ,36, ,
0, ,36, ,
0, ,36, ,
-1, ,36, ,
-2, ,36, ,
-1, ,36, ,
-1, ,36, ,
-2, ,36, ,
0, ,36, ,
-1, ,36, ,
-1, ,36, ,
-1, ,36, ,
-1, ,36, ,
-1, ,36, ,
-2, ,36, ,
0, ,36, ,
-1, ,36, ,
-1, ,36, ,
-1, ,36, ,
-1, ,36, ,
-1, ,36, ,
-1, ,36, ,
-1, ,36, ,
-1, ,36, ,
-2, ,36, ,
-2, ,36, ,
-2, ,36, ,
-2, ,36, ,
0, ,36, ,
0, ,36, ,
-1, ,36, ,
0, ,36, ,
0, ,36, ,
-2, ,36, ,
-1, ,36, ,
-2, ,36, ,
-2, ,35, ,
0, ,35, ,
-1, ,35, ,
-1, ,36, ,
-2, ,36, ,
0, ,36, ,
0, ,36, ,
0, ,36, ,
1, ,36, ,
1, ,36, ,
1, ,36, ,
1, ,36, ,
0, ,36, ,
0, ,36, ,
0, ,36, ,
1, ,36, ,
1, ,36, ,
2, ,36, ,
2, ,36, ,
1, ,36, ,
1, ,36, ,
2, ,36, ,
2, ,36, ,
1, ,36, ,
1, ,36, ,
1, ,36, ,
0, ,36, ,
1, ,36, ,
0, ,36, ,
0, ,36, ,
0, ,36, ,
0, ,36, ,
0, ,36, ,
0, ,36, ,
0, ,36, ,
0, ,36, ,
0, ,36, ,
0, ,36, ,
0, ,36, ,
0, ,36, ,
-1, ,36, ,
0, ,36, ,
-1, ,36, ,
-1, ,36, ,
0, ,36, ,
-1, ,36, ,
0, ,36, ,
0, ,36, ,
0, ,36, ,
0, ,36, ,
0, ,36, ,
0, ,36, ,
0, ,36, ,
-1, ,36, ,
0, ,36, ,
-2, ,36, ,
-1, ,36, ,
-1, ,36, ,
-3, ,36, ,
-2, ,36, ,
-2, ,36, ,
-3, ,36, ,
-3, ,36, ,
-4, ,36, ,
-5, ,36, ,
-5, ,36, ,
-5, ,36, ,
-5, ,36, ,
-6, ,36, ,
-7, ,36, ,
-6, ,36, ,
-7, ,36, ,
-7, ,36, ,
-6, ,36, ,
-8, ,36, ,
-7, ,36, ,
-6, ,36, ,
-7, ,36, ,
-5, ,36, ,
-5, ,36, ,
-4, ,36, ,
-4, ,36, ,
-2, ,36, ,
-1, ,36, ,
0, ,36, ,
1, ,36, ,
1, ,36, ,
3, ,36, ,
4, ,36, ,
5, ,36, ,
7, ,36, ,
7, ,36, ,
9, ,36, ,
8, ,36, ,
10, ,36, ,
10, ,36, ,
12, ,36, ,
11, ,36, ,
13, ,36, ,
13, ,36, ,
15, ,36, ,
15, ,36, ,
15, ,36, ,
15, ,36, ,
17, ,36, ,
17, ,36, ,
17, ,36, ,
17, ,36, ,
18, ,36, ,
18, ,36, ,
18, ,36, ,
17, ,36, ,
16, ,36, ,
17, ,36, ,
16, ,36, ,
16, ,36, ,
15, ,36, ,
15, ,36, ,
15, ,36, ,
14, ,36, ,
14, ,36, ,
15, ,36, ,
13, ,36, ,
12, ,36, ,
12, ,36, ,
11, ,36, ,
12, ,36, ,
9, ,36, ,
8, ,36, ,
8, ,36, ,
7, ,36, ,
7, ,36, ,
5, ,36, ,
5, ,36, ,
5, ,36, ,
4, ,36, ,
3, ,36, ,
3, ,36, ,
2, ,36, ,
1, ,36, ,
0, ,36, ,
0, ,36, ,
0, ,36, ,
-1, ,36, ,
-2, ,36, ,
-2, ,36, ,
-4, ,36, ,
-1, ,36, ,
-3, ,36, ,
-4, ,36, ,
-4, ,36, ,
-5, ,36, ,
-5, ,36, ,
-5, ,36, ,
-6, ,36, ,
-6, ,36, ,
-6, ,35, ,
-7, ,35, ,
-7, ,35, ,
-8, ,36, ,
-9, ,36, ,
-9, ,36, ,
-9, ,36, ,
-10, ,36, ,
-10, ,35, ,
-10, ,35, ,
-10, ,36, ,
-11, ,36, ,
-11, ,36, ,
-11, ,36, ,
-12, ,36, ,
-11, ,36, ,
-11, ,36, ,
-12, ,36, ,
-12, ,36, ,
-12, ,36, ,
-12, ,36, ,
-12, ,36, ,
-11, ,36, ,
-11, ,36, ,
-10, ,36, ,
-10, ,36, ,
-10, ,36, ,
-10, ,36, ,
-9, ,36, ,
-9, ,36, ,
-9, ,36, ,
-9, ,36, ,
-8, ,36, ,
-9, ,36, ,
-7, ,36, ,
-7, ,36, ,
-7, ,36, ,
-6, ,36, ,
-7, ,36, ,
-6, ,36, ,
-5, ,36, ,
-6, ,36, ,
-4, ,36, ,
-5, ,36, ,
-4, ,36, ,
-4, ,36, ,
-3, ,36, ,
-3, ,36, ,
-1, ,36, ,
-3, ,36, ,
-2, ,36, ,
-2, ,36, ,
-2, ,36, ,
0, ,36, ,
0, ,36, ,
0, ,36, ,
1, ,36, ,
1, ,36, ,
1, ,36, ,
1, ,36, ,
2, ,36, ,
2, ,36, ,
2, ,36, ,
3, ,36, ,
3, ,36, ,
3, ,36, ,
4, ,36, ,
4, ,36, ,
4, ,36, ,
4, ,36, ,
5, ,36, ,
4, ,35, ,
5, ,35, ,
5, ,36, ,
4, ,36, ,
4, ,36, ,
4, ,36, ,
5, ,36, ,
5, ,36, ,
4, ,36, ,
4, ,36, ,
3, ,36, ,
4, ,36, ,
3, ,36, ,
3, ,36, ,
3, ,36, ,
2, ,36, ,
4, ,36, ,
4, ,36, ,
3, ,36, ,
3, ,36, ,
3, ,36, ,
4, ,36, ,
5, ,36, ,
5, ,36, ,
5, ,36, ,
5, ,35, ,
5, ,35, ,
5, ,35, ,
5, ,36, ,
4, ,36, ,
5, ,36, ,
5, ,36, ,
5, ,36, ,
5, ,36, ,
4, ,36, ,
4, ,35, ,
4, ,35, ,
5, ,36, ,
5, ,36, ,
4, ,36, ,
5, ,36, ,
5, ,36, ,
5, ,35, ,
5, ,35, ,
4, ,35, ,
4, ,35, ,
3, ,35, ,
4, ,36, ,
4, ,36, ,
2, ,36, ,
2, ,36, ,
2, ,36, ,
2, ,36, ,
1, ,36, ,
3, ,36, ,
1, ,36, ,
2, ,36, ,
1, ,36, ,
1, ,36, ,
1, ,36, ,
1, ,36, ,
