raw_data/100% Glycerol, Impulsion 2Hz, Sonde 5MHz, Rampe 0.7Hz/temp0000334.CSV

Format,1.0B,
Memory Length,10000,Memory Length,10000,
IntpDistance,0,IntpDistance,0,
Trigger Address,159,Trigger Address,159,
Trigger Level,2.720E-01,Trigger Level,2.720E-01,
Source,CH1,Source,CH2,
Vertical Units,V,Vertical Units,V,
Vertical Units Div,0,Vertical Units Div,0,
Vertical Units Extend Div,16,Vertical Units Extend Div,16,
Label,,Label,,
Probe Type,0,Probe Type,0,
Probe Ratio,1.000e+00,Probe Ratio,1.000e+00,
Vertical Scale,2.000e-01,Vertical Scale,2.000e+00,
Vertical Position,0.000e+00,Vertical Position,0.000e+00,
Horizontal Units,S,Horizontal Units,S,
Horizontal Scale,5.000E-06,Horizontal Scale,5.000E-06,
Horizontal Position,2.420E-05,Horizontal Position,2.420E-05,
Horizontal Mode,Main,Horizontal Mode,Main,
SincET Mode,Real Time,SincET Mode,Real Time,
Sampling Period,5.000e-09,Sampling Period,5.000e-09,
Horizontal Old Scale,5.000E-06,Horizontal Old Scale,5.000E-06,
Horizontal Old Position,2.420E-05,Horizontal Old Position,2.420E-05,
Firmware,V1.32,Firmware,V1.32,
Mode,Fast,Mode,Fast,
Waveform Data,,Waveform Data,,
2, ,-10, ,
2, ,-9, ,
1, ,-10, ,
2, ,-10, ,
1, ,-10, ,
2, ,-10, ,
3, ,-10, ,
2, ,-9, ,
3, ,-9, ,
1, ,-9, ,
1, ,-10, ,
2, ,-10, ,
2, ,-10, ,
2, ,-9, ,
2, ,-9, ,
2, ,-10, ,
1, ,-10, ,
3, ,-10, ,
1, ,-10, ,
2, ,-10, ,
1, ,-10, ,
2, ,-10, ,
2, ,-9, ,
1, ,-9, ,
2, ,-9, ,
2, ,-9, ,
2, ,-9, ,
2, ,-9, ,
1, ,-9, ,
1, ,-9, ,
2, ,-9, ,
2, ,-10, ,
2, ,-10, ,
3, ,-10, ,
2, ,-10, ,
2, ,-10, ,
2, ,-10, ,
2, ,-10, ,
2, ,-9, ,
1, ,-9, ,
1, ,-10, ,
2, ,-10, ,
1, ,-10, ,
2, ,-10, ,
1, ,-10, ,
1, ,-10, ,
2, ,-10, ,
2, ,-9, ,
2, ,-9, ,
2, ,-9, ,
2, ,-10, ,
1, ,-10, ,
0, ,-9, ,
2, ,-10, ,
2, ,-10, ,
1, ,-10, ,
2, ,-10, ,
3, ,-10, ,
2, ,-10, ,
1, ,-9, ,
2, ,-10, ,
2, ,-10, ,
2, ,-10, ,
2, ,-10, ,
2, ,-10, ,
2, ,-9, ,
1, ,-9, ,
3, ,-10, ,
2, ,-10, ,
1, ,-10, ,
2, ,-10, ,
1, ,-9, ,
1, ,-9, ,
2, ,-10, ,
2, ,-10, ,
2, ,-10, ,
1, ,-10, ,
2, ,-10, ,
2, ,-9, ,
1, ,-10, ,
2, ,-10, ,
3, ,-10, ,
2, ,-10, ,
2, ,-10, ,
1, ,-10, ,
1, ,-10, ,
2, ,-10, ,
2, ,-9, ,
2, ,-9, ,
2, ,-9, ,
1, ,-10, ,
2, ,-10, ,
2, ,-10, ,
2, ,-10, ,
2, ,-10, ,
2, ,-10, ,
2, ,-10, ,
3, ,-10, ,
2, ,-10, ,
3, ,-10, ,
1, ,-10, ,
1, ,-10, ,
2, ,-9, ,
2, ,-9, ,
2, ,-9, ,
1, ,-10, ,
2, ,-10, ,
2, ,-9, ,
2, ,-10, ,
1, ,-10, ,
1, ,-10, ,
1, ,-10, ,
2, ,-10, ,
3, ,-9, ,
2, ,-10, ,
3, ,-10, ,
2, ,-10, ,
2, ,-10, ,
2, ,-10, ,
2, ,-9, ,
2, ,-10, ,
3, ,-10, ,
2, ,-10, ,
3, ,-10, ,
1, ,-10, ,
2, ,-10, ,
2, ,-10, ,
2, ,-10, ,
2, ,-10, ,
3, ,-9, ,
2, ,-9, ,
2, ,-9, ,
2, ,-9, ,
1, ,-9, ,
2, ,-9, ,
2, ,-9, ,
2, ,-10, ,
2, ,-10, ,
1, ,-10, ,
1, ,-10, ,
1, ,-10, ,
2, ,-10, ,
3, ,-10, ,
2, ,-10, ,
3, ,-10, ,
3, ,-10, ,
2, ,-10, ,
3, ,-10, ,
0, ,-10, ,
3, ,-10, ,
1, ,-10, ,
1, ,-10, ,
1, ,-10, ,
2, ,-10, ,
1, ,-10, ,
2, ,-10, ,
1, ,-9, ,
2, ,-10, ,
2, ,-10, ,
2, ,-10, ,
2, ,-10, ,
2, ,-9, ,
1, ,-9, ,
2, ,-9, ,
2, ,-9, ,
-2, ,-10, ,
0, ,-10, ,
-3, ,-10, ,
20, ,-10, ,
125, ,-9, ,
125, ,-9, ,
125, ,-9, ,
125, ,-9, ,
117, ,-9, ,
41, ,-9, ,
-20, ,-10, ,
51, ,-10, ,
125, ,-9, ,
125, ,-10, ,
125, ,-10, ,
125, ,-10, ,
125, ,-10, ,
125, ,-10, ,
125, ,-10, ,
125, ,-10, ,
125, ,-10, ,
125, ,-10, ,
125, ,-10, ,
125, ,-10, ,
125, ,-10, ,
125, ,-9, ,
125, ,-9, ,
125, ,-9, ,
125, ,-9, ,
125, ,-9, ,
125, ,-9, ,
125, ,-9, ,
125, ,-10, ,
125, ,-10, ,
125, ,-10, ,
125, ,-10, ,
125, ,-10, ,
124, ,-10, ,
124, ,-10, ,
122, ,-10, ,
111, ,-10, ,
107, ,-10, ,
104, ,-10, ,
100, ,-10, ,
91, ,-10, ,
86, ,-9, ,
85, ,-9, ,
79, ,-9, ,
73, ,-10, ,
69, ,-10, ,
64, ,-10, ,
63, ,-10, ,
57, ,-9, ,
55, ,-10, ,
53, ,-10, ,
48, ,-9, ,
45, ,-9, ,
45, ,-9, ,
41, ,-10, ,
40, ,-10, ,
36, ,-10, ,
34, ,-10, ,
33, ,-10, ,
30, ,-10, ,
26, ,-9, ,
27, ,-9, ,
24, ,-9, ,
24, ,-10, ,
22, ,-10, ,
19, ,-10, ,
18, ,-10, ,
17, ,-10, ,
15, ,-10, ,
15, ,-10, ,
13, ,-10, ,
12, ,-10, ,
11, ,-10, ,
10, ,-10, ,
10, ,-10, ,
9, ,-9, ,
8, ,-10, ,
7, ,-10, ,
6, ,-10, ,
5, ,-10, ,
5, ,-10, ,
4, ,-10, ,
4, ,-9, ,
4, ,-9, ,
2, ,-10, ,
2, ,-10, ,
1, ,-10, ,
1, ,-10, ,
1, ,-9, ,
1, ,-10, ,
1, ,-10, ,
0, ,-9, ,
-1, ,-9, ,
-1, ,-9, ,
-1, ,-9, ,
0, ,-9, ,
-1, ,-9, ,
-2, ,-10, ,
-1, ,-10, ,
-2, ,-10, ,
-3, ,-10, ,
-3, ,-10, ,
-3, ,-9, ,
-3, ,-9, ,
-2, ,-9, ,
-2, ,-10, ,
-2, ,-10, ,
-2, ,-9, ,
-3, ,-10, ,
-3, ,-10, ,
-3, ,-9, ,
-2, ,-10, ,
-2, ,-10, ,
-4, ,-10, ,
-2, ,-10, ,
-3, ,-10, ,
-4, ,-10, ,
-2, ,-9, ,
-2, ,-9, ,
-2, ,-9, ,
-3, ,-9, ,
-3, ,-10, ,
-3, ,-10, ,
-4, ,-10, ,
-3, ,-10, ,
-3, ,-9, ,
-3, ,-9, ,
-2, ,-10, ,
-2, ,-10, ,
-3, ,-10, ,
-4, ,-10, ,
-2, ,-10, ,
-2, ,-10, ,
-2, ,-10, ,
-2, ,-10, ,
-2, ,-10, ,
-1, ,-10, ,
-2, ,-9, ,
-1, ,-9, ,
-2, ,-9, ,
-2, ,-9, ,
-2, ,-9, ,
-2, ,-9, ,
-2, ,-10, ,
-2, ,-10, ,
-2, ,-10, ,
-1, ,-9, ,
-2, ,-10, ,
-2, ,-10, ,
-2, ,-10, ,
-2, ,-10, ,
-2, ,-10, ,
0, ,-10, ,
0, ,-10, ,
0, ,-10, ,
0, ,-10, ,
0, ,-10, ,
0, ,-10, ,
0, ,-10, ,
0, ,-10, ,
0, ,-9, ,
-1, ,-10, ,
0, ,-10, ,
-1, ,-10, ,
-1, ,-10, ,
0, ,-10, ,
-1, ,-10, ,
0, ,-10, ,
1, ,-10, ,
0, ,-10, ,
0, ,-10, ,
0, ,-10, ,
0, ,-10, ,
0, ,-9, ,
0, ,-9, ,
1, ,-10, ,
1, ,-10, ,
0, ,-10, ,
0, ,-10, ,
0, ,-10, ,
0, ,-10, ,
1, ,-10, ,
1, ,-10, ,
0, ,-10, ,
1, ,-9, ,
1, ,-10, ,
1, ,-10, ,
1, ,-9, ,
1, ,-9, ,
1, ,-9, ,
1, ,-9, ,
1, ,-10, ,
1, ,-10, ,
1, ,-10, ,
1, ,-10, ,
1, ,-10, ,
0, ,-10, ,
0, ,-10, ,
0, ,-9, ,
0, ,-10, ,
0, ,-10, ,
1, ,-10, ,
1, ,-9, ,
1, ,-9, ,
1, ,-10, ,
2, ,-10, ,
1, ,-10, ,
1, ,-10, ,
1, ,-10, ,
1, ,-10, ,
2, ,-10, ,
1, ,-10, ,
1, ,-10, ,
1, ,-10, ,
1, ,-9, ,
2, ,-10, ,
1, ,-10, ,
1, ,-10, ,
1, ,-9, ,
0, ,-9, ,
1, ,-10, ,
1, ,-10, ,
1, ,-9, ,
1, ,-10, ,
2, ,-10, ,
1, ,-10, ,
2, ,-10, ,
1, ,-10, ,
1, ,-10, ,
3, ,-10, ,
2, ,-10, ,
2, ,-10, ,
2, ,-10, ,
1, ,-10, ,
2, ,-10, ,
1, ,-10, ,
2, ,-9, ,
2, ,-9, ,
1, ,-9, ,
2, ,-9, ,
2, ,-9, ,
1, ,-10, ,
2, ,-10, ,
1, ,-10, ,
1, ,-10, ,
1, ,-9, ,
2, ,-10, ,
3, ,-10, ,
1, ,-9, ,
2, ,-10, ,
2, ,-10, ,
1, ,-9, ,
0, ,-10, ,
1, ,-10, ,
1, ,-10, ,
1, ,-10, ,
0, ,-10, ,
0, ,-10, ,
1, ,-10, ,
1, ,-10, ,
1, ,-10, ,
1, ,-10, ,
1, ,-10, ,
2, ,-10, ,
2, ,-10, ,
2, ,-10, ,
2, ,-10, ,
1, ,-10, ,
1, ,-10, ,
0, ,-10, ,
0, ,-9, ,
0, ,-9, ,
1, ,-9, ,
0, ,-9, ,
0, ,-10, ,
-1, ,-10, ,
-2, ,-10, ,
0, ,-9, ,
-1, ,-9, ,
1, ,-10, ,
2, ,-10, ,
1, ,-10, ,
2, ,-10, ,
1, ,-9, ,
1, ,-9, ,
2, ,-10, ,
2, ,-10, ,
1, ,-10, ,
1, ,-9, ,
1, ,-9, ,
2, ,-10, ,
1, ,-10, ,
1, ,-10, ,
1, ,-9, ,
1, ,-10, ,
1, ,-10, ,
1, ,-9, ,
0, ,-10, ,
1, ,-10, ,
1, ,-10, ,
1, ,-10, ,
2, ,-9, ,
1, ,-9, ,
2, ,-10, ,
2, ,-10, ,
1, ,-10, ,
2, ,-10, ,
2, ,-9, ,
1, ,-9, ,
1, ,-9, ,
0, ,-10, ,
0, ,-10, ,
0, ,-9, ,
0, ,-9, ,
0, ,-10, ,
-1, ,-10, ,
0, ,-10, ,
0, ,-10, ,
0, ,-10, ,
0, ,-10, ,
2, ,-9, ,
1, ,-9, ,
1, ,-10, ,
1, ,-10, ,
1, ,-10, ,
3, ,-10, ,
3, ,-10, ,
2, ,-10, ,
2, ,-9, ,
1, ,-9, ,
2, ,-9, ,
1, ,-9, ,
1, ,-10, ,
1, ,-10, ,
0, ,-9, ,
1, ,-10, ,
1, ,-10, ,
1, ,-10, ,
2, ,-9, ,
1, ,-9, ,
1, ,-10, ,
1, ,-10, ,
0, ,-9, ,
2, ,-9, ,
1, ,-9, ,
1, ,-10, ,
0, ,-10, ,
-1, ,-10, ,
-2, ,-10, ,
-2, ,-10, ,
-4, ,-10, ,
-5, ,-10, ,
-5, ,-9, ,
-7, ,-9, ,
-7, ,-10, ,
-7, ,-10, ,
-8, ,-10, ,
-7, ,-10, ,
-8, ,-10, ,
-7, ,-10, ,
-7, ,-10, ,
-8, ,-10, ,
-8, ,-10, ,
-10, ,-9, ,
-11, ,-9, ,
-12, ,-9, ,
-13, ,-9, ,
-15, ,-9, ,
-17, ,-10, ,
-20, ,-10, ,
-21, ,-10, ,
-23, ,-10, ,
-27, ,-10, ,
-27, ,-9, ,
-28, ,-9, ,
-28, ,-9, ,
-29, ,-9, ,
-29, ,-10, ,
-27, ,-10, ,
-29, ,-10, ,
-27, ,-10, ,
-27, ,-9, ,
-27, ,-10, ,
-27, ,-10, ,
-28, ,-10, ,
-29, ,-10, ,
-29, ,-10, ,
-31, ,-10, ,
-32, ,-10, ,
-32, ,-10, ,
-33, ,-10, ,
-32, ,-10, ,
-30, ,-9, ,
-30, ,-10, ,
-29, ,-10, ,
-27, ,-9, ,
-22, ,-10, ,
-19, ,-10, ,
-17, ,-10, ,
-15, ,-10, ,
-11, ,-10, ,
-10, ,-10, ,
-9, ,-9, ,
-9, ,-9, ,
-9, ,-9, ,
-8, ,-9, ,
-11, ,-9, ,
-11, ,-10, ,
-13, ,-10, ,
-14, ,-10, ,
-15, ,-10, ,
-16, ,-9, ,
-16, ,-9, ,
-14, ,-10, ,
-14, ,-10, ,
-12, ,-10, ,
-9, ,-10, ,
-9, ,-10, ,
-7, ,-10, ,
-6, ,-10, ,
-6, ,-10, ,
-5, ,-9, ,
-5, ,-10, ,
-5, ,-10, ,
-5, ,-9, ,
-5, ,-10, ,
-5, ,-10, ,
-5, ,-9, ,
-5, ,-9, ,
-5, ,-9, ,
-5, ,-10, ,
-4, ,-10, ,
-3, ,-9, ,
0, ,-10, ,
0, ,-10, ,
0, ,-10, ,
3, ,-10, ,
4, ,-10, ,
6, ,-10, ,
6, ,-10, ,
6, ,-9, ,
4, ,-9, ,
3, ,-9, ,
2, ,-9, ,
-3, ,-10, ,
-3, ,-10, ,
-7, ,-9, ,
-9, ,-10, ,
-13, ,-10, ,
-15, ,-10, ,
-15, ,-10, ,
-16, ,-10, ,
-19, ,-10, ,
-19, ,-10, ,
-19, ,-10, ,
-19, ,-10, ,
-22, ,-9, ,
-22, ,-10, ,
-23, ,-10, ,
-25, ,-10, ,
-27, ,-10, ,
-29, ,-10, ,
-30, ,-10, ,
-30, ,-10, ,
-32, ,-10, ,
-33, ,-10, ,
-33, ,-10, ,
-33, ,-10, ,
-34, ,-10, ,
-32, ,-10, ,
-32, ,-10, ,
-32, ,-10, ,
-32, ,-10, ,
-32, ,-10, ,
-32, ,-10, ,
-32, ,-10, ,
-30, ,-10, ,
-30, ,-10, ,
-30, ,-10, ,
-29, ,-10, ,
-29, ,-10, ,
-29, ,-10, ,
-30, ,-10, ,
-30, ,-9, ,
-33, ,-10, ,
-34, ,-10, ,
-34, ,-10, ,
-35, ,-10, ,
-37, ,-10, ,
-39, ,-9, ,
-39, ,-9, ,
-39, ,-9, ,
-39, ,-9, ,
-38, ,-9, ,
-38, ,-10, ,
-36, ,-10, ,
-35, ,-10, ,
-37, ,-10, ,
-37, ,-10, ,
-38, ,-10, ,
-40, ,-10, ,
-40, ,-10, ,
-42, ,-10, ,
-42, ,-10, ,
-44, ,-9, ,
-45, ,-10, ,
-45, ,-10, ,
-46, ,-9, ,
-43, ,-9, ,
-41, ,-9, ,
-41, ,-9, ,
-38, ,-9, ,
-35, ,-9, ,
-35, ,-9, ,
-33, ,-10, ,
-32, ,-10, ,
-29, ,-10, ,
-28, ,-9, ,
-27, ,-9, ,
-26, ,-10, ,
-22, ,-10, ,
-22, ,-10, ,
-19, ,-10, ,
-19, ,-9, ,
-15, ,-9, ,
-13, ,-9, ,
-12, ,-9, ,
-10, ,-9, ,
-7, ,-10, ,
-7, ,-10, ,
-6, ,-10, ,
-7, ,-10, ,
-6, ,-10, ,
-5, ,-10, ,
-5, ,-9, ,
-4, ,-9, ,
-3, ,-9, ,
-3, ,-10, ,
-2, ,-10, ,
-2, ,-10, ,
-2, ,-10, ,
-1, ,-10, ,
-2, ,-10, ,
-2, ,-10, ,
-3, ,-9, ,
-5, ,-9, ,
-3, ,-10, ,
-4, ,-10, ,
-4, ,-10, ,
-2, ,-10, ,
-3, ,-10, ,
-1, ,-10, ,
-1, ,-10, ,
0, ,-10, ,
2, ,-10, ,
1, ,-9, ,
4, ,-10, ,
6, ,-10, ,
5, ,-10, ,
7, ,-10, ,
8, ,-10, ,
8, ,-10, ,
8, ,-9, ,
8, ,-9, ,
8, ,-9, ,
9, ,-10, ,
9, ,-10, ,
10, ,-9, ,
10, ,-9, ,
10, ,-10, ,
10, ,-10, ,
8, ,-10, ,
8, ,-10, ,
8, ,-10, ,
7, ,-10, ,
7, ,-9, ,
4, ,-10, ,
2, ,-10, ,
2, ,-10, ,
-1, ,-10, ,
-2, ,-10, ,
-3, ,-9, ,
-3, ,-10, ,
-4, ,-10, ,
-7, ,-10, ,
-8, ,-10, ,
-9, ,-10, ,
-11, ,-9, ,
-13, ,-10, ,
-12, ,-10, ,
-14, ,-9, ,
-14, ,-9, ,
-15, ,-9, ,
-15, ,-9, ,
-15, ,-10, ,
-15, ,-10, ,
-18, ,-10, ,
-18, ,-9, ,
-19, ,-9, ,
-19, ,-9, ,
-20, ,-9, ,
-22, ,-9, ,
-23, ,-10, ,
-25, ,-10, ,
-27, ,-10, ,
-27, ,-10, ,
-30, ,-9, ,
-30, ,-9, ,
-31, ,-9, ,
-33, ,-9, ,
-34, ,-9, ,
-34, ,-9, ,
-34, ,-10, ,
-34, ,-10, ,
-34, ,-10, ,
-32, ,-10, ,
-32, ,-9, ,
-34, ,-10, ,
-31, ,-10, ,
-32, ,-10, ,
-30, ,-10, ,
-29, ,-10, ,
-29, ,-9, ,
-29, ,-10, ,
-27, ,-10, ,
-27, ,-10, ,
-24, ,-9, ,
-24, ,-9, ,
-22, ,-10, ,
-19, ,-10, ,
-16, ,-10, ,
-15, ,-10, ,
-14, ,-9, ,
-12, ,-10, ,
-11, ,-10, ,
-12, ,-9, ,
-10, ,-10, ,
-8, ,-10, ,
-8, ,-10, ,
-8, ,-10, ,
-7, ,-10, ,
-7, ,-10, ,
-5, ,-10, ,
-4, ,-10, ,
-4, ,-10, ,
-2, ,-10, ,
0, ,-9, ,
0, ,-9, ,
1, ,-9, ,
1, ,-10, ,
1, ,-10, ,
2, ,-9, ,
3, ,-10, ,
4, ,-10, ,
3, ,-9, ,
5, ,-9, ,
5, ,-9, ,
5, ,-9, ,
6, ,-10, ,
7, ,-10, ,
7, ,-10, ,
9, ,-9, ,
9, ,-9, ,
9, ,-10, ,
9, ,-10, ,
8, ,-10, ,
8, ,-10, ,
8, ,-9, ,
7, ,-10, ,
6, ,-10, ,
5, ,-9, ,
5, ,-9, ,
4, ,-9, ,
4, ,-10, ,
3, ,-10, ,
2, ,-9, ,
1, ,-9, ,
1, ,-9, ,
-1, ,-10, ,
-1, ,-10, ,
-3, ,-9, ,
-4, ,-9, ,
-6, ,-10, ,
-7, ,-10, ,
-8, ,-10, ,
-6, ,-10, ,
-10, ,-10, ,
-9, ,-10, ,
-10, ,-10, ,
-12, ,-10, ,
-12, ,-10, ,
-12, ,-9, ,
-13, ,-9, ,
-14, ,-9, ,
-14, ,-10, ,
-14, ,-10, ,
-15, ,-10, ,
-16, ,-10, ,
-16, ,-9, ,
-18, ,-9, ,
-18, ,-9, ,
-17, ,-9, ,
-20, ,-10, ,
-21, ,-10, ,
-20, ,-10, ,
-22, ,-10, ,
-21, ,-10, ,
-24, ,-10, ,
-25, ,-10, ,
-25, ,-9, ,
-26, ,-10, ,
-26, ,-10, ,
-26, ,-10, ,
-27, ,-10, ,
-27, ,-10, ,
-29, ,-9, ,
-28, ,-9, ,
-27, ,-9, ,
-28, ,-9, ,
-27, ,-9, ,
-26, ,-9, ,
-26, ,-9, ,
-26, ,-10, ,
-25, ,-10, ,
-24, ,-10, ,
-21, ,-10, ,
-19, ,-10, ,
-17, ,-10, ,
-15, ,-10, ,
-15, ,-10, ,
-12, ,-10, ,
-12, ,-10, ,
-10, ,-10, ,
-9, ,-10, ,
-9, ,-10, ,
-9, ,-10, ,
-8, ,-9, ,
-8, ,-9, ,
-7, ,-9, ,
-8, ,-10, ,
-9, ,-10, ,
-8, ,-10, ,
-10, ,-9, ,
-9, ,-9, ,
-12, ,-9, ,
-13, ,-10, ,
-13, ,-10, ,
-15, ,-10, ,
-17, ,-10, ,
-17, ,-10, ,
-18, ,-10, ,
-19, ,-9, ,
-20, ,-10, ,
-20, ,-10, ,
-20, ,-10, ,
-21, ,-10, ,
-21, ,-10, ,
-21, ,-10, ,
-21, ,-10, ,
-20, ,-10, ,
-19, ,-9, ,
-19, ,-10, ,
-19, ,-10, ,
-19, ,-9, ,
-19, ,-10, ,
-19, ,-10, ,
-20, ,-9, ,
-17, ,-10, ,
-17, ,-10, ,
-17, ,-10, ,
-17, ,-9, ,
-17, ,-9, ,
-14, ,-9, ,
-14, ,-9, ,
-14, ,-10, ,
-13, ,-10, ,
-13, ,-9, ,
-12, ,-9, ,
-12, ,-9, ,
-11, ,-9, ,
-12, ,-9, ,
-11, ,-10, ,
-12, ,-10, ,
-10, ,-10, ,
-9, ,-10, ,
-9, ,-10, ,
-8, ,-9, ,
-8, ,-9, ,
-7, ,-10, ,
-6, ,-10, ,
-7, ,-10, ,
-5, ,-10, ,
-5, ,-10, ,
-5, ,-10, ,
-5, ,-10, ,
-5, ,-9, ,
-4, ,-10, ,
-3, ,-10, ,
-3, ,-9, ,
-3, ,-10, ,
-3, ,-10, ,
-4, ,-10, ,
-3, ,-10, ,
-2, ,-9, ,
-1, ,-9, ,
-1, ,-9, ,
0, ,-10, ,
-1, ,-10, ,
-1, ,-10, ,
-2, ,-10, ,
-1, ,-10, ,
-1, ,-9, ,
-1, ,-10, ,
-1, ,-10, ,
-2, ,-10, ,
-1, ,-10, ,
-1, ,-10, ,
-1, ,-10, ,
-1, ,-9, ,
-2, ,-9, ,
-2, ,-9, ,
-1, ,-9, ,
0, ,-9, ,
-1, ,-9, ,
-1, ,-9, ,
-3, ,-9, ,
-3, ,-9, ,
-4, ,-10, ,
-5, ,-10, ,
-4, ,-10, ,
-6, ,-10, ,
-6, ,-10, ,
-6, ,-10, ,
-6, ,-10, ,
-7, ,-10, ,
-7, ,-10, ,
-8, ,-10, ,
-8, ,-9, ,
-8, ,-10, ,
-8, ,-10, ,
-9, ,-10, ,
-10, ,-10, ,
-10, ,-10, ,
-12, ,-10, ,
-10, ,-10, ,
-10, ,-9, ,
-11, ,-10, ,
-9, ,-10, ,
-9, ,-10, ,
-9, ,-10, ,
-9, ,-10, ,
-8, ,-10, ,
-9, ,-10, ,
-8, ,-9, ,
-8, ,-10, ,
-8, ,-10, ,
-7, ,-10, ,
-6, ,-10, ,
-6, ,-10, ,
-7, ,-10, ,
-6, ,-10, ,
-6, ,-10, ,
-7, ,-9, ,
-5, ,-10, ,
-5, ,-10, ,
-5, ,-10, ,
-4, ,-10, ,
-5, ,-10, ,
-5, ,-10, ,
-3, ,-9, ,
-3, ,-9, ,
-3, ,-9, ,
-3, ,-9, ,
-4, ,-9, ,
-2, ,-10, ,
-3, ,-10, ,
-4, ,-9, ,
-3, ,-9, ,
-3, ,-9, ,
-3, ,-10, ,
-2, ,-10, ,
-2, ,-10, ,
-2, ,-10, ,
-2, ,-10, ,
-2, ,-10, ,
-2, ,-10, ,
-2, ,-10, ,
-2, ,-10, ,
-2, ,-9, ,
-3, ,-9, ,
-3, ,-9, ,
-4, ,-9, ,
-4, ,-10, ,
-4, ,-10, ,
-5, ,-10, ,
-4, ,-9, ,
-4, ,-10, ,
-4, ,-10, ,
-4, ,-10, ,
-3, ,-10, ,
-3, ,-10, ,
-3, ,-9, ,
-3, ,-10, ,
-3, ,-10, ,
-2, ,-10, ,
-3, ,-10, ,
-2, ,-10, ,
-2, ,-10, ,
-3, ,-10, ,
-3, ,-10, ,
-3, ,-9, ,
-2, ,-10, ,
-2, ,-10, ,
-2, ,-10, ,
-2, ,-10, ,
-2, ,-10, ,
-2, ,-10, ,
-2, ,-9, ,
-1, ,-10, ,
-3, ,-10, ,
-2, ,-10, ,
-4, ,-10, ,
-4, ,-10, ,
-5, ,-10, ,
-5, ,-10, ,
-4, ,-10, ,
-4, ,-9, ,
-4, ,-10, ,
-5, ,-10, ,
-5, ,-10, ,
-4, ,-9, ,
-5, ,-9, ,
-5, ,-9, ,
-5, ,-9, ,
-5, ,-10, ,
-5, ,-10, ,
-5, ,-10, ,
-5, ,-10, ,
-5, ,-10, ,
-5, ,-9, ,
-5, ,-9, ,
-5, ,-9, ,
-5, ,-9, ,
-5, ,-10, ,
-5, ,-10, ,
-5, ,-10, ,
-4, ,-10, ,
-4, ,-10, ,
-4, ,-10, ,
-2, ,-10, ,
-3, ,-9, ,
-2, ,-10, ,
-2, ,-10, ,
-2, ,-10, ,
-1, ,-10, ,
-1, ,-10, ,
1, ,-10, ,
1, ,-10, ,
1, ,-9, ,
1, ,-10, ,
2, ,-10, ,
3, ,-10, ,
4, ,-10, ,
3, ,-9, ,
3, ,-9, ,
5, ,-9, ,
5, ,-9, ,
5, ,-9, ,
4, ,-9, ,
4, ,-9, ,
3, ,-10, ,
3, ,-10, ,
2, ,-10, ,
3, ,-9, ,
1, ,-9, ,
1, ,-9, ,
0, ,-9, ,
0, ,-9, ,
0, ,-10, ,
-1, ,-10, ,
-2, ,-10, ,
-1, ,-10, ,
-2, ,-9, ,
-1, ,-9, ,
0, ,-9, ,
-1, ,-9, ,
-1, ,-9, ,
-2, ,-9, ,
0, ,-10, ,
2, ,-10, ,
1, ,-9, ,
3, ,-10, ,
5, ,-10, ,
4, ,-10, ,
6, ,-10, ,
6, ,-10, ,
7, ,-10, ,
9, ,-10, ,
8, ,-9, ,
11, ,-9, ,
12, ,-9, ,
12, ,-10, ,
12, ,-10, ,
12, ,-9, ,
13, ,-10, ,
13, ,-10, ,
13, ,-9, ,
13, ,-10, ,
13, ,-10, ,
12, ,-10, ,
13, ,-9, ,
11, ,-9, ,
12, ,-10, ,
12, ,-10, ,
11, ,-9, ,
11, ,-9, ,
10, ,-9, ,
10, ,-10, ,
10, ,-10, ,
8, ,-10, ,
6, ,-10, ,
6, ,-10, ,
5, ,-10, ,
5, ,-10, ,
4, ,-10, ,
3, ,-10, ,
3, ,-10, ,
2, ,-10, ,
0, ,-10, ,
0, ,-10, ,
-1, ,-9, ,
0, ,-9, ,
-2, ,-9, ,
-3, ,-10, ,
-3, ,-10, ,
-4, ,-10, ,
-4, ,-10, ,
-4, ,-10, ,
-5, ,-9, ,
-5, ,-9, ,
-5, ,-9, ,
-5, ,-9, ,
-5, ,-9, ,
-5, ,-10, ,
-4, ,-10, ,
-4, ,-10, ,
-5, ,-10, ,
-5, ,-10, ,
-4, ,-10, ,
-3, ,-10, ,
-3, ,-10, ,
-3, ,-10, ,
-3, ,-10, ,
-2, ,-10, ,
-3, ,-10, ,
-2, ,-10, ,
-2, ,-10, ,
-3, ,-10, ,
-1, ,-10, ,
-2, ,-10, ,
-2, ,-10, ,
-2, ,-10, ,
-2, ,-10, ,
-2, ,-10, ,
-2, ,-9, ,
-3, ,-9, ,
-2, ,-10, ,
-4, ,-10, ,
-3, ,-10, ,
-3, ,-9, ,
-4, ,-9, ,
-4, ,-10, ,
-5, ,-10, ,
-7, ,-10, ,
-6, ,-9, ,
-7, ,-10, ,
-8, ,-10, ,
-8, ,-10, ,
-8, ,-10, ,
-7, ,-10, ,
-7, ,-9, ,
-8, ,-10, ,
-8, ,-10, ,
-9, ,-9, ,
-9, ,-10, ,
-9, ,-10, ,
-10, ,-9, ,
-10, ,-10, ,
-10, ,-10, ,
-10, ,-10, ,
-10, ,-10, ,
-10, ,-10, ,
-9, ,-10, ,
-9, ,-10, ,
-10, ,-10, ,
-10, ,-10, ,
-9, ,-10, ,
-9, ,-9, ,
-8, ,-9, ,
-9, ,-9, ,
-8, ,-9, ,
-8, ,-9, ,
-9, ,-9, ,
-8, ,-9, ,
-8, ,-9, ,
-9, ,-9, ,
-8, ,-10, ,
-8, ,-10, ,
-7, ,-10, ,
-7, ,-9, ,
-7, ,-10, ,
-7, ,-10, ,
-8, ,-9, ,
-8, ,-10, ,
-7, ,-10, ,
-8, ,-9, ,
-7, ,-9, ,
-7, ,-9, ,
-8, ,-9, ,
-8, ,-10, ,
-8, ,-10, ,
-8, ,-10, ,
-8, ,-10, ,
-8, ,-10, ,
-9, ,-10, ,
-8, ,-10, ,
-8, ,-9, ,
-7, ,-9, ,
-7, ,-9, ,
-8, ,-10, ,
-7, ,-10, ,
-8, ,-9, ,
-7, ,-9, ,
-7, ,-9, ,
-7, ,-9, ,
-6, ,-10, ,
-7, ,-10, ,
-7, ,-10, ,
-6, ,-9, ,
-5, ,-9, ,
-5, ,-9, ,
-5, ,-9, ,
-5, ,-9, ,
-5, ,-10, ,
-4, ,-10, ,
-5, ,-10, ,
-4, ,-10, ,
-4, ,-9, ,
-3, ,-10, ,
-2, ,-10, ,
-2, ,-10, ,
-2, ,-10, ,
-2, ,-9, ,
-1, ,-10, ,
0, ,-10, ,
-1, ,-10, ,
0, ,-10, ,
0, ,-10, ,
0, ,-10, ,
1, ,-10, ,
2, ,-10, ,
1, ,-10, ,
2, ,-10, ,
1, ,-10, ,
1, ,-9, ,
3, ,-9, ,
3, ,-9, ,
3, ,-9, ,
4, ,-9, ,
3, ,-9, ,
4, ,-10, ,
3, ,-10, ,
4, ,-10, ,
4, ,-9, ,
4, ,-9, ,
4, ,-9, ,
4, ,-9, ,
3, ,-10, ,
4, ,-10, ,
3, ,-9, ,
4, ,-10, ,
4, ,-10, ,
3, ,-9, ,
3, ,-9, ,
3, ,-9, ,
2, ,-9, ,
2, ,-10, ,
2, ,-10, ,
1, ,-10, ,
2, ,-9, ,
0, ,-10, ,
0, ,-10, ,
0, ,-10, ,
0, ,-10, ,
0, ,-10, ,
-1, ,-9, ,
-2, ,-10, ,
-2, ,-10, ,
-2, ,-9, ,
-1, ,-10, ,
-1, ,-10, ,
-1, ,-10, ,
-1, ,-10, ,
-2, ,-10, ,
-2, ,-10, ,
0, ,-10, ,
-1, ,-9, ,
0, ,-9, ,
0, ,-9, ,
2, ,-9, ,
2, ,-10, ,
2, ,-10, ,
3, ,-10, ,
4, ,-10, ,
3, ,-9, ,
5, ,-10, ,
6, ,-10, ,
6, ,-10, ,
7, ,-9, ,
7, ,-9, ,
7, ,-10, ,
7, ,-10, ,
7, ,-9, ,
6, ,-9, ,
6, ,-9, ,
6, ,-10, ,
5, ,-10, ,
5, ,-10, ,
4, ,-10, ,
4, ,-10, ,
3, ,-10, ,
3, ,-10, ,
1, ,-10, ,
0, ,-10, ,
-1, ,-10, ,
-2, ,-10, ,
-4, ,-10, ,
-4, ,-9, ,
-5, ,-10, ,
-5, ,-10, ,
-6, ,-10, ,
-7, ,-10, ,
-6, ,-9, ,
-9, ,-9, ,
-9, ,-9, ,
-8, ,-9, ,
-9, ,-10, ,
-9, ,-10, ,
-9, ,-10, ,
-9, ,-9, ,
-8, ,-9, ,
-9, ,-9, ,
-9, ,-9, ,
-8, ,-9, ,
-8, ,-9, ,
-7, ,-9, ,
-6, ,-9, ,
-7, ,-10, ,
-5, ,-10, ,
-5, ,-9, ,
-6, ,-9, ,
-4, ,-10, ,
-4, ,-10, ,
-3, ,-10, ,
-3, ,-10, ,
-4, ,-10, ,
-2, ,-10, ,
-4, ,-10, ,
-3, ,-10, ,
-3, ,-10, ,
-2, ,-10, ,
-2, ,-10, ,
-3, ,-9, ,
-3, ,-10, ,
-3, ,-10, ,
-3, ,-9, ,
-3, ,-10, ,
-3, ,-10, ,
-4, ,-10, ,
-4, ,-10, ,
-4, ,-9, ,
-4, ,-10, ,
-4, ,-10, ,
-4, ,-10, ,
-5, ,-10, ,
-4, ,-10, ,
-4, ,-10, ,
-4, ,-10, ,
-2, ,-9, ,
-3, ,-10, ,
-2, ,-10, ,
-2, ,-9, ,
-2, ,-9, ,
-1, ,-9, ,
-1, ,-10, ,
0, ,-10, ,
0, ,-9, ,
0, ,-9, ,
1, ,-10, ,
0, ,-10, ,
0, ,-10, ,
3, ,-10, ,
2, ,-10, ,
2, ,-10, ,
3, ,-10, ,
3, ,-9, ,
3, ,-10, ,
3, ,-10, ,
3, ,-10, ,
4, ,-10, ,
4, ,-10, ,
5, ,-10, ,
6, ,-10, ,
6, ,-10, ,
6, ,-10, ,
6, ,-10, ,
7, ,-10, ,
7, ,-10, ,
7, ,-9, ,
8, ,-9, ,
8, ,-9, ,
9, ,-10, ,
8, ,-10, ,
8, ,-10, ,
8, ,-10, ,
8, ,-10, ,
8, ,-9, ,
9, ,-10, ,
8, ,-10, ,
7, ,-10, ,
7, ,-10, ,
5, ,-10, ,
4, ,-10, ,
5, ,-10, ,
4, ,-10, ,
3, ,-10, ,
2, ,-9, ,
1, ,-9, ,
2, ,-9, ,
0, ,-9, ,
-1, ,-9, ,
-2, ,-9, ,
-3, ,-9, ,
-3, ,-9, ,
-4, ,-9, ,
-4, ,-9, ,
-4, ,-10, ,
-6, ,-10, ,
-7, ,-10, ,
-5, ,-10, ,
-5, ,-10, ,
-5, ,-10, ,
-5, ,-10, ,
-5, ,-10, ,
-5, ,-10, ,
-4, ,-9, ,
-3, ,-9, ,
-2, ,-9, ,
-1, ,-9, ,
0, ,-9, ,
0, ,-9, ,
-1, ,-9, ,
1, ,-9, ,
0, ,-9, ,
2, ,-10, ,
3, ,-10, ,
1, ,-9, ,
4, ,-9, ,
3, ,-9, ,
4, ,-10, ,
4, ,-10, ,
3, ,-10, ,
4, ,-10, ,
4, ,-10, ,
3, ,-9, ,
3, ,-10, ,
2, ,-10, ,
2, ,-10, ,
2, ,-10, ,
1, ,-10, ,
0, ,-10, ,
0, ,-10, ,
0, ,-10, ,
0, ,-10, ,
0, ,-10, ,
-1, ,-10, ,
0, ,-10, ,
-2, ,-9, ,
-2, ,-9, ,
-1, ,-9, ,
-2, ,-9, ,
-2, ,-10, ,
-1, ,-10, ,
-2, ,-10, ,
-1, ,-10, ,
-1, ,-10, ,
-1, ,-10, ,
-1, ,-10, ,
-2, ,-10, ,
0, ,-10, ,
0, ,-9, ,
0, ,-9, ,
0, ,-10, ,
1, ,-10, ,
1, ,-10, ,
2, ,-10, ,
1, ,-10, ,
3, ,-10, ,
4, ,-9, ,
3, ,-9, ,
4, ,-9, ,
4, ,-9, ,
3, ,-9, ,
5, ,-9, ,
4, ,-10, ,
5, ,-10, ,
6, ,-10, ,
6, ,-10, ,
6, ,-10, ,
6, ,-9, ,
6, ,-10, ,
7, ,-10, ,
6, ,-10, ,
8, ,-10, ,
8, ,-10, ,
7, ,-10, ,
8, ,-10, ,
7, ,-10, ,
7, ,-10, ,
9, ,-9, ,
8, ,-9, ,
8, ,-9, ,
8, ,-9, ,
8, ,-10, ,
7, ,-10, ,
7, ,-9, ,
7, ,-9, ,
7, ,-10, ,
5, ,-10, ,
6, ,-10, ,
6, ,-10, ,
5, ,-10, ,
5, ,-10, ,
4, ,-10, ,
4, ,-10, ,
4, ,-10, ,
4, ,-10, ,
4, ,-10, ,
4, ,-10, ,
3, ,-10, ,
3, ,-10, ,
2, ,-9, ,
2, ,-10, ,
2, ,-10, ,
2, ,-9, ,
1, ,-10, ,
1, ,-10, ,
1, ,-10, ,
1, ,-10, ,
0, ,-10, ,
0, ,-10, ,
0, ,-10, ,
-1, ,-10, ,
-1, ,-10, ,
0, ,-9, ,
0, ,-9, ,
-1, ,-9, ,
-2, ,-9, ,
-2, ,-10, ,
-2, ,-10, ,
-3, ,-9, ,
-3, ,-10, ,
-4, ,-10, ,
-5, ,-10, ,
-5, ,-10, ,
-6, ,-10, ,
-7, ,-10, ,
-6, ,-9, ,
-8, ,-10, ,
-8, ,-10, ,
-8, ,-10, ,
-10, ,-10, ,
-8, ,-10, ,
-10, ,-10, ,
-10, ,-10, ,
