raw_data/100% Glycerol, Impulsion 2Hz, Sonde 5MHz, Rampe 0.7Hz/temp0000362.CSV

Format,1.0B,
Memory Length,10000,Memory Length,10000,
IntpDistance,0,IntpDistance,0,
Trigger Address,159,Trigger Address,159,
Trigger Level,2.720E-01,Trigger Level,2.720E-01,
Source,CH1,Source,CH2,
Vertical Units,V,Vertical Units,V,
Vertical Units Div,0,Vertical Units Div,0,
Vertical Units Extend Div,16,Vertical Units Extend Div,16,
Label,,Label,,
Probe Type,0,Probe Type,0,
Probe Ratio,1.000e+00,Probe Ratio,1.000e+00,
Vertical Scale,2.000e-01,Vertical Scale,2.000e+00,
Vertical Position,0.000e+00,Vertical Position,0.000e+00,
Horizontal Units,S,Horizontal Units,S,
Horizontal Scale,5.000E-06,Horizontal Scale,5.000E-06,
Horizontal Position,2.420E-05,Horizontal Position,2.420E-05,
Horizontal Mode,Main,Horizontal Mode,Main,
SincET Mode,Real Time,SincET Mode,Real Time,
Sampling Period,5.000e-09,Sampling Period,5.000e-09,
Horizontal Old Scale,5.000E-06,Horizontal Old Scale,5.000E-06,
Horizontal Old Position,2.420E-05,Horizontal Old Position,2.420E-05,
Firmware,V1.32,Firmware,V1.32,
Mode,Fast,Mode,Fast,
Waveform Data,,Waveform Data,,
1, ,18, ,
1, ,18, ,
2, ,18, ,
2, ,18, ,
2, ,18, ,
2, ,18, ,
1, ,18, ,
2, ,18, ,
3, ,18, ,
1, ,18, ,
1, ,18, ,
3, ,18, ,
3, ,18, ,
3, ,18, ,
1, ,18, ,
2, ,18, ,
2, ,18, ,
1, ,18, ,
2, ,18, ,
2, ,18, ,
1, ,18, ,
3, ,18, ,
2, ,18, ,
1, ,18, ,
2, ,18, ,
1, ,18, ,
1, ,18, ,
2, ,18, ,
1, ,18, ,
2, ,18, ,
2, ,18, ,
1, ,18, ,
3, ,18, ,
1, ,18, ,
2, ,18, ,
2, ,18, ,
2, ,18, ,
2, ,18, ,
3, ,18, ,
2, ,18, ,
2, ,18, ,
2, ,18, ,
1, ,18, ,
2, ,18, ,
2, ,18, ,
2, ,18, ,
2, ,18, ,
1, ,18, ,
2, ,18, ,
2, ,18, ,
2, ,18, ,
2, ,18, ,
1, ,18, ,
2, ,17, ,
2, ,17, ,
1, ,17, ,
2, ,18, ,
1, ,18, ,
2, ,18, ,
2, ,18, ,
1, ,17, ,
1, ,17, ,
2, ,18, ,
2, ,18, ,
2, ,18, ,
2, ,18, ,
2, ,18, ,
2, ,18, ,
2, ,18, ,
3, ,18, ,
2, ,18, ,
2, ,18, ,
1, ,18, ,
3, ,18, ,
2, ,18, ,
2, ,18, ,
2, ,18, ,
2, ,18, ,
2, ,18, ,
2, ,18, ,
2, ,18, ,
2, ,18, ,
2, ,18, ,
2, ,18, ,
1, ,18, ,
1, ,18, ,
2, ,18, ,
1, ,18, ,
3, ,18, ,
2, ,18, ,
2, ,18, ,
2, ,18, ,
2, ,18, ,
2, ,18, ,
2, ,18, ,
1, ,18, ,
2, ,18, ,
1, ,18, ,
2, ,17, ,
2, ,17, ,
2, ,18, ,
3, ,18, ,
2, ,18, ,
1, ,18, ,
2, ,18, ,
1, ,18, ,
2, ,18, ,
2, ,18, ,
2, ,18, ,
2, ,18, ,
3, ,18, ,
3, ,18, ,
2, ,18, ,
1, ,18, ,
2, ,18, ,
2, ,18, ,
2, ,18, ,
2, ,18, ,
2, ,18, ,
1, ,18, ,
1, ,18, ,
2, ,18, ,
2, ,18, ,
2, ,18, ,
2, ,18, ,
2, ,18, ,
2, ,18, ,
1, ,18, ,
2, ,18, ,
1, ,18, ,
2, ,18, ,
2, ,18, ,
1, ,18, ,
3, ,18, ,
3, ,18, ,
1, ,18, ,
2, ,17, ,
2, ,17, ,
2, ,17, ,
2, ,17, ,
2, ,18, ,
2, ,18, ,
2, ,18, ,
2, ,18, ,
1, ,18, ,
3, ,18, ,
3, ,18, ,
3, ,18, ,
3, ,18, ,
3, ,18, ,
2, ,18, ,
1, ,18, ,
2, ,18, ,
1, ,18, ,
1, ,18, ,
2, ,18, ,
1, ,18, ,
1, ,18, ,
1, ,18, ,
2, ,18, ,
2, ,18, ,
1, ,18, ,
2, ,18, ,
2, ,18, ,
-1, ,18, ,
-2, ,18, ,
-2, ,18, ,
17, ,18, ,
63, ,18, ,
125, ,18, ,
125, ,18, ,
125, ,18, ,
122, ,18, ,
117, ,18, ,
-21, ,18, ,
41, ,18, ,
125, ,18, ,
125, ,18, ,
125, ,18, ,
125, ,18, ,
125, ,18, ,
125, ,18, ,
125, ,18, ,
125, ,18, ,
125, ,18, ,
125, ,18, ,
125, ,18, ,
125, ,18, ,
125, ,18, ,
125, ,18, ,
125, ,18, ,
125, ,18, ,
125, ,18, ,
125, ,18, ,
125, ,18, ,
125, ,18, ,
125, ,18, ,
125, ,18, ,
125, ,18, ,
125, ,18, ,
125, ,18, ,
125, ,18, ,
124, ,18, ,
122, ,18, ,
116, ,18, ,
112, ,18, ,
104, ,18, ,
99, ,18, ,
97, ,18, ,
91, ,18, ,
84, ,18, ,
80, ,18, ,
76, ,18, ,
73, ,18, ,
64, ,18, ,
62, ,18, ,
61, ,18, ,
58, ,18, ,
52, ,18, ,
50, ,18, ,
48, ,18, ,
44, ,18, ,
42, ,18, ,
39, ,18, ,
38, ,18, ,
35, ,18, ,
32, ,18, ,
32, ,18, ,
29, ,18, ,
27, ,18, ,
26, ,18, ,
23, ,18, ,
23, ,18, ,
20, ,18, ,
17, ,18, ,
17, ,18, ,
16, ,18, ,
17, ,18, ,
15, ,18, ,
13, ,18, ,
12, ,18, ,
11, ,18, ,
10, ,18, ,
10, ,18, ,
7, ,18, ,
7, ,18, ,
7, ,18, ,
6, ,18, ,
5, ,18, ,
5, ,18, ,
4, ,18, ,
4, ,18, ,
3, ,18, ,
2, ,18, ,
2, ,18, ,
1, ,18, ,
1, ,18, ,
0, ,18, ,
0, ,18, ,
0, ,18, ,
0, ,18, ,
0, ,18, ,
0, ,18, ,
-2, ,18, ,
0, ,18, ,
-1, ,18, ,
-2, ,18, ,
-2, ,18, ,
-2, ,18, ,
-2, ,18, ,
-2, ,18, ,
-2, ,18, ,
-2, ,18, ,
-3, ,18, ,
-3, ,18, ,
-2, ,18, ,
-2, ,18, ,
-2, ,18, ,
-2, ,18, ,
-2, ,18, ,
-2, ,18, ,
-3, ,18, ,
-3, ,18, ,
-2, ,18, ,
-3, ,18, ,
-3, ,18, ,
-2, ,18, ,
-2, ,18, ,
-2, ,18, ,
-3, ,18, ,
-3, ,18, ,
-2, ,18, ,
-2, ,18, ,
-2, ,18, ,
-2, ,18, ,
-2, ,18, ,
-2, ,18, ,
-2, ,18, ,
-2, ,18, ,
-2, ,18, ,
-3, ,18, ,
-1, ,18, ,
-3, ,18, ,
-2, ,18, ,
-2, ,18, ,
-2, ,18, ,
-2, ,18, ,
-2, ,18, ,
-2, ,18, ,
-2, ,18, ,
-1, ,18, ,
-2, ,18, ,
-2, ,18, ,
-2, ,18, ,
-1, ,18, ,
-1, ,18, ,
-1, ,18, ,
-1, ,18, ,
0, ,18, ,
0, ,18, ,
0, ,18, ,
0, ,18, ,
-1, ,18, ,
-1, ,18, ,
-1, ,18, ,
-1, ,18, ,
0, ,18, ,
-1, ,18, ,
0, ,18, ,
-1, ,18, ,
-2, ,18, ,
0, ,18, ,
0, ,18, ,
0, ,18, ,
0, ,18, ,
1, ,18, ,
1, ,18, ,
0, ,18, ,
1, ,18, ,
0, ,18, ,
0, ,18, ,
0, ,18, ,
0, ,18, ,
0, ,18, ,
1, ,18, ,
1, ,18, ,
1, ,18, ,
1, ,18, ,
1, ,18, ,
2, ,18, ,
1, ,18, ,
0, ,18, ,
1, ,18, ,
0, ,18, ,
1, ,18, ,
1, ,18, ,
0, ,18, ,
0, ,17, ,
1, ,17, ,
1, ,17, ,
1, ,18, ,
1, ,18, ,
1, ,18, ,
2, ,18, ,
1, ,18, ,
1, ,18, ,
2, ,18, ,
1, ,18, ,
2, ,18, ,
0, ,18, ,
1, ,18, ,
2, ,18, ,
0, ,18, ,
2, ,18, ,
1, ,18, ,
1, ,18, ,
1, ,18, ,
1, ,18, ,
1, ,18, ,
1, ,18, ,
1, ,18, ,
2, ,18, ,
2, ,18, ,
1, ,18, ,
2, ,18, ,
1, ,18, ,
1, ,18, ,
2, ,18, ,
1, ,18, ,
1, ,18, ,
1, ,18, ,
1, ,18, ,
1, ,18, ,
1, ,18, ,
1, ,18, ,
2, ,18, ,
1, ,18, ,
2, ,18, ,
2, ,18, ,
1, ,18, ,
2, ,18, ,
0, ,18, ,
1, ,18, ,
2, ,18, ,
2, ,18, ,
2, ,18, ,
2, ,18, ,
0, ,18, ,
2, ,18, ,
1, ,18, ,
1, ,18, ,
2, ,18, ,
2, ,18, ,
2, ,18, ,
2, ,18, ,
1, ,18, ,
2, ,18, ,
1, ,18, ,
1, ,17, ,
1, ,17, ,
1, ,18, ,
2, ,18, ,
2, ,18, ,
0, ,18, ,
1, ,18, ,
0, ,18, ,
0, ,18, ,
1, ,18, ,
1, ,18, ,
1, ,18, ,
1, ,18, ,
1, ,18, ,
1, ,18, ,
1, ,18, ,
1, ,18, ,
2, ,18, ,
1, ,18, ,
1, ,18, ,
0, ,18, ,
0, ,18, ,
0, ,18, ,
0, ,18, ,
-1, ,18, ,
-2, ,18, ,
-2, ,18, ,
-1, ,18, ,
-2, ,18, ,
-1, ,18, ,
-1, ,18, ,
-2, ,18, ,
0, ,18, ,
0, ,18, ,
0, ,18, ,
1, ,18, ,
0, ,18, ,
-2, ,18, ,
-2, ,18, ,
-3, ,18, ,
-6, ,18, ,
-7, ,18, ,
-10, ,18, ,
-12, ,18, ,
-21, ,18, ,
-26, ,18, ,
-30, ,18, ,
-37, ,18, ,
-48, ,18, ,
-52, ,18, ,
-57, ,18, ,
-62, ,18, ,
-68, ,18, ,
-72, ,18, ,
-76, ,18, ,
-82, ,18, ,
-99, ,18, ,
-107, ,18, ,
-116, ,18, ,
-123, ,18, ,
-126, ,18, ,
-126, ,18, ,
-126, ,18, ,
-126, ,18, ,
-109, ,18, ,
-94, ,18, ,
-79, ,18, ,
-61, ,18, ,
-25, ,18, ,
-11, ,18, ,
6, ,18, ,
16, ,18, ,
34, ,18, ,
40, ,18, ,
43, ,18, ,
47, ,18, ,
46, ,18, ,
45, ,18, ,
44, ,18, ,
39, ,18, ,
33, ,18, ,
26, ,18, ,
20, ,18, ,
17, ,18, ,
7, ,18, ,
2, ,18, ,
-3, ,18, ,
-6, ,18, ,
-15, ,18, ,
-20, ,18, ,
-27, ,18, ,
-35, ,18, ,
-54, ,18, ,
-64, ,18, ,
-75, ,18, ,
-86, ,18, ,
-103, ,18, ,
-107, ,18, ,
-110, ,18, ,
-107, ,18, ,
-98, ,18, ,
-88, ,18, ,
-74, ,18, ,
-62, ,18, ,
-28, ,18, ,
-8, ,18, ,
8, ,18, ,
26, ,18, ,
52, ,18, ,
62, ,18, ,
70, ,18, ,
75, ,18, ,
85, ,18, ,
89, ,18, ,
91, ,18, ,
90, ,18, ,
92, ,18, ,
90, ,18, ,
90, ,18, ,
88, ,18, ,
83, ,18, ,
83, ,18, ,
79, ,18, ,
78, ,18, ,
72, ,18, ,
69, ,18, ,
65, ,18, ,
60, ,18, ,
53, ,18, ,
49, ,18, ,
43, ,18, ,
41, ,18, ,
35, ,18, ,
30, ,18, ,
28, ,18, ,
28, ,18, ,
30, ,18, ,
31, ,18, ,
33, ,18, ,
35, ,18, ,
38, ,18, ,
38, ,18, ,
39, ,18, ,
39, ,18, ,
40, ,18, ,
40, ,18, ,
38, ,18, ,
37, ,18, ,
36, ,18, ,
35, ,18, ,
35, ,18, ,
35, ,18, ,
32, ,18, ,
31, ,18, ,
30, ,18, ,
29, ,18, ,
28, ,18, ,
26, ,18, ,
25, ,18, ,
25, ,18, ,
24, ,18, ,
23, ,18, ,
22, ,18, ,
21, ,18, ,
19, ,18, ,
18, ,18, ,
18, ,18, ,
17, ,18, ,
16, ,18, ,
16, ,18, ,
15, ,18, ,
15, ,18, ,
14, ,18, ,
12, ,18, ,
13, ,18, ,
10, ,18, ,
-10, ,18, ,
-54, ,18, ,
-126, ,18, ,
-126, ,18, ,
-126, ,18, ,
-126, ,18, ,
-126, ,17, ,
-126, ,17, ,
-126, ,18, ,
-126, ,18, ,
-126, ,18, ,
-126, ,18, ,
-126, ,18, ,
-126, ,18, ,
-126, ,18, ,
-126, ,18, ,
-126, ,18, ,
-126, ,18, ,
-126, ,18, ,
-126, ,18, ,
-126, ,18, ,
-126, ,18, ,
-126, ,18, ,
-126, ,18, ,
-126, ,18, ,
-126, ,18, ,
-126, ,17, ,
-126, ,17, ,
-126, ,18, ,
-126, ,18, ,
-126, ,18, ,
-124, ,18, ,
-48, ,18, ,
-7, ,18, ,
7, ,18, ,
4, ,18, ,
-11, ,18, ,
-14, ,18, ,
-10, ,18, ,
-5, ,18, ,
9, ,18, ,
21, ,18, ,
31, ,18, ,
45, ,18, ,
74, ,18, ,
85, ,18, ,
95, ,18, ,
98, ,18, ,
96, ,18, ,
90, ,18, ,
78, ,18, ,
65, ,18, ,
32, ,18, ,
11, ,18, ,
-9, ,18, ,
-28, ,18, ,
-65, ,18, ,
-79, ,18, ,
-94, ,18, ,
-104, ,18, ,
-119, ,18, ,
-124, ,18, ,
-126, ,17, ,
-126, ,17, ,
-121, ,18, ,
-117, ,18, ,
-112, ,18, ,
-104, ,18, ,
-82, ,18, ,
-67, ,18, ,
-50, ,18, ,
-34, ,18, ,
-4, ,18, ,
11, ,18, ,
24, ,18, ,
35, ,18, ,
52, ,18, ,
55, ,18, ,
58, ,18, ,
57, ,18, ,
54, ,18, ,
51, ,18, ,
44, ,18, ,
37, ,18, ,
21, ,18, ,
12, ,18, ,
4, ,18, ,
-4, ,18, ,
-19, ,18, ,
-25, ,18, ,
-31, ,18, ,
-35, ,18, ,
-38, ,18, ,
-37, ,18, ,
-36, ,18, ,
-35, ,18, ,
-24, ,18, ,
-16, ,18, ,
-8, ,18, ,
2, ,18, ,
26, ,18, ,
36, ,18, ,
49, ,18, ,
61, ,18, ,
87, ,18, ,
101, ,18, ,
110, ,18, ,
122, ,18, ,
125, ,18, ,
125, ,18, ,
125, ,18, ,
125, ,18, ,
125, ,18, ,
125, ,18, ,
125, ,18, ,
125, ,18, ,
125, ,18, ,
125, ,18, ,
125, ,18, ,
124, ,18, ,
123, ,18, ,
118, ,18, ,
110, ,18, ,
105, ,18, ,
93, ,18, ,
88, ,18, ,
86, ,17, ,
82, ,17, ,
80, ,17, ,
82, ,18, ,
82, ,18, ,
83, ,17, ,
91, ,17, ,
93, ,17, ,
99, ,17, ,
102, ,18, ,
111, ,18, ,
116, ,18, ,
118, ,18, ,
125, ,18, ,
125, ,18, ,
125, ,18, ,
125, ,18, ,
125, ,18, ,
125, ,18, ,
125, ,18, ,
125, ,18, ,
125, ,18, ,
125, ,18, ,
125, ,18, ,
125, ,18, ,
124, ,18, ,
118, ,18, ,
112, ,18, ,
105, ,18, ,
98, ,18, ,
79, ,18, ,
68, ,18, ,
57, ,18, ,
45, ,18, ,
21, ,18, ,
9, ,18, ,
-6, ,18, ,
-17, ,18, ,
-40, ,18, ,
-52, ,18, ,
-62, ,18, ,
-72, ,18, ,
-90, ,18, ,
-97, ,18, ,
-103, ,18, ,
-106, ,18, ,
-114, ,18, ,
-119, ,18, ,
-120, ,18, ,
-123, ,18, ,
-123, ,18, ,
-122, ,18, ,
-122, ,18, ,
-121, ,18, ,
-115, ,18, ,
-115, ,18, ,
-109, ,18, ,
-107, ,18, ,
-98, ,18, ,
-93, ,18, ,
-88, ,18, ,
-81, ,18, ,
-69, ,18, ,
-64, ,18, ,
-58, ,18, ,
-53, ,18, ,
-41, ,18, ,
-37, ,18, ,
-34, ,18, ,
-29, ,18, ,
-20, ,18, ,
-16, ,18, ,
-12, ,18, ,
-7, ,18, ,
3, ,18, ,
8, ,18, ,
13, ,18, ,
20, ,18, ,
31, ,18, ,
35, ,18, ,
41, ,18, ,
47, ,18, ,
58, ,18, ,
62, ,18, ,
65, ,18, ,
70, ,18, ,
76, ,18, ,
78, ,18, ,
80, ,18, ,
80, ,18, ,
84, ,18, ,
85, ,18, ,
83, ,18, ,
84, ,18, ,
82, ,18, ,
81, ,18, ,
81, ,18, ,
78, ,18, ,
76, ,18, ,
74, ,18, ,
72, ,18, ,
72, ,18, ,
71, ,18, ,
68, ,18, ,
68, ,18, ,
67, ,18, ,
65, ,18, ,
65, ,18, ,
64, ,18, ,
65, ,18, ,
62, ,18, ,
61, ,18, ,
61, ,18, ,
59, ,18, ,
58, ,18, ,
57, ,18, ,
57, ,17, ,
56, ,17, ,
56, ,18, ,
55, ,18, ,
56, ,18, ,
55, ,18, ,
56, ,18, ,
56, ,18, ,
55, ,18, ,
54, ,18, ,
51, ,18, ,
51, ,18, ,
49, ,18, ,
46, ,18, ,
40, ,18, ,
38, ,18, ,
34, ,18, ,
31, ,18, ,
23, ,18, ,
18, ,18, ,
15, ,18, ,
10, ,18, ,
4, ,18, ,
0, ,18, ,
-3, ,18, ,
-5, ,18, ,
-11, ,18, ,
-14, ,18, ,
-18, ,18, ,
-20, ,18, ,
-25, ,18, ,
-25, ,18, ,
-28, ,18, ,
-29, ,18, ,
-30, ,18, ,
-33, ,18, ,
-32, ,18, ,
-34, ,18, ,
-34, ,18, ,
-33, ,18, ,
-34, ,18, ,
-32, ,18, ,
-30, ,18, ,
-27, ,18, ,
-27, ,18, ,
-26, ,18, ,
-24, ,18, ,
-19, ,18, ,
-19, ,18, ,
-18, ,18, ,
-15, ,18, ,
-14, ,18, ,
-11, ,18, ,
-11, ,18, ,
-10, ,18, ,
-11, ,18, ,
-11, ,18, ,
-12, ,18, ,
-14, ,18, ,
-15, ,18, ,
-16, ,18, ,
-20, ,18, ,
-25, ,18, ,
-27, ,18, ,
-34, ,18, ,
-35, ,18, ,
-44, ,18, ,
-49, ,18, ,
-52, ,18, ,
-57, ,18, ,
-67, ,18, ,
-72, ,18, ,
-76, ,18, ,
-80, ,18, ,
-87, ,18, ,
-92, ,18, ,
-96, ,18, ,
-99, ,18, ,
-105, ,18, ,
-105, ,18, ,
-106, ,18, ,
-108, ,18, ,
-108, ,18, ,
-108, ,18, ,
-108, ,18, ,
-107, ,18, ,
-105, ,18, ,
-105, ,18, ,
-105, ,18, ,
-104, ,18, ,
-104, ,18, ,
-104, ,18, ,
-105, ,18, ,
-106, ,18, ,
-110, ,18, ,
-112, ,18, ,
-116, ,18, ,
-121, ,18, ,
-126, ,18, ,
-126, ,18, ,
-126, ,18, ,
-126, ,18, ,
-126, ,18, ,
-126, ,18, ,
-126, ,18, ,
-126, ,18, ,
-126, ,18, ,
-126, ,18, ,
-126, ,18, ,
-126, ,18, ,
-126, ,18, ,
-126, ,18, ,
-126, ,18, ,
-126, ,18, ,
-126, ,18, ,
-126, ,18, ,
-126, ,18, ,
-126, ,18, ,
-126, ,18, ,
-121, ,18, ,
-116, ,18, ,
-112, ,18, ,
-104, ,18, ,
-100, ,18, ,
-96, ,18, ,
-92, ,18, ,
-84, ,18, ,
-81, ,18, ,
-79, ,18, ,
-74, ,18, ,
-66, ,18, ,
-66, ,18, ,
-62, ,18, ,
-60, ,18, ,
-55, ,18, ,
-51, ,18, ,
-49, ,18, ,
-46, ,18, ,
-41, ,18, ,
-40, ,18, ,
-38, ,18, ,
-37, ,18, ,
-31, ,18, ,
-22, ,18, ,
-2, ,18, ,
63, ,18, ,
125, ,18, ,
125, ,18, ,
125, ,18, ,
125, ,18, ,
125, ,18, ,
125, ,18, ,
125, ,18, ,
125, ,18, ,
125, ,18, ,
125, ,18, ,
125, ,18, ,
125, ,18, ,
125, ,18, ,
125, ,18, ,
125, ,18, ,
125, ,18, ,
125, ,18, ,
125, ,18, ,
125, ,18, ,
125, ,18, ,
125, ,18, ,
125, ,18, ,
125, ,18, ,
125, ,18, ,
125, ,18, ,
125, ,18, ,
125, ,18, ,
125, ,18, ,
125, ,18, ,
125, ,18, ,
125, ,18, ,
125, ,18, ,
123, ,18, ,
108, ,18, ,
90, ,17, ,
69, ,17, ,
29, ,17, ,
12, ,18, ,
-7, ,18, ,
-22, ,18, ,
-50, ,18, ,
-62, ,18, ,
-69, ,18, ,
-79, ,18, ,
-84, ,18, ,
-84, ,18, ,
-85, ,18, ,
-81, ,18, ,
-70, ,18, ,
-63, ,18, ,
-54, ,18, ,
-45, ,18, ,
-27, ,18, ,
-17, ,18, ,
-7, ,18, ,
1, ,18, ,
18, ,18, ,
23, ,18, ,
30, ,18, ,
34, ,18, ,
37, ,18, ,
39, ,18, ,
36, ,18, ,
36, ,18, ,
32, ,18, ,
26, ,18, ,
22, ,18, ,
16, ,18, ,
2, ,18, ,
-4, ,18, ,
-11, ,18, ,
-19, ,17, ,
-35, ,17, ,
-42, ,17, ,
-47, ,18, ,
-54, ,18, ,
-64, ,18, ,
-67, ,18, ,
-72, ,18, ,
-74, ,18, ,
-75, ,18, ,
-76, ,18, ,
-75, ,18, ,
-75, ,18, ,
-71, ,18, ,
-69, ,18, ,
-68, ,18, ,
-63, ,18, ,
-58, ,18, ,
-55, ,18, ,
-51, ,18, ,
-49, ,18, ,
-43, ,18, ,
-39, ,18, ,
-39, ,18, ,
-36, ,18, ,
-32, ,18, ,
-32, ,18, ,
-29, ,18, ,
-29, ,18, ,
-29, ,18, ,
-28, ,18, ,
-28, ,18, ,
-29, ,18, ,
-32, ,18, ,
-35, ,18, ,
-35, ,18, ,
-39, ,18, ,
-44, ,18, ,
-45, ,18, ,
-49, ,18, ,
-52, ,18, ,
-57, ,18, ,
-60, ,18, ,
-63, ,18, ,
-66, ,18, ,
-70, ,18, ,
-71, ,18, ,
-72, ,18, ,
-72, ,18, ,
-74, ,18, ,
-74, ,18, ,
-73, ,18, ,
-72, ,18, ,
-71, ,18, ,
-69, ,18, ,
-67, ,18, ,
-66, ,18, ,
-58, ,18, ,
-57, ,18, ,
-52, ,18, ,
-49, ,18, ,
-42, ,18, ,
-39, ,18, ,
-37, ,18, ,
-33, ,18, ,
-29, ,18, ,
-27, ,18, ,
-25, ,18, ,
-25, ,18, ,
-22, ,18, ,
-22, ,18, ,
-24, ,18, ,
-24, ,18, ,
-26, ,18, ,
-29, ,18, ,
-32, ,18, ,
-35, ,18, ,
-42, ,18, ,
-44, ,18, ,
-50, ,18, ,
-54, ,18, ,
-65, ,18, ,
-72, ,18, ,
-77, ,18, ,
-84, ,18, ,
-94, ,18, ,
-99, ,18, ,
-105, ,18, ,
-106, ,18, ,
-114, ,18, ,
-117, ,18, ,
-119, ,18, ,
-121, ,18, ,
-123, ,18, ,
-123, ,18, ,
-122, ,18, ,
-120, ,18, ,
-115, ,18, ,
-113, ,18, ,
-108, ,18, ,
-105, ,18, ,
-96, ,17, ,
-91, ,17, ,
-83, ,18, ,
-77, ,18, ,
-64, ,18, ,
-56, ,18, ,
-49, ,18, ,
-41, ,18, ,
-27, ,18, ,
-19, ,18, ,
-12, ,18, ,
-4, ,18, ,
10, ,18, ,
17, ,18, ,
23, ,18, ,
27, ,18, ,
39, ,18, ,
45, ,18, ,
49, ,18, ,
53, ,18, ,
62, ,18, ,
64, ,18, ,
67, ,18, ,
69, ,18, ,
73, ,18, ,
75, ,18, ,
75, ,18, ,
75, ,18, ,
76, ,18, ,
74, ,18, ,
73, ,18, ,
70, ,18, ,
66, ,18, ,
64, ,18, ,
59, ,18, ,
57, ,18, ,
49, ,18, ,
44, ,18, ,
41, ,18, ,
36, ,18, ,
29, ,18, ,
25, ,18, ,
22, ,18, ,
19, ,18, ,
12, ,18, ,
9, ,18, ,
4, ,18, ,
3, ,18, ,
-1, ,18, ,
-1, ,18, ,
-4, ,18, ,
-5, ,18, ,
-6, ,18, ,
-6, ,18, ,
-6, ,18, ,
-6, ,18, ,
-6, ,18, ,
-4, ,18, ,
-5, ,18, ,
-3, ,18, ,
-3, ,18, ,
-3, ,18, ,
-2, ,18, ,
-3, ,18, ,
-3, ,18, ,
-3, ,18, ,
-5, ,18, ,
-5, ,18, ,
-5, ,18, ,
-6, ,18, ,
-6, ,18, ,
-7, ,18, ,
-9, ,18, ,
-10, ,18, ,
-10, ,18, ,
-11, ,18, ,
-11, ,18, ,
-12, ,18, ,
-12, ,18, ,
-14, ,18, ,
-14, ,18, ,
-13, ,18, ,
-14, ,18, ,
-13, ,18, ,
-13, ,18, ,
-12, ,18, ,
-12, ,18, ,
-11, ,18, ,
-10, ,18, ,
-10, ,18, ,
-9, ,17, ,
-8, ,17, ,
-7, ,18, ,
-8, ,18, ,
-6, ,18, ,
-7, ,18, ,
-7, ,18, ,
-6, ,18, ,
-6, ,18, ,
-8, ,18, ,
-8, ,18, ,
-9, ,18, ,
-9, ,18, ,
-10, ,18, ,
-12, ,18, ,
-12, ,18, ,
-13, ,17, ,
-13, ,17, ,
-15, ,18, ,
-16, ,18, ,
-16, ,18, ,
-17, ,18, ,
-18, ,18, ,
-18, ,18, ,
-18, ,18, ,
-19, ,18, ,
-18, ,18, ,
-20, ,18, ,
-20, ,18, ,
-19, ,18, ,
-19, ,18, ,
-19, ,18, ,
-17, ,18, ,
-17, ,18, ,
-15, ,18, ,
-14, ,18, ,
-12, ,18, ,
-11, ,18, ,
-8, ,18, ,
-6, ,18, ,
-5, ,18, ,
-1, ,18, ,
4, ,18, ,
5, ,18, ,
8, ,18, ,
11, ,18, ,
16, ,18, ,
21, ,18, ,
25, ,18, ,
30, ,18, ,
37, ,18, ,
40, ,18, ,
45, ,18, ,
49, ,18, ,
59, ,18, ,
65, ,18, ,
68, ,18, ,
74, ,18, ,
86, ,18, ,
89, ,18, ,
96, ,18, ,
100, ,18, ,
111, ,18, ,
118, ,18, ,
124, ,18, ,
125, ,18, ,
125, ,18, ,
125, ,18, ,
125, ,18, ,
125, ,18, ,
125, ,18, ,
125, ,18, ,
125, ,18, ,
125, ,18, ,
125, ,18, ,
125, ,18, ,
125, ,18, ,
125, ,18, ,
125, ,18, ,
125, ,18, ,
125, ,18, ,
125, ,18, ,
125, ,18, ,
125, ,18, ,
125, ,18, ,
125, ,18, ,
125, ,18, ,
125, ,18, ,
125, ,18, ,
125, ,18, ,
125, ,18, ,
125, ,18, ,
125, ,18, ,
125, ,18, ,
125, ,18, ,
125, ,18, ,
124, ,18, ,
124, ,18, ,
110, ,18, ,
98, ,18, ,
83, ,18, ,
61, ,18, ,
11, ,18, ,
-23, ,18, ,
-60, ,18, ,
-98, ,18, ,
-126, ,18, ,
-126, ,18, ,
-126, ,18, ,
-126, ,18, ,
-126, ,18, ,
-126, ,18, ,
-126, ,18, ,
-126, ,18, ,
-126, ,18, ,
-126, ,18, ,
-126, ,18, ,
-126, ,18, ,
-126, ,18, ,
-126, ,18, ,
-126, ,18, ,
-126, ,18, ,
-126, ,18, ,
-126, ,18, ,
-126, ,18, ,
-126, ,18, ,
-126, ,18, ,
-126, ,18, ,
-126, ,18, ,
-126, ,18, ,
-126, ,18, ,
-126, ,18, ,
-126, ,18, ,
-126, ,18, ,
-126, ,18, ,
-126, ,18, ,
-126, ,18, ,
-126, ,18, ,
-126, ,18, ,
-126, ,18, ,
-126, ,18, ,
-126, ,18, ,
-117, ,18, ,
-113, ,18, ,
-107, ,18, ,
-104, ,18, ,
-94, ,18, ,
-90, ,18, ,
-84, ,18, ,
-69, ,18, ,
67, ,18, ,
125, ,18, ,
125, ,18, ,
125, ,18, ,
125, ,18, ,
125, ,17, ,
125, ,17, ,
125, ,18, ,
125, ,18, ,
125, ,18, ,
125, ,18, ,
125, ,18, ,
125, ,18, ,
125, ,18, ,
125, ,18, ,
125, ,18, ,
125, ,18, ,
125, ,18, ,
125, ,18, ,
125, ,18, ,
125, ,18, ,
125, ,18, ,
124, ,18, ,
123, ,18, ,
64, ,18, ,
13, ,18, ,
-36, ,18, ,
-79, ,18, ,
-126, ,18, ,
-126, ,18, ,
-126, ,18, ,
-126, ,18, ,
-126, ,18, ,
-126, ,18, ,
-126, ,18, ,
-126, ,18, ,
-126, ,18, ,
-126, ,18, ,
-126, ,18, ,
-126, ,18, ,
-126, ,18, ,
-125, ,18, ,
-114, ,18, ,
-98, ,18, ,
-66, ,18, ,
-52, ,18, ,
-39, ,18, ,
-30, ,18, ,
-11, ,18, ,
-2, ,18, ,
3, ,18, ,
10, ,18, ,
18, ,18, ,
18, ,18, ,
20, ,18, ,
21, ,18, ,
21, ,18, ,
23, ,18, ,
22, ,18, ,
25, ,18, ,
28, ,18, ,
30, ,18, ,
33, ,18, ,
35, ,18, ,
46, ,18, ,
50, ,18, ,
55, ,18, ,
61, ,18, ,
72, ,18, ,
74, ,18, ,
79, ,18, ,
82, ,18, ,
84, ,18, ,
84, ,18, ,
83, ,17, ,
79, ,17, ,
73, ,17, ,
66, ,18, ,
61, ,18, ,
52, ,18, ,
35, ,18, ,
28, ,18, ,
17, ,18, ,
8, ,18, ,
-13, ,18, ,
-23, ,18, ,
-32, ,18, ,
-42, ,18, ,
-55, ,18, ,
-61, ,18, ,
-66, ,18, ,
-71, ,18, ,
-75, ,18, ,
-79, ,18, ,
-79, ,18, ,
-80, ,18, ,
-78, ,18, ,
-75, ,18, ,
-73, ,18, ,
-73, ,18, ,
-69, ,18, ,
-69, ,18, ,
-68, ,18, ,
-69, ,18, ,
-70, ,18, ,
-72, ,18, ,
-72, ,18, ,
-74, ,18, ,
-78, ,18, ,
-81, ,18, ,
-82, ,18, ,
-85, ,18, ,
-88, ,18, ,
-88, ,18, ,
-88, ,18, ,
-88, ,18, ,
-88, ,18, ,
-84, ,18, ,
-83, ,18, ,
-79, ,18, ,
-73, ,18, ,
-67, ,18, ,
-63, ,18, ,
-59, ,18, ,
-48, ,18, ,
-43, ,18, ,
-38, ,18, ,
-35, ,18, ,
-25, ,18, ,
-22, ,18, ,
-20, ,18, ,
-17, ,18, ,
-15, ,18, ,
-14, ,18, ,
-13, ,18, ,
-13, ,18, ,
-14, ,18, ,
-16, ,18, ,
-16, ,18, ,
-19, ,18, ,
-23, ,18, ,
-24, ,18, ,
-25, ,18, ,
-28, ,18, ,
-29, ,17, ,
-30, ,17, ,
-30, ,18, ,
-31, ,18, ,
-28, ,18, ,
-29, ,18, ,
-26, ,18, ,
-25, ,18, ,
-22, ,18, ,
-19, ,18, ,
-15, ,18, ,
-13, ,18, ,
-9, ,18, ,
-5, ,18, ,
-2, ,18, ,
-2, ,18, ,
6, ,18, ,
8, ,18, ,
9, ,18, ,
13, ,18, ,
19, ,18, ,
20, ,18, ,
21, ,18, ,
23, ,18, ,
26, ,18, ,
29, ,18, ,
31, ,18, ,
32, ,18, ,
35, ,18, ,
35, ,18, ,
38, ,18, ,
37, ,18, ,
40, ,18, ,
42, ,18, ,
42, ,18, ,
44, ,18, ,
45, ,18, ,
44, ,18, ,
46, ,18, ,
44, ,18, ,
44, ,18, ,
43, ,18, ,
43, ,18, ,
41, ,18, ,
39, ,18, ,
36, ,18, ,
36, ,18, ,
33, ,18, ,
29, ,18, ,
28, ,18, ,
25, ,18, ,
22, ,18, ,
18, ,18, ,
14, ,18, ,
12, ,18, ,
10, ,18, ,
4, ,18, ,
1, ,18, ,
-3, ,18, ,
-3, ,18, ,
-10, ,18, ,
-12, ,18, ,
-12, ,18, ,
-17, ,18, ,
-20, ,18, ,
-20, ,18, ,
-23, ,18, ,
-23, ,18, ,
-26, ,18, ,
-28, ,18, ,
-29, ,18, ,
-30, ,18, ,
-32, ,18, ,
-31, ,18, ,
-32, ,18, ,
-31, ,18, ,
-35, ,18, ,
-35, ,18, ,
-35, ,18, ,
-35, ,18, ,
-36, ,18, ,
-37, ,18, ,
-38, ,18, ,
-37, ,18, ,
-40, ,18, ,
-41, ,18, ,
-41, ,18, ,
-42, ,18, ,
-44, ,18, ,
-44, ,18, ,
-44, ,18, ,
-44, ,18, ,
-44, ,18, ,
-46, ,18, ,
-46, ,18, ,
-47, ,18, ,
-47, ,18, ,
-46, ,18, ,
-47, ,18, ,
-46, ,18, ,
-46, ,18, ,
-46, ,18, ,
-44, ,18, ,
-44, ,18, ,
-43, ,18, ,
-43, ,18, ,
-41, ,18, ,
-39, ,18, ,
-38, ,18, ,
-35, ,18, ,
-35, ,18, ,
-35, ,18, ,
-32, ,18, ,
-30, ,18, ,
-29, ,18, ,
-27, ,18, ,
-24, ,18, ,
-24, ,18, ,
-22, ,18, ,
-21, ,18, ,
-19, ,18, ,
-18, ,18, ,
-18, ,18, ,
-17, ,18, ,
-17, ,18, ,
