raw_data/100% Glycerol, Impulsion 2Hz, Sonde 5MHz, Rampe 0.7Hz/temp0000320.CSV

Format,1.0B,
Memory Length,10000,Memory Length,10000,
IntpDistance,0,IntpDistance,0,
Trigger Address,159,Trigger Address,159,
Trigger Level,2.720E-01,Trigger Level,2.720E-01,
Source,CH1,Source,CH2,
Vertical Units,V,Vertical Units,V,
Vertical Units Div,0,Vertical Units Div,0,
Vertical Units Extend Div,16,Vertical Units Extend Div,16,
Label,,Label,,
Probe Type,0,Probe Type,0,
Probe Ratio,1.000e+00,Probe Ratio,1.000e+00,
Vertical Scale,2.000e-01,Vertical Scale,2.000e+00,
Vertical Position,0.000e+00,Vertical Position,0.000e+00,
Horizontal Units,S,Horizontal Units,S,
Horizontal Scale,5.000E-06,Horizontal Scale,5.000E-06,
Horizontal Position,2.420E-05,Horizontal Position,2.420E-05,
Horizontal Mode,Main,Horizontal Mode,Main,
SincET Mode,Real Time,SincET Mode,Real Time,
Sampling Period,5.000e-09,Sampling Period,5.000e-09,
Horizontal Old Scale,5.000E-06,Horizontal Old Scale,5.000E-06,
Horizontal Old Position,2.420E-05,Horizontal Old Position,2.420E-05,
Firmware,V1.32,Firmware,V1.32,
Mode,Fast,Mode,Fast,
Waveform Data,,Waveform Data,,
2, ,-21, ,
1, ,-21, ,
1, ,-20, ,
1, ,-20, ,
1, ,-20, ,
1, ,-20, ,
3, ,-20, ,
2, ,-20, ,
1, ,-20, ,
2, ,-20, ,
1, ,-20, ,
1, ,-20, ,
2, ,-20, ,
1, ,-20, ,
2, ,-20, ,
2, ,-20, ,
2, ,-21, ,
1, ,-21, ,
1, ,-20, ,
1, ,-20, ,
1, ,-20, ,
1, ,-20, ,
1, ,-20, ,
1, ,-20, ,
2, ,-20, ,
1, ,-20, ,
1, ,-20, ,
2, ,-20, ,
2, ,-20, ,
2, ,-20, ,
2, ,-20, ,
1, ,-20, ,
1, ,-21, ,
1, ,-21, ,
2, ,-20, ,
1, ,-21, ,
1, ,-21, ,
1, ,-20, ,
2, ,-20, ,
1, ,-20, ,
0, ,-20, ,
1, ,-20, ,
0, ,-20, ,
2, ,-20, ,
1, ,-20, ,
1, ,-20, ,
2, ,-20, ,
1, ,-20, ,
1, ,-20, ,
2, ,-21, ,
2, ,-21, ,
1, ,-21, ,
2, ,-20, ,
2, ,-20, ,
2, ,-20, ,
1, ,-20, ,
1, ,-20, ,
1, ,-21, ,
1, ,-21, ,
1, ,-21, ,
2, ,-20, ,
1, ,-20, ,
2, ,-20, ,
0, ,-20, ,
1, ,-20, ,
1, ,-20, ,
2, ,-20, ,
2, ,-20, ,
1, ,-21, ,
1, ,-21, ,
1, ,-20, ,
1, ,-20, ,
2, ,-20, ,
2, ,-20, ,
2, ,-20, ,
2, ,-20, ,
2, ,-20, ,
2, ,-20, ,
1, ,-21, ,
1, ,-21, ,
1, ,-20, ,
2, ,-20, ,
1, ,-20, ,
1, ,-20, ,
2, ,-20, ,
1, ,-20, ,
2, ,-20, ,
2, ,-20, ,
2, ,-20, ,
2, ,-20, ,
2, ,-20, ,
3, ,-20, ,
2, ,-20, ,
2, ,-20, ,
2, ,-20, ,
1, ,-20, ,
1, ,-20, ,
2, ,-20, ,
2, ,-20, ,
2, ,-20, ,
1, ,-20, ,
1, ,-20, ,
2, ,-21, ,
2, ,-21, ,
1, ,-20, ,
1, ,-20, ,
2, ,-20, ,
1, ,-20, ,
2, ,-20, ,
1, ,-20, ,
1, ,-20, ,
1, ,-20, ,
1, ,-20, ,
2, ,-20, ,
1, ,-20, ,
2, ,-21, ,
1, ,-21, ,
1, ,-20, ,
1, ,-20, ,
1, ,-20, ,
1, ,-20, ,
1, ,-20, ,
1, ,-20, ,
1, ,-20, ,
1, ,-20, ,
2, ,-20, ,
2, ,-20, ,
2, ,-20, ,
1, ,-20, ,
1, ,-20, ,
1, ,-20, ,
1, ,-20, ,
1, ,-20, ,
2, ,-20, ,
2, ,-20, ,
1, ,-20, ,
2, ,-20, ,
2, ,-20, ,
1, ,-20, ,
1, ,-20, ,
1, ,-20, ,
1, ,-20, ,
2, ,-20, ,
0, ,-20, ,
1, ,-20, ,
1, ,-20, ,
2, ,-20, ,
2, ,-20, ,
2, ,-20, ,
2, ,-20, ,
2, ,-21, ,
2, ,-21, ,
1, ,-20, ,
2, ,-21, ,
2, ,-21, ,
3, ,-21, ,
2, ,-20, ,
0, ,-20, ,
1, ,-20, ,
1, ,-20, ,
1, ,-20, ,
1, ,-20, ,
1, ,-20, ,
1, ,-21, ,
0, ,-21, ,
0, ,-20, ,
-1, ,-21, ,
-1, ,-21, ,
81, ,-20, ,
125, ,-21, ,
125, ,-21, ,
125, ,-21, ,
121, ,-20, ,
117, ,-20, ,
21, ,-20, ,
-15, ,-20, ,
125, ,-20, ,
125, ,-20, ,
125, ,-20, ,
125, ,-20, ,
125, ,-20, ,
125, ,-20, ,
125, ,-20, ,
125, ,-20, ,
125, ,-20, ,
125, ,-21, ,
125, ,-21, ,
125, ,-21, ,
125, ,-21, ,
125, ,-20, ,
125, ,-20, ,
125, ,-20, ,
125, ,-20, ,
125, ,-20, ,
125, ,-20, ,
125, ,-20, ,
125, ,-20, ,
125, ,-20, ,
125, ,-20, ,
125, ,-20, ,
125, ,-20, ,
125, ,-20, ,
124, ,-20, ,
124, ,-20, ,
117, ,-21, ,
111, ,-21, ,
107, ,-21, ,
102, ,-20, ,
94, ,-20, ,
90, ,-20, ,
86, ,-20, ,
83, ,-20, ,
74, ,-20, ,
71, ,-20, ,
68, ,-20, ,
63, ,-20, ,
58, ,-20, ,
56, ,-20, ,
53, ,-20, ,
53, ,-20, ,
47, ,-21, ,
45, ,-21, ,
43, ,-21, ,
39, ,-20, ,
36, ,-20, ,
36, ,-20, ,
34, ,-20, ,
32, ,-20, ,
29, ,-20, ,
26, ,-20, ,
25, ,-20, ,
25, ,-20, ,
22, ,-20, ,
21, ,-20, ,
19, ,-20, ,
19, ,-20, ,
15, ,-20, ,
15, ,-20, ,
13, ,-20, ,
12, ,-20, ,
11, ,-20, ,
10, ,-20, ,
9, ,-20, ,
9, ,-20, ,
8, ,-20, ,
7, ,-20, ,
7, ,-21, ,
5, ,-21, ,
5, ,-20, ,
5, ,-20, ,
4, ,-20, ,
3, ,-20, ,
3, ,-20, ,
3, ,-20, ,
2, ,-20, ,
2, ,-20, ,
1, ,-20, ,
0, ,-20, ,
0, ,-20, ,
0, ,-20, ,
0, ,-21, ,
-1, ,-21, ,
-1, ,-20, ,
-1, ,-20, ,
-1, ,-20, ,
-2, ,-20, ,
-2, ,-20, ,
-1, ,-20, ,
-1, ,-21, ,
-2, ,-21, ,
-3, ,-21, ,
-3, ,-20, ,
-4, ,-20, ,
-3, ,-20, ,
-3, ,-20, ,
-3, ,-20, ,
-3, ,-20, ,
-4, ,-20, ,
-3, ,-20, ,
-3, ,-20, ,
-3, ,-20, ,
-3, ,-20, ,
-3, ,-20, ,
-4, ,-20, ,
-4, ,-20, ,
-3, ,-20, ,
-3, ,-20, ,
-4, ,-20, ,
-2, ,-20, ,
-3, ,-20, ,
-3, ,-20, ,
-3, ,-20, ,
-2, ,-20, ,
-4, ,-20, ,
-4, ,-20, ,
-3, ,-20, ,
-3, ,-20, ,
-2, ,-20, ,
-2, ,-20, ,
-2, ,-20, ,
-2, ,-20, ,
-2, ,-20, ,
-3, ,-20, ,
-3, ,-20, ,
-2, ,-20, ,
-2, ,-20, ,
-2, ,-20, ,
-3, ,-20, ,
-3, ,-20, ,
-2, ,-20, ,
0, ,-20, ,
-1, ,-20, ,
-2, ,-20, ,
-2, ,-20, ,
-2, ,-20, ,
-2, ,-20, ,
-1, ,-20, ,
-1, ,-20, ,
-2, ,-20, ,
-1, ,-20, ,
0, ,-20, ,
0, ,-20, ,
-1, ,-20, ,
-1, ,-20, ,
-1, ,-20, ,
-1, ,-20, ,
-1, ,-20, ,
-1, ,-20, ,
-2, ,-21, ,
0, ,-21, ,
0, ,-21, ,
0, ,-21, ,
0, ,-20, ,
0, ,-20, ,
0, ,-20, ,
0, ,-20, ,
0, ,-20, ,
0, ,-20, ,
0, ,-20, ,
0, ,-20, ,
0, ,-20, ,
0, ,-20, ,
0, ,-20, ,
0, ,-20, ,
0, ,-21, ,
0, ,-21, ,
0, ,-20, ,
-1, ,-20, ,
0, ,-20, ,
0, ,-20, ,
2, ,-20, ,
0, ,-20, ,
0, ,-20, ,
0, ,-20, ,
0, ,-20, ,
1, ,-20, ,
0, ,-20, ,
1, ,-20, ,
1, ,-20, ,
1, ,-20, ,
1, ,-20, ,
1, ,-20, ,
1, ,-20, ,
0, ,-20, ,
1, ,-21, ,
1, ,-21, ,
1, ,-21, ,
0, ,-21, ,
0, ,-20, ,
1, ,-20, ,
1, ,-20, ,
1, ,-20, ,
1, ,-20, ,
1, ,-20, ,
1, ,-21, ,
1, ,-21, ,
1, ,-20, ,
1, ,-20, ,
0, ,-20, ,
0, ,-21, ,
1, ,-21, ,
1, ,-20, ,
0, ,-20, ,
0, ,-20, ,
1, ,-20, ,
1, ,-21, ,
1, ,-21, ,
1, ,-21, ,
1, ,-21, ,
1, ,-20, ,
1, ,-20, ,
1, ,-20, ,
0, ,-20, ,
1, ,-20, ,
0, ,-20, ,
0, ,-21, ,
2, ,-21, ,
0, ,-20, ,
2, ,-20, ,
1, ,-20, ,
1, ,-20, ,
1, ,-20, ,
1, ,-20, ,
1, ,-20, ,
1, ,-20, ,
0, ,-20, ,
0, ,-20, ,
1, ,-20, ,
1, ,-20, ,
2, ,-20, ,
1, ,-20, ,
1, ,-20, ,
1, ,-20, ,
1, ,-20, ,
1, ,-20, ,
1, ,-20, ,
0, ,-20, ,
1, ,-20, ,
1, ,-20, ,
1, ,-20, ,
1, ,-20, ,
0, ,-20, ,
2, ,-21, ,
1, ,-21, ,
0, ,-20, ,
0, ,-20, ,
0, ,-20, ,
1, ,-20, ,
1, ,-21, ,
1, ,-21, ,
1, ,-21, ,
0, ,-20, ,
0, ,-20, ,
0, ,-20, ,
0, ,-20, ,
1, ,-20, ,
1, ,-20, ,
0, ,-20, ,
2, ,-20, ,
-1, ,-20, ,
-1, ,-21, ,
0, ,-21, ,
-1, ,-20, ,
-1, ,-21, ,
-2, ,-21, ,
-2, ,-20, ,
-2, ,-20, ,
-2, ,-20, ,
0, ,-20, ,
0, ,-20, ,
0, ,-20, ,
0, ,-20, ,
1, ,-20, ,
1, ,-20, ,
1, ,-21, ,
1, ,-21, ,
1, ,-21, ,
1, ,-21, ,
1, ,-21, ,
1, ,-21, ,
1, ,-21, ,
1, ,-21, ,
1, ,-21, ,
1, ,-20, ,
1, ,-20, ,
1, ,-20, ,
1, ,-21, ,
1, ,-21, ,
2, ,-21, ,
1, ,-21, ,
2, ,-20, ,
1, ,-20, ,
2, ,-20, ,
2, ,-20, ,
1, ,-20, ,
2, ,-21, ,
1, ,-21, ,
1, ,-21, ,
2, ,-21, ,
0, ,-20, ,
0, ,-21, ,
0, ,-21, ,
0, ,-20, ,
0, ,-20, ,
0, ,-20, ,
0, ,-20, ,
0, ,-20, ,
0, ,-20, ,
1, ,-20, ,
1, ,-20, ,
2, ,-20, ,
1, ,-20, ,
1, ,-20, ,
0, ,-20, ,
1, ,-20, ,
1, ,-20, ,
0, ,-21, ,
0, ,-21, ,
0, ,-20, ,
0, ,-20, ,
-1, ,-20, ,
-1, ,-20, ,
-1, ,-20, ,
0, ,-20, ,
0, ,-20, ,
0, ,-20, ,
-1, ,-20, ,
0, ,-20, ,
1, ,-20, ,
1, ,-21, ,
1, ,-21, ,
1, ,-21, ,
0, ,-20, ,
0, ,-20, ,
-1, ,-20, ,
-1, ,-21, ,
-1, ,-21, ,
-3, ,-20, ,
-3, ,-20, ,
-4, ,-20, ,
-6, ,-20, ,
-6, ,-20, ,
-6, ,-21, ,
-6, ,-21, ,
-6, ,-20, ,
-8, ,-20, ,
-7, ,-20, ,
-7, ,-20, ,
-8, ,-21, ,
-8, ,-21, ,
-9, ,-21, ,
-9, ,-20, ,
-10, ,-20, ,
-13, ,-20, ,
-13, ,-20, ,
-14, ,-20, ,
-18, ,-20, ,
-20, ,-20, ,
-22, ,-20, ,
-23, ,-20, ,
-27, ,-20, ,
-30, ,-20, ,
-30, ,-20, ,
-31, ,-20, ,
-30, ,-20, ,
-30, ,-20, ,
-30, ,-20, ,
-29, ,-20, ,
-29, ,-20, ,
-27, ,-20, ,
-27, ,-20, ,
-26, ,-20, ,
-27, ,-20, ,
-27, ,-20, ,
-28, ,-20, ,
-28, ,-21, ,
-30, ,-21, ,
-32, ,-20, ,
-33, ,-20, ,
-33, ,-20, ,
-32, ,-21, ,
-31, ,-21, ,
-32, ,-21, ,
-29, ,-20, ,
-24, ,-20, ,
-22, ,-20, ,
-19, ,-20, ,
-17, ,-20, ,
-13, ,-20, ,
-10, ,-20, ,
-9, ,-20, ,
-7, ,-20, ,
-6, ,-20, ,
-7, ,-20, ,
-7, ,-21, ,
-7, ,-21, ,
-8, ,-20, ,
-9, ,-20, ,
-9, ,-20, ,
-9, ,-20, ,
-9, ,-20, ,
-7, ,-20, ,
-6, ,-20, ,
-5, ,-21, ,
-2, ,-21, ,
0, ,-20, ,
0, ,-20, ,
1, ,-20, ,
2, ,-20, ,
2, ,-20, ,
3, ,-20, ,
1, ,-20, ,
0, ,-20, ,
-1, ,-20, ,
-3, ,-20, ,
-4, ,-21, ,
-6, ,-21, ,
-6, ,-21, ,
-8, ,-21, ,
-9, ,-21, ,
-11, ,-20, ,
-11, ,-20, ,
-11, ,-20, ,
-11, ,-20, ,
-10, ,-20, ,
-10, ,-21, ,
-10, ,-21, ,
-10, ,-21, ,
-11, ,-20, ,
-13, ,-21, ,
-13, ,-21, ,
-16, ,-21, ,
-18, ,-20, ,
-21, ,-20, ,
-22, ,-20, ,
-24, ,-20, ,
-28, ,-20, ,
-27, ,-20, ,
-28, ,-20, ,
-27, ,-20, ,
-27, ,-20, ,
-26, ,-20, ,
-26, ,-21, ,
-26, ,-21, ,
-26, ,-20, ,
-27, ,-20, ,
-27, ,-20, ,
-27, ,-20, ,
-27, ,-20, ,
-29, ,-20, ,
-29, ,-20, ,
-30, ,-20, ,
-32, ,-20, ,
-31, ,-20, ,
-32, ,-20, ,
-32, ,-20, ,
-32, ,-21, ,
-33, ,-21, ,
-33, ,-21, ,
-34, ,-20, ,
-33, ,-20, ,
-33, ,-20, ,
-33, ,-20, ,
-32, ,-20, ,
-32, ,-21, ,
-31, ,-21, ,
-30, ,-20, ,
-30, ,-20, ,
-29, ,-20, ,
-28, ,-20, ,
-28, ,-20, ,
-28, ,-21, ,
-29, ,-21, ,
-31, ,-20, ,
-33, ,-20, ,
-34, ,-20, ,
-35, ,-20, ,
-35, ,-20, ,
-37, ,-20, ,
-38, ,-20, ,
-36, ,-20, ,
-37, ,-20, ,
-35, ,-20, ,
-35, ,-20, ,
-34, ,-21, ,
-34, ,-21, ,
-34, ,-20, ,
-34, ,-20, ,
-34, ,-20, ,
-35, ,-20, ,
-35, ,-20, ,
-35, ,-20, ,
-36, ,-20, ,
-36, ,-20, ,
-36, ,-20, ,
-35, ,-20, ,
-34, ,-20, ,
-32, ,-20, ,
-31, ,-20, ,
-29, ,-20, ,
-26, ,-20, ,
-24, ,-21, ,
-21, ,-21, ,
-19, ,-21, ,
-19, ,-20, ,
-17, ,-20, ,
-17, ,-20, ,
-17, ,-20, ,
-17, ,-20, ,
-15, ,-20, ,
-15, ,-20, ,
-15, ,-20, ,
-14, ,-20, ,
-14, ,-20, ,
-12, ,-20, ,
-12, ,-20, ,
-11, ,-20, ,
-11, ,-20, ,
-10, ,-20, ,
-13, ,-20, ,
-12, ,-20, ,
-12, ,-20, ,
-12, ,-20, ,
-13, ,-20, ,
-14, ,-20, ,
-12, ,-20, ,
-12, ,-20, ,
-11, ,-20, ,
-9, ,-20, ,
-10, ,-20, ,
-8, ,-20, ,
-9, ,-20, ,
-9, ,-20, ,
-7, ,-20, ,
-8, ,-20, ,
-5, ,-20, ,
-4, ,-20, ,
-3, ,-20, ,
-1, ,-20, ,
-2, ,-20, ,
3, ,-20, ,
5, ,-20, ,
6, ,-20, ,
8, ,-21, ,
10, ,-21, ,
10, ,-20, ,
11, ,-21, ,
11, ,-21, ,
12, ,-20, ,
13, ,-20, ,
12, ,-20, ,
12, ,-20, ,
12, ,-20, ,
12, ,-20, ,
10, ,-20, ,
10, ,-20, ,
9, ,-20, ,
8, ,-20, ,
7, ,-20, ,
7, ,-20, ,
4, ,-20, ,
4, ,-20, ,
2, ,-20, ,
0, ,-20, ,
-1, ,-20, ,
-3, ,-20, ,
-3, ,-20, ,
-5, ,-20, ,
-6, ,-20, ,
-8, ,-20, ,
-7, ,-20, ,
-10, ,-20, ,
-10, ,-21, ,
-11, ,-21, ,
-11, ,-20, ,
-12, ,-20, ,
-13, ,-20, ,
-14, ,-20, ,
-14, ,-20, ,
-15, ,-20, ,
-16, ,-20, ,
-15, ,-20, ,
-17, ,-20, ,
-17, ,-20, ,
-17, ,-20, ,
-18, ,-20, ,
-18, ,-20, ,
-20, ,-20, ,
-21, ,-20, ,
-20, ,-20, ,
-23, ,-20, ,
-23, ,-20, ,
-23, ,-21, ,
-25, ,-21, ,
-27, ,-21, ,
-28, ,-20, ,
-30, ,-20, ,
-30, ,-21, ,
-31, ,-21, ,
-31, ,-21, ,
-31, ,-20, ,
-32, ,-20, ,
-32, ,-20, ,
-32, ,-20, ,
-32, ,-20, ,
-33, ,-20, ,
-34, ,-20, ,
-32, ,-20, ,
-32, ,-20, ,
-32, ,-20, ,
-31, ,-20, ,
-31, ,-20, ,
-32, ,-20, ,
-30, ,-20, ,
-28, ,-21, ,
-27, ,-21, ,
-25, ,-20, ,
-24, ,-20, ,
-22, ,-21, ,
-20, ,-21, ,
-18, ,-20, ,
-15, ,-20, ,
-15, ,-20, ,
-14, ,-20, ,
-11, ,-20, ,
-11, ,-20, ,
-10, ,-20, ,
-10, ,-20, ,
-7, ,-20, ,
-6, ,-20, ,
-5, ,-20, ,
-4, ,-20, ,
-3, ,-21, ,
0, ,-21, ,
1, ,-21, ,
1, ,-20, ,
3, ,-20, ,
4, ,-20, ,
4, ,-20, ,
4, ,-20, ,
6, ,-20, ,
5, ,-20, ,
6, ,-20, ,
5, ,-20, ,
7, ,-20, ,
8, ,-20, ,
8, ,-20, ,
8, ,-20, ,
10, ,-20, ,
9, ,-20, ,
10, ,-20, ,
10, ,-20, ,
10, ,-20, ,
9, ,-20, ,
8, ,-20, ,
8, ,-20, ,
6, ,-20, ,
6, ,-20, ,
6, ,-20, ,
6, ,-20, ,
5, ,-20, ,
3, ,-20, ,
4, ,-20, ,
2, ,-20, ,
2, ,-20, ,
1, ,-20, ,
1, ,-20, ,
0, ,-20, ,
-3, ,-20, ,
-3, ,-20, ,
-4, ,-20, ,
-4, ,-20, ,
-5, ,-21, ,
-7, ,-21, ,
-6, ,-21, ,
-8, ,-20, ,
-9, ,-20, ,
-9, ,-20, ,
-10, ,-20, ,
-10, ,-20, ,
-10, ,-20, ,
-10, ,-20, ,
-11, ,-20, ,
-13, ,-20, ,
-14, ,-21, ,
-14, ,-21, ,
-15, ,-20, ,
-16, ,-20, ,
-17, ,-20, ,
-18, ,-20, ,
-19, ,-21, ,
-20, ,-21, ,
-21, ,-20, ,
-21, ,-20, ,
-22, ,-20, ,
-22, ,-20, ,
-22, ,-20, ,
-24, ,-20, ,
-23, ,-20, ,
-24, ,-20, ,
-25, ,-20, ,
-25, ,-20, ,
-25, ,-20, ,
-24, ,-20, ,
-24, ,-20, ,
-25, ,-20, ,
-25, ,-21, ,
-25, ,-21, ,
-24, ,-20, ,
-24, ,-20, ,
-24, ,-20, ,
-24, ,-20, ,
-23, ,-21, ,
-25, ,-21, ,
-24, ,-21, ,
-23, ,-20, ,
-23, ,-20, ,
-21, ,-20, ,
-22, ,-20, ,
-21, ,-20, ,
-21, ,-20, ,
-21, ,-20, ,
-21, ,-20, ,
-20, ,-20, ,
-20, ,-20, ,
-20, ,-20, ,
-20, ,-20, ,
-20, ,-20, ,
-20, ,-20, ,
-20, ,-20, ,
-19, ,-20, ,
-20, ,-20, ,
-17, ,-20, ,
-17, ,-20, ,
-18, ,-20, ,
-18, ,-20, ,
-17, ,-20, ,
-18, ,-20, ,
-19, ,-20, ,
-18, ,-20, ,
-18, ,-21, ,
-17, ,-21, ,
-18, ,-20, ,
-17, ,-20, ,
-15, ,-20, ,
-16, ,-20, ,
-15, ,-20, ,
-15, ,-20, ,
-14, ,-20, ,
-13, ,-20, ,
-14, ,-20, ,
-12, ,-21, ,
-12, ,-21, ,
-11, ,-20, ,
-11, ,-21, ,
-11, ,-21, ,
-9, ,-20, ,
-9, ,-20, ,
-8, ,-20, ,
-9, ,-20, ,
-8, ,-20, ,
-9, ,-20, ,
-7, ,-20, ,
-8, ,-20, ,
-9, ,-20, ,
-8, ,-20, ,
-9, ,-20, ,
-9, ,-20, ,
-9, ,-20, ,
-10, ,-20, ,
-10, ,-20, ,
-11, ,-20, ,
-11, ,-21, ,
-11, ,-21, ,
-11, ,-21, ,
-11, ,-21, ,
-11, ,-20, ,
-11, ,-20, ,
-10, ,-20, ,
-11, ,-20, ,
-10, ,-20, ,
-9, ,-20, ,
-9, ,-20, ,
-8, ,-20, ,
-6, ,-20, ,
-6, ,-20, ,
-5, ,-20, ,
-5, ,-20, ,
-5, ,-20, ,
-4, ,-20, ,
-3, ,-20, ,
-2, ,-20, ,
-1, ,-20, ,
-1, ,-20, ,
1, ,-20, ,
0, ,-20, ,
1, ,-20, ,
1, ,-20, ,
0, ,-20, ,
1, ,-21, ,
1, ,-21, ,
0, ,-20, ,
0, ,-20, ,
-2, ,-20, ,
-1, ,-20, ,
-1, ,-20, ,
-1, ,-20, ,
-2, ,-20, ,
-4, ,-20, ,
-4, ,-20, ,
-4, ,-20, ,
-5, ,-20, ,
-7, ,-20, ,
-7, ,-20, ,
-8, ,-20, ,
-8, ,-20, ,
-8, ,-20, ,
-9, ,-20, ,
-9, ,-20, ,
-10, ,-20, ,
-10, ,-20, ,
-8, ,-20, ,
-9, ,-20, ,
-9, ,-20, ,
-9, ,-20, ,
-9, ,-20, ,
-8, ,-20, ,
-9, ,-20, ,
-9, ,-21, ,
-8, ,-21, ,
-9, ,-20, ,
-9, ,-21, ,
-8, ,-21, ,
-10, ,-20, ,
-9, ,-20, ,
-9, ,-20, ,
-9, ,-20, ,
-9, ,-20, ,
-9, ,-20, ,
-9, ,-20, ,
-10, ,-20, ,
-10, ,-21, ,
-10, ,-21, ,
-10, ,-21, ,
-11, ,-20, ,
-11, ,-20, ,
-12, ,-20, ,
-10, ,-20, ,
-12, ,-20, ,
-13, ,-20, ,
-12, ,-20, ,
-13, ,-20, ,
-14, ,-20, ,
-10, ,-20, ,
-11, ,-20, ,
-10, ,-20, ,
-10, ,-21, ,
-10, ,-21, ,
-10, ,-21, ,
-10, ,-21, ,
-9, ,-20, ,
-8, ,-20, ,
-8, ,-20, ,
-7, ,-20, ,
-7, ,-20, ,
-7, ,-20, ,
-6, ,-21, ,
-5, ,-21, ,
-5, ,-20, ,
-3, ,-21, ,
-4, ,-21, ,
-2, ,-21, ,
-1, ,-21, ,
-2, ,-20, ,
-2, ,-20, ,
-2, ,-20, ,
-2, ,-20, ,
-1, ,-20, ,
-2, ,-20, ,
-2, ,-20, ,
-2, ,-20, ,
-2, ,-20, ,
-2, ,-21, ,
-2, ,-21, ,
-2, ,-20, ,
-2, ,-20, ,
-1, ,-20, ,
-1, ,-20, ,
-1, ,-20, ,
-2, ,-20, ,
0, ,-20, ,
-1, ,-20, ,
0, ,-20, ,
0, ,-20, ,
0, ,-20, ,
0, ,-20, ,
1, ,-20, ,
1, ,-20, ,
1, ,-21, ,
1, ,-21, ,
0, ,-20, ,
1, ,-21, ,
2, ,-21, ,
2, ,-21, ,
1, ,-21, ,
1, ,-21, ,
1, ,-21, ,
1, ,-20, ,
0, ,-20, ,
0, ,-20, ,
0, ,-20, ,
0, ,-20, ,
-2, ,-20, ,
-2, ,-20, ,
-1, ,-20, ,
-1, ,-20, ,
-1, ,-20, ,
-2, ,-21, ,
-2, ,-21, ,
-2, ,-21, ,
-2, ,-20, ,
-2, ,-20, ,
-2, ,-20, ,
-2, ,-20, ,
-3, ,-20, ,
-2, ,-20, ,
-3, ,-20, ,
-2, ,-20, ,
-2, ,-20, ,
-1, ,-20, ,
-1, ,-20, ,
-2, ,-20, ,
-2, ,-20, ,
0, ,-20, ,
0, ,-20, ,
0, ,-20, ,
1, ,-20, ,
1, ,-20, ,
1, ,-20, ,
1, ,-20, ,
0, ,-21, ,
1, ,-21, ,
0, ,-20, ,
1, ,-20, ,
0, ,-20, ,
0, ,-20, ,
0, ,-21, ,
0, ,-21, ,
0, ,-20, ,
0, ,-20, ,
1, ,-20, ,
1, ,-20, ,
1, ,-21, ,
0, ,-21, ,
0, ,-21, ,
0, ,-20, ,
-1, ,-21, ,
-1, ,-21, ,
-2, ,-20, ,
-1, ,-21, ,
-2, ,-21, ,
-2, ,-21, ,
-2, ,-21, ,
-3, ,-20, ,
-3, ,-21, ,
-2, ,-21, ,
-3, ,-20, ,
-1, ,-20, ,
-1, ,-20, ,
-2, ,-21, ,
-1, ,-21, ,
-3, ,-21, ,
-2, ,-20, ,
0, ,-20, ,
0, ,-20, ,
0, ,-20, ,
0, ,-20, ,
-2, ,-20, ,
1, ,-20, ,
1, ,-20, ,
1, ,-20, ,
3, ,-20, ,
3, ,-20, ,
3, ,-20, ,
4, ,-20, ,
4, ,-20, ,
4, ,-20, ,
4, ,-20, ,
4, ,-20, ,
5, ,-20, ,
4, ,-20, ,
5, ,-20, ,
5, ,-20, ,
5, ,-20, ,
5, ,-20, ,
4, ,-20, ,
3, ,-20, ,
4, ,-20, ,
4, ,-20, ,
3, ,-20, ,
4, ,-20, ,
3, ,-20, ,
4, ,-21, ,
3, ,-21, ,
3, ,-20, ,
3, ,-20, ,
3, ,-20, ,
3, ,-20, ,
3, ,-20, ,
3, ,-20, ,
4, ,-20, ,
3, ,-20, ,
4, ,-20, ,
3, ,-21, ,
3, ,-21, ,
3, ,-21, ,
4, ,-20, ,
4, ,-20, ,
4, ,-20, ,
3, ,-20, ,
3, ,-20, ,
4, ,-20, ,
3, ,-20, ,
4, ,-20, ,
4, ,-20, ,
2, ,-20, ,
2, ,-20, ,
2, ,-20, ,
1, ,-20, ,
3, ,-20, ,
2, ,-20, ,
3, ,-20, ,
2, ,-20, ,
1, ,-20, ,
1, ,-20, ,
1, ,-20, ,
1, ,-21, ,
0, ,-21, ,
0, ,-20, ,
1, ,-20, ,
0, ,-20, ,
-1, ,-20, ,
0, ,-20, ,
-1, ,-20, ,
-2, ,-20, ,
-2, ,-20, ,
-3, ,-20, ,
-3, ,-20, ,
-4, ,-20, ,
-4, ,-20, ,
-4, ,-20, ,
-5, ,-20, ,
-6, ,-20, ,
-6, ,-20, ,
-6, ,-20, ,
-6, ,-20, ,
-8, ,-20, ,
-9, ,-20, ,
-8, ,-20, ,
-9, ,-20, ,
-9, ,-20, ,
-9, ,-21, ,
-10, ,-21, ,
-10, ,-21, ,
-10, ,-20, ,
-12, ,-20, ,
-9, ,-20, ,
-10, ,-20, ,
-10, ,-20, ,
-9, ,-20, ,
-10, ,-20, ,
-9, ,-20, ,
-9, ,-20, ,
-9, ,-20, ,
-9, ,-20, ,
-9, ,-20, ,
-9, ,-20, ,
-8, ,-20, ,
-8, ,-20, ,
-8, ,-20, ,
-8, ,-20, ,
-9, ,-20, ,
-9, ,-20, ,
-8, ,-20, ,
-8, ,-21, ,
-8, ,-21, ,
-8, ,-20, ,
-8, ,-20, ,
-9, ,-20, ,
-8, ,-20, ,
-8, ,-21, ,
-9, ,-21, ,
-9, ,-20, ,
-8, ,-20, ,
-9, ,-20, ,
-8, ,-20, ,
-8, ,-20, ,
-8, ,-20, ,
-8, ,-20, ,
-8, ,-20, ,
-9, ,-21, ,
-6, ,-21, ,
-7, ,-20, ,
-6, ,-21, ,
-6, ,-21, ,
-7, ,-20, ,
-6, ,-20, ,
-5, ,-20, ,
-6, ,-20, ,
-5, ,-20, ,
-6, ,-20, ,
-5, ,-20, ,
-5, ,-20, ,
-5, ,-21, ,
-5, ,-21, ,
-5, ,-21, ,
-5, ,-20, ,
-4, ,-20, ,
-5, ,-20, ,
-5, ,-20, ,
-4, ,-20, ,
-4, ,-20, ,
-3, ,-20, ,
-3, ,-20, ,
-4, ,-20, ,
-4, ,-20, ,
-4, ,-20, ,
-4, ,-20, ,
-3, ,-20, ,
-4, ,-20, ,
-2, ,-20, ,
-3, ,-20, ,
-3, ,-20, ,
-2, ,-20, ,
-3, ,-20, ,
-3, ,-20, ,
-2, ,-20, ,
-2, ,-20, ,
-2, ,-20, ,
-1, ,-21, ,
-1, ,-21, ,
-1, ,-21, ,
0, ,-20, ,
0, ,-20, ,
1, ,-20, ,
1, ,-21, ,
1, ,-21, ,
1, ,-21, ,
1, ,-21, ,
2, ,-21, ,
1, ,-21, ,
3, ,-21, ,
4, ,-20, ,
3, ,-20, ,
4, ,-21, ,
2, ,-21, ,
4, ,-20, ,
3, ,-21, ,
3, ,-21, ,
3, ,-21, ,
3, ,-20, ,
3, ,-20, ,
2, ,-20, ,
2, ,-20, ,
0, ,-20, ,
0, ,-21, ,
0, ,-21, ,
0, ,-21, ,
-1, ,-20, ,
-2, ,-20, ,
-2, ,-21, ,
-2, ,-21, ,
-5, ,-20, ,
-5, ,-20, ,
-5, ,-20, ,
-5, ,-20, ,
-6, ,-20, ,
-8, ,-20, ,
-8, ,-20, ,
-9, ,-20, ,
-10, ,-21, ,
-10, ,-21, ,
-10, ,-20, ,
-11, ,-20, ,
-10, ,-20, ,
-10, ,-20, ,
-10, ,-21, ,
-12, ,-21, ,
-12, ,-20, ,
-9, ,-20, ,
-10, ,-20, ,
-9, ,-20, ,
-9, ,-20, ,
-9, ,-20, ,
-8, ,-20, ,
-7, ,-20, ,
-6, ,-20, ,
-4, ,-20, ,
-2, ,-20, ,
-3, ,-20, ,
-1, ,-20, ,
0, ,-20, ,
3, ,-20, ,
2, ,-20, ,
3, ,-20, ,
5, ,-20, ,
5, ,-20, ,
6, ,-20, ,
8, ,-20, ,
9, ,-20, ,
10, ,-21, ,
10, ,-21, ,
11, ,-20, ,
11, ,-20, ,
11, ,-20, ,
12, ,-20, ,
13, ,-20, ,
13, ,-20, ,
13, ,-20, ,
13, ,-20, ,
13, ,-20, ,
13, ,-20, ,
13, ,-20, ,
13, ,-20, ,
13, ,-20, ,
13, ,-20, ,
12, ,-20, ,
12, ,-20, ,
12, ,-20, ,
12, ,-21, ,
12, ,-21, ,
11, ,-21, ,
10, ,-21, ,
9, ,-21, ,
9, ,-20, ,
9, ,-20, ,
8, ,-20, ,
8, ,-20, ,
7, ,-20, ,
7, ,-20, ,
6, ,-20, ,
5, ,-20, ,
5, ,-20, ,
4, ,-20, ,
3, ,-20, ,
3, ,-20, ,
2, ,-20, ,
2, ,-20, ,
0, ,-21, ,
0, ,-21, ,
0, ,-20, ,
-1, ,-20, ,
-2, ,-20, ,
-2, ,-20, ,
-2, ,-20, ,
-3, ,-20, ,
-4, ,-20, ,
-4, ,-20, ,
-4, ,-20, ,
-5, ,-20, ,
-5, ,-20, ,
-5, ,-20, ,
-5, ,-20, ,
-6, ,-20, ,
-6, ,-20, ,
-7, ,-20, ,
-6, ,-21, ,
-7, ,-21, ,
-9, ,-20, ,
-8, ,-20, ,
-9, ,-21, ,
-9, ,-21, ,
-9, ,-20, ,
-10, ,-20, ,
-9, ,-20, ,
-10, ,-20, ,
-10, ,-20, ,
-10, ,-20, ,
-10, ,-20, ,
-10, ,-20, ,
-11, ,-20, ,
-11, ,-20, ,
-11, ,-20, ,
-11, ,-20, ,
-12, ,-20, ,
-11, ,-20, ,
-12, ,-21, ,
-12, ,-21, ,
-12, ,-20, ,
-12, ,-20, ,
-12, ,-20, ,
-12, ,-20, ,
-12, ,-20, ,
-12, ,-20, ,
-12, ,-20, ,
-11, ,-20, ,
-11, ,-20, ,
-12, ,-20, ,
-11, ,-20, ,
-11, ,-20, ,
-11, ,-20, ,
-10, ,-20, ,
-11, ,-20, ,
-11, ,-20, ,
-10, ,-20, ,
-9, ,-20, ,
-9, ,-20, ,
-10, ,-20, ,
-9, ,-20, ,
-8, ,-20, ,
-9, ,-20, ,
-8, ,-20, ,
-7, ,-20, ,
-7, ,-20, ,
-6, ,-20, ,
-7, ,-20, ,
-6, ,-20, ,
-5, ,-20, ,
-5, ,-20, ,
-5, ,-20, ,
-3, ,-20, ,
-4, ,-20, ,
-3, ,-20, ,
-4, ,-20, ,
-2, ,-20, ,
-2, ,-20, ,
-2, ,-20, ,
0, ,-20, ,
0, ,-20, ,
0, ,-20, ,
1, ,-20, ,
0, ,-20, ,
0, ,-20, ,
0, ,-20, ,
0, ,-20, ,
0, ,-20, ,
1, ,-20, ,
1, ,-20, ,
1, ,-20, ,
1, ,-20, ,
1, ,-20, ,
1, ,-20, ,
1, ,-20, ,
1, ,-20, ,
1, ,-21, ,
2, ,-21, ,
2, ,-21, ,
2, ,-20, ,
1, ,-20, ,
3, ,-20, ,
3, ,-20, ,
3, ,-20, ,
3, ,-20, ,
3, ,-20, ,
4, ,-20, ,
3, ,-20, ,
5, ,-20, ,
5, ,-20, ,
6, ,-20, ,
6, ,-20, ,
7, ,-20, ,
6, ,-20, ,
7, ,-20, ,
7, ,-20, ,
7, ,-20, ,
8, ,-20, ,
8, ,-20, ,
8, ,-20, ,
8, ,-20, ,
8, ,-20, ,
8, ,-21, ,
8, ,-21, ,
8, ,-20, ,
9, ,-20, ,
8, ,-20, ,
9, ,-20, ,
8, ,-20, ,
8, ,-20, ,
8, ,-21, ,
6, ,-21, ,
7, ,-20, ,
6, ,-20, ,
6, ,-20, ,
6, ,-20, ,
6, ,-21, ,
6, ,-21, ,
5, ,-21, ,
5, ,-20, ,
5, ,-20, ,
6, ,-20, ,
5, ,-20, ,
5, ,-20, ,
5, ,-20, ,
5, ,-20, ,
5, ,-20, ,
5, ,-20, ,
5, ,-20, ,
5, ,-20, ,
4, ,-20, ,
4, ,-20, ,
3, ,-20, ,
4, ,-20, ,
4, ,-20, ,
3, ,-20, ,
3, ,-20, ,
3, ,-20, ,
2, ,-20, ,
3, ,-21, ,
3, ,-21, ,
2, ,-20, ,
2, ,-20, ,
3, ,-20, ,
2, ,-20, ,
3, ,-20, ,
1, ,-20, ,
3, ,-20, ,
2, ,-20, ,
2, ,-20, ,
3, ,-21, ,
3, ,-21, ,
2, ,-20, ,
3, ,-20, ,
3, ,-20, ,
