raw_data/100% Glycerol, Impulsion 2Hz, Sonde 5MHz, Rampe 0.7Hz/temp0000328.CSV

Format,1.0B,
Memory Length,10000,Memory Length,10000,
IntpDistance,0,IntpDistance,0,
Trigger Address,159,Trigger Address,159,
Trigger Level,2.720E-01,Trigger Level,2.720E-01,
Source,CH1,Source,CH2,
Vertical Units,V,Vertical Units,V,
Vertical Units Div,0,Vertical Units Div,0,
Vertical Units Extend Div,16,Vertical Units Extend Div,16,
Label,,Label,,
Probe Type,0,Probe Type,0,
Probe Ratio,1.000e+00,Probe Ratio,1.000e+00,
Vertical Scale,2.000e-01,Vertical Scale,2.000e+00,
Vertical Position,0.000e+00,Vertical Position,0.000e+00,
Horizontal Units,S,Horizontal Units,S,
Horizontal Scale,5.000E-06,Horizontal Scale,5.000E-06,
Horizontal Position,2.420E-05,Horizontal Position,2.420E-05,
Horizontal Mode,Main,Horizontal Mode,Main,
SincET Mode,Real Time,SincET Mode,Real Time,
Sampling Period,5.000e-09,Sampling Period,5.000e-09,
Horizontal Old Scale,5.000E-06,Horizontal Old Scale,5.000E-06,
Horizontal Old Position,2.420E-05,Horizontal Old Position,2.420E-05,
Firmware,V1.32,Firmware,V1.32,
Mode,Fast,Mode,Fast,
Waveform Data,,Waveform Data,,
1, ,28, ,
1, ,29, ,
2, ,29, ,
1, ,29, ,
2, ,28, ,
1, ,28, ,
1, ,28, ,
1, ,29, ,
2, ,29, ,
1, ,29, ,
2, ,29, ,
2, ,29, ,
1, ,29, ,
1, ,29, ,
2, ,29, ,
1, ,29, ,
1, ,28, ,
1, ,28, ,
2, ,29, ,
2, ,29, ,
2, ,29, ,
2, ,29, ,
1, ,29, ,
2, ,29, ,
2, ,29, ,
1, ,29, ,
1, ,29, ,
2, ,29, ,
1, ,28, ,
1, ,28, ,
0, ,29, ,
2, ,29, ,
2, ,29, ,
2, ,29, ,
2, ,29, ,
2, ,28, ,
2, ,28, ,
2, ,29, ,
2, ,29, ,
1, ,29, ,
2, ,28, ,
1, ,28, ,
1, ,29, ,
2, ,29, ,
1, ,29, ,
2, ,29, ,
1, ,29, ,
1, ,29, ,
2, ,29, ,
2, ,29, ,
2, ,29, ,
1, ,29, ,
2, ,29, ,
2, ,29, ,
1, ,29, ,
2, ,29, ,
2, ,29, ,
1, ,29, ,
2, ,29, ,
2, ,29, ,
2, ,29, ,
2, ,29, ,
2, ,29, ,
1, ,29, ,
3, ,29, ,
2, ,28, ,
2, ,28, ,
2, ,28, ,
2, ,29, ,
2, ,29, ,
2, ,29, ,
2, ,29, ,
2, ,29, ,
1, ,29, ,
1, ,29, ,
2, ,29, ,
0, ,29, ,
2, ,29, ,
1, ,29, ,
1, ,29, ,
2, ,29, ,
2, ,29, ,
2, ,29, ,
3, ,29, ,
2, ,29, ,
2, ,29, ,
1, ,28, ,
1, ,28, ,
2, ,29, ,
1, ,29, ,
1, ,29, ,
2, ,28, ,
1, ,28, ,
2, ,29, ,
3, ,29, ,
3, ,29, ,
3, ,29, ,
2, ,29, ,
2, ,29, ,
2, ,29, ,
2, ,29, ,
2, ,29, ,
1, ,29, ,
1, ,29, ,
2, ,29, ,
1, ,28, ,
2, ,28, ,
2, ,28, ,
2, ,28, ,
2, ,28, ,
2, ,29, ,
1, ,29, ,
2, ,29, ,
2, ,28, ,
2, ,28, ,
2, ,28, ,
2, ,29, ,
3, ,29, ,
1, ,29, ,
2, ,29, ,
3, ,29, ,
2, ,29, ,
2, ,29, ,
2, ,28, ,
1, ,28, ,
3, ,29, ,
2, ,29, ,
0, ,28, ,
2, ,28, ,
2, ,28, ,
2, ,28, ,
2, ,28, ,
1, ,29, ,
3, ,29, ,
1, ,29, ,
2, ,29, ,
2, ,29, ,
1, ,29, ,
2, ,29, ,
2, ,28, ,
1, ,28, ,
1, ,29, ,
1, ,28, ,
2, ,28, ,
2, ,29, ,
1, ,28, ,
1, ,28, ,
2, ,28, ,
2, ,29, ,
2, ,29, ,
1, ,29, ,
1, ,29, ,
2, ,29, ,
1, ,29, ,
2, ,29, ,
2, ,28, ,
1, ,28, ,
1, ,29, ,
2, ,29, ,
1, ,29, ,
3, ,29, ,
2, ,29, ,
3, ,29, ,
7, ,29, ,
-1, ,29, ,
0, ,28, ,
-2, ,28, ,
29, ,28, ,
82, ,29, ,
125, ,29, ,
125, ,29, ,
125, ,28, ,
121, ,28, ,
117, ,29, ,
20, ,29, ,
74, ,29, ,
125, ,29, ,
125, ,28, ,
125, ,28, ,
125, ,28, ,
125, ,28, ,
125, ,28, ,
125, ,28, ,
125, ,29, ,
125, ,28, ,
125, ,28, ,
125, ,29, ,
125, ,29, ,
125, ,29, ,
125, ,29, ,
125, ,29, ,
125, ,29, ,
125, ,29, ,
125, ,28, ,
125, ,28, ,
125, ,28, ,
125, ,29, ,
125, ,29, ,
125, ,29, ,
125, ,29, ,
125, ,29, ,
125, ,29, ,
124, ,29, ,
121, ,28, ,
115, ,28, ,
111, ,29, ,
106, ,29, ,
98, ,29, ,
95, ,29, ,
90, ,29, ,
88, ,29, ,
79, ,29, ,
75, ,28, ,
72, ,28, ,
67, ,28, ,
61, ,29, ,
60, ,29, ,
56, ,29, ,
54, ,29, ,
50, ,28, ,
47, ,28, ,
45, ,29, ,
42, ,29, ,
37, ,29, ,
36, ,29, ,
35, ,29, ,
35, ,29, ,
31, ,29, ,
29, ,29, ,
27, ,29, ,
26, ,29, ,
23, ,29, ,
23, ,28, ,
21, ,28, ,
19, ,28, ,
17, ,28, ,
15, ,28, ,
15, ,29, ,
14, ,29, ,
12, ,29, ,
12, ,29, ,
10, ,29, ,
10, ,29, ,
9, ,29, ,
9, ,29, ,
7, ,29, ,
5, ,29, ,
4, ,29, ,
4, ,29, ,
4, ,29, ,
4, ,29, ,
4, ,29, ,
2, ,29, ,
2, ,29, ,
1, ,29, ,
1, ,29, ,
2, ,28, ,
1, ,28, ,
1, ,28, ,
1, ,28, ,
0, ,28, ,
1, ,28, ,
-1, ,28, ,
-1, ,29, ,
0, ,29, ,
-2, ,29, ,
-1, ,29, ,
-2, ,29, ,
-2, ,29, ,
-1, ,29, ,
-3, ,28, ,
-2, ,28, ,
-2, ,29, ,
-2, ,29, ,
-2, ,29, ,
-2, ,29, ,
-3, ,29, ,
-3, ,29, ,
-2, ,29, ,
-3, ,29, ,
-2, ,29, ,
-3, ,29, ,
-3, ,29, ,
-3, ,29, ,
-4, ,29, ,
-3, ,29, ,
-4, ,29, ,
-3, ,29, ,
-3, ,29, ,
-3, ,29, ,
-3, ,29, ,
-3, ,29, ,
-3, ,29, ,
-2, ,29, ,
-2, ,29, ,
-2, ,29, ,
-2, ,29, ,
-1, ,29, ,
-3, ,29, ,
-2, ,28, ,
-3, ,28, ,
-1, ,29, ,
-2, ,29, ,
-3, ,29, ,
-3, ,29, ,
-3, ,29, ,
-2, ,29, ,
-2, ,29, ,
-2, ,28, ,
-1, ,28, ,
-2, ,28, ,
-1, ,29, ,
-1, ,29, ,
-2, ,29, ,
-1, ,29, ,
-1, ,29, ,
-2, ,29, ,
-2, ,29, ,
-2, ,29, ,
-1, ,29, ,
0, ,29, ,
-1, ,29, ,
-1, ,29, ,
0, ,29, ,
0, ,29, ,
0, ,29, ,
0, ,29, ,
0, ,29, ,
0, ,29, ,
-1, ,29, ,
-2, ,29, ,
0, ,29, ,
-1, ,29, ,
0, ,29, ,
0, ,29, ,
0, ,29, ,
0, ,29, ,
0, ,28, ,
0, ,28, ,
-1, ,28, ,
0, ,28, ,
0, ,28, ,
0, ,28, ,
0, ,29, ,
1, ,29, ,
1, ,28, ,
1, ,28, ,
2, ,28, ,
0, ,29, ,
1, ,28, ,
0, ,28, ,
0, ,28, ,
0, ,29, ,
0, ,29, ,
0, ,29, ,
1, ,29, ,
1, ,28, ,
1, ,28, ,
0, ,28, ,
1, ,29, ,
1, ,28, ,
0, ,28, ,
1, ,29, ,
1, ,28, ,
0, ,28, ,
1, ,28, ,
1, ,28, ,
0, ,29, ,
1, ,29, ,
1, ,29, ,
1, ,29, ,
1, ,29, ,
0, ,28, ,
0, ,28, ,
0, ,28, ,
1, ,29, ,
1, ,29, ,
1, ,29, ,
1, ,29, ,
1, ,29, ,
1, ,29, ,
2, ,29, ,
2, ,29, ,
1, ,29, ,
1, ,29, ,
0, ,28, ,
1, ,28, ,
1, ,28, ,
1, ,29, ,
1, ,29, ,
0, ,29, ,
1, ,29, ,
2, ,29, ,
1, ,29, ,
2, ,29, ,
2, ,29, ,
1, ,29, ,
2, ,29, ,
1, ,29, ,
1, ,29, ,
1, ,29, ,
1, ,29, ,
1, ,29, ,
1, ,29, ,
1, ,29, ,
1, ,29, ,
0, ,29, ,
0, ,29, ,
2, ,29, ,
1, ,29, ,
1, ,29, ,
1, ,29, ,
1, ,28, ,
2, ,28, ,
1, ,28, ,
1, ,29, ,
2, ,29, ,
1, ,28, ,
3, ,28, ,
2, ,28, ,
1, ,29, ,
2, ,29, ,
0, ,29, ,
0, ,29, ,
1, ,28, ,
-1, ,28, ,
0, ,29, ,
1, ,29, ,
1, ,29, ,
1, ,29, ,
1, ,29, ,
1, ,29, ,
2, ,29, ,
0, ,29, ,
0, ,29, ,
1, ,29, ,
1, ,29, ,
1, ,29, ,
1, ,28, ,
0, ,28, ,
0, ,29, ,
-1, ,29, ,
0, ,29, ,
0, ,28, ,
-2, ,28, ,
0, ,29, ,
-1, ,29, ,
-1, ,29, ,
0, ,29, ,
1, ,29, ,
1, ,29, ,
2, ,29, ,
1, ,28, ,
2, ,28, ,
1, ,28, ,
2, ,29, ,
2, ,29, ,
1, ,29, ,
2, ,29, ,
2, ,29, ,
1, ,29, ,
2, ,29, ,
1, ,28, ,
0, ,28, ,
2, ,29, ,
1, ,29, ,
2, ,29, ,
0, ,29, ,
0, ,29, ,
1, ,29, ,
0, ,29, ,
2, ,29, ,
2, ,29, ,
1, ,29, ,
2, ,29, ,
2, ,29, ,
2, ,29, ,
2, ,29, ,
1, ,29, ,
0, ,28, ,
0, ,28, ,
0, ,28, ,
0, ,28, ,
-1, ,28, ,
0, ,29, ,
0, ,29, ,
0, ,28, ,
0, ,28, ,
0, ,29, ,
0, ,29, ,
1, ,29, ,
1, ,29, ,
1, ,29, ,
2, ,29, ,
1, ,29, ,
1, ,29, ,
2, ,29, ,
1, ,29, ,
1, ,29, ,
0, ,29, ,
0, ,29, ,
0, ,28, ,
0, ,28, ,
0, ,28, ,
0, ,29, ,
0, ,29, ,
0, ,29, ,
1, ,29, ,
1, ,29, ,
2, ,29, ,
1, ,28, ,
1, ,28, ,
2, ,29, ,
1, ,29, ,
2, ,29, ,
0, ,29, ,
-1, ,29, ,
-1, ,29, ,
-3, ,29, ,
-4, ,29, ,
-2, ,28, ,
-5, ,28, ,
-5, ,28, ,
-6, ,28, ,
-7, ,29, ,
-6, ,29, ,
-7, ,29, ,
-8, ,29, ,
-8, ,29, ,
-9, ,28, ,
-8, ,28, ,
-9, ,28, ,
-10, ,29, ,
-11, ,29, ,
-14, ,29, ,
-15, ,29, ,
-15, ,29, ,
-20, ,28, ,
-20, ,28, ,
-23, ,28, ,
-26, ,29, ,
-26, ,29, ,
-28, ,29, ,
-29, ,29, ,
-29, ,29, ,
-29, ,28, ,
-29, ,28, ,
-27, ,28, ,
-28, ,29, ,
-25, ,29, ,
-27, ,29, ,
-26, ,29, ,
-26, ,29, ,
-28, ,29, ,
-28, ,29, ,
-31, ,28, ,
-31, ,28, ,
-33, ,29, ,
-34, ,29, ,
-35, ,29, ,
-34, ,29, ,
-34, ,29, ,
-32, ,29, ,
-28, ,29, ,
-27, ,29, ,
-24, ,29, ,
-22, ,29, ,
-17, ,29, ,
-14, ,28, ,
-14, ,28, ,
-10, ,29, ,
-8, ,29, ,
-9, ,29, ,
-9, ,29, ,
-9, ,29, ,
-10, ,29, ,
-11, ,28, ,
-12, ,28, ,
-12, ,28, ,
-12, ,28, ,
-12, ,29, ,
-10, ,29, ,
-11, ,29, ,
-7, ,29, ,
-5, ,29, ,
-4, ,29, ,
-2, ,29, ,
0, ,28, ,
0, ,28, ,
1, ,29, ,
1, ,29, ,
0, ,29, ,
1, ,28, ,
-1, ,28, ,
-1, ,29, ,
-5, ,29, ,
-5, ,29, ,
-6, ,29, ,
-7, ,29, ,
-9, ,29, ,
-9, ,28, ,
-9, ,28, ,
-9, ,29, ,
-8, ,29, ,
-8, ,29, ,
-5, ,29, ,
-6, ,28, ,
-5, ,28, ,
-4, ,28, ,
-5, ,28, ,
-4, ,28, ,
-6, ,28, ,
-6, ,29, ,
-8, ,29, ,
-10, ,29, ,
-11, ,29, ,
-11, ,29, ,
-13, ,29, ,
-12, ,29, ,
-12, ,29, ,
-13, ,29, ,
-13, ,29, ,
-14, ,29, ,
-15, ,29, ,
-15, ,29, ,
-17, ,29, ,
-18, ,29, ,
-20, ,29, ,
-21, ,29, ,
-25, ,29, ,
-27, ,29, ,
-30, ,29, ,
-31, ,29, ,
-32, ,29, ,
-32, ,29, ,
-34, ,29, ,
-36, ,29, ,
-35, ,29, ,
-35, ,29, ,
-36, ,29, ,
-35, ,28, ,
-36, ,28, ,
-35, ,29, ,
-35, ,29, ,
-35, ,28, ,
-33, ,28, ,
-33, ,29, ,
-31, ,29, ,
-31, ,28, ,
-32, ,28, ,
-31, ,29, ,
-32, ,29, ,
-33, ,29, ,
-33, ,29, ,
-35, ,29, ,
-37, ,29, ,
-38, ,29, ,
-39, ,28, ,
-39, ,28, ,
-41, ,28, ,
-40, ,28, ,
-39, ,28, ,
-39, ,28, ,
-37, ,29, ,
-37, ,29, ,
-37, ,29, ,
-36, ,29, ,
-35, ,29, ,
-36, ,29, ,
-36, ,29, ,
-37, ,29, ,
-39, ,29, ,
-39, ,29, ,
-39, ,28, ,
-38, ,28, ,
-37, ,28, ,
-38, ,29, ,
-36, ,29, ,
-36, ,29, ,
-32, ,29, ,
-29, ,28, ,
-29, ,28, ,
-27, ,29, ,
-25, ,28, ,
-25, ,28, ,
-24, ,29, ,
-24, ,28, ,
-24, ,28, ,
-24, ,29, ,
-23, ,29, ,
-23, ,29, ,
-22, ,28, ,
-22, ,28, ,
-20, ,29, ,
-20, ,29, ,
-19, ,29, ,
-18, ,28, ,
-18, ,28, ,
-17, ,29, ,
-17, ,28, ,
-18, ,28, ,
-16, ,29, ,
-17, ,28, ,
-15, ,28, ,
-15, ,29, ,
-14, ,28, ,
-12, ,28, ,
-10, ,28, ,
-10, ,29, ,
-9, ,29, ,
-9, ,29, ,
-7, ,29, ,
-6, ,28, ,
-7, ,28, ,
-5, ,29, ,
-2, ,29, ,
-3, ,29, ,
0, ,29, ,
0, ,29, ,
1, ,28, ,
4, ,28, ,
4, ,28, ,
7, ,28, ,
8, ,28, ,
8, ,28, ,
10, ,28, ,
10, ,28, ,
10, ,29, ,
10, ,29, ,
10, ,29, ,
10, ,29, ,
10, ,28, ,
10, ,28, ,
11, ,29, ,
10, ,29, ,
10, ,29, ,
12, ,29, ,
12, ,29, ,
12, ,29, ,
13, ,29, ,
13, ,29, ,
13, ,28, ,
12, ,28, ,
12, ,28, ,
12, ,29, ,
11, ,29, ,
11, ,29, ,
9, ,29, ,
7, ,29, ,
7, ,29, ,
6, ,28, ,
4, ,28, ,
4, ,29, ,
1, ,29, ,
0, ,29, ,
-3, ,29, ,
-5, ,29, ,
-5, ,28, ,
-8, ,28, ,
-11, ,28, ,
-11, ,28, ,
-14, ,28, ,
-15, ,29, ,
-18, ,29, ,
-19, ,29, ,
-19, ,29, ,
-21, ,29, ,
-24, ,28, ,
-24, ,28, ,
-25, ,28, ,
-25, ,29, ,
-27, ,29, ,
-28, ,28, ,
-27, ,28, ,
-30, ,28, ,
-30, ,29, ,
-30, ,29, ,
-30, ,29, ,
-31, ,29, ,
-31, ,29, ,
-31, ,29, ,
-30, ,29, ,
-30, ,29, ,
-30, ,29, ,
-27, ,29, ,
-28, ,29, ,
-27, ,29, ,
-27, ,29, ,
-28, ,28, ,
-26, ,28, ,
-27, ,28, ,
-25, ,29, ,
-25, ,29, ,
-26, ,29, ,
-25, ,29, ,
-23, ,29, ,
-22, ,29, ,
-20, ,29, ,
-20, ,29, ,
-20, ,29, ,
-18, ,29, ,
-17, ,28, ,
-15, ,28, ,
-14, ,28, ,
-13, ,29, ,
-13, ,29, ,
-13, ,29, ,
-12, ,29, ,
-10, ,29, ,
-10, ,29, ,
-8, ,29, ,
-4, ,29, ,
-4, ,28, ,
-3, ,28, ,
-2, ,28, ,
-1, ,29, ,
1, ,29, ,
1, ,28, ,
1, ,28, ,
2, ,28, ,
1, ,28, ,
1, ,28, ,
1, ,28, ,
2, ,28, ,
2, ,28, ,
2, ,28, ,
2, ,28, ,
2, ,28, ,
2, ,28, ,
3, ,28, ,
4, ,29, ,
3, ,29, ,
3, ,29, ,
3, ,28, ,
3, ,28, ,
3, ,28, ,
4, ,29, ,
4, ,29, ,
2, ,29, ,
2, ,29, ,
2, ,28, ,
1, ,28, ,
2, ,29, ,
1, ,29, ,
1, ,29, ,
1, ,29, ,
0, ,29, ,
-2, ,29, ,
0, ,29, ,
-3, ,29, ,
-2, ,29, ,
-4, ,29, ,
-5, ,29, ,
-6, ,29, ,
-7, ,29, ,
-7, ,29, ,
-7, ,28, ,
-9, ,28, ,
-10, ,28, ,
-10, ,28, ,
-10, ,28, ,
-10, ,29, ,
-11, ,29, ,
-12, ,28, ,
-12, ,28, ,
-13, ,29, ,
-13, ,29, ,
-13, ,29, ,
-14, ,29, ,
-14, ,28, ,
-16, ,28, ,
-16, ,28, ,
-16, ,28, ,
-18, ,28, ,
-18, ,28, ,
-18, ,29, ,
-20, ,29, ,
-20, ,29, ,
-21, ,29, ,
-24, ,29, ,
-23, ,29, ,
-23, ,29, ,
-24, ,29, ,
-25, ,28, ,
-25, ,28, ,
-26, ,28, ,
-26, ,28, ,
-27, ,29, ,
-26, ,29, ,
-27, ,28, ,
-27, ,28, ,
-26, ,28, ,
-26, ,29, ,
-25, ,29, ,
-24, ,29, ,
-23, ,29, ,
-21, ,29, ,
-20, ,29, ,
-20, ,29, ,
-19, ,29, ,
-19, ,29, ,
-19, ,29, ,
-18, ,29, ,
-17, ,29, ,
-16, ,28, ,
-16, ,28, ,
-17, ,28, ,
-16, ,28, ,
-15, ,28, ,
-15, ,29, ,
-15, ,29, ,
-16, ,29, ,
-15, ,29, ,
-17, ,29, ,
-17, ,29, ,
-18, ,29, ,
-19, ,29, ,
-20, ,29, ,
-22, ,29, ,
-23, ,29, ,
-23, ,28, ,
-25, ,28, ,
-25, ,29, ,
-25, ,29, ,
-26, ,28, ,
-26, ,28, ,
-27, ,28, ,
-27, ,28, ,
-27, ,29, ,
-27, ,29, ,
-27, ,29, ,
-25, ,28, ,
-26, ,28, ,
-25, ,29, ,
-26, ,29, ,
-23, ,29, ,
-22, ,28, ,
-23, ,28, ,
-19, ,29, ,
-15, ,29, ,
-15, ,29, ,
-12, ,29, ,
-11, ,28, ,
-7, ,28, ,
-4, ,29, ,
-3, ,29, ,
-2, ,29, ,
2, ,29, ,
3, ,29, ,
4, ,29, ,
3, ,29, ,
6, ,29, ,
6, ,29, ,
6, ,28, ,
6, ,28, ,
6, ,28, ,
6, ,29, ,
6, ,29, ,
5, ,29, ,
3, ,29, ,
4, ,29, ,
1, ,28, ,
2, ,28, ,
-1, ,28, ,
-2, ,29, ,
-3, ,29, ,
-5, ,29, ,
-6, ,29, ,
-7, ,29, ,
-8, ,29, ,
-8, ,29, ,
-8, ,29, ,
-9, ,29, ,
-9, ,29, ,
-9, ,28, ,
-9, ,28, ,
-9, ,29, ,
-10, ,29, ,
-10, ,29, ,
-9, ,29, ,
-9, ,29, ,
-9, ,29, ,
-9, ,29, ,
-9, ,29, ,
-8, ,28, ,
-9, ,28, ,
-7, ,29, ,
-7, ,29, ,
-7, ,29, ,
-7, ,29, ,
-8, ,29, ,
-7, ,29, ,
-5, ,29, ,
-5, ,28, ,
-5, ,28, ,
-4, ,28, ,
-4, ,29, ,
-4, ,29, ,
-4, ,29, ,
-3, ,29, ,
-2, ,29, ,
-1, ,29, ,
-1, ,29, ,
-1, ,29, ,
-1, ,29, ,
0, ,29, ,
0, ,28, ,
0, ,28, ,
0, ,29, ,
0, ,28, ,
0, ,28, ,
-1, ,28, ,
-1, ,29, ,
-2, ,29, ,
-3, ,29, ,
-2, ,29, ,
-2, ,29, ,
-3, ,29, ,
-3, ,29, ,
-3, ,29, ,
-5, ,29, ,
-5, ,29, ,
-5, ,29, ,
-6, ,29, ,
-6, ,28, ,
-6, ,28, ,
-6, ,29, ,
-7, ,29, ,
-7, ,29, ,
-8, ,29, ,
-8, ,29, ,
-8, ,29, ,
-8, ,28, ,
-9, ,28, ,
-7, ,28, ,
-6, ,28, ,
-7, ,29, ,
-6, ,29, ,
-7, ,29, ,
-5, ,29, ,
-5, ,29, ,
-6, ,29, ,
-5, ,29, ,
-4, ,29, ,
-4, ,28, ,
-4, ,28, ,
-4, ,28, ,
-4, ,28, ,
-4, ,28, ,
-4, ,28, ,
-3, ,29, ,
-1, ,29, ,
-3, ,29, ,
-2, ,29, ,
-3, ,28, ,
-3, ,28, ,
-3, ,29, ,
-3, ,29, ,
-3, ,29, ,
-4, ,29, ,
-4, ,28, ,
-4, ,28, ,
-4, ,28, ,
-4, ,29, ,
-4, ,29, ,
-5, ,28, ,
-4, ,28, ,
-4, ,28, ,
-4, ,29, ,
-4, ,29, ,
-5, ,29, ,
-5, ,29, ,
-4, ,29, ,
-5, ,28, ,
-4, ,28, ,
-4, ,28, ,
-4, ,28, ,
-4, ,28, ,
-4, ,28, ,
-3, ,29, ,
-3, ,28, ,
-4, ,28, ,
-2, ,29, ,
-2, ,28, ,
-2, ,28, ,
-2, ,29, ,
-3, ,28, ,
-2, ,28, ,
-2, ,29, ,
-2, ,29, ,
-1, ,29, ,
-1, ,29, ,
-2, ,29, ,
-2, ,29, ,
-2, ,29, ,
-1, ,29, ,
-1, ,29, ,
-2, ,29, ,
0, ,29, ,
-1, ,29, ,
-2, ,29, ,
-1, ,29, ,
-2, ,28, ,
-2, ,28, ,
-2, ,28, ,
-2, ,28, ,
-2, ,29, ,
-1, ,29, ,
-1, ,28, ,
-1, ,28, ,
-2, ,28, ,
-2, ,29, ,
0, ,29, ,
-1, ,29, ,
-1, ,29, ,
-1, ,29, ,
-2, ,29, ,
-2, ,29, ,
-1, ,29, ,
-2, ,29, ,
0, ,29, ,
-1, ,29, ,
-1, ,29, ,
-1, ,28, ,
-2, ,28, ,
0, ,29, ,
-2, ,29, ,
-2, ,29, ,
-1, ,29, ,
-2, ,29, ,
-1, ,29, ,
-2, ,29, ,
-2, ,29, ,
-2, ,29, ,
-2, ,29, ,
-3, ,29, ,
-3, ,29, ,
-4, ,28, ,
-4, ,28, ,
-3, ,28, ,
-5, ,29, ,
-5, ,29, ,
-6, ,29, ,
-6, ,29, ,
-5, ,28, ,
-7, ,28, ,
-4, ,29, ,
-5, ,29, ,
-5, ,29, ,
-4, ,29, ,
-3, ,29, ,
-4, ,29, ,
-1, ,29, ,
-1, ,29, ,
-1, ,29, ,
0, ,29, ,
0, ,28, ,
2, ,28, ,
2, ,28, ,
4, ,29, ,
4, ,29, ,
5, ,29, ,
6, ,29, ,
7, ,29, ,
6, ,29, ,
8, ,29, ,
9, ,28, ,
9, ,28, ,
9, ,29, ,
9, ,29, ,
8, ,29, ,
8, ,29, ,
8, ,29, ,
7, ,29, ,
7, ,29, ,
5, ,29, ,
5, ,28, ,
5, ,28, ,
5, ,29, ,
4, ,29, ,
3, ,29, ,
3, ,29, ,
2, ,29, ,
2, ,29, ,
3, ,29, ,
2, ,29, ,
2, ,29, ,
2, ,29, ,
1, ,29, ,
2, ,29, ,
1, ,29, ,
2, ,29, ,
2, ,29, ,
2, ,29, ,
3, ,29, ,
4, ,29, ,
3, ,29, ,
5, ,29, ,
5, ,29, ,
5, ,29, ,
6, ,29, ,
6, ,29, ,
7, ,29, ,
7, ,29, ,
6, ,29, ,
5, ,29, ,
5, ,29, ,
4, ,29, ,
4, ,29, ,
4, ,29, ,
4, ,29, ,
4, ,29, ,
2, ,29, ,
2, ,29, ,
1, ,29, ,
0, ,29, ,
0, ,29, ,
-1, ,29, ,
0, ,29, ,
0, ,29, ,
-2, ,29, ,
-2, ,29, ,
-2, ,29, ,
-3, ,29, ,
-4, ,29, ,
-4, ,29, ,
-3, ,29, ,
-5, ,28, ,
-5, ,28, ,
-4, ,29, ,
-4, ,29, ,
-5, ,29, ,
-3, ,29, ,
-4, ,28, ,
-3, ,28, ,
-3, ,28, ,
-3, ,29, ,
-4, ,29, ,
-5, ,29, ,
-5, ,29, ,
-4, ,28, ,
-4, ,28, ,
-4, ,28, ,
-5, ,28, ,
-5, ,28, ,
-5, ,29, ,
-5, ,29, ,
-4, ,29, ,
-4, ,29, ,
-4, ,28, ,
-4, ,28, ,
-4, ,28, ,
-5, ,28, ,
-4, ,28, ,
-5, ,28, ,
-5, ,29, ,
-5, ,28, ,
-5, ,28, ,
-5, ,29, ,
-5, ,29, ,
-5, ,28, ,
-6, ,28, ,
-6, ,28, ,
-6, ,28, ,
-6, ,29, ,
-7, ,29, ,
-7, ,29, ,
-7, ,29, ,
-7, ,28, ,
-8, ,28, ,
-8, ,28, ,
-9, ,29, ,
-8, ,29, ,
-9, ,29, ,
-8, ,29, ,
-7, ,29, ,
-8, ,29, ,
-8, ,29, ,
-8, ,29, ,
-7, ,29, ,
-7, ,29, ,
-7, ,28, ,
-7, ,28, ,
-6, ,28, ,
-6, ,29, ,
-5, ,29, ,
-6, ,29, ,
-6, ,29, ,
-5, ,28, ,
-6, ,28, ,
-6, ,29, ,
-6, ,29, ,
-5, ,29, ,
-5, ,29, ,
-6, ,28, ,
-7, ,28, ,
-5, ,29, ,
-6, ,28, ,
-6, ,28, ,
-6, ,28, ,
-7, ,29, ,
-6, ,29, ,
-7, ,29, ,
-6, ,29, ,
-6, ,29, ,
-6, ,29, ,
-6, ,29, ,
-5, ,28, ,
-6, ,28, ,
-6, ,29, ,
-6, ,29, ,
-7, ,29, ,
-5, ,29, ,
-5, ,29, ,
-5, ,29, ,
-5, ,29, ,
-5, ,29, ,
-5, ,29, ,
-5, ,29, ,
-3, ,29, ,
-4, ,29, ,
-5, ,29, ,
-4, ,29, ,
-4, ,29, ,
-5, ,29, ,
-4, ,29, ,
-4, ,29, ,
-5, ,28, ,
-4, ,28, ,
-4, ,29, ,
-4, ,29, ,
-4, ,29, ,
-5, ,29, ,
-5, ,29, ,
-5, ,29, ,
-5, ,29, ,
-5, ,29, ,
-5, ,29, ,
-6, ,29, ,
-5, ,29, ,
-5, ,29, ,
-5, ,29, ,
-7, ,29, ,
-7, ,29, ,
-6, ,28, ,
-7, ,28, ,
-7, ,29, ,
-7, ,29, ,
-7, ,29, ,
-6, ,29, ,
-7, ,29, ,
-6, ,29, ,
-6, ,29, ,
-5, ,29, ,
-5, ,29, ,
-5, ,28, ,
-5, ,28, ,
-4, ,29, ,
-4, ,29, ,
-2, ,29, ,
-1, ,29, ,
0, ,29, ,
0, ,29, ,
1, ,29, ,
1, ,29, ,
3, ,29, ,
3, ,29, ,
4, ,29, ,
6, ,29, ,
6, ,29, ,
7, ,29, ,
8, ,29, ,
8, ,29, ,
8, ,29, ,
8, ,28, ,
8, ,28, ,
9, ,29, ,
10, ,29, ,
9, ,29, ,
10, ,29, ,
9, ,28, ,
9, ,28, ,
8, ,28, ,
7, ,29, ,
7, ,29, ,
6, ,29, ,
6, ,29, ,
6, ,28, ,
5, ,28, ,
5, ,29, ,
4, ,29, ,
3, ,29, ,
3, ,29, ,
2, ,28, ,
2, ,28, ,
3, ,28, ,
2, ,28, ,
2, ,28, ,
1, ,28, ,
1, ,29, ,
1, ,28, ,
1, ,28, ,
1, ,29, ,
0, ,29, ,
0, ,28, ,
0, ,28, ,
0, ,28, ,
-2, ,29, ,
0, ,29, ,
0, ,29, ,
0, ,29, ,
-1, ,29, ,
-1, ,29, ,
0, ,29, ,
0, ,29, ,
0, ,29, ,
1, ,29, ,
-2, ,29, ,
1, ,29, ,
0, ,29, ,
0, ,29, ,
0, ,29, ,
-1, ,29, ,
0, ,28, ,
0, ,28, ,
0, ,29, ,
0, ,29, ,
0, ,28, ,
0, ,28, ,
0, ,29, ,
-1, ,29, ,
-2, ,29, ,
-1, ,29, ,
-3, ,29, ,
-3, ,29, ,
-3, ,29, ,
-4, ,29, ,
-4, ,29, ,
-3, ,29, ,
-4, ,29, ,
-4, ,29, ,
-5, ,29, ,
-5, ,29, ,
-5, ,29, ,
-6, ,29, ,
-6, ,29, ,
-7, ,29, ,
-7, ,29, ,
-6, ,29, ,
-8, ,29, ,
-7, ,29, ,
-7, ,29, ,
-7, ,29, ,
-7, ,29, ,
-8, ,28, ,
-8, ,28, ,
-6, ,28, ,
-6, ,28, ,
-6, ,28, ,
-6, ,28, ,
-6, ,29, ,
-5, ,29, ,
-5, ,29, ,
-5, ,29, ,
-4, ,29, ,
-5, ,29, ,
-4, ,29, ,
-3, ,29, ,
-3, ,29, ,
-2, ,29, ,
-1, ,29, ,
-1, ,29, ,
-2, ,29, ,
1, ,29, ,
1, ,29, ,
2, ,29, ,
1, ,29, ,
3, ,29, ,
2, ,29, ,
2, ,29, ,
3, ,29, ,
2, ,29, ,
2, ,29, ,
3, ,29, ,
3, ,29, ,
3, ,29, ,
3, ,29, ,
3, ,29, ,
4, ,29, ,
3, ,29, ,
3, ,29, ,
3, ,29, ,
3, ,29, ,
4, ,29, ,
2, ,29, ,
2, ,29, ,
1, ,29, ,
1, ,29, ,
1, ,29, ,
0, ,28, ,
-1, ,28, ,
-1, ,29, ,
-2, ,29, ,
-4, ,29, ,
-3, ,29, ,
-3, ,29, ,
-3, ,29, ,
-5, ,29, ,
-7, ,29, ,
-6, ,28, ,
-8, ,28, ,
-8, ,28, ,
-8, ,29, ,
-10, ,29, ,
-10, ,29, ,
-10, ,29, ,
-10, ,29, ,
-10, ,29, ,
-10, ,28, ,
-9, ,28, ,
-9, ,29, ,
-9, ,29, ,
-7, ,29, ,
-5, ,29, ,
-5, ,29, ,
-4, ,29, ,
-5, ,29, ,
-2, ,29, ,
1, ,29, ,
1, ,29, ,
3, ,29, ,
8, ,29, ,
8, ,29, ,
11, ,29, ,
10, ,29, ,
14, ,29, ,
15, ,29, ,
17, ,29, ,
18, ,29, ,
20, ,29, ,
20, ,29, ,
21, ,29, ,
20, ,28, ,
21, ,28, ,
22, ,29, ,
21, ,29, ,
21, ,29, ,
20, ,29, ,
18, ,29, ,
18, ,29, ,
17, ,28, ,
14, ,28, ,
15, ,29, ,
12, ,28, ,
12, ,28, ,
8, ,28, ,
7, ,29, ,
7, ,29, ,
5, ,29, ,
3, ,29, ,
4, ,29, ,
1, ,29, ,
2, ,29, ,
0, ,29, ,
-2, ,29, ,
-1, ,29, ,
-2, ,29, ,
-3, ,28, ,
-2, ,28, ,
-1, ,29, ,
-2, ,29, ,
-1, ,29, ,
-2, ,29, ,
-1, ,29, ,
-2, ,29, ,
-1, ,29, ,
-1, ,29, ,
-2, ,29, ,
-1, ,29, ,
0, ,29, ,
-2, ,29, ,
0, ,29, ,
0, ,29, ,
0, ,28, ,
0, ,28, ,
0, ,29, ,
1, ,29, ,
1, ,29, ,
1, ,29, ,
1, ,29, ,
0, ,28, ,
1, ,28, ,
0, ,29, ,
0, ,29, ,
1, ,29, ,
2, ,29, ,
1, ,29, ,
1, ,29, ,
1, ,29, ,
1, ,29, ,
3, ,29, ,
3, ,29, ,
3, ,29, ,
3, ,28, ,
2, ,28, ,
3, ,29, ,
1, ,29, ,
2, ,29, ,
2, ,29, ,
2, ,29, ,
2, ,29, ,
1, ,29, ,
0, ,29, ,
0, ,29, ,
0, ,29, ,
-1, ,29, ,
-1, ,28, ,
-2, ,28, ,
-1, ,29, ,
-3, ,29, ,
-5, ,28, ,
-5, ,28, ,
-6, ,28, ,
-6, ,29, ,
-6, ,29, ,
-8, ,29, ,
-8, ,29, ,
-8, ,29, ,
-9, ,29, ,
-9, ,29, ,
-9, ,28, ,
-9, ,28, ,
-9, ,29, ,
-9, ,29, ,
-7, ,29, ,
-8, ,29, ,
-8, ,29, ,
-7, ,29, ,
-8, ,29, ,
-6, ,29, ,
-5, ,28, ,
-5, ,28, ,
-5, ,29, ,
-2, ,29, ,
-2, ,29, ,
0, ,29, ,
0, ,28, ,
1, ,28, ,
2, ,29, ,
3, ,29, ,
4, ,29, ,
5, ,29, ,
5, ,29, ,
5, ,29, ,
6, ,29, ,
6, ,29, ,
6, ,29, ,
6, ,29, ,
6, ,29, ,
6, ,29, ,
6, ,29, ,
6, ,29, ,
5, ,29, ,
5, ,29, ,
5, ,29, ,
4, ,28, ,
4, ,28, ,
3, ,28, ,
2, ,29, ,
2, ,28, ,
2, ,28, ,
1, ,28, ,
2, ,29, ,
0, ,29, ,
0, ,29, ,
0, ,29, ,
0, ,29, ,
1, ,29, ,
0, ,29, ,
0, ,29, ,
0, ,29, ,
0, ,29, ,
0, ,29, ,
0, ,29, ,
0, ,29, ,
0, ,29, ,
1, ,29, ,
0, ,29, ,
0, ,28, ,
-2, ,28, ,
0, ,29, ,
-1, ,28, ,
-1, ,28, ,
-1, ,29, ,
-1, ,29, ,
-2, ,29, ,
-2, ,29, ,
-3, ,29, ,
-3, ,29, ,
-3, ,29, ,
-3, ,29, ,
-3, ,29, ,
-4, ,29, ,
-5, ,29, ,
-5, ,29, ,
-5, ,29, ,
-5, ,29, ,
-5, ,29, ,
-6, ,28, ,
-6, ,28, ,
-7, ,28, ,
-7, ,29, ,
-7, ,29, ,
-7, ,29, ,
-6, ,29, ,
-7, ,29, ,
-8, ,29, ,
-7, ,29, ,
-8, ,29, ,
-9, ,29, ,
-8, ,29, ,
-9, ,29, ,
-10, ,29, ,
-9, ,28, ,
-10, ,28, ,
-10, ,29, ,
-10, ,29, ,
-11, ,29, ,
-10, ,29, ,
-11, ,29, ,
-10, ,29, ,
-11, ,29, ,
-10, ,29, ,
-10, ,29, ,
-10, ,29, ,
-10, ,29, ,
-9, ,29, ,
-10, ,29, ,
-8, ,29, ,
-7, ,28, ,
-6, ,28, ,
-7, ,29, ,
-5, ,29, ,
-4, ,29, ,
-1, ,29, ,
-1, ,29, ,
1, ,28, ,
3, ,28, ,
2, ,29, ,
4, ,29, ,
5, ,29, ,
8, ,29, ,
8, ,29, ,
8, ,29, ,
10, ,29, ,
12, ,28, ,
11, ,28, ,
