raw_data/100% Glycerol, Impulsion 2Hz, Sonde 5MHz, Rampe 0.7Hz/temp0000001.CSV

Format,1.0B,
Memory Length,10000,Memory Length,10000,
IntpDistance,0,IntpDistance,0,
Trigger Address,159,Trigger Address,159,
Trigger Level,2.720E-01,Trigger Level,2.720E-01,
Source,CH1,Source,CH2,
Vertical Units,V,Vertical Units,V,
Vertical Units Div,0,Vertical Units Div,0,
Vertical Units Extend Div,16,Vertical Units Extend Div,16,
Label,,Label,,
Probe Type,0,Probe Type,0,
Probe Ratio,1.000e+00,Probe Ratio,1.000e+00,
Vertical Scale,2.000e-01,Vertical Scale,2.000e+00,
Vertical Position,0.000e+00,Vertical Position,0.000e+00,
Horizontal Units,S,Horizontal Units,S,
Horizontal Scale,5.000E-06,Horizontal Scale,5.000E-06,
Horizontal Position,2.420E-05,Horizontal Position,2.420E-05,
Horizontal Mode,Main,Horizontal Mode,Main,
SincET Mode,Real Time,SincET Mode,Real Time,
Sampling Period,5.000e-09,Sampling Period,5.000e-09,
Horizontal Old Scale,5.000E-06,Horizontal Old Scale,5.000E-06,
Horizontal Old Position,2.420E-05,Horizontal Old Position,2.420E-05,
Firmware,V1.32,Firmware,V1.32,
Mode,Fast,Mode,Fast,
Waveform Data,,Waveform Data,,
2, ,36, ,
1, ,36, ,
2, ,36, ,
2, ,36, ,
2, ,36, ,
2, ,36, ,
1, ,37, ,
1, ,37, ,
1, ,37, ,
1, ,37, ,
1, ,36, ,
1, ,36, ,
1, ,37, ,
1, ,36, ,
1, ,36, ,
0, ,37, ,
1, ,37, ,
0, ,36, ,
2, ,36, ,
2, ,37, ,
1, ,37, ,
2, ,37, ,
1, ,37, ,
2, ,37, ,
2, ,37, ,
1, ,37, ,
2, ,37, ,
1, ,37, ,
1, ,37, ,
2, ,37, ,
1, ,37, ,
1, ,37, ,
1, ,37, ,
1, ,37, ,
2, ,37, ,
2, ,37, ,
1, ,37, ,
1, ,37, ,
1, ,37, ,
1, ,36, ,
1, ,36, ,
1, ,36, ,
1, ,36, ,
1, ,37, ,
1, ,37, ,
2, ,37, ,
2, ,37, ,
1, ,37, ,
2, ,37, ,
1, ,37, ,
1, ,37, ,
1, ,37, ,
1, ,37, ,
1, ,37, ,
1, ,37, ,
2, ,37, ,
2, ,37, ,
2, ,37, ,
2, ,36, ,
2, ,36, ,
2, ,37, ,
2, ,37, ,
1, ,37, ,
0, ,37, ,
2, ,37, ,
2, ,37, ,
1, ,37, ,
2, ,37, ,
1, ,37, ,
1, ,37, ,
1, ,37, ,
2, ,37, ,
2, ,37, ,
1, ,37, ,
2, ,37, ,
1, ,37, ,
1, ,37, ,
2, ,37, ,
1, ,37, ,
1, ,37, ,
2, ,37, ,
1, ,37, ,
1, ,37, ,
1, ,37, ,
1, ,36, ,
1, ,36, ,
1, ,36, ,
1, ,37, ,
1, ,37, ,
1, ,37, ,
1, ,37, ,
2, ,37, ,
1, ,37, ,
1, ,37, ,
1, ,37, ,
1, ,37, ,
2, ,37, ,
1, ,37, ,
2, ,37, ,
2, ,36, ,
1, ,36, ,
1, ,36, ,
1, ,37, ,
2, ,37, ,
2, ,37, ,
2, ,37, ,
2, ,37, ,
1, ,37, ,
1, ,37, ,
1, ,37, ,
2, ,37, ,
0, ,37, ,
2, ,37, ,
1, ,37, ,
1, ,37, ,
2, ,37, ,
1, ,37, ,
2, ,37, ,
1, ,37, ,
1, ,37, ,
2, ,37, ,
1, ,37, ,
2, ,36, ,
1, ,36, ,
1, ,37, ,
1, ,37, ,
1, ,37, ,
1, ,37, ,
1, ,37, ,
1, ,37, ,
1, ,37, ,
1, ,37, ,
1, ,36, ,
2, ,36, ,
2, ,36, ,
2, ,37, ,
2, ,37, ,
1, ,37, ,
3, ,37, ,
2, ,37, ,
1, ,37, ,
2, ,37, ,
2, ,36, ,
1, ,36, ,
2, ,37, ,
1, ,37, ,
1, ,37, ,
2, ,37, ,
1, ,36, ,
2, ,36, ,
0, ,36, ,
0, ,37, ,
1, ,37, ,
1, ,37, ,
2, ,37, ,
1, ,37, ,
0, ,37, ,
2, ,37, ,
1, ,37, ,
1, ,37, ,
2, ,37, ,
1, ,37, ,
1, ,37, ,
1, ,37, ,
4, ,37, ,
0, ,37, ,
-2, ,37, ,
0, ,37, ,
24, ,37, ,
73, ,37, ,
125, ,37, ,
125, ,37, ,
125, ,37, ,
121, ,37, ,
117, ,37, ,
-18, ,37, ,
65, ,37, ,
125, ,36, ,
125, ,36, ,
125, ,37, ,
125, ,37, ,
125, ,37, ,
125, ,37, ,
125, ,36, ,
125, ,36, ,
125, ,37, ,
125, ,37, ,
125, ,37, ,
125, ,37, ,
125, ,36, ,
125, ,36, ,
125, ,37, ,
125, ,37, ,
125, ,37, ,
125, ,37, ,
125, ,37, ,
125, ,37, ,
125, ,37, ,
125, ,37, ,
125, ,37, ,
125, ,37, ,
125, ,37, ,
125, ,37, ,
124, ,37, ,
120, ,37, ,
115, ,36, ,
110, ,36, ,
102, ,36, ,
99, ,36, ,
94, ,37, ,
91, ,37, ,
84, ,37, ,
78, ,37, ,
76, ,37, ,
71, ,37, ,
64, ,37, ,
63, ,37, ,
58, ,37, ,
56, ,37, ,
52, ,37, ,
49, ,37, ,
48, ,37, ,
45, ,37, ,
39, ,37, ,
39, ,36, ,
36, ,36, ,
35, ,36, ,
32, ,37, ,
30, ,36, ,
29, ,36, ,
27, ,36, ,
25, ,37, ,
24, ,37, ,
20, ,37, ,
19, ,37, ,
18, ,37, ,
15, ,37, ,
15, ,37, ,
14, ,37, ,
12, ,37, ,
12, ,37, ,
11, ,37, ,
10, ,37, ,
9, ,37, ,
8, ,37, ,
7, ,37, ,
7, ,37, ,
5, ,37, ,
5, ,37, ,
4, ,37, ,
4, ,37, ,
4, ,37, ,
2, ,37, ,
1, ,37, ,
2, ,36, ,
1, ,36, ,
2, ,37, ,
0, ,37, ,
0, ,37, ,
0, ,37, ,
-1, ,37, ,
0, ,37, ,
-1, ,37, ,
-1, ,37, ,
-1, ,37, ,
-2, ,37, ,
-1, ,37, ,
-2, ,37, ,
-3, ,37, ,
-3, ,37, ,
-4, ,37, ,
-4, ,37, ,
-3, ,37, ,
-3, ,37, ,
-3, ,37, ,
-3, ,36, ,
-3, ,36, ,
-3, ,36, ,
-2, ,37, ,
-3, ,37, ,
-3, ,37, ,
-3, ,37, ,
-4, ,37, ,
-3, ,36, ,
-4, ,36, ,
-4, ,36, ,
-4, ,36, ,
-4, ,37, ,
-3, ,37, ,
-3, ,37, ,
-3, ,37, ,
-4, ,37, ,
-3, ,37, ,
-3, ,37, ,
-4, ,37, ,
-3, ,36, ,
-3, ,36, ,
-4, ,36, ,
-3, ,37, ,
-2, ,37, ,
-3, ,37, ,
-2, ,37, ,
-3, ,37, ,
-4, ,37, ,
-3, ,37, ,
-3, ,36, ,
-4, ,36, ,
-2, ,36, ,
-3, ,37, ,
-3, ,37, ,
-3, ,37, ,
-3, ,37, ,
-3, ,37, ,
-4, ,37, ,
-2, ,37, ,
-2, ,37, ,
-3, ,37, ,
-1, ,37, ,
-4, ,37, ,
-1, ,37, ,
-2, ,37, ,
-2, ,37, ,
-2, ,37, ,
-1, ,37, ,
-2, ,37, ,
-1, ,37, ,
-1, ,37, ,
-2, ,37, ,
0, ,37, ,
-2, ,37, ,
-1, ,37, ,
-1, ,37, ,
-2, ,37, ,
0, ,37, ,
0, ,37, ,
-1, ,37, ,
-1, ,37, ,
-2, ,37, ,
0, ,37, ,
0, ,37, ,
-1, ,37, ,
-1, ,37, ,
-2, ,37, ,
0, ,37, ,
0, ,37, ,
0, ,37, ,
0, ,37, ,
0, ,37, ,
0, ,37, ,
0, ,37, ,
0, ,37, ,
0, ,37, ,
0, ,37, ,
0, ,37, ,
0, ,37, ,
0, ,37, ,
-1, ,37, ,
0, ,37, ,
0, ,37, ,
1, ,37, ,
1, ,37, ,
0, ,37, ,
0, ,37, ,
1, ,37, ,
0, ,37, ,
1, ,37, ,
0, ,37, ,
0, ,37, ,
0, ,37, ,
0, ,37, ,
0, ,37, ,
1, ,37, ,
1, ,37, ,
1, ,37, ,
0, ,37, ,
0, ,37, ,
1, ,37, ,
0, ,37, ,
1, ,37, ,
1, ,37, ,
1, ,37, ,
1, ,37, ,
1, ,37, ,
1, ,37, ,
1, ,37, ,
0, ,37, ,
0, ,37, ,
1, ,37, ,
0, ,37, ,
1, ,37, ,
0, ,37, ,
1, ,37, ,
1, ,37, ,
1, ,37, ,
1, ,37, ,
2, ,37, ,
1, ,37, ,
0, ,37, ,
1, ,37, ,
1, ,37, ,
1, ,37, ,
1, ,37, ,
1, ,37, ,
1, ,37, ,
0, ,37, ,
1, ,37, ,
1, ,37, ,
1, ,37, ,
1, ,37, ,
1, ,37, ,
1, ,37, ,
2, ,37, ,
1, ,37, ,
1, ,36, ,
0, ,36, ,
1, ,37, ,
1, ,37, ,
1, ,37, ,
2, ,37, ,
2, ,37, ,
0, ,37, ,
1, ,37, ,
0, ,37, ,
0, ,37, ,
0, ,37, ,
0, ,37, ,
0, ,36, ,
0, ,36, ,
-1, ,37, ,
1, ,37, ,
0, ,37, ,
0, ,37, ,
1, ,37, ,
1, ,37, ,
1, ,37, ,
1, ,37, ,
1, ,37, ,
1, ,37, ,
0, ,37, ,
0, ,37, ,
1, ,37, ,
0, ,37, ,
0, ,37, ,
-1, ,37, ,
-1, ,37, ,
-1, ,37, ,
-2, ,37, ,
-2, ,37, ,
0, ,37, ,
0, ,37, ,
0, ,37, ,
1, ,37, ,
0, ,37, ,
2, ,37, ,
1, ,37, ,
1, ,37, ,
2, ,37, ,
0, ,37, ,
1, ,37, ,
1, ,37, ,
1, ,37, ,
1, ,37, ,
0, ,37, ,
0, ,37, ,
1, ,37, ,
0, ,37, ,
0, ,37, ,
1, ,37, ,
1, ,37, ,
1, ,37, ,
1, ,37, ,
1, ,37, ,
2, ,37, ,
1, ,37, ,
2, ,36, ,
2, ,36, ,
2, ,37, ,
2, ,37, ,
2, ,37, ,
0, ,37, ,
0, ,37, ,
-1, ,37, ,
0, ,37, ,
-1, ,37, ,
-1, ,37, ,
0, ,37, ,
-1, ,37, ,
0, ,37, ,
0, ,37, ,
-1, ,37, ,
0, ,37, ,
1, ,37, ,
0, ,37, ,
2, ,37, ,
1, ,37, ,
2, ,37, ,
1, ,37, ,
1, ,37, ,
1, ,37, ,
1, ,37, ,
0, ,37, ,
0, ,37, ,
0, ,37, ,
-1, ,37, ,
0, ,37, ,
-2, ,37, ,
0, ,37, ,
0, ,37, ,
0, ,37, ,
1, ,37, ,
0, ,37, ,
1, ,36, ,
1, ,36, ,
1, ,37, ,
2, ,37, ,
1, ,37, ,
-1, ,37, ,
-1, ,37, ,
-1, ,37, ,
-3, ,37, ,
-3, ,37, ,
-5, ,37, ,
-5, ,36, ,
-5, ,36, ,
-6, ,37, ,
-5, ,37, ,
-6, ,37, ,
-7, ,37, ,
-6, ,37, ,
-7, ,37, ,
-7, ,37, ,
-7, ,37, ,
-8, ,37, ,
-10, ,37, ,
-12, ,37, ,
-14, ,37, ,
-14, ,37, ,
-16, ,37, ,
-18, ,37, ,
-20, ,37, ,
-25, ,37, ,
-26, ,37, ,
-28, ,37, ,
-32, ,37, ,
-30, ,37, ,
-30, ,37, ,
-31, ,36, ,
-29, ,36, ,
-30, ,37, ,
-29, ,37, ,
-30, ,37, ,
-28, ,37, ,
-28, ,37, ,
-29, ,37, ,
-30, ,36, ,
-31, ,36, ,
-33, ,37, ,
-33, ,37, ,
-34, ,37, ,
-34, ,37, ,
-34, ,36, ,
-34, ,36, ,
-32, ,36, ,
-30, ,37, ,
-29, ,37, ,
-25, ,37, ,
-24, ,37, ,
-18, ,37, ,
-14, ,37, ,
-13, ,37, ,
-10, ,37, ,
-7, ,37, ,
-6, ,37, ,
-5, ,37, ,
-5, ,36, ,
-6, ,36, ,
-6, ,37, ,
-7, ,37, ,
-7, ,37, ,
-7, ,37, ,
-8, ,37, ,
-7, ,37, ,
-9, ,37, ,
-4, ,37, ,
-3, ,37, ,
-2, ,37, ,
0, ,37, ,
2, ,37, ,
2, ,37, ,
3, ,37, ,
4, ,37, ,
3, ,37, ,
4, ,37, ,
2, ,37, ,
0, ,37, ,
-1, ,37, ,
-3, ,37, ,
-4, ,37, ,
-8, ,37, ,
-10, ,37, ,
-11, ,37, ,
-12, ,37, ,
-12, ,37, ,
-12, ,37, ,
-12, ,37, ,
-12, ,37, ,
-12, ,37, ,
-12, ,37, ,
-12, ,37, ,
-13, ,37, ,
-12, ,37, ,
-15, ,37, ,
-16, ,37, ,
-20, ,37, ,
-21, ,37, ,
-25, ,37, ,
-25, ,37, ,
-28, ,37, ,
-28, ,37, ,
-28, ,36, ,
-30, ,36, ,
-27, ,36, ,
-28, ,36, ,
-27, ,37, ,
-26, ,37, ,
-27, ,37, ,
-26, ,37, ,
-28, ,36, ,
-29, ,36, ,
-29, ,36, ,
-30, ,37, ,
-31, ,37, ,
-31, ,37, ,
-33, ,37, ,
-32, ,37, ,
-33, ,37, ,
-34, ,37, ,
-34, ,37, ,
-34, ,37, ,
-34, ,36, ,
-33, ,36, ,
-33, ,37, ,
-32, ,37, ,
-32, ,37, ,
-30, ,37, ,
-30, ,37, ,
-30, ,37, ,
-28, ,37, ,
-26, ,37, ,
-27, ,37, ,
-25, ,37, ,
-26, ,37, ,
-27, ,37, ,
-26, ,37, ,
-28, ,37, ,
-31, ,37, ,
-33, ,37, ,
-33, ,37, ,
-34, ,37, ,
-35, ,37, ,
-35, ,37, ,
-35, ,37, ,
-34, ,37, ,
-34, ,37, ,
-31, ,37, ,
-32, ,37, ,
-30, ,37, ,
-29, ,37, ,
-30, ,37, ,
-30, ,37, ,
-31, ,37, ,
-34, ,37, ,
-34, ,37, ,
-35, ,37, ,
-35, ,37, ,
-35, ,37, ,
-34, ,37, ,
-34, ,37, ,
-34, ,37, ,
-31, ,36, ,
-32, ,36, ,
-30, ,36, ,
-28, ,37, ,
-26, ,37, ,
-27, ,37, ,
-26, ,37, ,
-26, ,37, ,
-27, ,37, ,
-25, ,36, ,
-25, ,36, ,
-25, ,36, ,
-23, ,37, ,
-24, ,37, ,
-22, ,37, ,
-20, ,37, ,
-17, ,37, ,
-17, ,36, ,
-17, ,36, ,
-15, ,36, ,
-15, ,37, ,
-15, ,37, ,
-13, ,37, ,
-12, ,37, ,
-10, ,37, ,
-9, ,37, ,
-7, ,37, ,
-5, ,37, ,
-3, ,37, ,
-3, ,37, ,
-2, ,37, ,
0, ,37, ,
0, ,37, ,
2, ,37, ,
1, ,37, ,
2, ,37, ,
4, ,37, ,
1, ,37, ,
3, ,37, ,
4, ,37, ,
5, ,37, ,
5, ,36, ,
5, ,36, ,
7, ,36, ,
8, ,37, ,
8, ,37, ,
9, ,37, ,
6, ,37, ,
6, ,37, ,
7, ,37, ,
5, ,37, ,
5, ,37, ,
4, ,37, ,
4, ,37, ,
3, ,37, ,
3, ,37, ,
1, ,37, ,
2, ,37, ,
0, ,37, ,
0, ,37, ,
0, ,37, ,
-1, ,37, ,
-1, ,37, ,
-2, ,37, ,
-3, ,37, ,
-3, ,37, ,
-5, ,37, ,
-5, ,37, ,
-5, ,37, ,
-6, ,37, ,
-6, ,37, ,
-9, ,37, ,
-10, ,36, ,
-10, ,36, ,
-11, ,37, ,
-11, ,37, ,
-13, ,37, ,
-14, ,37, ,
-15, ,37, ,
-15, ,37, ,
-16, ,37, ,
-15, ,37, ,
-16, ,37, ,
-16, ,37, ,
-17, ,37, ,
-19, ,37, ,
-18, ,37, ,
-19, ,37, ,
-20, ,37, ,
-20, ,37, ,
-21, ,37, ,
-21, ,37, ,
-24, ,37, ,
-23, ,37, ,
-25, ,37, ,
-28, ,37, ,
-29, ,37, ,
-30, ,37, ,
-30, ,37, ,
-31, ,37, ,
-31, ,37, ,
-32, ,37, ,
-32, ,37, ,
-33, ,37, ,
-34, ,37, ,
-33, ,36, ,
-33, ,36, ,
-34, ,36, ,
-32, ,36, ,
-33, ,36, ,
-33, ,36, ,
-33, ,37, ,
-30, ,37, ,
-30, ,37, ,
-29, ,37, ,
-28, ,37, ,
-25, ,37, ,
-24, ,37, ,
-22, ,37, ,
-21, ,37, ,
-16, ,37, ,
-14, ,37, ,
-11, ,37, ,
-10, ,37, ,
-5, ,37, ,
-4, ,37, ,
-3, ,37, ,
-1, ,37, ,
0, ,37, ,
2, ,37, ,
1, ,37, ,
3, ,37, ,
4, ,36, ,
3, ,36, ,
6, ,37, ,
6, ,37, ,
6, ,37, ,
6, ,37, ,
6, ,37, ,
6, ,37, ,
6, ,37, ,
5, ,37, ,
5, ,37, ,
4, ,37, ,
5, ,37, ,
5, ,37, ,
5, ,37, ,
6, ,37, ,
6, ,37, ,
6, ,37, ,
7, ,37, ,
8, ,37, ,
8, ,37, ,
9, ,36, ,
9, ,36, ,
9, ,36, ,
8, ,37, ,
7, ,37, ,
8, ,37, ,
7, ,37, ,
6, ,37, ,
6, ,37, ,
5, ,37, ,
6, ,37, ,
2, ,36, ,
2, ,36, ,
2, ,37, ,
0, ,37, ,
-3, ,37, ,
-3, ,37, ,
-5, ,37, ,
-6, ,37, ,
-9, ,37, ,
-11, ,37, ,
-11, ,37, ,
-13, ,37, ,
-15, ,37, ,
-15, ,37, ,
-15, ,37, ,
-15, ,37, ,
-15, ,37, ,
-16, ,37, ,
-15, ,37, ,
-16, ,37, ,
-16, ,37, ,
-16, ,37, ,
-16, ,37, ,
-16, ,37, ,
-15, ,37, ,
-15, ,36, ,
-15, ,36, ,
-17, ,36, ,
-15, ,37, ,
-14, ,37, ,
-14, ,37, ,
-14, ,37, ,
-14, ,37, ,
-16, ,37, ,
-16, ,37, ,
-16, ,37, ,
-17, ,37, ,
-16, ,37, ,
-18, ,37, ,
-18, ,37, ,
-18, ,37, ,
-20, ,37, ,
-20, ,37, ,
-21, ,37, ,
-21, ,37, ,
-23, ,37, ,
-24, ,37, ,
-23, ,37, ,
-24, ,37, ,
-25, ,37, ,
-25, ,37, ,
-25, ,37, ,
-26, ,37, ,
-24, ,37, ,
-25, ,37, ,
-25, ,37, ,
-24, ,37, ,
-24, ,37, ,
-24, ,37, ,
-24, ,37, ,
-24, ,37, ,
-23, ,37, ,
-24, ,37, ,
-23, ,37, ,
-22, ,36, ,
-22, ,36, ,
-20, ,36, ,
-20, ,37, ,
-19, ,37, ,
-17, ,37, ,
-17, ,37, ,
-16, ,37, ,
-15, ,37, ,
-15, ,37, ,
-15, ,37, ,
-15, ,37, ,
-14, ,36, ,
-14, ,36, ,
-14, ,37, ,
-14, ,37, ,
-15, ,37, ,
-15, ,37, ,
-14, ,37, ,
-15, ,37, ,
-15, ,37, ,
-15, ,37, ,
-16, ,37, ,
-16, ,37, ,
-17, ,37, ,
-17, ,37, ,
-18, ,37, ,
-18, ,37, ,
-18, ,37, ,
-18, ,37, ,
-19, ,37, ,
-18, ,37, ,
-19, ,37, ,
-19, ,37, ,
-18, ,37, ,
-19, ,37, ,
-17, ,37, ,
-16, ,37, ,
-15, ,37, ,
-14, ,37, ,
-12, ,37, ,
-12, ,37, ,
-11, ,37, ,
-11, ,37, ,
-10, ,37, ,
-10, ,37, ,
-10, ,37, ,
-10, ,37, ,
-8, ,36, ,
-9, ,36, ,
-8, ,36, ,
-8, ,36, ,
-8, ,36, ,
-7, ,37, ,
-8, ,37, ,
-8, ,37, ,
-7, ,37, ,
-8, ,37, ,
-8, ,37, ,
-8, ,37, ,
-7, ,37, ,
-7, ,37, ,
-8, ,37, ,
-7, ,37, ,
-6, ,37, ,
-7, ,37, ,
-5, ,37, ,
-5, ,36, ,
-4, ,36, ,
-3, ,37, ,
-2, ,37, ,
-1, ,37, ,
-1, ,37, ,
-2, ,37, ,
0, ,36, ,
0, ,36, ,
-1, ,37, ,
-1, ,37, ,
-2, ,37, ,
-1, ,37, ,
-2, ,37, ,
-2, ,37, ,
-2, ,37, ,
-3, ,37, ,
-5, ,36, ,
-5, ,36, ,
-5, ,37, ,
-6, ,37, ,
-5, ,37, ,
-8, ,37, ,
-8, ,37, ,
-9, ,37, ,
-9, ,36, ,
-9, ,36, ,
-10, ,37, ,
-10, ,37, ,
-9, ,37, ,
-10, ,37, ,
-9, ,37, ,
-10, ,37, ,
-9, ,37, ,
-8, ,37, ,
-9, ,37, ,
-8, ,37, ,
-8, ,37, ,
-8, ,37, ,
-8, ,37, ,
-9, ,37, ,
-9, ,37, ,
-8, ,37, ,
-8, ,37, ,
-7, ,37, ,
-7, ,37, ,
-7, ,37, ,
-7, ,37, ,
-8, ,37, ,
-9, ,37, ,
-9, ,37, ,
-9, ,37, ,
-9, ,37, ,
-8, ,37, ,
-9, ,37, ,
-8, ,37, ,
-9, ,37, ,
-8, ,37, ,
-7, ,37, ,
-7, ,37, ,
-7, ,36, ,
-6, ,36, ,
-5, ,37, ,
-5, ,37, ,
-6, ,37, ,
-5, ,37, ,
-3, ,37, ,
-4, ,37, ,
-3, ,37, ,
-3, ,37, ,
-4, ,37, ,
-3, ,37, ,
-4, ,37, ,
-3, ,37, ,
-2, ,37, ,
-2, ,37, ,
-2, ,37, ,
-2, ,37, ,
-3, ,37, ,
-2, ,37, ,
-2, ,37, ,
-3, ,37, ,
-3, ,37, ,
-4, ,37, ,
-3, ,37, ,
-4, ,37, ,
-5, ,37, ,
-5, ,37, ,
-5, ,37, ,
-4, ,37, ,
-4, ,37, ,
-4, ,37, ,
-3, ,36, ,
-3, ,36, ,
-3, ,37, ,
-4, ,37, ,
-3, ,37, ,
-3, ,37, ,
-3, ,37, ,
-4, ,37, ,
-3, ,37, ,
-3, ,37, ,
-4, ,37, ,
-3, ,37, ,
-4, ,37, ,
-3, ,37, ,
-2, ,37, ,
-5, ,37, ,
-2, ,37, ,
-1, ,37, ,
-2, ,37, ,
-1, ,37, ,
-2, ,37, ,
-3, ,37, ,
-2, ,37, ,
-3, ,37, ,
-3, ,37, ,
-3, ,37, ,
-4, ,37, ,
-4, ,37, ,
-4, ,37, ,
-3, ,37, ,
-2, ,37, ,
-2, ,37, ,
-2, ,37, ,
-2, ,37, ,
-2, ,37, ,
0, ,37, ,
0, ,36, ,
0, ,36, ,
1, ,37, ,
0, ,37, ,
2, ,37, ,
3, ,37, ,
3, ,37, ,
4, ,37, ,
1, ,37, ,
5, ,36, ,
6, ,36, ,
5, ,36, ,
6, ,37, ,
5, ,37, ,
5, ,37, ,
6, ,37, ,
6, ,37, ,
5, ,37, ,
6, ,37, ,
4, ,37, ,
3, ,37, ,
3, ,37, ,
2, ,37, ,
2, ,37, ,
0, ,37, ,
-1, ,36, ,
-1, ,36, ,
-2, ,36, ,
-2, ,36, ,
-4, ,36, ,
-4, ,37, ,
-4, ,37, ,
-5, ,37, ,
-6, ,37, ,
-5, ,37, ,
-5, ,37, ,
-5, ,37, ,
-6, ,37, ,
-7, ,37, ,
-7, ,37, ,
-7, ,37, ,
-8, ,36, ,
-8, ,36, ,
-9, ,37, ,
-9, ,37, ,
-7, ,37, ,
-8, ,37, ,
-7, ,37, ,
-8, ,37, ,
-7, ,37, ,
-6, ,37, ,
-6, ,37, ,
-5, ,37, ,
-4, ,37, ,
-4, ,37, ,
-3, ,37, ,
-4, ,37, ,
-1, ,37, ,
1, ,37, ,
1, ,37, ,
1, ,37, ,
5, ,37, ,
5, ,37, ,
6, ,37, ,
8, ,36, ,
8, ,36, ,
11, ,37, ,
13, ,37, ,
13, ,37, ,
15, ,37, ,
14, ,37, ,
15, ,37, ,
14, ,37, ,
16, ,37, ,
16, ,37, ,
16, ,37, ,
16, ,37, ,
16, ,37, ,
16, ,37, ,
15, ,37, ,
15, ,37, ,
13, ,37, ,
13, ,37, ,
13, ,37, ,
12, ,37, ,
10, ,37, ,
10, ,37, ,
9, ,37, ,
7, ,37, ,
6, ,37, ,
6, ,37, ,
5, ,37, ,
5, ,37, ,
2, ,37, ,
1, ,37, ,
2, ,37, ,
0, ,37, ,
-1, ,37, ,
-1, ,37, ,
-2, ,37, ,
-1, ,37, ,
-3, ,37, ,
-3, ,37, ,
-4, ,37, ,
-5, ,37, ,
-4, ,37, ,
-4, ,37, ,
-4, ,37, ,
-4, ,37, ,
-4, ,37, ,
-5, ,37, ,
-5, ,37, ,
-5, ,37, ,
-5, ,37, ,
-4, ,37, ,
-5, ,37, ,
-5, ,37, ,
-5, ,37, ,
-5, ,37, ,
-5, ,37, ,
-5, ,37, ,
-5, ,36, ,
-5, ,36, ,
-6, ,36, ,
-5, ,37, ,
-5, ,37, ,
-6, ,37, ,
-5, ,37, ,
-6, ,37, ,
-6, ,37, ,
-6, ,37, ,
-6, ,37, ,
-6, ,37, ,
-7, ,37, ,
-6, ,37, ,
-7, ,37, ,
-7, ,37, ,
-7, ,36, ,
-7, ,36, ,
-8, ,36, ,
-7, ,37, ,
-6, ,37, ,
-8, ,37, ,
-7, ,37, ,
-8, ,37, ,
-8, ,37, ,
-7, ,37, ,
-7, ,37, ,
-8, ,37, ,
-8, ,37, ,
-7, ,37, ,
-7, ,37, ,
-7, ,37, ,
-7, ,37, ,
-7, ,37, ,
-8, ,37, ,
-8, ,37, ,
-8, ,37, ,
-8, ,37, ,
-8, ,37, ,
-7, ,36, ,
-7, ,36, ,
-7, ,37, ,
-7, ,37, ,
-7, ,37, ,
-6, ,37, ,
-7, ,37, ,
-6, ,37, ,
-6, ,37, ,
-7, ,37, ,
-7, ,37, ,
-7, ,37, ,
-7, ,37, ,
-7, ,37, ,
-8, ,37, ,
-6, ,37, ,
-7, ,37, ,
-7, ,37, ,
-7, ,37, ,
-6, ,37, ,
-7, ,37, ,
-7, ,37, ,
-7, ,37, ,
-7, ,37, ,
-7, ,37, ,
-8, ,37, ,
-8, ,37, ,
-8, ,37, ,
-7, ,37, ,
-7, ,37, ,
-9, ,37, ,
-7, ,37, ,
-7, ,37, ,
-7, ,37, ,
-7, ,37, ,
-7, ,37, ,
-6, ,36, ,
-6, ,36, ,
-5, ,37, ,
-5, ,37, ,
-5, ,37, ,
-4, ,37, ,
-4, ,37, ,
-4, ,37, ,
-3, ,37, ,
-3, ,37, ,
-2, ,37, ,
-3, ,37, ,
-2, ,37, ,
-2, ,37, ,
-1, ,37, ,
-1, ,37, ,
-1, ,37, ,
-1, ,36, ,
-2, ,36, ,
-1, ,36, ,
-2, ,37, ,
-1, ,37, ,
-1, ,37, ,
-2, ,37, ,
0, ,37, ,
-1, ,37, ,
-1, ,37, ,
-1, ,36, ,
-2, ,36, ,
-2, ,37, ,
-1, ,37, ,
-1, ,37, ,
-1, ,37, ,
0, ,37, ,
0, ,37, ,
0, ,37, ,
0, ,37, ,
0, ,37, ,
0, ,37, ,
-1, ,37, ,
-1, ,37, ,
0, ,37, ,
-2, ,37, ,
0, ,37, ,
0, ,37, ,
-1, ,37, ,
-1, ,37, ,
-1, ,37, ,
0, ,37, ,
-1, ,37, ,
-2, ,37, ,
-1, ,37, ,
-3, ,37, ,
-1, ,37, ,
-3, ,37, ,
-2, ,37, ,
-1, ,37, ,
-1, ,37, ,
-3, ,37, ,
-4, ,37, ,
-3, ,37, ,
-4, ,37, ,
-3, ,37, ,
-3, ,37, ,
-3, ,37, ,
-3, ,37, ,
-3, ,37, ,
-3, ,37, ,
-4, ,37, ,
-3, ,37, ,
-3, ,37, ,
-4, ,37, ,
-2, ,37, ,
-3, ,37, ,
-3, ,37, ,
-2, ,37, ,
-2, ,37, ,
-3, ,37, ,
-2, ,37, ,
-1, ,37, ,
-2, ,37, ,
-2, ,37, ,
-2, ,37, ,
-2, ,37, ,
-2, ,37, ,
-3, ,37, ,
-2, ,37, ,
-3, ,37, ,
-1, ,37, ,
-2, ,37, ,
-2, ,37, ,
-2, ,37, ,
-3, ,37, ,
-3, ,37, ,
-3, ,37, ,
-3, ,37, ,
-3, ,37, ,
-2, ,37, ,
-2, ,37, ,
-2, ,37, ,
-2, ,37, ,
-2, ,36, ,
-2, ,36, ,
-2, ,36, ,
-1, ,37, ,
-1, ,36, ,
-1, ,36, ,
-1, ,36, ,
-1, ,37, ,
0, ,37, ,
0, ,37, ,
1, ,37, ,
1, ,37, ,
1, ,37, ,
0, ,37, ,
2, ,37, ,
1, ,37, ,
2, ,37, ,
2, ,37, ,
1, ,37, ,
2, ,37, ,
2, ,37, ,
2, ,37, ,
2, ,37, ,
2, ,37, ,
2, ,37, ,
4, ,37, ,
4, ,37, ,
4, ,37, ,
5, ,37, ,
5, ,37, ,
6, ,37, ,
6, ,37, ,
7, ,37, ,
8, ,37, ,
8, ,37, ,
8, ,37, ,
10, ,37, ,
10, ,37, ,
10, ,37, ,
10, ,37, ,
11, ,37, ,
11, ,37, ,
10, ,37, ,
10, ,36, ,
11, ,36, ,
11, ,37, ,
11, ,37, ,
9, ,37, ,
9, ,37, ,
9, ,37, ,
7, ,37, ,
6, ,37, ,
5, ,37, ,
4, ,37, ,
3, ,37, ,
2, ,36, ,
0, ,36, ,
-1, ,37, ,
-1, ,37, ,
-3, ,37, ,
-4, ,37, ,
-5, ,37, ,
-6, ,37, ,
-8, ,37, ,
-8, ,37, ,
-7, ,37, ,
-9, ,37, ,
-9, ,37, ,
-9, ,37, ,
-10, ,37, ,
-10, ,37, ,
-10, ,37, ,
-10, ,37, ,
-10, ,37, ,
-10, ,37, ,
-10, ,37, ,
-9, ,37, ,
-9, ,37, ,
-8, ,37, ,
-7, ,37, ,
-6, ,36, ,
-5, ,36, ,
-7, ,37, ,
-5, ,37, ,
-5, ,37, ,
-4, ,37, ,
-2, ,37, ,
-2, ,37, ,
-2, ,37, ,
0, ,37, ,
1, ,37, ,
2, ,37, ,
3, ,37, ,
4, ,37, ,
4, ,37, ,
4, ,37, ,
5, ,37, ,
6, ,37, ,
6, ,37, ,
6, ,37, ,
8, ,37, ,
7, ,37, ,
8, ,37, ,
8, ,37, ,
6, ,37, ,
8, ,37, ,
8, ,37, ,
6, ,37, ,
6, ,37, ,
5, ,37, ,
5, ,37, ,
4, ,37, ,
3, ,36, ,
4, ,36, ,
2, ,36, ,
2, ,36, ,
0, ,36, ,
-1, ,37, ,
-1, ,36, ,
-3, ,36, ,
-4, ,37, ,
-4, ,37, ,
-5, ,37, ,
-4, ,37, ,
-5, ,37, ,
-5, ,37, ,
-6, ,37, ,
-6, ,37, ,
-6, ,37, ,
-6, ,37, ,
-6, ,37, ,
-5, ,37, ,
-5, ,37, ,
-5, ,37, ,
-5, ,37, ,
-5, ,37, ,
-4, ,37, ,
-4, ,37, ,
-4, ,37, ,
-4, ,37, ,
-3, ,37, ,
-3, ,36, ,
-2, ,36, ,
-3, ,36, ,
-2, ,37, ,
-1, ,37, ,
-2, ,37, ,
-1, ,36, ,
0, ,36, ,
0, ,37, ,
0, ,37, ,
0, ,36, ,
-2, ,36, ,
0, ,37, ,
0, ,37, ,
0, ,37, ,
0, ,37, ,
0, ,37, ,
-1, ,37, ,
0, ,37, ,
0, ,36, ,
0, ,36, ,
0, ,36, ,
-1, ,37, ,
-1, ,37, ,
-1, ,37, ,
0, ,37, ,
-1, ,37, ,
0, ,37, ,
0, ,37, ,
-1, ,37, ,
-1, ,36, ,
0, ,36, ,
0, ,37, ,
0, ,37, ,
0, ,37, ,
-1, ,37, ,
0, ,37, ,
-2, ,37, ,
0, ,37, ,
1, ,37, ,
-2, ,37, ,
-1, ,36, ,
0, ,36, ,
0, ,37, ,
0, ,37, ,
-1, ,37, ,
0, ,37, ,
0, ,37, ,
-1, ,37, ,
0, ,37, ,
-2, ,37, ,
-1, ,37, ,
0, ,37, ,
-2, ,37, ,
-1, ,37, ,
0, ,37, ,
0, ,37, ,
0, ,37, ,
-1, ,37, ,
-1, ,37, ,
0, ,37, ,
0, ,37, ,
0, ,37, ,
0, ,37, ,
-1, ,37, ,
0, ,37, ,
0, ,37, ,
0, ,37, ,
0, ,37, ,
0, ,37, ,
0, ,37, ,
0, ,37, ,
0, ,37, ,
0, ,37, ,
0, ,37, ,
0, ,37, ,
0, ,37, ,
0, ,37, ,
0, ,37, ,
1, ,37, ,
0, ,37, ,
1, ,37, ,
-1, ,37, ,
0, ,37, ,
0, ,37, ,
0, ,37, ,
0, ,37, ,
0, ,37, ,
0, ,37, ,
0, ,37, ,
0, ,37, ,
0, ,37, ,
0, ,37, ,
1, ,37, ,
1, ,37, ,
0, ,37, ,
-1, ,37, ,
0, ,37, ,
-2, ,37, ,
-1, ,36, ,
-1, ,36, ,
-1, ,37, ,
0, ,37, ,
0, ,37, ,
0, ,37, ,
0, ,37, ,
0, ,37, ,
-2, ,37, ,
1, ,37, ,
1, ,37, ,
0, ,37, ,
0, ,37, ,
1, ,37, ,
2, ,37, ,
0, ,37, ,
1, ,37, ,
2, ,37, ,
1, ,37, ,
3, ,37, ,
3, ,37, ,
1, ,37, ,
4, ,37, ,
3, ,37, ,
3, ,37, ,
5, ,37, ,
5, ,37, ,
5, ,37, ,
5, ,37, ,
5, ,37, ,
5, ,37, ,
6, ,37, ,
5, ,37, ,
5, ,37, ,
5, ,37, ,
5, ,37, ,
6, ,37, ,
5, ,37, ,
6, ,37, ,
5, ,37, ,
5, ,37, ,
5, ,37, ,
4, ,37, ,
4, ,36, ,
5, ,36, ,
4, ,37, ,
4, ,37, ,
3, ,37, ,
3, ,37, ,
3, ,37, ,
2, ,37, ,
2, ,37, ,
2, ,37, ,
1, ,37, ,
1, ,37, ,
1, ,37, ,
1, ,37, ,
2, ,37, ,
1, ,37, ,
1, ,37, ,
1, ,37, ,
1, ,37, ,
0, ,37, ,
0, ,37, ,
0, ,37, ,
1, ,37, ,
-2, ,37, ,
0, ,37, ,
0, ,37, ,
-1, ,37, ,
-1, ,37, ,
-2, ,37, ,
-2, ,37, ,
-1, ,37, ,
-1, ,37, ,
-1, ,37, ,
-2, ,37, ,
-2, ,37, ,
-2, ,37, ,
-2, ,37, ,
-2, ,37, ,
-1, ,37, ,
-3, ,37, ,
-4, ,37, ,
-3, ,37, ,
-5, ,37, ,
-3, ,37, ,
-4, ,37, ,
-4, ,37, ,
-4, ,37, ,
-4, ,37, ,
-4, ,37, ,
-3, ,37, ,
-4, ,37, ,
-3, ,37, ,
-4, ,37, ,
-4, ,37, ,
-2, ,37, ,
-3, ,37, ,
-3, ,37, ,
-3, ,37, ,
-3, ,37, ,
-2, ,37, ,
-2, ,37, ,
-4, ,37, ,
-1, ,36, ,
-1, ,36, ,
-1, ,36, ,
-1, ,37, ,
-2, ,37, ,
0, ,37, ,
-1, ,37, ,
0, ,37, ,
0, ,37, ,
0, ,37, ,
