raw_data/100% Glycerol, Impulsion 2Hz, Sonde 5MHz, Rampe 0.7Hz/temp0000357.CSV

Format,1.0B,
Memory Length,10000,Memory Length,10000,
IntpDistance,0,IntpDistance,0,
Trigger Address,159,Trigger Address,159,
Trigger Level,2.720E-01,Trigger Level,2.720E-01,
Source,CH1,Source,CH2,
Vertical Units,V,Vertical Units,V,
Vertical Units Div,0,Vertical Units Div,0,
Vertical Units Extend Div,16,Vertical Units Extend Div,16,
Label,,Label,,
Probe Type,0,Probe Type,0,
Probe Ratio,1.000e+00,Probe Ratio,1.000e+00,
Vertical Scale,2.000e-01,Vertical Scale,2.000e+00,
Vertical Position,0.000e+00,Vertical Position,0.000e+00,
Horizontal Units,S,Horizontal Units,S,
Horizontal Scale,5.000E-06,Horizontal Scale,5.000E-06,
Horizontal Position,2.420E-05,Horizontal Position,2.420E-05,
Horizontal Mode,Main,Horizontal Mode,Main,
SincET Mode,Real Time,SincET Mode,Real Time,
Sampling Period,5.000e-09,Sampling Period,5.000e-09,
Horizontal Old Scale,5.000E-06,Horizontal Old Scale,5.000E-06,
Horizontal Old Position,2.420E-05,Horizontal Old Position,2.420E-05,
Firmware,V1.32,Firmware,V1.32,
Mode,Fast,Mode,Fast,
Waveform Data,,Waveform Data,,
0, ,13, ,
2, ,13, ,
2, ,13, ,
1, ,13, ,
3, ,13, ,
2, ,13, ,
2, ,13, ,
2, ,13, ,
1, ,13, ,
1, ,13, ,
1, ,13, ,
1, ,13, ,
1, ,13, ,
1, ,13, ,
1, ,13, ,
1, ,13, ,
2, ,13, ,
1, ,13, ,
2, ,13, ,
0, ,13, ,
2, ,13, ,
2, ,13, ,
1, ,13, ,
2, ,13, ,
2, ,13, ,
3, ,13, ,
1, ,13, ,
2, ,13, ,
2, ,13, ,
1, ,13, ,
2, ,13, ,
2, ,13, ,
1, ,13, ,
2, ,13, ,
1, ,13, ,
0, ,13, ,
1, ,13, ,
2, ,13, ,
2, ,13, ,
3, ,13, ,
2, ,13, ,
2, ,13, ,
2, ,13, ,
2, ,13, ,
2, ,13, ,
2, ,13, ,
2, ,13, ,
2, ,13, ,
1, ,13, ,
2, ,13, ,
1, ,13, ,
2, ,13, ,
2, ,13, ,
1, ,13, ,
2, ,13, ,
1, ,13, ,
1, ,13, ,
1, ,13, ,
1, ,13, ,
1, ,13, ,
1, ,13, ,
1, ,13, ,
1, ,13, ,
2, ,13, ,
2, ,13, ,
2, ,13, ,
2, ,13, ,
1, ,13, ,
2, ,13, ,
2, ,13, ,
2, ,13, ,
2, ,13, ,
2, ,13, ,
2, ,13, ,
2, ,13, ,
1, ,13, ,
1, ,13, ,
0, ,13, ,
1, ,13, ,
2, ,13, ,
1, ,13, ,
2, ,13, ,
1, ,13, ,
2, ,13, ,
2, ,13, ,
2, ,13, ,
1, ,13, ,
2, ,13, ,
2, ,13, ,
2, ,13, ,
2, ,13, ,
2, ,13, ,
2, ,13, ,
1, ,13, ,
2, ,13, ,
2, ,13, ,
1, ,13, ,
2, ,13, ,
1, ,13, ,
2, ,13, ,
3, ,13, ,
2, ,13, ,
2, ,13, ,
3, ,13, ,
2, ,13, ,
2, ,13, ,
0, ,13, ,
1, ,13, ,
1, ,13, ,
1, ,13, ,
1, ,13, ,
2, ,13, ,
2, ,13, ,
2, ,13, ,
2, ,13, ,
2, ,13, ,
2, ,13, ,
1, ,13, ,
0, ,13, ,
1, ,13, ,
0, ,13, ,
2, ,13, ,
1, ,13, ,
2, ,13, ,
1, ,13, ,
0, ,13, ,
1, ,13, ,
1, ,13, ,
1, ,13, ,
3, ,13, ,
2, ,13, ,
0, ,13, ,
2, ,13, ,
3, ,13, ,
2, ,13, ,
2, ,13, ,
2, ,13, ,
2, ,13, ,
1, ,13, ,
1, ,13, ,
2, ,13, ,
0, ,13, ,
2, ,13, ,
2, ,13, ,
1, ,13, ,
2, ,13, ,
0, ,13, ,
1, ,13, ,
2, ,13, ,
1, ,13, ,
2, ,13, ,
1, ,13, ,
2, ,13, ,
2, ,13, ,
1, ,13, ,
2, ,13, ,
1, ,13, ,
1, ,13, ,
1, ,13, ,
1, ,13, ,
2, ,13, ,
2, ,13, ,
1, ,13, ,
1, ,13, ,
1, ,13, ,
4, ,13, ,
0, ,13, ,
-2, ,13, ,
5, ,13, ,
44, ,13, ,
112, ,13, ,
125, ,13, ,
125, ,13, ,
124, ,13, ,
119, ,13, ,
-11, ,13, ,
12, ,13, ,
125, ,13, ,
125, ,13, ,
125, ,13, ,
125, ,13, ,
125, ,13, ,
125, ,13, ,
125, ,13, ,
125, ,13, ,
125, ,13, ,
125, ,13, ,
125, ,13, ,
125, ,13, ,
125, ,13, ,
125, ,13, ,
125, ,13, ,
125, ,13, ,
125, ,13, ,
125, ,13, ,
125, ,13, ,
125, ,13, ,
125, ,13, ,
125, ,13, ,
125, ,13, ,
125, ,13, ,
125, ,13, ,
125, ,13, ,
124, ,13, ,
124, ,13, ,
118, ,13, ,
113, ,13, ,
106, ,13, ,
101, ,13, ,
96, ,13, ,
93, ,13, ,
84, ,13, ,
81, ,13, ,
78, ,13, ,
74, ,13, ,
66, ,13, ,
64, ,13, ,
61, ,13, ,
58, ,13, ,
53, ,13, ,
51, ,13, ,
47, ,13, ,
48, ,13, ,
41, ,13, ,
39, ,13, ,
38, ,13, ,
36, ,13, ,
32, ,13, ,
31, ,13, ,
29, ,13, ,
28, ,13, ,
25, ,13, ,
24, ,13, ,
23, ,13, ,
20, ,13, ,
17, ,13, ,
17, ,13, ,
16, ,13, ,
16, ,13, ,
14, ,13, ,
12, ,13, ,
12, ,13, ,
11, ,13, ,
10, ,13, ,
9, ,13, ,
8, ,13, ,
8, ,13, ,
6, ,13, ,
6, ,13, ,
5, ,13, ,
4, ,13, ,
4, ,13, ,
3, ,13, ,
2, ,13, ,
3, ,13, ,
3, ,13, ,
1, ,13, ,
1, ,13, ,
2, ,13, ,
0, ,13, ,
0, ,13, ,
-1, ,13, ,
-1, ,13, ,
-1, ,13, ,
-1, ,13, ,
-1, ,13, ,
-1, ,13, ,
-1, ,13, ,
-2, ,13, ,
-2, ,13, ,
-2, ,13, ,
-2, ,13, ,
-4, ,13, ,
-2, ,13, ,
-3, ,13, ,
-2, ,13, ,
-2, ,13, ,
-3, ,13, ,
-3, ,13, ,
-2, ,13, ,
-3, ,13, ,
-3, ,13, ,
-3, ,13, ,
-3, ,13, ,
-3, ,13, ,
-3, ,13, ,
-3, ,13, ,
-3, ,13, ,
-4, ,13, ,
-2, ,13, ,
-3, ,13, ,
-3, ,13, ,
-2, ,13, ,
-3, ,13, ,
-3, ,13, ,
-3, ,13, ,
-3, ,13, ,
-3, ,13, ,
-3, ,13, ,
-3, ,13, ,
-3, ,13, ,
-4, ,13, ,
-2, ,13, ,
-2, ,13, ,
-2, ,13, ,
-2, ,13, ,
-2, ,13, ,
-3, ,13, ,
-1, ,13, ,
-1, ,13, ,
-1, ,13, ,
-1, ,13, ,
-2, ,13, ,
-1, ,13, ,
-2, ,13, ,
-1, ,13, ,
-1, ,13, ,
-2, ,13, ,
-2, ,13, ,
-1, ,13, ,
-2, ,13, ,
-1, ,13, ,
-1, ,13, ,
0, ,13, ,
-1, ,13, ,
0, ,13, ,
-1, ,13, ,
0, ,13, ,
-1, ,13, ,
-1, ,13, ,
-1, ,13, ,
0, ,13, ,
0, ,13, ,
0, ,13, ,
0, ,13, ,
0, ,13, ,
0, ,13, ,
0, ,13, ,
0, ,13, ,
-1, ,13, ,
0, ,13, ,
-1, ,13, ,
0, ,13, ,
0, ,13, ,
0, ,13, ,
0, ,13, ,
0, ,13, ,
0, ,13, ,
1, ,13, ,
0, ,13, ,
1, ,13, ,
1, ,13, ,
1, ,13, ,
1, ,13, ,
0, ,13, ,
0, ,13, ,
1, ,13, ,
1, ,13, ,
0, ,13, ,
1, ,13, ,
1, ,13, ,
1, ,13, ,
1, ,13, ,
1, ,13, ,
1, ,13, ,
1, ,13, ,
1, ,13, ,
1, ,13, ,
0, ,13, ,
1, ,13, ,
0, ,13, ,
0, ,13, ,
2, ,13, ,
1, ,13, ,
1, ,13, ,
1, ,13, ,
1, ,13, ,
1, ,13, ,
1, ,13, ,
1, ,13, ,
0, ,13, ,
0, ,13, ,
0, ,13, ,
1, ,13, ,
0, ,13, ,
1, ,13, ,
1, ,13, ,
1, ,13, ,
2, ,13, ,
1, ,13, ,
2, ,13, ,
1, ,13, ,
1, ,13, ,
1, ,13, ,
1, ,13, ,
2, ,13, ,
1, ,13, ,
1, ,13, ,
1, ,13, ,
1, ,13, ,
0, ,13, ,
1, ,13, ,
1, ,13, ,
0, ,13, ,
1, ,13, ,
1, ,13, ,
1, ,13, ,
1, ,13, ,
1, ,13, ,
1, ,13, ,
1, ,13, ,
1, ,13, ,
2, ,13, ,
1, ,13, ,
2, ,13, ,
2, ,13, ,
1, ,13, ,
2, ,13, ,
2, ,13, ,
1, ,13, ,
1, ,13, ,
1, ,13, ,
2, ,13, ,
1, ,13, ,
0, ,13, ,
0, ,13, ,
0, ,13, ,
0, ,13, ,
0, ,13, ,
0, ,13, ,
0, ,13, ,
1, ,13, ,
0, ,13, ,
1, ,13, ,
1, ,13, ,
1, ,13, ,
1, ,13, ,
1, ,13, ,
1, ,13, ,
1, ,13, ,
0, ,13, ,
0, ,13, ,
0, ,13, ,
0, ,13, ,
0, ,13, ,
0, ,13, ,
0, ,13, ,
0, ,13, ,
0, ,13, ,
0, ,13, ,
0, ,13, ,
0, ,13, ,
1, ,13, ,
1, ,13, ,
1, ,13, ,
2, ,13, ,
1, ,13, ,
2, ,13, ,
1, ,13, ,
1, ,13, ,
2, ,13, ,
1, ,13, ,
1, ,13, ,
1, ,13, ,
0, ,13, ,
0, ,13, ,
0, ,13, ,
0, ,13, ,
2, ,13, ,
1, ,13, ,
2, ,13, ,
1, ,13, ,
2, ,13, ,
2, ,13, ,
1, ,13, ,
1, ,13, ,
2, ,13, ,
1, ,13, ,
1, ,13, ,
0, ,13, ,
0, ,13, ,
0, ,13, ,
0, ,13, ,
0, ,13, ,
0, ,13, ,
0, ,13, ,
0, ,13, ,
0, ,13, ,
0, ,13, ,
0, ,13, ,
0, ,13, ,
1, ,13, ,
1, ,13, ,
1, ,13, ,
2, ,13, ,
2, ,13, ,
1, ,13, ,
2, ,13, ,
1, ,13, ,
0, ,13, ,
1, ,13, ,
0, ,13, ,
0, ,13, ,
0, ,13, ,
-1, ,13, ,
0, ,13, ,
-2, ,13, ,
0, ,13, ,
0, ,13, ,
-1, ,13, ,
1, ,13, ,
1, ,13, ,
1, ,13, ,
2, ,13, ,
0, ,13, ,
0, ,13, ,
-1, ,13, ,
-1, ,13, ,
-2, ,13, ,
-3, ,13, ,
-5, ,13, ,
-5, ,13, ,
-6, ,13, ,
-7, ,13, ,
-7, ,13, ,
-8, ,13, ,
-8, ,13, ,
-7, ,13, ,
-8, ,13, ,
-7, ,13, ,
-8, ,13, ,
-9, ,13, ,
-8, ,13, ,
-11, ,13, ,
-12, ,13, ,
-13, ,13, ,
-12, ,13, ,
-15, ,13, ,
-18, ,13, ,
-20, ,13, ,
-20, ,13, ,
-23, ,13, ,
-24, ,13, ,
-25, ,13, ,
-24, ,13, ,
-24, ,13, ,
-24, ,13, ,
-25, ,13, ,
-24, ,13, ,
-24, ,13, ,
-22, ,13, ,
-22, ,13, ,
-22, ,13, ,
-23, ,13, ,
-23, ,13, ,
-26, ,13, ,
-27, ,13, ,
-30, ,13, ,
-31, ,13, ,
-34, ,13, ,
-35, ,13, ,
-35, ,13, ,
-35, ,13, ,
-34, ,13, ,
-34, ,13, ,
-30, ,13, ,
-29, ,13, ,
-25, ,13, ,
-22, ,13, ,
-20, ,13, ,
-18, ,13, ,
-14, ,13, ,
-11, ,13, ,
-12, ,13, ,
-10, ,13, ,
-9, ,13, ,
-9, ,13, ,
-8, ,13, ,
-8, ,13, ,
-7, ,13, ,
-5, ,13, ,
-4, ,13, ,
-3, ,13, ,
0, ,13, ,
1, ,13, ,
4, ,13, ,
3, ,13, ,
8, ,13, ,
8, ,13, ,
10, ,13, ,
10, ,13, ,
10, ,13, ,
7, ,13, ,
7, ,13, ,
6, ,13, ,
2, ,13, ,
0, ,13, ,
-1, ,13, ,
-3, ,13, ,
-8, ,13, ,
-9, ,13, ,
-9, ,13, ,
-11, ,13, ,
-12, ,13, ,
-13, ,13, ,
-14, ,13, ,
-12, ,13, ,
-12, ,13, ,
-13, ,13, ,
-13, ,13, ,
-14, ,13, ,
-16, ,13, ,
-18, ,13, ,
-20, ,13, ,
-20, ,13, ,
-23, ,13, ,
-25, ,13, ,
-27, ,13, ,
-28, ,13, ,
-29, ,13, ,
-27, ,13, ,
-27, ,13, ,
-27, ,13, ,
-23, ,13, ,
-24, ,13, ,
-22, ,13, ,
-22, ,13, ,
-23, ,13, ,
-24, ,13, ,
-24, ,13, ,
-25, ,13, ,
-26, ,13, ,
-26, ,13, ,
-27, ,13, ,
-28, ,13, ,
-28, ,13, ,
-29, ,13, ,
-29, ,13, ,
-29, ,13, ,
-29, ,13, ,
-30, ,13, ,
-30, ,13, ,
-31, ,13, ,
-31, ,13, ,
-31, ,13, ,
-31, ,13, ,
-31, ,13, ,
-31, ,13, ,
-31, ,13, ,
-31, ,13, ,
-32, ,13, ,
-33, ,13, ,
-33, ,13, ,
-35, ,13, ,
-35, ,13, ,
-39, ,13, ,
-40, ,13, ,
-41, ,13, ,
-43, ,13, ,
-43, ,13, ,
-43, ,13, ,
-42, ,13, ,
-41, ,13, ,
-39, ,13, ,
-38, ,13, ,
-38, ,13, ,
-37, ,13, ,
-35, ,13, ,
-35, ,13, ,
-35, ,13, ,
-35, ,13, ,
-35, ,13, ,
-37, ,13, ,
-35, ,13, ,
-36, ,13, ,
-36, ,13, ,
-35, ,13, ,
-35, ,13, ,
-34, ,13, ,
-32, ,13, ,
-30, ,13, ,
-29, ,13, ,
-29, ,13, ,
-25, ,13, ,
-24, ,13, ,
-24, ,13, ,
-24, ,13, ,
-24, ,13, ,
-24, ,13, ,
-23, ,13, ,
-24, ,13, ,
-24, ,13, ,
-23, ,13, ,
-21, ,13, ,
-22, ,13, ,
-19, ,13, ,
-20, ,13, ,
-18, ,13, ,
-18, ,13, ,
-16, ,13, ,
-16, ,13, ,
-17, ,13, ,
-15, ,13, ,
-14, ,13, ,
-15, ,13, ,
-12, ,13, ,
-11, ,13, ,
-9, ,13, ,
-8, ,13, ,
-7, ,13, ,
-5, ,13, ,
-4, ,13, ,
-3, ,13, ,
-3, ,13, ,
-4, ,13, ,
-2, ,13, ,
0, ,13, ,
0, ,13, ,
0, ,13, ,
2, ,13, ,
1, ,13, ,
4, ,13, ,
4, ,13, ,
5, ,13, ,
7, ,13, ,
8, ,13, ,
10, ,13, ,
10, ,13, ,
10, ,13, ,
10, ,13, ,
9, ,13, ,
10, ,13, ,
10, ,13, ,
10, ,13, ,
10, ,13, ,
12, ,13, ,
10, ,13, ,
11, ,13, ,
10, ,13, ,
10, ,13, ,
11, ,13, ,
10, ,13, ,
10, ,13, ,
8, ,13, ,
7, ,13, ,
6, ,13, ,
5, ,13, ,
3, ,13, ,
3, ,13, ,
0, ,13, ,
0, ,13, ,
-3, ,13, ,
-6, ,13, ,
-6, ,13, ,
-8, ,13, ,
-11, ,13, ,
-12, ,13, ,
-13, ,13, ,
-14, ,13, ,
-16, ,13, ,
-18, ,13, ,
-20, ,13, ,
-20, ,13, ,
-21, ,13, ,
-20, ,13, ,
-22, ,13, ,
-22, ,13, ,
-22, ,13, ,
-23, ,13, ,
-23, ,13, ,
-24, ,13, ,
-25, ,13, ,
-25, ,13, ,
-26, ,13, ,
-26, ,13, ,
-28, ,13, ,
-29, ,13, ,
-30, ,13, ,
-30, ,13, ,
-31, ,13, ,
-31, ,13, ,
-31, ,13, ,
-31, ,13, ,
-32, ,13, ,
-32, ,13, ,
-32, ,13, ,
-32, ,13, ,
-32, ,13, ,
-32, ,13, ,
-32, ,13, ,
-31, ,13, ,
-30, ,13, ,
-31, ,13, ,
-30, ,13, ,
-30, ,13, ,
-27, ,13, ,
-25, ,13, ,
-25, ,13, ,
-22, ,13, ,
-19, ,13, ,
-17, ,13, ,
-14, ,13, ,
-14, ,13, ,
-10, ,13, ,
-8, ,13, ,
-7, ,13, ,
-5, ,13, ,
-3, ,13, ,
-2, ,13, ,
-2, ,13, ,
0, ,13, ,
1, ,13, ,
3, ,13, ,
3, ,13, ,
4, ,13, ,
6, ,13, ,
6, ,13, ,
6, ,13, ,
7, ,13, ,
6, ,13, ,
6, ,13, ,
5, ,13, ,
5, ,13, ,
4, ,13, ,
4, ,13, ,
5, ,13, ,
4, ,13, ,
4, ,13, ,
5, ,13, ,
3, ,13, ,
6, ,13, ,
6, ,13, ,
5, ,13, ,
6, ,13, ,
6, ,13, ,
5, ,13, ,
5, ,13, ,
5, ,13, ,
5, ,13, ,
5, ,13, ,
5, ,13, ,
5, ,13, ,
5, ,13, ,
5, ,13, ,
4, ,13, ,
3, ,13, ,
3, ,13, ,
2, ,13, ,
1, ,13, ,
1, ,13, ,
0, ,13, ,
-1, ,13, ,
-1, ,13, ,
-2, ,13, ,
-1, ,13, ,
-2, ,13, ,
-3, ,13, ,
-4, ,13, ,
-5, ,13, ,
-6, ,13, ,
-6, ,13, ,
-7, ,13, ,
-8, ,13, ,
-9, ,13, ,
-12, ,13, ,
-12, ,13, ,
-15, ,13, ,
-18, ,13, ,
-19, ,13, ,
-21, ,13, ,
-22, ,13, ,
-28, ,13, ,
-30, ,13, ,
-31, ,13, ,
-35, ,13, ,
-35, ,13, ,
-37, ,13, ,
-39, ,13, ,
-39, ,13, ,
-42, ,13, ,
-42, ,13, ,
-42, ,13, ,
-42, ,13, ,
-41, ,13, ,
-39, ,13, ,
-39, ,13, ,
-38, ,13, ,
-35, ,13, ,
-34, ,13, ,
-30, ,13, ,
-30, ,13, ,
-24, ,13, ,
-20, ,13, ,
-20, ,13, ,
-17, ,13, ,
-11, ,13, ,
-9, ,13, ,
-7, ,13, ,
-4, ,13, ,
-2, ,13, ,
0, ,13, ,
2, ,13, ,
3, ,13, ,
4, ,13, ,
4, ,13, ,
5, ,13, ,
5, ,13, ,
5, ,13, ,
5, ,13, ,
5, ,13, ,
4, ,13, ,
3, ,13, ,
1, ,13, ,
1, ,13, ,
0, ,13, ,
-2, ,13, ,
-3, ,13, ,
-5, ,13, ,
-7, ,13, ,
-8, ,13, ,
-10, ,13, ,
-10, ,13, ,
-12, ,13, ,
-13, ,13, ,
-15, ,13, ,
-15, ,13, ,
-16, ,13, ,
-16, ,13, ,
-17, ,13, ,
-18, ,13, ,
-18, ,13, ,
-19, ,13, ,
-20, ,13, ,
-20, ,13, ,
-21, ,13, ,
-20, ,13, ,
-20, ,13, ,
-20, ,13, ,
-20, ,13, ,
-19, ,13, ,
-18, ,13, ,
-20, ,13, ,
-18, ,13, ,
-18, ,13, ,
-18, ,13, ,
-16, ,13, ,
-17, ,13, ,
-16, ,13, ,
-15, ,13, ,
-16, ,13, ,
-14, ,13, ,
-13, ,13, ,
-14, ,13, ,
-13, ,13, ,
-14, ,13, ,
-11, ,13, ,
-11, ,13, ,
-11, ,13, ,
-11, ,13, ,
-10, ,13, ,
-11, ,13, ,
-10, ,13, ,
-10, ,13, ,
-10, ,13, ,
-10, ,13, ,
-10, ,13, ,
-10, ,13, ,
-10, ,13, ,
-10, ,13, ,
-10, ,13, ,
-11, ,13, ,
-10, ,13, ,
-10, ,13, ,
-10, ,13, ,
-10, ,13, ,
-9, ,13, ,
-9, ,13, ,
-7, ,13, ,
-7, ,13, ,
-7, ,13, ,
-6, ,13, ,
-5, ,13, ,
-5, ,13, ,
-4, ,13, ,
-4, ,13, ,
-3, ,13, ,
-4, ,13, ,
-1, ,13, ,
0, ,13, ,
-2, ,13, ,
0, ,13, ,
0, ,13, ,
0, ,13, ,
0, ,13, ,
-1, ,13, ,
0, ,13, ,
-1, ,13, ,
-1, ,13, ,
-3, ,13, ,
-4, ,13, ,
-5, ,13, ,
-5, ,13, ,
-6, ,13, ,
-7, ,13, ,
-7, ,13, ,
-9, ,13, ,
-9, ,13, ,
-10, ,13, ,
-12, ,13, ,
-11, ,13, ,
-12, ,13, ,
-14, ,13, ,
-14, ,13, ,
-15, ,13, ,
-15, ,13, ,
-18, ,13, ,
-18, ,13, ,
-19, ,13, ,
-19, ,13, ,
-20, ,13, ,
-20, ,13, ,
-20, ,13, ,
-20, ,13, ,
-21, ,13, ,
-21, ,13, ,
-21, ,13, ,
-22, ,13, ,
-24, ,13, ,
-23, ,13, ,
-23, ,13, ,
-24, ,13, ,
-23, ,13, ,
-23, ,13, ,
-23, ,13, ,
-23, ,13, ,
-21, ,13, ,
-19, ,13, ,
-20, ,13, ,
-17, ,13, ,
-16, ,13, ,
-16, ,13, ,
-13, ,13, ,
-12, ,13, ,
-9, ,13, ,
-8, ,13, ,
-5, ,13, ,
-5, ,13, ,
0, ,13, ,
2, ,13, ,
4, ,13, ,
6, ,13, ,
10, ,13, ,
13, ,13, ,
15, ,13, ,
18, ,13, ,
21, ,13, ,
20, ,13, ,
22, ,13, ,
23, ,13, ,
23, ,13, ,
23, ,13, ,
22, ,13, ,
22, ,13, ,
22, ,13, ,
19, ,13, ,
19, ,13, ,
16, ,13, ,
14, ,13, ,
12, ,13, ,
10, ,13, ,
9, ,13, ,
5, ,13, ,
2, ,13, ,
3, ,13, ,
0, ,13, ,
-4, ,13, ,
-5, ,13, ,
-5, ,13, ,
-6, ,13, ,
-6, ,13, ,
-7, ,13, ,
-6, ,13, ,
-6, ,13, ,
-5, ,13, ,
-5, ,13, ,
-5, ,13, ,
-4, ,13, ,
-2, ,13, ,
-2, ,13, ,
-2, ,13, ,
-3, ,13, ,
-2, ,13, ,
-1, ,13, ,
-1, ,13, ,
-1, ,13, ,
-1, ,13, ,
-2, ,13, ,
-2, ,13, ,
-3, ,13, ,
-3, ,13, ,
-3, ,13, ,
-4, ,13, ,
-4, ,13, ,
-5, ,13, ,
-7, ,13, ,
-5, ,13, ,
-6, ,13, ,
-7, ,13, ,
-7, ,13, ,
-8, ,13, ,
-7, ,13, ,
-6, ,13, ,
-6, ,13, ,
-5, ,13, ,
-5, ,13, ,
-3, ,13, ,
-1, ,13, ,
-1, ,13, ,
-1, ,13, ,
2, ,13, ,
1, ,13, ,
3, ,13, ,
3, ,13, ,
2, ,13, ,
5, ,13, ,
4, ,13, ,
4, ,13, ,
5, ,13, ,
4, ,13, ,
4, ,13, ,
3, ,13, ,
3, ,13, ,
2, ,13, ,
1, ,13, ,
0, ,13, ,
-1, ,13, ,
-2, ,13, ,
-2, ,13, ,
-3, ,13, ,
-4, ,13, ,
-4, ,13, ,
-3, ,13, ,
-5, ,13, ,
-5, ,13, ,
-5, ,13, ,
-5, ,13, ,
-6, ,13, ,
-5, ,13, ,
-5, ,13, ,
-5, ,13, ,
-4, ,13, ,
-3, ,13, ,
-4, ,13, ,
-2, ,13, ,
-2, ,13, ,
-2, ,13, ,
-1, ,13, ,
-2, ,13, ,
0, ,13, ,
0, ,13, ,
1, ,13, ,
1, ,13, ,
0, ,13, ,
1, ,13, ,
2, ,13, ,
2, ,13, ,
3, ,13, ,
3, ,13, ,
3, ,13, ,
3, ,13, ,
3, ,13, ,
2, ,13, ,
4, ,13, ,
4, ,13, ,
3, ,13, ,
4, ,13, ,
3, ,13, ,
3, ,13, ,
1, ,13, ,
1, ,13, ,
1, ,13, ,
0, ,13, ,
0, ,13, ,
-1, ,13, ,
-2, ,13, ,
-3, ,13, ,
-3, ,13, ,
-5, ,13, ,
-6, ,13, ,
-6, ,13, ,
-7, ,13, ,
-8, ,13, ,
-9, ,13, ,
-9, ,13, ,
-10, ,13, ,
-10, ,13, ,
-9, ,13, ,
-10, ,13, ,
-8, ,13, ,
-7, ,13, ,
-7, ,13, ,
-4, ,13, ,
-4, ,13, ,
-2, ,13, ,
0, ,13, ,
2, ,13, ,
4, ,13, ,
8, ,13, ,
9, ,13, ,
11, ,13, ,
12, ,13, ,
16, ,13, ,
20, ,13, ,
20, ,13, ,
22, ,13, ,
24, ,13, ,
23, ,13, ,
25, ,13, ,
25, ,13, ,
25, ,13, ,
25, ,13, ,
25, ,13, ,
24, ,13, ,
22, ,13, ,
20, ,13, ,
20, ,13, ,
17, ,13, ,
14, ,13, ,
14, ,13, ,
9, ,13, ,
9, ,13, ,
4, ,13, ,
3, ,13, ,
2, ,13, ,
-1, ,13, ,
-4, ,13, ,
-5, ,13, ,
-5, ,13, ,
-7, ,13, ,
-8, ,13, ,
-9, ,13, ,
-10, ,13, ,
-12, ,13, ,
-11, ,13, ,
-12, ,13, ,
-12, ,13, ,
-11, ,13, ,
-11, ,13, ,
-12, ,13, ,
-10, ,13, ,
-10, ,13, ,
-11, ,13, ,
-10, ,13, ,
-11, ,13, ,
-10, ,13, ,
-9, ,13, ,
-9, ,13, ,
-9, ,13, ,
-10, ,13, ,
-10, ,13, ,
-9, ,13, ,
-10, ,13, ,
-9, ,13, ,
-9, ,13, ,
-9, ,13, ,
-9, ,13, ,
-9, ,13, ,
-10, ,13, ,
-9, ,13, ,
-9, ,13, ,
-8, ,13, ,
-7, ,13, ,
-7, ,13, ,
-8, ,13, ,
-8, ,13, ,
-8, ,13, ,
-7, ,13, ,
-8, ,13, ,
-7, ,13, ,
-7, ,13, ,
-7, ,13, ,
-7, ,13, ,
-7, ,13, ,
-6, ,13, ,
-7, ,13, ,
-6, ,13, ,
-6, ,13, ,
-7, ,13, ,
-7, ,13, ,
-7, ,13, ,
-7, ,13, ,
-8, ,13, ,
-8, ,13, ,
-8, ,13, ,
-8, ,13, ,
-8, ,13, ,
-9, ,13, ,
-8, ,13, ,
-8, ,13, ,
-9, ,13, ,
-9, ,13, ,
-9, ,13, ,
-9, ,13, ,
-9, ,13, ,
-9, ,13, ,
-7, ,13, ,
-7, ,13, ,
-7, ,13, ,
-7, ,13, ,
-7, ,13, ,
-7, ,13, ,
-6, ,13, ,
-6, ,13, ,
-5, ,13, ,
-5, ,13, ,
-5, ,13, ,
-3, ,13, ,
-3, ,13, ,
-3, ,13, ,
-3, ,13, ,
-4, ,13, ,
-2, ,13, ,
-3, ,13, ,
-1, ,13, ,
-2, ,13, ,
-2, ,13, ,
-1, ,13, ,
-1, ,13, ,
-1, ,13, ,
0, ,13, ,
-1, ,13, ,
-2, ,13, ,
0, ,13, ,
-1, ,13, ,
-1, ,13, ,
0, ,13, ,
0, ,13, ,
0, ,13, ,
0, ,13, ,
0, ,13, ,
0, ,13, ,
0, ,13, ,
1, ,13, ,
1, ,13, ,
0, ,13, ,
1, ,13, ,
0, ,13, ,
0, ,13, ,
0, ,13, ,
0, ,13, ,
0, ,13, ,
1, ,13, ,
0, ,13, ,
0, ,13, ,
-2, ,13, ,
-1, ,13, ,
-2, ,13, ,
-2, ,13, ,
-2, ,13, ,
-1, ,13, ,
-2, ,13, ,
-3, ,13, ,
-1, ,13, ,
-4, ,13, ,
-3, ,13, ,
-3, ,13, ,
-3, ,13, ,
-2, ,13, ,
-2, ,13, ,
-1, ,13, ,
-2, ,13, ,
-1, ,13, ,
-1, ,13, ,
-2, ,13, ,
0, ,13, ,
-1, ,13, ,
-2, ,13, ,
0, ,13, ,
1, ,13, ,
0, ,13, ,
1, ,13, ,
2, ,13, ,
2, ,13, ,
2, ,13, ,
2, ,13, ,
2, ,13, ,
2, ,13, ,
2, ,13, ,
2, ,13, ,
1, ,13, ,
2, ,13, ,
3, ,13, ,
2, ,13, ,
2, ,13, ,
2, ,13, ,
2, ,13, ,
1, ,13, ,
1, ,13, ,
1, ,13, ,
0, ,13, ,
0, ,13, ,
0, ,13, ,
0, ,13, ,
0, ,13, ,
-1, ,13, ,
-1, ,13, ,
-1, ,13, ,
-1, ,13, ,
-2, ,13, ,
-1, ,13, ,
-3, ,13, ,
-4, ,13, ,
-3, ,13, ,
-3, ,13, ,
-3, ,13, ,
-2, ,13, ,
-4, ,13, ,
-4, ,13, ,
-4, ,13, ,
-5, ,13, ,
-5, ,13, ,
-5, ,13, ,
-4, ,13, ,
-4, ,13, ,
-5, ,13, ,
-4, ,13, ,
-5, ,13, ,
-4, ,13, ,
-5, ,13, ,
-4, ,13, ,
-4, ,13, ,
-4, ,13, ,
-4, ,13, ,
-3, ,13, ,
-4, ,13, ,
-3, ,13, ,
-2, ,13, ,
-2, ,13, ,
-1, ,13, ,
0, ,13, ,
0, ,13, ,
1, ,13, ,
1, ,13, ,
3, ,13, ,
3, ,13, ,
3, ,13, ,
3, ,13, ,
4, ,13, ,
4, ,13, ,
4, ,13, ,
3, ,13, ,
4, ,13, ,
4, ,13, ,
4, ,13, ,
3, ,13, ,
3, ,13, ,
3, ,13, ,
3, ,13, ,
2, ,13, ,
1, ,13, ,
2, ,13, ,
1, ,13, ,
1, ,13, ,
1, ,13, ,
1, ,13, ,
1, ,13, ,
0, ,13, ,
0, ,13, ,
0, ,13, ,
0, ,13, ,
0, ,13, ,
0, ,13, ,
0, ,13, ,
0, ,13, ,
1, ,13, ,
1, ,13, ,
1, ,13, ,
1, ,13, ,
1, ,13, ,
2, ,13, ,
1, ,13, ,
1, ,13, ,
1, ,13, ,
1, ,13, ,
1, ,13, ,
1, ,13, ,
1, ,13, ,
1, ,13, ,
0, ,13, ,
0, ,13, ,
0, ,13, ,
0, ,13, ,
0, ,13, ,
0, ,13, ,
0, ,13, ,
0, ,13, ,
-1, ,13, ,
0, ,13, ,
-1, ,13, ,
-2, ,13, ,
-1, ,13, ,
-2, ,13, ,
-1, ,13, ,
-1, ,13, ,
-1, ,13, ,
0, ,13, ,
-1, ,13, ,
-1, ,13, ,
0, ,13, ,
0, ,13, ,
-1, ,13, ,
-1, ,13, ,
-2, ,13, ,
1, ,13, ,
-2, ,13, ,
0, ,13, ,
0, ,13, ,
-1, ,13, ,
0, ,13, ,
0, ,13, ,
-1, ,13, ,
0, ,13, ,
-2, ,13, ,
0, ,13, ,
-1, ,13, ,
-1, ,13, ,
-1, ,13, ,
-1, ,13, ,
-1, ,13, ,
-2, ,13, ,
0, ,13, ,
0, ,13, ,
0, ,13, ,
-1, ,13, ,
-2, ,13, ,
-1, ,13, ,
-2, ,13, ,
-1, ,13, ,
-1, ,13, ,
-2, ,13, ,
0, ,13, ,
-1, ,13, ,
0, ,13, ,
0, ,13, ,
0, ,13, ,
0, ,13, ,
0, ,13, ,
0, ,13, ,
0, ,13, ,
1, ,13, ,
1, ,13, ,
1, ,13, ,
1, ,13, ,
1, ,13, ,
1, ,13, ,
1, ,13, ,
2, ,13, ,
2, ,13, ,
1, ,13, ,
1, ,13, ,
0, ,13, ,
2, ,13, ,
2, ,13, ,
3, ,13, ,
3, ,13, ,
2, ,13, ,
2, ,13, ,
2, ,13, ,
2, ,13, ,
3, ,13, ,
2, ,13, ,
2, ,13, ,
4, ,13, ,
3, ,13, ,
3, ,13, ,
4, ,13, ,
3, ,13, ,
4, ,13, ,
3, ,13, ,
2, ,13, ,
3, ,13, ,
2, ,13, ,
3, ,13, ,
3, ,13, ,
2, ,13, ,
4, ,13, ,
4, ,13, ,
3, ,13, ,
4, ,13, ,
4, ,13, ,
4, ,13, ,
3, ,13, ,
4, ,13, ,
4, ,13, ,
3, ,13, ,
4, ,13, ,
4, ,13, ,
4, ,13, ,
4, ,13, ,
4, ,13, ,
3, ,13, ,
4, ,13, ,
3, ,13, ,
3, ,13, ,
4, ,13, ,
4, ,13, ,
4, ,13, ,
3, ,13, ,
3, ,13, ,
3, ,13, ,
3, ,13, ,
3, ,13, ,
2, ,13, ,
1, ,13, ,
2, ,13, ,
1, ,13, ,
1, ,13, ,
1, ,13, ,
1, ,13, ,
1, ,13, ,
1, ,13, ,
1, ,13, ,
2, ,13, ,
2, ,13, ,
2, ,13, ,
1, ,13, ,
0, ,13, ,
1, ,13, ,
1, ,13, ,
0, ,13, ,
0, ,13, ,
0, ,13, ,
-1, ,13, ,
0, ,13, ,
0, ,13, ,
-1, ,13, ,
-1, ,13, ,
-1, ,13, ,
-1, ,13, ,
-2, ,13, ,
-3, ,13, ,
-2, ,13, ,
-4, ,13, ,
-5, ,13, ,
-5, ,13, ,
-5, ,13, ,
-5, ,13, ,
-5, ,13, ,
-6, ,13, ,
-7, ,13, ,
-7, ,13, ,
-8, ,13, ,
-8, ,13, ,
-9, ,13, ,
-8, ,13, ,
-8, ,13, ,
-9, ,13, ,
-8, ,13, ,
-8, ,13, ,
-8, ,13, ,
-8, ,13, ,
-9, ,13, ,
-7, ,13, ,
-7, ,13, ,
-6, ,13, ,
-5, ,13, ,
-5, ,13, ,
-4, ,13, ,
-4, ,13, ,
-2, ,13, ,
-1, ,13, ,
1, ,13, ,
1, ,13, ,
3, ,13, ,
3, ,13, ,
5, ,13, ,
6, ,13, ,
6, ,13, ,
7, ,13, ,
9, ,13, ,
8, ,13, ,
10, ,13, ,
11, ,13, ,
11, ,13, ,
13, ,13, ,
13, ,13, ,
13, ,13, ,
14, ,13, ,
14, ,13, ,
14, ,13, ,
13, ,13, ,
13, ,13, ,
13, ,13, ,
13, ,13, ,
13, ,13, ,
12, ,13, ,
12, ,13, ,
12, ,13, ,
11, ,13, ,
10, ,13, ,
10, ,13, ,
9, ,13, ,
9, ,13, ,
8, ,13, ,
8, ,13, ,
8, ,13, ,
6, ,13, ,
4, ,13, ,
5, ,13, ,
3, ,13, ,
3, ,13, ,
3, ,13, ,
2, ,13, ,
3, ,13, ,
1, ,13, ,
1, ,13, ,
2, ,13, ,
1, ,13, ,
1, ,13, ,
1, ,13, ,
0, ,13, ,
0, ,13, ,
0, ,13, ,
0, ,13, ,
0, ,13, ,
0, ,13, ,
0, ,13, ,
0, ,13, ,
-1, ,13, ,
-1, ,13, ,
-1, ,13, ,
-1, ,13, ,
-1, ,13, ,
-1, ,13, ,
-1, ,13, ,
0, ,13, ,
-2, ,13, ,
-1, ,13, ,
-3, ,13, ,
-1, ,13, ,
-1, ,13, ,
-1, ,13, ,
-1, ,13, ,
-1, ,13, ,
-1, ,13, ,
-2, ,13, ,
-2, ,13, ,
-2, ,13, ,
-2, ,13, ,
-2, ,13, ,
-2, ,13, ,
-2, ,13, ,
-4, ,13, ,
-1, ,13, ,
-3, ,13, ,
-3, ,13, ,
-3, ,13, ,
-4, ,13, ,
-3, ,13, ,
