raw_data/100% Glycerol, Impulsion 2Hz, Sonde 5MHz, Rampe 0.7Hz/temp0000178.CSV

Format,1.0B,
Memory Length,10000,Memory Length,10000,
IntpDistance,0,IntpDistance,0,
Trigger Address,159,Trigger Address,159,
Trigger Level,2.720E-01,Trigger Level,2.720E-01,
Source,CH1,Source,CH2,
Vertical Units,V,Vertical Units,V,
Vertical Units Div,0,Vertical Units Div,0,
Vertical Units Extend Div,16,Vertical Units Extend Div,16,
Label,,Label,,
Probe Type,0,Probe Type,0,
Probe Ratio,1.000e+00,Probe Ratio,1.000e+00,
Vertical Scale,2.000e-01,Vertical Scale,2.000e+00,
Vertical Position,0.000e+00,Vertical Position,0.000e+00,
Horizontal Units,S,Horizontal Units,S,
Horizontal Scale,5.000E-06,Horizontal Scale,5.000E-06,
Horizontal Position,2.420E-05,Horizontal Position,2.420E-05,
Horizontal Mode,Main,Horizontal Mode,Main,
SincET Mode,Real Time,SincET Mode,Real Time,
Sampling Period,5.000e-09,Sampling Period,5.000e-09,
Horizontal Old Scale,5.000E-06,Horizontal Old Scale,5.000E-06,
Horizontal Old Position,2.420E-05,Horizontal Old Position,2.420E-05,
Firmware,V1.32,Firmware,V1.32,
Mode,Fast,Mode,Fast,
Waveform Data,,Waveform Data,,
1, ,38, ,
0, ,37, ,
1, ,37, ,
2, ,38, ,
1, ,37, ,
1, ,37, ,
1, ,38, ,
2, ,37, ,
2, ,37, ,
1, ,37, ,
2, ,37, ,
2, ,37, ,
2, ,37, ,
2, ,37, ,
2, ,37, ,
2, ,37, ,
2, ,37, ,
2, ,37, ,
2, ,37, ,
2, ,38, ,
2, ,37, ,
2, ,37, ,
1, ,37, ,
1, ,37, ,
3, ,37, ,
2, ,37, ,
2, ,37, ,
2, ,37, ,
1, ,37, ,
1, ,37, ,
1, ,37, ,
1, ,37, ,
2, ,37, ,
2, ,37, ,
2, ,37, ,
2, ,37, ,
1, ,37, ,
2, ,38, ,
1, ,38, ,
2, ,38, ,
2, ,37, ,
1, ,37, ,
3, ,37, ,
3, ,37, ,
2, ,37, ,
3, ,38, ,
0, ,37, ,
1, ,37, ,
2, ,37, ,
2, ,38, ,
2, ,37, ,
2, ,37, ,
2, ,38, ,
2, ,38, ,
2, ,38, ,
2, ,37, ,
3, ,37, ,
2, ,37, ,
2, ,38, ,
2, ,37, ,
2, ,37, ,
2, ,37, ,
2, ,38, ,
2, ,38, ,
2, ,37, ,
2, ,37, ,
3, ,37, ,
2, ,38, ,
1, ,38, ,
2, ,37, ,
1, ,37, ,
2, ,38, ,
2, ,37, ,
1, ,37, ,
1, ,38, ,
3, ,38, ,
2, ,37, ,
2, ,37, ,
1, ,37, ,
1, ,37, ,
3, ,37, ,
1, ,38, ,
2, ,37, ,
2, ,37, ,
2, ,37, ,
3, ,37, ,
1, ,37, ,
2, ,37, ,
2, ,37, ,
1, ,37, ,
2, ,37, ,
2, ,37, ,
2, ,37, ,
3, ,37, ,
2, ,38, ,
2, ,37, ,
1, ,37, ,
2, ,37, ,
2, ,37, ,
2, ,37, ,
2, ,37, ,
2, ,37, ,
2, ,37, ,
2, ,37, ,
3, ,37, ,
2, ,37, ,
2, ,37, ,
2, ,37, ,
0, ,37, ,
4, ,37, ,
2, ,37, ,
1, ,37, ,
2, ,37, ,
1, ,38, ,
2, ,38, ,
2, ,38, ,
2, ,37, ,
2, ,37, ,
1, ,37, ,
2, ,37, ,
3, ,37, ,
2, ,37, ,
2, ,38, ,
2, ,38, ,
2, ,37, ,
3, ,37, ,
2, ,37, ,
2, ,37, ,
2, ,37, ,
2, ,37, ,
2, ,37, ,
1, ,37, ,
1, ,38, ,
2, ,37, ,
1, ,37, ,
2, ,37, ,
3, ,37, ,
2, ,37, ,
2, ,37, ,
2, ,37, ,
1, ,37, ,
2, ,37, ,
1, ,37, ,
2, ,37, ,
2, ,38, ,
2, ,38, ,
2, ,37, ,
1, ,37, ,
2, ,38, ,
1, ,37, ,
2, ,37, ,
1, ,37, ,
1, ,37, ,
1, ,37, ,
1, ,37, ,
2, ,37, ,
1, ,37, ,
3, ,37, ,
2, ,37, ,
1, ,37, ,
1, ,37, ,
2, ,37, ,
2, ,37, ,
2, ,37, ,
6, ,38, ,
0, ,38, ,
0, ,38, ,
1, ,38, ,
34, ,38, ,
95, ,37, ,
125, ,37, ,
125, ,37, ,
125, ,37, ,
121, ,38, ,
116, ,37, ,
-7, ,37, ,
100, ,37, ,
125, ,37, ,
125, ,37, ,
125, ,37, ,
125, ,37, ,
125, ,37, ,
125, ,37, ,
125, ,38, ,
125, ,38, ,
125, ,38, ,
125, ,37, ,
125, ,37, ,
125, ,37, ,
125, ,37, ,
125, ,37, ,
125, ,37, ,
125, ,37, ,
125, ,37, ,
125, ,37, ,
125, ,37, ,
125, ,37, ,
125, ,38, ,
125, ,38, ,
125, ,37, ,
125, ,37, ,
125, ,37, ,
125, ,37, ,
124, ,37, ,
119, ,37, ,
116, ,37, ,
109, ,37, ,
101, ,37, ,
98, ,37, ,
94, ,37, ,
91, ,37, ,
81, ,37, ,
78, ,37, ,
74, ,38, ,
71, ,38, ,
64, ,37, ,
61, ,37, ,
59, ,37, ,
57, ,38, ,
51, ,38, ,
48, ,38, ,
47, ,38, ,
44, ,37, ,
39, ,37, ,
39, ,38, ,
37, ,37, ,
36, ,37, ,
33, ,38, ,
30, ,38, ,
29, ,38, ,
27, ,38, ,
25, ,38, ,
23, ,37, ,
21, ,37, ,
20, ,37, ,
19, ,37, ,
16, ,37, ,
15, ,37, ,
14, ,37, ,
12, ,37, ,
12, ,38, ,
11, ,37, ,
11, ,37, ,
10, ,38, ,
8, ,37, ,
8, ,37, ,
6, ,37, ,
6, ,37, ,
6, ,37, ,
6, ,37, ,
5, ,38, ,
4, ,38, ,
3, ,38, ,
3, ,38, ,
2, ,37, ,
2, ,37, ,
2, ,37, ,
1, ,37, ,
1, ,37, ,
0, ,37, ,
0, ,38, ,
0, ,37, ,
-1, ,37, ,
-1, ,37, ,
-1, ,37, ,
-2, ,37, ,
-1, ,37, ,
-1, ,37, ,
-2, ,37, ,
-2, ,37, ,
-1, ,37, ,
-3, ,37, ,
-2, ,37, ,
-3, ,37, ,
-2, ,37, ,
-1, ,38, ,
-2, ,37, ,
-1, ,37, ,
-3, ,37, ,
-4, ,37, ,
-3, ,37, ,
-4, ,37, ,
-2, ,37, ,
-3, ,37, ,
-3, ,37, ,
-2, ,38, ,
-2, ,37, ,
-3, ,37, ,
-2, ,37, ,
-2, ,37, ,
-2, ,38, ,
-2, ,38, ,
-3, ,38, ,
-3, ,37, ,
-3, ,37, ,
-3, ,37, ,
-3, ,37, ,
-3, ,37, ,
-2, ,37, ,
-1, ,37, ,
-2, ,37, ,
-2, ,37, ,
-2, ,37, ,
-2, ,37, ,
-2, ,38, ,
-2, ,37, ,
-1, ,37, ,
-2, ,37, ,
-2, ,38, ,
-1, ,37, ,
-2, ,37, ,
-1, ,37, ,
-1, ,37, ,
-1, ,37, ,
-1, ,37, ,
-1, ,37, ,
-1, ,37, ,
-2, ,38, ,
-1, ,37, ,
-3, ,37, ,
-1, ,37, ,
-1, ,37, ,
0, ,37, ,
-1, ,38, ,
-2, ,37, ,
0, ,37, ,
-1, ,38, ,
0, ,37, ,
0, ,37, ,
0, ,37, ,
0, ,37, ,
0, ,37, ,
-1, ,37, ,
0, ,38, ,
-1, ,38, ,
0, ,38, ,
0, ,38, ,
0, ,38, ,
0, ,37, ,
1, ,37, ,
0, ,37, ,
0, ,37, ,
0, ,37, ,
0, ,37, ,
1, ,37, ,
1, ,37, ,
1, ,38, ,
1, ,38, ,
0, ,38, ,
1, ,38, ,
0, ,37, ,
0, ,37, ,
1, ,37, ,
1, ,37, ,
1, ,37, ,
1, ,37, ,
1, ,37, ,
1, ,38, ,
1, ,37, ,
1, ,37, ,
1, ,37, ,
1, ,37, ,
2, ,38, ,
2, ,38, ,
0, ,37, ,
1, ,37, ,
0, ,38, ,
0, ,38, ,
1, ,38, ,
0, ,37, ,
1, ,37, ,
2, ,38, ,
1, ,37, ,
1, ,37, ,
1, ,38, ,
1, ,38, ,
1, ,38, ,
1, ,38, ,
1, ,38, ,
1, ,37, ,
1, ,37, ,
1, ,37, ,
0, ,38, ,
1, ,37, ,
1, ,37, ,
1, ,37, ,
1, ,37, ,
1, ,37, ,
1, ,37, ,
2, ,38, ,
1, ,38, ,
1, ,37, ,
1, ,37, ,
1, ,37, ,
1, ,38, ,
2, ,38, ,
1, ,38, ,
1, ,38, ,
1, ,37, ,
1, ,37, ,
1, ,37, ,
1, ,38, ,
2, ,37, ,
2, ,37, ,
2, ,38, ,
3, ,37, ,
1, ,37, ,
1, ,38, ,
1, ,38, ,
2, ,38, ,
1, ,37, ,
2, ,37, ,
1, ,37, ,
1, ,37, ,
2, ,38, ,
1, ,37, ,
2, ,37, ,
2, ,37, ,
2, ,37, ,
1, ,38, ,
1, ,37, ,
2, ,37, ,
0, ,38, ,
0, ,37, ,
1, ,37, ,
0, ,37, ,
1, ,37, ,
1, ,37, ,
1, ,37, ,
1, ,37, ,
2, ,38, ,
1, ,37, ,
2, ,37, ,
1, ,37, ,
2, ,37, ,
2, ,37, ,
2, ,37, ,
1, ,37, ,
1, ,37, ,
1, ,37, ,
1, ,37, ,
0, ,37, ,
0, ,37, ,
0, ,38, ,
0, ,37, ,
0, ,37, ,
0, ,37, ,
0, ,37, ,
0, ,37, ,
0, ,37, ,
1, ,37, ,
1, ,37, ,
1, ,37, ,
3, ,37, ,
1, ,37, ,
1, ,38, ,
1, ,37, ,
1, ,37, ,
1, ,38, ,
1, ,38, ,
1, ,38, ,
1, ,38, ,
0, ,38, ,
-1, ,38, ,
0, ,38, ,
-1, ,38, ,
0, ,37, ,
0, ,37, ,
0, ,37, ,
0, ,37, ,
0, ,37, ,
0, ,37, ,
1, ,37, ,
0, ,37, ,
1, ,37, ,
0, ,37, ,
0, ,37, ,
0, ,37, ,
-1, ,37, ,
-3, ,37, ,
-3, ,37, ,
-4, ,37, ,
-3, ,38, ,
-5, ,38, ,
-6, ,37, ,
-5, ,37, ,
-5, ,37, ,
-4, ,37, ,
-3, ,37, ,
-3, ,37, ,
-2, ,37, ,
0, ,37, ,
0, ,37, ,
0, ,38, ,
1, ,37, ,
1, ,37, ,
1, ,38, ,
0, ,38, ,
0, ,37, ,
-1, ,37, ,
-3, ,38, ,
-2, ,37, ,
-4, ,37, ,
-2, ,37, ,
-2, ,37, ,
-1, ,37, ,
-1, ,38, ,
0, ,38, ,
1, ,37, ,
2, ,37, ,
3, ,37, ,
3, ,37, ,
3, ,37, ,
2, ,37, ,
3, ,37, ,
3, ,37, ,
0, ,37, ,
0, ,37, ,
-1, ,38, ,
-3, ,38, ,
-2, ,37, ,
-5, ,37, ,
-5, ,37, ,
-5, ,37, ,
-6, ,37, ,
-6, ,38, ,
-7, ,37, ,
-7, ,37, ,
-7, ,38, ,
-7, ,37, ,
-7, ,37, ,
-8, ,37, ,
-9, ,37, ,
-10, ,37, ,
-12, ,37, ,
-14, ,37, ,
-14, ,37, ,
-16, ,37, ,
-17, ,37, ,
-18, ,37, ,
-20, ,37, ,
-20, ,37, ,
-20, ,37, ,
-20, ,37, ,
-17, ,38, ,
-17, ,37, ,
-14, ,37, ,
-12, ,37, ,
-10, ,37, ,
-9, ,37, ,
-9, ,37, ,
-5, ,37, ,
-4, ,37, ,
-4, ,37, ,
-3, ,37, ,
-2, ,37, ,
-2, ,37, ,
-2, ,38, ,
-3, ,37, ,
-4, ,37, ,
-4, ,37, ,
-4, ,37, ,
-4, ,37, ,
-3, ,38, ,
-4, ,37, ,
-3, ,37, ,
-3, ,37, ,
-2, ,38, ,
-2, ,38, ,
-2, ,38, ,
-2, ,37, ,
-2, ,37, ,
-5, ,37, ,
-5, ,38, ,
-7, ,37, ,
-11, ,37, ,
-13, ,37, ,
-16, ,38, ,
-18, ,37, ,
-21, ,37, ,
-24, ,37, ,
-24, ,37, ,
-25, ,37, ,
-24, ,37, ,
-20, ,37, ,
-19, ,37, ,
-17, ,38, ,
-13, ,38, ,
-12, ,38, ,
-8, ,38, ,
-5, ,37, ,
-4, ,37, ,
-1, ,37, ,
0, ,37, ,
1, ,37, ,
2, ,37, ,
4, ,37, ,
4, ,37, ,
1, ,38, ,
3, ,38, ,
3, ,38, ,
3, ,37, ,
4, ,37, ,
4, ,37, ,
2, ,37, ,
1, ,37, ,
1, ,38, ,
-1, ,38, ,
-1, ,38, ,
-4, ,37, ,
-5, ,37, ,
-8, ,38, ,
-10, ,38, ,
-11, ,38, ,
-14, ,38, ,
-18, ,38, ,
-20, ,38, ,
-22, ,38, ,
-23, ,37, ,
-24, ,37, ,
-26, ,37, ,
-26, ,38, ,
-27, ,37, ,
-30, ,37, ,
-33, ,37, ,
-34, ,37, ,
-35, ,37, ,
-42, ,37, ,
-45, ,37, ,
-49, ,37, ,
-53, ,37, ,
-62, ,37, ,
-63, ,38, ,
-65, ,38, ,
-69, ,38, ,
-69, ,37, ,
-70, ,37, ,
-68, ,37, ,
-68, ,37, ,
-64, ,37, ,
-59, ,38, ,
-57, ,38, ,
-51, ,38, ,
-44, ,38, ,
-39, ,38, ,
-35, ,37, ,
-32, ,37, ,
-20, ,38, ,
-19, ,38, ,
-16, ,38, ,
-11, ,38, ,
-8, ,38, ,
-8, ,38, ,
-9, ,38, ,
-10, ,37, ,
-15, ,37, ,
-16, ,37, ,
-20, ,38, ,
-24, ,38, ,
-30, ,38, ,
-35, ,38, ,
-36, ,38, ,
-40, ,38, ,
-46, ,37, ,
-47, ,37, ,
-50, ,37, ,
-52, ,37, ,
-54, ,37, ,
-55, ,37, ,
-55, ,38, ,
-56, ,37, ,
-54, ,37, ,
-53, ,38, ,
-51, ,38, ,
-49, ,38, ,
-44, ,38, ,
-40, ,38, ,
-35, ,38, ,
-32, ,38, ,
-24, ,38, ,
-20, ,38, ,
-17, ,37, ,
-13, ,37, ,
-7, ,37, ,
-5, ,37, ,
-2, ,37, ,
0, ,38, ,
1, ,38, ,
3, ,38, ,
3, ,37, ,
6, ,37, ,
9, ,37, ,
12, ,37, ,
16, ,37, ,
17, ,37, ,
25, ,37, ,
30, ,37, ,
34, ,37, ,
40, ,37, ,
52, ,37, ,
56, ,37, ,
67, ,37, ,
72, ,37, ,
86, ,37, ,
95, ,37, ,
100, ,37, ,
105, ,37, ,
113, ,37, ,
116, ,38, ,
117, ,38, ,
117, ,38, ,
116, ,38, ,
115, ,38, ,
113, ,38, ,
112, ,38, ,
107, ,37, ,
105, ,37, ,
103, ,37, ,
99, ,37, ,
93, ,37, ,
91, ,37, ,
88, ,38, ,
86, ,37, ,
80, ,37, ,
74, ,37, ,
73, ,37, ,
69, ,37, ,
64, ,37, ,
64, ,37, ,
61, ,37, ,
56, ,37, ,
53, ,37, ,
48, ,37, ,
46, ,38, ,
39, ,37, ,
24, ,37, ,
14, ,37, ,
-1, ,38, ,
-17, ,37, ,
-57, ,37, ,
-78, ,37, ,
-95, ,37, ,
-111, ,37, ,
-126, ,37, ,
-126, ,37, ,
-126, ,37, ,
-126, ,37, ,
-120, ,37, ,
-117, ,37, ,
-112, ,38, ,
-106, ,37, ,
-99, ,37, ,
-94, ,38, ,
-91, ,37, ,
-86, ,37, ,
-79, ,37, ,
-76, ,37, ,
-71, ,37, ,
-69, ,38, ,
-62, ,37, ,
-59, ,37, ,
-58, ,37, ,
-54, ,37, ,
-53, ,37, ,
-54, ,37, ,
-53, ,37, ,
-55, ,37, ,
-57, ,37, ,
-59, ,37, ,
-59, ,37, ,
-60, ,37, ,
-63, ,37, ,
-63, ,37, ,
-64, ,37, ,
-64, ,38, ,
-64, ,37, ,
-64, ,37, ,
-66, ,37, ,
-66, ,38, ,
-66, ,38, ,
-69, ,38, ,
-70, ,38, ,
-72, ,38, ,
-77, ,38, ,
-79, ,38, ,
-83, ,38, ,
-85, ,38, ,
-92, ,38, ,
-94, ,37, ,
-96, ,37, ,
-99, ,37, ,
-101, ,37, ,
-101, ,37, ,
-101, ,37, ,
-100, ,38, ,
-98, ,37, ,
-98, ,37, ,
-95, ,37, ,
-93, ,38, ,
-88, ,38, ,
-84, ,38, ,
-79, ,38, ,
-75, ,37, ,
-67, ,37, ,
-63, ,37, ,
-57, ,37, ,
-54, ,37, ,
-44, ,37, ,
-39, ,37, ,
-36, ,37, ,
-33, ,37, ,
-26, ,38, ,
-24, ,38, ,
-19, ,38, ,
-19, ,38, ,
-16, ,37, ,
-15, ,37, ,
-16, ,37, ,
-16, ,38, ,
-17, ,38, ,
-18, ,37, ,
-19, ,37, ,
-22, ,37, ,
-25, ,37, ,
-25, ,37, ,
-28, ,37, ,
-30, ,38, ,
-33, ,37, ,
-35, ,37, ,
-35, ,37, ,
-37, ,37, ,
-37, ,37, ,
-35, ,38, ,
-37, ,37, ,
-36, ,37, ,
-36, ,37, ,
-35, ,37, ,
-32, ,37, ,
-31, ,37, ,
-25, ,37, ,
-22, ,37, ,
-20, ,37, ,
-17, ,37, ,
-12, ,37, ,
-12, ,37, ,
-10, ,37, ,
-10, ,37, ,
-11, ,37, ,
-11, ,37, ,
-14, ,38, ,
-15, ,37, ,
-21, ,37, ,
-27, ,38, ,
-29, ,38, ,
-34, ,38, ,
-42, ,38, ,
-45, ,37, ,
-50, ,37, ,
-53, ,37, ,
-60, ,37, ,
-63, ,37, ,
-64, ,38, ,
-66, ,37, ,
-66, ,37, ,
-67, ,37, ,
-64, ,37, ,
-62, ,37, ,
-56, ,37, ,
-53, ,37, ,
-49, ,37, ,
-44, ,37, ,
-35, ,37, ,
-27, ,37, ,
-24, ,37, ,
-17, ,38, ,
-5, ,38, ,
0, ,38, ,
5, ,38, ,
10, ,37, ,
16, ,37, ,
22, ,37, ,
24, ,38, ,
28, ,38, ,
31, ,38, ,
31, ,38, ,
31, ,38, ,
30, ,38, ,
29, ,38, ,
27, ,38, ,
25, ,38, ,
24, ,37, ,
20, ,37, ,
17, ,37, ,
14, ,37, ,
13, ,37, ,
7, ,37, ,
5, ,37, ,
4, ,37, ,
4, ,37, ,
-1, ,37, ,
-2, ,37, ,
-1, ,37, ,
-5, ,37, ,
-5, ,38, ,
-7, ,38, ,
-8, ,38, ,
-8, ,38, ,
-10, ,38, ,
-11, ,38, ,
-11, ,38, ,
-15, ,38, ,
-16, ,38, ,
-17, ,38, ,
-20, ,37, ,
-22, ,37, ,
-26, ,37, ,
-28, ,37, ,
-30, ,37, ,
-34, ,38, ,
-37, ,38, ,
-37, ,37, ,
-40, ,37, ,
-40, ,38, ,
-40, ,37, ,
-41, ,37, ,
-38, ,37, ,
-39, ,37, ,
-35, ,37, ,
-32, ,38, ,
-30, ,38, ,
-25, ,38, ,
-18, ,38, ,
-14, ,38, ,
-8, ,37, ,
-5, ,37, ,
4, ,38, ,
11, ,38, ,
15, ,38, ,
20, ,37, ,
29, ,37, ,
32, ,37, ,
35, ,38, ,
37, ,38, ,
41, ,38, ,
44, ,38, ,
44, ,37, ,
46, ,37, ,
46, ,37, ,
44, ,37, ,
44, ,38, ,
41, ,38, ,
39, ,38, ,
35, ,38, ,
34, ,37, ,
34, ,37, ,
27, ,37, ,
25, ,37, ,
24, ,37, ,
20, ,37, ,
17, ,37, ,
16, ,37, ,
14, ,37, ,
12, ,37, ,
10, ,37, ,
9, ,37, ,
9, ,37, ,
8, ,37, ,
8, ,37, ,
8, ,37, ,
8, ,37, ,
8, ,38, ,
10, ,38, ,
10, ,38, ,
13, ,38, ,
12, ,37, ,
15, ,37, ,
17, ,37, ,
16, ,37, ,
20, ,37, ,
21, ,37, ,
23, ,37, ,
25, ,37, ,
25, ,37, ,
29, ,37, ,
31, ,37, ,
31, ,37, ,
35, ,37, ,
35, ,37, ,
37, ,37, ,
39, ,37, ,
39, ,38, ,
40, ,38, ,
41, ,38, ,
40, ,37, ,
41, ,37, ,
40, ,37, ,
39, ,37, ,
39, ,37, ,
37, ,38, ,
35, ,38, ,
35, ,37, ,
33, ,37, ,
32, ,38, ,
29, ,38, ,
26, ,38, ,
25, ,38, ,
22, ,37, ,
17, ,37, ,
17, ,37, ,
13, ,37, ,
12, ,37, ,
8, ,37, ,
6, ,38, ,
4, ,37, ,
2, ,37, ,
-1, ,38, ,
-1, ,37, ,
-3, ,37, ,
-4, ,38, ,
-5, ,38, ,
-6, ,38, ,
-6, ,38, ,
-7, ,37, ,
-8, ,37, ,
-8, ,37, ,
-9, ,37, ,
-8, ,37, ,
-9, ,37, ,
-10, ,38, ,
-10, ,37, ,
-12, ,37, ,
-12, ,37, ,
-12, ,37, ,
-14, ,37, ,
-14, ,38, ,
-13, ,37, ,
-14, ,37, ,
-14, ,37, ,
-13, ,37, ,
-14, ,37, ,
-13, ,37, ,
-15, ,37, ,
-13, ,37, ,
-12, ,37, ,
-13, ,38, ,
-11, ,38, ,
-12, ,38, ,
-10, ,37, ,
-7, ,37, ,
-7, ,37, ,
-4, ,37, ,
-2, ,37, ,
0, ,37, ,
1, ,37, ,
2, ,37, ,
5, ,37, ,
6, ,38, ,
7, ,37, ,
8, ,37, ,
8, ,37, ,
9, ,37, ,
9, ,37, ,
9, ,37, ,
8, ,37, ,
9, ,38, ,
8, ,38, ,
8, ,37, ,
8, ,37, ,
5, ,37, ,
5, ,37, ,
4, ,37, ,
2, ,37, ,
2, ,37, ,
0, ,37, ,
-1, ,37, ,
-4, ,37, ,
-5, ,37, ,
-5, ,38, ,
-6, ,37, ,
-8, ,37, ,
-9, ,37, ,
-9, ,37, ,
-9, ,37, ,
-10, ,37, ,
-10, ,37, ,
-10, ,37, ,
-11, ,37, ,
-12, ,37, ,
-10, ,37, ,
-11, ,37, ,
-11, ,37, ,
-10, ,37, ,
-10, ,38, ,
-10, ,38, ,
-10, ,38, ,
-9, ,38, ,
-8, ,37, ,
-9, ,37, ,
-7, ,37, ,
-5, ,37, ,
-5, ,37, ,
-3, ,37, ,
-5, ,38, ,
-1, ,38, ,
1, ,38, ,
2, ,38, ,
4, ,37, ,
5, ,37, ,
6, ,38, ,
8, ,38, ,
10, ,38, ,
12, ,37, ,
14, ,37, ,
14, ,37, ,
16, ,38, ,
20, ,37, ,
20, ,37, ,
21, ,37, ,
23, ,37, ,
23, ,37, ,
25, ,37, ,
25, ,38, ,
25, ,37, ,
25, ,37, ,
25, ,37, ,
25, ,38, ,
25, ,38, ,
24, ,37, ,
23, ,37, ,
22, ,37, ,
22, ,37, ,
20, ,37, ,
19, ,37, ,
19, ,37, ,
19, ,37, ,
14, ,37, ,
15, ,37, ,
12, ,37, ,
12, ,37, ,
7, ,37, ,
4, ,37, ,
4, ,37, ,
2, ,37, ,
-3, ,37, ,
-5, ,38, ,
-6, ,38, ,
-8, ,38, ,
-13, ,38, ,
-16, ,38, ,
-18, ,38, ,
-21, ,37, ,
-27, ,37, ,
-30, ,37, ,
-30, ,37, ,
-34, ,37, ,
-37, ,37, ,
-40, ,38, ,
-40, ,38, ,
-42, ,38, ,
-45, ,37, ,
-44, ,37, ,
-46, ,37, ,
-43, ,38, ,
-39, ,37, ,
-39, ,37, ,
-35, ,37, ,
-34, ,37, ,
-24, ,37, ,
-19, ,38, ,
-14, ,37, ,
-7, ,37, ,
5, ,37, ,
10, ,37, ,
16, ,37, ,
19, ,37, ,
28, ,38, ,
32, ,38, ,
33, ,38, ,
33, ,38, ,
30, ,38, ,
24, ,38, ,
18, ,38, ,
8, ,37, ,
-14, ,37, ,
-28, ,37, ,
-42, ,37, ,
-61, ,37, ,
-100, ,37, ,
-120, ,38, ,
-126, ,37, ,
-126, ,37, ,
-126, ,38, ,
-126, ,37, ,
-126, ,37, ,
-126, ,38, ,
-126, ,38, ,
-126, ,38, ,
-126, ,38, ,
-126, ,37, ,
-126, ,37, ,
-126, ,38, ,
-126, ,37, ,
-126, ,37, ,
-126, ,37, ,
-126, ,38, ,
-126, ,37, ,
-126, ,37, ,
-126, ,37, ,
-126, ,37, ,
-126, ,37, ,
-123, ,37, ,
-109, ,37, ,
-103, ,37, ,
-89, ,37, ,
-56, ,38, ,
55, ,38, ,
105, ,38, ,
125, ,38, ,
125, ,37, ,
125, ,37, ,
125, ,37, ,
125, ,37, ,
125, ,38, ,
125, ,38, ,
125, ,37, ,
125, ,37, ,
125, ,37, ,
125, ,37, ,
125, ,37, ,
125, ,37, ,
125, ,38, ,
125, ,38, ,
125, ,38, ,
125, ,38, ,
125, ,38, ,
125, ,38, ,
125, ,38, ,
125, ,38, ,
125, ,38, ,
125, ,38, ,
125, ,37, ,
125, ,37, ,
125, ,38, ,
125, ,38, ,
125, ,38, ,
125, ,38, ,
125, ,37, ,
125, ,37, ,
125, ,37, ,
125, ,37, ,
125, ,37, ,
125, ,37, ,
125, ,38, ,
125, ,37, ,
124, ,37, ,
122, ,38, ,
117, ,38, ,
108, ,38, ,
101, ,38, ,
83, ,37, ,
73, ,37, ,
63, ,37, ,
54, ,37, ,
35, ,37, ,
26, ,37, ,
15, ,38, ,
7, ,38, ,
-13, ,38, ,
-20, ,38, ,
-28, ,38, ,
-39, ,38, ,
-51, ,37, ,
-59, ,37, ,
-66, ,37, ,
-71, ,38, ,
-81, ,37, ,
-87, ,37, ,
-92, ,37, ,
-94, ,37, ,
-103, ,37, ,
-104, ,37, ,
-105, ,38, ,
-106, ,37, ,
-109, ,37, ,
-109, ,38, ,
-109, ,38, ,
-109, ,37, ,
-108, ,37, ,
-106, ,38, ,
-106, ,38, ,
-103, ,37, ,
-99, ,37, ,
-96, ,37, ,
-91, ,38, ,
-88, ,37, ,
-81, ,37, ,
-76, ,37, ,
-73, ,38, ,
-68, ,37, ,
-60, ,37, ,
-58, ,38, ,
-54, ,38, ,
-53, ,37, ,
-48, ,37, ,
-46, ,38, ,
-46, ,38, ,
-46, ,38, ,
-47, ,38, ,
-48, ,38, ,
-49, ,38, ,
-52, ,37, ,
-57, ,37, ,
-60, ,37, ,
-64, ,37, ,
-67, ,37, ,
-75, ,37, ,
-78, ,37, ,
-82, ,38, ,
-85, ,37, ,
-91, ,37, ,
-95, ,37, ,
-97, ,37, ,
-97, ,38, ,
-100, ,38, ,
-100, ,37, ,
-100, ,37, ,
-99, ,38, ,
-96, ,38, ,
-92, ,38, ,
-91, ,38, ,
-86, ,37, ,
-76, ,37, ,
-73, ,38, ,
-66, ,38, ,
-61, ,37, ,
-49, ,37, ,
-43, ,37, ,
-38, ,37, ,
-32, ,37, ,
-20, ,37, ,
-15, ,37, ,
-9, ,38, ,
-5, ,37, ,
3, ,37, ,
9, ,38, ,
11, ,38, ,
15, ,37, ,
20, ,37, ,
20, ,38, ,
22, ,38, ,
21, ,38, ,
23, ,38, ,
24, ,38, ,
24, ,38, ,
25, ,38, ,
25, ,37, ,
25, ,37, ,
25, ,37, ,
25, ,37, ,
25, ,37, ,
26, ,38, ,
25, ,37, ,
26, ,37, ,
26, ,37, ,
26, ,37, ,
28, ,38, ,
28, ,38, ,
30, ,38, ,
31, ,37, ,
31, ,37, ,
31, ,38, ,
33, ,38, ,
33, ,37, ,
35, ,37, ,
35, ,37, ,
35, ,37, ,
35, ,37, ,
34, ,38, ,
35, ,38, ,
35, ,38, ,
35, ,37, ,
35, ,37, ,
33, ,37, ,
33, ,37, ,
34, ,38, ,
32, ,38, ,
32, ,37, ,
30, ,37, ,
29, ,37, ,
27, ,38, ,
26, ,38, ,
24, ,38, ,
23, ,38, ,
22, ,37, ,
20, ,37, ,
15, ,37, ,
12, ,37, ,
10, ,37, ,
6, ,38, ,
0, ,37, ,
-1, ,37, ,
-5, ,37, ,
-10, ,37, ,
-15, ,37, ,
-20, ,37, ,
-22, ,37, ,
-25, ,37, ,
-34, ,37, ,
-35, ,37, ,
-40, ,37, ,
-40, ,38, ,
-48, ,38, ,
-50, ,38, ,
-51, ,37, ,
-55, ,37, ,
-57, ,38, ,
-59, ,37, ,
-59, ,37, ,
-59, ,37, ,
-59, ,37, ,
-59, ,37, ,
-59, ,38, ,
-56, ,38, ,
-54, ,38, ,
-49, ,38, ,
-48, ,37, ,
-45, ,37, ,
-39, ,37, ,
-37, ,37, ,
-33, ,37, ,
-31, ,37, ,
-24, ,37, ,
-19, ,37, ,
-16, ,37, ,
-12, ,38, ,
-3, ,37, ,
-1, ,37, ,
5, ,37, ,
6, ,37, ,
13, ,37, ,
14, ,37, ,
18, ,37, ,
21, ,37, ,
25, ,37, ,
27, ,38, ,
30, ,37, ,
31, ,37, ,
33, ,37, ,
34, ,38, ,
34, ,37, ,
35, ,37, ,
35, ,37, ,
35, ,37, ,
36, ,37, ,
35, ,37, ,
35, ,37, ,
35, ,37, ,
34, ,38, ,
34, ,37, ,
30, ,37, ,
30, ,37, ,
29, ,38, ,
25, ,38, ,
24, ,38, ,
20, ,38, ,
18, ,38, ,
17, ,38, ,
13, ,38, ,
8, ,38, ,
5, ,38, ,
4, ,37, ,
-3, ,37, ,
-4, ,37, ,
-8, ,37, ,
-10, ,38, ,
-15, ,38, ,
-20, ,37, ,
-20, ,37, ,
-23, ,38, ,
-28, ,38, ,
-28, ,38, ,
-31, ,38, ,
-31, ,37, ,
-32, ,37, ,
-32, ,37, ,
-32, ,37, ,
-31, ,37, ,
-30, ,37, ,
-28, ,37, ,
-26, ,37, ,
-24, ,37, ,
-19, ,37, ,
-18, ,38, ,
-14, ,38, ,
-12, ,37, ,
-6, ,37, ,
-2, ,37, ,
1, ,37, ,
5, ,38, ,
13, ,37, ,
14, ,37, ,
19, ,37, ,
21, ,37, ,
28, ,37, ,
31, ,38, ,
31, ,38, ,
35, ,38, ,
37, ,38, ,
39, ,38, ,
40, ,37, ,
40, ,37, ,
44, ,37, ,
44, ,37, ,
44, ,37, ,
44, ,37, ,
43, ,37, ,
42, ,37, ,
43, ,38, ,
40, ,37, ,
38, ,37, ,
38, ,37, ,
36, ,37, ,
35, ,37, ,
34, ,37, ,
31, ,37, ,
30, ,37, ,
27, ,37, ,
25, ,37, ,
25, ,37, ,
22, ,37, ,
21, ,37, ,
18, ,38, ,
16, ,38, ,
17, ,38, ,
13, ,37, ,
11, ,37, ,
11, ,37, ,
10, ,37, ,
10, ,38, ,
7, ,38, ,
6, ,37, ,
5, ,37, ,
4, ,38, ,
3, ,37, ,
2, ,37, ,
2, ,37, ,
2, ,37, ,
0, ,37, ,
0, ,37, ,
0, ,37, ,
-1, ,38, ,
-2, ,38, ,
-2, ,38, ,
-2, ,38, ,
-2, ,37, ,
-4, ,37, ,
-5, ,37, ,
-5, ,37, ,
-5, ,37, ,
-6, ,37, ,
-5, ,37, ,
-6, ,37, ,
-6, ,37, ,
-7, ,38, ,
-8, ,38, ,
-8, ,38, ,
-9, ,38, ,
-10, ,38, ,
-10, ,38, ,
-11, ,37, ,
-11, ,37, ,
-11, ,37, ,
-12, ,38, ,
-11, ,38, ,
-13, ,38, ,
-14, ,37, ,
-14, ,37, ,
-15, ,37, ,
-14, ,37, ,
-14, ,38, ,
-15, ,38, ,
-14, ,38, ,
-15, ,37, ,
-15, ,37, ,
-15, ,38, ,
-14, ,38, ,
-13, ,38, ,
-12, ,38, ,
-12, ,37, ,
-12, ,37, ,
-12, ,37, ,
-12, ,37, ,
-10, ,37, ,
-10, ,37, ,
-10, ,38, ,
-9, ,37, ,
-9, ,37, ,
-9, ,37, ,
-7, ,38, ,
-7, ,38, ,
-5, ,38, ,
-5, ,37, ,
-4, ,37, ,
-5, ,38, ,
-5, ,38, ,
-5, ,37, ,
-5, ,37, ,
-4, ,38, ,
-4, ,38, ,
-4, ,38, ,
-3, ,38, ,
-3, ,37, ,
-4, ,37, ,
-3, ,37, ,
-3, ,37, ,
-3, ,37, ,
-2, ,37, ,
-2, ,38, ,
-2, ,38, ,
-2, ,38, ,
-2, ,38, ,
-1, ,38, ,
0, ,38, ,
0, ,38, ,
0, ,37, ,
-1, ,37, ,
1, ,37, ,
1, ,37, ,
1, ,37, ,
3, ,37, ,
3, ,37, ,
4, ,37, ,
3, ,37, ,
4, ,37, ,
4, ,37, ,
5, ,38, ,
5, ,37, ,
6, ,37, ,
7, ,37, ,
7, ,38, ,
7, ,38, ,
7, ,38, ,
7, ,37, ,
9, ,37, ,
8, ,37, ,
8, ,38, ,
8, ,37, ,
7, ,37, ,
8, ,38, ,
7, ,38, ,
9, ,38, ,
9, ,38, ,
9, ,38, ,
9, ,38, ,
8, ,37, ,
7, ,37, ,
7, ,38, ,
7, ,38, ,
7, ,37, ,
6, ,37, ,
6, ,37, ,
6, ,38, ,
5, ,37, ,
5, ,37, ,
4, ,37, ,
4, ,37, ,
3, ,37, ,
3, ,37, ,
3, ,37, ,
3, ,37, ,
2, ,37, ,
0, ,37, ,
0, ,38, ,
0, ,37, ,
-1, ,37, ,
-2, ,37, ,
-2, ,37, ,
-3, ,37, ,
-3, ,37, ,
-3, ,37, ,
-4, ,38, ,
-3, ,38, ,
-4, ,37, ,
-5, ,37, ,
-6, ,38, ,
-6, ,38, ,
-6, ,38, ,
-7, ,37, ,
-7, ,37, ,
-7, ,37, ,
-7, ,38, ,
-7, ,38, ,
-9, ,38, ,
-6, ,38, ,
-9, ,37, ,
-8, ,37, ,
-6, ,38, ,
-7, ,38, ,
-7, ,38, ,
-6, ,38, ,
-6, ,38, ,
-6, ,38, ,
-6, ,38, ,
-6, ,38, ,
-5, ,38, ,
-5, ,37, ,
-5, ,37, ,
-5, ,37, ,
-5, ,37, ,
