raw_data/100% Glycerol, Impulsion 2Hz, Sonde 5MHz, Rampe 0.7Hz/temp0000216.CSV

Format,1.0B,
Memory Length,10000,Memory Length,10000,
IntpDistance,0,IntpDistance,0,
Trigger Address,159,Trigger Address,159,
Trigger Level,2.720E-01,Trigger Level,2.720E-01,
Source,CH1,Source,CH2,
Vertical Units,V,Vertical Units,V,
Vertical Units Div,0,Vertical Units Div,0,
Vertical Units Extend Div,16,Vertical Units Extend Div,16,
Label,,Label,,
Probe Type,0,Probe Type,0,
Probe Ratio,1.000e+00,Probe Ratio,1.000e+00,
Vertical Scale,2.000e-01,Vertical Scale,2.000e+00,
Vertical Position,0.000e+00,Vertical Position,0.000e+00,
Horizontal Units,S,Horizontal Units,S,
Horizontal Scale,5.000E-06,Horizontal Scale,5.000E-06,
Horizontal Position,2.420E-05,Horizontal Position,2.420E-05,
Horizontal Mode,Main,Horizontal Mode,Main,
SincET Mode,Real Time,SincET Mode,Real Time,
Sampling Period,5.000e-09,Sampling Period,5.000e-09,
Horizontal Old Scale,5.000E-06,Horizontal Old Scale,5.000E-06,
Horizontal Old Position,2.420E-05,Horizontal Old Position,2.420E-05,
Firmware,V1.32,Firmware,V1.32,
Mode,Fast,Mode,Fast,
Waveform Data,,Waveform Data,,
1, ,-42, ,
2, ,-42, ,
1, ,-42, ,
1, ,-43, ,
2, ,-43, ,
1, ,-43, ,
1, ,-42, ,
2, ,-42, ,
1, ,-42, ,
2, ,-43, ,
1, ,-43, ,
1, ,-42, ,
2, ,-43, ,
1, ,-43, ,
2, ,-43, ,
1, ,-42, ,
2, ,-42, ,
2, ,-43, ,
0, ,-43, ,
1, ,-43, ,
2, ,-43, ,
2, ,-42, ,
3, ,-42, ,
2, ,-42, ,
1, ,-42, ,
2, ,-43, ,
1, ,-43, ,
1, ,-42, ,
2, ,-43, ,
1, ,-43, ,
2, ,-43, ,
2, ,-42, ,
1, ,-42, ,
1, ,-43, ,
1, ,-43, ,
1, ,-43, ,
2, ,-43, ,
1, ,-42, ,
2, ,-42, ,
1, ,-42, ,
2, ,-42, ,
2, ,-42, ,
1, ,-42, ,
0, ,-42, ,
1, ,-43, ,
0, ,-43, ,
2, ,-43, ,
2, ,-43, ,
2, ,-43, ,
1, ,-43, ,
1, ,-42, ,
2, ,-42, ,
3, ,-42, ,
2, ,-42, ,
2, ,-43, ,
2, ,-43, ,
2, ,-42, ,
2, ,-43, ,
1, ,-43, ,
1, ,-42, ,
1, ,-43, ,
1, ,-43, ,
1, ,-43, ,
1, ,-43, ,
1, ,-43, ,
1, ,-43, ,
1, ,-42, ,
1, ,-43, ,
1, ,-43, ,
1, ,-42, ,
2, ,-42, ,
2, ,-42, ,
1, ,-42, ,
1, ,-42, ,
2, ,-42, ,
2, ,-42, ,
1, ,-42, ,
1, ,-42, ,
1, ,-42, ,
2, ,-43, ,
1, ,-43, ,
2, ,-43, ,
1, ,-42, ,
2, ,-42, ,
2, ,-42, ,
1, ,-42, ,
1, ,-43, ,
1, ,-43, ,
1, ,-43, ,
1, ,-43, ,
1, ,-42, ,
1, ,-42, ,
1, ,-43, ,
1, ,-43, ,
1, ,-43, ,
2, ,-42, ,
1, ,-42, ,
2, ,-42, ,
1, ,-42, ,
1, ,-42, ,
2, ,-42, ,
1, ,-42, ,
1, ,-43, ,
1, ,-43, ,
1, ,-42, ,
1, ,-43, ,
1, ,-43, ,
2, ,-42, ,
2, ,-42, ,
1, ,-42, ,
2, ,-42, ,
1, ,-42, ,
2, ,-42, ,
1, ,-42, ,
1, ,-42, ,
2, ,-42, ,
2, ,-42, ,
2, ,-42, ,
1, ,-42, ,
2, ,-42, ,
2, ,-42, ,
1, ,-42, ,
2, ,-42, ,
1, ,-42, ,
2, ,-43, ,
2, ,-43, ,
1, ,-43, ,
2, ,-42, ,
1, ,-42, ,
2, ,-42, ,
1, ,-42, ,
1, ,-43, ,
2, ,-43, ,
1, ,-42, ,
3, ,-43, ,
2, ,-43, ,
1, ,-42, ,
2, ,-43, ,
2, ,-43, ,
1, ,-42, ,
1, ,-42, ,
1, ,-42, ,
1, ,-42, ,
2, ,-43, ,
2, ,-43, ,
2, ,-43, ,
2, ,-42, ,
1, ,-42, ,
2, ,-43, ,
1, ,-43, ,
1, ,-43, ,
2, ,-43, ,
1, ,-43, ,
1, ,-43, ,
1, ,-43, ,
1, ,-42, ,
2, ,-43, ,
2, ,-43, ,
2, ,-43, ,
1, ,-42, ,
2, ,-42, ,
2, ,-42, ,
1, ,-42, ,
2, ,-43, ,
5, ,-43, ,
-1, ,-43, ,
-1, ,-43, ,
1, ,-42, ,
25, ,-42, ,
79, ,-42, ,
125, ,-42, ,
125, ,-42, ,
125, ,-42, ,
121, ,-42, ,
117, ,-42, ,
-15, ,-42, ,
68, ,-42, ,
125, ,-43, ,
125, ,-43, ,
125, ,-43, ,
125, ,-43, ,
125, ,-43, ,
125, ,-43, ,
125, ,-42, ,
125, ,-42, ,
125, ,-42, ,
125, ,-42, ,
125, ,-42, ,
125, ,-43, ,
125, ,-43, ,
125, ,-43, ,
125, ,-43, ,
125, ,-43, ,
125, ,-43, ,
125, ,-42, ,
125, ,-43, ,
125, ,-43, ,
125, ,-43, ,
125, ,-43, ,
125, ,-42, ,
125, ,-42, ,
125, ,-42, ,
125, ,-42, ,
124, ,-42, ,
121, ,-42, ,
116, ,-42, ,
112, ,-42, ,
103, ,-42, ,
99, ,-43, ,
96, ,-43, ,
89, ,-43, ,
83, ,-43, ,
78, ,-43, ,
76, ,-42, ,
71, ,-42, ,
66, ,-42, ,
61, ,-42, ,
59, ,-42, ,
56, ,-43, ,
51, ,-43, ,
49, ,-43, ,
48, ,-43, ,
44, ,-43, ,
41, ,-43, ,
38, ,-42, ,
37, ,-42, ,
35, ,-42, ,
32, ,-43, ,
31, ,-43, ,
29, ,-42, ,
28, ,-43, ,
24, ,-43, ,
21, ,-42, ,
22, ,-42, ,
19, ,-42, ,
17, ,-43, ,
17, ,-43, ,
16, ,-42, ,
17, ,-42, ,
14, ,-43, ,
12, ,-43, ,
12, ,-43, ,
10, ,-42, ,
9, ,-42, ,
9, ,-42, ,
7, ,-42, ,
6, ,-42, ,
5, ,-42, ,
4, ,-42, ,
5, ,-42, ,
3, ,-42, ,
3, ,-43, ,
3, ,-43, ,
2, ,-42, ,
2, ,-42, ,
2, ,-42, ,
1, ,-42, ,
2, ,-42, ,
0, ,-42, ,
0, ,-43, ,
0, ,-43, ,
-1, ,-42, ,
0, ,-42, ,
0, ,-42, ,
-1, ,-42, ,
-1, ,-42, ,
-2, ,-42, ,
-2, ,-42, ,
-2, ,-42, ,
-2, ,-42, ,
-1, ,-42, ,
-3, ,-42, ,
-3, ,-42, ,
-3, ,-42, ,
-3, ,-42, ,
-3, ,-43, ,
-2, ,-43, ,
-3, ,-42, ,
-1, ,-42, ,
-1, ,-42, ,
-5, ,-42, ,
-3, ,-42, ,
-3, ,-42, ,
-4, ,-43, ,
-4, ,-43, ,
-4, ,-43, ,
-3, ,-43, ,
-3, ,-42, ,
-3, ,-42, ,
-3, ,-42, ,
-3, ,-42, ,
-4, ,-42, ,
-2, ,-42, ,
-2, ,-42, ,
-3, ,-42, ,
-3, ,-42, ,
-4, ,-42, ,
-3, ,-43, ,
-3, ,-43, ,
-3, ,-42, ,
-2, ,-42, ,
-3, ,-42, ,
-3, ,-42, ,
-4, ,-42, ,
-2, ,-42, ,
-1, ,-42, ,
-3, ,-42, ,
-3, ,-42, ,
-2, ,-42, ,
-2, ,-42, ,
-1, ,-42, ,
-1, ,-42, ,
-2, ,-42, ,
-2, ,-42, ,
-2, ,-42, ,
-2, ,-42, ,
-1, ,-42, ,
-2, ,-42, ,
-2, ,-42, ,
-1, ,-42, ,
-2, ,-42, ,
-1, ,-42, ,
-2, ,-42, ,
0, ,-42, ,
0, ,-42, ,
-1, ,-42, ,
-1, ,-43, ,
-1, ,-43, ,
-2, ,-42, ,
0, ,-42, ,
-1, ,-42, ,
0, ,-42, ,
0, ,-42, ,
-1, ,-42, ,
-1, ,-42, ,
0, ,-42, ,
0, ,-42, ,
0, ,-42, ,
0, ,-42, ,
0, ,-42, ,
0, ,-42, ,
0, ,-42, ,
0, ,-42, ,
0, ,-42, ,
-1, ,-42, ,
0, ,-42, ,
0, ,-42, ,
0, ,-42, ,
1, ,-42, ,
0, ,-42, ,
0, ,-42, ,
0, ,-43, ,
0, ,-43, ,
0, ,-43, ,
0, ,-42, ,
-1, ,-42, ,
0, ,-42, ,
0, ,-42, ,
1, ,-42, ,
1, ,-42, ,
0, ,-42, ,
0, ,-42, ,
0, ,-42, ,
0, ,-42, ,
1, ,-42, ,
0, ,-42, ,
0, ,-42, ,
1, ,-43, ,
1, ,-43, ,
2, ,-43, ,
0, ,-43, ,
0, ,-42, ,
1, ,-42, ,
0, ,-42, ,
1, ,-42, ,
0, ,-42, ,
0, ,-42, ,
1, ,-42, ,
1, ,-42, ,
1, ,-43, ,
1, ,-43, ,
1, ,-42, ,
1, ,-42, ,
1, ,-43, ,
0, ,-43, ,
1, ,-43, ,
1, ,-42, ,
1, ,-43, ,
1, ,-43, ,
1, ,-42, ,
1, ,-43, ,
1, ,-43, ,
1, ,-42, ,
1, ,-43, ,
1, ,-43, ,
1, ,-42, ,
2, ,-42, ,
1, ,-42, ,
2, ,-42, ,
2, ,-43, ,
1, ,-43, ,
1, ,-43, ,
0, ,-42, ,
1, ,-43, ,
1, ,-43, ,
0, ,-42, ,
2, ,-42, ,
2, ,-42, ,
1, ,-42, ,
1, ,-42, ,
1, ,-42, ,
1, ,-42, ,
1, ,-42, ,
1, ,-42, ,
1, ,-42, ,
1, ,-42, ,
1, ,-42, ,
2, ,-42, ,
1, ,-42, ,
1, ,-43, ,
2, ,-43, ,
0, ,-42, ,
0, ,-43, ,
0, ,-43, ,
0, ,-42, ,
0, ,-43, ,
0, ,-43, ,
0, ,-43, ,
0, ,-43, ,
1, ,-42, ,
1, ,-43, ,
1, ,-43, ,
1, ,-43, ,
1, ,-43, ,
0, ,-42, ,
1, ,-42, ,
2, ,-43, ,
1, ,-43, ,
1, ,-43, ,
0, ,-43, ,
0, ,-43, ,
0, ,-43, ,
0, ,-43, ,
-1, ,-42, ,
-1, ,-43, ,
-2, ,-43, ,
-1, ,-43, ,
-1, ,-42, ,
0, ,-42, ,
1, ,-42, ,
0, ,-42, ,
1, ,-42, ,
1, ,-42, ,
2, ,-42, ,
2, ,-42, ,
1, ,-42, ,
1, ,-42, ,
2, ,-42, ,
1, ,-42, ,
-1, ,-42, ,
1, ,-42, ,
0, ,-42, ,
2, ,-42, ,
1, ,-43, ,
0, ,-43, ,
2, ,-43, ,
0, ,-42, ,
1, ,-42, ,
2, ,-42, ,
1, ,-42, ,
2, ,-43, ,
3, ,-43, ,
2, ,-42, ,
2, ,-43, ,
1, ,-43, ,
1, ,-42, ,
2, ,-42, ,
2, ,-42, ,
1, ,-43, ,
0, ,-43, ,
0, ,-42, ,
0, ,-42, ,
0, ,-42, ,
0, ,-42, ,
0, ,-42, ,
-1, ,-42, ,
-1, ,-42, ,
0, ,-43, ,
0, ,-43, ,
1, ,-43, ,
1, ,-43, ,
1, ,-42, ,
2, ,-42, ,
1, ,-42, ,
2, ,-42, ,
1, ,-42, ,
2, ,-42, ,
2, ,-42, ,
1, ,-42, ,
0, ,-42, ,
0, ,-42, ,
-1, ,-42, ,
-1, ,-42, ,
1, ,-42, ,
-1, ,-42, ,
0, ,-43, ,
0, ,-43, ,
0, ,-42, ,
0, ,-43, ,
1, ,-43, ,
1, ,-43, ,
1, ,-42, ,
1, ,-42, ,
1, ,-42, ,
0, ,-42, ,
-1, ,-42, ,
0, ,-42, ,
-3, ,-42, ,
-3, ,-43, ,
-3, ,-43, ,
-5, ,-42, ,
-5, ,-42, ,
-6, ,-42, ,
-7, ,-42, ,
-7, ,-43, ,
-8, ,-43, ,
-8, ,-43, ,
-7, ,-43, ,
-7, ,-43, ,
-7, ,-43, ,
-9, ,-42, ,
-9, ,-42, ,
-9, ,-43, ,
-11, ,-43, ,
-12, ,-43, ,
-14, ,-42, ,
-16, ,-42, ,
-17, ,-43, ,
-20, ,-43, ,
-22, ,-42, ,
-25, ,-42, ,
-26, ,-42, ,
-28, ,-42, ,
-30, ,-42, ,
-30, ,-42, ,
-30, ,-42, ,
-30, ,-42, ,
-28, ,-42, ,
-27, ,-42, ,
-25, ,-42, ,
-25, ,-42, ,
-25, ,-42, ,
-25, ,-42, ,
-25, ,-42, ,
-26, ,-42, ,
-28, ,-42, ,
-29, ,-42, ,
-30, ,-42, ,
-31, ,-42, ,
-33, ,-43, ,
-34, ,-43, ,
-32, ,-42, ,
-33, ,-42, ,
-29, ,-42, ,
-27, ,-42, ,
-25, ,-42, ,
-22, ,-42, ,
-18, ,-42, ,
-16, ,-42, ,
-12, ,-42, ,
-11, ,-42, ,
-7, ,-42, ,
-6, ,-43, ,
-5, ,-43, ,
-5, ,-43, ,
-5, ,-43, ,
-5, ,-43, ,
-6, ,-43, ,
-7, ,-42, ,
-7, ,-43, ,
-6, ,-43, ,
-6, ,-42, ,
-5, ,-43, ,
-3, ,-43, ,
-4, ,-42, ,
-1, ,-42, ,
-1, ,-42, ,
1, ,-42, ,
1, ,-43, ,
1, ,-43, ,
2, ,-43, ,
0, ,-42, ,
-1, ,-42, ,
-1, ,-42, ,
-3, ,-42, ,
-4, ,-42, ,
-6, ,-42, ,
-8, ,-42, ,
-10, ,-42, ,
-11, ,-42, ,
-13, ,-42, ,
-13, ,-43, ,
-13, ,-43, ,
-13, ,-42, ,
-11, ,-42, ,
-12, ,-42, ,
-10, ,-42, ,
-11, ,-43, ,
-12, ,-43, ,
-11, ,-43, ,
-13, ,-42, ,
-15, ,-42, ,
-17, ,-42, ,
-20, ,-42, ,
-21, ,-42, ,
-25, ,-42, ,
-26, ,-42, ,
-29, ,-43, ,
-29, ,-43, ,
-29, ,-42, ,
-27, ,-43, ,
-27, ,-43, ,
-27, ,-43, ,
-25, ,-42, ,
-24, ,-42, ,
-24, ,-42, ,
-24, ,-42, ,
-24, ,-42, ,
-24, ,-42, ,
-25, ,-42, ,
-26, ,-43, ,
-26, ,-43, ,
-27, ,-42, ,
-27, ,-43, ,
-28, ,-43, ,
-28, ,-42, ,
-28, ,-43, ,
-30, ,-43, ,
-30, ,-43, ,
-31, ,-43, ,
-33, ,-43, ,
-34, ,-43, ,
-35, ,-42, ,
-35, ,-42, ,
-35, ,-42, ,
-35, ,-42, ,
-35, ,-42, ,
-35, ,-42, ,
-35, ,-42, ,
-35, ,-42, ,
-35, ,-42, ,
-35, ,-42, ,
-34, ,-43, ,
-35, ,-43, ,
-35, ,-43, ,
-35, ,-42, ,
-36, ,-42, ,
-37, ,-42, ,
-37, ,-42, ,
-36, ,-42, ,
-35, ,-42, ,
-35, ,-42, ,
-32, ,-43, ,
-29, ,-43, ,
-29, ,-42, ,
-27, ,-42, ,
-27, ,-42, ,
-26, ,-42, ,
-26, ,-42, ,
-26, ,-42, ,
-26, ,-42, ,
-28, ,-42, ,
-29, ,-42, ,
-30, ,-42, ,
-32, ,-42, ,
-31, ,-42, ,
-32, ,-42, ,
-32, ,-42, ,
-31, ,-42, ,
-29, ,-42, ,
-30, ,-42, ,
-27, ,-42, ,
-27, ,-42, ,
-25, ,-42, ,
-24, ,-42, ,
-25, ,-42, ,
-24, ,-42, ,
-24, ,-42, ,
-24, ,-42, ,
-23, ,-42, ,
-24, ,-42, ,
-22, ,-43, ,
-22, ,-43, ,
-20, ,-42, ,
-19, ,-42, ,
-17, ,-42, ,
-19, ,-42, ,
-15, ,-42, ,
-15, ,-42, ,
-15, ,-42, ,
-14, ,-42, ,
-14, ,-42, ,
-14, ,-42, ,
-12, ,-43, ,
-12, ,-43, ,
-11, ,-43, ,
-11, ,-42, ,
-10, ,-42, ,
-9, ,-42, ,
-10, ,-42, ,
-8, ,-43, ,
-9, ,-43, ,
-9, ,-42, ,
-9, ,-43, ,
-9, ,-43, ,
-9, ,-42, ,
-9, ,-42, ,
-9, ,-42, ,
-8, ,-42, ,
-6, ,-42, ,
-6, ,-42, ,
-5, ,-42, ,
-5, ,-42, ,
0, ,-42, ,
1, ,-42, ,
3, ,-42, ,
4, ,-42, ,
8, ,-42, ,
8, ,-42, ,
11, ,-43, ,
10, ,-43, ,
12, ,-42, ,
15, ,-43, ,
15, ,-43, ,
17, ,-43, ,
20, ,-43, ,
20, ,-42, ,
21, ,-42, ,
22, ,-42, ,
23, ,-42, ,
23, ,-42, ,
22, ,-42, ,
22, ,-42, ,
20, ,-42, ,
19, ,-42, ,
19, ,-43, ,
16, ,-43, ,
13, ,-42, ,
12, ,-43, ,
10, ,-43, ,
8, ,-43, ,
4, ,-42, ,
2, ,-42, ,
0, ,-43, ,
-3, ,-43, ,
-6, ,-42, ,
-8, ,-42, ,
-11, ,-42, ,
-12, ,-42, ,
-15, ,-42, ,
-18, ,-42, ,
-17, ,-42, ,
-19, ,-42, ,
-21, ,-43, ,
-21, ,-43, ,
-22, ,-43, ,
-23, ,-43, ,
-23, ,-43, ,
-24, ,-43, ,
-25, ,-43, ,
-26, ,-42, ,
-26, ,-42, ,
-26, ,-42, ,
-28, ,-42, ,
-29, ,-42, ,
-31, ,-42, ,
-32, ,-42, ,
-33, ,-42, ,
-33, ,-42, ,
-34, ,-42, ,
-34, ,-42, ,
-35, ,-42, ,
-34, ,-42, ,
-34, ,-43, ,
-34, ,-43, ,
-34, ,-43, ,
-34, ,-43, ,
-33, ,-42, ,
-33, ,-42, ,
-33, ,-42, ,
-33, ,-42, ,
-32, ,-42, ,
-33, ,-42, ,
-31, ,-42, ,
-31, ,-42, ,
-30, ,-42, ,
-28, ,-43, ,
-27, ,-43, ,
-26, ,-43, ,
-23, ,-42, ,
-22, ,-42, ,
-19, ,-42, ,
-20, ,-42, ,
-15, ,-42, ,
-14, ,-42, ,
-14, ,-42, ,
-13, ,-42, ,
-12, ,-42, ,
-10, ,-42, ,
-9, ,-42, ,
-9, ,-42, ,
-7, ,-42, ,
-6, ,-43, ,
-4, ,-43, ,
-2, ,-43, ,
0, ,-42, ,
0, ,-42, ,
0, ,-43, ,
1, ,-43, ,
2, ,-42, ,
3, ,-42, ,
3, ,-42, ,
3, ,-42, ,
5, ,-42, ,
5, ,-42, ,
6, ,-43, ,
6, ,-43, ,
7, ,-42, ,
8, ,-42, ,
8, ,-42, ,
8, ,-42, ,
8, ,-42, ,
8, ,-42, ,
7, ,-42, ,
5, ,-42, ,
4, ,-42, ,
4, ,-42, ,
2, ,-42, ,
2, ,-42, ,
0, ,-42, ,
0, ,-42, ,
0, ,-43, ,
-1, ,-43, ,
-4, ,-42, ,
-3, ,-42, ,
-5, ,-42, ,
-6, ,-42, ,
-7, ,-42, ,
-7, ,-42, ,
-7, ,-43, ,
-9, ,-43, ,
-10, ,-42, ,
-10, ,-43, ,
-10, ,-43, ,
-10, ,-43, ,
-10, ,-42, ,
-10, ,-42, ,
-10, ,-43, ,
-10, ,-43, ,
-10, ,-42, ,
-10, ,-43, ,
-10, ,-43, ,
-9, ,-43, ,
-12, ,-43, ,
-12, ,-43, ,
-13, ,-43, ,
-15, ,-42, ,
-16, ,-42, ,
-18, ,-42, ,
-19, ,-42, ,
-19, ,-43, ,
-20, ,-43, ,
-22, ,-43, ,
-22, ,-43, ,
-23, ,-43, ,
-24, ,-42, ,
-26, ,-43, ,
-26, ,-43, ,
-28, ,-43, ,
-28, ,-43, ,
-28, ,-43, ,
-28, ,-43, ,
-29, ,-42, ,
-28, ,-42, ,
-28, ,-42, ,
-28, ,-42, ,
-27, ,-42, ,
-26, ,-42, ,
-26, ,-42, ,
-25, ,-42, ,
-24, ,-42, ,
-24, ,-42, ,
-21, ,-42, ,
-20, ,-42, ,
-18, ,-42, ,
-16, ,-43, ,
-16, ,-43, ,
-14, ,-43, ,
-13, ,-43, ,
-12, ,-42, ,
-11, ,-42, ,
-11, ,-42, ,
-11, ,-43, ,
-10, ,-43, ,
-11, ,-42, ,
-11, ,-43, ,
-11, ,-43, ,
-10, ,-42, ,
-10, ,-42, ,
-10, ,-42, ,
-10, ,-42, ,
-10, ,-42, ,
-11, ,-42, ,
-11, ,-42, ,
-12, ,-42, ,
-12, ,-42, ,
-11, ,-42, ,
-13, ,-42, ,
-13, ,-42, ,
-12, ,-42, ,
-14, ,-42, ,
-14, ,-43, ,
-14, ,-43, ,
-15, ,-42, ,
-15, ,-43, ,
-15, ,-43, ,
-15, ,-43, ,
-15, ,-42, ,
-14, ,-42, ,
-14, ,-42, ,
-15, ,-42, ,
-14, ,-42, ,
-14, ,-42, ,
-16, ,-42, ,
-15, ,-42, ,
-14, ,-42, ,
-17, ,-42, ,
-17, ,-42, ,
-16, ,-42, ,
-16, ,-42, ,
-15, ,-42, ,
-15, ,-42, ,
-15, ,-42, ,
-15, ,-43, ,
-15, ,-43, ,
-15, ,-43, ,
-15, ,-42, ,
-15, ,-43, ,
-15, ,-43, ,
-15, ,-42, ,
-14, ,-42, ,
-14, ,-42, ,
-14, ,-42, ,
-13, ,-43, ,
-14, ,-43, ,
-11, ,-42, ,
-11, ,-42, ,
-10, ,-42, ,
-9, ,-42, ,
-7, ,-42, ,
-7, ,-42, ,
-5, ,-42, ,
-5, ,-42, ,
-4, ,-43, ,
-2, ,-43, ,
-2, ,-42, ,
-2, ,-42, ,
0, ,-42, ,
-1, ,-42, ,
1, ,-42, ,
2, ,-42, ,
3, ,-42, ,
3, ,-43, ,
3, ,-43, ,
4, ,-43, ,
4, ,-43, ,
3, ,-43, ,
4, ,-43, ,
2, ,-42, ,
3, ,-42, ,
2, ,-42, ,
2, ,-42, ,
3, ,-43, ,
2, ,-43, ,
0, ,-42, ,
0, ,-43, ,
-1, ,-43, ,
-2, ,-42, ,
-1, ,-42, ,
-1, ,-42, ,
-1, ,-42, ,
-2, ,-42, ,
-3, ,-42, ,
-3, ,-42, ,
-4, ,-42, ,
-4, ,-42, ,
-4, ,-42, ,
-5, ,-42, ,
-5, ,-43, ,
-6, ,-43, ,
-7, ,-42, ,
-7, ,-43, ,
-9, ,-43, ,
-8, ,-42, ,
-8, ,-42, ,
-8, ,-42, ,
-8, ,-42, ,
-10, ,-43, ,
-11, ,-43, ,
-11, ,-43, ,
-12, ,-42, ,
-13, ,-43, ,
-13, ,-43, ,
-14, ,-42, ,
-15, ,-42, ,
-15, ,-42, ,
-16, ,-42, ,
-15, ,-42, ,
-16, ,-42, ,
-16, ,-42, ,
-15, ,-42, ,
-15, ,-42, ,
-15, ,-42, ,
-14, ,-42, ,
-14, ,-42, ,
-13, ,-42, ,
-14, ,-42, ,
-11, ,-42, ,
-11, ,-42, ,
-11, ,-42, ,
-10, ,-42, ,
-7, ,-43, ,
-8, ,-43, ,
-5, ,-43, ,
-5, ,-42, ,
-5, ,-42, ,
-3, ,-43, ,
-2, ,-43, ,
-2, ,-43, ,
-1, ,-43, ,
-2, ,-43, ,
-1, ,-43, ,
-2, ,-43, ,
-2, ,-42, ,
-2, ,-42, ,
-3, ,-42, ,
-2, ,-43, ,
-3, ,-43, ,
-4, ,-42, ,
-3, ,-42, ,
-4, ,-42, ,
-4, ,-42, ,
-4, ,-43, ,
-3, ,-43, ,
-5, ,-43, ,
-4, ,-43, ,
-4, ,-43, ,
-5, ,-43, ,
-5, ,-42, ,
-5, ,-43, ,
-5, ,-43, ,
-5, ,-42, ,
-4, ,-43, ,
-5, ,-43, ,
-5, ,-42, ,
-4, ,-43, ,
-3, ,-43, ,
-3, ,-42, ,
-3, ,-42, ,
-3, ,-42, ,
-3, ,-42, ,
-2, ,-43, ,
-2, ,-43, ,
-1, ,-43, ,
-3, ,-42, ,
-3, ,-43, ,
-3, ,-43, ,
-4, ,-42, ,
-3, ,-42, ,
-3, ,-42, ,
-4, ,-42, ,
-4, ,-42, ,
-4, ,-42, ,
-5, ,-42, ,
-4, ,-42, ,
-5, ,-42, ,
-5, ,-42, ,
-6, ,-42, ,
-6, ,-42, ,
-6, ,-42, ,
-7, ,-42, ,
-7, ,-42, ,
-6, ,-42, ,
-9, ,-42, ,
-7, ,-43, ,
-7, ,-43, ,
-7, ,-42, ,
-6, ,-42, ,
-7, ,-42, ,
-7, ,-42, ,
-6, ,-42, ,
-5, ,-42, ,
-5, ,-42, ,
-5, ,-42, ,
-5, ,-42, ,
-3, ,-43, ,
-3, ,-43, ,
-2, ,-42, ,
-1, ,-42, ,
-2, ,-42, ,
-1, ,-42, ,
0, ,-42, ,
0, ,-42, ,
1, ,-43, ,
1, ,-43, ,
3, ,-43, ,
4, ,-43, ,
4, ,-42, ,
5, ,-42, ,
4, ,-42, ,
4, ,-42, ,
4, ,-42, ,
3, ,-42, ,
4, ,-43, ,
4, ,-43, ,
3, ,-42, ,
3, ,-42, ,
2, ,-42, ,
1, ,-42, ,
2, ,-42, ,
2, ,-42, ,
1, ,-42, ,
1, ,-43, ,
1, ,-43, ,
2, ,-43, ,
0, ,-42, ,
0, ,-42, ,
0, ,-43, ,
-1, ,-43, ,
-1, ,-43, ,
0, ,-43, ,
-2, ,-42, ,
-2, ,-43, ,
-1, ,-43, ,
-1, ,-42, ,
-1, ,-42, ,
-3, ,-42, ,
-3, ,-43, ,
-1, ,-43, ,
-1, ,-42, ,
0, ,-42, ,
0, ,-43, ,
0, ,-43, ,
0, ,-43, ,
0, ,-42, ,
1, ,-42, ,
1, ,-43, ,
0, ,-43, ,
1, ,-43, ,
2, ,-43, ,
1, ,-42, ,
2, ,-43, ,
1, ,-43, ,
1, ,-42, ,
3, ,-43, ,
3, ,-43, ,
4, ,-43, ,
4, ,-43, ,
4, ,-42, ,
4, ,-43, ,
3, ,-43, ,
4, ,-42, ,
5, ,-42, ,
4, ,-42, ,
4, ,-43, ,
5, ,-43, ,
4, ,-42, ,
4, ,-43, ,
5, ,-43, ,
5, ,-42, ,
4, ,-43, ,
4, ,-43, ,
3, ,-43, ,
4, ,-43, ,
3, ,-43, ,
3, ,-43, ,
3, ,-42, ,
2, ,-42, ,
2, ,-42, ,
1, ,-42, ,
2, ,-42, ,
1, ,-42, ,
2, ,-42, ,
2, ,-43, ,
1, ,-43, ,
2, ,-42, ,
2, ,-42, ,
2, ,-42, ,
2, ,-42, ,
2, ,-43, ,
1, ,-43, ,
2, ,-43, ,
1, ,-42, ,
1, ,-42, ,
1, ,-42, ,
1, ,-42, ,
2, ,-42, ,
1, ,-42, ,
1, ,-42, ,
1, ,-43, ,
0, ,-43, ,
0, ,-42, ,
1, ,-42, ,
0, ,-42, ,
0, ,-42, ,
0, ,-43, ,
-1, ,-43, ,
-1, ,-43, ,
-2, ,-42, ,
-1, ,-43, ,
-2, ,-43, ,
-2, ,-43, ,
-2, ,-43, ,
-2, ,-43, ,
-4, ,-42, ,
-3, ,-43, ,
-4, ,-43, ,
-5, ,-42, ,
-4, ,-42, ,
-4, ,-42, ,
-4, ,-42, ,
-4, ,-42, ,
-4, ,-42, ,
-4, ,-43, ,
-5, ,-43, ,
-5, ,-42, ,
-4, ,-42, ,
-5, ,-42, ,
-4, ,-43, ,
-5, ,-43, ,
-5, ,-42, ,
-5, ,-42, ,
-6, ,-42, ,
-7, ,-42, ,
-6, ,-42, ,
-5, ,-42, ,
-5, ,-42, ,
-4, ,-43, ,
-5, ,-43, ,
-5, ,-43, ,
-5, ,-42, ,
-5, ,-43, ,
-5, ,-43, ,
-5, ,-43, ,
-4, ,-43, ,
-5, ,-42, ,
-5, ,-42, ,
-4, ,-43, ,
-5, ,-43, ,
-5, ,-42, ,
-5, ,-42, ,
-5, ,-42, ,
-5, ,-42, ,
-5, ,-43, ,
-4, ,-43, ,
-4, ,-43, ,
-4, ,-42, ,
-4, ,-42, ,
-4, ,-42, ,
-5, ,-42, ,
-5, ,-42, ,
-6, ,-42, ,
-6, ,-42, ,
-7, ,-43, ,
-7, ,-43, ,
-7, ,-42, ,
-8, ,-43, ,
-8, ,-43, ,
-8, ,-43, ,
-8, ,-43, ,
-8, ,-43, ,
-8, ,-43, ,
-9, ,-42, ,
-9, ,-42, ,
-9, ,-42, ,
-10, ,-42, ,
-10, ,-42, ,
-9, ,-42, ,
-10, ,-42, ,
-10, ,-42, ,
-10, ,-42, ,
-9, ,-43, ,
-9, ,-43, ,
-8, ,-43, ,
-8, ,-43, ,
-7, ,-43, ,
-6, ,-43, ,
-6, ,-43, ,
-5, ,-42, ,
-5, ,-42, ,
-4, ,-42, ,
-4, ,-42, ,
-3, ,-42, ,
-1, ,-42, ,
-2, ,-42, ,
-1, ,-42, ,
-1, ,-42, ,
0, ,-42, ,
1, ,-43, ,
1, ,-43, ,
1, ,-43, ,
1, ,-42, ,
2, ,-42, ,
2, ,-42, ,
1, ,-42, ,
0, ,-42, ,
0, ,-42, ,
0, ,-42, ,
0, ,-42, ,
-1, ,-42, ,
-1, ,-42, ,
-2, ,-43, ,
-2, ,-43, ,
-3, ,-42, ,
-4, ,-43, ,
-4, ,-43, ,
-4, ,-43, ,
-3, ,-42, ,
-3, ,-42, ,
-3, ,-43, ,
-4, ,-43, ,
-4, ,-43, ,
-5, ,-43, ,
-5, ,-42, ,
-5, ,-43, ,
-5, ,-43, ,
-5, ,-42, ,
-5, ,-42, ,
-4, ,-42, ,
-5, ,-42, ,
-5, ,-42, ,
-5, ,-42, ,
-5, ,-42, ,
-5, ,-42, ,
-6, ,-42, ,
-6, ,-42, ,
-7, ,-42, ,
-6, ,-42, ,
-6, ,-43, ,
-7, ,-43, ,
-6, ,-43, ,
-6, ,-42, ,
-7, ,-42, ,
-5, ,-43, ,
-5, ,-43, ,
-5, ,-42, ,
-4, ,-42, ,
-4, ,-42, ,
-3, ,-43, ,
-2, ,-43, ,
-2, ,-42, ,
-1, ,-43, ,
-2, ,-43, ,
1, ,-43, ,
1, ,-43, ,
2, ,-42, ,
2, ,-43, ,
5, ,-43, ,
4, ,-43, ,
6, ,-43, ,
5, ,-43, ,
6, ,-42, ,
7, ,-42, ,
7, ,-42, ,
7, ,-42, ,
8, ,-42, ,
7, ,-42, ,
7, ,-42, ,
6, ,-42, ,
6, ,-43, ,
6, ,-43, ,
5, ,-42, ,
5, ,-43, ,
3, ,-43, ,
3, ,-42, ,
3, ,-42, ,
2, ,-42, ,
0, ,-43, ,
0, ,-43, ,
0, ,-42, ,
0, ,-42, ,
-1, ,-42, ,
-2, ,-42, ,
-3, ,-42, ,
-3, ,-42, ,
-3, ,-42, ,
-2, ,-43, ,
-3, ,-43, ,
-2, ,-43, ,
-2, ,-43, ,
-3, ,-43, ,
-3, ,-43, ,
-4, ,-43, ,
-2, ,-42, ,
-1, ,-42, ,
-1, ,-42, ,
-1, ,-43, ,
-2, ,-43, ,
-1, ,-42, ,
0, ,-42, ,
0, ,-42, ,
0, ,-43, ,
0, ,-43, ,
0, ,-42, ,
0, ,-43, ,
2, ,-43, ,
1, ,-42, ,
1, ,-42, ,
0, ,-42, ,
0, ,-42, ,
0, ,-43, ,
0, ,-43, ,
0, ,-43, ,
0, ,-42, ,
0, ,-42, ,
0, ,-42, ,
-1, ,-42, ,
-1, ,-42, ,
-1, ,-42, ,
-2, ,-42, ,
-2, ,-42, ,
-1, ,-42, ,
-2, ,-42, ,
-1, ,-42, ,
-2, ,-42, ,
-2, ,-42, ,
-2, ,-42, ,
-2, ,-42, ,
-1, ,-42, ,
-2, ,-43, ,
-3, ,-43, ,
-2, ,-43, ,
-3, ,-42, ,
-3, ,-42, ,
-1, ,-42, ,
-2, ,-42, ,
-2, ,-43, ,
-1, ,-43, ,
-2, ,-42, ,
-1, ,-43, ,
-2, ,-43, ,
-2, ,-42, ,
-1, ,-42, ,
-2, ,-42, ,
0, ,-42, ,
0, ,-42, ,
-1, ,-42, ,
-1, ,-42, ,
-4, ,-42, ,
-2, ,-43, ,
-2, ,-43, ,
-2, ,-42, ,
-2, ,-42, ,
-2, ,-42, ,
-2, ,-42, ,
-2, ,-43, ,
-1, ,-43, ,
-3, ,-42, ,
-2, ,-42, ,
-2, ,-42, ,
-2, ,-42, ,
-1, ,-43, ,
-2, ,-43, ,
-1, ,-43, ,
-2, ,-42, ,
-1, ,-42, ,
-1, ,-42, ,
-1, ,-42, ,
-1, ,-43, ,
0, ,-43, ,
-1, ,-42, ,
-1, ,-42, ,
-1, ,-42, ,
-1, ,-42, ,
-1, ,-42, ,
0, ,-43, ,
0, ,-43, ,
0, ,-42, ,
0, ,-42, ,
0, ,-42, ,
-1, ,-42, ,
-2, ,-42, ,
0, ,-42, ,
0, ,-42, ,
0, ,-43, ,
0, ,-43, ,
-2, ,-43, ,
0, ,-43, ,
-1, ,-43, ,
-2, ,-42, ,
0, ,-43, ,
-1, ,-43, ,
-1, ,-43, ,
-1, ,-43, ,
-1, ,-43, ,
-1, ,-43, ,
-1, ,-42, ,
0, ,-42, ,
0, ,-43, ,
0, ,-43, ,
0, ,-43, ,
-1, ,-43, ,
-1, ,-42, ,
-1, ,-42, ,
-1, ,-42, ,
-2, ,-42, ,
-1, ,-42, ,
-1, ,-42, ,
0, ,-42, ,
0, ,-43, ,
0, ,-43, ,
0, ,-43, ,
-1, ,-42, ,
-1, ,-42, ,
0, ,-43, ,
-2, ,-43, ,
1, ,-43, ,
0, ,-42, ,
0, ,-42, ,
1, ,-42, ,
1, ,-42, ,
1, ,-42, ,
2, ,-42, ,
2, ,-42, ,
2, ,-42, ,
3, ,-43, ,
2, ,-43, ,
2, ,-43, ,
1, ,-42, ,
1, ,-42, ,
2, ,-42, ,
2, ,-42, ,
2, ,-43, ,
2, ,-43, ,
0, ,-42, ,
2, ,-43, ,
0, ,-43, ,
0, ,-42, ,
0, ,-42, ,
0, ,-42, ,
0, ,-42, ,
0, ,-42, ,
0, ,-42, ,
0, ,-43, ,
0, ,-43, ,
0, ,-43, ,
0, ,-43, ,
0, ,-42, ,
-1, ,-42, ,
-1, ,-42, ,
-1, ,-42, ,
0, ,-42, ,
0, ,-42, ,
-2, ,-42, ,
0, ,-43, ,
0, ,-43, ,
1, ,-43, ,
2, ,-42, ,
1, ,-42, ,
2, ,-42, ,
1, ,-42, ,
1, ,-42, ,
2, ,-42, ,
0, ,-42, ,
2, ,-43, ,
2, ,-43, ,
2, ,-42, ,
1, ,-42, ,
1, ,-42, ,
1, ,-43, ,
1, ,-43, ,
2, ,-42, ,
2, ,-42, ,
2, ,-43, ,
1, ,-43, ,
1, ,-43, ,
1, ,-42, ,
1, ,-42, ,
2, ,-42, ,
1, ,-42, ,
1, ,-43, ,
1, ,-43, ,
1, ,-42, ,
1, ,-42, ,
1, ,-42, ,
0, ,-42, ,
1, ,-42, ,
0, ,-42, ,
0, ,-42, ,
1, ,-42, ,
0, ,-42, ,
0, ,-43, ,
-1, ,-43, ,
1, ,-43, ,
