raw_data/100% Glycerol, Impulsion 2Hz, Sonde 5MHz, Rampe 0.7Hz/temp0000250.CSV

Format,1.0B,
Memory Length,10000,Memory Length,10000,
IntpDistance,0,IntpDistance,0,
Trigger Address,159,Trigger Address,159,
Trigger Level,2.720E-01,Trigger Level,2.720E-01,
Source,CH1,Source,CH2,
Vertical Units,V,Vertical Units,V,
Vertical Units Div,0,Vertical Units Div,0,
Vertical Units Extend Div,16,Vertical Units Extend Div,16,
Label,,Label,,
Probe Type,0,Probe Type,0,
Probe Ratio,1.000e+00,Probe Ratio,1.000e+00,
Vertical Scale,2.000e-01,Vertical Scale,2.000e+00,
Vertical Position,0.000e+00,Vertical Position,0.000e+00,
Horizontal Units,S,Horizontal Units,S,
Horizontal Scale,5.000E-06,Horizontal Scale,5.000E-06,
Horizontal Position,2.420E-05,Horizontal Position,2.420E-05,
Horizontal Mode,Main,Horizontal Mode,Main,
SincET Mode,Real Time,SincET Mode,Real Time,
Sampling Period,5.000e-09,Sampling Period,5.000e-09,
Horizontal Old Scale,5.000E-06,Horizontal Old Scale,5.000E-06,
Horizontal Old Position,2.420E-05,Horizontal Old Position,2.420E-05,
Firmware,V1.32,Firmware,V1.32,
Mode,Fast,Mode,Fast,
Waveform Data,,Waveform Data,,
1, ,3, ,
1, ,4, ,
1, ,4, ,
1, ,4, ,
1, ,3, ,
0, ,3, ,
0, ,3, ,
0, ,3, ,
1, ,3, ,
0, ,3, ,
0, ,3, ,
1, ,3, ,
2, ,3, ,
1, ,3, ,
1, ,3, ,
1, ,3, ,
1, ,3, ,
0, ,3, ,
2, ,3, ,
0, ,4, ,
0, ,4, ,
1, ,3, ,
1, ,3, ,
1, ,4, ,
1, ,4, ,
0, ,3, ,
1, ,3, ,
1, ,3, ,
1, ,3, ,
1, ,3, ,
1, ,3, ,
1, ,3, ,
0, ,4, ,
1, ,3, ,
1, ,3, ,
0, ,3, ,
1, ,3, ,
1, ,3, ,
1, ,4, ,
1, ,4, ,
1, ,4, ,
1, ,3, ,
1, ,3, ,
1, ,3, ,
1, ,3, ,
1, ,3, ,
0, ,3, ,
2, ,3, ,
0, ,3, ,
1, ,3, ,
2, ,3, ,
0, ,3, ,
1, ,3, ,
1, ,3, ,
1, ,3, ,
1, ,3, ,
1, ,3, ,
0, ,3, ,
1, ,3, ,
0, ,3, ,
0, ,3, ,
1, ,4, ,
1, ,4, ,
1, ,4, ,
0, ,4, ,
1, ,3, ,
2, ,3, ,
1, ,3, ,
1, ,3, ,
0, ,3, ,
0, ,4, ,
1, ,4, ,
0, ,4, ,
1, ,3, ,
1, ,3, ,
1, ,3, ,
1, ,3, ,
1, ,3, ,
1, ,3, ,
1, ,3, ,
1, ,3, ,
1, ,4, ,
1, ,3, ,
1, ,3, ,
2, ,3, ,
1, ,3, ,
0, ,3, ,
0, ,3, ,
0, ,3, ,
0, ,3, ,
2, ,3, ,
1, ,3, ,
1, ,3, ,
1, ,3, ,
0, ,3, ,
1, ,3, ,
0, ,3, ,
1, ,3, ,
1, ,3, ,
0, ,4, ,
1, ,4, ,
0, ,3, ,
0, ,3, ,
1, ,3, ,
0, ,3, ,
1, ,4, ,
1, ,3, ,
1, ,3, ,
2, ,3, ,
1, ,4, ,
1, ,3, ,
1, ,3, ,
1, ,3, ,
1, ,4, ,
2, ,4, ,
1, ,4, ,
1, ,3, ,
2, ,3, ,
1, ,4, ,
2, ,3, ,
0, ,3, ,
0, ,4, ,
2, ,3, ,
0, ,3, ,
2, ,3, ,
1, ,3, ,
1, ,3, ,
1, ,3, ,
1, ,3, ,
0, ,3, ,
0, ,3, ,
1, ,3, ,
2, ,3, ,
2, ,3, ,
1, ,3, ,
1, ,3, ,
1, ,3, ,
1, ,3, ,
2, ,3, ,
1, ,3, ,
1, ,3, ,
0, ,3, ,
0, ,3, ,
1, ,3, ,
0, ,3, ,
1, ,3, ,
1, ,3, ,
1, ,3, ,
1, ,3, ,
1, ,3, ,
0, ,4, ,
1, ,4, ,
0, ,4, ,
0, ,3, ,
0, ,3, ,
0, ,3, ,
1, ,3, ,
2, ,3, ,
1, ,3, ,
2, ,3, ,
0, ,3, ,
0, ,3, ,
1, ,3, ,
0, ,4, ,
6, ,3, ,
0, ,3, ,
-3, ,3, ,
1, ,3, ,
27, ,4, ,
125, ,4, ,
125, ,4, ,
125, ,4, ,
125, ,4, ,
116, ,3, ,
14, ,3, ,
-14, ,3, ,
79, ,3, ,
125, ,3, ,
125, ,3, ,
125, ,4, ,
125, ,3, ,
125, ,3, ,
125, ,3, ,
125, ,3, ,
125, ,4, ,
125, ,4, ,
125, ,4, ,
125, ,4, ,
125, ,3, ,
125, ,3, ,
125, ,3, ,
125, ,3, ,
125, ,3, ,
125, ,3, ,
125, ,3, ,
125, ,3, ,
125, ,3, ,
125, ,3, ,
125, ,4, ,
125, ,3, ,
125, ,3, ,
125, ,3, ,
124, ,4, ,
124, ,4, ,
120, ,3, ,
110, ,3, ,
106, ,4, ,
102, ,3, ,
96, ,3, ,
88, ,4, ,
86, ,4, ,
81, ,4, ,
78, ,3, ,
71, ,3, ,
66, ,3, ,
64, ,3, ,
60, ,3, ,
55, ,3, ,
54, ,3, ,
51, ,3, ,
48, ,3, ,
44, ,4, ,
43, ,3, ,
42, ,3, ,
36, ,3, ,
34, ,4, ,
34, ,4, ,
30, ,4, ,
30, ,3, ,
27, ,3, ,
24, ,4, ,
24, ,3, ,
23, ,3, ,
19, ,3, ,
18, ,4, ,
17, ,3, ,
16, ,3, ,
15, ,3, ,
12, ,3, ,
12, ,3, ,
10, ,4, ,
9, ,4, ,
10, ,4, ,
8, ,4, ,
8, ,4, ,
7, ,3, ,
5, ,3, ,
5, ,3, ,
4, ,4, ,
3, ,3, ,
3, ,3, ,
3, ,3, ,
3, ,3, ,
2, ,3, ,
1, ,3, ,
2, ,3, ,
0, ,3, ,
0, ,3, ,
0, ,3, ,
-1, ,4, ,
-1, ,3, ,
-1, ,3, ,
-2, ,3, ,
-1, ,3, ,
-2, ,3, ,
-2, ,4, ,
-2, ,4, ,
-2, ,3, ,
-2, ,3, ,
-2, ,3, ,
-3, ,4, ,
-3, ,4, ,
-3, ,4, ,
-3, ,3, ,
-3, ,3, ,
-3, ,3, ,
-3, ,3, ,
-3, ,3, ,
-4, ,4, ,
-3, ,3, ,
-3, ,3, ,
-3, ,3, ,
-3, ,3, ,
-4, ,3, ,
-4, ,3, ,
-4, ,4, ,
-4, ,4, ,
-3, ,4, ,
-4, ,4, ,
-4, ,4, ,
-3, ,4, ,
-4, ,4, ,
-4, ,4, ,
-3, ,3, ,
-4, ,3, ,
-3, ,3, ,
-4, ,4, ,
-3, ,4, ,
-3, ,4, ,
-3, ,4, ,
-3, ,3, ,
-3, ,3, ,
-3, ,4, ,
-3, ,4, ,
-3, ,4, ,
-3, ,3, ,
-3, ,3, ,
-3, ,4, ,
-3, ,3, ,
-2, ,3, ,
-2, ,3, ,
-2, ,4, ,
-2, ,3, ,
-3, ,3, ,
-3, ,3, ,
-4, ,3, ,
-2, ,3, ,
-2, ,4, ,
-2, ,3, ,
-2, ,3, ,
-3, ,3, ,
-2, ,3, ,
-2, ,3, ,
-2, ,3, ,
-1, ,3, ,
-1, ,3, ,
-1, ,3, ,
-1, ,3, ,
-2, ,4, ,
-3, ,3, ,
0, ,3, ,
-1, ,3, ,
-1, ,3, ,
-1, ,4, ,
-1, ,4, ,
-1, ,4, ,
-1, ,4, ,
0, ,3, ,
0, ,3, ,
-1, ,4, ,
-1, ,3, ,
-1, ,3, ,
-1, ,3, ,
-1, ,3, ,
0, ,3, ,
0, ,3, ,
-1, ,3, ,
0, ,3, ,
0, ,3, ,
0, ,4, ,
0, ,4, ,
0, ,4, ,
0, ,4, ,
0, ,3, ,
0, ,3, ,
0, ,3, ,
0, ,3, ,
0, ,4, ,
-1, ,4, ,
0, ,3, ,
0, ,3, ,
0, ,4, ,
1, ,3, ,
0, ,3, ,
0, ,3, ,
0, ,4, ,
0, ,3, ,
1, ,3, ,
1, ,3, ,
0, ,3, ,
0, ,3, ,
0, ,3, ,
1, ,4, ,
2, ,4, ,
0, ,4, ,
0, ,4, ,
1, ,4, ,
0, ,4, ,
0, ,3, ,
-1, ,3, ,
-1, ,3, ,
-15, ,4, ,
-50, ,4, ,
-124, ,4, ,
-126, ,4, ,
-126, ,3, ,
-126, ,3, ,
-126, ,3, ,
-126, ,3, ,
-126, ,3, ,
-126, ,4, ,
-126, ,4, ,
-126, ,4, ,
-126, ,4, ,
-126, ,4, ,
-126, ,4, ,
-126, ,4, ,
-126, ,3, ,
-126, ,3, ,
-126, ,4, ,
-126, ,4, ,
-126, ,3, ,
-126, ,3, ,
-126, ,3, ,
-126, ,3, ,
-126, ,3, ,
-126, ,3, ,
-126, ,4, ,
-119, ,4, ,
125, ,4, ,
125, ,3, ,
125, ,3, ,
125, ,3, ,
125, ,4, ,
125, ,4, ,
125, ,4, ,
125, ,4, ,
125, ,3, ,
125, ,3, ,
125, ,4, ,
125, ,3, ,
125, ,3, ,
125, ,3, ,
125, ,4, ,
124, ,3, ,
110, ,3, ,
-44, ,4, ,
-126, ,4, ,
-126, ,4, ,
-126, ,3, ,
-126, ,3, ,
-126, ,3, ,
-126, ,3, ,
-126, ,4, ,
-126, ,4, ,
-120, ,3, ,
-112, ,3, ,
125, ,3, ,
125, ,3, ,
125, ,4, ,
125, ,4, ,
125, ,3, ,
125, ,3, ,
125, ,3, ,
125, ,3, ,
125, ,4, ,
125, ,4, ,
125, ,4, ,
125, ,4, ,
125, ,4, ,
125, ,4, ,
125, ,4, ,
125, ,3, ,
125, ,3, ,
125, ,3, ,
123, ,4, ,
119, ,4, ,
-17, ,4, ,
-109, ,3, ,
-126, ,3, ,
-126, ,3, ,
-126, ,3, ,
-126, ,3, ,
-126, ,3, ,
-125, ,3, ,
-78, ,4, ,
11, ,3, ,
80, ,3, ,
125, ,3, ,
125, ,4, ,
125, ,4, ,
125, ,3, ,
125, ,3, ,
125, ,3, ,
125, ,3, ,
125, ,3, ,
125, ,3, ,
125, ,4, ,
125, ,3, ,
125, ,3, ,
125, ,3, ,
124, ,3, ,
124, ,3, ,
120, ,3, ,
118, ,3, ,
110, ,3, ,
104, ,3, ,
102, ,3, ,
96, ,3, ,
90, ,4, ,
87, ,3, ,
83, ,3, ,
82, ,3, ,
73, ,4, ,
71, ,3, ,
69, ,3, ,
64, ,3, ,
59, ,3, ,
56, ,3, ,
53, ,3, ,
51, ,4, ,
47, ,4, ,
44, ,4, ,
43, ,3, ,
40, ,3, ,
36, ,3, ,
36, ,4, ,
35, ,4, ,
35, ,4, ,
30, ,3, ,
29, ,3, ,
27, ,3, ,
25, ,3, ,
21, ,4, ,
19, ,4, ,
12, ,4, ,
9, ,4, ,
-11, ,3, ,
-26, ,3, ,
-41, ,3, ,
-59, ,3, ,
-96, ,3, ,
-110, ,3, ,
-123, ,3, ,
-126, ,3, ,
-126, ,3, ,
-126, ,3, ,
-126, ,3, ,
-122, ,3, ,
-104, ,3, ,
-93, ,3, ,
-83, ,4, ,
-71, ,3, ,
-50, ,3, ,
-41, ,4, ,
-33, ,4, ,
-27, ,3, ,
-12, ,3, ,
-4, ,4, ,
1, ,4, ,
6, ,4, ,
15, ,3, ,
16, ,3, ,
22, ,3, ,
23, ,3, ,
28, ,3, ,
30, ,3, ,
30, ,3, ,
30, ,4, ,
31, ,4, ,
29, ,4, ,
30, ,4, ,
27, ,3, ,
23, ,3, ,
22, ,3, ,
19, ,3, ,
16, ,3, ,
10, ,4, ,
7, ,4, ,
7, ,4, ,
3, ,4, ,
3, ,3, ,
3, ,3, ,
5, ,3, ,
6, ,3, ,
14, ,3, ,
16, ,4, ,
20, ,4, ,
23, ,4, ,
29, ,4, ,
33, ,4, ,
35, ,4, ,
35, ,4, ,
39, ,4, ,
39, ,4, ,
39, ,3, ,
39, ,3, ,
40, ,4, ,
41, ,3, ,
39, ,3, ,
39, ,3, ,
39, ,3, ,
38, ,3, ,
38, ,4, ,
37, ,3, ,
36, ,3, ,
36, ,4, ,
35, ,3, ,
35, ,3, ,
34, ,3, ,
34, ,3, ,
32, ,3, ,
30, ,4, ,
29, ,4, ,
29, ,4, ,
26, ,4, ,
24, ,3, ,
22, ,3, ,
17, ,3, ,
11, ,3, ,
1, ,3, ,
-44, ,3, ,
-84, ,4, ,
-126, ,4, ,
-126, ,4, ,
-126, ,3, ,
-126, ,3, ,
-126, ,3, ,
-126, ,3, ,
-126, ,4, ,
-126, ,3, ,
-126, ,3, ,
-126, ,3, ,
-126, ,3, ,
-126, ,3, ,
-126, ,3, ,
-126, ,3, ,
-126, ,3, ,
-126, ,3, ,
-126, ,3, ,
-126, ,3, ,
-126, ,3, ,
-126, ,3, ,
-126, ,3, ,
-126, ,3, ,
-126, ,4, ,
-126, ,4, ,
-126, ,4, ,
-126, ,4, ,
-126, ,3, ,
-126, ,3, ,
-126, ,3, ,
-126, ,3, ,
-126, ,3, ,
-126, ,3, ,
-126, ,4, ,
-126, ,4, ,
-123, ,3, ,
-96, ,3, ,
-36, ,3, ,
26, ,4, ,
113, ,3, ,
125, ,3, ,
125, ,4, ,
125, ,4, ,
125, ,4, ,
125, ,3, ,
125, ,3, ,
125, ,3, ,
125, ,3, ,
125, ,4, ,
125, ,4, ,
125, ,4, ,
125, ,4, ,
125, ,4, ,
125, ,4, ,
124, ,4, ,
113, ,3, ,
103, ,3, ,
93, ,3, ,
85, ,3, ,
73, ,3, ,
68, ,3, ,
67, ,3, ,
67, ,3, ,
71, ,3, ,
75, ,4, ,
79, ,4, ,
82, ,4, ,
90, ,3, ,
94, ,3, ,
100, ,3, ,
100, ,3, ,
108, ,4, ,
112, ,3, ,
112, ,3, ,
115, ,3, ,
115, ,3, ,
113, ,3, ,
113, ,3, ,
110, ,3, ,
103, ,4, ,
99, ,4, ,
93, ,3, ,
86, ,3, ,
71, ,4, ,
62, ,4, ,
55, ,3, ,
44, ,3, ,
30, ,3, ,
25, ,3, ,
17, ,3, ,
13, ,3, ,
4, ,3, ,
-1, ,3, ,
0, ,3, ,
-3, ,3, ,
-3, ,3, ,
-2, ,3, ,
0, ,4, ,
2, ,3, ,
8, ,3, ,
11, ,4, ,
18, ,3, ,
21, ,3, ,
30, ,3, ,
35, ,3, ,
37, ,3, ,
44, ,3, ,
49, ,3, ,
48, ,4, ,
50, ,3, ,
49, ,3, ,
48, ,4, ,
48, ,3, ,
46, ,3, ,
45, ,3, ,
41, ,4, ,
39, ,3, ,
39, ,3, ,
36, ,3, ,
35, ,3, ,
36, ,3, ,
35, ,4, ,
35, ,3, ,
36, ,3, ,
35, ,3, ,
37, ,3, ,
37, ,3, ,
39, ,3, ,
39, ,3, ,
40, ,3, ,
42, ,3, ,
42, ,4, ,
43, ,4, ,
44, ,4, ,
42, ,4, ,
41, ,4, ,
42, ,4, ,
39, ,4, ,
38, ,3, ,
34, ,3, ,
29, ,3, ,
26, ,3, ,
20, ,3, ,
11, ,3, ,
5, ,3, ,
-1, ,3, ,
-8, ,3, ,
-23, ,3, ,
-30, ,4, ,
-35, ,4, ,
-45, ,4, ,
-59, ,3, ,
-64, ,3, ,
-71, ,3, ,
-75, ,4, ,
-85, ,3, ,
-91, ,3, ,
-94, ,3, ,
-95, ,3, ,
-99, ,3, ,
-98, ,3, ,
-98, ,4, ,
-96, ,3, ,
-94, ,3, ,
-93, ,3, ,
-91, ,4, ,
-90, ,4, ,
-87, ,3, ,
-84, ,3, ,
-84, ,3, ,
-81, ,3, ,
-80, ,4, ,
-81, ,4, ,
-79, ,3, ,
-80, ,3, ,
-78, ,4, ,
-76, ,4, ,
-76, ,4, ,
-74, ,4, ,
-67, ,3, ,
-66, ,3, ,
-62, ,3, ,
-58, ,4, ,
-48, ,3, ,
-43, ,3, ,
-40, ,4, ,
-33, ,4, ,
-18, ,3, ,
-14, ,3, ,
-5, ,3, ,
1, ,3, ,
18, ,3, ,
28, ,3, ,
35, ,3, ,
45, ,3, ,
64, ,3, ,
75, ,3, ,
84, ,3, ,
92, ,3, ,
110, ,4, ,
120, ,4, ,
125, ,4, ,
125, ,3, ,
125, ,3, ,
125, ,4, ,
125, ,3, ,
125, ,3, ,
125, ,4, ,
125, ,3, ,
125, ,3, ,
125, ,3, ,
125, ,3, ,
125, ,3, ,
125, ,4, ,
125, ,4, ,
125, ,4, ,
125, ,4, ,
125, ,4, ,
125, ,3, ,
125, ,3, ,
125, ,3, ,
125, ,3, ,
124, ,3, ,
118, ,4, ,
113, ,3, ,
107, ,3, ,
101, ,3, ,
86, ,4, ,
79, ,4, ,
70, ,3, ,
61, ,3, ,
44, ,3, ,
35, ,3, ,
25, ,3, ,
15, ,4, ,
-2, ,4, ,
-14, ,4, ,
-23, ,3, ,
-33, ,3, ,
-50, ,3, ,
-57, ,3, ,
-68, ,4, ,
-73, ,3, ,
-90, ,3, ,
-96, ,3, ,
-102, ,3, ,
-108, ,4, ,
-118, ,4, ,
-123, ,4, ,
-126, ,4, ,
-126, ,4, ,
-126, ,4, ,
-126, ,4, ,
-126, ,3, ,
-126, ,3, ,
-126, ,4, ,
-126, ,3, ,
-126, ,3, ,
-126, ,3, ,
-125, ,4, ,
-122, ,4, ,
-115, ,4, ,
-114, ,4, ,
-105, ,3, ,
-101, ,3, ,
-98, ,4, ,
-91, ,4, ,
-81, ,3, ,
-76, ,3, ,
-71, ,3, ,
-66, ,3, ,
-56, ,3, ,
-52, ,3, ,
-48, ,3, ,
-42, ,3, ,
-35, ,4, ,
-33, ,4, ,
-29, ,3, ,
-26, ,3, ,
-19, ,4, ,
-16, ,3, ,
-14, ,3, ,
-11, ,3, ,
-4, ,3, ,
-1, ,3, ,
2, ,4, ,
3, ,4, ,
8, ,4, ,
13, ,3, ,
14, ,3, ,
18, ,3, ,
21, ,4, ,
23, ,4, ,
27, ,4, ,
26, ,4, ,
28, ,3, ,
28, ,3, ,
27, ,3, ,
28, ,3, ,
25, ,3, ,
20, ,3, ,
19, ,3, ,
16, ,3, ,
10, ,4, ,
8, ,4, ,
4, ,4, ,
1, ,3, ,
-4, ,3, ,
-8, ,4, ,
-9, ,4, ,
-11, ,4, ,
-17, ,3, ,
-17, ,3, ,
-20, ,3, ,
-21, ,3, ,
-21, ,3, ,
-22, ,4, ,
-21, ,3, ,
-24, ,3, ,
-21, ,3, ,
-20, ,3, ,
-20, ,3, ,
-20, ,3, ,
-19, ,3, ,
-19, ,4, ,
-18, ,4, ,
-18, ,4, ,
-18, ,4, ,
-18, ,3, ,
-20, ,3, ,
-20, ,3, ,
-20, ,3, ,
-23, ,4, ,
-24, ,4, ,
-25, ,4, ,
-26, ,4, ,
-27, ,3, ,
-29, ,3, ,
-27, ,3, ,
-29, ,3, ,
-29, ,3, ,
-28, ,3, ,
-29, ,4, ,
-28, ,3, ,
-27, ,3, ,
-25, ,4, ,
-24, ,4, ,
-22, ,4, ,
-20, ,4, ,
-19, ,3, ,
-17, ,3, ,
-14, ,3, ,
-9, ,4, ,
-7, ,3, ,
-3, ,3, ,
3, ,4, ,
5, ,4, ,
8, ,4, ,
8, ,4, ,
13, ,3, ,
18, ,3, ,
18, ,3, ,
21, ,3, ,
23, ,3, ,
23, ,3, ,
25, ,3, ,
23, ,3, ,
25, ,3, ,
25, ,3, ,
25, ,3, ,
25, ,3, ,
23, ,4, ,
21, ,3, ,
20, ,3, ,
16, ,3, ,
13, ,3, ,
12, ,3, ,
7, ,4, ,
5, ,3, ,
0, ,3, ,
-6, ,3, ,
-8, ,3, ,
-11, ,4, ,
-18, ,3, ,
-20, ,3, ,
-25, ,3, ,
-25, ,3, ,
-33, ,4, ,
-35, ,4, ,
-37, ,4, ,
-41, ,4, ,
-44, ,3, ,
-45, ,3, ,
-49, ,4, ,
-49, ,3, ,
-51, ,3, ,
-53, ,3, ,
-53, ,3, ,
-54, ,3, ,
-57, ,4, ,
-56, ,3, ,
-57, ,3, ,
-57, ,3, ,
-59, ,3, ,
-60, ,3, ,
-60, ,3, ,
-62, ,4, ,
-63, ,3, ,
-64, ,3, ,
-66, ,3, ,
-66, ,3, ,
-67, ,3, ,
-68, ,3, ,
-67, ,3, ,
-68, ,3, ,
-66, ,4, ,
-66, ,4, ,
-64, ,4, ,
-63, ,4, ,
-59, ,4, ,
-58, ,4, ,
-54, ,4, ,
-54, ,4, ,
-48, ,3, ,
-44, ,3, ,
-40, ,3, ,
-36, ,3, ,
-27, ,4, ,
-25, ,4, ,
-17, ,4, ,
-14, ,4, ,
-4, ,4, ,
0, ,3, ,
6, ,3, ,
12, ,3, ,
19, ,4, ,
23, ,3, ,
28, ,3, ,
30, ,3, ,
35, ,3, ,
39, ,3, ,
39, ,3, ,
43, ,3, ,
44, ,3, ,
44, ,3, ,
45, ,3, ,
47, ,3, ,
49, ,3, ,
49, ,3, ,
49, ,3, ,
49, ,3, ,
49, ,3, ,
48, ,3, ,
48, ,3, ,
47, ,3, ,
45, ,4, ,
46, ,4, ,
44, ,4, ,
43, ,3, ,
41, ,3, ,
39, ,3, ,
38, ,3, ,
36, ,3, ,
34, ,4, ,
32, ,3, ,
31, ,3, ,
29, ,3, ,
22, ,4, ,
20, ,4, ,
19, ,4, ,
14, ,4, ,
8, ,3, ,
6, ,3, ,
0, ,4, ,
-3, ,3, ,
-8, ,3, ,
-14, ,3, ,
-15, ,4, ,
-18, ,4, ,
-24, ,3, ,
-25, ,3, ,
-29, ,4, ,
-28, ,3, ,
-33, ,3, ,
-35, ,4, ,
-35, ,4, ,
-37, ,4, ,
-38, ,3, ,
-38, ,3, ,
-39, ,4, ,
-39, ,4, ,
-40, ,3, ,
-40, ,3, ,
-39, ,3, ,
-38, ,3, ,
-37, ,4, ,
-37, ,4, ,
-36, ,4, ,
-35, ,4, ,
-33, ,4, ,
-32, ,4, ,
-29, ,4, ,
-29, ,4, ,
-25, ,3, ,
-23, ,3, ,
-24, ,3, ,
-20, ,4, ,
-15, ,4, ,
-13, ,4, ,
-11, ,4, ,
-9, ,4, ,
-4, ,4, ,
-2, ,3, ,
0, ,3, ,
3, ,3, ,
6, ,4, ,
7, ,4, ,
9, ,3, ,
9, ,3, ,
11, ,3, ,
11, ,4, ,
11, ,4, ,
10, ,4, ,
10, ,4, ,
9, ,4, ,
9, ,3, ,
8, ,3, ,
7, ,3, ,
7, ,3, ,
5, ,3, ,
5, ,3, ,
5, ,3, ,
4, ,4, ,
4, ,3, ,
3, ,3, ,
3, ,3, ,
4, ,3, ,
4, ,3, ,
3, ,3, ,
5, ,4, ,
5, ,4, ,
6, ,4, ,
5, ,4, ,
5, ,4, ,
7, ,4, ,
7, ,3, ,
8, ,3, ,
9, ,4, ,
8, ,3, ,
9, ,3, ,
7, ,3, ,
7, ,3, ,
7, ,3, ,
6, ,4, ,
6, ,4, ,
5, ,3, ,
5, ,3, ,
5, ,3, ,
4, ,3, ,
3, ,4, ,
3, ,4, ,
3, ,4, ,
4, ,4, ,
2, ,3, ,
2, ,3, ,
3, ,3, ,
2, ,3, ,
1, ,3, ,
2, ,3, ,
2, ,4, ,
3, ,4, ,
4, ,4, ,
4, ,4, ,
3, ,4, ,
5, ,3, ,
5, ,3, ,
6, ,3, ,
5, ,3, ,
6, ,3, ,
7, ,3, ,
8, ,3, ,
8, ,3, ,
8, ,4, ,
9, ,3, ,
10, ,3, ,
8, ,3, ,
12, ,4, ,
11, ,3, ,
11, ,3, ,
12, ,4, ,
13, ,4, ,
13, ,4, ,
14, ,3, ,
15, ,3, ,
15, ,3, ,
15, ,3, ,
15, ,3, ,
17, ,3, ,
16, ,3, ,
15, ,3, ,
15, ,3, ,
15, ,3, ,
15, ,3, ,
14, ,3, ,
11, ,4, ,
12, ,4, ,
11, ,4, ,
9, ,3, ,
9, ,3, ,
8, ,3, ,
8, ,3, ,
5, ,3, ,
5, ,3, ,
4, ,3, ,
3, ,4, ,
2, ,3, ,
2, ,3, ,
0, ,4, ,
0, ,4, ,
0, ,4, ,
-1, ,4, ,
-1, ,4, ,
-2, ,3, ,
-2, ,3, ,
-1, ,3, ,
-2, ,3, ,
0, ,3, ,
1, ,4, ,
1, ,4, ,
1, ,4, ,
1, ,4, ,
3, ,3, ,
3, ,3, ,
3, ,3, ,
4, ,3, ,
6, ,3, ,
5, ,3, ,
7, ,3, ,
6, ,3, ,
8, ,4, ,
10, ,4, ,
10, ,4, ,
11, ,4, ,
11, ,4, ,
11, ,4, ,
12, ,4, ,
10, ,4, ,
10, ,3, ,
11, ,3, ,
9, ,3, ,
10, ,4, ,
7, ,4, ,
6, ,4, ,
5, ,3, ,
4, ,3, ,
2, ,4, ,
2, ,3, ,
0, ,3, ,
-1, ,3, ,
-2, ,3, ,
-3, ,3, ,
-5, ,3, ,
-6, ,3, ,
-8, ,4, ,
-7, ,4, ,
-10, ,4, ,
-10, ,4, ,
-10, ,4, ,
-13, ,3, ,
-13, ,3, ,
-14, ,3, ,
-16, ,4, ,
-16, ,3, ,
-18, ,3, ,
-18, ,3, ,
-17, ,3, ,
-18, ,4, ,
-18, ,3, ,
-19, ,3, ,
-19, ,4, ,
-18, ,3, ,
-19, ,3, ,
-18, ,3, ,
-17, ,3, ,
-19, ,4, ,
-18, ,4, ,
-15, ,4, ,
-15, ,4, ,
-14, ,3, ,
-14, ,3, ,
-14, ,3, ,
-11, ,3, ,
-10, ,3, ,
-8, ,3, ,
-8, ,3, ,
-6, ,4, ,
-4, ,4, ,
-5, ,3, ,
-3, ,3, ,
-1, ,4, ,
-2, ,4, ,
-1, ,3, ,
-2, ,3, ,
1, ,3, ,
1, ,4, ,
1, ,4, ,
2, ,4, ,
3, ,3, ,
3, ,3, ,
3, ,3, ,
2, ,3, ,
3, ,3, ,
3, ,3, ,
2, ,3, ,
2, ,3, ,
4, ,3, ,
2, ,3, ,
2, ,3, ,
2, ,3, ,
1, ,3, ,
2, ,3, ,
1, ,3, ,
2, ,3, ,
2, ,3, ,
1, ,4, ,
1, ,4, ,
-1, ,4, ,
-1, ,3, ,
-1, ,3, ,
-3, ,3, ,
-3, ,3, ,
-4, ,3, ,
-6, ,4, ,
-6, ,4, ,
-7, ,3, ,
-9, ,3, ,
-7, ,3, ,
-9, ,3, ,
-10, ,3, ,
-10, ,3, ,
-10, ,3, ,
-10, ,3, ,
-11, ,3, ,
-11, ,4, ,
-11, ,4, ,
-12, ,4, ,
-10, ,4, ,
-11, ,3, ,
-12, ,3, ,
-9, ,3, ,
-10, ,3, ,
-9, ,4, ,
-9, ,3, ,
-8, ,3, ,
-6, ,3, ,
-5, ,4, ,
-5, ,3, ,
-5, ,3, ,
-5, ,3, ,
-4, ,3, ,
-3, ,3, ,
-3, ,3, ,
-2, ,4, ,
0, ,4, ,
-1, ,4, ,
0, ,3, ,
0, ,3, ,
1, ,4, ,
1, ,4, ,
1, ,4, ,
2, ,4, ,
3, ,4, ,
3, ,3, ,
4, ,3, ,
3, ,3, ,
5, ,3, ,
5, ,3, ,
5, ,3, ,
6, ,3, ,
7, ,4, ,
6, ,4, ,
6, ,4, ,
5, ,4, ,
5, ,3, ,
6, ,3, ,
5, ,4, ,
5, ,4, ,
5, ,3, ,
5, ,3, ,
5, ,3, ,
4, ,3, ,
3, ,3, ,
3, ,3, ,
2, ,3, ,
2, ,3, ,
1, ,3, ,
1, ,3, ,
2, ,3, ,
-1, ,3, ,
-2, ,3, ,
-1, ,3, ,
-3, ,3, ,
-3, ,3, ,
-3, ,4, ,
-5, ,4, ,
-5, ,4, ,
-6, ,4, ,
-7, ,3, ,
-7, ,3, ,
-8, ,3, ,
-9, ,3, ,
-8, ,3, ,
-10, ,3, ,
-10, ,3, ,
-11, ,3, ,
-12, ,3, ,
-12, ,3, ,
-12, ,3, ,
-11, ,3, ,
-12, ,4, ,
-12, ,4, ,
-12, ,3, ,
-13, ,3, ,
-14, ,3, ,
-12, ,3, ,
-12, ,3, ,
-11, ,3, ,
-10, ,3, ,
-10, ,4, ,
-10, ,4, ,
-10, ,4, ,
-10, ,3, ,
-9, ,3, ,
-8, ,3, ,
-9, ,3, ,
-7, ,3, ,
-7, ,4, ,
-6, ,3, ,
-7, ,3, ,
-6, ,3, ,
-7, ,3, ,
-7, ,3, ,
-6, ,3, ,
-6, ,3, ,
-7, ,3, ,
-7, ,3, ,
-7, ,4, ,
-8, ,4, ,
-9, ,4, ,
-9, ,3, ,
-9, ,3, ,
-9, ,4, ,
-10, ,3, ,
-10, ,3, ,
-10, ,3, ,
-10, ,3, ,
-10, ,3, ,
-11, ,3, ,
-10, ,3, ,
-11, ,4, ,
-11, ,4, ,
-10, ,3, ,
-10, ,3, ,
-10, ,3, ,
-10, ,3, ,
-10, ,4, ,
-9, ,3, ,
-9, ,3, ,
-9, ,3, ,
-9, ,3, ,
-9, ,4, ,
-7, ,4, ,
-7, ,3, ,
-7, ,3, ,
-7, ,3, ,
-6, ,3, ,
-4, ,4, ,
-4, ,3, ,
-4, ,3, ,
-3, ,3, ,
-2, ,3, ,
-1, ,3, ,
0, ,3, ,
1, ,3, ,
2, ,3, ,
3, ,3, ,
3, ,3, ,
4, ,4, ,
6, ,4, ,
6, ,4, ,
6, ,3, ,
8, ,3, ,
8, ,4, ,
9, ,4, ,
8, ,4, ,
10, ,3, ,
10, ,3, ,
11, ,4, ,
11, ,4, ,
11, ,3, ,
12, ,3, ,
12, ,3, ,
12, ,3, ,
13, ,3, ,
13, ,3, ,
12, ,3, ,
12, ,3, ,
12, ,3, ,
12, ,3, ,
13, ,3, ,
12, ,4, ,
11, ,4, ,
12, ,4, ,
11, ,4, ,
11, ,4, ,
10, ,3, ,
9, ,3, ,
9, ,3, ,
7, ,3, ,
6, ,3, ,
8, ,3, ,
5, ,4, ,
5, ,4, ,
4, ,3, ,
3, ,3, ,
4, ,3, ,
1, ,4, ,
0, ,4, ,
1, ,4, ,
0, ,4, ,
-1, ,3, ,
-1, ,3, ,
-2, ,3, ,
0, ,3, ,
-1, ,3, ,
-2, ,3, ,
-1, ,3, ,
-2, ,3, ,
-1, ,3, ,
-1, ,3, ,
-2, ,4, ,
-1, ,3, ,
-2, ,3, ,
-2, ,3, ,
-2, ,4, ,
-3, ,3, ,
-3, ,3, ,
-3, ,4, ,
-3, ,4, ,
-3, ,4, ,
-4, ,4, ,
-4, ,4, ,
-4, ,3, ,
-5, ,3, ,
-5, ,3, ,
-6, ,3, ,
-6, ,4, ,
-6, ,4, ,
-6, ,4, ,
-7, ,4, ,
-6, ,3, ,
-7, ,3, ,
-6, ,3, ,
-6, ,3, ,
-6, ,3, ,
-6, ,3, ,
-7, ,3, ,
-7, ,3, ,
-6, ,3, ,
-6, ,3, ,
-5, ,4, ,
-5, ,3, ,
-5, ,3, ,
-5, ,4, ,
-5, ,4, ,
-5, ,4, ,
-3, ,3, ,
-3, ,3, ,
-3, ,3, ,
-2, ,4, ,
-2, ,4, ,
-2, ,4, ,
-3, ,4, ,
-2, ,3, ,
-1, ,3, ,
-2, ,4, ,
0, ,4, ,
1, ,4, ,
1, ,4, ,
1, ,4, ,
1, ,4, ,
1, ,4, ,
2, ,4, ,
1, ,4, ,
3, ,4, ,
3, ,3, ,
3, ,3, ,
3, ,3, ,
3, ,4, ,
5, ,3, ,
6, ,3, ,
5, ,3, ,
5, ,4, ,
8, ,3, ,
6, ,3, ,
7, ,4, ,
8, ,3, ,
8, ,3, ,
9, ,3, ,
8, ,4, ,
9, ,4, ,
8, ,4, ,
10, ,4, ,
11, ,3, ,
11, ,3, ,
11, ,3, ,
11, ,3, ,
10, ,3, ,
12, ,4, ,
13, ,4, ,
12, ,3, ,
11, ,3, ,
11, ,3, ,
11, ,3, ,
11, ,3, ,
11, ,4, ,
11, ,4, ,
12, ,3, ,
10, ,3, ,
12, ,3, ,
10, ,3, ,
10, ,3, ,
10, ,3, ,
10, ,3, ,
10, ,3, ,
10, ,3, ,
8, ,3, ,
10, ,3, ,
9, ,3, ,
8, ,4, ,
9, ,4, ,
8, ,4, ,
9, ,4, ,
10, ,3, ,
8, ,3, ,
9, ,3, ,
8, ,3, ,
8, ,3, ,
9, ,3, ,
9, ,3, ,
9, ,3, ,
10, ,3, ,
9, ,3, ,
10, ,4, ,
10, ,4, ,
10, ,3, ,
10, ,3, ,
10, ,3, ,
9, ,3, ,
9, ,3, ,
10, ,3, ,
9, ,3, ,
8, ,3, ,
8, ,4, ,
8, ,4, ,
7, ,4, ,
8, ,4, ,
7, ,4, ,
6, ,4, ,
6, ,3, ,
5, ,3, ,
5, ,3, ,
4, ,3, ,
4, ,3, ,
2, ,3, ,
2, ,3, ,
1, ,3, ,
2, ,3, ,
0, ,4, ,
-1, ,3, ,
-1, ,3, ,
-1, ,3, ,
-1, ,3, ,
-3, ,3, ,
-4, ,3, ,
-3, ,3, ,
-5, ,3, ,
-5, ,3, ,
-5, ,3, ,
-5, ,3, ,
-5, ,3, ,
-5, ,3, ,
-7, ,3, ,
-6, ,3, ,
-7, ,3, ,
-8, ,3, ,
-8, ,3, ,
-9, ,4, ,
-9, ,4, ,
-8, ,3, ,
-9, ,3, ,
-7, ,3, ,
-7, ,3, ,
-7, ,4, ,
-7, ,4, ,
-7, ,3, ,
-7, ,3, ,
-7, ,3, ,
-7, ,3, ,
-5, ,3, ,
-7, ,4, ,
-5, ,4, ,
-4, ,4, ,
-6, ,4, ,
-3, ,3, ,
-4, ,3, ,
-4, ,4, ,
-3, ,4, ,
-4, ,4, ,
-4, ,3, ,
-4, ,3, ,
-4, ,3, ,
-3, ,3, ,
-2, ,3, ,
-3, ,3, ,
-3, ,3, ,
-4, ,3, ,
-3, ,3, ,
-3, ,3, ,
-4, ,3, ,
-2, ,3, ,
-3, ,4, ,
-3, ,4, ,
-3, ,3, ,
-4, ,3, ,
-3, ,3, ,
-2, ,3, ,
-3, ,3, ,
-2, ,3, ,
-1, ,3, ,
-2, ,3, ,
-1, ,3, ,
-1, ,3, ,
-1, ,3, ,
0, ,3, ,
-1, ,3, ,
-1, ,3, ,
0, ,3, ,
0, ,3, ,
0, ,3, ,
0, ,3, ,
0, ,4, ,
0, ,4, ,
0, ,4, ,
1, ,3, ,
3, ,3, ,
2, ,3, ,
3, ,3, ,
1, ,4, ,
3, ,3, ,
3, ,3, ,
3, ,3, ,
4, ,3, ,
4, ,3, ,
3, ,3, ,
4, ,3, ,
3, ,3, ,
4, ,3, ,
5, ,3, ,
5, ,3, ,
5, ,3, ,
6, ,3, ,
5, ,3, ,
6, ,3, ,
5, ,4, ,
5, ,3, ,
5, ,3, ,
5, ,3, ,
6, ,3, ,
6, ,3, ,
5, ,3, ,
6, ,3, ,
4, ,3, ,
5, ,4, ,
5, ,3, ,
5, ,3, ,
5, ,3, ,
5, ,3, ,
4, ,3, ,
4, ,3, ,
4, ,3, ,
3, ,3, ,
4, ,3, ,
3, ,3, ,
4, ,4, ,
4, ,4, ,
2, ,4, ,
2, ,3, ,
1, ,3, ,
1, ,3, ,
2, ,3, ,
1, ,4, ,
1, ,4, ,
0, ,4, ,
0, ,3, ,
0, ,3, ,
0, ,3, ,
-2, ,4, ,
-1, ,4, ,
-2, ,4, ,
-1, ,3, ,
-1, ,3, ,
-2, ,3, ,
-1, ,3, ,
-3, ,3, ,
-4, ,4, ,
-3, ,3, ,
-4, ,3, ,
-4, ,3, ,
-3, ,4, ,
-4, ,3, ,
-3, ,3, ,
-4, ,3, ,
-3, ,3, ,
-3, ,3, ,
-4, ,3, ,
-3, ,3, ,
-3, ,3, ,
-3, ,3, ,
-3, ,3, ,
-4, ,3, ,
-4, ,4, ,
-3, ,3, ,
-3, ,3, ,
-3, ,3, ,
-2, ,3, ,
-2, ,3, ,
-2, ,3, ,
-2, ,4, ,
-2, ,3, ,
-1, ,3, ,
-3, ,3, ,
-2, ,3, ,
-2, ,3, ,
-4, ,4, ,
-2, ,4, ,
-3, ,3, ,
-3, ,3, ,
-3, ,3, ,
-4, ,3, ,
-3, ,3, ,
-3, ,4, ,
-4, ,4, ,
-3, ,4, ,
-3, ,4, ,
-4, ,4, ,
-4, ,4, ,
-4, ,4, ,
-4, ,3, ,
-3, ,3, ,
-4, ,3, ,
-3, ,3, ,
-4, ,3, ,
-4, ,4, ,
-4, ,3, ,
-4, ,3, ,
-4, ,3, ,
-4, ,4, ,
-4, ,3, ,
-3, ,3, ,
-4, ,3, ,
-4, ,3, ,
-3, ,3, ,
-3, ,4, ,
-2, ,4, ,
-2, ,4, ,
-1, ,4, ,
0, ,3, ,
0, ,3, ,
0, ,4, ,
0, ,3, ,
0, ,3, ,
1, ,3, ,
2, ,3, ,
2, ,3, ,
