raw_data/100% Glycerol, Impulsion 2Hz, Sonde 5MHz, Rampe 0.7Hz/temp0000396.CSV

Format,1.0B,
Memory Length,10000,Memory Length,10000,
IntpDistance,0,IntpDistance,0,
Trigger Address,159,Trigger Address,159,
Trigger Level,2.720E-01,Trigger Level,2.720E-01,
Source,CH1,Source,CH2,
Vertical Units,V,Vertical Units,V,
Vertical Units Div,0,Vertical Units Div,0,
Vertical Units Extend Div,16,Vertical Units Extend Div,16,
Label,,Label,,
Probe Type,0,Probe Type,0,
Probe Ratio,1.000e+00,Probe Ratio,1.000e+00,
Vertical Scale,2.000e-01,Vertical Scale,2.000e+00,
Vertical Position,0.000e+00,Vertical Position,0.000e+00,
Horizontal Units,S,Horizontal Units,S,
Horizontal Scale,5.000E-06,Horizontal Scale,5.000E-06,
Horizontal Position,2.420E-05,Horizontal Position,2.420E-05,
Horizontal Mode,Main,Horizontal Mode,Main,
SincET Mode,Real Time,SincET Mode,Real Time,
Sampling Period,5.000e-09,Sampling Period,5.000e-09,
Horizontal Old Scale,5.000E-06,Horizontal Old Scale,5.000E-06,
Horizontal Old Position,2.420E-05,Horizontal Old Position,2.420E-05,
Firmware,V1.32,Firmware,V1.32,
Mode,Fast,Mode,Fast,
Waveform Data,,Waveform Data,,
2, ,-26, ,
2, ,-26, ,
2, ,-26, ,
2, ,-26, ,
2, ,-26, ,
1, ,-26, ,
1, ,-26, ,
1, ,-26, ,
1, ,-24, ,
2, ,-26, ,
2, ,-26, ,
2, ,-26, ,
1, ,-26, ,
2, ,-26, ,
1, ,-24, ,
2, ,-24, ,
2, ,-24, ,
1, ,-24, ,
2, ,-24, ,
2, ,-24, ,
1, ,-24, ,
3, ,-26, ,
2, ,-26, ,
2, ,-26, ,
2, ,-26, ,
1, ,-26, ,
1, ,-26, ,
2, ,-26, ,
2, ,-26, ,
1, ,-26, ,
1, ,-24, ,
2, ,-24, ,
3, ,-24, ,
2, ,-26, ,
3, ,-26, ,
1, ,-26, ,
1, ,-24, ,
2, ,-24, ,
1, ,-24, ,
1, ,-24, ,
2, ,-24, ,
1, ,-26, ,
2, ,-26, ,
3, ,-26, ,
1, ,-26, ,
3, ,-26, ,
2, ,-26, ,
1, ,-26, ,
1, ,-24, ,
1, ,-26, ,
2, ,-26, ,
2, ,-26, ,
1, ,-26, ,
2, ,-26, ,
1, ,-26, ,
1, ,-26, ,
2, ,-26, ,
2, ,-26, ,
2, ,-26, ,
2, ,-26, ,
1, ,-26, ,
1, ,-24, ,
1, ,-24, ,
1, ,-26, ,
2, ,-26, ,
1, ,-26, ,
1, ,-26, ,
2, ,-24, ,
1, ,-24, ,
3, ,-26, ,
1, ,-26, ,
2, ,-26, ,
3, ,-24, ,
1, ,-26, ,
2, ,-26, ,
2, ,-26, ,
1, ,-26, ,
2, ,-26, ,
1, ,-24, ,
3, ,-24, ,
3, ,-24, ,
2, ,-26, ,
2, ,-26, ,
1, ,-24, ,
1, ,-24, ,
2, ,-26, ,
1, ,-26, ,
1, ,-26, ,
2, ,-26, ,
1, ,-26, ,
2, ,-24, ,
2, ,-24, ,
1, ,-24, ,
2, ,-24, ,
1, ,-26, ,
1, ,-26, ,
2, ,-26, ,
2, ,-24, ,
2, ,-24, ,
2, ,-24, ,
2, ,-26, ,
2, ,-26, ,
2, ,-26, ,
2, ,-26, ,
3, ,-26, ,
2, ,-26, ,
2, ,-24, ,
2, ,-24, ,
1, ,-26, ,
1, ,-26, ,
1, ,-24, ,
1, ,-24, ,
2, ,-24, ,
2, ,-24, ,
2, ,-24, ,
2, ,-24, ,
1, ,-26, ,
2, ,-26, ,
1, ,-26, ,
2, ,-26, ,
2, ,-24, ,
1, ,-24, ,
2, ,-26, ,
2, ,-26, ,
1, ,-26, ,
2, ,-26, ,
1, ,-24, ,
0, ,-24, ,
2, ,-24, ,
1, ,-26, ,
1, ,-26, ,
2, ,-24, ,
2, ,-24, ,
2, ,-26, ,
2, ,-26, ,
1, ,-26, ,
4, ,-26, ,
0, ,-26, ,
3, ,-26, ,
2, ,-26, ,
1, ,-26, ,
2, ,-26, ,
2, ,-26, ,
2, ,-26, ,
2, ,-26, ,
1, ,-24, ,
2, ,-24, ,
2, ,-24, ,
2, ,-26, ,
2, ,-26, ,
2, ,-24, ,
1, ,-24, ,
1, ,-24, ,
1, ,-24, ,
1, ,-26, ,
2, ,-26, ,
1, ,-26, ,
2, ,-24, ,
1, ,-26, ,
1, ,-26, ,
2, ,-26, ,
1, ,-26, ,
2, ,-26, ,
3, ,-24, ,
5, ,-26, ,
0, ,-26, ,
2, ,-26, ,
4, ,-26, ,
38, ,-26, ,
105, ,-26, ,
125, ,-26, ,
125, ,-26, ,
124, ,-26, ,
120, ,-26, ,
112, ,-24, ,
2, ,-26, ,
116, ,-26, ,
125, ,-26, ,
125, ,-26, ,
125, ,-26, ,
125, ,-24, ,
125, ,-26, ,
125, ,-26, ,
125, ,-24, ,
125, ,-26, ,
125, ,-26, ,
125, ,-26, ,
125, ,-26, ,
125, ,-26, ,
125, ,-26, ,
125, ,-26, ,
125, ,-26, ,
125, ,-26, ,
125, ,-26, ,
125, ,-26, ,
125, ,-26, ,
125, ,-26, ,
125, ,-26, ,
125, ,-24, ,
125, ,-26, ,
125, ,-26, ,
125, ,-26, ,
125, ,-26, ,
124, ,-26, ,
118, ,-26, ,
113, ,-26, ,
108, ,-26, ,
101, ,-26, ,
97, ,-26, ,
93, ,-26, ,
89, ,-26, ,
81, ,-26, ,
77, ,-26, ,
75, ,-26, ,
69, ,-24, ,
63, ,-26, ,
61, ,-26, ,
58, ,-24, ,
56, ,-24, ,
51, ,-24, ,
48, ,-24, ,
47, ,-26, ,
44, ,-26, ,
39, ,-26, ,
38, ,-24, ,
36, ,-24, ,
35, ,-24, ,
31, ,-24, ,
30, ,-26, ,
29, ,-26, ,
25, ,-26, ,
23, ,-26, ,
23, ,-26, ,
20, ,-24, ,
20, ,-26, ,
18, ,-26, ,
16, ,-26, ,
17, ,-26, ,
14, ,-26, ,
12, ,-26, ,
12, ,-26, ,
11, ,-26, ,
11, ,-26, ,
10, ,-26, ,
8, ,-24, ,
7, ,-26, ,
6, ,-26, ,
5, ,-26, ,
5, ,-24, ,
5, ,-26, ,
5, ,-26, ,
4, ,-24, ,
2, ,-26, ,
2, ,-26, ,
2, ,-26, ,
1, ,-26, ,
2, ,-26, ,
1, ,-26, ,
1, ,-26, ,
0, ,-26, ,
-1, ,-26, ,
0, ,-26, ,
-2, ,-26, ,
-1, ,-26, ,
-1, ,-26, ,
-2, ,-26, ,
-1, ,-26, ,
-2, ,-24, ,
-3, ,-26, ,
-1, ,-26, ,
-2, ,-26, ,
-4, ,-26, ,
-2, ,-26, ,
-3, ,-26, ,
-3, ,-26, ,
-2, ,-26, ,
-3, ,-26, ,
-2, ,-26, ,
-4, ,-24, ,
-3, ,-26, ,
-2, ,-26, ,
-3, ,-26, ,
-2, ,-26, ,
-1, ,-26, ,
-4, ,-26, ,
-2, ,-26, ,
-4, ,-26, ,
-3, ,-26, ,
-3, ,-24, ,
-4, ,-26, ,
-3, ,-26, ,
-2, ,-26, ,
-3, ,-26, ,
-1, ,-26, ,
-4, ,-26, ,
-3, ,-26, ,
-3, ,-26, ,
-3, ,-24, ,
-2, ,-26, ,
-2, ,-26, ,
-2, ,-26, ,
-2, ,-26, ,
-3, ,-26, ,
-3, ,-26, ,
-3, ,-26, ,
-3, ,-26, ,
-3, ,-26, ,
-1, ,-26, ,
-2, ,-24, ,
-1, ,-26, ,
-2, ,-26, ,
-2, ,-26, ,
-1, ,-24, ,
-3, ,-24, ,
-1, ,-26, ,
-1, ,-26, ,
-2, ,-26, ,
-1, ,-24, ,
-3, ,-26, ,
-2, ,-26, ,
0, ,-26, ,
0, ,-26, ,
-1, ,-26, ,
0, ,-26, ,
0, ,-26, ,
0, ,-26, ,
-1, ,-24, ,
-2, ,-24, ,
0, ,-26, ,
0, ,-26, ,
0, ,-26, ,
0, ,-26, ,
0, ,-26, ,
-1, ,-24, ,
-1, ,-24, ,
0, ,-26, ,
0, ,-26, ,
0, ,-26, ,
0, ,-26, ,
0, ,-26, ,
0, ,-24, ,
0, ,-26, ,
-1, ,-26, ,
0, ,-26, ,
0, ,-26, ,
0, ,-24, ,
0, ,-24, ,
0, ,-24, ,
-1, ,-24, ,
0, ,-26, ,
0, ,-26, ,
0, ,-26, ,
1, ,-26, ,
1, ,-26, ,
1, ,-26, ,
0, ,-24, ,
0, ,-26, ,
0, ,-26, ,
0, ,-26, ,
1, ,-24, ,
2, ,-24, ,
0, ,-24, ,
1, ,-24, ,
1, ,-24, ,
1, ,-24, ,
1, ,-24, ,
1, ,-24, ,
1, ,-24, ,
1, ,-24, ,
0, ,-24, ,
0, ,-24, ,
0, ,-24, ,
0, ,-24, ,
0, ,-24, ,
0, ,-24, ,
0, ,-24, ,
1, ,-26, ,
0, ,-26, ,
1, ,-26, ,
1, ,-26, ,
0, ,-26, ,
1, ,-24, ,
0, ,-26, ,
1, ,-26, ,
1, ,-26, ,
1, ,-26, ,
2, ,-26, ,
1, ,-26, ,
1, ,-26, ,
2, ,-26, ,
1, ,-26, ,
1, ,-26, ,
2, ,-26, ,
1, ,-26, ,
1, ,-26, ,
1, ,-26, ,
0, ,-26, ,
1, ,-26, ,
0, ,-26, ,
0, ,-26, ,
1, ,-26, ,
2, ,-26, ,
2, ,-26, ,
1, ,-26, ,
1, ,-26, ,
2, ,-26, ,
0, ,-26, ,
0, ,-26, ,
1, ,-26, ,
0, ,-26, ,
2, ,-26, ,
2, ,-26, ,
2, ,-26, ,
2, ,-26, ,
2, ,-26, ,
2, ,-26, ,
2, ,-26, ,
1, ,-26, ,
2, ,-26, ,
2, ,-26, ,
0, ,-26, ,
1, ,-26, ,
0, ,-24, ,
1, ,-26, ,
1, ,-26, ,
0, ,-26, ,
0, ,-26, ,
2, ,-26, ,
0, ,-26, ,
1, ,-26, ,
0, ,-26, ,
1, ,-26, ,
2, ,-26, ,
1, ,-24, ,
2, ,-26, ,
2, ,-26, ,
1, ,-26, ,
1, ,-26, ,
0, ,-24, ,
2, ,-26, ,
0, ,-26, ,
0, ,-26, ,
0, ,-26, ,
0, ,-26, ,
-1, ,-26, ,
-1, ,-26, ,
-1, ,-26, ,
0, ,-26, ,
0, ,-26, ,
0, ,-26, ,
0, ,-26, ,
1, ,-26, ,
0, ,-26, ,
2, ,-26, ,
0, ,-26, ,
2, ,-26, ,
2, ,-24, ,
1, ,-24, ,
2, ,-24, ,
2, ,-24, ,
1, ,-24, ,
1, ,-26, ,
1, ,-26, ,
0, ,-26, ,
1, ,-26, ,
1, ,-26, ,
1, ,-26, ,
1, ,-26, ,
1, ,-26, ,
1, ,-26, ,
1, ,-26, ,
1, ,-26, ,
1, ,-26, ,
0, ,-26, ,
2, ,-26, ,
2, ,-26, ,
2, ,-26, ,
1, ,-26, ,
1, ,-26, ,
0, ,-26, ,
0, ,-26, ,
0, ,-26, ,
0, ,-26, ,
0, ,-26, ,
0, ,-26, ,
0, ,-26, ,
-1, ,-26, ,
-1, ,-26, ,
0, ,-26, ,
-1, ,-24, ,
2, ,-26, ,
2, ,-26, ,
1, ,-26, ,
2, ,-24, ,
2, ,-26, ,
1, ,-26, ,
2, ,-26, ,
1, ,-26, ,
1, ,-26, ,
1, ,-26, ,
0, ,-26, ,
0, ,-24, ,
1, ,-24, ,
0, ,-26, ,
0, ,-26, ,
0, ,-26, ,
1, ,-26, ,
1, ,-26, ,
0, ,-26, ,
2, ,-26, ,
1, ,-26, ,
1, ,-26, ,
1, ,-26, ,
1, ,-26, ,
1, ,-26, ,
0, ,-26, ,
-1, ,-26, ,
-1, ,-24, ,
-2, ,-24, ,
-5, ,-26, ,
-5, ,-26, ,
-7, ,-26, ,
-7, ,-26, ,
-6, ,-26, ,
-8, ,-26, ,
-7, ,-26, ,
-8, ,-26, ,
-8, ,-26, ,
-7, ,-26, ,
-7, ,-26, ,
-7, ,-26, ,
-9, ,-26, ,
-10, ,-26, ,
-10, ,-26, ,
-11, ,-26, ,
-13, ,-26, ,
-15, ,-26, ,
-17, ,-24, ,
-18, ,-24, ,
-21, ,-26, ,
-25, ,-26, ,
-27, ,-26, ,
-27, ,-26, ,
-29, ,-26, ,
-29, ,-24, ,
-30, ,-26, ,
-29, ,-26, ,
-28, ,-24, ,
-28, ,-24, ,
-27, ,-24, ,
-27, ,-24, ,
-27, ,-24, ,
-27, ,-24, ,
-28, ,-24, ,
-29, ,-26, ,
-30, ,-26, ,
-31, ,-26, ,
-31, ,-24, ,
-33, ,-24, ,
-34, ,-24, ,
-34, ,-24, ,
-34, ,-26, ,
-32, ,-26, ,
-29, ,-26, ,
-26, ,-24, ,
-24, ,-24, ,
-22, ,-24, ,
-17, ,-26, ,
-14, ,-26, ,
-12, ,-24, ,
-10, ,-26, ,
-8, ,-26, ,
-8, ,-26, ,
-7, ,-26, ,
-7, ,-26, ,
-8, ,-26, ,
-9, ,-26, ,
-10, ,-26, ,
-10, ,-26, ,
-10, ,-26, ,
-10, ,-26, ,
-9, ,-26, ,
-8, ,-24, ,
-6, ,-26, ,
-4, ,-26, ,
-4, ,-24, ,
-2, ,-26, ,
0, ,-26, ,
1, ,-26, ,
1, ,-26, ,
1, ,-26, ,
0, ,-26, ,
-1, ,-24, ,
-1, ,-26, ,
-3, ,-26, ,
-6, ,-26, ,
-8, ,-26, ,
-8, ,-26, ,
-12, ,-26, ,
-13, ,-24, ,
-13, ,-26, ,
-15, ,-26, ,
-15, ,-26, ,
-16, ,-26, ,
-17, ,-26, ,
-16, ,-26, ,
-17, ,-26, ,
-17, ,-26, ,
-18, ,-26, ,
-18, ,-26, ,
-20, ,-26, ,
-23, ,-26, ,
-26, ,-26, ,
-25, ,-26, ,
-29, ,-24, ,
-32, ,-26, ,
-31, ,-26, ,
-33, ,-24, ,
-31, ,-26, ,
-29, ,-26, ,
-29, ,-26, ,
-25, ,-26, ,
-25, ,-26, ,
-25, ,-26, ,
-21, ,-26, ,
-20, ,-26, ,
-20, ,-26, ,
-19, ,-24, ,
-20, ,-26, ,
-18, ,-26, ,
-20, ,-26, ,
-21, ,-26, ,
-21, ,-26, ,
-21, ,-24, ,
-21, ,-24, ,
-21, ,-26, ,
-23, ,-26, ,
-23, ,-26, ,
-24, ,-26, ,
-25, ,-26, ,
-25, ,-24, ,
-25, ,-26, ,
-25, ,-26, ,
-25, ,-26, ,
-25, ,-26, ,
-25, ,-26, ,
-25, ,-24, ,
-25, ,-26, ,
-24, ,-26, ,
-25, ,-26, ,
-23, ,-24, ,
-23, ,-26, ,
-24, ,-26, ,
-24, ,-26, ,
-25, ,-26, ,
-27, ,-26, ,
-28, ,-26, ,
-28, ,-26, ,
-29, ,-26, ,
-29, ,-26, ,
-27, ,-26, ,
-27, ,-26, ,
-26, ,-24, ,
-24, ,-24, ,
-23, ,-26, ,
-24, ,-26, ,
-23, ,-26, ,
-23, ,-26, ,
-25, ,-26, ,
-25, ,-24, ,
-26, ,-24, ,
-30, ,-24, ,
-31, ,-24, ,
-33, ,-26, ,
-33, ,-26, ,
-34, ,-26, ,
-35, ,-26, ,
-34, ,-26, ,
-35, ,-26, ,
-34, ,-24, ,
-32, ,-24, ,
-30, ,-24, ,
-29, ,-26, ,
-28, ,-26, ,
-28, ,-26, ,
-28, ,-26, ,
-28, ,-26, ,
-28, ,-26, ,
-27, ,-26, ,
-27, ,-26, ,
-25, ,-26, ,
-24, ,-26, ,
-24, ,-26, ,
-21, ,-26, ,
-20, ,-26, ,
-19, ,-26, ,
-16, ,-26, ,
-17, ,-24, ,
-14, ,-26, ,
-13, ,-26, ,
-14, ,-26, ,
-13, ,-26, ,
-12, ,-26, ,
-9, ,-26, ,
-9, ,-26, ,
-7, ,-26, ,
-6, ,-26, ,
-4, ,-26, ,
-3, ,-26, ,
-4, ,-26, ,
-1, ,-26, ,
-1, ,-26, ,
0, ,-26, ,
0, ,-24, ,
1, ,-24, ,
1, ,-26, ,
1, ,-26, ,
1, ,-26, ,
1, ,-26, ,
1, ,-26, ,
4, ,-26, ,
4, ,-26, ,
5, ,-26, ,
5, ,-24, ,
6, ,-26, ,
7, ,-26, ,
5, ,-26, ,
6, ,-26, ,
7, ,-26, ,
5, ,-26, ,
5, ,-26, ,
4, ,-26, ,
2, ,-26, ,
3, ,-26, ,
2, ,-26, ,
1, ,-26, ,
1, ,-24, ,
1, ,-26, ,
2, ,-26, ,
1, ,-26, ,
0, ,-26, ,
1, ,-26, ,
0, ,-26, ,
-1, ,-24, ,
0, ,-26, ,
-2, ,-26, ,
-2, ,-26, ,
-4, ,-26, ,
-5, ,-26, ,
-5, ,-26, ,
-6, ,-26, ,
-8, ,-26, ,
-9, ,-24, ,
-11, ,-26, ,
-10, ,-26, ,
-11, ,-26, ,
-15, ,-26, ,
-16, ,-26, ,
-19, ,-24, ,
-21, ,-26, ,
-21, ,-26, ,
-22, ,-26, ,
-25, ,-26, ,
-27, ,-26, ,
-30, ,-26, ,
-30, ,-26, ,
-31, ,-26, ,
-33, ,-26, ,
-33, ,-26, ,
-35, ,-26, ,
-35, ,-26, ,
-35, ,-26, ,
-36, ,-26, ,
-37, ,-26, ,
-38, ,-26, ,
-37, ,-26, ,
-37, ,-26, ,
-37, ,-26, ,
-36, ,-26, ,
-34, ,-26, ,
-34, ,-26, ,
-32, ,-26, ,
-30, ,-24, ,
-29, ,-26, ,
-25, ,-26, ,
-25, ,-24, ,
-24, ,-24, ,
-22, ,-24, ,
-23, ,-26, ,
-20, ,-26, ,
-22, ,-26, ,
-22, ,-26, ,
-21, ,-26, ,
-22, ,-24, ,
-21, ,-26, ,
-21, ,-26, ,
-21, ,-26, ,
-22, ,-26, ,
-22, ,-26, ,
-20, ,-26, ,
-20, ,-26, ,
-19, ,-26, ,
-19, ,-26, ,
-17, ,-26, ,
-17, ,-26, ,
-17, ,-26, ,
-15, ,-26, ,
-14, ,-24, ,
-12, ,-24, ,
-11, ,-24, ,
-8, ,-26, ,
-5, ,-26, ,
-3, ,-26, ,
-2, ,-26, ,
1, ,-26, ,
5, ,-26, ,
6, ,-24, ,
9, ,-26, ,
11, ,-26, ,
12, ,-26, ,
14, ,-26, ,
14, ,-26, ,
14, ,-26, ,
15, ,-26, ,
15, ,-24, ,
14, ,-24, ,
15, ,-24, ,
15, ,-24, ,
14, ,-24, ,
14, ,-24, ,
12, ,-24, ,
11, ,-24, ,
11, ,-24, ,
11, ,-24, ,
8, ,-26, ,
7, ,-26, ,
6, ,-26, ,
5, ,-26, ,
4, ,-26, ,
3, ,-26, ,
3, ,-26, ,
2, ,-24, ,
3, ,-26, ,
2, ,-26, ,
1, ,-26, ,
2, ,-26, ,
2, ,-26, ,
2, ,-26, ,
3, ,-26, ,
3, ,-26, ,
3, ,-26, ,
3, ,-26, ,
2, ,-26, ,
3, ,-24, ,
2, ,-24, ,
1, ,-26, ,
4, ,-26, ,
1, ,-24, ,
2, ,-24, ,
2, ,-26, ,
0, ,-26, ,
0, ,-26, ,
-2, ,-26, ,
-5, ,-26, ,
-5, ,-26, ,
-8, ,-26, ,
-7, ,-26, ,
-10, ,-26, ,
-12, ,-26, ,
-13, ,-26, ,
-17, ,-24, ,
-19, ,-24, ,
-20, ,-26, ,
-23, ,-26, ,
-23, ,-26, ,
-26, ,-26, ,
-28, ,-26, ,
-28, ,-24, ,
-31, ,-24, ,
-34, ,-24, ,
-33, ,-24, ,
-35, ,-24, ,
-35, ,-24, ,
-37, ,-24, ,
-38, ,-26, ,
-38, ,-26, ,
-39, ,-26, ,
-39, ,-26, ,
-40, ,-26, ,
-40, ,-26, ,
-40, ,-26, ,
-39, ,-26, ,
-39, ,-26, ,
-38, ,-26, ,
-39, ,-24, ,
-38, ,-24, ,
-35, ,-24, ,
-35, ,-26, ,
-32, ,-26, ,
-29, ,-24, ,
-30, ,-26, ,
-27, ,-26, ,
-27, ,-26, ,
-23, ,-24, ,
-19, ,-24, ,
-19, ,-26, ,
-17, ,-26, ,
-12, ,-26, ,
-12, ,-26, ,
-9, ,-24, ,
-8, ,-24, ,
-4, ,-24, ,
-2, ,-24, ,
-2, ,-26, ,
-2, ,-26, ,
-2, ,-26, ,
-2, ,-26, ,
-2, ,-26, ,
-3, ,-24, ,
-4, ,-24, ,
-5, ,-26, ,
-6, ,-26, ,
-6, ,-26, ,
-8, ,-26, ,
-10, ,-26, ,
-10, ,-26, ,
-10, ,-26, ,
-14, ,-26, ,
-13, ,-26, ,
-15, ,-26, ,
-16, ,-26, ,
-16, ,-26, ,
-18, ,-26, ,
-19, ,-26, ,
-19, ,-24, ,
-18, ,-26, ,
-20, ,-26, ,
-20, ,-26, ,
-19, ,-26, ,
-19, ,-26, ,
-19, ,-26, ,
-19, ,-26, ,
-19, ,-26, ,
-16, ,-26, ,
-16, ,-26, ,
-17, ,-26, ,
-15, ,-26, ,
-14, ,-26, ,
-14, ,-26, ,
-13, ,-26, ,
-14, ,-26, ,
-12, ,-26, ,
-10, ,-26, ,
-10, ,-26, ,
-11, ,-26, ,
-9, ,-26, ,
-9, ,-26, ,
-8, ,-26, ,
-8, ,-26, ,
-7, ,-26, ,
-5, ,-26, ,
-5, ,-26, ,
-5, ,-26, ,
-4, ,-26, ,
-4, ,-26, ,
-3, ,-26, ,
-3, ,-24, ,
-1, ,-24, ,
-1, ,-24, ,
-2, ,-26, ,
0, ,-26, ,
3, ,-26, ,
3, ,-26, ,
3, ,-26, ,
5, ,-26, ,
5, ,-26, ,
6, ,-24, ,
6, ,-26, ,
6, ,-26, ,
7, ,-26, ,
7, ,-26, ,
7, ,-26, ,
6, ,-26, ,
6, ,-26, ,
7, ,-26, ,
5, ,-24, ,
5, ,-24, ,
2, ,-24, ,
1, ,-24, ,
2, ,-24, ,
1, ,-26, ,
-1, ,-26, ,
-3, ,-26, ,
-4, ,-26, ,
-3, ,-26, ,
-8, ,-26, ,
-10, ,-26, ,
-11, ,-26, ,
-13, ,-26, ,
-14, ,-26, ,
-15, ,-26, ,
-15, ,-24, ,
-17, ,-24, ,
-17, ,-26, ,
-19, ,-26, ,
-17, ,-26, ,
-18, ,-26, ,
-19, ,-26, ,
-17, ,-26, ,
-18, ,-26, ,
-16, ,-26, ,
-15, ,-26, ,
-15, ,-24, ,
-14, ,-26, ,
-15, ,-26, ,
-12, ,-26, ,
-10, ,-26, ,
-10, ,-24, ,
-9, ,-26, ,
-7, ,-26, ,
-8, ,-26, ,
-5, ,-26, ,
-5, ,-26, ,
-5, ,-26, ,
-3, ,-26, ,
-4, ,-26, ,
-3, ,-26, ,
-4, ,-26, ,
-5, ,-26, ,
-5, ,-26, ,
-5, ,-26, ,
-6, ,-26, ,
-5, ,-26, ,
-7, ,-26, ,
-6, ,-26, ,
-7, ,-24, ,
-7, ,-26, ,
-7, ,-26, ,
-8, ,-26, ,
-10, ,-26, ,
-10, ,-26, ,
-10, ,-26, ,
-10, ,-26, ,
-12, ,-26, ,
-12, ,-26, ,
-13, ,-26, ,
-13, ,-26, ,
-14, ,-26, ,
-13, ,-26, ,
-14, ,-26, ,
-13, ,-26, ,
-13, ,-26, ,
-14, ,-26, ,
-12, ,-26, ,
-12, ,-26, ,
-12, ,-26, ,
-10, ,-26, ,
-10, ,-24, ,
-9, ,-24, ,
-9, ,-26, ,
-7, ,-26, ,
-6, ,-26, ,
-7, ,-24, ,
-4, ,-26, ,
-1, ,-26, ,
0, ,-26, ,
1, ,-26, ,
4, ,-26, ,
3, ,-26, ,
5, ,-26, ,
5, ,-26, ,
6, ,-26, ,
9, ,-26, ,
8, ,-24, ,
9, ,-24, ,
9, ,-24, ,
9, ,-24, ,
10, ,-26, ,
10, ,-26, ,
10, ,-26, ,
10, ,-26, ,
9, ,-26, ,
9, ,-26, ,
9, ,-26, ,
8, ,-26, ,
8, ,-26, ,
7, ,-26, ,
7, ,-26, ,
6, ,-24, ,
6, ,-26, ,
5, ,-26, ,
4, ,-26, ,
4, ,-26, ,
4, ,-26, ,
2, ,-26, ,
1, ,-24, ,
2, ,-24, ,
2, ,-26, ,
2, ,-26, ,
2, ,-26, ,
0, ,-26, ,
2, ,-26, ,
0, ,-26, ,
-1, ,-26, ,
-1, ,-26, ,
-1, ,-26, ,
-1, ,-26, ,
-2, ,-26, ,
-2, ,-26, ,
-3, ,-26, ,
-3, ,-24, ,
-3, ,-26, ,
-3, ,-26, ,
-4, ,-26, ,
-3, ,-24, ,
-4, ,-24, ,
-5, ,-24, ,
-5, ,-26, ,
-5, ,-26, ,
-6, ,-26, ,
-6, ,-26, ,
-7, ,-26, ,
-8, ,-26, ,
-8, ,-26, ,
-10, ,-26, ,
-9, ,-26, ,
-11, ,-26, ,
-12, ,-26, ,
-11, ,-26, ,
-13, ,-26, ,
-10, ,-26, ,
-10, ,-26, ,
-11, ,-26, ,
-9, ,-26, ,
-10, ,-24, ,
-9, ,-24, ,
-8, ,-24, ,
-7, ,-26, ,
-5, ,-26, ,
-4, ,-26, ,
-3, ,-26, ,
-2, ,-26, ,
0, ,-24, ,
2, ,-26, ,
4, ,-26, ,
4, ,-26, ,
5, ,-26, ,
8, ,-24, ,
6, ,-26, ,
10, ,-26, ,
10, ,-26, ,
10, ,-26, ,
10, ,-24, ,
10, ,-26, ,
11, ,-26, ,
11, ,-26, ,
11, ,-26, ,
11, ,-26, ,
10, ,-24, ,
10, ,-24, ,
10, ,-26, ,
9, ,-26, ,
9, ,-26, ,
9, ,-26, ,
8, ,-26, ,
8, ,-26, ,
7, ,-26, ,
7, ,-26, ,
7, ,-26, ,
7, ,-26, ,
7, ,-26, ,
7, ,-26, ,
7, ,-26, ,
7, ,-26, ,
7, ,-26, ,
6, ,-26, ,
7, ,-26, ,
5, ,-24, ,
6, ,-26, ,
6, ,-26, ,
5, ,-26, ,
5, ,-26, ,
4, ,-26, ,
3, ,-26, ,
3, ,-26, ,
1, ,-26, ,
1, ,-26, ,
0, ,-26, ,
-2, ,-26, ,
-1, ,-26, ,
-3, ,-26, ,
-4, ,-24, ,
-3, ,-26, ,
-5, ,-26, ,
-5, ,-26, ,
-5, ,-26, ,
-7, ,-26, ,
-7, ,-24, ,
-8, ,-24, ,
-9, ,-26, ,
-7, ,-26, ,
-8, ,-24, ,
-7, ,-26, ,
-7, ,-26, ,
-9, ,-26, ,
-6, ,-26, ,
-8, ,-26, ,
-5, ,-26, ,
-5, ,-26, ,
-5, ,-24, ,
-5, ,-26, ,
-5, ,-26, ,
-5, ,-26, ,
-4, ,-24, ,
-4, ,-26, ,
-4, ,-26, ,
-2, ,-26, ,
-4, ,-24, ,
-3, ,-26, ,
-2, ,-26, ,
-3, ,-26, ,
-1, ,-26, ,
-3, ,-26, ,
-3, ,-26, ,
-2, ,-26, ,
-2, ,-24, ,
-2, ,-26, ,
-3, ,-26, ,
-3, ,-26, ,
-4, ,-26, ,
-3, ,-26, ,
-3, ,-26, ,
-3, ,-26, ,
-4, ,-26, ,
-3, ,-26, ,
-3, ,-24, ,
-4, ,-24, ,
-4, ,-26, ,
-5, ,-26, ,
-5, ,-24, ,
-5, ,-24, ,
-6, ,-26, ,
-6, ,-26, ,
-6, ,-26, ,
-8, ,-26, ,
-8, ,-26, ,
-8, ,-26, ,
-10, ,-26, ,
-10, ,-24, ,
-12, ,-26, ,
-11, ,-26, ,
-12, ,-26, ,
-14, ,-26, ,
-14, ,-26, ,
-15, ,-24, ,
-16, ,-26, ,
-17, ,-26, ,
-18, ,-26, ,
-18, ,-26, ,
-19, ,-26, ,
-19, ,-26, ,
-19, ,-26, ,
-19, ,-26, ,
-19, ,-26, ,
-16, ,-26, ,
-17, ,-26, ,
-16, ,-26, ,
-15, ,-26, ,
-14, ,-26, ,
-11, ,-26, ,
-11, ,-26, ,
-10, ,-26, ,
-7, ,-26, ,
-9, ,-24, ,
-5, ,-26, ,
-3, ,-26, ,
-4, ,-26, ,
0, ,-26, ,
1, ,-26, ,
2, ,-26, ,
4, ,-26, ,
5, ,-26, ,
7, ,-26, ,
8, ,-26, ,
9, ,-26, ,
9, ,-26, ,
10, ,-26, ,
11, ,-26, ,
12, ,-26, ,
11, ,-26, ,
12, ,-26, ,
13, ,-26, ,
12, ,-26, ,
12, ,-26, ,
12, ,-26, ,
13, ,-26, ,
13, ,-24, ,
12, ,-24, ,
12, ,-24, ,
12, ,-24, ,
11, ,-24, ,
11, ,-26, ,
10, ,-26, ,
10, ,-26, ,
10, ,-24, ,
10, ,-26, ,
10, ,-26, ,
11, ,-26, ,
8, ,-26, ,
8, ,-26, ,
8, ,-26, ,
7, ,-26, ,
8, ,-26, ,
6, ,-26, ,
7, ,-26, ,
5, ,-26, ,
4, ,-26, ,
4, ,-26, ,
3, ,-26, ,
3, ,-26, ,
4, ,-26, ,
2, ,-26, ,
2, ,-26, ,
1, ,-26, ,
0, ,-26, ,
0, ,-26, ,
-1, ,-26, ,
-2, ,-26, ,
-2, ,-26, ,
-3, ,-26, ,
-3, ,-26, ,
-5, ,-24, ,
-5, ,-26, ,
-5, ,-26, ,
-6, ,-24, ,
-7, ,-26, ,
-7, ,-26, ,
-8, ,-24, ,
-8, ,-24, ,
-8, ,-26, ,
-9, ,-26, ,
-9, ,-26, ,
-10, ,-26, ,
-9, ,-26, ,
-9, ,-26, ,
-9, ,-24, ,
-8, ,-24, ,
-8, ,-24, ,
-8, ,-26, ,
-8, ,-26, ,
-9, ,-24, ,
-7, ,-24, ,
-5, ,-24, ,
-6, ,-24, ,
-5, ,-26, ,
-4, ,-26, ,
-4, ,-26, ,
-3, ,-26, ,
-4, ,-26, ,
-4, ,-26, ,
-3, ,-24, ,
-3, ,-24, ,
-3, ,-24, ,
-2, ,-24, ,
-2, ,-26, ,
-2, ,-26, ,
-3, ,-26, ,
-3, ,-26, ,
-2, ,-26, ,
-4, ,-26, ,
-4, ,-26, ,
-5, ,-26, ,
-6, ,-26, ,
-6, ,-26, ,
-6, ,-26, ,
-7, ,-26, ,
-7, ,-26, ,
-7, ,-26, ,
-7, ,-26, ,
-8, ,-26, ,
-8, ,-26, ,
-8, ,-26, ,
-8, ,-26, ,
-9, ,-26, ,
-9, ,-26, ,
-9, ,-26, ,
-9, ,-26, ,
-8, ,-26, ,
-9, ,-26, ,
-9, ,-26, ,
-9, ,-26, ,
-9, ,-26, ,
-9, ,-26, ,
-9, ,-26, ,
-8, ,-26, ,
-8, ,-24, ,
-9, ,-26, ,
-8, ,-26, ,
-10, ,-26, ,
-10, ,-26, ,
-10, ,-26, ,
-10, ,-24, ,
-10, ,-26, ,
-10, ,-26, ,
-10, ,-26, ,
-10, ,-26, ,
-11, ,-26, ,
-12, ,-26, ,
-10, ,-26, ,
-10, ,-26, ,
-10, ,-26, ,
-11, ,-26, ,
-12, ,-26, ,
-12, ,-26, ,
-12, ,-26, ,
-12, ,-26, ,
-13, ,-26, ,
-14, ,-26, ,
-13, ,-26, ,
-13, ,-26, ,
-14, ,-26, ,
-14, ,-26, ,
-14, ,-26, ,
-14, ,-26, ,
-13, ,-26, ,
-14, ,-26, ,
-13, ,-26, ,
-12, ,-24, ,
-12, ,-26, ,
-9, ,-26, ,
-8, ,-26, ,
-7, ,-26, ,
-4, ,-26, ,
-5, ,-24, ,
-3, ,-26, ,
3, ,-26, ,
2, ,-26, ,
6, ,-24, ,
8, ,-24, ,
11, ,-24, ,
13, ,-24, ,
15, ,-24, ,
18, ,-26, ,
20, ,-26, ,
21, ,-26, ,
24, ,-26, ,
23, ,-26, ,
25, ,-26, ,
25, ,-26, ,
24, ,-26, ,
24, ,-24, ,
24, ,-24, ,
22, ,-26, ,
22, ,-26, ,
21, ,-26, ,
17, ,-26, ,
17, ,-26, ,
15, ,-24, ,
15, ,-26, ,
11, ,-26, ,
9, ,-26, ,
9, ,-26, ,
5, ,-26, ,
3, ,-26, ,
4, ,-26, ,
1, ,-24, ,
1, ,-26, ,
0, ,-26, ,
0, ,-26, ,
0, ,-24, ,
-1, ,-26, ,
-1, ,-26, ,
0, ,-26, ,
0, ,-26, ,
0, ,-26, ,
1, ,-26, ,
0, ,-26, ,
3, ,-26, ,
2, ,-26, ,
2, ,-26, ,
4, ,-26, ,
3, ,-24, ,
5, ,-24, ,
4, ,-24, ,
3, ,-26, ,
5, ,-26, ,
5, ,-24, ,
5, ,-24, ,
5, ,-26, ,
5, ,-26, ,
4, ,-26, ,
5, ,-26, ,
4, ,-26, ,
4, ,-26, ,
3, ,-26, ,
3, ,-26, ,
3, ,-26, ,
2, ,-26, ,
2, ,-26, ,
3, ,-26, ,
3, ,-26, ,
3, ,-26, ,
2, ,-26, ,
1, ,-26, ,
3, ,-24, ,
3, ,-26, ,
4, ,-26, ,
4, ,-26, ,
5, ,-26, ,
5, ,-24, ,
5, ,-24, ,
5, ,-26, ,
5, ,-26, ,
5, ,-26, ,
6, ,-26, ,
7, ,-24, ,
6, ,-26, ,
7, ,-26, ,
7, ,-26, ,
7, ,-26, ,
7, ,-26, ,
7, ,-26, ,
6, ,-26, ,
7, ,-26, ,
6, ,-26, ,
7, ,-26, ,
5, ,-24, ,
5, ,-24, ,
5, ,-26, ,
5, ,-26, ,
5, ,-26, ,
4, ,-26, ,
3, ,-26, ,
3, ,-26, ,
2, ,-26, ,
2, ,-26, ,
2, ,-26, ,
1, ,-26, ,
1, ,-26, ,
1, ,-26, ,
0, ,-26, ,
2, ,-24, ,
0, ,-24, ,
0, ,-24, ,
0, ,-26, ,
-1, ,-26, ,
-1, ,-26, ,
-1, ,-26, ,
-3, ,-26, ,
-3, ,-26, ,
-3, ,-26, ,
-4, ,-26, ,
-4, ,-24, ,
-5, ,-26, ,
-5, ,-26, ,
-5, ,-26, ,
-7, ,-26, ,
-6, ,-26, ,
-7, ,-26, ,
-8, ,-26, ,
-8, ,-26, ,
-9, ,-26, ,
-9, ,-26, ,
-10, ,-24, ,
-10, ,-26, ,
-10, ,-26, ,
-11, ,-26, ,
-12, ,-26, ,
-11, ,-26, ,
-11, ,-26, ,
-10, ,-26, ,
-10, ,-24, ,
-10, ,-26, ,
-9, ,-26, ,
-10, ,-26, ,
-9, ,-26, ,
-6, ,-26, ,
-7, ,-26, ,
-7, ,-26, ,
-2, ,-26, ,
-4, ,-26, ,
-1, ,-24, ,
-2, ,-26, ,
-1, ,-26, ,
1, ,-26, ,
2, ,-26, ,
5, ,-26, ,
5, ,-26, ,
6, ,-26, ,
9, ,-26, ,
8, ,-24, ,
9, ,-26, ,
11, ,-26, ,
11, ,-26, ,
13, ,-26, ,
14, ,-26, ,
14, ,-26, ,
