raw_data/100% Glycerol, Impulsion 2Hz, Sonde 5MHz, Rampe 0.7Hz/temp0000095.CSV

Format,1.0B,
Memory Length,10000,Memory Length,10000,
IntpDistance,0,IntpDistance,0,
Trigger Address,159,Trigger Address,159,
Trigger Level,2.720E-01,Trigger Level,2.720E-01,
Source,CH1,Source,CH2,
Vertical Units,V,Vertical Units,V,
Vertical Units Div,0,Vertical Units Div,0,
Vertical Units Extend Div,16,Vertical Units Extend Div,16,
Label,,Label,,
Probe Type,0,Probe Type,0,
Probe Ratio,1.000e+00,Probe Ratio,1.000e+00,
Vertical Scale,2.000e-01,Vertical Scale,2.000e+00,
Vertical Position,0.000e+00,Vertical Position,0.000e+00,
Horizontal Units,S,Horizontal Units,S,
Horizontal Scale,5.000E-06,Horizontal Scale,5.000E-06,
Horizontal Position,2.420E-05,Horizontal Position,2.420E-05,
Horizontal Mode,Main,Horizontal Mode,Main,
SincET Mode,Real Time,SincET Mode,Real Time,
Sampling Period,5.000e-09,Sampling Period,5.000e-09,
Horizontal Old Scale,5.000E-06,Horizontal Old Scale,5.000E-06,
Horizontal Old Position,2.420E-05,Horizontal Old Position,2.420E-05,
Firmware,V1.32,Firmware,V1.32,
Mode,Fast,Mode,Fast,
Waveform Data,,Waveform Data,,
1, ,-18, ,
2, ,-18, ,
1, ,-18, ,
2, ,-18, ,
2, ,-18, ,
1, ,-18, ,
2, ,-18, ,
2, ,-18, ,
1, ,-18, ,
3, ,-18, ,
1, ,-18, ,
1, ,-18, ,
2, ,-18, ,
1, ,-18, ,
2, ,-18, ,
3, ,-18, ,
2, ,-18, ,
2, ,-18, ,
0, ,-18, ,
2, ,-18, ,
2, ,-18, ,
1, ,-18, ,
2, ,-18, ,
2, ,-18, ,
1, ,-18, ,
3, ,-18, ,
2, ,-18, ,
0, ,-18, ,
2, ,-18, ,
1, ,-18, ,
1, ,-18, ,
2, ,-18, ,
2, ,-18, ,
2, ,-18, ,
1, ,-18, ,
1, ,-18, ,
2, ,-18, ,
1, ,-18, ,
2, ,-18, ,
1, ,-18, ,
2, ,-18, ,
2, ,-18, ,
2, ,-18, ,
2, ,-18, ,
2, ,-18, ,
2, ,-18, ,
1, ,-18, ,
2, ,-18, ,
2, ,-18, ,
1, ,-18, ,
1, ,-18, ,
1, ,-18, ,
2, ,-18, ,
2, ,-18, ,
2, ,-18, ,
2, ,-18, ,
1, ,-18, ,
2, ,-18, ,
2, ,-18, ,
2, ,-18, ,
2, ,-18, ,
2, ,-18, ,
2, ,-18, ,
3, ,-18, ,
2, ,-18, ,
2, ,-18, ,
2, ,-18, ,
3, ,-18, ,
2, ,-18, ,
2, ,-18, ,
2, ,-18, ,
3, ,-18, ,
1, ,-18, ,
1, ,-18, ,
2, ,-18, ,
2, ,-18, ,
2, ,-18, ,
2, ,-18, ,
2, ,-18, ,
2, ,-18, ,
1, ,-18, ,
3, ,-18, ,
2, ,-18, ,
2, ,-18, ,
2, ,-18, ,
1, ,-18, ,
2, ,-18, ,
2, ,-18, ,
1, ,-18, ,
3, ,-18, ,
2, ,-18, ,
1, ,-18, ,
2, ,-18, ,
2, ,-18, ,
2, ,-18, ,
2, ,-18, ,
2, ,-18, ,
2, ,-18, ,
2, ,-18, ,
2, ,-18, ,
2, ,-18, ,
1, ,-18, ,
3, ,-18, ,
3, ,-18, ,
1, ,-18, ,
2, ,-18, ,
1, ,-18, ,
2, ,-18, ,
2, ,-18, ,
2, ,-18, ,
2, ,-18, ,
2, ,-18, ,
1, ,-18, ,
2, ,-18, ,
1, ,-18, ,
2, ,-18, ,
1, ,-18, ,
1, ,-18, ,
2, ,-18, ,
2, ,-18, ,
1, ,-18, ,
2, ,-18, ,
1, ,-18, ,
0, ,-18, ,
3, ,-18, ,
2, ,-18, ,
2, ,-18, ,
2, ,-18, ,
1, ,-18, ,
2, ,-18, ,
1, ,-18, ,
2, ,-18, ,
2, ,-18, ,
2, ,-18, ,
3, ,-18, ,
2, ,-18, ,
1, ,-18, ,
2, ,-18, ,
1, ,-18, ,
1, ,-18, ,
1, ,-18, ,
2, ,-18, ,
2, ,-18, ,
2, ,-18, ,
1, ,-18, ,
2, ,-18, ,
1, ,-18, ,
1, ,-18, ,
2, ,-18, ,
1, ,-18, ,
2, ,-18, ,
2, ,-18, ,
1, ,-18, ,
2, ,-18, ,
1, ,-18, ,
1, ,-18, ,
2, ,-18, ,
1, ,-18, ,
1, ,-18, ,
2, ,-18, ,
1, ,-18, ,
2, ,-18, ,
1, ,-18, ,
4, ,-18, ,
0, ,-18, ,
2, ,-18, ,
-2, ,-18, ,
39, ,-18, ,
105, ,-18, ,
125, ,-18, ,
125, ,-18, ,
124, ,-18, ,
120, ,-18, ,
107, ,-18, ,
-6, ,-18, ,
121, ,-18, ,
125, ,-18, ,
125, ,-18, ,
125, ,-18, ,
125, ,-18, ,
125, ,-18, ,
125, ,-18, ,
125, ,-18, ,
125, ,-18, ,
125, ,-18, ,
125, ,-18, ,
125, ,-18, ,
125, ,-18, ,
125, ,-18, ,
125, ,-18, ,
125, ,-18, ,
125, ,-18, ,
125, ,-18, ,
125, ,-18, ,
125, ,-18, ,
125, ,-18, ,
125, ,-18, ,
125, ,-18, ,
125, ,-18, ,
125, ,-18, ,
125, ,-18, ,
125, ,-18, ,
124, ,-18, ,
119, ,-18, ,
115, ,-18, ,
109, ,-18, ,
105, ,-18, ,
98, ,-18, ,
94, ,-18, ,
90, ,-18, ,
84, ,-18, ,
78, ,-18, ,
74, ,-18, ,
69, ,-18, ,
66, ,-18, ,
62, ,-18, ,
58, ,-18, ,
56, ,-18, ,
52, ,-18, ,
48, ,-18, ,
48, ,-18, ,
44, ,-18, ,
43, ,-18, ,
38, ,-18, ,
35, ,-18, ,
34, ,-18, ,
33, ,-18, ,
30, ,-18, ,
29, ,-18, ,
26, ,-18, ,
27, ,-18, ,
23, ,-18, ,
20, ,-18, ,
21, ,-18, ,
18, ,-18, ,
16, ,-18, ,
16, ,-18, ,
14, ,-18, ,
15, ,-18, ,
12, ,-18, ,
11, ,-18, ,
12, ,-18, ,
9, ,-18, ,
8, ,-18, ,
8, ,-18, ,
7, ,-18, ,
6, ,-18, ,
5, ,-18, ,
4, ,-18, ,
4, ,-18, ,
3, ,-18, ,
2, ,-18, ,
2, ,-18, ,
2, ,-18, ,
2, ,-18, ,
1, ,-18, ,
2, ,-18, ,
1, ,-18, ,
0, ,-18, ,
-1, ,-18, ,
-1, ,-18, ,
-1, ,-18, ,
-1, ,-18, ,
-1, ,-18, ,
-2, ,-18, ,
-1, ,-18, ,
-1, ,-18, ,
-2, ,-18, ,
-2, ,-18, ,
-2, ,-18, ,
-2, ,-18, ,
-2, ,-18, ,
-2, ,-18, ,
-2, ,-18, ,
-3, ,-18, ,
-3, ,-18, ,
-3, ,-18, ,
-4, ,-18, ,
-3, ,-18, ,
-3, ,-18, ,
-3, ,-18, ,
-3, ,-18, ,
-3, ,-18, ,
-3, ,-18, ,
-2, ,-18, ,
-3, ,-18, ,
-3, ,-18, ,
-2, ,-18, ,
-2, ,-18, ,
-2, ,-18, ,
-2, ,-18, ,
-3, ,-18, ,
-2, ,-18, ,
-4, ,-18, ,
-2, ,-18, ,
-2, ,-18, ,
-3, ,-18, ,
-2, ,-18, ,
-3, ,-18, ,
-3, ,-18, ,
-3, ,-18, ,
-2, ,-18, ,
-2, ,-18, ,
-2, ,-18, ,
-2, ,-18, ,
-2, ,-18, ,
-3, ,-18, ,
-3, ,-18, ,
-1, ,-18, ,
-2, ,-18, ,
-1, ,-18, ,
-1, ,-18, ,
-2, ,-18, ,
-1, ,-18, ,
-2, ,-18, ,
-2, ,-18, ,
-2, ,-18, ,
0, ,-18, ,
-1, ,-18, ,
-1, ,-18, ,
-1, ,-18, ,
-1, ,-18, ,
-1, ,-18, ,
-1, ,-18, ,
-1, ,-18, ,
-1, ,-18, ,
-1, ,-18, ,
-2, ,-18, ,
0, ,-18, ,
0, ,-18, ,
0, ,-18, ,
0, ,-18, ,
0, ,-18, ,
0, ,-18, ,
0, ,-18, ,
0, ,-18, ,
0, ,-18, ,
0, ,-18, ,
0, ,-18, ,
0, ,-18, ,
0, ,-18, ,
0, ,-18, ,
1, ,-18, ,
0, ,-18, ,
0, ,-18, ,
1, ,-18, ,
1, ,-18, ,
1, ,-18, ,
1, ,-18, ,
0, ,-18, ,
0, ,-18, ,
1, ,-18, ,
1, ,-18, ,
0, ,-18, ,
-1, ,-18, ,
1, ,-18, ,
0, ,-18, ,
0, ,-18, ,
1, ,-18, ,
0, ,-18, ,
0, ,-18, ,
0, ,-18, ,
1, ,-18, ,
1, ,-18, ,
1, ,-18, ,
1, ,-18, ,
0, ,-18, ,
1, ,-18, ,
0, ,-18, ,
1, ,-18, ,
1, ,-18, ,
1, ,-18, ,
2, ,-18, ,
1, ,-18, ,
1, ,-18, ,
1, ,-18, ,
1, ,-18, ,
1, ,-18, ,
1, ,-18, ,
1, ,-18, ,
1, ,-18, ,
1, ,-18, ,
1, ,-18, ,
1, ,-18, ,
2, ,-18, ,
1, ,-18, ,
1, ,-18, ,
1, ,-18, ,
1, ,-18, ,
1, ,-18, ,
1, ,-18, ,
1, ,-18, ,
1, ,-18, ,
2, ,-18, ,
1, ,-18, ,
2, ,-18, ,
2, ,-18, ,
1, ,-18, ,
2, ,-18, ,
1, ,-18, ,
2, ,-18, ,
2, ,-18, ,
1, ,-18, ,
1, ,-18, ,
1, ,-18, ,
1, ,-18, ,
1, ,-18, ,
1, ,-18, ,
1, ,-18, ,
1, ,-18, ,
2, ,-18, ,
1, ,-18, ,
2, ,-18, ,
2, ,-18, ,
1, ,-18, ,
2, ,-18, ,
1, ,-18, ,
2, ,-18, ,
1, ,-18, ,
1, ,-18, ,
2, ,-18, ,
1, ,-18, ,
2, ,-18, ,
1, ,-18, ,
1, ,-18, ,
1, ,-18, ,
1, ,-18, ,
1, ,-18, ,
1, ,-18, ,
0, ,-18, ,
0, ,-18, ,
0, ,-18, ,
0, ,-18, ,
1, ,-18, ,
1, ,-18, ,
2, ,-18, ,
2, ,-18, ,
1, ,-18, ,
1, ,-18, ,
0, ,-18, ,
0, ,-18, ,
0, ,-18, ,
-1, ,-18, ,
-2, ,-18, ,
-1, ,-18, ,
-2, ,-18, ,
0, ,-18, ,
0, ,-18, ,
0, ,-18, ,
0, ,-18, ,
1, ,-18, ,
1, ,-18, ,
1, ,-18, ,
1, ,-18, ,
1, ,-18, ,
2, ,-18, ,
1, ,-18, ,
2, ,-18, ,
2, ,-18, ,
1, ,-18, ,
1, ,-18, ,
2, ,-18, ,
2, ,-18, ,
2, ,-18, ,
1, ,-18, ,
1, ,-18, ,
1, ,-18, ,
2, ,-18, ,
1, ,-18, ,
2, ,-18, ,
3, ,-18, ,
3, ,-18, ,
1, ,-18, ,
1, ,-18, ,
2, ,-18, ,
1, ,-18, ,
1, ,-18, ,
0, ,-18, ,
0, ,-18, ,
0, ,-18, ,
0, ,-18, ,
-1, ,-18, ,
-1, ,-18, ,
0, ,-18, ,
1, ,-18, ,
0, ,-18, ,
0, ,-18, ,
0, ,-18, ,
0, ,-18, ,
1, ,-18, ,
1, ,-18, ,
1, ,-18, ,
2, ,-18, ,
1, ,-18, ,
2, ,-18, ,
1, ,-18, ,
2, ,-18, ,
2, ,-18, ,
1, ,-18, ,
0, ,-18, ,
0, ,-18, ,
0, ,-18, ,
0, ,-18, ,
0, ,-18, ,
0, ,-18, ,
0, ,-18, ,
0, ,-18, ,
0, ,-18, ,
2, ,-18, ,
1, ,-18, ,
1, ,-18, ,
1, ,-18, ,
1, ,-18, ,
1, ,-18, ,
0, ,-18, ,
-1, ,-18, ,
-1, ,-18, ,
-4, ,-18, ,
-4, ,-18, ,
-6, ,-18, ,
-7, ,-18, ,
-7, ,-18, ,
-8, ,-18, ,
-9, ,-18, ,
-7, ,-18, ,
-8, ,-18, ,
-8, ,-18, ,
-7, ,-18, ,
-7, ,-18, ,
-7, ,-18, ,
-8, ,-18, ,
-9, ,-18, ,
-8, ,-18, ,
-10, ,-18, ,
-11, ,-18, ,
-13, ,-18, ,
-16, ,-18, ,
-16, ,-18, ,
-18, ,-18, ,
-21, ,-18, ,
-25, ,-18, ,
-25, ,-18, ,
-26, ,-18, ,
-28, ,-18, ,
-29, ,-18, ,
-28, ,-18, ,
-30, ,-18, ,
-28, ,-18, ,
-27, ,-18, ,
-27, ,-18, ,
-27, ,-18, ,
-28, ,-18, ,
-29, ,-18, ,
-29, ,-18, ,
-30, ,-18, ,
-32, ,-18, ,
-33, ,-18, ,
-33, ,-18, ,
-33, ,-18, ,
-32, ,-18, ,
-32, ,-18, ,
-32, ,-18, ,
-30, ,-18, ,
-26, ,-18, ,
-22, ,-18, ,
-21, ,-18, ,
-17, ,-18, ,
-12, ,-18, ,
-10, ,-18, ,
-7, ,-18, ,
-6, ,-18, ,
-4, ,-18, ,
-5, ,-18, ,
-3, ,-18, ,
-3, ,-18, ,
-4, ,-18, ,
-7, ,-18, ,
-8, ,-18, ,
-9, ,-18, ,
-10, ,-18, ,
-8, ,-18, ,
-8, ,-18, ,
-8, ,-18, ,
-5, ,-18, ,
-6, ,-18, ,
-4, ,-18, ,
-3, ,-18, ,
-2, ,-18, ,
-1, ,-18, ,
-2, ,-18, ,
-1, ,-18, ,
-2, ,-18, ,
-3, ,-18, ,
-3, ,-18, ,
-5, ,-18, ,
-7, ,-18, ,
-8, ,-18, ,
-8, ,-18, ,
-8, ,-18, ,
-7, ,-18, ,
-7, ,-18, ,
-7, ,-18, ,
-6, ,-18, ,
-5, ,-18, ,
-3, ,-18, ,
-3, ,-18, ,
-3, ,-18, ,
-3, ,-18, ,
-3, ,-18, ,
-4, ,-18, ,
-6, ,-18, ,
-9, ,-18, ,
-12, ,-18, ,
-14, ,-18, ,
-16, ,-18, ,
-21, ,-18, ,
-23, ,-18, ,
-24, ,-18, ,
-25, ,-18, ,
-27, ,-18, ,
-27, ,-18, ,
-27, ,-18, ,
-28, ,-18, ,
-28, ,-18, ,
-28, ,-18, ,
-30, ,-18, ,
-31, ,-18, ,
-31, ,-18, ,
-32, ,-18, ,
-33, ,-18, ,
-34, ,-18, ,
-35, ,-18, ,
-35, ,-18, ,
-35, ,-18, ,
-35, ,-18, ,
-35, ,-18, ,
-35, ,-18, ,
-35, ,-18, ,
-35, ,-18, ,
-35, ,-18, ,
-35, ,-18, ,
-35, ,-18, ,
-35, ,-18, ,
-34, ,-18, ,
-34, ,-18, ,
-34, ,-18, ,
-34, ,-18, ,
-32, ,-18, ,
-32, ,-18, ,
-31, ,-18, ,
-32, ,-18, ,
-33, ,-18, ,
-32, ,-18, ,
-35, ,-18, ,
-35, ,-18, ,
-37, ,-18, ,
-37, ,-18, ,
-38, ,-18, ,
-39, ,-18, ,
-38, ,-18, ,
-37, ,-18, ,
-36, ,-18, ,
-35, ,-18, ,
-33, ,-18, ,
-31, ,-18, ,
-31, ,-18, ,
-30, ,-18, ,
-30, ,-18, ,
-31, ,-18, ,
-30, ,-18, ,
-32, ,-18, ,
-33, ,-18, ,
-34, ,-18, ,
-34, ,-18, ,
-34, ,-18, ,
-34, ,-18, ,
-33, ,-18, ,
-33, ,-18, ,
-32, ,-18, ,
-30, ,-18, ,
-29, ,-18, ,
-27, ,-18, ,
-25, ,-18, ,
-25, ,-18, ,
-25, ,-18, ,
-25, ,-18, ,
-25, ,-18, ,
-25, ,-18, ,
-24, ,-18, ,
-23, ,-18, ,
-22, ,-18, ,
-21, ,-18, ,
-19, ,-18, ,
-18, ,-18, ,
-17, ,-18, ,
-14, ,-18, ,
-14, ,-18, ,
-13, ,-18, ,
-12, ,-18, ,
-13, ,-18, ,
-10, ,-18, ,
-10, ,-18, ,
-9, ,-18, ,
-7, ,-18, ,
-7, ,-18, ,
-4, ,-18, ,
-5, ,-18, ,
-2, ,-18, ,
-1, ,-18, ,
-2, ,-18, ,
0, ,-18, ,
0, ,-18, ,
0, ,-18, ,
0, ,-18, ,
-1, ,-18, ,
-2, ,-18, ,
1, ,-18, ,
1, ,-18, ,
1, ,-18, ,
2, ,-18, ,
4, ,-18, ,
5, ,-18, ,
5, ,-18, ,
6, ,-18, ,
7, ,-18, ,
7, ,-18, ,
7, ,-18, ,
7, ,-18, ,
7, ,-18, ,
7, ,-18, ,
7, ,-18, ,
7, ,-18, ,
7, ,-18, ,
7, ,-18, ,
7, ,-18, ,
8, ,-18, ,
7, ,-18, ,
7, ,-18, ,
7, ,-18, ,
9, ,-18, ,
8, ,-18, ,
7, ,-18, ,
7, ,-18, ,
5, ,-18, ,
5, ,-18, ,
4, ,-18, ,
4, ,-18, ,
0, ,-18, ,
0, ,-18, ,
-1, ,-18, ,
-2, ,-18, ,
-5, ,-18, ,
-6, ,-18, ,
-7, ,-18, ,
-10, ,-18, ,
-13, ,-18, ,
-13, ,-18, ,
-15, ,-18, ,
-15, ,-18, ,
-16, ,-18, ,
-17, ,-18, ,
-17, ,-18, ,
-18, ,-18, ,
-18, ,-18, ,
-19, ,-18, ,
-19, ,-18, ,
-19, ,-18, ,
-20, ,-18, ,
-20, ,-18, ,
-20, ,-18, ,
-22, ,-18, ,
-23, ,-18, ,
-22, ,-18, ,
-25, ,-18, ,
-26, ,-18, ,
-27, ,-18, ,
-29, ,-18, ,
-28, ,-18, ,
-30, ,-18, ,
-31, ,-18, ,
-31, ,-18, ,
-32, ,-18, ,
-32, ,-18, ,
-33, ,-18, ,
-34, ,-18, ,
-34, ,-18, ,
-35, ,-18, ,
-35, ,-18, ,
-36, ,-18, ,
-36, ,-18, ,
-36, ,-18, ,
-36, ,-18, ,
-36, ,-18, ,
-35, ,-18, ,
-35, ,-18, ,
-34, ,-18, ,
-32, ,-18, ,
-29, ,-18, ,
-29, ,-18, ,
-24, ,-18, ,
-23, ,-18, ,
-20, ,-18, ,
-19, ,-18, ,
-15, ,-18, ,
-12, ,-18, ,
-12, ,-18, ,
-9, ,-18, ,
-4, ,-18, ,
-4, ,-18, ,
-2, ,-18, ,
0, ,-18, ,
4, ,-18, ,
6, ,-18, ,
7, ,-18, ,
10, ,-18, ,
11, ,-18, ,
13, ,-18, ,
14, ,-18, ,
14, ,-18, ,
15, ,-18, ,
15, ,-18, ,
15, ,-18, ,
15, ,-18, ,
14, ,-18, ,
14, ,-18, ,
15, ,-18, ,
14, ,-18, ,
14, ,-18, ,
14, ,-18, ,
12, ,-18, ,
13, ,-18, ,
12, ,-18, ,
11, ,-18, ,
10, ,-18, ,
9, ,-18, ,
9, ,-18, ,
7, ,-18, ,
7, ,-18, ,
7, ,-18, ,
7, ,-18, ,
6, ,-18, ,
7, ,-18, ,
6, ,-18, ,
5, ,-18, ,
5, ,-18, ,
4, ,-18, ,
4, ,-18, ,
4, ,-18, ,
2, ,-18, ,
0, ,-18, ,
-1, ,-18, ,
-3, ,-18, ,
-3, ,-18, ,
-5, ,-18, ,
-5, ,-18, ,
-8, ,-18, ,
-9, ,-18, ,
-8, ,-18, ,
-10, ,-18, ,
-12, ,-18, ,
-12, ,-18, ,
-13, ,-18, ,
-15, ,-18, ,
-18, ,-18, ,
-19, ,-18, ,
-20, ,-18, ,
-22, ,-18, ,
-24, ,-18, ,
-25, ,-18, ,
-25, ,-18, ,
-26, ,-18, ,
-27, ,-18, ,
-27, ,-18, ,
-27, ,-18, ,
-27, ,-18, ,
-28, ,-18, ,
-28, ,-18, ,
-28, ,-18, ,
-28, ,-18, ,
-27, ,-18, ,
-27, ,-18, ,
-27, ,-18, ,
-27, ,-18, ,
-26, ,-18, ,
-27, ,-18, ,
-27, ,-18, ,
-27, ,-18, ,
-27, ,-18, ,
-27, ,-18, ,
-27, ,-18, ,
-26, ,-18, ,
-27, ,-18, ,
-25, ,-18, ,
-25, ,-18, ,
-25, ,-18, ,
-24, ,-18, ,
-24, ,-18, ,
-23, ,-18, ,
-23, ,-18, ,
-22, ,-18, ,
-21, ,-18, ,
-22, ,-18, ,
-19, ,-18, ,
-19, ,-18, ,
-20, ,-18, ,
-17, ,-18, ,
-16, ,-18, ,
-16, ,-18, ,
-14, ,-18, ,
-14, ,-18, ,
-12, ,-18, ,
-12, ,-18, ,
-12, ,-18, ,
-11, ,-18, ,
-12, ,-18, ,
-12, ,-18, ,
-11, ,-18, ,
-12, ,-18, ,
-11, ,-18, ,
-12, ,-18, ,
-13, ,-18, ,
-13, ,-18, ,
-13, ,-18, ,
-13, ,-18, ,
-13, ,-18, ,
-14, ,-18, ,
-14, ,-18, ,
-13, ,-18, ,
-13, ,-18, ,
-13, ,-18, ,
-14, ,-18, ,
-14, ,-18, ,
-14, ,-18, ,
-14, ,-18, ,
-14, ,-18, ,
-15, ,-18, ,
-14, ,-18, ,
-14, ,-18, ,
-15, ,-18, ,
-15, ,-18, ,
-14, ,-18, ,
-14, ,-18, ,
-14, ,-18, ,
-13, ,-18, ,
-13, ,-18, ,
-13, ,-18, ,
-13, ,-18, ,
-12, ,-18, ,
-12, ,-18, ,
-13, ,-18, ,
-12, ,-18, ,
-11, ,-18, ,
-11, ,-18, ,
-10, ,-18, ,
-11, ,-18, ,
-10, ,-18, ,
-9, ,-18, ,
-8, ,-18, ,
-8, ,-18, ,
-7, ,-18, ,
-6, ,-18, ,
-6, ,-18, ,
-6, ,-18, ,
-5, ,-18, ,
-5, ,-18, ,
-5, ,-18, ,
-5, ,-18, ,
-4, ,-18, ,
-4, ,-18, ,
-4, ,-18, ,
-3, ,-18, ,
-4, ,-18, ,
-3, ,-18, ,
-3, ,-18, ,
-3, ,-18, ,
-3, ,-18, ,
-4, ,-18, ,
-4, ,-18, ,
-5, ,-18, ,
-5, ,-18, ,
-5, ,-18, ,
-5, ,-18, ,
-5, ,-18, ,
-5, ,-18, ,
-6, ,-18, ,
-5, ,-18, ,
-5, ,-18, ,
-5, ,-18, ,
-5, ,-18, ,
-5, ,-18, ,
-4, ,-18, ,
-4, ,-18, ,
-4, ,-18, ,
-4, ,-18, ,
-3, ,-18, ,
-3, ,-18, ,
-3, ,-18, ,
-4, ,-18, ,
-3, ,-18, ,
-3, ,-18, ,
-3, ,-18, ,
-2, ,-18, ,
-2, ,-18, ,
-2, ,-18, ,
-2, ,-18, ,
-3, ,-18, ,
-3, ,-18, ,
-3, ,-18, ,
-4, ,-18, ,
-4, ,-18, ,
-5, ,-18, ,
-6, ,-18, ,
-8, ,-18, ,
-8, ,-18, ,
-7, ,-18, ,
-8, ,-18, ,
-9, ,-18, ,
-9, ,-18, ,
-9, ,-18, ,
-9, ,-18, ,
-9, ,-18, ,
-10, ,-18, ,
-10, ,-18, ,
-9, ,-18, ,
-10, ,-18, ,
-10, ,-18, ,
-10, ,-18, ,
-9, ,-18, ,
-9, ,-18, ,
-9, ,-18, ,
-9, ,-18, ,
-8, ,-18, ,
-8, ,-18, ,
-8, ,-18, ,
-8, ,-18, ,
-8, ,-18, ,
-6, ,-18, ,
-7, ,-18, ,
-5, ,-18, ,
-5, ,-18, ,
-6, ,-18, ,
-5, ,-18, ,
-6, ,-18, ,
-6, ,-18, ,
-6, ,-18, ,
-7, ,-18, ,
-5, ,-18, ,
-5, ,-18, ,
-4, ,-18, ,
-4, ,-18, ,
-3, ,-18, ,
-3, ,-18, ,
-1, ,-18, ,
-2, ,-18, ,
-1, ,-18, ,
-1, ,-18, ,
0, ,-18, ,
0, ,-18, ,
-1, ,-18, ,
1, ,-18, ,
1, ,-18, ,
1, ,-18, ,
1, ,-18, ,
2, ,-18, ,
1, ,-18, ,
3, ,-18, ,
3, ,-18, ,
2, ,-18, ,
2, ,-18, ,
1, ,-18, ,
1, ,-18, ,
0, ,-18, ,
-1, ,-18, ,
-1, ,-18, ,
-2, ,-18, ,
-2, ,-18, ,
-2, ,-18, ,
-2, ,-18, ,
-2, ,-18, ,
-3, ,-18, ,
-4, ,-18, ,
-4, ,-18, ,
-4, ,-18, ,
-4, ,-18, ,
-3, ,-18, ,
-4, ,-18, ,
-4, ,-18, ,
-3, ,-18, ,
-4, ,-18, ,
-3, ,-18, ,
-4, ,-18, ,
-4, ,-18, ,
-4, ,-18, ,
-4, ,-18, ,
-4, ,-18, ,
-3, ,-18, ,
-3, ,-18, ,
-2, ,-18, ,
-2, ,-18, ,
-2, ,-18, ,
-1, ,-18, ,
-2, ,-18, ,
-1, ,-18, ,
-2, ,-18, ,
-2, ,-18, ,
-2, ,-18, ,
-2, ,-18, ,
-2, ,-18, ,
-1, ,-18, ,
-1, ,-18, ,
-2, ,-18, ,
-1, ,-18, ,
-3, ,-18, ,
-2, ,-18, ,
-2, ,-18, ,
-2, ,-18, ,
-1, ,-18, ,
-2, ,-18, ,
-1, ,-18, ,
-3, ,-18, ,
-3, ,-18, ,
-3, ,-18, ,
-4, ,-18, ,
-3, ,-18, ,
-4, ,-18, ,
-4, ,-18, ,
-3, ,-18, ,
-3, ,-18, ,
-3, ,-18, ,
-3, ,-18, ,
-4, ,-18, ,
-4, ,-18, ,
-1, ,-18, ,
-2, ,-18, ,
-1, ,-18, ,
-1, ,-18, ,
-2, ,-18, ,
-1, ,-18, ,
-2, ,-18, ,
0, ,-18, ,
0, ,-18, ,
-1, ,-18, ,
1, ,-18, ,
2, ,-18, ,
2, ,-18, ,
2, ,-18, ,
3, ,-18, ,
2, ,-18, ,
5, ,-18, ,
5, ,-18, ,
6, ,-18, ,
7, ,-18, ,
6, ,-18, ,
6, ,-18, ,
6, ,-18, ,
6, ,-18, ,
6, ,-18, ,
6, ,-18, ,
6, ,-18, ,
5, ,-18, ,
5, ,-18, ,
5, ,-18, ,
5, ,-18, ,
4, ,-18, ,
4, ,-18, ,
3, ,-18, ,
3, ,-18, ,
2, ,-18, ,
2, ,-18, ,
1, ,-18, ,
1, ,-18, ,
0, ,-18, ,
0, ,-18, ,
-1, ,-18, ,
-1, ,-18, ,
-1, ,-18, ,
-4, ,-18, ,
-2, ,-18, ,
-3, ,-18, ,
-4, ,-18, ,
-2, ,-18, ,
-2, ,-18, ,
-2, ,-18, ,
-2, ,-18, ,
-1, ,-18, ,
0, ,-18, ,
0, ,-18, ,
2, ,-18, ,
1, ,-18, ,
2, ,-18, ,
3, ,-18, ,
4, ,-18, ,
4, ,-18, ,
6, ,-18, ,
5, ,-18, ,
7, ,-18, ,
8, ,-18, ,
8, ,-18, ,
9, ,-18, ,
10, ,-18, ,
10, ,-18, ,
10, ,-18, ,
10, ,-18, ,
11, ,-18, ,
12, ,-18, ,
11, ,-18, ,
11, ,-18, ,
11, ,-18, ,
11, ,-18, ,
11, ,-18, ,
10, ,-18, ,
10, ,-18, ,
9, ,-18, ,
9, ,-18, ,
7, ,-18, ,
7, ,-18, ,
5, ,-18, ,
7, ,-18, ,
3, ,-18, ,
3, ,-18, ,
1, ,-18, ,
0, ,-18, ,
0, ,-18, ,
-1, ,-18, ,
-3, ,-18, ,
-3, ,-18, ,
-4, ,-18, ,
-7, ,-18, ,
-5, ,-18, ,
-6, ,-18, ,
-6, ,-18, ,
-7, ,-18, ,
-8, ,-18, ,
-7, ,-18, ,
-9, ,-18, ,
-10, ,-18, ,
-10, ,-18, ,
-10, ,-18, ,
-10, ,-18, ,
-10, ,-18, ,
-11, ,-18, ,
-11, ,-18, ,
-11, ,-18, ,
-10, ,-18, ,
-10, ,-18, ,
-11, ,-18, ,
-10, ,-18, ,
-10, ,-18, ,
-10, ,-18, ,
-10, ,-18, ,
-10, ,-18, ,
-10, ,-18, ,
-10, ,-18, ,
-10, ,-18, ,
-9, ,-18, ,
-10, ,-18, ,
-11, ,-18, ,
-10, ,-18, ,
-10, ,-18, ,
-10, ,-18, ,
-10, ,-18, ,
-10, ,-18, ,
-10, ,-18, ,
-9, ,-18, ,
-10, ,-18, ,
-10, ,-18, ,
-10, ,-18, ,
-10, ,-18, ,
-10, ,-18, ,
-10, ,-18, ,
-10, ,-18, ,
-11, ,-18, ,
-10, ,-18, ,
-11, ,-18, ,
-11, ,-18, ,
-12, ,-18, ,
-10, ,-18, ,
-10, ,-18, ,
-10, ,-18, ,
-10, ,-18, ,
-10, ,-18, ,
-10, ,-18, ,
-10, ,-18, ,
-9, ,-18, ,
-9, ,-18, ,
-10, ,-18, ,
-8, ,-18, ,
-8, ,-18, ,
-7, ,-18, ,
-5, ,-18, ,
-6, ,-18, ,
-5, ,-18, ,
-3, ,-18, ,
-4, ,-18, ,
-2, ,-18, ,
0, ,-18, ,
1, ,-18, ,
1, ,-18, ,
1, ,-18, ,
2, ,-18, ,
4, ,-18, ,
3, ,-18, ,
4, ,-18, ,
5, ,-18, ,
5, ,-18, ,
6, ,-18, ,
6, ,-18, ,
5, ,-18, ,
6, ,-18, ,
6, ,-18, ,
6, ,-18, ,
6, ,-18, ,
5, ,-18, ,
5, ,-18, ,
5, ,-18, ,
5, ,-18, ,
4, ,-18, ,
4, ,-18, ,
4, ,-18, ,
4, ,-18, ,
3, ,-18, ,
2, ,-18, ,
2, ,-18, ,
2, ,-18, ,
1, ,-18, ,
2, ,-18, ,
0, ,-18, ,
0, ,-18, ,
-1, ,-18, ,
-1, ,-18, ,
-2, ,-18, ,
-2, ,-18, ,
-2, ,-18, ,
-3, ,-18, ,
-4, ,-18, ,
-5, ,-18, ,
-5, ,-18, ,
-4, ,-18, ,
-5, ,-18, ,
-5, ,-18, ,
-4, ,-18, ,
-5, ,-18, ,
-5, ,-18, ,
-4, ,-18, ,
-5, ,-18, ,
-5, ,-18, ,
-7, ,-18, ,
-6, ,-18, ,
-6, ,-18, ,
-7, ,-18, ,
-6, ,-18, ,
-5, ,-18, ,
-6, ,-18, ,
-7, ,-18, ,
-6, ,-18, ,
-7, ,-18, ,
-5, ,-18, ,
-6, ,-18, ,
-6, ,-18, ,
-5, ,-18, ,
-6, ,-18, ,
-6, ,-18, ,
-7, ,-18, ,
-5, ,-18, ,
-5, ,-18, ,
-4, ,-18, ,
-4, ,-18, ,
-3, ,-18, ,
-3, ,-18, ,
-2, ,-18, ,
-2, ,-18, ,
-2, ,-18, ,
1, ,-18, ,
0, ,-18, ,
1, ,-18, ,
3, ,-18, ,
3, ,-18, ,
3, ,-18, ,
3, ,-18, ,
5, ,-18, ,
6, ,-18, ,
5, ,-18, ,
6, ,-18, ,
6, ,-18, ,
5, ,-18, ,
6, ,-18, ,
6, ,-18, ,
6, ,-18, ,
6, ,-18, ,
5, ,-18, ,
5, ,-18, ,
5, ,-18, ,
4, ,-18, ,
4, ,-18, ,
3, ,-18, ,
3, ,-18, ,
2, ,-18, ,
2, ,-18, ,
0, ,-18, ,
0, ,-18, ,
-1, ,-18, ,
0, ,-18, ,
-1, ,-18, ,
-2, ,-18, ,
-2, ,-18, ,
-2, ,-18, ,
-2, ,-18, ,
-2, ,-18, ,
-2, ,-18, ,
-2, ,-18, ,
-2, ,-18, ,
-3, ,-18, ,
-3, ,-18, ,
-2, ,-18, ,
-1, ,-18, ,
-1, ,-18, ,
-2, ,-18, ,
-1, ,-18, ,
-2, ,-18, ,
-2, ,-18, ,
0, ,-18, ,
-1, ,-18, ,
0, ,-18, ,
0, ,-18, ,
0, ,-18, ,
-1, ,-18, ,
-1, ,-18, ,
-1, ,-18, ,
-2, ,-18, ,
-2, ,-18, ,
-2, ,-18, ,
-3, ,-18, ,
-4, ,-18, ,
-4, ,-18, ,
-5, ,-18, ,
-5, ,-18, ,
-5, ,-18, ,
-6, ,-18, ,
-6, ,-18, ,
-6, ,-18, ,
-6, ,-18, ,
-5, ,-18, ,
-6, ,-18, ,
-6, ,-18, ,
-5, ,-18, ,
-6, ,-18, ,
-6, ,-18, ,
-5, ,-18, ,
-5, ,-18, ,
-3, ,-18, ,
-3, ,-18, ,
-3, ,-18, ,
-2, ,-18, ,
-2, ,-18, ,
-1, ,-18, ,
0, ,-18, ,
0, ,-18, ,
1, ,-18, ,
0, ,-18, ,
1, ,-18, ,
1, ,-18, ,
1, ,-18, ,
3, ,-18, ,
3, ,-18, ,
1, ,-18, ,
2, ,-18, ,
4, ,-18, ,
3, ,-18, ,
3, ,-18, ,
4, ,-18, ,
4, ,-18, ,
3, ,-18, ,
4, ,-18, ,
4, ,-18, ,
4, ,-18, ,
5, ,-18, ,
4, ,-18, ,
4, ,-18, ,
4, ,-18, ,
3, ,-18, ,
3, ,-18, ,
3, ,-18, ,
3, ,-18, ,
3, ,-18, ,
3, ,-18, ,
3, ,-18, ,
3, ,-18, ,
3, ,-18, ,
2, ,-18, ,
2, ,-18, ,
1, ,-18, ,
1, ,-18, ,
0, ,-18, ,
0, ,-18, ,
0, ,-18, ,
0, ,-18, ,
-1, ,-18, ,
-1, ,-18, ,
-2, ,-18, ,
-3, ,-18, ,
-3, ,-18, ,
-3, ,-18, ,
-4, ,-18, ,
-4, ,-18, ,
-5, ,-18, ,
-5, ,-18, ,
-6, ,-18, ,
-5, ,-18, ,
-5, ,-18, ,
-5, ,-18, ,
-4, ,-18, ,
-4, ,-18, ,
-5, ,-18, ,
-5, ,-18, ,
-5, ,-18, ,
-5, ,-18, ,
-3, ,-18, ,
-4, ,-18, ,
-3, ,-18, ,
-2, ,-18, ,
-2, ,-18, ,
-2, ,-18, ,
-2, ,-18, ,
-1, ,-18, ,
-1, ,-18, ,
-2, ,-18, ,
-1, ,-18, ,
0, ,-18, ,
0, ,-18, ,
0, ,-18, ,
0, ,-18, ,
0, ,-18, ,
-1, ,-18, ,
0, ,-18, ,
0, ,-18, ,
1, ,-18, ,
1, ,-18, ,
0, ,-18, ,
0, ,-18, ,
0, ,-18, ,
0, ,-18, ,
0, ,-18, ,
0, ,-18, ,
-1, ,-18, ,
-1, ,-18, ,
0, ,-18, ,
0, ,-18, ,
-1, ,-18, ,
-1, ,-18, ,
-1, ,-18, ,
0, ,-18, ,
1, ,-18, ,
0, ,-18, ,
0, ,-18, ,
0, ,-18, ,
0, ,-18, ,
0, ,-18, ,
0, ,-18, ,
1, ,-18, ,
1, ,-18, ,
1, ,-18, ,
1, ,-18, ,
2, ,-18, ,
2, ,-18, ,
2, ,-18, ,
1, ,-18, ,
2, ,-18, ,
2, ,-18, ,
2, ,-18, ,
3, ,-18, ,
3, ,-18, ,
3, ,-18, ,
3, ,-18, ,
3, ,-18, ,
4, ,-18, ,
3, ,-18, ,
3, ,-18, ,
3, ,-18, ,
3, ,-18, ,
3, ,-18, ,
3, ,-18, ,
4, ,-18, ,
4, ,-18, ,
5, ,-18, ,
3, ,-18, ,
4, ,-18, ,
4, ,-18, ,
3, ,-18, ,
3, ,-18, ,
4, ,-18, ,
2, ,-18, ,
4, ,-18, ,
4, ,-18, ,
5, ,-18, ,
4, ,-18, ,
4, ,-18, ,
5, ,-18, ,
5, ,-18, ,
5, ,-18, ,
5, ,-18, ,
5, ,-18, ,
4, ,-18, ,
4, ,-18, ,
4, ,-18, ,
4, ,-18, ,
