raw_data/100% Glycerol, Impulsion 2Hz, Sonde 5MHz, Rampe 0.7Hz/temp0000199.CSV

Format,1.0B,
Memory Length,10000,Memory Length,10000,
IntpDistance,0,IntpDistance,0,
Trigger Address,159,Trigger Address,159,
Trigger Level,2.720E-01,Trigger Level,2.720E-01,
Source,CH1,Source,CH2,
Vertical Units,V,Vertical Units,V,
Vertical Units Div,0,Vertical Units Div,0,
Vertical Units Extend Div,16,Vertical Units Extend Div,16,
Label,,Label,,
Probe Type,0,Probe Type,0,
Probe Ratio,1.000e+00,Probe Ratio,1.000e+00,
Vertical Scale,2.000e-01,Vertical Scale,2.000e+00,
Vertical Position,0.000e+00,Vertical Position,0.000e+00,
Horizontal Units,S,Horizontal Units,S,
Horizontal Scale,5.000E-06,Horizontal Scale,5.000E-06,
Horizontal Position,2.420E-05,Horizontal Position,2.420E-05,
Horizontal Mode,Main,Horizontal Mode,Main,
SincET Mode,Real Time,SincET Mode,Real Time,
Sampling Period,5.000e-09,Sampling Period,5.000e-09,
Horizontal Old Scale,5.000E-06,Horizontal Old Scale,5.000E-06,
Horizontal Old Position,2.420E-05,Horizontal Old Position,2.420E-05,
Firmware,V1.32,Firmware,V1.32,
Mode,Fast,Mode,Fast,
Waveform Data,,Waveform Data,,
2, ,-18, ,
2, ,-18, ,
2, ,-18, ,
2, ,-18, ,
3, ,-18, ,
3, ,-18, ,
3, ,-18, ,
3, ,-18, ,
2, ,-18, ,
2, ,-18, ,
1, ,-18, ,
2, ,-18, ,
2, ,-18, ,
1, ,-18, ,
3, ,-18, ,
1, ,-18, ,
2, ,-18, ,
2, ,-18, ,
1, ,-18, ,
1, ,-18, ,
2, ,-18, ,
1, ,-18, ,
2, ,-18, ,
1, ,-18, ,
2, ,-18, ,
2, ,-18, ,
2, ,-18, ,
2, ,-18, ,
1, ,-18, ,
3, ,-18, ,
3, ,-18, ,
2, ,-18, ,
3, ,-18, ,
3, ,-18, ,
2, ,-18, ,
2, ,-18, ,
1, ,-18, ,
2, ,-18, ,
2, ,-18, ,
2, ,-18, ,
2, ,-18, ,
1, ,-18, ,
1, ,-18, ,
1, ,-18, ,
1, ,-18, ,
3, ,-18, ,
2, ,-18, ,
2, ,-18, ,
2, ,-18, ,
2, ,-18, ,
2, ,-18, ,
2, ,-18, ,
2, ,-18, ,
1, ,-18, ,
2, ,-18, ,
2, ,-18, ,
2, ,-18, ,
2, ,-18, ,
2, ,-18, ,
2, ,-18, ,
2, ,-18, ,
2, ,-18, ,
2, ,-18, ,
1, ,-18, ,
2, ,-18, ,
2, ,-18, ,
2, ,-18, ,
3, ,-18, ,
2, ,-18, ,
2, ,-18, ,
2, ,-18, ,
2, ,-18, ,
2, ,-18, ,
3, ,-18, ,
2, ,-18, ,
2, ,-18, ,
2, ,-18, ,
1, ,-18, ,
1, ,-18, ,
2, ,-18, ,
3, ,-18, ,
2, ,-18, ,
0, ,-18, ,
2, ,-18, ,
2, ,-18, ,
2, ,-18, ,
3, ,-18, ,
3, ,-18, ,
2, ,-18, ,
1, ,-18, ,
3, ,-18, ,
3, ,-18, ,
3, ,-18, ,
2, ,-18, ,
2, ,-18, ,
1, ,-18, ,
2, ,-18, ,
2, ,-18, ,
2, ,-18, ,
3, ,-18, ,
2, ,-18, ,
2, ,-18, ,
2, ,-18, ,
2, ,-18, ,
2, ,-18, ,
3, ,-18, ,
3, ,-18, ,
3, ,-18, ,
2, ,-18, ,
2, ,-18, ,
2, ,-18, ,
1, ,-18, ,
3, ,-18, ,
3, ,-18, ,
2, ,-18, ,
2, ,-18, ,
1, ,-18, ,
2, ,-18, ,
3, ,-18, ,
2, ,-18, ,
2, ,-18, ,
3, ,-18, ,
2, ,-18, ,
2, ,-18, ,
2, ,-18, ,
3, ,-18, ,
3, ,-18, ,
2, ,-18, ,
2, ,-18, ,
2, ,-18, ,
1, ,-18, ,
3, ,-18, ,
2, ,-18, ,
1, ,-18, ,
0, ,-18, ,
2, ,-18, ,
2, ,-18, ,
2, ,-18, ,
2, ,-18, ,
2, ,-18, ,
1, ,-18, ,
2, ,-18, ,
2, ,-18, ,
2, ,-18, ,
2, ,-18, ,
2, ,-18, ,
2, ,-18, ,
2, ,-18, ,
3, ,-18, ,
3, ,-18, ,
3, ,-18, ,
2, ,-18, ,
2, ,-18, ,
2, ,-18, ,
2, ,-18, ,
3, ,-18, ,
1, ,-18, ,
3, ,-18, ,
3, ,-18, ,
3, ,-18, ,
3, ,-18, ,
2, ,-18, ,
2, ,-18, ,
3, ,-18, ,
5, ,-18, ,
-1, ,-18, ,
-1, ,-18, ,
1, ,-18, ,
25, ,-18, ,
125, ,-18, ,
125, ,-18, ,
125, ,-18, ,
125, ,-18, ,
117, ,-18, ,
31, ,-18, ,
-18, ,-18, ,
64, ,-18, ,
125, ,-18, ,
125, ,-18, ,
125, ,-18, ,
125, ,-18, ,
125, ,-18, ,
125, ,-18, ,
125, ,-18, ,
125, ,-18, ,
125, ,-18, ,
125, ,-18, ,
125, ,-18, ,
125, ,-18, ,
125, ,-18, ,
125, ,-18, ,
125, ,-18, ,
125, ,-18, ,
125, ,-18, ,
125, ,-18, ,
125, ,-18, ,
125, ,-18, ,
125, ,-18, ,
125, ,-18, ,
125, ,-18, ,
125, ,-18, ,
125, ,-18, ,
124, ,-18, ,
124, ,-18, ,
121, ,-18, ,
111, ,-18, ,
107, ,-18, ,
103, ,-18, ,
99, ,-18, ,
93, ,-18, ,
86, ,-18, ,
83, ,-18, ,
78, ,-18, ,
72, ,-18, ,
68, ,-18, ,
66, ,-18, ,
63, ,-18, ,
58, ,-18, ,
54, ,-18, ,
53, ,-18, ,
50, ,-18, ,
45, ,-18, ,
44, ,-18, ,
41, ,-18, ,
38, ,-18, ,
36, ,-18, ,
34, ,-18, ,
34, ,-18, ,
31, ,-18, ,
27, ,-18, ,
27, ,-18, ,
25, ,-18, ,
25, ,-18, ,
21, ,-18, ,
20, ,-18, ,
20, ,-18, ,
17, ,-18, ,
15, ,-18, ,
15, ,-18, ,
14, ,-18, ,
12, ,-18, ,
10, ,-18, ,
10, ,-18, ,
10, ,-18, ,
9, ,-18, ,
6, ,-18, ,
8, ,-18, ,
7, ,-18, ,
6, ,-18, ,
6, ,-18, ,
4, ,-18, ,
4, ,-18, ,
3, ,-18, ,
2, ,-18, ,
3, ,-18, ,
1, ,-18, ,
2, ,-18, ,
2, ,-18, ,
0, ,-18, ,
1, ,-18, ,
-1, ,-18, ,
0, ,-18, ,
0, ,-18, ,
-1, ,-18, ,
-1, ,-18, ,
-1, ,-18, ,
-1, ,-18, ,
-1, ,-18, ,
-1, ,-18, ,
-2, ,-18, ,
-2, ,-18, ,
-2, ,-18, ,
-2, ,-18, ,
-2, ,-18, ,
-2, ,-18, ,
-2, ,-18, ,
-3, ,-18, ,
-3, ,-18, ,
-2, ,-18, ,
-3, ,-18, ,
-2, ,-18, ,
-2, ,-18, ,
-2, ,-18, ,
-2, ,-18, ,
-2, ,-18, ,
-2, ,-18, ,
-2, ,-18, ,
-3, ,-18, ,
-2, ,-18, ,
-2, ,-18, ,
-2, ,-18, ,
-2, ,-18, ,
-2, ,-18, ,
-2, ,-18, ,
-2, ,-18, ,
-2, ,-18, ,
-2, ,-18, ,
-2, ,-18, ,
-2, ,-18, ,
-2, ,-18, ,
-2, ,-18, ,
-3, ,-18, ,
-3, ,-18, ,
-3, ,-18, ,
-2, ,-18, ,
-2, ,-18, ,
-2, ,-18, ,
-2, ,-18, ,
-1, ,-18, ,
-1, ,-18, ,
-1, ,-18, ,
-1, ,-18, ,
-1, ,-18, ,
-1, ,-18, ,
-1, ,-18, ,
-1, ,-18, ,
-1, ,-18, ,
-1, ,-18, ,
-1, ,-18, ,
-1, ,-18, ,
-1, ,-18, ,
-1, ,-18, ,
-1, ,-18, ,
-1, ,-18, ,
-1, ,-18, ,
-2, ,-18, ,
0, ,-18, ,
0, ,-18, ,
0, ,-18, ,
0, ,-18, ,
0, ,-18, ,
0, ,-18, ,
-1, ,-18, ,
0, ,-18, ,
0, ,-18, ,
0, ,-18, ,
0, ,-18, ,
1, ,-18, ,
1, ,-18, ,
1, ,-18, ,
0, ,-18, ,
0, ,-18, ,
0, ,-18, ,
0, ,-18, ,
1, ,-18, ,
1, ,-18, ,
0, ,-18, ,
1, ,-18, ,
0, ,-18, ,
1, ,-18, ,
1, ,-18, ,
1, ,-18, ,
1, ,-18, ,
0, ,-18, ,
0, ,-18, ,
1, ,-18, ,
1, ,-18, ,
1, ,-18, ,
2, ,-18, ,
0, ,-18, ,
0, ,-18, ,
1, ,-18, ,
2, ,-18, ,
0, ,-18, ,
0, ,-18, ,
1, ,-18, ,
1, ,-18, ,
1, ,-18, ,
2, ,-18, ,
1, ,-18, ,
1, ,-18, ,
1, ,-18, ,
1, ,-18, ,
0, ,-18, ,
1, ,-18, ,
0, ,-18, ,
1, ,-18, ,
1, ,-18, ,
1, ,-18, ,
2, ,-18, ,
0, ,-18, ,
2, ,-18, ,
2, ,-18, ,
1, ,-18, ,
1, ,-18, ,
2, ,-18, ,
2, ,-18, ,
2, ,-18, ,
2, ,-18, ,
0, ,-18, ,
2, ,-18, ,
1, ,-18, ,
2, ,-18, ,
2, ,-18, ,
1, ,-18, ,
2, ,-18, ,
2, ,-18, ,
2, ,-18, ,
2, ,-18, ,
1, ,-18, ,
2, ,-18, ,
1, ,-18, ,
1, ,-18, ,
1, ,-18, ,
1, ,-18, ,
1, ,-18, ,
2, ,-18, ,
1, ,-18, ,
2, ,-18, ,
2, ,-18, ,
2, ,-18, ,
2, ,-18, ,
1, ,-18, ,
2, ,-18, ,
3, ,-18, ,
2, ,-18, ,
1, ,-18, ,
2, ,-18, ,
1, ,-18, ,
1, ,-18, ,
1, ,-18, ,
2, ,-18, ,
1, ,-18, ,
1, ,-18, ,
1, ,-18, ,
0, ,-18, ,
1, ,-18, ,
2, ,-18, ,
0, ,-18, ,
1, ,-18, ,
1, ,-18, ,
1, ,-18, ,
2, ,-18, ,
2, ,-18, ,
1, ,-18, ,
1, ,-18, ,
2, ,-18, ,
1, ,-18, ,
1, ,-18, ,
1, ,-18, ,
1, ,-18, ,
1, ,-18, ,
0, ,-18, ,
2, ,-18, ,
0, ,-18, ,
0, ,-18, ,
0, ,-18, ,
0, ,-18, ,
0, ,-18, ,
1, ,-18, ,
0, ,-18, ,
1, ,-18, ,
1, ,-18, ,
1, ,-18, ,
2, ,-18, ,
2, ,-18, ,
1, ,-18, ,
2, ,-18, ,
1, ,-18, ,
1, ,-18, ,
1, ,-18, ,
1, ,-18, ,
1, ,-18, ,
1, ,-18, ,
1, ,-18, ,
1, ,-18, ,
1, ,-18, ,
2, ,-18, ,
1, ,-18, ,
1, ,-18, ,
2, ,-18, ,
1, ,-18, ,
2, ,-18, ,
3, ,-18, ,
3, ,-18, ,
3, ,-18, ,
2, ,-18, ,
2, ,-18, ,
2, ,-18, ,
1, ,-18, ,
2, ,-18, ,
1, ,-18, ,
0, ,-18, ,
0, ,-18, ,
0, ,-18, ,
0, ,-18, ,
1, ,-18, ,
0, ,-18, ,
2, ,-18, ,
2, ,-18, ,
1, ,-18, ,
2, ,-18, ,
1, ,-18, ,
2, ,-18, ,
2, ,-18, ,
1, ,-18, ,
3, ,-18, ,
2, ,-18, ,
0, ,-18, ,
2, ,-18, ,
0, ,-18, ,
0, ,-18, ,
0, ,-18, ,
0, ,-18, ,
0, ,-18, ,
0, ,-18, ,
0, ,-18, ,
0, ,-18, ,
0, ,-18, ,
1, ,-18, ,
2, ,-18, ,
1, ,-18, ,
1, ,-18, ,
1, ,-18, ,
0, ,-18, ,
1, ,-18, ,
0, ,-18, ,
-2, ,-18, ,
-1, ,-18, ,
-4, ,-18, ,
-3, ,-18, ,
-4, ,-18, ,
-5, ,-18, ,
-5, ,-18, ,
-7, ,-18, ,
-6, ,-18, ,
-6, ,-18, ,
-7, ,-18, ,
-7, ,-18, ,
-7, ,-18, ,
-8, ,-18, ,
-9, ,-18, ,
-9, ,-18, ,
-12, ,-18, ,
-13, ,-18, ,
-14, ,-18, ,
-14, ,-18, ,
-20, ,-18, ,
-21, ,-18, ,
-22, ,-18, ,
-25, ,-18, ,
-28, ,-18, ,
-30, ,-18, ,
-30, ,-18, ,
-30, ,-18, ,
-30, ,-18, ,
-29, ,-18, ,
-29, ,-18, ,
-29, ,-18, ,
-27, ,-18, ,
-27, ,-18, ,
-26, ,-18, ,
-26, ,-18, ,
-26, ,-18, ,
-28, ,-18, ,
-28, ,-18, ,
-29, ,-18, ,
-30, ,-18, ,
-31, ,-18, ,
-32, ,-18, ,
-32, ,-18, ,
-29, ,-18, ,
-31, ,-18, ,
-27, ,-18, ,
-25, ,-18, ,
-22, ,-18, ,
-17, ,-18, ,
-16, ,-18, ,
-12, ,-18, ,
-10, ,-18, ,
-7, ,-18, ,
-5, ,-18, ,
-6, ,-18, ,
-4, ,-18, ,
-4, ,-18, ,
-4, ,-18, ,
-5, ,-18, ,
-6, ,-18, ,
-7, ,-18, ,
-7, ,-18, ,
-7, ,-18, ,
-5, ,-18, ,
-3, ,-18, ,
-4, ,-18, ,
-2, ,-18, ,
0, ,-18, ,
1, ,-18, ,
3, ,-18, ,
3, ,-18, ,
3, ,-18, ,
2, ,-18, ,
2, ,-18, ,
1, ,-18, ,
0, ,-18, ,
-3, ,-18, ,
-2, ,-18, ,
-5, ,-18, ,
-8, ,-18, ,
-10, ,-18, ,
-10, ,-18, ,
-11, ,-18, ,
-11, ,-18, ,
-11, ,-18, ,
-10, ,-18, ,
-10, ,-18, ,
-10, ,-18, ,
-9, ,-18, ,
-9, ,-18, ,
-8, ,-18, ,
-8, ,-18, ,
-11, ,-18, ,
-11, ,-18, ,
-13, ,-18, ,
-18, ,-18, ,
-19, ,-18, ,
-21, ,-18, ,
-21, ,-18, ,
-25, ,-18, ,
-25, ,-18, ,
-25, ,-18, ,
-26, ,-18, ,
-25, ,-18, ,
-25, ,-18, ,
-25, ,-18, ,
-25, ,-18, ,
-25, ,-18, ,
-26, ,-18, ,
-27, ,-18, ,
-27, ,-18, ,
-30, ,-18, ,
-30, ,-18, ,
-31, ,-18, ,
-33, ,-18, ,
-33, ,-18, ,
-34, ,-18, ,
-34, ,-18, ,
-35, ,-18, ,
-35, ,-18, ,
-35, ,-18, ,
-36, ,-18, ,
-36, ,-18, ,
-36, ,-18, ,
-36, ,-18, ,
-36, ,-18, ,
-36, ,-18, ,
-36, ,-18, ,
-36, ,-18, ,
-35, ,-18, ,
-35, ,-18, ,
-34, ,-18, ,
-34, ,-18, ,
-33, ,-18, ,
-34, ,-18, ,
-35, ,-18, ,
-35, ,-18, ,
-37, ,-18, ,
-36, ,-18, ,
-36, ,-18, ,
-37, ,-18, ,
-37, ,-18, ,
-36, ,-18, ,
-34, ,-18, ,
-32, ,-18, ,
-31, ,-18, ,
-30, ,-18, ,
-28, ,-18, ,
-26, ,-18, ,
-26, ,-18, ,
-26, ,-18, ,
-26, ,-18, ,
-28, ,-18, ,
-29, ,-18, ,
-30, ,-18, ,
-31, ,-18, ,
-31, ,-18, ,
-31, ,-18, ,
-30, ,-18, ,
-30, ,-18, ,
-30, ,-18, ,
-29, ,-18, ,
-27, ,-18, ,
-24, ,-18, ,
-24, ,-18, ,
-23, ,-18, ,
-22, ,-18, ,
-22, ,-18, ,
-22, ,-18, ,
-22, ,-18, ,
-22, ,-18, ,
-20, ,-18, ,
-20, ,-18, ,
-20, ,-18, ,
-18, ,-18, ,
-15, ,-18, ,
-15, ,-18, ,
-14, ,-18, ,
-12, ,-18, ,
-11, ,-18, ,
-10, ,-18, ,
-10, ,-18, ,
-10, ,-18, ,
-9, ,-18, ,
-7, ,-18, ,
-6, ,-18, ,
-7, ,-18, ,
-4, ,-18, ,
-3, ,-18, ,
-2, ,-18, ,
0, ,-18, ,
1, ,-18, ,
1, ,-18, ,
1, ,-18, ,
2, ,-18, ,
2, ,-18, ,
1, ,-18, ,
2, ,-18, ,
1, ,-18, ,
2, ,-18, ,
3, ,-18, ,
3, ,-18, ,
5, ,-18, ,
6, ,-18, ,
6, ,-18, ,
8, ,-18, ,
8, ,-18, ,
8, ,-18, ,
9, ,-18, ,
8, ,-18, ,
9, ,-18, ,
9, ,-18, ,
8, ,-18, ,
7, ,-18, ,
7, ,-18, ,
6, ,-18, ,
5, ,-18, ,
4, ,-18, ,
5, ,-18, ,
3, ,-18, ,
2, ,-18, ,
2, ,-18, ,
1, ,-18, ,
-1, ,-18, ,
-3, ,-18, ,
-3, ,-18, ,
-5, ,-18, ,
-6, ,-18, ,
-8, ,-18, ,
-8, ,-18, ,
-10, ,-18, ,
-12, ,-18, ,
-12, ,-18, ,
-13, ,-18, ,
-13, ,-18, ,
-15, ,-18, ,
-16, ,-18, ,
-16, ,-18, ,
-17, ,-18, ,
-18, ,-18, ,
-17, ,-18, ,
-18, ,-18, ,
-18, ,-18, ,
-18, ,-18, ,
-17, ,-18, ,
-16, ,-18, ,
-17, ,-18, ,
-16, ,-18, ,
-15, ,-18, ,
-16, ,-18, ,
-15, ,-18, ,
-15, ,-18, ,
-15, ,-18, ,
-15, ,-18, ,
-15, ,-18, ,
-16, ,-18, ,
-16, ,-18, ,
-17, ,-18, ,
-17, ,-18, ,
-17, ,-18, ,
-18, ,-18, ,
-17, ,-18, ,
-18, ,-18, ,
-18, ,-18, ,
-20, ,-18, ,
-20, ,-18, ,
-20, ,-18, ,
-20, ,-18, ,
-21, ,-18, ,
-21, ,-18, ,
-22, ,-18, ,
-24, ,-18, ,
-24, ,-18, ,
-24, ,-18, ,
-24, ,-18, ,
-25, ,-18, ,
-25, ,-18, ,
-24, ,-18, ,
-23, ,-18, ,
-22, ,-18, ,
-19, ,-18, ,
-19, ,-18, ,
-18, ,-18, ,
-14, ,-18, ,
-15, ,-18, ,
-12, ,-18, ,
-12, ,-18, ,
-10, ,-18, ,
-10, ,-18, ,
-9, ,-18, ,
-8, ,-18, ,
-5, ,-18, ,
-5, ,-18, ,
-4, ,-18, ,
-4, ,-18, ,
0, ,-18, ,
1, ,-18, ,
1, ,-18, ,
1, ,-18, ,
3, ,-18, ,
2, ,-18, ,
3, ,-18, ,
3, ,-18, ,
3, ,-18, ,
3, ,-18, ,
4, ,-18, ,
3, ,-18, ,
5, ,-18, ,
5, ,-18, ,
5, ,-18, ,
5, ,-18, ,
6, ,-18, ,
6, ,-18, ,
7, ,-18, ,
6, ,-18, ,
6, ,-18, ,
6, ,-18, ,
6, ,-18, ,
6, ,-18, ,
5, ,-18, ,
6, ,-18, ,
5, ,-18, ,
5, ,-18, ,
4, ,-18, ,
3, ,-18, ,
2, ,-18, ,
1, ,-18, ,
0, ,-18, ,
0, ,-18, ,
-1, ,-18, ,
-1, ,-18, ,
-4, ,-18, ,
-6, ,-18, ,
-5, ,-18, ,
-7, ,-18, ,
-9, ,-18, ,
-9, ,-18, ,
-10, ,-18, ,
-10, ,-18, ,
-12, ,-18, ,
-13, ,-18, ,
-12, ,-18, ,
-15, ,-18, ,
-16, ,-18, ,
-16, ,-18, ,
-17, ,-18, ,
-17, ,-18, ,
-19, ,-18, ,
-21, ,-18, ,
-20, ,-18, ,
-22, ,-18, ,
-23, ,-18, ,
-23, ,-18, ,
-25, ,-18, ,
-25, ,-18, ,
-26, ,-18, ,
-27, ,-18, ,
-27, ,-18, ,
-28, ,-18, ,
-28, ,-18, ,
-27, ,-18, ,
-29, ,-18, ,
-29, ,-18, ,
-29, ,-18, ,
-29, ,-18, ,
-29, ,-18, ,
-29, ,-18, ,
-30, ,-18, ,
-29, ,-18, ,
-28, ,-18, ,
-28, ,-18, ,
-28, ,-18, ,
-28, ,-18, ,
-27, ,-18, ,
-27, ,-18, ,
-26, ,-18, ,
-23, ,-18, ,
-24, ,-18, ,
-22, ,-18, ,
-22, ,-18, ,
-23, ,-18, ,
-20, ,-18, ,
-19, ,-18, ,
-18, ,-18, ,
-16, ,-18, ,
-18, ,-18, ,
-15, ,-18, ,
-15, ,-18, ,
-16, ,-18, ,
-14, ,-18, ,
-15, ,-18, ,
-14, ,-18, ,
-12, ,-18, ,
-13, ,-18, ,
-12, ,-18, ,
-11, ,-18, ,
-12, ,-18, ,
-12, ,-18, ,
-13, ,-18, ,
-14, ,-18, ,
-13, ,-18, ,
-14, ,-18, ,
-14, ,-18, ,
-15, ,-18, ,
-15, ,-18, ,
-14, ,-18, ,
-14, ,-18, ,
-15, ,-18, ,
-15, ,-18, ,
-17, ,-18, ,
-15, ,-18, ,
-15, ,-18, ,
-16, ,-18, ,
-16, ,-18, ,
-17, ,-18, ,
-18, ,-18, ,
-18, ,-18, ,
-19, ,-18, ,
-20, ,-18, ,
-20, ,-18, ,
-21, ,-18, ,
-21, ,-18, ,
-22, ,-18, ,
-21, ,-18, ,
-20, ,-18, ,
-20, ,-18, ,
-20, ,-18, ,
-20, ,-18, ,
-21, ,-18, ,
-19, ,-18, ,
-19, ,-18, ,
-17, ,-18, ,
-17, ,-18, ,
-17, ,-18, ,
-14, ,-18, ,
-13, ,-18, ,
-11, ,-18, ,
-9, ,-18, ,
-7, ,-18, ,
-4, ,-18, ,
-2, ,-18, ,
0, ,-18, ,
0, ,-18, ,
5, ,-18, ,
5, ,-18, ,
6, ,-18, ,
7, ,-18, ,
7, ,-18, ,
8, ,-18, ,
8, ,-18, ,
8, ,-18, ,
8, ,-18, ,
7, ,-18, ,
8, ,-18, ,
6, ,-18, ,
6, ,-18, ,
7, ,-18, ,
4, ,-18, ,
4, ,-18, ,
3, ,-18, ,
2, ,-18, ,
2, ,-18, ,
0, ,-18, ,
0, ,-18, ,
0, ,-18, ,
-1, ,-18, ,
0, ,-18, ,
-1, ,-18, ,
-3, ,-18, ,
-3, ,-18, ,
-4, ,-18, ,
-3, ,-18, ,
-3, ,-18, ,
-3, ,-18, ,
-3, ,-18, ,
-3, ,-18, ,
-4, ,-18, ,
-5, ,-18, ,
-5, ,-18, ,
-5, ,-18, ,
-5, ,-18, ,
-6, ,-18, ,
-6, ,-18, ,
-7, ,-18, ,
-8, ,-18, ,
-7, ,-18, ,
-10, ,-18, ,
-9, ,-18, ,
-9, ,-18, ,
-9, ,-18, ,
-9, ,-18, ,
-10, ,-18, ,
-11, ,-18, ,
-11, ,-18, ,
-12, ,-18, ,
-14, ,-18, ,
-11, ,-18, ,
-11, ,-18, ,
-10, ,-18, ,
-9, ,-18, ,
-10, ,-18, ,
-8, ,-18, ,
-9, ,-18, ,
-7, ,-18, ,
-7, ,-18, ,
-7, ,-18, ,
-6, ,-18, ,
-5, ,-18, ,
-5, ,-18, ,
-5, ,-18, ,
-5, ,-18, ,
-4, ,-18, ,
-5, ,-18, ,
-2, ,-18, ,
-2, ,-18, ,
-1, ,-18, ,
-2, ,-18, ,
0, ,-18, ,
0, ,-18, ,
-1, ,-18, ,
1, ,-18, ,
-1, ,-18, ,
0, ,-18, ,
0, ,-18, ,
0, ,-18, ,
0, ,-18, ,
0, ,-18, ,
0, ,-18, ,
0, ,-18, ,
0, ,-18, ,
0, ,-18, ,
0, ,-18, ,
1, ,-18, ,
1, ,-18, ,
0, ,-18, ,
0, ,-18, ,
0, ,-18, ,
0, ,-18, ,
1, ,-18, ,
0, ,-18, ,
0, ,-18, ,
0, ,-18, ,
0, ,-18, ,
-1, ,-18, ,
0, ,-18, ,
-1, ,-18, ,
-1, ,-18, ,
0, ,-18, ,
0, ,-18, ,
0, ,-18, ,
-1, ,-18, ,
-1, ,-18, ,
-1, ,-18, ,
-1, ,-18, ,
-1, ,-18, ,
-1, ,-18, ,
-3, ,-18, ,
-3, ,-18, ,
-3, ,-18, ,
-3, ,-18, ,
-4, ,-18, ,
-4, ,-18, ,
-4, ,-18, ,
-3, ,-18, ,
-3, ,-18, ,
-3, ,-18, ,
-5, ,-18, ,
-4, ,-18, ,
-2, ,-18, ,
-2, ,-18, ,
-2, ,-18, ,
-2, ,-18, ,
-4, ,-18, ,
-1, ,-18, ,
-2, ,-18, ,
-2, ,-18, ,
0, ,-18, ,
0, ,-18, ,
1, ,-18, ,
1, ,-18, ,
1, ,-18, ,
1, ,-18, ,
0, ,-18, ,
0, ,-18, ,
0, ,-18, ,
0, ,-18, ,
0, ,-18, ,
-1, ,-18, ,
-1, ,-18, ,
-2, ,-18, ,
-2, ,-18, ,
-4, ,-18, ,
-3, ,-18, ,
-3, ,-18, ,
-3, ,-18, ,
-2, ,-18, ,
-3, ,-18, ,
-3, ,-18, ,
-4, ,-18, ,
-3, ,-18, ,
-3, ,-18, ,
-4, ,-18, ,
-2, ,-18, ,
-3, ,-18, ,
-3, ,-18, ,
-3, ,-18, ,
-3, ,-18, ,
-3, ,-18, ,
-2, ,-18, ,
-3, ,-18, ,
-2, ,-18, ,
-1, ,-18, ,
-2, ,-18, ,
-2, ,-18, ,
-2, ,-18, ,
-3, ,-18, ,
-1, ,-18, ,
-4, ,-18, ,
-2, ,-18, ,
-1, ,-18, ,
-4, ,-18, ,
-4, ,-18, ,
-4, ,-18, ,
-4, ,-18, ,
-4, ,-18, ,
-5, ,-18, ,
-5, ,-18, ,
-5, ,-18, ,
-4, ,-18, ,
-4, ,-18, ,
-4, ,-18, ,
-3, ,-18, ,
-3, ,-18, ,
-1, ,-18, ,
-1, ,-18, ,
0, ,-18, ,
0, ,-18, ,
0, ,-18, ,
0, ,-18, ,
0, ,-18, ,
1, ,-18, ,
1, ,-18, ,
0, ,-18, ,
1, ,-18, ,
1, ,-18, ,
1, ,-18, ,
1, ,-18, ,
2, ,-18, ,
2, ,-18, ,
0, ,-18, ,
1, ,-18, ,
2, ,-18, ,
1, ,-18, ,
2, ,-18, ,
1, ,-18, ,
0, ,-18, ,
0, ,-18, ,
0, ,-18, ,
0, ,-18, ,
1, ,-18, ,
1, ,-18, ,
1, ,-18, ,
1, ,-18, ,
1, ,-18, ,
3, ,-18, ,
2, ,-18, ,
2, ,-18, ,
2, ,-18, ,
1, ,-18, ,
3, ,-18, ,
1, ,-18, ,
3, ,-18, ,
3, ,-18, ,
3, ,-18, ,
4, ,-18, ,
3, ,-18, ,
4, ,-18, ,
5, ,-18, ,
3, ,-18, ,
4, ,-18, ,
4, ,-18, ,
4, ,-18, ,
5, ,-18, ,
4, ,-18, ,
4, ,-18, ,
4, ,-18, ,
5, ,-18, ,
3, ,-18, ,
5, ,-18, ,
5, ,-18, ,
5, ,-18, ,
5, ,-18, ,
5, ,-18, ,
5, ,-18, ,
5, ,-18, ,
5, ,-18, ,
5, ,-18, ,
4, ,-18, ,
5, ,-18, ,
5, ,-18, ,
5, ,-18, ,
5, ,-18, ,
4, ,-18, ,
3, ,-18, ,
4, ,-18, ,
3, ,-18, ,
4, ,-18, ,
3, ,-18, ,
2, ,-18, ,
2, ,-18, ,
1, ,-18, ,
1, ,-18, ,
1, ,-18, ,
0, ,-18, ,
0, ,-18, ,
0, ,-18, ,
0, ,-18, ,
0, ,-18, ,
-1, ,-18, ,
-3, ,-18, ,
-3, ,-18, ,
-3, ,-18, ,
-3, ,-18, ,
-4, ,-18, ,
-5, ,-18, ,
-5, ,-18, ,
-5, ,-18, ,
-5, ,-18, ,
-5, ,-18, ,
-5, ,-18, ,
-5, ,-18, ,
-6, ,-18, ,
-7, ,-18, ,
-7, ,-18, ,
-7, ,-18, ,
-7, ,-18, ,
-7, ,-18, ,
-7, ,-18, ,
-7, ,-18, ,
-8, ,-18, ,
-9, ,-18, ,
-8, ,-18, ,
-10, ,-18, ,
-8, ,-18, ,
-8, ,-18, ,
-8, ,-18, ,
-8, ,-18, ,
-8, ,-18, ,
-9, ,-18, ,
-8, ,-18, ,
-8, ,-18, ,
-9, ,-18, ,
-7, ,-18, ,
-7, ,-18, ,
-7, ,-18, ,
-7, ,-18, ,
-6, ,-18, ,
-5, ,-18, ,
-7, ,-18, ,
-5, ,-18, ,
-4, ,-18, ,
-4, ,-18, ,
-4, ,-18, ,
-3, ,-18, ,
-4, ,-18, ,
-2, ,-18, ,
-2, ,-18, ,
-2, ,-18, ,
-2, ,-18, ,
-1, ,-18, ,
-1, ,-18, ,
-1, ,-18, ,
-1, ,-18, ,
-2, ,-18, ,
-2, ,-18, ,
-3, ,-18, ,
-3, ,-18, ,
-3, ,-18, ,
-2, ,-18, ,
-3, ,-18, ,
-4, ,-18, ,
-4, ,-18, ,
-4, ,-18, ,
-5, ,-18, ,
-5, ,-18, ,
-5, ,-18, ,
-6, ,-18, ,
-5, ,-18, ,
-5, ,-18, ,
-5, ,-18, ,
-5, ,-18, ,
-5, ,-18, ,
-6, ,-18, ,
-5, ,-18, ,
-4, ,-18, ,
-4, ,-18, ,
-4, ,-18, ,
-4, ,-18, ,
-4, ,-18, ,
-5, ,-18, ,
-4, ,-18, ,
-4, ,-18, ,
-4, ,-18, ,
-3, ,-18, ,
-3, ,-18, ,
-3, ,-18, ,
-3, ,-18, ,
-3, ,-18, ,
-2, ,-18, ,
-4, ,-18, ,
-4, ,-18, ,
-4, ,-18, ,
-4, ,-18, ,
-3, ,-18, ,
-3, ,-18, ,
-4, ,-18, ,
-4, ,-18, ,
-4, ,-18, ,
-4, ,-18, ,
-3, ,-18, ,
-3, ,-18, ,
-3, ,-18, ,
-4, ,-18, ,
-4, ,-18, ,
-2, ,-18, ,
-3, ,-18, ,
-3, ,-18, ,
-2, ,-18, ,
-3, ,-18, ,
-3, ,-18, ,
-3, ,-18, ,
-3, ,-18, ,
-3, ,-18, ,
-3, ,-18, ,
-3, ,-18, ,
-2, ,-18, ,
-3, ,-18, ,
-2, ,-18, ,
-2, ,-18, ,
-2, ,-18, ,
-2, ,-18, ,
-3, ,-18, ,
-2, ,-18, ,
-1, ,-18, ,
-2, ,-18, ,
-1, ,-18, ,
-3, ,-18, ,
-2, ,-18, ,
0, ,-18, ,
0, ,-18, ,
1, ,-18, ,
2, ,-18, ,
1, ,-18, ,
2, ,-18, ,
3, ,-18, ,
4, ,-18, ,
3, ,-18, ,
4, ,-18, ,
3, ,-18, ,
5, ,-18, ,
5, ,-18, ,
5, ,-18, ,
5, ,-18, ,
5, ,-18, ,
5, ,-18, ,
5, ,-18, ,
5, ,-18, ,
4, ,-18, ,
3, ,-18, ,
3, ,-18, ,
2, ,-18, ,
2, ,-18, ,
2, ,-18, ,
1, ,-18, ,
2, ,-18, ,
1, ,-18, ,
1, ,-18, ,
1, ,-18, ,
0, ,-18, ,
-1, ,-18, ,
0, ,-18, ,
-1, ,-18, ,
-1, ,-18, ,
0, ,-18, ,
-1, ,-18, ,
-1, ,-18, ,
-2, ,-18, ,
-2, ,-18, ,
-1, ,-18, ,
-2, ,-18, ,
-1, ,-18, ,
-1, ,-18, ,
-2, ,-18, ,
-1, ,-18, ,
-1, ,-18, ,
-1, ,-18, ,
-1, ,-18, ,
-2, ,-18, ,
-1, ,-18, ,
0, ,-18, ,
-1, ,-18, ,
-1, ,-18, ,
-1, ,-18, ,
-1, ,-18, ,
0, ,-18, ,
0, ,-18, ,
0, ,-18, ,
1, ,-18, ,
-2, ,-18, ,
0, ,-18, ,
0, ,-18, ,
-1, ,-18, ,
0, ,-18, ,
1, ,-18, ,
1, ,-18, ,
1, ,-18, ,
0, ,-18, ,
1, ,-18, ,
0, ,-18, ,
1, ,-18, ,
1, ,-18, ,
0, ,-18, ,
1, ,-18, ,
2, ,-18, ,
1, ,-18, ,
0, ,-18, ,
0, ,-18, ,
0, ,-18, ,
0, ,-18, ,
0, ,-18, ,
0, ,-18, ,
0, ,-18, ,
0, ,-18, ,
0, ,-18, ,
-1, ,-18, ,
-1, ,-18, ,
1, ,-18, ,
-1, ,-18, ,
0, ,-18, ,
0, ,-18, ,
-1, ,-18, ,
0, ,-18, ,
-1, ,-18, ,
-2, ,-18, ,
-2, ,-18, ,
-2, ,-18, ,
-1, ,-18, ,
-2, ,-18, ,
-2, ,-18, ,
-2, ,-18, ,
-3, ,-18, ,
-3, ,-18, ,
-3, ,-18, ,
-5, ,-18, ,
-5, ,-18, ,
-4, ,-18, ,
-5, ,-18, ,
-5, ,-18, ,
-5, ,-18, ,
-6, ,-18, ,
-6, ,-18, ,
-6, ,-18, ,
-7, ,-18, ,
-7, ,-18, ,
-6, ,-18, ,
-6, ,-18, ,
-7, ,-18, ,
-6, ,-18, ,
-5, ,-18, ,
-5, ,-18, ,
-5, ,-18, ,
-2, ,-18, ,
-2, ,-18, ,
-2, ,-18, ,
-1, ,-18, ,
0, ,-18, ,
1, ,-18, ,
2, ,-18, ,
3, ,-18, ,
6, ,-18, ,
6, ,-18, ,
6, ,-18, ,
7, ,-18, ,
8, ,-18, ,
10, ,-18, ,
10, ,-18, ,
10, ,-18, ,
10, ,-18, ,
10, ,-18, ,
11, ,-18, ,
10, ,-18, ,
10, ,-18, ,
10, ,-18, ,
10, ,-18, ,
10, ,-18, ,
9, ,-18, ,
9, ,-18, ,
8, ,-18, ,
7, ,-18, ,
6, ,-18, ,
5, ,-18, ,
5, ,-18, ,
4, ,-18, ,
3, ,-18, ,
1, ,-18, ,
1, ,-18, ,
0, ,-18, ,
-1, ,-18, ,
-1, ,-18, ,
-2, ,-18, ,
-1, ,-18, ,
-2, ,-18, ,
-3, ,-18, ,
-3, ,-18, ,
-4, ,-18, ,
-4, ,-18, ,
-3, ,-18, ,
-3, ,-18, ,
-4, ,-18, ,
-3, ,-18, ,
-3, ,-18, ,
-2, ,-18, ,
-2, ,-18, ,
-4, ,-18, ,
-1, ,-18, ,
-1, ,-18, ,
-1, ,-18, ,
0, ,-18, ,
0, ,-18, ,
1, ,-18, ,
0, ,-18, ,
1, ,-18, ,
2, ,-18, ,
3, ,-18, ,
4, ,-18, ,
3, ,-18, ,
3, ,-18, ,
4, ,-18, ,
3, ,-18, ,
5, ,-18, ,
5, ,-18, ,
5, ,-18, ,
5, ,-18, ,
5, ,-18, ,
5, ,-18, ,
6, ,-18, ,
6, ,-18, ,
5, ,-18, ,
5, ,-18, ,
5, ,-18, ,
5, ,-18, ,
5, ,-18, ,
4, ,-18, ,
5, ,-18, ,
5, ,-18, ,
5, ,-18, ,
5, ,-18, ,
4, ,-18, ,
3, ,-18, ,
3, ,-18, ,
3, ,-18, ,
3, ,-18, ,
3, ,-18, ,
3, ,-18, ,
3, ,-18, ,
2, ,-18, ,
2, ,-18, ,
2, ,-18, ,
2, ,-18, ,
3, ,-18, ,
3, ,-18, ,
2, ,-18, ,
3, ,-18, ,
3, ,-18, ,
3, ,-18, ,
3, ,-18, ,
3, ,-18, ,
3, ,-18, ,
2, ,-18, ,
3, ,-18, ,
4, ,-18, ,
3, ,-18, ,
3, ,-18, ,
3, ,-18, ,
2, ,-18, ,
3, ,-18, ,
2, ,-18, ,
2, ,-18, ,
2, ,-18, ,
1, ,-18, ,
2, ,-18, ,
1, ,-18, ,
1, ,-18, ,
1, ,-18, ,
0, ,-18, ,
-1, ,-18, ,
