raw_data/100% Glycerol, Impulsion 2Hz, Sonde 5MHz, Rampe 0.7Hz/temp0000156.CSV

Format,1.0B,
Memory Length,10000,Memory Length,10000,
IntpDistance,0,IntpDistance,0,
Trigger Address,159,Trigger Address,159,
Trigger Level,2.720E-01,Trigger Level,2.720E-01,
Source,CH1,Source,CH2,
Vertical Units,V,Vertical Units,V,
Vertical Units Div,0,Vertical Units Div,0,
Vertical Units Extend Div,16,Vertical Units Extend Div,16,
Label,,Label,,
Probe Type,0,Probe Type,0,
Probe Ratio,1.000e+00,Probe Ratio,1.000e+00,
Vertical Scale,2.000e-01,Vertical Scale,2.000e+00,
Vertical Position,0.000e+00,Vertical Position,0.000e+00,
Horizontal Units,S,Horizontal Units,S,
Horizontal Scale,5.000E-06,Horizontal Scale,5.000E-06,
Horizontal Position,2.420E-05,Horizontal Position,2.420E-05,
Horizontal Mode,Main,Horizontal Mode,Main,
SincET Mode,Real Time,SincET Mode,Real Time,
Sampling Period,5.000e-09,Sampling Period,5.000e-09,
Horizontal Old Scale,5.000E-06,Horizontal Old Scale,5.000E-06,
Horizontal Old Position,2.420E-05,Horizontal Old Position,2.420E-05,
Firmware,V1.32,Firmware,V1.32,
Mode,Fast,Mode,Fast,
Waveform Data,,Waveform Data,,
1, ,-41, ,
1, ,-41, ,
2, ,-41, ,
2, ,-41, ,
1, ,-40, ,
1, ,-41, ,
1, ,-41, ,
1, ,-41, ,
1, ,-41, ,
1, ,-41, ,
2, ,-41, ,
2, ,-41, ,
2, ,-41, ,
2, ,-41, ,
1, ,-41, ,
1, ,-41, ,
2, ,-41, ,
1, ,-41, ,
2, ,-41, ,
1, ,-40, ,
2, ,-41, ,
2, ,-41, ,
1, ,-41, ,
1, ,-41, ,
1, ,-41, ,
1, ,-40, ,
2, ,-41, ,
2, ,-41, ,
1, ,-40, ,
2, ,-41, ,
1, ,-41, ,
1, ,-41, ,
2, ,-41, ,
2, ,-41, ,
2, ,-41, ,
2, ,-41, ,
0, ,-41, ,
1, ,-41, ,
1, ,-41, ,
1, ,-41, ,
1, ,-41, ,
1, ,-41, ,
2, ,-41, ,
2, ,-41, ,
2, ,-40, ,
2, ,-41, ,
2, ,-41, ,
1, ,-41, ,
1, ,-40, ,
2, ,-40, ,
2, ,-40, ,
2, ,-40, ,
1, ,-41, ,
1, ,-41, ,
1, ,-40, ,
1, ,-41, ,
1, ,-41, ,
1, ,-41, ,
1, ,-41, ,
2, ,-41, ,
2, ,-41, ,
2, ,-41, ,
1, ,-41, ,
2, ,-41, ,
2, ,-41, ,
1, ,-41, ,
1, ,-41, ,
2, ,-40, ,
2, ,-41, ,
2, ,-41, ,
1, ,-41, ,
1, ,-41, ,
2, ,-41, ,
1, ,-40, ,
2, ,-41, ,
1, ,-41, ,
2, ,-40, ,
2, ,-40, ,
2, ,-40, ,
1, ,-40, ,
2, ,-41, ,
2, ,-41, ,
2, ,-41, ,
2, ,-41, ,
1, ,-41, ,
2, ,-41, ,
2, ,-40, ,
2, ,-41, ,
2, ,-41, ,
1, ,-41, ,
2, ,-41, ,
2, ,-41, ,
2, ,-41, ,
2, ,-41, ,
1, ,-41, ,
1, ,-41, ,
2, ,-41, ,
1, ,-41, ,
2, ,-41, ,
3, ,-41, ,
2, ,-41, ,
2, ,-41, ,
2, ,-41, ,
1, ,-41, ,
2, ,-41, ,
1, ,-41, ,
2, ,-41, ,
2, ,-41, ,
1, ,-41, ,
1, ,-41, ,
1, ,-41, ,
1, ,-41, ,
2, ,-41, ,
2, ,-41, ,
2, ,-41, ,
2, ,-41, ,
1, ,-41, ,
1, ,-41, ,
1, ,-41, ,
1, ,-41, ,
1, ,-41, ,
1, ,-41, ,
2, ,-41, ,
2, ,-41, ,
1, ,-40, ,
2, ,-41, ,
1, ,-41, ,
0, ,-41, ,
3, ,-41, ,
2, ,-41, ,
2, ,-41, ,
2, ,-41, ,
2, ,-41, ,
2, ,-41, ,
2, ,-40, ,
1, ,-41, ,
2, ,-41, ,
1, ,-41, ,
1, ,-41, ,
2, ,-41, ,
1, ,-41, ,
3, ,-41, ,
2, ,-40, ,
1, ,-40, ,
2, ,-41, ,
2, ,-41, ,
2, ,-41, ,
1, ,-41, ,
1, ,-41, ,
1, ,-41, ,
1, ,-41, ,
1, ,-41, ,
2, ,-41, ,
1, ,-40, ,
2, ,-41, ,
2, ,-41, ,
0, ,-40, ,
2, ,-41, ,
2, ,-41, ,
2, ,-41, ,
2, ,-41, ,
1, ,-41, ,
1, ,-41, ,
2, ,-41, ,
8, ,-40, ,
1, ,-40, ,
0, ,-40, ,
1, ,-41, ,
32, ,-41, ,
91, ,-41, ,
125, ,-41, ,
125, ,-41, ,
125, ,-40, ,
121, ,-40, ,
116, ,-40, ,
-10, ,-41, ,
93, ,-41, ,
125, ,-41, ,
125, ,-41, ,
125, ,-41, ,
125, ,-41, ,
125, ,-41, ,
125, ,-40, ,
125, ,-41, ,
125, ,-41, ,
125, ,-41, ,
125, ,-41, ,
125, ,-41, ,
125, ,-41, ,
125, ,-41, ,
125, ,-41, ,
125, ,-41, ,
125, ,-41, ,
125, ,-41, ,
125, ,-41, ,
125, ,-41, ,
125, ,-41, ,
125, ,-41, ,
125, ,-41, ,
125, ,-41, ,
125, ,-41, ,
125, ,-41, ,
125, ,-41, ,
124, ,-41, ,
120, ,-41, ,
116, ,-41, ,
110, ,-41, ,
101, ,-41, ,
98, ,-41, ,
94, ,-41, ,
92, ,-41, ,
81, ,-41, ,
79, ,-41, ,
75, ,-41, ,
69, ,-41, ,
64, ,-41, ,
63, ,-41, ,
58, ,-40, ,
56, ,-41, ,
52, ,-41, ,
48, ,-40, ,
46, ,-41, ,
44, ,-41, ,
40, ,-41, ,
38, ,-41, ,
36, ,-41, ,
35, ,-41, ,
32, ,-40, ,
29, ,-41, ,
29, ,-41, ,
25, ,-41, ,
24, ,-41, ,
23, ,-41, ,
21, ,-40, ,
21, ,-41, ,
17, ,-41, ,
16, ,-41, ,
15, ,-41, ,
14, ,-41, ,
13, ,-41, ,
12, ,-41, ,
12, ,-41, ,
11, ,-41, ,
9, ,-40, ,
9, ,-41, ,
9, ,-41, ,
7, ,-41, ,
6, ,-41, ,
5, ,-41, ,
4, ,-41, ,
5, ,-41, ,
4, ,-41, ,
3, ,-41, ,
3, ,-41, ,
2, ,-41, ,
1, ,-41, ,
1, ,-41, ,
0, ,-41, ,
0, ,-41, ,
0, ,-41, ,
0, ,-41, ,
0, ,-41, ,
-1, ,-41, ,
-2, ,-41, ,
0, ,-41, ,
-1, ,-40, ,
-1, ,-41, ,
-1, ,-41, ,
-2, ,-41, ,
-2, ,-41, ,
-2, ,-41, ,
-3, ,-41, ,
-3, ,-41, ,
-2, ,-41, ,
-2, ,-41, ,
-3, ,-41, ,
-3, ,-41, ,
-2, ,-41, ,
-3, ,-40, ,
-3, ,-41, ,
-2, ,-41, ,
-4, ,-41, ,
-3, ,-41, ,
-4, ,-41, ,
-4, ,-41, ,
-4, ,-41, ,
-4, ,-41, ,
-3, ,-41, ,
-3, ,-41, ,
-3, ,-41, ,
-3, ,-41, ,
-2, ,-41, ,
-2, ,-40, ,
-2, ,-40, ,
-3, ,-40, ,
-3, ,-41, ,
-2, ,-41, ,
-2, ,-40, ,
-2, ,-41, ,
-3, ,-41, ,
-3, ,-41, ,
-3, ,-41, ,
-2, ,-40, ,
-3, ,-40, ,
-2, ,-41, ,
-3, ,-41, ,
-2, ,-41, ,
-2, ,-41, ,
-2, ,-41, ,
-2, ,-41, ,
-2, ,-41, ,
-2, ,-41, ,
-1, ,-41, ,
-1, ,-40, ,
-1, ,-41, ,
-2, ,-41, ,
-2, ,-40, ,
-1, ,-41, ,
-1, ,-41, ,
-1, ,-41, ,
0, ,-41, ,
0, ,-41, ,
-1, ,-41, ,
-1, ,-40, ,
0, ,-41, ,
0, ,-41, ,
-1, ,-41, ,
-1, ,-41, ,
-1, ,-41, ,
0, ,-41, ,
0, ,-41, ,
0, ,-40, ,
-1, ,-40, ,
0, ,-41, ,
-1, ,-41, ,
0, ,-41, ,
0, ,-40, ,
0, ,-40, ,
0, ,-41, ,
0, ,-41, ,
0, ,-41, ,
0, ,-41, ,
0, ,-41, ,
0, ,-41, ,
0, ,-41, ,
0, ,-40, ,
0, ,-41, ,
1, ,-41, ,
0, ,-40, ,
0, ,-40, ,
0, ,-41, ,
0, ,-41, ,
0, ,-41, ,
0, ,-41, ,
0, ,-41, ,
0, ,-40, ,
0, ,-41, ,
0, ,-41, ,
-2, ,-40, ,
1, ,-41, ,
1, ,-41, ,
0, ,-40, ,
0, ,-41, ,
0, ,-41, ,
0, ,-41, ,
1, ,-41, ,
0, ,-41, ,
0, ,-41, ,
0, ,-41, ,
0, ,-41, ,
0, ,-41, ,
1, ,-40, ,
1, ,-41, ,
1, ,-41, ,
0, ,-40, ,
0, ,-41, ,
2, ,-41, ,
1, ,-41, ,
1, ,-41, ,
1, ,-41, ,
1, ,-40, ,
1, ,-41, ,
0, ,-41, ,
1, ,-41, ,
1, ,-40, ,
1, ,-40, ,
0, ,-40, ,
1, ,-40, ,
1, ,-40, ,
0, ,-40, ,
0, ,-40, ,
2, ,-41, ,
2, ,-41, ,
1, ,-41, ,
1, ,-41, ,
1, ,-41, ,
1, ,-41, ,
1, ,-41, ,
1, ,-41, ,
1, ,-41, ,
1, ,-41, ,
1, ,-41, ,
1, ,-41, ,
1, ,-40, ,
1, ,-41, ,
1, ,-41, ,
1, ,-41, ,
1, ,-41, ,
1, ,-41, ,
1, ,-41, ,
1, ,-41, ,
2, ,-41, ,
2, ,-40, ,
2, ,-41, ,
1, ,-41, ,
0, ,-41, ,
1, ,-40, ,
1, ,-40, ,
2, ,-40, ,
1, ,-40, ,
1, ,-41, ,
1, ,-41, ,
1, ,-41, ,
2, ,-41, ,
1, ,-41, ,
0, ,-41, ,
1, ,-41, ,
1, ,-41, ,
1, ,-40, ,
1, ,-41, ,
1, ,-41, ,
1, ,-41, ,
1, ,-41, ,
0, ,-41, ,
1, ,-41, ,
2, ,-41, ,
1, ,-40, ,
1, ,-41, ,
0, ,-41, ,
0, ,-41, ,
0, ,-41, ,
-1, ,-40, ,
-1, ,-41, ,
-1, ,-41, ,
-2, ,-40, ,
-1, ,-41, ,
-1, ,-41, ,
0, ,-41, ,
0, ,-41, ,
0, ,-41, ,
0, ,-41, ,
1, ,-41, ,
1, ,-41, ,
2, ,-41, ,
0, ,-41, ,
1, ,-41, ,
1, ,-41, ,
1, ,-40, ,
1, ,-40, ,
2, ,-40, ,
0, ,-40, ,
2, ,-41, ,
1, ,-41, ,
0, ,-41, ,
1, ,-41, ,
1, ,-41, ,
1, ,-41, ,
1, ,-40, ,
1, ,-40, ,
1, ,-40, ,
1, ,-40, ,
1, ,-41, ,
2, ,-41, ,
0, ,-40, ,
3, ,-41, ,
1, ,-41, ,
1, ,-41, ,
1, ,-41, ,
0, ,-41, ,
0, ,-41, ,
1, ,-41, ,
0, ,-41, ,
0, ,-41, ,
0, ,-40, ,
-1, ,-41, ,
0, ,-41, ,
0, ,-41, ,
-1, ,-41, ,
0, ,-41, ,
-1, ,-40, ,
1, ,-41, ,
2, ,-41, ,
0, ,-41, ,
1, ,-41, ,
2, ,-41, ,
2, ,-41, ,
2, ,-41, ,
2, ,-41, ,
3, ,-41, ,
1, ,-40, ,
0, ,-41, ,
0, ,-41, ,
-1, ,-40, ,
0, ,-41, ,
0, ,-41, ,
-1, ,-41, ,
0, ,-41, ,
0, ,-41, ,
0, ,-41, ,
1, ,-41, ,
1, ,-41, ,
0, ,-41, ,
0, ,-41, ,
0, ,-41, ,
0, ,-41, ,
0, ,-40, ,
-2, ,-41, ,
-2, ,-41, ,
-3, ,-40, ,
-5, ,-41, ,
-5, ,-41, ,
-6, ,-41, ,
-6, ,-41, ,
-8, ,-41, ,
-9, ,-41, ,
-6, ,-41, ,
-7, ,-41, ,
-7, ,-41, ,
-7, ,-41, ,
-8, ,-41, ,
-8, ,-40, ,
-8, ,-40, ,
-10, ,-41, ,
-10, ,-41, ,
-12, ,-40, ,
-15, ,-41, ,
-15, ,-41, ,
-17, ,-40, ,
-19, ,-41, ,
-21, ,-41, ,
-25, ,-41, ,
-25, ,-41, ,
-29, ,-41, ,
-30, ,-41, ,
-30, ,-40, ,
-30, ,-40, ,
-30, ,-40, ,
-30, ,-40, ,
-30, ,-41, ,
-29, ,-41, ,
-28, ,-41, ,
-27, ,-41, ,
-28, ,-40, ,
-28, ,-40, ,
-29, ,-41, ,
-31, ,-41, ,
-31, ,-40, ,
-33, ,-41, ,
-34, ,-41, ,
-35, ,-41, ,
-34, ,-41, ,
-34, ,-41, ,
-32, ,-41, ,
-29, ,-41, ,
-28, ,-41, ,
-24, ,-41, ,
-24, ,-41, ,
-17, ,-41, ,
-14, ,-41, ,
-12, ,-40, ,
-10, ,-41, ,
-6, ,-41, ,
-5, ,-41, ,
-4, ,-41, ,
-4, ,-41, ,
-5, ,-41, ,
-5, ,-41, ,
-5, ,-41, ,
-6, ,-41, ,
-8, ,-40, ,
-8, ,-40, ,
-8, ,-40, ,
-7, ,-40, ,
-6, ,-41, ,
-4, ,-41, ,
-5, ,-40, ,
-3, ,-41, ,
-3, ,-41, ,
-5, ,-40, ,
-3, ,-41, ,
-4, ,-41, ,
-6, ,-41, ,
-6, ,-41, ,
-8, ,-41, ,
-7, ,-41, ,
-12, ,-41, ,
-13, ,-41, ,
-15, ,-41, ,
-15, ,-41, ,
-16, ,-41, ,
-16, ,-41, ,
-16, ,-40, ,
-15, ,-40, ,
-12, ,-40, ,
-10, ,-41, ,
-9, ,-41, ,
-6, ,-41, ,
-5, ,-41, ,
-2, ,-41, ,
-2, ,-41, ,
-2, ,-41, ,
-3, ,-41, ,
-4, ,-40, ,
-5, ,-41, ,
-6, ,-41, ,
-10, ,-41, ,
-9, ,-41, ,
-13, ,-40, ,
-13, ,-41, ,
-15, ,-41, ,
-16, ,-40, ,
-16, ,-40, ,
-17, ,-41, ,
-19, ,-41, ,
-19, ,-41, ,
-20, ,-41, ,
-20, ,-41, ,
-23, ,-41, ,
-24, ,-41, ,
-25, ,-41, ,
-26, ,-41, ,
-30, ,-41, ,
-30, ,-40, ,
-31, ,-40, ,
-31, ,-41, ,
-33, ,-41, ,
-33, ,-40, ,
-32, ,-41, ,
-32, ,-41, ,
-33, ,-41, ,
-32, ,-40, ,
-33, ,-40, ,
-31, ,-41, ,
-32, ,-41, ,
-30, ,-40, ,
-30, ,-41, ,
-30, ,-41, ,
-27, ,-41, ,
-26, ,-41, ,
-26, ,-41, ,
-26, ,-41, ,
-26, ,-41, ,
-28, ,-41, ,
-29, ,-41, ,
-30, ,-41, ,
-32, ,-41, ,
-35, ,-41, ,
-34, ,-41, ,
-35, ,-41, ,
-36, ,-40, ,
-36, ,-41, ,
-36, ,-41, ,
-36, ,-41, ,
-35, ,-41, ,
-35, ,-40, ,
-35, ,-40, ,
-34, ,-41, ,
-35, ,-41, ,
-35, ,-41, ,
-35, ,-41, ,
-37, ,-40, ,
-39, ,-40, ,
-39, ,-41, ,
-40, ,-41, ,
-40, ,-41, ,
-41, ,-41, ,
-41, ,-41, ,
-41, ,-41, ,
-41, ,-40, ,
-37, ,-41, ,
-36, ,-41, ,
-35, ,-40, ,
-34, ,-41, ,
-30, ,-41, ,
-30, ,-41, ,
-29, ,-41, ,
-28, ,-40, ,
-25, ,-40, ,
-24, ,-41, ,
-24, ,-41, ,
-20, ,-41, ,
-18, ,-40, ,
-16, ,-40, ,
-14, ,-41, ,
-13, ,-41, ,
-8, ,-41, ,
-8, ,-41, ,
-7, ,-40, ,
-5, ,-41, ,
-4, ,-41, ,
-3, ,-40, ,
-3, ,-41, ,
-3, ,-41, ,
-4, ,-41, ,
-2, ,-41, ,
-2, ,-41, ,
-2, ,-41, ,
0, ,-41, ,
0, ,-41, ,
0, ,-41, ,
-1, ,-40, ,
-1, ,-41, ,
-2, ,-41, ,
-2, ,-41, ,
-2, ,-41, ,
-1, ,-41, ,
-2, ,-41, ,
-1, ,-41, ,
-2, ,-41, ,
0, ,-41, ,
1, ,-41, ,
2, ,-41, ,
4, ,-41, ,
5, ,-41, ,
6, ,-41, ,
7, ,-41, ,
8, ,-40, ,
8, ,-40, ,
9, ,-41, ,
9, ,-41, ,
9, ,-41, ,
9, ,-41, ,
8, ,-41, ,
9, ,-41, ,
8, ,-41, ,
7, ,-41, ,
7, ,-41, ,
6, ,-40, ,
7, ,-40, ,
5, ,-40, ,
5, ,-41, ,
4, ,-41, ,
3, ,-41, ,
2, ,-41, ,
1, ,-41, ,
0, ,-41, ,
0, ,-41, ,
-3, ,-41, ,
-4, ,-41, ,
-5, ,-41, ,
-5, ,-41, ,
-9, ,-41, ,
-8, ,-41, ,
-11, ,-41, ,
-11, ,-41, ,
-13, ,-41, ,
-15, ,-41, ,
-15, ,-41, ,
-17, ,-40, ,
-18, ,-41, ,
-18, ,-41, ,
-20, ,-40, ,
-20, ,-40, ,
-21, ,-40, ,
-23, ,-40, ,
-23, ,-41, ,
-25, ,-41, ,
-26, ,-41, ,
-26, ,-40, ,
-26, ,-41, ,
-27, ,-41, ,
-28, ,-41, ,
-31, ,-41, ,
-33, ,-41, ,
-33, ,-41, ,
-34, ,-41, ,
-35, ,-41, ,
-35, ,-40, ,
-35, ,-41, ,
-35, ,-41, ,
-36, ,-41, ,
-36, ,-41, ,
-36, ,-41, ,
-36, ,-40, ,
-35, ,-41, ,
-35, ,-41, ,
-34, ,-41, ,
-33, ,-41, ,
-32, ,-40, ,
-32, ,-40, ,
-32, ,-40, ,
-30, ,-41, ,
-29, ,-41, ,
-29, ,-40, ,
-27, ,-41, ,
-25, ,-41, ,
-24, ,-40, ,
-22, ,-41, ,
-21, ,-41, ,
-20, ,-41, ,
-17, ,-40, ,
-15, ,-40, ,
-14, ,-41, ,
-12, ,-41, ,
-11, ,-41, ,
-10, ,-41, ,
-10, ,-41, ,
-9, ,-41, ,
-8, ,-41, ,
-7, ,-40, ,
-5, ,-41, ,
-3, ,-41, ,
-3, ,-40, ,
-2, ,-41, ,
0, ,-41, ,
1, ,-41, ,
2, ,-41, ,
3, ,-41, ,
4, ,-41, ,
5, ,-41, ,
5, ,-41, ,
7, ,-41, ,
6, ,-40, ,
7, ,-41, ,
8, ,-41, ,
8, ,-40, ,
9, ,-41, ,
11, ,-41, ,
10, ,-41, ,
11, ,-41, ,
11, ,-41, ,
11, ,-41, ,
11, ,-41, ,
10, ,-41, ,
10, ,-41, ,
10, ,-41, ,
9, ,-40, ,
9, ,-41, ,
7, ,-41, ,
6, ,-41, ,
6, ,-41, ,
5, ,-40, ,
5, ,-41, ,
4, ,-41, ,
1, ,-40, ,
1, ,-40, ,
0, ,-40, ,
-1, ,-41, ,
-1, ,-41, ,
-3, ,-41, ,
-4, ,-41, ,
-5, ,-40, ,
-7, ,-41, ,
-6, ,-41, ,
-8, ,-41, ,
-9, ,-41, ,
-9, ,-41, ,
-10, ,-41, ,
-10, ,-41, ,
-11, ,-41, ,
-12, ,-40, ,
-10, ,-41, ,
-12, ,-41, ,
-14, ,-41, ,
-14, ,-41, ,
-14, ,-41, ,
-15, ,-41, ,
-14, ,-41, ,
-16, ,-41, ,
-16, ,-41, ,
-17, ,-40, ,
-18, ,-41, ,
-19, ,-41, ,
-20, ,-40, ,
-21, ,-41, ,
-22, ,-41, ,
-23, ,-40, ,
-22, ,-41, ,
-23, ,-41, ,
-24, ,-41, ,
-24, ,-41, ,
-25, ,-41, ,
-26, ,-41, ,
-25, ,-40, ,
-26, ,-41, ,
-26, ,-41, ,
-29, ,-41, ,
-26, ,-41, ,
-26, ,-41, ,
-27, ,-41, ,
-25, ,-41, ,
-25, ,-41, ,
-25, ,-40, ,
-24, ,-41, ,
-22, ,-41, ,
-22, ,-41, ,
-21, ,-40, ,
-20, ,-41, ,
-18, ,-41, ,
-16, ,-41, ,
-17, ,-41, ,
-15, ,-41, ,
-15, ,-40, ,
-15, ,-40, ,
-14, ,-41, ,
-15, ,-41, ,
-13, ,-41, ,
-12, ,-41, ,
-11, ,-40, ,
-11, ,-41, ,
-11, ,-41, ,
-10, ,-41, ,
-10, ,-41, ,
-10, ,-41, ,
-10, ,-41, ,
-11, ,-41, ,
-12, ,-41, ,
-12, ,-41, ,
-13, ,-40, ,
-14, ,-41, ,
-14, ,-41, ,
-15, ,-41, ,
-15, ,-41, ,
-15, ,-41, ,
-18, ,-40, ,
-18, ,-40, ,
-19, ,-40, ,
-19, ,-40, ,
-18, ,-41, ,
-19, ,-41, ,
-19, ,-41, ,
-19, ,-41, ,
-20, ,-41, ,
-20, ,-41, ,
-21, ,-40, ,
-21, ,-41, ,
-21, ,-41, ,
-22, ,-41, ,
-20, ,-41, ,
-20, ,-41, ,
-21, ,-41, ,
-19, ,-41, ,
-19, ,-41, ,
-19, ,-41, ,
-17, ,-41, ,
-17, ,-41, ,
-17, ,-41, ,
-15, ,-41, ,
-15, ,-41, ,
-14, ,-41, ,
-14, ,-41, ,
-14, ,-41, ,
-11, ,-41, ,
-13, ,-40, ,
-10, ,-41, ,
-10, ,-41, ,
-10, ,-41, ,
-8, ,-41, ,
-8, ,-41, ,
-5, ,-41, ,
-5, ,-41, ,
-4, ,-41, ,
-3, ,-41, ,
-2, ,-40, ,
-1, ,-41, ,
0, ,-41, ,
0, ,-41, ,
0, ,-41, ,
1, ,-41, ,
1, ,-41, ,
1, ,-41, ,
2, ,-41, ,
1, ,-41, ,
3, ,-41, ,
3, ,-41, ,
2, ,-41, ,
2, ,-41, ,
1, ,-41, ,
1, ,-41, ,
2, ,-40, ,
1, ,-41, ,
1, ,-41, ,
1, ,-41, ,
0, ,-41, ,
0, ,-41, ,
-1, ,-40, ,
0, ,-40, ,
-1, ,-40, ,
-2, ,-40, ,
-1, ,-41, ,
-3, ,-41, ,
-4, ,-41, ,
-3, ,-41, ,
-4, ,-41, ,
-4, ,-41, ,
-5, ,-40, ,
-6, ,-40, ,
-6, ,-40, ,
-7, ,-40, ,
-7, ,-40, ,
-8, ,-41, ,
-8, ,-41, ,
-8, ,-41, ,
-8, ,-40, ,
-9, ,-41, ,
-8, ,-41, ,
-10, ,-41, ,
-10, ,-41, ,
-10, ,-41, ,
-11, ,-41, ,
-11, ,-41, ,
-11, ,-41, ,
-12, ,-40, ,
-11, ,-40, ,
-13, ,-40, ,
-12, ,-41, ,
-12, ,-41, ,
-12, ,-40, ,
-11, ,-41, ,
-11, ,-41, ,
-11, ,-40, ,
-11, ,-41, ,
-11, ,-41, ,
-10, ,-41, ,
-10, ,-41, ,
-10, ,-41, ,
-10, ,-41, ,
-10, ,-41, ,
-10, ,-40, ,
-10, ,-40, ,
-9, ,-40, ,
-8, ,-41, ,
-7, ,-41, ,
-7, ,-40, ,
-7, ,-41, ,
-7, ,-41, ,
-7, ,-40, ,
-6, ,-40, ,
-6, ,-40, ,
-6, ,-40, ,
-5, ,-41, ,
-6, ,-41, ,
-6, ,-41, ,
-5, ,-41, ,
-5, ,-41, ,
-5, ,-41, ,
-5, ,-41, ,
-5, ,-41, ,
-4, ,-41, ,
-5, ,-40, ,
-4, ,-40, ,
-4, ,-40, ,
-4, ,-41, ,
-3, ,-41, ,
-4, ,-41, ,
-4, ,-41, ,
-3, ,-41, ,
-3, ,-41, ,
-3, ,-41, ,
-4, ,-41, ,
-4, ,-41, ,
-3, ,-41, ,
-4, ,-41, ,
-3, ,-41, ,
-2, ,-41, ,
-2, ,-41, ,
-2, ,-41, ,
-1, ,-41, ,
-2, ,-41, ,
-1, ,-41, ,
0, ,-41, ,
-1, ,-41, ,
-2, ,-41, ,
-2, ,-41, ,
-2, ,-41, ,
-2, ,-40, ,
-3, ,-41, ,
-2, ,-41, ,
-3, ,-40, ,
-3, ,-41, ,
-2, ,-41, ,
-2, ,-40, ,
-1, ,-41, ,
-1, ,-41, ,
-2, ,-40, ,
0, ,-41, ,
-1, ,-41, ,
-2, ,-41, ,
-1, ,-41, ,
-2, ,-41, ,
-1, ,-41, ,
-1, ,-40, ,
-2, ,-41, ,
0, ,-41, ,
0, ,-41, ,
0, ,-41, ,
0, ,-41, ,
0, ,-41, ,
1, ,-41, ,
1, ,-40, ,
1, ,-40, ,
2, ,-41, ,
1, ,-41, ,
0, ,-41, ,
1, ,-41, ,
2, ,-41, ,
1, ,-41, ,
1, ,-41, ,
1, ,-41, ,
1, ,-41, ,
0, ,-40, ,
0, ,-41, ,
1, ,-41, ,
0, ,-40, ,
0, ,-41, ,
1, ,-41, ,
1, ,-40, ,
1, ,-41, ,
0, ,-41, ,
0, ,-41, ,
1, ,-41, ,
0, ,-41, ,
0, ,-41, ,
0, ,-40, ,
0, ,-41, ,
0, ,-41, ,
0, ,-40, ,
1, ,-41, ,
1, ,-41, ,
0, ,-41, ,
0, ,-41, ,
0, ,-41, ,
0, ,-40, ,
1, ,-41, ,
0, ,-41, ,
0, ,-41, ,
0, ,-41, ,
0, ,-41, ,
0, ,-41, ,
0, ,-41, ,
-1, ,-41, ,
-1, ,-41, ,
-2, ,-40, ,
-2, ,-41, ,
0, ,-41, ,
-2, ,-41, ,
-1, ,-41, ,
-1, ,-41, ,
-1, ,-40, ,
-1, ,-41, ,
-2, ,-41, ,
-2, ,-41, ,
0, ,-41, ,
-1, ,-41, ,
0, ,-41, ,
0, ,-41, ,
0, ,-41, ,
0, ,-41, ,
0, ,-40, ,
0, ,-41, ,
1, ,-41, ,
0, ,-41, ,
1, ,-41, ,
2, ,-41, ,
1, ,-41, ,
3, ,-41, ,
3, ,-41, ,
3, ,-41, ,
4, ,-41, ,
4, ,-41, ,
4, ,-41, ,
5, ,-41, ,
5, ,-41, ,
5, ,-41, ,
5, ,-41, ,
5, ,-41, ,
5, ,-40, ,
5, ,-40, ,
5, ,-41, ,
5, ,-41, ,
3, ,-40, ,
5, ,-41, ,
5, ,-41, ,
4, ,-41, ,
4, ,-41, ,
3, ,-41, ,
3, ,-41, ,
3, ,-41, ,
2, ,-41, ,
2, ,-41, ,
2, ,-41, ,
1, ,-41, ,
2, ,-41, ,
1, ,-41, ,
2, ,-41, ,
1, ,-41, ,
0, ,-40, ,
1, ,-41, ,
1, ,-41, ,
1, ,-41, ,
1, ,-41, ,
0, ,-41, ,
1, ,-41, ,
2, ,-41, ,
0, ,-41, ,
1, ,-41, ,
0, ,-41, ,
1, ,-41, ,
1, ,-41, ,
1, ,-41, ,
1, ,-41, ,
0, ,-41, ,
1, ,-40, ,
1, ,-41, ,
1, ,-41, ,
2, ,-41, ,
3, ,-41, ,
2, ,-41, ,
2, ,-41, ,
1, ,-40, ,
1, ,-41, ,
1, ,-41, ,
0, ,-40, ,
1, ,-40, ,
2, ,-41, ,
0, ,-41, ,
1, ,-41, ,
0, ,-41, ,
-1, ,-40, ,
-1, ,-41, ,
-1, ,-41, ,
-3, ,-41, ,
-2, ,-41, ,
-3, ,-41, ,
-3, ,-41, ,
-3, ,-41, ,
-4, ,-41, ,
-3, ,-41, ,
-5, ,-40, ,
-5, ,-41, ,
-5, ,-41, ,
-5, ,-40, ,
-5, ,-41, ,
-6, ,-41, ,
-6, ,-40, ,
-5, ,-41, ,
-6, ,-41, ,
-5, ,-41, ,
-5, ,-41, ,
-6, ,-41, ,
-5, ,-41, ,
-5, ,-41, ,
-6, ,-41, ,
-6, ,-41, ,
-7, ,-41, ,
-7, ,-41, ,
-7, ,-41, ,
-7, ,-41, ,
-7, ,-41, ,
-8, ,-40, ,
-9, ,-40, ,
-9, ,-41, ,
-10, ,-41, ,
-10, ,-41, ,
-9, ,-41, ,
-10, ,-41, ,
-10, ,-41, ,
-10, ,-40, ,
-9, ,-41, ,
-10, ,-41, ,
-11, ,-41, ,
-10, ,-41, ,
-10, ,-41, ,
-9, ,-40, ,
-8, ,-41, ,
-8, ,-41, ,
-8, ,-41, ,
-9, ,-41, ,
-7, ,-41, ,
-6, ,-41, ,
-6, ,-41, ,
-6, ,-40, ,
-5, ,-41, ,
-4, ,-41, ,
-4, ,-41, ,
-4, ,-41, ,
-4, ,-41, ,
-3, ,-41, ,
-3, ,-40, ,
-2, ,-40, ,
-2, ,-41, ,
-2, ,-41, ,
-2, ,-40, ,
-1, ,-41, ,
-2, ,-41, ,
-1, ,-41, ,
0, ,-41, ,
0, ,-41, ,
0, ,-41, ,
1, ,-41, ,
0, ,-40, ,
1, ,-40, ,
0, ,-40, ,
1, ,-41, ,
1, ,-41, ,
1, ,-40, ,
1, ,-41, ,
1, ,-41, ,
0, ,-40, ,
1, ,-41, ,
1, ,-41, ,
1, ,-41, ,
2, ,-40, ,
1, ,-40, ,
2, ,-40, ,
0, ,-40, ,
0, ,-41, ,
0, ,-41, ,
0, ,-40, ,
-1, ,-41, ,
-1, ,-41, ,
-1, ,-41, ,
-1, ,-41, ,
-1, ,-41, ,
-2, ,-40, ,
-2, ,-41, ,
-3, ,-41, ,
-3, ,-41, ,
-2, ,-41, ,
-3, ,-41, ,
-2, ,-41, ,
-3, ,-40, ,
-3, ,-41, ,
-3, ,-41, ,
-4, ,-41, ,
-4, ,-41, ,
-3, ,-41, ,
-4, ,-41, ,
-4, ,-41, ,
-4, ,-41, ,
-5, ,-41, ,
-4, ,-41, ,
-5, ,-40, ,
-5, ,-40, ,
-4, ,-41, ,
-4, ,-41, ,
-3, ,-41, ,
-3, ,-41, ,
-5, ,-41, ,
-4, ,-41, ,
-5, ,-40, ,
-4, ,-41, ,
-3, ,-41, ,
-3, ,-40, ,
-3, ,-40, ,
-2, ,-40, ,
-4, ,-41, ,
-2, ,-41, ,
-2, ,-41, ,
-2, ,-41, ,
-2, ,-41, ,
-2, ,-41, ,
-2, ,-41, ,
-1, ,-40, ,
-2, ,-41, ,
-1, ,-41, ,
-2, ,-41, ,
-2, ,-41, ,
-1, ,-41, ,
-2, ,-40, ,
-1, ,-41, ,
-1, ,-41, ,
-2, ,-41, ,
-2, ,-41, ,
-3, ,-41, ,
-3, ,-41, ,
-3, ,-41, ,
-3, ,-40, ,
-3, ,-41, ,
-3, ,-41, ,
-4, ,-40, ,
-3, ,-41, ,
-3, ,-41, ,
-3, ,-41, ,
-3, ,-41, ,
-5, ,-40, ,
-4, ,-41, ,
-3, ,-41, ,
-4, ,-40, ,
-3, ,-41, ,
-4, ,-41, ,
-4, ,-41, ,
-2, ,-41, ,
-3, ,-41, ,
-2, ,-41, ,
-1, ,-41, ,
-2, ,-41, ,
-2, ,-41, ,
-2, ,-40, ,
-2, ,-41, ,
-1, ,-41, ,
-2, ,-40, ,
-2, ,-41, ,
-2, ,-41, ,
-3, ,-41, ,
-2, ,-41, ,
-2, ,-41, ,
-2, ,-41, ,
-1, ,-41, ,
-2, ,-41, ,
-1, ,-41, ,
-2, ,-40, ,
-2, ,-41, ,
-1, ,-41, ,
-1, ,-41, ,
-1, ,-41, ,
-1, ,-41, ,
-2, ,-40, ,
-1, ,-41, ,
-1, ,-41, ,
-2, ,-40, ,
-1, ,-41, ,
-2, ,-41, ,
-2, ,-41, ,
0, ,-41, ,
-1, ,-41, ,
-1, ,-41, ,
0, ,-40, ,
-1, ,-41, ,
-1, ,-41, ,
-2, ,-40, ,
0, ,-40, ,
-1, ,-40, ,
-1, ,-40, ,
-1, ,-41, ,
-1, ,-41, ,
0, ,-41, ,
0, ,-41, ,
0, ,-41, ,
0, ,-41, ,
0, ,-41, ,
-1, ,-41, ,
-1, ,-41, ,
-1, ,-40, ,
-1, ,-41, ,
-1, ,-41, ,
-2, ,-41, ,
-2, ,-41, ,
-1, ,-41, ,
-2, ,-40, ,
-2, ,-41, ,
-2, ,-41, ,
-3, ,-40, ,
-2, ,-41, ,
-2, ,-41, ,
-2, ,-41, ,
-1, ,-41, ,
-2, ,-41, ,
0, ,-41, ,
1, ,-40, ,
0, ,-41, ,
1, ,-41, ,
0, ,-40, ,
2, ,-41, ,
2, ,-41, ,
2, ,-41, ,
2, ,-41, ,
4, ,-41, ,
4, ,-41, ,
5, ,-41, ,
5, ,-41, ,
5, ,-41, ,
7, ,-41, ,
6, ,-41, ,
6, ,-40, ,
7, ,-40, ,
7, ,-40, ,
6, ,-40, ,
6, ,-40, ,
6, ,-41, ,
7, ,-41, ,
6, ,-40, ,
7, ,-41, ,
5, ,-41, ,
5, ,-40, ,
5, ,-41, ,
6, ,-41, ,
5, ,-41, ,
5, ,-41, ,
4, ,-40, ,
4, ,-41, ,
3, ,-41, ,
2, ,-41, ,
2, ,-41, ,
1, ,-41, ,
0, ,-41, ,
0, ,-41, ,
-1, ,-40, ,
-1, ,-41, ,
-1, ,-41, ,
-3, ,-41, ,
-3, ,-41, ,
-3, ,-41, ,
-4, ,-41, ,
-4, ,-41, ,
-4, ,-41, ,
-3, ,-41, ,
-5, ,-40, ,
-5, ,-41, ,
-5, ,-41, ,
-5, ,-41, ,
-4, ,-41, ,
-3, ,-41, ,
-3, ,-40, ,
-4, ,-41, ,
-2, ,-41, ,
-2, ,-41, ,
0, ,-41, ,
-1, ,-41, ,
-1, ,-41, ,
0, ,-41, ,
1, ,-41, ,
2, ,-41, ,
4, ,-41, ,
0, ,-41, ,
3, ,-41, ,
3, ,-40, ,
2, ,-41, ,
2, ,-41, ,
1, ,-41, ,
2, ,-41, ,
1, ,-41, ,
1, ,-41, ,
1, ,-41, ,
0, ,-41, ,
-1, ,-41, ,
1, ,-41, ,
0, ,-41, ,
0, ,-41, ,
0, ,-41, ,
0, ,-41, ,
-1, ,-41, ,
-1, ,-41, ,
-1, ,-41, ,
-1, ,-41, ,
-2, ,-40, ,
-1, ,-41, ,
0, ,-41, ,
-1, ,-41, ,
0, ,-41, ,
0, ,-41, ,
-1, ,-41, ,
1, ,-41, ,
1, ,-41, ,
1, ,-41, ,
2, ,-41, ,
1, ,-41, ,
2, ,-41, ,
1, ,-41, ,
2, ,-41, ,
2, ,-41, ,
2, ,-41, ,
3, ,-41, ,
2, ,-41, ,
2, ,-41, ,
2, ,-41, ,
1, ,-40, ,
0, ,-40, ,
2, ,-41, ,
1, ,-41, ,
0, ,-41, ,
0, ,-41, ,
0, ,-41, ,
0, ,-41, ,
0, ,-41, ,
0, ,-41, ,
0, ,-41, ,
0, ,-41, ,
0, ,-41, ,
0, ,-41, ,
0, ,-41, ,
0, ,-40, ,
0, ,-40, ,
0, ,-40, ,
1, ,-41, ,
1, ,-41, ,
1, ,-41, ,
3, ,-41, ,
3, ,-40, ,
3, ,-40, ,
2, ,-40, ,
2, ,-41, ,
4, ,-41, ,
3, ,-41, ,
5, ,-41, ,
5, ,-41, ,
5, ,-40, ,
5, ,-41, ,
5, ,-41, ,
5, ,-41, ,
5, ,-41, ,
5, ,-41, ,
6, ,-41, ,
7, ,-40, ,
6, ,-41, ,
6, ,-41, ,
5, ,-40, ,
6, ,-41, ,
6, ,-41, ,
6, ,-41, ,
