raw_data/100% Glycerol, Impulsion 2Hz, Sonde 5MHz, Rampe 0.7Hz/temp0000147.CSV

Format,1.0B,
Memory Length,10000,Memory Length,10000,
IntpDistance,0,IntpDistance,0,
Trigger Address,159,Trigger Address,159,
Trigger Level,2.720E-01,Trigger Level,2.720E-01,
Source,CH1,Source,CH2,
Vertical Units,V,Vertical Units,V,
Vertical Units Div,0,Vertical Units Div,0,
Vertical Units Extend Div,16,Vertical Units Extend Div,16,
Label,,Label,,
Probe Type,0,Probe Type,0,
Probe Ratio,1.000e+00,Probe Ratio,1.000e+00,
Vertical Scale,2.000e-01,Vertical Scale,2.000e+00,
Vertical Position,0.000e+00,Vertical Position,0.000e+00,
Horizontal Units,S,Horizontal Units,S,
Horizontal Scale,5.000E-06,Horizontal Scale,5.000E-06,
Horizontal Position,2.420E-05,Horizontal Position,2.420E-05,
Horizontal Mode,Main,Horizontal Mode,Main,
SincET Mode,Real Time,SincET Mode,Real Time,
Sampling Period,5.000e-09,Sampling Period,5.000e-09,
Horizontal Old Scale,5.000E-06,Horizontal Old Scale,5.000E-06,
Horizontal Old Position,2.420E-05,Horizontal Old Position,2.420E-05,
Firmware,V1.32,Firmware,V1.32,
Mode,Fast,Mode,Fast,
Waveform Data,,Waveform Data,,
1, ,21, ,
1, ,21, ,
1, ,21, ,
1, ,21, ,
2, ,21, ,
2, ,21, ,
2, ,21, ,
1, ,21, ,
1, ,21, ,
1, ,21, ,
1, ,21, ,
0, ,21, ,
0, ,21, ,
1, ,21, ,
2, ,21, ,
1, ,21, ,
2, ,21, ,
1, ,21, ,
0, ,21, ,
2, ,21, ,
1, ,21, ,
1, ,21, ,
1, ,21, ,
1, ,21, ,
2, ,21, ,
1, ,21, ,
1, ,21, ,
2, ,21, ,
1, ,21, ,
2, ,21, ,
1, ,21, ,
0, ,21, ,
2, ,21, ,
1, ,21, ,
1, ,21, ,
1, ,21, ,
1, ,21, ,
1, ,21, ,
1, ,21, ,
1, ,21, ,
0, ,21, ,
0, ,21, ,
1, ,21, ,
2, ,21, ,
1, ,21, ,
1, ,21, ,
1, ,21, ,
1, ,21, ,
1, ,21, ,
1, ,21, ,
1, ,21, ,
1, ,21, ,
1, ,21, ,
1, ,21, ,
1, ,21, ,
1, ,21, ,
2, ,21, ,
1, ,21, ,
2, ,21, ,
2, ,21, ,
1, ,21, ,
1, ,21, ,
2, ,21, ,
1, ,21, ,
1, ,21, ,
2, ,21, ,
1, ,21, ,
1, ,21, ,
1, ,21, ,
1, ,21, ,
2, ,21, ,
1, ,21, ,
2, ,21, ,
0, ,21, ,
1, ,21, ,
2, ,21, ,
0, ,21, ,
2, ,21, ,
1, ,21, ,
2, ,21, ,
2, ,21, ,
1, ,21, ,
1, ,21, ,
1, ,21, ,
1, ,21, ,
1, ,21, ,
2, ,21, ,
2, ,21, ,
2, ,21, ,
1, ,21, ,
1, ,21, ,
1, ,21, ,
1, ,21, ,
1, ,21, ,
2, ,21, ,
2, ,21, ,
2, ,21, ,
1, ,21, ,
1, ,21, ,
2, ,21, ,
1, ,21, ,
1, ,21, ,
1, ,21, ,
1, ,21, ,
2, ,21, ,
1, ,21, ,
2, ,21, ,
1, ,21, ,
1, ,21, ,
1, ,21, ,
2, ,21, ,
1, ,21, ,
2, ,21, ,
1, ,21, ,
1, ,21, ,
1, ,21, ,
1, ,21, ,
2, ,21, ,
1, ,21, ,
1, ,21, ,
1, ,21, ,
1, ,21, ,
1, ,21, ,
1, ,21, ,
1, ,21, ,
1, ,21, ,
2, ,21, ,
1, ,21, ,
2, ,21, ,
1, ,21, ,
1, ,21, ,
2, ,21, ,
2, ,21, ,
2, ,21, ,
1, ,21, ,
2, ,21, ,
1, ,21, ,
1, ,21, ,
1, ,21, ,
2, ,21, ,
1, ,21, ,
1, ,21, ,
2, ,21, ,
1, ,21, ,
1, ,21, ,
1, ,21, ,
1, ,21, ,
2, ,21, ,
1, ,21, ,
1, ,21, ,
1, ,21, ,
1, ,21, ,
1, ,21, ,
1, ,21, ,
1, ,21, ,
1, ,21, ,
0, ,21, ,
2, ,21, ,
1, ,21, ,
0, ,21, ,
1, ,21, ,
1, ,21, ,
1, ,21, ,
1, ,21, ,
7, ,21, ,
0, ,21, ,
-3, ,21, ,
1, ,21, ,
29, ,21, ,
84, ,21, ,
125, ,21, ,
125, ,21, ,
125, ,21, ,
121, ,21, ,
13, ,21, ,
-15, ,21, ,
84, ,21, ,
125, ,21, ,
125, ,21, ,
125, ,21, ,
125, ,21, ,
125, ,21, ,
125, ,21, ,
125, ,21, ,
125, ,21, ,
125, ,21, ,
125, ,21, ,
125, ,21, ,
125, ,21, ,
125, ,21, ,
125, ,21, ,
125, ,21, ,
125, ,21, ,
125, ,21, ,
125, ,21, ,
125, ,21, ,
125, ,21, ,
125, ,21, ,
125, ,21, ,
125, ,21, ,
125, ,21, ,
125, ,21, ,
124, ,21, ,
124, ,21, ,
120, ,21, ,
115, ,21, ,
107, ,21, ,
101, ,21, ,
98, ,21, ,
94, ,21, ,
84, ,21, ,
83, ,21, ,
77, ,21, ,
75, ,21, ,
68, ,21, ,
63, ,21, ,
63, ,21, ,
58, ,21, ,
54, ,21, ,
51, ,21, ,
48, ,21, ,
46, ,21, ,
43, ,21, ,
39, ,21, ,
38, ,21, ,
35, ,21, ,
32, ,21, ,
31, ,21, ,
30, ,21, ,
29, ,21, ,
25, ,21, ,
24, ,21, ,
23, ,21, ,
22, ,21, ,
18, ,21, ,
19, ,21, ,
15, ,21, ,
15, ,21, ,
14, ,21, ,
12, ,21, ,
11, ,21, ,
10, ,21, ,
8, ,21, ,
8, ,21, ,
8, ,21, ,
8, ,21, ,
6, ,21, ,
5, ,21, ,
6, ,21, ,
4, ,21, ,
3, ,21, ,
3, ,21, ,
2, ,21, ,
2, ,21, ,
1, ,21, ,
0, ,21, ,
0, ,21, ,
0, ,21, ,
0, ,21, ,
0, ,21, ,
0, ,21, ,
0, ,21, ,
-1, ,21, ,
-2, ,21, ,
-1, ,21, ,
-2, ,21, ,
-1, ,21, ,
-3, ,21, ,
-4, ,21, ,
-3, ,21, ,
-3, ,21, ,
-3, ,21, ,
-3, ,21, ,
-3, ,21, ,
-3, ,21, ,
-3, ,21, ,
-3, ,21, ,
-3, ,21, ,
-2, ,21, ,
-3, ,21, ,
-2, ,21, ,
-5, ,21, ,
-4, ,21, ,
-3, ,21, ,
-4, ,21, ,
-3, ,21, ,
-4, ,21, ,
-4, ,21, ,
-3, ,21, ,
-3, ,21, ,
-4, ,21, ,
-3, ,21, ,
-3, ,21, ,
-3, ,21, ,
-4, ,21, ,
-3, ,21, ,
-3, ,21, ,
-3, ,21, ,
-3, ,21, ,
-3, ,21, ,
-3, ,21, ,
-3, ,21, ,
-2, ,21, ,
-2, ,21, ,
-2, ,21, ,
-2, ,21, ,
-2, ,21, ,
-2, ,21, ,
-2, ,21, ,
-2, ,21, ,
-2, ,21, ,
-2, ,21, ,
-2, ,21, ,
-2, ,21, ,
-1, ,21, ,
-1, ,21, ,
-2, ,21, ,
-2, ,21, ,
-2, ,21, ,
-2, ,21, ,
-2, ,21, ,
-2, ,21, ,
-2, ,21, ,
-1, ,21, ,
-1, ,21, ,
-1, ,21, ,
-2, ,21, ,
-1, ,21, ,
-2, ,21, ,
-1, ,21, ,
-2, ,21, ,
-1, ,21, ,
-2, ,21, ,
-1, ,21, ,
-1, ,21, ,
-1, ,21, ,
0, ,21, ,
0, ,21, ,
-1, ,21, ,
0, ,21, ,
-2, ,21, ,
0, ,21, ,
0, ,21, ,
0, ,21, ,
0, ,21, ,
0, ,21, ,
0, ,21, ,
0, ,21, ,
0, ,21, ,
0, ,21, ,
0, ,21, ,
0, ,21, ,
0, ,21, ,
0, ,21, ,
0, ,21, ,
1, ,21, ,
0, ,21, ,
1, ,21, ,
1, ,21, ,
0, ,21, ,
1, ,21, ,
-1, ,21, ,
-4, ,21, ,
-14, ,21, ,
-47, ,21, ,
-111, ,21, ,
-126, ,21, ,
-126, ,21, ,
-126, ,21, ,
-126, ,21, ,
-126, ,21, ,
-126, ,21, ,
-126, ,21, ,
-126, ,21, ,
-125, ,21, ,
-118, ,21, ,
-69, ,21, ,
92, ,21, ,
125, ,21, ,
125, ,21, ,
125, ,21, ,
125, ,21, ,
125, ,21, ,
125, ,21, ,
124, ,21, ,
124, ,21, ,
114, ,21, ,
112, ,21, ,
108, ,21, ,
107, ,21, ,
99, ,21, ,
96, ,21, ,
94, ,21, ,
88, ,21, ,
83, ,21, ,
79, ,21, ,
74, ,21, ,
58, ,21, ,
-106, ,21, ,
-126, ,21, ,
-126, ,21, ,
-126, ,21, ,
-126, ,21, ,
-126, ,21, ,
-126, ,21, ,
-126, ,21, ,
-126, ,21, ,
-126, ,21, ,
-126, ,21, ,
-126, ,21, ,
-126, ,21, ,
-126, ,21, ,
-126, ,21, ,
-126, ,21, ,
-126, ,21, ,
-126, ,21, ,
-126, ,21, ,
-126, ,21, ,
-111, ,21, ,
110, ,21, ,
125, ,21, ,
125, ,21, ,
125, ,21, ,
125, ,21, ,
125, ,21, ,
125, ,21, ,
125, ,21, ,
125, ,21, ,
125, ,21, ,
124, ,21, ,
117, ,21, ,
100, ,21, ,
90, ,21, ,
80, ,21, ,
74, ,21, ,
77, ,21, ,
85, ,21, ,
98, ,21, ,
125, ,21, ,
125, ,21, ,
125, ,21, ,
125, ,21, ,
125, ,21, ,
125, ,21, ,
125, ,21, ,
125, ,21, ,
125, ,21, ,
125, ,21, ,
125, ,21, ,
125, ,21, ,
125, ,21, ,
125, ,21, ,
125, ,21, ,
125, ,21, ,
125, ,21, ,
124, ,21, ,
124, ,21, ,
121, ,21, ,
110, ,21, ,
108, ,21, ,
101, ,21, ,
97, ,21, ,
86, ,21, ,
80, ,21, ,
75, ,21, ,
68, ,21, ,
58, ,21, ,
55, ,21, ,
53, ,21, ,
49, ,21, ,
46, ,21, ,
44, ,21, ,
43, ,21, ,
41, ,21, ,
36, ,21, ,
35, ,21, ,
30, ,21, ,
27, ,21, ,
19, ,21, ,
13, ,21, ,
10, ,21, ,
7, ,21, ,
0, ,21, ,
1, ,21, ,
0, ,21, ,
3, ,21, ,
7, ,21, ,
11, ,21, ,
15, ,21, ,
15, ,21, ,
20, ,21, ,
22, ,21, ,
23, ,21, ,
24, ,21, ,
24, ,21, ,
23, ,21, ,
23, ,21, ,
22, ,21, ,
21, ,21, ,
21, ,21, ,
20, ,21, ,
20, ,21, ,
20, ,21, ,
21, ,21, ,
22, ,21, ,
22, ,21, ,
24, ,21, ,
23, ,21, ,
23, ,21, ,
24, ,21, ,
23, ,21, ,
22, ,21, ,
22, ,21, ,
22, ,21, ,
20, ,21, ,
20, ,21, ,
19, ,21, ,
18, ,21, ,
18, ,21, ,
16, ,21, ,
16, ,21, ,
16, ,21, ,
15, ,21, ,
15, ,21, ,
13, ,21, ,
13, ,21, ,
12, ,21, ,
11, ,21, ,
11, ,21, ,
10, ,21, ,
10, ,21, ,
10, ,21, ,
9, ,21, ,
10, ,21, ,
8, ,21, ,
6, ,21, ,
8, ,21, ,
6, ,21, ,
6, ,21, ,
5, ,21, ,
5, ,21, ,
4, ,21, ,
2, ,21, ,
-2, ,21, ,
-8, ,21, ,
-25, ,21, ,
-96, ,21, ,
-126, ,21, ,
-126, ,21, ,
-126, ,21, ,
-126, ,21, ,
-126, ,21, ,
-126, ,21, ,
-126, ,21, ,
-126, ,21, ,
-126, ,21, ,
-126, ,21, ,
-126, ,21, ,
-126, ,21, ,
-126, ,21, ,
-126, ,21, ,
-126, ,21, ,
-126, ,21, ,
-126, ,21, ,
-126, ,21, ,
-126, ,21, ,
-126, ,21, ,
-126, ,21, ,
-126, ,21, ,
-126, ,21, ,
-126, ,21, ,
-126, ,21, ,
-126, ,21, ,
-126, ,21, ,
-126, ,21, ,
-126, ,21, ,
-126, ,21, ,
-126, ,21, ,
-126, ,21, ,
-126, ,21, ,
-126, ,21, ,
-125, ,21, ,
-69, ,21, ,
40, ,21, ,
125, ,21, ,
125, ,21, ,
125, ,21, ,
125, ,21, ,
125, ,21, ,
125, ,21, ,
125, ,21, ,
125, ,21, ,
125, ,21, ,
125, ,21, ,
125, ,21, ,
125, ,21, ,
125, ,21, ,
125, ,21, ,
125, ,21, ,
125, ,21, ,
125, ,21, ,
125, ,21, ,
125, ,21, ,
125, ,21, ,
125, ,21, ,
125, ,21, ,
125, ,21, ,
125, ,21, ,
125, ,21, ,
125, ,21, ,
125, ,21, ,
125, ,21, ,
125, ,21, ,
125, ,21, ,
124, ,21, ,
114, ,21, ,
101, ,21, ,
74, ,21, ,
7, ,21, ,
-34, ,21, ,
-74, ,21, ,
-109, ,21, ,
-126, ,21, ,
-126, ,21, ,
-126, ,21, ,
-126, ,21, ,
-126, ,21, ,
-126, ,21, ,
-126, ,21, ,
-126, ,21, ,
-98, ,21, ,
-72, ,21, ,
-49, ,21, ,
-26, ,21, ,
18, ,21, ,
38, ,21, ,
54, ,21, ,
71, ,21, ,
96, ,21, ,
105, ,21, ,
112, ,21, ,
119, ,21, ,
125, ,21, ,
125, ,21, ,
124, ,21, ,
124, ,21, ,
120, ,21, ,
114, ,21, ,
107, ,21, ,
98, ,21, ,
76, ,21, ,
60, ,21, ,
41, ,21, ,
22, ,21, ,
-20, ,21, ,
-41, ,21, ,
-60, ,21, ,
-78, ,21, ,
-106, ,21, ,
-116, ,21, ,
-122, ,21, ,
-125, ,21, ,
-123, ,21, ,
-121, ,21, ,
-115, ,21, ,
-107, ,21, ,
-89, ,21, ,
-78, ,21, ,
-67, ,21, ,
-58, ,21, ,
-39, ,21, ,
-35, ,21, ,
-29, ,21, ,
-25, ,21, ,
-23, ,21, ,
-23, ,21, ,
-25, ,21, ,
-28, ,21, ,
-38, ,21, ,
-45, ,21, ,
-50, ,21, ,
-62, ,21, ,
-81, ,21, ,
-92, ,21, ,
-103, ,21, ,
-113, ,21, ,
-126, ,21, ,
-126, ,21, ,
-126, ,21, ,
-126, ,21, ,
-126, ,21, ,
-126, ,21, ,
-126, ,21, ,
-126, ,21, ,
-126, ,21, ,
-126, ,21, ,
-126, ,21, ,
-126, ,21, ,
-126, ,21, ,
-126, ,21, ,
-126, ,21, ,
-126, ,21, ,
-124, ,21, ,
-110, ,21, ,
-95, ,21, ,
-79, ,21, ,
-47, ,21, ,
-31, ,21, ,
-16, ,21, ,
-2, ,21, ,
24, ,21, ,
36, ,21, ,
48, ,21, ,
57, ,21, ,
77, ,21, ,
89, ,21, ,
97, ,21, ,
106, ,21, ,
125, ,21, ,
125, ,21, ,
125, ,21, ,
125, ,21, ,
125, ,21, ,
125, ,21, ,
125, ,21, ,
125, ,21, ,
125, ,21, ,
125, ,21, ,
125, ,21, ,
125, ,21, ,
125, ,21, ,
125, ,21, ,
125, ,21, ,
125, ,21, ,
125, ,21, ,
125, ,21, ,
125, ,21, ,
125, ,21, ,
125, ,21, ,
125, ,21, ,
125, ,21, ,
125, ,21, ,
125, ,21, ,
125, ,21, ,
125, ,21, ,
125, ,21, ,
124, ,21, ,
124, ,21, ,
118, ,21, ,
113, ,21, ,
101, ,21, ,
93, ,21, ,
84, ,21, ,
75, ,21, ,
54, ,21, ,
44, ,21, ,
31, ,21, ,
18, ,21, ,
-17, ,21, ,
-38, ,21, ,
-61, ,21, ,
-89, ,21, ,
-126, ,21, ,
-126, ,21, ,
-126, ,21, ,
-126, ,21, ,
-126, ,21, ,
-126, ,21, ,
-126, ,21, ,
-126, ,21, ,
-126, ,21, ,
-126, ,21, ,
-126, ,21, ,
-126, ,21, ,
-126, ,21, ,
-126, ,21, ,
-126, ,21, ,
-126, ,21, ,
-126, ,21, ,
-126, ,21, ,
-126, ,21, ,
-126, ,21, ,
-126, ,21, ,
-126, ,21, ,
-126, ,21, ,
-125, ,21, ,
-87, ,21, ,
-55, ,21, ,
-51, ,21, ,
-50, ,21, ,
-43, ,21, ,
-37, ,21, ,
-34, ,21, ,
-33, ,21, ,
-29, ,21, ,
-25, ,21, ,
-19, ,21, ,
-8, ,21, ,
17, ,21, ,
31, ,21, ,
47, ,21, ,
65, ,21, ,
102, ,21, ,
121, ,21, ,
125, ,21, ,
125, ,21, ,
125, ,21, ,
125, ,21, ,
125, ,21, ,
125, ,21, ,
125, ,21, ,
125, ,21, ,
125, ,21, ,
125, ,21, ,
125, ,21, ,
124, ,21, ,
124, ,21, ,
117, ,21, ,
77, ,21, ,
57, ,21, ,
36, ,21, ,
18, ,21, ,
-14, ,21, ,
-25, ,21, ,
-35, ,21, ,
-44, ,21, ,
-49, ,21, ,
-49, ,21, ,
-47, ,21, ,
-42, ,21, ,
-28, ,21, ,
-20, ,21, ,
-10, ,21, ,
0, ,21, ,
21, ,21, ,
30, ,21, ,
38, ,21, ,
48, ,21, ,
62, ,21, ,
67, ,21, ,
73, ,21, ,
74, ,21, ,
74, ,21, ,
75, ,21, ,
72, ,21, ,
70, ,21, ,
63, ,21, ,
56, ,21, ,
51, ,21, ,
44, ,21, ,
35, ,21, ,
33, ,21, ,
29, ,21, ,
26, ,21, ,
23, ,21, ,
23, ,21, ,
25, ,21, ,
25, ,21, ,
32, ,21, ,
35, ,21, ,
39, ,21, ,
45, ,21, ,
56, ,21, ,
59, ,21, ,
64, ,21, ,
67, ,21, ,
70, ,21, ,
72, ,21, ,
71, ,21, ,
71, ,21, ,
66, ,21, ,
62, ,21, ,
57, ,21, ,
51, ,21, ,
37, ,21, ,
30, ,21, ,
21, ,21, ,
14, ,21, ,
-5, ,21, ,
-15, ,21, ,
-23, ,21, ,
-31, ,21, ,
-45, ,21, ,
-51, ,21, ,
-58, ,21, ,
-62, ,21, ,
-71, ,21, ,
-74, ,21, ,
-75, ,21, ,
-77, ,21, ,
-78, ,21, ,
-78, ,21, ,
-79, ,21, ,
-78, ,21, ,
-79, ,21, ,
-79, ,21, ,
-79, ,21, ,
-80, ,21, ,
-84, ,21, ,
-87, ,21, ,
-90, ,21, ,
-94, ,21, ,
-104, ,21, ,
-109, ,21, ,
-115, ,21, ,
-124, ,21, ,
-126, ,21, ,
-126, ,21, ,
-126, ,21, ,
-126, ,21, ,
-126, ,21, ,
-126, ,21, ,
-126, ,21, ,
-126, ,21, ,
-126, ,21, ,
-126, ,21, ,
-126, ,21, ,
-126, ,21, ,
-126, ,21, ,
-126, ,21, ,
-118, ,21, ,
-110, ,21, ,
-86, ,21, ,
-75, ,21, ,
-63, ,21, ,
-49, ,21, ,
-28, ,21, ,
-19, ,21, ,
-9, ,21, ,
1, ,21, ,
18, ,21, ,
26, ,21, ,
33, ,21, ,
39, ,21, ,
53, ,21, ,
60, ,21, ,
67, ,21, ,
72, ,21, ,
89, ,21, ,
97, ,21, ,
104, ,21, ,
113, ,21, ,
125, ,21, ,
125, ,21, ,
125, ,21, ,
125, ,21, ,
125, ,21, ,
125, ,21, ,
125, ,21, ,
125, ,21, ,
125, ,21, ,
125, ,21, ,
125, ,21, ,
125, ,21, ,
125, ,21, ,
125, ,21, ,
125, ,21, ,
125, ,21, ,
125, ,21, ,
125, ,21, ,
124, ,21, ,
123, ,21, ,
101, ,21, ,
90, ,21, ,
77, ,21, ,
65, ,21, ,
43, ,21, ,
34, ,21, ,
24, ,21, ,
12, ,21, ,
-4, ,21, ,
-12, ,21, ,
-18, ,21, ,
-26, ,21, ,
-35, ,21, ,
-42, ,21, ,
-47, ,21, ,
-52, ,21, ,
-65, ,21, ,
-70, ,21, ,
-76, ,21, ,
-82, ,21, ,
-97, ,21, ,
-105, ,21, ,
-109, ,21, ,
-119, ,21, ,
-126, ,21, ,
-126, ,21, ,
-126, ,21, ,
-126, ,21, ,
-126, ,21, ,
-126, ,21, ,
-126, ,21, ,
-126, ,21, ,
-126, ,21, ,
-126, ,21, ,
-126, ,21, ,
-126, ,21, ,
-107, ,21, ,
-98, ,21, ,
-84, ,21, ,
-73, ,21, ,
-48, ,21, ,
-36, ,21, ,
-27, ,21, ,
-19, ,21, ,
-2, ,21, ,
0, ,21, ,
7, ,21, ,
8, ,21, ,
9, ,21, ,
9, ,21, ,
5, ,21, ,
4, ,21, ,
-3, ,21, ,
-8, ,21, ,
-10, ,21, ,
-16, ,21, ,
-22, ,21, ,
-24, ,21, ,
-26, ,21, ,
-27, ,21, ,
-29, ,21, ,
-29, ,21, ,
-28, ,21, ,
-25, ,21, ,
-25, ,21, ,
-21, ,21, ,
-20, ,21, ,
-18, ,21, ,
-14, ,21, ,
-15, ,21, ,
-13, ,21, ,
-14, ,21, ,
-15, ,21, ,
-15, ,21, ,
-20, ,21, ,
-20, ,21, ,
-24, ,21, ,
-28, ,21, ,
-30, ,21, ,
-33, ,21, ,
-36, ,21, ,
-39, ,21, ,
-40, ,21, ,
-40, ,21, ,
-40, ,21, ,
-41, ,21, ,
-38, ,21, ,
-37, ,21, ,
-32, ,21, ,
-27, ,21, ,
-24, ,21, ,
-20, ,21, ,
-10, ,21, ,
-7, ,21, ,
0, ,21, ,
4, ,21, ,
13, ,21, ,
17, ,21, ,
22, ,21, ,
26, ,21, ,
34, ,21, ,
35, ,21, ,
39, ,21, ,
39, ,21, ,
42, ,21, ,
44, ,21, ,
43, ,21, ,
43, ,21, ,
43, ,21, ,
39, ,21, ,
39, ,21, ,
38, ,21, ,
35, ,21, ,
35, ,21, ,
34, ,21, ,
35, ,21, ,
35, ,21, ,
35, ,21, ,
35, ,21, ,
35, ,21, ,
37, ,20, ,
39, ,20, ,
39, ,20, ,
40, ,21, ,
44, ,21, ,
44, ,21, ,
45, ,21, ,
45, ,21, ,
45, ,21, ,
45, ,21, ,
44, ,21, ,
43, ,21, ,
39, ,21, ,
38, ,21, ,
35, ,21, ,
32, ,21, ,
27, ,21, ,
25, ,21, ,
19, ,21, ,
16, ,21, ,
9, ,21, ,
2, ,21, ,
0, ,21, ,
-5, ,21, ,
-15, ,21, ,
-19, ,21, ,
-21, ,21, ,
-26, ,21, ,
-35, ,21, ,
-40, ,21, ,
-42, ,21, ,
-48, ,21, ,
-55, ,21, ,
-57, ,21, ,
-63, ,21, ,
-66, ,21, ,
-72, ,21, ,
-75, ,21, ,
-80, ,21, ,
-81, ,21, ,
-88, ,21, ,
-87, ,21, ,
-89, ,21, ,
-90, ,21, ,
-92, ,21, ,
-93, ,21, ,
-91, ,21, ,
-91, ,21, ,
-89, ,21, ,
-86, ,21, ,
-86, ,21, ,
-83, ,21, ,
-79, ,21, ,
-77, ,21, ,
-73, ,21, ,
-70, ,21, ,
-61, ,21, ,
-56, ,21, ,
-53, ,21, ,
-46, ,21, ,
-35, ,21, ,
-29, ,21, ,
-22, ,21, ,
-15, ,21, ,
1, ,21, ,
10, ,21, ,
16, ,21, ,
25, ,21, ,
39, ,21, ,
47, ,21, ,
55, ,21, ,
63, ,21, ,
73, ,21, ,
80, ,21, ,
85, ,21, ,
89, ,21, ,
97, ,21, ,
98, ,21, ,
102, ,21, ,
102, ,21, ,
104, ,21, ,
104, ,21, ,
103, ,21, ,
102, ,21, ,
102, ,21, ,
98, ,21, ,
96, ,21, ,
94, ,21, ,
89, ,21, ,
89, ,21, ,
85, ,21, ,
82, ,21, ,
76, ,21, ,
73, ,21, ,
71, ,21, ,
64, ,21, ,
58, ,21, ,
55, ,21, ,
48, ,21, ,
43, ,21, ,
35, ,21, ,
28, ,21, ,
22, ,21, ,
17, ,21, ,
5, ,21, ,
-1, ,21, ,
-6, ,21, ,
-11, ,21, ,
-20, ,21, ,
-26, ,21, ,
-28, ,21, ,
-32, ,21, ,
-35, ,21, ,
-35, ,21, ,
-38, ,21, ,
-36, ,21, ,
-35, ,21, ,
-36, ,21, ,
-34, ,21, ,
-32, ,21, ,
-29, ,21, ,
-26, ,21, ,
-25, ,21, ,
-21, ,21, ,
-18, ,21, ,
-15, ,21, ,
-12, ,21, ,
-13, ,21, ,
-9, ,21, ,
-7, ,21, ,
-5, ,21, ,
-5, ,21, ,
-2, ,21, ,
-2, ,21, ,
0, ,21, ,
1, ,21, ,
3, ,21, ,
5, ,21, ,
6, ,21, ,
6, ,21, ,
8, ,21, ,
8, ,21, ,
11, ,21, ,
11, ,21, ,
12, ,20, ,
13, ,20, ,
13, ,20, ,
14, ,21, ,
12, ,21, ,
10, ,21, ,
10, ,21, ,
9, ,21, ,
6, ,21, ,
4, ,21, ,
1, ,21, ,
0, ,21, ,
-5, ,21, ,
-8, ,21, ,
-10, ,21, ,
-13, ,21, ,
-18, ,21, ,
-18, ,21, ,
-21, ,21, ,
-24, ,21, ,
-26, ,21, ,
-29, ,21, ,
-28, ,21, ,
-30, ,21, ,
-31, ,21, ,
-32, ,21, ,
-33, ,21, ,
-32, ,21, ,
-32, ,21, ,
-32, ,21, ,
-32, ,21, ,
-33, ,21, ,
-31, ,21, ,
-30, ,21, ,
-30, ,21, ,
-29, ,21, ,
-27, ,21, ,
-27, ,21, ,
-26, ,21, ,
-25, ,21, ,
-24, ,21, ,
-22, ,21, ,
-22, ,21, ,
-21, ,21, ,
-21, ,21, ,
-20, ,21, ,
-18, ,21, ,
-18, ,21, ,
-16, ,21, ,
-15, ,21, ,
-14, ,21, ,
-12, ,21, ,
-10, ,21, ,
-9, ,21, ,
-7, ,21, ,
-5, ,21, ,
-2, ,21, ,
0, ,21, ,
3, ,21, ,
5, ,21, ,
8, ,21, ,
11, ,21, ,
13, ,21, ,
15, ,21, ,
19, ,21, ,
21, ,21, ,
22, ,21, ,
23, ,21, ,
28, ,21, ,
28, ,21, ,
31, ,21, ,
31, ,21, ,
33, ,21, ,
34, ,21, ,
34, ,21, ,
34, ,21, ,
33, ,21, ,
33, ,21, ,
33, ,21, ,
32, ,21, ,
32, ,21, ,
30, ,21, ,
29, ,21, ,
28, ,21, ,
27, ,21, ,
24, ,21, ,
24, ,21, ,
22, ,21, ,
19, ,21, ,
18, ,21, ,
15, ,21, ,
15, ,21, ,
10, ,21, ,
7, ,21, ,
7, ,21, ,
2, ,21, ,
-3, ,21, ,
-5, ,21, ,
-9, ,21, ,
-12, ,21, ,
-18, ,21, ,
-23, ,21, ,
-25, ,21, ,
-28, ,21, ,
-36, ,21, ,
-40, ,21, ,
-42, ,21, ,
-45, ,21, ,
-54, ,21, ,
-55, ,21, ,
-57, ,21, ,
-62, ,21, ,
-66, ,21, ,
-65, ,21, ,
-67, ,21, ,
-67, ,21, ,
-66, ,21, ,
-66, ,21, ,
-63, ,21, ,
-63, ,21, ,
-60, ,21, ,
-58, ,21, ,
-55, ,21, ,
-52, ,21, ,
-48, ,21, ,
-45, ,21, ,
-41, ,21, ,
-41, ,21, ,
-35, ,21, ,
-32, ,21, ,
-31, ,21, ,
-27, ,21, ,
-21, ,21, ,
-20, ,21, ,
-18, ,21, ,
-13, ,21, ,
-9, ,21, ,
-4, ,21, ,
-2, ,21, ,
2, ,21, ,
8, ,21, ,
11, ,21, ,
15, ,21, ,
18, ,21, ,
25, ,21, ,
30, ,21, ,
31, ,21, ,
35, ,21, ,
39, ,21, ,
40, ,21, ,
43, ,21, ,
42, ,21, ,
43, ,21, ,
43, ,21, ,
43, ,21, ,
42, ,21, ,
38, ,21, ,
36, ,21, ,
35, ,21, ,
31, ,21, ,
26, ,21, ,
24, ,21, ,
19, ,21, ,
16, ,21, ,
13, ,21, ,
9, ,21, ,
6, ,21, ,
4, ,21, ,
-1, ,21, ,
-1, ,21, ,
-3, ,21, ,
-3, ,21, ,
-7, ,21, ,
-8, ,21, ,
-8, ,21, ,
-10, ,21, ,
-11, ,21, ,
-11, ,21, ,
-14, ,21, ,
-14, ,21, ,
-15, ,21, ,
-17, ,21, ,
-17, ,21, ,
-18, ,21, ,
-19, ,21, ,
-18, ,21, ,
-20, ,21, ,
-19, ,21, ,
-18, ,21, ,
-19, ,21, ,
-17, ,21, ,
-17, ,21, ,
-15, ,21, ,
-14, ,21, ,
-13, ,21, ,
-9, ,21, ,
-5, ,21, ,
-4, ,21, ,
-2, ,21, ,
0, ,21, ,
5, ,21, ,
6, ,21, ,
9, ,21, ,
11, ,21, ,
14, ,21, ,
15, ,21, ,
15, ,21, ,
16, ,21, ,
18, ,21, ,
17, ,21, ,
17, ,21, ,
17, ,21, ,
17, ,21, ,
15, ,21, ,
15, ,21, ,
14, ,21, ,
13, ,21, ,
13, ,21, ,
12, ,21, ,
12, ,21, ,
9, ,21, ,
8, ,21, ,
8, ,21, ,
7, ,21, ,
5, ,21, ,
5, ,21, ,
5, ,21, ,
5, ,21, ,
4, ,21, ,
2, ,21, ,
2, ,21, ,
2, ,21, ,
0, ,21, ,
0, ,21, ,
-1, ,21, ,
-1, ,21, ,
-3, ,21, ,
-6, ,21, ,
-5, ,21, ,
-8, ,21, ,
-10, ,21, ,
-11, ,21, ,
-13, ,21, ,
-13, ,21, ,
-15, ,21, ,
-16, ,21, ,
-16, ,21, ,
-19, ,21, ,
-19, ,21, ,
-19, ,21, ,
-20, ,21, ,
-19, ,21, ,
-18, ,21, ,
-19, ,21, ,
-18, ,21, ,
-18, ,21, ,
-17, ,21, ,
-15, ,21, ,
-15, ,21, ,
-15, ,21, ,
-12, ,21, ,
-12, ,21, ,
-10, ,21, ,
-9, ,21, ,
-7, ,21, ,
-5, ,21, ,
-5, ,21, ,
-4, ,21, ,
-2, ,21, ,
-1, ,21, ,
1, ,21, ,
1, ,21, ,
5, ,21, ,
5, ,21, ,
6, ,21, ,
8, ,21, ,
10, ,21, ,
11, ,21, ,
14, ,21, ,
15, ,21, ,
18, ,21, ,
20, ,21, ,
21, ,21, ,
23, ,21, ,
26, ,21, ,
27, ,21, ,
28, ,21, ,
29, ,21, ,
30, ,21, ,
33, ,21, ,
33, ,21, ,
33, ,21, ,
33, ,21, ,
33, ,21, ,
33, ,21, ,
32, ,21, ,
30, ,21, ,
29, ,21, ,
29, ,21, ,
28, ,21, ,
24, ,21, ,
22, ,21, ,
20, ,21, ,
17, ,21, ,
14, ,21, ,
12, ,21, ,
8, ,21, ,
7, ,21, ,
2, ,21, ,
-1, ,21, ,
-1, ,21, ,
-5, ,21, ,
-8, ,21, ,
-9, ,21, ,
-12, ,21, ,
-13, ,21, ,
-16, ,21, ,
-17, ,21, ,
-18, ,21, ,
-21, ,21, ,
-23, ,21, ,
-25, ,21, ,
-25, ,21, ,
-26, ,20, ,
-28, ,20, ,
-30, ,20, ,
-30, ,21, ,
-30, ,21, ,
-31, ,21, ,
-31, ,21, ,
-31, ,21, ,
-31, ,21, ,
-30, ,21, ,
-30, ,21, ,
-27, ,21, ,
-29, ,21, ,
-24, ,21, ,
-22, ,21, ,
-21, ,21, ,
-19, ,20, ,
-13, ,20, ,
-12, ,20, ,
-9, ,21, ,
-7, ,21, ,
0, ,21, ,
2, ,21, ,
6, ,21, ,
9, ,21, ,
13, ,21, ,
14, ,21, ,
17, ,21, ,
18, ,21, ,
20, ,21, ,
23, ,21, ,
23, ,21, ,
24, ,21, ,
25, ,21, ,
25, ,21, ,
25, ,21, ,
25, ,21, ,
25, ,21, ,
25, ,21, ,
25, ,21, ,
24, ,21, ,
24, ,21, ,
23, ,21, ,
23, ,21, ,
21, ,21, ,
21, ,21, ,
20, ,21, ,
19, ,21, ,
19, ,21, ,
16, ,21, ,
14, ,21, ,
14, ,21, ,
12, ,21, ,
9, ,21, ,
9, ,21, ,
6, ,21, ,
5, ,21, ,
1, ,21, ,
0, ,21, ,
0, ,21, ,
-5, ,21, ,
-6, ,21, ,
-7, ,21, ,
-9, ,21, ,
-9, ,21, ,
-10, ,21, ,
-11, ,21, ,
-11, ,21, ,
-11, ,21, ,
-11, ,21, ,
-11, ,21, ,
-11, ,21, ,
-10, ,21, ,
-9, ,21, ,
-7, ,21, ,
-7, ,21, ,
-7, ,21, ,
-6, ,21, ,
-5, ,21, ,
-5, ,21, ,
-4, ,21, ,
-2, ,21, ,
-2, ,21, ,
0, ,21, ,
0, ,21, ,
0, ,21, ,
1, ,21, ,
0, ,21, ,
2, ,21, ,
3, ,21, ,
2, ,21, ,
3, ,21, ,
1, ,21, ,
3, ,21, ,
4, ,21, ,
4, ,21, ,
4, ,21, ,
6, ,21, ,
6, ,21, ,
7, ,21, ,
7, ,21, ,
6, ,21, ,
9, ,21, ,
8, ,21, ,
9, ,21, ,
10, ,21, ,
9, ,21, ,
9, ,21, ,
8, ,21, ,
8, ,21, ,
9, ,21, ,
7, ,21, ,
7, ,21, ,
6, ,21, ,
5, ,21, ,
4, ,21, ,
4, ,21, ,
1, ,21, ,
1, ,21, ,
0, ,21, ,
0, ,21, ,
-1, ,21, ,
-1, ,21, ,
