raw_data/100% Glycerol, Impulsion 2Hz, Sonde 5MHz, Rampe 0.7Hz/temp0000140.CSV

Format,1.0B,
Memory Length,10000,Memory Length,10000,
IntpDistance,0,IntpDistance,0,
Trigger Address,159,Trigger Address,159,
Trigger Level,2.720E-01,Trigger Level,2.720E-01,
Source,CH1,Source,CH2,
Vertical Units,V,Vertical Units,V,
Vertical Units Div,0,Vertical Units Div,0,
Vertical Units Extend Div,16,Vertical Units Extend Div,16,
Label,,Label,,
Probe Type,0,Probe Type,0,
Probe Ratio,1.000e+00,Probe Ratio,1.000e+00,
Vertical Scale,2.000e-01,Vertical Scale,2.000e+00,
Vertical Position,0.000e+00,Vertical Position,0.000e+00,
Horizontal Units,S,Horizontal Units,S,
Horizontal Scale,5.000E-06,Horizontal Scale,5.000E-06,
Horizontal Position,2.420E-05,Horizontal Position,2.420E-05,
Horizontal Mode,Main,Horizontal Mode,Main,
SincET Mode,Real Time,SincET Mode,Real Time,
Sampling Period,5.000e-09,Sampling Period,5.000e-09,
Horizontal Old Scale,5.000E-06,Horizontal Old Scale,5.000E-06,
Horizontal Old Position,2.420E-05,Horizontal Old Position,2.420E-05,
Firmware,V1.32,Firmware,V1.32,
Mode,Fast,Mode,Fast,
Waveform Data,,Waveform Data,,
1, ,-26, ,
2, ,-27, ,
2, ,-27, ,
1, ,-27, ,
3, ,-26, ,
2, ,-27, ,
2, ,-27, ,
2, ,-27, ,
1, ,-27, ,
3, ,-27, ,
1, ,-26, ,
2, ,-26, ,
2, ,-26, ,
1, ,-26, ,
2, ,-26, ,
2, ,-26, ,
1, ,-26, ,
2, ,-27, ,
1, ,-27, ,
1, ,-27, ,
1, ,-26, ,
2, ,-26, ,
2, ,-26, ,
2, ,-26, ,
2, ,-27, ,
2, ,-27, ,
2, ,-26, ,
1, ,-27, ,
1, ,-27, ,
1, ,-26, ,
2, ,-26, ,
2, ,-26, ,
2, ,-27, ,
2, ,-27, ,
1, ,-26, ,
1, ,-26, ,
2, ,-26, ,
1, ,-26, ,
3, ,-26, ,
1, ,-26, ,
1, ,-26, ,
1, ,-26, ,
0, ,-26, ,
2, ,-26, ,
2, ,-27, ,
1, ,-27, ,
3, ,-27, ,
3, ,-27, ,
1, ,-26, ,
2, ,-26, ,
3, ,-26, ,
2, ,-27, ,
2, ,-27, ,
2, ,-26, ,
2, ,-26, ,
2, ,-26, ,
1, ,-26, ,
2, ,-27, ,
0, ,-27, ,
1, ,-27, ,
1, ,-26, ,
1, ,-26, ,
2, ,-27, ,
2, ,-27, ,
2, ,-26, ,
2, ,-27, ,
1, ,-27, ,
1, ,-27, ,
3, ,-27, ,
2, ,-26, ,
2, ,-26, ,
3, ,-26, ,
2, ,-27, ,
2, ,-27, ,
1, ,-27, ,
2, ,-26, ,
2, ,-26, ,
1, ,-26, ,
2, ,-27, ,
2, ,-27, ,
1, ,-26, ,
3, ,-26, ,
3, ,-26, ,
3, ,-26, ,
3, ,-26, ,
2, ,-26, ,
2, ,-26, ,
2, ,-26, ,
2, ,-26, ,
2, ,-26, ,
1, ,-26, ,
2, ,-26, ,
2, ,-26, ,
1, ,-26, ,
2, ,-26, ,
2, ,-26, ,
1, ,-26, ,
2, ,-26, ,
2, ,-27, ,
1, ,-27, ,
2, ,-27, ,
2, ,-26, ,
1, ,-26, ,
2, ,-26, ,
1, ,-26, ,
2, ,-26, ,
2, ,-26, ,
2, ,-26, ,
3, ,-26, ,
2, ,-26, ,
2, ,-27, ,
2, ,-27, ,
2, ,-26, ,
2, ,-27, ,
1, ,-27, ,
2, ,-27, ,
1, ,-27, ,
2, ,-27, ,
2, ,-27, ,
3, ,-26, ,
2, ,-26, ,
2, ,-26, ,
1, ,-26, ,
2, ,-26, ,
3, ,-26, ,
1, ,-26, ,
3, ,-26, ,
3, ,-26, ,
3, ,-26, ,
3, ,-27, ,
2, ,-27, ,
1, ,-27, ,
2, ,-26, ,
1, ,-26, ,
2, ,-26, ,
1, ,-26, ,
1, ,-26, ,
2, ,-26, ,
1, ,-26, ,
2, ,-26, ,
2, ,-26, ,
2, ,-26, ,
3, ,-26, ,
2, ,-26, ,
2, ,-26, ,
2, ,-26, ,
2, ,-26, ,
1, ,-26, ,
2, ,-26, ,
2, ,-26, ,
2, ,-26, ,
2, ,-26, ,
1, ,-26, ,
3, ,-26, ,
1, ,-26, ,
2, ,-26, ,
3, ,-26, ,
1, ,-26, ,
2, ,-26, ,
1, ,-26, ,
1, ,-26, ,
3, ,-26, ,
3, ,-26, ,
4, ,-26, ,
0, ,-27, ,
-1, ,-27, ,
0, ,-27, ,
25, ,-26, ,
75, ,-26, ,
125, ,-26, ,
125, ,-26, ,
125, ,-27, ,
122, ,-27, ,
117, ,-26, ,
30, ,-26, ,
63, ,-26, ,
125, ,-26, ,
125, ,-26, ,
125, ,-26, ,
125, ,-26, ,
125, ,-27, ,
125, ,-27, ,
125, ,-27, ,
125, ,-27, ,
125, ,-26, ,
125, ,-26, ,
125, ,-26, ,
125, ,-26, ,
125, ,-26, ,
125, ,-26, ,
125, ,-26, ,
125, ,-26, ,
125, ,-26, ,
125, ,-26, ,
125, ,-26, ,
125, ,-26, ,
125, ,-27, ,
125, ,-27, ,
125, ,-27, ,
125, ,-26, ,
125, ,-26, ,
125, ,-27, ,
124, ,-27, ,
121, ,-27, ,
117, ,-26, ,
110, ,-26, ,
107, ,-27, ,
99, ,-27, ,
94, ,-26, ,
92, ,-26, ,
86, ,-26, ,
79, ,-26, ,
77, ,-27, ,
72, ,-27, ,
69, ,-27, ,
63, ,-26, ,
59, ,-26, ,
58, ,-26, ,
53, ,-26, ,
50, ,-26, ,
48, ,-26, ,
44, ,-26, ,
43, ,-26, ,
40, ,-26, ,
35, ,-27, ,
35, ,-27, ,
34, ,-27, ,
29, ,-27, ,
30, ,-27, ,
27, ,-26, ,
27, ,-26, ,
23, ,-26, ,
22, ,-26, ,
22, ,-26, ,
18, ,-26, ,
17, ,-26, ,
18, ,-26, ,
15, ,-26, ,
15, ,-26, ,
13, ,-26, ,
11, ,-26, ,
11, ,-26, ,
10, ,-26, ,
7, ,-26, ,
9, ,-26, ,
7, ,-26, ,
7, ,-26, ,
6, ,-26, ,
5, ,-27, ,
5, ,-27, ,
3, ,-26, ,
2, ,-26, ,
3, ,-27, ,
1, ,-27, ,
2, ,-27, ,
2, ,-27, ,
0, ,-26, ,
1, ,-27, ,
0, ,-27, ,
-1, ,-27, ,
0, ,-26, ,
0, ,-26, ,
-1, ,-26, ,
0, ,-26, ,
-1, ,-26, ,
-1, ,-27, ,
-2, ,-27, ,
-2, ,-27, ,
-1, ,-26, ,
-2, ,-26, ,
-2, ,-26, ,
-1, ,-26, ,
-2, ,-26, ,
-1, ,-26, ,
-3, ,-26, ,
-3, ,-26, ,
-2, ,-26, ,
-2, ,-26, ,
-3, ,-26, ,
-2, ,-26, ,
-3, ,-26, ,
-2, ,-26, ,
-4, ,-26, ,
-2, ,-27, ,
-2, ,-27, ,
-3, ,-26, ,
-3, ,-26, ,
-3, ,-26, ,
-3, ,-26, ,
-2, ,-26, ,
-3, ,-26, ,
-4, ,-27, ,
-2, ,-27, ,
-3, ,-26, ,
-2, ,-26, ,
-2, ,-26, ,
-3, ,-27, ,
-2, ,-27, ,
-3, ,-27, ,
-3, ,-27, ,
-2, ,-27, ,
-3, ,-26, ,
-2, ,-26, ,
-2, ,-26, ,
-3, ,-26, ,
-1, ,-27, ,
-2, ,-27, ,
-2, ,-27, ,
-1, ,-26, ,
-2, ,-26, ,
-2, ,-26, ,
-2, ,-26, ,
-2, ,-27, ,
-2, ,-27, ,
-2, ,-27, ,
-1, ,-26, ,
-1, ,-26, ,
-2, ,-26, ,
-1, ,-26, ,
-1, ,-26, ,
-1, ,-26, ,
-1, ,-26, ,
-1, ,-26, ,
-2, ,-26, ,
0, ,-27, ,
0, ,-27, ,
0, ,-27, ,
0, ,-27, ,
-1, ,-26, ,
0, ,-26, ,
-2, ,-26, ,
0, ,-27, ,
0, ,-27, ,
0, ,-26, ,
0, ,-27, ,
0, ,-27, ,
0, ,-26, ,
-1, ,-26, ,
0, ,-26, ,
-1, ,-26, ,
0, ,-26, ,
-1, ,-27, ,
0, ,-27, ,
0, ,-27, ,
0, ,-26, ,
0, ,-26, ,
0, ,-26, ,
0, ,-26, ,
0, ,-27, ,
0, ,-27, ,
1, ,-26, ,
1, ,-26, ,
0, ,-26, ,
0, ,-26, ,
0, ,-27, ,
0, ,-27, ,
0, ,-26, ,
0, ,-26, ,
1, ,-26, ,
1, ,-26, ,
0, ,-26, ,
1, ,-27, ,
0, ,-27, ,
0, ,-27, ,
0, ,-27, ,
0, ,-26, ,
1, ,-26, ,
1, ,-26, ,
0, ,-27, ,
1, ,-27, ,
0, ,-27, ,
0, ,-27, ,
1, ,-27, ,
1, ,-27, ,
1, ,-27, ,
2, ,-26, ,
1, ,-26, ,
2, ,-27, ,
1, ,-27, ,
1, ,-27, ,
1, ,-26, ,
0, ,-26, ,
2, ,-27, ,
2, ,-27, ,
1, ,-26, ,
1, ,-26, ,
0, ,-26, ,
0, ,-27, ,
2, ,-27, ,
1, ,-26, ,
1, ,-26, ,
1, ,-26, ,
1, ,-27, ,
1, ,-27, ,
0, ,-26, ,
2, ,-27, ,
1, ,-27, ,
1, ,-26, ,
1, ,-27, ,
1, ,-27, ,
1, ,-26, ,
1, ,-27, ,
1, ,-27, ,
0, ,-27, ,
2, ,-27, ,
1, ,-27, ,
1, ,-27, ,
2, ,-27, ,
2, ,-26, ,
2, ,-26, ,
1, ,-26, ,
1, ,-26, ,
1, ,-26, ,
1, ,-26, ,
2, ,-26, ,
2, ,-26, ,
0, ,-26, ,
2, ,-26, ,
1, ,-26, ,
1, ,-26, ,
2, ,-27, ,
1, ,-27, ,
1, ,-27, ,
1, ,-26, ,
1, ,-26, ,
2, ,-26, ,
0, ,-26, ,
1, ,-26, ,
1, ,-27, ,
1, ,-27, ,
2, ,-27, ,
2, ,-26, ,
1, ,-26, ,
2, ,-27, ,
1, ,-27, ,
0, ,-27, ,
2, ,-26, ,
1, ,-26, ,
1, ,-26, ,
1, ,-26, ,
0, ,-26, ,
0, ,-26, ,
0, ,-26, ,
-1, ,-26, ,
-1, ,-26, ,
-2, ,-26, ,
0, ,-26, ,
0, ,-26, ,
-1, ,-26, ,
1, ,-26, ,
1, ,-26, ,
1, ,-27, ,
2, ,-27, ,
1, ,-27, ,
2, ,-27, ,
2, ,-26, ,
1, ,-26, ,
2, ,-26, ,
1, ,-26, ,
2, ,-27, ,
2, ,-27, ,
1, ,-26, ,
2, ,-26, ,
2, ,-26, ,
1, ,-26, ,
2, ,-26, ,
0, ,-26, ,
0, ,-26, ,
2, ,-26, ,
1, ,-26, ,
2, ,-26, ,
2, ,-26, ,
2, ,-27, ,
3, ,-27, ,
0, ,-26, ,
1, ,-26, ,
1, ,-26, ,
1, ,-26, ,
1, ,-27, ,
0, ,-27, ,
0, ,-26, ,
0, ,-26, ,
0, ,-26, ,
-1, ,-26, ,
0, ,-27, ,
0, ,-27, ,
0, ,-27, ,
1, ,-26, ,
0, ,-27, ,
3, ,-27, ,
1, ,-26, ,
1, ,-26, ,
2, ,-27, ,
2, ,-27, ,
3, ,-27, ,
2, ,-27, ,
2, ,-26, ,
2, ,-27, ,
1, ,-27, ,
0, ,-27, ,
1, ,-26, ,
0, ,-26, ,
0, ,-26, ,
0, ,-26, ,
-1, ,-26, ,
0, ,-26, ,
0, ,-26, ,
0, ,-26, ,
1, ,-27, ,
0, ,-27, ,
1, ,-26, ,
2, ,-26, ,
0, ,-26, ,
1, ,-27, ,
0, ,-27, ,
-1, ,-27, ,
-1, ,-26, ,
-2, ,-26, ,
-2, ,-26, ,
-3, ,-26, ,
-4, ,-26, ,
-4, ,-26, ,
-5, ,-26, ,
-5, ,-26, ,
-5, ,-26, ,
-6, ,-26, ,
-5, ,-26, ,
-5, ,-26, ,
-7, ,-26, ,
-7, ,-26, ,
-7, ,-26, ,
-10, ,-26, ,
-9, ,-26, ,
-11, ,-26, ,
-12, ,-26, ,
-16, ,-26, ,
-18, ,-27, ,
-18, ,-27, ,
-23, ,-26, ,
-25, ,-26, ,
-27, ,-26, ,
-30, ,-26, ,
-30, ,-26, ,
-31, ,-26, ,
-31, ,-26, ,
-31, ,-26, ,
-31, ,-26, ,
-28, ,-26, ,
-27, ,-26, ,
-26, ,-26, ,
-25, ,-26, ,
-25, ,-26, ,
-25, ,-27, ,
-25, ,-27, ,
-26, ,-26, ,
-27, ,-26, ,
-26, ,-26, ,
-29, ,-26, ,
-29, ,-27, ,
-30, ,-27, ,
-30, ,-26, ,
-29, ,-26, ,
-29, ,-26, ,
-27, ,-26, ,
-24, ,-27, ,
-24, ,-27, ,
-20, ,-27, ,
-17, ,-26, ,
-14, ,-26, ,
-11, ,-26, ,
-10, ,-26, ,
-8, ,-26, ,
-8, ,-26, ,
-9, ,-26, ,
-8, ,-26, ,
-10, ,-26, ,
-10, ,-26, ,
-10, ,-26, ,
-11, ,-26, ,
-12, ,-27, ,
-9, ,-27, ,
-8, ,-26, ,
-7, ,-26, ,
-4, ,-26, ,
-5, ,-27, ,
-2, ,-27, ,
-1, ,-26, ,
2, ,-26, ,
2, ,-27, ,
1, ,-27, ,
2, ,-26, ,
1, ,-26, ,
-1, ,-26, ,
-1, ,-27, ,
-2, ,-27, ,
-6, ,-27, ,
-6, ,-26, ,
-7, ,-26, ,
-8, ,-26, ,
-10, ,-26, ,
-10, ,-26, ,
-10, ,-26, ,
-10, ,-26, ,
-10, ,-26, ,
-9, ,-26, ,
-10, ,-26, ,
-9, ,-26, ,
-8, ,-26, ,
-10, ,-26, ,
-10, ,-27, ,
-11, ,-27, ,
-14, ,-27, ,
-15, ,-27, ,
-18, ,-27, ,
-18, ,-27, ,
-24, ,-26, ,
-25, ,-26, ,
-25, ,-26, ,
-28, ,-26, ,
-27, ,-26, ,
-27, ,-26, ,
-27, ,-26, ,
-27, ,-26, ,
-25, ,-26, ,
-27, ,-26, ,
-27, ,-26, ,
-27, ,-26, ,
-28, ,-26, ,
-28, ,-26, ,
-29, ,-26, ,
-29, ,-26, ,
-31, ,-26, ,
-31, ,-27, ,
-32, ,-27, ,
-32, ,-27, ,
-32, ,-27, ,
-32, ,-27, ,
-33, ,-26, ,
-32, ,-26, ,
-31, ,-27, ,
-33, ,-27, ,
-32, ,-26, ,
-33, ,-26, ,
-32, ,-26, ,
-30, ,-26, ,
-30, ,-26, ,
-29, ,-26, ,
-28, ,-26, ,
-29, ,-26, ,
-28, ,-26, ,
-28, ,-26, ,
-30, ,-26, ,
-30, ,-26, ,
-32, ,-26, ,
-33, ,-26, ,
-35, ,-26, ,
-37, ,-27, ,
-37, ,-27, ,
-38, ,-27, ,
-38, ,-27, ,
-37, ,-26, ,
-38, ,-26, ,
-35, ,-26, ,
-34, ,-26, ,
-32, ,-26, ,
-32, ,-26, ,
-33, ,-26, ,
-32, ,-26, ,
-32, ,-27, ,
-32, ,-27, ,
-32, ,-27, ,
-32, ,-27, ,
-34, ,-26, ,
-34, ,-26, ,
-35, ,-26, ,
-35, ,-26, ,
-33, ,-26, ,
-34, ,-26, ,
-32, ,-27, ,
-30, ,-27, ,
-31, ,-26, ,
-30, ,-26, ,
-31, ,-26, ,
-29, ,-26, ,
-30, ,-26, ,
-30, ,-26, ,
-30, ,-26, ,
-30, ,-26, ,
-32, ,-26, ,
-30, ,-26, ,
-31, ,-26, ,
-29, ,-26, ,
-28, ,-26, ,
-26, ,-26, ,
-26, ,-27, ,
-22, ,-27, ,
-21, ,-27, ,
-20, ,-27, ,
-19, ,-27, ,
-16, ,-26, ,
-13, ,-27, ,
-14, ,-27, ,
-11, ,-27, ,
-5, ,-26, ,
-5, ,-26, ,
0, ,-26, ,
1, ,-26, ,
6, ,-26, ,
8, ,-26, ,
8, ,-26, ,
11, ,-26, ,
12, ,-26, ,
13, ,-26, ,
13, ,-26, ,
13, ,-26, ,
13, ,-27, ,
14, ,-27, ,
13, ,-27, ,
13, ,-26, ,
12, ,-27, ,
12, ,-27, ,
12, ,-27, ,
11, ,-27, ,
10, ,-27, ,
10, ,-26, ,
9, ,-26, ,
9, ,-26, ,
9, ,-26, ,
7, ,-26, ,
7, ,-26, ,
6, ,-26, ,
5, ,-26, ,
5, ,-26, ,
4, ,-26, ,
4, ,-27, ,
4, ,-27, ,
3, ,-26, ,
4, ,-26, ,
3, ,-26, ,
4, ,-26, ,
4, ,-26, ,
2, ,-27, ,
2, ,-27, ,
2, ,-27, ,
0, ,-26, ,
1, ,-26, ,
0, ,-26, ,
-1, ,-26, ,
-1, ,-26, ,
-3, ,-26, ,
-3, ,-26, ,
-6, ,-26, ,
-7, ,-26, ,
-7, ,-26, ,
-10, ,-26, ,
-12, ,-27, ,
-11, ,-27, ,
-13, ,-27, ,
-14, ,-27, ,
-15, ,-26, ,
-17, ,-27, ,
-16, ,-27, ,
-19, ,-26, ,
-19, ,-26, ,
-18, ,-26, ,
-21, ,-26, ,
-20, ,-26, ,
-21, ,-26, ,
-22, ,-26, ,
-21, ,-26, ,
-23, ,-26, ,
-24, ,-26, ,
-24, ,-26, ,
-26, ,-26, ,
-26, ,-26, ,
-26, ,-26, ,
-28, ,-27, ,
-28, ,-27, ,
-29, ,-26, ,
-29, ,-27, ,
-28, ,-27, ,
-30, ,-26, ,
-28, ,-26, ,
-28, ,-26, ,
-29, ,-26, ,
-29, ,-26, ,
-29, ,-26, ,
-30, ,-26, ,
-30, ,-27, ,
-31, ,-27, ,
-31, ,-27, ,
-31, ,-27, ,
-32, ,-26, ,
-33, ,-26, ,
-32, ,-26, ,
-30, ,-27, ,
-30, ,-27, ,
-29, ,-26, ,
-27, ,-26, ,
-26, ,-26, ,
-25, ,-26, ,
-22, ,-26, ,
-22, ,-26, ,
-20, ,-26, ,
-17, ,-26, ,
-17, ,-26, ,
-15, ,-27, ,
-13, ,-27, ,
-11, ,-27, ,
-8, ,-27, ,
-8, ,-27, ,
-4, ,-26, ,
-2, ,-26, ,
0, ,-26, ,
3, ,-26, ,
7, ,-26, ,
6, ,-26, ,
8, ,-27, ,
10, ,-27, ,
10, ,-27, ,
11, ,-27, ,
11, ,-26, ,
12, ,-26, ,
13, ,-26, ,
13, ,-26, ,
14, ,-26, ,
12, ,-26, ,
12, ,-26, ,
13, ,-26, ,
11, ,-26, ,
13, ,-27, ,
11, ,-27, ,
10, ,-26, ,
10, ,-26, ,
8, ,-26, ,
7, ,-26, ,
6, ,-26, ,
7, ,-27, ,
5, ,-27, ,
5, ,-27, ,
4, ,-27, ,
4, ,-27, ,
3, ,-26, ,
2, ,-27, ,
4, ,-27, ,
1, ,-27, ,
2, ,-27, ,
0, ,-26, ,
-2, ,-27, ,
1, ,-27, ,
-3, ,-26, ,
-4, ,-26, ,
-5, ,-26, ,
-5, ,-27, ,
-6, ,-27, ,
-7, ,-27, ,
-8, ,-26, ,
-8, ,-26, ,
-10, ,-26, ,
-10, ,-27, ,
-11, ,-27, ,
-12, ,-27, ,
-12, ,-27, ,
-14, ,-26, ,
-16, ,-26, ,
-16, ,-26, ,
-18, ,-26, ,
-19, ,-26, ,
-19, ,-26, ,
-20, ,-27, ,
-21, ,-27, ,
-22, ,-27, ,
-23, ,-26, ,
-23, ,-26, ,
-24, ,-26, ,
-24, ,-26, ,
-23, ,-27, ,
-25, ,-27, ,
-24, ,-27, ,
-25, ,-27, ,
-25, ,-26, ,
-25, ,-27, ,
-25, ,-27, ,
-25, ,-27, ,
-25, ,-26, ,
-25, ,-26, ,
-26, ,-26, ,
-25, ,-26, ,
-25, ,-26, ,
-25, ,-26, ,
-25, ,-26, ,
-25, ,-27, ,
-24, ,-27, ,
-24, ,-26, ,
-24, ,-26, ,
-24, ,-26, ,
-24, ,-26, ,
-23, ,-26, ,
-23, ,-26, ,
-23, ,-26, ,
-22, ,-26, ,
-22, ,-26, ,
-22, ,-27, ,
-22, ,-27, ,
-22, ,-26, ,
-21, ,-26, ,
-22, ,-26, ,
-20, ,-26, ,
-20, ,-26, ,
-19, ,-26, ,
-19, ,-27, ,
-17, ,-27, ,
-17, ,-27, ,
-17, ,-26, ,
-17, ,-26, ,
-17, ,-27, ,
-16, ,-27, ,
-16, ,-27, ,
-16, ,-27, ,
-16, ,-27, ,
-17, ,-27, ,
-16, ,-27, ,
-17, ,-26, ,
-16, ,-26, ,
-15, ,-26, ,
-16, ,-26, ,
-15, ,-26, ,
-15, ,-26, ,
-15, ,-26, ,
-14, ,-27, ,
-15, ,-27, ,
-15, ,-27, ,
-14, ,-26, ,
-15, ,-26, ,
-14, ,-26, ,
-14, ,-26, ,
-14, ,-26, ,
-14, ,-26, ,
-15, ,-26, ,
-12, ,-27, ,
-11, ,-27, ,
-12, ,-27, ,
-10, ,-27, ,
-10, ,-27, ,
-12, ,-26, ,
-9, ,-27, ,
-9, ,-27, ,
-9, ,-27, ,
-7, ,-26, ,
-8, ,-26, ,
-7, ,-26, ,
-7, ,-26, ,
-6, ,-26, ,
-6, ,-26, ,
-7, ,-26, ,
-5, ,-26, ,
-4, ,-26, ,
-4, ,-26, ,
-4, ,-26, ,
-2, ,-26, ,
-2, ,-26, ,
-2, ,-26, ,
-2, ,-26, ,
-2, ,-26, ,
0, ,-26, ,
-1, ,-26, ,
0, ,-26, ,
1, ,-26, ,
0, ,-26, ,
1, ,-26, ,
-1, ,-26, ,
0, ,-26, ,
0, ,-26, ,
0, ,-26, ,
1, ,-26, ,
0, ,-26, ,
0, ,-27, ,
0, ,-27, ,
0, ,-26, ,
0, ,-26, ,
1, ,-27, ,
0, ,-27, ,
0, ,-27, ,
-2, ,-27, ,
-2, ,-27, ,
-2, ,-27, ,
-3, ,-27, ,
-3, ,-27, ,
-3, ,-27, ,
-3, ,-26, ,
-5, ,-26, ,
-6, ,-26, ,
-6, ,-26, ,
-6, ,-26, ,
-7, ,-26, ,
-8, ,-26, ,
-7, ,-27, ,
-8, ,-27, ,
-6, ,-27, ,
-8, ,-26, ,
-9, ,-26, ,
-8, ,-27, ,
-10, ,-27, ,
-9, ,-27, ,
-7, ,-27, ,
-7, ,-26, ,
-6, ,-26, ,
-7, ,-26, ,
-7, ,-26, ,
-7, ,-27, ,
-8, ,-27, ,
-9, ,-27, ,
-7, ,-27, ,
-8, ,-27, ,
-7, ,-27, ,
-6, ,-27, ,
-8, ,-26, ,
-8, ,-26, ,
-9, ,-26, ,
-9, ,-26, ,
-8, ,-26, ,
-10, ,-26, ,
-10, ,-26, ,
-11, ,-26, ,
-11, ,-26, ,
-11, ,-26, ,
-12, ,-26, ,
-14, ,-27, ,
-12, ,-27, ,
-13, ,-27, ,
-12, ,-27, ,
-13, ,-27, ,
-13, ,-27, ,
-13, ,-27, ,
-12, ,-26, ,
-11, ,-26, ,
-11, ,-27, ,
-11, ,-27, ,
-10, ,-26, ,
-9, ,-27, ,
-10, ,-27, ,
-8, ,-26, ,
-8, ,-27, ,
-8, ,-27, ,
-6, ,-26, ,
-5, ,-26, ,
-5, ,-26, ,
-4, ,-26, ,
-3, ,-27, ,
-2, ,-27, ,
-2, ,-27, ,
-1, ,-26, ,
1, ,-26, ,
0, ,-26, ,
0, ,-27, ,
0, ,-27, ,
0, ,-26, ,
1, ,-26, ,
0, ,-26, ,
-2, ,-26, ,
0, ,-26, ,
-1, ,-26, ,
-1, ,-26, ,
0, ,-26, ,
-2, ,-27, ,
0, ,-27, ,
-2, ,-26, ,
-1, ,-26, ,
-1, ,-26, ,
-2, ,-26, ,
-1, ,-26, ,
-1, ,-26, ,
-2, ,-26, ,
-1, ,-26, ,
-2, ,-26, ,
0, ,-26, ,
1, ,-26, ,
1, ,-26, ,
1, ,-26, ,
2, ,-26, ,
2, ,-27, ,
3, ,-27, ,
3, ,-27, ,
3, ,-26, ,
4, ,-27, ,
3, ,-27, ,
4, ,-27, ,
4, ,-27, ,
4, ,-26, ,
4, ,-27, ,
3, ,-27, ,
2, ,-27, ,
2, ,-27, ,
1, ,-27, ,
1, ,-27, ,
0, ,-26, ,
-1, ,-26, ,
0, ,-26, ,
-2, ,-26, ,
-3, ,-26, ,
-3, ,-27, ,
-5, ,-27, ,
-5, ,-27, ,
-5, ,-27, ,
-6, ,-26, ,
-6, ,-26, ,
-6, ,-27, ,
-8, ,-27, ,
-6, ,-26, ,
-7, ,-26, ,
-7, ,-26, ,
-6, ,-26, ,
-6, ,-26, ,
-5, ,-27, ,
-5, ,-27, ,
-4, ,-27, ,
-2, ,-26, ,
-4, ,-26, ,
-1, ,-26, ,
-1, ,-26, ,
-1, ,-26, ,
0, ,-26, ,
0, ,-26, ,
0, ,-27, ,
1, ,-27, ,
1, ,-26, ,
2, ,-26, ,
1, ,-26, ,
2, ,-26, ,
3, ,-26, ,
3, ,-26, ,
3, ,-27, ,
3, ,-27, ,
2, ,-26, ,
3, ,-26, ,
2, ,-27, ,
1, ,-27, ,
3, ,-26, ,
2, ,-26, ,
2, ,-26, ,
2, ,-26, ,
1, ,-26, ,
2, ,-26, ,
1, ,-26, ,
0, ,-27, ,
1, ,-27, ,
0, ,-26, ,
2, ,-26, ,
2, ,-26, ,
1, ,-27, ,
1, ,-27, ,
1, ,-27, ,
0, ,-26, ,
1, ,-26, ,
0, ,-26, ,
0, ,-26, ,
2, ,-26, ,
2, ,-26, ,
1, ,-26, ,
1, ,-26, ,
1, ,-27, ,
2, ,-27, ,
1, ,-26, ,
1, ,-27, ,
1, ,-27, ,
0, ,-26, ,
3, ,-26, ,
3, ,-26, ,
2, ,-26, ,
3, ,-27, ,
2, ,-27, ,
1, ,-27, ,
3, ,-26, ,
2, ,-26, ,
3, ,-26, ,
3, ,-26, ,
3, ,-26, ,
3, ,-26, ,
2, ,-26, ,
3, ,-27, ,
4, ,-27, ,
4, ,-26, ,
5, ,-26, ,
6, ,-26, ,
3, ,-26, ,
5, ,-26, ,
5, ,-26, ,
5, ,-26, ,
5, ,-26, ,
4, ,-26, ,
5, ,-26, ,
4, ,-26, ,
3, ,-26, ,
4, ,-26, ,
3, ,-26, ,
3, ,-27, ,
3, ,-27, ,
2, ,-26, ,
2, ,-26, ,
2, ,-26, ,
1, ,-26, ,
2, ,-26, ,
1, ,-26, ,
-1, ,-26, ,
0, ,-27, ,
0, ,-27, ,
0, ,-27, ,
-1, ,-26, ,
-2, ,-26, ,
-1, ,-26, ,
-4, ,-26, ,
-3, ,-26, ,
-3, ,-26, ,
-4, ,-26, ,
-3, ,-26, ,
-4, ,-26, ,
-5, ,-26, ,
-5, ,-26, ,
-5, ,-26, ,
-6, ,-26, ,
-6, ,-26, ,
-7, ,-26, ,
-7, ,-26, ,
-7, ,-26, ,
-7, ,-27, ,
-7, ,-27, ,
-8, ,-26, ,
-9, ,-26, ,
-8, ,-27, ,
-8, ,-27, ,
-8, ,-26, ,
-7, ,-27, ,
-7, ,-27, ,
-7, ,-26, ,
-8, ,-26, ,
-7, ,-26, ,
-6, ,-27, ,
-7, ,-27, ,
-5, ,-27, ,
-4, ,-26, ,
-3, ,-27, ,
-2, ,-27, ,
-3, ,-27, ,
-1, ,-27, ,
1, ,-27, ,
1, ,-26, ,
2, ,-26, ,
4, ,-26, ,
2, ,-26, ,
4, ,-26, ,
4, ,-26, ,
3, ,-26, ,
5, ,-26, ,
3, ,-27, ,
4, ,-27, ,
2, ,-27, ,
2, ,-26, ,
1, ,-26, ,
2, ,-26, ,
1, ,-27, ,
0, ,-27, ,
-1, ,-27, ,
-1, ,-27, ,
-4, ,-27, ,
-5, ,-27, ,
-5, ,-27, ,
-5, ,-27, ,
-6, ,-27, ,
-7, ,-26, ,
-8, ,-27, ,
-8, ,-27, ,
-10, ,-27, ,
-11, ,-26, ,
-11, ,-26, ,
-12, ,-26, ,
-12, ,-26, ,
-11, ,-26, ,
-12, ,-26, ,
-11, ,-27, ,
-12, ,-27, ,
-11, ,-26, ,
-12, ,-26, ,
-10, ,-26, ,
-10, ,-26, ,
-9, ,-26, ,
-10, ,-26, ,
-9, ,-26, ,
-8, ,-26, ,
-7, ,-26, ,
-7, ,-26, ,
-8, ,-26, ,
-5, ,-26, ,
-5, ,-26, ,
-5, ,-26, ,
-4, ,-26, ,
-3, ,-26, ,
-3, ,-26, ,
-2, ,-27, ,
-1, ,-27, ,
-1, ,-27, ,
0, ,-26, ,
-1, ,-26, ,
0, ,-26, ,
0, ,-26, ,
-1, ,-26, ,
-1, ,-26, ,
-1, ,-26, ,
-1, ,-26, ,
-1, ,-26, ,
-1, ,-26, ,
-1, ,-26, ,
-2, ,-26, ,
-2, ,-26, ,
-1, ,-27, ,
-2, ,-27, ,
-2, ,-27, ,
-2, ,-26, ,
-3, ,-26, ,
-3, ,-26, ,
-2, ,-26, ,
-3, ,-26, ,
-2, ,-26, ,
-3, ,-26, ,
-3, ,-26, ,
-1, ,-26, ,
-2, ,-26, ,
-1, ,-26, ,
0, ,-26, ,
-2, ,-26, ,
1, ,-26, ,
0, ,-26, ,
0, ,-26, ,
1, ,-26, ,
0, ,-26, ,
1, ,-26, ,
0, ,-26, ,
0, ,-27, ,
0, ,-27, ,
-2, ,-26, ,
-1, ,-26, ,
-1, ,-27, ,
-2, ,-27, ,
-1, ,-27, ,
-1, ,-26, ,
-3, ,-26, ,
-3, ,-26, ,
-4, ,-26, ,
-5, ,-26, ,
-4, ,-26, ,
-5, ,-26, ,
-5, ,-26, ,
-5, ,-26, ,
-5, ,-27, ,
-5, ,-27, ,
-5, ,-26, ,
-5, ,-26, ,
-4, ,-26, ,
-5, ,-26, ,
-3, ,-26, ,
-4, ,-26, ,
-5, ,-26, ,
-3, ,-27, ,
-4, ,-27, ,
-3, ,-27, ,
-2, ,-26, ,
-3, ,-26, ,
-2, ,-26, ,
-1, ,-26, ,
-1, ,-26, ,
0, ,-26, ,
-1, ,-26, ,
0, ,-26, ,
1, ,-26, ,
0, ,-26, ,
1, ,-27, ,
1, ,-27, ,
0, ,-26, ,
2, ,-26, ,
1, ,-26, ,
2, ,-26, ,
2, ,-26, ,
2, ,-26, ,
2, ,-26, ,
2, ,-26, ,
1, ,-26, ,
2, ,-26, ,
1, ,-26, ,
1, ,-26, ,
1, ,-27, ,
2, ,-27, ,
1, ,-27, ,
1, ,-27, ,
2, ,-26, ,
2, ,-26, ,
1, ,-27, ,
1, ,-27, ,
2, ,-26, ,
1, ,-27, ,
1, ,-27, ,
0, ,-27, ,
0, ,-26, ,
0, ,-26, ,
0, ,-26, ,
-1, ,-26, ,
-1, ,-26, ,
-2, ,-26, ,
-1, ,-26, ,
-2, ,-27, ,
-2, ,-27, ,
-2, ,-26, ,
-3, ,-26, ,
-2, ,-26, ,
-2, ,-26, ,
-2, ,-26, ,
-1, ,-27, ,
-2, ,-27, ,
-3, ,-26, ,
-3, ,-26, ,
-4, ,-26, ,
-3, ,-26, ,
-2, ,-26, ,
-2, ,-26, ,
-2, ,-26, ,
-2, ,-26, ,
-4, ,-26, ,
-1, ,-27, ,
-2, ,-27, ,
-2, ,-27, ,
-1, ,-26, ,
-2, ,-26, ,
-2, ,-26, ,
-2, ,-26, ,
-2, ,-27, ,
-1, ,-27, ,
-3, ,-26, ,
-2, ,-26, ,
-2, ,-26, ,
-3, ,-26, ,
-2, ,-26, ,
-3, ,-26, ,
-4, ,-26, ,
-2, ,-26, ,
-2, ,-26, ,
-3, ,-26, ,
-2, ,-26, ,
-2, ,-26, ,
-1, ,-26, ,
-1, ,-26, ,
-2, ,-27, ,
-1, ,-27, ,
0, ,-26, ,
0, ,-26, ,
0, ,-26, ,
-1, ,-26, ,
1, ,-26, ,
2, ,-26, ,
2, ,-26, ,
3, ,-26, ,
2, ,-26, ,
4, ,-26, ,
3, ,-26, ,
4, ,-26, ,
4, ,-26, ,
5, ,-26, ,
5, ,-26, ,
5, ,-26, ,
5, ,-26, ,
5, ,-27, ,
6, ,-27, ,
5, ,-26, ,
5, ,-27, ,
5, ,-27, ,
3, ,-26, ,
4, ,-26, ,
3, ,-27, ,
2, ,-27, ,
2, ,-27, ,
1, ,-27, ,
1, ,-27, ,
0, ,-27, ,
-2, ,-27, ,
-1, ,-27, ,
-2, ,-27, ,
-2, ,-27, ,
-2, ,-27, ,
-2, ,-27, ,
-2, ,-26, ,
-2, ,-26, ,
-3, ,-26, ,
-3, ,-26, ,
-4, ,-26, ,
-4, ,-26, ,
-2, ,-27, ,
-2, ,-27, ,
-2, ,-27, ,
-1, ,-26, ,
-2, ,-26, ,
-1, ,-27, ,
-2, ,-27, ,
0, ,-27, ,
0, ,-27, ,
0, ,-26, ,
0, ,-27, ,
0, ,-27, ,
-1, ,-26, ,
0, ,-27, ,
-1, ,-27, ,
0, ,-27, ,
1, ,-26, ,
1, ,-26, ,
1, ,-26, ,
2, ,-26, ,
1, ,-27, ,
2, ,-27, ,
1, ,-27, ,
1, ,-26, ,
3, ,-26, ,
1, ,-26, ,
3, ,-26, ,
2, ,-26, ,
0, ,-26, ,
2, ,-26, ,
2, ,-26, ,
1, ,-26, ,
3, ,-26, ,
1, ,-26, ,
2, ,-26, ,
2, ,-26, ,
1, ,-26, ,
2, ,-26, ,
0, ,-26, ,
1, ,-27, ,
1, ,-27, ,
1, ,-26, ,
1, ,-26, ,
1, ,-26, ,
1, ,-26, ,
1, ,-26, ,
1, ,-26, ,
1, ,-27, ,
0, ,-27, ,
0, ,-26, ,
0, ,-26, ,
0, ,-26, ,
0, ,-26, ,
1, ,-26, ,
1, ,-26, ,
1, ,-26, ,
1, ,-26, ,
1, ,-26, ,
1, ,-26, ,
1, ,-26, ,
1, ,-26, ,
2, ,-26, ,
0, ,-26, ,
1, ,-26, ,
1, ,-27, ,
1, ,-27, ,
1, ,-27, ,
1, ,-27, ,
1, ,-26, ,
1, ,-26, ,
1, ,-26, ,
1, ,-27, ,
2, ,-27, ,
1, ,-27, ,
1, ,-26, ,
1, ,-26, ,
0, ,-27, ,
2, ,-27, ,
2, ,-26, ,
2, ,-26, ,
2, ,-26, ,
1, ,-26, ,
1, ,-26, ,
2, ,-26, ,
1, ,-26, ,
2, ,-26, ,
0, ,-26, ,
1, ,-26, ,
1, ,-26, ,
0, ,-26, ,
1, ,-27, ,
1, ,-27, ,
0, ,-26, ,
0, ,-26, ,
0, ,-26, ,
-1, ,-27, ,
0, ,-27, ,
-1, ,-26, ,
-1, ,-26, ,
-1, ,-26, ,
-2, ,-27, ,
-1, ,-27, ,
-3, ,-26, ,
-2, ,-26, ,
-2, ,-26, ,
-3, ,-26, ,
-2, ,-26, ,
-2, ,-26, ,
-2, ,-26, ,
-2, ,-26, ,
-2, ,-26, ,
-2, ,-26, ,
-1, ,-26, ,
-1, ,-26, ,
-1, ,-27, ,
0, ,-27, ,
0, ,-26, ,
1, ,-26, ,
0, ,-26, ,
