raw_data/100% Glycerol, Impulsion 2Hz, Sonde 5MHz, Rampe 0.7Hz/temp0000091.CSV

Format,1.0B,
Memory Length,10000,Memory Length,10000,
IntpDistance,0,IntpDistance,0,
Trigger Address,159,Trigger Address,159,
Trigger Level,2.720E-01,Trigger Level,2.720E-01,
Source,CH1,Source,CH2,
Vertical Units,V,Vertical Units,V,
Vertical Units Div,0,Vertical Units Div,0,
Vertical Units Extend Div,16,Vertical Units Extend Div,16,
Label,,Label,,
Probe Type,0,Probe Type,0,
Probe Ratio,1.000e+00,Probe Ratio,1.000e+00,
Vertical Scale,2.000e-01,Vertical Scale,2.000e+00,
Vertical Position,0.000e+00,Vertical Position,0.000e+00,
Horizontal Units,S,Horizontal Units,S,
Horizontal Scale,5.000E-06,Horizontal Scale,5.000E-06,
Horizontal Position,2.420E-05,Horizontal Position,2.420E-05,
Horizontal Mode,Main,Horizontal Mode,Main,
SincET Mode,Real Time,SincET Mode,Real Time,
Sampling Period,5.000e-09,Sampling Period,5.000e-09,
Horizontal Old Scale,5.000E-06,Horizontal Old Scale,5.000E-06,
Horizontal Old Position,2.420E-05,Horizontal Old Position,2.420E-05,
Firmware,V1.32,Firmware,V1.32,
Mode,Fast,Mode,Fast,
Waveform Data,,Waveform Data,,
1, ,30, ,
0, ,30, ,
2, ,30, ,
2, ,30, ,
1, ,30, ,
3, ,30, ,
2, ,30, ,
2, ,30, ,
2, ,30, ,
2, ,30, ,
2, ,30, ,
1, ,30, ,
2, ,30, ,
2, ,30, ,
1, ,30, ,
2, ,30, ,
2, ,30, ,
1, ,30, ,
2, ,30, ,
2, ,30, ,
1, ,30, ,
2, ,30, ,
2, ,30, ,
2, ,30, ,
1, ,30, ,
1, ,30, ,
1, ,30, ,
2, ,30, ,
1, ,30, ,
1, ,30, ,
1, ,30, ,
2, ,30, ,
1, ,30, ,
2, ,30, ,
1, ,30, ,
2, ,30, ,
1, ,30, ,
2, ,30, ,
2, ,30, ,
2, ,30, ,
2, ,30, ,
2, ,30, ,
2, ,30, ,
2, ,30, ,
2, ,30, ,
2, ,30, ,
1, ,30, ,
1, ,30, ,
2, ,30, ,
1, ,30, ,
2, ,30, ,
2, ,30, ,
2, ,30, ,
1, ,30, ,
2, ,30, ,
2, ,30, ,
1, ,30, ,
1, ,30, ,
2, ,30, ,
1, ,30, ,
1, ,30, ,
2, ,30, ,
2, ,30, ,
1, ,30, ,
2, ,30, ,
1, ,30, ,
1, ,30, ,
1, ,30, ,
1, ,30, ,
2, ,30, ,
1, ,30, ,
2, ,30, ,
2, ,30, ,
1, ,30, ,
2, ,30, ,
1, ,30, ,
1, ,30, ,
3, ,30, ,
1, ,30, ,
2, ,30, ,
2, ,30, ,
2, ,30, ,
2, ,30, ,
1, ,30, ,
0, ,30, ,
3, ,30, ,
2, ,30, ,
2, ,30, ,
2, ,30, ,
1, ,30, ,
2, ,30, ,
1, ,30, ,
2, ,30, ,
2, ,30, ,
1, ,30, ,
1, ,30, ,
2, ,30, ,
1, ,30, ,
2, ,30, ,
1, ,30, ,
0, ,30, ,
2, ,30, ,
2, ,30, ,
2, ,30, ,
2, ,30, ,
2, ,30, ,
2, ,30, ,
1, ,30, ,
1, ,30, ,
2, ,30, ,
2, ,30, ,
2, ,30, ,
1, ,30, ,
1, ,30, ,
1, ,30, ,
2, ,30, ,
2, ,30, ,
2, ,30, ,
2, ,30, ,
2, ,30, ,
2, ,30, ,
1, ,30, ,
1, ,30, ,
1, ,30, ,
1, ,30, ,
1, ,30, ,
1, ,30, ,
2, ,30, ,
2, ,30, ,
1, ,30, ,
3, ,30, ,
3, ,30, ,
2, ,30, ,
1, ,30, ,
2, ,30, ,
2, ,30, ,
2, ,30, ,
2, ,30, ,
2, ,30, ,
1, ,30, ,
2, ,30, ,
2, ,30, ,
1, ,30, ,
2, ,30, ,
2, ,30, ,
1, ,30, ,
2, ,30, ,
1, ,30, ,
1, ,30, ,
2, ,30, ,
2, ,30, ,
2, ,30, ,
2, ,30, ,
2, ,30, ,
1, ,30, ,
1, ,30, ,
2, ,30, ,
1, ,30, ,
1, ,30, ,
1, ,30, ,
2, ,30, ,
1, ,30, ,
1, ,30, ,
1, ,30, ,
-3, ,30, ,
0, ,30, ,
-3, ,30, ,
15, ,30, ,
125, ,30, ,
125, ,30, ,
125, ,30, ,
125, ,30, ,
118, ,30, ,
55, ,30, ,
-21, ,30, ,
36, ,30, ,
125, ,30, ,
125, ,30, ,
125, ,30, ,
125, ,30, ,
125, ,30, ,
125, ,30, ,
125, ,30, ,
125, ,30, ,
125, ,30, ,
125, ,30, ,
125, ,30, ,
125, ,30, ,
125, ,30, ,
125, ,30, ,
125, ,30, ,
125, ,30, ,
125, ,30, ,
125, ,30, ,
125, ,30, ,
125, ,30, ,
125, ,30, ,
125, ,30, ,
125, ,30, ,
125, ,30, ,
125, ,30, ,
124, ,30, ,
124, ,30, ,
121, ,30, ,
112, ,30, ,
108, ,30, ,
104, ,30, ,
101, ,30, ,
93, ,30, ,
86, ,30, ,
83, ,30, ,
79, ,30, ,
71, ,30, ,
69, ,30, ,
66, ,30, ,
64, ,30, ,
58, ,30, ,
55, ,30, ,
54, ,30, ,
49, ,30, ,
47, ,30, ,
44, ,30, ,
40, ,30, ,
38, ,30, ,
35, ,30, ,
34, ,30, ,
33, ,30, ,
31, ,30, ,
27, ,30, ,
25, ,30, ,
25, ,30, ,
23, ,30, ,
20, ,30, ,
19, ,30, ,
20, ,30, ,
17, ,30, ,
16, ,30, ,
15, ,30, ,
13, ,30, ,
12, ,30, ,
10, ,30, ,
9, ,30, ,
9, ,30, ,
7, ,30, ,
7, ,30, ,
7, ,30, ,
6, ,30, ,
6, ,30, ,
5, ,30, ,
4, ,30, ,
4, ,30, ,
3, ,30, ,
3, ,30, ,
3, ,30, ,
2, ,30, ,
2, ,30, ,
1, ,30, ,
1, ,30, ,
0, ,30, ,
0, ,30, ,
-2, ,30, ,
0, ,30, ,
-1, ,30, ,
0, ,30, ,
0, ,30, ,
-1, ,30, ,
-1, ,30, ,
-2, ,30, ,
-2, ,30, ,
-2, ,30, ,
-2, ,30, ,
-2, ,30, ,
-2, ,30, ,
-2, ,30, ,
-2, ,30, ,
-3, ,30, ,
-4, ,30, ,
-3, ,30, ,
-3, ,30, ,
-2, ,30, ,
-3, ,30, ,
-3, ,30, ,
-3, ,30, ,
-4, ,30, ,
-3, ,30, ,
-3, ,30, ,
-4, ,30, ,
-3, ,30, ,
-3, ,30, ,
-4, ,30, ,
-2, ,30, ,
-3, ,30, ,
-3, ,30, ,
-3, ,30, ,
-2, ,30, ,
-2, ,30, ,
-2, ,30, ,
-3, ,30, ,
-2, ,30, ,
-3, ,30, ,
-4, ,30, ,
-2, ,30, ,
-2, ,30, ,
-2, ,30, ,
-2, ,30, ,
-2, ,30, ,
-1, ,30, ,
-2, ,30, ,
-2, ,30, ,
-1, ,30, ,
-2, ,30, ,
-1, ,30, ,
-2, ,30, ,
-2, ,30, ,
-1, ,30, ,
-3, ,30, ,
-2, ,30, ,
-2, ,30, ,
-2, ,30, ,
-1, ,30, ,
-1, ,30, ,
-1, ,30, ,
-1, ,30, ,
-1, ,30, ,
-1, ,30, ,
0, ,30, ,
-1, ,30, ,
-1, ,30, ,
-1, ,30, ,
-2, ,30, ,
-1, ,30, ,
-1, ,30, ,
0, ,30, ,
0, ,30, ,
-1, ,30, ,
0, ,30, ,
0, ,30, ,
0, ,30, ,
0, ,30, ,
0, ,30, ,
1, ,30, ,
1, ,30, ,
1, ,30, ,
1, ,30, ,
1, ,30, ,
0, ,30, ,
0, ,30, ,
0, ,30, ,
0, ,30, ,
2, ,30, ,
0, ,30, ,
0, ,30, ,
0, ,30, ,
0, ,30, ,
0, ,30, ,
0, ,30, ,
0, ,30, ,
1, ,30, ,
1, ,30, ,
2, ,30, ,
1, ,30, ,
0, ,30, ,
0, ,30, ,
0, ,30, ,
1, ,30, ,
1, ,30, ,
0, ,30, ,
1, ,30, ,
1, ,30, ,
0, ,30, ,
0, ,30, ,
0, ,30, ,
0, ,30, ,
1, ,30, ,
0, ,30, ,
0, ,30, ,
1, ,30, ,
1, ,30, ,
1, ,30, ,
0, ,30, ,
1, ,30, ,
1, ,30, ,
0, ,30, ,
1, ,30, ,
1, ,30, ,
1, ,30, ,
2, ,30, ,
1, ,30, ,
1, ,30, ,
1, ,30, ,
2, ,30, ,
1, ,30, ,
2, ,30, ,
0, ,30, ,
1, ,30, ,
0, ,30, ,
1, ,30, ,
2, ,30, ,
0, ,30, ,
2, ,30, ,
2, ,30, ,
1, ,30, ,
2, ,30, ,
1, ,30, ,
2, ,30, ,
2, ,30, ,
1, ,30, ,
2, ,30, ,
1, ,30, ,
1, ,30, ,
1, ,30, ,
1, ,30, ,
2, ,30, ,
2, ,30, ,
2, ,30, ,
2, ,30, ,
1, ,30, ,
1, ,30, ,
1, ,30, ,
1, ,30, ,
0, ,30, ,
1, ,30, ,
0, ,30, ,
0, ,30, ,
0, ,30, ,
0, ,30, ,
1, ,30, ,
1, ,30, ,
0, ,30, ,
1, ,30, ,
0, ,30, ,
1, ,30, ,
2, ,30, ,
1, ,30, ,
2, ,30, ,
0, ,30, ,
1, ,30, ,
1, ,30, ,
1, ,30, ,
2, ,30, ,
0, ,30, ,
-1, ,30, ,
-1, ,30, ,
-1, ,30, ,
-1, ,30, ,
-1, ,30, ,
-1, ,30, ,
-2, ,30, ,
1, ,30, ,
0, ,30, ,
1, ,30, ,
1, ,30, ,
1, ,30, ,
1, ,30, ,
1, ,30, ,
1, ,30, ,
1, ,30, ,
2, ,30, ,
1, ,30, ,
1, ,30, ,
0, ,30, ,
0, ,30, ,
-1, ,30, ,
-1, ,30, ,
-3, ,30, ,
-5, ,30, ,
-6, ,30, ,
-6, ,30, ,
-11, ,30, ,
-13, ,30, ,
-17, ,30, ,
-25, ,30, ,
-51, ,30, ,
-74, ,30, ,
-105, ,30, ,
-126, ,30, ,
-126, ,30, ,
-126, ,30, ,
-126, ,30, ,
-126, ,30, ,
-126, ,30, ,
-126, ,30, ,
-126, ,30, ,
-126, ,30, ,
-126, ,30, ,
-126, ,30, ,
-126, ,30, ,
-126, ,30, ,
-126, ,30, ,
-126, ,30, ,
-126, ,30, ,
-126, ,30, ,
-126, ,30, ,
-126, ,30, ,
-126, ,30, ,
-126, ,30, ,
-126, ,30, ,
-126, ,30, ,
-126, ,30, ,
-126, ,30, ,
-126, ,30, ,
-126, ,30, ,
-126, ,30, ,
-126, ,30, ,
-119, ,30, ,
-51, ,30, ,
48, ,30, ,
88, ,30, ,
76, ,30, ,
55, ,30, ,
33, ,30, ,
13, ,30, ,
-47, ,30, ,
-87, ,30, ,
-125, ,30, ,
-126, ,30, ,
-126, ,30, ,
-126, ,30, ,
-126, ,30, ,
-126, ,30, ,
-126, ,30, ,
-126, ,30, ,
-126, ,30, ,
-126, ,30, ,
-118, ,30, ,
-113, ,30, ,
-111, ,30, ,
-105, ,30, ,
-99, ,30, ,
-94, ,30, ,
-90, ,30, ,
-88, ,30, ,
-80, ,30, ,
-72, ,30, ,
-36, ,30, ,
51, ,30, ,
125, ,30, ,
125, ,30, ,
125, ,30, ,
125, ,30, ,
125, ,30, ,
125, ,30, ,
125, ,30, ,
125, ,30, ,
125, ,30, ,
125, ,30, ,
125, ,30, ,
125, ,30, ,
125, ,30, ,
125, ,30, ,
125, ,30, ,
125, ,30, ,
125, ,30, ,
125, ,30, ,
125, ,30, ,
125, ,30, ,
125, ,30, ,
120, ,30, ,
112, ,30, ,
-30, ,30, ,
-126, ,30, ,
-126, ,30, ,
-126, ,30, ,
-126, ,30, ,
-126, ,30, ,
-126, ,30, ,
-126, ,30, ,
-126, ,30, ,
-126, ,30, ,
-126, ,30, ,
-126, ,30, ,
-126, ,30, ,
-126, ,30, ,
-126, ,30, ,
-126, ,30, ,
-126, ,30, ,
-126, ,30, ,
-126, ,30, ,
-126, ,30, ,
-126, ,30, ,
-126, ,30, ,
-126, ,30, ,
-126, ,30, ,
-124, ,30, ,
-35, ,30, ,
50, ,30, ,
102, ,30, ,
92, ,30, ,
-36, ,30, ,
-94, ,30, ,
-122, ,30, ,
-125, ,30, ,
-103, ,30, ,
-91, ,30, ,
-71, ,30, ,
-49, ,30, ,
8, ,30, ,
34, ,30, ,
55, ,30, ,
69, ,30, ,
87, ,30, ,
97, ,30, ,
106, ,30, ,
114, ,30, ,
125, ,30, ,
125, ,30, ,
125, ,30, ,
125, ,30, ,
125, ,30, ,
125, ,30, ,
125, ,30, ,
125, ,30, ,
124, ,30, ,
122, ,30, ,
103, ,30, ,
64, ,30, ,
-23, ,30, ,
-66, ,30, ,
-104, ,30, ,
-126, ,30, ,
-126, ,30, ,
-126, ,30, ,
-126, ,30, ,
-126, ,30, ,
-126, ,30, ,
-126, ,30, ,
-126, ,30, ,
-126, ,30, ,
-126, ,30, ,
-126, ,30, ,
-126, ,30, ,
-126, ,30, ,
-118, ,30, ,
-114, ,30, ,
-109, ,30, ,
-107, ,30, ,
-98, ,30, ,
-93, ,30, ,
-88, ,30, ,
-84, ,30, ,
-69, ,30, ,
-53, ,30, ,
-26, ,30, ,
2, ,30, ,
37, ,30, ,
42, ,30, ,
42, ,30, ,
42, ,30, ,
42, ,30, ,
41, ,30, ,
41, ,30, ,
37, ,30, ,
35, ,30, ,
35, ,30, ,
35, ,30, ,
37, ,30, ,
45, ,30, ,
50, ,30, ,
54, ,30, ,
59, ,30, ,
67, ,30, ,
73, ,30, ,
76, ,30, ,
77, ,30, ,
77, ,30, ,
75, ,30, ,
76, ,30, ,
72, ,30, ,
69, ,30, ,
67, ,30, ,
64, ,30, ,
63, ,30, ,
61, ,30, ,
59, ,30, ,
58, ,30, ,
54, ,30, ,
48, ,30, ,
42, ,30, ,
39, ,30, ,
34, ,30, ,
24, ,30, ,
19, ,30, ,
17, ,30, ,
12, ,30, ,
11, ,30, ,
13, ,30, ,
15, ,30, ,
20, ,30, ,
33, ,30, ,
38, ,30, ,
48, ,30, ,
57, ,30, ,
72, ,30, ,
81, ,30, ,
86, ,30, ,
92, ,30, ,
98, ,30, ,
99, ,30, ,
100, ,30, ,
100, ,30, ,
103, ,30, ,
105, ,30, ,
105, ,30, ,
111, ,30, ,
119, ,30, ,
123, ,30, ,
125, ,30, ,
125, ,30, ,
125, ,30, ,
125, ,30, ,
125, ,30, ,
125, ,30, ,
125, ,30, ,
125, ,30, ,
125, ,30, ,
125, ,30, ,
125, ,30, ,
125, ,30, ,
125, ,30, ,
125, ,30, ,
124, ,30, ,
117, ,30, ,
112, ,30, ,
105, ,30, ,
95, ,30, ,
91, ,30, ,
85, ,30, ,
78, ,30, ,
64, ,30, ,
57, ,30, ,
48, ,30, ,
41, ,30, ,
25, ,30, ,
17, ,30, ,
7, ,30, ,
0, ,30, ,
-15, ,30, ,
-25, ,30, ,
-30, ,30, ,
-36, ,30, ,
-44, ,30, ,
-48, ,30, ,
-49, ,30, ,
-50, ,30, ,
-49, ,30, ,
-47, ,30, ,
-45, ,30, ,
-43, ,30, ,
-36, ,30, ,
-33, ,30, ,
-30, ,30, ,
-27, ,30, ,
-20, ,30, ,
-20, ,30, ,
-16, ,30, ,
-15, ,30, ,
-12, ,30, ,
-8, ,30, ,
-5, ,30, ,
-4, ,30, ,
2, ,30, ,
4, ,30, ,
10, ,30, ,
10, ,30, ,
18, ,30, ,
21, ,30, ,
25, ,30, ,
28, ,30, ,
33, ,30, ,
35, ,30, ,
36, ,30, ,
37, ,30, ,
39, ,30, ,
41, ,30, ,
42, ,30, ,
42, ,30, ,
43, ,30, ,
45, ,30, ,
45, ,30, ,
47, ,30, ,
50, ,30, ,
52, ,30, ,
53, ,30, ,
55, ,30, ,
59, ,30, ,
59, ,30, ,
62, ,30, ,
63, ,30, ,
64, ,30, ,
63, ,30, ,
63, ,30, ,
61, ,30, ,
59, ,30, ,
56, ,30, ,
54, ,30, ,
51, ,30, ,
46, ,30, ,
43, ,30, ,
40, ,30, ,
37, ,30, ,
31, ,30, ,
29, ,30, ,
26, ,30, ,
23, ,30, ,
19, ,30, ,
18, ,30, ,
16, ,30, ,
13, ,30, ,
11, ,30, ,
10, ,30, ,
10, ,30, ,
10, ,30, ,
10, ,30, ,
11, ,30, ,
10, ,30, ,
13, ,30, ,
15, ,30, ,
15, ,30, ,
18, ,30, ,
19, ,30, ,
25, ,30, ,
29, ,30, ,
32, ,30, ,
35, ,30, ,
43, ,30, ,
47, ,30, ,
51, ,30, ,
55, ,30, ,
64, ,30, ,
69, ,30, ,
71, ,30, ,
75, ,30, ,
82, ,30, ,
82, ,30, ,
86, ,30, ,
88, ,30, ,
90, ,30, ,
92, ,30, ,
93, ,30, ,
95, ,30, ,
95, ,30, ,
94, ,30, ,
94, ,30, ,
93, ,30, ,
93, ,30, ,
92, ,30, ,
88, ,30, ,
86, ,30, ,
79, ,30, ,
74, ,30, ,
71, ,30, ,
67, ,30, ,
54, ,30, ,
48, ,30, ,
41, ,30, ,
34, ,30, ,
16, ,30, ,
8, ,30, ,
-3, ,30, ,
-16, ,30, ,
-38, ,30, ,
-51, ,30, ,
-66, ,30, ,
-80, ,30, ,
-110, ,30, ,
-126, ,30, ,
-126, ,30, ,
-126, ,30, ,
-126, ,30, ,
-126, ,30, ,
-126, ,30, ,
-126, ,30, ,
-126, ,30, ,
-126, ,30, ,
-126, ,30, ,
-126, ,30, ,
-126, ,30, ,
-126, ,30, ,
-126, ,30, ,
-126, ,30, ,
-126, ,30, ,
-126, ,30, ,
-126, ,30, ,
-126, ,30, ,
-126, ,30, ,
-126, ,30, ,
-126, ,30, ,
-126, ,30, ,
-126, ,30, ,
-126, ,30, ,
-126, ,30, ,
-126, ,30, ,
-126, ,30, ,
-126, ,30, ,
-126, ,30, ,
-126, ,30, ,
-126, ,30, ,
-126, ,30, ,
-126, ,30, ,
-126, ,30, ,
-126, ,30, ,
-125, ,30, ,
-120, ,30, ,
-116, ,30, ,
-105, ,30, ,
-102, ,30, ,
-97, ,30, ,
-91, ,30, ,
-17, ,30, ,
95, ,30, ,
125, ,30, ,
125, ,30, ,
125, ,30, ,
125, ,30, ,
125, ,30, ,
125, ,30, ,
125, ,30, ,
125, ,30, ,
125, ,30, ,
125, ,30, ,
125, ,30, ,
125, ,30, ,
125, ,30, ,
125, ,30, ,
125, ,30, ,
125, ,30, ,
125, ,30, ,
125, ,30, ,
125, ,30, ,
125, ,30, ,
125, ,30, ,
125, ,30, ,
125, ,30, ,
125, ,30, ,
125, ,30, ,
125, ,30, ,
125, ,30, ,
125, ,30, ,
125, ,30, ,
125, ,30, ,
124, ,30, ,
123, ,30, ,
105, ,30, ,
86, ,30, ,
33, ,30, ,
5, ,30, ,
-21, ,30, ,
-42, ,30, ,
-70, ,30, ,
-75, ,30, ,
-76, ,30, ,
-76, ,30, ,
-66, ,30, ,
-58, ,30, ,
-49, ,30, ,
-43, ,30, ,
-25, ,30, ,
-17, ,30, ,
-12, ,30, ,
-4, ,30, ,
3, ,30, ,
6, ,30, ,
9, ,30, ,
10, ,30, ,
11, ,30, ,
14, ,30, ,
14, ,30, ,
13, ,30, ,
12, ,30, ,
9, ,30, ,
6, ,30, ,
4, ,30, ,
-6, ,30, ,
-10, ,30, ,
-16, ,30, ,
-21, ,30, ,
-30, ,30, ,
-34, ,30, ,
-35, ,30, ,
-35, ,30, ,
-34, ,30, ,
-30, ,30, ,
-27, ,30, ,
-21, ,30, ,
-10, ,30, ,
-4, ,30, ,
2, ,30, ,
5, ,30, ,
13, ,30, ,
14, ,30, ,
15, ,30, ,
15, ,30, ,
10, ,30, ,
5, ,30, ,
0, ,30, ,
-5, ,30, ,
-20, ,30, ,
-28, ,30, ,
-35, ,30, ,
-47, ,30, ,
-64, ,30, ,
-72, ,30, ,
-79, ,30, ,
-87, ,30, ,
-103, ,30, ,
-108, ,30, ,
-115, ,30, ,
-118, ,30, ,
-124, ,30, ,
-124, ,30, ,
-125, ,30, ,
-123, ,30, ,
-121, ,30, ,
-116, ,30, ,
-112, ,30, ,
-108, ,30, ,
-100, ,30, ,
-94, ,30, ,
-89, ,30, ,
-85, ,30, ,
-78, ,30, ,
-73, ,30, ,
-71, ,30, ,
-68, ,30, ,
-64, ,30, ,
-65, ,30, ,
-64, ,30, ,
-64, ,30, ,
-67, ,30, ,
-67, ,30, ,
-68, ,30, ,
-69, ,30, ,
-72, ,30, ,
-73, ,30, ,
-76, ,30, ,
-80, ,30, ,
-83, ,30, ,
-84, ,30, ,
-86, ,30, ,
-87, ,30, ,
-88, ,30, ,
-89, ,30, ,
-88, ,30, ,
-88, ,30, ,
-86, ,30, ,
-80, ,30, ,
-78, ,30, ,
-72, ,30, ,
-63, ,30, ,
-59, ,30, ,
-52, ,30, ,
-46, ,30, ,
-34, ,30, ,
-27, ,30, ,
-23, ,30, ,
-15, ,30, ,
-4, ,30, ,
0, ,30, ,
6, ,30, ,
11, ,30, ,
19, ,30, ,
23, ,30, ,
26, ,30, ,
29, ,30, ,
33, ,30, ,
35, ,30, ,
35, ,30, ,
35, ,30, ,
34, ,30, ,
34, ,30, ,
31, ,30, ,
29, ,30, ,
25, ,30, ,
21, ,30, ,
20, ,30, ,
17, ,30, ,
10, ,30, ,
9, ,30, ,
5, ,30, ,
5, ,30, ,
-1, ,30, ,
-2, ,30, ,
-5, ,30, ,
-7, ,30, ,
-8, ,30, ,
-8, ,30, ,
-10, ,30, ,
-10, ,30, ,
-11, ,30, ,
-12, ,30, ,
-11, ,30, ,
-11, ,30, ,
-12, ,30, ,
-11, ,30, ,
-12, ,30, ,
-13, ,30, ,
-16, ,30, ,
-16, ,30, ,
-18, ,30, ,
-21, ,30, ,
-26, ,30, ,
-27, ,30, ,
-31, ,30, ,
-35, ,30, ,
-39, ,30, ,
-43, ,30, ,
-47, ,30, ,
-50, ,30, ,
-56, ,30, ,
-59, ,30, ,
-60, ,30, ,
-62, ,30, ,
-67, ,30, ,
-68, ,30, ,
-69, ,30, ,
-69, ,30, ,
-69, ,30, ,
-69, ,30, ,
-69, ,30, ,
-68, ,30, ,
-67, ,30, ,
-65, ,30, ,
-63, ,30, ,
-61, ,30, ,
-57, ,30, ,
-54, ,30, ,
-52, ,30, ,
-50, ,30, ,
-46, ,30, ,
-42, ,30, ,
-41, ,30, ,
-39, ,30, ,
-36, ,30, ,
-34, ,30, ,
-32, ,30, ,
-31, ,30, ,
-28, ,30, ,
-28, ,30, ,
-26, ,30, ,
-24, ,30, ,
-22, ,30, ,
-20, ,30, ,
-19, ,30, ,
-19, ,30, ,
-17, ,30, ,
-15, ,30, ,
-14, ,30, ,
-14, ,30, ,
-10, ,30, ,
-8, ,30, ,
-9, ,30, ,
-7, ,30, ,
-5, ,30, ,
-5, ,30, ,
-4, ,30, ,
-4, ,30, ,
-5, ,30, ,
-4, ,30, ,
-4, ,30, ,
-4, ,30, ,
-5, ,30, ,
-6, ,30, ,
-7, ,30, ,
-8, ,30, ,
-10, ,30, ,
-10, ,30, ,
-11, ,30, ,
-12, ,30, ,
-15, ,30, ,
-16, ,30, ,
-17, ,30, ,
-19, ,30, ,
-22, ,30, ,
-22, ,30, ,
-24, ,30, ,
-25, ,30, ,
-25, ,30, ,
-25, ,30, ,
-25, ,30, ,
-25, ,30, ,
-24, ,30, ,
-24, ,30, ,
-23, ,30, ,
-20, ,30, ,
-17, ,30, ,
-15, ,30, ,
-13, ,30, ,
-10, ,30, ,
-3, ,30, ,
1, ,30, ,
5, ,30, ,
11, ,30, ,
22, ,30, ,
27, ,30, ,
35, ,30, ,
37, ,30, ,
54, ,30, ,
62, ,30, ,
69, ,30, ,
79, ,30, ,
99, ,30, ,
106, ,30, ,
116, ,30, ,
125, ,30, ,
125, ,30, ,
125, ,30, ,
125, ,30, ,
125, ,30, ,
125, ,30, ,
125, ,30, ,
125, ,30, ,
125, ,30, ,
125, ,30, ,
125, ,30, ,
125, ,30, ,
125, ,30, ,
125, ,30, ,
125, ,30, ,
125, ,30, ,
125, ,30, ,
125, ,30, ,
125, ,30, ,
125, ,30, ,
125, ,30, ,
125, ,30, ,
125, ,30, ,
125, ,30, ,
125, ,30, ,
125, ,30, ,
125, ,30, ,
125, ,30, ,
125, ,30, ,
125, ,30, ,
125, ,30, ,
125, ,30, ,
125, ,30, ,
125, ,30, ,
124, ,30, ,
124, ,30, ,
116, ,30, ,
90, ,30, ,
71, ,30, ,
51, ,30, ,
25, ,30, ,
-41, ,30, ,
-77, ,30, ,
-111, ,30, ,
-126, ,30, ,
-126, ,30, ,
-126, ,30, ,
-126, ,30, ,
-126, ,30, ,
-126, ,30, ,
-126, ,30, ,
-126, ,30, ,
-126, ,30, ,
-126, ,30, ,
-126, ,30, ,
-126, ,30, ,
-126, ,30, ,
-126, ,30, ,
-126, ,30, ,
-126, ,30, ,
-126, ,30, ,
-126, ,30, ,
-126, ,30, ,
-126, ,30, ,
-126, ,30, ,
-126, ,30, ,
-126, ,30, ,
-126, ,30, ,
-126, ,30, ,
-126, ,30, ,
-126, ,30, ,
-126, ,30, ,
-126, ,30, ,
-126, ,30, ,
-126, ,30, ,
-126, ,30, ,
-126, ,30, ,
-126, ,30, ,
-126, ,30, ,
-126, ,30, ,
-126, ,30, ,
-119, ,30, ,
-111, ,30, ,
-108, ,30, ,
-103, ,30, ,
-94, ,30, ,
-91, ,30, ,
-85, ,30, ,
-83, ,30, ,
-75, ,30, ,
-69, ,30, ,
-68, ,30, ,
-62, ,30, ,
-48, ,30, ,
-31, ,30, ,
7, ,30, ,
47, ,30, ,
97, ,30, ,
99, ,30, ,
90, ,30, ,
81, ,30, ,
75, ,30, ,
74, ,30, ,
73, ,30, ,
67, ,30, ,
56, ,30, ,
54, ,30, ,
49, ,30, ,
49, ,30, ,
47, ,30, ,
46, ,30, ,
47, ,30, ,
47, ,30, ,
48, ,30, ,
50, ,30, ,
52, ,30, ,
55, ,30, ,
60, ,30, ,
62, ,30, ,
65, ,30, ,
66, ,30, ,
72, ,30, ,
75, ,30, ,
75, ,30, ,
78, ,30, ,
80, ,30, ,
81, ,30, ,
84, ,30, ,
84, ,30, ,
87, ,30, ,
88, ,30, ,
89, ,30, ,
90, ,30, ,
95, ,30, ,
96, ,30, ,
99, ,30, ,
100, ,30, ,
104, ,30, ,
106, ,30, ,
106, ,30, ,
109, ,30, ,
113, ,30, ,
113, ,30, ,
114, ,30, ,
114, ,30, ,
113, ,30, ,
113, ,30, ,
112, ,30, ,
110, ,30, ,
104, ,30, ,
102, ,30, ,
98, ,30, ,
93, ,30, ,
84, ,30, ,
79, ,30, ,
73, ,30, ,
68, ,30, ,
56, ,30, ,
50, ,30, ,
46, ,30, ,
41, ,30, ,
34, ,30, ,
29, ,30, ,
25, ,30, ,
24, ,30, ,
20, ,30, ,
19, ,30, ,
19, ,30, ,
18, ,30, ,
21, ,30, ,
23, ,30, ,
23, ,30, ,
25, ,30, ,
31, ,30, ,
32, ,30, ,
33, ,30, ,
35, ,30, ,
37, ,30, ,
41, ,30, ,
42, ,30, ,
44, ,30, ,
45, ,30, ,
45, ,30, ,
45, ,30, ,
44, ,30, ,
43, ,30, ,
41, ,30, ,
38, ,30, ,
37, ,30, ,
34, ,30, ,
32, ,30, ,
30, ,30, ,
27, ,30, ,
21, ,30, ,
20, ,30, ,
16, ,30, ,
14, ,30, ,
9, ,30, ,
6, ,30, ,
4, ,30, ,
2, ,30, ,
-1, ,30, ,
-3, ,30, ,
-4, ,30, ,
-5, ,30, ,
-8, ,30, ,
-9, ,30, ,
-10, ,30, ,
-10, ,30, ,
-12, ,30, ,
-12, ,30, ,
-13, ,30, ,
-13, ,30, ,
-17, ,30, ,
-17, ,30, ,
-19, ,30, ,
-21, ,30, ,
-23, ,30, ,
-23, ,30, ,
-26, ,30, ,
-28, ,30, ,
-30, ,30, ,
-34, ,30, ,
-35, ,30, ,
-38, ,30, ,
-44, ,30, ,
-44, ,30, ,
-47, ,30, ,
-49, ,30, ,
-53, ,30, ,
-55, ,30, ,
-57, ,30, ,
-59, ,30, ,
-61, ,30, ,
-61, ,30, ,
-62, ,30, ,
-62, ,30, ,
-62, ,30, ,
-62, ,30, ,
-61, ,30, ,
-61, ,30, ,
-59, ,30, ,
-57, ,30, ,
-55, ,30, ,
-53, ,30, ,
-49, ,30, ,
-46, ,30, ,
-43, ,30, ,
-42, ,30, ,
-36, ,30, ,
-32, ,30, ,
-30, ,30, ,
-26, ,30, ,
-20, ,30, ,
-17, ,30, ,
-12, ,30, ,
-10, ,30, ,
-4, ,30, ,
0, ,30, ,
1, ,30, ,
4, ,30, ,
8, ,30, ,
11, ,30, ,
12, ,30, ,
13, ,30, ,
18, ,30, ,
18, ,30, ,
18, ,30, ,
20, ,30, ,
20, ,30, ,
20, ,30, ,
21, ,30, ,
21, ,30, ,
20, ,30, ,
20, ,30, ,
19, ,30, ,
18, ,30, ,
17, ,30, ,
16, ,30, ,
15, ,30, ,
15, ,30, ,
16, ,30, ,
15, ,30, ,
13, ,30, ,
14, ,30, ,
13, ,30, ,
13, ,30, ,
14, ,30, ,
13, ,30, ,
13, ,30, ,
16, ,30, ,
15, ,30, ,
16, ,30, ,
18, ,30, ,
18, ,30, ,
18, ,30, ,
20, ,30, ,
21, ,30, ,
21, ,30, ,
21, ,30, ,
22, ,30, ,
22, ,30, ,
22, ,30, ,
22, ,30, ,
22, ,30, ,
21, ,30, ,
21, ,30, ,
19, ,30, ,
20, ,30, ,
15, ,30, ,
15, ,30, ,
13, ,30, ,
11, ,30, ,
7, ,30, ,
5, ,30, ,
1, ,30, ,
0, ,30, ,
-5, ,30, ,
-10, ,30, ,
-11, ,30, ,
-15, ,30, ,
-22, ,30, ,
-23, ,30, ,
-28, ,30, ,
-31, ,30, ,
-37, ,30, ,
-42, ,30, ,
-44, ,30, ,
-50, ,30, ,
-55, ,30, ,
-60, ,30, ,
-65, ,30, ,
-67, ,30, ,
-77, ,30, ,
-81, ,30, ,
-85, ,30, ,
-89, ,30, ,
-98, ,30, ,
-103, ,30, ,
-105, ,30, ,
-110, ,30, ,
-118, ,30, ,
-123, ,30, ,
-126, ,30, ,
-126, ,30, ,
-126, ,30, ,
-126, ,30, ,
-126, ,30, ,
-126, ,30, ,
-126, ,30, ,
-126, ,30, ,
-126, ,30, ,
-126, ,30, ,
-126, ,30, ,
-126, ,30, ,
-126, ,30, ,
-123, ,30, ,
-116, ,30, ,
-110, ,30, ,
-107, ,30, ,
-104, ,30, ,
-95, ,30, ,
-93, ,30, ,
-89, ,30, ,
-84, ,30, ,
-77, ,30, ,
-76, ,30, ,
-72, ,30, ,
-69, ,30, ,
-64, ,30, ,
-59, ,30, ,
-59, ,30, ,
-55, ,30, ,
-49, ,30, ,
-46, ,30, ,
-45, ,30, ,
-44, ,30, ,
-37, ,30, ,
-35, ,30, ,
-31, ,30, ,
-14, ,30, ,
68, ,30, ,
114, ,30, ,
125, ,30, ,
125, ,30, ,
125, ,30, ,
125, ,30, ,
125, ,30, ,
125, ,30, ,
125, ,30, ,
125, ,30, ,
125, ,30, ,
125, ,30, ,
125, ,30, ,
125, ,30, ,
125, ,30, ,
125, ,30, ,
125, ,30, ,
125, ,30, ,
125, ,30, ,
125, ,30, ,
125, ,30, ,
125, ,30, ,
125, ,30, ,
125, ,30, ,
125, ,30, ,
125, ,30, ,
125, ,30, ,
125, ,30, ,
125, ,30, ,
125, ,30, ,
125, ,30, ,
125, ,30, ,
125, ,30, ,
125, ,30, ,
125, ,30, ,
125, ,30, ,
124, ,30, ,
123, ,30, ,
109, ,30, ,
89, ,30, ,
41, ,30, ,
14, ,30, ,
-13, ,30, ,
-39, ,30, ,
-90, ,30, ,
-114, ,30, ,
-126, ,30, ,
-126, ,30, ,
-126, ,30, ,
-126, ,30, ,
-126, ,30, ,
-126, ,30, ,
-126, ,30, ,
-126, ,30, ,
-126, ,30, ,
-126, ,30, ,
-126, ,30, ,
-126, ,30, ,
-126, ,30, ,
-126, ,30, ,
-126, ,30, ,
-126, ,30, ,
-126, ,30, ,
-126, ,30, ,
-126, ,30, ,
-126, ,30, ,
-126, ,30, ,
-126, ,30, ,
-126, ,30, ,
-126, ,30, ,
-126, ,30, ,
-126, ,30, ,
-126, ,30, ,
-126, ,30, ,
-126, ,30, ,
-126, ,30, ,
-126, ,30, ,
