raw_data/100% Glycerol, Impulsion 2Hz, Sonde 5MHz, Rampe 0.7Hz/temp0000293.CSV

Format,1.0B,
Memory Length,10000,Memory Length,10000,
IntpDistance,0,IntpDistance,0,
Trigger Address,159,Trigger Address,159,
Trigger Level,2.720E-01,Trigger Level,2.720E-01,
Source,CH1,Source,CH2,
Vertical Units,V,Vertical Units,V,
Vertical Units Div,0,Vertical Units Div,0,
Vertical Units Extend Div,16,Vertical Units Extend Div,16,
Label,,Label,,
Probe Type,0,Probe Type,0,
Probe Ratio,1.000e+00,Probe Ratio,1.000e+00,
Vertical Scale,2.000e-01,Vertical Scale,2.000e+00,
Vertical Position,0.000e+00,Vertical Position,0.000e+00,
Horizontal Units,S,Horizontal Units,S,
Horizontal Scale,5.000E-06,Horizontal Scale,5.000E-06,
Horizontal Position,2.420E-05,Horizontal Position,2.420E-05,
Horizontal Mode,Main,Horizontal Mode,Main,
SincET Mode,Real Time,SincET Mode,Real Time,
Sampling Period,5.000e-09,Sampling Period,5.000e-09,
Horizontal Old Scale,5.000E-06,Horizontal Old Scale,5.000E-06,
Horizontal Old Position,2.420E-05,Horizontal Old Position,2.420E-05,
Firmware,V1.32,Firmware,V1.32,
Mode,Fast,Mode,Fast,
Waveform Data,,Waveform Data,,
2, ,-27, ,
1, ,-27, ,
2, ,-27, ,
2, ,-27, ,
1, ,-27, ,
1, ,-27, ,
1, ,-27, ,
0, ,-27, ,
2, ,-27, ,
0, ,-27, ,
1, ,-27, ,
1, ,-27, ,
1, ,-27, ,
1, ,-27, ,
2, ,-27, ,
1, ,-27, ,
1, ,-27, ,
1, ,-27, ,
1, ,-27, ,
1, ,-27, ,
1, ,-27, ,
2, ,-27, ,
1, ,-27, ,
1, ,-27, ,
2, ,-27, ,
1, ,-27, ,
2, ,-27, ,
2, ,-27, ,
1, ,-27, ,
2, ,-27, ,
1, ,-27, ,
1, ,-27, ,
1, ,-27, ,
1, ,-27, ,
1, ,-27, ,
1, ,-27, ,
1, ,-27, ,
2, ,-27, ,
1, ,-27, ,
1, ,-27, ,
1, ,-27, ,
0, ,-27, ,
2, ,-27, ,
2, ,-27, ,
1, ,-27, ,
2, ,-27, ,
2, ,-27, ,
1, ,-27, ,
1, ,-27, ,
1, ,-27, ,
1, ,-27, ,
3, ,-27, ,
2, ,-27, ,
2, ,-27, ,
1, ,-27, ,
1, ,-27, ,
2, ,-27, ,
1, ,-27, ,
1, ,-27, ,
1, ,-27, ,
0, ,-27, ,
2, ,-27, ,
2, ,-27, ,
1, ,-27, ,
1, ,-27, ,
1, ,-27, ,
2, ,-27, ,
2, ,-27, ,
0, ,-27, ,
1, ,-27, ,
0, ,-27, ,
1, ,-27, ,
1, ,-27, ,
1, ,-27, ,
1, ,-27, ,
1, ,-27, ,
1, ,-27, ,
1, ,-27, ,
0, ,-27, ,
0, ,-27, ,
1, ,-27, ,
1, ,-27, ,
1, ,-27, ,
1, ,-27, ,
1, ,-27, ,
2, ,-27, ,
1, ,-27, ,
1, ,-27, ,
1, ,-27, ,
0, ,-27, ,
1, ,-27, ,
2, ,-27, ,
1, ,-27, ,
2, ,-27, ,
1, ,-27, ,
1, ,-27, ,
1, ,-27, ,
1, ,-27, ,
1, ,-27, ,
2, ,-27, ,
1, ,-27, ,
2, ,-27, ,
1, ,-27, ,
1, ,-27, ,
3, ,-27, ,
1, ,-27, ,
2, ,-27, ,
1, ,-27, ,
1, ,-27, ,
2, ,-27, ,
2, ,-27, ,
1, ,-27, ,
1, ,-27, ,
1, ,-27, ,
1, ,-27, ,
1, ,-27, ,
1, ,-27, ,
2, ,-27, ,
1, ,-27, ,
1, ,-27, ,
2, ,-27, ,
1, ,-27, ,
2, ,-27, ,
2, ,-27, ,
1, ,-27, ,
1, ,-27, ,
2, ,-27, ,
0, ,-27, ,
2, ,-27, ,
1, ,-27, ,
1, ,-27, ,
1, ,-27, ,
1, ,-27, ,
1, ,-27, ,
1, ,-27, ,
1, ,-27, ,
2, ,-27, ,
0, ,-27, ,
1, ,-27, ,
1, ,-27, ,
1, ,-27, ,
1, ,-27, ,
1, ,-27, ,
0, ,-27, ,
1, ,-27, ,
0, ,-27, ,
2, ,-27, ,
1, ,-27, ,
1, ,-27, ,
1, ,-27, ,
1, ,-27, ,
0, ,-27, ,
2, ,-27, ,
1, ,-27, ,
2, ,-27, ,
2, ,-27, ,
1, ,-27, ,
1, ,-27, ,
1, ,-27, ,
1, ,-27, ,
2, ,-27, ,
1, ,-27, ,
2, ,-27, ,
1, ,-27, ,
4, ,-27, ,
0, ,-27, ,
1, ,-27, ,
3, ,-27, ,
40, ,-27, ,
106, ,-27, ,
125, ,-27, ,
125, ,-27, ,
124, ,-27, ,
120, ,-27, ,
104, ,-27, ,
5, ,-27, ,
123, ,-27, ,
125, ,-27, ,
125, ,-27, ,
125, ,-27, ,
125, ,-27, ,
125, ,-27, ,
125, ,-27, ,
125, ,-27, ,
125, ,-27, ,
125, ,-27, ,
125, ,-27, ,
125, ,-27, ,
125, ,-27, ,
125, ,-27, ,
125, ,-27, ,
125, ,-27, ,
125, ,-27, ,
125, ,-27, ,
125, ,-27, ,
125, ,-27, ,
125, ,-27, ,
125, ,-27, ,
125, ,-27, ,
125, ,-27, ,
125, ,-27, ,
125, ,-27, ,
125, ,-27, ,
124, ,-27, ,
118, ,-27, ,
113, ,-27, ,
108, ,-27, ,
101, ,-27, ,
97, ,-27, ,
92, ,-27, ,
90, ,-27, ,
82, ,-27, ,
77, ,-27, ,
74, ,-27, ,
68, ,-27, ,
64, ,-27, ,
61, ,-27, ,
57, ,-27, ,
54, ,-27, ,
51, ,-27, ,
48, ,-27, ,
46, ,-27, ,
44, ,-27, ,
39, ,-27, ,
39, ,-27, ,
35, ,-27, ,
35, ,-27, ,
32, ,-27, ,
29, ,-27, ,
29, ,-27, ,
25, ,-27, ,
22, ,-27, ,
24, ,-27, ,
20, ,-27, ,
20, ,-27, ,
17, ,-27, ,
16, ,-27, ,
15, ,-27, ,
15, ,-27, ,
13, ,-27, ,
12, ,-27, ,
10, ,-27, ,
11, ,-27, ,
9, ,-27, ,
8, ,-27, ,
7, ,-27, ,
7, ,-27, ,
5, ,-27, ,
5, ,-27, ,
4, ,-27, ,
4, ,-27, ,
3, ,-27, ,
2, ,-27, ,
3, ,-27, ,
1, ,-27, ,
2, ,-27, ,
1, ,-27, ,
0, ,-27, ,
0, ,-27, ,
0, ,-27, ,
-1, ,-27, ,
-1, ,-27, ,
-2, ,-27, ,
-2, ,-27, ,
-2, ,-27, ,
-2, ,-27, ,
-1, ,-27, ,
-2, ,-27, ,
-3, ,-27, ,
-3, ,-27, ,
-2, ,-27, ,
-3, ,-27, ,
-3, ,-27, ,
-3, ,-27, ,
-3, ,-27, ,
-3, ,-27, ,
-3, ,-27, ,
-3, ,-27, ,
-4, ,-27, ,
-4, ,-27, ,
-2, ,-27, ,
-4, ,-27, ,
-3, ,-27, ,
-3, ,-27, ,
-4, ,-27, ,
-3, ,-27, ,
-3, ,-27, ,
-4, ,-27, ,
-3, ,-27, ,
-3, ,-27, ,
-3, ,-27, ,
-2, ,-27, ,
-2, ,-27, ,
-2, ,-27, ,
-3, ,-27, ,
-4, ,-27, ,
-3, ,-27, ,
-4, ,-27, ,
-2, ,-27, ,
-2, ,-27, ,
-4, ,-27, ,
-2, ,-27, ,
-2, ,-27, ,
-2, ,-27, ,
-3, ,-27, ,
-3, ,-27, ,
-3, ,-27, ,
-2, ,-27, ,
-2, ,-27, ,
-2, ,-27, ,
-2, ,-27, ,
-2, ,-27, ,
-1, ,-27, ,
-2, ,-27, ,
-1, ,-27, ,
-1, ,-27, ,
-2, ,-27, ,
-2, ,-27, ,
-2, ,-27, ,
-2, ,-27, ,
-1, ,-27, ,
-1, ,-27, ,
-2, ,-27, ,
-2, ,-27, ,
-2, ,-27, ,
-1, ,-27, ,
-1, ,-27, ,
-1, ,-27, ,
0, ,-27, ,
-1, ,-27, ,
-1, ,-27, ,
-1, ,-27, ,
-1, ,-27, ,
-2, ,-27, ,
-1, ,-27, ,
0, ,-27, ,
0, ,-27, ,
0, ,-27, ,
0, ,-27, ,
0, ,-27, ,
0, ,-27, ,
0, ,-27, ,
-1, ,-27, ,
-1, ,-27, ,
-1, ,-27, ,
-1, ,-27, ,
-1, ,-27, ,
0, ,-27, ,
-1, ,-27, ,
0, ,-27, ,
-1, ,-27, ,
0, ,-27, ,
0, ,-27, ,
0, ,-27, ,
0, ,-27, ,
0, ,-27, ,
0, ,-27, ,
1, ,-27, ,
0, ,-27, ,
0, ,-27, ,
0, ,-27, ,
0, ,-27, ,
1, ,-27, ,
1, ,-27, ,
0, ,-27, ,
1, ,-27, ,
0, ,-27, ,
0, ,-27, ,
1, ,-27, ,
1, ,-27, ,
1, ,-27, ,
1, ,-27, ,
0, ,-27, ,
1, ,-27, ,
0, ,-27, ,
1, ,-27, ,
0, ,-27, ,
0, ,-27, ,
1, ,-27, ,
1, ,-27, ,
0, ,-27, ,
0, ,-27, ,
0, ,-27, ,
1, ,-27, ,
1, ,-27, ,
0, ,-27, ,
1, ,-27, ,
1, ,-27, ,
0, ,-27, ,
0, ,-27, ,
0, ,-27, ,
0, ,-27, ,
0, ,-27, ,
-1, ,-27, ,
-1, ,-27, ,
-8, ,-27, ,
-23, ,-27, ,
-47, ,-27, ,
-86, ,-27, ,
-126, ,-27, ,
-126, ,-27, ,
-126, ,-27, ,
-126, ,-27, ,
-126, ,-27, ,
-126, ,-27, ,
-126, ,-27, ,
-125, ,-27, ,
-89, ,-27, ,
-54, ,-27, ,
-31, ,-27, ,
-11, ,-27, ,
9, ,-27, ,
10, ,-27, ,
6, ,-27, ,
-4, ,-27, ,
-40, ,-27, ,
-62, ,-27, ,
-88, ,-27, ,
-110, ,-27, ,
-126, ,-27, ,
-126, ,-27, ,
-126, ,-27, ,
-124, ,-27, ,
-69, ,-27, ,
-29, ,-27, ,
13, ,-27, ,
52, ,-27, ,
98, ,-27, ,
106, ,-27, ,
112, ,-27, ,
112, ,-27, ,
113, ,-27, ,
114, ,-27, ,
112, ,-27, ,
110, ,-27, ,
104, ,-27, ,
98, ,-27, ,
93, ,-27, ,
83, ,-27, ,
52, ,-27, ,
30, ,-27, ,
-2, ,-27, ,
-37, ,-27, ,
-99, ,-27, ,
-120, ,-27, ,
-125, ,-27, ,
-119, ,-27, ,
-82, ,-27, ,
-55, ,-27, ,
-31, ,-27, ,
-2, ,-27, ,
40, ,-27, ,
56, ,-27, ,
68, ,-27, ,
74, ,-27, ,
84, ,-27, ,
88, ,-27, ,
88, ,-27, ,
88, ,-27, ,
87, ,-27, ,
85, ,-27, ,
84, ,-27, ,
82, ,-27, ,
79, ,-27, ,
78, ,-27, ,
74, ,-27, ,
73, ,-27, ,
69, ,-27, ,
65, ,-27, ,
64, ,-27, ,
59, ,-27, ,
56, ,-27, ,
54, ,-27, ,
52, ,-27, ,
50, ,-27, ,
46, ,-27, ,
43, ,-27, ,
43, ,-27, ,
40, ,-27, ,
38, ,-27, ,
38, ,-27, ,
35, ,-27, ,
35, ,-27, ,
35, ,-27, ,
33, ,-27, ,
32, ,-27, ,
30, ,-27, ,
29, ,-27, ,
29, ,-27, ,
27, ,-27, ,
26, ,-27, ,
25, ,-27, ,
23, ,-27, ,
24, ,-27, ,
21, ,-27, ,
20, ,-27, ,
19, ,-27, ,
17, ,-27, ,
18, ,-27, ,
15, ,-27, ,
14, ,-27, ,
13, ,-27, ,
12, ,-27, ,
12, ,-27, ,
10, ,-27, ,
10, ,-27, ,
11, ,-27, ,
10, ,-27, ,
10, ,-27, ,
10, ,-27, ,
9, ,-27, ,
9, ,-27, ,
10, ,-27, ,
9, ,-27, ,
9, ,-27, ,
9, ,-27, ,
7, ,-27, ,
7, ,-27, ,
7, ,-27, ,
4, ,-27, ,
4, ,-27, ,
2, ,-27, ,
-1, ,-27, ,
-8, ,-27, ,
-16, ,-27, ,
-20, ,-27, ,
-28, ,-27, ,
-42, ,-27, ,
-45, ,-27, ,
-46, ,-27, ,
-44, ,-27, ,
-38, ,-27, ,
-34, ,-27, ,
-27, ,-27, ,
-22, ,-27, ,
-12, ,-27, ,
-7, ,-27, ,
-5, ,-27, ,
0, ,-27, ,
5, ,-27, ,
5, ,-27, ,
8, ,-27, ,
7, ,-27, ,
9, ,-27, ,
8, ,-27, ,
7, ,-27, ,
7, ,-27, ,
3, ,-27, ,
0, ,-27, ,
-2, ,-27, ,
-7, ,-27, ,
-16, ,-27, ,
-21, ,-27, ,
-28, ,-27, ,
-34, ,-27, ,
-46, ,-27, ,
-53, ,-27, ,
-56, ,-27, ,
-60, ,-27, ,
-60, ,-27, ,
-58, ,-27, ,
-54, ,-27, ,
-50, ,-27, ,
-43, ,-27, ,
-39, ,-27, ,
-37, ,-27, ,
-36, ,-27, ,
-37, ,-27, ,
-41, ,-27, ,
-47, ,-27, ,
-56, ,-27, ,
-80, ,-27, ,
-96, ,-27, ,
-112, ,-27, ,
-126, ,-27, ,
-126, ,-27, ,
-126, ,-27, ,
-126, ,-27, ,
-126, ,-27, ,
-126, ,-27, ,
-126, ,-27, ,
-126, ,-27, ,
-126, ,-27, ,
-126, ,-27, ,
-126, ,-27, ,
-126, ,-27, ,
-126, ,-27, ,
-126, ,-27, ,
-125, ,-27, ,
-112, ,-27, ,
-95, ,-27, ,
-62, ,-27, ,
-48, ,-27, ,
-38, ,-27, ,
-28, ,-27, ,
-17, ,-27, ,
-15, ,-27, ,
-12, ,-27, ,
-12, ,-27, ,
-12, ,-27, ,
-11, ,-27, ,
-10, ,-27, ,
-9, ,-27, ,
-4, ,-27, ,
1, ,-27, ,
8, ,-27, ,
16, ,-27, ,
34, ,-27, ,
43, ,-27, ,
51, ,-27, ,
60, ,-27, ,
76, ,-27, ,
84, ,-27, ,
87, ,-27, ,
92, ,-27, ,
96, ,-27, ,
96, ,-27, ,
94, ,-27, ,
92, ,-27, ,
83, ,-27, ,
76, ,-27, ,
68, ,-27, ,
58, ,-27, ,
34, ,-27, ,
20, ,-27, ,
6, ,-27, ,
-9, ,-27, ,
-38, ,-27, ,
-55, ,-27, ,
-68, ,-27, ,
-80, ,-27, ,
-100, ,-27, ,
-106, ,-27, ,
-111, ,-27, ,
-113, ,-27, ,
-111, ,-27, ,
-110, ,-27, ,
-104, ,-27, ,
-99, ,-27, ,
-82, ,-27, ,
-72, ,-27, ,
-61, ,-27, ,
-51, ,-27, ,
-33, ,-27, ,
-24, ,-27, ,
-14, ,-27, ,
-7, ,-27, ,
6, ,-27, ,
12, ,-27, ,
15, ,-27, ,
19, ,-27, ,
19, ,-27, ,
15, ,-27, ,
13, ,-27, ,
10, ,-27, ,
1, ,-27, ,
-3, ,-27, ,
-6, ,-27, ,
-10, ,-27, ,
-14, ,-27, ,
-14, ,-27, ,
-11, ,-27, ,
-12, ,-27, ,
-4, ,-27, ,
1, ,-27, ,
7, ,-27, ,
15, ,-27, ,
26, ,-27, ,
33, ,-27, ,
38, ,-27, ,
44, ,-27, ,
55, ,-27, ,
60, ,-27, ,
63, ,-27, ,
66, ,-27, ,
69, ,-27, ,
68, ,-27, ,
69, ,-27, ,
66, ,-27, ,
61, ,-27, ,
59, ,-27, ,
55, ,-27, ,
50, ,-27, ,
41, ,-27, ,
35, ,-27, ,
30, ,-27, ,
27, ,-27, ,
21, ,-27, ,
22, ,-27, ,
19, ,-27, ,
21, ,-27, ,
26, ,-27, ,
30, ,-27, ,
35, ,-27, ,
39, ,-27, ,
49, ,-27, ,
55, ,-27, ,
59, ,-27, ,
63, ,-27, ,
69, ,-27, ,
69, ,-27, ,
69, ,-27, ,
68, ,-27, ,
66, ,-27, ,
64, ,-27, ,
60, ,-27, ,
57, ,-27, ,
45, ,-27, ,
38, ,-27, ,
34, ,-27, ,
25, ,-27, ,
12, ,-27, ,
6, ,-27, ,
-4, ,-27, ,
-10, ,-27, ,
-21, ,-27, ,
-27, ,-27, ,
-30, ,-27, ,
-35, ,-27, ,
-40, ,-27, ,
-43, ,-27, ,
-45, ,-27, ,
-45, ,-27, ,
-49, ,-27, ,
-50, ,-27, ,
-51, ,-27, ,
-54, ,-27, ,
-58, ,-27, ,
-57, ,-27, ,
-60, ,-27, ,
-62, ,-27, ,
-63, ,-27, ,
-64, ,-27, ,
-63, ,-27, ,
-63, ,-27, ,
-59, ,-27, ,
-56, ,-27, ,
-54, ,-27, ,
-47, ,-27, ,
-39, ,-27, ,
-35, ,-27, ,
-29, ,-27, ,
-26, ,-27, ,
-15, ,-27, ,
-9, ,-27, ,
-6, ,-27, ,
-2, ,-27, ,
5, ,-27, ,
7, ,-27, ,
8, ,-27, ,
9, ,-27, ,
8, ,-27, ,
8, ,-27, ,
7, ,-27, ,
4, ,-27, ,
1, ,-27, ,
-3, ,-27, ,
-4, ,-27, ,
-7, ,-27, ,
-10, ,-27, ,
-11, ,-27, ,
-15, ,-27, ,
-15, ,-27, ,
-17, ,-27, ,
-17, ,-27, ,
-17, ,-27, ,
-18, ,-27, ,
-18, ,-27, ,
-18, ,-27, ,
-18, ,-27, ,
-18, ,-27, ,
-18, ,-27, ,
-21, ,-27, ,
-20, ,-27, ,
-24, ,-27, ,
-28, ,-27, ,
-28, ,-27, ,
-33, ,-27, ,
-35, ,-27, ,
-40, ,-27, ,
-45, ,-27, ,
-47, ,-27, ,
-52, ,-27, ,
-58, ,-27, ,
-59, ,-27, ,
-64, ,-27, ,
-64, ,-27, ,
-69, ,-27, ,
-71, ,-27, ,
-70, ,-27, ,
-73, ,-27, ,
-71, ,-27, ,
-70, ,-27, ,
-68, ,-27, ,
-67, ,-27, ,
-61, ,-27, ,
-59, ,-27, ,
-55, ,-27, ,
-51, ,-27, ,
-44, ,-27, ,
-38, ,-27, ,
-36, ,-27, ,
-32, ,-27, ,
-26, ,-27, ,
-23, ,-27, ,
-19, ,-27, ,
-20, ,-27, ,
-15, ,-27, ,
-14, ,-27, ,
-13, ,-27, ,
-11, ,-27, ,
-9, ,-27, ,
-9, ,-27, ,
-9, ,-27, ,
-10, ,-27, ,
-8, ,-27, ,
-7, ,-27, ,
-7, ,-27, ,
-5, ,-27, ,
-2, ,-27, ,
-4, ,-27, ,
1, ,-27, ,
2, ,-27, ,
8, ,-27, ,
13, ,-27, ,
15, ,-27, ,
21, ,-27, ,
30, ,-27, ,
34, ,-27, ,
38, ,-27, ,
42, ,-27, ,
49, ,-27, ,
52, ,-27, ,
53, ,-27, ,
56, ,-27, ,
55, ,-27, ,
55, ,-27, ,
54, ,-27, ,
53, ,-27, ,
48, ,-27, ,
46, ,-27, ,
41, ,-27, ,
40, ,-27, ,
35, ,-27, ,
31, ,-27, ,
29, ,-27, ,
26, ,-27, ,
20, ,-27, ,
19, ,-27, ,
18, ,-27, ,
16, ,-27, ,
13, ,-27, ,
10, ,-27, ,
11, ,-27, ,
8, ,-27, ,
5, ,-27, ,
5, ,-27, ,
2, ,-27, ,
2, ,-27, ,
-4, ,-27, ,
-6, ,-27, ,
-11, ,-27, ,
-15, ,-27, ,
-23, ,-27, ,
-25, ,-27, ,
-31, ,-27, ,
-34, ,-27, ,
-40, ,-27, ,
-44, ,-27, ,
-46, ,-27, ,
-48, ,-27, ,
-49, ,-27, ,
-48, ,-27, ,
-49, ,-27, ,
-46, ,-27, ,
-41, ,-27, ,
-41, ,-27, ,
-36, ,-27, ,
-35, ,-27, ,
-30, ,-27, ,
-25, ,-27, ,
-24, ,-27, ,
-20, ,-27, ,
-16, ,-27, ,
-14, ,-27, ,
-13, ,-27, ,
-12, ,-27, ,
-10, ,-27, ,
-8, ,-27, ,
-8, ,-27, ,
-7, ,-27, ,
-3, ,-27, ,
-3, ,-27, ,
0, ,-27, ,
1, ,-27, ,
6, ,-27, ,
9, ,-27, ,
11, ,-27, ,
13, ,-27, ,
19, ,-27, ,
21, ,-27, ,
25, ,-27, ,
26, ,-27, ,
30, ,-27, ,
31, ,-27, ,
32, ,-27, ,
32, ,-27, ,
33, ,-27, ,
32, ,-27, ,
33, ,-27, ,
29, ,-27, ,
28, ,-27, ,
27, ,-27, ,
24, ,-27, ,
23, ,-27, ,
19, ,-27, ,
15, ,-27, ,
14, ,-27, ,
10, ,-27, ,
5, ,-27, ,
5, ,-27, ,
0, ,-27, ,
0, ,-27, ,
-3, ,-27, ,
-8, ,-27, ,
-8, ,-27, ,
-10, ,-27, ,
-12, ,-27, ,
-12, ,-27, ,
-13, ,-27, ,
-13, ,-27, ,
-15, ,-27, ,
-17, ,-27, ,
-16, ,-27, ,
-18, ,-27, ,
-18, ,-27, ,
-18, ,-27, ,
-19, ,-27, ,
-20, ,-27, ,
-21, ,-27, ,
-22, ,-27, ,
-23, ,-27, ,
-24, ,-27, ,
-27, ,-27, ,
-26, ,-27, ,
-30, ,-27, ,
-31, ,-27, ,
-35, ,-27, ,
-37, ,-27, ,
-36, ,-27, ,
-40, ,-27, ,
-42, ,-27, ,
-42, ,-27, ,
-44, ,-27, ,
-43, ,-27, ,
-43, ,-27, ,
-41, ,-27, ,
-39, ,-27, ,
-39, ,-27, ,
-34, ,-27, ,
-32, ,-27, ,
-30, ,-27, ,
-28, ,-27, ,
-22, ,-27, ,
-21, ,-27, ,
-19, ,-27, ,
-19, ,-27, ,
-17, ,-27, ,
-16, ,-27, ,
-17, ,-27, ,
-18, ,-27, ,
-18, ,-27, ,
-20, ,-27, ,
-20, ,-27, ,
-20, ,-27, ,
-23, ,-27, ,
-23, ,-27, ,
-23, ,-27, ,
-23, ,-27, ,
-22, ,-27, ,
-22, ,-27, ,
-21, ,-27, ,
-21, ,-27, ,
-17, ,-27, ,
-14, ,-27, ,
-12, ,-27, ,
-10, ,-27, ,
-5, ,-27, ,
-4, ,-27, ,
-2, ,-27, ,
1, ,-27, ,
1, ,-27, ,
3, ,-27, ,
2, ,-27, ,
2, ,-27, ,
0, ,-27, ,
-3, ,-27, ,
-3, ,-27, ,
-6, ,-27, ,
-10, ,-27, ,
-12, ,-27, ,
-15, ,-27, ,
-15, ,-27, ,
-19, ,-27, ,
-20, ,-27, ,
-23, ,-27, ,
-24, ,-27, ,
-26, ,-27, ,
-26, ,-27, ,
-27, ,-27, ,
-26, ,-27, ,
-27, ,-27, ,
-26, ,-27, ,
-26, ,-27, ,
-26, ,-27, ,
-24, ,-27, ,
-24, ,-27, ,
-24, ,-27, ,
-24, ,-27, ,
-23, ,-27, ,
-24, ,-27, ,
-23, ,-27, ,
-24, ,-27, ,
-25, ,-27, ,
-25, ,-27, ,
-25, ,-27, ,
-25, ,-27, ,
-25, ,-27, ,
-25, ,-27, ,
-24, ,-27, ,
-24, ,-27, ,
-24, ,-27, ,
-21, ,-27, ,
-22, ,-27, ,
-20, ,-27, ,
-17, ,-27, ,
-17, ,-27, ,
-14, ,-27, ,
-15, ,-27, ,
-13, ,-27, ,
-9, ,-27, ,
-9, ,-27, ,
-8, ,-27, ,
-5, ,-27, ,
-5, ,-27, ,
-2, ,-27, ,
-2, ,-27, ,
1, ,-27, ,
4, ,-27, ,
3, ,-27, ,
6, ,-27, ,
7, ,-27, ,
8, ,-27, ,
10, ,-27, ,
11, ,-27, ,
12, ,-27, ,
12, ,-27, ,
12, ,-27, ,
14, ,-27, ,
14, ,-27, ,
14, ,-27, ,
15, ,-27, ,
15, ,-27, ,
16, ,-27, ,
19, ,-27, ,
18, ,-27, ,
20, ,-27, ,
21, ,-27, ,
20, ,-27, ,
22, ,-27, ,
21, ,-27, ,
22, ,-27, ,
24, ,-27, ,
23, ,-27, ,
24, ,-27, ,
24, ,-27, ,
23, ,-27, ,
24, ,-27, ,
22, ,-27, ,
21, ,-27, ,
22, ,-27, ,
20, ,-27, ,
20, ,-27, ,
18, ,-27, ,
15, ,-27, ,
15, ,-27, ,
14, ,-27, ,
12, ,-27, ,
12, ,-27, ,
9, ,-27, ,
9, ,-27, ,
7, ,-27, ,
5, ,-27, ,
6, ,-27, ,
3, ,-27, ,
3, ,-27, ,
4, ,-27, ,
2, ,-27, ,
2, ,-27, ,
0, ,-27, ,
-1, ,-27, ,
0, ,-27, ,
-2, ,-27, ,
-3, ,-27, ,
-3, ,-27, ,
-5, ,-27, ,
-6, ,-27, ,
-6, ,-27, ,
-7, ,-27, ,
-7, ,-27, ,
-8, ,-27, ,
-8, ,-27, ,
-5, ,-27, ,
-7, ,-27, ,
-4, ,-27, ,
-1, ,-27, ,
-2, ,-27, ,
1, ,-27, ,
3, ,-27, ,
5, ,-27, ,
8, ,-27, ,
8, ,-27, ,
11, ,-27, ,
13, ,-27, ,
13, ,-27, ,
15, ,-27, ,
15, ,-27, ,
17, ,-27, ,
19, ,-27, ,
18, ,-27, ,
19, ,-27, ,
19, ,-27, ,
19, ,-27, ,
18, ,-27, ,
19, ,-27, ,
18, ,-27, ,
19, ,-27, ,
19, ,-27, ,
19, ,-27, ,
19, ,-27, ,
17, ,-27, ,
18, ,-27, ,
16, ,-27, ,
18, ,-27, ,
18, ,-27, ,
17, ,-27, ,
17, ,-27, ,
16, ,-27, ,
15, ,-27, ,
15, ,-27, ,
13, ,-27, ,
11, ,-27, ,
11, ,-27, ,
9, ,-27, ,
9, ,-27, ,
4, ,-27, ,
1, ,-27, ,
2, ,-27, ,
-2, ,-27, ,
-6, ,-27, ,
-6, ,-27, ,
-10, ,-27, ,
-11, ,-27, ,
-12, ,-27, ,
-15, ,-27, ,
-15, ,-27, ,
-17, ,-27, ,
-18, ,-27, ,
-18, ,-27, ,
-20, ,-27, ,
-20, ,-27, ,
-20, ,-27, ,
-20, ,-27, ,
-20, ,-27, ,
-21, ,-27, ,
-21, ,-27, ,
-20, ,-27, ,
-21, ,-27, ,
-20, ,-27, ,
-20, ,-27, ,
-20, ,-27, ,
-19, ,-27, ,
-18, ,-27, ,
-17, ,-27, ,
-17, ,-27, ,
-17, ,-27, ,
-15, ,-27, ,
-14, ,-27, ,
-14, ,-27, ,
-13, ,-27, ,
-14, ,-27, ,
-12, ,-27, ,
-10, ,-27, ,
-10, ,-27, ,
-9, ,-27, ,
-9, ,-27, ,
-9, ,-27, ,
-6, ,-27, ,
-7, ,-27, ,
-5, ,-27, ,
-4, ,-27, ,
-4, ,-27, ,
-4, ,-27, ,
-2, ,-27, ,
-2, ,-27, ,
-2, ,-27, ,
-2, ,-27, ,
-1, ,-27, ,
-1, ,-27, ,
-2, ,-27, ,
-2, ,-27, ,
-1, ,-27, ,
-2, ,-27, ,
-2, ,-27, ,
-2, ,-27, ,
-3, ,-27, ,
-4, ,-27, ,
-4, ,-27, ,
-4, ,-27, ,
-5, ,-27, ,
-4, ,-27, ,
-4, ,-27, ,
-5, ,-27, ,
-5, ,-27, ,
-5, ,-27, ,
-5, ,-27, ,
-5, ,-27, ,
-5, ,-27, ,
-5, ,-27, ,
-5, ,-27, ,
-6, ,-27, ,
-7, ,-27, ,
-7, ,-27, ,
-8, ,-27, ,
-8, ,-27, ,
-9, ,-27, ,
-11, ,-27, ,
-10, ,-27, ,
-13, ,-27, ,
-15, ,-27, ,
-15, ,-27, ,
-18, ,-27, ,
-19, ,-27, ,
-20, ,-27, ,
-20, ,-27, ,
-20, ,-27, ,
-21, ,-27, ,
-22, ,-27, ,
-20, ,-27, ,
-20, ,-27, ,
-20, ,-27, ,
-20, ,-27, ,
-20, ,-27, ,
-20, ,-27, ,
-20, ,-27, ,
-19, ,-27, ,
-17, ,-27, ,
-18, ,-27, ,
-16, ,-27, ,
-16, ,-27, ,
-17, ,-27, ,
-14, ,-27, ,
-14, ,-27, ,
-13, ,-27, ,
-14, ,-27, ,
-12, ,-27, ,
-10, ,-27, ,
-10, ,-27, ,
-8, ,-27, ,
-8, ,-27, ,
-8, ,-27, ,
-5, ,-27, ,
-4, ,-27, ,
-3, ,-27, ,
-2, ,-27, ,
1, ,-27, ,
1, ,-27, ,
4, ,-27, ,
4, ,-27, ,
7, ,-27, ,
8, ,-27, ,
10, ,-27, ,
10, ,-27, ,
11, ,-27, ,
11, ,-27, ,
12, ,-27, ,
12, ,-27, ,
12, ,-27, ,
11, ,-27, ,
10, ,-27, ,
10, ,-27, ,
10, ,-27, ,
9, ,-27, ,
9, ,-27, ,
6, ,-27, ,
5, ,-27, ,
4, ,-27, ,
4, ,-27, ,
3, ,-27, ,
2, ,-27, ,
1, ,-27, ,
1, ,-27, ,
0, ,-27, ,
-1, ,-27, ,
-1, ,-27, ,
-1, ,-27, ,
-1, ,-27, ,
0, ,-27, ,
-2, ,-27, ,
0, ,-27, ,
-1, ,-27, ,
0, ,-27, ,
0, ,-27, ,
0, ,-27, ,
0, ,-27, ,
1, ,-27, ,
1, ,-27, ,
1, ,-27, ,
0, ,-27, ,
1, ,-27, ,
1, ,-27, ,
1, ,-27, ,
1, ,-27, ,
2, ,-27, ,
1, ,-27, ,
2, ,-27, ,
2, ,-27, ,
0, ,-27, ,
0, ,-27, ,
0, ,-27, ,
0, ,-27, ,
1, ,-27, ,
0, ,-27, ,
-1, ,-27, ,
-1, ,-27, ,
-3, ,-27, ,
-3, ,-27, ,
-4, ,-27, ,
-2, ,-27, ,
-3, ,-27, ,
-5, ,-27, ,
-4, ,-27, ,
-6, ,-27, ,
-4, ,-27, ,
-4, ,-27, ,
-4, ,-27, ,
-3, ,-27, ,
-3, ,-27, ,
-3, ,-27, ,
-3, ,-27, ,
-3, ,-27, ,
-2, ,-27, ,
0, ,-27, ,
0, ,-27, ,
1, ,-27, ,
3, ,-27, ,
1, ,-27, ,
5, ,-27, ,
5, ,-27, ,
6, ,-27, ,
8, ,-27, ,
8, ,-27, ,
9, ,-27, ,
10, ,-27, ,
10, ,-27, ,
12, ,-27, ,
11, ,-27, ,
11, ,-27, ,
12, ,-27, ,
10, ,-27, ,
10, ,-27, ,
10, ,-27, ,
8, ,-27, ,
8, ,-27, ,
7, ,-27, ,
6, ,-27, ,
5, ,-27, ,
5, ,-27, ,
4, ,-27, ,
2, ,-27, ,
1, ,-27, ,
1, ,-27, ,
-1, ,-27, ,
-2, ,-27, ,
-2, ,-27, ,
-3, ,-27, ,
-3, ,-27, ,
-3, ,-27, ,
-5, ,-27, ,
-5, ,-27, ,
-6, ,-27, ,
-7, ,-27, ,
-8, ,-27, ,
-8, ,-27, ,
-8, ,-27, ,
-8, ,-27, ,
-10, ,-27, ,
-10, ,-27, ,
-10, ,-27, ,
-11, ,-27, ,
-11, ,-27, ,
-12, ,-27, ,
-11, ,-27, ,
-10, ,-27, ,
-11, ,-27, ,
-11, ,-27, ,
-12, ,-27, ,
-10, ,-27, ,
-9, ,-27, ,
-9, ,-27, ,
-7, ,-27, ,
-5, ,-27, ,
-5, ,-27, ,
-5, ,-27, ,
-5, ,-27, ,
-3, ,-27, ,
-1, ,-27, ,
-2, ,-27, ,
0, ,-27, ,
0, ,-27, ,
0, ,-27, ,
1, ,-27, ,
0, ,-27, ,
1, ,-27, ,
2, ,-27, ,
2, ,-27, ,
2, ,-27, ,
3, ,-27, ,
3, ,-27, ,
4, ,-27, ,
2, ,-27, ,
3, ,-27, ,
3, ,-27, ,
3, ,-27, ,
3, ,-27, ,
3, ,-27, ,
3, ,-27, ,
4, ,-27, ,
3, ,-27, ,
3, ,-27, ,
4, ,-27, ,
3, ,-27, ,
3, ,-27, ,
3, ,-27, ,
2, ,-27, ,
2, ,-27, ,
1, ,-27, ,
-1, ,-27, ,
0, ,-27, ,
-2, ,-27, ,
-2, ,-27, ,
-2, ,-27, ,
-3, ,-27, ,
-4, ,-27, ,
-5, ,-27, ,
-6, ,-27, ,
-6, ,-27, ,
-7, ,-27, ,
-6, ,-27, ,
-6, ,-27, ,
-7, ,-27, ,
-6, ,-27, ,
-9, ,-27, ,
-9, ,-27, ,
-8, ,-27, ,
-8, ,-27, ,
-8, ,-27, ,
-7, ,-27, ,
-8, ,-27, ,
-6, ,-27, ,
-7, ,-27, ,
-8, ,-27, ,
-7, ,-27, ,
-7, ,-27, ,
-6, ,-27, ,
-5, ,-27, ,
-6, ,-27, ,
-5, ,-27, ,
-6, ,-27, ,
-5, ,-27, ,
-5, ,-27, ,
-4, ,-27, ,
-3, ,-27, ,
-3, ,-27, ,
-4, ,-27, ,
-2, ,-27, ,
-2, ,-27, ,
-2, ,-27, ,
-2, ,-27, ,
0, ,-27, ,
1, ,-27, ,
2, ,-27, ,
2, ,-27, ,
3, ,-27, ,
2, ,-27, ,
4, ,-27, ,
5, ,-27, ,
5, ,-27, ,
6, ,-27, ,
6, ,-27, ,
6, ,-27, ,
6, ,-27, ,
6, ,-27, ,
7, ,-27, ,
7, ,-27, ,
7, ,-27, ,
6, ,-27, ,
6, ,-27, ,
6, ,-27, ,
7, ,-27, ,
6, ,-27, ,
6, ,-27, ,
7, ,-27, ,
5, ,-27, ,
5, ,-27, ,
5, ,-27, ,
5, ,-27, ,
5, ,-27, ,
4, ,-27, ,
3, ,-27, ,
4, ,-27, ,
4, ,-27, ,
4, ,-27, ,
3, ,-27, ,
1, ,-27, ,
4, ,-27, ,
1, ,-27, ,
1, ,-27, ,
2, ,-27, ,
-1, ,-27, ,
0, ,-27, ,
0, ,-27, ,
-2, ,-27, ,
-2, ,-27, ,
-2, ,-27, ,
-1, ,-27, ,
-2, ,-27, ,
-2, ,-27, ,
-2, ,-27, ,
-2, ,-27, ,
-2, ,-27, ,
-2, ,-27, ,
-3, ,-27, ,
-2, ,-27, ,
-1, ,-27, ,
-2, ,-27, ,
-1, ,-27, ,
-1, ,-27, ,
-2, ,-27, ,
0, ,-27, ,
-1, ,-27, ,
0, ,-27, ,
1, ,-27, ,
0, ,-27, ,
1, ,-27, ,
0, ,-27, ,
1, ,-27, ,
1, ,-27, ,
1, ,-27, ,
2, ,-27, ,
2, ,-27, ,
1, ,-27, ,
3, ,-27, ,
3, ,-27, ,
3, ,-27, ,
3, ,-27, ,
4, ,-27, ,
3, ,-27, ,
6, ,-27, ,
5, ,-27, ,
6, ,-27, ,
7, ,-27, ,
6, ,-27, ,
8, ,-27, ,
8, ,-27, ,
8, ,-27, ,
8, ,-27, ,
8, ,-27, ,
8, ,-27, ,
