raw_data/100% Glycerol, Impulsion 2Hz, Sonde 5MHz, Rampe 0.7Hz/temp0000065.CSV

Format,1.0B,
Memory Length,10000,Memory Length,10000,
IntpDistance,0,IntpDistance,0,
Trigger Address,159,Trigger Address,159,
Trigger Level,2.720E-01,Trigger Level,2.720E-01,
Source,CH1,Source,CH2,
Vertical Units,V,Vertical Units,V,
Vertical Units Div,0,Vertical Units Div,0,
Vertical Units Extend Div,16,Vertical Units Extend Div,16,
Label,,Label,,
Probe Type,0,Probe Type,0,
Probe Ratio,1.000e+00,Probe Ratio,1.000e+00,
Vertical Scale,2.000e-01,Vertical Scale,2.000e+00,
Vertical Position,0.000e+00,Vertical Position,0.000e+00,
Horizontal Units,S,Horizontal Units,S,
Horizontal Scale,5.000E-06,Horizontal Scale,5.000E-06,
Horizontal Position,2.420E-05,Horizontal Position,2.420E-05,
Horizontal Mode,Main,Horizontal Mode,Main,
SincET Mode,Real Time,SincET Mode,Real Time,
Sampling Period,5.000e-09,Sampling Period,5.000e-09,
Horizontal Old Scale,5.000E-06,Horizontal Old Scale,5.000E-06,
Horizontal Old Position,2.420E-05,Horizontal Old Position,2.420E-05,
Firmware,V1.32,Firmware,V1.32,
Mode,Fast,Mode,Fast,
Waveform Data,,Waveform Data,,
1, ,-11, ,
2, ,-12, ,
1, ,-12, ,
2, ,-11, ,
2, ,-11, ,
1, ,-11, ,
2, ,-11, ,
1, ,-11, ,
1, ,-11, ,
2, ,-11, ,
1, ,-11, ,
2, ,-11, ,
1, ,-11, ,
2, ,-12, ,
2, ,-12, ,
1, ,-11, ,
1, ,-11, ,
2, ,-11, ,
0, ,-11, ,
2, ,-11, ,
2, ,-11, ,
1, ,-11, ,
2, ,-11, ,
1, ,-11, ,
2, ,-11, ,
2, ,-12, ,
1, ,-12, ,
1, ,-12, ,
1, ,-11, ,
1, ,-11, ,
1, ,-11, ,
1, ,-11, ,
1, ,-11, ,
2, ,-11, ,
1, ,-11, ,
2, ,-12, ,
2, ,-12, ,
1, ,-11, ,
2, ,-11, ,
1, ,-11, ,
1, ,-11, ,
2, ,-12, ,
1, ,-12, ,
2, ,-12, ,
1, ,-11, ,
1, ,-11, ,
1, ,-11, ,
1, ,-11, ,
2, ,-11, ,
2, ,-11, ,
2, ,-11, ,
1, ,-11, ,
1, ,-11, ,
0, ,-11, ,
1, ,-11, ,
2, ,-11, ,
0, ,-11, ,
2, ,-11, ,
1, ,-11, ,
1, ,-11, ,
1, ,-11, ,
1, ,-11, ,
2, ,-11, ,
1, ,-11, ,
1, ,-11, ,
1, ,-11, ,
1, ,-11, ,
2, ,-11, ,
2, ,-11, ,
1, ,-11, ,
2, ,-11, ,
1, ,-11, ,
0, ,-11, ,
2, ,-11, ,
2, ,-11, ,
3, ,-11, ,
2, ,-11, ,
1, ,-11, ,
2, ,-11, ,
1, ,-11, ,
2, ,-11, ,
2, ,-11, ,
1, ,-11, ,
2, ,-11, ,
2, ,-11, ,
1, ,-11, ,
2, ,-11, ,
2, ,-11, ,
1, ,-11, ,
1, ,-11, ,
1, ,-11, ,
2, ,-11, ,
1, ,-11, ,
1, ,-11, ,
2, ,-11, ,
0, ,-11, ,
1, ,-11, ,
1, ,-11, ,
1, ,-11, ,
1, ,-11, ,
2, ,-12, ,
1, ,-12, ,
2, ,-12, ,
2, ,-12, ,
1, ,-12, ,
2, ,-11, ,
1, ,-11, ,
1, ,-11, ,
2, ,-11, ,
2, ,-11, ,
1, ,-11, ,
1, ,-11, ,
1, ,-11, ,
1, ,-11, ,
1, ,-11, ,
2, ,-11, ,
2, ,-11, ,
0, ,-11, ,
2, ,-11, ,
1, ,-11, ,
1, ,-11, ,
2, ,-11, ,
1, ,-11, ,
2, ,-12, ,
1, ,-12, ,
1, ,-11, ,
1, ,-11, ,
1, ,-11, ,
1, ,-11, ,
1, ,-11, ,
0, ,-11, ,
1, ,-11, ,
1, ,-11, ,
0, ,-11, ,
2, ,-11, ,
1, ,-11, ,
0, ,-11, ,
1, ,-12, ,
1, ,-12, ,
1, ,-12, ,
1, ,-11, ,
1, ,-11, ,
2, ,-11, ,
1, ,-11, ,
1, ,-11, ,
2, ,-11, ,
0, ,-11, ,
2, ,-11, ,
1, ,-11, ,
1, ,-11, ,
1, ,-11, ,
2, ,-11, ,
1, ,-11, ,
2, ,-11, ,
1, ,-11, ,
2, ,-11, ,
2, ,-11, ,
1, ,-11, ,
2, ,-11, ,
0, ,-11, ,
1, ,-11, ,
2, ,-11, ,
1, ,-11, ,
2, ,-11, ,
2, ,-11, ,
-2, ,-11, ,
2, ,-11, ,
-3, ,-11, ,
43, ,-11, ,
112, ,-11, ,
125, ,-12, ,
125, ,-12, ,
124, ,-12, ,
119, ,-11, ,
93, ,-11, ,
-13, ,-11, ,
125, ,-11, ,
125, ,-11, ,
125, ,-11, ,
125, ,-11, ,
125, ,-11, ,
125, ,-11, ,
125, ,-12, ,
125, ,-12, ,
125, ,-12, ,
125, ,-11, ,
125, ,-11, ,
125, ,-11, ,
125, ,-11, ,
125, ,-11, ,
125, ,-11, ,
125, ,-11, ,
125, ,-11, ,
125, ,-11, ,
125, ,-11, ,
125, ,-11, ,
125, ,-11, ,
125, ,-11, ,
125, ,-11, ,
125, ,-11, ,
125, ,-11, ,
125, ,-12, ,
124, ,-12, ,
124, ,-12, ,
120, ,-11, ,
112, ,-11, ,
109, ,-11, ,
103, ,-11, ,
96, ,-12, ,
93, ,-12, ,
88, ,-11, ,
84, ,-11, ,
77, ,-11, ,
73, ,-11, ,
70, ,-11, ,
66, ,-11, ,
61, ,-11, ,
58, ,-11, ,
56, ,-11, ,
53, ,-11, ,
48, ,-11, ,
46, ,-11, ,
44, ,-11, ,
40, ,-11, ,
37, ,-11, ,
37, ,-11, ,
34, ,-11, ,
33, ,-11, ,
30, ,-11, ,
27, ,-12, ,
27, ,-12, ,
25, ,-11, ,
22, ,-11, ,
22, ,-12, ,
19, ,-12, ,
20, ,-12, ,
17, ,-11, ,
15, ,-11, ,
15, ,-11, ,
12, ,-11, ,
11, ,-11, ,
12, ,-11, ,
9, ,-11, ,
9, ,-11, ,
7, ,-11, ,
6, ,-11, ,
7, ,-11, ,
6, ,-11, ,
5, ,-11, ,
5, ,-11, ,
4, ,-11, ,
4, ,-11, ,
3, ,-11, ,
2, ,-11, ,
2, ,-11, ,
1, ,-11, ,
0, ,-11, ,
1, ,-11, ,
-2, ,-11, ,
0, ,-11, ,
0, ,-11, ,
-1, ,-11, ,
-1, ,-12, ,
-2, ,-12, ,
-1, ,-12, ,
-1, ,-12, ,
-2, ,-12, ,
-2, ,-12, ,
-1, ,-11, ,
-2, ,-11, ,
-2, ,-11, ,
-3, ,-11, ,
-2, ,-11, ,
-3, ,-11, ,
-3, ,-11, ,
-3, ,-11, ,
-2, ,-11, ,
-4, ,-11, ,
-2, ,-11, ,
-3, ,-11, ,
-3, ,-11, ,
-3, ,-11, ,
-4, ,-11, ,
-3, ,-11, ,
-2, ,-11, ,
-3, ,-11, ,
-3, ,-11, ,
-4, ,-11, ,
-4, ,-11, ,
-4, ,-11, ,
-4, ,-11, ,
-3, ,-11, ,
-3, ,-11, ,
-4, ,-11, ,
-3, ,-11, ,
-3, ,-11, ,
-4, ,-11, ,
-2, ,-12, ,
-2, ,-12, ,
-2, ,-12, ,
-3, ,-11, ,
-4, ,-12, ,
-2, ,-12, ,
-2, ,-11, ,
-2, ,-11, ,
-1, ,-11, ,
-3, ,-11, ,
-2, ,-11, ,
-2, ,-11, ,
-3, ,-11, ,
-1, ,-11, ,
-2, ,-11, ,
-3, ,-11, ,
-2, ,-11, ,
-2, ,-11, ,
-2, ,-11, ,
-2, ,-11, ,
-2, ,-11, ,
-1, ,-11, ,
-2, ,-11, ,
-2, ,-11, ,
-1, ,-11, ,
-2, ,-11, ,
-1, ,-12, ,
-1, ,-12, ,
-1, ,-11, ,
0, ,-12, ,
-1, ,-12, ,
-1, ,-12, ,
-1, ,-11, ,
-1, ,-12, ,
-1, ,-12, ,
0, ,-12, ,
0, ,-11, ,
-1, ,-11, ,
-1, ,-11, ,
-1, ,-11, ,
-1, ,-11, ,
-2, ,-11, ,
0, ,-11, ,
0, ,-11, ,
0, ,-11, ,
0, ,-11, ,
0, ,-11, ,
0, ,-11, ,
0, ,-11, ,
0, ,-11, ,
0, ,-11, ,
0, ,-11, ,
0, ,-11, ,
0, ,-11, ,
-1, ,-11, ,
-1, ,-11, ,
0, ,-11, ,
-1, ,-11, ,
0, ,-11, ,
0, ,-11, ,
0, ,-11, ,
0, ,-11, ,
0, ,-11, ,
0, ,-11, ,
0, ,-12, ,
1, ,-12, ,
1, ,-12, ,
0, ,-11, ,
0, ,-11, ,
0, ,-11, ,
0, ,-11, ,
1, ,-11, ,
1, ,-11, ,
0, ,-11, ,
0, ,-11, ,
0, ,-11, ,
0, ,-11, ,
1, ,-11, ,
1, ,-12, ,
1, ,-12, ,
1, ,-12, ,
1, ,-12, ,
1, ,-12, ,
1, ,-11, ,
1, ,-11, ,
1, ,-11, ,
0, ,-11, ,
0, ,-11, ,
0, ,-11, ,
0, ,-11, ,
1, ,-12, ,
0, ,-12, ,
0, ,-11, ,
1, ,-11, ,
1, ,-11, ,
0, ,-11, ,
1, ,-11, ,
1, ,-11, ,
2, ,-11, ,
2, ,-11, ,
1, ,-11, ,
1, ,-11, ,
1, ,-11, ,
1, ,-11, ,
2, ,-11, ,
0, ,-11, ,
2, ,-11, ,
1, ,-11, ,
0, ,-11, ,
1, ,-11, ,
1, ,-11, ,
1, ,-11, ,
1, ,-12, ,
1, ,-12, ,
0, ,-12, ,
1, ,-11, ,
1, ,-11, ,
1, ,-11, ,
1, ,-11, ,
1, ,-11, ,
2, ,-11, ,
1, ,-11, ,
1, ,-11, ,
1, ,-11, ,
1, ,-11, ,
1, ,-11, ,
0, ,-11, ,
0, ,-11, ,
1, ,-12, ,
0, ,-12, ,
1, ,-12, ,
0, ,-11, ,
1, ,-11, ,
1, ,-11, ,
0, ,-11, ,
1, ,-11, ,
1, ,-11, ,
1, ,-11, ,
2, ,-11, ,
2, ,-11, ,
0, ,-11, ,
2, ,-12, ,
1, ,-12, ,
0, ,-12, ,
0, ,-11, ,
-1, ,-11, ,
-1, ,-11, ,
-1, ,-11, ,
-2, ,-11, ,
-1, ,-11, ,
-4, ,-11, ,
-2, ,-11, ,
-1, ,-11, ,
-2, ,-11, ,
-2, ,-11, ,
-1, ,-11, ,
-3, ,-11, ,
-3, ,-11, ,
-5, ,-11, ,
-13, ,-11, ,
-22, ,-11, ,
-36, ,-11, ,
-54, ,-11, ,
-116, ,-11, ,
-126, ,-11, ,
-126, ,-11, ,
-126, ,-11, ,
-126, ,-12, ,
-126, ,-12, ,
-126, ,-11, ,
-126, ,-11, ,
-126, ,-11, ,
-126, ,-11, ,
-126, ,-11, ,
-126, ,-11, ,
-126, ,-11, ,
-126, ,-12, ,
-126, ,-12, ,
-126, ,-12, ,
-126, ,-11, ,
-126, ,-12, ,
-126, ,-12, ,
-126, ,-11, ,
-126, ,-11, ,
-126, ,-11, ,
-126, ,-11, ,
-126, ,-11, ,
-126, ,-11, ,
-126, ,-11, ,
-126, ,-11, ,
-126, ,-11, ,
-126, ,-11, ,
-126, ,-11, ,
-125, ,-11, ,
-118, ,-11, ,
73, ,-11, ,
124, ,-11, ,
122, ,-11, ,
106, ,-11, ,
1, ,-12, ,
-46, ,-12, ,
-94, ,-11, ,
-126, ,-11, ,
-126, ,-11, ,
-126, ,-11, ,
-126, ,-11, ,
-126, ,-11, ,
-126, ,-11, ,
-126, ,-11, ,
-126, ,-11, ,
-126, ,-11, ,
-126, ,-11, ,
-122, ,-11, ,
-117, ,-11, ,
-113, ,-11, ,
-105, ,-11, ,
-100, ,-11, ,
-97, ,-11, ,
-94, ,-11, ,
-85, ,-11, ,
-86, ,-11, ,
-78, ,-11, ,
-55, ,-11, ,
125, ,-11, ,
125, ,-11, ,
125, ,-11, ,
125, ,-11, ,
125, ,-11, ,
125, ,-12, ,
125, ,-12, ,
125, ,-11, ,
125, ,-11, ,
125, ,-11, ,
125, ,-11, ,
125, ,-11, ,
125, ,-11, ,
125, ,-11, ,
125, ,-11, ,
125, ,-12, ,
125, ,-12, ,
125, ,-12, ,
125, ,-11, ,
125, ,-11, ,
124, ,-11, ,
117, ,-11, ,
81, ,-11, ,
-98, ,-11, ,
-126, ,-11, ,
-126, ,-11, ,
-126, ,-11, ,
-126, ,-11, ,
-126, ,-11, ,
-126, ,-11, ,
-126, ,-12, ,
-126, ,-12, ,
-126, ,-12, ,
-126, ,-11, ,
-126, ,-11, ,
-126, ,-11, ,
-126, ,-11, ,
-126, ,-11, ,
-126, ,-11, ,
-126, ,-11, ,
-126, ,-11, ,
-126, ,-11, ,
-126, ,-11, ,
-126, ,-11, ,
-126, ,-11, ,
-124, ,-11, ,
-117, ,-11, ,
-37, ,-11, ,
125, ,-11, ,
124, ,-11, ,
121, ,-11, ,
114, ,-11, ,
-75, ,-11, ,
-117, ,-11, ,
-126, ,-11, ,
-126, ,-11, ,
-117, ,-11, ,
-103, ,-11, ,
-80, ,-11, ,
-48, ,-11, ,
18, ,-11, ,
42, ,-11, ,
61, ,-11, ,
73, ,-11, ,
91, ,-11, ,
104, ,-11, ,
113, ,-11, ,
125, ,-11, ,
125, ,-11, ,
125, ,-11, ,
125, ,-11, ,
125, ,-11, ,
125, ,-12, ,
125, ,-12, ,
125, ,-11, ,
125, ,-11, ,
125, ,-11, ,
124, ,-11, ,
121, ,-12, ,
90, ,-12, ,
-10, ,-12, ,
-55, ,-11, ,
-100, ,-11, ,
-126, ,-11, ,
-126, ,-11, ,
-126, ,-11, ,
-126, ,-11, ,
-126, ,-11, ,
-126, ,-11, ,
-126, ,-11, ,
-126, ,-11, ,
-126, ,-12, ,
-126, ,-12, ,
-126, ,-11, ,
-126, ,-11, ,
-126, ,-11, ,
-126, ,-11, ,
-126, ,-11, ,
-126, ,-11, ,
-126, ,-11, ,
-122, ,-11, ,
-117, ,-11, ,
-111, ,-11, ,
-105, ,-11, ,
-72, ,-11, ,
-44, ,-11, ,
-19, ,-11, ,
2, ,-11, ,
28, ,-11, ,
33, ,-11, ,
38, ,-12, ,
42, ,-12, ,
47, ,-12, ,
48, ,-11, ,
48, ,-11, ,
47, ,-11, ,
53, ,-11, ,
54, ,-11, ,
60, ,-11, ,
64, ,-11, ,
76, ,-12, ,
83, ,-12, ,
88, ,-11, ,
95, ,-11, ,
104, ,-11, ,
105, ,-11, ,
105, ,-11, ,
104, ,-11, ,
101, ,-11, ,
99, ,-12, ,
96, ,-12, ,
94, ,-12, ,
87, ,-11, ,
83, ,-12, ,
80, ,-12, ,
76, ,-11, ,
69, ,-11, ,
67, ,-11, ,
61, ,-11, ,
56, ,-12, ,
44, ,-12, ,
35, ,-11, ,
27, ,-11, ,
19, ,-11, ,
-1, ,-11, ,
-8, ,-11, ,
-15, ,-11, ,
-20, ,-11, ,
-25, ,-11, ,
-26, ,-11, ,
-24, ,-11, ,
-21, ,-11, ,
-9, ,-11, ,
1, ,-11, ,
10, ,-11, ,
19, ,-12, ,
36, ,-12, ,
44, ,-11, ,
52, ,-11, ,
57, ,-11, ,
64, ,-11, ,
69, ,-12, ,
72, ,-12, ,
73, ,-12, ,
75, ,-11, ,
78, ,-11, ,
80, ,-11, ,
82, ,-11, ,
93, ,-11, ,
100, ,-11, ,
105, ,-11, ,
113, ,-12, ,
125, ,-12, ,
125, ,-11, ,
125, ,-11, ,
125, ,-11, ,
125, ,-11, ,
125, ,-11, ,
125, ,-11, ,
125, ,-11, ,
125, ,-11, ,
124, ,-12, ,
124, ,-12, ,
123, ,-11, ,
113, ,-11, ,
112, ,-11, ,
106, ,-11, ,
105, ,-12, ,
99, ,-12, ,
93, ,-11, ,
90, ,-11, ,
86, ,-11, ,
76, ,-11, ,
71, ,-11, ,
63, ,-11, ,
57, ,-11, ,
39, ,-11, ,
31, ,-11, ,
24, ,-11, ,
13, ,-11, ,
-5, ,-11, ,
-12, ,-11, ,
-21, ,-11, ,
-26, ,-11, ,
-35, ,-11, ,
-40, ,-11, ,
-41, ,-11, ,
-44, ,-11, ,
-44, ,-11, ,
-41, ,-11, ,
-41, ,-11, ,
-38, ,-11, ,
-35, ,-11, ,
-34, ,-11, ,
-31, ,-11, ,
-32, ,-11, ,
-27, ,-12, ,
-23, ,-12, ,
-22, ,-11, ,
-19, ,-11, ,
-14, ,-11, ,
-11, ,-11, ,
-8, ,-11, ,
-4, ,-11, ,
5, ,-11, ,
11, ,-11, ,
18, ,-12, ,
26, ,-12, ,
39, ,-12, ,
46, ,-11, ,
54, ,-11, ,
60, ,-11, ,
74, ,-11, ,
79, ,-11, ,
83, ,-11, ,
89, ,-11, ,
93, ,-11, ,
93, ,-11, ,
94, ,-11, ,
92, ,-11, ,
90, ,-11, ,
88, ,-11, ,
85, ,-11, ,
83, ,-11, ,
74, ,-11, ,
69, ,-11, ,
68, ,-11, ,
61, ,-11, ,
52, ,-11, ,
49, ,-11, ,
43, ,-11, ,
38, ,-12, ,
30, ,-12, ,
23, ,-11, ,
20, ,-11, ,
15, ,-11, ,
4, ,-11, ,
2, ,-11, ,
-3, ,-11, ,
-6, ,-11, ,
-10, ,-11, ,
-12, ,-11, ,
-11, ,-11, ,
-13, ,-11, ,
-10, ,-11, ,
-5, ,-12, ,
-5, ,-12, ,
0, ,-12, ,
10, ,-11, ,
14, ,-12, ,
21, ,-12, ,
25, ,-11, ,
37, ,-11, ,
45, ,-12, ,
50, ,-12, ,
57, ,-12, ,
67, ,-11, ,
72, ,-11, ,
77, ,-11, ,
81, ,-11, ,
87, ,-11, ,
92, ,-11, ,
93, ,-11, ,
97, ,-12, ,
101, ,-12, ,
100, ,-11, ,
103, ,-11, ,
104, ,-11, ,
105, ,-11, ,
106, ,-11, ,
105, ,-11, ,
106, ,-11, ,
105, ,-11, ,
105, ,-12, ,
104, ,-12, ,
103, ,-11, ,
99, ,-11, ,
98, ,-11, ,
94, ,-11, ,
91, ,-11, ,
84, ,-11, ,
76, ,-11, ,
71, ,-11, ,
62, ,-11, ,
41, ,-11, ,
32, ,-11, ,
17, ,-11, ,
2, ,-11, ,
-35, ,-11, ,
-54, ,-12, ,
-74, ,-12, ,
-95, ,-12, ,
-126, ,-12, ,
-126, ,-11, ,
-126, ,-11, ,
-126, ,-12, ,
-126, ,-12, ,
-126, ,-11, ,
-126, ,-11, ,
-126, ,-11, ,
-126, ,-11, ,
-126, ,-11, ,
-126, ,-11, ,
-126, ,-11, ,
-126, ,-11, ,
-126, ,-11, ,
-126, ,-11, ,
-126, ,-11, ,
-126, ,-11, ,
-126, ,-11, ,
-126, ,-11, ,
-126, ,-11, ,
-126, ,-11, ,
-126, ,-11, ,
-126, ,-11, ,
-126, ,-11, ,
-126, ,-11, ,
-126, ,-11, ,
-126, ,-11, ,
-126, ,-11, ,
-126, ,-11, ,
-126, ,-12, ,
-126, ,-12, ,
-126, ,-11, ,
-126, ,-12, ,
-126, ,-12, ,
-126, ,-11, ,
-126, ,-12, ,
-126, ,-12, ,
-125, ,-11, ,
-120, ,-11, ,
-116, ,-11, ,
-105, ,-11, ,
-82, ,-11, ,
-22, ,-11, ,
93, ,-11, ,
125, ,-11, ,
125, ,-11, ,
125, ,-11, ,
125, ,-11, ,
125, ,-11, ,
125, ,-11, ,
125, ,-11, ,
125, ,-11, ,
125, ,-11, ,
125, ,-11, ,
125, ,-11, ,
125, ,-11, ,
125, ,-11, ,
125, ,-11, ,
125, ,-11, ,
125, ,-11, ,
125, ,-11, ,
125, ,-11, ,
125, ,-11, ,
125, ,-11, ,
125, ,-11, ,
125, ,-11, ,
125, ,-11, ,
125, ,-11, ,
125, ,-11, ,
125, ,-12, ,
125, ,-12, ,
125, ,-11, ,
125, ,-11, ,
124, ,-12, ,
123, ,-12, ,
117, ,-12, ,
58, ,-11, ,
19, ,-11, ,
-22, ,-11, ,
-66, ,-11, ,
-124, ,-11, ,
-126, ,-11, ,
-126, ,-11, ,
-126, ,-11, ,
-125, ,-11, ,
-115, ,-11, ,
-96, ,-11, ,
-74, ,-11, ,
-31, ,-11, ,
-9, ,-11, ,
9, ,-11, ,
24, ,-11, ,
47, ,-11, ,
53, ,-12, ,
62, ,-12, ,
65, ,-11, ,
70, ,-11, ,
71, ,-11, ,
69, ,-11, ,
68, ,-11, ,
62, ,-11, ,
55, ,-11, ,
49, ,-11, ,
41, ,-11, ,
18, ,-11, ,
8, ,-11, ,
-7, ,-11, ,
-20, ,-12, ,
-50, ,-12, ,
-63, ,-11, ,
-74, ,-11, ,
-85, ,-11, ,
-94, ,-11, ,
-93, ,-11, ,
-93, ,-11, ,
-88, ,-11, ,
-68, ,-11, ,
-57, ,-11, ,
-42, ,-11, ,
-31, ,-11, ,
-6, ,-11, ,
8, ,-11, ,
15, ,-11, ,
25, ,-11, ,
35, ,-11, ,
36, ,-11, ,
38, ,-11, ,
34, ,-11, ,
28, ,-11, ,
23, ,-11, ,
15, ,-11, ,
7, ,-11, ,
-12, ,-11, ,
-26, ,-11, ,
-36, ,-11, ,
-47, ,-11, ,
-72, ,-11, ,
-82, ,-11, ,
-92, ,-11, ,
-103, ,-11, ,
-119, ,-11, ,
-126, ,-11, ,
-126, ,-11, ,
-126, ,-11, ,
-126, ,-12, ,
-126, ,-12, ,
-126, ,-11, ,
-126, ,-11, ,
-116, ,-11, ,
-110, ,-11, ,
-105, ,-11, ,
-97, ,-11, ,
-84, ,-11, ,
-78, ,-11, ,
-70, ,-11, ,
-64, ,-11, ,
-54, ,-11, ,
-54, ,-11, ,
-51, ,-11, ,
-51, ,-11, ,
-50, ,-11, ,
-50, ,-11, ,
-52, ,-11, ,
-54, ,-11, ,
-57, ,-11, ,
-60, ,-11, ,
-62, ,-11, ,
-68, ,-11, ,
-73, ,-11, ,
-76, ,-11, ,
-80, ,-11, ,
-82, ,-11, ,
-88, ,-11, ,
-90, ,-11, ,
-93, ,-11, ,
-94, ,-11, ,
-94, ,-11, ,
-93, ,-11, ,
-93, ,-11, ,
-91, ,-11, ,
-84, ,-11, ,
-83, ,-11, ,
-79, ,-11, ,
-74, ,-11, ,
-66, ,-11, ,
-59, ,-11, ,
-54, ,-11, ,
-48, ,-11, ,
-36, ,-11, ,
-34, ,-11, ,
-25, ,-11, ,
-22, ,-11, ,
-12, ,-11, ,
-5, ,-11, ,
-3, ,-11, ,
3, ,-11, ,
11, ,-11, ,
14, ,-12, ,
20, ,-12, ,
21, ,-11, ,
28, ,-11, ,
31, ,-11, ,
33, ,-11, ,
35, ,-11, ,
37, ,-11, ,
36, ,-11, ,
37, ,-11, ,
35, ,-11, ,
34, ,-11, ,
35, ,-11, ,
30, ,-11, ,
28, ,-11, ,
25, ,-11, ,
20, ,-11, ,
19, ,-11, ,
15, ,-11, ,
10, ,-11, ,
10, ,-11, ,
7, ,-11, ,
7, ,-11, ,
5, ,-11, ,
4, ,-11, ,
4, ,-11, ,
1, ,-11, ,
2, ,-11, ,
2, ,-11, ,
1, ,-11, ,
1, ,-11, ,
0, ,-11, ,
-2, ,-11, ,
-2, ,-11, ,
-3, ,-11, ,
-6, ,-11, ,
-8, ,-11, ,
-10, ,-11, ,
-11, ,-11, ,
-17, ,-11, ,
-21, ,-11, ,
-24, ,-11, ,
-30, ,-11, ,
-37, ,-11, ,
-40, ,-11, ,
-47, ,-11, ,
-49, ,-11, ,
-59, ,-11, ,
-65, ,-11, ,
-67, ,-11, ,
-73, ,-11, ,
-80, ,-11, ,
-83, ,-11, ,
-85, ,-11, ,
-88, ,-11, ,
-92, ,-11, ,
-95, ,-11, ,
-96, ,-11, ,
-96, ,-11, ,
-96, ,-11, ,
-95, ,-11, ,
-96, ,-11, ,
-94, ,-11, ,
-89, ,-11, ,
-89, ,-11, ,
-84, ,-11, ,
-83, ,-11, ,
-76, ,-11, ,
-72, ,-11, ,
-70, ,-11, ,
-65, ,-11, ,
-59, ,-11, ,
-56, ,-12, ,
-51, ,-12, ,
-51, ,-11, ,
-45, ,-11, ,
-41, ,-11, ,
-40, ,-11, ,
-38, ,-11, ,
-34, ,-11, ,
-34, ,-11, ,
-30, ,-11, ,
-30, ,-11, ,
-27, ,-11, ,
-25, ,-11, ,
-26, ,-11, ,
-25, ,-11, ,
-25, ,-11, ,
-26, ,-11, ,
-25, ,-11, ,
-27, ,-11, ,
-29, ,-12, ,
-29, ,-12, ,
-30, ,-11, ,
-30, ,-11, ,
-31, ,-11, ,
-32, ,-11, ,
-30, ,-11, ,
-31, ,-11, ,
-32, ,-11, ,
-30, ,-11, ,
-28, ,-11, ,
-26, ,-11, ,
-24, ,-11, ,
-22, ,-11, ,
-19, ,-11, ,
-17, ,-11, ,
-11, ,-11, ,
-7, ,-11, ,
-4, ,-11, ,
-1, ,-12, ,
8, ,-12, ,
11, ,-11, ,
18, ,-11, ,
22, ,-11, ,
33, ,-11, ,
42, ,-11, ,
47, ,-11, ,
56, ,-11, ,
75, ,-11, ,
85, ,-11, ,
96, ,-11, ,
105, ,-11, ,
125, ,-11, ,
125, ,-11, ,
125, ,-11, ,
125, ,-11, ,
125, ,-12, ,
125, ,-12, ,
125, ,-11, ,
125, ,-11, ,
125, ,-11, ,
125, ,-11, ,
125, ,-11, ,
125, ,-11, ,
125, ,-11, ,
125, ,-11, ,
125, ,-11, ,
125, ,-11, ,
125, ,-11, ,
125, ,-11, ,
125, ,-11, ,
125, ,-11, ,
125, ,-11, ,
125, ,-11, ,
125, ,-11, ,
125, ,-11, ,
125, ,-11, ,
125, ,-11, ,
125, ,-11, ,
125, ,-11, ,
125, ,-11, ,
125, ,-11, ,
125, ,-11, ,
125, ,-11, ,
125, ,-11, ,
125, ,-11, ,
125, ,-11, ,
125, ,-12, ,
124, ,-12, ,
121, ,-11, ,
111, ,-11, ,
94, ,-11, ,
43, ,-11, ,
4, ,-11, ,
-44, ,-11, ,
-96, ,-11, ,
-126, ,-11, ,
-126, ,-11, ,
-126, ,-11, ,
-126, ,-11, ,
-126, ,-11, ,
-126, ,-11, ,
-126, ,-11, ,
-126, ,-11, ,
-126, ,-11, ,
-126, ,-11, ,
-126, ,-11, ,
-126, ,-12, ,
-126, ,-12, ,
-126, ,-11, ,
-126, ,-11, ,
-126, ,-11, ,
-126, ,-11, ,
-126, ,-11, ,
-126, ,-11, ,
-126, ,-11, ,
-126, ,-11, ,
-126, ,-11, ,
-126, ,-11, ,
-126, ,-11, ,
-126, ,-11, ,
-126, ,-11, ,
-126, ,-11, ,
-126, ,-11, ,
-126, ,-11, ,
-126, ,-11, ,
-126, ,-11, ,
-126, ,-11, ,
-126, ,-11, ,
-126, ,-11, ,
-126, ,-11, ,
-126, ,-11, ,
-122, ,-12, ,
-115, ,-12, ,
-110, ,-11, ,
-105, ,-11, ,
-96, ,-11, ,
-94, ,-11, ,
-89, ,-11, ,
-83, ,-11, ,
-74, ,-11, ,
-64, ,-11, ,
-48, ,-11, ,
-11, ,-11, ,
76, ,-11, ,
98, ,-12, ,
100, ,-12, ,
89, ,-11, ,
68, ,-11, ,
67, ,-11, ,
65, ,-11, ,
61, ,-11, ,
51, ,-11, ,
43, ,-11, ,
39, ,-11, ,
36, ,-11, ,
30, ,-11, ,
30, ,-11, ,
30, ,-11, ,
30, ,-11, ,
31, ,-11, ,
34, ,-11, ,
35, ,-11, ,
37, ,-11, ,
43, ,-11, ,
47, ,-11, ,
47, ,-11, ,
52, ,-11, ,
57, ,-12, ,
57, ,-12, ,
60, ,-11, ,
60, ,-11, ,
59, ,-11, ,
58, ,-11, ,
58, ,-11, ,
57, ,-11, ,
56, ,-11, ,
54, ,-11, ,
54, ,-11, ,
54, ,-11, ,
54, ,-11, ,
56, ,-11, ,
57, ,-11, ,
59, ,-11, ,
64, ,-11, ,
64, ,-11, ,
70, ,-11, ,
73, ,-11, ,
82, ,-11, ,
87, ,-11, ,
92, ,-11, ,
97, ,-11, ,
105, ,-11, ,
108, ,-11, ,
114, ,-11, ,
115, ,-11, ,
120, ,-11, ,
123, ,-11, ,
121, ,-11, ,
120, ,-11, ,
118, ,-11, ,
115, ,-12, ,
112, ,-12, ,
109, ,-11, ,
98, ,-11, ,
94, ,-11, ,
88, ,-11, ,
81, ,-11, ,
69, ,-11, ,
61, ,-11, ,
58, ,-11, ,
51, ,-11, ,
42, ,-11, ,
38, ,-11, ,
35, ,-11, ,
32, ,-11, ,
25, ,-11, ,
22, ,-11, ,
21, ,-11, ,
19, ,-11, ,
17, ,-11, ,
18, ,-11, ,
17, ,-11, ,
17, ,-11, ,
16, ,-11, ,
17, ,-11, ,
16, ,-11, ,
16, ,-11, ,
17, ,-11, ,
17, ,-11, ,
16, ,-11, ,
16, ,-11, ,
17, ,-11, ,
16, ,-11, ,
17, ,-11, ,
16, ,-11, ,
16, ,-11, ,
16, ,-11, ,
16, ,-11, ,
16, ,-11, ,
17, ,-11, ,
17, ,-11, ,
17, ,-11, ,
16, ,-11, ,
17, ,-11, ,
18, ,-11, ,
16, ,-11, ,
18, ,-11, ,
22, ,-11, ,
20, ,-11, ,
23, ,-11, ,
23, ,-11, ,
23, ,-11, ,
25, ,-11, ,
25, ,-11, ,
25, ,-11, ,
26, ,-11, ,
24, ,-12, ,
25, ,-12, ,
23, ,-11, ,
22, ,-11, ,
22, ,-11, ,
19, ,-11, ,
19, ,-11, ,
15, ,-11, ,
13, ,-11, ,
12, ,-11, ,
9, ,-11, ,
4, ,-11, ,
2, ,-11, ,
0, ,-11, ,
-2, ,-11, ,
-6, ,-11, ,
-10, ,-11, ,
-11, ,-11, ,
-15, ,-11, ,
-20, ,-11, ,
-21, ,-11, ,
-25, ,-11, ,
-27, ,-11, ,
-30, ,-11, ,
-34, ,-11, ,
-35, ,-12, ,
-37, ,-12, ,
-39, ,-12, ,
-40, ,-11, ,
-44, ,-11, ,
-44, ,-11, ,
-46, ,-11, ,
-46, ,-11, ,
-48, ,-11, ,
-49, ,-11, ,
-49, ,-11, ,
-48, ,-11, ,
-48, ,-11, ,
-47, ,-12, ,
-45, ,-12, ,
-46, ,-11, ,
-43, ,-11, ,
-43, ,-11, ,
-41, ,-11, ,
-37, ,-11, ,
-35, ,-11, ,
-34, ,-11, ,
-28, ,-11, ,
-27, ,-11, ,
-24, ,-11, ,
-22, ,-11, ,
-16, ,-11, ,
-13, ,-11, ,
-10, ,-11, ,
-7, ,-11, ,
-2, ,-11, ,
0, ,-11, ,
3, ,-11, ,
4, ,-11, ,
11, ,-11, ,
13, ,-11, ,
15, ,-11, ,
16, ,-11, ,
20, ,-11, ,
20, ,-12, ,
21, ,-12, ,
21, ,-12, ,
22, ,-12, ,
24, ,-12, ,
23, ,-11, ,
23, ,-11, ,
24, ,-11, ,
23, ,-11, ,
23, ,-11, ,
21, ,-11, ,
19, ,-11, ,
19, ,-11, ,
17, ,-11, ,
18, ,-12, ,
15, ,-12, ,
15, ,-11, ,
14, ,-11, ,
13, ,-11, ,
12, ,-11, ,
11, ,-11, ,
10, ,-11, ,
10, ,-11, ,
9, ,-11, ,
7, ,-11, ,
8, ,-11, ,
7, ,-11, ,
6, ,-11, ,
6, ,-12, ,
5, ,-12, ,
5, ,-12, ,
3, ,-11, ,
1, ,-12, ,
2, ,-12, ,
-1, ,-11, ,
-3, ,-11, ,
-4, ,-11, ,
-8, ,-11, ,
-8, ,-11, ,
-11, ,-11, ,
-17, ,-11, ,
-18, ,-11, ,
-23, ,-11, ,
-30, ,-11, ,
-33, ,-11, ,
-37, ,-11, ,
-41, ,-11, ,
-52, ,-11, ,
-60, ,-11, ,
-64, ,-11, ,
-72, ,-11, ,
-85, ,-11, ,
-91, ,-12, ,
-99, ,-12, ,
-105, ,-11, ,
-119, ,-11, ,
-126, ,-11, ,
-126, ,-11, ,
-126, ,-11, ,
-126, ,-11, ,
-126, ,-11, ,
-126, ,-11, ,
-126, ,-11, ,
-126, ,-11, ,
-126, ,-11, ,
-126, ,-11, ,
-126, ,-11, ,
-126, ,-11, ,
-126, ,-12, ,
-126, ,-12, ,
-126, ,-12, ,
-126, ,-11, ,
-126, ,-11, ,
-122, ,-11, ,
-116, ,-11, ,
-109, ,-11, ,
-105, ,-11, ,
-100, ,-11, ,
-98, ,-11, ,
-88, ,-11, ,
-86, ,-11, ,
-81, ,-11, ,
-79, ,-11, ,
-72, ,-11, ,
-67, ,-11, ,
-65, ,-11, ,
-63, ,-11, ,
-56, ,-11, ,
-54, ,-11, ,
-50, ,-12, ,
-48, ,-12, ,
-41, ,-12, ,
-35, ,-11, ,
-15, ,-11, ,
28, ,-11, ,
125, ,-11, ,
125, ,-11, ,
125, ,-11, ,
125, ,-11, ,
125, ,-11, ,
125, ,-11, ,
125, ,-11, ,
125, ,-11, ,
125, ,-11, ,
125, ,-11, ,
125, ,-11, ,
125, ,-11, ,
125, ,-11, ,
