raw_data/100% Glycerol, Impulsion 2Hz, Sonde 5MHz, Rampe 0.7Hz/temp0000271.CSV

Format,1.0B,
Memory Length,10000,Memory Length,10000,
IntpDistance,0,IntpDistance,0,
Trigger Address,159,Trigger Address,159,
Trigger Level,2.720E-01,Trigger Level,2.720E-01,
Source,CH1,Source,CH2,
Vertical Units,V,Vertical Units,V,
Vertical Units Div,0,Vertical Units Div,0,
Vertical Units Extend Div,16,Vertical Units Extend Div,16,
Label,,Label,,
Probe Type,0,Probe Type,0,
Probe Ratio,1.000e+00,Probe Ratio,1.000e+00,
Vertical Scale,2.000e-01,Vertical Scale,2.000e+00,
Vertical Position,0.000e+00,Vertical Position,0.000e+00,
Horizontal Units,S,Horizontal Units,S,
Horizontal Scale,5.000E-06,Horizontal Scale,5.000E-06,
Horizontal Position,2.420E-05,Horizontal Position,2.420E-05,
Horizontal Mode,Main,Horizontal Mode,Main,
SincET Mode,Real Time,SincET Mode,Real Time,
Sampling Period,5.000e-09,Sampling Period,5.000e-09,
Horizontal Old Scale,5.000E-06,Horizontal Old Scale,5.000E-06,
Horizontal Old Position,2.420E-05,Horizontal Old Position,2.420E-05,
Firmware,V1.32,Firmware,V1.32,
Mode,Fast,Mode,Fast,
Waveform Data,,Waveform Data,,
2, ,19, ,
2, ,19, ,
2, ,19, ,
2, ,19, ,
2, ,19, ,
1, ,19, ,
2, ,19, ,
2, ,19, ,
1, ,19, ,
2, ,19, ,
2, ,19, ,
1, ,19, ,
3, ,19, ,
2, ,19, ,
1, ,19, ,
2, ,19, ,
1, ,19, ,
1, ,19, ,
2, ,19, ,
1, ,19, ,
3, ,19, ,
2, ,19, ,
2, ,19, ,
3, ,19, ,
1, ,19, ,
3, ,19, ,
2, ,19, ,
2, ,19, ,
2, ,19, ,
2, ,19, ,
1, ,19, ,
2, ,19, ,
1, ,19, ,
3, ,19, ,
2, ,19, ,
1, ,19, ,
1, ,19, ,
1, ,19, ,
2, ,19, ,
3, ,19, ,
3, ,19, ,
3, ,19, ,
3, ,19, ,
1, ,19, ,
3, ,19, ,
2, ,19, ,
2, ,19, ,
3, ,19, ,
2, ,19, ,
2, ,19, ,
2, ,19, ,
2, ,19, ,
3, ,19, ,
1, ,19, ,
2, ,19, ,
2, ,19, ,
1, ,19, ,
2, ,19, ,
2, ,19, ,
2, ,19, ,
1, ,19, ,
2, ,19, ,
2, ,19, ,
2, ,19, ,
1, ,19, ,
2, ,19, ,
3, ,19, ,
1, ,19, ,
3, ,19, ,
2, ,19, ,
2, ,19, ,
3, ,19, ,
1, ,19, ,
3, ,19, ,
2, ,19, ,
2, ,19, ,
3, ,19, ,
2, ,19, ,
1, ,19, ,
2, ,19, ,
2, ,19, ,
2, ,19, ,
3, ,19, ,
3, ,19, ,
2, ,19, ,
2, ,19, ,
1, ,19, ,
3, ,19, ,
2, ,19, ,
2, ,19, ,
2, ,19, ,
1, ,19, ,
2, ,19, ,
2, ,19, ,
1, ,19, ,
2, ,19, ,
1, ,19, ,
2, ,19, ,
2, ,19, ,
2, ,19, ,
2, ,19, ,
1, ,19, ,
2, ,19, ,
2, ,19, ,
2, ,19, ,
2, ,19, ,
3, ,19, ,
3, ,19, ,
3, ,19, ,
2, ,19, ,
1, ,19, ,
3, ,19, ,
3, ,19, ,
3, ,19, ,
2, ,19, ,
2, ,19, ,
3, ,19, ,
2, ,19, ,
2, ,19, ,
2, ,19, ,
1, ,19, ,
2, ,19, ,
3, ,19, ,
2, ,19, ,
2, ,19, ,
1, ,19, ,
2, ,19, ,
1, ,19, ,
2, ,19, ,
2, ,19, ,
2, ,19, ,
2, ,19, ,
2, ,19, ,
1, ,19, ,
1, ,19, ,
2, ,19, ,
2, ,19, ,
2, ,19, ,
2, ,19, ,
2, ,19, ,
3, ,19, ,
2, ,19, ,
1, ,19, ,
2, ,19, ,
1, ,19, ,
2, ,19, ,
3, ,19, ,
2, ,19, ,
2, ,19, ,
1, ,19, ,
2, ,19, ,
1, ,19, ,
1, ,19, ,
2, ,19, ,
3, ,19, ,
1, ,19, ,
3, ,19, ,
2, ,19, ,
1, ,19, ,
2, ,19, ,
2, ,19, ,
2, ,19, ,
3, ,19, ,
2, ,19, ,
3, ,19, ,
3, ,19, ,
4, ,19, ,
-1, ,19, ,
4, ,19, ,
42, ,19, ,
125, ,19, ,
125, ,19, ,
125, ,19, ,
124, ,19, ,
94, ,19, ,
-10, ,19, ,
11, ,19, ,
125, ,19, ,
125, ,19, ,
125, ,19, ,
125, ,19, ,
125, ,19, ,
125, ,19, ,
125, ,19, ,
125, ,19, ,
125, ,19, ,
125, ,19, ,
125, ,19, ,
125, ,19, ,
125, ,19, ,
125, ,19, ,
125, ,19, ,
125, ,19, ,
125, ,19, ,
125, ,19, ,
125, ,19, ,
125, ,19, ,
125, ,19, ,
125, ,19, ,
125, ,19, ,
125, ,19, ,
125, ,19, ,
125, ,19, ,
124, ,19, ,
124, ,19, ,
118, ,19, ,
108, ,19, ,
105, ,19, ,
101, ,19, ,
99, ,19, ,
90, ,19, ,
85, ,19, ,
83, ,19, ,
76, ,19, ,
71, ,19, ,
68, ,19, ,
63, ,19, ,
62, ,19, ,
56, ,19, ,
53, ,19, ,
51, ,19, ,
48, ,19, ,
44, ,19, ,
43, ,19, ,
40, ,19, ,
39, ,19, ,
35, ,19, ,
32, ,19, ,
31, ,19, ,
29, ,19, ,
27, ,19, ,
27, ,19, ,
24, ,19, ,
22, ,19, ,
21, ,19, ,
18, ,19, ,
19, ,19, ,
15, ,19, ,
14, ,19, ,
15, ,19, ,
12, ,19, ,
12, ,19, ,
11, ,19, ,
9, ,19, ,
9, ,19, ,
8, ,19, ,
7, ,19, ,
7, ,19, ,
5, ,19, ,
5, ,19, ,
5, ,19, ,
3, ,19, ,
3, ,19, ,
3, ,19, ,
1, ,19, ,
4, ,19, ,
2, ,19, ,
2, ,19, ,
1, ,19, ,
1, ,19, ,
1, ,19, ,
0, ,19, ,
-1, ,19, ,
-1, ,19, ,
-1, ,19, ,
-1, ,19, ,
-1, ,19, ,
-3, ,19, ,
-2, ,19, ,
-3, ,19, ,
-2, ,19, ,
-2, ,19, ,
-2, ,19, ,
-2, ,19, ,
-2, ,19, ,
-2, ,19, ,
-2, ,19, ,
-3, ,19, ,
-4, ,19, ,
-3, ,19, ,
-4, ,19, ,
-2, ,19, ,
-3, ,19, ,
-3, ,19, ,
-3, ,19, ,
-2, ,19, ,
-3, ,19, ,
-2, ,19, ,
-3, ,19, ,
-2, ,19, ,
-2, ,19, ,
-2, ,19, ,
-2, ,19, ,
-3, ,19, ,
-2, ,19, ,
-3, ,19, ,
-3, ,19, ,
-3, ,19, ,
-3, ,19, ,
-4, ,19, ,
-2, ,19, ,
-2, ,19, ,
-2, ,19, ,
-1, ,19, ,
-2, ,19, ,
-1, ,19, ,
-1, ,19, ,
-2, ,19, ,
-1, ,19, ,
-2, ,19, ,
-2, ,19, ,
-1, ,19, ,
-2, ,19, ,
-2, ,19, ,
-1, ,19, ,
-1, ,19, ,
-1, ,19, ,
-2, ,19, ,
-1, ,19, ,
-1, ,19, ,
-1, ,19, ,
0, ,19, ,
0, ,19, ,
-1, ,19, ,
0, ,19, ,
0, ,19, ,
-1, ,19, ,
0, ,19, ,
-2, ,19, ,
0, ,19, ,
-1, ,19, ,
-1, ,19, ,
0, ,19, ,
0, ,19, ,
-1, ,19, ,
0, ,19, ,
-2, ,19, ,
0, ,19, ,
0, ,19, ,
0, ,19, ,
0, ,19, ,
0, ,19, ,
0, ,19, ,
0, ,19, ,
0, ,19, ,
1, ,19, ,
1, ,19, ,
0, ,19, ,
0, ,19, ,
1, ,19, ,
0, ,19, ,
1, ,19, ,
1, ,19, ,
1, ,19, ,
1, ,19, ,
1, ,19, ,
2, ,19, ,
0, ,19, ,
1, ,19, ,
0, ,19, ,
-1, ,19, ,
-1, ,19, ,
-39, ,19, ,
-107, ,19, ,
-126, ,19, ,
-126, ,19, ,
-126, ,19, ,
-126, ,19, ,
-126, ,19, ,
-126, ,19, ,
-126, ,19, ,
-126, ,19, ,
-126, ,19, ,
-126, ,19, ,
-126, ,19, ,
-126, ,19, ,
-126, ,19, ,
-124, ,19, ,
-24, ,19, ,
125, ,19, ,
125, ,19, ,
125, ,19, ,
125, ,19, ,
125, ,19, ,
125, ,19, ,
125, ,19, ,
125, ,19, ,
125, ,19, ,
125, ,19, ,
125, ,19, ,
125, ,19, ,
125, ,19, ,
125, ,19, ,
125, ,19, ,
125, ,19, ,
124, ,19, ,
123, ,19, ,
112, ,19, ,
-23, ,19, ,
-126, ,19, ,
-126, ,19, ,
-126, ,19, ,
-126, ,19, ,
-126, ,19, ,
-126, ,19, ,
-126, ,19, ,
-126, ,19, ,
-126, ,19, ,
-126, ,19, ,
-126, ,19, ,
-126, ,19, ,
-126, ,19, ,
-126, ,19, ,
-126, ,19, ,
-126, ,19, ,
-126, ,19, ,
-126, ,19, ,
-126, ,19, ,
-126, ,19, ,
-120, ,19, ,
-112, ,19, ,
86, ,19, ,
125, ,19, ,
125, ,19, ,
125, ,19, ,
125, ,19, ,
125, ,19, ,
125, ,19, ,
125, ,19, ,
125, ,19, ,
125, ,19, ,
125, ,19, ,
125, ,19, ,
125, ,19, ,
125, ,19, ,
125, ,19, ,
125, ,19, ,
125, ,19, ,
125, ,19, ,
124, ,19, ,
124, ,19, ,
116, ,19, ,
104, ,19, ,
106, ,19, ,
116, ,19, ,
125, ,19, ,
125, ,19, ,
125, ,19, ,
125, ,19, ,
125, ,19, ,
125, ,19, ,
125, ,19, ,
125, ,19, ,
124, ,19, ,
122, ,19, ,
117, ,19, ,
111, ,19, ,
107, ,19, ,
93, ,19, ,
88, ,19, ,
82, ,19, ,
77, ,19, ,
68, ,19, ,
65, ,19, ,
62, ,19, ,
61, ,19, ,
55, ,19, ,
54, ,19, ,
50, ,19, ,
48, ,19, ,
41, ,19, ,
39, ,19, ,
34, ,19, ,
30, ,19, ,
16, ,19, ,
4, ,19, ,
-4, ,19, ,
-15, ,19, ,
-35, ,19, ,
-40, ,19, ,
-47, ,19, ,
-48, ,19, ,
-46, ,19, ,
-40, ,19, ,
-35, ,19, ,
-30, ,19, ,
-17, ,19, ,
-7, ,19, ,
-2, ,19, ,
3, ,19, ,
16, ,19, ,
18, ,19, ,
21, ,19, ,
24, ,19, ,
27, ,19, ,
28, ,19, ,
28, ,19, ,
28, ,19, ,
28, ,19, ,
28, ,19, ,
30, ,19, ,
30, ,19, ,
35, ,19, ,
37, ,19, ,
37, ,19, ,
40, ,19, ,
42, ,19, ,
42, ,19, ,
42, ,19, ,
42, ,19, ,
41, ,19, ,
40, ,19, ,
39, ,19, ,
39, ,19, ,
37, ,19, ,
36, ,19, ,
35, ,19, ,
34, ,19, ,
32, ,19, ,
33, ,19, ,
29, ,19, ,
30, ,19, ,
29, ,19, ,
27, ,19, ,
24, ,19, ,
24, ,19, ,
22, ,19, ,
22, ,19, ,
21, ,19, ,
20, ,19, ,
19, ,19, ,
18, ,19, ,
19, ,19, ,
17, ,19, ,
15, ,19, ,
14, ,19, ,
14, ,19, ,
13, ,19, ,
11, ,19, ,
7, ,19, ,
-1, ,19, ,
-16, ,19, ,
-85, ,19, ,
-126, ,19, ,
-126, ,19, ,
-126, ,19, ,
-126, ,19, ,
-126, ,19, ,
-126, ,19, ,
-126, ,19, ,
-126, ,19, ,
-126, ,19, ,
-126, ,19, ,
-126, ,19, ,
-126, ,19, ,
-126, ,19, ,
-126, ,19, ,
-126, ,19, ,
-126, ,19, ,
-126, ,19, ,
-126, ,19, ,
-126, ,19, ,
-126, ,19, ,
-126, ,19, ,
-126, ,19, ,
-126, ,19, ,
-126, ,19, ,
-126, ,19, ,
-126, ,19, ,
-126, ,19, ,
-126, ,19, ,
-126, ,19, ,
-126, ,19, ,
-126, ,19, ,
-126, ,19, ,
-126, ,19, ,
-126, ,19, ,
-126, ,19, ,
-126, ,19, ,
-126, ,19, ,
-126, ,19, ,
-124, ,19, ,
-55, ,19, ,
52, ,19, ,
125, ,19, ,
125, ,19, ,
125, ,19, ,
125, ,19, ,
125, ,19, ,
125, ,19, ,
125, ,19, ,
125, ,19, ,
125, ,19, ,
125, ,19, ,
125, ,19, ,
125, ,19, ,
125, ,19, ,
125, ,19, ,
125, ,19, ,
125, ,19, ,
125, ,19, ,
125, ,19, ,
125, ,19, ,
125, ,19, ,
125, ,19, ,
125, ,19, ,
125, ,19, ,
125, ,19, ,
125, ,19, ,
125, ,19, ,
125, ,19, ,
125, ,19, ,
125, ,19, ,
125, ,19, ,
125, ,19, ,
125, ,19, ,
125, ,19, ,
124, ,19, ,
114, ,19, ,
86, ,19, ,
52, ,19, ,
7, ,19, ,
-91, ,19, ,
-126, ,19, ,
-126, ,19, ,
-126, ,19, ,
-126, ,19, ,
-126, ,19, ,
-126, ,19, ,
-126, ,19, ,
-105, ,19, ,
-80, ,19, ,
-54, ,19, ,
-27, ,19, ,
19, ,19, ,
40, ,19, ,
58, ,19, ,
72, ,19, ,
95, ,19, ,
104, ,19, ,
108, ,19, ,
112, ,19, ,
116, ,19, ,
115, ,19, ,
116, ,19, ,
110, ,19, ,
104, ,19, ,
102, ,19, ,
93, ,19, ,
86, ,19, ,
63, ,19, ,
47, ,19, ,
30, ,19, ,
6, ,19, ,
-38, ,19, ,
-59, ,19, ,
-80, ,19, ,
-96, ,19, ,
-118, ,19, ,
-126, ,19, ,
-126, ,19, ,
-126, ,19, ,
-122, ,19, ,
-115, ,19, ,
-107, ,19, ,
-98, ,19, ,
-77, ,19, ,
-69, ,19, ,
-58, ,19, ,
-53, ,19, ,
-45, ,19, ,
-43, ,19, ,
-45, ,19, ,
-44, ,19, ,
-52, ,19, ,
-55, ,19, ,
-60, ,19, ,
-68, ,19, ,
-84, ,19, ,
-92, ,19, ,
-102, ,19, ,
-109, ,19, ,
-126, ,19, ,
-126, ,19, ,
-126, ,19, ,
-126, ,19, ,
-126, ,19, ,
-126, ,19, ,
-126, ,19, ,
-126, ,19, ,
-126, ,19, ,
-126, ,19, ,
-126, ,19, ,
-126, ,19, ,
-126, ,19, ,
-126, ,19, ,
-126, ,19, ,
-126, ,19, ,
-126, ,19, ,
-122, ,19, ,
-110, ,19, ,
-98, ,19, ,
-72, ,19, ,
-59, ,19, ,
-48, ,19, ,
-34, ,19, ,
-12, ,19, ,
-2, ,19, ,
8, ,19, ,
17, ,19, ,
36, ,19, ,
47, ,19, ,
54, ,19, ,
65, ,19, ,
88, ,19, ,
98, ,19, ,
111, ,19, ,
124, ,19, ,
125, ,19, ,
125, ,19, ,
125, ,19, ,
125, ,19, ,
125, ,19, ,
125, ,19, ,
125, ,19, ,
125, ,19, ,
125, ,19, ,
125, ,19, ,
125, ,19, ,
125, ,19, ,
125, ,19, ,
125, ,19, ,
125, ,19, ,
125, ,19, ,
125, ,19, ,
125, ,19, ,
125, ,19, ,
125, ,19, ,
125, ,19, ,
125, ,19, ,
125, ,19, ,
125, ,19, ,
125, ,19, ,
124, ,19, ,
124, ,19, ,
122, ,19, ,
113, ,19, ,
108, ,19, ,
104, ,19, ,
100, ,19, ,
91, ,19, ,
89, ,19, ,
84, ,19, ,
81, ,19, ,
71, ,19, ,
65, ,19, ,
56, ,19, ,
44, ,19, ,
6, ,19, ,
-23, ,19, ,
-62, ,19, ,
-105, ,19, ,
-126, ,19, ,
-126, ,19, ,
-126, ,19, ,
-126, ,19, ,
-126, ,19, ,
-126, ,19, ,
-126, ,19, ,
-126, ,19, ,
-126, ,19, ,
-126, ,19, ,
-126, ,19, ,
-126, ,19, ,
-126, ,19, ,
-126, ,19, ,
-126, ,19, ,
-126, ,19, ,
-126, ,19, ,
-126, ,19, ,
-126, ,19, ,
-126, ,19, ,
-126, ,19, ,
-126, ,19, ,
-126, ,19, ,
-126, ,19, ,
-126, ,19, ,
-126, ,19, ,
-126, ,19, ,
-117, ,19, ,
-116, ,19, ,
-117, ,19, ,
-117, ,19, ,
-108, ,19, ,
-95, ,19, ,
-85, ,19, ,
-72, ,19, ,
-57, ,19, ,
-15, ,19, ,
10, ,19, ,
36, ,19, ,
65, ,19, ,
119, ,19, ,
125, ,19, ,
125, ,19, ,
125, ,19, ,
125, ,19, ,
125, ,19, ,
125, ,19, ,
125, ,19, ,
125, ,19, ,
125, ,19, ,
125, ,19, ,
125, ,19, ,
125, ,19, ,
125, ,19, ,
124, ,19, ,
123, ,19, ,
94, ,19, ,
74, ,19, ,
55, ,19, ,
37, ,19, ,
11, ,19, ,
2, ,19, ,
-8, ,19, ,
-11, ,19, ,
-14, ,19, ,
-13, ,19, ,
-7, ,19, ,
-4, ,19, ,
9, ,19, ,
18, ,19, ,
25, ,19, ,
31, ,19, ,
47, ,19, ,
53, ,19, ,
57, ,19, ,
61, ,19, ,
69, ,19, ,
70, ,19, ,
69, ,19, ,
70, ,19, ,
67, ,19, ,
63, ,19, ,
63, ,19, ,
54, ,19, ,
48, ,19, ,
45, ,19, ,
40, ,19, ,
37, ,19, ,
30, ,19, ,
25, ,19, ,
24, ,19, ,
20, ,19, ,
18, ,19, ,
19, ,19, ,
19, ,19, ,
21, ,19, ,
26, ,19, ,
26, ,19, ,
31, ,19, ,
35, ,19, ,
39, ,19, ,
44, ,19, ,
45, ,19, ,
48, ,19, ,
49, ,19, ,
48, ,19, ,
48, ,19, ,
44, ,19, ,
39, ,19, ,
36, ,19, ,
30, ,19, ,
27, ,19, ,
15, ,19, ,
8, ,19, ,
1, ,19, ,
-6, ,19, ,
-19, ,19, ,
-23, ,19, ,
-30, ,19, ,
-35, ,19, ,
-42, ,19, ,
-48, ,19, ,
-52, ,19, ,
-56, ,19, ,
-62, ,19, ,
-64, ,19, ,
-70, ,19, ,
-71, ,19, ,
-77, ,19, ,
-80, ,19, ,
-83, ,19, ,
-89, ,19, ,
-92, ,19, ,
-94, ,19, ,
-98, ,19, ,
-100, ,19, ,
-105, ,19, ,
-109, ,19, ,
-111, ,19, ,
-114, ,19, ,
-122, ,19, ,
-123, ,19, ,
-126, ,19, ,
-126, ,19, ,
-126, ,19, ,
-126, ,19, ,
-126, ,19, ,
-126, ,19, ,
-126, ,19, ,
-126, ,19, ,
-126, ,19, ,
-126, ,19, ,
-126, ,19, ,
-126, ,19, ,
-126, ,19, ,
-126, ,19, ,
-126, ,19, ,
-126, ,19, ,
-126, ,19, ,
-126, ,19, ,
-126, ,19, ,
-126, ,19, ,
-125, ,19, ,
-111, ,19, ,
-80, ,19, ,
-62, ,19, ,
-45, ,19, ,
-28, ,19, ,
6, ,19, ,
22, ,19, ,
38, ,19, ,
53, ,19, ,
79, ,19, ,
90, ,19, ,
100, ,19, ,
110, ,19, ,
125, ,19, ,
125, ,19, ,
125, ,19, ,
125, ,19, ,
125, ,19, ,
125, ,19, ,
125, ,19, ,
125, ,19, ,
125, ,19, ,
125, ,19, ,
125, ,19, ,
125, ,19, ,
125, ,19, ,
125, ,19, ,
125, ,19, ,
125, ,19, ,
125, ,19, ,
125, ,19, ,
125, ,19, ,
125, ,19, ,
125, ,19, ,
125, ,19, ,
125, ,19, ,
125, ,19, ,
125, ,19, ,
125, ,19, ,
124, ,19, ,
124, ,19, ,
102, ,19, ,
87, ,19, ,
72, ,19, ,
58, ,19, ,
35, ,19, ,
22, ,19, ,
14, ,19, ,
5, ,19, ,
-11, ,19, ,
-15, ,19, ,
-23, ,19, ,
-28, ,19, ,
-37, ,19, ,
-44, ,19, ,
-49, ,19, ,
-56, ,19, ,
-71, ,19, ,
-78, ,19, ,
-89, ,19, ,
-96, ,19, ,
-114, ,19, ,
-121, ,19, ,
-126, ,19, ,
-126, ,19, ,
-126, ,19, ,
-126, ,19, ,
-126, ,19, ,
-126, ,19, ,
-126, ,19, ,
-126, ,19, ,
-126, ,19, ,
-126, ,19, ,
-121, ,19, ,
-109, ,19, ,
-101, ,19, ,
-88, ,19, ,
-63, ,19, ,
-53, ,19, ,
-43, ,19, ,
-33, ,19, ,
-20, ,19, ,
-11, ,19, ,
-9, ,19, ,
-4, ,19, ,
-5, ,19, ,
-5, ,19, ,
-6, ,19, ,
-11, ,19, ,
-18, ,19, ,
-20, ,19, ,
-24, ,19, ,
-27, ,19, ,
-34, ,19, ,
-36, ,19, ,
-38, ,19, ,
-40, ,19, ,
-41, ,19, ,
-38, ,19, ,
-37, ,19, ,
-35, ,19, ,
-30, ,19, ,
-29, ,19, ,
-24, ,19, ,
-22, ,19, ,
-17, ,19, ,
-13, ,19, ,
-12, ,19, ,
-8, ,19, ,
-7, ,19, ,
-7, ,19, ,
-6, ,19, ,
-7, ,19, ,
-10, ,19, ,
-10, ,19, ,
-11, ,19, ,
-13, ,19, ,
-16, ,19, ,
-20, ,19, ,
-21, ,19, ,
-23, ,19, ,
-25, ,19, ,
-24, ,19, ,
-25, ,19, ,
-23, ,19, ,
-20, ,19, ,
-19, ,19, ,
-16, ,19, ,
-14, ,19, ,
-7, ,19, ,
-2, ,19, ,
1, ,19, ,
6, ,19, ,
13, ,19, ,
17, ,19, ,
21, ,19, ,
25, ,19, ,
32, ,19, ,
35, ,19, ,
36, ,19, ,
40, ,19, ,
42, ,19, ,
42, ,19, ,
43, ,19, ,
43, ,19, ,
42, ,19, ,
42, ,19, ,
40, ,19, ,
40, ,19, ,
40, ,19, ,
39, ,19, ,
39, ,19, ,
39, ,19, ,
41, ,19, ,
43, ,19, ,
44, ,19, ,
47, ,19, ,
49, ,19, ,
52, ,19, ,
54, ,19, ,
54, ,19, ,
60, ,19, ,
62, ,19, ,
62, ,19, ,
63, ,19, ,
63, ,19, ,
61, ,19, ,
61, ,19, ,
59, ,19, ,
55, ,19, ,
55, ,19, ,
51, ,19, ,
47, ,19, ,
41, ,19, ,
35, ,19, ,
32, ,19, ,
25, ,19, ,
15, ,19, ,
9, ,19, ,
1, ,19, ,
-3, ,19, ,
-19, ,19, ,
-26, ,19, ,
-31, ,19, ,
-40, ,19, ,
-51, ,19, ,
-57, ,19, ,
-64, ,19, ,
-68, ,19, ,
-80, ,19, ,
-86, ,19, ,
-90, ,19, ,
-95, ,19, ,
-104, ,19, ,
-105, ,19, ,
-108, ,19, ,
-110, ,19, ,
-116, ,19, ,
-118, ,19, ,
-118, ,19, ,
-121, ,19, ,
-124, ,19, ,
-124, ,19, ,
-126, ,19, ,
-126, ,19, ,
-126, ,19, ,
-126, ,19, ,
-125, ,19, ,
-126, ,19, ,
-123, ,19, ,
-121, ,19, ,
-117, ,19, ,
-114, ,19, ,
-106, ,19, ,
-101, ,19, ,
-94, ,19, ,
-88, ,19, ,
-69, ,19, ,
-58, ,19, ,
-48, ,19, ,
-37, ,19, ,
-15, ,19, ,
-4, ,19, ,
7, ,19, ,
18, ,19, ,
37, ,19, ,
48, ,19, ,
55, ,19, ,
65, ,19, ,
79, ,19, ,
82, ,19, ,
90, ,19, ,
91, ,19, ,
97, ,19, ,
99, ,19, ,
100, ,19, ,
102, ,19, ,
104, ,19, ,
104, ,19, ,
104, ,19, ,
104, ,19, ,
105, ,19, ,
105, ,19, ,
105, ,19, ,
106, ,19, ,
108, ,19, ,
108, ,19, ,
109, ,19, ,
107, ,19, ,
105, ,19, ,
106, ,19, ,
103, ,19, ,
103, ,19, ,
96, ,19, ,
90, ,19, ,
87, ,19, ,
78, ,19, ,
67, ,19, ,
61, ,19, ,
53, ,19, ,
46, ,19, ,
32, ,19, ,
23, ,19, ,
17, ,19, ,
10, ,19, ,
-3, ,19, ,
-5, ,19, ,
-11, ,19, ,
-14, ,19, ,
-17, ,19, ,
-19, ,19, ,
-19, ,19, ,
-19, ,19, ,
-17, ,19, ,
-14, ,19, ,
-14, ,19, ,
-12, ,19, ,
-9, ,19, ,
-10, ,19, ,
-8, ,19, ,
-9, ,19, ,
-9, ,19, ,
-8, ,19, ,
-9, ,19, ,
-10, ,19, ,
-11, ,19, ,
-14, ,19, ,
-15, ,19, ,
-16, ,19, ,
-19, ,19, ,
-19, ,19, ,
-19, ,19, ,
-19, ,19, ,
-17, ,19, ,
-18, ,19, ,
-16, ,19, ,
-15, ,19, ,
-12, ,19, ,
-11, ,19, ,
-10, ,19, ,
-7, ,19, ,
-5, ,19, ,
-5, ,19, ,
-2, ,19, ,
-3, ,19, ,
-1, ,19, ,
-1, ,19, ,
-1, ,19, ,
-2, ,19, ,
-5, ,19, ,
-6, ,19, ,
-10, ,19, ,
-11, ,19, ,
-15, ,19, ,
-17, ,19, ,
-18, ,19, ,
-21, ,19, ,
-26, ,19, ,
-29, ,19, ,
-28, ,19, ,
-31, ,19, ,
-35, ,19, ,
-36, ,19, ,
-37, ,19, ,
-38, ,19, ,
-39, ,19, ,
-39, ,19, ,
-39, ,19, ,
-39, ,19, ,
-39, ,19, ,
-39, ,19, ,
-39, ,19, ,
-38, ,19, ,
-38, ,19, ,
-38, ,19, ,
-37, ,19, ,
-38, ,19, ,
-38, ,19, ,
-35, ,19, ,
-35, ,19, ,
-35, ,19, ,
-33, ,19, ,
-34, ,19, ,
-32, ,19, ,
-32, ,19, ,
-30, ,19, ,
-28, ,19, ,
-29, ,19, ,
-27, ,19, ,
-24, ,19, ,
-22, ,19, ,
-19, ,19, ,
-18, ,19, ,
-12, ,19, ,
-9, ,19, ,
-5, ,19, ,
-1, ,19, ,
6, ,19, ,
8, ,19, ,
14, ,19, ,
17, ,19, ,
23, ,19, ,
28, ,19, ,
30, ,19, ,
34, ,19, ,
40, ,19, ,
41, ,19, ,
45, ,19, ,
47, ,19, ,
50, ,19, ,
53, ,19, ,
54, ,19, ,
57, ,19, ,
58, ,19, ,
59, ,19, ,
59, ,19, ,
59, ,19, ,
58, ,19, ,
58, ,19, ,
57, ,19, ,
58, ,19, ,
56, ,19, ,
55, ,19, ,
54, ,19, ,
54, ,19, ,
49, ,19, ,
50, ,19, ,
47, ,19, ,
46, ,19, ,
43, ,19, ,
39, ,19, ,
38, ,19, ,
34, ,19, ,
29, ,19, ,
26, ,19, ,
21, ,19, ,
18, ,19, ,
11, ,19, ,
7, ,19, ,
2, ,19, ,
-5, ,19, ,
-15, ,19, ,
-18, ,19, ,
-25, ,19, ,
-28, ,19, ,
-37, ,19, ,
-43, ,19, ,
-48, ,19, ,
-54, ,19, ,
-62, ,19, ,
-66, ,19, ,
-69, ,19, ,
-72, ,19, ,
-76, ,19, ,
-78, ,19, ,
-78, ,19, ,
-80, ,19, ,
-81, ,19, ,
-80, ,19, ,
-81, ,19, ,
-78, ,19, ,
-75, ,19, ,
-76, ,19, ,
-72, ,19, ,
-72, ,19, ,
-68, ,19, ,
-66, ,19, ,
-64, ,19, ,
-63, ,19, ,
-57, ,19, ,
-56, ,19, ,
-54, ,19, ,
-52, ,19, ,
-47, ,19, ,
-43, ,19, ,
-41, ,19, ,
-37, ,19, ,
-29, ,19, ,
-26, ,19, ,
-21, ,19, ,
-18, ,19, ,
-9, ,19, ,
-4, ,19, ,
0, ,19, ,
6, ,19, ,
16, ,19, ,
20, ,19, ,
23, ,19, ,
26, ,19, ,
32, ,19, ,
35, ,19, ,
35, ,19, ,
39, ,19, ,
40, ,19, ,
39, ,19, ,
38, ,19, ,
36, ,19, ,
35, ,19, ,
35, ,19, ,
32, ,19, ,
30, ,19, ,
28, ,19, ,
25, ,19, ,
25, ,19, ,
22, ,19, ,
19, ,19, ,
19, ,19, ,
17, ,19, ,
17, ,19, ,
14, ,19, ,
13, ,19, ,
13, ,19, ,
12, ,19, ,
10, ,19, ,
9, ,19, ,
8, ,19, ,
8, ,19, ,
5, ,19, ,
4, ,19, ,
0, ,19, ,
-1, ,19, ,
-6, ,19, ,
-6, ,19, ,
-9, ,19, ,
-10, ,19, ,
-14, ,19, ,
-16, ,19, ,
-15, ,19, ,
-17, ,19, ,
-17, ,19, ,
-16, ,19, ,
-18, ,19, ,
-15, ,19, ,
-13, ,19, ,
-12, ,19, ,
-9, ,19, ,
-10, ,19, ,
-5, ,19, ,
-3, ,19, ,
0, ,19, ,
2, ,19, ,
5, ,19, ,
7, ,19, ,
8, ,19, ,
10, ,19, ,
12, ,19, ,
14, ,19, ,
13, ,19, ,
15, ,19, ,
15, ,19, ,
14, ,19, ,
15, ,19, ,
15, ,19, ,
14, ,19, ,
15, ,19, ,
13, ,19, ,
15, ,19, ,
13, ,19, ,
12, ,19, ,
12, ,19, ,
11, ,19, ,
10, ,19, ,
10, ,19, ,
9, ,19, ,
9, ,19, ,
9, ,19, ,
8, ,19, ,
7, ,19, ,
7, ,19, ,
5, ,19, ,
4, ,19, ,
4, ,19, ,
2, ,19, ,
0, ,19, ,
-3, ,19, ,
-3, ,19, ,
-5, ,19, ,
-8, ,19, ,
-10, ,19, ,
-12, ,19, ,
-12, ,19, ,
-17, ,19, ,
-18, ,19, ,
-20, ,19, ,
-23, ,19, ,
-25, ,19, ,
-25, ,19, ,
-27, ,19, ,
-28, ,19, ,
-28, ,19, ,
-29, ,19, ,
-29, ,19, ,
-30, ,19, ,
-29, ,19, ,
-29, ,19, ,
-27, ,19, ,
-27, ,19, ,
-25, ,19, ,
-26, ,19, ,
-23, ,19, ,
-22, ,19, ,
-20, ,19, ,
-17, ,19, ,
-18, ,19, ,
-14, ,19, ,
-12, ,19, ,
-10, ,19, ,
-7, ,19, ,
-7, ,19, ,
-2, ,19, ,
-1, ,19, ,
2, ,19, ,
3, ,19, ,
8, ,19, ,
10, ,19, ,
12, ,19, ,
14, ,19, ,
18, ,19, ,
23, ,19, ,
21, ,19, ,
27, ,19, ,
31, ,19, ,
33, ,19, ,
35, ,19, ,
37, ,19, ,
40, ,19, ,
44, ,19, ,
44, ,19, ,
45, ,19, ,
48, ,19, ,
50, ,19, ,
52, ,19, ,
51, ,19, ,
52, ,19, ,
54, ,19, ,
53, ,19, ,
53, ,19, ,
52, ,19, ,
51, ,19, ,
51, ,19, ,
48, ,19, ,
46, ,19, ,
45, ,19, ,
43, ,19, ,
39, ,19, ,
36, ,19, ,
34, ,19, ,
31, ,19, ,
28, ,19, ,
22, ,19, ,
20, ,19, ,
17, ,19, ,
15, ,19, ,
9, ,19, ,
7, ,19, ,
5, ,19, ,
0, ,19, ,
-5, ,19, ,
-6, ,19, ,
-10, ,19, ,
-10, ,19, ,
-14, ,19, ,
-18, ,19, ,
-21, ,19, ,
-23, ,19, ,
-28, ,19, ,
-30, ,19, ,
-32, ,19, ,
-34, ,19, ,
-35, ,19, ,
-38, ,19, ,
-37, ,19, ,
-39, ,19, ,
-39, ,19, ,
-39, ,19, ,
-39, ,19, ,
-38, ,19, ,
-36, ,19, ,
-36, ,19, ,
-34, ,19, ,
-35, ,19, ,
-29, ,19, ,
-28, ,19, ,
-25, ,19, ,
-21, ,19, ,
-17, ,19, ,
-15, ,19, ,
-10, ,19, ,
-10, ,19, ,
-5, ,19, ,
-2, ,19, ,
-2, ,19, ,
0, ,19, ,
3, ,19, ,
3, ,19, ,
6, ,19, ,
6, ,19, ,
8, ,19, ,
10, ,19, ,
10, ,19, ,
11, ,19, ,
11, ,19, ,
13, ,19, ,
14, ,19, ,
15, ,19, ,
16, ,19, ,
17, ,19, ,
17, ,19, ,
18, ,19, ,
19, ,19, ,
17, ,19, ,
17, ,19, ,
17, ,19, ,
17, ,19, ,
17, ,19, ,
17, ,19, ,
15, ,19, ,
13, ,19, ,
10, ,19, ,
10, ,19, ,
7, ,19, ,
4, ,19, ,
5, ,19, ,
1, ,19, ,
1, ,19, ,
-3, ,19, ,
-4, ,19, ,
-4, ,19, ,
-6, ,19, ,
-8, ,19, ,
-8, ,19, ,
-9, ,19, ,
-8, ,19, ,
-8, ,19, ,
-8, ,19, ,
-8, ,19, ,
-9, ,19, ,
-9, ,19, ,
-7, ,19, ,
-7, ,19, ,
-6, ,19, ,
-6, ,19, ,
-6, ,19, ,
-5, ,19, ,
-5, ,19, ,
-3, ,19, ,
-3, ,19, ,
-2, ,19, ,
-1, ,19, ,
0, ,19, ,
0, ,19, ,
2, ,19, ,
1, ,19, ,
3, ,19, ,
5, ,19, ,
4, ,19, ,
6, ,19, ,
9, ,19, ,
8, ,19, ,
9, ,19, ,
10, ,19, ,
12, ,19, ,
13, ,19, ,
13, ,19, ,
15, ,19, ,
15, ,19, ,
17, ,19, ,
18, ,19, ,
18, ,19, ,
18, ,19, ,
17, ,19, ,
17, ,19, ,
16, ,19, ,
15, ,19, ,
14, ,19, ,
