raw_data/100% Glycerol, Impulsion 2Hz, Sonde 5MHz, Rampe 0.7Hz/temp0000252.CSV

Format,1.0B,
Memory Length,10000,Memory Length,10000,
IntpDistance,0,IntpDistance,0,
Trigger Address,159,Trigger Address,159,
Trigger Level,2.720E-01,Trigger Level,2.720E-01,
Source,CH1,Source,CH2,
Vertical Units,V,Vertical Units,V,
Vertical Units Div,0,Vertical Units Div,0,
Vertical Units Extend Div,16,Vertical Units Extend Div,16,
Label,,Label,,
Probe Type,0,Probe Type,0,
Probe Ratio,1.000e+00,Probe Ratio,1.000e+00,
Vertical Scale,2.000e-01,Vertical Scale,2.000e+00,
Vertical Position,0.000e+00,Vertical Position,0.000e+00,
Horizontal Units,S,Horizontal Units,S,
Horizontal Scale,5.000E-06,Horizontal Scale,5.000E-06,
Horizontal Position,2.420E-05,Horizontal Position,2.420E-05,
Horizontal Mode,Main,Horizontal Mode,Main,
SincET Mode,Real Time,SincET Mode,Real Time,
Sampling Period,5.000e-09,Sampling Period,5.000e-09,
Horizontal Old Scale,5.000E-06,Horizontal Old Scale,5.000E-06,
Horizontal Old Position,2.420E-05,Horizontal Old Position,2.420E-05,
Firmware,V1.32,Firmware,V1.32,
Mode,Fast,Mode,Fast,
Waveform Data,,Waveform Data,,
1, ,26, ,
2, ,26, ,
2, ,26, ,
1, ,26, ,
1, ,26, ,
2, ,26, ,
2, ,26, ,
2, ,26, ,
2, ,26, ,
1, ,26, ,
1, ,26, ,
1, ,26, ,
1, ,26, ,
2, ,26, ,
1, ,26, ,
1, ,26, ,
2, ,26, ,
2, ,26, ,
2, ,26, ,
1, ,26, ,
1, ,26, ,
1, ,26, ,
1, ,26, ,
2, ,26, ,
2, ,26, ,
2, ,26, ,
1, ,26, ,
1, ,26, ,
0, ,26, ,
1, ,26, ,
1, ,26, ,
1, ,26, ,
2, ,26, ,
1, ,26, ,
3, ,26, ,
1, ,26, ,
2, ,26, ,
2, ,26, ,
1, ,26, ,
2, ,26, ,
3, ,26, ,
1, ,26, ,
1, ,26, ,
1, ,26, ,
1, ,26, ,
1, ,26, ,
1, ,26, ,
2, ,26, ,
1, ,26, ,
1, ,26, ,
1, ,26, ,
2, ,26, ,
2, ,26, ,
2, ,26, ,
2, ,26, ,
2, ,26, ,
2, ,26, ,
1, ,26, ,
3, ,26, ,
2, ,26, ,
1, ,26, ,
2, ,26, ,
2, ,26, ,
2, ,26, ,
1, ,26, ,
0, ,26, ,
1, ,26, ,
0, ,26, ,
2, ,26, ,
2, ,26, ,
1, ,26, ,
2, ,26, ,
2, ,26, ,
2, ,26, ,
2, ,26, ,
1, ,26, ,
1, ,26, ,
2, ,26, ,
2, ,26, ,
1, ,26, ,
2, ,26, ,
2, ,26, ,
2, ,26, ,
2, ,26, ,
2, ,26, ,
1, ,26, ,
1, ,26, ,
2, ,26, ,
2, ,26, ,
1, ,26, ,
3, ,26, ,
2, ,26, ,
2, ,26, ,
2, ,26, ,
2, ,26, ,
2, ,26, ,
2, ,26, ,
1, ,26, ,
2, ,26, ,
1, ,26, ,
2, ,26, ,
2, ,26, ,
1, ,26, ,
2, ,26, ,
2, ,26, ,
1, ,26, ,
2, ,26, ,
1, ,26, ,
1, ,26, ,
1, ,26, ,
2, ,26, ,
2, ,26, ,
2, ,26, ,
1, ,26, ,
1, ,26, ,
1, ,26, ,
3, ,26, ,
3, ,26, ,
2, ,26, ,
2, ,26, ,
2, ,26, ,
1, ,26, ,
2, ,26, ,
1, ,26, ,
0, ,26, ,
2, ,26, ,
1, ,26, ,
2, ,26, ,
2, ,26, ,
1, ,26, ,
2, ,26, ,
1, ,26, ,
1, ,26, ,
2, ,26, ,
1, ,26, ,
3, ,26, ,
3, ,26, ,
1, ,26, ,
2, ,26, ,
1, ,26, ,
1, ,26, ,
1, ,26, ,
2, ,26, ,
2, ,26, ,
2, ,26, ,
1, ,26, ,
1, ,26, ,
1, ,26, ,
1, ,26, ,
2, ,26, ,
1, ,26, ,
2, ,26, ,
2, ,26, ,
1, ,26, ,
2, ,26, ,
2, ,26, ,
2, ,26, ,
2, ,26, ,
1, ,26, ,
2, ,26, ,
2, ,26, ,
1, ,26, ,
2, ,26, ,
0, ,26, ,
0, ,26, ,
4, ,26, ,
-2, ,26, ,
4, ,26, ,
102, ,26, ,
125, ,26, ,
125, ,26, ,
125, ,26, ,
120, ,26, ,
115, ,26, ,
-4, ,26, ,
0, ,26, ,
125, ,26, ,
125, ,26, ,
125, ,26, ,
125, ,26, ,
125, ,26, ,
125, ,26, ,
125, ,26, ,
125, ,26, ,
125, ,26, ,
125, ,26, ,
125, ,26, ,
125, ,26, ,
125, ,26, ,
125, ,26, ,
125, ,26, ,
125, ,26, ,
125, ,26, ,
125, ,26, ,
125, ,26, ,
125, ,26, ,
125, ,26, ,
125, ,26, ,
125, ,26, ,
125, ,26, ,
125, ,26, ,
124, ,26, ,
124, ,26, ,
123, ,26, ,
113, ,26, ,
108, ,26, ,
105, ,26, ,
102, ,26, ,
93, ,26, ,
89, ,26, ,
86, ,26, ,
80, ,26, ,
74, ,26, ,
71, ,26, ,
66, ,26, ,
64, ,26, ,
59, ,26, ,
55, ,26, ,
54, ,26, ,
51, ,26, ,
45, ,26, ,
45, ,26, ,
42, ,26, ,
41, ,26, ,
35, ,26, ,
34, ,26, ,
35, ,26, ,
31, ,26, ,
29, ,26, ,
28, ,26, ,
24, ,26, ,
25, ,26, ,
24, ,26, ,
19, ,26, ,
19, ,26, ,
17, ,26, ,
15, ,26, ,
15, ,26, ,
13, ,26, ,
13, ,26, ,
11, ,26, ,
10, ,26, ,
10, ,26, ,
9, ,26, ,
7, ,26, ,
7, ,26, ,
5, ,26, ,
5, ,26, ,
5, ,26, ,
3, ,26, ,
4, ,26, ,
3, ,26, ,
1, ,26, ,
2, ,26, ,
2, ,26, ,
2, ,26, ,
1, ,26, ,
0, ,26, ,
1, ,26, ,
-1, ,26, ,
-1, ,26, ,
0, ,26, ,
-2, ,26, ,
0, ,26, ,
0, ,26, ,
-2, ,26, ,
-2, ,26, ,
-2, ,26, ,
-4, ,26, ,
-2, ,26, ,
-3, ,26, ,
-2, ,26, ,
-2, ,26, ,
-3, ,26, ,
-3, ,26, ,
-3, ,26, ,
-3, ,26, ,
-3, ,26, ,
-5, ,26, ,
-3, ,26, ,
-3, ,26, ,
-3, ,26, ,
-2, ,26, ,
-3, ,26, ,
-4, ,26, ,
-3, ,26, ,
-3, ,26, ,
-3, ,26, ,
-3, ,26, ,
-3, ,26, ,
-3, ,26, ,
-3, ,26, ,
-4, ,26, ,
-3, ,26, ,
-4, ,26, ,
-2, ,26, ,
-2, ,26, ,
-4, ,26, ,
-2, ,26, ,
-2, ,26, ,
-2, ,26, ,
-2, ,26, ,
-2, ,26, ,
-1, ,26, ,
-3, ,26, ,
-2, ,26, ,
-3, ,26, ,
-3, ,26, ,
-2, ,26, ,
-3, ,26, ,
-4, ,26, ,
-2, ,26, ,
-2, ,26, ,
-2, ,26, ,
-2, ,26, ,
-1, ,26, ,
-2, ,26, ,
-1, ,26, ,
-2, ,26, ,
-1, ,26, ,
-1, ,26, ,
-1, ,26, ,
-1, ,26, ,
-2, ,26, ,
-1, ,26, ,
-1, ,26, ,
-2, ,26, ,
0, ,26, ,
0, ,26, ,
-1, ,26, ,
0, ,26, ,
-1, ,26, ,
0, ,26, ,
0, ,26, ,
-1, ,26, ,
-1, ,26, ,
0, ,26, ,
0, ,26, ,
0, ,26, ,
0, ,26, ,
-1, ,26, ,
0, ,26, ,
-1, ,26, ,
-1, ,26, ,
0, ,26, ,
-1, ,26, ,
0, ,26, ,
0, ,26, ,
0, ,26, ,
0, ,26, ,
0, ,26, ,
0, ,26, ,
0, ,26, ,
0, ,26, ,
0, ,26, ,
0, ,26, ,
0, ,26, ,
1, ,26, ,
0, ,26, ,
1, ,26, ,
1, ,26, ,
-1, ,26, ,
0, ,26, ,
1, ,26, ,
1, ,26, ,
1, ,26, ,
0, ,26, ,
0, ,26, ,
1, ,26, ,
1, ,26, ,
2, ,26, ,
1, ,26, ,
-1, ,26, ,
-7, ,26, ,
-36, ,26, ,
-115, ,26, ,
-126, ,26, ,
-126, ,26, ,
-126, ,26, ,
-126, ,26, ,
-126, ,26, ,
-126, ,26, ,
-126, ,26, ,
-126, ,26, ,
-126, ,26, ,
-126, ,26, ,
-126, ,26, ,
-126, ,26, ,
-126, ,26, ,
-126, ,26, ,
-126, ,26, ,
-126, ,26, ,
-126, ,26, ,
-126, ,26, ,
-126, ,26, ,
-126, ,26, ,
-113, ,26, ,
65, ,26, ,
125, ,26, ,
125, ,26, ,
125, ,26, ,
125, ,26, ,
125, ,26, ,
125, ,26, ,
125, ,26, ,
125, ,26, ,
125, ,26, ,
125, ,26, ,
125, ,26, ,
125, ,26, ,
125, ,26, ,
125, ,26, ,
125, ,26, ,
125, ,26, ,
125, ,26, ,
125, ,26, ,
125, ,26, ,
125, ,26, ,
125, ,26, ,
124, ,26, ,
114, ,26, ,
101, ,26, ,
87, ,26, ,
84, ,26, ,
87, ,26, ,
92, ,26, ,
98, ,26, ,
100, ,26, ,
100, ,26, ,
99, ,26, ,
98, ,26, ,
97, ,26, ,
93, ,26, ,
89, ,26, ,
89, ,26, ,
84, ,26, ,
79, ,26, ,
77, ,26, ,
73, ,26, ,
69, ,26, ,
59, ,26, ,
53, ,26, ,
46, ,26, ,
39, ,26, ,
27, ,26, ,
25, ,26, ,
23, ,26, ,
25, ,26, ,
28, ,26, ,
30, ,26, ,
33, ,26, ,
33, ,26, ,
35, ,26, ,
35, ,26, ,
35, ,26, ,
36, ,26, ,
36, ,26, ,
35, ,26, ,
35, ,26, ,
35, ,26, ,
32, ,26, ,
32, ,26, ,
31, ,26, ,
31, ,26, ,
30, ,26, ,
28, ,26, ,
27, ,26, ,
25, ,26, ,
24, ,26, ,
24, ,26, ,
22, ,26, ,
22, ,26, ,
21, ,26, ,
20, ,26, ,
20, ,26, ,
19, ,26, ,
16, ,26, ,
16, ,26, ,
15, ,26, ,
15, ,26, ,
14, ,26, ,
13, ,26, ,
13, ,26, ,
12, ,26, ,
11, ,26, ,
12, ,26, ,
9, ,26, ,
9, ,26, ,
9, ,26, ,
6, ,26, ,
4, ,26, ,
-8, ,26, ,
-82, ,26, ,
-126, ,26, ,
-126, ,26, ,
-126, ,26, ,
-126, ,26, ,
-126, ,26, ,
-126, ,26, ,
-126, ,26, ,
-126, ,26, ,
-126, ,26, ,
-126, ,26, ,
-126, ,26, ,
-126, ,26, ,
-126, ,26, ,
-126, ,26, ,
-126, ,26, ,
-126, ,26, ,
-126, ,26, ,
-126, ,26, ,
-126, ,26, ,
-126, ,26, ,
-126, ,26, ,
-126, ,26, ,
-126, ,26, ,
-126, ,26, ,
-126, ,26, ,
-126, ,26, ,
-126, ,26, ,
-126, ,26, ,
-126, ,26, ,
-126, ,26, ,
-126, ,26, ,
-126, ,26, ,
-126, ,26, ,
-126, ,26, ,
-126, ,26, ,
-126, ,26, ,
-126, ,26, ,
-121, ,26, ,
-117, ,26, ,
-107, ,26, ,
-103, ,26, ,
-97, ,26, ,
-77, ,26, ,
82, ,26, ,
125, ,26, ,
125, ,26, ,
125, ,26, ,
125, ,26, ,
125, ,26, ,
125, ,26, ,
125, ,26, ,
125, ,26, ,
125, ,26, ,
125, ,26, ,
125, ,26, ,
125, ,26, ,
125, ,26, ,
125, ,26, ,
125, ,26, ,
125, ,26, ,
125, ,26, ,
124, ,26, ,
121, ,26, ,
32, ,26, ,
-15, ,26, ,
-44, ,26, ,
-58, ,26, ,
-44, ,26, ,
-24, ,26, ,
7, ,26, ,
37, ,26, ,
107, ,26, ,
125, ,26, ,
125, ,26, ,
125, ,26, ,
125, ,26, ,
125, ,26, ,
125, ,26, ,
125, ,26, ,
125, ,26, ,
124, ,26, ,
122, ,26, ,
103, ,26, ,
23, ,26, ,
-21, ,26, ,
-60, ,26, ,
-94, ,26, ,
-126, ,26, ,
-126, ,26, ,
-126, ,26, ,
-126, ,26, ,
-126, ,26, ,
-126, ,26, ,
-126, ,26, ,
-125, ,26, ,
-87, ,26, ,
-62, ,26, ,
-37, ,26, ,
-12, ,26, ,
36, ,26, ,
58, ,26, ,
78, ,26, ,
92, ,26, ,
115, ,26, ,
124, ,26, ,
125, ,26, ,
125, ,26, ,
124, ,26, ,
117, ,26, ,
108, ,26, ,
95, ,26, ,
62, ,26, ,
41, ,26, ,
19, ,26, ,
-5, ,26, ,
-56, ,26, ,
-82, ,26, ,
-105, ,26, ,
-126, ,26, ,
-126, ,26, ,
-126, ,26, ,
-126, ,26, ,
-126, ,26, ,
-126, ,26, ,
-126, ,26, ,
-126, ,26, ,
-126, ,26, ,
-106, ,26, ,
-82, ,26, ,
-56, ,26, ,
-28, ,26, ,
24, ,26, ,
47, ,26, ,
70, ,26, ,
90, ,26, ,
122, ,26, ,
125, ,26, ,
125, ,26, ,
125, ,26, ,
125, ,26, ,
125, ,26, ,
125, ,26, ,
125, ,26, ,
125, ,26, ,
125, ,26, ,
125, ,26, ,
125, ,26, ,
125, ,26, ,
125, ,26, ,
125, ,26, ,
125, ,26, ,
125, ,26, ,
125, ,26, ,
125, ,26, ,
125, ,26, ,
125, ,26, ,
125, ,26, ,
124, ,26, ,
124, ,26, ,
118, ,26, ,
117, ,26, ,
112, ,26, ,
110, ,26, ,
103, ,26, ,
98, ,26, ,
97, ,26, ,
91, ,26, ,
84, ,26, ,
81, ,26, ,
76, ,26, ,
75, ,26, ,
68, ,26, ,
62, ,26, ,
59, ,26, ,
53, ,26, ,
41, ,26, ,
34, ,26, ,
25, ,26, ,
15, ,26, ,
-8, ,26, ,
-19, ,26, ,
-29, ,26, ,
-38, ,26, ,
-54, ,26, ,
-59, ,26, ,
-64, ,26, ,
-67, ,26, ,
-70, ,26, ,
-74, ,26, ,
-74, ,26, ,
-79, ,26, ,
-87, ,26, ,
-91, ,26, ,
-98, ,26, ,
-104, ,26, ,
-119, ,26, ,
-126, ,26, ,
-126, ,26, ,
-126, ,26, ,
-126, ,26, ,
-126, ,26, ,
-126, ,26, ,
-126, ,26, ,
-126, ,26, ,
-126, ,26, ,
-126, ,26, ,
-126, ,26, ,
-126, ,26, ,
-126, ,26, ,
-126, ,26, ,
-126, ,26, ,
-126, ,26, ,
-126, ,26, ,
-126, ,26, ,
-126, ,26, ,
-126, ,26, ,
-126, ,26, ,
-126, ,26, ,
-126, ,26, ,
-126, ,26, ,
-125, ,26, ,
-106, ,26, ,
-87, ,26, ,
-46, ,26, ,
-28, ,26, ,
-9, ,26, ,
5, ,26, ,
26, ,26, ,
31, ,26, ,
37, ,26, ,
39, ,26, ,
39, ,26, ,
40, ,26, ,
35, ,26, ,
34, ,26, ,
30, ,26, ,
29, ,26, ,
30, ,26, ,
31, ,26, ,
39, ,26, ,
49, ,26, ,
59, ,26, ,
70, ,26, ,
95, ,26, ,
109, ,26, ,
124, ,26, ,
125, ,26, ,
125, ,26, ,
125, ,26, ,
125, ,26, ,
125, ,26, ,
125, ,26, ,
125, ,26, ,
125, ,26, ,
125, ,26, ,
125, ,26, ,
124, ,26, ,
124, ,26, ,
121, ,26, ,
90, ,26, ,
73, ,26, ,
55, ,26, ,
35, ,26, ,
3, ,26, ,
-12, ,26, ,
-25, ,26, ,
-35, ,26, ,
-52, ,26, ,
-59, ,26, ,
-60, ,26, ,
-63, ,26, ,
-61, ,26, ,
-61, ,26, ,
-60, ,26, ,
-56, ,26, ,
-51, ,26, ,
-51, ,26, ,
-50, ,26, ,
-51, ,26, ,
-52, ,26, ,
-54, ,26, ,
-60, ,26, ,
-62, ,26, ,
-72, ,26, ,
-79, ,26, ,
-82, ,26, ,
-90, ,26, ,
-102, ,26, ,
-106, ,26, ,
-113, ,26, ,
-116, ,26, ,
-125, ,26, ,
-126, ,26, ,
-126, ,26, ,
-126, ,26, ,
-126, ,26, ,
-126, ,26, ,
-126, ,26, ,
-126, ,26, ,
-126, ,26, ,
-124, ,26, ,
-118, ,26, ,
-111, ,26, ,
-96, ,26, ,
-87, ,26, ,
-76, ,26, ,
-67, ,26, ,
-48, ,26, ,
-40, ,26, ,
-31, ,26, ,
-25, ,26, ,
-12, ,26, ,
-7, ,26, ,
-4, ,26, ,
0, ,26, ,
6, ,26, ,
7, ,26, ,
10, ,26, ,
13, ,26, ,
15, ,26, ,
17, ,26, ,
20, ,26, ,
23, ,26, ,
27, ,26, ,
28, ,26, ,
31, ,26, ,
33, ,26, ,
38, ,26, ,
43, ,26, ,
45, ,26, ,
48, ,26, ,
54, ,26, ,
56, ,26, ,
60, ,26, ,
62, ,26, ,
68, ,26, ,
71, ,26, ,
70, ,26, ,
74, ,26, ,
77, ,26, ,
77, ,26, ,
79, ,26, ,
78, ,26, ,
80, ,26, ,
80, ,26, ,
79, ,26, ,
80, ,26, ,
79, ,26, ,
76, ,26, ,
76, ,26, ,
74, ,26, ,
69, ,26, ,
68, ,26, ,
63, ,26, ,
62, ,26, ,
54, ,26, ,
51, ,26, ,
49, ,26, ,
46, ,26, ,
40, ,26, ,
40, ,26, ,
39, ,26, ,
39, ,26, ,
41, ,26, ,
40, ,26, ,
44, ,26, ,
45, ,26, ,
51, ,26, ,
58, ,26, ,
60, ,26, ,
65, ,26, ,
70, ,26, ,
75, ,26, ,
77, ,26, ,
77, ,26, ,
77, ,26, ,
78, ,26, ,
73, ,26, ,
72, ,26, ,
65, ,26, ,
58, ,26, ,
53, ,26, ,
44, ,26, ,
29, ,26, ,
22, ,26, ,
11, ,26, ,
3, ,26, ,
-15, ,26, ,
-25, ,26, ,
-31, ,26, ,
-40, ,26, ,
-53, ,26, ,
-57, ,26, ,
-65, ,26, ,
-67, ,26, ,
-74, ,26, ,
-77, ,26, ,
-80, ,26, ,
-82, ,26, ,
-85, ,26, ,
-84, ,26, ,
-86, ,26, ,
-88, ,26, ,
-93, ,26, ,
-97, ,26, ,
-99, ,26, ,
-104, ,26, ,
-112, ,26, ,
-114, ,26, ,
-121, ,26, ,
-123, ,26, ,
-126, ,26, ,
-126, ,26, ,
-126, ,26, ,
-126, ,26, ,
-126, ,26, ,
-126, ,26, ,
-126, ,26, ,
-122, ,26, ,
-106, ,26, ,
-97, ,26, ,
-85, ,26, ,
-73, ,26, ,
-50, ,26, ,
-35, ,26, ,
-24, ,26, ,
-11, ,26, ,
14, ,26, ,
21, ,26, ,
32, ,26, ,
39, ,26, ,
52, ,26, ,
58, ,26, ,
61, ,26, ,
63, ,26, ,
62, ,26, ,
62, ,26, ,
61, ,26, ,
56, ,26, ,
51, ,26, ,
48, ,26, ,
44, ,26, ,
40, ,26, ,
35, ,26, ,
30, ,26, ,
29, ,26, ,
26, ,26, ,
23, ,26, ,
23, ,26, ,
21, ,26, ,
21, ,26, ,
21, ,26, ,
20, ,26, ,
20, ,26, ,
18, ,26, ,
16, ,26, ,
17, ,26, ,
14, ,26, ,
14, ,26, ,
9, ,26, ,
5, ,26, ,
2, ,26, ,
0, ,26, ,
-7, ,26, ,
-10, ,26, ,
-15, ,26, ,
-18, ,26, ,
-24, ,26, ,
-28, ,26, ,
-31, ,26, ,
-35, ,26, ,
-40, ,26, ,
-40, ,26, ,
-43, ,26, ,
-43, ,26, ,
-43, ,26, ,
-43, ,26, ,
-39, ,26, ,
-39, ,26, ,
-34, ,26, ,
-31, ,26, ,
-29, ,26, ,
-22, ,26, ,
-15, ,26, ,
-13, ,26, ,
-7, ,26, ,
-6, ,26, ,
-2, ,26, ,
1, ,26, ,
1, ,26, ,
2, ,26, ,
1, ,26, ,
-4, ,26, ,
-4, ,26, ,
-8, ,26, ,
-16, ,26, ,
-19, ,26, ,
-25, ,26, ,
-26, ,26, ,
-36, ,26, ,
-40, ,26, ,
-42, ,26, ,
-47, ,26, ,
-51, ,26, ,
-51, ,26, ,
-53, ,26, ,
-51, ,26, ,
-49, ,26, ,
-49, ,26, ,
-46, ,26, ,
-44, ,26, ,
-39, ,26, ,
-38, ,26, ,
-36, ,26, ,
-35, ,26, ,
-35, ,26, ,
-35, ,26, ,
-35, ,26, ,
-36, ,26, ,
-39, ,26, ,
-40, ,26, ,
-44, ,26, ,
-47, ,26, ,
-52, ,26, ,
-55, ,26, ,
-57, ,26, ,
-60, ,26, ,
-65, ,26, ,
-65, ,26, ,
-67, ,26, ,
-67, ,26, ,
-66, ,26, ,
-64, ,26, ,
-63, ,26, ,
-62, ,26, ,
-56, ,26, ,
-53, ,26, ,
-49, ,26, ,
-45, ,26, ,
-36, ,26, ,
-32, ,26, ,
-27, ,26, ,
-21, ,26, ,
-13, ,26, ,
-7, ,26, ,
-2, ,26, ,
3, ,26, ,
13, ,26, ,
18, ,26, ,
23, ,26, ,
26, ,26, ,
35, ,26, ,
39, ,26, ,
43, ,26, ,
49, ,26, ,
54, ,26, ,
56, ,26, ,
60, ,26, ,
63, ,26, ,
66, ,26, ,
69, ,26, ,
71, ,26, ,
72, ,26, ,
73, ,26, ,
73, ,26, ,
73, ,26, ,
72, ,26, ,
71, ,26, ,
71, ,26, ,
68, ,26, ,
69, ,26, ,
66, ,26, ,
64, ,26, ,
64, ,26, ,
61, ,26, ,
57, ,26, ,
54, ,26, ,
50, ,26, ,
49, ,26, ,
40, ,26, ,
35, ,26, ,
32, ,26, ,
25, ,26, ,
16, ,26, ,
10, ,26, ,
4, ,26, ,
0, ,26, ,
-10, ,26, ,
-19, ,26, ,
-21, ,26, ,
-27, ,26, ,
-35, ,26, ,
-35, ,26, ,
-39, ,26, ,
-42, ,26, ,
-43, ,26, ,
-43, ,26, ,
-43, ,26, ,
-43, ,26, ,
-39, ,26, ,
-37, ,26, ,
-38, ,26, ,
-34, ,26, ,
-29, ,26, ,
-26, ,26, ,
-23, ,26, ,
-22, ,26, ,
-18, ,26, ,
-14, ,26, ,
-14, ,26, ,
-12, ,26, ,
-10, ,26, ,
-10, ,26, ,
-8, ,26, ,
-9, ,26, ,
-6, ,26, ,
-4, ,26, ,
-4, ,26, ,
-2, ,26, ,
2, ,26, ,
2, ,26, ,
3, ,26, ,
6, ,26, ,
8, ,26, ,
11, ,26, ,
11, ,26, ,
14, ,26, ,
16, ,26, ,
16, ,26, ,
17, ,26, ,
16, ,26, ,
16, ,26, ,
17, ,26, ,
15, ,26, ,
15, ,26, ,
15, ,26, ,
12, ,26, ,
11, ,26, ,
12, ,26, ,
9, ,26, ,
9, ,26, ,
7, ,26, ,
7, ,26, ,
7, ,26, ,
6, ,26, ,
6, ,26, ,
6, ,26, ,
7, ,26, ,
9, ,26, ,
6, ,26, ,
10, ,26, ,
11, ,26, ,
10, ,26, ,
12, ,26, ,
13, ,26, ,
15, ,26, ,
16, ,26, ,
17, ,26, ,
19, ,26, ,
21, ,26, ,
21, ,26, ,
24, ,26, ,
23, ,26, ,
25, ,26, ,
28, ,26, ,
27, ,26, ,
29, ,26, ,
32, ,26, ,
31, ,26, ,
33, ,26, ,
35, ,26, ,
34, ,26, ,
35, ,26, ,
33, ,26, ,
35, ,26, ,
35, ,26, ,
34, ,26, ,
34, ,26, ,
32, ,26, ,
31, ,26, ,
31, ,26, ,
29, ,26, ,
29, ,26, ,
27, ,26, ,
25, ,26, ,
25, ,26, ,
24, ,26, ,
22, ,26, ,
22, ,26, ,
19, ,26, ,
20, ,26, ,
17, ,26, ,
14, ,26, ,
15, ,26, ,
11, ,26, ,
7, ,26, ,
7, ,26, ,
2, ,26, ,
2, ,26, ,
-3, ,26, ,
-6, ,26, ,
-8, ,26, ,
-11, ,26, ,
-17, ,26, ,
-18, ,26, ,
-21, ,26, ,
-22, ,26, ,
-28, ,26, ,
-30, ,26, ,
-33, ,26, ,
-35, ,26, ,
-39, ,26, ,
-40, ,26, ,
-43, ,26, ,
-45, ,26, ,
-47, ,26, ,
-50, ,26, ,
-49, ,26, ,
-51, ,26, ,
-52, ,26, ,
-52, ,26, ,
-53, ,26, ,
-52, ,26, ,
-50, ,26, ,
-50, ,26, ,
-48, ,26, ,
-48, ,26, ,
-46, ,26, ,
-43, ,26, ,
-42, ,26, ,
-39, ,26, ,
-35, ,26, ,
-34, ,26, ,
-32, ,26, ,
-31, ,26, ,
-28, ,26, ,
-24, ,26, ,
-22, ,26, ,
-20, ,26, ,
-15, ,26, ,
-16, ,26, ,
-12, ,26, ,
-12, ,26, ,
-7, ,26, ,
-4, ,26, ,
-4, ,26, ,
0, ,26, ,
3, ,26, ,
6, ,26, ,
8, ,26, ,
10, ,26, ,
15, ,26, ,
18, ,26, ,
20, ,26, ,
23, ,26, ,
26, ,26, ,
26, ,26, ,
29, ,26, ,
29, ,26, ,
28, ,26, ,
28, ,26, ,
27, ,26, ,
26, ,26, ,
24, ,26, ,
20, ,26, ,
20, ,26, ,
18, ,26, ,
13, ,26, ,
12, ,26, ,
9, ,26, ,
10, ,26, ,
5, ,26, ,
4, ,26, ,
2, ,26, ,
1, ,26, ,
0, ,26, ,
0, ,26, ,
-2, ,26, ,
-2, ,26, ,
-1, ,26, ,
-2, ,26, ,
-3, ,26, ,
-3, ,26, ,
-5, ,26, ,
-5, ,26, ,
-6, ,26, ,
-8, ,26, ,
-10, ,26, ,
-12, ,26, ,
-12, ,26, ,
-16, ,26, ,
-19, ,26, ,
-20, ,26, ,
-22, ,26, ,
-22, ,26, ,
-25, ,26, ,
-27, ,26, ,
-27, ,26, ,
-28, ,26, ,
-29, ,26, ,
-27, ,26, ,
-28, ,26, ,
-27, ,26, ,
-25, ,26, ,
-25, ,26, ,
-23, ,26, ,
-24, ,26, ,
-22, ,26, ,
-19, ,26, ,
-20, ,26, ,
-18, ,26, ,
-16, ,26, ,
-17, ,26, ,
-16, ,26, ,
-16, ,26, ,
-15, ,26, ,
-15, ,26, ,
-16, ,26, ,
-16, ,26, ,
-16, ,26, ,
-17, ,26, ,
-16, ,26, ,
-19, ,26, ,
-16, ,26, ,
-16, ,26, ,
-17, ,26, ,
-17, ,26, ,
-15, ,26, ,
-15, ,26, ,
-14, ,26, ,
-14, ,26, ,
-13, ,26, ,
-10, ,26, ,
-10, ,26, ,
-8, ,26, ,
-6, ,26, ,
-5, ,26, ,
-4, ,26, ,
-4, ,26, ,
-2, ,26, ,
-1, ,26, ,
-2, ,26, ,
1, ,26, ,
1, ,26, ,
2, ,26, ,
1, ,26, ,
3, ,26, ,
3, ,26, ,
3, ,26, ,
3, ,26, ,
4, ,26, ,
5, ,26, ,
5, ,26, ,
5, ,26, ,
6, ,26, ,
6, ,26, ,
10, ,26, ,
10, ,26, ,
11, ,26, ,
13, ,26, ,
15, ,26, ,
16, ,26, ,
17, ,26, ,
20, ,26, ,
21, ,26, ,
21, ,26, ,
24, ,26, ,
25, ,26, ,
25, ,26, ,
25, ,26, ,
25, ,26, ,
24, ,26, ,
24, ,26, ,
23, ,26, ,
23, ,26, ,
23, ,26, ,
21, ,26, ,
21, ,26, ,
20, ,26, ,
19, ,26, ,
18, ,26, ,
17, ,26, ,
17, ,26, ,
15, ,26, ,
13, ,26, ,
14, ,26, ,
10, ,26, ,
9, ,26, ,
9, ,26, ,
6, ,26, ,
5, ,26, ,
4, ,26, ,
1, ,26, ,
0, ,26, ,
-3, ,26, ,
-5, ,26, ,
-5, ,26, ,
-9, ,26, ,
-8, ,26, ,
-14, ,26, ,
-16, ,26, ,
-16, ,26, ,
-20, ,26, ,
-23, ,26, ,
-21, ,26, ,
-24, ,26, ,
-25, ,26, ,
-26, ,26, ,
-29, ,26, ,
-29, ,26, ,
-30, ,26, ,
-31, ,26, ,
-31, ,26, ,
-32, ,26, ,
-32, ,26, ,
-31, ,26, ,
-31, ,26, ,
-30, ,26, ,
-32, ,26, ,
-30, ,26, ,
-29, ,26, ,
-29, ,26, ,
-25, ,26, ,
-24, ,26, ,
-23, ,26, ,
-20, ,26, ,
-21, ,26, ,
-16, ,26, ,
-13, ,26, ,
-10, ,26, ,
-6, ,26, ,
-4, ,26, ,
-2, ,26, ,
2, ,26, ,
3, ,26, ,
8, ,26, ,
10, ,26, ,
10, ,26, ,
13, ,26, ,
16, ,26, ,
16, ,26, ,
18, ,26, ,
18, ,26, ,
21, ,26, ,
21, ,26, ,
21, ,26, ,
24, ,26, ,
26, ,26, ,
26, ,26, ,
26, ,26, ,
26, ,26, ,
28, ,26, ,
30, ,26, ,
29, ,26, ,
31, ,26, ,
31, ,26, ,
31, ,26, ,
31, ,26, ,
30, ,26, ,
30, ,26, ,
29, ,26, ,
27, ,26, ,
27, ,26, ,
25, ,26, ,
23, ,26, ,
23, ,26, ,
20, ,26, ,
17, ,26, ,
15, ,26, ,
13, ,26, ,
13, ,26, ,
9, ,26, ,
7, ,26, ,
7, ,26, ,
4, ,26, ,
2, ,26, ,
3, ,26, ,
1, ,26, ,
1, ,26, ,
0, ,26, ,
0, ,26, ,
-1, ,26, ,
-1, ,26, ,
-2, ,26, ,
0, ,26, ,
-2, ,26, ,
-2, ,26, ,
-1, ,26, ,
-2, ,26, ,
-2, ,26, ,
-2, ,26, ,
-3, ,26, ,
-3, ,26, ,
-5, ,26, ,
-5, ,26, ,
-5, ,26, ,
-5, ,26, ,
-5, ,26, ,
-6, ,26, ,
-7, ,26, ,
-6, ,26, ,
-8, ,26, ,
-8, ,26, ,
-8, ,26, ,
-9, ,26, ,
-8, ,26, ,
-9, ,26, ,
-9, ,26, ,
-9, ,26, ,
-8, ,26, ,
-8, ,26, ,
-9, ,26, ,
-9, ,26, ,
-9, ,26, ,
-10, ,26, ,
-9, ,26, ,
-9, ,26, ,
-10, ,26, ,
-10, ,26, ,
-10, ,26, ,
-11, ,26, ,
-11, ,26, ,
-11, ,26, ,
-13, ,26, ,
-13, ,26, ,
-14, ,26, ,
-14, ,26, ,
-14, ,26, ,
-14, ,26, ,
-13, ,26, ,
-15, ,26, ,
-13, ,26, ,
-13, ,26, ,
-13, ,26, ,
-12, ,26, ,
-10, ,26, ,
-10, ,26, ,
-7, ,26, ,
-8, ,26, ,
-5, ,26, ,
-4, ,26, ,
-2, ,26, ,
-1, ,26, ,
3, ,26, ,
2, ,26, ,
5, ,26, ,
5, ,26, ,
6, ,26, ,
9, ,26, ,
9, ,26, ,
11, ,26, ,
13, ,26, ,
14, ,26, ,
16, ,26, ,
16, ,26, ,
17, ,26, ,
19, ,26, ,
19, ,26, ,
20, ,26, ,
21, ,26, ,
22, ,26, ,
24, ,26, ,
23, ,26, ,
25, ,26, ,
25, ,26, ,
25, ,26, ,
25, ,26, ,
25, ,26, ,
25, ,26, ,
25, ,26, ,
24, ,26, ,
22, ,26, ,
22, ,26, ,
21, ,26, ,
20, ,26, ,
19, ,26, ,
17, ,26, ,
17, ,26, ,
15, ,26, ,
14, ,26, ,
10, ,26, ,
9, ,26, ,
9, ,26, ,
6, ,26, ,
4, ,26, ,
2, ,26, ,
0, ,26, ,
-4, ,26, ,
-5, ,26, ,
-6, ,26, ,
-6, ,26, ,
-10, ,26, ,
-11, ,26, ,
-14, ,26, ,
-15, ,26, ,
-17, ,26, ,
-18, ,26, ,
-19, ,26, ,
-19, ,26, ,
-20, ,26, ,
-22, ,26, ,
-21, ,26, ,
-22, ,26, ,
-20, ,26, ,
-20, ,26, ,
-21, ,26, ,
-20, ,26, ,
-20, ,26, ,
-19, ,26, ,
-18, ,26, ,
-19, ,26, ,
-18, ,26, ,
-17, ,26, ,
-17, ,26, ,
-16, ,26, ,
-15, ,26, ,
-15, ,26, ,
-14, ,26, ,
-13, ,26, ,
-12, ,26, ,
-11, ,26, ,
-10, ,26, ,
-9, ,26, ,
-7, ,26, ,
-5, ,26, ,
-4, ,26, ,
-4, ,26, ,
-1, ,26, ,
0, ,26, ,
1, ,26, ,
2, ,26, ,
5, ,26, ,
6, ,26, ,
8, ,26, ,
7, ,26, ,
9, ,26, ,
10, ,26, ,
11, ,26, ,
12, ,26, ,
12, ,26, ,
11, ,26, ,
11, ,26, ,
11, ,26, ,
12, ,26, ,
12, ,26, ,
11, ,26, ,
11, ,26, ,
10, ,26, ,
9, ,26, ,
9, ,26, ,
9, ,26, ,
8, ,26, ,
10, ,26, ,
9, ,26, ,
10, ,26, ,
9, ,26, ,
10, ,26, ,
10, ,26, ,
10, ,26, ,
10, ,26, ,
11, ,26, ,
10, ,26, ,
11, ,26, ,
11, ,26, ,
10, ,26, ,
10, ,26, ,
10, ,26, ,
9, ,26, ,
9, ,26, ,
9, ,26, ,
9, ,26, ,
9, ,26, ,
8, ,26, ,
8, ,26, ,
8, ,26, ,
8, ,26, ,
7, ,26, ,
7, ,26, ,
7, ,26, ,
7, ,26, ,
7, ,26, ,
8, ,26, ,
7, ,26, ,
6, ,26, ,
8, ,26, ,
8, ,26, ,
8, ,26, ,
8, ,26, ,
7, ,26, ,
8, ,26, ,
7, ,26, ,
