raw_data/100% Glycerol, Impulsion 2Hz, Sonde 5MHz, Rampe 0.7Hz/temp0000174.CSV

Format,1.0B,
Memory Length,10000,Memory Length,10000,
IntpDistance,0,IntpDistance,0,
Trigger Address,159,Trigger Address,159,
Trigger Level,2.720E-01,Trigger Level,2.720E-01,
Source,CH1,Source,CH2,
Vertical Units,V,Vertical Units,V,
Vertical Units Div,0,Vertical Units Div,0,
Vertical Units Extend Div,16,Vertical Units Extend Div,16,
Label,,Label,,
Probe Type,0,Probe Type,0,
Probe Ratio,1.000e+00,Probe Ratio,1.000e+00,
Vertical Scale,2.000e-01,Vertical Scale,2.000e+00,
Vertical Position,0.000e+00,Vertical Position,0.000e+00,
Horizontal Units,S,Horizontal Units,S,
Horizontal Scale,5.000E-06,Horizontal Scale,5.000E-06,
Horizontal Position,2.420E-05,Horizontal Position,2.420E-05,
Horizontal Mode,Main,Horizontal Mode,Main,
SincET Mode,Real Time,SincET Mode,Real Time,
Sampling Period,5.000e-09,Sampling Period,5.000e-09,
Horizontal Old Scale,5.000E-06,Horizontal Old Scale,5.000E-06,
Horizontal Old Position,2.420E-05,Horizontal Old Position,2.420E-05,
Firmware,V1.32,Firmware,V1.32,
Mode,Fast,Mode,Fast,
Waveform Data,,Waveform Data,,
2, ,-10, ,
1, ,-10, ,
1, ,-10, ,
2, ,-10, ,
0, ,-10, ,
1, ,-10, ,
2, ,-10, ,
1, ,-10, ,
2, ,-10, ,
0, ,-10, ,
1, ,-10, ,
2, ,-10, ,
2, ,-10, ,
2, ,-10, ,
1, ,-10, ,
1, ,-10, ,
2, ,-10, ,
0, ,-10, ,
1, ,-10, ,
2, ,-10, ,
0, ,-10, ,
1, ,-10, ,
1, ,-10, ,
2, ,-10, ,
1, ,-10, ,
2, ,-10, ,
1, ,-10, ,
2, ,-10, ,
0, ,-10, ,
3, ,-10, ,
1, ,-10, ,
0, ,-10, ,
1, ,-10, ,
0, ,-10, ,
2, ,-10, ,
1, ,-10, ,
1, ,-10, ,
1, ,-10, ,
2, ,-10, ,
2, ,-10, ,
1, ,-10, ,
1, ,-10, ,
1, ,-10, ,
2, ,-10, ,
1, ,-10, ,
2, ,-10, ,
1, ,-10, ,
1, ,-10, ,
1, ,-10, ,
1, ,-10, ,
2, ,-10, ,
2, ,-10, ,
1, ,-10, ,
1, ,-10, ,
1, ,-10, ,
0, ,-10, ,
1, ,-10, ,
1, ,-10, ,
1, ,-10, ,
1, ,-10, ,
1, ,-10, ,
1, ,-10, ,
1, ,-10, ,
1, ,-10, ,
1, ,-10, ,
1, ,-10, ,
1, ,-10, ,
1, ,-10, ,
1, ,-10, ,
1, ,-10, ,
2, ,-10, ,
1, ,-10, ,
2, ,-10, ,
1, ,-10, ,
0, ,-10, ,
1, ,-10, ,
1, ,-10, ,
1, ,-10, ,
1, ,-10, ,
2, ,-10, ,
2, ,-10, ,
1, ,-10, ,
1, ,-10, ,
2, ,-10, ,
1, ,-10, ,
2, ,-10, ,
2, ,-10, ,
1, ,-10, ,
2, ,-10, ,
1, ,-10, ,
1, ,-10, ,
1, ,-10, ,
1, ,-10, ,
2, ,-10, ,
2, ,-10, ,
1, ,-10, ,
2, ,-10, ,
1, ,-10, ,
1, ,-10, ,
2, ,-10, ,
0, ,-10, ,
1, ,-10, ,
1, ,-10, ,
1, ,-10, ,
1, ,-10, ,
1, ,-10, ,
1, ,-10, ,
2, ,-10, ,
1, ,-10, ,
2, ,-10, ,
2, ,-10, ,
1, ,-10, ,
2, ,-10, ,
0, ,-10, ,
1, ,-10, ,
2, ,-10, ,
1, ,-10, ,
2, ,-10, ,
1, ,-10, ,
1, ,-10, ,
2, ,-10, ,
2, ,-10, ,
2, ,-10, ,
1, ,-10, ,
0, ,-10, ,
2, ,-10, ,
2, ,-10, ,
1, ,-10, ,
2, ,-10, ,
1, ,-10, ,
1, ,-10, ,
2, ,-10, ,
1, ,-10, ,
2, ,-10, ,
2, ,-10, ,
1, ,-10, ,
1, ,-10, ,
1, ,-10, ,
2, ,-10, ,
2, ,-10, ,
1, ,-10, ,
2, ,-10, ,
2, ,-10, ,
1, ,-10, ,
2, ,-10, ,
2, ,-10, ,
1, ,-10, ,
1, ,-10, ,
1, ,-10, ,
1, ,-10, ,
3, ,-10, ,
2, ,-10, ,
2, ,-10, ,
1, ,-10, ,
1, ,-10, ,
2, ,-10, ,
1, ,-10, ,
1, ,-10, ,
1, ,-10, ,
1, ,-10, ,
1, ,-10, ,
1, ,-10, ,
1, ,-10, ,
1, ,-10, ,
4, ,-10, ,
-2, ,-10, ,
-1, ,-10, ,
2, ,-10, ,
36, ,-10, ,
100, ,-10, ,
125, ,-10, ,
125, ,-10, ,
125, ,-10, ,
120, ,-10, ,
-2, ,-10, ,
0, ,-10, ,
113, ,-10, ,
125, ,-10, ,
125, ,-10, ,
125, ,-10, ,
125, ,-10, ,
125, ,-10, ,
125, ,-10, ,
125, ,-10, ,
125, ,-10, ,
125, ,-10, ,
125, ,-10, ,
125, ,-10, ,
125, ,-10, ,
125, ,-10, ,
125, ,-10, ,
125, ,-10, ,
125, ,-10, ,
125, ,-10, ,
125, ,-10, ,
125, ,-10, ,
125, ,-10, ,
125, ,-10, ,
125, ,-10, ,
125, ,-10, ,
125, ,-10, ,
125, ,-10, ,
124, ,-10, ,
124, ,-10, ,
119, ,-10, ,
115, ,-10, ,
106, ,-10, ,
101, ,-10, ,
98, ,-10, ,
93, ,-10, ,
85, ,-10, ,
81, ,-10, ,
77, ,-10, ,
74, ,-10, ,
67, ,-10, ,
63, ,-10, ,
62, ,-10, ,
58, ,-10, ,
52, ,-10, ,
51, ,-10, ,
48, ,-10, ,
46, ,-10, ,
43, ,-10, ,
40, ,-10, ,
38, ,-10, ,
35, ,-10, ,
32, ,-10, ,
32, ,-10, ,
29, ,-10, ,
27, ,-10, ,
25, ,-10, ,
23, ,-10, ,
22, ,-10, ,
22, ,-10, ,
18, ,-10, ,
18, ,-10, ,
17, ,-10, ,
17, ,-10, ,
14, ,-10, ,
12, ,-10, ,
12, ,-10, ,
10, ,-10, ,
9, ,-10, ,
9, ,-10, ,
7, ,-10, ,
8, ,-10, ,
6, ,-10, ,
6, ,-10, ,
6, ,-10, ,
4, ,-10, ,
3, ,-10, ,
3, ,-10, ,
2, ,-10, ,
3, ,-10, ,
2, ,-10, ,
1, ,-10, ,
1, ,-10, ,
0, ,-10, ,
0, ,-10, ,
0, ,-10, ,
0, ,-10, ,
0, ,-10, ,
-1, ,-10, ,
-2, ,-10, ,
-1, ,-10, ,
-2, ,-10, ,
-2, ,-10, ,
-2, ,-10, ,
-2, ,-10, ,
-2, ,-10, ,
-2, ,-10, ,
-2, ,-10, ,
-3, ,-10, ,
-4, ,-10, ,
-4, ,-10, ,
-3, ,-10, ,
-3, ,-10, ,
-2, ,-10, ,
-3, ,-10, ,
-4, ,-10, ,
-3, ,-10, ,
-3, ,-10, ,
-5, ,-10, ,
-3, ,-10, ,
-4, ,-10, ,
-3, ,-10, ,
-3, ,-10, ,
-3, ,-10, ,
-3, ,-10, ,
-3, ,-10, ,
-3, ,-10, ,
-2, ,-10, ,
-4, ,-10, ,
-2, ,-10, ,
-3, ,-10, ,
-3, ,-10, ,
-3, ,-10, ,
-3, ,-10, ,
-4, ,-10, ,
-2, ,-10, ,
-3, ,-10, ,
-3, ,-10, ,
-2, ,-10, ,
-2, ,-10, ,
-2, ,-10, ,
-3, ,-10, ,
-3, ,-10, ,
-2, ,-10, ,
-2, ,-10, ,
-1, ,-10, ,
-2, ,-10, ,
-2, ,-10, ,
-2, ,-10, ,
-2, ,-10, ,
-2, ,-10, ,
-1, ,-10, ,
-2, ,-10, ,
-1, ,-10, ,
-1, ,-10, ,
-1, ,-10, ,
-1, ,-10, ,
-1, ,-10, ,
-1, ,-10, ,
-1, ,-10, ,
-2, ,-10, ,
-1, ,-10, ,
0, ,-10, ,
-1, ,-10, ,
0, ,-10, ,
-1, ,-10, ,
-1, ,-10, ,
0, ,-10, ,
0, ,-10, ,
0, ,-10, ,
0, ,-10, ,
-1, ,-10, ,
0, ,-10, ,
-1, ,-10, ,
0, ,-10, ,
0, ,-10, ,
0, ,-10, ,
0, ,-10, ,
1, ,-10, ,
-1, ,-10, ,
0, ,-10, ,
-2, ,-10, ,
0, ,-10, ,
0, ,-10, ,
0, ,-10, ,
0, ,-10, ,
0, ,-10, ,
0, ,-10, ,
0, ,-10, ,
0, ,-10, ,
1, ,-10, ,
1, ,-10, ,
0, ,-10, ,
0, ,-10, ,
0, ,-10, ,
0, ,-10, ,
0, ,-10, ,
0, ,-10, ,
0, ,-10, ,
2, ,-10, ,
-1, ,-10, ,
0, ,-10, ,
1, ,-10, ,
1, ,-10, ,
2, ,-10, ,
0, ,-10, ,
0, ,-10, ,
0, ,-10, ,
0, ,-10, ,
0, ,-10, ,
1, ,-10, ,
0, ,-10, ,
1, ,-10, ,
0, ,-10, ,
0, ,-10, ,
2, ,-10, ,
1, ,-10, ,
1, ,-10, ,
1, ,-10, ,
0, ,-10, ,
0, ,-10, ,
0, ,-10, ,
1, ,-10, ,
1, ,-10, ,
0, ,-10, ,
1, ,-10, ,
1, ,-10, ,
-1, ,-10, ,
1, ,-10, ,
0, ,-10, ,
1, ,-10, ,
1, ,-10, ,
1, ,-10, ,
1, ,-10, ,
1, ,-10, ,
1, ,-10, ,
2, ,-10, ,
1, ,-10, ,
1, ,-10, ,
1, ,-10, ,
1, ,-10, ,
1, ,-10, ,
2, ,-10, ,
1, ,-10, ,
2, ,-10, ,
1, ,-10, ,
1, ,-10, ,
1, ,-10, ,
1, ,-10, ,
1, ,-10, ,
2, ,-10, ,
1, ,-10, ,
3, ,-10, ,
0, ,-10, ,
1, ,-10, ,
1, ,-10, ,
1, ,-10, ,
1, ,-10, ,
2, ,-10, ,
0, ,-10, ,
0, ,-10, ,
0, ,-10, ,
-1, ,-10, ,
1, ,-10, ,
0, ,-10, ,
1, ,-10, ,
2, ,-10, ,
0, ,-10, ,
1, ,-10, ,
1, ,-10, ,
1, ,-10, ,
1, ,-10, ,
0, ,-10, ,
1, ,-10, ,
1, ,-10, ,
0, ,-10, ,
0, ,-10, ,
0, ,-10, ,
-1, ,-10, ,
-1, ,-10, ,
-1, ,-10, ,
0, ,-10, ,
0, ,-10, ,
-1, ,-10, ,
0, ,-10, ,
0, ,-10, ,
1, ,-10, ,
2, ,-10, ,
1, ,-10, ,
1, ,-10, ,
2, ,-10, ,
1, ,-10, ,
1, ,-10, ,
2, ,-10, ,
1, ,-10, ,
1, ,-10, ,
1, ,-10, ,
1, ,-10, ,
0, ,-10, ,
1, ,-10, ,
1, ,-10, ,
0, ,-10, ,
0, ,-10, ,
0, ,-10, ,
0, ,-10, ,
0, ,-10, ,
1, ,-10, ,
0, ,-10, ,
2, ,-10, ,
2, ,-10, ,
1, ,-10, ,
2, ,-10, ,
0, ,-10, ,
0, ,-10, ,
0, ,-10, ,
-1, ,-10, ,
0, ,-10, ,
-4, ,-10, ,
-5, ,-10, ,
-6, ,-10, ,
-9, ,-10, ,
-7, ,-10, ,
-8, ,-10, ,
-9, ,-10, ,
-8, ,-10, ,
-9, ,-10, ,
-10, ,-10, ,
-11, ,-10, ,
-12, ,-10, ,
-12, ,-10, ,
-20, ,-10, ,
-25, ,-10, ,
-30, ,-10, ,
-41, ,-10, ,
-65, ,-10, ,
-77, ,-10, ,
-92, ,-10, ,
-104, ,-10, ,
-118, ,-10, ,
-121, ,-10, ,
-117, ,-10, ,
-116, ,-10, ,
-105, ,-10, ,
-98, ,-10, ,
-93, ,-10, ,
-86, ,-10, ,
-79, ,-10, ,
-79, ,-10, ,
-77, ,-10, ,
-78, ,-10, ,
-76, ,-10, ,
-76, ,-10, ,
-74, ,-10, ,
-71, ,-10, ,
-62, ,-10, ,
-57, ,-10, ,
-48, ,-10, ,
-42, ,-10, ,
-25, ,-10, ,
-15, ,-10, ,
-9, ,-10, ,
-2, ,-10, ,
8, ,-10, ,
8, ,-10, ,
9, ,-10, ,
7, ,-10, ,
-1, ,-10, ,
-5, ,-10, ,
-14, ,-10, ,
-21, ,-10, ,
-42, ,-10, ,
-54, ,-10, ,
-64, ,-10, ,
-75, ,-10, ,
-97, ,-10, ,
-105, ,-10, ,
-114, ,-10, ,
-121, ,-10, ,
-126, ,-10, ,
-126, ,-10, ,
-126, ,-10, ,
-126, ,-10, ,
-126, ,-10, ,
-126, ,-10, ,
-123, ,-10, ,
-114, ,-10, ,
-93, ,-10, ,
-83, ,-10, ,
-67, ,-10, ,
-53, ,-10, ,
-25, ,-10, ,
-8, ,-10, ,
6, ,-10, ,
22, ,-10, ,
52, ,-10, ,
65, ,-10, ,
78, ,-10, ,
89, ,-10, ,
105, ,-10, ,
113, ,-10, ,
118, ,-10, ,
122, ,-10, ,
123, ,-10, ,
123, ,-10, ,
122, ,-10, ,
118, ,-10, ,
109, ,-10, ,
104, ,-10, ,
96, ,-10, ,
87, ,-10, ,
62, ,-10, ,
46, ,-10, ,
33, ,-10, ,
18, ,-10, ,
-9, ,-10, ,
-17, ,-10, ,
-23, ,-10, ,
-24, ,-10, ,
-21, ,-10, ,
-15, ,-10, ,
-6, ,-10, ,
6, ,-10, ,
31, ,-10, ,
42, ,-10, ,
55, ,-10, ,
65, ,-10, ,
82, ,-10, ,
89, ,-10, ,
93, ,-10, ,
96, ,-10, ,
99, ,-10, ,
100, ,-10, ,
98, ,-10, ,
97, ,-10, ,
96, ,-10, ,
91, ,-10, ,
93, ,-10, ,
87, ,-10, ,
83, ,-10, ,
83, ,-10, ,
78, ,-10, ,
76, ,-10, ,
71, ,-10, ,
69, ,-10, ,
66, ,-10, ,
63, ,-10, ,
60, ,-10, ,
57, ,-10, ,
55, ,-10, ,
53, ,-10, ,
49, ,-10, ,
47, ,-10, ,
46, ,-10, ,
43, ,-10, ,
40, ,-10, ,
39, ,-10, ,
37, ,-10, ,
36, ,-10, ,
34, ,-10, ,
32, ,-10, ,
32, ,-10, ,
29, ,-10, ,
28, ,-10, ,
27, ,-10, ,
22, ,-10, ,
16, ,-10, ,
-73, ,-10, ,
-126, ,-10, ,
-126, ,-10, ,
-126, ,-10, ,
-126, ,-10, ,
-126, ,-10, ,
-126, ,-10, ,
-126, ,-10, ,
-126, ,-10, ,
-126, ,-10, ,
-126, ,-10, ,
-126, ,-10, ,
-126, ,-10, ,
-126, ,-10, ,
-126, ,-10, ,
-126, ,-10, ,
-126, ,-10, ,
-126, ,-10, ,
-126, ,-10, ,
-126, ,-10, ,
-126, ,-10, ,
-126, ,-10, ,
-126, ,-10, ,
-126, ,-10, ,
-126, ,-10, ,
-126, ,-10, ,
-126, ,-10, ,
-126, ,-10, ,
-126, ,-10, ,
-126, ,-10, ,
-126, ,-10, ,
-126, ,-10, ,
-110, ,-10, ,
-66, ,-10, ,
-18, ,-10, ,
13, ,-10, ,
18, ,-10, ,
8, ,-10, ,
1, ,-10, ,
2, ,-10, ,
14, ,-10, ,
18, ,-10, ,
24, ,-10, ,
26, ,-10, ,
34, ,-10, ,
35, ,-10, ,
33, ,-10, ,
30, ,-10, ,
15, ,-10, ,
4, ,-10, ,
-7, ,-10, ,
-21, ,-10, ,
-45, ,-10, ,
-55, ,-10, ,
-67, ,-10, ,
-75, ,-10, ,
-87, ,-10, ,
-92, ,-10, ,
-93, ,-10, ,
-93, ,-10, ,
-91, ,-10, ,
-86, ,-10, ,
-83, ,-10, ,
-79, ,-10, ,
-68, ,-10, ,
-64, ,-10, ,
-57, ,-10, ,
-52, ,-10, ,
-39, ,-10, ,
-30, ,-10, ,
-26, ,-10, ,
-17, ,-10, ,
-4, ,-10, ,
1, ,-10, ,
9, ,-10, ,
11, ,-10, ,
18, ,-10, ,
18, ,-10, ,
17, ,-10, ,
16, ,-10, ,
10, ,-10, ,
5, ,-10, ,
2, ,-10, ,
-1, ,-10, ,
-10, ,-10, ,
-10, ,-10, ,
-12, ,-10, ,
-11, ,-10, ,
-7, ,-10, ,
-4, ,-10, ,
2, ,-10, ,
6, ,-10, ,
21, ,-10, ,
31, ,-10, ,
37, ,-10, ,
48, ,-10, ,
66, ,-10, ,
75, ,-10, ,
85, ,-10, ,
94, ,-10, ,
110, ,-10, ,
121, ,-10, ,
125, ,-10, ,
125, ,-10, ,
125, ,-10, ,
125, ,-10, ,
125, ,-10, ,
125, ,-10, ,
125, ,-10, ,
125, ,-10, ,
125, ,-10, ,
125, ,-10, ,
125, ,-10, ,
125, ,-10, ,
125, ,-10, ,
125, ,-10, ,
125, ,-10, ,
125, ,-10, ,
125, ,-10, ,
125, ,-10, ,
125, ,-10, ,
124, ,-10, ,
124, ,-10, ,
122, ,-10, ,
112, ,-10, ,
107, ,-10, ,
102, ,-10, ,
100, ,-10, ,
93, ,-10, ,
89, ,-10, ,
89, ,-10, ,
86, ,-10, ,
84, ,-10, ,
85, ,-10, ,
85, ,-10, ,
86, ,-10, ,
87, ,-10, ,
87, ,-10, ,
88, ,-10, ,
87, ,-10, ,
86, ,-10, ,
86, ,-10, ,
83, ,-10, ,
83, ,-10, ,
79, ,-10, ,
76, ,-10, ,
74, ,-10, ,
71, ,-10, ,
64, ,-10, ,
61, ,-10, ,
57, ,-10, ,
54, ,-10, ,
45, ,-10, ,
39, ,-10, ,
35, ,-10, ,
27, ,-10, ,
14, ,-10, ,
7, ,-10, ,
-3, ,-10, ,
-11, ,-10, ,
-28, ,-10, ,
-36, ,-10, ,
-43, ,-10, ,
-54, ,-10, ,
-68, ,-10, ,
-73, ,-10, ,
-82, ,-10, ,
-85, ,-10, ,
-94, ,-10, ,
-96, ,-10, ,
-99, ,-10, ,
-102, ,-10, ,
-104, ,-10, ,
-104, ,-10, ,
-104, ,-10, ,
-103, ,-10, ,
-98, ,-10, ,
-99, ,-10, ,
-95, ,-10, ,
-93, ,-10, ,
-83, ,-10, ,
-78, ,-10, ,
-73, ,-10, ,
-65, ,-10, ,
-52, ,-10, ,
-45, ,-10, ,
-37, ,-10, ,
-32, ,-10, ,
-17, ,-10, ,
-9, ,-10, ,
-4, ,-10, ,
5, ,-10, ,
16, ,-10, ,
21, ,-10, ,
28, ,-10, ,
33, ,-10, ,
43, ,-10, ,
47, ,-10, ,
51, ,-10, ,
56, ,-10, ,
61, ,-10, ,
63, ,-10, ,
66, ,-10, ,
65, ,-10, ,
67, ,-10, ,
67, ,-10, ,
67, ,-10, ,
67, ,-10, ,
66, ,-10, ,
64, ,-10, ,
64, ,-10, ,
61, ,-10, ,
59, ,-10, ,
59, ,-10, ,
56, ,-10, ,
56, ,-10, ,
49, ,-10, ,
49, ,-10, ,
48, ,-10, ,
43, ,-10, ,
42, ,-10, ,
41, ,-10, ,
40, ,-10, ,
41, ,-10, ,
40, ,-10, ,
40, ,-10, ,
41, ,-10, ,
42, ,-10, ,
44, ,-10, ,
47, ,-10, ,
47, ,-10, ,
50, ,-10, ,
52, ,-10, ,
52, ,-10, ,
52, ,-10, ,
53, ,-10, ,
53, ,-10, ,
54, ,-10, ,
51, ,-10, ,
50, ,-10, ,
49, ,-10, ,
45, ,-10, ,
44, ,-10, ,
42, ,-10, ,
36, ,-10, ,
35, ,-10, ,
32, ,-10, ,
29, ,-10, ,
22, ,-10, ,
19, ,-10, ,
15, ,-10, ,
10, ,-10, ,
4, ,-10, ,
0, ,-10, ,
-3, ,-10, ,
-6, ,-10, ,
-11, ,-10, ,
-16, ,-10, ,
-17, ,-10, ,
-20, ,-10, ,
-25, ,-10, ,
-25, ,-10, ,
-26, ,-10, ,
-26, ,-10, ,
-25, ,-10, ,
-25, ,-10, ,
-24, ,-10, ,
-25, ,-10, ,
-22, ,-10, ,
-20, ,-10, ,
-19, ,-10, ,
-17, ,-10, ,
-14, ,-10, ,
-14, ,-10, ,
-12, ,-10, ,
-10, ,-10, ,
-10, ,-10, ,
-8, ,-10, ,
-9, ,-10, ,
-6, ,-10, ,
-4, ,-10, ,
-4, ,-10, ,
-3, ,-10, ,
-3, ,-10, ,
-2, ,-10, ,
-2, ,-10, ,
-2, ,-10, ,
-1, ,-10, ,
-1, ,-10, ,
-1, ,-10, ,
-1, ,-10, ,
0, ,-10, ,
0, ,-10, ,
1, ,-10, ,
2, ,-10, ,
2, ,-10, ,
3, ,-10, ,
3, ,-10, ,
4, ,-10, ,
3, ,-10, ,
3, ,-10, ,
3, ,-10, ,
1, ,-10, ,
1, ,-10, ,
1, ,-10, ,
-2, ,-10, ,
-1, ,-10, ,
-4, ,-10, ,
-8, ,-10, ,
-8, ,-10, ,
-11, ,-10, ,
-11, ,-10, ,
-17, ,-10, ,
-19, ,-10, ,
-21, ,-10, ,
-25, ,-10, ,
-29, ,-10, ,
-31, ,-10, ,
-35, ,-10, ,
-35, ,-10, ,
-40, ,-10, ,
-42, ,-10, ,
-42, ,-10, ,
-43, ,-10, ,
-45, ,-10, ,
-44, ,-10, ,
-44, ,-10, ,
-43, ,-10, ,
-41, ,-10, ,
-43, ,-10, ,
-40, ,-10, ,
-41, ,-10, ,
-40, ,-10, ,
-40, ,-10, ,
-40, ,-10, ,
-39, ,-10, ,
-39, ,-10, ,
-39, ,-10, ,
-39, ,-10, ,
-39, ,-10, ,
-39, ,-10, ,
-39, ,-10, ,
-38, ,-10, ,
-38, ,-10, ,
-37, ,-10, ,
-37, ,-10, ,
-36, ,-10, ,
-35, ,-10, ,
-34, ,-10, ,
-30, ,-10, ,
-30, ,-10, ,
-29, ,-10, ,
-24, ,-10, ,
-22, ,-10, ,
-19, ,-10, ,
-17, ,-10, ,
-13, ,-10, ,
-9, ,-10, ,
-9, ,-10, ,
-5, ,-10, ,
-3, ,-10, ,
-1, ,-10, ,
0, ,-10, ,
0, ,-10, ,
-1, ,-10, ,
-2, ,-10, ,
-4, ,-10, ,
-6, ,-10, ,
-11, ,-10, ,
-17, ,-10, ,
-21, ,-10, ,
-25, ,-10, ,
-36, ,-10, ,
-42, ,-10, ,
-50, ,-10, ,
-57, ,-10, ,
-77, ,-10, ,
-87, ,-10, ,
-97, ,-10, ,
-109, ,-10, ,
-126, ,-10, ,
-126, ,-10, ,
-126, ,-10, ,
-126, ,-10, ,
-126, ,-10, ,
-126, ,-10, ,
-126, ,-10, ,
-126, ,-10, ,
-126, ,-10, ,
-126, ,-10, ,
-126, ,-10, ,
-126, ,-10, ,
-126, ,-10, ,
-126, ,-10, ,
-126, ,-10, ,
-126, ,-10, ,
-126, ,-10, ,
-126, ,-10, ,
-126, ,-10, ,
-126, ,-10, ,
-120, ,-10, ,
-117, ,-10, ,
-111, ,-10, ,
-107, ,-10, ,
-100, ,-10, ,
-94, ,-10, ,
-93, ,-10, ,
-86, ,-10, ,
-81, ,-10, ,
-78, ,-10, ,
-73, ,-10, ,
-71, ,-10, ,
-63, ,-10, ,
-61, ,-10, ,
-58, ,-10, ,
-56, ,-10, ,
-50, ,-10, ,
-50, ,-10, ,
-46, ,-10, ,
-45, ,-10, ,
-34, ,-10, ,
-8, ,-10, ,
54, ,-10, ,
125, ,-10, ,
125, ,-10, ,
125, ,-10, ,
125, ,-10, ,
125, ,-10, ,
125, ,-10, ,
125, ,-10, ,
125, ,-10, ,
125, ,-10, ,
125, ,-10, ,
125, ,-10, ,
125, ,-10, ,
125, ,-10, ,
125, ,-10, ,
125, ,-10, ,
125, ,-10, ,
125, ,-10, ,
125, ,-10, ,
125, ,-10, ,
125, ,-10, ,
125, ,-10, ,
125, ,-10, ,
125, ,-10, ,
125, ,-10, ,
125, ,-10, ,
125, ,-10, ,
125, ,-10, ,
125, ,-10, ,
125, ,-10, ,
125, ,-10, ,
125, ,-10, ,
124, ,-10, ,
123, ,-10, ,
87, ,-10, ,
62, ,-10, ,
41, ,-10, ,
19, ,-10, ,
-18, ,-10, ,
-34, ,-10, ,
-45, ,-10, ,
-56, ,-10, ,
-72, ,-10, ,
-76, ,-10, ,
-77, ,-10, ,
-77, ,-10, ,
-71, ,-10, ,
-63, ,-10, ,
-57, ,-10, ,
-49, ,-10, ,
-31, ,-10, ,
-21, ,-10, ,
-10, ,-10, ,
-2, ,-10, ,
15, ,-10, ,
24, ,-10, ,
29, ,-10, ,
35, ,-10, ,
45, ,-10, ,
47, ,-10, ,
49, ,-10, ,
48, ,-10, ,
45, ,-10, ,
43, ,-10, ,
39, ,-10, ,
35, ,-10, ,
25, ,-10, ,
17, ,-10, ,
10, ,-10, ,
3, ,-10, ,
-11, ,-10, ,
-17, ,-10, ,
-24, ,-10, ,
-30, ,-10, ,
-38, ,-10, ,
-45, ,-10, ,
-47, ,-10, ,
-51, ,-10, ,
-55, ,-10, ,
-56, ,-10, ,
-58, ,-10, ,
-57, ,-10, ,
-59, ,-10, ,
-59, ,-10, ,
-58, ,-10, ,
-59, ,-10, ,
-59, ,-10, ,
-59, ,-10, ,
-59, ,-10, ,
-59, ,-10, ,
-59, ,-10, ,
-60, ,-10, ,
-61, ,-10, ,
-62, ,-10, ,
-65, ,-10, ,
-64, ,-10, ,
-67, ,-10, ,
-69, ,-10, ,
-71, ,-10, ,
-75, ,-10, ,
-77, ,-10, ,
-80, ,-10, ,
-84, ,-10, ,
-84, ,-10, ,
-86, ,-10, ,
-89, ,-10, ,
-91, ,-10, ,
-91, ,-10, ,
-92, ,-10, ,
-93, ,-10, ,
-93, ,-10, ,
-93, ,-10, ,
-92, ,-10, ,
-91, ,-10, ,
-88, ,-10, ,
-88, ,-10, ,
-88, ,-10, ,
-86, ,-10, ,
-83, ,-10, ,
-82, ,-10, ,
-81, ,-10, ,
-80, ,-10, ,
-78, ,-10, ,
-79, ,-10, ,
-78, ,-10, ,
-78, ,-10, ,
-78, ,-10, ,
-78, ,-10, ,
-79, ,-10, ,
-79, ,-10, ,
-79, ,-10, ,
-80, ,-10, ,
-80, ,-10, ,
-81, ,-10, ,
-81, ,-10, ,
-81, ,-10, ,
-81, ,-10, ,
-80, ,-10, ,
-78, ,-10, ,
-79, ,-10, ,
-77, ,-10, ,
-75, ,-10, ,
-74, ,-10, ,
-70, ,-10, ,
-70, ,-10, ,
-69, ,-10, ,
-65, ,-10, ,
-65, ,-10, ,
-62, ,-10, ,
-63, ,-10, ,
-62, ,-10, ,
-61, ,-10, ,
-61, ,-10, ,
-61, ,-10, ,
-62, ,-10, ,
-63, ,-10, ,
-63, ,-10, ,
-65, ,-10, ,
-67, ,-10, ,
-67, ,-10, ,
-68, ,-10, ,
-67, ,-10, ,
-68, ,-10, ,
-68, ,-10, ,
-68, ,-10, ,
-68, ,-10, ,
-66, ,-10, ,
-64, ,-10, ,
-63, ,-10, ,
-61, ,-10, ,
-53, ,-10, ,
-52, ,-10, ,
-46, ,-10, ,
-42, ,-10, ,
-32, ,-10, ,
-27, ,-10, ,
-21, ,-10, ,
-13, ,-10, ,
-1, ,-10, ,
5, ,-10, ,
15, ,-10, ,
19, ,-10, ,
34, ,-10, ,
39, ,-10, ,
42, ,-10, ,
49, ,-10, ,
60, ,-10, ,
62, ,-10, ,
65, ,-10, ,
67, ,-10, ,
72, ,-10, ,
73, ,-10, ,
73, ,-10, ,
73, ,-10, ,
71, ,-10, ,
68, ,-10, ,
67, ,-10, ,
63, ,-10, ,
56, ,-10, ,
52, ,-10, ,
46, ,-10, ,
43, ,-10, ,
34, ,-10, ,
28, ,-10, ,
22, ,-10, ,
16, ,-10, ,
6, ,-10, ,
4, ,-10, ,
-2, ,-10, ,
-5, ,-10, ,
-14, ,-10, ,
-20, ,-10, ,
-22, ,-10, ,
-26, ,-10, ,
-30, ,-10, ,
-30, ,-10, ,
-32, ,-10, ,
-32, ,-10, ,
-33, ,-10, ,
-33, ,-10, ,
-32, ,-10, ,
-32, ,-10, ,
-29, ,-10, ,
-29, ,-10, ,
-26, ,-10, ,
-24, ,-10, ,
-24, ,-10, ,
-21, ,-10, ,
-20, ,-10, ,
-20, ,-10, ,
-17, ,-10, ,
-15, ,-10, ,
-15, ,-10, ,
-14, ,-10, ,
-14, ,-10, ,
-14, ,-10, ,
-14, ,-10, ,
-14, ,-10, ,
-14, ,-10, ,
-13, ,-10, ,
-15, ,-10, ,
-15, ,-10, ,
-15, ,-10, ,
-15, ,-10, ,
-15, ,-10, ,
-16, ,-10, ,
-16, ,-10, ,
-16, ,-10, ,
-17, ,-10, ,
-16, ,-10, ,
-16, ,-10, ,
-16, ,-10, ,
-15, ,-10, ,
-15, ,-10, ,
-13, ,-10, ,
-12, ,-10, ,
-12, ,-10, ,
-10, ,-10, ,
-9, ,-10, ,
-8, ,-10, ,
-7, ,-10, ,
-7, ,-10, ,
-5, ,-10, ,
-4, ,-10, ,
-4, ,-10, ,
-3, ,-10, ,
-2, ,-10, ,
-2, ,-10, ,
-2, ,-10, ,
-2, ,-10, ,
-2, ,-10, ,
-2, ,-10, ,
-3, ,-10, ,
-3, ,-10, ,
-5, ,-10, ,
-3, ,-10, ,
-4, ,-10, ,
-6, ,-10, ,
-7, ,-10, ,
-6, ,-10, ,
-7, ,-10, ,
-7, ,-10, ,
-6, ,-10, ,
-7, ,-10, ,
-7, ,-10, ,
-7, ,-10, ,
-7, ,-10, ,
-5, ,-10, ,
-4, ,-10, ,
-4, ,-10, ,
0, ,-10, ,
1, ,-10, ,
3, ,-10, ,
3, ,-10, ,
10, ,-10, ,
12, ,-10, ,
13, ,-10, ,
18, ,-10, ,
22, ,-10, ,
26, ,-10, ,
30, ,-10, ,
31, ,-10, ,
37, ,-10, ,
40, ,-10, ,
44, ,-10, ,
47, ,-10, ,
52, ,-10, ,
55, ,-10, ,
59, ,-10, ,
59, ,-10, ,
63, ,-10, ,
65, ,-10, ,
67, ,-10, ,
67, ,-10, ,
69, ,-10, ,
66, ,-10, ,
68, ,-10, ,
66, ,-10, ,
64, ,-10, ,
63, ,-10, ,
60, ,-10, ,
60, ,-10, ,
56, ,-10, ,
53, ,-10, ,
49, ,-10, ,
46, ,-10, ,
41, ,-10, ,
38, ,-10, ,
34, ,-10, ,
33, ,-10, ,
25, ,-10, ,
21, ,-10, ,
20, ,-10, ,
15, ,-10, ,
9, ,-10, ,
8, ,-10, ,
5, ,-10, ,
3, ,-10, ,
0, ,-10, ,
-2, ,-10, ,
-2, ,-10, ,
-2, ,-10, ,
-2, ,-10, ,
-1, ,-10, ,
-1, ,-10, ,
1, ,-10, ,
6, ,-10, ,
8, ,-10, ,
12, ,-10, ,
15, ,-10, ,
23, ,-10, ,
30, ,-10, ,
32, ,-10, ,
39, ,-10, ,
51, ,-10, ,
59, ,-10, ,
66, ,-10, ,
72, ,-10, ,
90, ,-10, ,
99, ,-10, ,
105, ,-10, ,
115, ,-10, ,
125, ,-10, ,
125, ,-10, ,
125, ,-10, ,
125, ,-10, ,
125, ,-10, ,
125, ,-10, ,
125, ,-10, ,
125, ,-10, ,
125, ,-10, ,
125, ,-10, ,
125, ,-10, ,
125, ,-10, ,
125, ,-10, ,
125, ,-10, ,
125, ,-10, ,
125, ,-10, ,
125, ,-10, ,
125, ,-10, ,
125, ,-10, ,
125, ,-10, ,
125, ,-10, ,
125, ,-10, ,
125, ,-10, ,
125, ,-10, ,
125, ,-10, ,
125, ,-10, ,
125, ,-10, ,
125, ,-10, ,
124, ,-10, ,
124, ,-10, ,
122, ,-10, ,
114, ,-10, ,
89, ,-10, ,
68, ,-10, ,
43, ,-10, ,
7, ,-10, ,
-82, ,-10, ,
-126, ,-10, ,
-126, ,-10, ,
-126, ,-10, ,
-126, ,-10, ,
-126, ,-10, ,
-126, ,-10, ,
-126, ,-10, ,
-126, ,-10, ,
-126, ,-10, ,
-126, ,-10, ,
-126, ,-10, ,
-126, ,-10, ,
-126, ,-10, ,
-126, ,-10, ,
-126, ,-10, ,
-126, ,-10, ,
-126, ,-10, ,
-126, ,-10, ,
-126, ,-10, ,
-126, ,-10, ,
-126, ,-10, ,
-126, ,-10, ,
-126, ,-10, ,
-126, ,-10, ,
-126, ,-10, ,
-126, ,-10, ,
-126, ,-10, ,
-126, ,-10, ,
-126, ,-10, ,
-126, ,-10, ,
-126, ,-10, ,
-126, ,-10, ,
-126, ,-10, ,
-126, ,-10, ,
-126, ,-10, ,
-126, ,-10, ,
-123, ,-10, ,
-117, ,-10, ,
-114, ,-10, ,
-104, ,-10, ,
-100, ,-10, ,
-94, ,-10, ,
-74, ,-10, ,
78, ,-10, ,
125, ,-10, ,
125, ,-10, ,
125, ,-10, ,
125, ,-10, ,
125, ,-10, ,
125, ,-10, ,
125, ,-10, ,
125, ,-10, ,
125, ,-10, ,
125, ,-10, ,
125, ,-10, ,
125, ,-10, ,
125, ,-10, ,
125, ,-10, ,
125, ,-10, ,
125, ,-10, ,
125, ,-10, ,
125, ,-10, ,
125, ,-10, ,
125, ,-10, ,
125, ,-10, ,
125, ,-10, ,
124, ,-10, ,
110, ,-10, ,
54, ,-10, ,
-4, ,-10, ,
-59, ,-10, ,
-126, ,-10, ,
-126, ,-10, ,
-126, ,-10, ,
-126, ,-10, ,
-126, ,-10, ,
-126, ,-10, ,
-126, ,-10, ,
-126, ,-10, ,
-126, ,-10, ,
-126, ,-10, ,
-126, ,-10, ,
-126, ,-10, ,
-126, ,-10, ,
-126, ,-10, ,
-125, ,-10, ,
-116, ,-10, ,
-78, ,-10, ,
-58, ,-10, ,
-43, ,-10, ,
-27, ,-10, ,
-1, ,-10, ,
