raw_data/100% Glycerol, Impulsion 2Hz, Sonde 5MHz, Rampe 0.7Hz/temp0000393.CSV

Format,1.0B,
Memory Length,10000,Memory Length,10000,
IntpDistance,0,IntpDistance,0,
Trigger Address,159,Trigger Address,159,
Trigger Level,2.720E-01,Trigger Level,2.720E-01,
Source,CH1,Source,CH2,
Vertical Units,V,Vertical Units,V,
Vertical Units Div,0,Vertical Units Div,0,
Vertical Units Extend Div,16,Vertical Units Extend Div,16,
Label,,Label,,
Probe Type,0,Probe Type,0,
Probe Ratio,1.000e+00,Probe Ratio,1.000e+00,
Vertical Scale,2.000e-01,Vertical Scale,2.000e+00,
Vertical Position,0.000e+00,Vertical Position,0.000e+00,
Horizontal Units,S,Horizontal Units,S,
Horizontal Scale,5.000E-06,Horizontal Scale,5.000E-06,
Horizontal Position,2.420E-05,Horizontal Position,2.420E-05,
Horizontal Mode,Main,Horizontal Mode,Main,
SincET Mode,Real Time,SincET Mode,Real Time,
Sampling Period,5.000e-09,Sampling Period,5.000e-09,
Horizontal Old Scale,5.000E-06,Horizontal Old Scale,5.000E-06,
Horizontal Old Position,2.420E-05,Horizontal Old Position,2.420E-05,
Firmware,V1.32,Firmware,V1.32,
Mode,Fast,Mode,Fast,
Waveform Data,,Waveform Data,,
1, ,8, ,
1, ,8, ,
1, ,9, ,
1, ,9, ,
1, ,9, ,
2, ,9, ,
2, ,9, ,
2, ,9, ,
2, ,9, ,
1, ,9, ,
1, ,9, ,
2, ,9, ,
1, ,9, ,
1, ,8, ,
1, ,8, ,
1, ,9, ,
1, ,9, ,
2, ,9, ,
2, ,9, ,
1, ,8, ,
2, ,8, ,
1, ,9, ,
2, ,8, ,
1, ,8, ,
1, ,8, ,
1, ,8, ,
1, ,8, ,
1, ,8, ,
1, ,8, ,
1, ,9, ,
2, ,9, ,
1, ,9, ,
2, ,9, ,
2, ,9, ,
2, ,9, ,
2, ,9, ,
1, ,9, ,
1, ,9, ,
2, ,9, ,
1, ,9, ,
1, ,9, ,
1, ,9, ,
2, ,8, ,
2, ,8, ,
1, ,8, ,
2, ,8, ,
2, ,8, ,
1, ,9, ,
1, ,9, ,
1, ,9, ,
1, ,9, ,
1, ,9, ,
1, ,9, ,
1, ,9, ,
1, ,9, ,
1, ,9, ,
2, ,9, ,
3, ,9, ,
1, ,9, ,
2, ,9, ,
0, ,9, ,
0, ,8, ,
2, ,8, ,
1, ,9, ,
2, ,8, ,
2, ,8, ,
1, ,9, ,
1, ,9, ,
1, ,9, ,
1, ,9, ,
2, ,9, ,
2, ,9, ,
3, ,9, ,
2, ,9, ,
2, ,9, ,
1, ,9, ,
1, ,9, ,
1, ,9, ,
2, ,9, ,
2, ,9, ,
2, ,9, ,
2, ,9, ,
1, ,9, ,
1, ,9, ,
1, ,9, ,
1, ,9, ,
2, ,9, ,
1, ,9, ,
2, ,9, ,
2, ,9, ,
2, ,9, ,
2, ,9, ,
1, ,9, ,
1, ,8, ,
2, ,8, ,
2, ,8, ,
2, ,9, ,
2, ,9, ,
1, ,9, ,
1, ,9, ,
2, ,9, ,
1, ,9, ,
2, ,8, ,
2, ,8, ,
2, ,8, ,
1, ,9, ,
0, ,9, ,
2, ,8, ,
1, ,8, ,
1, ,8, ,
3, ,8, ,
0, ,9, ,
2, ,9, ,
1, ,8, ,
1, ,8, ,
1, ,8, ,
1, ,9, ,
1, ,9, ,
1, ,9, ,
1, ,9, ,
2, ,9, ,
2, ,9, ,
2, ,9, ,
2, ,9, ,
1, ,9, ,
1, ,9, ,
2, ,9, ,
1, ,9, ,
3, ,9, ,
3, ,8, ,
1, ,8, ,
2, ,8, ,
1, ,9, ,
1, ,9, ,
2, ,9, ,
2, ,8, ,
1, ,8, ,
1, ,9, ,
2, ,9, ,
2, ,9, ,
1, ,9, ,
1, ,8, ,
1, ,8, ,
1, ,9, ,
1, ,8, ,
2, ,8, ,
1, ,9, ,
1, ,8, ,
1, ,8, ,
1, ,9, ,
2, ,9, ,
2, ,9, ,
2, ,9, ,
2, ,9, ,
1, ,9, ,
2, ,9, ,
1, ,9, ,
1, ,8, ,
2, ,8, ,
2, ,9, ,
2, ,9, ,
2, ,8, ,
3, ,8, ,
2, ,8, ,
4, ,9, ,
-1, ,9, ,
-2, ,9, ,
0, ,8, ,
24, ,8, ,
125, ,9, ,
125, ,9, ,
125, ,9, ,
125, ,9, ,
117, ,9, ,
32, ,9, ,
-18, ,9, ,
63, ,9, ,
125, ,9, ,
125, ,9, ,
125, ,9, ,
125, ,9, ,
125, ,9, ,
125, ,9, ,
125, ,9, ,
125, ,9, ,
125, ,9, ,
125, ,9, ,
125, ,9, ,
125, ,9, ,
125, ,8, ,
125, ,8, ,
125, ,9, ,
125, ,9, ,
125, ,9, ,
125, ,9, ,
125, ,9, ,
125, ,9, ,
125, ,9, ,
125, ,9, ,
125, ,9, ,
125, ,9, ,
125, ,9, ,
124, ,9, ,
124, ,9, ,
121, ,9, ,
111, ,9, ,
107, ,9, ,
102, ,9, ,
99, ,9, ,
90, ,9, ,
87, ,9, ,
84, ,9, ,
79, ,9, ,
71, ,9, ,
68, ,9, ,
66, ,9, ,
64, ,9, ,
57, ,9, ,
54, ,9, ,
52, ,9, ,
49, ,9, ,
44, ,9, ,
45, ,9, ,
40, ,9, ,
39, ,9, ,
36, ,8, ,
33, ,8, ,
32, ,8, ,
30, ,9, ,
26, ,9, ,
25, ,9, ,
24, ,9, ,
23, ,9, ,
20, ,8, ,
20, ,8, ,
18, ,8, ,
16, ,9, ,
15, ,9, ,
14, ,9, ,
12, ,9, ,
12, ,9, ,
12, ,9, ,
10, ,9, ,
9, ,8, ,
8, ,8, ,
6, ,8, ,
7, ,8, ,
6, ,8, ,
5, ,8, ,
4, ,9, ,
4, ,9, ,
4, ,8, ,
2, ,8, ,
2, ,9, ,
2, ,8, ,
1, ,8, ,
2, ,8, ,
0, ,8, ,
0, ,8, ,
0, ,8, ,
0, ,9, ,
-1, ,9, ,
-1, ,9, ,
-1, ,9, ,
-1, ,9, ,
-1, ,8, ,
-2, ,8, ,
-2, ,8, ,
-2, ,9, ,
-2, ,8, ,
-2, ,8, ,
-2, ,8, ,
-2, ,9, ,
-3, ,9, ,
-3, ,9, ,
-3, ,9, ,
-4, ,9, ,
-3, ,9, ,
-2, ,9, ,
-3, ,9, ,
-3, ,9, ,
-3, ,9, ,
-4, ,9, ,
-3, ,9, ,
-4, ,9, ,
-4, ,8, ,
-3, ,8, ,
-4, ,8, ,
-3, ,8, ,
-4, ,8, ,
-3, ,9, ,
-4, ,9, ,
-3, ,9, ,
-4, ,9, ,
-3, ,9, ,
-3, ,9, ,
-3, ,9, ,
-3, ,9, ,
-3, ,9, ,
-2, ,9, ,
-2, ,9, ,
-3, ,9, ,
-3, ,9, ,
-3, ,9, ,
-2, ,9, ,
-1, ,9, ,
-2, ,9, ,
-1, ,8, ,
-2, ,8, ,
-2, ,9, ,
-2, ,9, ,
-2, ,9, ,
-2, ,9, ,
-1, ,9, ,
-1, ,8, ,
-1, ,8, ,
-1, ,8, ,
-1, ,8, ,
0, ,8, ,
-1, ,8, ,
-2, ,9, ,
-1, ,9, ,
-2, ,9, ,
0, ,9, ,
-1, ,9, ,
-1, ,9, ,
-1, ,9, ,
-2, ,9, ,
0, ,9, ,
-1, ,9, ,
-1, ,9, ,
0, ,8, ,
-1, ,8, ,
0, ,9, ,
0, ,9, ,
-1, ,9, ,
0, ,8, ,
0, ,8, ,
-1, ,9, ,
-1, ,9, ,
0, ,8, ,
0, ,8, ,
0, ,9, ,
0, ,9, ,
0, ,9, ,
0, ,9, ,
-1, ,9, ,
1, ,9, ,
0, ,9, ,
0, ,9, ,
1, ,9, ,
1, ,9, ,
0, ,9, ,
0, ,9, ,
0, ,9, ,
0, ,8, ,
-1, ,8, ,
0, ,9, ,
0, ,9, ,
0, ,9, ,
1, ,9, ,
1, ,9, ,
0, ,9, ,
0, ,8, ,
0, ,8, ,
1, ,8, ,
0, ,8, ,
0, ,9, ,
0, ,9, ,
0, ,9, ,
0, ,9, ,
1, ,9, ,
1, ,9, ,
0, ,9, ,
0, ,9, ,
0, ,9, ,
0, ,9, ,
0, ,8, ,
1, ,8, ,
1, ,8, ,
0, ,9, ,
1, ,9, ,
1, ,9, ,
1, ,9, ,
1, ,8, ,
1, ,8, ,
0, ,9, ,
0, ,9, ,
0, ,9, ,
0, ,9, ,
1, ,9, ,
1, ,8, ,
1, ,8, ,
2, ,9, ,
1, ,9, ,
2, ,9, ,
0, ,9, ,
2, ,8, ,
2, ,8, ,
1, ,8, ,
1, ,9, ,
2, ,9, ,
1, ,9, ,
2, ,9, ,
0, ,9, ,
1, ,9, ,
1, ,9, ,
1, ,9, ,
1, ,9, ,
1, ,9, ,
1, ,9, ,
2, ,9, ,
1, ,9, ,
1, ,9, ,
3, ,8, ,
0, ,8, ,
1, ,8, ,
2, ,9, ,
1, ,9, ,
1, ,9, ,
1, ,9, ,
1, ,9, ,
1, ,8, ,
0, ,8, ,
1, ,8, ,
0, ,8, ,
0, ,8, ,
0, ,8, ,
0, ,9, ,
1, ,9, ,
1, ,9, ,
0, ,9, ,
1, ,9, ,
1, ,9, ,
1, ,9, ,
1, ,9, ,
0, ,9, ,
0, ,9, ,
1, ,9, ,
0, ,9, ,
0, ,9, ,
0, ,8, ,
-1, ,8, ,
-1, ,8, ,
-2, ,9, ,
-1, ,9, ,
0, ,9, ,
-1, ,9, ,
0, ,9, ,
0, ,9, ,
1, ,9, ,
1, ,8, ,
1, ,8, ,
1, ,9, ,
1, ,9, ,
1, ,9, ,
2, ,9, ,
2, ,9, ,
2, ,9, ,
2, ,8, ,
1, ,8, ,
0, ,9, ,
1, ,9, ,
1, ,9, ,
1, ,8, ,
2, ,8, ,
0, ,9, ,
1, ,9, ,
0, ,9, ,
1, ,9, ,
1, ,9, ,
1, ,9, ,
2, ,9, ,
2, ,9, ,
2, ,9, ,
2, ,9, ,
2, ,9, ,
1, ,8, ,
1, ,8, ,
0, ,9, ,
0, ,9, ,
0, ,9, ,
-1, ,9, ,
-2, ,9, ,
-1, ,9, ,
-2, ,9, ,
0, ,9, ,
0, ,9, ,
1, ,9, ,
1, ,8, ,
0, ,8, ,
1, ,8, ,
1, ,9, ,
1, ,8, ,
2, ,8, ,
1, ,8, ,
2, ,8, ,
1, ,9, ,
1, ,9, ,
1, ,9, ,
1, ,9, ,
0, ,8, ,
0, ,8, ,
0, ,8, ,
1, ,8, ,
0, ,9, ,
0, ,9, ,
0, ,9, ,
0, ,9, ,
1, ,8, ,
1, ,8, ,
0, ,8, ,
1, ,9, ,
0, ,9, ,
-1, ,9, ,
-1, ,9, ,
-1, ,9, ,
-3, ,9, ,
-3, ,9, ,
-6, ,9, ,
-5, ,9, ,
-7, ,9, ,
-7, ,9, ,
-7, ,9, ,
-8, ,9, ,
-9, ,9, ,
-8, ,9, ,
-9, ,9, ,
-8, ,9, ,
-8, ,9, ,
-9, ,9, ,
-9, ,9, ,
-9, ,9, ,
-11, ,9, ,
-11, ,9, ,
-13, ,9, ,
-14, ,9, ,
-18, ,9, ,
-21, ,9, ,
-21, ,9, ,
-23, ,9, ,
-26, ,9, ,
-26, ,9, ,
-29, ,9, ,
-29, ,9, ,
-29, ,9, ,
-29, ,9, ,
-28, ,8, ,
-29, ,8, ,
-27, ,9, ,
-26, ,9, ,
-27, ,9, ,
-27, ,9, ,
-28, ,9, ,
-29, ,9, ,
-30, ,9, ,
-31, ,9, ,
-33, ,9, ,
-33, ,9, ,
-34, ,9, ,
-34, ,9, ,
-32, ,9, ,
-32, ,9, ,
-29, ,9, ,
-29, ,9, ,
-25, ,9, ,
-20, ,9, ,
-18, ,9, ,
-15, ,9, ,
-10, ,9, ,
-10, ,9, ,
-8, ,9, ,
-7, ,9, ,
-7, ,9, ,
-7, ,9, ,
-8, ,9, ,
-8, ,9, ,
-10, ,8, ,
-10, ,8, ,
-10, ,8, ,
-10, ,8, ,
-10, ,8, ,
-7, ,9, ,
-7, ,8, ,
-5, ,8, ,
-2, ,9, ,
-3, ,9, ,
0, ,9, ,
-1, ,9, ,
0, ,9, ,
0, ,8, ,
0, ,8, ,
0, ,8, ,
-3, ,9, ,
-4, ,9, ,
-5, ,9, ,
-7, ,9, ,
-11, ,9, ,
-11, ,8, ,
-13, ,8, ,
-13, ,8, ,
-15, ,9, ,
-16, ,9, ,
-17, ,9, ,
-17, ,9, ,
-17, ,9, ,
-16, ,8, ,
-17, ,8, ,
-18, ,8, ,
-19, ,9, ,
-22, ,9, ,
-22, ,9, ,
-25, ,9, ,
-28, ,9, ,
-30, ,9, ,
-31, ,9, ,
-31, ,9, ,
-33, ,9, ,
-33, ,9, ,
-31, ,9, ,
-32, ,9, ,
-27, ,9, ,
-25, ,9, ,
-24, ,9, ,
-22, ,9, ,
-20, ,9, ,
-20, ,8, ,
-19, ,8, ,
-19, ,8, ,
-20, ,8, ,
-20, ,9, ,
-20, ,8, ,
-21, ,8, ,
-20, ,9, ,
-21, ,9, ,
-20, ,9, ,
-21, ,9, ,
-22, ,9, ,
-22, ,9, ,
-22, ,9, ,
-23, ,8, ,
-24, ,8, ,
-24, ,9, ,
-24, ,9, ,
-24, ,9, ,
-24, ,9, ,
-24, ,8, ,
-24, ,8, ,
-23, ,8, ,
-23, ,8, ,
-24, ,8, ,
-23, ,8, ,
-25, ,9, ,
-26, ,9, ,
-26, ,9, ,
-28, ,9, ,
-28, ,9, ,
-30, ,8, ,
-30, ,8, ,
-29, ,8, ,
-29, ,9, ,
-27, ,9, ,
-25, ,8, ,
-26, ,8, ,
-24, ,8, ,
-24, ,9, ,
-23, ,9, ,
-23, ,9, ,
-25, ,9, ,
-26, ,9, ,
-28, ,9, ,
-30, ,9, ,
-30, ,9, ,
-33, ,9, ,
-34, ,9, ,
-34, ,9, ,
-34, ,9, ,
-35, ,9, ,
-34, ,9, ,
-33, ,9, ,
-32, ,9, ,
-30, ,9, ,
-29, ,9, ,
-29, ,8, ,
-29, ,8, ,
-29, ,8, ,
-28, ,8, ,
-29, ,8, ,
-28, ,8, ,
-27, ,8, ,
-25, ,9, ,
-25, ,9, ,
-25, ,8, ,
-22, ,8, ,
-20, ,8, ,
-19, ,8, ,
-16, ,8, ,
-15, ,9, ,
-14, ,9, ,
-14, ,8, ,
-14, ,8, ,
-12, ,8, ,
-11, ,8, ,
-11, ,9, ,
-10, ,8, ,
-7, ,8, ,
-7, ,9, ,
-4, ,8, ,
-3, ,8, ,
-2, ,9, ,
-2, ,9, ,
-1, ,9, ,
0, ,9, ,
0, ,9, ,
0, ,9, ,
0, ,9, ,
0, ,9, ,
1, ,9, ,
2, ,9, ,
1, ,9, ,
4, ,8, ,
5, ,8, ,
5, ,8, ,
5, ,8, ,
6, ,9, ,
6, ,9, ,
8, ,9, ,
7, ,9, ,
7, ,9, ,
6, ,9, ,
4, ,9, ,
5, ,9, ,
3, ,9, ,
3, ,9, ,
3, ,9, ,
2, ,9, ,
2, ,9, ,
1, ,9, ,
1, ,9, ,
0, ,8, ,
0, ,8, ,
0, ,9, ,
0, ,9, ,
0, ,9, ,
-1, ,9, ,
-1, ,8, ,
-4, ,8, ,
-3, ,8, ,
-4, ,9, ,
-6, ,9, ,
-5, ,9, ,
-8, ,9, ,
-8, ,9, ,
-8, ,9, ,
-12, ,9, ,
-11, ,9, ,
-14, ,9, ,
-17, ,9, ,
-16, ,8, ,
-20, ,8, ,
-20, ,8, ,
-23, ,9, ,
-25, ,9, ,
-26, ,9, ,
-28, ,9, ,
-30, ,9, ,
-31, ,9, ,
-32, ,9, ,
-32, ,8, ,
-35, ,8, ,
-36, ,9, ,
-36, ,9, ,
-37, ,9, ,
-40, ,9, ,
-39, ,9, ,
-39, ,9, ,
-39, ,9, ,
-38, ,9, ,
-39, ,9, ,
-37, ,9, ,
-37, ,9, ,
-34, ,9, ,
-32, ,9, ,
-32, ,9, ,
-30, ,8, ,
-27, ,8, ,
-26, ,9, ,
-23, ,9, ,
-24, ,9, ,
-22, ,9, ,
-20, ,8, ,
-20, ,8, ,
-19, ,8, ,
-18, ,8, ,
-19, ,8, ,
-17, ,8, ,
-18, ,9, ,
-18, ,9, ,
-16, ,9, ,
-16, ,9, ,
-16, ,8, ,
-15, ,8, ,
-15, ,9, ,
-14, ,9, ,
-12, ,9, ,
-12, ,9, ,
-11, ,9, ,
-12, ,9, ,
-10, ,9, ,
-9, ,9, ,
-7, ,9, ,
-4, ,8, ,
-3, ,8, ,
1, ,8, ,
2, ,8, ,
3, ,9, ,
6, ,9, ,
10, ,8, ,
9, ,8, ,
10, ,8, ,
10, ,9, ,
11, ,9, ,
12, ,9, ,
13, ,9, ,
13, ,9, ,
13, ,9, ,
12, ,9, ,
12, ,9, ,
11, ,9, ,
12, ,9, ,
12, ,9, ,
10, ,9, ,
10, ,9, ,
8, ,9, ,
7, ,9, ,
7, ,9, ,
5, ,9, ,
5, ,9, ,
5, ,9, ,
4, ,9, ,
4, ,8, ,
4, ,8, ,
4, ,9, ,
5, ,9, ,
4, ,9, ,
4, ,9, ,
5, ,9, ,
4, ,9, ,
5, ,9, ,
4, ,9, ,
3, ,9, ,
4, ,9, ,
3, ,9, ,
2, ,8, ,
2, ,8, ,
1, ,8, ,
2, ,8, ,
0, ,9, ,
-1, ,9, ,
0, ,9, ,
-2, ,9, ,
-3, ,9, ,
-4, ,9, ,
-6, ,9, ,
-5, ,8, ,
-8, ,8, ,
-11, ,9, ,
-11, ,8, ,
-13, ,8, ,
-17, ,9, ,
-16, ,9, ,
-20, ,9, ,
-20, ,9, ,
-21, ,9, ,
-25, ,9, ,
-25, ,9, ,
-27, ,9, ,
-28, ,8, ,
-28, ,8, ,
-32, ,9, ,
-31, ,8, ,
-33, ,8, ,
-35, ,9, ,
-35, ,9, ,
-37, ,9, ,
-38, ,9, ,
-38, ,9, ,
-39, ,8, ,
-39, ,8, ,
-40, ,9, ,
-41, ,9, ,
-40, ,9, ,
-40, ,9, ,
-40, ,9, ,
-39, ,9, ,
-37, ,9, ,
-36, ,9, ,
-34, ,9, ,
-34, ,9, ,
-30, ,9, ,
-30, ,9, ,
-27, ,9, ,
-24, ,9, ,
-24, ,9, ,
-20, ,9, ,
-17, ,9, ,
-15, ,9, ,
-13, ,9, ,
-12, ,9, ,
-8, ,8, ,
-7, ,8, ,
-6, ,9, ,
-4, ,9, ,
-2, ,9, ,
-3, ,9, ,
-3, ,9, ,
-4, ,9, ,
-5, ,9, ,
-5, ,9, ,
-5, ,9, ,
-7, ,9, ,
-7, ,9, ,
-9, ,9, ,
-8, ,9, ,
-11, ,9, ,
-12, ,9, ,
-12, ,8, ,
-13, ,8, ,
-14, ,8, ,
-15, ,8, ,
-16, ,8, ,
-16, ,8, ,
-17, ,9, ,
-17, ,9, ,
-17, ,9, ,
-18, ,9, ,
-17, ,9, ,
-17, ,9, ,
-17, ,9, ,
-17, ,9, ,
-17, ,9, ,
-17, ,9, ,
-16, ,9, ,
-17, ,9, ,
-15, ,8, ,
-15, ,8, ,
-15, ,9, ,
-14, ,9, ,
-14, ,9, ,
-14, ,9, ,
-13, ,9, ,
-13, ,9, ,
-12, ,9, ,
-12, ,9, ,
-11, ,9, ,
-10, ,8, ,
-11, ,8, ,
-9, ,8, ,
-8, ,8, ,
-8, ,8, ,
-7, ,9, ,
-5, ,9, ,
-5, ,9, ,
-4, ,9, ,
-4, ,9, ,
-5, ,9, ,
-2, ,9, ,
-2, ,9, ,
-1, ,9, ,
1, ,9, ,
0, ,9, ,
3, ,9, ,
3, ,9, ,
3, ,8, ,
5, ,8, ,
4, ,8, ,
6, ,9, ,
6, ,9, ,
6, ,9, ,
7, ,9, ,
6, ,9, ,
5, ,9, ,
7, ,9, ,
6, ,9, ,
6, ,9, ,
5, ,9, ,
4, ,9, ,
5, ,9, ,
2, ,9, ,
1, ,9, ,
0, ,9, ,
-1, ,9, ,
-1, ,9, ,
-3, ,9, ,
-6, ,9, ,
-7, ,8, ,
-8, ,8, ,
-11, ,9, ,
-12, ,9, ,
-14, ,9, ,
-14, ,9, ,
-15, ,8, ,
-16, ,8, ,
-16, ,8, ,
-17, ,8, ,
-18, ,9, ,
-18, ,8, ,
-18, ,8, ,
-18, ,8, ,
-17, ,9, ,
-18, ,9, ,
-17, ,9, ,
-18, ,9, ,
-17, ,9, ,
-14, ,8, ,
-14, ,8, ,
-13, ,8, ,
-10, ,9, ,
-12, ,8, ,
-8, ,8, ,
-9, ,8, ,
-7, ,9, ,
-5, ,9, ,
-6, ,9, ,
-5, ,8, ,
-4, ,8, ,
-4, ,9, ,
-4, ,9, ,
-4, ,9, ,
-4, ,9, ,
-4, ,9, ,
-4, ,9, ,
-3, ,9, ,
-4, ,8, ,
-4, ,8, ,
-4, ,8, ,
-5, ,9, ,
-6, ,9, ,
-5, ,8, ,
-7, ,8, ,
-6, ,8, ,
-8, ,9, ,
-9, ,9, ,
-7, ,9, ,
-9, ,9, ,
-10, ,9, ,
-10, ,9, ,
-11, ,9, ,
-10, ,9, ,
-12, ,8, ,
-12, ,8, ,
-11, ,8, ,
-13, ,9, ,
-13, ,8, ,
-13, ,8, ,
-13, ,9, ,
-13, ,9, ,
-12, ,9, ,
-12, ,9, ,
-12, ,9, ,
-12, ,9, ,
-12, ,9, ,
-10, ,9, ,
-9, ,9, ,
-9, ,8, ,
-6, ,8, ,
-5, ,9, ,
-4, ,9, ,
-4, ,9, ,
0, ,9, ,
1, ,9, ,
2, ,9, ,
3, ,8, ,
5, ,8, ,
5, ,9, ,
7, ,8, ,
5, ,8, ,
7, ,9, ,
9, ,8, ,
9, ,8, ,
10, ,8, ,
10, ,8, ,
10, ,8, ,
10, ,8, ,
11, ,8, ,
10, ,9, ,
11, ,9, ,
10, ,9, ,
10, ,8, ,
9, ,8, ,
8, ,9, ,
7, ,9, ,
7, ,9, ,
5, ,9, ,
5, ,9, ,
4, ,9, ,
5, ,9, ,
3, ,9, ,
2, ,9, ,
3, ,9, ,
1, ,9, ,
1, ,9, ,
2, ,9, ,
0, ,9, ,
1, ,9, ,
2, ,9, ,
-1, ,9, ,
-1, ,9, ,
-1, ,9, ,
-2, ,9, ,
-2, ,9, ,
-3, ,9, ,
-3, ,9, ,
-4, ,8, ,
-3, ,8, ,
-3, ,8, ,
-5, ,9, ,
-5, ,9, ,
-5, ,9, ,
-6, ,9, ,
-6, ,9, ,
-6, ,9, ,
-8, ,9, ,
-8, ,9, ,
-9, ,9, ,
-9, ,9, ,
-9, ,9, ,
-10, ,9, ,
-10, ,9, ,
-9, ,9, ,
-9, ,9, ,
-9, ,9, ,
-9, ,9, ,
-7, ,9, ,
-7, ,9, ,
-7, ,9, ,
-7, ,9, ,
-4, ,9, ,
-5, ,9, ,
-3, ,9, ,
-3, ,9, ,
0, ,8, ,
1, ,8, ,
0, ,9, ,
3, ,9, ,
3, ,9, ,
5, ,9, ,
7, ,9, ,
7, ,9, ,
7, ,9, ,
9, ,9, ,
9, ,9, ,
10, ,9, ,
10, ,9, ,
10, ,9, ,
10, ,9, ,
9, ,8, ,
8, ,8, ,
10, ,8, ,
8, ,8, ,
9, ,8, ,
7, ,9, ,
7, ,9, ,
8, ,9, ,
7, ,9, ,
6, ,8, ,
7, ,8, ,
6, ,9, ,
6, ,9, ,
7, ,9, ,
6, ,9, ,
7, ,9, ,
5, ,9, ,
6, ,9, ,
6, ,9, ,
6, ,9, ,
6, ,8, ,
6, ,8, ,
6, ,9, ,
6, ,9, ,
6, ,9, ,
6, ,8, ,
6, ,8, ,
4, ,9, ,
5, ,9, ,
4, ,9, ,
2, ,9, ,
3, ,9, ,
0, ,9, ,
0, ,9, ,
0, ,9, ,
-1, ,9, ,
-1, ,9, ,
-4, ,9, ,
-5, ,9, ,
-5, ,9, ,
-7, ,9, ,
-6, ,8, ,
-6, ,8, ,
-6, ,8, ,
-7, ,9, ,
-7, ,9, ,
-7, ,9, ,
-7, ,9, ,
-8, ,8, ,
-8, ,8, ,
-7, ,9, ,
-7, ,9, ,
-7, ,9, ,
-7, ,9, ,
-7, ,9, ,
-5, ,9, ,
-6, ,9, ,
-6, ,9, ,
-4, ,8, ,
-5, ,8, ,
-3, ,8, ,
-4, ,8, ,
-4, ,9, ,
-3, ,9, ,
-5, ,9, ,
-4, ,9, ,
-4, ,9, ,
-3, ,9, ,
-3, ,9, ,
-4, ,8, ,
-4, ,8, ,
-4, ,8, ,
-4, ,9, ,
-5, ,9, ,
-4, ,8, ,
-5, ,8, ,
-4, ,8, ,
-4, ,9, ,
-6, ,9, ,
-5, ,9, ,
-5, ,9, ,
-5, ,9, ,
-6, ,8, ,
-6, ,8, ,
-6, ,8, ,
-5, ,9, ,
-6, ,9, ,
-6, ,9, ,
-7, ,9, ,
-7, ,9, ,
-6, ,9, ,
-7, ,9, ,
-6, ,9, ,
-6, ,9, ,
-8, ,9, ,
-8, ,9, ,
-9, ,9, ,
-10, ,9, ,
-11, ,9, ,
-11, ,9, ,
-12, ,9, ,
-13, ,9, ,
-14, ,9, ,
-14, ,9, ,
-16, ,9, ,
-16, ,9, ,
-16, ,8, ,
-17, ,8, ,
-16, ,8, ,
-16, ,9, ,
-17, ,9, ,
-17, ,9, ,
-17, ,9, ,
-16, ,9, ,
-16, ,9, ,
-14, ,9, ,
-13, ,9, ,
-11, ,9, ,
-12, ,9, ,
-9, ,9, ,
-10, ,9, ,
-9, ,9, ,
-5, ,9, ,
-5, ,9, ,
-4, ,9, ,
-1, ,9, ,
-2, ,9, ,
0, ,9, ,
1, ,9, ,
2, ,9, ,
5, ,8, ,
4, ,8, ,
6, ,8, ,
6, ,9, ,
9, ,9, ,
9, ,9, ,
9, ,9, ,
10, ,9, ,
10, ,9, ,
10, ,9, ,
11, ,8, ,
11, ,8, ,
11, ,9, ,
12, ,9, ,
11, ,9, ,
11, ,9, ,
13, ,8, ,
11, ,8, ,
14, ,8, ,
13, ,9, ,
13, ,9, ,
13, ,9, ,
12, ,9, ,
11, ,9, ,
12, ,9, ,
10, ,9, ,
12, ,9, ,
12, ,8, ,
10, ,8, ,
11, ,9, ,
9, ,9, ,
9, ,9, ,
9, ,9, ,
8, ,9, ,
9, ,9, ,
9, ,9, ,
6, ,8, ,
7, ,8, ,
5, ,8, ,
5, ,9, ,
5, ,9, ,
3, ,9, ,
2, ,9, ,
2, ,9, ,
0, ,9, ,
1, ,9, ,
-1, ,9, ,
-3, ,9, ,
-3, ,9, ,
-3, ,9, ,
-3, ,9, ,
-5, ,9, ,
-5, ,9, ,
-5, ,9, ,
-6, ,9, ,
-7, ,8, ,
-6, ,8, ,
-7, ,9, ,
-7, ,9, ,
-6, ,8, ,
-7, ,8, ,
-6, ,8, ,
-8, ,8, ,
-9, ,8, ,
-6, ,9, ,
-7, ,9, ,
-7, ,9, ,
-6, ,9, ,
-7, ,9, ,
-6, ,9, ,
-6, ,9, ,
-6, ,8, ,
-5, ,8, ,
-7, ,9, ,
-5, ,9, ,
-4, ,9, ,
-5, ,9, ,
-5, ,9, ,
-5, ,9, ,
-4, ,9, ,
-4, ,8, ,
-5, ,8, ,
-5, ,8, ,
-5, ,9, ,
-5, ,9, ,
-5, ,9, ,
-5, ,9, ,
-6, ,9, ,
-6, ,9, ,
-6, ,9, ,
-7, ,9, ,
-7, ,9, ,
-7, ,9, ,
-6, ,8, ,
-8, ,8, ,
-9, ,9, ,
-9, ,9, ,
-9, ,9, ,
-9, ,8, ,
-9, ,8, ,
-9, ,9, ,
-9, ,9, ,
-9, ,9, ,
-9, ,9, ,
-9, ,9, ,
-8, ,9, ,
-7, ,9, ,
-7, ,9, ,
-8, ,9, ,
-8, ,8, ,
-9, ,8, ,
-9, ,9, ,
-7, ,9, ,
-8, ,9, ,
-8, ,9, ,
-9, ,9, ,
-9, ,9, ,
-6, ,9, ,
-9, ,9, ,
-7, ,9, ,
-7, ,9, ,
-8, ,9, ,
-8, ,8, ,
-9, ,8, ,
-10, ,9, ,
-9, ,9, ,
-10, ,9, ,
-10, ,9, ,
-9, ,9, ,
-9, ,9, ,
-9, ,9, ,
-9, ,9, ,
-9, ,9, ,
-10, ,9, ,
-9, ,9, ,
-9, ,8, ,
-8, ,8, ,
-9, ,9, ,
-9, ,9, ,
-9, ,9, ,
-9, ,9, ,
-10, ,9, ,
-10, ,8, ,
-10, ,8, ,
-10, ,9, ,
-11, ,9, ,
-10, ,9, ,
-11, ,9, ,
-12, ,9, ,
-11, ,9, ,
-12, ,9, ,
-10, ,9, ,
-9, ,9, ,
-9, ,9, ,
-7, ,8, ,
-5, ,8, ,
-5, ,9, ,
-2, ,9, ,
-2, ,9, ,
1, ,9, ,
4, ,9, ,
5, ,9, ,
7, ,9, ,
11, ,9, ,
12, ,9, ,
15, ,9, ,
15, ,9, ,
18, ,9, ,
21, ,9, ,
20, ,9, ,
23, ,9, ,
24, ,9, ,
23, ,9, ,
24, ,9, ,
23, ,9, ,
22, ,9, ,
20, ,9, ,
20, ,9, ,
19, ,9, ,
17, ,8, ,
14, ,8, ,
14, ,8, ,
12, ,9, ,
8, ,8, ,
8, ,8, ,
5, ,9, ,
5, ,9, ,
3, ,9, ,
2, ,9, ,
2, ,9, ,
0, ,9, ,
0, ,9, ,
0, ,9, ,
0, ,9, ,
0, ,9, ,
0, ,9, ,
0, ,9, ,
1, ,9, ,
0, ,9, ,
1, ,8, ,
4, ,8, ,
3, ,9, ,
5, ,9, ,
5, ,9, ,
5, ,9, ,
5, ,9, ,
5, ,9, ,
5, ,9, ,
6, ,8, ,
7, ,8, ,
7, ,8, ,
6, ,9, ,
6, ,9, ,
6, ,9, ,
6, ,9, ,
5, ,9, ,
6, ,9, ,
5, ,9, ,
7, ,8, ,
5, ,8, ,
5, ,9, ,
5, ,9, ,
5, ,9, ,
5, ,9, ,
5, ,9, ,
5, ,9, ,
6, ,9, ,
5, ,8, ,
5, ,8, ,
5, ,8, ,
5, ,9, ,
6, ,8, ,
7, ,8, ,
6, ,9, ,
6, ,9, ,
8, ,9, ,
6, ,9, ,
7, ,9, ,
6, ,9, ,
6, ,9, ,
7, ,9, ,
6, ,9, ,
7, ,9, ,
5, ,8, ,
5, ,8, ,
5, ,8, ,
4, ,9, ,
4, ,9, ,
5, ,9, ,
3, ,9, ,
3, ,9, ,
2, ,9, ,
1, ,9, ,
1, ,9, ,
1, ,9, ,
0, ,9, ,
1, ,9, ,
1, ,9, ,
1, ,9, ,
0, ,8, ,
-1, ,8, ,
0, ,8, ,
-1, ,9, ,
-2, ,9, ,
-1, ,9, ,
-2, ,9, ,
-1, ,9, ,
-2, ,9, ,
-3, ,9, ,
-3, ,9, ,
-4, ,9, ,
-4, ,9, ,
-4, ,9, ,
-5, ,9, ,
-5, ,9, ,
-6, ,8, ,
-7, ,8, ,
-6, ,8, ,
-8, ,9, ,
-8, ,9, ,
-8, ,9, ,
-9, ,9, ,
-9, ,9, ,
-9, ,9, ,
-10, ,9, ,
-9, ,8, ,
-9, ,8, ,
-9, ,9, ,
-8, ,8, ,
-9, ,8, ,
-8, ,8, ,
-8, ,9, ,
-7, ,9, ,
-7, ,9, ,
-7, ,9, ,
-5, ,9, ,
-4, ,9, ,
-5, ,9, ,
-2, ,9, ,
0, ,9, ,
0, ,9, ,
1, ,8, ,
1, ,8, ,
3, ,9, ,
4, ,9, ,
5, ,9, ,
6, ,8, ,
8, ,8, ,
8, ,9, ,
10, ,8, ,
9, ,8, ,
11, ,8, ,
12, ,8, ,
13, ,9, ,
13, ,9, ,
14, ,9, ,
13, ,9, ,
14, ,8, ,
14, ,8, ,
13, ,9, ,
15, ,9, ,
14, ,9, ,
14, ,9, ,
14, ,8, ,
13, ,8, ,
12, ,8, ,
11, ,9, ,
10, ,8, ,
10, ,8, ,
8, ,9, ,
8, ,9, ,
7, ,9, ,
5, ,9, ,
5, ,9, ,
3, ,9, ,
2, ,9, ,
1, ,9, ,
-1, ,9, ,
0, ,9, ,
-3, ,9, ,
-5, ,8, ,
-5, ,8, ,
-6, ,8, ,
-7, ,8, ,
-6, ,8, ,
-9, ,9, ,
-9, ,8, ,
-9, ,8, ,
-11, ,9, ,
-11, ,8, ,
-13, ,8, ,
-14, ,9, ,
-14, ,9, ,
-15, ,9, ,
-15, ,9, ,
-16, ,9, ,
-17, ,9, ,
-17, ,9, ,
-18, ,9, ,
-18, ,8, ,
-18, ,8, ,
-19, ,9, ,
-18, ,8, ,
-18, ,8, ,
-20, ,9, ,
-18, ,9, ,
-20, ,9, ,
-20, ,9, ,
-18, ,8, ,
-18, ,8, ,
-17, ,8, ,
-16, ,8, ,
-17, ,8, ,
-16, ,8, ,
-17, ,9, ,
-15, ,9, ,
-13, ,9, ,
-14, ,9, ,
-12, ,9, ,
-10, ,8, ,
-11, ,8, ,
-9, ,8, ,
-9, ,9, ,
-7, ,9, ,
-7, ,9, ,
-7, ,9, ,
-5, ,9, ,
-4, ,8, ,
-4, ,8, ,
-3, ,8, ,
-3, ,9, ,
-1, ,8, ,
0, ,8, ,
-1, ,9, ,
0, ,8, ,
0, ,8, ,
0, ,9, ,
1, ,9, ,
1, ,9, ,
1, ,9, ,
3, ,8, ,
3, ,8, ,
3, ,8, ,
4, ,9, ,
3, ,9, ,
4, ,9, ,
4, ,9, ,
4, ,8, ,
4, ,8, ,
4, ,8, ,
5, ,8, ,
5, ,9, ,
4, ,9, ,
4, ,9, ,
4, ,9, ,
3, ,8, ,
4, ,8, ,
3, ,9, ,
2, ,9, ,
2, ,8, ,
0, ,8, ,
0, ,8, ,
-1, ,9, ,
-4, ,9, ,
-3, ,8, ,
-5, ,8, ,
-5, ,8, ,
-6, ,8, ,
-8, ,8, ,
-8, ,9, ,
-10, ,9, ,
-11, ,8, ,
-11, ,8, ,
-12, ,9, ,
-11, ,9, ,
-13, ,9, ,
-13, ,9, ,
-13, ,8, ,
-14, ,8, ,
-12, ,9, ,
-11, ,9, ,
-10, ,9, ,
-9, ,9, ,
-5, ,9, ,
-5, ,9, ,
-2, ,9, ,
-2, ,9, ,
1, ,9, ,
4, ,8, ,
6, ,8, ,
10, ,8, ,
14, ,9, ,
15, ,9, ,
18, ,9, ,
18, ,9, ,
23, ,8, ,
27, ,8, ,
27, ,9, ,
29, ,9, ,
33, ,8, ,
33, ,8, ,
35, ,9, ,
35, ,8, ,
35, ,8, ,
35, ,9, ,
35, ,9, ,
35, ,9, ,
34, ,8, ,
33, ,8, ,
32, ,8, ,
30, ,8, ,
28, ,9, ,
29, ,9, ,
25, ,9, ,
25, ,9, ,
22, ,9, ,
19, ,9, ,
19, ,9, ,
18, ,9, ,
14, ,9, ,
13, ,9, ,
11, ,9, ,
11, ,9, ,
7, ,9, ,
6, ,9, ,
7, ,9, ,
3, ,9, ,
2, ,9, ,
2, ,9, ,
1, ,9, ,
1, ,9, ,
1, ,9, ,
-1, ,9, ,
-1, ,9, ,
-2, ,9, ,
0, ,9, ,
1, ,9, ,
0, ,9, ,
0, ,9, ,
2, ,9, ,
0, ,9, ,
2, ,8, ,
1, ,8, ,
3, ,9, ,
4, ,8, ,
3, ,8, ,
5, ,8, ,
5, ,9, ,
5, ,9, ,
5, ,9, ,
5, ,9, ,
5, ,9, ,
6, ,9, ,
5, ,9, ,
7, ,9, ,
6, ,8, ,
6, ,8, ,
6, ,8, ,
5, ,9, ,
5, ,9, ,
6, ,9, ,
5, ,9, ,
5, ,8, ,
4, ,8, ,
3, ,9, ,
3, ,9, ,
2, ,9, ,
1, ,9, ,
1, ,9, ,
0, ,9, ,
1, ,9, ,
-1, ,8, ,
-3, ,8, ,
-2, ,8, ,
-4, ,9, ,
-5, ,8, ,
-4, ,8, ,
-7, ,9, ,
-5, ,9, ,
-5, ,9, ,
-8, ,9, ,
-8, ,9, ,
-9, ,9, ,
-10, ,9, ,
-9, ,9, ,
-10, ,9, ,
-10, ,9, ,
-10, ,9, ,
-12, ,9, ,
-10, ,9, ,
-12, ,9, ,
-12, ,9, ,
-12, ,9, ,
-12, ,9, ,
-12, ,9, ,
-11, ,9, ,
-12, ,9, ,
-11, ,9, ,
-12, ,9, ,
-12, ,9, ,
-11, ,9, ,
-10, ,8, ,
-10, ,8, ,
-9, ,9, ,
-9, ,9, ,
-9, ,9, ,
-9, ,9, ,
-9, ,9, ,
-7, ,9, ,
-6, ,9, ,
-7, ,9, ,
-5, ,9, ,
-6, ,9, ,
-4, ,9, ,
-4, ,9, ,
-4, ,9, ,
-3, ,8, ,
-4, ,8, ,
-2, ,8, ,
-1, ,8, ,
-1, ,8, ,
-1, ,8, ,
-2, ,9, ,
-1, ,8, ,
1, ,8, ,
0, ,8, ,
1, ,9, ,
2, ,9, ,
0, ,9, ,
0, ,9, ,
0, ,9, ,
1, ,9, ,
2, ,9, ,
1, ,9, ,
2, ,9, ,
3, ,9, ,
2, ,9, ,
2, ,9, ,
2, ,9, ,
2, ,9, ,
3, ,9, ,
3, ,9, ,
3, ,9, ,
2, ,9, ,
1, ,9, ,
2, ,9, ,
0, ,9, ,
1, ,9, ,
2, ,9, ,
1, ,9, ,
2, ,9, ,
2, ,9, ,
1, ,9, ,
2, ,9, ,
0, ,9, ,
0, ,9, ,
2, ,9, ,
0, ,9, ,
1, ,9, ,
1, ,8, ,
0, ,8, ,
1, ,9, ,
0, ,9, ,
-2, ,9, ,
-1, ,9, ,
-3, ,8, ,
-2, ,8, ,
-1, ,9, ,
-1, ,9, ,
-1, ,9, ,
-2, ,9, ,
-1, ,9, ,
-1, ,9, ,
-2, ,9, ,
-1, ,9, ,
0, ,9, ,
-2, ,9, ,
1, ,9, ,
0, ,9, ,
0, ,9, ,
