raw_data/100% Glycerol, Impulsion 2Hz, Sonde 5MHz, Rampe 0.7Hz/temp0000270.CSV

Format,1.0B,
Memory Length,10000,Memory Length,10000,
IntpDistance,0,IntpDistance,0,
Trigger Address,159,Trigger Address,159,
Trigger Level,2.720E-01,Trigger Level,2.720E-01,
Source,CH1,Source,CH2,
Vertical Units,V,Vertical Units,V,
Vertical Units Div,0,Vertical Units Div,0,
Vertical Units Extend Div,16,Vertical Units Extend Div,16,
Label,,Label,,
Probe Type,0,Probe Type,0,
Probe Ratio,1.000e+00,Probe Ratio,1.000e+00,
Vertical Scale,2.000e-01,Vertical Scale,2.000e+00,
Vertical Position,0.000e+00,Vertical Position,0.000e+00,
Horizontal Units,S,Horizontal Units,S,
Horizontal Scale,5.000E-06,Horizontal Scale,5.000E-06,
Horizontal Position,2.420E-05,Horizontal Position,2.420E-05,
Horizontal Mode,Main,Horizontal Mode,Main,
SincET Mode,Real Time,SincET Mode,Real Time,
Sampling Period,5.000e-09,Sampling Period,5.000e-09,
Horizontal Old Scale,5.000E-06,Horizontal Old Scale,5.000E-06,
Horizontal Old Position,2.420E-05,Horizontal Old Position,2.420E-05,
Firmware,V1.32,Firmware,V1.32,
Mode,Fast,Mode,Fast,
Waveform Data,,Waveform Data,,
1, ,31, ,
1, ,31, ,
2, ,31, ,
1, ,31, ,
1, ,31, ,
3, ,31, ,
2, ,31, ,
2, ,31, ,
2, ,31, ,
2, ,31, ,
3, ,31, ,
2, ,31, ,
3, ,31, ,
2, ,31, ,
1, ,31, ,
1, ,31, ,
1, ,31, ,
2, ,31, ,
2, ,31, ,
1, ,31, ,
2, ,31, ,
2, ,31, ,
1, ,31, ,
2, ,31, ,
2, ,31, ,
2, ,31, ,
1, ,31, ,
2, ,31, ,
3, ,31, ,
3, ,31, ,
2, ,31, ,
2, ,31, ,
1, ,31, ,
1, ,31, ,
1, ,31, ,
1, ,31, ,
2, ,31, ,
1, ,31, ,
1, ,31, ,
2, ,31, ,
2, ,31, ,
2, ,31, ,
2, ,31, ,
2, ,31, ,
2, ,31, ,
2, ,31, ,
2, ,31, ,
2, ,31, ,
2, ,31, ,
3, ,31, ,
3, ,31, ,
2, ,31, ,
3, ,31, ,
2, ,31, ,
2, ,31, ,
2, ,31, ,
2, ,31, ,
2, ,31, ,
2, ,31, ,
2, ,31, ,
2, ,31, ,
2, ,31, ,
1, ,31, ,
2, ,31, ,
2, ,31, ,
1, ,31, ,
2, ,31, ,
2, ,31, ,
2, ,31, ,
2, ,31, ,
2, ,31, ,
2, ,31, ,
2, ,31, ,
1, ,31, ,
2, ,31, ,
1, ,31, ,
2, ,31, ,
3, ,31, ,
2, ,31, ,
2, ,31, ,
1, ,31, ,
2, ,31, ,
2, ,31, ,
2, ,31, ,
2, ,31, ,
3, ,31, ,
3, ,31, ,
1, ,31, ,
2, ,31, ,
1, ,31, ,
2, ,31, ,
2, ,31, ,
2, ,31, ,
2, ,31, ,
2, ,31, ,
2, ,31, ,
2, ,31, ,
3, ,31, ,
3, ,31, ,
2, ,31, ,
3, ,31, ,
2, ,31, ,
1, ,31, ,
1, ,31, ,
1, ,31, ,
1, ,31, ,
3, ,31, ,
2, ,31, ,
2, ,31, ,
2, ,31, ,
2, ,31, ,
2, ,31, ,
1, ,31, ,
1, ,31, ,
2, ,31, ,
1, ,31, ,
1, ,31, ,
2, ,31, ,
1, ,31, ,
2, ,31, ,
1, ,31, ,
2, ,31, ,
2, ,31, ,
2, ,31, ,
2, ,31, ,
2, ,31, ,
0, ,31, ,
2, ,31, ,
1, ,31, ,
2, ,31, ,
2, ,31, ,
2, ,31, ,
2, ,31, ,
2, ,31, ,
1, ,31, ,
2, ,31, ,
1, ,31, ,
1, ,31, ,
3, ,31, ,
2, ,31, ,
2, ,31, ,
2, ,31, ,
2, ,31, ,
2, ,31, ,
1, ,31, ,
1, ,31, ,
2, ,31, ,
0, ,31, ,
2, ,31, ,
2, ,31, ,
1, ,31, ,
2, ,31, ,
1, ,31, ,
2, ,31, ,
1, ,31, ,
2, ,31, ,
2, ,31, ,
2, ,31, ,
1, ,31, ,
2, ,31, ,
1, ,31, ,
1, ,31, ,
2, ,31, ,
1, ,31, ,
7, ,31, ,
1, ,31, ,
-2, ,31, ,
1, ,31, ,
29, ,31, ,
125, ,31, ,
125, ,31, ,
125, ,31, ,
125, ,31, ,
116, ,31, ,
14, ,31, ,
-13, ,31, ,
81, ,31, ,
125, ,31, ,
125, ,31, ,
125, ,31, ,
125, ,31, ,
125, ,31, ,
125, ,31, ,
125, ,31, ,
125, ,31, ,
125, ,31, ,
125, ,31, ,
125, ,31, ,
125, ,31, ,
125, ,31, ,
125, ,31, ,
125, ,31, ,
125, ,31, ,
125, ,31, ,
125, ,31, ,
125, ,31, ,
125, ,31, ,
125, ,31, ,
125, ,31, ,
125, ,31, ,
125, ,31, ,
125, ,31, ,
124, ,31, ,
124, ,31, ,
122, ,31, ,
111, ,31, ,
105, ,31, ,
103, ,31, ,
98, ,31, ,
89, ,31, ,
88, ,31, ,
81, ,31, ,
79, ,31, ,
72, ,31, ,
67, ,31, ,
65, ,31, ,
61, ,31, ,
56, ,31, ,
54, ,31, ,
52, ,31, ,
50, ,31, ,
45, ,31, ,
43, ,31, ,
40, ,31, ,
38, ,31, ,
35, ,31, ,
34, ,31, ,
30, ,31, ,
30, ,31, ,
29, ,31, ,
25, ,31, ,
25, ,31, ,
24, ,31, ,
20, ,31, ,
20, ,31, ,
18, ,31, ,
18, ,31, ,
15, ,31, ,
14, ,31, ,
14, ,31, ,
12, ,31, ,
11, ,31, ,
10, ,31, ,
8, ,31, ,
8, ,31, ,
7, ,31, ,
6, ,31, ,
6, ,31, ,
5, ,31, ,
4, ,31, ,
4, ,31, ,
3, ,31, ,
3, ,31, ,
3, ,31, ,
3, ,31, ,
2, ,31, ,
1, ,31, ,
0, ,31, ,
0, ,31, ,
0, ,31, ,
0, ,31, ,
0, ,31, ,
-1, ,31, ,
-1, ,31, ,
-2, ,31, ,
-2, ,31, ,
-2, ,31, ,
-2, ,31, ,
-2, ,31, ,
-2, ,31, ,
-1, ,31, ,
-3, ,31, ,
-3, ,31, ,
-2, ,31, ,
-2, ,31, ,
-3, ,31, ,
-2, ,31, ,
-3, ,31, ,
-3, ,31, ,
-2, ,31, ,
-3, ,31, ,
-4, ,31, ,
-2, ,31, ,
-3, ,31, ,
-2, ,31, ,
-3, ,31, ,
-4, ,31, ,
-3, ,31, ,
-3, ,31, ,
-4, ,31, ,
-3, ,31, ,
-4, ,31, ,
-2, ,31, ,
-3, ,31, ,
-3, ,31, ,
-3, ,31, ,
-3, ,31, ,
-3, ,31, ,
-4, ,31, ,
-2, ,31, ,
-2, ,31, ,
-2, ,31, ,
-2, ,31, ,
-2, ,31, ,
-2, ,31, ,
-4, ,31, ,
-1, ,31, ,
-2, ,31, ,
-1, ,31, ,
-1, ,31, ,
-2, ,31, ,
-2, ,31, ,
-2, ,31, ,
-2, ,31, ,
-1, ,31, ,
-2, ,31, ,
-2, ,31, ,
-1, ,31, ,
-1, ,31, ,
-1, ,31, ,
-2, ,31, ,
-1, ,31, ,
-1, ,31, ,
-1, ,31, ,
-1, ,31, ,
-1, ,31, ,
-1, ,31, ,
-2, ,31, ,
0, ,31, ,
-1, ,31, ,
0, ,31, ,
0, ,31, ,
0, ,31, ,
0, ,31, ,
0, ,31, ,
0, ,31, ,
0, ,31, ,
1, ,31, ,
1, ,31, ,
0, ,31, ,
0, ,31, ,
0, ,31, ,
0, ,31, ,
-1, ,31, ,
-2, ,31, ,
0, ,31, ,
0, ,31, ,
0, ,31, ,
1, ,31, ,
1, ,31, ,
1, ,31, ,
1, ,31, ,
0, ,31, ,
0, ,31, ,
0, ,31, ,
0, ,31, ,
1, ,31, ,
1, ,31, ,
-1, ,31, ,
1, ,31, ,
1, ,31, ,
0, ,31, ,
1, ,31, ,
0, ,31, ,
1, ,31, ,
1, ,31, ,
1, ,31, ,
2, ,31, ,
0, ,31, ,
0, ,31, ,
1, ,31, ,
1, ,31, ,
1, ,31, ,
0, ,31, ,
0, ,31, ,
1, ,31, ,
0, ,31, ,
-12, ,31, ,
-42, ,31, ,
-122, ,31, ,
-126, ,31, ,
-126, ,31, ,
-126, ,31, ,
-126, ,31, ,
-126, ,31, ,
-126, ,31, ,
-126, ,31, ,
-126, ,31, ,
-126, ,31, ,
-126, ,31, ,
-126, ,31, ,
-126, ,31, ,
-126, ,31, ,
-126, ,31, ,
-126, ,31, ,
-126, ,31, ,
-126, ,31, ,
-126, ,31, ,
-126, ,31, ,
-126, ,31, ,
-126, ,31, ,
-126, ,31, ,
-126, ,31, ,
-126, ,31, ,
-126, ,31, ,
-111, ,31, ,
125, ,31, ,
125, ,31, ,
125, ,31, ,
125, ,31, ,
125, ,31, ,
125, ,31, ,
125, ,31, ,
125, ,31, ,
125, ,31, ,
125, ,31, ,
125, ,31, ,
125, ,31, ,
125, ,31, ,
125, ,31, ,
125, ,31, ,
122, ,31, ,
114, ,31, ,
47, ,31, ,
-126, ,31, ,
-126, ,31, ,
-126, ,31, ,
-126, ,31, ,
-126, ,31, ,
-126, ,31, ,
-126, ,31, ,
-126, ,31, ,
-126, ,31, ,
-126, ,31, ,
-119, ,31, ,
-111, ,31, ,
125, ,31, ,
125, ,31, ,
125, ,31, ,
125, ,31, ,
125, ,31, ,
125, ,31, ,
125, ,31, ,
125, ,31, ,
123, ,31, ,
62, ,31, ,
-38, ,31, ,
-122, ,31, ,
-126, ,31, ,
-126, ,31, ,
-126, ,31, ,
-126, ,31, ,
-126, ,31, ,
-126, ,31, ,
-126, ,31, ,
-126, ,31, ,
-126, ,31, ,
-125, ,31, ,
-120, ,31, ,
-63, ,31, ,
17, ,31, ,
125, ,31, ,
125, ,31, ,
125, ,31, ,
125, ,31, ,
125, ,31, ,
125, ,31, ,
125, ,31, ,
125, ,31, ,
125, ,31, ,
125, ,31, ,
125, ,31, ,
125, ,31, ,
125, ,31, ,
125, ,31, ,
125, ,31, ,
125, ,31, ,
125, ,31, ,
125, ,31, ,
125, ,31, ,
125, ,31, ,
125, ,31, ,
125, ,31, ,
125, ,31, ,
125, ,31, ,
124, ,31, ,
119, ,31, ,
105, ,31, ,
84, ,31, ,
50, ,31, ,
41, ,31, ,
34, ,31, ,
35, ,31, ,
37, ,31, ,
37, ,31, ,
42, ,31, ,
41, ,31, ,
38, ,31, ,
37, ,31, ,
33, ,31, ,
29, ,31, ,
18, ,31, ,
13, ,31, ,
9, ,31, ,
5, ,31, ,
3, ,31, ,
3, ,31, ,
2, ,31, ,
2, ,31, ,
-3, ,31, ,
-8, ,31, ,
-13, ,31, ,
-21, ,31, ,
-43, ,31, ,
-55, ,31, ,
-67, ,31, ,
-80, ,31, ,
-100, ,31, ,
-108, ,31, ,
-113, ,31, ,
-115, ,31, ,
-110, ,31, ,
-102, ,31, ,
-92, ,31, ,
-80, ,31, ,
-52, ,31, ,
-40, ,31, ,
-29, ,31, ,
-20, ,31, ,
-2, ,31, ,
1, ,31, ,
3, ,31, ,
4, ,31, ,
2, ,31, ,
-5, ,31, ,
-9, ,31, ,
-17, ,31, ,
-32, ,31, ,
-36, ,31, ,
-46, ,31, ,
-52, ,31, ,
-63, ,31, ,
-66, ,31, ,
-66, ,31, ,
-66, ,31, ,
-59, ,31, ,
-51, ,31, ,
-43, ,31, ,
-35, ,31, ,
-13, ,31, ,
-3, ,31, ,
8, ,31, ,
16, ,31, ,
34, ,31, ,
41, ,31, ,
47, ,31, ,
54, ,31, ,
64, ,31, ,
67, ,31, ,
74, ,31, ,
74, ,31, ,
85, ,31, ,
90, ,31, ,
93, ,31, ,
97, ,31, ,
105, ,31, ,
105, ,31, ,
107, ,31, ,
108, ,31, ,
107, ,31, ,
107, ,31, ,
104, ,31, ,
104, ,31, ,
99, ,31, ,
96, ,31, ,
94, ,31, ,
91, ,31, ,
86, ,31, ,
84, ,31, ,
79, ,31, ,
78, ,31, ,
73, ,31, ,
70, ,31, ,
68, ,31, ,
64, ,31, ,
59, ,31, ,
57, ,31, ,
56, ,31, ,
54, ,31, ,
49, ,31, ,
47, ,31, ,
46, ,31, ,
42, ,31, ,
38, ,31, ,
34, ,31, ,
22, ,31, ,
4, ,31, ,
-87, ,31, ,
-126, ,31, ,
-126, ,31, ,
-126, ,31, ,
-126, ,31, ,
-126, ,31, ,
-126, ,31, ,
-126, ,31, ,
-126, ,31, ,
-126, ,31, ,
-126, ,31, ,
-126, ,31, ,
-126, ,31, ,
-126, ,31, ,
-126, ,31, ,
-126, ,31, ,
-126, ,31, ,
-126, ,31, ,
-126, ,31, ,
-126, ,31, ,
-126, ,31, ,
-126, ,31, ,
-126, ,31, ,
-126, ,31, ,
-126, ,31, ,
-126, ,31, ,
-126, ,31, ,
-126, ,31, ,
-126, ,31, ,
-126, ,31, ,
-126, ,31, ,
-126, ,31, ,
-126, ,31, ,
-126, ,31, ,
-126, ,31, ,
-126, ,31, ,
-126, ,31, ,
-117, ,31, ,
-98, ,31, ,
-44, ,31, ,
105, ,31, ,
125, ,31, ,
125, ,31, ,
125, ,31, ,
125, ,31, ,
125, ,31, ,
125, ,31, ,
125, ,31, ,
125, ,31, ,
125, ,31, ,
125, ,31, ,
125, ,31, ,
125, ,31, ,
125, ,31, ,
125, ,31, ,
125, ,31, ,
125, ,31, ,
125, ,31, ,
125, ,31, ,
125, ,31, ,
125, ,31, ,
125, ,31, ,
125, ,31, ,
124, ,31, ,
118, ,31, ,
108, ,31, ,
104, ,31, ,
98, ,31, ,
93, ,31, ,
93, ,31, ,
93, ,31, ,
97, ,31, ,
105, ,31, ,
108, ,31, ,
113, ,31, ,
119, ,31, ,
125, ,31, ,
125, ,31, ,
125, ,31, ,
125, ,31, ,
124, ,31, ,
124, ,31, ,
122, ,31, ,
113, ,31, ,
90, ,31, ,
77, ,31, ,
59, ,31, ,
44, ,31, ,
7, ,31, ,
-12, ,31, ,
-30, ,31, ,
-49, ,31, ,
-83, ,31, ,
-98, ,31, ,
-111, ,31, ,
-123, ,31, ,
-126, ,31, ,
-126, ,31, ,
-126, ,31, ,
-126, ,31, ,
-126, ,31, ,
-126, ,31, ,
-126, ,31, ,
-126, ,31, ,
-104, ,31, ,
-86, ,31, ,
-67, ,31, ,
-47, ,31, ,
-5, ,31, ,
17, ,31, ,
35, ,31, ,
52, ,31, ,
83, ,31, ,
93, ,31, ,
104, ,31, ,
109, ,31, ,
118, ,31, ,
120, ,31, ,
118, ,31, ,
118, ,31, ,
113, ,31, ,
107, ,31, ,
104, ,31, ,
98, ,31, ,
86, ,31, ,
81, ,31, ,
73, ,31, ,
69, ,31, ,
57, ,31, ,
49, ,31, ,
44, ,31, ,
38, ,31, ,
29, ,31, ,
25, ,31, ,
21, ,31, ,
18, ,31, ,
12, ,31, ,
10, ,31, ,
10, ,31, ,
6, ,31, ,
4, ,31, ,
5, ,31, ,
2, ,31, ,
0, ,31, ,
-5, ,31, ,
-10, ,31, ,
-12, ,31, ,
-19, ,31, ,
-30, ,31, ,
-35, ,31, ,
-44, ,31, ,
-51, ,31, ,
-68, ,31, ,
-78, ,31, ,
-86, ,31, ,
-97, ,31, ,
-113, ,31, ,
-119, ,31, ,
-126, ,31, ,
-126, ,31, ,
-126, ,31, ,
-126, ,31, ,
-126, ,31, ,
-126, ,31, ,
-126, ,31, ,
-126, ,31, ,
-126, ,31, ,
-126, ,31, ,
-126, ,31, ,
-126, ,31, ,
-126, ,31, ,
-126, ,31, ,
-123, ,31, ,
-115, ,31, ,
-112, ,31, ,
-105, ,31, ,
-95, ,31, ,
-89, ,31, ,
-83, ,31, ,
-79, ,31, ,
-66, ,31, ,
-59, ,31, ,
-53, ,31, ,
-46, ,31, ,
-33, ,31, ,
-25, ,31, ,
-17, ,31, ,
-9, ,31, ,
11, ,31, ,
24, ,31, ,
34, ,31, ,
46, ,31, ,
70, ,31, ,
80, ,31, ,
95, ,31, ,
105, ,31, ,
125, ,31, ,
125, ,31, ,
125, ,31, ,
125, ,31, ,
125, ,31, ,
125, ,31, ,
125, ,31, ,
125, ,31, ,
125, ,31, ,
125, ,31, ,
125, ,31, ,
125, ,31, ,
125, ,31, ,
125, ,31, ,
125, ,31, ,
125, ,31, ,
125, ,31, ,
125, ,31, ,
125, ,31, ,
125, ,31, ,
125, ,31, ,
125, ,31, ,
125, ,31, ,
125, ,31, ,
125, ,31, ,
125, ,31, ,
125, ,31, ,
124, ,31, ,
122, ,31, ,
114, ,31, ,
107, ,31, ,
99, ,31, ,
78, ,31, ,
67, ,31, ,
55, ,31, ,
40, ,31, ,
11, ,31, ,
-7, ,31, ,
-23, ,31, ,
-36, ,31, ,
-59, ,31, ,
-65, ,31, ,
-73, ,31, ,
-77, ,31, ,
-87, ,31, ,
-95, ,31, ,
-97, ,31, ,
-103, ,31, ,
-114, ,31, ,
-119, ,31, ,
-126, ,31, ,
-126, ,31, ,
-126, ,31, ,
-126, ,31, ,
-126, ,31, ,
-126, ,31, ,
-126, ,31, ,
-126, ,31, ,
-126, ,31, ,
-126, ,31, ,
-126, ,31, ,
-126, ,31, ,
-126, ,31, ,
-126, ,31, ,
-126, ,31, ,
-126, ,31, ,
-126, ,31, ,
-126, ,31, ,
-126, ,31, ,
-125, ,31, ,
-111, ,31, ,
-101, ,31, ,
-81, ,31, ,
-71, ,31, ,
-66, ,31, ,
-57, ,31, ,
-50, ,31, ,
-49, ,31, ,
-49, ,31, ,
-52, ,31, ,
-56, ,31, ,
-59, ,31, ,
-63, ,31, ,
-67, ,31, ,
-74, ,31, ,
-75, ,31, ,
-77, ,31, ,
-77, ,31, ,
-76, ,31, ,
-72, ,31, ,
-69, ,31, ,
-65, ,31, ,
-52, ,31, ,
-46, ,31, ,
-37, ,31, ,
-30, ,31, ,
-14, ,31, ,
-5, ,31, ,
1, ,31, ,
10, ,31, ,
21, ,31, ,
28, ,31, ,
33, ,31, ,
35, ,31, ,
40, ,31, ,
41, ,31, ,
40, ,31, ,
40, ,31, ,
38, ,31, ,
34, ,31, ,
32, ,31, ,
29, ,31, ,
21, ,31, ,
19, ,31, ,
14, ,31, ,
12, ,31, ,
4, ,31, ,
3, ,31, ,
0, ,31, ,
-3, ,31, ,
-5, ,31, ,
-5, ,31, ,
-7, ,31, ,
-6, ,31, ,
-5, ,31, ,
-5, ,31, ,
-4, ,31, ,
-4, ,31, ,
-2, ,31, ,
-1, ,31, ,
0, ,31, ,
-1, ,31, ,
-1, ,31, ,
-2, ,31, ,
-3, ,31, ,
-7, ,31, ,
-11, ,31, ,
-15, ,31, ,
-19, ,31, ,
-23, ,31, ,
-31, ,31, ,
-37, ,31, ,
-39, ,31, ,
-45, ,31, ,
-52, ,31, ,
-53, ,31, ,
-56, ,31, ,
-57, ,31, ,
-57, ,31, ,
-54, ,31, ,
-51, ,31, ,
-49, ,31, ,
-37, ,31, ,
-31, ,31, ,
-25, ,31, ,
-15, ,31, ,
4, ,31, ,
14, ,31, ,
25, ,31, ,
34, ,31, ,
53, ,31, ,
64, ,31, ,
73, ,31, ,
82, ,31, ,
95, ,31, ,
100, ,31, ,
105, ,31, ,
107, ,31, ,
109, ,31, ,
109, ,31, ,
107, ,31, ,
105, ,31, ,
98, ,31, ,
91, ,31, ,
86, ,31, ,
78, ,31, ,
58, ,31, ,
51, ,31, ,
44, ,31, ,
34, ,31, ,
15, ,31, ,
6, ,31, ,
-3, ,31, ,
-12, ,31, ,
-27, ,31, ,
-33, ,31, ,
-39, ,31, ,
-45, ,31, ,
-51, ,31, ,
-57, ,31, ,
-59, ,31, ,
-62, ,31, ,
-65, ,31, ,
-67, ,31, ,
-69, ,31, ,
-68, ,31, ,
-71, ,31, ,
-72, ,31, ,
-74, ,31, ,
-77, ,31, ,
-80, ,31, ,
-82, ,31, ,
-85, ,31, ,
-87, ,31, ,
-93, ,31, ,
-98, ,31, ,
-100, ,31, ,
-103, ,31, ,
-109, ,31, ,
-110, ,31, ,
-114, ,31, ,
-116, ,31, ,
-118, ,31, ,
-120, ,31, ,
-119, ,31, ,
-120, ,31, ,
-118, ,31, ,
-117, ,31, ,
-116, ,31, ,
-112, ,31, ,
-104, ,31, ,
-100, ,31, ,
-96, ,31, ,
-89, ,31, ,
-76, ,31, ,
-67, ,31, ,
-59, ,31, ,
-51, ,31, ,
-35, ,31, ,
-27, ,31, ,
-19, ,31, ,
-12, ,31, ,
5, ,31, ,
13, ,31, ,
18, ,31, ,
26, ,31, ,
37, ,31, ,
43, ,31, ,
47, ,31, ,
51, ,31, ,
59, ,31, ,
63, ,31, ,
65, ,31, ,
68, ,31, ,
70, ,31, ,
72, ,31, ,
73, ,31, ,
72, ,31, ,
73, ,31, ,
74, ,31, ,
74, ,31, ,
75, ,31, ,
77, ,31, ,
77, ,31, ,
79, ,31, ,
79, ,31, ,
80, ,31, ,
82, ,31, ,
83, ,31, ,
83, ,31, ,
83, ,31, ,
81, ,31, ,
81, ,31, ,
78, ,31, ,
73, ,31, ,
72, ,31, ,
67, ,31, ,
64, ,31, ,
57, ,31, ,
51, ,31, ,
46, ,31, ,
41, ,31, ,
34, ,31, ,
29, ,31, ,
24, ,31, ,
20, ,31, ,
13, ,31, ,
9, ,31, ,
7, ,31, ,
4, ,31, ,
0, ,31, ,
-1, ,31, ,
-4, ,31, ,
-5, ,31, ,
-6, ,31, ,
-7, ,31, ,
-7, ,31, ,
-8, ,31, ,
-11, ,31, ,
-12, ,31, ,
-13, ,31, ,
-14, ,31, ,
-18, ,31, ,
-21, ,31, ,
-23, ,31, ,
-26, ,31, ,
-30, ,31, ,
-33, ,31, ,
-35, ,31, ,
-35, ,31, ,
-38, ,31, ,
-38, ,31, ,
-38, ,31, ,
-38, ,31, ,
-37, ,31, ,
-33, ,31, ,
-33, ,31, ,
-29, ,31, ,
-24, ,31, ,
-21, ,31, ,
-19, ,31, ,
-16, ,31, ,
-10, ,31, ,
-7, ,31, ,
-6, ,31, ,
-2, ,31, ,
0, ,31, ,
0, ,31, ,
0, ,31, ,
0, ,31, ,
0, ,31, ,
-1, ,31, ,
-2, ,31, ,
-2, ,31, ,
-6, ,31, ,
-9, ,31, ,
-8, ,31, ,
-12, ,31, ,
-15, ,31, ,
-15, ,31, ,
-15, ,31, ,
-15, ,31, ,
-15, ,31, ,
-16, ,31, ,
-14, ,31, ,
-14, ,31, ,
-12, ,31, ,
-9, ,31, ,
-9, ,31, ,
-5, ,31, ,
-4, ,31, ,
-1, ,31, ,
1, ,31, ,
1, ,31, ,
3, ,31, ,
5, ,31, ,
6, ,31, ,
6, ,31, ,
7, ,31, ,
6, ,31, ,
6, ,31, ,
6, ,31, ,
5, ,31, ,
5, ,31, ,
5, ,31, ,
5, ,31, ,
2, ,31, ,
2, ,31, ,
2, ,31, ,
1, ,31, ,
1, ,31, ,
0, ,31, ,
0, ,31, ,
0, ,31, ,
0, ,31, ,
-1, ,31, ,
0, ,31, ,
-2, ,31, ,
-1, ,31, ,
1, ,31, ,
0, ,31, ,
2, ,31, ,
3, ,31, ,
3, ,31, ,
3, ,31, ,
3, ,31, ,
4, ,31, ,
5, ,31, ,
5, ,31, ,
5, ,31, ,
9, ,31, ,
8, ,31, ,
10, ,31, ,
10, ,31, ,
13, ,31, ,
15, ,31, ,
15, ,31, ,
16, ,31, ,
21, ,31, ,
21, ,31, ,
25, ,31, ,
25, ,31, ,
28, ,31, ,
30, ,31, ,
31, ,31, ,
35, ,31, ,
35, ,31, ,
35, ,31, ,
37, ,31, ,
37, ,31, ,
37, ,31, ,
38, ,31, ,
38, ,31, ,
38, ,31, ,
37, ,31, ,
36, ,31, ,
36, ,31, ,
35, ,31, ,
34, ,31, ,
33, ,31, ,
31, ,31, ,
30, ,31, ,
27, ,31, ,
25, ,31, ,
25, ,31, ,
25, ,31, ,
20, ,31, ,
20, ,31, ,
19, ,31, ,
20, ,31, ,
17, ,31, ,
17, ,31, ,
16, ,31, ,
16, ,31, ,
15, ,31, ,
15, ,31, ,
14, ,31, ,
13, ,31, ,
12, ,31, ,
10, ,31, ,
10, ,31, ,
8, ,31, ,
4, ,31, ,
5, ,31, ,
1, ,31, ,
2, ,31, ,
-3, ,31, ,
-5, ,31, ,
-5, ,31, ,
-10, ,31, ,
-13, ,31, ,
-15, ,31, ,
-18, ,31, ,
-20, ,31, ,
-23, ,31, ,
-26, ,31, ,
-29, ,31, ,
-32, ,31, ,
-34, ,31, ,
-35, ,31, ,
-36, ,31, ,
-37, ,31, ,
-40, ,31, ,
-42, ,31, ,
-42, ,31, ,
-43, ,31, ,
-42, ,31, ,
-43, ,31, ,
-44, ,31, ,
-42, ,31, ,
-42, ,31, ,
-42, ,31, ,
-41, ,31, ,
-41, ,31, ,
-38, ,31, ,
-38, ,31, ,
-36, ,31, ,
-35, ,31, ,
-32, ,31, ,
-32, ,31, ,
-29, ,31, ,
-29, ,31, ,
-25, ,31, ,
-22, ,31, ,
-21, ,31, ,
-19, ,31, ,
-15, ,31, ,
-15, ,31, ,
-12, ,31, ,
-12, ,31, ,
-9, ,31, ,
-7, ,31, ,
-5, ,31, ,
-4, ,31, ,
-1, ,31, ,
0, ,31, ,
0, ,31, ,
0, ,31, ,
2, ,31, ,
2, ,31, ,
1, ,31, ,
3, ,31, ,
4, ,31, ,
2, ,31, ,
3, ,31, ,
2, ,31, ,
2, ,31, ,
3, ,31, ,
2, ,31, ,
3, ,31, ,
3, ,31, ,
2, ,31, ,
2, ,31, ,
2, ,31, ,
4, ,31, ,
4, ,31, ,
3, ,31, ,
5, ,31, ,
5, ,31, ,
4, ,31, ,
5, ,31, ,
5, ,31, ,
5, ,31, ,
5, ,31, ,
5, ,31, ,
6, ,31, ,
6, ,31, ,
5, ,31, ,
6, ,31, ,
5, ,31, ,
6, ,31, ,
7, ,31, ,
8, ,31, ,
8, ,31, ,
9, ,31, ,
8, ,31, ,
10, ,31, ,
10, ,31, ,
10, ,31, ,
10, ,31, ,
10, ,31, ,
10, ,31, ,
11, ,31, ,
11, ,31, ,
11, ,31, ,
10, ,31, ,
9, ,31, ,
9, ,31, ,
7, ,31, ,
7, ,31, ,
7, ,31, ,
4, ,31, ,
4, ,31, ,
3, ,31, ,
0, ,31, ,
-1, ,31, ,
-1, ,31, ,
-3, ,31, ,
-3, ,31, ,
-5, ,31, ,
-5, ,31, ,
-7, ,31, ,
-8, ,31, ,
-8, ,31, ,
-8, ,31, ,
-8, ,31, ,
-9, ,31, ,
-9, ,31, ,
-9, ,31, ,
-9, ,31, ,
-9, ,31, ,
-8, ,31, ,
-8, ,31, ,
-8, ,31, ,
-7, ,31, ,
-6, ,31, ,
-6, ,31, ,
-5, ,31, ,
-4, ,31, ,
-2, ,31, ,
-2, ,31, ,
-1, ,31, ,
-1, ,31, ,
-2, ,31, ,
0, ,31, ,
0, ,31, ,
-1, ,31, ,
-1, ,31, ,
-1, ,31, ,
0, ,31, ,
-3, ,31, ,
-3, ,31, ,
-3, ,31, ,
-6, ,31, ,
-6, ,31, ,
-6, ,31, ,
-7, ,31, ,
-6, ,31, ,
-6, ,31, ,
-10, ,31, ,
-10, ,31, ,
-11, ,31, ,
-12, ,31, ,
-11, ,31, ,
-12, ,31, ,
-13, ,31, ,
-13, ,31, ,
-14, ,31, ,
-14, ,31, ,
-14, ,31, ,
-14, ,31, ,
-13, ,31, ,
-15, ,31, ,
-14, ,31, ,
-14, ,31, ,
-15, ,31, ,
-15, ,31, ,
-15, ,31, ,
-15, ,31, ,
-14, ,31, ,
-15, ,31, ,
-14, ,31, ,
-14, ,31, ,
-15, ,31, ,
-15, ,31, ,
-15, ,31, ,
-14, ,31, ,
-14, ,31, ,
-15, ,31, ,
-14, ,31, ,
-13, ,31, ,
-13, ,31, ,
-12, ,31, ,
-13, ,31, ,
-12, ,31, ,
-10, ,31, ,
-10, ,31, ,
-10, ,31, ,
-8, ,31, ,
-8, ,31, ,
-7, ,31, ,
-8, ,31, ,
-5, ,31, ,
-5, ,31, ,
-5, ,31, ,
-4, ,31, ,
-3, ,31, ,
-2, ,31, ,
-2, ,31, ,
-2, ,31, ,
-2, ,31, ,
0, ,31, ,
0, ,31, ,
1, ,31, ,
3, ,31, ,
2, ,31, ,
4, ,31, ,
3, ,31, ,
6, ,31, ,
7, ,31, ,
6, ,31, ,
8, ,31, ,
9, ,31, ,
8, ,31, ,
9, ,31, ,
10, ,31, ,
10, ,31, ,
10, ,31, ,
10, ,31, ,
10, ,31, ,
11, ,31, ,
11, ,31, ,
12, ,31, ,
11, ,31, ,
10, ,31, ,
10, ,31, ,
10, ,31, ,
10, ,31, ,
9, ,31, ,
9, ,31, ,
9, ,31, ,
8, ,31, ,
7, ,31, ,
7, ,31, ,
6, ,31, ,
7, ,31, ,
6, ,31, ,
5, ,31, ,
6, ,31, ,
4, ,31, ,
3, ,31, ,
3, ,31, ,
2, ,31, ,
2, ,31, ,
2, ,31, ,
0, ,31, ,
0, ,31, ,
-1, ,31, ,
-3, ,31, ,
-1, ,31, ,
-3, ,31, ,
-3, ,31, ,
-3, ,31, ,
-5, ,31, ,
-5, ,31, ,
-5, ,31, ,
-6, ,31, ,
-6, ,31, ,
-7, ,31, ,
-6, ,31, ,
-5, ,31, ,
-6, ,31, ,
-5, ,31, ,
-6, ,31, ,
-5, ,31, ,
-5, ,31, ,
-6, ,31, ,
-4, ,31, ,
-4, ,31, ,
-5, ,31, ,
-5, ,31, ,
-5, ,31, ,
-3, ,31, ,
-3, ,31, ,
-4, ,31, ,
-2, ,31, ,
-2, ,31, ,
-4, ,31, ,
-3, ,31, ,
-3, ,31, ,
-4, ,31, ,
-3, ,31, ,
-4, ,31, ,
-3, ,31, ,
-4, ,31, ,
-4, ,31, ,
-4, ,31, ,
-5, ,31, ,
-4, ,31, ,
-4, ,31, ,
-4, ,31, ,
-4, ,31, ,
-3, ,31, ,
-3, ,31, ,
-4, ,31, ,
-3, ,31, ,
-3, ,31, ,
-2, ,31, ,
-2, ,31, ,
-2, ,31, ,
0, ,31, ,
1, ,31, ,
2, ,31, ,
1, ,31, ,
3, ,31, ,
4, ,31, ,
3, ,31, ,
6, ,31, ,
7, ,31, ,
7, ,31, ,
7, ,31, ,
6, ,31, ,
7, ,31, ,
10, ,31, ,
10, ,31, ,
11, ,31, ,
11, ,31, ,
13, ,31, ,
13, ,31, ,
13, ,31, ,
13, ,31, ,
15, ,31, ,
14, ,31, ,
15, ,31, ,
15, ,31, ,
14, ,31, ,
15, ,31, ,
14, ,31, ,
13, ,31, ,
14, ,31, ,
13, ,31, ,
14, ,31, ,
13, ,31, ,
12, ,31, ,
13, ,31, ,
11, ,31, ,
11, ,31, ,
11, ,31, ,
11, ,31, ,
11, ,31, ,
10, ,31, ,
10, ,31, ,
10, ,31, ,
10, ,31, ,
9, ,31, ,
9, ,31, ,
8, ,31, ,
10, ,31, ,
9, ,31, ,
8, ,31, ,
9, ,31, ,
8, ,31, ,
8, ,31, ,
9, ,31, ,
8, ,31, ,
9, ,31, ,
9, ,31, ,
8, ,31, ,
9, ,31, ,
7, ,31, ,
6, ,31, ,
6, ,31, ,
7, ,31, ,
7, ,31, ,
7, ,31, ,
6, ,31, ,
6, ,31, ,
5, ,31, ,
6, ,31, ,
7, ,31, ,
5, ,31, ,
6, ,31, ,
7, ,31, ,
7, ,31, ,
7, ,31, ,
7, ,31, ,
7, ,31, ,
8, ,31, ,
8, ,31, ,
9, ,31, ,
9, ,31, ,
8, ,31, ,
10, ,31, ,
9, ,31, ,
10, ,31, ,
10, ,31, ,
10, ,31, ,
11, ,31, ,
12, ,31, ,
8, ,31, ,
9, ,31, ,
8, ,31, ,
8, ,31, ,
8, ,31, ,
7, ,31, ,
7, ,31, ,
6, ,31, ,
5, ,31, ,
5, ,31, ,
3, ,31, ,
2, ,31, ,
4, ,31, ,
0, ,31, ,
2, ,31, ,
0, ,31, ,
-4, ,31, ,
-3, ,31, ,
-4, ,31, ,
-6, ,31, ,
-7, ,31, ,
-7, ,31, ,
-8, ,31, ,
-8, ,31, ,
-10, ,31, ,
-10, ,31, ,
-11, ,31, ,
-13, ,31, ,
-12, ,31, ,
-13, ,31, ,
-13, ,31, ,
-14, ,31, ,
-15, ,31, ,
-14, ,31, ,
-14, ,31, ,
-15, ,31, ,
-15, ,31, ,
-15, ,31, ,
-14, ,31, ,
-13, ,31, ,
-14, ,31, ,
-12, ,31, ,
-15, ,31, ,
-12, ,31, ,
-11, ,31, ,
-12, ,31, ,
-10, ,31, ,
-8, ,31, ,
-9, ,31, ,
-7, ,31, ,
-7, ,31, ,
-7, ,31, ,
-5, ,31, ,
-5, ,31, ,
-4, ,31, ,
-2, ,31, ,
-2, ,31, ,
-2, ,31, ,
-1, ,31, ,
-1, ,31, ,
1, ,31, ,
1, ,31, ,
2, ,31, ,
3, ,31, ,
3, ,31, ,
4, ,31, ,
3, ,31, ,
6, ,31, ,
6, ,31, ,
6, ,31, ,
7, ,31, ,
