raw_data/100% Glycerol, Impulsion 2Hz, Sonde 5MHz, Rampe 0.7Hz/temp0000351.CSV

Format,1.0B,
Memory Length,10000,Memory Length,10000,
IntpDistance,0,IntpDistance,0,
Trigger Address,159,Trigger Address,159,
Trigger Level,2.720E-01,Trigger Level,2.720E-01,
Source,CH1,Source,CH2,
Vertical Units,V,Vertical Units,V,
Vertical Units Div,0,Vertical Units Div,0,
Vertical Units Extend Div,16,Vertical Units Extend Div,16,
Label,,Label,,
Probe Type,0,Probe Type,0,
Probe Ratio,1.000e+00,Probe Ratio,1.000e+00,
Vertical Scale,2.000e-01,Vertical Scale,2.000e+00,
Vertical Position,0.000e+00,Vertical Position,0.000e+00,
Horizontal Units,S,Horizontal Units,S,
Horizontal Scale,5.000E-06,Horizontal Scale,5.000E-06,
Horizontal Position,2.420E-05,Horizontal Position,2.420E-05,
Horizontal Mode,Main,Horizontal Mode,Main,
SincET Mode,Real Time,SincET Mode,Real Time,
Sampling Period,5.000e-09,Sampling Period,5.000e-09,
Horizontal Old Scale,5.000E-06,Horizontal Old Scale,5.000E-06,
Horizontal Old Position,2.420E-05,Horizontal Old Position,2.420E-05,
Firmware,V1.32,Firmware,V1.32,
Mode,Fast,Mode,Fast,
Waveform Data,,Waveform Data,,
2, ,-31, ,
1, ,-31, ,
2, ,-30, ,
1, ,-30, ,
1, ,-30, ,
1, ,-30, ,
1, ,-30, ,
1, ,-30, ,
1, ,-30, ,
0, ,-30, ,
1, ,-30, ,
2, ,-30, ,
2, ,-30, ,
2, ,-30, ,
1, ,-30, ,
1, ,-30, ,
2, ,-31, ,
1, ,-31, ,
1, ,-30, ,
1, ,-31, ,
1, ,-31, ,
2, ,-31, ,
1, ,-31, ,
1, ,-31, ,
2, ,-31, ,
2, ,-30, ,
2, ,-30, ,
2, ,-30, ,
2, ,-30, ,
1, ,-30, ,
1, ,-30, ,
1, ,-30, ,
2, ,-31, ,
1, ,-31, ,
1, ,-30, ,
1, ,-30, ,
1, ,-30, ,
2, ,-30, ,
1, ,-31, ,
0, ,-31, ,
1, ,-31, ,
1, ,-30, ,
1, ,-30, ,
1, ,-31, ,
1, ,-31, ,
2, ,-31, ,
1, ,-30, ,
1, ,-30, ,
1, ,-31, ,
1, ,-31, ,
2, ,-30, ,
2, ,-31, ,
1, ,-31, ,
2, ,-31, ,
1, ,-30, ,
1, ,-30, ,
2, ,-30, ,
1, ,-30, ,
1, ,-30, ,
2, ,-30, ,
2, ,-30, ,
1, ,-31, ,
1, ,-31, ,
1, ,-30, ,
2, ,-30, ,
1, ,-30, ,
2, ,-30, ,
2, ,-30, ,
1, ,-30, ,
2, ,-30, ,
1, ,-30, ,
1, ,-30, ,
1, ,-30, ,
1, ,-30, ,
2, ,-30, ,
1, ,-30, ,
1, ,-30, ,
1, ,-31, ,
1, ,-31, ,
1, ,-30, ,
1, ,-31, ,
1, ,-31, ,
1, ,-30, ,
1, ,-30, ,
1, ,-30, ,
2, ,-30, ,
1, ,-30, ,
2, ,-30, ,
2, ,-30, ,
2, ,-30, ,
2, ,-31, ,
2, ,-31, ,
1, ,-30, ,
2, ,-30, ,
1, ,-30, ,
2, ,-30, ,
2, ,-30, ,
1, ,-30, ,
2, ,-30, ,
3, ,-30, ,
2, ,-30, ,
1, ,-30, ,
2, ,-30, ,
1, ,-30, ,
2, ,-31, ,
2, ,-31, ,
2, ,-31, ,
2, ,-31, ,
2, ,-30, ,
2, ,-31, ,
1, ,-31, ,
1, ,-30, ,
2, ,-31, ,
1, ,-31, ,
1, ,-30, ,
1, ,-30, ,
1, ,-30, ,
1, ,-30, ,
1, ,-30, ,
2, ,-30, ,
2, ,-30, ,
1, ,-30, ,
1, ,-31, ,
1, ,-31, ,
2, ,-30, ,
2, ,-30, ,
1, ,-30, ,
2, ,-30, ,
1, ,-31, ,
1, ,-31, ,
1, ,-30, ,
2, ,-31, ,
2, ,-31, ,
2, ,-31, ,
1, ,-31, ,
0, ,-31, ,
1, ,-31, ,
0, ,-30, ,
1, ,-30, ,
2, ,-30, ,
1, ,-30, ,
1, ,-30, ,
1, ,-31, ,
1, ,-31, ,
2, ,-31, ,
2, ,-30, ,
2, ,-30, ,
2, ,-30, ,
1, ,-30, ,
2, ,-30, ,
1, ,-31, ,
1, ,-31, ,
1, ,-31, ,
1, ,-30, ,
1, ,-30, ,
2, ,-30, ,
1, ,-30, ,
2, ,-30, ,
1, ,-30, ,
1, ,-30, ,
2, ,-30, ,
1, ,-30, ,
1, ,-30, ,
-1, ,-30, ,
-4, ,-30, ,
0, ,-30, ,
-3, ,-30, ,
59, ,-30, ,
125, ,-30, ,
125, ,-30, ,
125, ,-30, ,
122, ,-30, ,
118, ,-30, ,
54, ,-31, ,
-23, ,-31, ,
125, ,-31, ,
125, ,-31, ,
125, ,-30, ,
125, ,-30, ,
125, ,-30, ,
125, ,-30, ,
125, ,-30, ,
125, ,-30, ,
125, ,-30, ,
125, ,-30, ,
125, ,-30, ,
125, ,-31, ,
125, ,-31, ,
125, ,-30, ,
125, ,-30, ,
125, ,-30, ,
125, ,-30, ,
125, ,-31, ,
125, ,-31, ,
125, ,-31, ,
125, ,-30, ,
125, ,-30, ,
125, ,-30, ,
125, ,-31, ,
125, ,-31, ,
125, ,-31, ,
124, ,-31, ,
124, ,-30, ,
117, ,-30, ,
112, ,-30, ,
108, ,-31, ,
103, ,-31, ,
94, ,-30, ,
92, ,-30, ,
88, ,-30, ,
83, ,-30, ,
76, ,-30, ,
71, ,-30, ,
69, ,-30, ,
66, ,-30, ,
59, ,-30, ,
57, ,-30, ,
54, ,-30, ,
53, ,-30, ,
48, ,-31, ,
45, ,-31, ,
44, ,-31, ,
40, ,-30, ,
36, ,-30, ,
35, ,-31, ,
33, ,-31, ,
34, ,-30, ,
30, ,-30, ,
27, ,-30, ,
27, ,-30, ,
25, ,-31, ,
21, ,-31, ,
22, ,-31, ,
19, ,-30, ,
19, ,-31, ,
16, ,-31, ,
14, ,-30, ,
15, ,-31, ,
13, ,-31, ,
12, ,-30, ,
10, ,-30, ,
9, ,-30, ,
10, ,-30, ,
9, ,-30, ,
6, ,-30, ,
6, ,-30, ,
5, ,-30, ,
5, ,-30, ,
5, ,-30, ,
4, ,-30, ,
4, ,-31, ,
4, ,-31, ,
2, ,-30, ,
2, ,-30, ,
1, ,-30, ,
0, ,-30, ,
2, ,-30, ,
0, ,-30, ,
0, ,-30, ,
-1, ,-30, ,
-2, ,-30, ,
-1, ,-30, ,
-1, ,-30, ,
-2, ,-30, ,
-2, ,-30, ,
-2, ,-30, ,
-1, ,-30, ,
-2, ,-30, ,
-3, ,-30, ,
-3, ,-30, ,
-4, ,-30, ,
-2, ,-30, ,
-3, ,-30, ,
-3, ,-30, ,
-3, ,-31, ,
-3, ,-31, ,
-4, ,-30, ,
-3, ,-30, ,
-4, ,-30, ,
-4, ,-30, ,
-3, ,-30, ,
-4, ,-30, ,
-3, ,-30, ,
-4, ,-30, ,
-4, ,-30, ,
-4, ,-31, ,
-4, ,-31, ,
-3, ,-30, ,
-3, ,-30, ,
-4, ,-30, ,
-3, ,-30, ,
-3, ,-30, ,
-3, ,-30, ,
-3, ,-30, ,
-3, ,-30, ,
-3, ,-30, ,
-3, ,-30, ,
-3, ,-30, ,
-2, ,-30, ,
-2, ,-30, ,
-3, ,-30, ,
-3, ,-30, ,
-3, ,-30, ,
-2, ,-30, ,
-2, ,-31, ,
-2, ,-31, ,
-2, ,-31, ,
-2, ,-30, ,
-2, ,-30, ,
-1, ,-30, ,
-2, ,-30, ,
-2, ,-30, ,
-2, ,-30, ,
-2, ,-30, ,
-2, ,-30, ,
-2, ,-30, ,
-1, ,-30, ,
-1, ,-30, ,
-2, ,-30, ,
-1, ,-30, ,
-1, ,-30, ,
-2, ,-30, ,
-1, ,-30, ,
-1, ,-30, ,
-1, ,-30, ,
-1, ,-30, ,
-1, ,-30, ,
-2, ,-30, ,
-1, ,-30, ,
-1, ,-30, ,
0, ,-31, ,
0, ,-31, ,
-1, ,-30, ,
0, ,-30, ,
-1, ,-31, ,
0, ,-31, ,
0, ,-31, ,
0, ,-30, ,
0, ,-30, ,
0, ,-30, ,
0, ,-30, ,
0, ,-30, ,
-1, ,-30, ,
-1, ,-30, ,
-2, ,-30, ,
0, ,-30, ,
0, ,-30, ,
0, ,-30, ,
0, ,-30, ,
0, ,-31, ,
0, ,-31, ,
0, ,-30, ,
1, ,-30, ,
0, ,-30, ,
0, ,-30, ,
1, ,-30, ,
1, ,-30, ,
1, ,-30, ,
0, ,-30, ,
1, ,-30, ,
1, ,-30, ,
0, ,-30, ,
0, ,-31, ,
0, ,-31, ,
0, ,-31, ,
0, ,-31, ,
0, ,-31, ,
1, ,-31, ,
1, ,-31, ,
0, ,-31, ,
1, ,-30, ,
2, ,-30, ,
0, ,-30, ,
1, ,-30, ,
0, ,-30, ,
1, ,-30, ,
1, ,-30, ,
1, ,-30, ,
0, ,-31, ,
1, ,-31, ,
1, ,-30, ,
1, ,-31, ,
0, ,-31, ,
0, ,-30, ,
0, ,-30, ,
-1, ,-30, ,
1, ,-30, ,
1, ,-31, ,
1, ,-31, ,
1, ,-31, ,
1, ,-31, ,
0, ,-31, ,
1, ,-31, ,
1, ,-30, ,
2, ,-30, ,
2, ,-30, ,
1, ,-30, ,
2, ,-30, ,
1, ,-30, ,
1, ,-30, ,
1, ,-30, ,
1, ,-30, ,
2, ,-31, ,
2, ,-31, ,
0, ,-31, ,
1, ,-31, ,
1, ,-31, ,
1, ,-31, ,
1, ,-31, ,
1, ,-30, ,
1, ,-30, ,
2, ,-30, ,
1, ,-30, ,
1, ,-31, ,
-1, ,-31, ,
1, ,-30, ,
0, ,-31, ,
0, ,-31, ,
1, ,-30, ,
1, ,-30, ,
1, ,-30, ,
1, ,-30, ,
0, ,-30, ,
-1, ,-30, ,
0, ,-30, ,
0, ,-30, ,
1, ,-31, ,
1, ,-31, ,
1, ,-30, ,
1, ,-30, ,
0, ,-30, ,
1, ,-30, ,
0, ,-31, ,
0, ,-31, ,
2, ,-30, ,
1, ,-30, ,
0, ,-30, ,
1, ,-30, ,
0, ,-30, ,
0, ,-30, ,
0, ,-30, ,
0, ,-30, ,
-1, ,-31, ,
0, ,-31, ,
-1, ,-30, ,
-1, ,-30, ,
-2, ,-30, ,
0, ,-30, ,
0, ,-30, ,
0, ,-30, ,
1, ,-30, ,
1, ,-30, ,
1, ,-30, ,
2, ,-30, ,
2, ,-30, ,
1, ,-30, ,
2, ,-30, ,
1, ,-30, ,
2, ,-31, ,
1, ,-31, ,
1, ,-30, ,
2, ,-31, ,
0, ,-31, ,
1, ,-30, ,
0, ,-30, ,
1, ,-30, ,
1, ,-30, ,
1, ,-30, ,
1, ,-30, ,
2, ,-31, ,
1, ,-31, ,
0, ,-31, ,
2, ,-31, ,
2, ,-30, ,
2, ,-31, ,
2, ,-31, ,
1, ,-30, ,
2, ,-30, ,
0, ,-30, ,
0, ,-30, ,
0, ,-30, ,
-1, ,-30, ,
-2, ,-31, ,
-1, ,-31, ,
-1, ,-30, ,
0, ,-30, ,
0, ,-30, ,
1, ,-30, ,
1, ,-30, ,
1, ,-30, ,
1, ,-30, ,
1, ,-30, ,
1, ,-30, ,
1, ,-30, ,
1, ,-30, ,
2, ,-30, ,
2, ,-30, ,
0, ,-30, ,
0, ,-30, ,
0, ,-30, ,
-1, ,-30, ,
0, ,-30, ,
0, ,-30, ,
0, ,-30, ,
1, ,-31, ,
1, ,-31, ,
1, ,-30, ,
1, ,-31, ,
1, ,-31, ,
1, ,-31, ,
0, ,-31, ,
1, ,-30, ,
1, ,-30, ,
0, ,-30, ,
0, ,-30, ,
-1, ,-30, ,
-3, ,-30, ,
-4, ,-30, ,
-5, ,-30, ,
-7, ,-30, ,
-7, ,-30, ,
-7, ,-30, ,
-7, ,-31, ,
-8, ,-31, ,
-9, ,-31, ,
-8, ,-30, ,
-9, ,-30, ,
-8, ,-30, ,
-7, ,-31, ,
-8, ,-31, ,
-8, ,-30, ,
-10, ,-30, ,
-10, ,-30, ,
-10, ,-30, ,
-12, ,-30, ,
-16, ,-30, ,
-17, ,-30, ,
-17, ,-30, ,
-19, ,-30, ,
-21, ,-30, ,
-23, ,-30, ,
-23, ,-30, ,
-24, ,-30, ,
-23, ,-30, ,
-23, ,-30, ,
-24, ,-30, ,
-23, ,-30, ,
-21, ,-30, ,
-21, ,-30, ,
-20, ,-30, ,
-21, ,-31, ,
-22, ,-31, ,
-21, ,-31, ,
-25, ,-30, ,
-25, ,-31, ,
-28, ,-31, ,
-30, ,-30, ,
-31, ,-30, ,
-34, ,-30, ,
-34, ,-30, ,
-34, ,-31, ,
-33, ,-31, ,
-32, ,-30, ,
-29, ,-30, ,
-28, ,-30, ,
-27, ,-30, ,
-24, ,-30, ,
-20, ,-30, ,
-18, ,-30, ,
-16, ,-30, ,
-14, ,-30, ,
-13, ,-30, ,
-13, ,-30, ,
-13, ,-30, ,
-14, ,-30, ,
-14, ,-30, ,
-14, ,-30, ,
-14, ,-30, ,
-15, ,-30, ,
-12, ,-30, ,
-12, ,-30, ,
-10, ,-31, ,
-7, ,-31, ,
-4, ,-30, ,
-1, ,-30, ,
1, ,-30, ,
4, ,-30, ,
5, ,-30, ,
7, ,-30, ,
7, ,-30, ,
7, ,-30, ,
6, ,-30, ,
7, ,-31, ,
4, ,-31, ,
4, ,-31, ,
2, ,-31, ,
-1, ,-30, ,
-1, ,-30, ,
-4, ,-30, ,
-5, ,-30, ,
-6, ,-30, ,
-7, ,-30, ,
-7, ,-30, ,
-9, ,-30, ,
-9, ,-30, ,
-9, ,-30, ,
-10, ,-30, ,
-11, ,-30, ,
-10, ,-31, ,
-15, ,-31, ,
-15, ,-30, ,
-18, ,-31, ,
-21, ,-31, ,
-25, ,-31, ,
-25, ,-31, ,
-29, ,-31, ,
-28, ,-31, ,
-30, ,-30, ,
-29, ,-31, ,
-27, ,-31, ,
-28, ,-31, ,
-26, ,-31, ,
-27, ,-30, ,
-26, ,-30, ,
-25, ,-30, ,
-26, ,-30, ,
-25, ,-30, ,
-25, ,-30, ,
-26, ,-30, ,
-25, ,-31, ,
-26, ,-31, ,
-28, ,-30, ,
-28, ,-30, ,
-28, ,-30, ,
-27, ,-30, ,
-27, ,-30, ,
-27, ,-30, ,
-27, ,-30, ,
-27, ,-30, ,
-28, ,-30, ,
-28, ,-30, ,
-29, ,-30, ,
-29, ,-30, ,
-28, ,-30, ,
-29, ,-30, ,
-28, ,-30, ,
-29, ,-31, ,
-29, ,-31, ,
-29, ,-31, ,
-30, ,-30, ,
-30, ,-30, ,
-33, ,-31, ,
-35, ,-31, ,
-35, ,-31, ,
-39, ,-30, ,
-42, ,-30, ,
-42, ,-31, ,
-43, ,-31, ,
-42, ,-30, ,
-41, ,-31, ,
-41, ,-31, ,
-41, ,-31, ,
-39, ,-30, ,
-38, ,-30, ,
-35, ,-30, ,
-35, ,-30, ,
-35, ,-30, ,
-34, ,-30, ,
-35, ,-30, ,
-33, ,-30, ,
-35, ,-30, ,
-35, ,-30, ,
-36, ,-30, ,
-38, ,-30, ,
-36, ,-30, ,
-35, ,-30, ,
-35, ,-30, ,
-35, ,-30, ,
-34, ,-30, ,
-30, ,-30, ,
-28, ,-31, ,
-29, ,-31, ,
-27, ,-30, ,
-27, ,-30, ,
-27, ,-30, ,
-26, ,-31, ,
-26, ,-31, ,
-25, ,-30, ,
-24, ,-31, ,
-24, ,-31, ,
-22, ,-30, ,
-20, ,-30, ,
-19, ,-30, ,
-18, ,-30, ,
-17, ,-30, ,
-15, ,-30, ,
-14, ,-30, ,
-14, ,-30, ,
-13, ,-30, ,
-13, ,-30, ,
-12, ,-30, ,
-11, ,-31, ,
-12, ,-31, ,
-10, ,-30, ,
-9, ,-30, ,
-7, ,-30, ,
-6, ,-30, ,
-5, ,-30, ,
-5, ,-30, ,
-3, ,-30, ,
-4, ,-30, ,
-4, ,-30, ,
-3, ,-30, ,
-4, ,-30, ,
-1, ,-30, ,
0, ,-30, ,
0, ,-30, ,
1, ,-30, ,
0, ,-30, ,
4, ,-30, ,
5, ,-30, ,
5, ,-30, ,
6, ,-30, ,
8, ,-30, ,
7, ,-30, ,
8, ,-30, ,
8, ,-30, ,
7, ,-30, ,
7, ,-30, ,
6, ,-30, ,
6, ,-30, ,
5, ,-30, ,
4, ,-30, ,
4, ,-31, ,
2, ,-31, ,
2, ,-30, ,
2, ,-30, ,
1, ,-30, ,
1, ,-30, ,
0, ,-31, ,
0, ,-31, ,
0, ,-31, ,
-1, ,-31, ,
-1, ,-31, ,
-1, ,-31, ,
-1, ,-30, ,
-1, ,-30, ,
-2, ,-30, ,
-1, ,-30, ,
-1, ,-30, ,
-2, ,-30, ,
-3, ,-30, ,
-3, ,-31, ,
-5, ,-31, ,
-5, ,-30, ,
-5, ,-30, ,
-8, ,-30, ,
-8, ,-30, ,
-10, ,-30, ,
-12, ,-30, ,
-12, ,-30, ,
-15, ,-30, ,
-16, ,-30, ,
-18, ,-30, ,
-20, ,-30, ,
-20, ,-30, ,
-24, ,-30, ,
-25, ,-30, ,
-25, ,-30, ,
-28, ,-30, ,
-28, ,-30, ,
-30, ,-31, ,
-33, ,-31, ,
-33, ,-31, ,
-34, ,-30, ,
-34, ,-30, ,
-34, ,-30, ,
-34, ,-30, ,
-33, ,-30, ,
-32, ,-30, ,
-32, ,-30, ,
-31, ,-30, ,
-32, ,-30, ,
-30, ,-30, ,
-28, ,-30, ,
-28, ,-30, ,
-27, ,-30, ,
-26, ,-30, ,
-27, ,-30, ,
-24, ,-30, ,
-24, ,-30, ,
-23, ,-30, ,
-22, ,-30, ,
-23, ,-30, ,
-20, ,-30, ,
-20, ,-30, ,
-17, ,-30, ,
-16, ,-30, ,
-17, ,-30, ,
-14, ,-30, ,
-11, ,-30, ,
-12, ,-30, ,
-10, ,-30, ,
-8, ,-30, ,
-8, ,-30, ,
-8, ,-30, ,
-7, ,-30, ,
-6, ,-30, ,
-4, ,-31, ,
-3, ,-31, ,
-4, ,-30, ,
-1, ,-30, ,
1, ,-30, ,
2, ,-30, ,
1, ,-31, ,
4, ,-31, ,
5, ,-31, ,
5, ,-30, ,
6, ,-30, ,
6, ,-30, ,
5, ,-30, ,
7, ,-30, ,
5, ,-30, ,
7, ,-30, ,
7, ,-31, ,
7, ,-31, ,
7, ,-30, ,
8, ,-30, ,
8, ,-30, ,
8, ,-31, ,
7, ,-31, ,
6, ,-30, ,
6, ,-30, ,
5, ,-30, ,
5, ,-30, ,
4, ,-31, ,
3, ,-31, ,
3, ,-31, ,
2, ,-30, ,
0, ,-30, ,
2, ,-30, ,
0, ,-30, ,
1, ,-30, ,
0, ,-30, ,
0, ,-30, ,
0, ,-31, ,
-2, ,-31, ,
-3, ,-30, ,
-3, ,-31, ,
-4, ,-31, ,
-4, ,-30, ,
-3, ,-31, ,
-6, ,-31, ,
-7, ,-31, ,
-8, ,-31, ,
-9, ,-31, ,
-8, ,-31, ,
-10, ,-30, ,
-10, ,-30, ,
-11, ,-30, ,
-12, ,-30, ,
-11, ,-30, ,
-13, ,-30, ,
-13, ,-30, ,
-13, ,-30, ,
-16, ,-30, ,
-16, ,-30, ,
-18, ,-31, ,
-19, ,-31, ,
-18, ,-31, ,
-20, ,-30, ,
-20, ,-30, ,
-20, ,-31, ,
-22, ,-31, ,
-20, ,-30, ,
-21, ,-30, ,
-21, ,-30, ,
-21, ,-30, ,
-22, ,-30, ,
-22, ,-30, ,
-22, ,-31, ,
-23, ,-31, ,
-23, ,-30, ,
-24, ,-30, ,
-26, ,-30, ,
-25, ,-30, ,
-27, ,-31, ,
-28, ,-31, ,
-28, ,-31, ,
-29, ,-30, ,
-28, ,-30, ,
-31, ,-30, ,
-32, ,-30, ,
-32, ,-31, ,
-33, ,-31, ,
-32, ,-30, ,
-32, ,-31, ,
-31, ,-31, ,
-32, ,-31, ,
-30, ,-31, ,
-30, ,-30, ,
-30, ,-30, ,
-29, ,-30, ,
-28, ,-30, ,
-25, ,-30, ,
-24, ,-30, ,
-22, ,-30, ,
-20, ,-30, ,
-17, ,-30, ,
-15, ,-30, ,
-15, ,-31, ,
-12, ,-31, ,
-9, ,-31, ,
-10, ,-31, ,
-6, ,-30, ,
-5, ,-31, ,
-6, ,-31, ,
-4, ,-31, ,
-3, ,-30, ,
-3, ,-30, ,
-2, ,-30, ,
-2, ,-30, ,
-1, ,-30, ,
-1, ,-30, ,
-2, ,-30, ,
-2, ,-31, ,
-3, ,-31, ,
-2, ,-30, ,
-3, ,-30, ,
-3, ,-30, ,
-4, ,-30, ,
-5, ,-30, ,
-7, ,-30, ,
-7, ,-30, ,
-8, ,-30, ,
-9, ,-30, ,
-8, ,-30, ,
-9, ,-30, ,
-9, ,-30, ,
-9, ,-30, ,
-10, ,-30, ,
-10, ,-30, ,
-10, ,-30, ,
-10, ,-30, ,
-10, ,-30, ,
-11, ,-30, ,
-10, ,-30, ,
-10, ,-30, ,
-11, ,-30, ,
-11, ,-30, ,
-12, ,-30, ,
-11, ,-30, ,
-11, ,-30, ,
-11, ,-30, ,
-11, ,-30, ,
-11, ,-30, ,
-11, ,-30, ,
-11, ,-31, ,
-11, ,-31, ,
-10, ,-30, ,
-10, ,-30, ,
-10, ,-30, ,
-10, ,-30, ,
-10, ,-30, ,
-10, ,-30, ,
-10, ,-30, ,
-10, ,-30, ,
-9, ,-30, ,
-9, ,-30, ,
-8, ,-30, ,
-7, ,-31, ,
-6, ,-31, ,
-6, ,-31, ,
-5, ,-31, ,
-5, ,-30, ,
-4, ,-30, ,
-3, ,-30, ,
-5, ,-30, ,
-3, ,-30, ,
-4, ,-30, ,
-4, ,-30, ,
-3, ,-30, ,
-3, ,-30, ,
-2, ,-30, ,
-2, ,-30, ,
-3, ,-30, ,
-3, ,-30, ,
-3, ,-30, ,
-3, ,-30, ,
-4, ,-31, ,
-5, ,-31, ,
-6, ,-30, ,
-6, ,-30, ,
-8, ,-30, ,
-8, ,-30, ,
-8, ,-30, ,
-10, ,-30, ,
-10, ,-30, ,
-11, ,-30, ,
-13, ,-30, ,
-13, ,-30, ,
-13, ,-30, ,
-13, ,-30, ,
-13, ,-30, ,
-14, ,-30, ,
-13, ,-30, ,
-14, ,-30, ,
-14, ,-30, ,
-14, ,-30, ,
-15, ,-30, ,
-13, ,-30, ,
-12, ,-30, ,
-12, ,-30, ,
-11, ,-30, ,
-12, ,-30, ,
-9, ,-30, ,
-8, ,-30, ,
-7, ,-30, ,
-6, ,-30, ,
-5, ,-30, ,
-5, ,-30, ,
-4, ,-30, ,
-4, ,-30, ,
-5, ,-30, ,
-3, ,-30, ,
-3, ,-30, ,
-3, ,-30, ,
-2, ,-30, ,
-2, ,-30, ,
-2, ,-30, ,
-3, ,-30, ,
-3, ,-30, ,
-2, ,-30, ,
-3, ,-30, ,
-3, ,-30, ,
-3, ,-30, ,
-4, ,-30, ,
-5, ,-30, ,
-6, ,-30, ,
-7, ,-30, ,
-7, ,-30, ,
-10, ,-30, ,
-9, ,-30, ,
-10, ,-30, ,
-13, ,-30, ,
-13, ,-30, ,
-14, ,-30, ,
-16, ,-30, ,
-17, ,-30, ,
-17, ,-30, ,
-17, ,-30, ,
-18, ,-30, ,
-19, ,-30, ,
-19, ,-30, ,
-20, ,-30, ,
-20, ,-30, ,
-19, ,-31, ,
-20, ,-31, ,
-20, ,-30, ,
-19, ,-31, ,
-20, ,-31, ,
-18, ,-31, ,
-20, ,-30, ,
-17, ,-30, ,
-15, ,-30, ,
-14, ,-30, ,
-12, ,-30, ,
-10, ,-30, ,
-9, ,-30, ,
-8, ,-30, ,
-7, ,-30, ,
-4, ,-30, ,
1, ,-30, ,
0, ,-30, ,
3, ,-30, ,
6, ,-30, ,
7, ,-30, ,
10, ,-30, ,
11, ,-30, ,
15, ,-30, ,
16, ,-30, ,
16, ,-30, ,
19, ,-30, ,
19, ,-30, ,
20, ,-30, ,
20, ,-31, ,
19, ,-31, ,
18, ,-30, ,
18, ,-31, ,
16, ,-31, ,
15, ,-30, ,
14, ,-30, ,
12, ,-30, ,
10, ,-30, ,
9, ,-30, ,
4, ,-30, ,
5, ,-30, ,
2, ,-30, ,
2, ,-30, ,
-1, ,-30, ,
-2, ,-30, ,
-2, ,-31, ,
-6, ,-31, ,
-6, ,-30, ,
-6, ,-30, ,
-7, ,-30, ,
-7, ,-30, ,
-7, ,-31, ,
-8, ,-31, ,
-7, ,-31, ,
-8, ,-30, ,
-5, ,-30, ,
-5, ,-30, ,
-4, ,-30, ,
-3, ,-30, ,
-1, ,-30, ,
0, ,-30, ,
0, ,-31, ,
0, ,-31, ,
1, ,-30, ,
3, ,-31, ,
1, ,-31, ,
1, ,-30, ,
3, ,-30, ,
3, ,-30, ,
4, ,-30, ,
1, ,-31, ,
1, ,-31, ,
1, ,-31, ,
1, ,-30, ,
0, ,-30, ,
0, ,-30, ,
0, ,-30, ,
0, ,-30, ,
-2, ,-30, ,
-1, ,-30, ,
-2, ,-30, ,
-2, ,-30, ,
-1, ,-30, ,
-1, ,-30, ,
-3, ,-30, ,
-2, ,-30, ,
-3, ,-30, ,
-4, ,-30, ,
-1, ,-30, ,
-1, ,-30, ,
0, ,-30, ,
1, ,-30, ,
0, ,-30, ,
2, ,-30, ,
2, ,-30, ,
4, ,-30, ,
4, ,-30, ,
3, ,-30, ,
5, ,-30, ,
5, ,-30, ,
4, ,-30, ,
6, ,-30, ,
6, ,-30, ,
5, ,-30, ,
7, ,-30, ,
6, ,-30, ,
7, ,-30, ,
7, ,-30, ,
5, ,-30, ,
7, ,-30, ,
5, ,-30, ,
4, ,-30, ,
4, ,-30, ,
3, ,-30, ,
3, ,-30, ,
3, ,-30, ,
2, ,-30, ,
2, ,-30, ,
0, ,-30, ,
0, ,-30, ,
0, ,-30, ,
0, ,-30, ,
0, ,-30, ,
0, ,-31, ,
0, ,-31, ,
0, ,-31, ,
-1, ,-30, ,
0, ,-30, ,
0, ,-31, ,
0, ,-31, ,
0, ,-31, ,
0, ,-31, ,
0, ,-30, ,
0, ,-30, ,
0, ,-30, ,
1, ,-30, ,
1, ,-30, ,
0, ,-30, ,
1, ,-30, ,
2, ,-30, ,
1, ,-30, ,
4, ,-30, ,
1, ,-30, ,
2, ,-30, ,
3, ,-31, ,
1, ,-31, ,
3, ,-30, ,
4, ,-31, ,
3, ,-31, ,
4, ,-31, ,
3, ,-30, ,
3, ,-30, ,
3, ,-30, ,
3, ,-30, ,
3, ,-30, ,
2, ,-30, ,
2, ,-30, ,
2, ,-31, ,
1, ,-31, ,
0, ,-30, ,
1, ,-30, ,
-1, ,-31, ,
-1, ,-31, ,
-3, ,-30, ,
-4, ,-30, ,
-4, ,-30, ,
-6, ,-30, ,
-7, ,-30, ,
-6, ,-30, ,
-9, ,-30, ,
-9, ,-30, ,
-11, ,-30, ,
-11, ,-30, ,
-11, ,-30, ,
-13, ,-30, ,
-13, ,-30, ,
-13, ,-31, ,
-14, ,-31, ,
-14, ,-30, ,
-15, ,-30, ,
-16, ,-30, ,
-16, ,-30, ,
-16, ,-30, ,
-16, ,-30, ,
-16, ,-30, ,
-16, ,-30, ,
-16, ,-30, ,
-12, ,-30, ,
-14, ,-30, ,
-11, ,-30, ,
-13, ,-30, ,
-10, ,-30, ,
-9, ,-30, ,
-9, ,-30, ,
-5, ,-30, ,
-4, ,-30, ,
-4, ,-30, ,
-3, ,-30, ,
-2, ,-30, ,
0, ,-30, ,
1, ,-30, ,
3, ,-30, ,
4, ,-30, ,
6, ,-30, ,
6, ,-30, ,
8, ,-30, ,
8, ,-30, ,
10, ,-30, ,
11, ,-30, ,
11, ,-30, ,
12, ,-30, ,
12, ,-30, ,
11, ,-30, ,
13, ,-30, ,
12, ,-30, ,
11, ,-30, ,
11, ,-30, ,
11, ,-30, ,
11, ,-30, ,
9, ,-30, ,
8, ,-30, ,
9, ,-30, ,
7, ,-30, ,
6, ,-30, ,
5, ,-30, ,
3, ,-30, ,
3, ,-30, ,
3, ,-30, ,
-1, ,-30, ,
-1, ,-30, ,
-3, ,-31, ,
-4, ,-31, ,
-3, ,-31, ,
-5, ,-30, ,
-6, ,-30, ,
-6, ,-30, ,
-7, ,-30, ,
-7, ,-30, ,
-9, ,-30, ,
-8, ,-30, ,
-9, ,-31, ,
-10, ,-31, ,
-9, ,-30, ,
-9, ,-30, ,
-10, ,-31, ,
-9, ,-31, ,
-9, ,-30, ,
-8, ,-30, ,
-8, ,-31, ,
-9, ,-31, ,
-8, ,-31, ,
-7, ,-31, ,
-7, ,-30, ,
-6, ,-31, ,
-7, ,-31, ,
-7, ,-30, ,
-5, ,-30, ,
-6, ,-30, ,
-5, ,-30, ,
-5, ,-30, ,
-6, ,-30, ,
-5, ,-30, ,
-5, ,-30, ,
-6, ,-30, ,
-5, ,-30, ,
-6, ,-30, ,
-5, ,-30, ,
-5, ,-30, ,
-6, ,-30, ,
-6, ,-30, ,
-7, ,-30, ,
-7, ,-30, ,
-7, ,-30, ,
-8, ,-30, ,
-8, ,-30, ,
-8, ,-30, ,
-9, ,-30, ,
-8, ,-30, ,
-9, ,-30, ,
-9, ,-30, ,
-8, ,-30, ,
-8, ,-30, ,
-8, ,-30, ,
-7, ,-30, ,
-7, ,-30, ,
-6, ,-30, ,
-6, ,-30, ,
-6, ,-30, ,
-5, ,-30, ,
-6, ,-30, ,
-5, ,-30, ,
-5, ,-30, ,
-5, ,-30, ,
-4, ,-31, ,
-3, ,-31, ,
-3, ,-31, ,
-3, ,-31, ,
-3, ,-30, ,
-2, ,-31, ,
-1, ,-31, ,
-2, ,-31, ,
-1, ,-30, ,
-2, ,-30, ,
-1, ,-30, ,
0, ,-30, ,
-1, ,-30, ,
0, ,-30, ,
0, ,-30, ,
0, ,-30, ,
0, ,-30, ,
0, ,-30, ,
0, ,-30, ,
1, ,-30, ,
1, ,-30, ,
1, ,-30, ,
1, ,-30, ,
1, ,-30, ,
2, ,-30, ,
0, ,-30, ,
0, ,-30, ,
0, ,-30, ,
0, ,-30, ,
1, ,-30, ,
1, ,-30, ,
1, ,-30, ,
1, ,-31, ,
0, ,-31, ,
0, ,-31, ,
1, ,-31, ,
0, ,-30, ,
0, ,-30, ,
0, ,-30, ,
0, ,-30, ,
0, ,-30, ,
0, ,-31, ,
0, ,-31, ,
0, ,-31, ,
-1, ,-30, ,
0, ,-30, ,
0, ,-30, ,
1, ,-30, ,
1, ,-30, ,
0, ,-30, ,
0, ,-30, ,
1, ,-30, ,
0, ,-30, ,
1, ,-30, ,
0, ,-31, ,
0, ,-31, ,
1, ,-31, ,
0, ,-31, ,
0, ,-30, ,
0, ,-30, ,
0, ,-30, ,
0, ,-30, ,
-1, ,-30, ,
-2, ,-30, ,
-1, ,-30, ,
-2, ,-30, ,
-2, ,-30, ,
-2, ,-30, ,
-2, ,-30, ,
-2, ,-30, ,
-2, ,-30, ,
-3, ,-30, ,
-3, ,-31, ,
-4, ,-31, ,
-4, ,-31, ,
-3, ,-30, ,
-3, ,-30, ,
-3, ,-30, ,
-3, ,-30, ,
-4, ,-30, ,
-4, ,-30, ,
-5, ,-31, ,
-5, ,-31, ,
-2, ,-31, ,
-3, ,-31, ,
-3, ,-30, ,
-2, ,-30, ,
-3, ,-30, ,
-1, ,-30, ,
-2, ,-30, ,
-1, ,-30, ,
0, ,-30, ,
0, ,-30, ,
1, ,-30, ,
0, ,-30, ,
0, ,-30, ,
1, ,-30, ,
1, ,-31, ,
1, ,-31, ,
1, ,-31, ,
1, ,-31, ,
1, ,-30, ,
2, ,-30, ,
2, ,-30, ,
2, ,-30, ,
1, ,-31, ,
1, ,-31, ,
2, ,-31, ,
0, ,-30, ,
0, ,-30, ,
0, ,-30, ,
-1, ,-30, ,
1, ,-30, ,
-1, ,-31, ,
-2, ,-31, ,
-1, ,-31, ,
-1, ,-30, ,
-1, ,-30, ,
-2, ,-30, ,
-2, ,-30, ,
-3, ,-30, ,
-3, ,-30, ,
-2, ,-30, ,
-3, ,-31, ,
-3, ,-31, ,
-4, ,-30, ,
-3, ,-30, ,
-3, ,-30, ,
-3, ,-31, ,
-3, ,-31, ,
-4, ,-30, ,
-3, ,-30, ,
-3, ,-30, ,
-3, ,-31, ,
-3, ,-31, ,
-4, ,-31, ,
-3, ,-30, ,
-4, ,-31, ,
-4, ,-31, ,
-3, ,-31, ,
-5, ,-30, ,
-3, ,-30, ,
-4, ,-31, ,
-4, ,-31, ,
-4, ,-31, ,
-4, ,-30, ,
-3, ,-30, ,
-3, ,-30, ,
-3, ,-30, ,
-2, ,-31, ,
-2, ,-31, ,
-2, ,-30, ,
-2, ,-30, ,
-2, ,-30, ,
-2, ,-30, ,
0, ,-30, ,
-1, ,-30, ,
0, ,-30, ,
0, ,-30, ,
0, ,-30, ,
2, ,-30, ,
2, ,-30, ,
2, ,-30, ,
3, ,-30, ,
2, ,-30, ,
4, ,-30, ,
4, ,-30, ,
4, ,-30, ,
5, ,-30, ,
3, ,-30, ,
5, ,-30, ,
5, ,-30, ,
5, ,-30, ,
5, ,-30, ,
5, ,-30, ,
5, ,-30, ,
5, ,-30, ,
5, ,-30, ,
5, ,-30, ,
5, ,-30, ,
5, ,-30, ,
5, ,-30, ,
5, ,-30, ,
5, ,-30, ,
5, ,-30, ,
4, ,-30, ,
5, ,-30, ,
5, ,-30, ,
3, ,-30, ,
5, ,-30, ,
4, ,-31, ,
4, ,-31, ,
4, ,-31, ,
4, ,-30, ,
4, ,-30, ,
5, ,-31, ,
5, ,-31, ,
5, ,-30, ,
5, ,-30, ,
4, ,-30, ,
4, ,-30, ,
3, ,-30, ,
4, ,-30, ,
4, ,-31, ,
3, ,-31, ,
3, ,-30, ,
4, ,-30, ,
1, ,-30, ,
3, ,-30, ,
2, ,-30, ,
1, ,-30, ,
3, ,-30, ,
1, ,-30, ,
2, ,-30, ,
2, ,-30, ,
1, ,-30, ,
2, ,-30, ,
0, ,-30, ,
0, ,-30, ,
1, ,-31, ,
0, ,-31, ,
0, ,-30, ,
0, ,-30, ,
0, ,-30, ,
0, ,-30, ,
-1, ,-30, ,
-2, ,-30, ,
0, ,-30, ,
-1, ,-30, ,
0, ,-31, ,
0, ,-31, ,
0, ,-30, ,
0, ,-30, ,
0, ,-30, ,
0, ,-30, ,
1, ,-30, ,
0, ,-30, ,
0, ,-30, ,
0, ,-30, ,
-1, ,-30, ,
-1, ,-31, ,
-2, ,-31, ,
-2, ,-30, ,
-1, ,-30, ,
-1, ,-30, ,
-2, ,-30, ,
-2, ,-30, ,
-2, ,-30, ,
-1, ,-30, ,
-2, ,-30, ,
-2, ,-30, ,
-1, ,-30, ,
-2, ,-30, ,
-1, ,-30, ,
-2, ,-30, ,
-2, ,-30, ,
