raw_data/100% Glycerol, Impulsion 2Hz, Sonde 5MHz, Rampe 0.7Hz/temp0000292.CSV

Format,1.0B,
Memory Length,10000,Memory Length,10000,
IntpDistance,0,IntpDistance,0,
Trigger Address,159,Trigger Address,159,
Trigger Level,2.720E-01,Trigger Level,2.720E-01,
Source,CH1,Source,CH2,
Vertical Units,V,Vertical Units,V,
Vertical Units Div,0,Vertical Units Div,0,
Vertical Units Extend Div,16,Vertical Units Extend Div,16,
Label,,Label,,
Probe Type,0,Probe Type,0,
Probe Ratio,1.000e+00,Probe Ratio,1.000e+00,
Vertical Scale,2.000e-01,Vertical Scale,2.000e+00,
Vertical Position,0.000e+00,Vertical Position,0.000e+00,
Horizontal Units,S,Horizontal Units,S,
Horizontal Scale,5.000E-06,Horizontal Scale,5.000E-06,
Horizontal Position,2.420E-05,Horizontal Position,2.420E-05,
Horizontal Mode,Main,Horizontal Mode,Main,
SincET Mode,Real Time,SincET Mode,Real Time,
Sampling Period,5.000e-09,Sampling Period,5.000e-09,
Horizontal Old Scale,5.000E-06,Horizontal Old Scale,5.000E-06,
Horizontal Old Position,2.420E-05,Horizontal Old Position,2.420E-05,
Firmware,V1.32,Firmware,V1.32,
Mode,Fast,Mode,Fast,
Waveform Data,,Waveform Data,,
2, ,-39, ,
2, ,-39, ,
2, ,-39, ,
1, ,-39, ,
2, ,-39, ,
1, ,-39, ,
1, ,-39, ,
2, ,-39, ,
2, ,-39, ,
2, ,-39, ,
2, ,-39, ,
3, ,-39, ,
2, ,-39, ,
2, ,-39, ,
2, ,-39, ,
1, ,-39, ,
1, ,-39, ,
1, ,-39, ,
2, ,-39, ,
2, ,-39, ,
3, ,-39, ,
2, ,-39, ,
2, ,-39, ,
2, ,-39, ,
1, ,-39, ,
2, ,-39, ,
2, ,-39, ,
2, ,-39, ,
2, ,-39, ,
1, ,-39, ,
2, ,-39, ,
2, ,-39, ,
2, ,-39, ,
1, ,-39, ,
3, ,-39, ,
1, ,-39, ,
2, ,-39, ,
2, ,-39, ,
1, ,-39, ,
2, ,-39, ,
2, ,-39, ,
2, ,-39, ,
2, ,-39, ,
1, ,-39, ,
2, ,-39, ,
1, ,-39, ,
1, ,-39, ,
1, ,-39, ,
2, ,-39, ,
3, ,-39, ,
2, ,-39, ,
2, ,-39, ,
3, ,-39, ,
2, ,-39, ,
1, ,-39, ,
2, ,-39, ,
2, ,-39, ,
4, ,-39, ,
2, ,-39, ,
2, ,-39, ,
3, ,-39, ,
2, ,-39, ,
2, ,-39, ,
3, ,-39, ,
2, ,-39, ,
2, ,-39, ,
2, ,-39, ,
1, ,-39, ,
3, ,-39, ,
2, ,-39, ,
1, ,-39, ,
2, ,-39, ,
1, ,-39, ,
2, ,-39, ,
1, ,-39, ,
2, ,-39, ,
1, ,-39, ,
1, ,-39, ,
2, ,-39, ,
2, ,-39, ,
2, ,-39, ,
2, ,-39, ,
2, ,-39, ,
1, ,-39, ,
2, ,-39, ,
3, ,-39, ,
2, ,-39, ,
2, ,-39, ,
2, ,-39, ,
2, ,-39, ,
3, ,-39, ,
2, ,-39, ,
2, ,-39, ,
1, ,-39, ,
1, ,-39, ,
2, ,-39, ,
1, ,-39, ,
2, ,-39, ,
2, ,-39, ,
1, ,-39, ,
1, ,-39, ,
1, ,-39, ,
1, ,-39, ,
1, ,-39, ,
2, ,-39, ,
2, ,-39, ,
2, ,-39, ,
2, ,-39, ,
2, ,-39, ,
2, ,-39, ,
1, ,-39, ,
2, ,-39, ,
1, ,-39, ,
2, ,-39, ,
2, ,-39, ,
1, ,-39, ,
2, ,-39, ,
2, ,-39, ,
1, ,-39, ,
2, ,-39, ,
2, ,-39, ,
2, ,-39, ,
2, ,-39, ,
2, ,-39, ,
2, ,-39, ,
1, ,-39, ,
3, ,-39, ,
3, ,-39, ,
2, ,-39, ,
2, ,-39, ,
2, ,-39, ,
1, ,-39, ,
1, ,-39, ,
2, ,-39, ,
2, ,-39, ,
2, ,-39, ,
1, ,-39, ,
2, ,-39, ,
2, ,-39, ,
2, ,-39, ,
4, ,-39, ,
1, ,-39, ,
2, ,-39, ,
3, ,-39, ,
1, ,-39, ,
1, ,-39, ,
2, ,-39, ,
2, ,-39, ,
2, ,-39, ,
1, ,-39, ,
1, ,-39, ,
1, ,-39, ,
2, ,-39, ,
2, ,-39, ,
2, ,-39, ,
2, ,-39, ,
3, ,-39, ,
2, ,-39, ,
2, ,-39, ,
1, ,-39, ,
2, ,-39, ,
1, ,-39, ,
2, ,-39, ,
1, ,-39, ,
3, ,-39, ,
-1, ,-39, ,
0, ,-39, ,
0, ,-39, ,
19, ,-39, ,
68, ,-39, ,
125, ,-39, ,
125, ,-39, ,
125, ,-39, ,
122, ,-39, ,
37, ,-39, ,
-20, ,-39, ,
53, ,-39, ,
125, ,-39, ,
125, ,-39, ,
125, ,-39, ,
125, ,-39, ,
125, ,-39, ,
125, ,-39, ,
125, ,-39, ,
125, ,-39, ,
125, ,-39, ,
125, ,-39, ,
125, ,-39, ,
125, ,-39, ,
125, ,-39, ,
125, ,-39, ,
125, ,-39, ,
125, ,-39, ,
125, ,-39, ,
125, ,-39, ,
125, ,-39, ,
125, ,-39, ,
125, ,-39, ,
125, ,-39, ,
125, ,-39, ,
125, ,-39, ,
125, ,-39, ,
124, ,-39, ,
124, ,-39, ,
123, ,-39, ,
116, ,-39, ,
107, ,-39, ,
104, ,-39, ,
99, ,-39, ,
95, ,-39, ,
88, ,-39, ,
83, ,-39, ,
81, ,-39, ,
76, ,-39, ,
68, ,-39, ,
66, ,-39, ,
63, ,-39, ,
59, ,-39, ,
56, ,-39, ,
53, ,-39, ,
51, ,-39, ,
48, ,-39, ,
43, ,-39, ,
41, ,-39, ,
40, ,-39, ,
39, ,-39, ,
35, ,-39, ,
32, ,-39, ,
30, ,-39, ,
30, ,-39, ,
26, ,-39, ,
25, ,-39, ,
25, ,-39, ,
23, ,-39, ,
20, ,-39, ,
18, ,-39, ,
17, ,-39, ,
16, ,-39, ,
15, ,-39, ,
14, ,-39, ,
12, ,-39, ,
12, ,-39, ,
10, ,-39, ,
9, ,-39, ,
9, ,-39, ,
9, ,-39, ,
7, ,-39, ,
6, ,-39, ,
5, ,-39, ,
5, ,-39, ,
5, ,-39, ,
4, ,-39, ,
4, ,-39, ,
3, ,-39, ,
2, ,-39, ,
2, ,-39, ,
1, ,-39, ,
2, ,-39, ,
2, ,-39, ,
0, ,-39, ,
0, ,-39, ,
0, ,-39, ,
0, ,-39, ,
-1, ,-39, ,
-1, ,-39, ,
-1, ,-39, ,
-1, ,-39, ,
-1, ,-39, ,
-1, ,-39, ,
-2, ,-39, ,
-3, ,-39, ,
-2, ,-39, ,
-2, ,-39, ,
-2, ,-39, ,
-2, ,-39, ,
-3, ,-39, ,
-1, ,-39, ,
-2, ,-39, ,
-4, ,-39, ,
-3, ,-39, ,
-3, ,-39, ,
-3, ,-39, ,
-2, ,-39, ,
-2, ,-39, ,
-2, ,-39, ,
-3, ,-39, ,
-3, ,-39, ,
-2, ,-39, ,
-4, ,-39, ,
-2, ,-39, ,
-4, ,-39, ,
-2, ,-39, ,
-2, ,-39, ,
-2, ,-39, ,
-2, ,-39, ,
-2, ,-39, ,
-3, ,-39, ,
-3, ,-39, ,
-2, ,-39, ,
-2, ,-39, ,
-2, ,-39, ,
-2, ,-39, ,
-2, ,-39, ,
-2, ,-39, ,
-2, ,-39, ,
-2, ,-39, ,
-1, ,-39, ,
-2, ,-39, ,
-1, ,-39, ,
-2, ,-39, ,
-1, ,-39, ,
-1, ,-39, ,
-2, ,-39, ,
-1, ,-39, ,
-1, ,-39, ,
-1, ,-39, ,
-1, ,-39, ,
-2, ,-39, ,
-1, ,-39, ,
-1, ,-39, ,
-1, ,-39, ,
-1, ,-39, ,
-1, ,-39, ,
-1, ,-39, ,
0, ,-39, ,
0, ,-39, ,
0, ,-39, ,
0, ,-39, ,
0, ,-39, ,
0, ,-39, ,
0, ,-39, ,
0, ,-39, ,
0, ,-39, ,
-1, ,-39, ,
0, ,-39, ,
0, ,-39, ,
0, ,-39, ,
0, ,-39, ,
0, ,-39, ,
0, ,-39, ,
1, ,-39, ,
0, ,-39, ,
0, ,-39, ,
1, ,-39, ,
0, ,-39, ,
0, ,-39, ,
0, ,-39, ,
0, ,-39, ,
0, ,-39, ,
0, ,-39, ,
0, ,-39, ,
0, ,-39, ,
0, ,-39, ,
1, ,-39, ,
2, ,-39, ,
0, ,-39, ,
1, ,-39, ,
1, ,-39, ,
0, ,-39, ,
1, ,-39, ,
1, ,-39, ,
2, ,-39, ,
1, ,-39, ,
2, ,-39, ,
2, ,-39, ,
1, ,-39, ,
1, ,-39, ,
1, ,-39, ,
1, ,-39, ,
1, ,-39, ,
2, ,-39, ,
1, ,-39, ,
2, ,-39, ,
2, ,-39, ,
1, ,-39, ,
1, ,-39, ,
1, ,-39, ,
1, ,-39, ,
2, ,-39, ,
1, ,-39, ,
2, ,-39, ,
2, ,-39, ,
1, ,-39, ,
2, ,-39, ,
0, ,-39, ,
2, ,-39, ,
2, ,-39, ,
1, ,-39, ,
1, ,-39, ,
1, ,-39, ,
1, ,-39, ,
1, ,-39, ,
2, ,-39, ,
2, ,-39, ,
2, ,-39, ,
2, ,-39, ,
2, ,-39, ,
1, ,-39, ,
1, ,-39, ,
2, ,-39, ,
1, ,-39, ,
3, ,-39, ,
2, ,-39, ,
-1, ,-39, ,
-3, ,-39, ,
-14, ,-39, ,
-102, ,-39, ,
-126, ,-39, ,
-126, ,-39, ,
-126, ,-39, ,
-126, ,-39, ,
-126, ,-39, ,
-126, ,-39, ,
-126, ,-39, ,
-126, ,-39, ,
-126, ,-39, ,
-126, ,-39, ,
-126, ,-39, ,
-126, ,-39, ,
-126, ,-39, ,
-126, ,-39, ,
-126, ,-39, ,
-126, ,-39, ,
-126, ,-39, ,
-126, ,-39, ,
-126, ,-39, ,
-126, ,-39, ,
-126, ,-39, ,
-126, ,-39, ,
-126, ,-39, ,
-126, ,-39, ,
-126, ,-39, ,
-126, ,-39, ,
-126, ,-39, ,
-126, ,-39, ,
-126, ,-39, ,
-126, ,-39, ,
-122, ,-39, ,
-14, ,-39, ,
60, ,-39, ,
118, ,-39, ,
125, ,-39, ,
125, ,-39, ,
125, ,-39, ,
125, ,-39, ,
125, ,-39, ,
125, ,-39, ,
125, ,-39, ,
125, ,-39, ,
125, ,-39, ,
125, ,-39, ,
125, ,-39, ,
125, ,-39, ,
125, ,-39, ,
125, ,-39, ,
125, ,-39, ,
125, ,-39, ,
125, ,-39, ,
125, ,-39, ,
125, ,-39, ,
125, ,-39, ,
125, ,-39, ,
125, ,-39, ,
125, ,-39, ,
125, ,-39, ,
125, ,-39, ,
125, ,-39, ,
125, ,-39, ,
125, ,-39, ,
125, ,-39, ,
125, ,-39, ,
125, ,-39, ,
125, ,-39, ,
125, ,-39, ,
125, ,-39, ,
125, ,-39, ,
125, ,-39, ,
125, ,-39, ,
124, ,-39, ,
124, ,-39, ,
122, ,-39, ,
120, ,-39, ,
110, ,-39, ,
105, ,-39, ,
104, ,-39, ,
98, ,-39, ,
90, ,-39, ,
88, ,-39, ,
84, ,-39, ,
82, ,-39, ,
74, ,-39, ,
71, ,-39, ,
66, ,-39, ,
63, ,-39, ,
53, ,-39, ,
46, ,-39, ,
36, ,-39, ,
27, ,-39, ,
8, ,-39, ,
-1, ,-39, ,
-3, ,-39, ,
-2, ,-39, ,
8, ,-39, ,
18, ,-39, ,
22, ,-39, ,
30, ,-39, ,
33, ,-39, ,
34, ,-39, ,
35, ,-39, ,
35, ,-39, ,
35, ,-39, ,
36, ,-39, ,
35, ,-39, ,
35, ,-39, ,
34, ,-39, ,
32, ,-39, ,
32, ,-39, ,
30, ,-39, ,
27, ,-39, ,
26, ,-39, ,
26, ,-39, ,
25, ,-39, ,
22, ,-39, ,
21, ,-39, ,
22, ,-39, ,
18, ,-39, ,
16, ,-39, ,
15, ,-39, ,
11, ,-39, ,
11, ,-39, ,
8, ,-39, ,
6, ,-39, ,
5, ,-39, ,
4, ,-39, ,
2, ,-39, ,
0, ,-39, ,
0, ,-39, ,
-1, ,-39, ,
-5, ,-39, ,
-8, ,-39, ,
-11, ,-39, ,
-18, ,-39, ,
-28, ,-39, ,
-35, ,-39, ,
-43, ,-39, ,
-49, ,-39, ,
-59, ,-39, ,
-62, ,-39, ,
-63, ,-39, ,
-61, ,-39, ,
-51, ,-39, ,
-44, ,-39, ,
-37, ,-39, ,
-30, ,-39, ,
-16, ,-39, ,
-9, ,-39, ,
-2, ,-39, ,
0, ,-39, ,
9, ,-39, ,
13, ,-39, ,
13, ,-39, ,
16, ,-39, ,
18, ,-39, ,
18, ,-39, ,
18, ,-39, ,
17, ,-39, ,
14, ,-39, ,
14, ,-39, ,
11, ,-39, ,
9, ,-39, ,
-3, ,-39, ,
-13, ,-39, ,
-22, ,-39, ,
-36, ,-39, ,
-69, ,-39, ,
-89, ,-39, ,
-109, ,-39, ,
-126, ,-39, ,
-126, ,-39, ,
-126, ,-39, ,
-126, ,-39, ,
-126, ,-39, ,
-126, ,-39, ,
-126, ,-39, ,
-126, ,-39, ,
-126, ,-39, ,
-126, ,-39, ,
-126, ,-39, ,
-126, ,-39, ,
-126, ,-39, ,
-122, ,-39, ,
-117, ,-39, ,
-116, ,-39, ,
-114, ,-39, ,
-110, ,-39, ,
-108, ,-39, ,
-106, ,-39, ,
-105, ,-39, ,
-106, ,-39, ,
-105, ,-39, ,
-108, ,-39, ,
-108, ,-39, ,
-113, ,-39, ,
-117, ,-39, ,
-121, ,-39, ,
-126, ,-39, ,
-126, ,-39, ,
-126, ,-39, ,
-126, ,-39, ,
-126, ,-39, ,
-126, ,-39, ,
-126, ,-39, ,
-126, ,-39, ,
-117, ,-39, ,
-90, ,-39, ,
-71, ,-39, ,
-50, ,-39, ,
-27, ,-39, ,
20, ,-39, ,
40, ,-39, ,
61, ,-39, ,
79, ,-39, ,
105, ,-39, ,
116, ,-39, ,
119, ,-39, ,
123, ,-39, ,
118, ,-39, ,
109, ,-39, ,
100, ,-39, ,
86, ,-39, ,
53, ,-39, ,
34, ,-39, ,
14, ,-39, ,
-6, ,-39, ,
-41, ,-39, ,
-57, ,-39, ,
-70, ,-39, ,
-80, ,-39, ,
-94, ,-39, ,
-94, ,-39, ,
-94, ,-39, ,
-90, ,-39, ,
-74, ,-39, ,
-66, ,-39, ,
-55, ,-39, ,
-46, ,-39, ,
-25, ,-39, ,
-18, ,-39, ,
-9, ,-39, ,
-2, ,-39, ,
6, ,-39, ,
6, ,-39, ,
7, ,-39, ,
2, ,-39, ,
-4, ,-39, ,
-9, ,-39, ,
-15, ,-39, ,
-20, ,-39, ,
-30, ,-39, ,
-34, ,-39, ,
-36, ,-39, ,
-40, ,-39, ,
-43, ,-39, ,
-41, ,-39, ,
-41, ,-39, ,
-41, ,-39, ,
-38, ,-39, ,
-38, ,-39, ,
-34, ,-39, ,
-35, ,-39, ,
-30, ,-39, ,
-26, ,-39, ,
-24, ,-39, ,
-17, ,-39, ,
-4, ,-39, ,
3, ,-39, ,
13, ,-39, ,
22, ,-39, ,
44, ,-39, ,
55, ,-39, ,
65, ,-39, ,
77, ,-39, ,
94, ,-39, ,
101, ,-39, ,
105, ,-39, ,
109, ,-39, ,
112, ,-39, ,
112, ,-39, ,
110, ,-39, ,
107, ,-39, ,
99, ,-39, ,
94, ,-39, ,
89, ,-39, ,
83, ,-39, ,
70, ,-39, ,
63, ,-39, ,
59, ,-39, ,
56, ,-39, ,
52, ,-39, ,
52, ,-39, ,
54, ,-39, ,
52, ,-39, ,
61, ,-39, ,
67, ,-39, ,
72, ,-39, ,
77, ,-39, ,
90, ,-39, ,
94, ,-39, ,
99, ,-39, ,
104, ,-39, ,
105, ,-39, ,
106, ,-39, ,
105, ,-39, ,
105, ,-39, ,
99, ,-39, ,
94, ,-39, ,
90, ,-39, ,
81, ,-39, ,
66, ,-39, ,
58, ,-39, ,
48, ,-39, ,
40, ,-39, ,
24, ,-39, ,
14, ,-39, ,
6, ,-39, ,
-2, ,-39, ,
-15, ,-39, ,
-18, ,-39, ,
-24, ,-39, ,
-25, ,-39, ,
-28, ,-39, ,
-29, ,-39, ,
-29, ,-39, ,
-30, ,-39, ,
-29, ,-39, ,
-26, ,-39, ,
-28, ,-39, ,
-29, ,-39, ,
-31, ,-39, ,
-34, ,-39, ,
-37, ,-39, ,
-40, ,-39, ,
-51, ,-39, ,
-57, ,-39, ,
-64, ,-39, ,
-69, ,-39, ,
-80, ,-39, ,
-84, ,-39, ,
-85, ,-39, ,
-91, ,-39, ,
-89, ,-39, ,
-87, ,-39, ,
-84, ,-39, ,
-78, ,-39, ,
-64, ,-39, ,
-59, ,-39, ,
-49, ,-39, ,
-41, ,-39, ,
-25, ,-39, ,
-15, ,-39, ,
-9, ,-39, ,
-3, ,-39, ,
9, ,-39, ,
10, ,-39, ,
12, ,-39, ,
11, ,-39, ,
10, ,-39, ,
8, ,-39, ,
2, ,-39, ,
-1, ,-39, ,
-12, ,-39, ,
-19, ,-39, ,
-23, ,-39, ,
-30, ,-39, ,
-37, ,-39, ,
-41, ,-39, ,
-43, ,-39, ,
-44, ,-39, ,
-44, ,-39, ,
-44, ,-39, ,
-42, ,-39, ,
-41, ,-39, ,
-36, ,-39, ,
-33, ,-39, ,
-32, ,-39, ,
-30, ,-39, ,
-27, ,-39, ,
-28, ,-39, ,
-27, ,-39, ,
-30, ,-39, ,
-33, ,-39, ,
-35, ,-39, ,
-39, ,-39, ,
-42, ,-39, ,
-51, ,-39, ,
-55, ,-39, ,
-57, ,-39, ,
-62, ,-39, ,
-66, ,-39, ,
-68, ,-39, ,
-69, ,-39, ,
-68, ,-39, ,
-66, ,-39, ,
-64, ,-39, ,
-64, ,-39, ,
-60, ,-39, ,
-54, ,-39, ,
-49, ,-39, ,
-46, ,-39, ,
-39, ,-39, ,
-32, ,-39, ,
-27, ,-39, ,
-21, ,-39, ,
-16, ,-39, ,
-7, ,-39, ,
-3, ,-39, ,
-1, ,-39, ,
3, ,-39, ,
7, ,-39, ,
9, ,-39, ,
8, ,-39, ,
9, ,-39, ,
8, ,-39, ,
7, ,-39, ,
6, ,-39, ,
7, ,-39, ,
2, ,-39, ,
0, ,-39, ,
-1, ,-39, ,
-4, ,-39, ,
-7, ,-39, ,
-8, ,-39, ,
-11, ,-39, ,
-12, ,-39, ,
-13, ,-39, ,
-13, ,-39, ,
-12, ,-39, ,
-10, ,-39, ,
-8, ,-39, ,
-5, ,-39, ,
-4, ,-39, ,
0, ,-39, ,
5, ,-39, ,
8, ,-39, ,
11, ,-39, ,
11, ,-39, ,
18, ,-39, ,
21, ,-39, ,
22, ,-39, ,
22, ,-39, ,
22, ,-39, ,
22, ,-39, ,
20, ,-39, ,
19, ,-39, ,
15, ,-39, ,
16, ,-39, ,
13, ,-39, ,
12, ,-39, ,
10, ,-39, ,
10, ,-39, ,
10, ,-39, ,
9, ,-39, ,
10, ,-39, ,
11, ,-39, ,
11, ,-39, ,
13, ,-39, ,
18, ,-39, ,
18, ,-39, ,
20, ,-39, ,
21, ,-39, ,
23, ,-39, ,
25, ,-39, ,
24, ,-39, ,
25, ,-39, ,
22, ,-39, ,
17, ,-39, ,
16, ,-39, ,
12, ,-39, ,
4, ,-39, ,
1, ,-39, ,
-3, ,-39, ,
-8, ,-39, ,
-16, ,-39, ,
-21, ,-39, ,
-24, ,-39, ,
-27, ,-39, ,
-34, ,-39, ,
-35, ,-39, ,
-35, ,-39, ,
-35, ,-39, ,
-34, ,-39, ,
-32, ,-39, ,
-30, ,-39, ,
-30, ,-39, ,
-24, ,-39, ,
-19, ,-39, ,
-15, ,-39, ,
-14, ,-39, ,
-9, ,-39, ,
-7, ,-39, ,
-6, ,-39, ,
-4, ,-39, ,
-4, ,-39, ,
-4, ,-39, ,
-5, ,-39, ,
-5, ,-39, ,
-5, ,-39, ,
-6, ,-39, ,
-6, ,-39, ,
-7, ,-39, ,
-7, ,-39, ,
-5, ,-39, ,
-6, ,-39, ,
-4, ,-39, ,
-4, ,-39, ,
-2, ,-39, ,
0, ,-39, ,
1, ,-39, ,
7, ,-39, ,
9, ,-39, ,
11, ,-39, ,
16, ,-39, ,
20, ,-39, ,
21, ,-39, ,
23, ,-39, ,
26, ,-39, ,
28, ,-39, ,
29, ,-39, ,
29, ,-39, ,
29, ,-39, ,
27, ,-39, ,
25, ,-39, ,
24, ,-39, ,
22, ,-39, ,
17, ,-39, ,
15, ,-39, ,
11, ,-39, ,
9, ,-39, ,
4, ,-39, ,
2, ,-39, ,
1, ,-39, ,
-3, ,-39, ,
-5, ,-39, ,
-6, ,-39, ,
-6, ,-39, ,
-6, ,-39, ,
-6, ,-39, ,
-6, ,-39, ,
-6, ,-39, ,
-4, ,-39, ,
-4, ,-39, ,
-2, ,-39, ,
-2, ,-39, ,
-2, ,-39, ,
-2, ,-39, ,
-3, ,-39, ,
-2, ,-39, ,
-4, ,-39, ,
-5, ,-39, ,
-6, ,-39, ,
-11, ,-39, ,
-11, ,-39, ,
-19, ,-39, ,
-21, ,-39, ,
-25, ,-39, ,
-31, ,-39, ,
-37, ,-39, ,
-39, ,-39, ,
-44, ,-39, ,
-47, ,-39, ,
-53, ,-39, ,
-54, ,-39, ,
-56, ,-39, ,
-57, ,-39, ,
-57, ,-39, ,
-56, ,-39, ,
-56, ,-39, ,
-56, ,-39, ,
-50, ,-39, ,
-51, ,-39, ,
-48, ,-39, ,
-45, ,-39, ,
-41, ,-39, ,
-40, ,-39, ,
-38, ,-39, ,
-37, ,-39, ,
-35, ,-39, ,
-35, ,-39, ,
-35, ,-39, ,
-35, ,-39, ,
-35, ,-39, ,
-36, ,-39, ,
-35, ,-39, ,
-37, ,-39, ,
-38, ,-39, ,
-39, ,-39, ,
-39, ,-39, ,
-38, ,-39, ,
-36, ,-39, ,
-35, ,-39, ,
-34, ,-39, ,
-30, ,-39, ,
-22, ,-39, ,
-22, ,-39, ,
-16, ,-39, ,
-13, ,-39, ,
-3, ,-39, ,
-1, ,-39, ,
1, ,-39, ,
6, ,-39, ,
10, ,-39, ,
10, ,-39, ,
11, ,-39, ,
11, ,-39, ,
10, ,-39, ,
10, ,-39, ,
10, ,-39, ,
8, ,-39, ,
4, ,-39, ,
0, ,-39, ,
-3, ,-39, ,
-5, ,-39, ,
-11, ,-39, ,
-13, ,-39, ,
-15, ,-39, ,
-19, ,-39, ,
-22, ,-39, ,
-24, ,-39, ,
-25, ,-39, ,
-26, ,-39, ,
-26, ,-39, ,
-26, ,-39, ,
-26, ,-39, ,
-26, ,-39, ,
-26, ,-39, ,
-27, ,-39, ,
-26, ,-39, ,
-28, ,-39, ,
-30, ,-39, ,
-30, ,-39, ,
-31, ,-39, ,
-31, ,-39, ,
-34, ,-39, ,
-35, ,-39, ,
-36, ,-39, ,
-35, ,-39, ,
-37, ,-39, ,
-36, ,-39, ,
-37, ,-39, ,
-35, ,-39, ,
-34, ,-39, ,
-34, ,-39, ,
-30, ,-39, ,
-28, ,-39, ,
-24, ,-39, ,
-21, ,-39, ,
-20, ,-39, ,
-17, ,-39, ,
-11, ,-39, ,
-9, ,-39, ,
-6, ,-39, ,
-4, ,-39, ,
1, ,-39, ,
4, ,-39, ,
8, ,-39, ,
10, ,-39, ,
15, ,-39, ,
15, ,-39, ,
18, ,-39, ,
20, ,-39, ,
22, ,-39, ,
24, ,-39, ,
25, ,-39, ,
25, ,-39, ,
28, ,-39, ,
29, ,-39, ,
30, ,-39, ,
31, ,-39, ,
33, ,-39, ,
35, ,-39, ,
35, ,-39, ,
35, ,-39, ,
36, ,-39, ,
37, ,-39, ,
39, ,-39, ,
39, ,-39, ,
40, ,-39, ,
40, ,-39, ,
41, ,-39, ,
41, ,-39, ,
41, ,-39, ,
40, ,-39, ,
41, ,-39, ,
40, ,-39, ,
40, ,-39, ,
39, ,-39, ,
39, ,-39, ,
38, ,-39, ,
36, ,-39, ,
35, ,-39, ,
35, ,-39, ,
33, ,-39, ,
31, ,-39, ,
31, ,-39, ,
27, ,-39, ,
26, ,-39, ,
24, ,-39, ,
22, ,-39, ,
20, ,-39, ,
18, ,-39, ,
16, ,-39, ,
16, ,-39, ,
15, ,-39, ,
15, ,-39, ,
14, ,-39, ,
13, ,-39, ,
13, ,-39, ,
12, ,-39, ,
10, ,-39, ,
11, ,-39, ,
9, ,-39, ,
9, ,-39, ,
7, ,-39, ,
5, ,-39, ,
4, ,-39, ,
1, ,-39, ,
-1, ,-39, ,
-1, ,-39, ,
-5, ,-39, ,
-5, ,-39, ,
-6, ,-39, ,
-6, ,-39, ,
-6, ,-39, ,
-7, ,-39, ,
-6, ,-39, ,
-6, ,-39, ,
-4, ,-39, ,
-3, ,-39, ,
0, ,-39, ,
1, ,-39, ,
3, ,-39, ,
6, ,-39, ,
8, ,-39, ,
12, ,-39, ,
15, ,-39, ,
16, ,-39, ,
20, ,-39, ,
21, ,-39, ,
22, ,-39, ,
23, ,-39, ,
24, ,-39, ,
24, ,-39, ,
23, ,-39, ,
23, ,-39, ,
23, ,-39, ,
20, ,-39, ,
20, ,-39, ,
19, ,-39, ,
17, ,-39, ,
17, ,-39, ,
16, ,-39, ,
17, ,-39, ,
15, ,-39, ,
15, ,-39, ,
15, ,-39, ,
15, ,-39, ,
15, ,-39, ,
15, ,-39, ,
15, ,-39, ,
14, ,-39, ,
13, ,-39, ,
11, ,-39, ,
10, ,-39, ,
10, ,-39, ,
5, ,-39, ,
5, ,-39, ,
1, ,-39, ,
0, ,-39, ,
-5, ,-39, ,
-8, ,-39, ,
-10, ,-39, ,
-14, ,-39, ,
-17, ,-39, ,
-19, ,-39, ,
-21, ,-39, ,
-25, ,-39, ,
-27, ,-39, ,
-30, ,-39, ,
-30, ,-39, ,
-31, ,-39, ,
-34, ,-39, ,
-32, ,-39, ,
-33, ,-39, ,
-34, ,-39, ,
-32, ,-39, ,
-32, ,-39, ,
-31, ,-39, ,
-32, ,-39, ,
-30, ,-39, ,
-29, ,-39, ,
-29, ,-39, ,
-28, ,-39, ,
-27, ,-39, ,
-26, ,-39, ,
-26, ,-39, ,
-27, ,-39, ,
-26, ,-39, ,
-27, ,-39, ,
-26, ,-39, ,
-26, ,-39, ,
-25, ,-39, ,
-25, ,-39, ,
-25, ,-39, ,
-25, ,-39, ,
-24, ,-39, ,
-24, ,-39, ,
-22, ,-39, ,
-22, ,-39, ,
-19, ,-39, ,
-20, ,-39, ,
-17, ,-39, ,
-18, ,-39, ,
-14, ,-39, ,
-14, ,-39, ,
-13, ,-39, ,
-10, ,-39, ,
-10, ,-39, ,
-8, ,-39, ,
-6, ,-39, ,
-7, ,-39, ,
-5, ,-39, ,
-5, ,-39, ,
-4, ,-39, ,
-4, ,-39, ,
-3, ,-39, ,
-4, ,-39, ,
-4, ,-39, ,
-4, ,-39, ,
-6, ,-39, ,
-6, ,-39, ,
-6, ,-39, ,
-6, ,-39, ,
-7, ,-39, ,
-7, ,-39, ,
-7, ,-39, ,
-7, ,-39, ,
-7, ,-39, ,
-7, ,-39, ,
-7, ,-39, ,
-7, ,-39, ,
-6, ,-39, ,
-5, ,-39, ,
-4, ,-39, ,
-4, ,-39, ,
-4, ,-39, ,
-4, ,-39, ,
-5, ,-39, ,
-5, ,-39, ,
-5, ,-39, ,
-6, ,-39, ,
-7, ,-39, ,
-8, ,-39, ,
-10, ,-39, ,
-10, ,-39, ,
-11, ,-39, ,
-13, ,-39, ,
-15, ,-39, ,
-16, ,-39, ,
-15, ,-39, ,
-17, ,-39, ,
-18, ,-39, ,
-20, ,-39, ,
-19, ,-39, ,
-19, ,-39, ,
-19, ,-39, ,
-18, ,-39, ,
-17, ,-39, ,
-16, ,-39, ,
-14, ,-39, ,
-14, ,-39, ,
-12, ,-39, ,
-11, ,-39, ,
-9, ,-39, ,
-9, ,-39, ,
-7, ,-39, ,
-5, ,-39, ,
-4, ,-39, ,
-4, ,-39, ,
-3, ,-39, ,
-3, ,-39, ,
-2, ,-39, ,
-3, ,-39, ,
-1, ,-39, ,
-2, ,-39, ,
0, ,-39, ,
1, ,-39, ,
1, ,-39, ,
2, ,-39, ,
4, ,-39, ,
5, ,-39, ,
6, ,-39, ,
8, ,-39, ,
10, ,-39, ,
14, ,-39, ,
15, ,-39, ,
15, ,-39, ,
18, ,-39, ,
18, ,-39, ,
18, ,-39, ,
20, ,-39, ,
21, ,-39, ,
21, ,-39, ,
21, ,-39, ,
21, ,-39, ,
20, ,-39, ,
20, ,-39, ,
20, ,-39, ,
19, ,-39, ,
17, ,-39, ,
17, ,-39, ,
16, ,-39, ,
15, ,-39, ,
14, ,-39, ,
13, ,-39, ,
14, ,-39, ,
11, ,-39, ,
10, ,-39, ,
9, ,-39, ,
9, ,-39, ,
9, ,-39, ,
9, ,-39, ,
6, ,-39, ,
6, ,-39, ,
5, ,-39, ,
4, ,-39, ,
4, ,-39, ,
2, ,-39, ,
1, ,-39, ,
-1, ,-39, ,
-2, ,-39, ,
0, ,-39, ,
-3, ,-39, ,
-5, ,-39, ,
-5, ,-39, ,
-5, ,-39, ,
-5, ,-39, ,
-8, ,-39, ,
-8, ,-39, ,
-8, ,-39, ,
-9, ,-39, ,
-9, ,-39, ,
-9, ,-39, ,
-9, ,-39, ,
-8, ,-39, ,
-7, ,-39, ,
-7, ,-39, ,
-6, ,-39, ,
-6, ,-39, ,
-6, ,-39, ,
-5, ,-39, ,
-5, ,-39, ,
-5, ,-39, ,
-2, ,-39, ,
-4, ,-39, ,
-1, ,-39, ,
-2, ,-39, ,
-1, ,-39, ,
0, ,-39, ,
0, ,-39, ,
0, ,-39, ,
0, ,-39, ,
0, ,-39, ,
0, ,-39, ,
0, ,-39, ,
1, ,-39, ,
1, ,-39, ,
1, ,-39, ,
2, ,-39, ,
2, ,-39, ,
2, ,-39, ,
1, ,-39, ,
3, ,-39, ,
3, ,-39, ,
4, ,-39, ,
5, ,-39, ,
5, ,-39, ,
6, ,-39, ,
6, ,-39, ,
8, ,-39, ,
8, ,-39, ,
10, ,-39, ,
10, ,-39, ,
10, ,-39, ,
10, ,-39, ,
10, ,-39, ,
10, ,-39, ,
10, ,-39, ,
10, ,-39, ,
8, ,-39, ,
8, ,-39, ,
7, ,-39, ,
7, ,-39, ,
5, ,-39, ,
4, ,-39, ,
4, ,-39, ,
2, ,-39, ,
1, ,-39, ,
2, ,-39, ,
0, ,-39, ,
0, ,-39, ,
0, ,-39, ,
-1, ,-39, ,
-1, ,-39, ,
-2, ,-39, ,
-3, ,-39, ,
-3, ,-39, ,
-3, ,-39, ,
-3, ,-39, ,
-5, ,-39, ,
-5, ,-39, ,
-5, ,-39, ,
-6, ,-39, ,
-8, ,-39, ,
-8, ,-39, ,
-10, ,-39, ,
-10, ,-39, ,
-11, ,-39, ,
-12, ,-39, ,
-12, ,-39, ,
-13, ,-39, ,
-14, ,-39, ,
-13, ,-39, ,
-13, ,-39, ,
-13, ,-39, ,
-12, ,-39, ,
-12, ,-39, ,
-12, ,-39, ,
-10, ,-39, ,
-9, ,-39, ,
-8, ,-39, ,
-7, ,-39, ,
-7, ,-39, ,
-5, ,-39, ,
-5, ,-39, ,
-4, ,-39, ,
-3, ,-39, ,
-2, ,-39, ,
-1, ,-39, ,
0, ,-39, ,
0, ,-39, ,
1, ,-39, ,
1, ,-39, ,
1, ,-39, ,
1, ,-39, ,
1, ,-39, ,
2, ,-39, ,
2, ,-39, ,
2, ,-39, ,
3, ,-39, ,
3, ,-39, ,
4, ,-39, ,
5, ,-39, ,
4, ,-39, ,
4, ,-39, ,
5, ,-39, ,
5, ,-39, ,
6, ,-39, ,
7, ,-39, ,
6, ,-39, ,
6, ,-39, ,
6, ,-39, ,
6, ,-39, ,
5, ,-39, ,
5, ,-39, ,
4, ,-39, ,
4, ,-39, ,
3, ,-39, ,
3, ,-39, ,
2, ,-39, ,
2, ,-39, ,
1, ,-39, ,
0, ,-39, ,
0, ,-39, ,
-1, ,-39, ,
-1, ,-39, ,
-2, ,-39, ,
-3, ,-39, ,
-3, ,-39, ,
-4, ,-39, ,
-3, ,-39, ,
-4, ,-39, ,
-5, ,-39, ,
-5, ,-39, ,
-6, ,-39, ,
-5, ,-39, ,
-5, ,-39, ,
-5, ,-39, ,
-5, ,-39, ,
-5, ,-39, ,
-6, ,-39, ,
-6, ,-39, ,
-7, ,-39, ,
-6, ,-39, ,
-5, ,-39, ,
-6, ,-39, ,
-5, ,-39, ,
-5, ,-39, ,
-6, ,-39, ,
-6, ,-39, ,
-6, ,-39, ,
-7, ,-39, ,
-5, ,-39, ,
-5, ,-39, ,
-5, ,-39, ,
-5, ,-39, ,
-5, ,-39, ,
-5, ,-39, ,
-5, ,-39, ,
-3, ,-39, ,
-2, ,-39, ,
-2, ,-39, ,
-2, ,-39, ,
0, ,-39, ,
0, ,-39, ,
1, ,-39, ,
2, ,-39, ,
4, ,-39, ,
4, ,-39, ,
6, ,-39, ,
5, ,-39, ,
7, ,-39, ,
5, ,-39, ,
7, ,-39, ,
7, ,-39, ,
8, ,-39, ,
8, ,-39, ,
8, ,-39, ,
8, ,-39, ,
9, ,-39, ,
8, ,-39, ,
9, ,-39, ,
8, ,-39, ,
8, ,-39, ,
9, ,-39, ,
9, ,-39, ,
8, ,-39, ,
10, ,-39, ,
9, ,-39, ,
9, ,-39, ,
8, ,-39, ,
9, ,-39, ,
10, ,-39, ,
10, ,-39, ,
10, ,-39, ,
10, ,-39, ,
9, ,-39, ,
9, ,-39, ,
9, ,-39, ,
8, ,-39, ,
8, ,-39, ,
7, ,-39, ,
7, ,-39, ,
6, ,-39, ,
5, ,-39, ,
5, ,-39, ,
3, ,-39, ,
3, ,-39, ,
3, ,-39, ,
1, ,-39, ,
3, ,-39, ,
2, ,-39, ,
1, ,-39, ,
