raw_data/100% Glycerol, Impulsion 2Hz, Sonde 5MHz, Rampe 0.7Hz/temp0000265.CSV

Format,1.0B,
Memory Length,10000,Memory Length,10000,
IntpDistance,0,IntpDistance,0,
Trigger Address,159,Trigger Address,159,
Trigger Level,2.720E-01,Trigger Level,2.720E-01,
Source,CH1,Source,CH2,
Vertical Units,V,Vertical Units,V,
Vertical Units Div,0,Vertical Units Div,0,
Vertical Units Extend Div,16,Vertical Units Extend Div,16,
Label,,Label,,
Probe Type,0,Probe Type,0,
Probe Ratio,1.000e+00,Probe Ratio,1.000e+00,
Vertical Scale,2.000e-01,Vertical Scale,2.000e+00,
Vertical Position,0.000e+00,Vertical Position,0.000e+00,
Horizontal Units,S,Horizontal Units,S,
Horizontal Scale,5.000E-06,Horizontal Scale,5.000E-06,
Horizontal Position,2.420E-05,Horizontal Position,2.420E-05,
Horizontal Mode,Main,Horizontal Mode,Main,
SincET Mode,Real Time,SincET Mode,Real Time,
Sampling Period,5.000e-09,Sampling Period,5.000e-09,
Horizontal Old Scale,5.000E-06,Horizontal Old Scale,5.000E-06,
Horizontal Old Position,2.420E-05,Horizontal Old Position,2.420E-05,
Firmware,V1.32,Firmware,V1.32,
Mode,Fast,Mode,Fast,
Waveform Data,,Waveform Data,,
2, ,2, ,
2, ,2, ,
3, ,2, ,
2, ,2, ,
2, ,2, ,
3, ,2, ,
3, ,2, ,
3, ,2, ,
2, ,2, ,
3, ,2, ,
3, ,2, ,
2, ,2, ,
2, ,2, ,
2, ,2, ,
1, ,2, ,
2, ,2, ,
2, ,2, ,
1, ,2, ,
4, ,2, ,
2, ,2, ,
2, ,2, ,
3, ,2, ,
2, ,2, ,
3, ,2, ,
2, ,2, ,
2, ,2, ,
2, ,2, ,
1, ,2, ,
2, ,2, ,
2, ,2, ,
2, ,2, ,
2, ,2, ,
2, ,2, ,
2, ,2, ,
3, ,2, ,
3, ,2, ,
2, ,2, ,
2, ,2, ,
2, ,2, ,
2, ,2, ,
2, ,2, ,
1, ,2, ,
3, ,2, ,
3, ,2, ,
3, ,2, ,
2, ,2, ,
0, ,2, ,
2, ,2, ,
2, ,2, ,
2, ,2, ,
2, ,2, ,
1, ,2, ,
2, ,2, ,
2, ,2, ,
2, ,2, ,
4, ,2, ,
1, ,2, ,
3, ,2, ,
3, ,2, ,
2, ,2, ,
2, ,2, ,
3, ,2, ,
2, ,2, ,
2, ,2, ,
2, ,2, ,
3, ,2, ,
3, ,2, ,
2, ,2, ,
2, ,2, ,
3, ,2, ,
2, ,2, ,
3, ,2, ,
2, ,2, ,
2, ,2, ,
2, ,2, ,
2, ,2, ,
3, ,2, ,
3, ,2, ,
2, ,2, ,
2, ,2, ,
1, ,2, ,
3, ,2, ,
2, ,2, ,
2, ,2, ,
2, ,2, ,
2, ,2, ,
2, ,2, ,
3, ,2, ,
3, ,2, ,
2, ,2, ,
3, ,2, ,
1, ,2, ,
1, ,2, ,
2, ,2, ,
2, ,2, ,
2, ,2, ,
2, ,2, ,
3, ,2, ,
3, ,2, ,
2, ,2, ,
3, ,2, ,
2, ,2, ,
3, ,2, ,
3, ,2, ,
2, ,2, ,
3, ,2, ,
3, ,2, ,
3, ,2, ,
3, ,2, ,
3, ,2, ,
1, ,2, ,
2, ,2, ,
2, ,2, ,
2, ,2, ,
2, ,2, ,
2, ,2, ,
2, ,2, ,
2, ,2, ,
2, ,2, ,
2, ,2, ,
1, ,2, ,
2, ,2, ,
3, ,2, ,
2, ,2, ,
2, ,2, ,
3, ,2, ,
3, ,2, ,
3, ,2, ,
2, ,2, ,
2, ,2, ,
3, ,2, ,
3, ,2, ,
3, ,2, ,
3, ,2, ,
2, ,2, ,
3, ,2, ,
2, ,2, ,
1, ,2, ,
3, ,2, ,
2, ,2, ,
2, ,2, ,
3, ,2, ,
2, ,2, ,
3, ,2, ,
2, ,2, ,
1, ,2, ,
2, ,2, ,
1, ,2, ,
2, ,2, ,
3, ,2, ,
3, ,2, ,
3, ,2, ,
2, ,2, ,
2, ,2, ,
2, ,2, ,
1, ,2, ,
3, ,2, ,
3, ,2, ,
2, ,2, ,
2, ,2, ,
3, ,2, ,
3, ,2, ,
3, ,2, ,
3, ,2, ,
3, ,2, ,
1, ,2, ,
3, ,2, ,
-1, ,2, ,
4, ,2, ,
109, ,2, ,
125, ,2, ,
125, ,2, ,
125, ,2, ,
120, ,2, ,
101, ,2, ,
-8, ,2, ,
8, ,2, ,
125, ,2, ,
125, ,2, ,
125, ,2, ,
125, ,2, ,
125, ,2, ,
125, ,2, ,
125, ,2, ,
125, ,2, ,
125, ,2, ,
125, ,2, ,
125, ,2, ,
125, ,2, ,
125, ,2, ,
125, ,2, ,
125, ,2, ,
125, ,2, ,
125, ,2, ,
125, ,2, ,
125, ,2, ,
125, ,2, ,
125, ,2, ,
125, ,2, ,
125, ,2, ,
125, ,2, ,
125, ,2, ,
125, ,2, ,
124, ,2, ,
124, ,2, ,
115, ,2, ,
110, ,2, ,
105, ,2, ,
101, ,2, ,
92, ,2, ,
91, ,2, ,
86, ,2, ,
81, ,2, ,
76, ,2, ,
71, ,2, ,
68, ,2, ,
63, ,2, ,
59, ,2, ,
57, ,2, ,
53, ,2, ,
51, ,2, ,
47, ,2, ,
43, ,2, ,
43, ,2, ,
40, ,2, ,
35, ,2, ,
35, ,2, ,
34, ,2, ,
33, ,2, ,
29, ,2, ,
27, ,2, ,
26, ,2, ,
24, ,2, ,
22, ,2, ,
20, ,2, ,
19, ,2, ,
18, ,2, ,
16, ,2, ,
14, ,2, ,
15, ,2, ,
13, ,2, ,
11, ,2, ,
10, ,2, ,
9, ,2, ,
9, ,2, ,
8, ,2, ,
7, ,2, ,
7, ,2, ,
6, ,2, ,
5, ,2, ,
5, ,2, ,
4, ,2, ,
4, ,2, ,
4, ,2, ,
3, ,2, ,
3, ,2, ,
2, ,2, ,
1, ,2, ,
1, ,2, ,
0, ,2, ,
0, ,2, ,
0, ,2, ,
0, ,2, ,
-1, ,2, ,
-1, ,2, ,
0, ,2, ,
-1, ,2, ,
-1, ,2, ,
-1, ,2, ,
-1, ,2, ,
-2, ,2, ,
-1, ,2, ,
-2, ,2, ,
-2, ,2, ,
-2, ,2, ,
-2, ,2, ,
-2, ,2, ,
-2, ,2, ,
-3, ,2, ,
-2, ,2, ,
-3, ,2, ,
-2, ,2, ,
-2, ,2, ,
-2, ,2, ,
-2, ,2, ,
-3, ,2, ,
-3, ,2, ,
-3, ,2, ,
-3, ,2, ,
-2, ,2, ,
-2, ,2, ,
-3, ,2, ,
-2, ,2, ,
-3, ,2, ,
-3, ,2, ,
-3, ,2, ,
-3, ,2, ,
-2, ,2, ,
-2, ,2, ,
-2, ,2, ,
-2, ,2, ,
-2, ,2, ,
-2, ,2, ,
-2, ,2, ,
-1, ,2, ,
-2, ,2, ,
-1, ,2, ,
-1, ,2, ,
-2, ,2, ,
-1, ,2, ,
-2, ,2, ,
-1, ,2, ,
-2, ,2, ,
-1, ,2, ,
-1, ,2, ,
-1, ,2, ,
0, ,2, ,
-1, ,2, ,
-1, ,2, ,
0, ,2, ,
0, ,2, ,
0, ,2, ,
0, ,2, ,
0, ,2, ,
0, ,2, ,
0, ,2, ,
0, ,2, ,
0, ,2, ,
-1, ,2, ,
-2, ,2, ,
0, ,2, ,
0, ,2, ,
0, ,2, ,
0, ,2, ,
-2, ,2, ,
0, ,2, ,
0, ,2, ,
0, ,2, ,
0, ,2, ,
0, ,2, ,
0, ,2, ,
-1, ,2, ,
1, ,2, ,
2, ,2, ,
0, ,2, ,
1, ,2, ,
1, ,2, ,
0, ,2, ,
1, ,2, ,
1, ,2, ,
0, ,2, ,
1, ,2, ,
0, ,2, ,
1, ,2, ,
1, ,2, ,
1, ,2, ,
1, ,2, ,
2, ,2, ,
1, ,2, ,
2, ,2, ,
0, ,2, ,
1, ,2, ,
1, ,2, ,
1, ,2, ,
2, ,2, ,
2, ,2, ,
1, ,2, ,
2, ,2, ,
1, ,2, ,
1, ,2, ,
1, ,2, ,
1, ,2, ,
1, ,2, ,
1, ,2, ,
1, ,2, ,
2, ,2, ,
1, ,2, ,
1, ,2, ,
2, ,2, ,
2, ,2, ,
2, ,2, ,
2, ,2, ,
1, ,2, ,
1, ,2, ,
1, ,2, ,
1, ,2, ,
3, ,2, ,
2, ,2, ,
3, ,2, ,
2, ,2, ,
2, ,2, ,
2, ,2, ,
1, ,2, ,
1, ,2, ,
1, ,2, ,
1, ,2, ,
3, ,2, ,
3, ,2, ,
2, ,2, ,
2, ,2, ,
3, ,2, ,
2, ,2, ,
2, ,2, ,
1, ,2, ,
3, ,2, ,
2, ,2, ,
1, ,2, ,
2, ,2, ,
1, ,2, ,
1, ,2, ,
1, ,2, ,
1, ,2, ,
2, ,2, ,
3, ,2, ,
2, ,2, ,
3, ,2, ,
2, ,2, ,
3, ,2, ,
3, ,2, ,
2, ,2, ,
2, ,2, ,
3, ,2, ,
2, ,2, ,
2, ,2, ,
1, ,2, ,
1, ,2, ,
0, ,2, ,
1, ,2, ,
0, ,2, ,
2, ,2, ,
0, ,2, ,
2, ,2, ,
1, ,2, ,
2, ,2, ,
2, ,2, ,
1, ,2, ,
2, ,2, ,
1, ,2, ,
1, ,2, ,
1, ,2, ,
1, ,2, ,
1, ,2, ,
1, ,2, ,
0, ,2, ,
0, ,2, ,
0, ,2, ,
0, ,2, ,
0, ,2, ,
0, ,2, ,
0, ,2, ,
2, ,2, ,
1, ,2, ,
1, ,2, ,
2, ,2, ,
2, ,2, ,
3, ,2, ,
2, ,2, ,
2, ,2, ,
2, ,2, ,
1, ,2, ,
1, ,2, ,
1, ,2, ,
1, ,2, ,
1, ,2, ,
1, ,2, ,
1, ,2, ,
1, ,2, ,
1, ,2, ,
1, ,2, ,
2, ,2, ,
2, ,2, ,
2, ,2, ,
1, ,2, ,
3, ,2, ,
3, ,2, ,
3, ,2, ,
3, ,2, ,
4, ,2, ,
2, ,2, ,
2, ,2, ,
1, ,2, ,
2, ,2, ,
2, ,2, ,
1, ,2, ,
2, ,2, ,
1, ,2, ,
1, ,2, ,
2, ,2, ,
0, ,2, ,
2, ,2, ,
3, ,2, ,
2, ,2, ,
3, ,2, ,
3, ,2, ,
2, ,2, ,
3, ,2, ,
2, ,2, ,
2, ,2, ,
3, ,2, ,
2, ,2, ,
2, ,2, ,
1, ,2, ,
1, ,2, ,
2, ,2, ,
0, ,2, ,
0, ,2, ,
1, ,2, ,
1, ,2, ,
2, ,2, ,
2, ,2, ,
2, ,2, ,
3, ,2, ,
2, ,2, ,
1, ,2, ,
1, ,2, ,
2, ,2, ,
0, ,2, ,
0, ,2, ,
-1, ,2, ,
-1, ,2, ,
-3, ,2, ,
-5, ,2, ,
-4, ,2, ,
-6, ,2, ,
-5, ,2, ,
-6, ,2, ,
-7, ,2, ,
-6, ,2, ,
-7, ,2, ,
-7, ,2, ,
-6, ,2, ,
-8, ,2, ,
-8, ,2, ,
-9, ,2, ,
-10, ,2, ,
-9, ,2, ,
-13, ,2, ,
-15, ,2, ,
-15, ,2, ,
-18, ,2, ,
-18, ,2, ,
-21, ,2, ,
-24, ,2, ,
-24, ,2, ,
-25, ,2, ,
-26, ,2, ,
-25, ,2, ,
-26, ,2, ,
-24, ,2, ,
-23, ,2, ,
-23, ,2, ,
-23, ,2, ,
-23, ,2, ,
-24, ,2, ,
-25, ,2, ,
-25, ,2, ,
-28, ,2, ,
-29, ,2, ,
-30, ,2, ,
-31, ,2, ,
-31, ,2, ,
-32, ,2, ,
-31, ,2, ,
-30, ,2, ,
-28, ,2, ,
-25, ,2, ,
-24, ,2, ,
-21, ,2, ,
-19, ,2, ,
-16, ,2, ,
-13, ,2, ,
-12, ,2, ,
-12, ,2, ,
-12, ,2, ,
-13, ,2, ,
-13, ,2, ,
-14, ,2, ,
-15, ,2, ,
-15, ,2, ,
-16, ,2, ,
-16, ,2, ,
-17, ,2, ,
-15, ,2, ,
-13, ,2, ,
-13, ,2, ,
-7, ,2, ,
-5, ,2, ,
-4, ,2, ,
-4, ,2, ,
-1, ,2, ,
-1, ,2, ,
-1, ,2, ,
0, ,2, ,
-1, ,2, ,
-1, ,2, ,
-2, ,2, ,
-3, ,2, ,
-4, ,2, ,
-5, ,2, ,
-5, ,2, ,
-6, ,2, ,
-6, ,2, ,
-6, ,2, ,
-6, ,2, ,
-5, ,2, ,
-4, ,2, ,
-5, ,2, ,
-5, ,2, ,
-6, ,2, ,
-8, ,2, ,
-10, ,2, ,
-11, ,2, ,
-12, ,2, ,
-18, ,2, ,
-21, ,2, ,
-23, ,2, ,
-26, ,2, ,
-30, ,2, ,
-31, ,2, ,
-33, ,2, ,
-33, ,2, ,
-33, ,2, ,
-34, ,2, ,
-32, ,2, ,
-32, ,2, ,
-32, ,2, ,
-32, ,2, ,
-32, ,2, ,
-32, ,2, ,
-33, ,2, ,
-33, ,2, ,
-32, ,2, ,
-32, ,2, ,
-32, ,2, ,
-31, ,2, ,
-32, ,2, ,
-30, ,2, ,
-27, ,2, ,
-27, ,2, ,
-27, ,2, ,
-25, ,2, ,
-24, ,2, ,
-22, ,2, ,
-23, ,2, ,
-21, ,2, ,
-20, ,2, ,
-20, ,2, ,
-18, ,2, ,
-18, ,2, ,
-17, ,2, ,
-17, ,2, ,
-17, ,2, ,
-17, ,2, ,
-19, ,2, ,
-21, ,2, ,
-21, ,2, ,
-25, ,2, ,
-26, ,2, ,
-28, ,2, ,
-28, ,2, ,
-28, ,2, ,
-27, ,2, ,
-27, ,2, ,
-27, ,2, ,
-26, ,2, ,
-25, ,2, ,
-25, ,2, ,
-26, ,2, ,
-26, ,2, ,
-26, ,2, ,
-28, ,2, ,
-30, ,2, ,
-30, ,2, ,
-31, ,2, ,
-31, ,2, ,
-32, ,2, ,
-31, ,2, ,
-30, ,2, ,
-30, ,2, ,
-28, ,2, ,
-28, ,2, ,
-25, ,2, ,
-24, ,2, ,
-24, ,2, ,
-22, ,2, ,
-23, ,2, ,
-23, ,2, ,
-22, ,2, ,
-23, ,2, ,
-23, ,2, ,
-21, ,2, ,
-20, ,2, ,
-20, ,2, ,
-18, ,2, ,
-19, ,2, ,
-16, ,2, ,
-17, ,2, ,
-15, ,2, ,
-15, ,2, ,
-15, ,2, ,
-14, ,2, ,
-13, ,2, ,
-13, ,2, ,
-12, ,2, ,
-10, ,2, ,
-10, ,2, ,
-9, ,2, ,
-7, ,2, ,
-7, ,2, ,
-4, ,2, ,
-4, ,2, ,
-3, ,2, ,
-4, ,2, ,
-2, ,2, ,
-1, ,2, ,
-1, ,2, ,
0, ,2, ,
1, ,2, ,
2, ,2, ,
2, ,2, ,
2, ,2, ,
5, ,2, ,
6, ,2, ,
6, ,2, ,
7, ,2, ,
8, ,2, ,
8, ,2, ,
8, ,2, ,
8, ,2, ,
8, ,2, ,
9, ,2, ,
7, ,2, ,
7, ,2, ,
4, ,2, ,
4, ,2, ,
4, ,2, ,
3, ,2, ,
2, ,2, ,
2, ,2, ,
1, ,2, ,
1, ,2, ,
0, ,2, ,
-1, ,2, ,
-2, ,2, ,
-3, ,2, ,
-3, ,2, ,
-3, ,2, ,
-5, ,2, ,
-5, ,2, ,
-7, ,2, ,
-8, ,2, ,
-8, ,2, ,
-9, ,2, ,
-11, ,2, ,
-12, ,2, ,
-13, ,2, ,
-13, ,2, ,
-15, ,2, ,
-16, ,2, ,
-16, ,2, ,
-18, ,2, ,
-19, ,2, ,
-18, ,2, ,
-20, ,2, ,
-20, ,2, ,
-21, ,2, ,
-22, ,2, ,
-21, ,2, ,
-22, ,2, ,
-23, ,2, ,
-23, ,2, ,
-25, ,2, ,
-25, ,2, ,
-25, ,2, ,
-26, ,2, ,
-26, ,2, ,
-28, ,2, ,
-28, ,2, ,
-28, ,2, ,
-28, ,2, ,
-29, ,2, ,
-26, ,2, ,
-27, ,2, ,
-26, ,2, ,
-26, ,2, ,
-27, ,2, ,
-24, ,2, ,
-24, ,2, ,
-24, ,2, ,
-23, ,2, ,
-24, ,2, ,
-25, ,2, ,
-25, ,2, ,
-24, ,2, ,
-24, ,2, ,
-24, ,2, ,
-24, ,2, ,
-22, ,2, ,
-22, ,2, ,
-19, ,2, ,
-20, ,2, ,
-19, ,2, ,
-16, ,2, ,
-17, ,2, ,
-16, ,2, ,
-14, ,2, ,
-14, ,2, ,
-14, ,2, ,
-13, ,2, ,
-12, ,2, ,
-12, ,2, ,
-10, ,2, ,
-9, ,2, ,
-6, ,2, ,
-6, ,2, ,
-3, ,2, ,
-3, ,2, ,
-2, ,2, ,
-1, ,2, ,
-1, ,2, ,
0, ,2, ,
1, ,2, ,
1, ,2, ,
2, ,2, ,
1, ,2, ,
2, ,2, ,
2, ,2, ,
3, ,2, ,
4, ,2, ,
5, ,2, ,
4, ,2, ,
5, ,2, ,
4, ,2, ,
4, ,2, ,
5, ,2, ,
5, ,2, ,
5, ,2, ,
5, ,2, ,
4, ,2, ,
5, ,2, ,
5, ,2, ,
5, ,2, ,
5, ,2, ,
5, ,2, ,
6, ,2, ,
6, ,2, ,
5, ,2, ,
5, ,2, ,
4, ,2, ,
2, ,2, ,
1, ,2, ,
0, ,2, ,
0, ,2, ,
-3, ,2, ,
-5, ,2, ,
-5, ,2, ,
-7, ,2, ,
-8, ,2, ,
-10, ,2, ,
-11, ,2, ,
-12, ,2, ,
-12, ,2, ,
-15, ,2, ,
-15, ,2, ,
-17, ,2, ,
-18, ,2, ,
-18, ,2, ,
-19, ,2, ,
-20, ,2, ,
-21, ,2, ,
-21, ,2, ,
-21, ,2, ,
-22, ,2, ,
-21, ,2, ,
-21, ,2, ,
-20, ,2, ,
-20, ,2, ,
-19, ,2, ,
-19, ,2, ,
-19, ,2, ,
-19, ,2, ,
-19, ,2, ,
-19, ,2, ,
-19, ,2, ,
-18, ,2, ,
-18, ,2, ,
-19, ,2, ,
-19, ,2, ,
-19, ,2, ,
-18, ,2, ,
-18, ,2, ,
-19, ,2, ,
-18, ,2, ,
-19, ,2, ,
-19, ,2, ,
-19, ,2, ,
-20, ,2, ,
-20, ,2, ,
-21, ,2, ,
-21, ,2, ,
-22, ,2, ,
-22, ,2, ,
-24, ,2, ,
-24, ,2, ,
-24, ,2, ,
-24, ,2, ,
-23, ,2, ,
-24, ,2, ,
-23, ,2, ,
-21, ,2, ,
-22, ,2, ,
-19, ,2, ,
-19, ,2, ,
-19, ,2, ,
-15, ,2, ,
-14, ,2, ,
-13, ,2, ,
-12, ,2, ,
-10, ,2, ,
-10, ,2, ,
-10, ,2, ,
-9, ,2, ,
-7, ,2, ,
-7, ,2, ,
-7, ,2, ,
-5, ,2, ,
-5, ,2, ,
-5, ,2, ,
-6, ,2, ,
-7, ,2, ,
-8, ,2, ,
-8, ,2, ,
-10, ,2, ,
-11, ,2, ,
-13, ,2, ,
-13, ,2, ,
-15, ,2, ,
-16, ,2, ,
-17, ,2, ,
-17, ,2, ,
-17, ,2, ,
-18, ,2, ,
-19, ,2, ,
-18, ,2, ,
-19, ,2, ,
-19, ,2, ,
-17, ,2, ,
-17, ,2, ,
-17, ,2, ,
-17, ,2, ,
-16, ,2, ,
-17, ,2, ,
-15, ,2, ,
-15, ,2, ,
-14, ,2, ,
-13, ,2, ,
-13, ,2, ,
-11, ,2, ,
-10, ,2, ,
-9, ,2, ,
-9, ,2, ,
-7, ,2, ,
-5, ,2, ,
-6, ,2, ,
-4, ,2, ,
-3, ,2, ,
-2, ,2, ,
-2, ,2, ,
-1, ,2, ,
0, ,2, ,
1, ,2, ,
1, ,2, ,
3, ,2, ,
3, ,2, ,
5, ,2, ,
4, ,2, ,
5, ,2, ,
5, ,2, ,
6, ,2, ,
5, ,2, ,
5, ,2, ,
3, ,2, ,
4, ,2, ,
3, ,2, ,
4, ,2, ,
2, ,2, ,
2, ,2, ,
1, ,2, ,
0, ,2, ,
0, ,2, ,
-1, ,2, ,
-1, ,2, ,
-2, ,2, ,
-3, ,2, ,
-3, ,2, ,
-4, ,2, ,
-3, ,2, ,
-5, ,2, ,
-5, ,2, ,
-6, ,2, ,
-7, ,2, ,
-7, ,2, ,
-7, ,2, ,
-8, ,2, ,
-6, ,2, ,
-8, ,2, ,
-8, ,2, ,
-8, ,2, ,
-9, ,2, ,
-9, ,2, ,
-9, ,2, ,
-10, ,2, ,
-10, ,2, ,
-11, ,2, ,
-11, ,2, ,
-10, ,2, ,
-11, ,2, ,
-11, ,2, ,
-10, ,2, ,
-10, ,2, ,
-10, ,2, ,
-10, ,2, ,
-11, ,2, ,
-10, ,2, ,
-11, ,2, ,
-12, ,2, ,
-10, ,2, ,
-11, ,2, ,
-11, ,2, ,
-10, ,2, ,
-10, ,2, ,
-10, ,2, ,
-10, ,2, ,
-9, ,2, ,
-9, ,2, ,
-10, ,2, ,
-7, ,2, ,
-6, ,2, ,
-7, ,2, ,
-6, ,2, ,
-7, ,2, ,
-6, ,2, ,
-4, ,2, ,
-4, ,2, ,
-4, ,2, ,
-3, ,2, ,
-3, ,2, ,
-3, ,2, ,
-2, ,2, ,
-1, ,2, ,
0, ,2, ,
0, ,2, ,
0, ,2, ,
2, ,2, ,
1, ,2, ,
2, ,2, ,
2, ,2, ,
2, ,2, ,
2, ,2, ,
2, ,2, ,
2, ,2, ,
1, ,2, ,
0, ,2, ,
0, ,2, ,
0, ,2, ,
0, ,2, ,
-1, ,2, ,
-1, ,2, ,
-2, ,2, ,
-3, ,2, ,
-4, ,2, ,
-5, ,2, ,
-5, ,2, ,
-9, ,2, ,
-9, ,2, ,
-10, ,2, ,
-11, ,2, ,
-13, ,2, ,
-15, ,2, ,
-15, ,2, ,
-17, ,2, ,
-16, ,2, ,
-16, ,2, ,
-17, ,2, ,
-17, ,2, ,
-17, ,2, ,
-17, ,2, ,
-17, ,2, ,
-17, ,2, ,
-15, ,2, ,
-14, ,2, ,
-12, ,2, ,
-10, ,2, ,
-8, ,2, ,
-6, ,2, ,
-2, ,2, ,
-2, ,2, ,
3, ,2, ,
7, ,2, ,
8, ,2, ,
11, ,2, ,
16, ,2, ,
15, ,2, ,
18, ,2, ,
19, ,2, ,
21, ,2, ,
22, ,2, ,
23, ,2, ,
24, ,2, ,
23, ,2, ,
23, ,2, ,
23, ,2, ,
22, ,2, ,
20, ,2, ,
20, ,2, ,
19, ,2, ,
18, ,2, ,
16, ,2, ,
14, ,2, ,
14, ,2, ,
12, ,2, ,
10, ,2, ,
9, ,2, ,
7, ,2, ,
7, ,2, ,
5, ,2, ,
3, ,2, ,
3, ,2, ,
2, ,2, ,
2, ,2, ,
2, ,2, ,
0, ,2, ,
0, ,2, ,
0, ,2, ,
-1, ,2, ,
-1, ,2, ,
-1, ,2, ,
-1, ,2, ,
-1, ,2, ,
-2, ,2, ,
-1, ,2, ,
-2, ,2, ,
-3, ,2, ,
-4, ,2, ,
-3, ,2, ,
-4, ,2, ,
-3, ,2, ,
-3, ,2, ,
-3, ,2, ,
-1, ,2, ,
-2, ,2, ,
-1, ,2, ,
-1, ,2, ,
1, ,2, ,
1, ,2, ,
1, ,2, ,
4, ,2, ,
5, ,2, ,
5, ,2, ,
6, ,2, ,
6, ,2, ,
8, ,2, ,
8, ,2, ,
7, ,2, ,
8, ,2, ,
10, ,2, ,
8, ,2, ,
9, ,2, ,
9, ,2, ,
7, ,2, ,
7, ,2, ,
6, ,2, ,
5, ,2, ,
4, ,2, ,
4, ,2, ,
3, ,2, ,
2, ,2, ,
0, ,2, ,
0, ,2, ,
0, ,2, ,
0, ,2, ,
-1, ,2, ,
-1, ,2, ,
-1, ,2, ,
-2, ,2, ,
-1, ,2, ,
-2, ,2, ,
0, ,2, ,
0, ,2, ,
1, ,2, ,
1, ,2, ,
3, ,2, ,
3, ,2, ,
3, ,2, ,
6, ,2, ,
5, ,2, ,
6, ,2, ,
7, ,2, ,
7, ,2, ,
8, ,2, ,
7, ,2, ,
7, ,2, ,
8, ,2, ,
7, ,2, ,
8, ,2, ,
6, ,2, ,
5, ,2, ,
5, ,2, ,
4, ,2, ,
2, ,2, ,
2, ,2, ,
1, ,2, ,
0, ,2, ,
-1, ,2, ,
-1, ,2, ,
-1, ,2, ,
-3, ,2, ,
-3, ,2, ,
-3, ,2, ,
-5, ,2, ,
-5, ,2, ,
-5, ,2, ,
-5, ,2, ,
-5, ,2, ,
-6, ,2, ,
-7, ,2, ,
-6, ,2, ,
-8, ,2, ,
-6, ,2, ,
-6, ,2, ,
-7, ,2, ,
-7, ,2, ,
-7, ,2, ,
-7, ,2, ,
-6, ,2, ,
-7, ,2, ,
-6, ,2, ,
-6, ,2, ,
-7, ,2, ,
-7, ,2, ,
-7, ,2, ,
-7, ,2, ,
-7, ,2, ,
-7, ,2, ,
-7, ,2, ,
-6, ,2, ,
-7, ,2, ,
-5, ,2, ,
-5, ,2, ,
-6, ,2, ,
-6, ,2, ,
-7, ,2, ,
-6, ,2, ,
-5, ,2, ,
-6, ,2, ,
-6, ,2, ,
-7, ,2, ,
-7, ,2, ,
-7, ,2, ,
-7, ,2, ,
-7, ,2, ,
-6, ,2, ,
-7, ,2, ,
-7, ,2, ,
-7, ,2, ,
-7, ,2, ,
-5, ,2, ,
-6, ,2, ,
-6, ,2, ,
-7, ,2, ,
-6, ,2, ,
-6, ,2, ,
-7, ,2, ,
-6, ,2, ,
-5, ,2, ,
-6, ,2, ,
-5, ,2, ,
-5, ,2, ,
-5, ,2, ,
-5, ,2, ,
-6, ,2, ,
-5, ,2, ,
-5, ,2, ,
-6, ,2, ,
-6, ,2, ,
-6, ,2, ,
-6, ,2, ,
-7, ,2, ,
-7, ,2, ,
-8, ,2, ,
-8, ,2, ,
-8, ,2, ,
-8, ,2, ,
-8, ,2, ,
-9, ,2, ,
-9, ,2, ,
-9, ,2, ,
-9, ,2, ,
-9, ,2, ,
-9, ,2, ,
-9, ,2, ,
-8, ,2, ,
-8, ,2, ,
-8, ,2, ,
-8, ,2, ,
-7, ,2, ,
-7, ,2, ,
-7, ,2, ,
-6, ,2, ,
-5, ,2, ,
-5, ,2, ,
-5, ,2, ,
-5, ,2, ,
-4, ,2, ,
-4, ,2, ,
-4, ,2, ,
-3, ,2, ,
-2, ,2, ,
-3, ,2, ,
-3, ,2, ,
-3, ,2, ,
-2, ,2, ,
-2, ,2, ,
-2, ,2, ,
-2, ,2, ,
-1, ,2, ,
-2, ,2, ,
-1, ,2, ,
-2, ,2, ,
-2, ,2, ,
-1, ,2, ,
-2, ,2, ,
-2, ,2, ,
-3, ,2, ,
-3, ,2, ,
-3, ,2, ,
-3, ,2, ,
-4, ,2, ,
-3, ,2, ,
-3, ,2, ,
-2, ,2, ,
-2, ,2, ,
-2, ,2, ,
-2, ,2, ,
-3, ,2, ,
-3, ,2, ,
-2, ,2, ,
-3, ,2, ,
-3, ,2, ,
-2, ,2, ,
-2, ,2, ,
-2, ,2, ,
-2, ,2, ,
-2, ,2, ,
-2, ,2, ,
-2, ,2, ,
-2, ,2, ,
-1, ,2, ,
-2, ,2, ,
-1, ,2, ,
-1, ,2, ,
-1, ,2, ,
-1, ,2, ,
0, ,2, ,
0, ,2, ,
0, ,2, ,
0, ,2, ,
0, ,2, ,
0, ,2, ,
2, ,2, ,
2, ,2, ,
1, ,2, ,
2, ,2, ,
3, ,2, ,
3, ,2, ,
3, ,2, ,
3, ,2, ,
3, ,2, ,
3, ,2, ,
3, ,2, ,
3, ,2, ,
3, ,2, ,
3, ,2, ,
3, ,2, ,
3, ,2, ,
2, ,2, ,
2, ,2, ,
2, ,2, ,
2, ,2, ,
1, ,2, ,
0, ,2, ,
1, ,2, ,
0, ,2, ,
0, ,2, ,
0, ,2, ,
0, ,2, ,
0, ,2, ,
-1, ,2, ,
-1, ,2, ,
-1, ,2, ,
-2, ,2, ,
-2, ,2, ,
-2, ,2, ,
-3, ,2, ,
-1, ,2, ,
-1, ,2, ,
-2, ,2, ,
-2, ,2, ,
-2, ,2, ,
-4, ,2, ,
-1, ,2, ,
-2, ,2, ,
-2, ,2, ,
-2, ,2, ,
-2, ,2, ,
-2, ,2, ,
-2, ,2, ,
-2, ,2, ,
-1, ,2, ,
-2, ,2, ,
-1, ,2, ,
-1, ,2, ,
0, ,2, ,
0, ,2, ,
0, ,2, ,
0, ,2, ,
1, ,2, ,
1, ,2, ,
1, ,2, ,
2, ,2, ,
2, ,2, ,
3, ,2, ,
3, ,2, ,
3, ,2, ,
5, ,2, ,
5, ,2, ,
5, ,2, ,
5, ,2, ,
5, ,2, ,
5, ,2, ,
5, ,2, ,
5, ,2, ,
5, ,2, ,
4, ,2, ,
4, ,2, ,
3, ,2, ,
2, ,2, ,
2, ,2, ,
1, ,2, ,
0, ,2, ,
0, ,2, ,
-1, ,2, ,
0, ,2, ,
-1, ,2, ,
-4, ,2, ,
-3, ,2, ,
-3, ,2, ,
-5, ,2, ,
-5, ,2, ,
-6, ,2, ,
-5, ,2, ,
-5, ,2, ,
-6, ,2, ,
-5, ,2, ,
-5, ,2, ,
-4, ,2, ,
-4, ,2, ,
-4, ,2, ,
-3, ,2, ,
-2, ,2, ,
-1, ,2, ,
0, ,2, ,
-1, ,2, ,
1, ,2, ,
1, ,2, ,
3, ,2, ,
5, ,2, ,
6, ,2, ,
7, ,2, ,
8, ,2, ,
7, ,2, ,
9, ,2, ,
9, ,2, ,
8, ,2, ,
11, ,2, ,
11, ,2, ,
10, ,2, ,
11, ,2, ,
11, ,2, ,
10, ,2, ,
10, ,2, ,
10, ,2, ,
9, ,2, ,
8, ,2, ,
7, ,2, ,
7, ,2, ,
5, ,2, ,
5, ,2, ,
4, ,2, ,
3, ,2, ,
3, ,2, ,
2, ,2, ,
0, ,2, ,
0, ,2, ,
-1, ,2, ,
-2, ,2, ,
-1, ,2, ,
-2, ,2, ,
-3, ,2, ,
-3, ,2, ,
-4, ,2, ,
-3, ,2, ,
-4, ,2, ,
-4, ,2, ,
-3, ,2, ,
-4, ,2, ,
-4, ,2, ,
-4, ,2, ,
-4, ,2, ,
-3, ,2, ,
-4, ,2, ,
-3, ,2, ,
-3, ,2, ,
-3, ,2, ,
-3, ,2, ,
-2, ,2, ,
-3, ,2, ,
-1, ,2, ,
-2, ,2, ,
-2, ,2, ,
-1, ,2, ,
-2, ,2, ,
-1, ,2, ,
-1, ,2, ,
-2, ,2, ,
0, ,2, ,
-1, ,2, ,
0, ,2, ,
0, ,2, ,
0, ,2, ,
0, ,2, ,
0, ,2, ,
1, ,2, ,
1, ,2, ,
1, ,2, ,
1, ,2, ,
2, ,2, ,
1, ,2, ,
2, ,2, ,
3, ,2, ,
3, ,2, ,
3, ,2, ,
2, ,2, ,
2, ,2, ,
4, ,2, ,
3, ,2, ,
4, ,2, ,
4, ,2, ,
3, ,2, ,
4, ,2, ,
3, ,2, ,
2, ,2, ,
4, ,2, ,
2, ,2, ,
3, ,2, ,
3, ,2, ,
2, ,2, ,
2, ,2, ,
2, ,2, ,
1, ,2, ,
2, ,2, ,
1, ,2, ,
2, ,2, ,
2, ,2, ,
0, ,2, ,
1, ,2, ,
-2, ,2, ,
0, ,2, ,
0, ,2, ,
0, ,2, ,
0, ,2, ,
0, ,2, ,
0, ,2, ,
1, ,2, ,
1, ,2, ,
1, ,2, ,
2, ,2, ,
2, ,2, ,
2, ,2, ,
2, ,2, ,
3, ,2, ,
4, ,2, ,
2, ,2, ,
3, ,2, ,
3, ,2, ,
4, ,2, ,
4, ,2, ,
5, ,2, ,
5, ,2, ,
5, ,2, ,
5, ,2, ,
5, ,2, ,
6, ,2, ,
6, ,2, ,
6, ,2, ,
6, ,2, ,
5, ,2, ,
5, ,2, ,
5, ,2, ,
5, ,2, ,
5, ,2, ,
4, ,2, ,
5, ,2, ,
4, ,2, ,
3, ,2, ,
4, ,2, ,
2, ,2, ,
3, ,2, ,
2, ,2, ,
2, ,2, ,
2, ,2, ,
2, ,2, ,
2, ,2, ,
2, ,2, ,
1, ,2, ,
1, ,2, ,
2, ,2, ,
0, ,2, ,
1, ,2, ,
1, ,2, ,
0, ,2, ,
1, ,2, ,
1, ,2, ,
1, ,2, ,
1, ,2, ,
1, ,2, ,
2, ,2, ,
1, ,2, ,
0, ,2, ,
1, ,2, ,
1, ,2, ,
0, ,2, ,
0, ,2, ,
0, ,2, ,
0, ,2, ,
0, ,2, ,
0, ,2, ,
0, ,2, ,
0, ,2, ,
-1, ,2, ,
1, ,2, ,
1, ,2, ,
1, ,2, ,
1, ,2, ,
0, ,2, ,
0, ,2, ,
0, ,2, ,
2, ,2, ,
2, ,2, ,
1, ,2, ,
2, ,2, ,
2, ,2, ,
1, ,2, ,
1, ,2, ,
1, ,2, ,
0, ,2, ,
1, ,2, ,
1, ,2, ,
1, ,2, ,
0, ,2, ,
0, ,2, ,
0, ,2, ,
0, ,2, ,
-1, ,2, ,
0, ,2, ,
-2, ,2, ,
-1, ,2, ,
-2, ,2, ,
-2, ,2, ,
-2, ,2, ,
-3, ,2, ,
-3, ,2, ,
-2, ,2, ,
-2, ,2, ,
-2, ,2, ,
-2, ,2, ,
-2, ,2, ,
-1, ,2, ,
-2, ,2, ,
-2, ,2, ,
-1, ,2, ,
-1, ,2, ,
-1, ,2, ,
0, ,2, ,
0, ,2, ,
1, ,2, ,
1, ,2, ,
1, ,2, ,
2, ,2, ,
1, ,2, ,
2, ,2, ,
3, ,2, ,
3, ,2, ,
3, ,2, ,
3, ,2, ,
2, ,2, ,
3, ,2, ,
1, ,2, ,
3, ,2, ,
3, ,2, ,
2, ,2, ,
2, ,2, ,
1, ,2, ,
2, ,2, ,
1, ,2, ,
1, ,2, ,
2, ,2, ,
1, ,2, ,
0, ,2, ,
0, ,2, ,
-1, ,2, ,
-1, ,2, ,
0, ,2, ,
-1, ,2, ,
-1, ,2, ,
0, ,2, ,
0, ,2, ,
0, ,2, ,
-1, ,2, ,
-2, ,2, ,
-1, ,2, ,
-2, ,2, ,
0, ,2, ,
0, ,2, ,
-1, ,2, ,
-1, ,2, ,
-2, ,2, ,
-1, ,2, ,
-1, ,2, ,
-1, ,2, ,
0, ,2, ,
0, ,2, ,
0, ,2, ,
0, ,2, ,
-1, ,2, ,
-1, ,2, ,
-2, ,2, ,
-2, ,2, ,
-2, ,2, ,
-1, ,2, ,
-1, ,2, ,
-1, ,2, ,
-2, ,2, ,
-2, ,2, ,
-2, ,2, ,
-2, ,2, ,
-2, ,2, ,
-2, ,2, ,
-2, ,2, ,
-3, ,2, ,
-3, ,2, ,
-2, ,2, ,
-2, ,2, ,
-2, ,2, ,
-1, ,2, ,
-1, ,2, ,
-2, ,2, ,
-2, ,2, ,
-2, ,2, ,
-1, ,2, ,
0, ,2, ,
-1, ,2, ,
0, ,2, ,
0, ,2, ,
0, ,2, ,
1, ,2, ,
0, ,2, ,
0, ,2, ,
2, ,2, ,
1, ,2, ,
3, ,2, ,
3, ,2, ,
2, ,2, ,
3, ,2, ,
3, ,2, ,
3, ,2, ,
3, ,2, ,
4, ,2, ,
4, ,2, ,
5, ,2, ,
4, ,2, ,
5, ,2, ,
5, ,2, ,
6, ,2, ,
6, ,2, ,
6, ,2, ,
6, ,2, ,
6, ,2, ,
6, ,2, ,
8, ,2, ,
8, ,2, ,
7, ,2, ,
7, ,2, ,
6, ,2, ,
7, ,2, ,
8, ,2, ,
7, ,2, ,
7, ,2, ,
6, ,2, ,
7, ,2, ,
8, ,2, ,
7, ,2, ,
8, ,2, ,
7, ,2, ,
6, ,2, ,
6, ,2, ,
6, ,2, ,
6, ,2, ,
6, ,2, ,
5, ,2, ,
5, ,2, ,
4, ,2, ,
4, ,2, ,
4, ,2, ,
4, ,2, ,
4, ,2, ,
5, ,2, ,
4, ,2, ,
4, ,2, ,
5, ,2, ,
4, ,2, ,
4, ,2, ,
3, ,2, ,
4, ,2, ,
4, ,2, ,
4, ,2, ,
5, ,2, ,
5, ,2, ,
5, ,2, ,
5, ,2, ,
4, ,2, ,
3, ,2, ,
5, ,2, ,
4, ,2, ,
5, ,2, ,
4, ,2, ,
3, ,2, ,
4, ,2, ,
4, ,2, ,
4, ,2, ,
4, ,2, ,
4, ,2, ,
4, ,2, ,
3, ,2, ,
3, ,2, ,
3, ,2, ,
2, ,2, ,
3, ,2, ,
3, ,2, ,
3, ,2, ,
3, ,2, ,
3, ,2, ,
1, ,2, ,
1, ,2, ,
2, ,2, ,
1, ,2, ,
2, ,2, ,
1, ,2, ,
3, ,2, ,
3, ,2, ,
3, ,2, ,
3, ,2, ,
3, ,2, ,
3, ,2, ,
3, ,2, ,
3, ,2, ,
3, ,2, ,
4, ,2, ,
4, ,2, ,
4, ,2, ,
4, ,2, ,
4, ,2, ,
4, ,2, ,
4, ,2, ,
5, ,2, ,
5, ,2, ,
3, ,2, ,
4, ,2, ,
3, ,2, ,
3, ,2, ,
4, ,2, ,
4, ,2, ,
4, ,2, ,
3, ,2, ,
3, ,2, ,
3, ,2, ,
2, ,2, ,
2, ,2, ,
3, ,2, ,
1, ,2, ,
2, ,2, ,
1, ,2, ,
1, ,2, ,
1, ,2, ,
1, ,2, ,
0, ,2, ,
0, ,2, ,
1, ,2, ,
1, ,2, ,
1, ,2, ,
0, ,2, ,
1, ,2, ,
0, ,2, ,
1, ,2, ,
1, ,2, ,
0, ,2, ,
0, ,2, ,
0, ,2, ,
0, ,2, ,
0, ,2, ,
0, ,2, ,
0, ,2, ,
0, ,2, ,
0, ,2, ,
1, ,2, ,
2, ,2, ,
1, ,2, ,
2, ,2, ,
1, ,2, ,
1, ,2, ,
1, ,2, ,
1, ,2, ,
2, ,2, ,
2, ,2, ,
1, ,2, ,
2, ,2, ,
2, ,2, ,
2, ,2, ,
4, ,2, ,
3, ,2, ,
3, ,2, ,
2, ,2, ,
2, ,2, ,
2, ,2, ,
2, ,2, ,
2, ,2, ,
2, ,2, ,
0, ,2, ,
3, ,2, ,
2, ,2, ,
2, ,2, ,
2, ,2, ,
1, ,2, ,
2, ,2, ,
3, ,2, ,
2, ,2, ,
2, ,2, ,
2, ,2, ,
