raw_data/100% Glycerol, Impulsion 2Hz, Sonde 5MHz, Rampe 0.7Hz/temp0000359.CSV

Format,1.0B,
Memory Length,10000,Memory Length,10000,
IntpDistance,0,IntpDistance,0,
Trigger Address,159,Trigger Address,159,
Trigger Level,2.720E-01,Trigger Level,2.720E-01,
Source,CH1,Source,CH2,
Vertical Units,V,Vertical Units,V,
Vertical Units Div,0,Vertical Units Div,0,
Vertical Units Extend Div,16,Vertical Units Extend Div,16,
Label,,Label,,
Probe Type,0,Probe Type,0,
Probe Ratio,1.000e+00,Probe Ratio,1.000e+00,
Vertical Scale,2.000e-01,Vertical Scale,2.000e+00,
Vertical Position,0.000e+00,Vertical Position,0.000e+00,
Horizontal Units,S,Horizontal Units,S,
Horizontal Scale,5.000E-06,Horizontal Scale,5.000E-06,
Horizontal Position,2.420E-05,Horizontal Position,2.420E-05,
Horizontal Mode,Main,Horizontal Mode,Main,
SincET Mode,Real Time,SincET Mode,Real Time,
Sampling Period,5.000e-09,Sampling Period,5.000e-09,
Horizontal Old Scale,5.000E-06,Horizontal Old Scale,5.000E-06,
Horizontal Old Position,2.420E-05,Horizontal Old Position,2.420E-05,
Firmware,V1.32,Firmware,V1.32,
Mode,Fast,Mode,Fast,
Waveform Data,,Waveform Data,,
1, ,37, ,
2, ,37, ,
2, ,37, ,
2, ,37, ,
2, ,37, ,
2, ,37, ,
1, ,37, ,
2, ,37, ,
0, ,37, ,
2, ,37, ,
2, ,37, ,
1, ,37, ,
2, ,37, ,
1, ,37, ,
2, ,37, ,
2, ,37, ,
2, ,37, ,
1, ,37, ,
1, ,37, ,
1, ,37, ,
2, ,37, ,
2, ,37, ,
2, ,37, ,
2, ,37, ,
2, ,37, ,
2, ,37, ,
2, ,37, ,
1, ,37, ,
2, ,37, ,
2, ,37, ,
1, ,37, ,
2, ,37, ,
1, ,37, ,
2, ,37, ,
2, ,37, ,
2, ,37, ,
2, ,37, ,
2, ,37, ,
2, ,37, ,
1, ,37, ,
1, ,37, ,
2, ,37, ,
2, ,37, ,
2, ,37, ,
2, ,37, ,
2, ,37, ,
2, ,37, ,
2, ,37, ,
2, ,37, ,
2, ,37, ,
2, ,37, ,
2, ,37, ,
2, ,37, ,
1, ,37, ,
1, ,37, ,
2, ,37, ,
1, ,37, ,
2, ,37, ,
2, ,37, ,
2, ,37, ,
2, ,37, ,
1, ,37, ,
2, ,37, ,
2, ,37, ,
1, ,37, ,
2, ,37, ,
2, ,37, ,
1, ,37, ,
3, ,37, ,
2, ,37, ,
2, ,37, ,
2, ,37, ,
2, ,37, ,
2, ,37, ,
2, ,37, ,
1, ,37, ,
2, ,37, ,
2, ,37, ,
1, ,37, ,
2, ,37, ,
2, ,37, ,
2, ,37, ,
2, ,37, ,
1, ,37, ,
2, ,37, ,
1, ,37, ,
2, ,37, ,
2, ,37, ,
1, ,37, ,
2, ,37, ,
3, ,37, ,
2, ,37, ,
2, ,37, ,
1, ,37, ,
1, ,37, ,
2, ,37, ,
1, ,37, ,
2, ,37, ,
2, ,37, ,
2, ,37, ,
2, ,37, ,
1, ,37, ,
2, ,37, ,
3, ,37, ,
3, ,37, ,
1, ,37, ,
1, ,37, ,
1, ,37, ,
2, ,37, ,
1, ,37, ,
1, ,37, ,
2, ,37, ,
1, ,37, ,
2, ,37, ,
1, ,37, ,
2, ,37, ,
2, ,37, ,
1, ,37, ,
2, ,37, ,
3, ,37, ,
2, ,37, ,
2, ,37, ,
2, ,37, ,
1, ,37, ,
2, ,37, ,
2, ,37, ,
2, ,37, ,
2, ,37, ,
2, ,37, ,
2, ,37, ,
2, ,37, ,
1, ,37, ,
2, ,37, ,
2, ,37, ,
3, ,37, ,
3, ,37, ,
2, ,37, ,
2, ,37, ,
2, ,37, ,
1, ,37, ,
1, ,37, ,
2, ,37, ,
2, ,37, ,
2, ,37, ,
2, ,37, ,
2, ,37, ,
2, ,37, ,
2, ,37, ,
2, ,37, ,
2, ,37, ,
2, ,37, ,
2, ,37, ,
1, ,37, ,
2, ,37, ,
2, ,37, ,
1, ,37, ,
2, ,37, ,
2, ,37, ,
1, ,37, ,
2, ,37, ,
1, ,37, ,
3, ,37, ,
1, ,37, ,
1, ,37, ,
0, ,37, ,
-2, ,37, ,
-3, ,37, ,
11, ,37, ,
54, ,37, ,
125, ,37, ,
125, ,37, ,
125, ,37, ,
123, ,37, ,
118, ,37, ,
-20, ,37, ,
32, ,37, ,
125, ,37, ,
125, ,37, ,
125, ,37, ,
125, ,37, ,
125, ,37, ,
125, ,37, ,
125, ,37, ,
125, ,37, ,
125, ,37, ,
125, ,37, ,
125, ,37, ,
125, ,37, ,
125, ,37, ,
125, ,37, ,
125, ,37, ,
125, ,37, ,
125, ,37, ,
125, ,37, ,
125, ,37, ,
125, ,37, ,
125, ,37, ,
125, ,37, ,
125, ,37, ,
125, ,37, ,
125, ,37, ,
125, ,37, ,
124, ,37, ,
122, ,37, ,
118, ,37, ,
112, ,37, ,
104, ,37, ,
101, ,37, ,
96, ,37, ,
92, ,37, ,
86, ,37, ,
80, ,37, ,
77, ,37, ,
72, ,37, ,
65, ,37, ,
64, ,37, ,
61, ,37, ,
58, ,37, ,
54, ,37, ,
49, ,37, ,
49, ,37, ,
46, ,37, ,
41, ,37, ,
41, ,37, ,
38, ,37, ,
35, ,37, ,
34, ,37, ,
30, ,37, ,
30, ,37, ,
28, ,37, ,
25, ,37, ,
25, ,37, ,
21, ,37, ,
22, ,37, ,
19, ,37, ,
17, ,37, ,
16, ,37, ,
15, ,37, ,
13, ,37, ,
13, ,37, ,
12, ,37, ,
12, ,37, ,
9, ,37, ,
9, ,37, ,
9, ,37, ,
7, ,37, ,
6, ,37, ,
5, ,37, ,
5, ,37, ,
5, ,37, ,
4, ,37, ,
3, ,37, ,
3, ,37, ,
3, ,37, ,
1, ,37, ,
2, ,37, ,
2, ,37, ,
1, ,37, ,
1, ,37, ,
0, ,37, ,
0, ,37, ,
0, ,37, ,
-1, ,37, ,
0, ,37, ,
0, ,37, ,
0, ,37, ,
-1, ,37, ,
-2, ,37, ,
-2, ,37, ,
-2, ,37, ,
-2, ,37, ,
-2, ,37, ,
-3, ,37, ,
-3, ,37, ,
-2, ,37, ,
-3, ,37, ,
-2, ,37, ,
-3, ,37, ,
-2, ,37, ,
-1, ,37, ,
-4, ,37, ,
-2, ,37, ,
-3, ,37, ,
-3, ,37, ,
-3, ,37, ,
-4, ,37, ,
-2, ,37, ,
-2, ,37, ,
-2, ,37, ,
-2, ,37, ,
-2, ,37, ,
-3, ,37, ,
-3, ,37, ,
-3, ,37, ,
-3, ,37, ,
-2, ,37, ,
-3, ,37, ,
-2, ,37, ,
-2, ,37, ,
-2, ,37, ,
-2, ,37, ,
-2, ,37, ,
-3, ,37, ,
-3, ,37, ,
-4, ,37, ,
-2, ,37, ,
-1, ,37, ,
-2, ,37, ,
0, ,37, ,
-2, ,37, ,
-2, ,37, ,
-2, ,37, ,
-2, ,37, ,
-1, ,37, ,
-1, ,37, ,
-1, ,37, ,
-1, ,37, ,
-1, ,37, ,
-2, ,37, ,
-1, ,37, ,
-1, ,37, ,
-1, ,37, ,
-1, ,37, ,
-2, ,37, ,
0, ,37, ,
0, ,37, ,
-1, ,37, ,
-1, ,37, ,
-2, ,37, ,
0, ,37, ,
0, ,37, ,
0, ,37, ,
0, ,37, ,
0, ,37, ,
0, ,37, ,
0, ,37, ,
0, ,37, ,
0, ,37, ,
0, ,37, ,
0, ,37, ,
0, ,37, ,
0, ,37, ,
1, ,37, ,
1, ,37, ,
0, ,37, ,
1, ,37, ,
2, ,37, ,
0, ,37, ,
1, ,37, ,
0, ,37, ,
0, ,37, ,
1, ,37, ,
1, ,37, ,
1, ,37, ,
1, ,37, ,
0, ,37, ,
0, ,37, ,
0, ,37, ,
1, ,37, ,
1, ,37, ,
0, ,37, ,
1, ,37, ,
1, ,37, ,
1, ,37, ,
1, ,37, ,
1, ,37, ,
1, ,37, ,
1, ,37, ,
1, ,37, ,
1, ,37, ,
1, ,37, ,
1, ,37, ,
1, ,37, ,
0, ,37, ,
2, ,37, ,
2, ,37, ,
1, ,37, ,
1, ,37, ,
1, ,37, ,
1, ,37, ,
1, ,37, ,
1, ,37, ,
1, ,37, ,
1, ,37, ,
1, ,37, ,
1, ,37, ,
1, ,37, ,
1, ,37, ,
1, ,37, ,
1, ,37, ,
1, ,37, ,
2, ,37, ,
1, ,37, ,
1, ,37, ,
2, ,37, ,
1, ,37, ,
2, ,37, ,
2, ,37, ,
2, ,37, ,
2, ,37, ,
1, ,37, ,
1, ,37, ,
2, ,37, ,
2, ,37, ,
1, ,37, ,
0, ,37, ,
1, ,37, ,
2, ,37, ,
2, ,37, ,
1, ,37, ,
3, ,37, ,
1, ,37, ,
2, ,37, ,
1, ,37, ,
2, ,37, ,
2, ,37, ,
2, ,37, ,
2, ,37, ,
1, ,37, ,
1, ,37, ,
2, ,37, ,
0, ,37, ,
0, ,37, ,
1, ,37, ,
0, ,37, ,
1, ,37, ,
0, ,37, ,
0, ,37, ,
2, ,37, ,
2, ,37, ,
2, ,37, ,
2, ,37, ,
1, ,37, ,
2, ,37, ,
2, ,37, ,
1, ,37, ,
2, ,37, ,
1, ,37, ,
1, ,37, ,
1, ,37, ,
0, ,37, ,
1, ,37, ,
2, ,37, ,
-1, ,37, ,
0, ,37, ,
-1, ,37, ,
0, ,37, ,
1, ,37, ,
0, ,37, ,
1, ,37, ,
2, ,37, ,
2, ,37, ,
2, ,37, ,
1, ,37, ,
2, ,37, ,
2, ,37, ,
1, ,37, ,
1, ,37, ,
2, ,37, ,
1, ,37, ,
1, ,37, ,
1, ,37, ,
1, ,37, ,
1, ,37, ,
1, ,37, ,
1, ,37, ,
1, ,37, ,
1, ,37, ,
1, ,37, ,
0, ,37, ,
2, ,37, ,
2, ,37, ,
2, ,37, ,
2, ,37, ,
3, ,37, ,
2, ,37, ,
3, ,37, ,
1, ,37, ,
1, ,37, ,
1, ,37, ,
0, ,37, ,
0, ,37, ,
0, ,37, ,
0, ,37, ,
0, ,37, ,
-1, ,37, ,
-1, ,37, ,
0, ,37, ,
0, ,37, ,
0, ,37, ,
2, ,37, ,
2, ,37, ,
2, ,37, ,
2, ,37, ,
3, ,37, ,
3, ,37, ,
2, ,37, ,
2, ,37, ,
2, ,37, ,
1, ,37, ,
1, ,37, ,
0, ,37, ,
0, ,37, ,
0, ,37, ,
0, ,37, ,
0, ,37, ,
1, ,37, ,
1, ,37, ,
1, ,37, ,
1, ,37, ,
0, ,37, ,
2, ,37, ,
1, ,37, ,
1, ,37, ,
1, ,37, ,
-1, ,37, ,
0, ,37, ,
-2, ,37, ,
-1, ,37, ,
-4, ,37, ,
-4, ,37, ,
-5, ,37, ,
-5, ,37, ,
-6, ,37, ,
-6, ,37, ,
-6, ,37, ,
-7, ,37, ,
-6, ,37, ,
-7, ,37, ,
-6, ,37, ,
-8, ,37, ,
-10, ,37, ,
-10, ,37, ,
-14, ,37, ,
-17, ,37, ,
-20, ,37, ,
-25, ,37, ,
-29, ,37, ,
-39, ,37, ,
-49, ,37, ,
-59, ,37, ,
-71, ,37, ,
-101, ,37, ,
-116, ,37, ,
-126, ,37, ,
-126, ,37, ,
-126, ,37, ,
-126, ,37, ,
-126, ,37, ,
-126, ,37, ,
-126, ,37, ,
-126, ,37, ,
-126, ,37, ,
-126, ,37, ,
-126, ,37, ,
-126, ,37, ,
-126, ,37, ,
-126, ,37, ,
-126, ,37, ,
-126, ,37, ,
-126, ,37, ,
-126, ,37, ,
-126, ,37, ,
-126, ,37, ,
-126, ,37, ,
-126, ,37, ,
-126, ,37, ,
-126, ,37, ,
-126, ,37, ,
-126, ,37, ,
-126, ,37, ,
-126, ,37, ,
-126, ,37, ,
-126, ,37, ,
-126, ,37, ,
-126, ,37, ,
-125, ,37, ,
-120, ,37, ,
30, ,37, ,
121, ,37, ,
125, ,37, ,
125, ,37, ,
125, ,37, ,
125, ,37, ,
125, ,37, ,
125, ,37, ,
125, ,37, ,
125, ,37, ,
125, ,37, ,
125, ,37, ,
125, ,37, ,
125, ,37, ,
125, ,37, ,
125, ,37, ,
125, ,37, ,
125, ,37, ,
125, ,37, ,
125, ,37, ,
125, ,37, ,
125, ,37, ,
125, ,37, ,
125, ,37, ,
125, ,37, ,
125, ,37, ,
125, ,37, ,
125, ,37, ,
125, ,37, ,
125, ,37, ,
125, ,37, ,
125, ,37, ,
125, ,37, ,
125, ,37, ,
125, ,37, ,
125, ,37, ,
125, ,37, ,
125, ,37, ,
125, ,37, ,
125, ,37, ,
125, ,37, ,
124, ,37, ,
124, ,37, ,
123, ,37, ,
114, ,37, ,
110, ,37, ,
106, ,37, ,
103, ,37, ,
94, ,37, ,
89, ,37, ,
88, ,37, ,
83, ,37, ,
76, ,37, ,
74, ,37, ,
70, ,37, ,
69, ,37, ,
63, ,37, ,
59, ,37, ,
58, ,37, ,
54, ,37, ,
49, ,37, ,
48, ,37, ,
45, ,37, ,
43, ,37, ,
40, ,37, ,
38, ,37, ,
37, ,37, ,
34, ,37, ,
32, ,37, ,
31, ,37, ,
28, ,37, ,
27, ,37, ,
25, ,37, ,
23, ,37, ,
23, ,37, ,
21, ,37, ,
20, ,37, ,
20, ,37, ,
18, ,37, ,
17, ,37, ,
16, ,37, ,
15, ,37, ,
15, ,37, ,
14, ,37, ,
12, ,37, ,
12, ,37, ,
11, ,37, ,
11, ,37, ,
10, ,37, ,
10, ,37, ,
10, ,37, ,
9, ,37, ,
8, ,37, ,
8, ,37, ,
8, ,37, ,
6, ,37, ,
6, ,37, ,
5, ,37, ,
5, ,37, ,
2, ,37, ,
-1, ,37, ,
-6, ,37, ,
-18, ,37, ,
-38, ,37, ,
-110, ,37, ,
-126, ,37, ,
-126, ,37, ,
-126, ,37, ,
-126, ,37, ,
-126, ,37, ,
-126, ,37, ,
-126, ,37, ,
-126, ,37, ,
-126, ,37, ,
-126, ,37, ,
-126, ,37, ,
-126, ,37, ,
-126, ,37, ,
-126, ,37, ,
-126, ,37, ,
-126, ,37, ,
-126, ,37, ,
-126, ,37, ,
-126, ,37, ,
-126, ,37, ,
-122, ,37, ,
-104, ,37, ,
-5, ,37, ,
70, ,37, ,
80, ,37, ,
92, ,37, ,
101, ,37, ,
114, ,37, ,
112, ,37, ,
103, ,37, ,
90, ,37, ,
57, ,37, ,
37, ,37, ,
17, ,37, ,
-7, ,37, ,
-55, ,37, ,
-78, ,37, ,
-101, ,37, ,
-121, ,37, ,
-126, ,37, ,
-126, ,37, ,
-126, ,37, ,
-126, ,37, ,
-126, ,37, ,
-126, ,37, ,
-126, ,37, ,
-126, ,37, ,
-126, ,37, ,
-126, ,37, ,
-126, ,37, ,
-126, ,37, ,
-126, ,37, ,
-126, ,37, ,
-126, ,37, ,
-126, ,37, ,
-125, ,37, ,
-111, ,37, ,
-93, ,37, ,
-77, ,37, ,
-45, ,37, ,
-34, ,37, ,
-22, ,37, ,
-14, ,37, ,
2, ,37, ,
7, ,37, ,
13, ,37, ,
18, ,37, ,
24, ,37, ,
29, ,37, ,
31, ,37, ,
33, ,37, ,
37, ,37, ,
38, ,37, ,
42, ,37, ,
42, ,37, ,
48, ,37, ,
50, ,37, ,
51, ,37, ,
54, ,37, ,
59, ,37, ,
59, ,37, ,
62, ,37, ,
65, ,37, ,
67, ,37, ,
69, ,37, ,
70, ,37, ,
72, ,37, ,
71, ,37, ,
69, ,37, ,
69, ,37, ,
68, ,37, ,
66, ,37, ,
63, ,37, ,
58, ,37, ,
56, ,37, ,
51, ,37, ,
46, ,37, ,
44, ,37, ,
39, ,37, ,
34, ,37, ,
30, ,37, ,
25, ,37, ,
22, ,37, ,
12, ,37, ,
7, ,37, ,
3, ,37, ,
-3, ,37, ,
-13, ,37, ,
-18, ,37, ,
-23, ,37, ,
-26, ,37, ,
-34, ,37, ,
-37, ,37, ,
-40, ,37, ,
-43, ,37, ,
-49, ,37, ,
-49, ,37, ,
-51, ,37, ,
-52, ,37, ,
-52, ,37, ,
-52, ,37, ,
-51, ,37, ,
-51, ,37, ,
-48, ,37, ,
-44, ,37, ,
-41, ,37, ,
-39, ,37, ,
-30, ,37, ,
-25, ,37, ,
-17, ,37, ,
-14, ,37, ,
0, ,37, ,
7, ,37, ,
13, ,37, ,
19, ,37, ,
28, ,37, ,
32, ,37, ,
37, ,37, ,
39, ,37, ,
45, ,37, ,
50, ,37, ,
51, ,37, ,
54, ,37, ,
59, ,37, ,
58, ,37, ,
61, ,37, ,
62, ,37, ,
63, ,37, ,
65, ,37, ,
67, ,37, ,
68, ,37, ,
69, ,37, ,
69, ,37, ,
70, ,37, ,
71, ,37, ,
73, ,37, ,
74, ,37, ,
74, ,37, ,
75, ,37, ,
76, ,37, ,
75, ,37, ,
76, ,37, ,
75, ,37, ,
73, ,37, ,
73, ,37, ,
70, ,37, ,
68, ,37, ,
64, ,37, ,
61, ,37, ,
59, ,37, ,
55, ,37, ,
50, ,37, ,
49, ,37, ,
46, ,37, ,
44, ,37, ,
39, ,37, ,
35, ,37, ,
35, ,37, ,
32, ,37, ,
27, ,37, ,
26, ,37, ,
23, ,37, ,
22, ,37, ,
17, ,37, ,
14, ,37, ,
13, ,37, ,
10, ,37, ,
8, ,37, ,
7, ,37, ,
4, ,37, ,
2, ,37, ,
0, ,37, ,
-3, ,37, ,
-3, ,37, ,
-4, ,37, ,
-4, ,37, ,
-4, ,37, ,
-4, ,37, ,
-4, ,37, ,
-3, ,37, ,
-2, ,37, ,
0, ,37, ,
0, ,37, ,
5, ,37, ,
8, ,37, ,
10, ,37, ,
14, ,37, ,
20, ,37, ,
23, ,37, ,
28, ,37, ,
32, ,37, ,
37, ,37, ,
42, ,37, ,
45, ,37, ,
50, ,37, ,
54, ,37, ,
55, ,37, ,
57, ,37, ,
57, ,37, ,
58, ,37, ,
59, ,37, ,
57, ,37, ,
58, ,37, ,
54, ,37, ,
51, ,37, ,
51, ,37, ,
47, ,37, ,
43, ,37, ,
41, ,37, ,
36, ,37, ,
35, ,37, ,
30, ,37, ,
26, ,37, ,
24, ,37, ,
20, ,37, ,
15, ,37, ,
14, ,37, ,
12, ,37, ,
9, ,37, ,
7, ,37, ,
6, ,37, ,
8, ,37, ,
8, ,37, ,
8, ,37, ,
9, ,37, ,
8, ,37, ,
10, ,37, ,
11, ,37, ,
11, ,37, ,
12, ,37, ,
10, ,37, ,
10, ,37, ,
9, ,37, ,
7, ,37, ,
7, ,37, ,
5, ,37, ,
1, ,37, ,
0, ,37, ,
-5, ,37, ,
-10, ,37, ,
-11, ,37, ,
-16, ,37, ,
-20, ,37, ,
-28, ,37, ,
-33, ,37, ,
-35, ,37, ,
-38, ,37, ,
-44, ,37, ,
-47, ,37, ,
-50, ,37, ,
-50, ,37, ,
-54, ,37, ,
-54, ,37, ,
-54, ,37, ,
-54, ,37, ,
-53, ,37, ,
-51, ,37, ,
-51, ,37, ,
-49, ,37, ,
-45, ,37, ,
-43, ,37, ,
-41, ,37, ,
-39, ,37, ,
-36, ,37, ,
-33, ,37, ,
-33, ,37, ,
-30, ,37, ,
-24, ,37, ,
-25, ,37, ,
-22, ,37, ,
-22, ,37, ,
-20, ,37, ,
-20, ,37, ,
-19, ,37, ,
-19, ,37, ,
-20, ,37, ,
-21, ,37, ,
-21, ,37, ,
-25, ,37, ,
-28, ,37, ,
-30, ,37, ,
-33, ,37, ,
-35, ,37, ,
-39, ,37, ,
-42, ,37, ,
-45, ,37, ,
-49, ,37, ,
-54, ,37, ,
-55, ,37, ,
-58, ,37, ,
-59, ,37, ,
-63, ,37, ,
-64, ,37, ,
-64, ,37, ,
-64, ,37, ,
-64, ,37, ,
-63, ,37, ,
-63, ,37, ,
-60, ,37, ,
-58, ,37, ,
-58, ,37, ,
-54, ,37, ,
-53, ,37, ,
-51, ,37, ,
-47, ,37, ,
-46, ,37, ,
-43, ,37, ,
-39, ,37, ,
-39, ,37, ,
-38, ,37, ,
-36, ,37, ,
-34, ,37, ,
-32, ,37, ,
-30, ,37, ,
-27, ,37, ,
-22, ,37, ,
-22, ,37, ,
-18, ,37, ,
-15, ,37, ,
-10, ,37, ,
-6, ,37, ,
-4, ,37, ,
-1, ,37, ,
5, ,37, ,
7, ,37, ,
11, ,37, ,
11, ,37, ,
16, ,37, ,
17, ,37, ,
19, ,37, ,
20, ,37, ,
20, ,37, ,
19, ,37, ,
18, ,37, ,
17, ,37, ,
12, ,37, ,
11, ,37, ,
8, ,37, ,
6, ,37, ,
-1, ,37, ,
-5, ,37, ,
-6, ,37, ,
-11, ,37, ,
-16, ,37, ,
-17, ,37, ,
-21, ,37, ,
-21, ,37, ,
-24, ,37, ,
-24, ,37, ,
-23, ,37, ,
-24, ,37, ,
-21, ,37, ,
-20, ,37, ,
-19, ,37, ,
-16, ,37, ,
-12, ,37, ,
-11, ,37, ,
-8, ,37, ,
-7, ,37, ,
-2, ,37, ,
1, ,37, ,
2, ,37, ,
3, ,37, ,
5, ,37, ,
5, ,37, ,
5, ,37, ,
4, ,37, ,
2, ,37, ,
0, ,37, ,
-3, ,37, ,
-5, ,37, ,
-12, ,37, ,
-13, ,37, ,
-16, ,37, ,
-21, ,37, ,
-25, ,37, ,
-27, ,37, ,
-30, ,37, ,
-32, ,37, ,
-35, ,37, ,
-35, ,37, ,
-37, ,37, ,
-37, ,37, ,
-36, ,37, ,
-36, ,37, ,
-36, ,37, ,
-36, ,37, ,
-34, ,37, ,
-32, ,37, ,
-30, ,37, ,
-30, ,37, ,
-24, ,37, ,
-21, ,37, ,
-20, ,37, ,
-17, ,37, ,
-11, ,37, ,
-10, ,37, ,
-8, ,37, ,
-5, ,37, ,
0, ,37, ,
2, ,37, ,
6, ,37, ,
8, ,37, ,
14, ,37, ,
17, ,37, ,
20, ,37, ,
23, ,37, ,
31, ,37, ,
33, ,37, ,
36, ,37, ,
40, ,37, ,
48, ,37, ,
52, ,37, ,
57, ,37, ,
61, ,37, ,
69, ,37, ,
73, ,37, ,
77, ,37, ,
82, ,37, ,
88, ,37, ,
92, ,37, ,
96, ,37, ,
99, ,37, ,
104, ,37, ,
107, ,37, ,
106, ,37, ,
109, ,37, ,
113, ,37, ,
113, ,37, ,
114, ,37, ,
114, ,37, ,
113, ,37, ,
113, ,37, ,
112, ,37, ,
112, ,37, ,
108, ,37, ,
105, ,37, ,
105, ,37, ,
102, ,37, ,
97, ,37, ,
95, ,37, ,
89, ,37, ,
89, ,37, ,
82, ,37, ,
78, ,37, ,
73, ,37, ,
70, ,37, ,
60, ,37, ,
56, ,37, ,
51, ,37, ,
46, ,37, ,
35, ,37, ,
30, ,37, ,
27, ,37, ,
21, ,37, ,
12, ,37, ,
8, ,37, ,
2, ,37, ,
-1, ,37, ,
-7, ,37, ,
-12, ,37, ,
-13, ,37, ,
-17, ,37, ,
-21, ,37, ,
-22, ,37, ,
-22, ,37, ,
-22, ,37, ,
-22, ,37, ,
-20, ,37, ,
-19, ,37, ,
-21, ,37, ,
-16, ,37, ,
-15, ,37, ,
-13, ,37, ,
-11, ,37, ,
-4, ,37, ,
-2, ,37, ,
0, ,37, ,
3, ,37, ,
8, ,37, ,
12, ,37, ,
13, ,37, ,
16, ,37, ,
21, ,37, ,
23, ,37, ,
28, ,37, ,
28, ,37, ,
31, ,37, ,
33, ,37, ,
33, ,37, ,
35, ,37, ,
35, ,37, ,
35, ,37, ,
34, ,37, ,
32, ,37, ,
29, ,37, ,
27, ,37, ,
25, ,37, ,
21, ,37, ,
15, ,37, ,
10, ,37, ,
7, ,37, ,
3, ,37, ,
-6, ,37, ,
-10, ,37, ,
-16, ,37, ,
-20, ,37, ,
-25, ,37, ,
-31, ,37, ,
-35, ,37, ,
-35, ,37, ,
-42, ,37, ,
-41, ,37, ,
-44, ,37, ,
-45, ,37, ,
-46, ,37, ,
-47, ,37, ,
-47, ,37, ,
-48, ,37, ,
-48, ,37, ,
-47, ,37, ,
-47, ,37, ,
-47, ,37, ,
-47, ,37, ,
-47, ,37, ,
-47, ,37, ,
-48, ,37, ,
-50, ,37, ,
-50, ,37, ,
-52, ,37, ,
-54, ,37, ,
-59, ,37, ,
-60, ,37, ,
-64, ,37, ,
-65, ,37, ,
-70, ,37, ,
-73, ,37, ,
-75, ,37, ,
-75, ,37, ,
-77, ,37, ,
-79, ,37, ,
-79, ,37, ,
-79, ,37, ,
-76, ,37, ,
-76, ,37, ,
-72, ,37, ,
-71, ,37, ,
-66, ,37, ,
-61, ,37, ,
-59, ,37, ,
-56, ,37, ,
-49, ,37, ,
-44, ,37, ,
-41, ,37, ,
-38, ,37, ,
-31, ,37, ,
-28, ,37, ,
-25, ,37, ,
-22, ,37, ,
-19, ,37, ,
-16, ,37, ,
-15, ,37, ,
-13, ,37, ,
-13, ,37, ,
-13, ,37, ,
-13, ,37, ,
-14, ,37, ,
-15, ,37, ,
-15, ,37, ,
-17, ,37, ,
-17, ,37, ,
-20, ,37, ,
-21, ,37, ,
-22, ,37, ,
-23, ,37, ,
-24, ,37, ,
-25, ,37, ,
-25, ,37, ,
-25, ,37, ,
-25, ,37, ,
-25, ,37, ,
-25, ,37, ,
-24, ,37, ,
-23, ,37, ,
-21, ,37, ,
-21, ,37, ,
-20, ,37, ,
-17, ,37, ,
-15, ,37, ,
-13, ,37, ,
-12, ,37, ,
-9, ,37, ,
-7, ,37, ,
-4, ,37, ,
-3, ,37, ,
0, ,37, ,
3, ,37, ,
3, ,37, ,
5, ,37, ,
9, ,37, ,
9, ,37, ,
9, ,37, ,
10, ,37, ,
11, ,37, ,
11, ,37, ,
11, ,37, ,
11, ,37, ,
11, ,37, ,
11, ,37, ,
11, ,37, ,
10, ,37, ,
9, ,37, ,
9, ,37, ,
8, ,37, ,
6, ,37, ,
5, ,37, ,
5, ,37, ,
4, ,37, ,
3, ,37, ,
2, ,37, ,
0, ,37, ,
0, ,37, ,
-2, ,37, ,
-4, ,37, ,
-4, ,37, ,
-5, ,37, ,
-5, ,37, ,
-6, ,37, ,
-7, ,37, ,
-6, ,37, ,
-9, ,37, ,
-10, ,37, ,
-10, ,37, ,
-10, ,37, ,
-10, ,37, ,
-10, ,37, ,
-11, ,37, ,
-10, ,37, ,
-10, ,37, ,
-10, ,37, ,
-9, ,37, ,
-9, ,37, ,
-8, ,37, ,
-7, ,37, ,
-7, ,37, ,
-5, ,37, ,
-5, ,37, ,
-3, ,37, ,
0, ,37, ,
0, ,37, ,
0, ,37, ,
5, ,37, ,
4, ,37, ,
6, ,37, ,
9, ,37, ,
11, ,37, ,
13, ,37, ,
13, ,37, ,
15, ,37, ,
16, ,37, ,
16, ,37, ,
18, ,37, ,
18, ,37, ,
18, ,37, ,
20, ,37, ,
19, ,37, ,
20, ,37, ,
20, ,37, ,
19, ,37, ,
18, ,37, ,
17, ,37, ,
16, ,37, ,
16, ,37, ,
16, ,37, ,
14, ,37, ,
13, ,37, ,
12, ,37, ,
12, ,37, ,
10, ,37, ,
9, ,37, ,
9, ,37, ,
7, ,37, ,
6, ,37, ,
4, ,37, ,
2, ,37, ,
2, ,37, ,
0, ,37, ,
-1, ,37, ,
-1, ,37, ,
-2, ,37, ,
-2, ,37, ,
-4, ,37, ,
-5, ,37, ,
-5, ,37, ,
-5, ,37, ,
-5, ,37, ,
-5, ,37, ,
-6, ,37, ,
-5, ,37, ,
-5, ,37, ,
-7, ,37, ,
-3, ,37, ,
-2, ,37, ,
-2, ,37, ,
0, ,37, ,
1, ,37, ,
4, ,37, ,
5, ,37, ,
6, ,37, ,
8, ,37, ,
8, ,37, ,
11, ,37, ,
11, ,37, ,
11, ,37, ,
14, ,37, ,
16, ,37, ,
15, ,37, ,
17, ,37, ,
17, ,37, ,
17, ,37, ,
17, ,37, ,
17, ,37, ,
18, ,37, ,
19, ,37, ,
18, ,37, ,
18, ,37, ,
17, ,37, ,
15, ,37, ,
15, ,37, ,
13, ,37, ,
14, ,37, ,
10, ,37, ,
7, ,37, ,
8, ,37, ,
5, ,37, ,
2, ,37, ,
1, ,37, ,
-1, ,37, ,
-1, ,37, ,
-3, ,37, ,
-7, ,37, ,
-7, ,37, ,
-8, ,37, ,
-11, ,37, ,
-11, ,37, ,
-11, ,37, ,
-12, ,37, ,
-12, ,37, ,
-12, ,37, ,
-11, ,37, ,
-12, ,37, ,
-10, ,37, ,
-9, ,37, ,
-9, ,37, ,
-5, ,37, ,
-5, ,37, ,
-2, ,37, ,
0, ,37, ,
-2, ,37, ,
3, ,37, ,
4, ,37, ,
5, ,37, ,
8, ,37, ,
11, ,37, ,
10, ,37, ,
13, ,37, ,
14, ,37, ,
14, ,37, ,
18, ,37, ,
18, ,37, ,
18, ,37, ,
20, ,37, ,
20, ,37, ,
21, ,37, ,
21, ,37, ,
21, ,37, ,
22, ,37, ,
20, ,37, ,
21, ,37, ,
20, ,37, ,
20, ,37, ,
21, ,37, ,
20, ,37, ,
20, ,37, ,
20, ,37, ,
20, ,37, ,
20, ,37, ,
19, ,37, ,
19, ,37, ,
19, ,37, ,
17, ,37, ,
16, ,37, ,
19, ,37, ,
16, ,37, ,
16, ,37, ,
15, ,37, ,
14, ,37, ,
15, ,37, ,
12, ,37, ,
11, ,37, ,
11, ,37, ,
10, ,37, ,
10, ,37, ,
7, ,37, ,
6, ,37, ,
5, ,37, ,
3, ,37, ,
0, ,37, ,
0, ,37, ,
-2, ,37, ,
-4, ,37, ,
-5, ,37, ,
-8, ,37, ,
-9, ,37, ,
-10, ,37, ,
-15, ,37, ,
-16, ,37, ,
-18, ,37, ,
-18, ,37, ,
-21, ,37, ,
-23, ,37, ,
-24, ,37, ,
-26, ,37, ,
-29, ,37, ,
-30, ,37, ,
-32, ,37, ,
-32, ,37, ,
-35, ,37, ,
-35, ,37, ,
-35, ,37, ,
-36, ,37, ,
-39, ,37, ,
-39, ,37, ,
-40, ,37, ,
-40, ,37, ,
-40, ,37, ,
-43, ,37, ,
-42, ,37, ,
-43, ,37, ,
-43, ,37, ,
-43, ,37, ,
-43, ,37, ,
-43, ,37, ,
-42, ,37, ,
-43, ,37, ,
-40, ,37, ,
-41, ,37, ,
-40, ,37, ,
-38, ,37, ,
-38, ,37, ,
-36, ,37, ,
-35, ,37, ,
-35, ,37, ,
-31, ,37, ,
-32, ,37, ,
-29, ,37, ,
-25, ,37, ,
-25, ,37, ,
-22, ,37, ,
-18, ,37, ,
-17, ,37, ,
-15, ,37, ,
-12, ,37, ,
-9, ,37, ,
-7, ,37, ,
-4, ,37, ,
-2, ,37, ,
2, ,37, ,
4, ,37, ,
6, ,37, ,
8, ,37, ,
11, ,37, ,
14, ,37, ,
13, ,37, ,
15, ,37, ,
18, ,37, ,
20, ,37, ,
21, ,37, ,
23, ,37, ,
23, ,37, ,
25, ,37, ,
26, ,37, ,
28, ,37, ,
28, ,37, ,
30, ,37, ,
31, ,37, ,
31, ,37, ,
31, ,37, ,
34, ,37, ,
33, ,37, ,
33, ,37, ,
35, ,37, ,
35, ,37, ,
35, ,37, ,
35, ,37, ,
35, ,37, ,
35, ,37, ,
35, ,37, ,
35, ,37, ,
34, ,37, ,
33, ,37, ,
34, ,37, ,
32, ,37, ,
30, ,37, ,
30, ,37, ,
29, ,37, ,
29, ,37, ,
28, ,37, ,
26, ,37, ,
26, ,37, ,
24, ,37, ,
21, ,37, ,
20, ,37, ,
20, ,37, ,
19, ,37, ,
15, ,37, ,
15, ,37, ,
14, ,37, ,
11, ,37, ,
10, ,37, ,
9, ,37, ,
6, ,37, ,
5, ,37, ,
4, ,37, ,
0, ,37, ,
0, ,37, ,
-3, ,37, ,
-6, ,37, ,
-8, ,37, ,
-9, ,37, ,
-10, ,37, ,
-14, ,37, ,
-15, ,37, ,
-17, ,37, ,
-20, ,37, ,
-22, ,37, ,
-22, ,37, ,
-25, ,37, ,
-26, ,37, ,
-27, ,37, ,
-28, ,37, ,
-27, ,37, ,
-30, ,37, ,
-30, ,37, ,
-30, ,37, ,
-30, ,37, ,
-30, ,37, ,
-29, ,37, ,
-28, ,37, ,
-27, ,37, ,
-28, ,37, ,
-26, ,37, ,
-24, ,37, ,
-24, ,37, ,
-23, ,37, ,
-19, ,37, ,
-19, ,37, ,
-17, ,37, ,
-15, ,37, ,
-13, ,37, ,
-11, ,37, ,
-9, ,37, ,
-8, ,37, ,
-5, ,37, ,
-4, ,37, ,
-2, ,37, ,
0, ,37, ,
4, ,37, ,
6, ,37, ,
6, ,37, ,
10, ,37, ,
13, ,37, ,
13, ,37, ,
15, ,37, ,
17, ,37, ,
19, ,37, ,
21, ,37, ,
23, ,37, ,
25, ,37, ,
26, ,37, ,
27, ,37, ,
28, ,37, ,
28, ,37, ,
30, ,37, ,
31, ,37, ,
31, ,37, ,
31, ,37, ,
32, ,37, ,
31, ,37, ,
32, ,37, ,
30, ,37, ,
31, ,37, ,
31, ,37, ,
30, ,37, ,
30, ,37, ,
29, ,37, ,
28, ,37, ,
28, ,37, ,
27, ,37, ,
25, ,37, ,
25, ,37, ,
25, ,37, ,
25, ,37, ,
24, ,37, ,
23, ,37, ,
23, ,37, ,
22, ,37, ,
21, ,37, ,
21, ,37, ,
