raw_data/100% Glycerol, Impulsion 2Hz, Sonde 5MHz, Rampe 0.7Hz/temp0000291.CSV

Format,1.0B,
Memory Length,10000,Memory Length,10000,
IntpDistance,0,IntpDistance,0,
Trigger Address,159,Trigger Address,159,
Trigger Level,2.720E-01,Trigger Level,2.720E-01,
Source,CH1,Source,CH2,
Vertical Units,V,Vertical Units,V,
Vertical Units Div,0,Vertical Units Div,0,
Vertical Units Extend Div,16,Vertical Units Extend Div,16,
Label,,Label,,
Probe Type,0,Probe Type,0,
Probe Ratio,1.000e+00,Probe Ratio,1.000e+00,
Vertical Scale,2.000e-01,Vertical Scale,2.000e+00,
Vertical Position,0.000e+00,Vertical Position,0.000e+00,
Horizontal Units,S,Horizontal Units,S,
Horizontal Scale,5.000E-06,Horizontal Scale,5.000E-06,
Horizontal Position,2.420E-05,Horizontal Position,2.420E-05,
Horizontal Mode,Main,Horizontal Mode,Main,
SincET Mode,Real Time,SincET Mode,Real Time,
Sampling Period,5.000e-09,Sampling Period,5.000e-09,
Horizontal Old Scale,5.000E-06,Horizontal Old Scale,5.000E-06,
Horizontal Old Position,2.420E-05,Horizontal Old Position,2.420E-05,
Firmware,V1.32,Firmware,V1.32,
Mode,Fast,Mode,Fast,
Waveform Data,,Waveform Data,,
1, ,-36, ,
2, ,-36, ,
2, ,-36, ,
1, ,-36, ,
1, ,-36, ,
1, ,-36, ,
1, ,-36, ,
1, ,-36, ,
2, ,-36, ,
1, ,-36, ,
2, ,-36, ,
1, ,-36, ,
2, ,-36, ,
1, ,-36, ,
1, ,-36, ,
2, ,-36, ,
1, ,-36, ,
2, ,-36, ,
2, ,-36, ,
1, ,-36, ,
1, ,-36, ,
2, ,-36, ,
1, ,-36, ,
3, ,-36, ,
2, ,-37, ,
1, ,-37, ,
2, ,-36, ,
1, ,-36, ,
3, ,-36, ,
2, ,-36, ,
2, ,-36, ,
2, ,-36, ,
2, ,-36, ,
1, ,-36, ,
2, ,-36, ,
1, ,-36, ,
2, ,-36, ,
2, ,-37, ,
0, ,-37, ,
1, ,-36, ,
1, ,-36, ,
1, ,-36, ,
2, ,-36, ,
1, ,-36, ,
1, ,-36, ,
1, ,-36, ,
1, ,-36, ,
1, ,-36, ,
1, ,-36, ,
2, ,-36, ,
2, ,-36, ,
1, ,-36, ,
2, ,-36, ,
2, ,-36, ,
1, ,-36, ,
1, ,-36, ,
1, ,-36, ,
1, ,-36, ,
1, ,-36, ,
1, ,-36, ,
1, ,-36, ,
3, ,-36, ,
2, ,-36, ,
2, ,-36, ,
0, ,-36, ,
0, ,-36, ,
2, ,-36, ,
1, ,-36, ,
1, ,-36, ,
2, ,-36, ,
1, ,-36, ,
2, ,-36, ,
1, ,-36, ,
1, ,-36, ,
3, ,-36, ,
2, ,-36, ,
3, ,-36, ,
1, ,-36, ,
1, ,-36, ,
1, ,-36, ,
1, ,-36, ,
2, ,-36, ,
2, ,-36, ,
1, ,-36, ,
2, ,-36, ,
2, ,-36, ,
1, ,-36, ,
2, ,-36, ,
1, ,-36, ,
1, ,-36, ,
1, ,-36, ,
1, ,-36, ,
1, ,-36, ,
1, ,-36, ,
1, ,-36, ,
1, ,-36, ,
1, ,-36, ,
1, ,-36, ,
2, ,-36, ,
1, ,-36, ,
2, ,-36, ,
1, ,-36, ,
2, ,-36, ,
2, ,-36, ,
1, ,-36, ,
2, ,-36, ,
2, ,-36, ,
2, ,-36, ,
2, ,-36, ,
2, ,-36, ,
2, ,-36, ,
2, ,-36, ,
2, ,-36, ,
1, ,-36, ,
2, ,-36, ,
0, ,-36, ,
2, ,-36, ,
2, ,-36, ,
1, ,-36, ,
2, ,-36, ,
1, ,-36, ,
1, ,-36, ,
1, ,-36, ,
0, ,-36, ,
2, ,-36, ,
2, ,-36, ,
3, ,-36, ,
3, ,-36, ,
2, ,-36, ,
2, ,-36, ,
2, ,-36, ,
2, ,-36, ,
2, ,-36, ,
2, ,-36, ,
2, ,-36, ,
2, ,-36, ,
2, ,-36, ,
1, ,-36, ,
2, ,-36, ,
2, ,-36, ,
2, ,-36, ,
2, ,-36, ,
1, ,-36, ,
2, ,-36, ,
1, ,-36, ,
2, ,-36, ,
2, ,-36, ,
1, ,-36, ,
1, ,-36, ,
2, ,-36, ,
2, ,-36, ,
2, ,-36, ,
2, ,-36, ,
2, ,-36, ,
2, ,-36, ,
1, ,-36, ,
2, ,-36, ,
2, ,-36, ,
1, ,-36, ,
2, ,-36, ,
1, ,-36, ,
1, ,-36, ,
3, ,-36, ,
1, ,-36, ,
5, ,-36, ,
1, ,-36, ,
-1, ,-36, ,
0, ,-36, ,
26, ,-36, ,
125, ,-36, ,
125, ,-36, ,
125, ,-36, ,
125, ,-36, ,
116, ,-36, ,
16, ,-36, ,
-15, ,-36, ,
77, ,-36, ,
125, ,-37, ,
125, ,-37, ,
125, ,-37, ,
125, ,-36, ,
125, ,-36, ,
125, ,-36, ,
125, ,-36, ,
125, ,-36, ,
125, ,-36, ,
125, ,-36, ,
125, ,-36, ,
125, ,-36, ,
125, ,-36, ,
125, ,-36, ,
125, ,-36, ,
125, ,-36, ,
125, ,-36, ,
125, ,-36, ,
125, ,-36, ,
125, ,-36, ,
125, ,-36, ,
125, ,-36, ,
125, ,-36, ,
125, ,-36, ,
125, ,-36, ,
124, ,-36, ,
124, ,-36, ,
120, ,-36, ,
110, ,-36, ,
105, ,-36, ,
104, ,-36, ,
98, ,-36, ,
90, ,-36, ,
87, ,-36, ,
83, ,-36, ,
78, ,-36, ,
73, ,-36, ,
68, ,-36, ,
66, ,-36, ,
61, ,-36, ,
57, ,-36, ,
54, ,-36, ,
52, ,-36, ,
50, ,-36, ,
44, ,-36, ,
41, ,-36, ,
41, ,-36, ,
37, ,-36, ,
36, ,-36, ,
34, ,-36, ,
30, ,-36, ,
30, ,-36, ,
27, ,-36, ,
24, ,-36, ,
24, ,-36, ,
22, ,-36, ,
19, ,-36, ,
20, ,-36, ,
17, ,-36, ,
17, ,-36, ,
15, ,-36, ,
14, ,-36, ,
14, ,-36, ,
12, ,-36, ,
10, ,-36, ,
10, ,-36, ,
9, ,-36, ,
9, ,-36, ,
8, ,-36, ,
6, ,-36, ,
5, ,-36, ,
4, ,-36, ,
3, ,-36, ,
5, ,-36, ,
4, ,-36, ,
4, ,-36, ,
2, ,-36, ,
2, ,-36, ,
2, ,-36, ,
0, ,-36, ,
0, ,-36, ,
0, ,-36, ,
0, ,-37, ,
0, ,-37, ,
0, ,-36, ,
0, ,-36, ,
-1, ,-36, ,
-1, ,-36, ,
-2, ,-36, ,
-2, ,-36, ,
-2, ,-36, ,
-1, ,-36, ,
-2, ,-36, ,
-3, ,-36, ,
-2, ,-36, ,
-2, ,-36, ,
-3, ,-36, ,
-3, ,-36, ,
-3, ,-36, ,
-3, ,-36, ,
-3, ,-36, ,
-4, ,-36, ,
-3, ,-36, ,
-4, ,-36, ,
-3, ,-36, ,
-3, ,-36, ,
-3, ,-36, ,
-3, ,-36, ,
-3, ,-36, ,
-2, ,-36, ,
-2, ,-36, ,
-4, ,-36, ,
-4, ,-36, ,
-3, ,-36, ,
-3, ,-36, ,
-3, ,-36, ,
-2, ,-36, ,
-2, ,-36, ,
-2, ,-36, ,
-2, ,-36, ,
-2, ,-36, ,
-2, ,-36, ,
-2, ,-36, ,
-2, ,-36, ,
-3, ,-36, ,
-4, ,-36, ,
-1, ,-36, ,
-2, ,-36, ,
-3, ,-36, ,
-2, ,-36, ,
-2, ,-36, ,
-2, ,-36, ,
-2, ,-36, ,
-3, ,-36, ,
-2, ,-36, ,
-2, ,-36, ,
-2, ,-36, ,
-1, ,-36, ,
-2, ,-36, ,
-1, ,-36, ,
-1, ,-36, ,
-2, ,-36, ,
-1, ,-36, ,
-3, ,-36, ,
-1, ,-36, ,
-1, ,-36, ,
-1, ,-36, ,
-2, ,-36, ,
-1, ,-36, ,
-2, ,-36, ,
-1, ,-36, ,
-1, ,-36, ,
-1, ,-36, ,
0, ,-36, ,
-1, ,-36, ,
0, ,-36, ,
0, ,-36, ,
0, ,-36, ,
0, ,-36, ,
-1, ,-36, ,
0, ,-36, ,
0, ,-36, ,
-1, ,-36, ,
0, ,-36, ,
1, ,-36, ,
0, ,-36, ,
0, ,-36, ,
0, ,-36, ,
-1, ,-36, ,
1, ,-36, ,
0, ,-36, ,
0, ,-36, ,
1, ,-36, ,
0, ,-36, ,
0, ,-36, ,
0, ,-36, ,
0, ,-36, ,
0, ,-36, ,
0, ,-36, ,
0, ,-36, ,
0, ,-36, ,
1, ,-36, ,
1, ,-36, ,
1, ,-36, ,
1, ,-36, ,
1, ,-36, ,
0, ,-36, ,
1, ,-36, ,
1, ,-36, ,
0, ,-36, ,
1, ,-36, ,
0, ,-36, ,
1, ,-36, ,
1, ,-36, ,
1, ,-36, ,
1, ,-36, ,
1, ,-36, ,
1, ,-36, ,
2, ,-36, ,
1, ,-36, ,
0, ,-36, ,
1, ,-36, ,
1, ,-36, ,
1, ,-36, ,
2, ,-36, ,
0, ,-36, ,
2, ,-36, ,
1, ,-36, ,
1, ,-36, ,
1, ,-36, ,
0, ,-36, ,
2, ,-36, ,
2, ,-36, ,
1, ,-36, ,
1, ,-36, ,
1, ,-36, ,
1, ,-36, ,
1, ,-36, ,
1, ,-36, ,
2, ,-36, ,
2, ,-36, ,
1, ,-36, ,
2, ,-36, ,
1, ,-36, ,
2, ,-36, ,
2, ,-36, ,
1, ,-36, ,
1, ,-36, ,
1, ,-36, ,
0, ,-36, ,
2, ,-36, ,
2, ,-36, ,
0, ,-36, ,
3, ,-36, ,
2, ,-36, ,
2, ,-36, ,
2, ,-36, ,
2, ,-36, ,
3, ,-36, ,
1, ,-36, ,
2, ,-36, ,
3, ,-36, ,
1, ,-36, ,
2, ,-36, ,
2, ,-36, ,
1, ,-36, ,
2, ,-36, ,
1, ,-36, ,
0, ,-36, ,
0, ,-36, ,
-6, ,-36, ,
-24, ,-36, ,
-126, ,-36, ,
-126, ,-36, ,
-126, ,-36, ,
-126, ,-36, ,
-126, ,-36, ,
-126, ,-36, ,
-126, ,-36, ,
-126, ,-36, ,
-126, ,-36, ,
-126, ,-36, ,
-126, ,-36, ,
-126, ,-36, ,
-126, ,-36, ,
-126, ,-36, ,
-126, ,-36, ,
-126, ,-36, ,
-126, ,-36, ,
-126, ,-36, ,
-126, ,-36, ,
-126, ,-36, ,
-126, ,-36, ,
-126, ,-36, ,
-126, ,-36, ,
-126, ,-36, ,
-126, ,-36, ,
-126, ,-36, ,
-126, ,-36, ,
-126, ,-36, ,
-126, ,-36, ,
-126, ,-36, ,
-126, ,-36, ,
-126, ,-36, ,
-126, ,-36, ,
-126, ,-36, ,
-126, ,-36, ,
-126, ,-36, ,
-122, ,-36, ,
-93, ,-36, ,
-15, ,-36, ,
112, ,-36, ,
125, ,-36, ,
125, ,-36, ,
125, ,-36, ,
125, ,-36, ,
125, ,-36, ,
125, ,-36, ,
125, ,-36, ,
125, ,-36, ,
125, ,-36, ,
125, ,-36, ,
125, ,-36, ,
125, ,-36, ,
125, ,-36, ,
125, ,-36, ,
123, ,-36, ,
119, ,-36, ,
-2, ,-36, ,
-36, ,-36, ,
-35, ,-36, ,
-6, ,-36, ,
98, ,-36, ,
125, ,-36, ,
125, ,-36, ,
125, ,-36, ,
125, ,-36, ,
125, ,-36, ,
125, ,-36, ,
125, ,-36, ,
125, ,-36, ,
125, ,-36, ,
125, ,-36, ,
125, ,-36, ,
125, ,-36, ,
125, ,-36, ,
125, ,-36, ,
125, ,-36, ,
123, ,-36, ,
112, ,-36, ,
73, ,-36, ,
19, ,-36, ,
-123, ,-36, ,
-126, ,-36, ,
-126, ,-36, ,
-126, ,-36, ,
-126, ,-36, ,
-126, ,-36, ,
-126, ,-36, ,
-126, ,-36, ,
-126, ,-36, ,
-126, ,-36, ,
-126, ,-36, ,
-126, ,-36, ,
-126, ,-36, ,
-123, ,-36, ,
-116, ,-36, ,
-5, ,-36, ,
125, ,-36, ,
125, ,-36, ,
125, ,-36, ,
125, ,-36, ,
125, ,-36, ,
125, ,-36, ,
125, ,-36, ,
125, ,-36, ,
125, ,-36, ,
125, ,-36, ,
124, ,-36, ,
124, ,-36, ,
101, ,-36, ,
89, ,-36, ,
83, ,-36, ,
79, ,-36, ,
87, ,-36, ,
94, ,-36, ,
105, ,-36, ,
113, ,-36, ,
125, ,-36, ,
125, ,-36, ,
125, ,-36, ,
125, ,-36, ,
125, ,-36, ,
125, ,-36, ,
125, ,-36, ,
125, ,-36, ,
125, ,-37, ,
125, ,-37, ,
124, ,-37, ,
124, ,-36, ,
119, ,-36, ,
115, ,-36, ,
111, ,-36, ,
105, ,-36, ,
100, ,-36, ,
99, ,-36, ,
94, ,-36, ,
91, ,-36, ,
86, ,-36, ,
81, ,-36, ,
79, ,-36, ,
76, ,-36, ,
68, ,-36, ,
67, ,-36, ,
64, ,-36, ,
63, ,-36, ,
58, ,-36, ,
55, ,-36, ,
53, ,-36, ,
50, ,-36, ,
46, ,-36, ,
43, ,-36, ,
38, ,-36, ,
34, ,-36, ,
8, ,-36, ,
-19, ,-36, ,
-52, ,-36, ,
-92, ,-36, ,
-126, ,-36, ,
-126, ,-36, ,
-126, ,-36, ,
-126, ,-36, ,
-126, ,-36, ,
-126, ,-36, ,
-126, ,-36, ,
-126, ,-36, ,
-126, ,-36, ,
-126, ,-36, ,
-126, ,-36, ,
-126, ,-36, ,
-126, ,-36, ,
-126, ,-36, ,
-126, ,-36, ,
-126, ,-36, ,
-126, ,-36, ,
-126, ,-36, ,
-126, ,-36, ,
-126, ,-36, ,
-126, ,-36, ,
-126, ,-36, ,
-126, ,-36, ,
-126, ,-36, ,
-126, ,-36, ,
-126, ,-36, ,
-126, ,-36, ,
-126, ,-36, ,
-122, ,-36, ,
-111, ,-36, ,
-99, ,-36, ,
-86, ,-36, ,
-60, ,-36, ,
-43, ,-36, ,
-29, ,-36, ,
-11, ,-36, ,
26, ,-36, ,
42, ,-36, ,
63, ,-36, ,
80, ,-36, ,
111, ,-36, ,
125, ,-36, ,
125, ,-36, ,
125, ,-36, ,
125, ,-36, ,
125, ,-36, ,
125, ,-36, ,
125, ,-36, ,
125, ,-36, ,
125, ,-36, ,
125, ,-36, ,
124, ,-36, ,
116, ,-36, ,
100, ,-36, ,
85, ,-36, ,
63, ,-36, ,
21, ,-36, ,
1, ,-36, ,
-23, ,-36, ,
-41, ,-36, ,
-80, ,-36, ,
-98, ,-36, ,
-108, ,-36, ,
-121, ,-36, ,
-126, ,-36, ,
-126, ,-36, ,
-126, ,-36, ,
-126, ,-36, ,
-126, ,-36, ,
-126, ,-36, ,
-126, ,-36, ,
-126, ,-36, ,
-126, ,-36, ,
-126, ,-36, ,
-126, ,-36, ,
-126, ,-36, ,
-126, ,-36, ,
-126, ,-36, ,
-126, ,-36, ,
-126, ,-36, ,
-126, ,-36, ,
-126, ,-36, ,
-126, ,-36, ,
-126, ,-36, ,
-119, ,-36, ,
-116, ,-36, ,
-109, ,-36, ,
-105, ,-36, ,
-98, ,-37, ,
-93, ,-37, ,
-92, ,-37, ,
-88, ,-36, ,
-84, ,-36, ,
-82, ,-36, ,
-79, ,-36, ,
-78, ,-36, ,
-74, ,-36, ,
-70, ,-36, ,
-68, ,-36, ,
-62, ,-36, ,
-49, ,-36, ,
-43, ,-36, ,
-34, ,-36, ,
-22, ,-36, ,
2, ,-36, ,
19, ,-36, ,
32, ,-36, ,
49, ,-36, ,
78, ,-36, ,
90, ,-36, ,
105, ,-36, ,
114, ,-36, ,
125, ,-36, ,
125, ,-36, ,
125, ,-36, ,
125, ,-36, ,
125, ,-36, ,
125, ,-36, ,
124, ,-36, ,
124, ,-36, ,
113, ,-36, ,
108, ,-36, ,
99, ,-36, ,
96, ,-36, ,
84, ,-36, ,
81, ,-36, ,
81, ,-36, ,
80, ,-36, ,
87, ,-36, ,
95, ,-36, ,
101, ,-36, ,
110, ,-36, ,
125, ,-36, ,
125, ,-36, ,
125, ,-36, ,
125, ,-36, ,
125, ,-36, ,
125, ,-36, ,
125, ,-36, ,
125, ,-36, ,
125, ,-36, ,
125, ,-36, ,
125, ,-36, ,
125, ,-36, ,
125, ,-36, ,
125, ,-36, ,
125, ,-36, ,
125, ,-36, ,
124, ,-36, ,
117, ,-36, ,
105, ,-36, ,
87, ,-36, ,
53, ,-36, ,
37, ,-36, ,
21, ,-36, ,
6, ,-36, ,
-17, ,-36, ,
-27, ,-36, ,
-35, ,-36, ,
-39, ,-36, ,
-42, ,-36, ,
-39, ,-36, ,
-38, ,-36, ,
-35, ,-36, ,
-27, ,-36, ,
-22, ,-36, ,
-17, ,-36, ,
-17, ,-36, ,
-14, ,-36, ,
-15, ,-36, ,
-18, ,-36, ,
-20, ,-36, ,
-33, ,-36, ,
-41, ,-36, ,
-50, ,-36, ,
-59, ,-36, ,
-79, ,-36, ,
-85, ,-36, ,
-93, ,-36, ,
-99, ,-36, ,
-105, ,-36, ,
-104, ,-36, ,
-101, ,-36, ,
-99, ,-36, ,
-83, ,-36, ,
-71, ,-36, ,
-62, ,-36, ,
-48, ,-36, ,
-24, ,-36, ,
-13, ,-36, ,
0, ,-36, ,
8, ,-36, ,
26, ,-36, ,
33, ,-36, ,
37, ,-36, ,
40, ,-36, ,
41, ,-36, ,
39, ,-36, ,
35, ,-36, ,
32, ,-36, ,
20, ,-36, ,
15, ,-36, ,
8, ,-36, ,
2, ,-36, ,
-9, ,-36, ,
-15, ,-36, ,
-16, ,-36, ,
-21, ,-36, ,
-22, ,-36, ,
-20, ,-36, ,
-20, ,-36, ,
-17, ,-36, ,
-13, ,-36, ,
-11, ,-36, ,
-8, ,-36, ,
-9, ,-36, ,
-8, ,-36, ,
-8, ,-36, ,
-10, ,-36, ,
-11, ,-36, ,
-15, ,-36, ,
-20, ,-36, ,
-21, ,-36, ,
-26, ,-36, ,
-31, ,-36, ,
-33, ,-36, ,
-35, ,-36, ,
-35, ,-36, ,
-35, ,-36, ,
-34, ,-36, ,
-32, ,-36, ,
-30, ,-36, ,
-27, ,-36, ,
-23, ,-36, ,
-24, ,-36, ,
-22, ,-36, ,
-21, ,-36, ,
-21, ,-36, ,
-22, ,-36, ,
-23, ,-36, ,
-26, ,-36, ,
-30, ,-36, ,
-33, ,-36, ,
-35, ,-36, ,
-43, ,-36, ,
-47, ,-36, ,
-52, ,-36, ,
-57, ,-36, ,
-63, ,-36, ,
-65, ,-36, ,
-67, ,-36, ,
-69, ,-36, ,
-70, ,-36, ,
-71, ,-36, ,
-69, ,-36, ,
-69, ,-36, ,
-66, ,-36, ,
-65, ,-36, ,
-64, ,-36, ,
-64, ,-36, ,
-64, ,-36, ,
-65, ,-36, ,
-65, ,-36, ,
-70, ,-36, ,
-72, ,-36, ,
-73, ,-36, ,
-76, ,-36, ,
-77, ,-36, ,
-80, ,-36, ,
-82, ,-36, ,
-81, ,-36, ,
-81, ,-36, ,
-78, ,-36, ,
-73, ,-36, ,
-69, ,-36, ,
-64, ,-36, ,
-50, ,-36, ,
-43, ,-36, ,
-34, ,-36, ,
-27, ,-36, ,
-9, ,-36, ,
2, ,-36, ,
10, ,-36, ,
20, ,-36, ,
33, ,-36, ,
37, ,-36, ,
43, ,-36, ,
45, ,-36, ,
49, ,-36, ,
49, ,-36, ,
48, ,-36, ,
47, ,-36, ,
41, ,-36, ,
37, ,-36, ,
35, ,-36, ,
30, ,-36, ,
23, ,-36, ,
22, ,-36, ,
17, ,-36, ,
17, ,-36, ,
16, ,-36, ,
15, ,-36, ,
18, ,-36, ,
18, ,-36, ,
23, ,-36, ,
28, ,-36, ,
29, ,-36, ,
33, ,-36, ,
35, ,-36, ,
36, ,-36, ,
38, ,-36, ,
35, ,-36, ,
33, ,-36, ,
31, ,-36, ,
26, ,-36, ,
22, ,-36, ,
11, ,-36, ,
5, ,-36, ,
-1, ,-36, ,
-9, ,-36, ,
-20, ,-36, ,
-25, ,-36, ,
-30, ,-36, ,
-35, ,-36, ,
-37, ,-36, ,
-39, ,-36, ,
-38, ,-36, ,
-40, ,-36, ,
-35, ,-36, ,
-32, ,-36, ,
-31, ,-36, ,
-25, ,-36, ,
-19, ,-36, ,
-15, ,-36, ,
-11, ,-36, ,
-10, ,-36, ,
-5, ,-36, ,
0, ,-36, ,
0, ,-36, ,
2, ,-36, ,
3, ,-36, ,
0, ,-36, ,
0, ,-36, ,
-1, ,-36, ,
-4, ,-36, ,
-3, ,-36, ,
-6, ,-36, ,
-8, ,-36, ,
-9, ,-36, ,
-10, ,-36, ,
-9, ,-36, ,
-9, ,-36, ,
-8, ,-36, ,
-6, ,-36, ,
-4, ,-36, ,
0, ,-36, ,
6, ,-36, ,
8, ,-36, ,
13, ,-36, ,
16, ,-36, ,
23, ,-36, ,
28, ,-36, ,
30, ,-36, ,
33, ,-36, ,
39, ,-36, ,
39, ,-36, ,
41, ,-36, ,
40, ,-36, ,
42, ,-36, ,
43, ,-36, ,
41, ,-36, ,
40, ,-36, ,
39, ,-36, ,
36, ,-36, ,
35, ,-36, ,
34, ,-36, ,
29, ,-36, ,
27, ,-36, ,
24, ,-36, ,
24, ,-36, ,
20, ,-36, ,
17, ,-36, ,
17, ,-36, ,
16, ,-36, ,
16, ,-36, ,
18, ,-36, ,
18, ,-36, ,
19, ,-36, ,
20, ,-36, ,
19, ,-36, ,
20, ,-36, ,
19, ,-36, ,
17, ,-36, ,
16, ,-36, ,
13, ,-36, ,
13, ,-36, ,
7, ,-36, ,
1, ,-36, ,
-2, ,-36, ,
-9, ,-36, ,
-18, ,-36, ,
-25, ,-36, ,
-31, ,-36, ,
-35, ,-36, ,
-47, ,-36, ,
-54, ,-36, ,
-57, ,-36, ,
-64, ,-36, ,
-70, ,-36, ,
-72, ,-36, ,
-75, ,-36, ,
-77, ,-36, ,
-77, ,-36, ,
-78, ,-36, ,
-76, ,-36, ,
-76, ,-36, ,
-74, ,-36, ,
-69, ,-36, ,
-69, ,-36, ,
-66, ,-36, ,
-60, ,-36, ,
-59, ,-36, ,
-57, ,-36, ,
-55, ,-36, ,
-54, ,-36, ,
-54, ,-36, ,
-54, ,-36, ,
-54, ,-36, ,
-54, ,-36, ,
-55, ,-36, ,
-55, ,-36, ,
-55, ,-36, ,
-54, ,-36, ,
-54, ,-36, ,
-53, ,-36, ,
-50, ,-36, ,
-46, ,-36, ,
-43, ,-36, ,
-38, ,-36, ,
-35, ,-36, ,
-29, ,-36, ,
-22, ,-36, ,
-17, ,-36, ,
-12, ,-36, ,
-3, ,-36, ,
0, ,-36, ,
6, ,-36, ,
8, ,-36, ,
13, ,-36, ,
15, ,-36, ,
16, ,-36, ,
17, ,-36, ,
15, ,-36, ,
12, ,-36, ,
12, ,-36, ,
8, ,-36, ,
2, ,-36, ,
-1, ,-36, ,
-5, ,-36, ,
-8, ,-36, ,
-11, ,-36, ,
-14, ,-36, ,
-15, ,-36, ,
-15, ,-36, ,
-15, ,-36, ,
-14, ,-36, ,
-13, ,-36, ,
-11, ,-36, ,
-9, ,-36, ,
-9, ,-36, ,
-4, ,-36, ,
-4, ,-36, ,
-3, ,-36, ,
-2, ,-36, ,
-3, ,-36, ,
-3, ,-36, ,
-5, ,-36, ,
-7, ,-36, ,
-6, ,-36, ,
-10, ,-36, ,
-14, ,-36, ,
-16, ,-36, ,
-19, ,-36, ,
-20, ,-36, ,
-25, ,-36, ,
-27, ,-36, ,
-30, ,-36, ,
-30, ,-36, ,
-30, ,-36, ,
-29, ,-36, ,
-30, ,-36, ,
-30, ,-36, ,
-25, ,-36, ,
-23, ,-36, ,
-20, ,-36, ,
-19, ,-36, ,
-14, ,-36, ,
-10, ,-36, ,
-9, ,-36, ,
-4, ,-36, ,
0, ,-36, ,
1, ,-36, ,
5, ,-36, ,
3, ,-36, ,
8, ,-36, ,
10, ,-36, ,
10, ,-36, ,
11, ,-36, ,
14, ,-36, ,
13, ,-36, ,
15, ,-36, ,
15, ,-36, ,
17, ,-36, ,
18, ,-36, ,
20, ,-36, ,
22, ,-36, ,
24, ,-36, ,
25, ,-36, ,
27, ,-36, ,
25, ,-36, ,
28, ,-36, ,
31, ,-36, ,
30, ,-36, ,
33, ,-36, ,
35, ,-36, ,
35, ,-36, ,
37, ,-36, ,
37, ,-36, ,
40, ,-36, ,
42, ,-36, ,
44, ,-36, ,
46, ,-36, ,
47, ,-36, ,
47, ,-36, ,
48, ,-36, ,
47, ,-36, ,
48, ,-36, ,
48, ,-36, ,
48, ,-36, ,
46, ,-36, ,
44, ,-36, ,
43, ,-36, ,
43, ,-36, ,
41, ,-36, ,
38, ,-36, ,
36, ,-36, ,
35, ,-36, ,
34, ,-36, ,
30, ,-36, ,
29, ,-36, ,
28, ,-36, ,
25, ,-36, ,
23, ,-36, ,
23, ,-36, ,
21, ,-36, ,
20, ,-36, ,
19, ,-36, ,
19, ,-36, ,
18, ,-36, ,
18, ,-36, ,
16, ,-36, ,
17, ,-36, ,
15, ,-36, ,
14, ,-36, ,
12, ,-36, ,
10, ,-36, ,
10, ,-36, ,
7, ,-36, ,
3, ,-36, ,
2, ,-36, ,
-1, ,-36, ,
-1, ,-36, ,
-4, ,-36, ,
-8, ,-36, ,
-8, ,-36, ,
-10, ,-36, ,
-11, ,-36, ,
-10, ,-36, ,
-10, ,-36, ,
-10, ,-36, ,
-9, ,-36, ,
-8, ,-36, ,
-4, ,-36, ,
-5, ,-36, ,
-1, ,-36, ,
3, ,-36, ,
3, ,-36, ,
5, ,-36, ,
9, ,-36, ,
8, ,-36, ,
11, ,-36, ,
11, ,-36, ,
12, ,-36, ,
12, ,-36, ,
11, ,-36, ,
12, ,-36, ,
10, ,-36, ,
9, ,-36, ,
9, ,-36, ,
6, ,-36, ,
5, ,-36, ,
5, ,-36, ,
5, ,-36, ,
5, ,-36, ,
4, ,-36, ,
3, ,-36, ,
5, ,-36, ,
5, ,-36, ,
6, ,-36, ,
8, ,-36, ,
10, ,-36, ,
10, ,-36, ,
12, ,-36, ,
11, ,-36, ,
13, ,-36, ,
11, ,-36, ,
9, ,-36, ,
10, ,-36, ,
7, ,-36, ,
5, ,-36, ,
4, ,-36, ,
-1, ,-36, ,
-2, ,-36, ,
-6, ,-36, ,
-10, ,-36, ,
-11, ,-36, ,
-13, ,-36, ,
-16, ,-36, ,
-20, ,-36, ,
-21, ,-36, ,
-21, ,-36, ,
-24, ,-37, ,
-26, ,-37, ,
-26, ,-36, ,
-27, ,-36, ,
-27, ,-36, ,
-28, ,-36, ,
-29, ,-36, ,
-30, ,-36, ,
-30, ,-36, ,
-31, ,-36, ,
-31, ,-36, ,
-32, ,-36, ,
-31, ,-36, ,
-35, ,-36, ,
-35, ,-36, ,
-35, ,-36, ,
-36, ,-36, ,
-37, ,-36, ,
-37, ,-36, ,
-39, ,-36, ,
-39, ,-36, ,
-39, ,-36, ,
-39, ,-36, ,
-39, ,-36, ,
-39, ,-36, ,
-39, ,-36, ,
-39, ,-36, ,
-39, ,-36, ,
-38, ,-36, ,
-36, ,-36, ,
-38, ,-36, ,
-35, ,-36, ,
-34, ,-36, ,
-33, ,-36, ,
-30, ,-36, ,
-31, ,-36, ,
-29, ,-36, ,
-27, ,-36, ,
-26, ,-36, ,
-24, ,-36, ,
-25, ,-36, ,
-20, ,-36, ,
-20, ,-36, ,
-20, ,-36, ,
-18, ,-36, ,
-17, ,-36, ,
-15, ,-36, ,
-14, ,-36, ,
-14, ,-36, ,
-12, ,-36, ,
-10, ,-36, ,
-9, ,-36, ,
-8, ,-36, ,
-7, ,-36, ,
-7, ,-36, ,
-6, ,-36, ,
-6, ,-36, ,
-5, ,-36, ,
-4, ,-36, ,
-4, ,-36, ,
-2, ,-36, ,
0, ,-36, ,
1, ,-36, ,
1, ,-36, ,
1, ,-36, ,
3, ,-36, ,
4, ,-36, ,
3, ,-36, ,
6, ,-36, ,
6, ,-36, ,
6, ,-36, ,
6, ,-36, ,
6, ,-36, ,
6, ,-36, ,
7, ,-36, ,
5, ,-36, ,
5, ,-36, ,
3, ,-36, ,
0, ,-36, ,
0, ,-36, ,
-1, ,-36, ,
-3, ,-36, ,
-4, ,-36, ,
-6, ,-36, ,
-6, ,-36, ,
-7, ,-36, ,
-8, ,-36, ,
-8, ,-36, ,
-9, ,-36, ,
-9, ,-36, ,
-8, ,-36, ,
-8, ,-36, ,
-7, ,-36, ,
-6, ,-36, ,
-5, ,-36, ,
-4, ,-36, ,
-5, ,-36, ,
-5, ,-36, ,
-2, ,-36, ,
-4, ,-36, ,
-4, ,-36, ,
-3, ,-36, ,
-4, ,-36, ,
-4, ,-36, ,
-5, ,-36, ,
-5, ,-36, ,
-5, ,-36, ,
-5, ,-36, ,
-5, ,-36, ,
-4, ,-36, ,
-4, ,-36, ,
-3, ,-36, ,
-5, ,-36, ,
-2, ,-36, ,
0, ,-36, ,
1, ,-36, ,
1, ,-36, ,
5, ,-36, ,
5, ,-36, ,
6, ,-36, ,
8, ,-36, ,
10, ,-36, ,
13, ,-36, ,
13, ,-36, ,
14, ,-36, ,
16, ,-36, ,
16, ,-36, ,
16, ,-36, ,
16, ,-36, ,
17, ,-36, ,
17, ,-36, ,
15, ,-36, ,
16, ,-36, ,
16, ,-36, ,
15, ,-36, ,
16, ,-36, ,
15, ,-36, ,
15, ,-36, ,
15, ,-36, ,
16, ,-36, ,
16, ,-36, ,
16, ,-36, ,
15, ,-36, ,
16, ,-36, ,
14, ,-36, ,
16, ,-36, ,
16, ,-36, ,
15, ,-36, ,
15, ,-36, ,
15, ,-36, ,
13, ,-36, ,
14, ,-36, ,
13, ,-36, ,
11, ,-36, ,
11, ,-36, ,
10, ,-36, ,
10, ,-36, ,
8, ,-36, ,
8, ,-36, ,
7, ,-36, ,
5, ,-36, ,
5, ,-36, ,
5, ,-36, ,
3, ,-36, ,
4, ,-36, ,
4, ,-36, ,
1, ,-36, ,
2, ,-36, ,
2, ,-36, ,
1, ,-36, ,
1, ,-36, ,
0, ,-36, ,
0, ,-36, ,
0, ,-36, ,
-1, ,-36, ,
0, ,-36, ,
0, ,-36, ,
-1, ,-36, ,
0, ,-36, ,
-1, ,-36, ,
0, ,-36, ,
1, ,-36, ,
1, ,-36, ,
1, ,-36, ,
1, ,-36, ,
0, ,-36, ,
1, ,-36, ,
1, ,-36, ,
2, ,-36, ,
1, ,-36, ,
0, ,-36, ,
1, ,-36, ,
0, ,-36, ,
0, ,-36, ,
0, ,-36, ,
-1, ,-36, ,
-1, ,-36, ,
-1, ,-36, ,
-1, ,-36, ,
0, ,-36, ,
0, ,-36, ,
0, ,-36, ,
1, ,-36, ,
1, ,-36, ,
1, ,-36, ,
1, ,-36, ,
2, ,-36, ,
4, ,-36, ,
2, ,-36, ,
5, ,-36, ,
5, ,-36, ,
5, ,-36, ,
5, ,-36, ,
7, ,-36, ,
5, ,-36, ,
5, ,-36, ,
5, ,-36, ,
4, ,-36, ,
4, ,-36, ,
4, ,-36, ,
4, ,-36, ,
3, ,-36, ,
1, ,-36, ,
2, ,-36, ,
0, ,-36, ,
-1, ,-36, ,
0, ,-36, ,
-3, ,-36, ,
-1, ,-36, ,
-3, ,-36, ,
-4, ,-36, ,
-3, ,-36, ,
-4, ,-36, ,
-4, ,-36, ,
-4, ,-36, ,
-5, ,-36, ,
-5, ,-36, ,
-5, ,-36, ,
-6, ,-36, ,
-6, ,-36, ,
-7, ,-36, ,
-8, ,-36, ,
-8, ,-36, ,
-10, ,-36, ,
-10, ,-36, ,
-11, ,-36, ,
-13, ,-36, ,
-12, ,-36, ,
-15, ,-36, ,
-16, ,-36, ,
-15, ,-36, ,
-17, ,-36, ,
-16, ,-36, ,
-17, ,-36, ,
-17, ,-36, ,
-17, ,-36, ,
-16, ,-36, ,
-15, ,-36, ,
-15, ,-36, ,
-14, ,-36, ,
-14, ,-36, ,
-12, ,-36, ,
-12, ,-36, ,
-11, ,-36, ,
-11, ,-36, ,
-11, ,-36, ,
-10, ,-36, ,
-10, ,-37, ,
-9, ,-37, ,
-8, ,-36, ,
-8, ,-36, ,
-8, ,-36, ,
-8, ,-36, ,
-7, ,-36, ,
-7, ,-36, ,
-7, ,-36, ,
-6, ,-36, ,
-6, ,-36, ,
-7, ,-36, ,
-4, ,-36, ,
-5, ,-36, ,
-3, ,-36, ,
-3, ,-36, ,
-2, ,-36, ,
-1, ,-36, ,
-1, ,-36, ,
-1, ,-36, ,
0, ,-36, ,
-1, ,-36, ,
1, ,-36, ,
2, ,-36, ,
2, ,-36, ,
3, ,-36, ,
4, ,-36, ,
1, ,-36, ,
3, ,-36, ,
3, ,-36, ,
3, ,-36, ,
3, ,-36, ,
3, ,-36, ,
3, ,-36, ,
3, ,-36, ,
3, ,-36, ,
3, ,-36, ,
2, ,-36, ,
2, ,-36, ,
2, ,-36, ,
2, ,-36, ,
2, ,-36, ,
3, ,-36, ,
1, ,-36, ,
1, ,-36, ,
1, ,-36, ,
1, ,-36, ,
2, ,-36, ,
1, ,-36, ,
1, ,-36, ,
2, ,-36, ,
1, ,-36, ,
3, ,-36, ,
2, ,-36, ,
2, ,-36, ,
3, ,-36, ,
2, ,-36, ,
3, ,-36, ,
2, ,-36, ,
1, ,-36, ,
3, ,-36, ,
2, ,-36, ,
2, ,-36, ,
3, ,-36, ,
2, ,-36, ,
3, ,-36, ,
2, ,-36, ,
1, ,-36, ,
0, ,-36, ,
0, ,-36, ,
0, ,-36, ,
2, ,-36, ,
0, ,-36, ,
0, ,-36, ,
1, ,-36, ,
1, ,-36, ,
2, ,-36, ,
1, ,-36, ,
3, ,-36, ,
4, ,-36, ,
