raw_data/100% Glycerol, Impulsion 2Hz, Sonde 5MHz, Rampe 0.7Hz/temp0000288.CSV

Format,1.0B,
Memory Length,10000,Memory Length,10000,
IntpDistance,0,IntpDistance,0,
Trigger Address,159,Trigger Address,159,
Trigger Level,2.720E-01,Trigger Level,2.720E-01,
Source,CH1,Source,CH2,
Vertical Units,V,Vertical Units,V,
Vertical Units Div,0,Vertical Units Div,0,
Vertical Units Extend Div,16,Vertical Units Extend Div,16,
Label,,Label,,
Probe Type,0,Probe Type,0,
Probe Ratio,1.000e+00,Probe Ratio,1.000e+00,
Vertical Scale,2.000e-01,Vertical Scale,2.000e+00,
Vertical Position,0.000e+00,Vertical Position,0.000e+00,
Horizontal Units,S,Horizontal Units,S,
Horizontal Scale,5.000E-06,Horizontal Scale,5.000E-06,
Horizontal Position,2.420E-05,Horizontal Position,2.420E-05,
Horizontal Mode,Main,Horizontal Mode,Main,
SincET Mode,Real Time,SincET Mode,Real Time,
Sampling Period,5.000e-09,Sampling Period,5.000e-09,
Horizontal Old Scale,5.000E-06,Horizontal Old Scale,5.000E-06,
Horizontal Old Position,2.420E-05,Horizontal Old Position,2.420E-05,
Firmware,V1.32,Firmware,V1.32,
Mode,Fast,Mode,Fast,
Waveform Data,,Waveform Data,,
4, ,0, ,
3, ,0, ,
3, ,0, ,
3, ,0, ,
2, ,0, ,
3, ,0, ,
3, ,-1, ,
3, ,-1, ,
3, ,-1, ,
3, ,0, ,
2, ,0, ,
3, ,0, ,
2, ,0, ,
3, ,0, ,
3, ,0, ,
1, ,0, ,
3, ,0, ,
1, ,0, ,
2, ,0, ,
2, ,0, ,
2, ,0, ,
3, ,0, ,
3, ,0, ,
1, ,0, ,
3, ,0, ,
2, ,0, ,
2, ,0, ,
3, ,0, ,
3, ,0, ,
3, ,0, ,
3, ,0, ,
3, ,0, ,
4, ,0, ,
2, ,0, ,
3, ,0, ,
3, ,0, ,
3, ,0, ,
3, ,0, ,
3, ,0, ,
2, ,0, ,
2, ,0, ,
2, ,0, ,
2, ,0, ,
3, ,0, ,
3, ,0, ,
3, ,0, ,
3, ,0, ,
2, ,0, ,
4, ,0, ,
3, ,0, ,
2, ,0, ,
3, ,0, ,
2, ,0, ,
3, ,0, ,
2, ,0, ,
2, ,0, ,
2, ,0, ,
1, ,0, ,
3, ,0, ,
3, ,0, ,
3, ,0, ,
3, ,0, ,
3, ,0, ,
3, ,0, ,
3, ,0, ,
3, ,0, ,
3, ,0, ,
4, ,0, ,
2, ,0, ,
2, ,0, ,
3, ,0, ,
2, ,0, ,
2, ,0, ,
2, ,0, ,
3, ,0, ,
3, ,0, ,
3, ,0, ,
3, ,0, ,
3, ,0, ,
3, ,-1, ,
3, ,-1, ,
3, ,-1, ,
2, ,0, ,
2, ,0, ,
2, ,0, ,
3, ,0, ,
3, ,0, ,
3, ,0, ,
3, ,0, ,
3, ,0, ,
3, ,0, ,
3, ,0, ,
3, ,0, ,
2, ,0, ,
2, ,0, ,
3, ,0, ,
3, ,0, ,
3, ,0, ,
3, ,0, ,
3, ,0, ,
3, ,0, ,
3, ,0, ,
3, ,0, ,
2, ,0, ,
3, ,0, ,
2, ,0, ,
3, ,0, ,
3, ,0, ,
3, ,0, ,
3, ,0, ,
2, ,0, ,
2, ,0, ,
2, ,0, ,
1, ,0, ,
2, ,0, ,
2, ,0, ,
2, ,0, ,
3, ,-1, ,
3, ,-1, ,
3, ,0, ,
3, ,0, ,
3, ,0, ,
3, ,0, ,
3, ,0, ,
3, ,0, ,
3, ,0, ,
1, ,0, ,
3, ,0, ,
3, ,0, ,
2, ,0, ,
1, ,0, ,
3, ,0, ,
2, ,0, ,
2, ,0, ,
2, ,0, ,
2, ,0, ,
3, ,0, ,
2, ,0, ,
1, ,0, ,
3, ,0, ,
3, ,0, ,
3, ,0, ,
3, ,-1, ,
2, ,-1, ,
3, ,-1, ,
1, ,0, ,
3, ,0, ,
3, ,0, ,
3, ,0, ,
3, ,0, ,
3, ,-1, ,
2, ,-1, ,
3, ,-1, ,
1, ,0, ,
1, ,0, ,
3, ,0, ,
2, ,0, ,
2, ,0, ,
2, ,0, ,
2, ,0, ,
2, ,0, ,
2, ,0, ,
2, ,0, ,
2, ,0, ,
4, ,0, ,
0, ,0, ,
2, ,0, ,
-2, ,0, ,
21, ,0, ,
71, ,0, ,
125, ,0, ,
125, ,0, ,
125, ,0, ,
122, ,0, ,
37, ,0, ,
-18, ,0, ,
57, ,0, ,
125, ,0, ,
125, ,0, ,
125, ,0, ,
125, ,0, ,
125, ,0, ,
125, ,0, ,
125, ,0, ,
125, ,0, ,
125, ,0, ,
125, ,0, ,
125, ,0, ,
125, ,0, ,
125, ,0, ,
125, ,0, ,
125, ,0, ,
125, ,0, ,
125, ,0, ,
125, ,0, ,
125, ,0, ,
125, ,0, ,
125, ,0, ,
125, ,0, ,
125, ,0, ,
125, ,0, ,
125, ,0, ,
124, ,0, ,
124, ,0, ,
122, ,0, ,
120, ,0, ,
108, ,0, ,
104, ,0, ,
101, ,0, ,
94, ,0, ,
87, ,0, ,
85, ,0, ,
80, ,0, ,
76, ,0, ,
71, ,0, ,
65, ,0, ,
64, ,0, ,
60, ,0, ,
54, ,0, ,
52, ,0, ,
50, ,0, ,
49, ,0, ,
44, ,0, ,
41, ,0, ,
39, ,0, ,
38, ,0, ,
34, ,0, ,
34, ,0, ,
32, ,0, ,
30, ,0, ,
28, ,0, ,
25, ,0, ,
25, ,-1, ,
23, ,-1, ,
19, ,0, ,
18, ,0, ,
18, ,0, ,
16, ,0, ,
16, ,0, ,
13, ,0, ,
14, ,0, ,
12, ,0, ,
10, ,0, ,
10, ,0, ,
9, ,0, ,
10, ,-1, ,
7, ,-1, ,
6, ,0, ,
7, ,0, ,
6, ,0, ,
5, ,0, ,
5, ,0, ,
5, ,0, ,
4, ,0, ,
3, ,0, ,
3, ,0, ,
3, ,0, ,
2, ,0, ,
1, ,0, ,
2, ,0, ,
1, ,0, ,
1, ,0, ,
0, ,0, ,
0, ,0, ,
0, ,0, ,
-1, ,0, ,
-1, ,0, ,
0, ,0, ,
0, ,0, ,
0, ,0, ,
-1, ,0, ,
-2, ,0, ,
-1, ,0, ,
-2, ,0, ,
-1, ,0, ,
-2, ,0, ,
-2, ,0, ,
-2, ,0, ,
-1, ,0, ,
-2, ,0, ,
-1, ,0, ,
-2, ,0, ,
-2, ,0, ,
-2, ,0, ,
-2, ,0, ,
-2, ,0, ,
-2, ,0, ,
-2, ,0, ,
-2, ,0, ,
-2, ,0, ,
-2, ,0, ,
-2, ,0, ,
-2, ,0, ,
-2, ,0, ,
-2, ,0, ,
-2, ,0, ,
-2, ,0, ,
-2, ,0, ,
-2, ,0, ,
-1, ,0, ,
-2, ,0, ,
-1, ,0, ,
-1, ,0, ,
-2, ,0, ,
-2, ,0, ,
-2, ,0, ,
-2, ,0, ,
-1, ,0, ,
-2, ,0, ,
0, ,0, ,
0, ,0, ,
-1, ,0, ,
0, ,0, ,
-1, ,0, ,
-2, ,0, ,
-1, ,-1, ,
-2, ,-1, ,
0, ,-1, ,
0, ,0, ,
0, ,0, ,
0, ,0, ,
0, ,0, ,
0, ,0, ,
0, ,0, ,
0, ,0, ,
0, ,0, ,
2, ,0, ,
0, ,0, ,
1, ,0, ,
0, ,0, ,
0, ,0, ,
2, ,-1, ,
0, ,-1, ,
0, ,-1, ,
1, ,0, ,
0, ,0, ,
0, ,0, ,
0, ,0, ,
0, ,-1, ,
0, ,-1, ,
0, ,0, ,
1, ,0, ,
1, ,0, ,
1, ,0, ,
1, ,0, ,
1, ,0, ,
1, ,0, ,
1, ,0, ,
1, ,0, ,
0, ,0, ,
1, ,-1, ,
1, ,-1, ,
1, ,-1, ,
0, ,0, ,
0, ,0, ,
1, ,0, ,
1, ,0, ,
1, ,-1, ,
1, ,-1, ,
0, ,0, ,
2, ,0, ,
1, ,0, ,
1, ,0, ,
2, ,0, ,
1, ,0, ,
2, ,0, ,
1, ,0, ,
1, ,0, ,
1, ,-1, ,
1, ,-1, ,
1, ,0, ,
2, ,0, ,
1, ,0, ,
2, ,0, ,
2, ,0, ,
2, ,0, ,
2, ,0, ,
1, ,0, ,
1, ,0, ,
2, ,0, ,
1, ,0, ,
2, ,0, ,
2, ,0, ,
1, ,0, ,
2, ,0, ,
1, ,0, ,
1, ,0, ,
1, ,0, ,
1, ,0, ,
2, ,0, ,
2, ,0, ,
2, ,0, ,
3, ,0, ,
2, ,0, ,
2, ,0, ,
2, ,0, ,
1, ,0, ,
2, ,0, ,
2, ,0, ,
2, ,0, ,
2, ,0, ,
2, ,0, ,
2, ,0, ,
3, ,0, ,
1, ,0, ,
3, ,0, ,
3, ,0, ,
1, ,0, ,
2, ,0, ,
2, ,0, ,
1, ,0, ,
3, ,-1, ,
2, ,-1, ,
3, ,-1, ,
3, ,0, ,
3, ,0, ,
2, ,0, ,
0, ,0, ,
2, ,0, ,
2, ,0, ,
2, ,0, ,
2, ,0, ,
1, ,0, ,
-2, ,0, ,
-5, ,0, ,
-9, ,0, ,
-33, ,0, ,
-55, ,0, ,
-91, ,0, ,
-126, ,0, ,
-126, ,0, ,
-126, ,0, ,
-126, ,0, ,
-126, ,0, ,
-126, ,0, ,
-126, ,0, ,
-126, ,0, ,
-126, ,0, ,
-126, ,0, ,
-126, ,0, ,
-126, ,0, ,
-126, ,0, ,
-126, ,0, ,
-126, ,0, ,
-126, ,0, ,
-126, ,0, ,
-126, ,0, ,
-126, ,0, ,
-126, ,0, ,
-126, ,0, ,
-126, ,0, ,
-126, ,0, ,
-119, ,0, ,
-111, ,-1, ,
125, ,-1, ,
125, ,0, ,
125, ,-1, ,
125, ,-1, ,
125, ,0, ,
125, ,0, ,
125, ,0, ,
125, ,0, ,
125, ,0, ,
125, ,0, ,
125, ,0, ,
125, ,0, ,
125, ,0, ,
125, ,0, ,
125, ,0, ,
125, ,0, ,
125, ,0, ,
125, ,0, ,
125, ,0, ,
125, ,0, ,
125, ,0, ,
125, ,0, ,
125, ,0, ,
125, ,0, ,
125, ,0, ,
125, ,0, ,
125, ,0, ,
124, ,0, ,
123, ,0, ,
118, ,0, ,
113, ,0, ,
111, ,0, ,
103, ,0, ,
97, ,0, ,
95, ,0, ,
91, ,0, ,
83, ,0, ,
81, ,0, ,
79, ,0, ,
76, ,0, ,
70, ,0, ,
66, ,0, ,
63, ,0, ,
59, ,0, ,
51, ,0, ,
48, ,0, ,
43, ,0, ,
38, ,0, ,
32, ,0, ,
30, ,0, ,
30, ,0, ,
30, ,0, ,
30, ,0, ,
32, ,0, ,
31, ,0, ,
32, ,0, ,
32, ,0, ,
31, ,0, ,
32, ,0, ,
30, ,0, ,
29, ,0, ,
29, ,0, ,
27, ,0, ,
26, ,0, ,
25, ,0, ,
24, ,0, ,
24, ,0, ,
22, ,0, ,
19, ,0, ,
20, ,0, ,
18, ,0, ,
18, ,0, ,
16, ,0, ,
15, ,0, ,
15, ,0, ,
13, ,0, ,
11, ,0, ,
10, ,0, ,
9, ,0, ,
9, ,0, ,
6, ,0, ,
3, ,0, ,
3, ,0, ,
0, ,0, ,
-1, ,0, ,
-1, ,0, ,
-3, ,0, ,
-3, ,0, ,
-3, ,0, ,
-4, ,0, ,
-4, ,0, ,
-4, ,0, ,
-4, ,0, ,
-3, ,0, ,
-6, ,0, ,
-6, ,0, ,
-10, ,0, ,
-15, ,0, ,
-19, ,0, ,
-25, ,0, ,
-45, ,0, ,
-58, ,0, ,
-76, ,0, ,
-91, ,0, ,
-124, ,0, ,
-126, ,0, ,
-126, ,0, ,
-126, ,0, ,
-126, ,0, ,
-126, ,0, ,
-126, ,0, ,
-126, ,0, ,
-119, ,0, ,
-107, ,0, ,
-93, ,0, ,
-78, ,0, ,
-48, ,0, ,
-33, ,0, ,
-20, ,0, ,
-7, ,0, ,
14, ,0, ,
22, ,0, ,
32, ,0, ,
37, ,0, ,
47, ,0, ,
54, ,0, ,
54, ,0, ,
59, ,0, ,
62, ,0, ,
62, ,0, ,
63, ,0, ,
61, ,0, ,
61, ,0, ,
60, ,0, ,
57, ,0, ,
58, ,0, ,
52, ,0, ,
50, ,0, ,
49, ,0, ,
44, ,0, ,
38, ,0, ,
38, ,0, ,
35, ,0, ,
31, ,0, ,
28, ,0, ,
24, ,0, ,
22, ,0, ,
20, ,0, ,
14, ,0, ,
13, ,0, ,
10, ,0, ,
10, ,0, ,
4, ,0, ,
3, ,0, ,
1, ,0, ,
-3, ,0, ,
-10, ,0, ,
-13, ,0, ,
-20, ,0, ,
-25, ,0, ,
-37, ,0, ,
-45, ,0, ,
-52, ,0, ,
-59, ,0, ,
-73, ,0, ,
-78, ,0, ,
-84, ,0, ,
-89, ,0, ,
-96, ,0, ,
-100, ,0, ,
-100, ,0, ,
-101, ,0, ,
-101, ,0, ,
-98, ,0, ,
-98, ,0, ,
-91, ,0, ,
-83, ,0, ,
-76, ,0, ,
-69, ,0, ,
-63, ,0, ,
-48, ,0, ,
-39, ,0, ,
-34, ,0, ,
-24, ,0, ,
-10, ,0, ,
-4, ,0, ,
3, ,0, ,
6, ,0, ,
16, ,0, ,
21, ,0, ,
24, ,0, ,
28, ,0, ,
33, ,0, ,
34, ,0, ,
36, ,0, ,
37, ,0, ,
39, ,0, ,
40, ,0, ,
40, ,0, ,
40, ,0, ,
38, ,0, ,
36, ,0, ,
36, ,0, ,
34, ,0, ,
31, ,0, ,
29, ,0, ,
26, ,0, ,
26, ,0, ,
24, ,0, ,
22, ,0, ,
20, ,0, ,
18, ,0, ,
14, ,0, ,
11, ,-1, ,
9, ,-1, ,
7, ,-1, ,
0, ,0, ,
-5, ,0, ,
-6, ,0, ,
-10, ,0, ,
-16, ,0, ,
-16, ,0, ,
-20, ,0, ,
-20, ,0, ,
-23, ,0, ,
-25, ,0, ,
-26, ,0, ,
-28, ,0, ,
-35, ,0, ,
-38, ,-1, ,
-45, ,-1, ,
-52, ,-1, ,
-75, ,0, ,
-88, ,0, ,
-101, ,0, ,
-115, ,0, ,
-126, ,0, ,
-126, ,0, ,
-126, ,0, ,
-126, ,-1, ,
-126, ,-1, ,
-126, ,0, ,
-126, ,0, ,
-126, ,0, ,
-126, ,0, ,
-126, ,0, ,
-126, ,0, ,
-126, ,0, ,
-126, ,0, ,
-126, ,0, ,
-126, ,0, ,
-126, ,0, ,
-126, ,0, ,
-126, ,0, ,
-126, ,0, ,
-126, ,0, ,
-125, ,0, ,
-115, ,0, ,
-105, ,0, ,
-98, ,0, ,
-88, ,0, ,
-83, ,0, ,
-83, ,0, ,
-81, ,0, ,
-81, ,0, ,
-82, ,0, ,
-78, ,0, ,
-79, ,0, ,
-71, ,0, ,
-64, ,0, ,
-58, ,0, ,
-47, ,0, ,
-27, ,0, ,
-14, ,0, ,
1, ,0, ,
12, ,0, ,
41, ,0, ,
55, ,0, ,
68, ,0, ,
80, ,0, ,
97, ,0, ,
103, ,0, ,
108, ,0, ,
109, ,0, ,
108, ,0, ,
106, ,0, ,
101, ,0, ,
97, ,0, ,
83, ,0, ,
73, ,0, ,
64, ,0, ,
53, ,0, ,
37, ,0, ,
29, ,0, ,
22, ,0, ,
17, ,0, ,
8, ,0, ,
7, ,0, ,
7, ,0, ,
6, ,0, ,
10, ,0, ,
14, ,0, ,
18, ,0, ,
23, ,0, ,
35, ,0, ,
37, ,0, ,
43, ,0, ,
47, ,0, ,
55, ,0, ,
60, ,0, ,
60, ,0, ,
63, ,0, ,
63, ,0, ,
63, ,0, ,
61, ,0, ,
56, ,0, ,
48, ,0, ,
44, ,0, ,
35, ,0, ,
30, ,0, ,
17, ,0, ,
8, ,0, ,
2, ,0, ,
-7, ,0, ,
-19, ,0, ,
-23, ,0, ,
-28, ,0, ,
-30, ,0, ,
-32, ,-1, ,
-33, ,-1, ,
-31, ,-1, ,
-30, ,0, ,
-23, ,0, ,
-18, ,0, ,
-15, ,0, ,
-8, ,0, ,
5, ,0, ,
9, ,0, ,
17, ,0, ,
22, ,0, ,
34, ,0, ,
40, ,0, ,
44, ,0, ,
50, ,0, ,
56, ,0, ,
59, ,0, ,
62, ,0, ,
60, ,0, ,
62, ,0, ,
63, ,0, ,
59, ,0, ,
57, ,0, ,
54, ,0, ,
51, ,0, ,
48, ,0, ,
44, ,0, ,
38, ,0, ,
36, ,0, ,
35, ,0, ,
33, ,0, ,
28, ,-1, ,
27, ,-1, ,
27, ,-1, ,
23, ,0, ,
23, ,0, ,
23, ,0, ,
22, ,0, ,
24, ,0, ,
25, ,0, ,
26, ,0, ,
28, ,0, ,
30, ,0, ,
32, ,0, ,
35, ,0, ,
35, ,0, ,
37, ,0, ,
38, ,0, ,
38, ,0, ,
38, ,0, ,
36, ,0, ,
33, ,0, ,
34, ,0, ,
29, ,0, ,
27, ,0, ,
19, ,0, ,
14, ,0, ,
12, ,0, ,
7, ,0, ,
-1, ,0, ,
-6, ,0, ,
-10, ,0, ,
-12, ,0, ,
-20, ,-1, ,
-23, ,-1, ,
-26, ,-1, ,
-30, ,0, ,
-31, ,0, ,
-32, ,0, ,
-33, ,0, ,
-32, ,0, ,
-29, ,0, ,
-29, ,0, ,
-26, ,0, ,
-25, ,0, ,
-21, ,0, ,
-17, ,-1, ,
-15, ,-1, ,
-12, ,-1, ,
-9, ,0, ,
-9, ,0, ,
-7, ,0, ,
-7, ,0, ,
-6, ,0, ,
-6, ,0, ,
-7, ,0, ,
-6, ,0, ,
-11, ,0, ,
-12, ,0, ,
-13, ,0, ,
-17, ,0, ,
-21, ,0, ,
-22, ,0, ,
-25, ,0, ,
-28, ,0, ,
-32, ,0, ,
-33, ,0, ,
-35, ,0, ,
-38, ,0, ,
-42, ,0, ,
-42, ,0, ,
-44, ,0, ,
-44, ,0, ,
-46, ,0, ,
-48, ,0, ,
-48, ,0, ,
-48, ,0, ,
-48, ,0, ,
-48, ,0, ,
-49, ,0, ,
-49, ,0, ,
-50, ,0, ,
-51, ,0, ,
-51, ,0, ,
-52, ,0, ,
-53, ,-1, ,
-54, ,-1, ,
-55, ,0, ,
-56, ,0, ,
-58, ,0, ,
-58, ,0, ,
-58, ,0, ,
-58, ,0, ,
-57, ,0, ,
-55, ,0, ,
-54, ,0, ,
-51, ,0, ,
-47, ,0, ,
-45, ,0, ,
-41, ,0, ,
-39, ,0, ,
-33, ,0, ,
-29, ,0, ,
-26, ,0, ,
-23, ,0, ,
-15, ,0, ,
-12, ,0, ,
-8, ,0, ,
-7, ,0, ,
1, ,0, ,
4, ,0, ,
8, ,0, ,
12, ,0, ,
18, ,0, ,
21, ,0, ,
26, ,0, ,
29, ,0, ,
35, ,0, ,
40, ,0, ,
42, ,0, ,
45, ,0, ,
52, ,0, ,
55, ,0, ,
60, ,-1, ,
63, ,-1, ,
65, ,0, ,
70, ,0, ,
70, ,0, ,
73, ,0, ,
74, ,0, ,
73, ,0, ,
73, ,0, ,
71, ,0, ,
68, ,0, ,
66, ,0, ,
63, ,0, ,
61, ,0, ,
54, ,0, ,
49, ,0, ,
48, ,0, ,
44, ,0, ,
38, ,0, ,
36, ,0, ,
33, ,0, ,
32, ,0, ,
28, ,0, ,
24, ,0, ,
24, ,0, ,
21, ,0, ,
17, ,0, ,
15, ,0, ,
11, ,0, ,
10, ,0, ,
4, ,0, ,
-2, ,0, ,
-5, ,0, ,
-9, ,0, ,
-19, ,0, ,
-23, ,0, ,
-28, ,0, ,
-31, ,0, ,
-38, ,0, ,
-44, ,0, ,
-46, ,0, ,
-51, ,0, ,
-55, ,0, ,
-55, ,0, ,
-56, ,0, ,
-56, ,0, ,
-53, ,0, ,
-53, ,0, ,
-48, ,0, ,
-46, ,0, ,
-38, ,0, ,
-34, ,0, ,
-31, ,0, ,
-25, ,0, ,
-19, ,0, ,
-14, ,0, ,
-9, ,0, ,
-10, ,0, ,
-5, ,0, ,
-3, ,0, ,
-4, ,0, ,
-4, ,-1, ,
-4, ,-1, ,
-6, ,0, ,
-7, ,0, ,
-8, ,0, ,
-12, ,0, ,
-11, ,0, ,
-15, ,0, ,
-14, ,0, ,
-16, ,0, ,
-18, ,0, ,
-17, ,0, ,
-18, ,0, ,
-17, ,0, ,
-17, ,0, ,
-17, ,0, ,
-15, ,0, ,
-13, ,0, ,
-10, ,0, ,
-10, ,0, ,
-8, ,0, ,
-5, ,0, ,
-4, ,0, ,
-2, ,0, ,
0, ,0, ,
1, ,0, ,
2, ,0, ,
2, ,0, ,
1, ,0, ,
0, ,0, ,
0, ,0, ,
-2, ,0, ,
-2, ,0, ,
-3, ,0, ,
-5, ,0, ,
-6, ,0, ,
-6, ,0, ,
-8, ,0, ,
-8, ,0, ,
-9, ,0, ,
-8, ,0, ,
-9, ,0, ,
-10, ,0, ,
-10, ,0, ,
-11, ,0, ,
-10, ,0, ,
-9, ,0, ,
-10, ,0, ,
-8, ,0, ,
-7, ,0, ,
-8, ,0, ,
-6, ,0, ,
-6, ,0, ,
-7, ,0, ,
-7, ,0, ,
-8, ,0, ,
-7, ,0, ,
-8, ,0, ,
-10, ,0, ,
-11, ,0, ,
-13, ,0, ,
-15, ,0, ,
-15, ,0, ,
-18, ,0, ,
-18, ,0, ,
-18, ,0, ,
-19, ,0, ,
-19, ,0, ,
-17, ,0, ,
-16, ,0, ,
-15, ,0, ,
-14, ,0, ,
-12, ,0, ,
-10, ,0, ,
-8, ,0, ,
-7, ,0, ,
-6, ,0, ,
-2, ,-1, ,
1, ,-1, ,
1, ,0, ,
3, ,0, ,
6, ,0, ,
6, ,0, ,
8, ,0, ,
7, ,0, ,
8, ,0, ,
8, ,0, ,
7, ,0, ,
7, ,0, ,
4, ,0, ,
3, ,0, ,
2, ,0, ,
-1, ,0, ,
-5, ,0, ,
-5, ,0, ,
-8, ,0, ,
-8, ,0, ,
-13, ,0, ,
-16, ,0, ,
-16, ,0, ,
-18, ,0, ,
-22, ,0, ,
-23, ,0, ,
-23, ,0, ,
-24, ,0, ,
-26, ,0, ,
-29, ,0, ,
-28, ,0, ,
-30, ,0, ,
-30, ,0, ,
-30, ,0, ,
-31, ,0, ,
-30, ,0, ,
-29, ,0, ,
-30, ,0, ,
-25, ,0, ,
-27, ,0, ,
-24, ,0, ,
-22, ,0, ,
-20, ,0, ,
-17, ,0, ,
-12, ,0, ,
-11, ,0, ,
-9, ,0, ,
-6, ,0, ,
0, ,0, ,
3, ,0, ,
5, ,0, ,
9, ,0, ,
15, ,0, ,
15, ,0, ,
18, ,0, ,
20, ,0, ,
24, ,0, ,
27, ,0, ,
29, ,0, ,
31, ,0, ,
33, ,0, ,
34, ,0, ,
35, ,0, ,
35, ,0, ,
35, ,0, ,
35, ,0, ,
35, ,0, ,
35, ,0, ,
34, ,0, ,
32, ,0, ,
33, ,0, ,
31, ,0, ,
29, ,0, ,
29, ,-1, ,
27, ,-1, ,
26, ,-1, ,
22, ,0, ,
20, ,0, ,
19, ,0, ,
18, ,0, ,
14, ,0, ,
14, ,0, ,
10, ,0, ,
9, ,0, ,
5, ,0, ,
2, ,0, ,
3, ,0, ,
-1, ,0, ,
-3, ,0, ,
-4, ,0, ,
-5, ,0, ,
-5, ,0, ,
-8, ,0, ,
-9, ,0, ,
-9, ,0, ,
-11, ,0, ,
-13, ,0, ,
-12, ,0, ,
-15, ,0, ,
-15, ,0, ,
-16, ,0, ,
-20, ,0, ,
-20, ,0, ,
-21, ,0, ,
-23, ,0, ,
-23, ,0, ,
-24, ,0, ,
-25, ,0, ,
-26, ,0, ,
-26, ,0, ,
-26, ,0, ,
-27, ,0, ,
-28, ,0, ,
-26, ,0, ,
-27, ,0, ,
-25, ,0, ,
-24, ,-1, ,
-24, ,-1, ,
-22, ,-1, ,
-22, ,-1, ,
-19, ,0, ,
-17, ,0, ,
-15, ,0, ,
-14, ,0, ,
-10, ,0, ,
-9, ,0, ,
-7, ,0, ,
-5, ,0, ,
-2, ,0, ,
-2, ,0, ,
-1, ,0, ,
2, ,0, ,
5, ,0, ,
5, ,0, ,
7, ,0, ,
7, ,0, ,
10, ,0, ,
12, ,0, ,
12, ,0, ,
15, ,0, ,
17, ,-1, ,
18, ,-1, ,
20, ,-1, ,
20, ,0, ,
21, ,0, ,
23, ,0, ,
24, ,0, ,
25, ,0, ,
24, ,0, ,
23, ,0, ,
23, ,0, ,
22, ,0, ,
21, ,0, ,
20, ,0, ,
19, ,0, ,
20, ,0, ,
17, ,0, ,
14, ,0, ,
15, ,0, ,
11, ,0, ,
10, ,-1, ,
8, ,-1, ,
6, ,0, ,
7, ,0, ,
5, ,0, ,
3, ,0, ,
1, ,0, ,
0, ,0, ,
-2, ,0, ,
-1, ,0, ,
-2, ,0, ,
-1, ,0, ,
-3, ,0, ,
-4, ,0, ,
-3, ,0, ,
-5, ,0, ,
-5, ,0, ,
-5, ,0, ,
-7, ,0, ,
-7, ,0, ,
-8, ,0, ,
-10, ,0, ,
-10, ,0, ,
-10, ,0, ,
-11, ,0, ,
-11, ,0, ,
-12, ,0, ,
-11, ,0, ,
-11, ,0, ,
-10, ,0, ,
-10, ,0, ,
-11, ,0, ,
-9, ,0, ,
-6, ,0, ,
-7, ,0, ,
-4, ,0, ,
-1, ,-1, ,
-2, ,-1, ,
1, ,0, ,
2, ,0, ,
4, ,0, ,
5, ,0, ,
7, ,0, ,
8, ,0, ,
10, ,0, ,
9, ,0, ,
12, ,0, ,
10, ,0, ,
11, ,0, ,
11, ,0, ,
10, ,0, ,
10, ,0, ,
10, ,0, ,
8, ,0, ,
7, ,0, ,
5, ,0, ,
3, ,0, ,
3, ,0, ,
0, ,0, ,
0, ,0, ,
-3, ,0, ,
-4, ,0, ,
-4, ,0, ,
-5, ,0, ,
-7, ,0, ,
-6, ,0, ,
-9, ,0, ,
-8, ,0, ,
-10, ,0, ,
-10, ,0, ,
-10, ,0, ,
-11, ,0, ,
-10, ,0, ,
-9, ,0, ,
-9, ,0, ,
-9, ,0, ,
-9, ,0, ,
-9, ,0, ,
-9, ,0, ,
-10, ,0, ,
-10, ,0, ,
-9, ,0, ,
-9, ,0, ,
-9, ,0, ,
-10, ,0, ,
-10, ,0, ,
-10, ,0, ,
-10, ,0, ,
-10, ,0, ,
-9, ,0, ,
-10, ,0, ,
-9, ,0, ,
-10, ,0, ,
-9, ,0, ,
-8, ,0, ,
-10, ,0, ,
-7, ,0, ,
-7, ,0, ,
-7, ,0, ,
-6, ,0, ,
-5, ,0, ,
-7, ,0, ,
-4, ,0, ,
-4, ,0, ,
-4, ,0, ,
-1, ,0, ,
0, ,0, ,
0, ,0, ,
1, ,0, ,
0, ,0, ,
2, ,0, ,
2, ,0, ,
5, ,0, ,
5, ,0, ,
4, ,0, ,
5, ,0, ,
6, ,0, ,
6, ,0, ,
8, ,0, ,
8, ,0, ,
8, ,0, ,
9, ,-1, ,
9, ,-1, ,
9, ,-1, ,
10, ,0, ,
9, ,0, ,
9, ,0, ,
9, ,0, ,
9, ,0, ,
9, ,0, ,
9, ,0, ,
9, ,0, ,
9, ,0, ,
8, ,0, ,
7, ,0, ,
7, ,0, ,
4, ,0, ,
4, ,0, ,
3, ,0, ,
3, ,-1, ,
2, ,-1, ,
1, ,0, ,
0, ,0, ,
-1, ,0, ,
-2, ,0, ,
-2, ,0, ,
-4, ,0, ,
-3, ,0, ,
-5, ,0, ,
-6, ,0, ,
-6, ,0, ,
-8, ,0, ,
-9, ,0, ,
-8, ,0, ,
-10, ,0, ,
-10, ,0, ,
-11, ,0, ,
-12, ,0, ,
-11, ,0, ,
-12, ,0, ,
-12, ,0, ,
-12, ,0, ,
-13, ,0, ,
-12, ,-1, ,
-11, ,-1, ,
-12, ,0, ,
-10, ,0, ,
-10, ,0, ,
-9, ,0, ,
-9, ,0, ,
-9, ,0, ,
-8, ,0, ,
-7, ,0, ,
-6, ,0, ,
-4, ,0, ,
-5, ,0, ,
-3, ,0, ,
-2, ,0, ,
0, ,0, ,
0, ,0, ,
2, ,0, ,
1, ,0, ,
3, ,0, ,
2, ,0, ,
5, ,0, ,
6, ,0, ,
4, ,0, ,
7, ,0, ,
7, ,0, ,
6, ,0, ,
8, ,-1, ,
8, ,-1, ,
8, ,0, ,
9, ,0, ,
8, ,0, ,
9, ,0, ,
9, ,0, ,
9, ,0, ,
8, ,0, ,
9, ,0, ,
7, ,0, ,
7, ,-1, ,
7, ,-1, ,
7, ,-1, ,
5, ,0, ,
5, ,0, ,
5, ,0, ,
3, ,0, ,
3, ,0, ,
3, ,0, ,
2, ,0, ,
2, ,0, ,
1, ,0, ,
0, ,0, ,
0, ,0, ,
-1, ,0, ,
-2, ,0, ,
-2, ,0, ,
-2, ,0, ,
-2, ,0, ,
-3, ,0, ,
-3, ,0, ,
-4, ,0, ,
-4, ,0, ,
-4, ,0, ,
-4, ,0, ,
-5, ,0, ,
-5, ,0, ,
-5, ,0, ,
-5, ,0, ,
-5, ,0, ,
-5, ,0, ,
-5, ,0, ,
-4, ,0, ,
-5, ,0, ,
-3, ,0, ,
-4, ,0, ,
-2, ,0, ,
-2, ,0, ,
-2, ,0, ,
-1, ,0, ,
-1, ,0, ,
-1, ,0, ,
0, ,-1, ,
1, ,-1, ,
1, ,0, ,
1, ,0, ,
2, ,0, ,
2, ,0, ,
2, ,0, ,
2, ,0, ,
1, ,0, ,
1, ,0, ,
2, ,0, ,
2, ,0, ,
0, ,0, ,
1, ,0, ,
1, ,0, ,
0, ,0, ,
0, ,0, ,
0, ,0, ,
0, ,0, ,
0, ,-1, ,
-1, ,-1, ,
-1, ,0, ,
0, ,0, ,
-1, ,0, ,
-1, ,0, ,
-1, ,0, ,
-1, ,0, ,
-2, ,0, ,
-2, ,0, ,
-2, ,0, ,
-1, ,0, ,
-2, ,0, ,
-2, ,0, ,
-2, ,0, ,
-1, ,0, ,
0, ,0, ,
0, ,0, ,
0, ,0, ,
0, ,0, ,
0, ,0, ,
1, ,0, ,
2, ,0, ,
0, ,0, ,
2, ,0, ,
1, ,0, ,
1, ,0, ,
3, ,0, ,
3, ,0, ,
5, ,0, ,
4, ,0, ,
3, ,0, ,
4, ,0, ,
1, ,0, ,
2, ,0, ,
4, ,0, ,
2, ,0, ,
2, ,0, ,
2, ,0, ,
1, ,0, ,
2, ,0, ,
1, ,0, ,
2, ,0, ,
1, ,0, ,
1, ,0, ,
0, ,0, ,
0, ,0, ,
0, ,0, ,
0, ,0, ,
0, ,0, ,
1, ,0, ,
1, ,0, ,
1, ,0, ,
1, ,0, ,
3, ,-1, ,
3, ,-1, ,
3, ,-1, ,
2, ,0, ,
3, ,0, ,
5, ,0, ,
5, ,0, ,
5, ,0, ,
6, ,0, ,
6, ,0, ,
6, ,0, ,
7, ,0, ,
9, ,0, ,
8, ,-1, ,
7, ,-1, ,
10, ,-1, ,
10, ,0, ,
10, ,0, ,
10, ,0, ,
10, ,0, ,
10, ,0, ,
10, ,0, ,
10, ,0, ,
9, ,0, ,
8, ,0, ,
8, ,0, ,
8, ,0, ,
8, ,0, ,
8, ,0, ,
8, ,0, ,
8, ,0, ,
7, ,0, ,
6, ,0, ,
6, ,0, ,
7, ,0, ,
6, ,0, ,
6, ,0, ,
7, ,0, ,
6, ,0, ,
6, ,0, ,
4, ,0, ,
4, ,0, ,
4, ,0, ,
4, ,0, ,
3, ,0, ,
4, ,0, ,
3, ,0, ,
3, ,0, ,
2, ,0, ,
2, ,0, ,
2, ,0, ,
1, ,0, ,
2, ,0, ,
2, ,0, ,
1, ,0, ,
1, ,0, ,
0, ,0, ,
0, ,0, ,
1, ,0, ,
1, ,0, ,
1, ,0, ,
1, ,0, ,
1, ,0, ,
1, ,0, ,
1, ,0, ,
0, ,0, ,
0, ,0, ,
-1, ,0, ,
1, ,0, ,
1, ,0, ,
0, ,0, ,
1, ,0, ,
0, ,0, ,
0, ,0, ,
0, ,0, ,
0, ,0, ,
0, ,0, ,
0, ,0, ,
0, ,0, ,
0, ,0, ,
0, ,0, ,
0, ,0, ,
0, ,0, ,
0, ,0, ,
0, ,0, ,
0, ,0, ,
-1, ,0, ,
0, ,0, ,
0, ,0, ,
-1, ,0, ,
0, ,0, ,
0, ,0, ,
-1, ,0, ,
0, ,0, ,
0, ,0, ,
0, ,0, ,
0, ,0, ,
0, ,0, ,
0, ,0, ,
0, ,0, ,
-2, ,0, ,
0, ,0, ,
-2, ,0, ,
-1, ,0, ,
-1, ,0, ,
-1, ,0, ,
-1, ,0, ,
-2, ,0, ,
-2, ,0, ,
-1, ,0, ,
-2, ,0, ,
0, ,0, ,
-1, ,0, ,
-1, ,0, ,
-1, ,0, ,
-2, ,0, ,
-1, ,0, ,
-1, ,0, ,
-2, ,0, ,
0, ,0, ,
-1, ,0, ,
-1, ,0, ,
-1, ,0, ,
-1, ,0, ,
-1, ,0, ,
-1, ,0, ,
-1, ,0, ,
0, ,0, ,
0, ,0, ,
0, ,0, ,
0, ,0, ,
0, ,0, ,
0, ,-1, ,
0, ,-1, ,
0, ,0, ,
0, ,0, ,
0, ,0, ,
0, ,0, ,
0, ,0, ,
0, ,0, ,
0, ,0, ,
0, ,0, ,
0, ,0, ,
0, ,0, ,
0, ,0, ,
0, ,0, ,
0, ,0, ,
-1, ,0, ,
-1, ,0, ,
0, ,0, ,
-1, ,0, ,
0, ,0, ,
0, ,0, ,
-1, ,0, ,
-1, ,0, ,
-1, ,0, ,
0, ,0, ,
0, ,0, ,
0, ,0, ,
0, ,0, ,
0, ,0, ,
0, ,0, ,
0, ,0, ,
-1, ,0, ,
0, ,0, ,
0, ,0, ,
0, ,0, ,
0, ,0, ,
1, ,0, ,
0, ,0, ,
1, ,0, ,
1, ,0, ,
0, ,0, ,
0, ,0, ,
0, ,0, ,
0, ,0, ,
1, ,0, ,
1, ,0, ,
2, ,0, ,
1, ,0, ,
1, ,0, ,
2, ,0, ,
1, ,0, ,
2, ,0, ,
3, ,0, ,
1, ,0, ,
2, ,0, ,
1, ,0, ,
2, ,0, ,
2, ,0, ,
2, ,0, ,
3, ,0, ,
3, ,0, ,
3, ,0, ,
3, ,0, ,
3, ,0, ,
3, ,0, ,
4, ,0, ,
3, ,0, ,
4, ,0, ,
5, ,0, ,
4, ,0, ,
5, ,0, ,
5, ,0, ,
5, ,0, ,
5, ,0, ,
5, ,0, ,
6, ,0, ,
6, ,0, ,
6, ,0, ,
7, ,0, ,
6, ,0, ,
6, ,0, ,
7, ,0, ,
7, ,0, ,
8, ,0, ,
9, ,0, ,
7, ,0, ,
7, ,0, ,
7, ,0, ,
8, ,0, ,
8, ,0, ,
7, ,0, ,
8, ,0, ,
9, ,0, ,
6, ,0, ,
8, ,0, ,
8, ,0, ,
9, ,0, ,
9, ,0, ,
8, ,0, ,
8, ,0, ,
9, ,0, ,
9, ,0, ,
9, ,0, ,
9, ,0, ,
9, ,0, ,
10, ,0, ,
10, ,0, ,
10, ,0, ,
10, ,0, ,
10, ,0, ,
10, ,0, ,
10, ,0, ,
10, ,0, ,
10, ,0, ,
10, ,0, ,
10, ,0, ,
10, ,0, ,
10, ,0, ,
10, ,0, ,
9, ,0, ,
8, ,0, ,
9, ,0, ,
8, ,0, ,
9, ,0, ,
8, ,0, ,
8, ,0, ,
8, ,0, ,
8, ,0, ,
8, ,0, ,
8, ,0, ,
8, ,0, ,
8, ,0, ,
7, ,0, ,
7, ,0, ,
6, ,0, ,
6, ,0, ,
6, ,0, ,
6, ,0, ,
5, ,0, ,
5, ,0, ,
5, ,-1, ,
5, ,-1, ,
5, ,-1, ,
5, ,0, ,
5, ,0, ,
5, ,0, ,
5, ,0, ,
5, ,0, ,
5, ,0, ,
5, ,0, ,
5, ,0, ,
5, ,0, ,
4, ,0, ,
4, ,0, ,
3, ,0, ,
4, ,0, ,
4, ,0, ,
4, ,0, ,
3, ,0, ,
2, ,0, ,
3, ,0, ,
4, ,0, ,
2, ,0, ,
2, ,0, ,
2, ,0, ,
2, ,0, ,
1, ,0, ,
1, ,0, ,
1, ,0, ,
1, ,0, ,
0, ,0, ,
2, ,0, ,
1, ,0, ,
1, ,0, ,
1, ,0, ,
0, ,0, ,
1, ,0, ,
1, ,0, ,
0, ,0, ,
0, ,0, ,
0, ,0, ,
0, ,0, ,
0, ,0, ,
0, ,0, ,
-1, ,0, ,
-1, ,0, ,
-1, ,0, ,
-1, ,0, ,
-1, ,0, ,
-1, ,0, ,
-1, ,0, ,
-1, ,0, ,
-2, ,0, ,
-2, ,0, ,
-2, ,0, ,
-2, ,0, ,
-2, ,0, ,
-3, ,0, ,
-3, ,0, ,
-3, ,0, ,
-4, ,0, ,
-3, ,0, ,
-3, ,0, ,
-3, ,0, ,
-2, ,-1, ,
-3, ,-1, ,
-2, ,-1, ,
-4, ,0, ,
-4, ,0, ,
-2, ,0, ,
-3, ,0, ,
-3, ,0, ,
-2, ,0, ,
-3, ,0, ,
-2, ,0, ,
-4, ,0, ,
-2, ,0, ,
-1, ,0, ,
-2, ,0, ,
-2, ,0, ,
-2, ,0, ,
-2, ,0, ,
-2, ,0, ,
-2, ,0, ,
-1, ,0, ,
-1, ,0, ,
-1, ,0, ,
0, ,0, ,
-1, ,0, ,
