raw_data/100% Glycerol, Impulsion 2Hz, Sonde 5MHz, Rampe 0.7Hz/temp0000113.CSV

Format,1.0B,
Memory Length,10000,Memory Length,10000,
IntpDistance,0,IntpDistance,0,
Trigger Address,159,Trigger Address,159,
Trigger Level,2.720E-01,Trigger Level,2.720E-01,
Source,CH1,Source,CH2,
Vertical Units,V,Vertical Units,V,
Vertical Units Div,0,Vertical Units Div,0,
Vertical Units Extend Div,16,Vertical Units Extend Div,16,
Label,,Label,,
Probe Type,0,Probe Type,0,
Probe Ratio,1.000e+00,Probe Ratio,1.000e+00,
Vertical Scale,2.000e-01,Vertical Scale,2.000e+00,
Vertical Position,0.000e+00,Vertical Position,0.000e+00,
Horizontal Units,S,Horizontal Units,S,
Horizontal Scale,5.000E-06,Horizontal Scale,5.000E-06,
Horizontal Position,2.420E-05,Horizontal Position,2.420E-05,
Horizontal Mode,Main,Horizontal Mode,Main,
SincET Mode,Real Time,SincET Mode,Real Time,
Sampling Period,5.000e-09,Sampling Period,5.000e-09,
Horizontal Old Scale,5.000E-06,Horizontal Old Scale,5.000E-06,
Horizontal Old Position,2.420E-05,Horizontal Old Position,2.420E-05,
Firmware,V1.32,Firmware,V1.32,
Mode,Fast,Mode,Fast,
Waveform Data,,Waveform Data,,
1, ,-31, ,
1, ,-31, ,
2, ,-30, ,
2, ,-30, ,
1, ,-30, ,
1, ,-30, ,
1, ,-31, ,
1, ,-31, ,
1, ,-30, ,
1, ,-31, ,
1, ,-31, ,
2, ,-31, ,
1, ,-31, ,
1, ,-31, ,
1, ,-31, ,
2, ,-31, ,
2, ,-31, ,
1, ,-31, ,
2, ,-30, ,
2, ,-31, ,
1, ,-31, ,
1, ,-30, ,
1, ,-30, ,
1, ,-31, ,
2, ,-31, ,
1, ,-31, ,
2, ,-31, ,
2, ,-31, ,
1, ,-30, ,
1, ,-31, ,
1, ,-31, ,
1, ,-31, ,
2, ,-30, ,
1, ,-31, ,
1, ,-31, ,
1, ,-31, ,
0, ,-31, ,
2, ,-30, ,
1, ,-31, ,
1, ,-31, ,
1, ,-30, ,
1, ,-31, ,
1, ,-31, ,
2, ,-30, ,
2, ,-30, ,
2, ,-30, ,
1, ,-30, ,
2, ,-31, ,
2, ,-31, ,
1, ,-31, ,
2, ,-30, ,
2, ,-31, ,
1, ,-31, ,
1, ,-31, ,
1, ,-31, ,
1, ,-30, ,
2, ,-30, ,
1, ,-31, ,
1, ,-31, ,
2, ,-31, ,
1, ,-31, ,
1, ,-30, ,
1, ,-30, ,
2, ,-30, ,
2, ,-30, ,
0, ,-31, ,
2, ,-31, ,
1, ,-30, ,
1, ,-30, ,
2, ,-30, ,
0, ,-31, ,
1, ,-31, ,
3, ,-30, ,
2, ,-30, ,
2, ,-30, ,
2, ,-31, ,
1, ,-31, ,
2, ,-31, ,
1, ,-31, ,
1, ,-30, ,
2, ,-31, ,
1, ,-31, ,
2, ,-31, ,
2, ,-30, ,
1, ,-30, ,
2, ,-30, ,
1, ,-30, ,
1, ,-30, ,
2, ,-30, ,
1, ,-31, ,
2, ,-31, ,
2, ,-31, ,
1, ,-31, ,
1, ,-30, ,
1, ,-30, ,
1, ,-31, ,
1, ,-31, ,
1, ,-31, ,
2, ,-30, ,
3, ,-30, ,
1, ,-31, ,
1, ,-31, ,
1, ,-31, ,
0, ,-31, ,
2, ,-30, ,
1, ,-30, ,
2, ,-30, ,
2, ,-31, ,
1, ,-31, ,
2, ,-30, ,
1, ,-31, ,
1, ,-31, ,
1, ,-30, ,
1, ,-30, ,
2, ,-30, ,
2, ,-31, ,
1, ,-31, ,
2, ,-31, ,
1, ,-31, ,
1, ,-30, ,
2, ,-30, ,
1, ,-30, ,
2, ,-30, ,
2, ,-30, ,
1, ,-30, ,
2, ,-30, ,
1, ,-30, ,
2, ,-31, ,
2, ,-31, ,
1, ,-31, ,
1, ,-31, ,
1, ,-30, ,
1, ,-30, ,
3, ,-30, ,
2, ,-31, ,
1, ,-31, ,
2, ,-30, ,
1, ,-31, ,
2, ,-31, ,
2, ,-30, ,
1, ,-31, ,
2, ,-31, ,
0, ,-31, ,
2, ,-31, ,
1, ,-31, ,
1, ,-31, ,
2, ,-30, ,
3, ,-31, ,
1, ,-31, ,
1, ,-31, ,
1, ,-30, ,
1, ,-30, ,
1, ,-30, ,
1, ,-30, ,
1, ,-30, ,
2, ,-30, ,
1, ,-31, ,
2, ,-31, ,
1, ,-31, ,
2, ,-31, ,
2, ,-31, ,
1, ,-31, ,
2, ,-30, ,
4, ,-31, ,
0, ,-31, ,
2, ,-31, ,
-2, ,-30, ,
38, ,-31, ,
105, ,-31, ,
125, ,-31, ,
125, ,-31, ,
124, ,-31, ,
120, ,-31, ,
111, ,-31, ,
-6, ,-31, ,
116, ,-31, ,
125, ,-31, ,
125, ,-31, ,
125, ,-31, ,
125, ,-31, ,
125, ,-31, ,
125, ,-31, ,
125, ,-31, ,
125, ,-31, ,
125, ,-31, ,
125, ,-31, ,
125, ,-30, ,
125, ,-30, ,
125, ,-30, ,
125, ,-30, ,
125, ,-30, ,
125, ,-31, ,
125, ,-31, ,
125, ,-31, ,
125, ,-31, ,
125, ,-31, ,
125, ,-31, ,
125, ,-31, ,
125, ,-31, ,
125, ,-31, ,
125, ,-31, ,
124, ,-31, ,
124, ,-31, ,
118, ,-30, ,
114, ,-31, ,
109, ,-31, ,
104, ,-31, ,
97, ,-31, ,
94, ,-31, ,
88, ,-31, ,
85, ,-31, ,
76, ,-30, ,
73, ,-30, ,
69, ,-30, ,
67, ,-31, ,
59, ,-31, ,
58, ,-31, ,
56, ,-31, ,
55, ,-31, ,
49, ,-30, ,
46, ,-31, ,
44, ,-31, ,
41, ,-31, ,
38, ,-30, ,
36, ,-30, ,
34, ,-30, ,
33, ,-30, ,
31, ,-31, ,
27, ,-31, ,
27, ,-31, ,
24, ,-30, ,
21, ,-31, ,
21, ,-31, ,
19, ,-31, ,
19, ,-31, ,
16, ,-30, ,
16, ,-31, ,
15, ,-31, ,
13, ,-31, ,
12, ,-31, ,
10, ,-31, ,
9, ,-31, ,
9, ,-31, ,
9, ,-31, ,
7, ,-31, ,
7, ,-31, ,
6, ,-31, ,
4, ,-30, ,
5, ,-30, ,
3, ,-31, ,
4, ,-31, ,
3, ,-31, ,
2, ,-31, ,
2, ,-31, ,
1, ,-31, ,
1, ,-31, ,
1, ,-31, ,
-1, ,-31, ,
0, ,-31, ,
0, ,-31, ,
-1, ,-31, ,
-1, ,-31, ,
-2, ,-30, ,
-2, ,-30, ,
-2, ,-30, ,
-2, ,-30, ,
-2, ,-30, ,
-2, ,-30, ,
-2, ,-31, ,
-2, ,-31, ,
-3, ,-31, ,
-4, ,-30, ,
-1, ,-30, ,
-3, ,-30, ,
-3, ,-30, ,
-3, ,-31, ,
-4, ,-31, ,
-3, ,-31, ,
-3, ,-31, ,
-4, ,-31, ,
-4, ,-30, ,
-4, ,-31, ,
-4, ,-31, ,
-3, ,-30, ,
-4, ,-31, ,
-4, ,-31, ,
-4, ,-31, ,
-3, ,-31, ,
-3, ,-31, ,
-3, ,-31, ,
-2, ,-30, ,
-3, ,-31, ,
-4, ,-31, ,
-3, ,-31, ,
-3, ,-31, ,
-3, ,-31, ,
-3, ,-30, ,
-3, ,-31, ,
-4, ,-31, ,
-2, ,-31, ,
-3, ,-31, ,
-3, ,-31, ,
-3, ,-31, ,
-3, ,-31, ,
-3, ,-30, ,
-4, ,-30, ,
-2, ,-30, ,
-2, ,-31, ,
-2, ,-31, ,
-2, ,-31, ,
-2, ,-31, ,
-2, ,-30, ,
-2, ,-30, ,
-2, ,-31, ,
-1, ,-31, ,
-1, ,-31, ,
-2, ,-30, ,
-2, ,-30, ,
-2, ,-30, ,
-2, ,-30, ,
-2, ,-30, ,
-2, ,-31, ,
-1, ,-31, ,
0, ,-30, ,
-1, ,-30, ,
0, ,-30, ,
0, ,-31, ,
0, ,-31, ,
0, ,-30, ,
0, ,-30, ,
0, ,-31, ,
-1, ,-31, ,
0, ,-31, ,
-1, ,-30, ,
-2, ,-30, ,
0, ,-31, ,
0, ,-31, ,
-1, ,-31, ,
0, ,-31, ,
0, ,-31, ,
0, ,-31, ,
1, ,-30, ,
0, ,-30, ,
0, ,-30, ,
0, ,-30, ,
0, ,-31, ,
0, ,-31, ,
1, ,-30, ,
0, ,-31, ,
0, ,-31, ,
-1, ,-31, ,
0, ,-31, ,
0, ,-31, ,
0, ,-31, ,
1, ,-31, ,
0, ,-31, ,
0, ,-30, ,
1, ,-30, ,
0, ,-31, ,
0, ,-31, ,
0, ,-30, ,
0, ,-31, ,
0, ,-31, ,
1, ,-30, ,
0, ,-31, ,
1, ,-31, ,
0, ,-31, ,
0, ,-31, ,
0, ,-31, ,
0, ,-31, ,
0, ,-30, ,
1, ,-31, ,
0, ,-31, ,
1, ,-31, ,
0, ,-31, ,
0, ,-31, ,
0, ,-31, ,
0, ,-31, ,
0, ,-31, ,
1, ,-31, ,
1, ,-31, ,
1, ,-31, ,
0, ,-31, ,
1, ,-31, ,
1, ,-31, ,
0, ,-31, ,
1, ,-30, ,
1, ,-31, ,
1, ,-31, ,
1, ,-31, ,
0, ,-31, ,
0, ,-30, ,
2, ,-30, ,
1, ,-31, ,
1, ,-31, ,
1, ,-30, ,
1, ,-30, ,
1, ,-30, ,
1, ,-31, ,
1, ,-31, ,
1, ,-31, ,
1, ,-31, ,
1, ,-30, ,
1, ,-31, ,
1, ,-31, ,
1, ,-30, ,
0, ,-31, ,
0, ,-31, ,
1, ,-31, ,
1, ,-30, ,
2, ,-30, ,
2, ,-30, ,
2, ,-30, ,
2, ,-31, ,
1, ,-31, ,
1, ,-31, ,
2, ,-31, ,
0, ,-31, ,
2, ,-31, ,
1, ,-30, ,
0, ,-30, ,
1, ,-30, ,
0, ,-31, ,
0, ,-31, ,
1, ,-30, ,
1, ,-31, ,
1, ,-31, ,
1, ,-31, ,
0, ,-31, ,
0, ,-31, ,
0, ,-31, ,
1, ,-31, ,
1, ,-31, ,
1, ,-31, ,
1, ,-31, ,
0, ,-30, ,
0, ,-31, ,
1, ,-31, ,
0, ,-31, ,
-1, ,-31, ,
0, ,-31, ,
-1, ,-31, ,
-1, ,-31, ,
-1, ,-31, ,
-1, ,-31, ,
-1, ,-30, ,
-2, ,-30, ,
0, ,-30, ,
0, ,-31, ,
-1, ,-31, ,
1, ,-31, ,
1, ,-30, ,
1, ,-30, ,
2, ,-30, ,
1, ,-31, ,
2, ,-31, ,
3, ,-30, ,
2, ,-31, ,
2, ,-31, ,
1, ,-30, ,
1, ,-31, ,
1, ,-31, ,
1, ,-31, ,
0, ,-31, ,
1, ,-31, ,
1, ,-31, ,
1, ,-31, ,
2, ,-31, ,
1, ,-31, ,
2, ,-31, ,
1, ,-31, ,
2, ,-31, ,
2, ,-30, ,
1, ,-30, ,
1, ,-30, ,
1, ,-31, ,
0, ,-31, ,
2, ,-31, ,
0, ,-31, ,
0, ,-31, ,
0, ,-31, ,
-1, ,-31, ,
0, ,-30, ,
-1, ,-31, ,
-2, ,-31, ,
-1, ,-31, ,
-2, ,-31, ,
-2, ,-31, ,
0, ,-31, ,
0, ,-31, ,
0, ,-31, ,
1, ,-31, ,
1, ,-31, ,
1, ,-31, ,
1, ,-31, ,
1, ,-30, ,
2, ,-31, ,
0, ,-31, ,
1, ,-31, ,
0, ,-30, ,
0, ,-31, ,
0, ,-31, ,
0, ,-31, ,
0, ,-30, ,
0, ,-30, ,
0, ,-30, ,
0, ,-30, ,
1, ,-30, ,
1, ,-30, ,
1, ,-30, ,
0, ,-30, ,
0, ,-31, ,
0, ,-31, ,
0, ,-31, ,
1, ,-31, ,
0, ,-31, ,
-2, ,-31, ,
-2, ,-31, ,
-2, ,-31, ,
-5, ,-31, ,
-5, ,-30, ,
-6, ,-31, ,
-6, ,-31, ,
-5, ,-30, ,
-6, ,-31, ,
-6, ,-31, ,
-7, ,-31, ,
-6, ,-31, ,
-6, ,-31, ,
-8, ,-31, ,
-8, ,-30, ,
-8, ,-31, ,
-11, ,-31, ,
-11, ,-31, ,
-13, ,-31, ,
-16, ,-31, ,
-18, ,-31, ,
-20, ,-31, ,
-21, ,-31, ,
-26, ,-30, ,
-28, ,-31, ,
-29, ,-31, ,
-30, ,-31, ,
-31, ,-30, ,
-31, ,-30, ,
-32, ,-31, ,
-30, ,-31, ,
-28, ,-31, ,
-29, ,-31, ,
-27, ,-30, ,
-26, ,-31, ,
-25, ,-31, ,
-25, ,-30, ,
-25, ,-31, ,
-26, ,-31, ,
-27, ,-31, ,
-28, ,-31, ,
-28, ,-31, ,
-30, ,-31, ,
-30, ,-30, ,
-29, ,-31, ,
-30, ,-31, ,
-27, ,-31, ,
-24, ,-31, ,
-24, ,-31, ,
-22, ,-31, ,
-20, ,-31, ,
-16, ,-31, ,
-12, ,-31, ,
-12, ,-31, ,
-10, ,-31, ,
-9, ,-30, ,
-8, ,-31, ,
-8, ,-31, ,
-10, ,-31, ,
-10, ,-30, ,
-11, ,-30, ,
-11, ,-30, ,
-12, ,-30, ,
-10, ,-31, ,
-10, ,-31, ,
-9, ,-31, ,
-9, ,-31, ,
-6, ,-31, ,
-4, ,-30, ,
-2, ,-31, ,
0, ,-31, ,
2, ,-31, ,
1, ,-31, ,
1, ,-31, ,
0, ,-31, ,
-1, ,-30, ,
-1, ,-31, ,
-3, ,-31, ,
-3, ,-31, ,
-6, ,-30, ,
-8, ,-30, ,
-8, ,-30, ,
-11, ,-31, ,
-12, ,-31, ,
-12, ,-30, ,
-12, ,-31, ,
-11, ,-31, ,
-10, ,-30, ,
-10, ,-31, ,
-10, ,-31, ,
-10, ,-31, ,
-10, ,-30, ,
-9, ,-31, ,
-12, ,-31, ,
-13, ,-31, ,
-15, ,-31, ,
-18, ,-31, ,
-20, ,-30, ,
-20, ,-30, ,
-24, ,-30, ,
-24, ,-30, ,
-25, ,-30, ,
-25, ,-30, ,
-25, ,-30, ,
-25, ,-31, ,
-25, ,-31, ,
-25, ,-31, ,
-25, ,-30, ,
-25, ,-30, ,
-26, ,-30, ,
-27, ,-30, ,
-28, ,-30, ,
-30, ,-31, ,
-31, ,-31, ,
-32, ,-31, ,
-34, ,-31, ,
-33, ,-31, ,
-34, ,-31, ,
-34, ,-31, ,
-35, ,-30, ,
-35, ,-31, ,
-35, ,-31, ,
-35, ,-31, ,
-34, ,-31, ,
-34, ,-31, ,
-35, ,-31, ,
-33, ,-30, ,
-32, ,-31, ,
-32, ,-31, ,
-31, ,-30, ,
-32, ,-30, ,
-30, ,-30, ,
-29, ,-30, ,
-28, ,-30, ,
-29, ,-30, ,
-29, ,-30, ,
-30, ,-30, ,
-31, ,-30, ,
-34, ,-30, ,
-35, ,-31, ,
-36, ,-31, ,
-37, ,-31, ,
-38, ,-30, ,
-37, ,-31, ,
-38, ,-31, ,
-36, ,-30, ,
-35, ,-31, ,
-35, ,-31, ,
-34, ,-31, ,
-33, ,-31, ,
-33, ,-31, ,
-33, ,-31, ,
-33, ,-31, ,
-34, ,-30, ,
-35, ,-30, ,
-35, ,-31, ,
-35, ,-31, ,
-35, ,-31, ,
-35, ,-30, ,
-33, ,-31, ,
-33, ,-31, ,
-32, ,-30, ,
-30, ,-31, ,
-28, ,-31, ,
-25, ,-30, ,
-24, ,-31, ,
-24, ,-31, ,
-22, ,-30, ,
-23, ,-30, ,
-22, ,-30, ,
-25, ,-30, ,
-24, ,-30, ,
-24, ,-30, ,
-24, ,-30, ,
-24, ,-30, ,
-24, ,-31, ,
-24, ,-31, ,
-22, ,-30, ,
-23, ,-31, ,
-24, ,-31, ,
-22, ,-30, ,
-22, ,-31, ,
-22, ,-31, ,
-21, ,-31, ,
-21, ,-31, ,
-20, ,-31, ,
-19, ,-31, ,
-19, ,-31, ,
-16, ,-31, ,
-15, ,-31, ,
-14, ,-30, ,
-10, ,-31, ,
-10, ,-31, ,
-6, ,-30, ,
-7, ,-30, ,
-4, ,-31, ,
-1, ,-31, ,
0, ,-31, ,
3, ,-31, ,
6, ,-31, ,
7, ,-31, ,
8, ,-30, ,
9, ,-30, ,
13, ,-31, ,
15, ,-31, ,
16, ,-31, ,
18, ,-31, ,
20, ,-30, ,
20, ,-31, ,
21, ,-31, ,
21, ,-31, ,
20, ,-30, ,
19, ,-31, ,
18, ,-31, ,
18, ,-31, ,
16, ,-30, ,
14, ,-31, ,
12, ,-31, ,
10, ,-31, ,
8, ,-31, ,
9, ,-31, ,
6, ,-31, ,
6, ,-31, ,
3, ,-31, ,
2, ,-31, ,
1, ,-31, ,
1, ,-31, ,
-1, ,-30, ,
-2, ,-30, ,
-3, ,-31, ,
-3, ,-31, ,
-3, ,-30, ,
-5, ,-31, ,
-4, ,-31, ,
-7, ,-31, ,
-8, ,-31, ,
-9, ,-31, ,
-11, ,-31, ,
-11, ,-31, ,
-12, ,-31, ,
-14, ,-31, ,
-14, ,-30, ,
-15, ,-31, ,
-17, ,-31, ,
-17, ,-30, ,
-18, ,-30, ,
-18, ,-30, ,
-20, ,-31, ,
-21, ,-31, ,
-20, ,-31, ,
-22, ,-31, ,
-23, ,-30, ,
-23, ,-30, ,
-25, ,-30, ,
-25, ,-30, ,
-25, ,-30, ,
-27, ,-30, ,
-27, ,-30, ,
-28, ,-31, ,
-29, ,-31, ,
-28, ,-30, ,
-28, ,-31, ,
-29, ,-31, ,
-28, ,-30, ,
-29, ,-31, ,
-26, ,-31, ,
-27, ,-31, ,
-27, ,-30, ,
-26, ,-30, ,
-26, ,-30, ,
-26, ,-30, ,
-27, ,-30, ,
-27, ,-31, ,
-27, ,-31, ,
-27, ,-31, ,
-28, ,-31, ,
-28, ,-30, ,
-27, ,-30, ,
-26, ,-31, ,
-25, ,-31, ,
-24, ,-31, ,
-24, ,-31, ,
-24, ,-31, ,
-21, ,-31, ,
-20, ,-31, ,
-20, ,-31, ,
-20, ,-30, ,
-17, ,-31, ,
-18, ,-31, ,
-17, ,-31, ,
-17, ,-31, ,
-16, ,-31, ,
-14, ,-30, ,
-14, ,-30, ,
-12, ,-30, ,
-8, ,-30, ,
-8, ,-31, ,
-5, ,-31, ,
-5, ,-31, ,
-2, ,-31, ,
1, ,-31, ,
0, ,-31, ,
3, ,-30, ,
5, ,-30, ,
5, ,-30, ,
6, ,-30, ,
6, ,-30, ,
8, ,-31, ,
10, ,-31, ,
10, ,-30, ,
11, ,-31, ,
14, ,-31, ,
13, ,-31, ,
14, ,-31, ,
13, ,-31, ,
14, ,-31, ,
13, ,-31, ,
12, ,-31, ,
12, ,-30, ,
10, ,-30, ,
9, ,-30, ,
9, ,-30, ,
8, ,-31, ,
6, ,-31, ,
7, ,-31, ,
5, ,-31, ,
5, ,-31, ,
4, ,-31, ,
2, ,-31, ,
1, ,-31, ,
0, ,-31, ,
-2, ,-31, ,
-1, ,-30, ,
-4, ,-31, ,
-3, ,-31, ,
-5, ,-31, ,
-7, ,-31, ,
-7, ,-30, ,
-8, ,-31, ,
-10, ,-31, ,
-9, ,-31, ,
-11, ,-31, ,
-10, ,-31, ,
-11, ,-31, ,
-13, ,-31, ,
-12, ,-30, ,
-15, ,-31, ,
-16, ,-31, ,
-15, ,-30, ,
-17, ,-31, ,
-17, ,-31, ,
-18, ,-30, ,
-20, ,-31, ,
-20, ,-31, ,
-21, ,-31, ,
-24, ,-31, ,
-23, ,-31, ,
-24, ,-31, ,
-24, ,-31, ,
-25, ,-31, ,
-25, ,-31, ,
-25, ,-31, ,
-25, ,-31, ,
-25, ,-31, ,
-25, ,-31, ,
-25, ,-31, ,
-25, ,-31, ,
-25, ,-31, ,
-25, ,-31, ,
-25, ,-30, ,
-26, ,-30, ,
-26, ,-30, ,
-25, ,-30, ,
-25, ,-30, ,
-25, ,-30, ,
-24, ,-30, ,
-23, ,-30, ,
-22, ,-30, ,
-22, ,-31, ,
-22, ,-31, ,
-21, ,-31, ,
-22, ,-31, ,
-22, ,-31, ,
-20, ,-30, ,
-22, ,-31, ,
-20, ,-31, ,
-20, ,-31, ,
-20, ,-31, ,
-20, ,-30, ,
-20, ,-30, ,
-20, ,-30, ,
-20, ,-31, ,
-18, ,-31, ,
-18, ,-31, ,
-18, ,-31, ,
-17, ,-31, ,
-17, ,-31, ,
-18, ,-31, ,
-18, ,-30, ,
-18, ,-31, ,
-18, ,-31, ,
-18, ,-31, ,
-18, ,-31, ,
-19, ,-30, ,
-18, ,-30, ,
-18, ,-31, ,
-19, ,-31, ,
-18, ,-31, ,
-19, ,-31, ,
-18, ,-30, ,
-19, ,-31, ,
-19, ,-31, ,
-19, ,-31, ,
-20, ,-31, ,
-20, ,-31, ,
-20, ,-31, ,
-20, ,-31, ,
-20, ,-30, ,
-20, ,-30, ,
-21, ,-31, ,
-19, ,-31, ,
-19, ,-31, ,
-18, ,-30, ,
-17, ,-30, ,
-17, ,-31, ,
-15, ,-31, ,
-15, ,-31, ,
-14, ,-31, ,
-13, ,-30, ,
-14, ,-31, ,
-12, ,-31, ,
-10, ,-30, ,
-11, ,-30, ,
-9, ,-30, ,
-9, ,-31, ,
-8, ,-31, ,
-7, ,-31, ,
-7, ,-31, ,
-6, ,-31, ,
-5, ,-31, ,
-5, ,-31, ,
-3, ,-31, ,
-3, ,-31, ,
-2, ,-31, ,
-2, ,-31, ,
-2, ,-31, ,
-2, ,-31, ,
0, ,-31, ,
0, ,-31, ,
0, ,-31, ,
2, ,-31, ,
0, ,-31, ,
2, ,-31, ,
1, ,-31, ,
2, ,-31, ,
3, ,-30, ,
3, ,-31, ,
4, ,-31, ,
4, ,-31, ,
3, ,-30, ,
5, ,-31, ,
4, ,-31, ,
4, ,-31, ,
5, ,-31, ,
4, ,-31, ,
5, ,-30, ,
3, ,-31, ,
2, ,-31, ,
2, ,-30, ,
2, ,-30, ,
1, ,-31, ,
1, ,-31, ,
0, ,-31, ,
1, ,-31, ,
0, ,-31, ,
-1, ,-31, ,
-1, ,-30, ,
-3, ,-30, ,
-3, ,-30, ,
-4, ,-30, ,
-5, ,-30, ,
-5, ,-30, ,
-6, ,-31, ,
-8, ,-31, ,
-7, ,-31, ,
-9, ,-30, ,
-8, ,-30, ,
-8, ,-31, ,
-10, ,-31, ,
-10, ,-31, ,
-10, ,-31, ,
-10, ,-31, ,
-10, ,-31, ,
-12, ,-31, ,
-12, ,-30, ,
-12, ,-31, ,
-13, ,-31, ,
-12, ,-31, ,
-12, ,-31, ,
-13, ,-31, ,
-12, ,-31, ,
-12, ,-31, ,
-12, ,-31, ,
-12, ,-30, ,
-12, ,-30, ,
-12, ,-31, ,
-12, ,-31, ,
-11, ,-31, ,
-10, ,-31, ,
-11, ,-31, ,
-10, ,-31, ,
-9, ,-31, ,
-9, ,-31, ,
-9, ,-30, ,
-9, ,-31, ,
-9, ,-31, ,
-7, ,-30, ,
-7, ,-31, ,
-7, ,-31, ,
-6, ,-30, ,
-7, ,-31, ,
-6, ,-31, ,
-7, ,-31, ,
-6, ,-30, ,
-5, ,-30, ,
-7, ,-30, ,
-7, ,-30, ,
-8, ,-31, ,
-9, ,-31, ,
-8, ,-31, ,
-9, ,-31, ,
-8, ,-31, ,
-7, ,-30, ,
-7, ,-31, ,
-7, ,-31, ,
-6, ,-30, ,
-7, ,-31, ,
-6, ,-31, ,
-7, ,-31, ,
-7, ,-31, ,
-7, ,-31, ,
-7, ,-31, ,
-7, ,-30, ,
-7, ,-30, ,
-6, ,-30, ,
-6, ,-30, ,
-5, ,-30, ,
-5, ,-31, ,
-3, ,-31, ,
-3, ,-31, ,
-3, ,-31, ,
-1, ,-30, ,
-2, ,-31, ,
0, ,-31, ,
0, ,-31, ,
0, ,-31, ,
0, ,-30, ,
0, ,-30, ,
0, ,-30, ,
0, ,-31, ,
0, ,-31, ,
0, ,-30, ,
0, ,-30, ,
0, ,-30, ,
1, ,-30, ,
0, ,-30, ,
0, ,-31, ,
0, ,-31, ,
-1, ,-31, ,
-1, ,-31, ,
-2, ,-31, ,
-2, ,-30, ,
-3, ,-30, ,
-3, ,-31, ,
-4, ,-31, ,
-5, ,-31, ,
-5, ,-31, ,
-4, ,-30, ,
-3, ,-30, ,
-3, ,-31, ,
-2, ,-31, ,
-2, ,-31, ,
-1, ,-31, ,
0, ,-31, ,
1, ,-31, ,
2, ,-31, ,
1, ,-31, ,
3, ,-31, ,
3, ,-31, ,
3, ,-31, ,
5, ,-30, ,
5, ,-30, ,
5, ,-31, ,
5, ,-31, ,
5, ,-31, ,
5, ,-31, ,
5, ,-31, ,
5, ,-31, ,
5, ,-31, ,
4, ,-31, ,
4, ,-31, ,
4, ,-30, ,
2, ,-31, ,
1, ,-31, ,
2, ,-31, ,
0, ,-31, ,
0, ,-30, ,
-1, ,-31, ,
-2, ,-31, ,
-2, ,-30, ,
-3, ,-31, ,
-3, ,-31, ,
-4, ,-31, ,
-4, ,-31, ,
-4, ,-31, ,
-3, ,-30, ,
-4, ,-31, ,
-4, ,-31, ,
-4, ,-31, ,
-4, ,-30, ,
-3, ,-30, ,
-4, ,-30, ,
-4, ,-30, ,
-1, ,-31, ,
-2, ,-31, ,
-1, ,-31, ,
-1, ,-31, ,
0, ,-31, ,
1, ,-31, ,
1, ,-31, ,
2, ,-31, ,
3, ,-31, ,
2, ,-31, ,
3, ,-30, ,
2, ,-30, ,
4, ,-31, ,
5, ,-31, ,
4, ,-31, ,
5, ,-30, ,
6, ,-30, ,
5, ,-30, ,
6, ,-30, ,
4, ,-31, ,
3, ,-31, ,
5, ,-30, ,
3, ,-31, ,
4, ,-31, ,
4, ,-30, ,
3, ,-31, ,
3, ,-31, ,
2, ,-31, ,
2, ,-31, ,
2, ,-31, ,
1, ,-31, ,
2, ,-30, ,
1, ,-30, ,
0, ,-30, ,
1, ,-30, ,
0, ,-31, ,
0, ,-31, ,
0, ,-30, ,
1, ,-31, ,
1, ,-31, ,
2, ,-31, ,
2, ,-31, ,
2, ,-31, ,
1, ,-31, ,
3, ,-30, ,
4, ,-30, ,
3, ,-31, ,
4, ,-31, ,
3, ,-31, ,
3, ,-31, ,
3, ,-31, ,
3, ,-31, ,
3, ,-31, ,
3, ,-30, ,
2, ,-31, ,
2, ,-31, ,
3, ,-30, ,
3, ,-31, ,
3, ,-31, ,
2, ,-31, ,
2, ,-31, ,
2, ,-31, ,
1, ,-31, ,
1, ,-30, ,
2, ,-30, ,
1, ,-30, ,
1, ,-30, ,
0, ,-31, ,
0, ,-31, ,
1, ,-30, ,
0, ,-31, ,
0, ,-31, ,
0, ,-31, ,
0, ,-31, ,
0, ,-31, ,
0, ,-31, ,
-1, ,-31, ,
-1, ,-30, ,
-2, ,-30, ,
-1, ,-30, ,
-2, ,-31, ,
-3, ,-31, ,
-2, ,-31, ,
-2, ,-31, ,
-3, ,-31, ,
-3, ,-31, ,
-3, ,-31, ,
-3, ,-31, ,
-3, ,-30, ,
-3, ,-30, ,
-4, ,-30, ,
-5, ,-31, ,
-5, ,-31, ,
-5, ,-31, ,
-5, ,-31, ,
-5, ,-31, ,
-6, ,-31, ,
-7, ,-31, ,
-7, ,-30, ,
-7, ,-31, ,
-7, ,-31, ,
-8, ,-30, ,
-8, ,-31, ,
-8, ,-31, ,
-8, ,-31, ,
-8, ,-31, ,
-8, ,-31, ,
-9, ,-31, ,
-9, ,-31, ,
-9, ,-30, ,
-9, ,-30, ,
-9, ,-30, ,
-10, ,-31, ,
-11, ,-31, ,
-10, ,-31, ,
-10, ,-31, ,
-12, ,-31, ,
-10, ,-31, ,
-11, ,-31, ,
-11, ,-31, ,
-10, ,-30, ,
-10, ,-31, ,
-10, ,-31, ,
-10, ,-31, ,
-9, ,-31, ,
-8, ,-31, ,
-10, ,-31, ,
-7, ,-31, ,
-7, ,-31, ,
-5, ,-31, ,
-6, ,-31, ,
-5, ,-30, ,
-5, ,-30, ,
-3, ,-30, ,
-3, ,-31, ,
-2, ,-31, ,
0, ,-30, ,
0, ,-31, ,
0, ,-31, ,
0, ,-31, ,
1, ,-31, ,
1, ,-31, ,
1, ,-31, ,
3, ,-30, ,
3, ,-31, ,
2, ,-31, ,
2, ,-30, ,
2, ,-30, ,
0, ,-31, ,
0, ,-31, ,
0, ,-31, ,
0, ,-31, ,
-1, ,-30, ,
-1, ,-31, ,
-1, ,-31, ,
-3, ,-31, ,
-4, ,-31, ,
-5, ,-31, ,
-5, ,-31, ,
-6, ,-30, ,
-6, ,-31, ,
-6, ,-31, ,
-7, ,-31, ,
-8, ,-31, ,
-9, ,-31, ,
-7, ,-31, ,
-8, ,-30, ,
-8, ,-30, ,
-8, ,-30, ,
-10, ,-31, ,
-8, ,-31, ,
-9, ,-31, ,
-9, ,-31, ,
-9, ,-31, ,
-9, ,-31, ,
-8, ,-31, ,
-8, ,-31, ,
-8, ,-31, ,
-7, ,-30, ,
-9, ,-31, ,
-8, ,-31, ,
-5, ,-31, ,
-5, ,-31, ,
-5, ,-31, ,
-5, ,-30, ,
-5, ,-31, ,
-4, ,-31, ,
-5, ,-31, ,
-1, ,-31, ,
-1, ,-31, ,
-2, ,-31, ,
0, ,-31, ,
1, ,-31, ,
0, ,-31, ,
2, ,-30, ,
1, ,-31, ,
2, ,-31, ,
3, ,-30, ,
3, ,-31, ,
3, ,-31, ,
3, ,-31, ,
4, ,-31, ,
3, ,-31, ,
3, ,-31, ,
3, ,-30, ,
3, ,-31, ,
2, ,-31, ,
2, ,-31, ,
2, ,-30, ,
1, ,-31, ,
1, ,-31, ,
1, ,-31, ,
0, ,-31, ,
0, ,-31, ,
0, ,-31, ,
0, ,-31, ,
0, ,-31, ,
0, ,-31, ,
0, ,-30, ,
0, ,-31, ,
1, ,-31, ,
2, ,-31, ,
0, ,-31, ,
1, ,-30, ,
1, ,-31, ,
1, ,-31, ,
2, ,-31, ,
1, ,-31, ,
0, ,-31, ,
2, ,-31, ,
1, ,-31, ,
3, ,-31, ,
4, ,-31, ,
1, ,-31, ,
2, ,-31, ,
1, ,-31, ,
0, ,-30, ,
1, ,-31, ,
-1, ,-31, ,
-1, ,-31, ,
-1, ,-31, ,
-3, ,-31, ,
-2, ,-31, ,
-3, ,-30, ,
-4, ,-30, ,
-4, ,-30, ,
-5, ,-30, ,
-5, ,-30, ,
-5, ,-30, ,
-5, ,-31, ,
-4, ,-31, ,
-4, ,-31, ,
-5, ,-31, ,
-5, ,-31, ,
-5, ,-31, ,
-4, ,-30, ,
-3, ,-31, ,
-4, ,-31, ,
-2, ,-30, ,
-2, ,-30, ,
-2, ,-30, ,
-1, ,-30, ,
-2, ,-31, ,
0, ,-31, ,
0, ,-31, ,
0, ,-31, ,
1, ,-31, ,
-1, ,-31, ,
0, ,-31, ,
0, ,-31, ,
0, ,-31, ,
1, ,-31, ,
2, ,-31, ,
1, ,-31, ,
2, ,-31, ,
1, ,-31, ,
1, ,-30, ,
1, ,-30, ,
1, ,-31, ,
0, ,-31, ,
1, ,-30, ,
0, ,-31, ,
0, ,-31, ,
-1, ,-31, ,
0, ,-31, ,
0, ,-31, ,
-1, ,-31, ,
0, ,-30, ,
0, ,-31, ,
0, ,-31, ,
0, ,-30, ,
0, ,-31, ,
-1, ,-31, ,
-1, ,-30, ,
-1, ,-30, ,
0, ,-30, ,
0, ,-31, ,
-1, ,-31, ,
-1, ,-31, ,
-2, ,-31, ,
0, ,-31, ,
0, ,-31, ,
0, ,-31, ,
0, ,-31, ,
0, ,-31, ,
-2, ,-31, ,
-1, ,-31, ,
-1, ,-31, ,
-2, ,-30, ,
-2, ,-30, ,
-3, ,-31, ,
-2, ,-31, ,
-3, ,-31, ,
-4, ,-31, ,
-3, ,-31, ,
-3, ,-31, ,
-3, ,-31, ,
-4, ,-30, ,
-4, ,-31, ,
-4, ,-31, ,
-3, ,-31, ,
-4, ,-31, ,
-4, ,-31, ,
-4, ,-31, ,
-5, ,-31, ,
-4, ,-30, ,
-4, ,-30, ,
-4, ,-30, ,
-4, ,-31, ,
-4, ,-31, ,
-4, ,-30, ,
-5, ,-30, ,
-5, ,-31, ,
-4, ,-31, ,
-4, ,-31, ,
-4, ,-30, ,
-4, ,-31, ,
-4, ,-31, ,
-3, ,-31, ,
-4, ,-31, ,
-4, ,-31, ,
-4, ,-31, ,
-4, ,-30, ,
-3, ,-30, ,
-2, ,-31, ,
-3, ,-31, ,
-3, ,-30, ,
-5, ,-31, ,
-2, ,-31, ,
-2, ,-31, ,
-2, ,-31, ,
-1, ,-31, ,
-1, ,-31, ,
-1, ,-31, ,
-1, ,-30, ,
-1, ,-31, ,
-2, ,-31, ,
0, ,-31, ,
1, ,-30, ,
1, ,-31, ,
1, ,-31, ,
2, ,-31, ,
2, ,-31, ,
3, ,-31, ,
3, ,-30, ,
4, ,-30, ,
3, ,-30, ,
4, ,-31, ,
5, ,-31, ,
5, ,-30, ,
5, ,-30, ,
4, ,-30, ,
3, ,-31, ,
5, ,-31, ,
5, ,-31, ,
5, ,-31, ,
5, ,-30, ,
5, ,-31, ,
5, ,-31, ,
4, ,-31, ,
3, ,-31, ,
4, ,-31, ,
4, ,-31, ,
4, ,-31, ,
4, ,-30, ,
2, ,-30, ,
2, ,-30, ,
2, ,-31, ,
2, ,-31, ,
2, ,-30, ,
1, ,-31, ,
2, ,-31, ,
1, ,-30, ,
2, ,-31, ,
2, ,-31, ,
1, ,-31, ,
1, ,-31, ,
1, ,-30, ,
1, ,-30, ,
1, ,-30, ,
1, ,-31, ,
1, ,-31, ,
1, ,-30, ,
1, ,-30, ,
1, ,-31, ,
2, ,-31, ,
2, ,-31, ,
0, ,-31, ,
0, ,-30, ,
1, ,-31, ,
1, ,-31, ,
0, ,-31, ,
0, ,-31, ,
0, ,-31, ,
0, ,-31, ,
1, ,-31, ,
1, ,-30, ,
0, ,-30, ,
0, ,-30, ,
0, ,-31, ,
0, ,-31, ,
2, ,-31, ,
2, ,-31, ,
1, ,-31, ,
2, ,-30, ,
1, ,-30, ,
3, ,-30, ,
2, ,-30, ,
1, ,-31, ,
3, ,-31, ,
3, ,-31, ,
4, ,-31, ,
5, ,-30, ,
4, ,-30, ,
5, ,-30, ,
5, ,-31, ,
5, ,-31, ,
5, ,-31, ,
4, ,-31, ,
4, ,-31, ,
5, ,-31, ,
5, ,-31, ,
5, ,-31, ,
4, ,-31, ,
4, ,-31, ,
4, ,-31, ,
4, ,-31, ,
4, ,-30, ,
3, ,-30, ,
3, ,-31, ,
4, ,-31, ,
1, ,-31, ,
1, ,-31, ,
2, ,-30, ,
1, ,-30, ,
1, ,-30, ,
2, ,-30, ,
1, ,-31, ,
2, ,-31, ,
0, ,-31, ,
0, ,-31, ,
0, ,-31, ,
-1, ,-31, ,
0, ,-30, ,
-1, ,-30, ,
-1, ,-31, ,
0, ,-31, ,
-1, ,-31, ,
-2, ,-31, ,
0, ,-31, ,
