raw_data/100% Glycerol, Impulsion 2Hz, Sonde 5MHz, Rampe 0.7Hz/temp0000272.CSV

Format,1.0B,
Memory Length,10000,Memory Length,10000,
IntpDistance,0,IntpDistance,0,
Trigger Address,159,Trigger Address,159,
Trigger Level,2.720E-01,Trigger Level,2.720E-01,
Source,CH1,Source,CH2,
Vertical Units,V,Vertical Units,V,
Vertical Units Div,0,Vertical Units Div,0,
Vertical Units Extend Div,16,Vertical Units Extend Div,16,
Label,,Label,,
Probe Type,0,Probe Type,0,
Probe Ratio,1.000e+00,Probe Ratio,1.000e+00,
Vertical Scale,2.000e-01,Vertical Scale,2.000e+00,
Vertical Position,0.000e+00,Vertical Position,0.000e+00,
Horizontal Units,S,Horizontal Units,S,
Horizontal Scale,5.000E-06,Horizontal Scale,5.000E-06,
Horizontal Position,2.420E-05,Horizontal Position,2.420E-05,
Horizontal Mode,Main,Horizontal Mode,Main,
SincET Mode,Real Time,SincET Mode,Real Time,
Sampling Period,5.000e-09,Sampling Period,5.000e-09,
Horizontal Old Scale,5.000E-06,Horizontal Old Scale,5.000E-06,
Horizontal Old Position,2.420E-05,Horizontal Old Position,2.420E-05,
Firmware,V1.32,Firmware,V1.32,
Mode,Fast,Mode,Fast,
Waveform Data,,Waveform Data,,
1, ,8, ,
1, ,8, ,
1, ,8, ,
2, ,8, ,
2, ,8, ,
1, ,8, ,
2, ,8, ,
2, ,8, ,
2, ,8, ,
2, ,8, ,
1, ,8, ,
1, ,8, ,
1, ,8, ,
1, ,8, ,
2, ,8, ,
2, ,8, ,
1, ,8, ,
2, ,8, ,
0, ,8, ,
2, ,8, ,
2, ,8, ,
1, ,8, ,
1, ,8, ,
1, ,8, ,
0, ,8, ,
2, ,8, ,
2, ,8, ,
0, ,8, ,
1, ,8, ,
0, ,8, ,
2, ,8, ,
0, ,8, ,
1, ,8, ,
2, ,7, ,
1, ,7, ,
1, ,8, ,
2, ,8, ,
2, ,8, ,
2, ,8, ,
1, ,8, ,
1, ,8, ,
1, ,8, ,
2, ,8, ,
1, ,8, ,
2, ,8, ,
1, ,8, ,
2, ,8, ,
1, ,8, ,
0, ,8, ,
1, ,8, ,
1, ,8, ,
1, ,8, ,
2, ,8, ,
1, ,8, ,
1, ,8, ,
2, ,8, ,
1, ,8, ,
1, ,8, ,
0, ,8, ,
1, ,8, ,
1, ,8, ,
1, ,8, ,
2, ,8, ,
1, ,8, ,
1, ,8, ,
2, ,8, ,
1, ,8, ,
1, ,8, ,
1, ,8, ,
0, ,8, ,
2, ,8, ,
1, ,8, ,
0, ,8, ,
1, ,8, ,
1, ,8, ,
1, ,8, ,
2, ,8, ,
1, ,8, ,
2, ,8, ,
1, ,8, ,
1, ,8, ,
1, ,8, ,
1, ,8, ,
0, ,8, ,
1, ,8, ,
0, ,8, ,
1, ,8, ,
2, ,8, ,
1, ,8, ,
2, ,8, ,
1, ,8, ,
0, ,8, ,
2, ,8, ,
1, ,8, ,
1, ,8, ,
1, ,8, ,
1, ,8, ,
2, ,8, ,
0, ,8, ,
1, ,8, ,
2, ,8, ,
0, ,8, ,
2, ,8, ,
1, ,8, ,
0, ,8, ,
1, ,8, ,
0, ,8, ,
1, ,8, ,
1, ,8, ,
1, ,8, ,
2, ,8, ,
2, ,8, ,
1, ,8, ,
2, ,8, ,
1, ,8, ,
0, ,8, ,
1, ,8, ,
1, ,8, ,
2, ,8, ,
2, ,8, ,
1, ,8, ,
2, ,8, ,
1, ,8, ,
1, ,8, ,
2, ,8, ,
1, ,8, ,
2, ,8, ,
1, ,8, ,
1, ,8, ,
1, ,8, ,
0, ,8, ,
1, ,8, ,
1, ,8, ,
1, ,8, ,
1, ,8, ,
1, ,8, ,
1, ,8, ,
1, ,8, ,
2, ,8, ,
1, ,8, ,
2, ,8, ,
0, ,8, ,
1, ,8, ,
1, ,8, ,
1, ,8, ,
1, ,8, ,
0, ,8, ,
1, ,8, ,
1, ,8, ,
1, ,8, ,
2, ,8, ,
2, ,8, ,
1, ,8, ,
1, ,8, ,
1, ,8, ,
0, ,8, ,
0, ,8, ,
1, ,8, ,
2, ,8, ,
2, ,8, ,
1, ,8, ,
2, ,8, ,
1, ,8, ,
2, ,8, ,
7, ,8, ,
0, ,8, ,
1, ,8, ,
2, ,8, ,
29, ,8, ,
90, ,8, ,
125, ,8, ,
125, ,8, ,
125, ,8, ,
121, ,8, ,
116, ,8, ,
-10, ,8, ,
94, ,8, ,
125, ,8, ,
125, ,8, ,
125, ,8, ,
125, ,8, ,
125, ,8, ,
125, ,8, ,
125, ,8, ,
125, ,8, ,
125, ,8, ,
125, ,8, ,
125, ,8, ,
125, ,8, ,
125, ,8, ,
125, ,8, ,
125, ,8, ,
125, ,8, ,
125, ,8, ,
125, ,8, ,
125, ,8, ,
125, ,8, ,
125, ,8, ,
125, ,8, ,
125, ,8, ,
125, ,8, ,
125, ,8, ,
125, ,8, ,
124, ,8, ,
119, ,8, ,
114, ,8, ,
110, ,8, ,
102, ,8, ,
98, ,8, ,
94, ,8, ,
89, ,8, ,
82, ,8, ,
78, ,8, ,
73, ,8, ,
71, ,8, ,
64, ,8, ,
61, ,8, ,
60, ,8, ,
56, ,8, ,
51, ,8, ,
48, ,8, ,
46, ,8, ,
46, ,8, ,
39, ,8, ,
38, ,8, ,
36, ,8, ,
34, ,8, ,
31, ,8, ,
31, ,8, ,
27, ,8, ,
27, ,8, ,
25, ,8, ,
22, ,8, ,
20, ,8, ,
19, ,8, ,
17, ,8, ,
16, ,8, ,
15, ,8, ,
15, ,8, ,
12, ,8, ,
11, ,8, ,
12, ,8, ,
10, ,8, ,
9, ,8, ,
8, ,8, ,
6, ,8, ,
7, ,8, ,
6, ,8, ,
5, ,8, ,
5, ,8, ,
4, ,8, ,
2, ,8, ,
2, ,8, ,
2, ,8, ,
2, ,8, ,
1, ,8, ,
0, ,8, ,
0, ,8, ,
0, ,8, ,
0, ,8, ,
0, ,8, ,
-1, ,8, ,
-1, ,8, ,
-1, ,8, ,
-2, ,8, ,
-2, ,8, ,
-2, ,8, ,
-2, ,8, ,
-2, ,8, ,
-2, ,8, ,
-2, ,8, ,
-3, ,8, ,
-3, ,8, ,
-3, ,8, ,
-3, ,8, ,
-2, ,8, ,
-3, ,8, ,
-4, ,8, ,
-3, ,8, ,
-3, ,8, ,
-4, ,8, ,
-4, ,8, ,
-3, ,8, ,
-4, ,8, ,
-3, ,8, ,
-4, ,8, ,
-4, ,8, ,
-3, ,8, ,
-4, ,8, ,
-3, ,8, ,
-4, ,8, ,
-4, ,8, ,
-3, ,8, ,
-3, ,8, ,
-2, ,8, ,
-3, ,8, ,
-4, ,8, ,
-3, ,8, ,
-4, ,8, ,
-3, ,8, ,
-3, ,8, ,
-3, ,8, ,
-3, ,8, ,
-2, ,8, ,
-2, ,8, ,
-2, ,8, ,
-3, ,8, ,
-3, ,8, ,
-2, ,8, ,
-3, ,8, ,
-2, ,8, ,
-2, ,8, ,
-2, ,8, ,
-2, ,8, ,
-2, ,8, ,
-2, ,8, ,
-2, ,8, ,
-2, ,8, ,
-1, ,8, ,
-1, ,8, ,
-2, ,8, ,
-2, ,8, ,
-2, ,8, ,
-1, ,8, ,
-1, ,8, ,
-1, ,8, ,
-2, ,8, ,
-1, ,8, ,
-1, ,8, ,
-2, ,8, ,
-1, ,8, ,
-2, ,8, ,
-1, ,8, ,
-1, ,8, ,
-1, ,8, ,
-1, ,8, ,
0, ,8, ,
0, ,8, ,
0, ,8, ,
0, ,8, ,
0, ,8, ,
-1, ,8, ,
0, ,8, ,
0, ,8, ,
-1, ,8, ,
0, ,8, ,
0, ,8, ,
0, ,8, ,
0, ,8, ,
0, ,8, ,
2, ,8, ,
1, ,8, ,
0, ,8, ,
0, ,8, ,
0, ,8, ,
0, ,8, ,
0, ,8, ,
0, ,8, ,
1, ,8, ,
1, ,8, ,
-1, ,8, ,
0, ,8, ,
0, ,8, ,
0, ,8, ,
0, ,8, ,
-1, ,8, ,
0, ,8, ,
0, ,8, ,
1, ,8, ,
1, ,8, ,
0, ,8, ,
0, ,8, ,
0, ,8, ,
0, ,8, ,
1, ,8, ,
1, ,8, ,
0, ,8, ,
0, ,8, ,
0, ,8, ,
1, ,8, ,
1, ,8, ,
1, ,8, ,
1, ,8, ,
1, ,8, ,
2, ,8, ,
1, ,8, ,
1, ,8, ,
-2, ,8, ,
-12, ,8, ,
-55, ,8, ,
-126, ,8, ,
-126, ,8, ,
-126, ,8, ,
-126, ,8, ,
-126, ,8, ,
-126, ,8, ,
-126, ,8, ,
-126, ,8, ,
-126, ,8, ,
-126, ,8, ,
-126, ,8, ,
-126, ,8, ,
-126, ,8, ,
-126, ,8, ,
-126, ,8, ,
-126, ,8, ,
-126, ,8, ,
-126, ,8, ,
-126, ,8, ,
-126, ,8, ,
-126, ,8, ,
-119, ,8, ,
-111, ,8, ,
125, ,8, ,
125, ,8, ,
125, ,8, ,
125, ,8, ,
125, ,8, ,
125, ,8, ,
125, ,8, ,
125, ,8, ,
125, ,8, ,
125, ,8, ,
125, ,8, ,
125, ,8, ,
125, ,8, ,
125, ,8, ,
125, ,8, ,
125, ,8, ,
125, ,8, ,
125, ,8, ,
125, ,8, ,
125, ,8, ,
125, ,8, ,
125, ,8, ,
124, ,8, ,
123, ,8, ,
114, ,8, ,
110, ,8, ,
105, ,8, ,
100, ,8, ,
100, ,8, ,
98, ,8, ,
95, ,8, ,
96, ,8, ,
93, ,8, ,
94, ,8, ,
90, ,8, ,
88, ,8, ,
86, ,8, ,
84, ,8, ,
78, ,8, ,
78, ,8, ,
75, ,8, ,
72, ,8, ,
66, ,8, ,
60, ,8, ,
59, ,8, ,
53, ,8, ,
46, ,8, ,
41, ,8, ,
35, ,8, ,
32, ,8, ,
17, ,8, ,
9, ,8, ,
4, ,8, ,
-3, ,8, ,
-6, ,8, ,
-6, ,8, ,
-5, ,8, ,
1, ,8, ,
10, ,8, ,
14, ,8, ,
18, ,8, ,
21, ,8, ,
26, ,8, ,
29, ,8, ,
30, ,8, ,
31, ,8, ,
32, ,8, ,
32, ,8, ,
34, ,8, ,
33, ,8, ,
32, ,8, ,
32, ,8, ,
31, ,8, ,
32, ,8, ,
30, ,8, ,
29, ,8, ,
30, ,8, ,
27, ,8, ,
26, ,8, ,
25, ,8, ,
25, ,8, ,
24, ,8, ,
22, ,8, ,
21, ,8, ,
22, ,8, ,
20, ,8, ,
19, ,8, ,
18, ,8, ,
18, ,8, ,
17, ,8, ,
16, ,8, ,
14, ,8, ,
15, ,8, ,
13, ,8, ,
12, ,8, ,
12, ,8, ,
11, ,8, ,
13, ,8, ,
10, ,8, ,
10, ,8, ,
11, ,8, ,
8, ,8, ,
7, ,8, ,
7, ,8, ,
5, ,8, ,
7, ,8, ,
-2, ,8, ,
-17, ,8, ,
-43, ,8, ,
-87, ,8, ,
-126, ,8, ,
-126, ,8, ,
-126, ,8, ,
-126, ,8, ,
-126, ,8, ,
-126, ,8, ,
-126, ,8, ,
-126, ,8, ,
-126, ,8, ,
-126, ,8, ,
-126, ,8, ,
-126, ,8, ,
-126, ,8, ,
-126, ,8, ,
-126, ,8, ,
-126, ,8, ,
-126, ,8, ,
-126, ,8, ,
-126, ,8, ,
-126, ,8, ,
-126, ,8, ,
-126, ,8, ,
-126, ,8, ,
-126, ,8, ,
-126, ,8, ,
-126, ,8, ,
-126, ,8, ,
-126, ,8, ,
-126, ,8, ,
-126, ,8, ,
-126, ,8, ,
-126, ,8, ,
-126, ,8, ,
-126, ,8, ,
-126, ,8, ,
-126, ,8, ,
-124, ,8, ,
-120, ,8, ,
-113, ,8, ,
-112, ,8, ,
-103, ,8, ,
-98, ,8, ,
-90, ,8, ,
-61, ,8, ,
125, ,8, ,
125, ,8, ,
125, ,8, ,
125, ,8, ,
125, ,8, ,
125, ,8, ,
125, ,8, ,
125, ,8, ,
125, ,8, ,
125, ,8, ,
125, ,8, ,
125, ,8, ,
125, ,8, ,
125, ,8, ,
125, ,8, ,
125, ,8, ,
124, ,8, ,
123, ,8, ,
111, ,8, ,
81, ,8, ,
60, ,8, ,
68, ,8, ,
79, ,8, ,
98, ,8, ,
125, ,8, ,
125, ,8, ,
125, ,8, ,
125, ,8, ,
125, ,8, ,
125, ,8, ,
125, ,8, ,
125, ,8, ,
125, ,8, ,
125, ,8, ,
125, ,8, ,
124, ,8, ,
110, ,8, ,
78, ,8, ,
37, ,8, ,
-4, ,8, ,
-83, ,8, ,
-114, ,8, ,
-126, ,8, ,
-126, ,8, ,
-126, ,8, ,
-126, ,8, ,
-126, ,8, ,
-126, ,8, ,
-126, ,8, ,
-123, ,8, ,
-94, ,8, ,
-61, ,8, ,
4, ,8, ,
37, ,8, ,
67, ,8, ,
94, ,8, ,
125, ,8, ,
125, ,8, ,
125, ,8, ,
125, ,8, ,
125, ,8, ,
125, ,8, ,
125, ,8, ,
125, ,8, ,
124, ,8, ,
124, ,8, ,
117, ,8, ,
99, ,8, ,
51, ,8, ,
23, ,8, ,
-10, ,8, ,
-40, ,8, ,
-100, ,8, ,
-124, ,8, ,
-126, ,8, ,
-126, ,8, ,
-126, ,8, ,
-126, ,8, ,
-126, ,8, ,
-126, ,8, ,
-126, ,8, ,
-126, ,8, ,
-126, ,8, ,
-126, ,8, ,
-125, ,8, ,
-115, ,8, ,
-102, ,8, ,
-86, ,8, ,
-60, ,8, ,
-49, ,8, ,
-38, ,8, ,
-31, ,8, ,
-15, ,8, ,
-9, ,8, ,
-5, ,8, ,
0, ,8, ,
4, ,8, ,
1, ,8, ,
1, ,7, ,
0, ,7, ,
-4, ,8, ,
-6, ,8, ,
-8, ,8, ,
-11, ,8, ,
-16, ,8, ,
-17, ,8, ,
-15, ,8, ,
-15, ,8, ,
-8, ,8, ,
1, ,8, ,
5, ,8, ,
15, ,8, ,
35, ,8, ,
43, ,8, ,
56, ,8, ,
67, ,8, ,
91, ,8, ,
102, ,8, ,
111, ,8, ,
121, ,8, ,
125, ,8, ,
125, ,8, ,
125, ,8, ,
125, ,8, ,
125, ,8, ,
125, ,8, ,
125, ,8, ,
125, ,8, ,
125, ,8, ,
125, ,8, ,
125, ,8, ,
125, ,8, ,
124, ,8, ,
124, ,8, ,
123, ,8, ,
118, ,8, ,
108, ,8, ,
104, ,8, ,
101, ,8, ,
93, ,8, ,
86, ,8, ,
84, ,8, ,
79, ,8, ,
78, ,8, ,
71, ,8, ,
67, ,8, ,
65, ,8, ,
63, ,8, ,
55, ,8, ,
54, ,8, ,
50, ,8, ,
48, ,8, ,
41, ,8, ,
36, ,8, ,
35, ,8, ,
29, ,8, ,
18, ,8, ,
12, ,8, ,
3, ,8, ,
-3, ,8, ,
-17, ,8, ,
-26, ,8, ,
-33, ,8, ,
-39, ,8, ,
-53, ,8, ,
-60, ,8, ,
-67, ,8, ,
-73, ,8, ,
-87, ,8, ,
-95, ,8, ,
-103, ,8, ,
-113, ,8, ,
-126, ,8, ,
-126, ,8, ,
-126, ,8, ,
-126, ,8, ,
-126, ,8, ,
-126, ,8, ,
-126, ,8, ,
-126, ,8, ,
-126, ,8, ,
-126, ,8, ,
-126, ,8, ,
-126, ,8, ,
-126, ,8, ,
-126, ,8, ,
-126, ,8, ,
-126, ,8, ,
-126, ,8, ,
-126, ,8, ,
-126, ,8, ,
-126, ,8, ,
-126, ,8, ,
-125, ,8, ,
-117, ,8, ,
-102, ,8, ,
-79, ,8, ,
-68, ,8, ,
-60, ,8, ,
-54, ,8, ,
-46, ,8, ,
-46, ,8, ,
-43, ,8, ,
-42, ,8, ,
-38, ,8, ,
-34, ,8, ,
-30, ,8, ,
-22, ,8, ,
-3, ,8, ,
8, ,8, ,
23, ,8, ,
35, ,8, ,
68, ,8, ,
86, ,8, ,
101, ,8, ,
115, ,8, ,
125, ,8, ,
125, ,8, ,
125, ,8, ,
125, ,8, ,
125, ,8, ,
125, ,8, ,
125, ,8, ,
124, ,8, ,
118, ,8, ,
100, ,8, ,
86, ,8, ,
68, ,8, ,
32, ,8, ,
14, ,8, ,
-4, ,8, ,
-19, ,8, ,
-45, ,8, ,
-55, ,8, ,
-62, ,8, ,
-69, ,8, ,
-73, ,8, ,
-71, ,8, ,
-69, ,8, ,
-63, ,8, ,
-49, ,8, ,
-43, ,8, ,
-34, ,8, ,
-27, ,8, ,
-10, ,8, ,
0, ,8, ,
6, ,8, ,
14, ,8, ,
25, ,8, ,
28, ,8, ,
34, ,8, ,
33, ,8, ,
35, ,8, ,
35, ,8, ,
34, ,8, ,
34, ,8, ,
30, ,8, ,
27, ,8, ,
27, ,8, ,
24, ,8, ,
18, ,8, ,
17, ,8, ,
14, ,8, ,
13, ,8, ,
7, ,8, ,
5, ,8, ,
4, ,8, ,
2, ,8, ,
-3, ,8, ,
-3, ,8, ,
-6, ,8, ,
-6, ,8, ,
-7, ,8, ,
-8, ,8, ,
-8, ,8, ,
-10, ,8, ,
-11, ,8, ,
-13, ,8, ,
-16, ,8, ,
-15, ,8, ,
-21, ,8, ,
-26, ,8, ,
-30, ,8, ,
-35, ,8, ,
-45, ,8, ,
-50, ,8, ,
-55, ,8, ,
-59, ,8, ,
-67, ,8, ,
-72, ,8, ,
-75, ,8, ,
-76, ,8, ,
-78, ,8, ,
-76, ,8, ,
-75, ,8, ,
-72, ,8, ,
-63, ,8, ,
-60, ,8, ,
-53, ,8, ,
-47, ,8, ,
-34, ,8, ,
-27, ,8, ,
-22, ,8, ,
-14, ,8, ,
0, ,8, ,
3, ,8, ,
10, ,8, ,
13, ,8, ,
19, ,8, ,
21, ,8, ,
22, ,8, ,
22, ,8, ,
21, ,8, ,
19, ,8, ,
17, ,8, ,
15, ,8, ,
9, ,8, ,
9, ,8, ,
4, ,8, ,
2, ,8, ,
-1, ,8, ,
-3, ,8, ,
-2, ,8, ,
-3, ,8, ,
0, ,8, ,
2, ,8, ,
6, ,8, ,
10, ,8, ,
16, ,8, ,
20, ,8, ,
25, ,8, ,
28, ,8, ,
35, ,8, ,
39, ,8, ,
40, ,8, ,
44, ,8, ,
46, ,8, ,
46, ,8, ,
48, ,8, ,
46, ,8, ,
46, ,8, ,
48, ,8, ,
47, ,8, ,
48, ,8, ,
49, ,8, ,
50, ,8, ,
52, ,8, ,
52, ,8, ,
57, ,8, ,
60, ,8, ,
63, ,8, ,
67, ,8, ,
75, ,8, ,
77, ,8, ,
82, ,8, ,
84, ,8, ,
87, ,8, ,
89, ,8, ,
88, ,8, ,
89, ,8, ,
84, ,8, ,
79, ,8, ,
75, ,8, ,
68, ,8, ,
52, ,8, ,
44, ,8, ,
34, ,8, ,
26, ,8, ,
5, ,8, ,
-7, ,8, ,
-16, ,8, ,
-26, ,8, ,
-43, ,8, ,
-52, ,8, ,
-58, ,8, ,
-62, ,8, ,
-74, ,8, ,
-79, ,8, ,
-80, ,8, ,
-85, ,8, ,
-89, ,8, ,
-91, ,8, ,
-94, ,8, ,
-95, ,8, ,
-99, ,8, ,
-104, ,8, ,
-105, ,8, ,
-108, ,8, ,
-116, ,8, ,
-118, ,8, ,
-121, ,8, ,
-124, ,8, ,
-126, ,8, ,
-126, ,8, ,
-126, ,8, ,
-126, ,8, ,
-121, ,8, ,
-117, ,8, ,
-112, ,8, ,
-104, ,8, ,
-86, ,8, ,
-76, ,8, ,
-63, ,8, ,
-52, ,8, ,
-28, ,8, ,
-16, ,8, ,
-6, ,8, ,
6, ,8, ,
25, ,8, ,
31, ,8, ,
38, ,8, ,
42, ,8, ,
50, ,8, ,
51, ,8, ,
51, ,8, ,
51, ,8, ,
49, ,8, ,
45, ,8, ,
43, ,8, ,
38, ,8, ,
33, ,8, ,
32, ,8, ,
27, ,8, ,
27, ,8, ,
22, ,8, ,
20, ,8, ,
20, ,8, ,
19, ,8, ,
19, ,8, ,
21, ,8, ,
21, ,8, ,
22, ,8, ,
23, ,8, ,
22, ,8, ,
23, ,8, ,
22, ,8, ,
19, ,8, ,
20, ,8, ,
17, ,8, ,
17, ,8, ,
10, ,8, ,
5, ,8, ,
5, ,8, ,
-2, ,8, ,
-8, ,8, ,
-11, ,8, ,
-17, ,8, ,
-18, ,8, ,
-25, ,8, ,
-26, ,8, ,
-28, ,8, ,
-31, ,8, ,
-32, ,8, ,
-32, ,8, ,
-32, ,8, ,
-31, ,8, ,
-30, ,8, ,
-30, ,8, ,
-29, ,8, ,
-28, ,8, ,
-27, ,8, ,
-24, ,8, ,
-25, ,8, ,
-23, ,8, ,
-24, ,8, ,
-24, ,8, ,
-24, ,8, ,
-25, ,8, ,
-28, ,8, ,
-27, ,8, ,
-29, ,8, ,
-28, ,8, ,
-33, ,8, ,
-34, ,8, ,
-34, ,8, ,
-35, ,8, ,
-37, ,8, ,
-37, ,8, ,
-38, ,8, ,
-38, ,8, ,
-37, ,8, ,
-38, ,8, ,
-35, ,8, ,
-35, ,8, ,
-32, ,8, ,
-30, ,8, ,
-28, ,8, ,
-25, ,8, ,
-19, ,8, ,
-19, ,8, ,
-15, ,8, ,
-14, ,8, ,
-10, ,8, ,
-10, ,8, ,
-8, ,8, ,
-5, ,8, ,
-4, ,8, ,
-3, ,8, ,
-3, ,8, ,
-4, ,8, ,
-3, ,8, ,
-5, ,8, ,
-6, ,8, ,
-5, ,8, ,
-10, ,8, ,
-11, ,8, ,
-13, ,8, ,
-14, ,8, ,
-18, ,8, ,
-20, ,8, ,
-21, ,8, ,
-23, ,8, ,
-25, ,8, ,
-28, ,8, ,
-28, ,8, ,
-29, ,8, ,
-30, ,8, ,
-31, ,8, ,
-32, ,8, ,
-32, ,8, ,
-33, ,8, ,
-35, ,8, ,
-35, ,8, ,
-35, ,8, ,
-35, ,8, ,
-35, ,8, ,
-35, ,8, ,
-34, ,8, ,
-32, ,8, ,
-30, ,8, ,
-30, ,8, ,
-28, ,8, ,
-25, ,8, ,
-21, ,8, ,
-19, ,8, ,
-16, ,8, ,
-8, ,8, ,
-5, ,8, ,
1, ,8, ,
5, ,8, ,
15, ,8, ,
21, ,8, ,
25, ,8, ,
33, ,8, ,
43, ,8, ,
47, ,8, ,
53, ,8, ,
58, ,8, ,
67, ,8, ,
71, ,8, ,
74, ,8, ,
77, ,8, ,
80, ,8, ,
80, ,8, ,
81, ,8, ,
79, ,8, ,
77, ,8, ,
76, ,8, ,
74, ,8, ,
73, ,8, ,
71, ,8, ,
67, ,8, ,
66, ,8, ,
63, ,8, ,
59, ,8, ,
58, ,8, ,
55, ,8, ,
54, ,8, ,
50, ,8, ,
49, ,8, ,
46, ,8, ,
41, ,8, ,
36, ,8, ,
35, ,8, ,
30, ,8, ,
25, ,8, ,
15, ,8, ,
9, ,8, ,
2, ,8, ,
-5, ,8, ,
-18, ,8, ,
-24, ,8, ,
-30, ,8, ,
-35, ,8, ,
-46, ,8, ,
-52, ,8, ,
-55, ,8, ,
-61, ,8, ,
-66, ,8, ,
-67, ,8, ,
-68, ,8, ,
-66, ,8, ,
-65, ,8, ,
-63, ,8, ,
-58, ,8, ,
-57, ,8, ,
-51, ,8, ,
-45, ,8, ,
-42, ,8, ,
-36, ,8, ,
-29, ,8, ,
-27, ,8, ,
-22, ,8, ,
-21, ,8, ,
-15, ,8, ,
-11, ,8, ,
-11, ,8, ,
-10, ,8, ,
-5, ,8, ,
-3, ,8, ,
0, ,8, ,
1, ,8, ,
6, ,8, ,
9, ,8, ,
11, ,8, ,
16, ,8, ,
21, ,8, ,
25, ,8, ,
30, ,8, ,
31, ,8, ,
35, ,8, ,
39, ,8, ,
42, ,8, ,
46, ,8, ,
50, ,8, ,
51, ,8, ,
52, ,8, ,
52, ,8, ,
53, ,8, ,
53, ,8, ,
51, ,8, ,
51, ,8, ,
46, ,8, ,
43, ,8, ,
43, ,8, ,
39, ,8, ,
35, ,8, ,
32, ,8, ,
27, ,8, ,
25, ,8, ,
20, ,8, ,
16, ,8, ,
15, ,8, ,
12, ,8, ,
7, ,8, ,
6, ,8, ,
5, ,8, ,
5, ,8, ,
5, ,8, ,
5, ,8, ,
5, ,8, ,
4, ,8, ,
4, ,8, ,
4, ,8, ,
4, ,8, ,
4, ,8, ,
4, ,8, ,
2, ,8, ,
2, ,8, ,
1, ,8, ,
-3, ,8, ,
-3, ,8, ,
-6, ,8, ,
-5, ,8, ,
-10, ,8, ,
-11, ,8, ,
-13, ,8, ,
-16, ,8, ,
-20, ,8, ,
-21, ,8, ,
-21, ,8, ,
-22, ,8, ,
-22, ,8, ,
-22, ,8, ,
-21, ,8, ,
-21, ,8, ,
-20, ,8, ,
-16, ,8, ,
-15, ,8, ,
-14, ,8, ,
-10, ,8, ,
-8, ,8, ,
-7, ,8, ,
-5, ,8, ,
-2, ,8, ,
-1, ,8, ,
-2, ,8, ,
1, ,8, ,
0, ,8, ,
-1, ,8, ,
-1, ,8, ,
-3, ,8, ,
-5, ,8, ,
-6, ,8, ,
-7, ,8, ,
-8, ,8, ,
-10, ,8, ,
-12, ,8, ,
-13, ,8, ,
-15, ,8, ,
-16, ,8, ,
-16, ,8, ,
-17, ,8, ,
-17, ,8, ,
-18, ,8, ,
-18, ,8, ,
-18, ,8, ,
-18, ,8, ,
-19, ,8, ,
-20, ,8, ,
-19, ,8, ,
-19, ,8, ,
-21, ,8, ,
-24, ,8, ,
-23, ,8, ,
-26, ,8, ,
-30, ,8, ,
-30, ,8, ,
-33, ,8, ,
-35, ,8, ,
-39, ,8, ,
-42, ,8, ,
-42, ,8, ,
-45, ,8, ,
-49, ,8, ,
-49, ,8, ,
-50, ,8, ,
-49, ,8, ,
-50, ,8, ,
-50, ,8, ,
-49, ,8, ,
-47, ,8, ,
-43, ,8, ,
-40, ,8, ,
-39, ,8, ,
-35, ,8, ,
-32, ,8, ,
-29, ,8, ,
-25, ,8, ,
-23, ,8, ,
-19, ,8, ,
-17, ,8, ,
-13, ,8, ,
-10, ,8, ,
-6, ,8, ,
-3, ,8, ,
-2, ,8, ,
0, ,8, ,
5, ,8, ,
8, ,8, ,
10, ,8, ,
11, ,8, ,
19, ,8, ,
20, ,8, ,
23, ,8, ,
25, ,8, ,
31, ,8, ,
35, ,8, ,
35, ,8, ,
39, ,8, ,
43, ,8, ,
45, ,8, ,
46, ,8, ,
47, ,8, ,
47, ,8, ,
47, ,8, ,
46, ,8, ,
45, ,8, ,
43, ,8, ,
39, ,8, ,
36, ,8, ,
35, ,8, ,
27, ,8, ,
25, ,8, ,
22, ,8, ,
19, ,8, ,
11, ,8, ,
7, ,8, ,
5, ,8, ,
0, ,8, ,
-4, ,8, ,
-6, ,8, ,
-11, ,8, ,
-11, ,8, ,
-16, ,8, ,
-18, ,8, ,
-20, ,8, ,
-22, ,8, ,
-25, ,8, ,
-26, ,8, ,
-28, ,8, ,
-30, ,8, ,
-33, ,8, ,
-35, ,8, ,
-35, ,8, ,
-37, ,8, ,
-39, ,8, ,
-39, ,8, ,
-40, ,8, ,
-39, ,8, ,
-40, ,8, ,
-41, ,8, ,
-39, ,8, ,
-39, ,8, ,
-38, ,8, ,
-35, ,8, ,
-34, ,8, ,
-31, ,8, ,
-26, ,8, ,
-23, ,8, ,
-19, ,8, ,
-20, ,8, ,
-12, ,8, ,
-10, ,8, ,
-8, ,8, ,
-6, ,8, ,
0, ,8, ,
1, ,8, ,
1, ,8, ,
3, ,8, ,
6, ,8, ,
7, ,8, ,
8, ,8, ,
8, ,8, ,
9, ,8, ,
9, ,8, ,
8, ,8, ,
10, ,8, ,
9, ,8, ,
9, ,8, ,
9, ,8, ,
10, ,8, ,
9, ,8, ,
9, ,8, ,
9, ,8, ,
9, ,8, ,
10, ,8, ,
10, ,8, ,
10, ,8, ,
10, ,8, ,
11, ,8, ,
11, ,8, ,
11, ,8, ,
10, ,8, ,
10, ,8, ,
11, ,8, ,
9, ,8, ,
9, ,8, ,
8, ,8, ,
5, ,8, ,
5, ,8, ,
4, ,8, ,
2, ,8, ,
2, ,8, ,
0, ,8, ,
0, ,8, ,
-4, ,8, ,
-4, ,8, ,
-4, ,8, ,
-5, ,8, ,
-5, ,8, ,
-5, ,8, ,
-5, ,8, ,
-5, ,8, ,
-3, ,8, ,
-4, ,8, ,
-2, ,8, ,
-2, ,8, ,
-1, ,8, ,
1, ,8, ,
2, ,8, ,
3, ,8, ,
5, ,8, ,
5, ,8, ,
6, ,8, ,
6, ,8, ,
8, ,8, ,
9, ,8, ,
8, ,8, ,
9, ,8, ,
9, ,8, ,
8, ,8, ,
10, ,8, ,
9, ,8, ,
10, ,8, ,
10, ,8, ,
10, ,8, ,
11, ,8, ,
13, ,8, ,
13, ,8, ,
14, ,8, ,
15, ,8, ,
16, ,8, ,
18, ,8, ,
18, ,8, ,
19, ,8, ,
21, ,8, ,
21, ,8, ,
21, ,8, ,
21, ,8, ,
21, ,8, ,
20, ,8, ,
20, ,8, ,
20, ,8, ,
19, ,8, ,
17, ,8, ,
15, ,8, ,
13, ,8, ,
9, ,8, ,
8, ,8, ,
5, ,8, ,
4, ,8, ,
0, ,8, ,
-3, ,8, ,
-5, ,8, ,
-7, ,8, ,
-11, ,8, ,
-12, ,8, ,
-13, ,8, ,
-15, ,8, ,
-16, ,8, ,
-19, ,8, ,
-18, ,8, ,
-20, ,8, ,
-23, ,8, ,
-22, ,8, ,
-25, ,8, ,
-25, ,8, ,
-26, ,8, ,
-26, ,8, ,
-28, ,8, ,
-28, ,8, ,
-29, ,8, ,
-28, ,8, ,
-29, ,8, ,
-27, ,8, ,
-26, ,8, ,
-28, ,8, ,
-27, ,8, ,
-25, ,8, ,
-22, ,8, ,
-20, ,8, ,
-20, ,8, ,
-17, ,8, ,
-12, ,8, ,
-11, ,8, ,
-6, ,8, ,
-5, ,8, ,
1, ,8, ,
4, ,8, ,
6, ,8, ,
11, ,8, ,
15, ,8, ,
17, ,8, ,
20, ,8, ,
21, ,8, ,
25, ,8, ,
27, ,8, ,
27, ,8, ,
29, ,8, ,
29, ,8, ,
29, ,8, ,
30, ,8, ,
30, ,8, ,
29, ,8, ,
30, ,8, ,
29, ,8, ,
28, ,8, ,
27, ,8, ,
27, ,8, ,
27, ,8, ,
25, ,8, ,
23, ,8, ,
22, ,8, ,
21, ,8, ,
22, ,8, ,
19, ,8, ,
16, ,8, ,
17, ,8, ,
14, ,8, ,
11, ,8, ,
9, ,8, ,
7, ,8, ,
6, ,8, ,
2, ,8, ,
0, ,8, ,
-1, ,8, ,
-4, ,8, ,
-6, ,8, ,
-8, ,8, ,
-11, ,8, ,
-11, ,8, ,
-12, ,8, ,
-15, ,8, ,
-15, ,8, ,
-15, ,8, ,
-15, ,8, ,
-15, ,8, ,
-15, ,8, ,
-15, ,8, ,
-15, ,8, ,
-13, ,8, ,
-13, ,8, ,
-14, ,8, ,
-12, ,8, ,
-9, ,8, ,
-10, ,8, ,
-7, ,8, ,
-6, ,8, ,
-6, ,8, ,
-5, ,8, ,
-4, ,8, ,
-4, ,8, ,
-2, ,8, ,
-2, ,8, ,
-2, ,8, ,
-1, ,8, ,
0, ,8, ,
0, ,8, ,
0, ,8, ,
2, ,8, ,
2, ,8, ,
2, ,8, ,
3, ,8, ,
4, ,8, ,
4, ,8, ,
4, ,8, ,
4, ,8, ,
5, ,8, ,
6, ,8, ,
6, ,8, ,
6, ,8, ,
7, ,8, ,
6, ,8, ,
7, ,8, ,
7, ,8, ,
6, ,8, ,
6, ,8, ,
5, ,8, ,
4, ,8, ,
4, ,8, ,
2, ,8, ,
2, ,8, ,
0, ,8, ,
-1, ,8, ,
-1, ,8, ,
-3, ,8, ,
-5, ,8, ,
-6, ,8, ,
-6, ,8, ,
-6, ,8, ,
-7, ,8, ,
-8, ,8, ,
-8, ,8, ,
-8, ,8, ,
-8, ,8, ,
-8, ,8, ,
-9, ,8, ,
-9, ,8, ,
-9, ,8, ,
-9, ,8, ,
-9, ,8, ,
-9, ,8, ,
-9, ,8, ,
-8, ,8, ,
-8, ,8, ,
-7, ,8, ,
-7, ,8, ,
-7, ,8, ,
-6, ,8, ,
-8, ,8, ,
-6, ,8, ,
-5, ,8, ,
-5, ,8, ,
-4, ,8, ,
-5, ,8, ,
-2, ,8, ,
-1, ,8, ,
0, ,8, ,
1, ,8, ,
3, ,8, ,
5, ,8, ,
5, ,8, ,
6, ,8, ,
8, ,8, ,
10, ,8, ,
11, ,8, ,
12, ,8, ,
15, ,8, ,
14, ,8, ,
16, ,8, ,
16, ,8, ,
17, ,8, ,
17, ,8, ,
17, ,8, ,
17, ,8, ,
17, ,8, ,
16, ,8, ,
16, ,8, ,
15, ,8, ,
15, ,8, ,
14, ,8, ,
14, ,8, ,
13, ,8, ,
12, ,8, ,
9, ,8, ,
9, ,8, ,
7, ,8, ,
5, ,8, ,
5, ,8, ,
4, ,8, ,
4, ,8, ,
2, ,8, ,
-1, ,8, ,
-1, ,8, ,
-3, ,8, ,
-4, ,8, ,
-5, ,8, ,
-6, ,8, ,
-7, ,8, ,
-10, ,8, ,
-11, ,8, ,
-10, ,8, ,
-13, ,8, ,
-14, ,8, ,
-14, ,8, ,
-15, ,8, ,
-14, ,8, ,
-15, ,8, ,
-15, ,8, ,
-15, ,8, ,
-15, ,8, ,
-14, ,8, ,
-14, ,8, ,
-13, ,8, ,
-14, ,8, ,
-12, ,8, ,
-14, ,8, ,
-10, ,8, ,
-11, ,8, ,
-10, ,8, ,
-6, ,8, ,
-7, ,8, ,
-5, ,8, ,
-4, ,8, ,
-2, ,8, ,
0, ,8, ,
-1, ,8, ,
2, ,8, ,
1, ,8, ,
3, ,8, ,
5, ,8, ,
6, ,8, ,
6, ,8, ,
7, ,8, ,
9, ,8, ,
10, ,8, ,
10, ,8, ,
11, ,8, ,
12, ,8, ,
13, ,8, ,
13, ,8, ,
13, ,8, ,
13, ,8, ,
15, ,8, ,
15, ,8, ,
13, ,8, ,
16, ,8, ,
15, ,8, ,
14, ,8, ,
15, ,8, ,
13, ,8, ,
12, ,8, ,
10, ,8, ,
10, ,8, ,
9, ,8, ,
8, ,8, ,
7, ,8, ,
7, ,8, ,
5, ,8, ,
4, ,8, ,
3, ,8, ,
2, ,8, ,
2, ,8, ,
0, ,8, ,
-1, ,8, ,
-1, ,8, ,
-2, ,8, ,
-3, ,8, ,
-3, ,8, ,
-4, ,8, ,
-3, ,8, ,
-6, ,8, ,
-6, ,8, ,
-6, ,8, ,
-7, ,8, ,
-6, ,8, ,
-6, ,8, ,
-7, ,8, ,
-7, ,8, ,
-8, ,8, ,
-8, ,8, ,
-8, ,8, ,
-9, ,8, ,
-7, ,8, ,
-6, ,8, ,
-6, ,8, ,
-5, ,8, ,
-5, ,8, ,
-5, ,8, ,
-4, ,8, ,
-4, ,8, ,
-3, ,8, ,
-2, ,8, ,
-3, ,8, ,
-1, ,8, ,
0, ,8, ,
0, ,8, ,
1, ,8, ,
1, ,8, ,
1, ,8, ,
1, ,8, ,
2, ,8, ,
2, ,8, ,
3, ,8, ,
3, ,8, ,
3, ,8, ,
3, ,8, ,
3, ,8, ,
2, ,8, ,
2, ,8, ,
1, ,8, ,
2, ,8, ,
2, ,8, ,
2, ,8, ,
1, ,8, ,
0, ,8, ,
0, ,8, ,
0, ,8, ,
0, ,8, ,
1, ,8, ,
0, ,8, ,
0, ,8, ,
0, ,8, ,
0, ,8, ,
0, ,8, ,
-1, ,8, ,
-1, ,8, ,
-1, ,8, ,
-3, ,8, ,
-2, ,8, ,
-3, ,8, ,
-3, ,8, ,
-3, ,8, ,
-4, ,8, ,
-3, ,8, ,
-3, ,8, ,
-4, ,8, ,
-3, ,8, ,
-4, ,8, ,
-4, ,8, ,
-3, ,8, ,
-4, ,8, ,
-3, ,8, ,
-3, ,8, ,
-4, ,8, ,
-2, ,8, ,
-3, ,8, ,
-3, ,8, ,
0, ,8, ,
-1, ,8, ,
0, ,8, ,
1, ,8, ,
0, ,8, ,
1, ,8, ,
1, ,8, ,
1, ,8, ,
3, ,8, ,
3, ,8, ,
4, ,8, ,
5, ,8, ,
3, ,8, ,
5, ,8, ,
5, ,8, ,
5, ,8, ,
6, ,8, ,
6, ,8, ,
6, ,8, ,
6, ,8, ,
6, ,8, ,
7, ,8, ,
5, ,8, ,
7, ,8, ,
7, ,8, ,
7, ,8, ,
7, ,8, ,
8, ,8, ,
8, ,8, ,
