raw_data/100% Glycerol, Impulsion 2Hz, Sonde 5MHz, Rampe 0.7Hz/temp0000222.CSV

Format,1.0B,
Memory Length,10000,Memory Length,10000,
IntpDistance,0,IntpDistance,0,
Trigger Address,159,Trigger Address,159,
Trigger Level,2.720E-01,Trigger Level,2.720E-01,
Source,CH1,Source,CH2,
Vertical Units,V,Vertical Units,V,
Vertical Units Div,0,Vertical Units Div,0,
Vertical Units Extend Div,16,Vertical Units Extend Div,16,
Label,,Label,,
Probe Type,0,Probe Type,0,
Probe Ratio,1.000e+00,Probe Ratio,1.000e+00,
Vertical Scale,2.000e-01,Vertical Scale,2.000e+00,
Vertical Position,0.000e+00,Vertical Position,0.000e+00,
Horizontal Units,S,Horizontal Units,S,
Horizontal Scale,5.000E-06,Horizontal Scale,5.000E-06,
Horizontal Position,2.420E-05,Horizontal Position,2.420E-05,
Horizontal Mode,Main,Horizontal Mode,Main,
SincET Mode,Real Time,SincET Mode,Real Time,
Sampling Period,5.000e-09,Sampling Period,5.000e-09,
Horizontal Old Scale,5.000E-06,Horizontal Old Scale,5.000E-06,
Horizontal Old Position,2.420E-05,Horizontal Old Position,2.420E-05,
Firmware,V1.32,Firmware,V1.32,
Mode,Fast,Mode,Fast,
Waveform Data,,Waveform Data,,
2, ,26, ,
1, ,26, ,
2, ,26, ,
0, ,26, ,
1, ,26, ,
1, ,26, ,
1, ,26, ,
2, ,26, ,
2, ,26, ,
1, ,26, ,
2, ,26, ,
1, ,26, ,
1, ,26, ,
2, ,26, ,
1, ,26, ,
1, ,26, ,
2, ,26, ,
1, ,26, ,
1, ,26, ,
0, ,26, ,
1, ,26, ,
2, ,26, ,
1, ,26, ,
1, ,26, ,
2, ,26, ,
1, ,26, ,
2, ,26, ,
1, ,26, ,
2, ,26, ,
2, ,26, ,
1, ,26, ,
2, ,26, ,
2, ,26, ,
2, ,26, ,
2, ,26, ,
1, ,26, ,
1, ,26, ,
2, ,26, ,
1, ,26, ,
2, ,26, ,
2, ,26, ,
1, ,26, ,
2, ,26, ,
1, ,26, ,
2, ,26, ,
3, ,26, ,
1, ,26, ,
1, ,26, ,
1, ,26, ,
1, ,26, ,
1, ,26, ,
1, ,26, ,
1, ,26, ,
2, ,26, ,
1, ,26, ,
2, ,26, ,
2, ,26, ,
1, ,26, ,
2, ,26, ,
1, ,26, ,
2, ,26, ,
2, ,26, ,
1, ,26, ,
1, ,26, ,
1, ,26, ,
1, ,26, ,
1, ,26, ,
1, ,26, ,
0, ,26, ,
2, ,26, ,
1, ,26, ,
1, ,26, ,
2, ,26, ,
1, ,26, ,
1, ,26, ,
1, ,26, ,
2, ,26, ,
1, ,26, ,
1, ,26, ,
1, ,26, ,
2, ,26, ,
1, ,26, ,
3, ,26, ,
0, ,26, ,
1, ,26, ,
1, ,26, ,
2, ,26, ,
1, ,26, ,
2, ,26, ,
1, ,24, ,
2, ,24, ,
2, ,24, ,
2, ,26, ,
2, ,26, ,
1, ,26, ,
1, ,26, ,
2, ,26, ,
0, ,26, ,
2, ,26, ,
1, ,26, ,
1, ,26, ,
2, ,26, ,
1, ,26, ,
2, ,26, ,
2, ,26, ,
1, ,26, ,
1, ,26, ,
1, ,26, ,
1, ,26, ,
2, ,26, ,
1, ,26, ,
2, ,26, ,
2, ,26, ,
1, ,26, ,
1, ,26, ,
1, ,26, ,
1, ,26, ,
1, ,26, ,
1, ,26, ,
2, ,26, ,
2, ,26, ,
1, ,26, ,
2, ,26, ,
0, ,26, ,
2, ,26, ,
2, ,26, ,
1, ,26, ,
2, ,26, ,
2, ,26, ,
1, ,26, ,
1, ,26, ,
1, ,26, ,
1, ,26, ,
2, ,26, ,
2, ,26, ,
2, ,26, ,
2, ,26, ,
1, ,26, ,
1, ,26, ,
1, ,26, ,
2, ,26, ,
2, ,26, ,
1, ,26, ,
1, ,26, ,
2, ,26, ,
0, ,26, ,
1, ,26, ,
1, ,26, ,
1, ,26, ,
2, ,26, ,
1, ,26, ,
2, ,26, ,
2, ,26, ,
1, ,26, ,
2, ,26, ,
1, ,26, ,
1, ,26, ,
2, ,26, ,
1, ,26, ,
2, ,26, ,
2, ,26, ,
1, ,26, ,
1, ,26, ,
2, ,26, ,
-1, ,26, ,
0, ,26, ,
-2, ,26, ,
1, ,26, ,
87, ,26, ,
125, ,26, ,
125, ,26, ,
125, ,26, ,
121, ,26, ,
116, ,26, ,
12, ,26, ,
-12, ,26, ,
125, ,26, ,
125, ,26, ,
125, ,26, ,
125, ,26, ,
125, ,26, ,
125, ,26, ,
125, ,26, ,
125, ,26, ,
125, ,26, ,
125, ,26, ,
125, ,26, ,
125, ,26, ,
125, ,26, ,
125, ,26, ,
125, ,26, ,
125, ,26, ,
125, ,26, ,
125, ,26, ,
125, ,26, ,
125, ,26, ,
125, ,26, ,
125, ,26, ,
125, ,26, ,
125, ,26, ,
125, ,26, ,
125, ,26, ,
124, ,26, ,
124, ,26, ,
115, ,26, ,
111, ,26, ,
105, ,26, ,
101, ,26, ,
95, ,26, ,
90, ,26, ,
86, ,26, ,
81, ,26, ,
73, ,26, ,
72, ,26, ,
68, ,26, ,
64, ,26, ,
59, ,26, ,
56, ,26, ,
54, ,26, ,
50, ,26, ,
46, ,26, ,
45, ,26, ,
41, ,26, ,
40, ,26, ,
35, ,26, ,
35, ,26, ,
34, ,26, ,
31, ,26, ,
28, ,26, ,
27, ,26, ,
26, ,26, ,
24, ,26, ,
22, ,26, ,
21, ,26, ,
20, ,26, ,
17, ,26, ,
15, ,26, ,
15, ,26, ,
13, ,26, ,
13, ,26, ,
11, ,26, ,
10, ,26, ,
9, ,26, ,
9, ,26, ,
7, ,26, ,
7, ,26, ,
6, ,26, ,
7, ,26, ,
5, ,24, ,
4, ,24, ,
4, ,26, ,
3, ,26, ,
2, ,26, ,
2, ,26, ,
1, ,26, ,
1, ,26, ,
1, ,26, ,
0, ,24, ,
0, ,24, ,
-1, ,24, ,
-2, ,26, ,
-1, ,26, ,
-2, ,26, ,
-1, ,26, ,
-2, ,26, ,
-3, ,26, ,
-2, ,26, ,
-4, ,26, ,
-2, ,26, ,
-2, ,26, ,
-2, ,26, ,
-2, ,26, ,
-3, ,26, ,
-3, ,26, ,
-2, ,26, ,
-3, ,26, ,
-3, ,26, ,
-3, ,26, ,
-4, ,26, ,
-3, ,26, ,
-3, ,26, ,
-3, ,26, ,
-3, ,26, ,
-3, ,26, ,
-3, ,26, ,
-3, ,26, ,
-4, ,26, ,
-3, ,26, ,
-3, ,26, ,
-4, ,26, ,
-3, ,26, ,
-3, ,26, ,
-3, ,26, ,
-4, ,26, ,
-2, ,26, ,
-3, ,26, ,
-3, ,26, ,
-3, ,26, ,
-3, ,26, ,
-4, ,26, ,
-2, ,26, ,
-2, ,26, ,
-3, ,26, ,
-1, ,26, ,
-2, ,26, ,
-2, ,26, ,
-2, ,26, ,
-2, ,26, ,
-2, ,26, ,
-2, ,26, ,
-2, ,26, ,
-2, ,26, ,
-1, ,26, ,
-2, ,26, ,
-1, ,26, ,
-2, ,26, ,
-1, ,26, ,
-1, ,26, ,
-1, ,26, ,
0, ,26, ,
-1, ,26, ,
-2, ,26, ,
-1, ,26, ,
-2, ,26, ,
-1, ,26, ,
-1, ,26, ,
0, ,26, ,
0, ,26, ,
0, ,26, ,
0, ,26, ,
-1, ,26, ,
-1, ,26, ,
-1, ,26, ,
0, ,26, ,
-2, ,26, ,
-1, ,26, ,
0, ,26, ,
0, ,26, ,
0, ,26, ,
-1, ,26, ,
0, ,26, ,
0, ,26, ,
-1, ,26, ,
0, ,26, ,
0, ,26, ,
0, ,26, ,
0, ,26, ,
0, ,26, ,
0, ,26, ,
0, ,26, ,
1, ,26, ,
2, ,26, ,
0, ,26, ,
0, ,26, ,
0, ,26, ,
0, ,26, ,
-1, ,26, ,
0, ,26, ,
0, ,26, ,
1, ,26, ,
1, ,26, ,
0, ,26, ,
2, ,26, ,
0, ,26, ,
0, ,26, ,
1, ,26, ,
-1, ,26, ,
1, ,26, ,
1, ,26, ,
1, ,26, ,
1, ,26, ,
1, ,26, ,
1, ,26, ,
1, ,26, ,
0, ,26, ,
0, ,26, ,
1, ,26, ,
0, ,26, ,
1, ,26, ,
1, ,26, ,
1, ,26, ,
1, ,26, ,
1, ,26, ,
1, ,26, ,
0, ,26, ,
0, ,26, ,
1, ,26, ,
0, ,26, ,
0, ,26, ,
2, ,26, ,
0, ,26, ,
1, ,26, ,
1, ,26, ,
0, ,26, ,
1, ,26, ,
-1, ,26, ,
1, ,26, ,
1, ,26, ,
1, ,26, ,
1, ,26, ,
1, ,26, ,
1, ,26, ,
1, ,26, ,
1, ,26, ,
0, ,26, ,
2, ,26, ,
1, ,26, ,
1, ,26, ,
2, ,26, ,
1, ,26, ,
2, ,26, ,
1, ,26, ,
2, ,26, ,
2, ,26, ,
0, ,26, ,
1, ,26, ,
2, ,26, ,
0, ,26, ,
2, ,26, ,
1, ,26, ,
1, ,26, ,
1, ,26, ,
0, ,26, ,
0, ,26, ,
0, ,26, ,
0, ,26, ,
0, ,26, ,
0, ,26, ,
0, ,26, ,
1, ,26, ,
1, ,26, ,
1, ,26, ,
1, ,26, ,
0, ,26, ,
1, ,26, ,
1, ,26, ,
0, ,26, ,
1, ,26, ,
1, ,26, ,
1, ,26, ,
0, ,26, ,
-1, ,26, ,
-1, ,26, ,
-2, ,26, ,
-1, ,26, ,
-1, ,26, ,
-1, ,26, ,
0, ,26, ,
1, ,26, ,
0, ,26, ,
1, ,26, ,
1, ,26, ,
1, ,26, ,
1, ,26, ,
1, ,26, ,
2, ,26, ,
2, ,26, ,
0, ,26, ,
2, ,26, ,
1, ,26, ,
1, ,26, ,
1, ,26, ,
1, ,26, ,
1, ,26, ,
1, ,26, ,
0, ,26, ,
1, ,26, ,
0, ,26, ,
1, ,26, ,
1, ,26, ,
1, ,26, ,
2, ,26, ,
3, ,26, ,
2, ,26, ,
2, ,26, ,
1, ,26, ,
0, ,26, ,
2, ,26, ,
0, ,26, ,
1, ,26, ,
0, ,26, ,
0, ,26, ,
0, ,26, ,
-1, ,26, ,
-1, ,26, ,
0, ,26, ,
0, ,26, ,
0, ,26, ,
1, ,26, ,
1, ,26, ,
2, ,26, ,
-1, ,26, ,
1, ,26, ,
2, ,26, ,
1, ,26, ,
2, ,26, ,
2, ,26, ,
0, ,26, ,
1, ,26, ,
0, ,26, ,
-2, ,26, ,
0, ,26, ,
0, ,26, ,
0, ,26, ,
0, ,26, ,
0, ,26, ,
0, ,26, ,
0, ,26, ,
1, ,26, ,
1, ,26, ,
0, ,26, ,
1, ,26, ,
1, ,26, ,
0, ,26, ,
1, ,26, ,
-1, ,26, ,
-3, ,26, ,
-3, ,26, ,
-4, ,26, ,
-4, ,26, ,
-6, ,26, ,
-7, ,26, ,
-8, ,26, ,
-8, ,26, ,
-8, ,26, ,
-8, ,26, ,
-9, ,26, ,
-8, ,26, ,
-8, ,26, ,
-9, ,26, ,
-9, ,26, ,
-10, ,26, ,
-12, ,26, ,
-11, ,26, ,
-14, ,26, ,
-14, ,26, ,
-18, ,26, ,
-20, ,26, ,
-19, ,26, ,
-25, ,26, ,
-26, ,26, ,
-28, ,26, ,
-29, ,26, ,
-30, ,26, ,
-29, ,26, ,
-29, ,26, ,
-29, ,26, ,
-27, ,26, ,
-25, ,26, ,
-25, ,26, ,
-26, ,26, ,
-26, ,26, ,
-26, ,26, ,
-26, ,26, ,
-26, ,26, ,
-28, ,26, ,
-30, ,26, ,
-31, ,26, ,
-32, ,26, ,
-31, ,26, ,
-32, ,26, ,
-32, ,26, ,
-32, ,26, ,
-30, ,26, ,
-27, ,26, ,
-23, ,26, ,
-20, ,26, ,
-17, ,26, ,
-11, ,26, ,
-10, ,24, ,
-8, ,24, ,
-7, ,24, ,
-5, ,26, ,
-5, ,26, ,
-5, ,26, ,
-5, ,26, ,
-6, ,26, ,
-7, ,26, ,
-6, ,26, ,
-7, ,26, ,
-7, ,26, ,
-5, ,26, ,
-5, ,24, ,
-3, ,24, ,
-2, ,24, ,
-1, ,26, ,
0, ,26, ,
0, ,26, ,
2, ,26, ,
1, ,26, ,
1, ,26, ,
0, ,26, ,
-1, ,26, ,
-3, ,26, ,
-5, ,26, ,
-6, ,26, ,
-9, ,26, ,
-10, ,26, ,
-11, ,26, ,
-11, ,26, ,
-13, ,26, ,
-15, ,26, ,
-13, ,26, ,
-13, ,26, ,
-12, ,26, ,
-11, ,26, ,
-12, ,26, ,
-12, ,26, ,
-13, ,26, ,
-13, ,26, ,
-14, ,26, ,
-18, ,26, ,
-20, ,26, ,
-23, ,26, ,
-25, ,26, ,
-25, ,26, ,
-27, ,26, ,
-28, ,26, ,
-27, ,26, ,
-29, ,26, ,
-27, ,26, ,
-25, ,26, ,
-25, ,26, ,
-24, ,26, ,
-22, ,26, ,
-23, ,26, ,
-23, ,26, ,
-23, ,26, ,
-25, ,26, ,
-25, ,26, ,
-25, ,26, ,
-25, ,26, ,
-27, ,26, ,
-28, ,26, ,
-28, ,26, ,
-30, ,26, ,
-31, ,26, ,
-31, ,26, ,
-33, ,26, ,
-33, ,26, ,
-35, ,26, ,
-35, ,26, ,
-35, ,26, ,
-36, ,26, ,
-37, ,26, ,
-35, ,26, ,
-36, ,26, ,
-35, ,26, ,
-34, ,26, ,
-35, ,26, ,
-33, ,26, ,
-35, ,26, ,
-35, ,26, ,
-35, ,26, ,
-35, ,26, ,
-35, ,26, ,
-36, ,26, ,
-36, ,26, ,
-36, ,26, ,
-35, ,26, ,
-34, ,26, ,
-32, ,26, ,
-31, ,26, ,
-28, ,26, ,
-26, ,26, ,
-25, ,26, ,
-25, ,26, ,
-26, ,26, ,
-26, ,26, ,
-25, ,26, ,
-28, ,26, ,
-30, ,26, ,
-31, ,26, ,
-32, ,26, ,
-33, ,26, ,
-34, ,24, ,
-32, ,24, ,
-31, ,26, ,
-31, ,26, ,
-29, ,26, ,
-27, ,26, ,
-27, ,26, ,
-26, ,26, ,
-27, ,26, ,
-25, ,26, ,
-24, ,26, ,
-25, ,26, ,
-24, ,26, ,
-23, ,26, ,
-24, ,26, ,
-23, ,26, ,
-22, ,26, ,
-21, ,26, ,
-19, ,26, ,
-19, ,26, ,
-17, ,26, ,
-17, ,26, ,
-17, ,26, ,
-16, ,26, ,
-17, ,26, ,
-15, ,26, ,
-15, ,26, ,
-16, ,26, ,
-14, ,26, ,
-14, ,26, ,
-13, ,26, ,
-12, ,26, ,
-12, ,26, ,
-10, ,26, ,
-10, ,26, ,
-10, ,24, ,
-10, ,24, ,
-10, ,24, ,
-10, ,26, ,
-10, ,26, ,
-10, ,26, ,
-9, ,26, ,
-7, ,26, ,
-8, ,26, ,
-5, ,26, ,
-2, ,26, ,
-1, ,26, ,
1, ,26, ,
1, ,26, ,
5, ,26, ,
7, ,26, ,
8, ,26, ,
11, ,26, ,
13, ,26, ,
15, ,26, ,
16, ,26, ,
16, ,26, ,
18, ,26, ,
20, ,26, ,
21, ,26, ,
22, ,26, ,
23, ,26, ,
22, ,26, ,
23, ,26, ,
23, ,26, ,
21, ,26, ,
22, ,26, ,
19, ,26, ,
18, ,26, ,
15, ,26, ,
14, ,26, ,
14, ,26, ,
10, ,26, ,
7, ,26, ,
7, ,26, ,
3, ,26, ,
2, ,26, ,
-2, ,26, ,
-5, ,26, ,
-6, ,26, ,
-8, ,26, ,
-11, ,26, ,
-12, ,26, ,
-13, ,26, ,
-15, ,26, ,
-16, ,26, ,
-19, ,26, ,
-18, ,26, ,
-20, ,26, ,
-21, ,26, ,
-21, ,26, ,
-22, ,26, ,
-23, ,26, ,
-24, ,26, ,
-26, ,26, ,
-25, ,26, ,
-28, ,26, ,
-29, ,26, ,
-28, ,26, ,
-31, ,26, ,
-31, ,26, ,
-33, ,26, ,
-34, ,26, ,
-33, ,26, ,
-35, ,26, ,
-35, ,26, ,
-35, ,26, ,
-35, ,26, ,
-35, ,26, ,
-35, ,26, ,
-35, ,26, ,
-34, ,26, ,
-34, ,26, ,
-34, ,26, ,
-34, ,26, ,
-34, ,26, ,
-32, ,26, ,
-32, ,26, ,
-32, ,26, ,
-29, ,26, ,
-30, ,26, ,
-27, ,26, ,
-25, ,26, ,
-25, ,26, ,
-22, ,26, ,
-19, ,26, ,
-18, ,26, ,
-17, ,26, ,
-15, ,26, ,
-14, ,26, ,
-12, ,26, ,
-12, ,26, ,
-11, ,26, ,
-10, ,26, ,
-8, ,26, ,
-7, ,26, ,
-8, ,26, ,
-4, ,26, ,
-3, ,24, ,
-4, ,24, ,
-1, ,26, ,
0, ,26, ,
0, ,26, ,
1, ,26, ,
1, ,26, ,
3, ,26, ,
4, ,26, ,
3, ,26, ,
4, ,26, ,
4, ,26, ,
3, ,26, ,
5, ,26, ,
3, ,26, ,
5, ,26, ,
4, ,26, ,
4, ,26, ,
4, ,26, ,
4, ,26, ,
3, ,26, ,
3, ,26, ,
2, ,26, ,
1, ,26, ,
1, ,26, ,
1, ,26, ,
2, ,26, ,
1, ,26, ,
2, ,26, ,
2, ,26, ,
1, ,26, ,
1, ,26, ,
2, ,26, ,
1, ,26, ,
2, ,26, ,
1, ,26, ,
0, ,26, ,
0, ,26, ,
0, ,26, ,
-2, ,26, ,
-2, ,26, ,
-3, ,26, ,
-2, ,26, ,
-4, ,26, ,
-6, ,26, ,
-7, ,26, ,
-8, ,26, ,
-11, ,26, ,
-11, ,26, ,
-13, ,26, ,
-15, ,26, ,
-15, ,26, ,
-19, ,26, ,
-20, ,26, ,
-22, ,26, ,
-25, ,26, ,
-25, ,26, ,
-26, ,26, ,
-25, ,26, ,
-28, ,26, ,
-29, ,26, ,
-28, ,26, ,
-30, ,26, ,
-30, ,26, ,
-29, ,26, ,
-29, ,26, ,
-29, ,26, ,
-27, ,26, ,
-27, ,26, ,
-27, ,26, ,
-26, ,26, ,
-25, ,26, ,
-23, ,26, ,
-23, ,26, ,
-22, ,26, ,
-19, ,26, ,
-19, ,26, ,
-19, ,26, ,
-19, ,26, ,
-17, ,26, ,
-14, ,26, ,
-15, ,26, ,
-13, ,26, ,
-12, ,26, ,
-12, ,26, ,
-12, ,26, ,
-12, ,26, ,
-12, ,26, ,
-11, ,26, ,
-11, ,26, ,
-12, ,26, ,
-12, ,26, ,
-12, ,26, ,
-12, ,26, ,
-12, ,26, ,
-12, ,26, ,
-12, ,24, ,
-12, ,24, ,
-12, ,26, ,
-12, ,26, ,
-14, ,26, ,
-13, ,26, ,
-14, ,26, ,
-14, ,26, ,
-13, ,26, ,
-14, ,26, ,
-13, ,26, ,
-15, ,26, ,
-15, ,26, ,
-14, ,26, ,
-16, ,26, ,
-15, ,26, ,
-15, ,26, ,
-15, ,26, ,
-14, ,26, ,
-15, ,26, ,
-16, ,26, ,
-16, ,26, ,
-15, ,26, ,
-16, ,26, ,
-16, ,26, ,
-17, ,26, ,
-16, ,26, ,
-16, ,26, ,
-17, ,26, ,
-17, ,26, ,
-17, ,26, ,
-16, ,26, ,
-16, ,26, ,
-17, ,26, ,
-16, ,26, ,
-15, ,26, ,
-14, ,26, ,
-14, ,26, ,
-14, ,26, ,
-14, ,26, ,
-14, ,26, ,
-14, ,26, ,
-12, ,26, ,
-11, ,26, ,
-11, ,26, ,
-10, ,26, ,
-10, ,26, ,
-10, ,26, ,
-7, ,26, ,
-7, ,26, ,
-7, ,26, ,
-4, ,26, ,
-4, ,26, ,
-2, ,26, ,
-2, ,26, ,
-1, ,26, ,
0, ,26, ,
-1, ,26, ,
0, ,26, ,
1, ,26, ,
1, ,26, ,
1, ,26, ,
1, ,26, ,
3, ,26, ,
3, ,26, ,
2, ,26, ,
3, ,26, ,
3, ,26, ,
3, ,26, ,
3, ,26, ,
2, ,26, ,
2, ,26, ,
2, ,26, ,
1, ,26, ,
1, ,26, ,
1, ,26, ,
0, ,26, ,
0, ,26, ,
-1, ,26, ,
-2, ,26, ,
-1, ,26, ,
-3, ,26, ,
-2, ,26, ,
-3, ,26, ,
-4, ,26, ,
-3, ,26, ,
-5, ,26, ,
-6, ,26, ,
-7, ,26, ,
-7, ,26, ,
-8, ,26, ,
-8, ,26, ,
-9, ,26, ,
-9, ,26, ,
-11, ,26, ,
-12, ,26, ,
-10, ,26, ,
-12, ,26, ,
-12, ,26, ,
-14, ,26, ,
-15, ,26, ,
-15, ,26, ,
-16, ,26, ,
-16, ,26, ,
-16, ,26, ,
-17, ,26, ,
-15, ,26, ,
-16, ,26, ,
-16, ,26, ,
-15, ,26, ,
-15, ,26, ,
-14, ,26, ,
-13, ,24, ,
-13, ,24, ,
-12, ,26, ,
-10, ,26, ,
-10, ,26, ,
-10, ,26, ,
-9, ,26, ,
-8, ,26, ,
-6, ,26, ,
-5, ,26, ,
-5, ,26, ,
-4, ,26, ,
-4, ,26, ,
-3, ,26, ,
-4, ,26, ,
-2, ,26, ,
-1, ,26, ,
-2, ,26, ,
-1, ,26, ,
-3, ,26, ,
-3, ,26, ,
-3, ,26, ,
-4, ,26, ,
-5, ,26, ,
-5, ,26, ,
-5, ,26, ,
-5, ,26, ,
-5, ,26, ,
-5, ,26, ,
-5, ,26, ,
-5, ,26, ,
-4, ,26, ,
-4, ,26, ,
-4, ,26, ,
-4, ,26, ,
-4, ,26, ,
-4, ,26, ,
-4, ,26, ,
-4, ,26, ,
-4, ,26, ,
-3, ,26, ,
-3, ,26, ,
-2, ,26, ,
-2, ,26, ,
-2, ,26, ,
-1, ,26, ,
-4, ,26, ,
-2, ,26, ,
-2, ,26, ,
-3, ,26, ,
-3, ,26, ,
-2, ,26, ,
-4, ,26, ,
-4, ,26, ,
-5, ,26, ,
-5, ,26, ,
-5, ,26, ,
-5, ,26, ,
-5, ,26, ,
-5, ,26, ,
-5, ,26, ,
-5, ,26, ,
-5, ,26, ,
-5, ,26, ,
-6, ,26, ,
-6, ,26, ,
-7, ,26, ,
-7, ,26, ,
-7, ,26, ,
-6, ,26, ,
-7, ,26, ,
-7, ,26, ,
-5, ,26, ,
-6, ,26, ,
-5, ,26, ,
-3, ,26, ,
-4, ,26, ,
-3, ,26, ,
-4, ,26, ,
-1, ,26, ,
-1, ,26, ,
-1, ,26, ,
0, ,26, ,
1, ,26, ,
1, ,26, ,
1, ,26, ,
3, ,26, ,
2, ,26, ,
2, ,26, ,
3, ,26, ,
4, ,26, ,
4, ,24, ,
5, ,24, ,
5, ,26, ,
5, ,26, ,
4, ,26, ,
4, ,26, ,
4, ,26, ,
5, ,26, ,
4, ,26, ,
3, ,26, ,
4, ,26, ,
1, ,26, ,
1, ,26, ,
1, ,26, ,
0, ,26, ,
0, ,26, ,
0, ,26, ,
-2, ,26, ,
-1, ,26, ,
-2, ,26, ,
-3, ,26, ,
-2, ,26, ,
-3, ,26, ,
-2, ,26, ,
-3, ,26, ,
-3, ,26, ,
-3, ,26, ,
-3, ,26, ,
-3, ,26, ,
-3, ,26, ,
-3, ,26, ,
-3, ,26, ,
-1, ,26, ,
-2, ,26, ,
-1, ,26, ,
-1, ,26, ,
-1, ,26, ,
0, ,26, ,
0, ,26, ,
1, ,26, ,
2, ,26, ,
1, ,26, ,
2, ,26, ,
2, ,26, ,
1, ,26, ,
3, ,26, ,
3, ,26, ,
3, ,26, ,
4, ,26, ,
3, ,26, ,
4, ,26, ,
4, ,26, ,
5, ,26, ,
5, ,26, ,
5, ,26, ,
5, ,26, ,
5, ,26, ,
4, ,26, ,
4, ,26, ,
4, ,26, ,
3, ,26, ,
3, ,26, ,
3, ,26, ,
3, ,26, ,
3, ,26, ,
2, ,26, ,
4, ,26, ,
3, ,26, ,
3, ,26, ,
4, ,26, ,
3, ,26, ,
3, ,26, ,
4, ,26, ,
2, ,26, ,
2, ,26, ,
1, ,26, ,
2, ,26, ,
2, ,26, ,
2, ,26, ,
2, ,26, ,
2, ,26, ,
2, ,26, ,
3, ,26, ,
1, ,26, ,
2, ,26, ,
2, ,26, ,
1, ,26, ,
3, ,26, ,
2, ,26, ,
1, ,26, ,
2, ,26, ,
2, ,26, ,
1, ,26, ,
2, ,26, ,
1, ,26, ,
2, ,26, ,
0, ,26, ,
-1, ,26, ,
0, ,26, ,
-2, ,26, ,
-1, ,26, ,
-1, ,26, ,
-1, ,26, ,
-1, ,26, ,
-1, ,26, ,
-2, ,26, ,
-2, ,26, ,
-2, ,26, ,
-3, ,26, ,
-3, ,26, ,
-4, ,26, ,
-3, ,26, ,
-3, ,26, ,
-3, ,26, ,
-3, ,26, ,
-4, ,26, ,
-4, ,26, ,
-3, ,26, ,
-4, ,26, ,
-3, ,26, ,
-3, ,26, ,
-4, ,26, ,
-3, ,26, ,
-3, ,26, ,
-3, ,26, ,
-3, ,26, ,
-3, ,26, ,
-3, ,26, ,
-4, ,26, ,
-5, ,26, ,
-4, ,26, ,
-5, ,26, ,
-4, ,26, ,
-4, ,26, ,
-4, ,26, ,
-4, ,26, ,
-4, ,26, ,
-5, ,26, ,
-3, ,26, ,
-4, ,26, ,
-4, ,26, ,
-4, ,26, ,
-4, ,26, ,
-4, ,26, ,
-5, ,26, ,
-6, ,26, ,
-5, ,26, ,
-5, ,26, ,
-6, ,26, ,
-6, ,26, ,
-6, ,26, ,
-6, ,26, ,
-6, ,26, ,
-6, ,26, ,
-7, ,26, ,
-8, ,26, ,
-9, ,26, ,
-9, ,26, ,
-9, ,26, ,
-9, ,26, ,
-10, ,26, ,
-12, ,26, ,
-10, ,26, ,
-11, ,26, ,
-10, ,26, ,
-10, ,26, ,
-11, ,26, ,
-10, ,26, ,
-10, ,26, ,
-10, ,26, ,
-9, ,26, ,
-9, ,26, ,
-9, ,26, ,
-7, ,26, ,
-9, ,26, ,
-6, ,26, ,
-6, ,26, ,
-6, ,26, ,
-5, ,26, ,
-5, ,26, ,
-4, ,26, ,
-2, ,26, ,
-2, ,26, ,
-2, ,26, ,
0, ,26, ,
0, ,26, ,
1, ,26, ,
1, ,26, ,
1, ,26, ,
1, ,26, ,
0, ,26, ,
1, ,26, ,
1, ,26, ,
1, ,26, ,
0, ,26, ,
0, ,26, ,
-1, ,26, ,
-1, ,26, ,
-2, ,26, ,
-1, ,26, ,
-1, ,26, ,
-3, ,26, ,
-3, ,26, ,
-4, ,26, ,
-4, ,26, ,
-4, ,26, ,
-4, ,26, ,
-4, ,26, ,
-5, ,26, ,
-5, ,26, ,
-5, ,26, ,
-6, ,26, ,
-5, ,26, ,
-5, ,26, ,
-5, ,26, ,
-5, ,26, ,
-5, ,26, ,
-6, ,26, ,
-6, ,26, ,
-6, ,26, ,
-5, ,26, ,
-5, ,26, ,
-6, ,26, ,
-6, ,26, ,
-6, ,26, ,
-6, ,26, ,
-6, ,26, ,
-7, ,26, ,
-7, ,26, ,
-6, ,26, ,
-6, ,26, ,
-7, ,26, ,
-5, ,26, ,
-5, ,26, ,
-4, ,26, ,
-4, ,26, ,
-4, ,26, ,
-4, ,26, ,
-3, ,26, ,
-1, ,26, ,
-2, ,26, ,
1, ,26, ,
2, ,26, ,
1, ,26, ,
4, ,26, ,
4, ,26, ,
3, ,26, ,
5, ,26, ,
7, ,26, ,
6, ,26, ,
6, ,26, ,
6, ,26, ,
6, ,26, ,
8, ,26, ,
8, ,26, ,
7, ,26, ,
7, ,26, ,
6, ,24, ,
7, ,24, ,
5, ,24, ,
5, ,26, ,
4, ,26, ,
4, ,26, ,
3, ,26, ,
2, ,26, ,
1, ,24, ,
1, ,24, ,
0, ,26, ,
-1, ,26, ,
-1, ,26, ,
-1, ,26, ,
-1, ,26, ,
-2, ,26, ,
-2, ,26, ,
-2, ,26, ,
-2, ,26, ,
-2, ,26, ,
-2, ,26, ,
-2, ,26, ,
-2, ,26, ,
-1, ,26, ,
-2, ,26, ,
0, ,26, ,
-1, ,26, ,
-1, ,26, ,
0, ,26, ,
0, ,26, ,
0, ,26, ,
0, ,26, ,
0, ,26, ,
1, ,26, ,
0, ,26, ,
0, ,26, ,
0, ,26, ,
0, ,26, ,
1, ,26, ,
1, ,26, ,
0, ,26, ,
0, ,26, ,
0, ,26, ,
0, ,26, ,
0, ,26, ,
-1, ,26, ,
-1, ,26, ,
-1, ,26, ,
-2, ,26, ,
-2, ,26, ,
-2, ,26, ,
-1, ,26, ,
-2, ,26, ,
-2, ,26, ,
-2, ,26, ,
-1, ,26, ,
-2, ,26, ,
-2, ,26, ,
-2, ,26, ,
-2, ,26, ,
-2, ,26, ,
-2, ,26, ,
-1, ,26, ,
-1, ,26, ,
-2, ,26, ,
-1, ,26, ,
-2, ,26, ,
-2, ,26, ,
-1, ,26, ,
-1, ,26, ,
-1, ,26, ,
-1, ,26, ,
-1, ,26, ,
0, ,26, ,
-1, ,26, ,
-2, ,26, ,
-1, ,26, ,
-1, ,26, ,
-1, ,26, ,
-1, ,26, ,
-2, ,26, ,
-1, ,26, ,
-3, ,26, ,
-1, ,26, ,
-1, ,26, ,
-2, ,26, ,
-2, ,26, ,
-2, ,26, ,
-2, ,26, ,
-2, ,26, ,
-2, ,26, ,
-3, ,26, ,
-2, ,26, ,
-2, ,26, ,
-2, ,26, ,
-2, ,26, ,
-2, ,26, ,
-2, ,26, ,
-2, ,26, ,
-1, ,26, ,
-2, ,26, ,
-2, ,26, ,
-1, ,26, ,
-1, ,26, ,
-2, ,26, ,
-1, ,26, ,
-1, ,26, ,
-2, ,26, ,
-1, ,26, ,
-1, ,26, ,
-1, ,26, ,
-1, ,26, ,
-1, ,26, ,
0, ,26, ,
0, ,26, ,
0, ,26, ,
0, ,26, ,
0, ,26, ,
0, ,26, ,
0, ,26, ,
-2, ,26, ,
0, ,26, ,
0, ,26, ,
0, ,26, ,
0, ,26, ,
0, ,26, ,
0, ,26, ,
0, ,26, ,
-1, ,26, ,
-1, ,26, ,
-2, ,26, ,
-2, ,26, ,
-1, ,26, ,
-1, ,26, ,
-1, ,26, ,
0, ,26, ,
0, ,26, ,
0, ,26, ,
-1, ,26, ,
-2, ,26, ,
0, ,26, ,
0, ,26, ,
0, ,26, ,
0, ,26, ,
0, ,26, ,
1, ,26, ,
0, ,26, ,
0, ,26, ,
0, ,26, ,
0, ,26, ,
1, ,26, ,
1, ,26, ,
0, ,26, ,
1, ,26, ,
0, ,26, ,
1, ,26, ,
1, ,26, ,
2, ,26, ,
1, ,26, ,
1, ,26, ,
1, ,26, ,
1, ,26, ,
1, ,26, ,
1, ,26, ,
1, ,26, ,
1, ,26, ,
1, ,26, ,
1, ,26, ,
0, ,26, ,
1, ,26, ,
0, ,26, ,
-1, ,26, ,
0, ,26, ,
0, ,26, ,
0, ,26, ,
-1, ,26, ,
-1, ,26, ,
-1, ,26, ,
-2, ,26, ,
-1, ,26, ,
0, ,26, ,
0, ,26, ,
0, ,26, ,
0, ,26, ,
0, ,26, ,
0, ,26, ,
0, ,26, ,
-1, ,26, ,
1, ,26, ,
1, ,26, ,
1, ,26, ,
1, ,26, ,
0, ,26, ,
0, ,26, ,
0, ,26, ,
2, ,26, ,
2, ,26, ,
1, ,26, ,
2, ,26, ,
2, ,26, ,
2, ,26, ,
2, ,26, ,
2, ,26, ,
3, ,26, ,
3, ,26, ,
3, ,26, ,
3, ,26, ,
2, ,26, ,
2, ,26, ,
1, ,26, ,
1, ,26, ,
1, ,26, ,
1, ,26, ,
0, ,26, ,
2, ,26, ,
2, ,26, ,
0, ,26, ,
2, ,26, ,
1, ,26, ,
0, ,26, ,
1, ,26, ,
0, ,26, ,
2, ,26, ,
1, ,26, ,
1, ,26, ,
1, ,26, ,
0, ,26, ,
0, ,26, ,
0, ,26, ,
0, ,26, ,
1, ,26, ,
1, ,26, ,
1, ,26, ,
1, ,26, ,
1, ,26, ,
0, ,26, ,
2, ,26, ,
1, ,26, ,
2, ,26, ,
2, ,26, ,
2, ,26, ,
2, ,26, ,
2, ,26, ,
3, ,26, ,
3, ,26, ,
3, ,26, ,
3, ,26, ,
4, ,26, ,
4, ,26, ,
4, ,26, ,
3, ,26, ,
3, ,26, ,
4, ,26, ,
4, ,26, ,
4, ,26, ,
3, ,26, ,
3, ,26, ,
3, ,26, ,
3, ,26, ,
1, ,26, ,
4, ,26, ,
2, ,26, ,
3, ,26, ,
3, ,26, ,
1, ,26, ,
2, ,26, ,
2, ,26, ,
1, ,26, ,
2, ,26, ,
1, ,26, ,
1, ,26, ,
1, ,26, ,
1, ,26, ,
2, ,26, ,
0, ,26, ,
0, ,26, ,
0, ,26, ,
0, ,26, ,
1, ,26, ,
0, ,26, ,
-2, ,26, ,
-1, ,26, ,
-2, ,26, ,
-1, ,26, ,
0, ,26, ,
-1, ,26, ,
-2, ,26, ,
-1, ,26, ,
-1, ,26, ,
-1, ,26, ,
-2, ,26, ,
0, ,26, ,
-1, ,26, ,
-1, ,26, ,
-1, ,26, ,
0, ,26, ,
0, ,26, ,
0, ,26, ,
-1, ,26, ,
-1, ,26, ,
-1, ,26, ,
-1, ,26, ,
0, ,26, ,
0, ,26, ,
0, ,26, ,
1, ,26, ,
1, ,26, ,
0, ,26, ,
0, ,26, ,
0, ,26, ,
1, ,26, ,
0, ,26, ,
0, ,26, ,
0, ,26, ,
0, ,26, ,
0, ,26, ,
1, ,26, ,
1, ,26, ,
1, ,26, ,
1, ,26, ,
1, ,26, ,
2, ,26, ,
0, ,26, ,
0, ,26, ,
1, ,26, ,
0, ,26, ,
1, ,26, ,
1, ,26, ,
0, ,26, ,
0, ,26, ,
0, ,26, ,
-1, ,26, ,
0, ,26, ,
0, ,26, ,
0, ,26, ,
0, ,26, ,
-1, ,26, ,
0, ,26, ,
-1, ,26, ,
0, ,26, ,
0, ,26, ,
0, ,26, ,
0, ,26, ,
0, ,26, ,
0, ,26, ,
1, ,26, ,
0, ,26, ,
0, ,26, ,
0, ,26, ,
-1, ,26, ,
-1, ,26, ,
0, ,26, ,
0, ,26, ,
-1, ,26, ,
-1, ,26, ,
-2, ,26, ,
0, ,26, ,
-2, ,26, ,
-2, ,26, ,
-2, ,26, ,
-3, ,26, ,
-1, ,26, ,
-3, ,26, ,
-3, ,26, ,
-2, ,26, ,
-3, ,26, ,
-1, ,26, ,
-2, ,26, ,
-3, ,26, ,
-3, ,26, ,
-3, ,26, ,
-3, ,26, ,
-3, ,26, ,
-3, ,26, ,
-2, ,26, ,
-1, ,26, ,
-2, ,26, ,
-1, ,26, ,
-2, ,26, ,
-2, ,26, ,
-1, ,26, ,
-2, ,26, ,
-2, ,26, ,
-1, ,26, ,
-2, ,26, ,
0, ,26, ,
-1, ,26, ,
-1, ,26, ,
0, ,26, ,
-1, ,26, ,
