raw_data/100% Glycerol, Impulsion 2Hz, Sonde 5MHz, Rampe 0.7Hz/temp0000008.CSV

Format,1.0B,
Memory Length,10000,Memory Length,10000,
IntpDistance,0,IntpDistance,0,
Trigger Address,159,Trigger Address,159,
Trigger Level,2.720E-01,Trigger Level,2.720E-01,
Source,CH1,Source,CH2,
Vertical Units,V,Vertical Units,V,
Vertical Units Div,0,Vertical Units Div,0,
Vertical Units Extend Div,16,Vertical Units Extend Div,16,
Label,,Label,,
Probe Type,0,Probe Type,0,
Probe Ratio,1.000e+00,Probe Ratio,1.000e+00,
Vertical Scale,2.000e-01,Vertical Scale,2.000e+00,
Vertical Position,0.000e+00,Vertical Position,0.000e+00,
Horizontal Units,S,Horizontal Units,S,
Horizontal Scale,5.000E-06,Horizontal Scale,5.000E-06,
Horizontal Position,2.420E-05,Horizontal Position,2.420E-05,
Horizontal Mode,Main,Horizontal Mode,Main,
SincET Mode,Real Time,SincET Mode,Real Time,
Sampling Period,5.000e-09,Sampling Period,5.000e-09,
Horizontal Old Scale,5.000E-06,Horizontal Old Scale,5.000E-06,
Horizontal Old Position,2.420E-05,Horizontal Old Position,2.420E-05,
Firmware,V1.32,Firmware,V1.32,
Mode,Fast,Mode,Fast,
Waveform Data,,Waveform Data,,
1, ,-30, ,
2, ,-30, ,
2, ,-30, ,
2, ,-30, ,
1, ,-30, ,
1, ,-30, ,
1, ,-30, ,
0, ,-30, ,
2, ,-30, ,
1, ,-30, ,
2, ,-30, ,
1, ,-30, ,
2, ,-30, ,
2, ,-30, ,
1, ,-30, ,
1, ,-30, ,
2, ,-30, ,
1, ,-30, ,
2, ,-30, ,
2, ,-30, ,
0, ,-30, ,
2, ,-30, ,
1, ,-30, ,
0, ,-30, ,
3, ,-30, ,
2, ,-30, ,
2, ,-30, ,
2, ,-30, ,
2, ,-30, ,
1, ,-30, ,
1, ,-30, ,
1, ,-30, ,
2, ,-30, ,
2, ,-30, ,
2, ,-30, ,
2, ,-30, ,
0, ,-30, ,
2, ,-30, ,
1, ,-30, ,
1, ,-30, ,
2, ,-30, ,
1, ,-30, ,
2, ,-30, ,
2, ,-30, ,
1, ,-30, ,
2, ,-30, ,
1, ,-30, ,
2, ,-30, ,
1, ,-30, ,
1, ,-30, ,
2, ,-30, ,
2, ,-30, ,
1, ,-30, ,
1, ,-30, ,
2, ,-30, ,
1, ,-30, ,
2, ,-30, ,
2, ,-30, ,
2, ,-30, ,
1, ,-30, ,
2, ,-30, ,
2, ,-30, ,
1, ,-30, ,
2, ,-30, ,
2, ,-30, ,
1, ,-30, ,
2, ,-30, ,
1, ,-30, ,
0, ,-30, ,
2, ,-30, ,
1, ,-30, ,
0, ,-30, ,
2, ,-30, ,
1, ,-30, ,
3, ,-30, ,
2, ,-30, ,
1, ,-30, ,
3, ,-30, ,
1, ,-30, ,
1, ,-30, ,
2, ,-30, ,
2, ,-30, ,
1, ,-30, ,
1, ,-30, ,
0, ,-30, ,
1, ,-30, ,
1, ,-30, ,
2, ,-30, ,
2, ,-30, ,
1, ,-30, ,
1, ,-30, ,
1, ,-30, ,
2, ,-30, ,
2, ,-30, ,
1, ,-30, ,
1, ,-30, ,
1, ,-30, ,
1, ,-30, ,
2, ,-30, ,
2, ,-30, ,
1, ,-30, ,
1, ,-30, ,
1, ,-30, ,
1, ,-30, ,
1, ,-30, ,
2, ,-30, ,
2, ,-30, ,
2, ,-30, ,
1, ,-30, ,
2, ,-30, ,
1, ,-30, ,
1, ,-30, ,
2, ,-30, ,
1, ,-30, ,
2, ,-30, ,
2, ,-30, ,
1, ,-30, ,
2, ,-30, ,
2, ,-30, ,
2, ,-30, ,
2, ,-30, ,
1, ,-30, ,
1, ,-30, ,
1, ,-30, ,
2, ,-30, ,
2, ,-30, ,
2, ,-30, ,
1, ,-30, ,
1, ,-30, ,
0, ,-30, ,
2, ,-30, ,
2, ,-30, ,
1, ,-30, ,
2, ,-30, ,
1, ,-30, ,
1, ,-30, ,
2, ,-30, ,
1, ,-30, ,
2, ,-30, ,
2, ,-30, ,
2, ,-30, ,
3, ,-30, ,
1, ,-30, ,
2, ,-30, ,
2, ,-30, ,
1, ,-30, ,
2, ,-30, ,
1, ,-30, ,
1, ,-30, ,
1, ,-30, ,
2, ,-30, ,
1, ,-30, ,
2, ,-30, ,
1, ,-30, ,
1, ,-30, ,
2, ,-30, ,
1, ,-30, ,
2, ,-30, ,
2, ,-30, ,
1, ,-30, ,
2, ,-30, ,
1, ,-30, ,
2, ,-30, ,
3, ,-30, ,
4, ,-30, ,
0, ,-30, ,
2, ,-30, ,
2, ,-30, ,
39, ,-30, ,
105, ,-30, ,
125, ,-30, ,
125, ,-30, ,
124, ,-30, ,
120, ,-30, ,
110, ,-30, ,
2, ,-30, ,
116, ,-30, ,
125, ,-30, ,
125, ,-30, ,
125, ,-30, ,
125, ,-30, ,
125, ,-30, ,
125, ,-30, ,
125, ,-30, ,
125, ,-30, ,
125, ,-30, ,
125, ,-30, ,
125, ,-30, ,
125, ,-30, ,
125, ,-30, ,
125, ,-30, ,
125, ,-30, ,
125, ,-30, ,
125, ,-30, ,
125, ,-30, ,
125, ,-30, ,
125, ,-30, ,
125, ,-30, ,
125, ,-30, ,
125, ,-30, ,
125, ,-30, ,
125, ,-30, ,
125, ,-30, ,
124, ,-30, ,
118, ,-30, ,
115, ,-30, ,
108, ,-30, ,
101, ,-30, ,
98, ,-30, ,
92, ,-30, ,
89, ,-30, ,
81, ,-30, ,
77, ,-30, ,
74, ,-30, ,
69, ,-30, ,
63, ,-30, ,
61, ,-30, ,
58, ,-30, ,
56, ,-30, ,
51, ,-30, ,
49, ,-30, ,
48, ,-30, ,
44, ,-30, ,
39, ,-30, ,
39, ,-30, ,
35, ,-30, ,
34, ,-30, ,
32, ,-30, ,
29, ,-30, ,
29, ,-30, ,
28, ,-30, ,
24, ,-30, ,
22, ,-30, ,
21, ,-30, ,
20, ,-30, ,
18, ,-30, ,
17, ,-30, ,
17, ,-30, ,
14, ,-30, ,
12, ,-30, ,
13, ,-30, ,
10, ,-30, ,
10, ,-30, ,
10, ,-30, ,
8, ,-30, ,
8, ,-30, ,
6, ,-30, ,
5, ,-30, ,
5, ,-30, ,
5, ,-30, ,
4, ,-30, ,
3, ,-30, ,
3, ,-30, ,
3, ,-30, ,
2, ,-30, ,
1, ,-30, ,
2, ,-30, ,
0, ,-30, ,
1, ,-30, ,
0, ,-30, ,
0, ,-30, ,
0, ,-30, ,
-1, ,-30, ,
-2, ,-30, ,
-1, ,-30, ,
-1, ,-30, ,
-2, ,-30, ,
-2, ,-30, ,
-2, ,-30, ,
-2, ,-30, ,
-3, ,-30, ,
-3, ,-30, ,
-3, ,-30, ,
-4, ,-30, ,
-4, ,-30, ,
-2, ,-30, ,
-3, ,-30, ,
-2, ,-30, ,
-3, ,-30, ,
-4, ,-30, ,
-3, ,-30, ,
-3, ,-30, ,
-3, ,-30, ,
-3, ,-30, ,
-3, ,-30, ,
-3, ,-30, ,
-4, ,-30, ,
-2, ,-30, ,
-3, ,-30, ,
-4, ,-30, ,
-3, ,-30, ,
-2, ,-30, ,
-3, ,-30, ,
-3, ,-30, ,
-3, ,-30, ,
-3, ,-30, ,
-2, ,-30, ,
-2, ,-30, ,
-3, ,-30, ,
-3, ,-30, ,
-3, ,-30, ,
-3, ,-30, ,
-4, ,-30, ,
-2, ,-30, ,
-1, ,-30, ,
-4, ,-30, ,
-1, ,-30, ,
-2, ,-30, ,
-2, ,-30, ,
-2, ,-30, ,
-2, ,-30, ,
-3, ,-30, ,
-2, ,-30, ,
-2, ,-30, ,
-1, ,-30, ,
-1, ,-30, ,
-2, ,-30, ,
-2, ,-30, ,
-2, ,-30, ,
-2, ,-30, ,
-2, ,-30, ,
-2, ,-30, ,
-1, ,-30, ,
0, ,-30, ,
-2, ,-30, ,
0, ,-30, ,
0, ,-30, ,
0, ,-30, ,
0, ,-30, ,
-1, ,-30, ,
-1, ,-30, ,
0, ,-30, ,
0, ,-30, ,
0, ,-30, ,
0, ,-30, ,
0, ,-30, ,
0, ,-30, ,
0, ,-30, ,
0, ,-30, ,
0, ,-30, ,
0, ,-30, ,
0, ,-30, ,
0, ,-30, ,
0, ,-30, ,
0, ,-30, ,
0, ,-30, ,
-1, ,-30, ,
0, ,-30, ,
0, ,-30, ,
0, ,-30, ,
0, ,-30, ,
0, ,-30, ,
0, ,-30, ,
0, ,-30, ,
0, ,-30, ,
0, ,-30, ,
0, ,-30, ,
0, ,-30, ,
0, ,-30, ,
0, ,-30, ,
1, ,-30, ,
1, ,-30, ,
1, ,-30, ,
1, ,-30, ,
1, ,-30, ,
1, ,-30, ,
1, ,-30, ,
0, ,-30, ,
2, ,-30, ,
1, ,-30, ,
2, ,-30, ,
1, ,-30, ,
-1, ,-30, ,
1, ,-30, ,
1, ,-30, ,
0, ,-30, ,
0, ,-30, ,
0, ,-30, ,
1, ,-30, ,
2, ,-30, ,
1, ,-30, ,
1, ,-30, ,
0, ,-30, ,
1, ,-30, ,
1, ,-30, ,
0, ,-30, ,
1, ,-30, ,
1, ,-30, ,
1, ,-30, ,
1, ,-30, ,
1, ,-30, ,
1, ,-30, ,
2, ,-30, ,
1, ,-30, ,
2, ,-30, ,
2, ,-30, ,
1, ,-30, ,
1, ,-30, ,
1, ,-30, ,
1, ,-30, ,
2, ,-30, ,
1, ,-30, ,
2, ,-30, ,
1, ,-30, ,
0, ,-30, ,
1, ,-30, ,
0, ,-30, ,
1, ,-30, ,
2, ,-30, ,
1, ,-30, ,
1, ,-30, ,
1, ,-30, ,
1, ,-30, ,
2, ,-30, ,
1, ,-30, ,
0, ,-30, ,
2, ,-30, ,
1, ,-30, ,
2, ,-30, ,
2, ,-30, ,
1, ,-30, ,
2, ,-30, ,
1, ,-30, ,
0, ,-30, ,
1, ,-30, ,
0, ,-30, ,
0, ,-30, ,
0, ,-30, ,
1, ,-30, ,
2, ,-30, ,
1, ,-30, ,
1, ,-30, ,
2, ,-30, ,
1, ,-30, ,
2, ,-30, ,
1, ,-30, ,
1, ,-30, ,
1, ,-30, ,
1, ,-30, ,
0, ,-30, ,
0, ,-30, ,
-1, ,-30, ,
-1, ,-30, ,
0, ,-30, ,
-1, ,-30, ,
-1, ,-30, ,
-2, ,-30, ,
0, ,-30, ,
0, ,-30, ,
0, ,-30, ,
0, ,-30, ,
1, ,-30, ,
1, ,-30, ,
2, ,-30, ,
2, ,-30, ,
1, ,-30, ,
1, ,-30, ,
2, ,-30, ,
2, ,-30, ,
2, ,-30, ,
1, ,-30, ,
1, ,-30, ,
0, ,-30, ,
0, ,-30, ,
1, ,-30, ,
1, ,-30, ,
2, ,-30, ,
1, ,-30, ,
0, ,-30, ,
2, ,-30, ,
1, ,-30, ,
2, ,-30, ,
3, ,-30, ,
2, ,-30, ,
3, ,-30, ,
2, ,-30, ,
2, ,-30, ,
2, ,-30, ,
1, ,-30, ,
0, ,-30, ,
0, ,-30, ,
0, ,-30, ,
0, ,-30, ,
0, ,-30, ,
-1, ,-30, ,
0, ,-30, ,
-1, ,-30, ,
-2, ,-30, ,
0, ,-30, ,
0, ,-30, ,
0, ,-30, ,
2, ,-30, ,
1, ,-30, ,
1, ,-30, ,
1, ,-30, ,
1, ,-30, ,
2, ,-30, ,
0, ,-30, ,
1, ,-30, ,
1, ,-30, ,
1, ,-30, ,
0, ,-30, ,
0, ,-30, ,
-2, ,-30, ,
0, ,-30, ,
0, ,-30, ,
0, ,-30, ,
1, ,-30, ,
1, ,-30, ,
1, ,-30, ,
1, ,-30, ,
1, ,-30, ,
3, ,-30, ,
1, ,-30, ,
1, ,-30, ,
0, ,-30, ,
-1, ,-30, ,
-1, ,-30, ,
-1, ,-30, ,
-4, ,-30, ,
-4, ,-30, ,
-4, ,-30, ,
-4, ,-30, ,
-5, ,-30, ,
-6, ,-30, ,
-5, ,-30, ,
-7, ,-30, ,
-6, ,-30, ,
-6, ,-30, ,
-7, ,-30, ,
-7, ,-30, ,
-8, ,-30, ,
-9, ,-30, ,
-9, ,-30, ,
-11, ,-30, ,
-14, ,-30, ,
-14, ,-30, ,
-16, ,-30, ,
-20, ,-30, ,
-21, ,-30, ,
-25, ,-30, ,
-25, ,-30, ,
-27, ,-30, ,
-30, ,-30, ,
-30, ,-30, ,
-30, ,-30, ,
-30, ,-30, ,
-30, ,-30, ,
-30, ,-30, ,
-29, ,-30, ,
-29, ,-30, ,
-29, ,-30, ,
-29, ,-30, ,
-29, ,-30, ,
-29, ,-30, ,
-30, ,-30, ,
-31, ,-30, ,
-31, ,-30, ,
-33, ,-30, ,
-34, ,-30, ,
-33, ,-30, ,
-34, ,-30, ,
-32, ,-30, ,
-29, ,-30, ,
-28, ,-30, ,
-25, ,-30, ,
-22, ,-30, ,
-17, ,-30, ,
-13, ,-30, ,
-10, ,-30, ,
-9, ,-30, ,
-6, ,-30, ,
-6, ,-30, ,
-5, ,-30, ,
-5, ,-30, ,
-5, ,-30, ,
-6, ,-30, ,
-6, ,-30, ,
-6, ,-30, ,
-6, ,-30, ,
-7, ,-30, ,
-5, ,-30, ,
-6, ,-30, ,
-4, ,-30, ,
0, ,-30, ,
0, ,-30, ,
1, ,-30, ,
3, ,-30, ,
3, ,-30, ,
4, ,-30, ,
4, ,-30, ,
3, ,-30, ,
4, ,-30, ,
0, ,-30, ,
0, ,-30, ,
-3, ,-30, ,
-5, ,-30, ,
-6, ,-30, ,
-9, ,-30, ,
-11, ,-30, ,
-12, ,-30, ,
-11, ,-30, ,
-14, ,-30, ,
-13, ,-30, ,
-13, ,-30, ,
-13, ,-30, ,
-13, ,-30, ,
-13, ,-30, ,
-13, ,-30, ,
-15, ,-30, ,
-15, ,-30, ,
-16, ,-30, ,
-20, ,-30, ,
-20, ,-30, ,
-23, ,-30, ,
-25, ,-30, ,
-25, ,-30, ,
-26, ,-30, ,
-26, ,-30, ,
-26, ,-30, ,
-27, ,-30, ,
-25, ,-30, ,
-27, ,-30, ,
-25, ,-30, ,
-25, ,-30, ,
-25, ,-30, ,
-25, ,-30, ,
-26, ,-30, ,
-28, ,-30, ,
-29, ,-30, ,
-28, ,-30, ,
-32, ,-30, ,
-32, ,-30, ,
-33, ,-30, ,
-33, ,-30, ,
-33, ,-30, ,
-33, ,-30, ,
-33, ,-30, ,
-34, ,-30, ,
-34, ,-30, ,
-33, ,-30, ,
-34, ,-30, ,
-33, ,-30, ,
-33, ,-30, ,
-30, ,-30, ,
-30, ,-30, ,
-30, ,-30, ,
-28, ,-30, ,
-27, ,-30, ,
-26, ,-30, ,
-26, ,-30, ,
-25, ,-30, ,
-26, ,-30, ,
-26, ,-30, ,
-28, ,-30, ,
-30, ,-30, ,
-30, ,-30, ,
-33, ,-30, ,
-33, ,-30, ,
-33, ,-30, ,
-34, ,-30, ,
-32, ,-30, ,
-32, ,-30, ,
-32, ,-30, ,
-29, ,-30, ,
-30, ,-30, ,
-29, ,-30, ,
-30, ,-30, ,
-31, ,-30, ,
-31, ,-30, ,
-33, ,-30, ,
-34, ,-30, ,
-34, ,-30, ,
-35, ,-30, ,
-35, ,-30, ,
-35, ,-30, ,
-35, ,-30, ,
-35, ,-30, ,
-34, ,-30, ,
-32, ,-30, ,
-30, ,-30, ,
-30, ,-30, ,
-28, ,-30, ,
-27, ,-30, ,
-27, ,-30, ,
-25, ,-30, ,
-25, ,-30, ,
-26, ,-30, ,
-25, ,-30, ,
-27, ,-30, ,
-23, ,-30, ,
-22, ,-30, ,
-22, ,-30, ,
-21, ,-30, ,
-20, ,-30, ,
-17, ,-30, ,
-16, ,-30, ,
-14, ,-30, ,
-14, ,-30, ,
-12, ,-30, ,
-12, ,-30, ,
-11, ,-30, ,
-12, ,-30, ,
-9, ,-30, ,
-8, ,-30, ,
-8, ,-30, ,
-5, ,-30, ,
-3, ,-30, ,
-3, ,-30, ,
-1, ,-30, ,
0, ,-30, ,
0, ,-30, ,
1, ,-30, ,
1, ,-30, ,
1, ,-30, ,
0, ,-30, ,
0, ,-30, ,
0, ,-30, ,
0, ,-30, ,
1, ,-30, ,
2, ,-30, ,
1, ,-30, ,
3, ,-30, ,
4, ,-30, ,
3, ,-30, ,
4, ,-30, ,
3, ,-30, ,
2, ,-30, ,
2, ,-30, ,
2, ,-30, ,
2, ,-30, ,
2, ,-30, ,
1, ,-30, ,
2, ,-30, ,
2, ,-30, ,
3, ,-30, ,
3, ,-30, ,
3, ,-30, ,
3, ,-30, ,
5, ,-30, ,
5, ,-30, ,
5, ,-30, ,
4, ,-30, ,
5, ,-30, ,
6, ,-30, ,
5, ,-30, ,
5, ,-30, ,
5, ,-30, ,
2, ,-30, ,
2, ,-30, ,
1, ,-30, ,
-1, ,-30, ,
-1, ,-30, ,
-3, ,-30, ,
-4, ,-30, ,
-5, ,-30, ,
-9, ,-30, ,
-10, ,-30, ,
-13, ,-30, ,
-15, ,-30, ,
-15, ,-30, ,
-17, ,-30, ,
-19, ,-30, ,
-20, ,-30, ,
-21, ,-30, ,
-22, ,-30, ,
-24, ,-30, ,
-25, ,-30, ,
-26, ,-30, ,
-27, ,-30, ,
-27, ,-30, ,
-28, ,-30, ,
-31, ,-30, ,
-31, ,-30, ,
-31, ,-30, ,
-34, ,-30, ,
-34, ,-30, ,
-35, ,-30, ,
-35, ,-30, ,
-34, ,-30, ,
-35, ,-30, ,
-33, ,-30, ,
-34, ,-30, ,
-31, ,-30, ,
-31, ,-30, ,
-30, ,-30, ,
-30, ,-30, ,
-27, ,-30, ,
-27, ,-30, ,
-26, ,-30, ,
-26, ,-30, ,
-24, ,-30, ,
-22, ,-30, ,
-22, ,-30, ,
-20, ,-30, ,
-17, ,-30, ,
-16, ,-30, ,
-14, ,-30, ,
-12, ,-30, ,
-11, ,-30, ,
-9, ,-30, ,
-9, ,-30, ,
-8, ,-30, ,
-7, ,-30, ,
-7, ,-30, ,
-6, ,-30, ,
-5, ,-30, ,
-6, ,-30, ,
-5, ,-30, ,
-5, ,-30, ,
-5, ,-30, ,
-4, ,-30, ,
-3, ,-30, ,
-2, ,-30, ,
-3, ,-30, ,
0, ,-30, ,
1, ,-30, ,
2, ,-30, ,
4, ,-30, ,
5, ,-30, ,
4, ,-30, ,
5, ,-30, ,
6, ,-30, ,
5, ,-30, ,
8, ,-30, ,
8, ,-30, ,
9, ,-30, ,
10, ,-30, ,
9, ,-30, ,
10, ,-30, ,
8, ,-30, ,
9, ,-30, ,
9, ,-30, ,
6, ,-30, ,
7, ,-30, ,
5, ,-30, ,
4, ,-30, ,
3, ,-30, ,
1, ,-30, ,
0, ,-30, ,
0, ,-30, ,
-1, ,-30, ,
-1, ,-30, ,
-1, ,-30, ,
-2, ,-30, ,
-3, ,-30, ,
-4, ,-30, ,
-4, ,-30, ,
-3, ,-30, ,
-6, ,-30, ,
-6, ,-30, ,
-6, ,-30, ,
-8, ,-30, ,
-6, ,-30, ,
-7, ,-30, ,
-8, ,-30, ,
-8, ,-30, ,
-7, ,-30, ,
-7, ,-30, ,
-6, ,-30, ,
-6, ,-30, ,
-6, ,-30, ,
-8, ,-30, ,
-7, ,-30, ,
-8, ,-30, ,
-8, ,-30, ,
-10, ,-30, ,
-10, ,-30, ,
-13, ,-30, ,
-13, ,-30, ,
-14, ,-30, ,
-15, ,-30, ,
-15, ,-30, ,
-16, ,-30, ,
-16, ,-30, ,
-19, ,-30, ,
-20, ,-30, ,
-20, ,-30, ,
-21, ,-30, ,
-22, ,-30, ,
-23, ,-30, ,
-24, ,-30, ,
-23, ,-30, ,
-24, ,-30, ,
-25, ,-30, ,
-25, ,-30, ,
-25, ,-30, ,
-25, ,-30, ,
-25, ,-30, ,
-25, ,-30, ,
-25, ,-30, ,
-24, ,-30, ,
-25, ,-30, ,
-23, ,-30, ,
-24, ,-30, ,
-22, ,-30, ,
-21, ,-30, ,
-22, ,-30, ,
-21, ,-30, ,
-20, ,-30, ,
-21, ,-30, ,
-20, ,-30, ,
-20, ,-30, ,
-20, ,-30, ,
-20, ,-30, ,
-20, ,-30, ,
-20, ,-30, ,
-19, ,-30, ,
-19, ,-30, ,
-19, ,-30, ,
-20, ,-30, ,
-18, ,-30, ,
-17, ,-30, ,
-18, ,-30, ,
-17, ,-30, ,
-18, ,-30, ,
-19, ,-30, ,
-17, ,-30, ,
-18, ,-30, ,
-19, ,-30, ,
-17, ,-30, ,
-18, ,-30, ,
-18, ,-30, ,
-18, ,-30, ,
-19, ,-30, ,
-18, ,-30, ,
-19, ,-30, ,
-18, ,-30, ,
-17, ,-30, ,
-18, ,-30, ,
-17, ,-30, ,
-17, ,-30, ,
-17, ,-30, ,
-16, ,-30, ,
-17, ,-30, ,
-18, ,-30, ,
-16, ,-30, ,
-15, ,-30, ,
-15, ,-30, ,
-14, ,-30, ,
-14, ,-30, ,
-13, ,-30, ,
-12, ,-30, ,
-12, ,-30, ,
-11, ,-30, ,
-11, ,-30, ,
-11, ,-30, ,
-11, ,-30, ,
-11, ,-30, ,
-10, ,-30, ,
-10, ,-30, ,
-10, ,-30, ,
-10, ,-30, ,
-10, ,-30, ,
-9, ,-30, ,
-9, ,-30, ,
-9, ,-30, ,
-8, ,-30, ,
-9, ,-30, ,
-8, ,-30, ,
-6, ,-30, ,
-8, ,-30, ,
-7, ,-30, ,
-6, ,-30, ,
-6, ,-30, ,
-5, ,-30, ,
-6, ,-30, ,
-7, ,-30, ,
-5, ,-30, ,
-5, ,-30, ,
-5, ,-30, ,
-4, ,-30, ,
-4, ,-30, ,
-4, ,-30, ,
-4, ,-30, ,
-4, ,-30, ,
-4, ,-30, ,
-5, ,-30, ,
-5, ,-30, ,
-4, ,-30, ,
-4, ,-30, ,
-4, ,-30, ,
-5, ,-30, ,
-5, ,-30, ,
-5, ,-30, ,
-5, ,-30, ,
-5, ,-30, ,
-5, ,-30, ,
-4, ,-30, ,
-4, ,-30, ,
-4, ,-30, ,
-3, ,-30, ,
-3, ,-30, ,
-4, ,-30, ,
-4, ,-30, ,
-4, ,-30, ,
-5, ,-30, ,
-3, ,-30, ,
-4, ,-30, ,
-5, ,-30, ,
-5, ,-30, ,
-6, ,-30, ,
-5, ,-30, ,
-5, ,-30, ,
-6, ,-30, ,
-6, ,-30, ,
-7, ,-30, ,
-7, ,-30, ,
-6, ,-30, ,
-9, ,-30, ,
-9, ,-30, ,
-9, ,-30, ,
-10, ,-30, ,
-9, ,-30, ,
-9, ,-30, ,
-10, ,-30, ,
-9, ,-30, ,
-9, ,-30, ,
-9, ,-30, ,
-7, ,-30, ,
-7, ,-30, ,
-6, ,-30, ,
-6, ,-30, ,
-5, ,-30, ,
-5, ,-30, ,
-5, ,-30, ,
-5, ,-30, ,
-6, ,-30, ,
-7, ,-30, ,
-6, ,-30, ,
-6, ,-30, ,
-6, ,-30, ,
-6, ,-30, ,
-6, ,-30, ,
-6, ,-30, ,
-6, ,-30, ,
-7, ,-30, ,
-6, ,-30, ,
-7, ,-30, ,
-8, ,-30, ,
-6, ,-30, ,
-8, ,-30, ,
-7, ,-30, ,
-8, ,-30, ,
-9, ,-30, ,
-8, ,-30, ,
-8, ,-30, ,
-8, ,-30, ,
-7, ,-30, ,
-7, ,-30, ,
-7, ,-30, ,
-6, ,-30, ,
-6, ,-30, ,
-5, ,-30, ,
-6, ,-30, ,
-5, ,-30, ,
-5, ,-30, ,
-6, ,-30, ,
-6, ,-30, ,
-5, ,-30, ,
-5, ,-30, ,
-5, ,-30, ,
-5, ,-30, ,
-5, ,-30, ,
-4, ,-30, ,
-4, ,-30, ,
-4, ,-30, ,
-3, ,-30, ,
-3, ,-30, ,
-3, ,-30, ,
-3, ,-30, ,
-2, ,-30, ,
-1, ,-30, ,
-2, ,-30, ,
0, ,-30, ,
1, ,-30, ,
1, ,-30, ,
3, ,-30, ,
3, ,-30, ,
3, ,-30, ,
6, ,-30, ,
5, ,-30, ,
6, ,-30, ,
7, ,-30, ,
8, ,-30, ,
8, ,-30, ,
8, ,-30, ,
8, ,-30, ,
9, ,-30, ,
7, ,-30, ,
7, ,-30, ,
7, ,-30, ,
5, ,-30, ,
5, ,-30, ,
5, ,-30, ,
3, ,-30, ,
4, ,-30, ,
3, ,-30, ,
3, ,-30, ,
2, ,-30, ,
1, ,-30, ,
2, ,-30, ,
0, ,-30, ,
-1, ,-30, ,
-1, ,-30, ,
-2, ,-30, ,
-2, ,-30, ,
-2, ,-30, ,
-3, ,-30, ,
-4, ,-30, ,
-3, ,-30, ,
-5, ,-30, ,
-3, ,-30, ,
-4, ,-30, ,
-3, ,-30, ,
-4, ,-30, ,
-5, ,-30, ,
-5, ,-30, ,
-5, ,-30, ,
-6, ,-30, ,
-6, ,-30, ,
-6, ,-30, ,
-6, ,-30, ,
-8, ,-30, ,
-8, ,-30, ,
-8, ,-30, ,
-9, ,-30, ,
-9, ,-30, ,
-8, ,-30, ,
-9, ,-30, ,
-8, ,-30, ,
-7, ,-30, ,
-7, ,-30, ,
-5, ,-30, ,
-6, ,-30, ,
-4, ,-30, ,
-3, ,-30, ,
-4, ,-30, ,
-2, ,-30, ,
0, ,-30, ,
-1, ,-30, ,
2, ,-30, ,
3, ,-30, ,
5, ,-30, ,
5, ,-30, ,
6, ,-30, ,
8, ,-30, ,
10, ,-30, ,
11, ,-30, ,
12, ,-30, ,
11, ,-30, ,
14, ,-30, ,
14, ,-30, ,
13, ,-30, ,
15, ,-30, ,
15, ,-30, ,
14, ,-30, ,
14, ,-30, ,
13, ,-30, ,
12, ,-30, ,
13, ,-30, ,
12, ,-30, ,
12, ,-30, ,
9, ,-30, ,
9, ,-30, ,
9, ,-30, ,
7, ,-30, ,
7, ,-30, ,
7, ,-30, ,
6, ,-30, ,
5, ,-30, ,
4, ,-30, ,
3, ,-30, ,
3, ,-30, ,
2, ,-30, ,
0, ,-30, ,
1, ,-30, ,
0, ,-30, ,
0, ,-30, ,
1, ,-30, ,
0, ,-30, ,
0, ,-30, ,
0, ,-30, ,
0, ,-30, ,
0, ,-30, ,
0, ,-30, ,
0, ,-30, ,
0, ,-30, ,
-1, ,-30, ,
-1, ,-30, ,
-1, ,-30, ,
-2, ,-30, ,
0, ,-30, ,
-1, ,-30, ,
-1, ,-30, ,
0, ,-30, ,
-1, ,-30, ,
-1, ,-30, ,
-3, ,-30, ,
-1, ,-30, ,
-1, ,-30, ,
-2, ,-30, ,
-1, ,-30, ,
-2, ,-30, ,
-2, ,-30, ,
-2, ,-30, ,
-2, ,-30, ,
-4, ,-30, ,
-2, ,-30, ,
-3, ,-30, ,
-3, ,-30, ,
-2, ,-30, ,
-3, ,-30, ,
-3, ,-30, ,
-4, ,-30, ,
-4, ,-30, ,
-2, ,-30, ,
-3, ,-30, ,
-3, ,-30, ,
-3, ,-30, ,
-4, ,-30, ,
-3, ,-30, ,
-4, ,-30, ,
-5, ,-30, ,
-5, ,-30, ,
-5, ,-30, ,
-5, ,-30, ,
-5, ,-30, ,
-5, ,-30, ,
-5, ,-30, ,
-5, ,-30, ,
-5, ,-30, ,
-5, ,-30, ,
-6, ,-30, ,
-6, ,-30, ,
-5, ,-30, ,
-7, ,-30, ,
-6, ,-30, ,
-6, ,-30, ,
-7, ,-30, ,
-7, ,-30, ,
-8, ,-30, ,
-8, ,-30, ,
-7, ,-30, ,
-6, ,-30, ,
-6, ,-30, ,
-8, ,-30, ,
-7, ,-30, ,
-6, ,-30, ,
-7, ,-30, ,
-6, ,-30, ,
-6, ,-30, ,
-6, ,-30, ,
-6, ,-30, ,
-6, ,-30, ,
-7, ,-30, ,
-7, ,-30, ,
-7, ,-30, ,
-7, ,-30, ,
-7, ,-30, ,
-7, ,-30, ,
-6, ,-30, ,
-7, ,-30, ,
-5, ,-30, ,
-5, ,-30, ,
-6, ,-30, ,
-5, ,-30, ,
-5, ,-30, ,
-5, ,-30, ,
-5, ,-30, ,
-6, ,-30, ,
-7, ,-30, ,
-5, ,-30, ,
-5, ,-30, ,
-6, ,-30, ,
-4, ,-30, ,
-5, ,-30, ,
-4, ,-30, ,
-5, ,-30, ,
-5, ,-30, ,
-4, ,-30, ,
-4, ,-30, ,
-4, ,-30, ,
-5, ,-30, ,
-5, ,-30, ,
-5, ,-30, ,
-5, ,-30, ,
-4, ,-30, ,
-4, ,-30, ,
-4, ,-30, ,
-4, ,-30, ,
-4, ,-30, ,
-4, ,-30, ,
-3, ,-30, ,
-5, ,-30, ,
-4, ,-30, ,
-3, ,-30, ,
-3, ,-30, ,
-2, ,-30, ,
-3, ,-30, ,
-3, ,-30, ,
-3, ,-30, ,
-2, ,-30, ,
-2, ,-30, ,
-2, ,-30, ,
-2, ,-30, ,
-1, ,-30, ,
-1, ,-30, ,
-2, ,-30, ,
-1, ,-30, ,
-2, ,-30, ,
-2, ,-30, ,
-2, ,-30, ,
-2, ,-30, ,
-1, ,-30, ,
-1, ,-30, ,
-3, ,-30, ,
-3, ,-30, ,
-3, ,-30, ,
-4, ,-30, ,
-3, ,-30, ,
-4, ,-30, ,
-3, ,-30, ,
-3, ,-30, ,
-4, ,-30, ,
-3, ,-30, ,
-4, ,-30, ,
-4, ,-30, ,
-3, ,-30, ,
-4, ,-30, ,
-4, ,-30, ,
-4, ,-30, ,
-5, ,-30, ,
-3, ,-30, ,
-4, ,-30, ,
-4, ,-30, ,
-3, ,-30, ,
-4, ,-30, ,
-4, ,-30, ,
-3, ,-30, ,
-3, ,-30, ,
-3, ,-30, ,
-3, ,-30, ,
-2, ,-30, ,
-2, ,-30, ,
-3, ,-30, ,
-3, ,-30, ,
-2, ,-30, ,
-3, ,-30, ,
-2, ,-30, ,
-3, ,-30, ,
-4, ,-30, ,
-4, ,-30, ,
-4, ,-30, ,
-4, ,-30, ,
-3, ,-30, ,
-4, ,-30, ,
-4, ,-30, ,
-4, ,-30, ,
-3, ,-30, ,
-3, ,-30, ,
-4, ,-30, ,
-4, ,-30, ,
-4, ,-30, ,
-4, ,-30, ,
-3, ,-30, ,
-4, ,-30, ,
-3, ,-30, ,
-4, ,-30, ,
-3, ,-30, ,
-3, ,-30, ,
-3, ,-30, ,
-2, ,-30, ,
-2, ,-30, ,
-2, ,-30, ,
-1, ,-30, ,
0, ,-30, ,
0, ,-30, ,
0, ,-30, ,
1, ,-30, ,
0, ,-30, ,
1, ,-30, ,
1, ,-30, ,
1, ,-30, ,
3, ,-30, ,
3, ,-30, ,
4, ,-30, ,
3, ,-30, ,
4, ,-30, ,
4, ,-30, ,
4, ,-30, ,
4, ,-30, ,
4, ,-30, ,
4, ,-30, ,
4, ,-30, ,
4, ,-30, ,
4, ,-30, ,
4, ,-30, ,
4, ,-30, ,
3, ,-30, ,
5, ,-30, ,
4, ,-30, ,
4, ,-30, ,
4, ,-30, ,
4, ,-30, ,
4, ,-30, ,
3, ,-30, ,
6, ,-30, ,
6, ,-30, ,
6, ,-30, ,
8, ,-30, ,
8, ,-30, ,
8, ,-30, ,
8, ,-30, ,
8, ,-30, ,
9, ,-30, ,
9, ,-30, ,
9, ,-30, ,
9, ,-30, ,
10, ,-30, ,
9, ,-30, ,
10, ,-30, ,
9, ,-30, ,
7, ,-30, ,
9, ,-30, ,
6, ,-30, ,
6, ,-30, ,
4, ,-30, ,
3, ,-30, ,
4, ,-30, ,
2, ,-30, ,
0, ,-30, ,
-1, ,-30, ,
-2, ,-30, ,
-1, ,-30, ,
-5, ,-30, ,
-5, ,-30, ,
-6, ,-30, ,
-7, ,-30, ,
-6, ,-30, ,
-8, ,-30, ,
-9, ,-30, ,
-8, ,-30, ,
-8, ,-30, ,
-10, ,-30, ,
-8, ,-30, ,
-9, ,-30, ,
-10, ,-30, ,
-6, ,-30, ,
-7, ,-30, ,
-6, ,-30, ,
-4, ,-30, ,
-4, ,-30, ,
-2, ,-30, ,
-3, ,-30, ,
-1, ,-30, ,
1, ,-30, ,
1, ,-30, ,
2, ,-30, ,
5, ,-30, ,
5, ,-30, ,
7, ,-30, ,
6, ,-30, ,
8, ,-30, ,
8, ,-30, ,
8, ,-30, ,
8, ,-30, ,
8, ,-30, ,
9, ,-30, ,
8, ,-30, ,
8, ,-30, ,
8, ,-30, ,
8, ,-30, ,
6, ,-30, ,
6, ,-30, ,
5, ,-30, ,
5, ,-30, ,
5, ,-30, ,
4, ,-30, ,
1, ,-30, ,
0, ,-30, ,
-1, ,-30, ,
-1, ,-30, ,
-3, ,-30, ,
-4, ,-30, ,
-5, ,-30, ,
-5, ,-30, ,
-6, ,-30, ,
-7, ,-30, ,
-7, ,-30, ,
-7, ,-30, ,
-7, ,-30, ,
-8, ,-30, ,
-8, ,-30, ,
-9, ,-30, ,
-9, ,-30, ,
-9, ,-30, ,
-8, ,-30, ,
-8, ,-30, ,
-7, ,-30, ,
-9, ,-30, ,
-6, ,-30, ,
-7, ,-30, ,
-6, ,-30, ,
-6, ,-30, ,
-7, ,-30, ,
-5, ,-30, ,
-5, ,-30, ,
-5, ,-30, ,
-4, ,-30, ,
-5, ,-30, ,
-4, ,-30, ,
-3, ,-30, ,
-3, ,-30, ,
-3, ,-30, ,
-3, ,-30, ,
-3, ,-30, ,
-3, ,-30, ,
-4, ,-30, ,
-3, ,-30, ,
-3, ,-30, ,
-3, ,-30, ,
-3, ,-30, ,
-3, ,-30, ,
-4, ,-30, ,
-2, ,-30, ,
-2, ,-30, ,
-2, ,-30, ,
-2, ,-30, ,
-2, ,-30, ,
-1, ,-30, ,
-2, ,-30, ,
-2, ,-30, ,
-2, ,-30, ,
-3, ,-30, ,
-2, ,-30, ,
-2, ,-30, ,
-2, ,-30, ,
-1, ,-30, ,
-1, ,-30, ,
-1, ,-30, ,
0, ,-30, ,
-1, ,-30, ,
-2, ,-30, ,
0, ,-30, ,
0, ,-30, ,
0, ,-30, ,
0, ,-30, ,
0, ,-30, ,
0, ,-30, ,
0, ,-30, ,
0, ,-30, ,
0, ,-30, ,
0, ,-30, ,
1, ,-30, ,
2, ,-30, ,
1, ,-30, ,
2, ,-30, ,
1, ,-30, ,
0, ,-30, ,
1, ,-30, ,
1, ,-30, ,
1, ,-30, ,
2, ,-30, ,
1, ,-30, ,
2, ,-30, ,
2, ,-30, ,
1, ,-30, ,
2, ,-30, ,
1, ,-30, ,
0, ,-30, ,
2, ,-30, ,
1, ,-30, ,
2, ,-30, ,
2, ,-30, ,
1, ,-30, ,
2, ,-30, ,
1, ,-30, ,
2, ,-30, ,
2, ,-30, ,
1, ,-30, ,
2, ,-30, ,
1, ,-30, ,
1, ,-30, ,
2, ,-30, ,
0, ,-30, ,
2, ,-30, ,
2, ,-30, ,
1, ,-30, ,
2, ,-30, ,
1, ,-30, ,
0, ,-30, ,
2, ,-30, ,
1, ,-30, ,
1, ,-30, ,
1, ,-30, ,
0, ,-30, ,
1, ,-30, ,
1, ,-30, ,
0, ,-30, ,
1, ,-30, ,
0, ,-30, ,
1, ,-30, ,
1, ,-30, ,
0, ,-30, ,
1, ,-30, ,
0, ,-30, ,
