raw_data/100% Glycerol, Impulsion 2Hz, Sonde 5MHz, Rampe 0.7Hz/temp0000189.CSV

Format,1.0B,
Memory Length,10000,Memory Length,10000,
IntpDistance,0,IntpDistance,0,
Trigger Address,159,Trigger Address,159,
Trigger Level,2.720E-01,Trigger Level,2.720E-01,
Source,CH1,Source,CH2,
Vertical Units,V,Vertical Units,V,
Vertical Units Div,0,Vertical Units Div,0,
Vertical Units Extend Div,16,Vertical Units Extend Div,16,
Label,,Label,,
Probe Type,0,Probe Type,0,
Probe Ratio,1.000e+00,Probe Ratio,1.000e+00,
Vertical Scale,2.000e-01,Vertical Scale,2.000e+00,
Vertical Position,0.000e+00,Vertical Position,0.000e+00,
Horizontal Units,S,Horizontal Units,S,
Horizontal Scale,5.000E-06,Horizontal Scale,5.000E-06,
Horizontal Position,2.420E-05,Horizontal Position,2.420E-05,
Horizontal Mode,Main,Horizontal Mode,Main,
SincET Mode,Real Time,SincET Mode,Real Time,
Sampling Period,5.000e-09,Sampling Period,5.000e-09,
Horizontal Old Scale,5.000E-06,Horizontal Old Scale,5.000E-06,
Horizontal Old Position,2.420E-05,Horizontal Old Position,2.420E-05,
Firmware,V1.32,Firmware,V1.32,
Mode,Fast,Mode,Fast,
Waveform Data,,Waveform Data,,
2, ,-10, ,
2, ,-10, ,
2, ,-10, ,
2, ,-10, ,
1, ,-10, ,
3, ,-10, ,
2, ,-10, ,
0, ,-10, ,
2, ,-10, ,
2, ,-10, ,
2, ,-10, ,
2, ,-10, ,
2, ,-10, ,
2, ,-10, ,
2, ,-10, ,
1, ,-10, ,
2, ,-10, ,
1, ,-10, ,
3, ,-10, ,
3, ,-10, ,
2, ,-10, ,
2, ,-10, ,
1, ,-10, ,
1, ,-10, ,
2, ,-10, ,
2, ,-10, ,
2, ,-10, ,
2, ,-10, ,
1, ,-10, ,
2, ,-10, ,
2, ,-10, ,
1, ,-10, ,
2, ,-10, ,
1, ,-10, ,
2, ,-10, ,
2, ,-10, ,
2, ,-10, ,
2, ,-10, ,
2, ,-10, ,
1, ,-10, ,
3, ,-10, ,
1, ,-10, ,
2, ,-10, ,
2, ,-10, ,
1, ,-10, ,
2, ,-10, ,
2, ,-10, ,
2, ,-10, ,
2, ,-10, ,
1, ,-10, ,
2, ,-10, ,
2, ,-10, ,
2, ,-10, ,
1, ,-10, ,
1, ,-10, ,
1, ,-10, ,
2, ,-10, ,
2, ,-10, ,
2, ,-10, ,
2, ,-10, ,
1, ,-10, ,
2, ,-10, ,
1, ,-10, ,
1, ,-10, ,
2, ,-10, ,
1, ,-10, ,
2, ,-10, ,
3, ,-10, ,
2, ,-10, ,
2, ,-10, ,
1, ,-10, ,
1, ,-10, ,
3, ,-10, ,
2, ,-10, ,
2, ,-10, ,
2, ,-10, ,
1, ,-10, ,
2, ,-10, ,
1, ,-10, ,
1, ,-10, ,
2, ,-10, ,
1, ,-10, ,
1, ,-10, ,
2, ,-10, ,
2, ,-10, ,
3, ,-10, ,
2, ,-10, ,
2, ,-10, ,
2, ,-10, ,
2, ,-10, ,
2, ,-10, ,
2, ,-10, ,
1, ,-10, ,
2, ,-10, ,
1, ,-10, ,
1, ,-10, ,
2, ,-10, ,
2, ,-10, ,
2, ,-10, ,
2, ,-10, ,
1, ,-10, ,
2, ,-10, ,
1, ,-10, ,
1, ,-10, ,
2, ,-10, ,
1, ,-10, ,
1, ,-10, ,
2, ,-10, ,
2, ,-10, ,
2, ,-10, ,
1, ,-10, ,
2, ,-10, ,
3, ,-10, ,
0, ,-10, ,
2, ,-10, ,
2, ,-10, ,
1, ,-10, ,
2, ,-10, ,
2, ,-10, ,
2, ,-10, ,
3, ,-10, ,
2, ,-10, ,
2, ,-10, ,
3, ,-10, ,
1, ,-10, ,
2, ,-10, ,
1, ,-10, ,
1, ,-10, ,
2, ,-10, ,
1, ,-10, ,
2, ,-10, ,
2, ,-10, ,
0, ,-10, ,
2, ,-10, ,
2, ,-10, ,
1, ,-10, ,
2, ,-10, ,
1, ,-10, ,
2, ,-10, ,
2, ,-10, ,
2, ,-10, ,
2, ,-10, ,
1, ,-10, ,
2, ,-10, ,
2, ,-10, ,
2, ,-10, ,
3, ,-10, ,
2, ,-10, ,
1, ,-10, ,
2, ,-10, ,
1, ,-10, ,
1, ,-10, ,
2, ,-10, ,
1, ,-10, ,
1, ,-10, ,
1, ,-10, ,
2, ,-10, ,
3, ,-10, ,
2, ,-10, ,
2, ,-10, ,
2, ,-10, ,
2, ,-10, ,
2, ,-10, ,
4, ,-10, ,
-1, ,-10, ,
-1, ,-10, ,
-2, ,-10, ,
21, ,-10, ,
71, ,-10, ,
125, ,-10, ,
125, ,-10, ,
125, ,-10, ,
122, ,-10, ,
117, ,-10, ,
35, ,-10, ,
56, ,-10, ,
125, ,-10, ,
125, ,-10, ,
125, ,-10, ,
125, ,-10, ,
125, ,-10, ,
125, ,-10, ,
125, ,-10, ,
125, ,-10, ,
125, ,-10, ,
125, ,-10, ,
125, ,-10, ,
125, ,-10, ,
125, ,-10, ,
125, ,-10, ,
125, ,-10, ,
125, ,-10, ,
125, ,-10, ,
125, ,-10, ,
125, ,-10, ,
125, ,-10, ,
125, ,-10, ,
125, ,-10, ,
125, ,-10, ,
125, ,-10, ,
125, ,-10, ,
125, ,-10, ,
124, ,-10, ,
122, ,-10, ,
117, ,-10, ,
112, ,-10, ,
106, ,-10, ,
99, ,-10, ,
95, ,-10, ,
91, ,-10, ,
88, ,-10, ,
79, ,-10, ,
75, ,-10, ,
73, ,-10, ,
68, ,-10, ,
62, ,-10, ,
59, ,-10, ,
57, ,-10, ,
55, ,-10, ,
50, ,-10, ,
48, ,-10, ,
46, ,-10, ,
43, ,-10, ,
38, ,-10, ,
37, ,-10, ,
35, ,-10, ,
35, ,-10, ,
30, ,-10, ,
28, ,-10, ,
27, ,-10, ,
26, ,-10, ,
24, ,-10, ,
22, ,-10, ,
21, ,-10, ,
20, ,-10, ,
18, ,-10, ,
17, ,-10, ,
17, ,-10, ,
13, ,-10, ,
13, ,-10, ,
13, ,-10, ,
10, ,-10, ,
10, ,-10, ,
9, ,-10, ,
8, ,-10, ,
7, ,-10, ,
7, ,-10, ,
6, ,-10, ,
6, ,-10, ,
5, ,-10, ,
4, ,-10, ,
3, ,-10, ,
2, ,-10, ,
3, ,-10, ,
1, ,-10, ,
1, ,-10, ,
1, ,-10, ,
1, ,-10, ,
1, ,-10, ,
0, ,-10, ,
0, ,-10, ,
0, ,-10, ,
0, ,-10, ,
-1, ,-10, ,
-1, ,-10, ,
-2, ,-10, ,
-1, ,-10, ,
-1, ,-10, ,
-2, ,-10, ,
-2, ,-10, ,
-2, ,-10, ,
-2, ,-10, ,
-2, ,-10, ,
-2, ,-10, ,
-2, ,-10, ,
-2, ,-10, ,
-2, ,-10, ,
-3, ,-10, ,
-4, ,-10, ,
-3, ,-10, ,
-3, ,-10, ,
-4, ,-10, ,
-2, ,-10, ,
-4, ,-10, ,
-3, ,-10, ,
-3, ,-10, ,
-3, ,-10, ,
-4, ,-10, ,
-2, ,-10, ,
-2, ,-10, ,
-2, ,-10, ,
-2, ,-10, ,
-2, ,-10, ,
-2, ,-10, ,
-2, ,-10, ,
-3, ,-10, ,
-1, ,-10, ,
-2, ,-10, ,
-2, ,-10, ,
-2, ,-10, ,
-2, ,-10, ,
-2, ,-10, ,
-2, ,-10, ,
-2, ,-10, ,
-2, ,-10, ,
-2, ,-10, ,
-2, ,-10, ,
-1, ,-10, ,
-2, ,-10, ,
-1, ,-10, ,
-2, ,-10, ,
-2, ,-10, ,
-2, ,-10, ,
-1, ,-10, ,
-1, ,-10, ,
-1, ,-10, ,
-1, ,-10, ,
-2, ,-10, ,
-2, ,-10, ,
-1, ,-10, ,
-1, ,-10, ,
-2, ,-10, ,
-1, ,-10, ,
-1, ,-10, ,
-2, ,-10, ,
-1, ,-10, ,
-1, ,-10, ,
0, ,-10, ,
0, ,-10, ,
0, ,-10, ,
0, ,-10, ,
0, ,-10, ,
0, ,-10, ,
0, ,-10, ,
0, ,-10, ,
0, ,-10, ,
0, ,-10, ,
0, ,-10, ,
1, ,-10, ,
0, ,-10, ,
0, ,-10, ,
0, ,-10, ,
0, ,-10, ,
0, ,-10, ,
0, ,-10, ,
0, ,-10, ,
0, ,-10, ,
1, ,-10, ,
1, ,-10, ,
1, ,-10, ,
0, ,-10, ,
1, ,-10, ,
1, ,-10, ,
1, ,-10, ,
1, ,-10, ,
1, ,-10, ,
2, ,-10, ,
2, ,-10, ,
1, ,-10, ,
0, ,-10, ,
1, ,-10, ,
0, ,-10, ,
0, ,-10, ,
1, ,-10, ,
1, ,-10, ,
1, ,-10, ,
0, ,-10, ,
0, ,-10, ,
1, ,-10, ,
1, ,-10, ,
1, ,-10, ,
1, ,-10, ,
0, ,-10, ,
2, ,-10, ,
1, ,-10, ,
1, ,-10, ,
1, ,-10, ,
1, ,-10, ,
2, ,-10, ,
2, ,-10, ,
1, ,-10, ,
2, ,-10, ,
1, ,-10, ,
2, ,-10, ,
1, ,-10, ,
1, ,-10, ,
2, ,-10, ,
2, ,-10, ,
1, ,-10, ,
2, ,-10, ,
1, ,-10, ,
1, ,-10, ,
2, ,-10, ,
0, ,-10, ,
0, ,-10, ,
-11, ,-10, ,
-31, ,-10, ,
-69, ,-10, ,
-126, ,-10, ,
-126, ,-10, ,
-126, ,-10, ,
-126, ,-10, ,
-126, ,-10, ,
-126, ,-10, ,
-126, ,-10, ,
-126, ,-10, ,
-126, ,-10, ,
-126, ,-10, ,
-126, ,-10, ,
-126, ,-10, ,
-126, ,-10, ,
-126, ,-10, ,
-126, ,-10, ,
-126, ,-10, ,
-126, ,-10, ,
-126, ,-10, ,
-126, ,-10, ,
-126, ,-10, ,
-126, ,-10, ,
-126, ,-10, ,
-126, ,-10, ,
-126, ,-10, ,
-126, ,-10, ,
-126, ,-10, ,
-126, ,-10, ,
-126, ,-10, ,
-126, ,-10, ,
-117, ,-10, ,
-45, ,-10, ,
118, ,-10, ,
125, ,-10, ,
125, ,-10, ,
125, ,-10, ,
125, ,-10, ,
125, ,-10, ,
125, ,-10, ,
125, ,-10, ,
125, ,-10, ,
125, ,-10, ,
125, ,-10, ,
125, ,-10, ,
125, ,-10, ,
125, ,-10, ,
125, ,-10, ,
125, ,-10, ,
125, ,-10, ,
125, ,-10, ,
125, ,-10, ,
125, ,-10, ,
120, ,-10, ,
112, ,-10, ,
-126, ,-10, ,
-126, ,-10, ,
-126, ,-10, ,
-126, ,-10, ,
-126, ,-10, ,
-126, ,-10, ,
-126, ,-10, ,
-126, ,-10, ,
-126, ,-10, ,
-126, ,-10, ,
-126, ,-10, ,
-126, ,-10, ,
-126, ,-10, ,
-119, ,-10, ,
-111, ,-10, ,
110, ,-10, ,
125, ,-10, ,
125, ,-10, ,
125, ,-10, ,
125, ,-10, ,
125, ,-10, ,
125, ,-10, ,
125, ,-10, ,
124, ,-10, ,
100, ,-10, ,
55, ,-10, ,
22, ,-10, ,
-6, ,-10, ,
-49, ,-10, ,
-71, ,-10, ,
-93, ,-10, ,
-110, ,-10, ,
-126, ,-10, ,
-126, ,-10, ,
-126, ,-10, ,
-123, ,-10, ,
-70, ,-10, ,
-26, ,-10, ,
25, ,-10, ,
78, ,-10, ,
125, ,-10, ,
125, ,-10, ,
125, ,-10, ,
125, ,-10, ,
125, ,-10, ,
125, ,-10, ,
125, ,-10, ,
125, ,-10, ,
125, ,-10, ,
125, ,-10, ,
125, ,-10, ,
125, ,-10, ,
125, ,-10, ,
125, ,-10, ,
125, ,-10, ,
125, ,-10, ,
125, ,-10, ,
125, ,-10, ,
125, ,-10, ,
125, ,-10, ,
124, ,-10, ,
124, ,-10, ,
114, ,-10, ,
104, ,-10, ,
78, ,-10, ,
65, ,-10, ,
54, ,-10, ,
43, ,-10, ,
29, ,-10, ,
29, ,-10, ,
30, ,-10, ,
31, ,-10, ,
35, ,-10, ,
37, ,-10, ,
38, ,-10, ,
37, ,-10, ,
37, ,-10, ,
36, ,-10, ,
32, ,-10, ,
27, ,-10, ,
11, ,-10, ,
-1, ,-10, ,
-14, ,-10, ,
-28, ,-10, ,
-59, ,-10, ,
-76, ,-10, ,
-90, ,-10, ,
-104, ,-10, ,
-125, ,-10, ,
-126, ,-10, ,
-126, ,-10, ,
-126, ,-10, ,
-126, ,-10, ,
-126, ,-10, ,
-126, ,-10, ,
-126, ,-10, ,
-126, ,-10, ,
-126, ,-10, ,
-121, ,-10, ,
-111, ,-10, ,
-89, ,-10, ,
-78, ,-10, ,
-65, ,-10, ,
-52, ,-10, ,
-30, ,-10, ,
-19, ,-10, ,
-8, ,-10, ,
3, ,-10, ,
22, ,-10, ,
33, ,-10, ,
38, ,-10, ,
46, ,-10, ,
59, ,-10, ,
62, ,-10, ,
65, ,-10, ,
67, ,-10, ,
64, ,-10, ,
64, ,-10, ,
60, ,-10, ,
56, ,-10, ,
46, ,-10, ,
41, ,-10, ,
35, ,-10, ,
31, ,-10, ,
23, ,-10, ,
22, ,-10, ,
20, ,-10, ,
22, ,-10, ,
30, ,-10, ,
33, ,-10, ,
39, ,-10, ,
45, ,-10, ,
56, ,-10, ,
62, ,-10, ,
67, ,-10, ,
70, ,-10, ,
75, ,-10, ,
76, ,-10, ,
76, ,-10, ,
75, ,-10, ,
76, ,-10, ,
76, ,-10, ,
73, ,-10, ,
73, ,-10, ,
70, ,-10, ,
68, ,-10, ,
67, ,-10, ,
66, ,-10, ,
63, ,-10, ,
63, ,-10, ,
61, ,-10, ,
61, ,-10, ,
58, ,-10, ,
55, ,-10, ,
54, ,-10, ,
51, ,-10, ,
47, ,-10, ,
46, ,-10, ,
41, ,-10, ,
38, ,-10, ,
34, ,-10, ,
29, ,-10, ,
27, ,-10, ,
24, ,-10, ,
19, ,-10, ,
15, ,-10, ,
14, ,-10, ,
14, ,-10, ,
11, ,-10, ,
10, ,-10, ,
10, ,-10, ,
9, ,-10, ,
9, ,-10, ,
7, ,-10, ,
6, ,-10, ,
6, ,-10, ,
5, ,-10, ,
3, ,-10, ,
2, ,-10, ,
1, ,-10, ,
-1, ,-10, ,
-1, ,-10, ,
-3, ,-10, ,
-5, ,-10, ,
-8, ,-10, ,
-11, ,-10, ,
-12, ,-10, ,
-18, ,-10, ,
-27, ,-10, ,
-32, ,-10, ,
-41, ,-10, ,
-48, ,-10, ,
-67, ,-10, ,
-79, ,-10, ,
-88, ,-10, ,
-100, ,-10, ,
-119, ,-10, ,
-126, ,-10, ,
-126, ,-10, ,
-126, ,-10, ,
-126, ,-10, ,
-126, ,-10, ,
-126, ,-10, ,
-126, ,-10, ,
-126, ,-10, ,
-126, ,-10, ,
-126, ,-10, ,
-126, ,-10, ,
-126, ,-10, ,
-126, ,-10, ,
-126, ,-10, ,
-126, ,-10, ,
-126, ,-10, ,
-126, ,-10, ,
-126, ,-10, ,
-126, ,-10, ,
-126, ,-10, ,
-126, ,-10, ,
-126, ,-10, ,
-126, ,-10, ,
-126, ,-10, ,
-126, ,-10, ,
-126, ,-10, ,
-126, ,-10, ,
-126, ,-10, ,
-126, ,-10, ,
-126, ,-10, ,
-126, ,-10, ,
-126, ,-10, ,
-126, ,-10, ,
-126, ,-10, ,
-126, ,-10, ,
-126, ,-10, ,
-126, ,-10, ,
-124, ,-10, ,
-118, ,-10, ,
69, ,-10, ,
125, ,-10, ,
125, ,-10, ,
125, ,-10, ,
125, ,-10, ,
125, ,-10, ,
125, ,-10, ,
125, ,-10, ,
125, ,-10, ,
125, ,-10, ,
125, ,-10, ,
125, ,-10, ,
125, ,-10, ,
125, ,-10, ,
125, ,-10, ,
125, ,-10, ,
125, ,-10, ,
125, ,-10, ,
125, ,-10, ,
125, ,-10, ,
125, ,-10, ,
125, ,-10, ,
125, ,-10, ,
125, ,-10, ,
125, ,-10, ,
125, ,-10, ,
125, ,-10, ,
125, ,-10, ,
125, ,-10, ,
125, ,-10, ,
124, ,-10, ,
123, ,-10, ,
82, ,-10, ,
44, ,-10, ,
6, ,-10, ,
-28, ,-10, ,
-89, ,-10, ,
-111, ,-10, ,
-126, ,-10, ,
-126, ,-10, ,
-126, ,-10, ,
-126, ,-10, ,
-126, ,-10, ,
-126, ,-10, ,
-105, ,-10, ,
-88, ,-10, ,
-67, ,-10, ,
-47, ,-10, ,
-7, ,-10, ,
12, ,-10, ,
30, ,-10, ,
46, ,-10, ,
70, ,-10, ,
79, ,-10, ,
88, ,-10, ,
94, ,-10, ,
101, ,-10, ,
102, ,-10, ,
101, ,-10, ,
97, ,-10, ,
86, ,-10, ,
78, ,-10, ,
68, ,-10, ,
57, ,-10, ,
31, ,-10, ,
21, ,-10, ,
7, ,-10, ,
-5, ,-10, ,
-25, ,-10, ,
-35, ,-10, ,
-40, ,-10, ,
-43, ,-10, ,
-43, ,-10, ,
-39, ,-10, ,
-35, ,-10, ,
-27, ,-10, ,
-10, ,-10, ,
0, ,-10, ,
9, ,-10, ,
18, ,-10, ,
35, ,-10, ,
40, ,-10, ,
45, ,-10, ,
52, ,-10, ,
53, ,-10, ,
53, ,-10, ,
52, ,-10, ,
51, ,-10, ,
43, ,-10, ,
39, ,-10, ,
35, ,-10, ,
31, ,-10, ,
20, ,-10, ,
14, ,-10, ,
11, ,-10, ,
3, ,-10, ,
-8, ,-10, ,
-12, ,-10, ,
-19, ,-10, ,
-21, ,-10, ,
-30, ,-10, ,
-35, ,-10, ,
-37, ,-10, ,
-41, ,-10, ,
-44, ,-10, ,
-45, ,-10, ,
-46, ,-10, ,
-45, ,-10, ,
-44, ,-10, ,
-44, ,-10, ,
-43, ,-10, ,
-43, ,-10, ,
-42, ,-10, ,
-39, ,-10, ,
-41, ,-10, ,
-39, ,-10, ,
-42, ,-10, ,
-45, ,-10, ,
-45, ,-10, ,
-47, ,-10, ,
-52, ,-10, ,
-52, ,-10, ,
-55, ,-10, ,
-55, ,-10, ,
-59, ,-10, ,
-60, ,-10, ,
-60, ,-10, ,
-60, ,-10, ,
-60, ,-10, ,
-58, ,-10, ,
-59, ,-10, ,
-57, ,-10, ,
-53, ,-10, ,
-52, ,-10, ,
-50, ,-10, ,
-48, ,-10, ,
-44, ,-10, ,
-41, ,-10, ,
-39, ,-10, ,
-38, ,-10, ,
-36, ,-10, ,
-36, ,-10, ,
-35, ,-10, ,
-37, ,-10, ,
-39, ,-10, ,
-41, ,-10, ,
-45, ,-10, ,
-47, ,-10, ,
-53, ,-10, ,
-59, ,-10, ,
-60, ,-10, ,
-64, ,-10, ,
-70, ,-10, ,
-73, ,-10, ,
-74, ,-10, ,
-74, ,-10, ,
-76, ,-10, ,
-76, ,-10, ,
-75, ,-10, ,
-74, ,-10, ,
-72, ,-10, ,
-66, ,-10, ,
-65, ,-10, ,
-63, ,-10, ,
-54, ,-10, ,
-51, ,-10, ,
-47, ,-10, ,
-43, ,-10, ,
-35, ,-10, ,
-28, ,-10, ,
-24, ,-10, ,
-18, ,-10, ,
-9, ,-10, ,
-4, ,-10, ,
1, ,-10, ,
5, ,-10, ,
16, ,-10, ,
22, ,-10, ,
26, ,-10, ,
34, ,-10, ,
43, ,-10, ,
49, ,-10, ,
55, ,-10, ,
62, ,-10, ,
72, ,-10, ,
80, ,-10, ,
85, ,-10, ,
92, ,-10, ,
104, ,-10, ,
108, ,-10, ,
114, ,-10, ,
117, ,-10, ,
125, ,-10, ,
125, ,-10, ,
125, ,-10, ,
125, ,-10, ,
125, ,-10, ,
125, ,-10, ,
125, ,-10, ,
125, ,-10, ,
125, ,-10, ,
125, ,-10, ,
125, ,-10, ,
125, ,-10, ,
125, ,-10, ,
125, ,-10, ,
125, ,-10, ,
125, ,-10, ,
125, ,-10, ,
125, ,-10, ,
125, ,-10, ,
125, ,-10, ,
125, ,-10, ,
125, ,-10, ,
125, ,-10, ,
125, ,-10, ,
124, ,-10, ,
121, ,-10, ,
113, ,-10, ,
106, ,-10, ,
86, ,-10, ,
73, ,-10, ,
58, ,-10, ,
38, ,-10, ,
-3, ,-10, ,
-25, ,-10, ,
-49, ,-10, ,
-74, ,-10, ,
-120, ,-10, ,
-126, ,-10, ,
-126, ,-10, ,
-126, ,-10, ,
-126, ,-10, ,
-126, ,-10, ,
-126, ,-10, ,
-126, ,-10, ,
-126, ,-10, ,
-126, ,-10, ,
-126, ,-10, ,
-126, ,-10, ,
-126, ,-10, ,
-126, ,-10, ,
-126, ,-10, ,
-126, ,-10, ,
-126, ,-10, ,
-126, ,-10, ,
-126, ,-10, ,
-126, ,-10, ,
-126, ,-10, ,
-126, ,-10, ,
-126, ,-10, ,
-126, ,-10, ,
-126, ,-10, ,
-126, ,-10, ,
-126, ,-10, ,
-126, ,-10, ,
-126, ,-10, ,
-126, ,-10, ,
-126, ,-10, ,
-123, ,-10, ,
-88, ,-10, ,
-71, ,-10, ,
-48, ,-10, ,
-28, ,-10, ,
12, ,-10, ,
33, ,-10, ,
49, ,-10, ,
67, ,-10, ,
94, ,-10, ,
104, ,-10, ,
113, ,-10, ,
118, ,-10, ,
123, ,-10, ,
122, ,-10, ,
118, ,-10, ,
115, ,-10, ,
103, ,-10, ,
92, ,-10, ,
83, ,-10, ,
73, ,-10, ,
53, ,-10, ,
44, ,-10, ,
35, ,-10, ,
29, ,-10, ,
14, ,-10, ,
9, ,-10, ,
5, ,-10, ,
1, ,-10, ,
0, ,-10, ,
0, ,-10, ,
1, ,-10, ,
3, ,-10, ,
6, ,-10, ,
8, ,-10, ,
10, ,-10, ,
11, ,-10, ,
15, ,-10, ,
18, ,-10, ,
17, ,-10, ,
17, ,-10, ,
17, ,-10, ,
16, ,-10, ,
14, ,-10, ,
11, ,-10, ,
6, ,-10, ,
5, ,-10, ,
0, ,-10, ,
-3, ,-10, ,
-9, ,-10, ,
-14, ,-10, ,
-16, ,-10, ,
-18, ,-10, ,
-22, ,-10, ,
-21, ,-10, ,
-22, ,-10, ,
-20, ,-10, ,
-17, ,-10, ,
-17, ,-10, ,
-13, ,-10, ,
-12, ,-10, ,
-7, ,-10, ,
-1, ,-10, ,
2, ,-10, ,
5, ,-10, ,
11, ,-10, ,
11, ,-10, ,
14, ,-10, ,
15, ,-10, ,
16, ,-10, ,
15, ,-10, ,
15, ,-10, ,
14, ,-10, ,
10, ,-10, ,
7, ,-10, ,
7, ,-10, ,
2, ,-10, ,
-3, ,-10, ,
-5, ,-10, ,
-8, ,-10, ,
-10, ,-10, ,
-12, ,-10, ,
-11, ,-10, ,
-12, ,-10, ,
-10, ,-10, ,
-9, ,-10, ,
-5, ,-10, ,
-1, ,-10, ,
3, ,-10, ,
9, ,-10, ,
13, ,-10, ,
16, ,-10, ,
18, ,-10, ,
25, ,-10, ,
30, ,-10, ,
30, ,-10, ,
34, ,-10, ,
37, ,-10, ,
37, ,-10, ,
39, ,-10, ,
39, ,-10, ,
39, ,-10, ,
39, ,-10, ,
39, ,-10, ,
38, ,-10, ,
36, ,-10, ,
36, ,-10, ,
34, ,-10, ,
32, ,-10, ,
30, ,-10, ,
29, ,-10, ,
24, ,-10, ,
24, ,-10, ,
20, ,-10, ,
19, ,-10, ,
18, ,-10, ,
17, ,-10, ,
15, ,-10, ,
15, ,-10, ,
14, ,-10, ,
15, ,-10, ,
14, ,-10, ,
13, ,-10, ,
14, ,-10, ,
11, ,-10, ,
10, ,-10, ,
10, ,-10, ,
9, ,-10, ,
9, ,-10, ,
5, ,-10, ,
3, ,-10, ,
2, ,-10, ,
-2, ,-10, ,
-6, ,-10, ,
-6, ,-10, ,
-9, ,-10, ,
-11, ,-10, ,
-18, ,-10, ,
-22, ,-10, ,
-23, ,-10, ,
-28, ,-10, ,
-35, ,-10, ,
-35, ,-10, ,
-40, ,-10, ,
-43, ,-10, ,
-49, ,-10, ,
-53, ,-10, ,
-55, ,-10, ,
-59, ,-10, ,
-62, ,-10, ,
-64, ,-10, ,
-67, ,-10, ,
-68, ,-10, ,
-74, ,-10, ,
-75, ,-10, ,
-77, ,-10, ,
-80, ,-10, ,
-84, ,-10, ,
-86, ,-10, ,
-89, ,-10, ,
-90, ,-10, ,
-95, ,-10, ,
-98, ,-10, ,
-99, ,-10, ,
-100, ,-10, ,
-105, ,-10, ,
-105, ,-10, ,
-105, ,-10, ,
-105, ,-10, ,
-105, ,-10, ,
-105, ,-10, ,
-104, ,-10, ,
-104, ,-10, ,
-99, ,-10, ,
-96, ,-10, ,
-94, ,-10, ,
-91, ,-10, ,
-83, ,-10, ,
-78, ,-10, ,
-74, ,-10, ,
-69, ,-10, ,
-59, ,-10, ,
-51, ,-10, ,
-47, ,-10, ,
-39, ,-10, ,
-29, ,-10, ,
-22, ,-10, ,
-15, ,-10, ,
-9, ,-10, ,
2, ,-10, ,
11, ,-10, ,
17, ,-10, ,
24, ,-10, ,
37, ,-10, ,
44, ,-10, ,
52, ,-10, ,
60, ,-10, ,
77, ,-10, ,
84, ,-10, ,
94, ,-10, ,
104, ,-10, ,
116, ,-10, ,
123, ,-10, ,
125, ,-10, ,
125, ,-10, ,
125, ,-10, ,
125, ,-10, ,
125, ,-10, ,
125, ,-10, ,
125, ,-10, ,
125, ,-10, ,
125, ,-10, ,
125, ,-10, ,
125, ,-10, ,
125, ,-10, ,
124, ,-10, ,
124, ,-10, ,
114, ,-10, ,
106, ,-10, ,
103, ,-10, ,
94, ,-10, ,
83, ,-10, ,
79, ,-10, ,
71, ,-10, ,
67, ,-10, ,
59, ,-10, ,
53, ,-10, ,
50, ,-10, ,
44, ,-10, ,
37, ,-10, ,
34, ,-10, ,
29, ,-10, ,
23, ,-10, ,
12, ,-10, ,
4, ,-10, ,
-1, ,-10, ,
-10, ,-10, ,
-25, ,-10, ,
-33, ,-10, ,
-40, ,-10, ,
-47, ,-10, ,
-62, ,-10, ,
-70, ,-10, ,
-74, ,-10, ,
-78, ,-10, ,
-86, ,-10, ,
-86, ,-10, ,
-87, ,-10, ,
-85, ,-10, ,
-83, ,-10, ,
-79, ,-10, ,
-74, ,-10, ,
-72, ,-10, ,
-61, ,-10, ,
-54, ,-10, ,
-48, ,-10, ,
-41, ,-10, ,
-33, ,-10, ,
-30, ,-10, ,
-25, ,-10, ,
-23, ,-10, ,
-17, ,-10, ,
-15, ,-10, ,
-14, ,-10, ,
-14, ,-10, ,
-13, ,-10, ,
-14, ,-10, ,
-13, ,-10, ,
-15, ,-10, ,
-15, ,-10, ,
-14, ,-10, ,
-15, ,-10, ,
-12, ,-10, ,
-11, ,-10, ,
-11, ,-10, ,
-10, ,-10, ,
-8, ,-10, ,
-4, ,-10, ,
-1, ,-10, ,
1, ,-10, ,
5, ,-10, ,
8, ,-10, ,
10, ,-10, ,
12, ,-10, ,
14, ,-10, ,
15, ,-10, ,
16, ,-10, ,
15, ,-10, ,
14, ,-10, ,
13, ,-10, ,
10, ,-10, ,
10, ,-10, ,
8, ,-10, ,
2, ,-10, ,
0, ,-10, ,
-2, ,-10, ,
-3, ,-10, ,
-8, ,-10, ,
-10, ,-10, ,
-13, ,-10, ,
-15, ,-10, ,
-16, ,-10, ,
-18, ,-10, ,
-18, ,-10, ,
-17, ,-10, ,
-16, ,-10, ,
-17, ,-10, ,
-15, ,-10, ,
-15, ,-10, ,
-15, ,-10, ,
-12, ,-10, ,
-12, ,-10, ,
-11, ,-10, ,
-9, ,-10, ,
-9, ,-10, ,
-8, ,-10, ,
-8, ,-10, ,
-9, ,-10, ,
-10, ,-10, ,
-11, ,-10, ,
-11, ,-10, ,
-13, ,-10, ,
-15, ,-10, ,
-15, ,-10, ,
-19, ,-10, ,
-20, ,-10, ,
-21, ,-10, ,
-21, ,-10, ,
-22, ,-10, ,
-23, ,-10, ,
-23, ,-10, ,
-22, ,-10, ,
-22, ,-10, ,
-19, ,-10, ,
-17, ,-10, ,
-17, ,-10, ,
-15, ,-10, ,
-10, ,-10, ,
-10, ,-10, ,
-7, ,-10, ,
-7, ,-10, ,
-4, ,-10, ,
1, ,-10, ,
0, ,-10, ,
3, ,-10, ,
6, ,-10, ,
7, ,-10, ,
8, ,-10, ,
8, ,-10, ,
10, ,-10, ,
10, ,-10, ,
10, ,-10, ,
12, ,-10, ,
12, ,-10, ,
11, ,-10, ,
11, ,-10, ,
10, ,-10, ,
9, ,-10, ,
9, ,-10, ,
9, ,-10, ,
9, ,-10, ,
7, ,-10, ,
7, ,-10, ,
7, ,-10, ,
8, ,-10, ,
7, ,-10, ,
7, ,-10, ,
6, ,-10, ,
6, ,-10, ,
8, ,-10, ,
8, ,-10, ,
9, ,-10, ,
8, ,-10, ,
10, ,-10, ,
11, ,-10, ,
11, ,-10, ,
13, ,-10, ,
15, ,-10, ,
16, ,-10, ,
18, ,-10, ,
18, ,-10, ,
21, ,-10, ,
23, ,-10, ,
23, ,-10, ,
26, ,-10, ,
30, ,-10, ,
29, ,-10, ,
31, ,-10, ,
33, ,-10, ,
35, ,-10, ,
38, ,-10, ,
37, ,-10, ,
39, ,-10, ,
42, ,-10, ,
43, ,-10, ,
45, ,-10, ,
43, ,-10, ,
46, ,-10, ,
47, ,-10, ,
47, ,-10, ,
47, ,-10, ,
46, ,-10, ,
45, ,-10, ,
45, ,-10, ,
43, ,-10, ,
38, ,-10, ,
39, ,-10, ,
35, ,-10, ,
34, ,-10, ,
27, ,-10, ,
25, ,-10, ,
23, ,-10, ,
17, ,-10, ,
9, ,-10, ,
5, ,-10, ,
0, ,-10, ,
-4, ,-10, ,
-12, ,-10, ,
-17, ,-10, ,
-20, ,-10, ,
-27, ,-10, ,
-35, ,-10, ,
-37, ,-10, ,
-42, ,-10, ,
-44, ,-10, ,
-52, ,-10, ,
-57, ,-10, ,
-60, ,-10, ,
-65, ,-10, ,
-71, ,-10, ,
-73, ,-10, ,
-77, ,-10, ,
-79, ,-10, ,
-82, ,-10, ,
-86, ,-10, ,
-87, ,-10, ,
-89, ,-10, ,
-92, ,-10, ,
-91, ,-10, ,
-91, ,-10, ,
-90, ,-10, ,
-89, ,-10, ,
-87, ,-10, ,
-86, ,-10, ,
-83, ,-10, ,
-74, ,-10, ,
-72, ,-10, ,
-67, ,-10, ,
-61, ,-10, ,
-50, ,-10, ,
-46, ,-10, ,
-40, ,-10, ,
-35, ,-10, ,
-25, ,-10, ,
-17, ,-10, ,
-12, ,-10, ,
-7, ,-10, ,
2, ,-10, ,
7, ,-10, ,
11, ,-10, ,
15, ,-10, ,
22, ,-10, ,
26, ,-10, ,
27, ,-10, ,
31, ,-10, ,
37, ,-10, ,
39, ,-10, ,
43, ,-10, ,
45, ,-10, ,
49, ,-10, ,
51, ,-10, ,
54, ,-10, ,
56, ,-10, ,
61, ,-10, ,
62, ,-10, ,
64, ,-10, ,
64, ,-10, ,
64, ,-10, ,
64, ,-10, ,
63, ,-10, ,
64, ,-10, ,
60, ,-10, ,
55, ,-10, ,
53, ,-10, ,
50, ,-10, ,
42, ,-10, ,
39, ,-10, ,
35, ,-10, ,
32, ,-10, ,
22, ,-10, ,
18, ,-10, ,
15, ,-10, ,
10, ,-10, ,
4, ,-10, ,
2, ,-10, ,
0, ,-10, ,
-2, ,-10, ,
-5, ,-10, ,
-6, ,-10, ,
-7, ,-10, ,
-8, ,-10, ,
-10, ,-10, ,
-10, ,-10, ,
-10, ,-10, ,
-10, ,-10, ,
-11, ,-10, ,
-12, ,-10, ,
-11, ,-10, ,
-13, ,-10, ,
-14, ,-10, ,
-15, ,-10, ,
-18, ,-10, ,
-18, ,-10, ,
-19, ,-10, ,
-21, ,-10, ,
-20, ,-10, ,
-22, ,-10, ,
-22, ,-10, ,
-21, ,-10, ,
-21, ,-10, ,
-20, ,-10, ,
-17, ,-10, ,
-18, ,-10, ,
-15, ,-10, ,
-15, ,-10, ,
-10, ,-10, ,
-9, ,-10, ,
-8, ,-10, ,
-7, ,-10, ,
-4, ,-10, ,
-2, ,-10, ,
0, ,-10, ,
1, ,-10, ,
2, ,-10, ,
2, ,-10, ,
2, ,-10, ,
3, ,-10, ,
2, ,-10, ,
1, ,-10, ,
0, ,-10, ,
0, ,-10, ,
0, ,-10, ,
-1, ,-10, ,
-2, ,-10, ,
-2, ,-10, ,
-3, ,-10, ,
-3, ,-10, ,
-4, ,-10, ,
-4, ,-10, ,
-4, ,-10, ,
-4, ,-10, ,
-4, ,-10, ,
-3, ,-10, ,
-2, ,-10, ,
-1, ,-10, ,
-1, ,-10, ,
0, ,-10, ,
1, ,-10, ,
2, ,-10, ,
1, ,-10, ,
3, ,-10, ,
4, ,-10, ,
5, ,-10, ,
5, ,-10, ,
5, ,-10, ,
5, ,-10, ,
5, ,-10, ,
5, ,-10, ,
5, ,-10, ,
4, ,-10, ,
3, ,-10, ,
3, ,-10, ,
3, ,-10, ,
2, ,-10, ,
3, ,-10, ,
1, ,-10, ,
1, ,-10, ,
1, ,-10, ,
1, ,-10, ,
1, ,-10, ,
1, ,-10, ,
0, ,-10, ,
3, ,-10, ,
3, ,-10, ,
3, ,-10, ,
3, ,-10, ,
4, ,-10, ,
4, ,-10, ,
4, ,-10, ,
4, ,-10, ,
5, ,-10, ,
3, ,-10, ,
4, ,-10, ,
3, ,-10, ,
2, ,-10, ,
2, ,-10, ,
0, ,-10, ,
