raw_data/100% Glycerol, Impulsion 2Hz, Sonde 5MHz, Rampe 0.7Hz/temp0000128.CSV

Format,1.0B,
Memory Length,10000,Memory Length,10000,
IntpDistance,0,IntpDistance,0,
Trigger Address,159,Trigger Address,159,
Trigger Level,2.720E-01,Trigger Level,2.720E-01,
Source,CH1,Source,CH2,
Vertical Units,V,Vertical Units,V,
Vertical Units Div,0,Vertical Units Div,0,
Vertical Units Extend Div,16,Vertical Units Extend Div,16,
Label,,Label,,
Probe Type,0,Probe Type,0,
Probe Ratio,1.000e+00,Probe Ratio,1.000e+00,
Vertical Scale,2.000e-01,Vertical Scale,2.000e+00,
Vertical Position,0.000e+00,Vertical Position,0.000e+00,
Horizontal Units,S,Horizontal Units,S,
Horizontal Scale,5.000E-06,Horizontal Scale,5.000E-06,
Horizontal Position,2.420E-05,Horizontal Position,2.420E-05,
Horizontal Mode,Main,Horizontal Mode,Main,
SincET Mode,Real Time,SincET Mode,Real Time,
Sampling Period,5.000e-09,Sampling Period,5.000e-09,
Horizontal Old Scale,5.000E-06,Horizontal Old Scale,5.000E-06,
Horizontal Old Position,2.420E-05,Horizontal Old Position,2.420E-05,
Firmware,V1.32,Firmware,V1.32,
Mode,Fast,Mode,Fast,
Waveform Data,,Waveform Data,,
2, ,-28, ,
2, ,-28, ,
1, ,-27, ,
2, ,-28, ,
2, ,-28, ,
1, ,-28, ,
3, ,-28, ,
1, ,-28, ,
1, ,-28, ,
1, ,-28, ,
1, ,-28, ,
1, ,-28, ,
2, ,-28, ,
2, ,-28, ,
1, ,-28, ,
1, ,-27, ,
1, ,-27, ,
2, ,-27, ,
1, ,-27, ,
2, ,-28, ,
1, ,-28, ,
1, ,-27, ,
2, ,-27, ,
2, ,-27, ,
1, ,-27, ,
1, ,-28, ,
1, ,-28, ,
2, ,-28, ,
1, ,-28, ,
1, ,-28, ,
1, ,-28, ,
0, ,-27, ,
1, ,-28, ,
1, ,-28, ,
1, ,-27, ,
2, ,-27, ,
2, ,-27, ,
2, ,-27, ,
1, ,-28, ,
1, ,-28, ,
0, ,-28, ,
1, ,-28, ,
2, ,-28, ,
1, ,-28, ,
2, ,-27, ,
1, ,-28, ,
3, ,-28, ,
1, ,-28, ,
1, ,-27, ,
1, ,-28, ,
0, ,-28, ,
2, ,-28, ,
1, ,-27, ,
0, ,-28, ,
2, ,-28, ,
1, ,-28, ,
1, ,-28, ,
2, ,-27, ,
1, ,-27, ,
2, ,-28, ,
2, ,-28, ,
1, ,-28, ,
3, ,-27, ,
1, ,-27, ,
1, ,-27, ,
1, ,-27, ,
2, ,-27, ,
1, ,-28, ,
1, ,-28, ,
2, ,-27, ,
2, ,-27, ,
2, ,-27, ,
1, ,-27, ,
2, ,-28, ,
1, ,-28, ,
2, ,-28, ,
3, ,-28, ,
2, ,-28, ,
2, ,-28, ,
1, ,-28, ,
1, ,-28, ,
1, ,-27, ,
0, ,-27, ,
2, ,-27, ,
2, ,-27, ,
2, ,-27, ,
2, ,-28, ,
2, ,-28, ,
1, ,-28, ,
1, ,-28, ,
1, ,-28, ,
1, ,-28, ,
1, ,-28, ,
0, ,-27, ,
2, ,-27, ,
1, ,-27, ,
2, ,-27, ,
2, ,-27, ,
1, ,-27, ,
1, ,-28, ,
2, ,-28, ,
2, ,-28, ,
2, ,-27, ,
1, ,-27, ,
1, ,-27, ,
2, ,-28, ,
2, ,-28, ,
1, ,-28, ,
2, ,-27, ,
2, ,-28, ,
2, ,-28, ,
1, ,-27, ,
1, ,-28, ,
1, ,-28, ,
1, ,-27, ,
1, ,-28, ,
2, ,-28, ,
1, ,-27, ,
1, ,-27, ,
1, ,-27, ,
2, ,-27, ,
1, ,-28, ,
1, ,-28, ,
2, ,-28, ,
1, ,-27, ,
1, ,-28, ,
2, ,-28, ,
1, ,-28, ,
1, ,-28, ,
2, ,-27, ,
1, ,-27, ,
2, ,-28, ,
2, ,-28, ,
1, ,-27, ,
3, ,-27, ,
2, ,-28, ,
1, ,-28, ,
2, ,-28, ,
1, ,-28, ,
2, ,-28, ,
1, ,-27, ,
2, ,-28, ,
2, ,-28, ,
1, ,-27, ,
2, ,-27, ,
2, ,-27, ,
2, ,-27, ,
2, ,-27, ,
2, ,-27, ,
1, ,-28, ,
2, ,-28, ,
1, ,-27, ,
0, ,-27, ,
2, ,-28, ,
1, ,-28, ,
2, ,-28, ,
2, ,-28, ,
1, ,-28, ,
1, ,-28, ,
2, ,-28, ,
1, ,-28, ,
2, ,-28, ,
1, ,-28, ,
1, ,-28, ,
0, ,-28, ,
-2, ,-27, ,
0, ,-27, ,
-1, ,-27, ,
73, ,-27, ,
125, ,-27, ,
125, ,-28, ,
125, ,-28, ,
122, ,-28, ,
117, ,-27, ,
30, ,-27, ,
-21, ,-27, ,
125, ,-27, ,
125, ,-28, ,
125, ,-28, ,
125, ,-28, ,
125, ,-27, ,
125, ,-28, ,
125, ,-28, ,
125, ,-28, ,
125, ,-28, ,
125, ,-28, ,
125, ,-27, ,
125, ,-27, ,
125, ,-27, ,
125, ,-27, ,
125, ,-27, ,
125, ,-27, ,
125, ,-28, ,
125, ,-28, ,
125, ,-27, ,
125, ,-27, ,
125, ,-27, ,
125, ,-28, ,
125, ,-28, ,
125, ,-28, ,
125, ,-28, ,
125, ,-28, ,
124, ,-28, ,
124, ,-28, ,
116, ,-27, ,
111, ,-28, ,
108, ,-28, ,
103, ,-27, ,
93, ,-27, ,
91, ,-28, ,
87, ,-28, ,
83, ,-28, ,
76, ,-28, ,
69, ,-28, ,
69, ,-28, ,
65, ,-27, ,
59, ,-28, ,
57, ,-28, ,
54, ,-27, ,
52, ,-27, ,
48, ,-27, ,
45, ,-27, ,
43, ,-27, ,
39, ,-27, ,
36, ,-27, ,
35, ,-27, ,
32, ,-27, ,
32, ,-27, ,
30, ,-27, ,
27, ,-27, ,
27, ,-28, ,
24, ,-28, ,
20, ,-28, ,
20, ,-27, ,
19, ,-27, ,
18, ,-28, ,
15, ,-28, ,
15, ,-27, ,
14, ,-27, ,
13, ,-27, ,
12, ,-27, ,
10, ,-28, ,
9, ,-28, ,
9, ,-28, ,
8, ,-27, ,
7, ,-28, ,
7, ,-28, ,
5, ,-28, ,
5, ,-28, ,
5, ,-28, ,
4, ,-28, ,
4, ,-28, ,
3, ,-27, ,
2, ,-28, ,
2, ,-28, ,
1, ,-27, ,
0, ,-27, ,
2, ,-27, ,
0, ,-27, ,
0, ,-28, ,
-1, ,-28, ,
-2, ,-27, ,
-1, ,-28, ,
-2, ,-28, ,
-2, ,-28, ,
-1, ,-28, ,
-1, ,-28, ,
-1, ,-28, ,
-1, ,-28, ,
-2, ,-28, ,
-1, ,-28, ,
-2, ,-27, ,
-3, ,-28, ,
-3, ,-28, ,
-3, ,-28, ,
-3, ,-27, ,
-2, ,-27, ,
-3, ,-27, ,
-3, ,-28, ,
-4, ,-28, ,
-4, ,-28, ,
-2, ,-28, ,
-2, ,-28, ,
-3, ,-28, ,
-3, ,-28, ,
-4, ,-27, ,
-3, ,-27, ,
-3, ,-27, ,
-3, ,-27, ,
-2, ,-27, ,
-4, ,-27, ,
-2, ,-27, ,
-3, ,-27, ,
-3, ,-28, ,
-2, ,-28, ,
-3, ,-27, ,
-2, ,-27, ,
-2, ,-27, ,
-2, ,-28, ,
-2, ,-28, ,
-2, ,-28, ,
-2, ,-28, ,
-2, ,-28, ,
-2, ,-27, ,
-2, ,-27, ,
-2, ,-27, ,
-2, ,-27, ,
-2, ,-28, ,
-2, ,-28, ,
-2, ,-27, ,
-1, ,-28, ,
-2, ,-28, ,
-2, ,-28, ,
-2, ,-28, ,
-2, ,-28, ,
-2, ,-28, ,
-2, ,-27, ,
-2, ,-28, ,
-1, ,-28, ,
-4, ,-27, ,
-1, ,-27, ,
-1, ,-27, ,
-1, ,-27, ,
-2, ,-28, ,
-1, ,-28, ,
-2, ,-28, ,
-1, ,-28, ,
0, ,-28, ,
0, ,-28, ,
0, ,-27, ,
0, ,-27, ,
0, ,-28, ,
0, ,-28, ,
-1, ,-27, ,
0, ,-27, ,
-1, ,-27, ,
-1, ,-28, ,
0, ,-28, ,
-2, ,-27, ,
0, ,-28, ,
0, ,-28, ,
-2, ,-28, ,
0, ,-28, ,
-1, ,-28, ,
-1, ,-28, ,
1, ,-27, ,
0, ,-27, ,
1, ,-27, ,
0, ,-27, ,
0, ,-27, ,
0, ,-28, ,
0, ,-28, ,
0, ,-28, ,
0, ,-28, ,
0, ,-27, ,
0, ,-28, ,
1, ,-28, ,
0, ,-27, ,
1, ,-28, ,
0, ,-28, ,
0, ,-28, ,
2, ,-28, ,
0, ,-28, ,
1, ,-28, ,
0, ,-28, ,
1, ,-28, ,
1, ,-28, ,
0, ,-27, ,
1, ,-28, ,
1, ,-28, ,
0, ,-27, ,
1, ,-28, ,
1, ,-28, ,
1, ,-27, ,
0, ,-28, ,
0, ,-28, ,
1, ,-28, ,
1, ,-27, ,
0, ,-27, ,
1, ,-27, ,
1, ,-27, ,
0, ,-28, ,
2, ,-28, ,
0, ,-27, ,
1, ,-27, ,
2, ,-28, ,
1, ,-28, ,
1, ,-28, ,
1, ,-28, ,
1, ,-28, ,
1, ,-28, ,
1, ,-28, ,
1, ,-28, ,
1, ,-27, ,
1, ,-27, ,
1, ,-27, ,
1, ,-27, ,
1, ,-27, ,
1, ,-28, ,
1, ,-28, ,
1, ,-28, ,
1, ,-28, ,
1, ,-28, ,
1, ,-28, ,
2, ,-27, ,
0, ,-27, ,
2, ,-27, ,
1, ,-27, ,
1, ,-27, ,
1, ,-27, ,
1, ,-27, ,
2, ,-27, ,
2, ,-27, ,
1, ,-27, ,
3, ,-27, ,
1, ,-27, ,
1, ,-27, ,
1, ,-27, ,
1, ,-27, ,
1, ,-28, ,
1, ,-28, ,
1, ,-27, ,
1, ,-27, ,
1, ,-27, ,
1, ,-27, ,
1, ,-27, ,
0, ,-27, ,
0, ,-27, ,
1, ,-27, ,
1, ,-27, ,
1, ,-27, ,
0, ,-27, ,
1, ,-28, ,
1, ,-28, ,
1, ,-27, ,
1, ,-28, ,
1, ,-28, ,
1, ,-28, ,
1, ,-28, ,
0, ,-28, ,
0, ,-28, ,
0, ,-27, ,
-1, ,-27, ,
-1, ,-27, ,
-1, ,-27, ,
-1, ,-28, ,
-1, ,-28, ,
-2, ,-27, ,
0, ,-28, ,
0, ,-28, ,
0, ,-28, ,
1, ,-28, ,
2, ,-28, ,
1, ,-27, ,
2, ,-27, ,
2, ,-27, ,
2, ,-27, ,
2, ,-27, ,
1, ,-27, ,
3, ,-27, ,
1, ,-27, ,
1, ,-27, ,
2, ,-28, ,
1, ,-28, ,
1, ,-28, ,
1, ,-27, ,
1, ,-27, ,
2, ,-28, ,
2, ,-28, ,
0, ,-27, ,
2, ,-28, ,
1, ,-28, ,
0, ,-28, ,
2, ,-27, ,
1, ,-28, ,
3, ,-28, ,
2, ,-28, ,
0, ,-27, ,
2, ,-28, ,
0, ,-28, ,
0, ,-28, ,
0, ,-28, ,
-2, ,-27, ,
0, ,-28, ,
-1, ,-28, ,
-2, ,-28, ,
0, ,-28, ,
0, ,-28, ,
0, ,-28, ,
0, ,-28, ,
1, ,-28, ,
2, ,-28, ,
2, ,-27, ,
1, ,-27, ,
2, ,-27, ,
1, ,-27, ,
1, ,-28, ,
2, ,-28, ,
0, ,-28, ,
1, ,-28, ,
1, ,-28, ,
-2, ,-27, ,
1, ,-28, ,
0, ,-28, ,
0, ,-28, ,
0, ,-27, ,
0, ,-27, ,
0, ,-27, ,
1, ,-27, ,
0, ,-28, ,
0, ,-28, ,
0, ,-27, ,
1, ,-27, ,
1, ,-27, ,
0, ,-27, ,
1, ,-28, ,
0, ,-28, ,
-3, ,-28, ,
-3, ,-28, ,
-4, ,-28, ,
-5, ,-28, ,
-4, ,-27, ,
-6, ,-27, ,
-5, ,-28, ,
-5, ,-28, ,
-6, ,-27, ,
-5, ,-27, ,
-7, ,-27, ,
-7, ,-28, ,
-7, ,-28, ,
-8, ,-27, ,
-8, ,-27, ,
-10, ,-27, ,
-10, ,-27, ,
-11, ,-27, ,
-14, ,-27, ,
-18, ,-27, ,
-20, ,-28, ,
-21, ,-28, ,
-23, ,-28, ,
-26, ,-27, ,
-30, ,-28, ,
-30, ,-28, ,
-32, ,-27, ,
-32, ,-27, ,
-31, ,-27, ,
-32, ,-27, ,
-31, ,-27, ,
-28, ,-27, ,
-27, ,-27, ,
-26, ,-27, ,
-26, ,-27, ,
-26, ,-27, ,
-26, ,-27, ,
-26, ,-27, ,
-26, ,-27, ,
-28, ,-27, ,
-28, ,-27, ,
-29, ,-28, ,
-30, ,-28, ,
-28, ,-28, ,
-27, ,-28, ,
-28, ,-27, ,
-26, ,-27, ,
-23, ,-27, ,
-22, ,-27, ,
-19, ,-27, ,
-17, ,-27, ,
-14, ,-28, ,
-10, ,-28, ,
-10, ,-28, ,
-9, ,-28, ,
-8, ,-27, ,
-9, ,-28, ,
-8, ,-28, ,
-10, ,-27, ,
-10, ,-28, ,
-10, ,-28, ,
-12, ,-28, ,
-11, ,-27, ,
-10, ,-27, ,
-10, ,-28, ,
-8, ,-28, ,
-7, ,-28, ,
-5, ,-28, ,
-2, ,-28, ,
-2, ,-28, ,
1, ,-28, ,
2, ,-27, ,
1, ,-27, ,
1, ,-27, ,
1, ,-27, ,
-1, ,-27, ,
0, ,-28, ,
-3, ,-28, ,
-4, ,-28, ,
-6, ,-28, ,
-9, ,-27, ,
-8, ,-27, ,
-10, ,-27, ,
-11, ,-27, ,
-11, ,-28, ,
-11, ,-28, ,
-10, ,-28, ,
-10, ,-27, ,
-10, ,-27, ,
-9, ,-27, ,
-10, ,-27, ,
-10, ,-27, ,
-10, ,-28, ,
-11, ,-28, ,
-11, ,-28, ,
-14, ,-28, ,
-18, ,-27, ,
-19, ,-27, ,
-20, ,-28, ,
-23, ,-28, ,
-25, ,-28, ,
-25, ,-28, ,
-24, ,-28, ,
-24, ,-28, ,
-25, ,-27, ,
-25, ,-28, ,
-25, ,-28, ,
-25, ,-28, ,
-25, ,-28, ,
-27, ,-27, ,
-26, ,-27, ,
-29, ,-27, ,
-30, ,-28, ,
-31, ,-28, ,
-31, ,-28, ,
-34, ,-28, ,
-34, ,-28, ,
-35, ,-28, ,
-34, ,-28, ,
-34, ,-27, ,
-34, ,-27, ,
-34, ,-27, ,
-34, ,-27, ,
-34, ,-27, ,
-34, ,-27, ,
-34, ,-27, ,
-34, ,-27, ,
-31, ,-27, ,
-32, ,-27, ,
-30, ,-28, ,
-29, ,-28, ,
-29, ,-28, ,
-28, ,-28, ,
-28, ,-28, ,
-28, ,-28, ,
-30, ,-27, ,
-31, ,-28, ,
-31, ,-28, ,
-33, ,-27, ,
-36, ,-27, ,
-36, ,-27, ,
-38, ,-27, ,
-38, ,-28, ,
-37, ,-28, ,
-38, ,-28, ,
-36, ,-28, ,
-35, ,-28, ,
-35, ,-28, ,
-33, ,-28, ,
-34, ,-28, ,
-32, ,-28, ,
-32, ,-28, ,
-33, ,-28, ,
-33, ,-28, ,
-34, ,-27, ,
-35, ,-28, ,
-35, ,-28, ,
-35, ,-27, ,
-34, ,-28, ,
-34, ,-28, ,
-33, ,-28, ,
-30, ,-27, ,
-30, ,-27, ,
-27, ,-27, ,
-26, ,-28, ,
-24, ,-28, ,
-24, ,-28, ,
-24, ,-27, ,
-24, ,-27, ,
-24, ,-28, ,
-25, ,-28, ,
-25, ,-28, ,
-25, ,-27, ,
-26, ,-27, ,
-25, ,-27, ,
-24, ,-27, ,
-25, ,-27, ,
-23, ,-28, ,
-24, ,-28, ,
-23, ,-28, ,
-22, ,-28, ,
-23, ,-27, ,
-21, ,-27, ,
-22, ,-27, ,
-20, ,-27, ,
-19, ,-27, ,
-20, ,-27, ,
-17, ,-28, ,
-14, ,-28, ,
-13, ,-27, ,
-10, ,-27, ,
-8, ,-27, ,
-5, ,-27, ,
-4, ,-28, ,
-4, ,-28, ,
0, ,-28, ,
4, ,-27, ,
5, ,-27, ,
7, ,-27, ,
8, ,-27, ,
9, ,-28, ,
13, ,-28, ,
13, ,-28, ,
15, ,-28, ,
19, ,-28, ,
18, ,-27, ,
20, ,-27, ,
20, ,-28, ,
20, ,-28, ,
20, ,-28, ,
19, ,-28, ,
18, ,-28, ,
17, ,-28, ,
17, ,-28, ,
15, ,-28, ,
12, ,-27, ,
11, ,-28, ,
10, ,-28, ,
8, ,-28, ,
6, ,-28, ,
6, ,-28, ,
5, ,-27, ,
4, ,-28, ,
3, ,-28, ,
1, ,-28, ,
2, ,-28, ,
0, ,-27, ,
-1, ,-28, ,
-1, ,-28, ,
-2, ,-28, ,
-2, ,-28, ,
-4, ,-27, ,
-5, ,-28, ,
-5, ,-28, ,
-7, ,-27, ,
-8, ,-28, ,
-8, ,-28, ,
-10, ,-27, ,
-10, ,-27, ,
-11, ,-27, ,
-14, ,-27, ,
-13, ,-27, ,
-16, ,-27, ,
-18, ,-27, ,
-18, ,-28, ,
-19, ,-28, ,
-19, ,-28, ,
-20, ,-28, ,
-21, ,-28, ,
-21, ,-28, ,
-22, ,-28, ,
-23, ,-28, ,
-23, ,-28, ,
-25, ,-27, ,
-25, ,-28, ,
-27, ,-28, ,
-27, ,-27, ,
-27, ,-28, ,
-28, ,-28, ,
-29, ,-28, ,
-28, ,-28, ,
-29, ,-28, ,
-28, ,-28, ,
-27, ,-27, ,
-27, ,-28, ,
-27, ,-28, ,
-28, ,-27, ,
-27, ,-28, ,
-25, ,-28, ,
-26, ,-27, ,
-27, ,-28, ,
-27, ,-28, ,
-29, ,-27, ,
-27, ,-27, ,
-28, ,-27, ,
-28, ,-27, ,
-27, ,-27, ,
-28, ,-28, ,
-26, ,-28, ,
-25, ,-28, ,
-25, ,-28, ,
-24, ,-28, ,
-25, ,-27, ,
-22, ,-28, ,
-20, ,-28, ,
-20, ,-27, ,
-19, ,-27, ,
-18, ,-27, ,
-19, ,-27, ,
-17, ,-28, ,
-16, ,-28, ,
-16, ,-28, ,
-12, ,-28, ,
-12, ,-27, ,
-9, ,-28, ,
-8, ,-28, ,
-7, ,-28, ,
-3, ,-28, ,
-5, ,-28, ,
1, ,-28, ,
3, ,-28, ,
3, ,-27, ,
4, ,-28, ,
6, ,-28, ,
7, ,-27, ,
8, ,-28, ,
9, ,-28, ,
10, ,-28, ,
11, ,-28, ,
12, ,-28, ,
14, ,-28, ,
14, ,-28, ,
14, ,-28, ,
15, ,-28, ,
14, ,-28, ,
13, ,-28, ,
13, ,-28, ,
11, ,-27, ,
10, ,-27, ,
10, ,-28, ,
8, ,-28, ,
9, ,-28, ,
7, ,-27, ,
5, ,-27, ,
6, ,-28, ,
4, ,-28, ,
4, ,-28, ,
3, ,-28, ,
2, ,-28, ,
2, ,-28, ,
0, ,-27, ,
-2, ,-27, ,
-2, ,-27, ,
-4, ,-27, ,
-3, ,-28, ,
-5, ,-28, ,
-7, ,-28, ,
-7, ,-28, ,
-8, ,-28, ,
-10, ,-28, ,
-8, ,-27, ,
-11, ,-27, ,
-10, ,-27, ,
-11, ,-27, ,
-13, ,-27, ,
-12, ,-27, ,
-15, ,-27, ,
-16, ,-27, ,
-16, ,-27, ,
-18, ,-27, ,
-17, ,-27, ,
-20, ,-27, ,
-21, ,-28, ,
-20, ,-28, ,
-22, ,-28, ,
-23, ,-28, ,
-24, ,-28, ,
-24, ,-28, ,
-24, ,-28, ,
-25, ,-28, ,
-25, ,-27, ,
-25, ,-27, ,
-26, ,-27, ,
-26, ,-28, ,
-25, ,-28, ,
-25, ,-27, ,
-25, ,-28, ,
-26, ,-28, ,
-26, ,-27, ,
-25, ,-28, ,
-25, ,-28, ,
-25, ,-28, ,
-24, ,-28, ,
-25, ,-28, ,
-24, ,-28, ,
-24, ,-28, ,
-24, ,-28, ,
-22, ,-28, ,
-23, ,-27, ,
-22, ,-28, ,
-21, ,-28, ,
-20, ,-27, ,
-20, ,-28, ,
-20, ,-28, ,
-20, ,-28, ,
-20, ,-28, ,
-20, ,-28, ,
-21, ,-27, ,
-19, ,-27, ,
-20, ,-28, ,
-18, ,-28, ,
-19, ,-28, ,
-19, ,-28, ,
-18, ,-28, ,
-19, ,-28, ,
-18, ,-27, ,
-18, ,-27, ,
-19, ,-27, ,
-17, ,-28, ,
-17, ,-28, ,
-18, ,-27, ,
-18, ,-27, ,
-19, ,-27, ,
-18, ,-27, ,
-18, ,-28, ,
-19, ,-28, ,
-18, ,-28, ,
-18, ,-27, ,
-18, ,-27, ,
-18, ,-28, ,
-19, ,-28, ,
-19, ,-28, ,
-18, ,-28, ,
-18, ,-27, ,
-18, ,-27, ,
-18, ,-28, ,
-19, ,-28, ,
-18, ,-28, ,
-18, ,-28, ,
-17, ,-28, ,
-17, ,-28, ,
-17, ,-28, ,
-15, ,-28, ,
-15, ,-28, ,
-15, ,-28, ,
-14, ,-28, ,
-15, ,-27, ,
-14, ,-27, ,
-12, ,-27, ,
-12, ,-27, ,
-12, ,-27, ,
-10, ,-27, ,
-12, ,-28, ,
-10, ,-28, ,
-8, ,-28, ,
-7, ,-28, ,
-7, ,-28, ,
-7, ,-28, ,
-6, ,-28, ,
-4, ,-28, ,
-4, ,-28, ,
-3, ,-28, ,
-4, ,-28, ,
0, ,-27, ,
0, ,-27, ,
-1, ,-27, ,
0, ,-27, ,
1, ,-27, ,
1, ,-28, ,
1, ,-28, ,
1, ,-28, ,
2, ,-28, ,
2, ,-28, ,
3, ,-28, ,
3, ,-28, ,
3, ,-27, ,
3, ,-27, ,
3, ,-27, ,
4, ,-27, ,
3, ,-28, ,
4, ,-28, ,
2, ,-27, ,
3, ,-28, ,
2, ,-28, ,
1, ,-28, ,
2, ,-28, ,
1, ,-28, ,
0, ,-28, ,
0, ,-27, ,
-1, ,-28, ,
0, ,-28, ,
-1, ,-28, ,
-2, ,-28, ,
-1, ,-28, ,
-3, ,-28, ,
-3, ,-28, ,
-3, ,-28, ,
-4, ,-28, ,
-4, ,-28, ,
-5, ,-27, ,
-7, ,-27, ,
-7, ,-28, ,
-7, ,-28, ,
-8, ,-28, ,
-7, ,-28, ,
-8, ,-28, ,
-8, ,-28, ,
-9, ,-28, ,
-10, ,-27, ,
-10, ,-27, ,
-10, ,-27, ,
-10, ,-28, ,
-10, ,-28, ,
-11, ,-28, ,
-10, ,-27, ,
-11, ,-27, ,
-12, ,-27, ,
-10, ,-28, ,
-10, ,-28, ,
-10, ,-28, ,
-9, ,-27, ,
-9, ,-27, ,
-9, ,-27, ,
-8, ,-27, ,
-9, ,-28, ,
-8, ,-28, ,
-9, ,-28, ,
-9, ,-28, ,
-8, ,-27, ,
-9, ,-27, ,
-8, ,-28, ,
-8, ,-28, ,
-10, ,-28, ,
-9, ,-28, ,
-9, ,-28, ,
-9, ,-28, ,
-9, ,-28, ,
-10, ,-28, ,
-8, ,-28, ,
-7, ,-27, ,
-8, ,-28, ,
-8, ,-28, ,
-9, ,-27, ,
-8, ,-28, ,
-9, ,-28, ,
-9, ,-27, ,
-10, ,-28, ,
-9, ,-28, ,
-10, ,-27, ,
-8, ,-27, ,
-9, ,-27, ,
-8, ,-27, ,
-7, ,-28, ,
-7, ,-28, ,
-6, ,-28, ,
-6, ,-28, ,
-6, ,-28, ,
-5, ,-28, ,
-5, ,-28, ,
-5, ,-28, ,
-5, ,-28, ,
-5, ,-28, ,
-5, ,-28, ,
-4, ,-27, ,
-5, ,-27, ,
-3, ,-27, ,
-4, ,-27, ,
-3, ,-28, ,
-2, ,-28, ,
-1, ,-28, ,
0, ,-28, ,
1, ,-28, ,
1, ,-27, ,
1, ,-27, ,
1, ,-27, ,
1, ,-27, ,
1, ,-27, ,
1, ,-27, ,
1, ,-27, ,
0, ,-28, ,
0, ,-28, ,
0, ,-28, ,
0, ,-28, ,
0, ,-28, ,
-1, ,-27, ,
-1, ,-27, ,
0, ,-27, ,
-1, ,-27, ,
-2, ,-27, ,
-2, ,-27, ,
-4, ,-27, ,
-1, ,-27, ,
-2, ,-27, ,
-2, ,-27, ,
-2, ,-28, ,
-1, ,-28, ,
-1, ,-27, ,
0, ,-27, ,
1, ,-27, ,
1, ,-27, ,
2, ,-28, ,
2, ,-28, ,
3, ,-28, ,
4, ,-27, ,
4, ,-27, ,
4, ,-28, ,
5, ,-28, ,
4, ,-28, ,
4, ,-28, ,
3, ,-27, ,
4, ,-27, ,
4, ,-27, ,
3, ,-27, ,
4, ,-28, ,
3, ,-28, ,
2, ,-28, ,
2, ,-28, ,
1, ,-28, ,
2, ,-28, ,
0, ,-28, ,
-1, ,-27, ,
-1, ,-28, ,
-2, ,-28, ,
-3, ,-28, ,
-2, ,-27, ,
-4, ,-27, ,
-4, ,-28, ,
-5, ,-28, ,
-6, ,-27, ,
-5, ,-28, ,
-5, ,-28, ,
-5, ,-28, ,
-5, ,-27, ,
-4, ,-27, ,
-3, ,-27, ,
-3, ,-27, ,
-4, ,-27, ,
-2, ,-28, ,
-2, ,-28, ,
-2, ,-28, ,
0, ,-28, ,
0, ,-27, ,
0, ,-28, ,
1, ,-28, ,
0, ,-27, ,
2, ,-27, ,
2, ,-27, ,
1, ,-27, ,
3, ,-28, ,
3, ,-28, ,
3, ,-28, ,
3, ,-27, ,
3, ,-27, ,
3, ,-27, ,
3, ,-27, ,
3, ,-28, ,
3, ,-28, ,
3, ,-27, ,
3, ,-27, ,
2, ,-27, ,
1, ,-27, ,
2, ,-27, ,
1, ,-28, ,
2, ,-28, ,
2, ,-28, ,
2, ,-28, ,
1, ,-28, ,
1, ,-28, ,
3, ,-27, ,
3, ,-28, ,
2, ,-28, ,
1, ,-28, ,
2, ,-28, ,
2, ,-28, ,
2, ,-28, ,
2, ,-28, ,
1, ,-27, ,
3, ,-28, ,
2, ,-28, ,
1, ,-28, ,
2, ,-28, ,
3, ,-28, ,
3, ,-28, ,
3, ,-27, ,
2, ,-28, ,
3, ,-28, ,
1, ,-27, ,
3, ,-27, ,
3, ,-28, ,
3, ,-28, ,
3, ,-28, ,
3, ,-28, ,
1, ,-28, ,
2, ,-28, ,
2, ,-28, ,
1, ,-28, ,
3, ,-27, ,
3, ,-27, ,
3, ,-27, ,
4, ,-27, ,
3, ,-28, ,
4, ,-28, ,
3, ,-28, ,
3, ,-27, ,
4, ,-28, ,
2, ,-28, ,
3, ,-28, ,
2, ,-27, ,
1, ,-27, ,
2, ,-28, ,
2, ,-28, ,
1, ,-28, ,
2, ,-27, ,
1, ,-27, ,
1, ,-27, ,
0, ,-27, ,
0, ,-28, ,
0, ,-28, ,
-1, ,-27, ,
-2, ,-27, ,
-2, ,-27, ,
-2, ,-27, ,
-2, ,-28, ,
-2, ,-28, ,
-4, ,-27, ,
-3, ,-28, ,
-5, ,-28, ,
-5, ,-28, ,
-4, ,-27, ,
-5, ,-27, ,
-5, ,-27, ,
-5, ,-27, ,
-5, ,-27, ,
-5, ,-28, ,
-6, ,-28, ,
-7, ,-28, ,
-6, ,-27, ,
-7, ,-27, ,
-6, ,-28, ,
-7, ,-28, ,
-7, ,-27, ,
-8, ,-27, ,
-8, ,-27, ,
-9, ,-27, ,
-9, ,-27, ,
-9, ,-27, ,
-9, ,-27, ,
-9, ,-27, ,
-9, ,-28, ,
-9, ,-28, ,
-10, ,-27, ,
-9, ,-28, ,
-8, ,-28, ,
-11, ,-27, ,
-9, ,-27, ,
-9, ,-27, ,
-10, ,-27, ,
-9, ,-28, ,
-10, ,-28, ,
-9, ,-28, ,
-9, ,-28, ,
-7, ,-28, ,
-7, ,-28, ,
-7, ,-27, ,
-7, ,-27, ,
-5, ,-27, ,
-4, ,-27, ,
-2, ,-28, ,
-1, ,-28, ,
-2, ,-27, ,
-1, ,-28, ,
1, ,-28, ,
0, ,-28, ,
2, ,-28, ,
1, ,-28, ,
1, ,-28, ,
2, ,-27, ,
0, ,-27, ,
3, ,-27, ,
2, ,-27, ,
1, ,-28, ,
1, ,-28, ,
0, ,-27, ,
0, ,-27, ,
1, ,-27, ,
0, ,-27, ,
0, ,-27, ,
-2, ,-27, ,
-3, ,-27, ,
-3, ,-28, ,
-5, ,-28, ,
-5, ,-28, ,
-5, ,-28, ,
-6, ,-28, ,
-6, ,-28, ,
-6, ,-28, ,
-8, ,-28, ,
-7, ,-28, ,
-9, ,-28, ,
-9, ,-28, ,
-9, ,-28, ,
-10, ,-28, ,
-8, ,-28, ,
-9, ,-27, ,
-9, ,-27, ,
-9, ,-28, ,
-10, ,-28, ,
-10, ,-28, ,
-8, ,-28, ,
-9, ,-28, ,
-9, ,-28, ,
-8, ,-27, ,
-9, ,-27, ,
-7, ,-27, ,
-7, ,-27, ,
-7, ,-28, ,
-5, ,-28, ,
-7, ,-27, ,
-6, ,-28, ,
-4, ,-28, ,
-5, ,-27, ,
-3, ,-28, ,
-3, ,-28, ,
-2, ,-28, ,
-1, ,-27, ,
-2, ,-27, ,
0, ,-27, ,
0, ,-27, ,
1, ,-28, ,
2, ,-28, ,
1, ,-27, ,
1, ,-27, ,
2, ,-28, ,
1, ,-28, ,
3, ,-28, ,
4, ,-27, ,
2, ,-27, ,
2, ,-28, ,
2, ,-28, ,
1, ,-28, ,
2, ,-28, ,
1, ,-27, ,
2, ,-28, ,
1, ,-28, ,
0, ,-27, ,
1, ,-27, ,
-1, ,-27, ,
0, ,-28, ,
0, ,-28, ,
-1, ,-27, ,
1, ,-27, ,
1, ,-27, ,
1, ,-27, ,
1, ,-27, ,
0, ,-27, ,
0, ,-28, ,
1, ,-28, ,
0, ,-28, ,
2, ,-28, ,
3, ,-28, ,
2, ,-27, ,
2, ,-27, ,
1, ,-27, ,
1, ,-27, ,
2, ,-27, ,
1, ,-27, ,
2, ,-28, ,
2, ,-28, ,
0, ,-28, ,
0, ,-28, ,
0, ,-27, ,
-2, ,-28, ,
-2, ,-28, ,
-2, ,-27, ,
-2, ,-28, ,
-2, ,-28, ,
-3, ,-27, ,
-3, ,-28, ,
-5, ,-28, ,
-5, ,-28, ,
-4, ,-28, ,
-5, ,-28, ,
-3, ,-27, ,
-4, ,-27, ,
-5, ,-28, ,
-4, ,-28, ,
-4, ,-28, ,
-5, ,-28, ,
-3, ,-28, ,
-4, ,-27, ,
-2, ,-27, ,
-1, ,-27, ,
-2, ,-27, ,
0, ,-27, ,
0, ,-27, ,
-1, ,-28, ,
1, ,-28, ,
-1, ,-28, ,
2, ,-27, ,
1, ,-27, ,
1, ,-27, ,
1, ,-27, ,
2, ,-27, ,
1, ,-28, ,
1, ,-28, ,
1, ,-28, ,
0, ,-28, ,
1, ,-27, ,
1, ,-28, ,
1, ,-28, ,
1, ,-28, ,
0, ,-28, ,
0, ,-28, ,
0, ,-27, ,
0, ,-27, ,
0, ,-28, ,
-1, ,-28, ,
0, ,-28, ,
0, ,-28, ,
-1, ,-28, ,
0, ,-28, ,
-1, ,-28, ,
-1, ,-28, ,
0, ,-27, ,
0, ,-28, ,
0, ,-28, ,
-1, ,-28, ,
0, ,-27, ,
0, ,-28, ,
0, ,-28, ,
0, ,-28, ,
-1, ,-28, ,
-1, ,-27, ,
0, ,-27, ,
-1, ,-27, ,
-2, ,-27, ,
-1, ,-28, ,
-1, ,-28, ,
-1, ,-28, ,
-1, ,-28, ,
-2, ,-28, ,
-1, ,-28, ,
-3, ,-28, ,
-2, ,-28, ,
-2, ,-28, ,
-3, ,-27, ,
-3, ,-28, ,
-2, ,-28, ,
-3, ,-27, ,
-3, ,-28, ,
-4, ,-28, ,
-4, ,-28, ,
-3, ,-28, ,
-4, ,-28, ,
-3, ,-28, ,
-4, ,-27, ,
-4, ,-27, ,
-4, ,-28, ,
-4, ,-28, ,
-5, ,-28, ,
-3, ,-27, ,
-4, ,-27, ,
-4, ,-28, ,
-3, ,-28, ,
-5, ,-27, ,
-4, ,-27, ,
-4, ,-27, ,
-4, ,-27, ,
-3, ,-27, ,
-4, ,-27, ,
-3, ,-28, ,
-4, ,-28, ,
-3, ,-28, ,
-3, ,-28, ,
-4, ,-27, ,
-3, ,-27, ,
-3, ,-27, ,
-4, ,-27, ,
-2, ,-27, ,
-2, ,-27, ,
-2, ,-27, ,
-2, ,-28, ,
-2, ,-28, ,
-2, ,-28, ,
-1, ,-28, ,
-1, ,-28, ,
-2, ,-28, ,
0, ,-28, ,
0, ,-27, ,
1, ,-27, ,
1, ,-27, ,
1, ,-27, ,
3, ,-27, ,
2, ,-27, ,
4, ,-27, ,
4, ,-27, ,
3, ,-27, ,
4, ,-27, ,
4, ,-27, ,
5, ,-27, ,
5, ,-28, ,
5, ,-28, ,
5, ,-28, ,
5, ,-28, ,
5, ,-27, ,
5, ,-28, ,
4, ,-28, ,
4, ,-28, ,
5, ,-27, ,
4, ,-27, ,
5, ,-28, ,
4, ,-28, ,
3, ,-27, ,
3, ,-27, ,
2, ,-27, ,
2, ,-27, ,
2, ,-28, ,
1, ,-28, ,
2, ,-28, ,
1, ,-27, ,
2, ,-28, ,
1, ,-28, ,
0, ,-27, ,
0, ,-28, ,
0, ,-28, ,
-1, ,-27, ,
0, ,-28, ,
0, ,-28, ,
0, ,-27, ,
0, ,-28, ,
0, ,-28, ,
-2, ,-28, ,
1, ,-28, ,
0, ,-28, ,
0, ,-28, ,
1, ,-28, ,
0, ,-28, ,
2, ,-28, ,
0, ,-27, ,
0, ,-28, ,
1, ,-28, ,
-1, ,-28, ,
2, ,-28, ,
1, ,-28, ,
0, ,-27, ,
1, ,-28, ,
1, ,-28, ,
0, ,-28, ,
1, ,-28, ,
0, ,-28, ,
2, ,-28, ,
2, ,-27, ,
1, ,-28, ,
1, ,-28, ,
1, ,-27, ,
1, ,-28, ,
2, ,-28, ,
2, ,-27, ,
3, ,-28, ,
4, ,-28, ,
1, ,-28, ,
4, ,-28, ,
4, ,-28, ,
4, ,-28, ,
4, ,-28, ,
3, ,-28, ,
5, ,-28, ,
4, ,-27, ,
4, ,-28, ,
5, ,-28, ,
2, ,-27, ,
4, ,-28, ,
4, ,-28, ,
3, ,-28, ,
4, ,-28, ,
4, ,-28, ,
3, ,-28, ,
3, ,-28, ,
2, ,-28, ,
2, ,-28, ,
3, ,-28, ,
2, ,-28, ,
2, ,-28, ,
2, ,-27, ,
1, ,-28, ,
2, ,-28, ,
1, ,-27, ,
1, ,-27, ,
1, ,-27, ,
1, ,-27, ,
1, ,-27, ,
1, ,-27, ,
1, ,-28, ,
1, ,-28, ,
0, ,-28, ,
0, ,-28, ,
0, ,-28, ,
0, ,-28, ,
0, ,-28, ,
0, ,-27, ,
0, ,-28, ,
0, ,-28, ,
0, ,-27, ,
0, ,-27, ,
1, ,-27, ,
0, ,-27, ,
0, ,-28, ,
0, ,-28, ,
0, ,-27, ,
0, ,-28, ,
0, ,-28, ,
0, ,-28, ,
1, ,-28, ,
-1, ,-28, ,
0, ,-28, ,
