raw_data/100% Glycerol, Impulsion 2Hz, Sonde 5MHz, Rampe 0.7Hz/temp0000020.CSV

Format,1.0B,
Memory Length,10000,Memory Length,10000,
IntpDistance,0,IntpDistance,0,
Trigger Address,159,Trigger Address,159,
Trigger Level,2.720E-01,Trigger Level,2.720E-01,
Source,CH1,Source,CH2,
Vertical Units,V,Vertical Units,V,
Vertical Units Div,0,Vertical Units Div,0,
Vertical Units Extend Div,16,Vertical Units Extend Div,16,
Label,,Label,,
Probe Type,0,Probe Type,0,
Probe Ratio,1.000e+00,Probe Ratio,1.000e+00,
Vertical Scale,2.000e-01,Vertical Scale,2.000e+00,
Vertical Position,0.000e+00,Vertical Position,0.000e+00,
Horizontal Units,S,Horizontal Units,S,
Horizontal Scale,5.000E-06,Horizontal Scale,5.000E-06,
Horizontal Position,2.420E-05,Horizontal Position,2.420E-05,
Horizontal Mode,Main,Horizontal Mode,Main,
SincET Mode,Real Time,SincET Mode,Real Time,
Sampling Period,5.000e-09,Sampling Period,5.000e-09,
Horizontal Old Scale,5.000E-06,Horizontal Old Scale,5.000E-06,
Horizontal Old Position,2.420E-05,Horizontal Old Position,2.420E-05,
Firmware,V1.32,Firmware,V1.32,
Mode,Fast,Mode,Fast,
Waveform Data,,Waveform Data,,
2, ,1, ,
1, ,1, ,
2, ,1, ,
1, ,0, ,
1, ,0, ,
2, ,0, ,
1, ,1, ,
1, ,1, ,
1, ,1, ,
1, ,1, ,
2, ,1, ,
1, ,1, ,
0, ,1, ,
1, ,1, ,
1, ,1, ,
1, ,1, ,
1, ,1, ,
1, ,1, ,
1, ,1, ,
1, ,0, ,
1, ,0, ,
2, ,1, ,
1, ,1, ,
1, ,1, ,
1, ,1, ,
1, ,1, ,
2, ,1, ,
2, ,1, ,
1, ,1, ,
1, ,1, ,
1, ,1, ,
1, ,1, ,
2, ,1, ,
1, ,1, ,
2, ,1, ,
0, ,1, ,
1, ,1, ,
0, ,1, ,
0, ,1, ,
1, ,1, ,
2, ,1, ,
1, ,1, ,
2, ,1, ,
0, ,1, ,
0, ,1, ,
1, ,0, ,
1, ,0, ,
1, ,1, ,
1, ,1, ,
1, ,1, ,
1, ,1, ,
0, ,0, ,
0, ,0, ,
1, ,1, ,
0, ,1, ,
1, ,1, ,
1, ,1, ,
1, ,0, ,
1, ,0, ,
1, ,1, ,
1, ,1, ,
1, ,1, ,
1, ,1, ,
1, ,1, ,
1, ,1, ,
1, ,1, ,
1, ,1, ,
1, ,0, ,
1, ,0, ,
1, ,1, ,
0, ,1, ,
1, ,1, ,
2, ,1, ,
0, ,1, ,
1, ,0, ,
1, ,0, ,
0, ,1, ,
2, ,1, ,
1, ,1, ,
2, ,1, ,
2, ,1, ,
1, ,1, ,
2, ,1, ,
1, ,1, ,
0, ,1, ,
1, ,1, ,
0, ,1, ,
1, ,1, ,
1, ,1, ,
1, ,1, ,
1, ,1, ,
1, ,1, ,
1, ,1, ,
1, ,1, ,
1, ,1, ,
1, ,1, ,
1, ,1, ,
0, ,1, ,
1, ,1, ,
1, ,1, ,
1, ,1, ,
1, ,1, ,
1, ,1, ,
1, ,1, ,
1, ,1, ,
1, ,0, ,
1, ,0, ,
1, ,1, ,
1, ,1, ,
1, ,1, ,
1, ,1, ,
2, ,1, ,
1, ,1, ,
2, ,1, ,
1, ,1, ,
0, ,1, ,
1, ,1, ,
2, ,1, ,
0, ,1, ,
1, ,1, ,
2, ,1, ,
0, ,1, ,
2, ,1, ,
1, ,1, ,
1, ,1, ,
1, ,1, ,
1, ,1, ,
1, ,1, ,
1, ,1, ,
1, ,1, ,
1, ,1, ,
1, ,1, ,
1, ,1, ,
2, ,1, ,
1, ,1, ,
2, ,1, ,
2, ,1, ,
1, ,1, ,
1, ,1, ,
2, ,1, ,
1, ,1, ,
2, ,1, ,
1, ,1, ,
1, ,1, ,
2, ,1, ,
2, ,1, ,
2, ,1, ,
0, ,1, ,
1, ,1, ,
1, ,1, ,
1, ,1, ,
1, ,1, ,
1, ,1, ,
0, ,0, ,
2, ,0, ,
2, ,1, ,
1, ,1, ,
1, ,1, ,
1, ,1, ,
1, ,1, ,
2, ,1, ,
2, ,1, ,
2, ,1, ,
0, ,1, ,
-2, ,1, ,
1, ,1, ,
-3, ,1, ,
15, ,1, ,
125, ,1, ,
125, ,1, ,
125, ,1, ,
125, ,0, ,
118, ,0, ,
56, ,1, ,
-21, ,1, ,
36, ,1, ,
125, ,1, ,
125, ,1, ,
125, ,1, ,
125, ,1, ,
125, ,1, ,
125, ,1, ,
125, ,0, ,
125, ,0, ,
125, ,1, ,
125, ,1, ,
125, ,0, ,
125, ,0, ,
125, ,1, ,
125, ,1, ,
125, ,1, ,
125, ,1, ,
125, ,1, ,
125, ,1, ,
125, ,1, ,
125, ,1, ,
125, ,1, ,
125, ,1, ,
125, ,1, ,
125, ,1, ,
125, ,1, ,
124, ,1, ,
124, ,1, ,
121, ,0, ,
112, ,0, ,
107, ,0, ,
102, ,0, ,
99, ,0, ,
91, ,0, ,
87, ,0, ,
84, ,1, ,
79, ,1, ,
73, ,1, ,
69, ,1, ,
64, ,1, ,
63, ,0, ,
58, ,0, ,
54, ,0, ,
51, ,1, ,
50, ,1, ,
43, ,1, ,
44, ,1, ,
40, ,1, ,
39, ,1, ,
35, ,1, ,
32, ,1, ,
33, ,1, ,
29, ,1, ,
27, ,1, ,
26, ,1, ,
24, ,1, ,
22, ,1, ,
22, ,1, ,
19, ,1, ,
19, ,1, ,
16, ,1, ,
15, ,1, ,
15, ,1, ,
13, ,1, ,
12, ,1, ,
11, ,1, ,
9, ,1, ,
9, ,1, ,
8, ,1, ,
7, ,1, ,
7, ,1, ,
5, ,1, ,
5, ,1, ,
5, ,1, ,
3, ,1, ,
4, ,1, ,
2, ,1, ,
1, ,1, ,
1, ,1, ,
1, ,1, ,
1, ,1, ,
0, ,1, ,
0, ,1, ,
-1, ,1, ,
-2, ,1, ,
-1, ,1, ,
-1, ,1, ,
-2, ,1, ,
-2, ,1, ,
-2, ,1, ,
-2, ,0, ,
-2, ,0, ,
-2, ,1, ,
-2, ,1, ,
-2, ,1, ,
-3, ,1, ,
-3, ,1, ,
-3, ,1, ,
-3, ,1, ,
-3, ,1, ,
-4, ,1, ,
-4, ,1, ,
-3, ,1, ,
-4, ,1, ,
-2, ,1, ,
-2, ,1, ,
-4, ,1, ,
-3, ,1, ,
-4, ,1, ,
-4, ,1, ,
-3, ,1, ,
-3, ,1, ,
-3, ,1, ,
-2, ,1, ,
-3, ,1, ,
-3, ,1, ,
-4, ,1, ,
-4, ,1, ,
-4, ,1, ,
-4, ,1, ,
-3, ,1, ,
-3, ,1, ,
-4, ,1, ,
-3, ,1, ,
-4, ,1, ,
-4, ,1, ,
-2, ,1, ,
-3, ,1, ,
-2, ,1, ,
-2, ,1, ,
-4, ,1, ,
-3, ,1, ,
-3, ,1, ,
-3, ,1, ,
-3, ,1, ,
-3, ,1, ,
-2, ,1, ,
-1, ,1, ,
-3, ,1, ,
-3, ,1, ,
-3, ,1, ,
-3, ,1, ,
-1, ,1, ,
-2, ,1, ,
-1, ,0, ,
-1, ,0, ,
-1, ,0, ,
-1, ,1, ,
-1, ,1, ,
-1, ,1, ,
-1, ,1, ,
-3, ,0, ,
0, ,0, ,
-1, ,1, ,
-2, ,0, ,
0, ,0, ,
-1, ,1, ,
-1, ,0, ,
0, ,0, ,
-1, ,0, ,
-1, ,1, ,
0, ,1, ,
0, ,1, ,
0, ,1, ,
0, ,1, ,
0, ,1, ,
0, ,1, ,
0, ,1, ,
0, ,1, ,
-1, ,1, ,
-2, ,1, ,
0, ,1, ,
0, ,1, ,
0, ,1, ,
0, ,1, ,
0, ,1, ,
0, ,1, ,
0, ,0, ,
0, ,0, ,
0, ,0, ,
-1, ,1, ,
0, ,1, ,
0, ,1, ,
0, ,1, ,
1, ,1, ,
1, ,1, ,
0, ,1, ,
0, ,1, ,
0, ,1, ,
0, ,1, ,
1, ,1, ,
0, ,1, ,
0, ,1, ,
1, ,1, ,
0, ,1, ,
1, ,1, ,
0, ,1, ,
0, ,1, ,
2, ,1, ,
0, ,1, ,
0, ,1, ,
1, ,1, ,
0, ,1, ,
1, ,1, ,
0, ,1, ,
1, ,1, ,
1, ,1, ,
1, ,1, ,
0, ,1, ,
0, ,1, ,
0, ,1, ,
0, ,1, ,
0, ,1, ,
0, ,1, ,
2, ,1, ,
0, ,1, ,
0, ,1, ,
0, ,1, ,
0, ,1, ,
1, ,1, ,
0, ,1, ,
1, ,1, ,
1, ,0, ,
1, ,0, ,
2, ,1, ,
1, ,1, ,
1, ,1, ,
1, ,1, ,
0, ,1, ,
1, ,1, ,
1, ,1, ,
1, ,1, ,
1, ,1, ,
1, ,1, ,
1, ,1, ,
1, ,1, ,
1, ,1, ,
1, ,1, ,
1, ,1, ,
0, ,1, ,
1, ,1, ,
1, ,1, ,
1, ,1, ,
1, ,1, ,
0, ,1, ,
0, ,1, ,
1, ,1, ,
0, ,1, ,
2, ,1, ,
0, ,1, ,
-2, ,1, ,
1, ,1, ,
0, ,1, ,
0, ,1, ,
0, ,1, ,
0, ,1, ,
1, ,0, ,
1, ,0, ,
1, ,0, ,
1, ,1, ,
1, ,1, ,
0, ,1, ,
0, ,1, ,
0, ,1, ,
1, ,1, ,
0, ,1, ,
-1, ,1, ,
-1, ,1, ,
-1, ,1, ,
-2, ,1, ,
-1, ,1, ,
-2, ,1, ,
-1, ,1, ,
0, ,1, ,
0, ,1, ,
0, ,1, ,
0, ,1, ,
1, ,1, ,
2, ,1, ,
1, ,1, ,
1, ,1, ,
2, ,1, ,
0, ,1, ,
1, ,1, ,
0, ,1, ,
0, ,1, ,
0, ,1, ,
0, ,1, ,
1, ,1, ,
1, ,1, ,
0, ,1, ,
0, ,1, ,
0, ,1, ,
0, ,1, ,
2, ,1, ,
1, ,1, ,
2, ,1, ,
2, ,1, ,
2, ,0, ,
2, ,0, ,
1, ,1, ,
1, ,1, ,
1, ,1, ,
0, ,1, ,
0, ,1, ,
-1, ,1, ,
-1, ,1, ,
-2, ,1, ,
-2, ,1, ,
-2, ,1, ,
-1, ,1, ,
-2, ,1, ,
0, ,1, ,
0, ,1, ,
-1, ,1, ,
1, ,1, ,
1, ,1, ,
1, ,1, ,
2, ,1, ,
1, ,1, ,
1, ,1, ,
2, ,1, ,
2, ,1, ,
2, ,1, ,
0, ,1, ,
0, ,1, ,
0, ,1, ,
0, ,1, ,
0, ,1, ,
1, ,1, ,
0, ,1, ,
2, ,1, ,
1, ,1, ,
1, ,1, ,
1, ,1, ,
0, ,1, ,
0, ,1, ,
0, ,1, ,
-1, ,1, ,
0, ,1, ,
-2, ,1, ,
-3, ,1, ,
-2, ,1, ,
-5, ,1, ,
-5, ,1, ,
-6, ,1, ,
-7, ,1, ,
-7, ,1, ,
-8, ,1, ,
-9, ,1, ,
-7, ,1, ,
-8, ,1, ,
-8, ,1, ,
-8, ,1, ,
-9, ,1, ,
-10, ,1, ,
-11, ,1, ,
-13, ,1, ,
-13, ,1, ,
-16, ,1, ,
-16, ,1, ,
-18, ,1, ,
-22, ,1, ,
-23, ,1, ,
-26, ,1, ,
-30, ,1, ,
-30, ,1, ,
-31, ,1, ,
-30, ,1, ,
-32, ,1, ,
-31, ,1, ,
-30, ,1, ,
-30, ,1, ,
-28, ,1, ,
-27, ,1, ,
-26, ,1, ,
-25, ,1, ,
-26, ,1, ,
-26, ,1, ,
-26, ,1, ,
-26, ,1, ,
-29, ,1, ,
-29, ,1, ,
-29, ,1, ,
-29, ,1, ,
-27, ,1, ,
-28, ,1, ,
-26, ,1, ,
-25, ,1, ,
-21, ,1, ,
-17, ,1, ,
-17, ,1, ,
-14, ,1, ,
-10, ,1, ,
-9, ,1, ,
-7, ,1, ,
-9, ,1, ,
-7, ,1, ,
-7, ,1, ,
-8, ,1, ,
-8, ,1, ,
-10, ,1, ,
-11, ,0, ,
-11, ,0, ,
-12, ,1, ,
-11, ,1, ,
-9, ,1, ,
-9, ,1, ,
-9, ,1, ,
-4, ,1, ,
-4, ,1, ,
-2, ,1, ,
0, ,1, ,
1, ,1, ,
1, ,1, ,
0, ,1, ,
0, ,1, ,
-3, ,1, ,
-2, ,1, ,
-5, ,1, ,
-6, ,1, ,
-10, ,1, ,
-10, ,1, ,
-11, ,1, ,
-11, ,1, ,
-13, ,1, ,
-14, ,1, ,
-12, ,1, ,
-11, ,1, ,
-12, ,0, ,
-10, ,0, ,
-11, ,0, ,
-10, ,1, ,
-12, ,1, ,
-11, ,1, ,
-14, ,1, ,
-16, ,1, ,
-18, ,1, ,
-20, ,1, ,
-22, ,1, ,
-23, ,1, ,
-25, ,1, ,
-26, ,0, ,
-25, ,0, ,
-26, ,1, ,
-25, ,1, ,
-25, ,1, ,
-25, ,1, ,
-25, ,1, ,
-25, ,1, ,
-25, ,1, ,
-25, ,1, ,
-27, ,1, ,
-29, ,1, ,
-30, ,1, ,
-31, ,1, ,
-31, ,1, ,
-33, ,1, ,
-34, ,1, ,
-33, ,1, ,
-35, ,1, ,
-35, ,1, ,
-35, ,1, ,
-35, ,1, ,
-35, ,1, ,
-35, ,1, ,
-35, ,1, ,
-35, ,1, ,
-35, ,1, ,
-32, ,1, ,
-32, ,1, ,
-32, ,1, ,
-30, ,1, ,
-29, ,1, ,
-29, ,1, ,
-29, ,1, ,
-31, ,1, ,
-32, ,1, ,
-33, ,1, ,
-33, ,1, ,
-35, ,1, ,
-36, ,1, ,
-37, ,1, ,
-37, ,1, ,
-37, ,1, ,
-36, ,1, ,
-35, ,1, ,
-36, ,1, ,
-34, ,1, ,
-32, ,1, ,
-32, ,1, ,
-31, ,1, ,
-33, ,1, ,
-34, ,1, ,
-33, ,1, ,
-34, ,1, ,
-33, ,1, ,
-35, ,1, ,
-36, ,1, ,
-35, ,1, ,
-35, ,1, ,
-34, ,1, ,
-32, ,1, ,
-32, ,1, ,
-31, ,1, ,
-26, ,1, ,
-26, ,1, ,
-25, ,1, ,
-25, ,1, ,
-24, ,1, ,
-24, ,1, ,
-24, ,1, ,
-24, ,1, ,
-23, ,1, ,
-22, ,1, ,
-22, ,1, ,
-22, ,0, ,
-20, ,0, ,
-17, ,0, ,
-17, ,1, ,
-15, ,1, ,
-13, ,1, ,
-13, ,1, ,
-13, ,1, ,
-12, ,1, ,
-12, ,1, ,
-10, ,1, ,
-8, ,1, ,
-7, ,1, ,
-6, ,1, ,
-7, ,1, ,
-4, ,1, ,
-4, ,1, ,
-1, ,1, ,
0, ,1, ,
-2, ,1, ,
0, ,1, ,
0, ,1, ,
0, ,1, ,
1, ,1, ,
0, ,1, ,
1, ,1, ,
1, ,1, ,
3, ,1, ,
3, ,1, ,
5, ,1, ,
6, ,1, ,
7, ,1, ,
6, ,1, ,
8, ,1, ,
9, ,1, ,
9, ,1, ,
9, ,1, ,
10, ,1, ,
9, ,1, ,
10, ,1, ,
8, ,1, ,
9, ,1, ,
10, ,1, ,
9, ,1, ,
9, ,1, ,
8, ,1, ,
7, ,1, ,
8, ,1, ,
6, ,1, ,
7, ,1, ,
5, ,1, ,
4, ,1, ,
4, ,1, ,
2, ,1, ,
0, ,1, ,
0, ,1, ,
-1, ,1, ,
-5, ,1, ,
-3, ,1, ,
-6, ,1, ,
-7, ,1, ,
-8, ,1, ,
-11, ,1, ,
-10, ,1, ,
-14, ,1, ,
-16, ,1, ,
-16, ,1, ,
-17, ,1, ,
-17, ,1, ,
-18, ,1, ,
-20, ,1, ,
-20, ,1, ,
-21, ,1, ,
-23, ,1, ,
-23, ,1, ,
-23, ,1, ,
-24, ,1, ,
-26, ,1, ,
-26, ,1, ,
-27, ,1, ,
-29, ,1, ,
-30, ,1, ,
-30, ,1, ,
-31, ,1, ,
-33, ,1, ,
-33, ,1, ,
-35, ,1, ,
-35, ,1, ,
-35, ,1, ,
-35, ,1, ,
-36, ,1, ,
-36, ,1, ,
-35, ,1, ,
-36, ,1, ,
-37, ,1, ,
-37, ,1, ,
-38, ,1, ,
-37, ,1, ,
-36, ,1, ,
-38, ,0, ,
-35, ,0, ,
-35, ,1, ,
-34, ,1, ,
-34, ,1, ,
-32, ,1, ,
-30, ,1, ,
-25, ,1, ,
-24, ,1, ,
-22, ,1, ,
-16, ,1, ,
-16, ,1, ,
-13, ,1, ,
-12, ,1, ,
-7, ,1, ,
-6, ,1, ,
-5, ,1, ,
-4, ,1, ,
0, ,1, ,
1, ,1, ,
3, ,1, ,
4, ,1, ,
6, ,1, ,
8, ,1, ,
8, ,1, ,
10, ,1, ,
11, ,1, ,
12, ,1, ,
12, ,1, ,
11, ,1, ,
11, ,1, ,
12, ,1, ,
10, ,1, ,
10, ,1, ,
11, ,1, ,
10, ,1, ,
11, ,1, ,
10, ,1, ,
10, ,1, ,
10, ,1, ,
9, ,1, ,
10, ,1, ,
8, ,1, ,
8, ,1, ,
7, ,1, ,
6, ,1, ,
5, ,1, ,
5, ,1, ,
5, ,1, ,
5, ,1, ,
4, ,1, ,
3, ,1, ,
3, ,1, ,
2, ,1, ,
-1, ,1, ,
0, ,1, ,
-2, ,1, ,
-1, ,1, ,
-2, ,1, ,
-5, ,1, ,
-5, ,1, ,
-5, ,0, ,
-6, ,0, ,
-6, ,1, ,
-9, ,1, ,
-7, ,1, ,
-8, ,1, ,
-9, ,1, ,
-8, ,1, ,
-9, ,1, ,
-10, ,1, ,
-10, ,1, ,
-12, ,1, ,
-10, ,1, ,
-14, ,1, ,
-14, ,1, ,
-15, ,1, ,
-17, ,1, ,
-19, ,1, ,
-18, ,1, ,
-21, ,1, ,
-21, ,1, ,
-22, ,1, ,
-24, ,1, ,
-25, ,1, ,
-25, ,1, ,
-27, ,1, ,
-27, ,1, ,
-29, ,1, ,
-27, ,1, ,
-28, ,1, ,
-28, ,1, ,
-28, ,1, ,
-29, ,1, ,
-27, ,1, ,
-26, ,1, ,
-27, ,1, ,
-26, ,1, ,
-24, ,1, ,
-24, ,0, ,
-24, ,0, ,
-22, ,1, ,
-22, ,1, ,
-22, ,1, ,
-20, ,1, ,
-20, ,1, ,
-19, ,1, ,
-20, ,1, ,
-20, ,1, ,
-21, ,1, ,
-20, ,1, ,
-20, ,1, ,
-21, ,1, ,
-21, ,1, ,
-23, ,1, ,
-23, ,1, ,
-22, ,1, ,
-22, ,1, ,
-24, ,0, ,
-21, ,0, ,
-21, ,0, ,
-21, ,0, ,
-20, ,0, ,
-20, ,0, ,
-20, ,1, ,
-20, ,1, ,
-21, ,1, ,
-20, ,1, ,
-20, ,1, ,
-20, ,1, ,
-20, ,1, ,
-20, ,1, ,
-19, ,1, ,
-20, ,1, ,
-20, ,1, ,
-17, ,1, ,
-18, ,1, ,
-17, ,1, ,
-17, ,1, ,
-17, ,1, ,
-16, ,1, ,
-18, ,1, ,
-18, ,1, ,
-18, ,1, ,
-19, ,1, ,
-17, ,1, ,
-16, ,1, ,
-17, ,1, ,
-15, ,1, ,
-15, ,1, ,
-15, ,1, ,
-14, ,1, ,
-13, ,1, ,
-13, ,1, ,
-12, ,1, ,
-13, ,1, ,
-12, ,1, ,
-12, ,1, ,
-11, ,1, ,
-11, ,1, ,
-12, ,1, ,
-11, ,1, ,
-11, ,1, ,
-11, ,1, ,
-11, ,1, ,
-11, ,1, ,
-12, ,1, ,
-10, ,1, ,
-10, ,1, ,
-10, ,1, ,
-9, ,1, ,
-10, ,1, ,
-9, ,1, ,
-10, ,1, ,
-9, ,1, ,
-7, ,1, ,
-7, ,1, ,
-7, ,1, ,
-5, ,1, ,
-5, ,1, ,
-5, ,1, ,
-5, ,1, ,
-4, ,1, ,
-2, ,1, ,
-2, ,1, ,
-1, ,1, ,
0, ,1, ,
0, ,1, ,
0, ,1, ,
0, ,1, ,
0, ,1, ,
0, ,1, ,
0, ,1, ,
0, ,1, ,
1, ,1, ,
0, ,1, ,
0, ,1, ,
0, ,1, ,
0, ,1, ,
0, ,1, ,
-1, ,1, ,
-1, ,1, ,
-1, ,1, ,
-2, ,1, ,
-1, ,1, ,
-4, ,1, ,
-3, ,1, ,
-5, ,1, ,
-5, ,1, ,
-4, ,1, ,
-4, ,1, ,
-4, ,1, ,
-4, ,1, ,
-5, ,1, ,
-5, ,1, ,
-4, ,1, ,
-5, ,1, ,
-3, ,1, ,
-5, ,1, ,
-5, ,1, ,
-6, ,1, ,
-7, ,1, ,
-8, ,1, ,
-6, ,1, ,
-8, ,1, ,
-9, ,1, ,
-8, ,1, ,
-9, ,1, ,
-8, ,1, ,
-10, ,1, ,
-10, ,1, ,
-10, ,1, ,
-11, ,1, ,
-11, ,1, ,
-13, ,1, ,
-14, ,1, ,
-14, ,1, ,
-15, ,1, ,
-16, ,1, ,
-17, ,1, ,
-17, ,1, ,
-17, ,1, ,
-17, ,1, ,
-19, ,1, ,
-16, ,1, ,
-16, ,1, ,
-17, ,1, ,
-16, ,1, ,
-15, ,1, ,
-15, ,1, ,
-13, ,1, ,
-13, ,1, ,
-12, ,1, ,
-12, ,1, ,
-9, ,1, ,
-7, ,1, ,
-7, ,1, ,
-5, ,1, ,
-2, ,1, ,
-2, ,1, ,
1, ,1, ,
3, ,1, ,
3, ,1, ,
6, ,1, ,
7, ,1, ,
8, ,1, ,
10, ,1, ,
11, ,1, ,
11, ,1, ,
10, ,1, ,
11, ,1, ,
13, ,1, ,
13, ,0, ,
14, ,0, ,
14, ,1, ,
13, ,1, ,
13, ,1, ,
12, ,1, ,
11, ,1, ,
12, ,1, ,
10, ,1, ,
11, ,1, ,
8, ,1, ,
6, ,1, ,
7, ,1, ,
5, ,1, ,
3, ,0, ,
3, ,0, ,
2, ,0, ,
2, ,1, ,
2, ,1, ,
0, ,1, ,
0, ,1, ,
-1, ,1, ,
-3, ,1, ,
-2, ,1, ,
-3, ,1, ,
-4, ,1, ,
-5, ,1, ,
-5, ,1, ,
-5, ,1, ,
-6, ,0, ,
-7, ,0, ,
-6, ,1, ,
-7, ,1, ,
-6, ,1, ,
-5, ,1, ,
-7, ,1, ,
-5, ,1, ,
-5, ,1, ,
-6, ,1, ,
-5, ,1, ,
-5, ,1, ,
-5, ,1, ,
-6, ,1, ,
-6, ,1, ,
-7, ,1, ,
-7, ,1, ,
-6, ,1, ,
-5, ,1, ,
-7, ,1, ,
-4, ,1, ,
-4, ,1, ,
-6, ,1, ,
-3, ,1, ,
-3, ,0, ,
-4, ,0, ,
-3, ,1, ,
-4, ,1, ,
-3, ,0, ,
-4, ,0, ,
-3, ,0, ,
-3, ,1, ,
-4, ,1, ,
-5, ,1, ,
-3, ,1, ,
-4, ,1, ,
-4, ,1, ,
-5, ,1, ,
-5, ,1, ,
-5, ,1, ,
-4, ,1, ,
-5, ,0, ,
-5, ,0, ,
-5, ,0, ,
-5, ,0, ,
-5, ,0, ,
-5, ,0, ,
-5, ,1, ,
-5, ,1, ,
-6, ,1, ,
-6, ,1, ,
-6, ,0, ,
-5, ,0, ,
-6, ,1, ,
-7, ,0, ,
-5, ,0, ,
-5, ,0, ,
-5, ,0, ,
-5, ,1, ,
-5, ,1, ,
-4, ,1, ,
-3, ,1, ,
-3, ,1, ,
-3, ,1, ,
-4, ,1, ,
-3, ,1, ,
-3, ,1, ,
-3, ,1, ,
-3, ,1, ,
-2, ,1, ,
-3, ,1, ,
-2, ,1, ,
-2, ,1, ,
-2, ,1, ,
0, ,1, ,
0, ,1, ,
0, ,1, ,
0, ,1, ,
1, ,1, ,
1, ,1, ,
0, ,1, ,
2, ,1, ,
1, ,1, ,
2, ,1, ,
3, ,1, ,
3, ,1, ,
3, ,1, ,
3, ,1, ,
3, ,1, ,
4, ,1, ,
5, ,1, ,
5, ,1, ,
5, ,1, ,
5, ,1, ,
5, ,1, ,
6, ,1, ,
5, ,1, ,
5, ,1, ,
5, ,1, ,
5, ,0, ,
5, ,0, ,
5, ,1, ,
5, ,1, ,
5, ,1, ,
5, ,1, ,
4, ,1, ,
4, ,1, ,
3, ,1, ,
4, ,1, ,
4, ,1, ,
3, ,1, ,
4, ,1, ,
2, ,1, ,
1, ,1, ,
3, ,1, ,
0, ,1, ,
0, ,1, ,
-1, ,1, ,
-2, ,1, ,
-1, ,1, ,
-2, ,1, ,
-3, ,0, ,
-2, ,0, ,
-2, ,0, ,
-2, ,1, ,
-2, ,1, ,
-4, ,1, ,
-3, ,1, ,
-5, ,1, ,
-5, ,1, ,
-5, ,1, ,
-6, ,1, ,
-6, ,1, ,
-6, ,1, ,
-7, ,1, ,
-5, ,1, ,
-6, ,1, ,
-8, ,0, ,
-7, ,0, ,
-8, ,0, ,
-8, ,1, ,
-8, ,1, ,
-7, ,1, ,
-7, ,1, ,
-9, ,0, ,
-9, ,0, ,
-8, ,1, ,
-12, ,1, ,
-8, ,1, ,
-10, ,1, ,
-10, ,1, ,
-10, ,1, ,
-10, ,1, ,
-11, ,1, ,
-10, ,1, ,
-10, ,1, ,
-10, ,1, ,
-9, ,1, ,
-10, ,1, ,
-10, ,1, ,
-11, ,1, ,
-10, ,1, ,
-10, ,1, ,
-10, ,0, ,
-10, ,0, ,
-10, ,1, ,
-11, ,1, ,
-9, ,1, ,
-9, ,1, ,
-10, ,1, ,
-9, ,1, ,
-7, ,1, ,
-7, ,0, ,
-5, ,0, ,
-5, ,0, ,
-4, ,0, ,
-5, ,1, ,
-2, ,1, ,
0, ,1, ,
0, ,1, ,
1, ,1, ,
3, ,1, ,
3, ,1, ,
4, ,1, ,
5, ,1, ,
5, ,1, ,
7, ,1, ,
8, ,1, ,
9, ,1, ,
10, ,1, ,
10, ,1, ,
10, ,1, ,
10, ,1, ,
9, ,1, ,
10, ,1, ,
8, ,1, ,
9, ,1, ,
8, ,1, ,
7, ,1, ,
7, ,1, ,
5, ,1, ,
3, ,1, ,
3, ,1, ,
2, ,1, ,
2, ,1, ,
-1, ,1, ,
-1, ,1, ,
-2, ,1, ,
-4, ,1, ,
-6, ,1, ,
-6, ,1, ,
-8, ,0, ,
-8, ,0, ,
-8, ,1, ,
-9, ,1, ,
-8, ,1, ,
-10, ,1, ,
-10, ,1, ,
-10, ,1, ,
-10, ,1, ,
-9, ,1, ,
-8, ,1, ,
-9, ,1, ,
-7, ,1, ,
-8, ,1, ,
-6, ,1, ,
-4, ,1, ,
-4, ,0, ,
-2, ,0, ,
-1, ,1, ,
-2, ,1, ,
0, ,1, ,
1, ,1, ,
2, ,1, ,
5, ,1, ,
5, ,0, ,
5, ,0, ,
6, ,1, ,
6, ,1, ,
7, ,1, ,
6, ,1, ,
8, ,1, ,
7, ,1, ,
8, ,1, ,
8, ,1, ,
7, ,1, ,
6, ,1, ,
7, ,1, ,
5, ,1, ,
5, ,1, ,
5, ,1, ,
4, ,1, ,
3, ,1, ,
2, ,1, ,
0, ,1, ,
-1, ,1, ,
-1, ,1, ,
-2, ,1, ,
-2, ,1, ,
-3, ,1, ,
-4, ,1, ,
-3, ,1, ,
-5, ,1, ,
-5, ,1, ,
-6, ,1, ,
-8, ,1, ,
-7, ,1, ,
-9, ,1, ,
-8, ,1, ,
-8, ,1, ,
-9, ,1, ,
-8, ,1, ,
-10, ,1, ,
-9, ,1, ,
-9, ,1, ,
-10, ,1, ,
-9, ,1, ,
-9, ,1, ,
-10, ,0, ,
-8, ,0, ,
-9, ,1, ,
-10, ,1, ,
-8, ,1, ,
-9, ,1, ,
-8, ,1, ,
-7, ,1, ,
-8, ,1, ,
-6, ,1, ,
-7, ,1, ,
-7, ,1, ,
-6, ,1, ,
-7, ,1, ,
-5, ,0, ,
-5, ,0, ,
-6, ,0, ,
-4, ,0, ,
-5, ,1, ,
-6, ,1, ,
-5, ,1, ,
-4, ,1, ,
-4, ,1, ,
-4, ,1, ,
-4, ,1, ,
-3, ,1, ,
-4, ,1, ,
-3, ,1, ,
-2, ,1, ,
-5, ,1, ,
-3, ,1, ,
-3, ,1, ,
-4, ,1, ,
-3, ,1, ,
-2, ,1, ,
-3, ,1, ,
-3, ,1, ,
-4, ,1, ,
-2, ,1, ,
-3, ,1, ,
-3, ,1, ,
-3, ,1, ,
-3, ,1, ,
-3, ,1, ,
-2, ,1, ,
-3, ,1, ,
-3, ,1, ,
-4, ,1, ,
-4, ,1, ,
-3, ,1, ,
-3, ,1, ,
-4, ,1, ,
-2, ,0, ,
-3, ,0, ,
-3, ,1, ,
-3, ,1, ,
-3, ,1, ,
-3, ,1, ,
-4, ,1, ,
-3, ,1, ,
-2, ,1, ,
-3, ,1, ,
-2, ,1, ,
-1, ,1, ,
-2, ,1, ,
-2, ,1, ,
-3, ,1, ,
-4, ,1, ,
-3, ,1, ,
-4, ,1, ,
-3, ,1, ,
-2, ,1, ,
-3, ,1, ,
-3, ,1, ,
-3, ,0, ,
-3, ,0, ,
-2, ,0, ,
-3, ,1, ,
-2, ,1, ,
-3, ,1, ,
-4, ,0, ,
-3, ,0, ,
-4, ,1, ,
-4, ,1, ,
-3, ,1, ,
-4, ,1, ,
-2, ,1, ,
-4, ,1, ,
-4, ,1, ,
-4, ,1, ,
-4, ,1, ,
-4, ,1, ,
-3, ,1, ,
-4, ,1, ,
-3, ,1, ,
-2, ,1, ,
-2, ,1, ,
-2, ,1, ,
-1, ,1, ,
-2, ,1, ,
0, ,1, ,
-1, ,1, ,
0, ,1, ,
1, ,1, ,
0, ,1, ,
2, ,1, ,
1, ,1, ,
2, ,1, ,
3, ,1, ,
1, ,1, ,
1, ,1, ,
2, ,1, ,
2, ,1, ,
2, ,1, ,
3, ,1, ,
3, ,1, ,
3, ,1, ,
3, ,1, ,
3, ,1, ,
3, ,1, ,
2, ,1, ,
2, ,1, ,
2, ,1, ,
1, ,1, ,
2, ,1, ,
0, ,1, ,
1, ,1, ,
0, ,1, ,
-1, ,1, ,
0, ,1, ,
0, ,1, ,
-1, ,1, ,
-1, ,1, ,
-1, ,1, ,
-1, ,1, ,
0, ,1, ,
-1, ,1, ,
0, ,1, ,
-2, ,1, ,
0, ,1, ,
0, ,1, ,
-1, ,1, ,
1, ,1, ,
2, ,1, ,
0, ,1, ,
1, ,1, ,
2, ,1, ,
1, ,1, ,
2, ,1, ,
2, ,1, ,
3, ,1, ,
3, ,1, ,
3, ,1, ,
3, ,1, ,
3, ,1, ,
3, ,1, ,
3, ,1, ,
3, ,1, ,
4, ,1, ,
4, ,1, ,
3, ,1, ,
3, ,1, ,
2, ,1, ,
3, ,1, ,
3, ,1, ,
2, ,1, ,
2, ,1, ,
1, ,1, ,
1, ,1, ,
1, ,1, ,
1, ,1, ,
0, ,1, ,
0, ,1, ,
0, ,1, ,
0, ,1, ,
0, ,1, ,
-2, ,1, ,
0, ,1, ,
-2, ,1, ,
-2, ,1, ,
-2, ,1, ,
-3, ,1, ,
-3, ,1, ,
-3, ,1, ,
-4, ,1, ,
-2, ,1, ,
-4, ,1, ,
-4, ,1, ,
-3, ,1, ,
-5, ,1, ,
-4, ,1, ,
-4, ,1, ,
-4, ,1, ,
-4, ,1, ,
-3, ,1, ,
-4, ,1, ,
-2, ,1, ,
-2, ,1, ,
-1, ,1, ,
1, ,1, ,
0, ,1, ,
2, ,1, ,
2, ,1, ,
4, ,1, ,
5, ,1, ,
5, ,1, ,
6, ,1, ,
8, ,1, ,
9, ,1, ,
10, ,1, ,
10, ,1, ,
11, ,1, ,
11, ,1, ,
12, ,1, ,
12, ,1, ,
13, ,1, ,
13, ,1, ,
13, ,1, ,
12, ,1, ,
11, ,1, ,
13, ,1, ,
10, ,1, ,
11, ,1, ,
10, ,1, ,
10, ,1, ,
10, ,1, ,
9, ,1, ,
8, ,1, ,
9, ,1, ,
7, ,1, ,
8, ,1, ,
6, ,1, ,
6, ,1, ,
7, ,1, ,
5, ,1, ,
7, ,1, ,
6, ,1, ,
5, ,1, ,
6, ,1, ,
5, ,1, ,
5, ,1, ,
5, ,1, ,
4, ,1, ,
3, ,1, ,
3, ,1, ,
3, ,1, ,
3, ,1, ,
2, ,1, ,
1, ,1, ,
3, ,1, ,
0, ,1, ,
-1, ,1, ,
0, ,1, ,
-2, ,1, ,
-1, ,1, ,
-3, ,1, ,
-4, ,1, ,
-4, ,1, ,
-5, ,1, ,
-6, ,1, ,
-5, ,1, ,
-6, ,1, ,
-6, ,1, ,
-7, ,1, ,
-8, ,1, ,
-8, ,1, ,
-9, ,1, ,
-8, ,1, ,
-7, ,1, ,
-9, ,1, ,
-9, ,1, ,
-9, ,1, ,
-10, ,1, ,
-8, ,1, ,
-10, ,1, ,
-10, ,1, ,
-8, ,1, ,
-9, ,1, ,
-9, ,1, ,
-9, ,1, ,
-9, ,1, ,
-9, ,1, ,
-10, ,1, ,
-10, ,1, ,
-10, ,1, ,
-10, ,1, ,
-10, ,1, ,
-9, ,1, ,
-11, ,1, ,
-12, ,1, ,
-10, ,1, ,
-10, ,1, ,
-10, ,1, ,
-10, ,1, ,
-10, ,0, ,
-9, ,0, ,
-9, ,0, ,
-8, ,1, ,
-8, ,1, ,
-7, ,1, ,
-6, ,1, ,
-7, ,1, ,
-5, ,1, ,
-4, ,1, ,
-4, ,1, ,
-2, ,1, ,
-2, ,1, ,
0, ,1, ,
1, ,1, ,
1, ,1, ,
2, ,1, ,
5, ,1, ,
5, ,1, ,
6, ,1, ,
6, ,1, ,
7, ,1, ,
9, ,1, ,
9, ,1, ,
8, ,1, ,
11, ,1, ,
10, ,1, ,
12, ,1, ,
11, ,1, ,
11, ,1, ,
11, ,1, ,
13, ,1, ,
13, ,1, ,
13, ,1, ,
14, ,1, ,
14, ,1, ,
13, ,1, ,
14, ,1, ,
14, ,1, ,
13, ,0, ,
14, ,0, ,
13, ,1, ,
13, ,1, ,
15, ,1, ,
13, ,1, ,
11, ,1, ,
13, ,1, ,
12, ,1, ,
12, ,0, ,
12, ,0, ,
10, ,0, ,
10, ,1, ,
9, ,1, ,
8, ,1, ,
9, ,1, ,
6, ,1, ,
6, ,1, ,
5, ,1, ,
3, ,1, ,
4, ,1, ,
1, ,1, ,
-1, ,1, ,
-1, ,1, ,
-2, ,1, ,
-1, ,1, ,
-3, ,1, ,
-5, ,1, ,
-4, ,1, ,
-7, ,1, ,
-8, ,1, ,
-8, ,1, ,
-9, ,1, ,
-9, ,1, ,
-10, ,1, ,
-12, ,1, ,
-12, ,1, ,
-12, ,1, ,
-13, ,1, ,
-13, ,1, ,
-14, ,1, ,
-14, ,1, ,
-14, ,1, ,
-14, ,1, ,
-13, ,1, ,
-14, ,1, ,
-15, ,1, ,
-14, ,1, ,
-14, ,1, ,
-13, ,1, ,
-14, ,1, ,
-15, ,1, ,
-14, ,1, ,
-15, ,1, ,
-14, ,1, ,
-13, ,1, ,
-14, ,1, ,
-13, ,1, ,
-12, ,1, ,
-12, ,1, ,
-12, ,1, ,
-12, ,1, ,
-12, ,1, ,
-10, ,1, ,
-11, ,1, ,
-10, ,1, ,
-10, ,1, ,
-10, ,1, ,
-8, ,1, ,
-9, ,1, ,
-9, ,0, ,
-7, ,0, ,
-7, ,0, ,
-7, ,0, ,
-7, ,0, ,
-5, ,0, ,
-5, ,1, ,
-5, ,1, ,
-5, ,1, ,
-4, ,1, ,
-4, ,1, ,
-4, ,1, ,
-3, ,1, ,
-4, ,1, ,
-3, ,1, ,
-3, ,1, ,
-2, ,1, ,
-2, ,1, ,
-2, ,1, ,
-2, ,1, ,
-2, ,1, ,
0, ,1, ,
0, ,1, ,
-1, ,1, ,
1, ,1, ,
1, ,1, ,
2, ,1, ,
3, ,1, ,
4, ,1, ,
3, ,1, ,
5, ,1, ,
6, ,1, ,
6, ,1, ,
8, ,1, ,
9, ,1, ,
10, ,1, ,
11, ,1, ,
12, ,1, ,
13, ,1, ,
13, ,1, ,
13, ,1, ,
15, ,1, ,
15, ,1, ,
16, ,1, ,
16, ,1, ,
15, ,1, ,
17, ,1, ,
15, ,1, ,
16, ,1, ,
16, ,1, ,
15, ,1, ,
15, ,0, ,
15, ,0, ,
14, ,0, ,
14, ,1, ,
13, ,1, ,
12, ,1, ,
12, ,1, ,
10, ,1, ,
10, ,1, ,
9, ,1, ,
8, ,1, ,
9, ,1, ,
6, ,1, ,
5, ,1, ,
5, ,1, ,
5, ,1, ,
5, ,1, ,
4, ,1, ,
3, ,1, ,
4, ,1, ,
3, ,1, ,
3, ,1, ,
3, ,1, ,
2, ,1, ,
3, ,1, ,
4, ,1, ,
2, ,1, ,
2, ,1, ,
1, ,1, ,
1, ,1, ,
3, ,1, ,
1, ,1, ,
2, ,1, ,
2, ,1, ,
1, ,1, ,
3, ,1, ,
2, ,1, ,
2, ,1, ,
3, ,1, ,
2, ,0, ,
3, ,0, ,
2, ,1, ,
1, ,1, ,
2, ,1, ,
1, ,1, ,
1, ,1, ,
2, ,1, ,
1, ,1, ,
2, ,0, ,
2, ,0, ,
2, ,0, ,
2, ,1, ,
1, ,1, ,
1, ,1, ,
2, ,1, ,
1, ,1, ,
2, ,1, ,
2, ,1, ,
1, ,1, ,
1, ,1, ,
2, ,1, ,
1, ,1, ,
2, ,1, ,
2, ,1, ,
2, ,1, ,
2, ,1, ,
2, ,1, ,
2, ,1, ,
1, ,0, ,
1, ,0, ,
2, ,1, ,
2, ,1, ,
2, ,1, ,
2, ,1, ,
1, ,0, ,
2, ,0, ,
2, ,1, ,
1, ,1, ,
3, ,1, ,
3, ,1, ,
3, ,1, ,
2, ,1, ,
1, ,1, ,
2, ,1, ,
1, ,0, ,
1, ,0, ,
1, ,1, ,
1, ,1, ,
1, ,1, ,
1, ,1, ,
0, ,1, ,
0, ,1, ,
0, ,1, ,
-1, ,0, ,
0, ,0, ,
-1, ,0, ,
0, ,1, ,
0, ,1, ,
-1, ,1, ,
-1, ,1, ,
-1, ,1, ,
0, ,1, ,
0, ,1, ,
