raw_data/100% Glycerol, Impulsion 2Hz, Sonde 5MHz, Rampe 0.7Hz/temp0000185.CSV

Format,1.0B,
Memory Length,10000,Memory Length,10000,
IntpDistance,0,IntpDistance,0,
Trigger Address,159,Trigger Address,159,
Trigger Level,2.720E-01,Trigger Level,2.720E-01,
Source,CH1,Source,CH2,
Vertical Units,V,Vertical Units,V,
Vertical Units Div,0,Vertical Units Div,0,
Vertical Units Extend Div,16,Vertical Units Extend Div,16,
Label,,Label,,
Probe Type,0,Probe Type,0,
Probe Ratio,1.000e+00,Probe Ratio,1.000e+00,
Vertical Scale,2.000e-01,Vertical Scale,2.000e+00,
Vertical Position,0.000e+00,Vertical Position,0.000e+00,
Horizontal Units,S,Horizontal Units,S,
Horizontal Scale,5.000E-06,Horizontal Scale,5.000E-06,
Horizontal Position,2.420E-05,Horizontal Position,2.420E-05,
Horizontal Mode,Main,Horizontal Mode,Main,
SincET Mode,Real Time,SincET Mode,Real Time,
Sampling Period,5.000e-09,Sampling Period,5.000e-09,
Horizontal Old Scale,5.000E-06,Horizontal Old Scale,5.000E-06,
Horizontal Old Position,2.420E-05,Horizontal Old Position,2.420E-05,
Firmware,V1.32,Firmware,V1.32,
Mode,Fast,Mode,Fast,
Waveform Data,,Waveform Data,,
1, ,-31, ,
1, ,-31, ,
2, ,-31, ,
2, ,-31, ,
1, ,-31, ,
2, ,-31, ,
1, ,-31, ,
1, ,-31, ,
2, ,-31, ,
2, ,-31, ,
1, ,-31, ,
2, ,-31, ,
2, ,-31, ,
2, ,-31, ,
2, ,-31, ,
2, ,-31, ,
2, ,-31, ,
2, ,-31, ,
2, ,-31, ,
2, ,-31, ,
1, ,-31, ,
1, ,-31, ,
1, ,-31, ,
1, ,-31, ,
1, ,-31, ,
1, ,-31, ,
1, ,-31, ,
2, ,-31, ,
2, ,-31, ,
2, ,-31, ,
1, ,-31, ,
1, ,-31, ,
1, ,-31, ,
1, ,-31, ,
2, ,-31, ,
2, ,-31, ,
2, ,-31, ,
2, ,-31, ,
1, ,-31, ,
1, ,-31, ,
1, ,-31, ,
1, ,-31, ,
1, ,-31, ,
1, ,-31, ,
1, ,-31, ,
2, ,-31, ,
1, ,-31, ,
2, ,-31, ,
2, ,-31, ,
1, ,-31, ,
2, ,-31, ,
2, ,-31, ,
1, ,-31, ,
2, ,-31, ,
1, ,-31, ,
1, ,-31, ,
1, ,-31, ,
1, ,-31, ,
1, ,-31, ,
1, ,-31, ,
1, ,-31, ,
2, ,-31, ,
1, ,-31, ,
1, ,-31, ,
2, ,-31, ,
1, ,-31, ,
1, ,-31, ,
2, ,-31, ,
1, ,-31, ,
1, ,-31, ,
1, ,-31, ,
1, ,-31, ,
2, ,-31, ,
1, ,-31, ,
2, ,-31, ,
2, ,-31, ,
1, ,-31, ,
2, ,-31, ,
1, ,-31, ,
1, ,-31, ,
1, ,-31, ,
1, ,-31, ,
1, ,-31, ,
2, ,-31, ,
1, ,-31, ,
2, ,-31, ,
2, ,-31, ,
1, ,-31, ,
2, ,-31, ,
2, ,-31, ,
2, ,-31, ,
1, ,-31, ,
1, ,-31, ,
2, ,-31, ,
2, ,-31, ,
1, ,-31, ,
1, ,-31, ,
1, ,-31, ,
2, ,-31, ,
2, ,-31, ,
1, ,-31, ,
2, ,-31, ,
1, ,-31, ,
1, ,-31, ,
2, ,-31, ,
2, ,-31, ,
2, ,-31, ,
2, ,-31, ,
1, ,-31, ,
1, ,-31, ,
1, ,-31, ,
1, ,-31, ,
2, ,-31, ,
1, ,-31, ,
1, ,-31, ,
2, ,-31, ,
1, ,-31, ,
2, ,-31, ,
2, ,-31, ,
1, ,-31, ,
2, ,-31, ,
1, ,-31, ,
2, ,-31, ,
2, ,-31, ,
2, ,-31, ,
3, ,-31, ,
0, ,-31, ,
1, ,-31, ,
1, ,-31, ,
0, ,-31, ,
2, ,-31, ,
2, ,-31, ,
2, ,-31, ,
2, ,-31, ,
2, ,-31, ,
1, ,-31, ,
1, ,-31, ,
1, ,-31, ,
2, ,-31, ,
2, ,-31, ,
1, ,-31, ,
2, ,-31, ,
2, ,-31, ,
2, ,-31, ,
2, ,-31, ,
1, ,-31, ,
3, ,-31, ,
2, ,-31, ,
1, ,-31, ,
2, ,-31, ,
2, ,-31, ,
1, ,-31, ,
1, ,-31, ,
1, ,-31, ,
1, ,-31, ,
2, ,-31, ,
1, ,-31, ,
1, ,-31, ,
2, ,-31, ,
2, ,-31, ,
2, ,-31, ,
1, ,-31, ,
2, ,-31, ,
2, ,-31, ,
0, ,-31, ,
-2, ,-31, ,
0, ,-31, ,
8, ,-31, ,
49, ,-31, ,
121, ,-31, ,
125, ,-31, ,
125, ,-31, ,
123, ,-31, ,
119, ,-31, ,
81, ,-31, ,
22, ,-31, ,
125, ,-31, ,
125, ,-31, ,
125, ,-31, ,
125, ,-31, ,
125, ,-31, ,
125, ,-31, ,
125, ,-31, ,
125, ,-31, ,
125, ,-31, ,
125, ,-31, ,
125, ,-31, ,
125, ,-31, ,
125, ,-31, ,
125, ,-31, ,
125, ,-31, ,
125, ,-31, ,
125, ,-31, ,
125, ,-31, ,
125, ,-31, ,
125, ,-31, ,
125, ,-31, ,
125, ,-31, ,
125, ,-31, ,
125, ,-31, ,
125, ,-31, ,
125, ,-31, ,
125, ,-31, ,
124, ,-31, ,
117, ,-31, ,
113, ,-31, ,
108, ,-31, ,
101, ,-31, ,
98, ,-31, ,
93, ,-31, ,
88, ,-31, ,
82, ,-31, ,
76, ,-31, ,
74, ,-31, ,
71, ,-31, ,
63, ,-31, ,
61, ,-31, ,
57, ,-31, ,
56, ,-31, ,
51, ,-31, ,
48, ,-31, ,
48, ,-31, ,
43, ,-31, ,
39, ,-31, ,
38, ,-31, ,
35, ,-31, ,
35, ,-31, ,
32, ,-31, ,
29, ,-31, ,
27, ,-31, ,
26, ,-31, ,
22, ,-31, ,
22, ,-31, ,
20, ,-31, ,
20, ,-31, ,
18, ,-31, ,
16, ,-31, ,
15, ,-31, ,
14, ,-31, ,
12, ,-31, ,
13, ,-31, ,
10, ,-31, ,
10, ,-31, ,
9, ,-31, ,
7, ,-31, ,
7, ,-31, ,
6, ,-31, ,
5, ,-31, ,
5, ,-31, ,
5, ,-31, ,
4, ,-31, ,
4, ,-31, ,
2, ,-31, ,
2, ,-31, ,
1, ,-31, ,
1, ,-31, ,
2, ,-31, ,
1, ,-31, ,
1, ,-31, ,
1, ,-31, ,
0, ,-31, ,
0, ,-31, ,
-1, ,-31, ,
-2, ,-31, ,
-1, ,-31, ,
-2, ,-31, ,
-1, ,-31, ,
-2, ,-31, ,
-3, ,-31, ,
-2, ,-31, ,
-3, ,-31, ,
-2, ,-31, ,
-2, ,-31, ,
-3, ,-31, ,
-3, ,-31, ,
-2, ,-31, ,
-3, ,-31, ,
-3, ,-31, ,
-4, ,-31, ,
-3, ,-31, ,
-3, ,-31, ,
-2, ,-31, ,
-3, ,-31, ,
-3, ,-31, ,
-3, ,-31, ,
-3, ,-31, ,
-4, ,-31, ,
-4, ,-31, ,
-3, ,-31, ,
-3, ,-31, ,
-2, ,-31, ,
-3, ,-31, ,
-4, ,-31, ,
-3, ,-31, ,
-3, ,-31, ,
-2, ,-31, ,
-2, ,-31, ,
-2, ,-31, ,
-2, ,-31, ,
-2, ,-31, ,
-3, ,-31, ,
-3, ,-31, ,
-2, ,-31, ,
-1, ,-31, ,
-1, ,-31, ,
-2, ,-31, ,
-2, ,-31, ,
-2, ,-31, ,
-3, ,-31, ,
-2, ,-31, ,
-2, ,-31, ,
-2, ,-31, ,
-1, ,-31, ,
-3, ,-31, ,
-2, ,-31, ,
-1, ,-31, ,
-2, ,-31, ,
-1, ,-31, ,
-2, ,-31, ,
-1, ,-31, ,
-2, ,-31, ,
-1, ,-31, ,
-1, ,-31, ,
-1, ,-31, ,
-1, ,-31, ,
0, ,-31, ,
-1, ,-31, ,
-1, ,-31, ,
0, ,-31, ,
0, ,-31, ,
0, ,-31, ,
0, ,-31, ,
-1, ,-31, ,
0, ,-31, ,
0, ,-31, ,
0, ,-31, ,
0, ,-31, ,
0, ,-31, ,
0, ,-31, ,
0, ,-31, ,
0, ,-31, ,
0, ,-31, ,
0, ,-31, ,
0, ,-31, ,
1, ,-31, ,
1, ,-31, ,
1, ,-31, ,
1, ,-31, ,
0, ,-31, ,
0, ,-31, ,
0, ,-31, ,
0, ,-31, ,
0, ,-31, ,
0, ,-31, ,
0, ,-31, ,
0, ,-31, ,
0, ,-31, ,
1, ,-31, ,
0, ,-31, ,
0, ,-31, ,
1, ,-31, ,
0, ,-31, ,
1, ,-31, ,
1, ,-31, ,
0, ,-31, ,
1, ,-31, ,
0, ,-31, ,
0, ,-31, ,
1, ,-31, ,
0, ,-31, ,
1, ,-31, ,
0, ,-31, ,
0, ,-31, ,
1, ,-31, ,
0, ,-31, ,
0, ,-31, ,
1, ,-31, ,
1, ,-31, ,
1, ,-31, ,
1, ,-31, ,
0, ,-31, ,
1, ,-31, ,
1, ,-31, ,
1, ,-31, ,
2, ,-31, ,
0, ,-31, ,
1, ,-31, ,
1, ,-31, ,
1, ,-31, ,
1, ,-31, ,
0, ,-31, ,
1, ,-31, ,
1, ,-31, ,
1, ,-31, ,
2, ,-31, ,
1, ,-31, ,
1, ,-31, ,
0, ,-31, ,
0, ,-31, ,
1, ,-31, ,
2, ,-31, ,
1, ,-31, ,
1, ,-31, ,
1, ,-31, ,
1, ,-31, ,
1, ,-31, ,
0, ,-31, ,
0, ,-31, ,
1, ,-31, ,
0, ,-31, ,
2, ,-31, ,
1, ,-31, ,
1, ,-31, ,
2, ,-31, ,
1, ,-31, ,
2, ,-31, ,
2, ,-31, ,
1, ,-31, ,
2, ,-31, ,
1, ,-31, ,
1, ,-31, ,
1, ,-31, ,
1, ,-31, ,
0, ,-31, ,
0, ,-31, ,
0, ,-31, ,
0, ,-31, ,
1, ,-31, ,
0, ,-31, ,
1, ,-31, ,
0, ,-31, ,
1, ,-31, ,
1, ,-31, ,
1, ,-31, ,
1, ,-31, ,
1, ,-31, ,
1, ,-31, ,
1, ,-31, ,
1, ,-31, ,
0, ,-31, ,
1, ,-31, ,
0, ,-31, ,
0, ,-31, ,
0, ,-31, ,
-1, ,-31, ,
-1, ,-31, ,
-1, ,-31, ,
-1, ,-31, ,
0, ,-31, ,
-1, ,-31, ,
0, ,-31, ,
1, ,-31, ,
0, ,-31, ,
2, ,-31, ,
1, ,-31, ,
1, ,-31, ,
1, ,-31, ,
1, ,-31, ,
1, ,-31, ,
1, ,-31, ,
1, ,-31, ,
1, ,-31, ,
0, ,-31, ,
1, ,-31, ,
1, ,-31, ,
1, ,-31, ,
1, ,-31, ,
2, ,-31, ,
1, ,-31, ,
1, ,-31, ,
1, ,-31, ,
0, ,-31, ,
2, ,-31, ,
1, ,-31, ,
2, ,-31, ,
2, ,-31, ,
0, ,-31, ,
3, ,-31, ,
0, ,-31, ,
0, ,-31, ,
0, ,-31, ,
0, ,-31, ,
0, ,-31, ,
0, ,-31, ,
-1, ,-31, ,
0, ,-31, ,
0, ,-31, ,
0, ,-31, ,
1, ,-31, ,
1, ,-31, ,
1, ,-31, ,
2, ,-31, ,
1, ,-31, ,
2, ,-31, ,
1, ,-31, ,
2, ,-31, ,
2, ,-31, ,
1, ,-31, ,
1, ,-31, ,
1, ,-31, ,
0, ,-31, ,
0, ,-31, ,
0, ,-31, ,
0, ,-31, ,
0, ,-31, ,
0, ,-31, ,
0, ,-31, ,
0, ,-31, ,
0, ,-31, ,
0, ,-31, ,
0, ,-31, ,
1, ,-31, ,
1, ,-31, ,
0, ,-31, ,
0, ,-31, ,
-1, ,-31, ,
-2, ,-31, ,
-2, ,-31, ,
-3, ,-31, ,
-5, ,-31, ,
-5, ,-31, ,
-6, ,-31, ,
-7, ,-31, ,
-6, ,-31, ,
-7, ,-31, ,
-6, ,-31, ,
-8, ,-31, ,
-7, ,-31, ,
-7, ,-31, ,
-8, ,-31, ,
-8, ,-31, ,
-9, ,-31, ,
-11, ,-31, ,
-12, ,-31, ,
-15, ,-31, ,
-18, ,-31, ,
-19, ,-31, ,
-21, ,-31, ,
-23, ,-31, ,
-28, ,-31, ,
-31, ,-31, ,
-32, ,-31, ,
-34, ,-31, ,
-35, ,-31, ,
-35, ,-31, ,
-35, ,-31, ,
-34, ,-31, ,
-30, ,-31, ,
-29, ,-31, ,
-27, ,-31, ,
-25, ,-31, ,
-23, ,-31, ,
-22, ,-31, ,
-22, ,-31, ,
-21, ,-31, ,
-22, ,-31, ,
-22, ,-31, ,
-21, ,-31, ,
-23, ,-31, ,
-24, ,-31, ,
-24, ,-31, ,
-22, ,-31, ,
-21, ,-31, ,
-19, ,-31, ,
-18, ,-31, ,
-16, ,-31, ,
-16, ,-31, ,
-13, ,-31, ,
-9, ,-31, ,
-8, ,-31, ,
-5, ,-31, ,
-5, ,-31, ,
-6, ,-31, ,
-6, ,-31, ,
-7, ,-31, ,
-9, ,-31, ,
-9, ,-31, ,
-10, ,-31, ,
-12, ,-31, ,
-13, ,-31, ,
-14, ,-31, ,
-13, ,-31, ,
-14, ,-31, ,
-10, ,-31, ,
-10, ,-31, ,
-9, ,-31, ,
-6, ,-31, ,
-4, ,-31, ,
-4, ,-31, ,
-3, ,-31, ,
-3, ,-31, ,
-4, ,-31, ,
-4, ,-31, ,
-4, ,-31, ,
-4, ,-31, ,
-5, ,-31, ,
-6, ,-31, ,
-6, ,-31, ,
-7, ,-31, ,
-8, ,-31, ,
-7, ,-31, ,
-8, ,-31, ,
-7, ,-31, ,
-5, ,-31, ,
-5, ,-31, ,
-5, ,-31, ,
-5, ,-31, ,
-6, ,-31, ,
-6, ,-31, ,
-8, ,-31, ,
-9, ,-31, ,
-12, ,-31, ,
-15, ,-31, ,
-18, ,-31, ,
-20, ,-31, ,
-26, ,-31, ,
-26, ,-31, ,
-28, ,-31, ,
-28, ,-31, ,
-29, ,-31, ,
-30, ,-31, ,
-29, ,-31, ,
-29, ,-31, ,
-27, ,-31, ,
-27, ,-31, ,
-28, ,-31, ,
-27, ,-31, ,
-26, ,-31, ,
-26, ,-31, ,
-25, ,-31, ,
-25, ,-31, ,
-25, ,-31, ,
-25, ,-31, ,
-25, ,-31, ,
-24, ,-31, ,
-23, ,-31, ,
-22, ,-31, ,
-22, ,-31, ,
-22, ,-31, ,
-22, ,-31, ,
-22, ,-31, ,
-22, ,-31, ,
-21, ,-31, ,
-21, ,-31, ,
-22, ,-31, ,
-21, ,-31, ,
-22, ,-31, ,
-22, ,-31, ,
-22, ,-31, ,
-23, ,-31, ,
-23, ,-31, ,
-25, ,-31, ,
-28, ,-31, ,
-27, ,-31, ,
-33, ,-31, ,
-35, ,-31, ,
-35, ,-31, ,
-39, ,-31, ,
-39, ,-31, ,
-39, ,-31, ,
-40, ,-31, ,
-39, ,-31, ,
-40, ,-31, ,
-38, ,-31, ,
-36, ,-31, ,
-35, ,-31, ,
-35, ,-31, ,
-33, ,-31, ,
-34, ,-31, ,
-33, ,-31, ,
-34, ,-31, ,
-34, ,-31, ,
-34, ,-31, ,
-35, ,-31, ,
-35, ,-31, ,
-34, ,-31, ,
-32, ,-31, ,
-32, ,-31, ,
-32, ,-31, ,
-30, ,-31, ,
-27, ,-31, ,
-27, ,-31, ,
-25, ,-31, ,
-25, ,-31, ,
-25, ,-31, ,
-26, ,-31, ,
-26, ,-31, ,
-27, ,-31, ,
-26, ,-31, ,
-27, ,-31, ,
-27, ,-31, ,
-26, ,-31, ,
-27, ,-31, ,
-25, ,-31, ,
-25, ,-31, ,
-24, ,-31, ,
-24, ,-31, ,
-24, ,-31, ,
-23, ,-31, ,
-24, ,-31, ,
-23, ,-31, ,
-22, ,-31, ,
-24, ,-31, ,
-22, ,-31, ,
-21, ,-31, ,
-21, ,-31, ,
-20, ,-31, ,
-17, ,-31, ,
-17, ,-31, ,
-16, ,-31, ,
-16, ,-31, ,
-15, ,-31, ,
-13, ,-31, ,
-15, ,-31, ,
-12, ,-31, ,
-10, ,-31, ,
-10, ,-31, ,
-7, ,-31, ,
-8, ,-31, ,
-4, ,-31, ,
-1, ,-31, ,
-1, ,-31, ,
2, ,-31, ,
6, ,-31, ,
6, ,-31, ,
9, ,-31, ,
9, ,-31, ,
11, ,-31, ,
11, ,-31, ,
13, ,-31, ,
13, ,-31, ,
13, ,-31, ,
13, ,-31, ,
13, ,-31, ,
12, ,-31, ,
13, ,-31, ,
14, ,-31, ,
14, ,-31, ,
14, ,-31, ,
15, ,-31, ,
14, ,-31, ,
14, ,-31, ,
14, ,-31, ,
13, ,-31, ,
13, ,-31, ,
12, ,-31, ,
12, ,-31, ,
10, ,-31, ,
9, ,-31, ,
10, ,-31, ,
7, ,-31, ,
5, ,-31, ,
5, ,-31, ,
4, ,-31, ,
2, ,-31, ,
-1, ,-31, ,
-2, ,-31, ,
-3, ,-31, ,
-6, ,-31, ,
-9, ,-31, ,
-10, ,-31, ,
-13, ,-31, ,
-12, ,-31, ,
-16, ,-31, ,
-19, ,-31, ,
-19, ,-31, ,
-20, ,-31, ,
-23, ,-31, ,
-23, ,-31, ,
-25, ,-31, ,
-25, ,-31, ,
-28, ,-31, ,
-29, ,-31, ,
-28, ,-31, ,
-32, ,-31, ,
-33, ,-31, ,
-33, ,-31, ,
-33, ,-31, ,
-33, ,-31, ,
-33, ,-31, ,
-34, ,-31, ,
-33, ,-31, ,
-33, ,-31, ,
-33, ,-31, ,
-32, ,-31, ,
-32, ,-31, ,
-32, ,-31, ,
-31, ,-31, ,
-32, ,-31, ,
-32, ,-31, ,
-32, ,-31, ,
-32, ,-31, ,
-30, ,-31, ,
-32, ,-31, ,
-31, ,-31, ,
-30, ,-31, ,
-28, ,-31, ,
-26, ,-31, ,
-26, ,-31, ,
-23, ,-31, ,
-22, ,-31, ,
-21, ,-31, ,
-19, ,-31, ,
-15, ,-31, ,
-15, ,-31, ,
-15, ,-31, ,
-14, ,-31, ,
-12, ,-31, ,
-11, ,-31, ,
-10, ,-31, ,
-10, ,-31, ,
-8, ,-31, ,
-7, ,-31, ,
-5, ,-31, ,
-5, ,-31, ,
-3, ,-31, ,
-3, ,-31, ,
-3, ,-31, ,
-2, ,-31, ,
-2, ,-31, ,
-2, ,-31, ,
-1, ,-31, ,
-2, ,-31, ,
-1, ,-31, ,
0, ,-31, ,
1, ,-31, ,
3, ,-31, ,
6, ,-31, ,
6, ,-31, ,
8, ,-31, ,
8, ,-31, ,
11, ,-31, ,
13, ,-31, ,
14, ,-31, ,
15, ,-31, ,
17, ,-31, ,
17, ,-31, ,
18, ,-31, ,
20, ,-31, ,
20, ,-31, ,
21, ,-31, ,
21, ,-31, ,
21, ,-31, ,
21, ,-31, ,
20, ,-31, ,
20, ,-31, ,
19, ,-31, ,
17, ,-31, ,
17, ,-31, ,
15, ,-31, ,
14, ,-31, ,
12, ,-31, ,
9, ,-31, ,
8, ,-31, ,
7, ,-31, ,
4, ,-31, ,
4, ,-31, ,
2, ,-31, ,
0, ,-31, ,
-1, ,-31, ,
-2, ,-31, ,
-2, ,-31, ,
-5, ,-31, ,
-7, ,-31, ,
-7, ,-31, ,
-10, ,-31, ,
-9, ,-31, ,
-11, ,-31, ,
-15, ,-31, ,
-14, ,-31, ,
-18, ,-31, ,
-21, ,-31, ,
-21, ,-31, ,
-22, ,-31, ,
-23, ,-31, ,
-27, ,-31, ,
-29, ,-31, ,
-29, ,-31, ,
-31, ,-31, ,
-34, ,-31, ,
-34, ,-31, ,
-35, ,-31, ,
-35, ,-31, ,
-36, ,-31, ,
-37, ,-31, ,
-37, ,-31, ,
-39, ,-31, ,
-39, ,-31, ,
-38, ,-31, ,
-39, ,-31, ,
-37, ,-31, ,
-36, ,-31, ,
-35, ,-31, ,
-34, ,-31, ,
-34, ,-31, ,
-32, ,-31, ,
-30, ,-31, ,
-30, ,-31, ,
-29, ,-31, ,
-25, ,-31, ,
-25, ,-31, ,
-25, ,-31, ,
-24, ,-31, ,
-24, ,-31, ,
-23, ,-31, ,
-23, ,-31, ,
-22, ,-31, ,
-21, ,-31, ,
-22, ,-31, ,
-20, ,-31, ,
-20, ,-31, ,
-19, ,-31, ,
-18, ,-31, ,
-20, ,-31, ,
-19, ,-31, ,
-19, ,-31, ,
-20, ,-31, ,
-20, ,-31, ,
-21, ,-31, ,
-22, ,-31, ,
-21, ,-31, ,
-21, ,-31, ,
-21, ,-31, ,
-21, ,-31, ,
-21, ,-31, ,
-21, ,-31, ,
-21, ,-31, ,
-20, ,-31, ,
-20, ,-31, ,
-20, ,-31, ,
-19, ,-31, ,
-20, ,-31, ,
-20, ,-31, ,
-20, ,-31, ,
-20, ,-31, ,
-20, ,-31, ,
-20, ,-31, ,
-20, ,-31, ,
-19, ,-31, ,
-19, ,-31, ,
-19, ,-31, ,
-19, ,-31, ,
-19, ,-31, ,
-19, ,-31, ,
-18, ,-31, ,
-17, ,-31, ,
-17, ,-31, ,
-16, ,-31, ,
-17, ,-31, ,
-18, ,-31, ,
-16, ,-31, ,
-17, ,-31, ,
-15, ,-31, ,
-15, ,-31, ,
-15, ,-31, ,
-14, ,-31, ,
-12, ,-31, ,
-11, ,-31, ,
-11, ,-31, ,
-10, ,-31, ,
-9, ,-31, ,
-10, ,-31, ,
-8, ,-31, ,
-6, ,-31, ,
-6, ,-31, ,
-5, ,-31, ,
-5, ,-31, ,
-5, ,-31, ,
-4, ,-31, ,
-4, ,-31, ,
-3, ,-31, ,
-2, ,-31, ,
-2, ,-31, ,
-2, ,-31, ,
-2, ,-31, ,
-2, ,-31, ,
-1, ,-31, ,
-2, ,-31, ,
-2, ,-31, ,
-2, ,-31, ,
-3, ,-31, ,
-3, ,-31, ,
-4, ,-31, ,
-4, ,-31, ,
-2, ,-31, ,
-2, ,-31, ,
-2, ,-31, ,
-1, ,-31, ,
-1, ,-31, ,
0, ,-31, ,
-1, ,-31, ,
0, ,-31, ,
1, ,-31, ,
0, ,-31, ,
1, ,-31, ,
3, ,-31, ,
3, ,-31, ,
4, ,-31, ,
4, ,-31, ,
4, ,-31, ,
5, ,-31, ,
5, ,-31, ,
5, ,-31, ,
6, ,-31, ,
5, ,-31, ,
6, ,-31, ,
4, ,-31, ,
4, ,-31, ,
4, ,-31, ,
2, ,-31, ,
2, ,-31, ,
1, ,-31, ,
-1, ,-31, ,
0, ,-31, ,
-2, ,-31, ,
-3, ,-31, ,
-3, ,-31, ,
-4, ,-31, ,
-3, ,-31, ,
-5, ,-31, ,
-6, ,-31, ,
-6, ,-31, ,
-7, ,-31, ,
-8, ,-31, ,
-8, ,-31, ,
-8, ,-31, ,
-8, ,-31, ,
-8, ,-31, ,
-9, ,-31, ,
-8, ,-31, ,
-9, ,-31, ,
-9, ,-31, ,
-9, ,-31, ,
-9, ,-31, ,
-8, ,-31, ,
-7, ,-31, ,
-8, ,-31, ,
-8, ,-31, ,
-9, ,-31, ,
-8, ,-31, ,
-8, ,-31, ,
-9, ,-31, ,
-9, ,-31, ,
-9, ,-31, ,
-9, ,-31, ,
-8, ,-31, ,
-8, ,-31, ,
-9, ,-31, ,
-8, ,-31, ,
-8, ,-31, ,
-7, ,-31, ,
-5, ,-31, ,
-5, ,-31, ,
-5, ,-31, ,
-5, ,-31, ,
-5, ,-31, ,
-5, ,-31, ,
-5, ,-31, ,
-4, ,-31, ,
-5, ,-31, ,
-5, ,-31, ,
-4, ,-31, ,
-5, ,-31, ,
-3, ,-31, ,
-2, ,-31, ,
-2, ,-31, ,
-1, ,-31, ,
0, ,-31, ,
0, ,-31, ,
0, ,-31, ,
0, ,-31, ,
0, ,-31, ,
1, ,-31, ,
1, ,-31, ,
0, ,-31, ,
1, ,-31, ,
-1, ,-31, ,
1, ,-31, ,
1, ,-31, ,
1, ,-31, ,
2, ,-31, ,
2, ,-31, ,
3, ,-31, ,
2, ,-31, ,
1, ,-31, ,
2, ,-31, ,
1, ,-31, ,
0, ,-31, ,
0, ,-31, ,
-1, ,-31, ,
0, ,-31, ,
-2, ,-31, ,
-2, ,-31, ,
-2, ,-31, ,
-3, ,-31, ,
-4, ,-31, ,
-3, ,-31, ,
-4, ,-31, ,
-4, ,-31, ,
-4, ,-31, ,
-4, ,-31, ,
-3, ,-31, ,
-5, ,-31, ,
-4, ,-31, ,
-3, ,-31, ,
-3, ,-31, ,
-2, ,-31, ,
-3, ,-31, ,
-4, ,-31, ,
-1, ,-31, ,
-1, ,-31, ,
0, ,-31, ,
0, ,-31, ,
1, ,-31, ,
1, ,-31, ,
3, ,-31, ,
3, ,-31, ,
4, ,-31, ,
3, ,-31, ,
4, ,-31, ,
5, ,-31, ,
4, ,-31, ,
3, ,-31, ,
5, ,-31, ,
4, ,-31, ,
5, ,-31, ,
3, ,-31, ,
2, ,-31, ,
2, ,-31, ,
2, ,-31, ,
2, ,-31, ,
1, ,-31, ,
1, ,-31, ,
0, ,-31, ,
0, ,-31, ,
0, ,-31, ,
0, ,-31, ,
-1, ,-31, ,
-1, ,-31, ,
-1, ,-31, ,
-1, ,-31, ,
0, ,-31, ,
-1, ,-31, ,
-2, ,-31, ,
0, ,-31, ,
0, ,-31, ,
0, ,-31, ,
1, ,-31, ,
0, ,-31, ,
2, ,-31, ,
1, ,-31, ,
1, ,-31, ,
2, ,-31, ,
1, ,-31, ,
2, ,-31, ,
2, ,-31, ,
2, ,-31, ,
3, ,-31, ,
2, ,-31, ,
2, ,-31, ,
3, ,-31, ,
2, ,-31, ,
2, ,-31, ,
3, ,-31, ,
3, ,-31, ,
3, ,-31, ,
2, ,-31, ,
2, ,-31, ,
3, ,-31, ,
2, ,-31, ,
3, ,-31, ,
2, ,-31, ,
2, ,-31, ,
2, ,-31, ,
1, ,-31, ,
0, ,-31, ,
1, ,-31, ,
0, ,-31, ,
2, ,-31, ,
2, ,-31, ,
1, ,-31, ,
2, ,-31, ,
0, ,-31, ,
1, ,-31, ,
1, ,-31, ,
1, ,-31, ,
2, ,-31, ,
2, ,-31, ,
2, ,-31, ,
2, ,-31, ,
2, ,-31, ,
1, ,-31, ,
2, ,-31, ,
1, ,-31, ,
2, ,-31, ,
2, ,-31, ,
1, ,-31, ,
2, ,-31, ,
1, ,-31, ,
2, ,-31, ,
2, ,-31, ,
1, ,-31, ,
3, ,-31, ,
2, ,-31, ,
2, ,-31, ,
2, ,-31, ,
2, ,-31, ,
1, ,-31, ,
1, ,-31, ,
1, ,-31, ,
1, ,-31, ,
1, ,-31, ,
0, ,-31, ,
0, ,-31, ,
0, ,-31, ,
0, ,-31, ,
0, ,-31, ,
-1, ,-31, ,
-2, ,-31, ,
-1, ,-31, ,
-1, ,-31, ,
-1, ,-31, ,
-2, ,-31, ,
-1, ,-31, ,
-1, ,-31, ,
-2, ,-31, ,
-2, ,-31, ,
-2, ,-31, ,
-3, ,-31, ,
-3, ,-31, ,
-4, ,-31, ,
-4, ,-31, ,
-3, ,-31, ,
-4, ,-31, ,
-2, ,-31, ,
-2, ,-31, ,
-6, ,-31, ,
-4, ,-31, ,
-4, ,-31, ,
-5, ,-31, ,
-5, ,-31, ,
-5, ,-31, ,
-5, ,-31, ,
-6, ,-31, ,
-7, ,-31, ,
-5, ,-31, ,
-5, ,-31, ,
-5, ,-31, ,
-5, ,-31, ,
-6, ,-31, ,
-5, ,-31, ,
-6, ,-31, ,
-6, ,-31, ,
-6, ,-31, ,
-7, ,-31, ,
-8, ,-31, ,
-7, ,-31, ,
-6, ,-31, ,
-7, ,-31, ,
-7, ,-31, ,
-8, ,-31, ,
-8, ,-31, ,
-8, ,-31, ,
-7, ,-31, ,
-7, ,-31, ,
-8, ,-31, ,
-9, ,-31, ,
-7, ,-31, ,
-8, ,-31, ,
-8, ,-31, ,
-8, ,-31, ,
-7, ,-31, ,
-7, ,-31, ,
-8, ,-31, ,
-8, ,-31, ,
-8, ,-31, ,
-8, ,-31, ,
-8, ,-31, ,
-7, ,-31, ,
-7, ,-31, ,
-7, ,-31, ,
-7, ,-31, ,
-6, ,-31, ,
-5, ,-31, ,
-8, ,-31, ,
-6, ,-31, ,
-6, ,-31, ,
-7, ,-31, ,
-6, ,-31, ,
-6, ,-31, ,
-5, ,-31, ,
-5, ,-31, ,
-5, ,-31, ,
-4, ,-31, ,
-6, ,-31, ,
-6, ,-31, ,
-6, ,-31, ,
-7, ,-31, ,
-5, ,-31, ,
-5, ,-31, ,
-6, ,-31, ,
-5, ,-31, ,
-6, ,-31, ,
-5, ,-31, ,
-5, ,-31, ,
-5, ,-31, ,
-5, ,-31, ,
-5, ,-31, ,
-5, ,-31, ,
-5, ,-31, ,
-6, ,-31, ,
-5, ,-31, ,
-5, ,-31, ,
-5, ,-31, ,
-5, ,-31, ,
-5, ,-31, ,
-5, ,-31, ,
-5, ,-31, ,
-5, ,-31, ,
-5, ,-31, ,
-4, ,-31, ,
-4, ,-31, ,
-3, ,-31, ,
-4, ,-31, ,
-3, ,-31, ,
-1, ,-31, ,
-2, ,-31, ,
-2, ,-31, ,
0, ,-31, ,
0, ,-31, ,
0, ,-31, ,
0, ,-31, ,
0, ,-31, ,
1, ,-31, ,
1, ,-31, ,
1, ,-31, ,
2, ,-31, ,
2, ,-31, ,
3, ,-31, ,
2, ,-31, ,
2, ,-31, ,
2, ,-31, ,
1, ,-31, ,
1, ,-31, ,
1, ,-31, ,
0, ,-31, ,
0, ,-31, ,
0, ,-31, ,
-1, ,-31, ,
0, ,-31, ,
0, ,-31, ,
0, ,-31, ,
0, ,-31, ,
-1, ,-31, ,
0, ,-31, ,
-1, ,-31, ,
-2, ,-31, ,
-1, ,-31, ,
-2, ,-31, ,
-2, ,-31, ,
0, ,-31, ,
-2, ,-31, ,
-1, ,-31, ,
0, ,-31, ,
-1, ,-31, ,
-1, ,-31, ,
-1, ,-31, ,
-2, ,-31, ,
-1, ,-31, ,
-1, ,-31, ,
0, ,-31, ,
0, ,-31, ,
0, ,-31, ,
-1, ,-31, ,
-2, ,-31, ,
0, ,-31, ,
0, ,-31, ,
0, ,-31, ,
0, ,-31, ,
0, ,-31, ,
-1, ,-31, ,
-1, ,-31, ,
0, ,-31, ,
-1, ,-31, ,
0, ,-31, ,
-1, ,-31, ,
-1, ,-31, ,
-1, ,-31, ,
-2, ,-31, ,
-1, ,-31, ,
-2, ,-31, ,
-1, ,-31, ,
-1, ,-31, ,
-2, ,-31, ,
-1, ,-31, ,
-1, ,-31, ,
-1, ,-31, ,
0, ,-31, ,
-1, ,-31, ,
-2, ,-31, ,
0, ,-31, ,
-1, ,-31, ,
-1, ,-31, ,
0, ,-31, ,
-1, ,-31, ,
-1, ,-31, ,
-2, ,-31, ,
-1, ,-31, ,
0, ,-31, ,
0, ,-31, ,
0, ,-31, ,
0, ,-31, ,
0, ,-31, ,
0, ,-31, ,
0, ,-31, ,
-1, ,-31, ,
0, ,-31, ,
0, ,-31, ,
-1, ,-31, ,
0, ,-31, ,
-1, ,-31, ,
-1, ,-31, ,
-1, ,-31, ,
-2, ,-31, ,
-2, ,-31, ,
-2, ,-31, ,
-2, ,-31, ,
-2, ,-31, ,
-4, ,-31, ,
-4, ,-31, ,
-4, ,-31, ,
-7, ,-31, ,
-6, ,-31, ,
-8, ,-31, ,
-9, ,-31, ,
-10, ,-31, ,
-13, ,-31, ,
-14, ,-31, ,
-17, ,-31, ,
-24, ,-31, ,
-26, ,-31, ,
-32, ,-31, ,
-35, ,-31, ,
-46, ,-31, ,
-55, ,-31, ,
-60, ,-31, ,
-70, ,-31, ,
-90, ,-31, ,
-102, ,-31, ,
-110, ,-31, ,
-123, ,-31, ,
-126, ,-31, ,
-126, ,-31, ,
-126, ,-31, ,
-126, ,-31, ,
-126, ,-31, ,
-126, ,-31, ,
-126, ,-31, ,
-126, ,-31, ,
-126, ,-31, ,
-126, ,-31, ,
-126, ,-31, ,
-126, ,-31, ,
-124, ,-31, ,
-118, ,-31, ,
-116, ,-31, ,
-109, ,-31, ,
-103, ,-31, ,
-99, ,-31, ,
-96, ,-31, ,
-92, ,-31, ,
-84, ,-31, ,
-80, ,-31, ,
-78, ,-31, ,
-73, ,-31, ,
-65, ,-31, ,
-60, ,-31, ,
-51, ,-31, ,
-25, ,-31, ,
125, ,-31, ,
125, ,-31, ,
125, ,-31, ,
125, ,-31, ,
125, ,-31, ,
125, ,-31, ,
125, ,-31, ,
125, ,-31, ,
125, ,-31, ,
125, ,-31, ,
125, ,-31, ,
125, ,-31, ,
125, ,-31, ,
125, ,-31, ,
125, ,-31, ,
125, ,-31, ,
125, ,-31, ,
125, ,-31, ,
124, ,-31, ,
123, ,-31, ,
97, ,-31, ,
78, ,-31, ,
67, ,-31, ,
54, ,-31, ,
38, ,-31, ,
36, ,-31, ,
35, ,-31, ,
35, ,-31, ,
41, ,-31, ,
45, ,-31, ,
52, ,-31, ,
59, ,-31, ,
73, ,-31, ,
82, ,-31, ,
87, ,-31, ,
94, ,-31, ,
104, ,-31, ,
105, ,-31, ,
108, ,-31, ,
108, ,-31, ,
106, ,-31, ,
105, ,-31, ,
99, ,-31, ,
95, ,-31, ,
83, ,-31, ,
74, ,-31, ,
65, ,-31, ,
54, ,-31, ,
34, ,-31, ,
25, ,-31, ,
14, ,-31, ,
4, ,-31, ,
-16, ,-31, ,
-25, ,-31, ,
-33, ,-31, ,
-40, ,-31, ,
-51, ,-31, ,
-55, ,-31, ,
-59, ,-31, ,
-59, ,-31, ,
-59, ,-31, ,
-59, ,-31, ,
-56, ,-31, ,
-55, ,-31, ,
-46, ,-31, ,
-41, ,-31, ,
-35, ,-31, ,
-30, ,-31, ,
-18, ,-31, ,
-12, ,-31, ,
-5, ,-31, ,
0, ,-31, ,
12, ,-31, ,
20, ,-31, ,
24, ,-31, ,
30, ,-31, ,
38, ,-31, ,
39, ,-31, ,
45, ,-31, ,
47, ,-31, ,
49, ,-31, ,
51, ,-31, ,
51, ,-31, ,
50, ,-31, ,
47, ,-31, ,
44, ,-31, ,
41, ,-31, ,
36, ,-31, ,
29, ,-31, ,
25, ,-31, ,
17, ,-31, ,
11, ,-31, ,
-3, ,-31, ,
-13, ,-31, ,
-21, ,-31, ,
-31, ,-31, ,
-49, ,-31, ,
-57, ,-31, ,
-67, ,-31, ,
-77, ,-31, ,
-96, ,-31, ,
-105, ,-31, ,
-111, ,-31, ,
-122, ,-31, ,
-126, ,-31, ,
-126, ,-31, ,
-126, ,-31, ,
-126, ,-31, ,
-126, ,-31, ,
-126, ,-31, ,
