raw_data/100% Glycerol, Impulsion 2Hz, Sonde 5MHz, Rampe 0.7Hz/temp0000002.CSV

Format,1.0B,
Memory Length,10000,Memory Length,10000,
IntpDistance,0,IntpDistance,0,
Trigger Address,159,Trigger Address,159,
Trigger Level,2.720E-01,Trigger Level,2.720E-01,
Source,CH1,Source,CH2,
Vertical Units,V,Vertical Units,V,
Vertical Units Div,0,Vertical Units Div,0,
Vertical Units Extend Div,16,Vertical Units Extend Div,16,
Label,,Label,,
Probe Type,0,Probe Type,0,
Probe Ratio,1.000e+00,Probe Ratio,1.000e+00,
Vertical Scale,2.000e-01,Vertical Scale,2.000e+00,
Vertical Position,0.000e+00,Vertical Position,0.000e+00,
Horizontal Units,S,Horizontal Units,S,
Horizontal Scale,5.000E-06,Horizontal Scale,5.000E-06,
Horizontal Position,2.420E-05,Horizontal Position,2.420E-05,
Horizontal Mode,Main,Horizontal Mode,Main,
SincET Mode,Real Time,SincET Mode,Real Time,
Sampling Period,5.000e-09,Sampling Period,5.000e-09,
Horizontal Old Scale,5.000E-06,Horizontal Old Scale,5.000E-06,
Horizontal Old Position,2.420E-05,Horizontal Old Position,2.420E-05,
Firmware,V1.32,Firmware,V1.32,
Mode,Fast,Mode,Fast,
Waveform Data,,Waveform Data,,
2, ,40, ,
2, ,40, ,
2, ,40, ,
2, ,40, ,
2, ,40, ,
1, ,40, ,
2, ,40, ,
2, ,40, ,
2, ,41, ,
3, ,40, ,
2, ,40, ,
1, ,40, ,
3, ,40, ,
2, ,41, ,
2, ,40, ,
2, ,40, ,
1, ,40, ,
2, ,40, ,
2, ,40, ,
1, ,40, ,
1, ,40, ,
1, ,40, ,
2, ,40, ,
2, ,41, ,
1, ,40, ,
2, ,40, ,
2, ,41, ,
2, ,41, ,
2, ,40, ,
1, ,40, ,
1, ,40, ,
1, ,40, ,
1, ,40, ,
1, ,40, ,
2, ,41, ,
2, ,41, ,
2, ,41, ,
2, ,40, ,
1, ,40, ,
2, ,40, ,
1, ,41, ,
2, ,41, ,
1, ,41, ,
1, ,41, ,
2, ,41, ,
2, ,41, ,
3, ,40, ,
3, ,40, ,
2, ,40, ,
2, ,40, ,
2, ,41, ,
1, ,41, ,
2, ,41, ,
1, ,41, ,
1, ,41, ,
2, ,41, ,
1, ,40, ,
2, ,40, ,
2, ,40, ,
1, ,40, ,
2, ,40, ,
0, ,40, ,
2, ,40, ,
1, ,41, ,
0, ,41, ,
2, ,41, ,
2, ,40, ,
1, ,40, ,
2, ,41, ,
1, ,40, ,
1, ,40, ,
2, ,40, ,
2, ,41, ,
2, ,41, ,
2, ,41, ,
1, ,41, ,
1, ,40, ,
1, ,40, ,
2, ,40, ,
3, ,40, ,
1, ,40, ,
2, ,41, ,
2, ,40, ,
2, ,40, ,
3, ,40, ,
3, ,40, ,
3, ,40, ,
3, ,40, ,
2, ,40, ,
2, ,40, ,
1, ,40, ,
1, ,41, ,
2, ,40, ,
0, ,40, ,
2, ,40, ,
2, ,40, ,
2, ,40, ,
2, ,40, ,
2, ,40, ,
2, ,40, ,
3, ,41, ,
2, ,41, ,
1, ,41, ,
2, ,41, ,
2, ,40, ,
2, ,40, ,
2, ,40, ,
1, ,40, ,
2, ,40, ,
1, ,40, ,
1, ,40, ,
2, ,41, ,
1, ,40, ,
2, ,40, ,
1, ,41, ,
1, ,40, ,
1, ,40, ,
1, ,40, ,
2, ,40, ,
2, ,40, ,
2, ,40, ,
2, ,40, ,
2, ,40, ,
2, ,41, ,
2, ,40, ,
1, ,40, ,
1, ,40, ,
2, ,40, ,
1, ,40, ,
2, ,40, ,
2, ,40, ,
1, ,40, ,
3, ,41, ,
1, ,40, ,
1, ,40, ,
2, ,40, ,
2, ,41, ,
2, ,41, ,
2, ,41, ,
1, ,40, ,
2, ,40, ,
1, ,41, ,
2, ,41, ,
2, ,40, ,
1, ,40, ,
1, ,40, ,
2, ,41, ,
1, ,41, ,
2, ,41, ,
2, ,41, ,
1, ,41, ,
1, ,41, ,
1, ,41, ,
1, ,41, ,
2, ,41, ,
1, ,41, ,
2, ,40, ,
1, ,40, ,
2, ,40, ,
2, ,41, ,
1, ,40, ,
2, ,40, ,
2, ,40, ,
0, ,40, ,
-1, ,40, ,
-3, ,40, ,
-3, ,40, ,
13, ,41, ,
56, ,40, ,
125, ,40, ,
125, ,40, ,
125, ,41, ,
123, ,40, ,
118, ,40, ,
-21, ,40, ,
35, ,40, ,
125, ,40, ,
125, ,40, ,
125, ,40, ,
125, ,40, ,
125, ,40, ,
125, ,40, ,
125, ,40, ,
125, ,40, ,
125, ,40, ,
125, ,40, ,
125, ,41, ,
125, ,41, ,
125, ,40, ,
125, ,40, ,
125, ,40, ,
125, ,40, ,
125, ,40, ,
125, ,40, ,
125, ,40, ,
125, ,40, ,
125, ,41, ,
125, ,41, ,
125, ,41, ,
125, ,41, ,
125, ,40, ,
125, ,40, ,
124, ,40, ,
122, ,40, ,
119, ,40, ,
112, ,40, ,
104, ,40, ,
101, ,40, ,
94, ,41, ,
91, ,41, ,
85, ,41, ,
79, ,40, ,
76, ,40, ,
73, ,40, ,
66, ,40, ,
63, ,41, ,
59, ,41, ,
58, ,40, ,
53, ,40, ,
49, ,40, ,
48, ,40, ,
46, ,40, ,
41, ,40, ,
40, ,40, ,
38, ,40, ,
35, ,40, ,
35, ,40, ,
29, ,40, ,
29, ,41, ,
28, ,41, ,
24, ,41, ,
25, ,41, ,
22, ,40, ,
21, ,40, ,
19, ,41, ,
17, ,40, ,
17, ,40, ,
15, ,41, ,
14, ,40, ,
13, ,40, ,
12, ,40, ,
14, ,40, ,
10, ,40, ,
8, ,40, ,
8, ,40, ,
7, ,40, ,
6, ,40, ,
6, ,41, ,
5, ,40, ,
5, ,40, ,
4, ,40, ,
3, ,40, ,
4, ,40, ,
2, ,40, ,
2, ,40, ,
2, ,41, ,
1, ,40, ,
1, ,40, ,
0, ,40, ,
-1, ,40, ,
0, ,40, ,
-1, ,40, ,
-2, ,40, ,
-1, ,40, ,
-1, ,40, ,
-1, ,40, ,
-1, ,40, ,
-2, ,41, ,
-1, ,40, ,
-3, ,40, ,
-2, ,40, ,
-2, ,40, ,
-3, ,41, ,
-2, ,41, ,
-2, ,41, ,
-3, ,41, ,
-2, ,40, ,
-3, ,40, ,
-3, ,40, ,
-3, ,40, ,
-3, ,40, ,
-3, ,40, ,
-2, ,40, ,
-3, ,40, ,
-1, ,40, ,
-5, ,40, ,
-3, ,40, ,
-3, ,41, ,
-4, ,40, ,
-2, ,40, ,
-1, ,40, ,
-3, ,40, ,
-2, ,40, ,
-2, ,40, ,
-2, ,40, ,
-3, ,40, ,
-3, ,40, ,
-3, ,40, ,
-2, ,40, ,
-3, ,40, ,
-3, ,40, ,
-3, ,40, ,
-2, ,40, ,
-2, ,41, ,
-3, ,41, ,
-2, ,40, ,
-2, ,40, ,
-1, ,40, ,
-1, ,40, ,
-2, ,40, ,
-2, ,40, ,
-1, ,41, ,
-2, ,40, ,
-1, ,40, ,
-1, ,41, ,
-2, ,41, ,
-1, ,41, ,
-2, ,41, ,
-2, ,40, ,
0, ,40, ,
-1, ,40, ,
0, ,40, ,
-1, ,40, ,
-1, ,40, ,
0, ,40, ,
0, ,40, ,
-1, ,40, ,
-1, ,40, ,
-2, ,40, ,
0, ,40, ,
0, ,41, ,
0, ,41, ,
0, ,41, ,
-1, ,41, ,
0, ,40, ,
0, ,40, ,
0, ,40, ,
0, ,40, ,
0, ,41, ,
0, ,41, ,
0, ,40, ,
0, ,40, ,
0, ,40, ,
0, ,41, ,
0, ,40, ,
0, ,40, ,
0, ,41, ,
0, ,41, ,
0, ,40, ,
0, ,40, ,
0, ,40, ,
1, ,40, ,
-2, ,41, ,
1, ,41, ,
1, ,40, ,
-1, ,40, ,
0, ,40, ,
0, ,40, ,
0, ,40, ,
1, ,41, ,
0, ,40, ,
1, ,40, ,
1, ,41, ,
0, ,41, ,
2, ,40, ,
1, ,40, ,
0, ,40, ,
1, ,40, ,
1, ,40, ,
1, ,40, ,
1, ,40, ,
0, ,40, ,
1, ,41, ,
0, ,41, ,
0, ,41, ,
1, ,41, ,
1, ,40, ,
1, ,40, ,
1, ,40, ,
1, ,41, ,
1, ,41, ,
1, ,41, ,
1, ,40, ,
1, ,40, ,
0, ,40, ,
1, ,41, ,
2, ,41, ,
1, ,41, ,
1, ,40, ,
1, ,40, ,
0, ,40, ,
1, ,40, ,
1, ,40, ,
1, ,40, ,
1, ,40, ,
1, ,40, ,
2, ,40, ,
1, ,40, ,
1, ,40, ,
4, ,41, ,
0, ,41, ,
2, ,40, ,
2, ,40, ,
1, ,40, ,
2, ,40, ,
1, ,40, ,
0, ,40, ,
2, ,40, ,
1, ,41, ,
1, ,40, ,
2, ,40, ,
2, ,40, ,
1, ,40, ,
1, ,40, ,
2, ,40, ,
3, ,41, ,
0, ,41, ,
2, ,41, ,
2, ,41, ,
1, ,40, ,
2, ,40, ,
1, ,40, ,
0, ,40, ,
0, ,40, ,
0, ,41, ,
0, ,41, ,
1, ,41, ,
1, ,40, ,
2, ,40, ,
1, ,41, ,
1, ,41, ,
2, ,40, ,
1, ,40, ,
2, ,40, ,
2, ,40, ,
1, ,40, ,
1, ,40, ,
1, ,40, ,
1, ,40, ,
1, ,41, ,
0, ,41, ,
0, ,40, ,
0, ,40, ,
-1, ,40, ,
0, ,40, ,
-2, ,40, ,
0, ,41, ,
0, ,41, ,
0, ,40, ,
0, ,40, ,
0, ,40, ,
1, ,40, ,
2, ,40, ,
1, ,40, ,
1, ,40, ,
1, ,40, ,
1, ,40, ,
1, ,40, ,
2, ,40, ,
1, ,40, ,
1, ,41, ,
1, ,41, ,
0, ,40, ,
1, ,40, ,
1, ,40, ,
1, ,41, ,
1, ,41, ,
0, ,40, ,
2, ,40, ,
2, ,41, ,
1, ,41, ,
2, ,41, ,
2, ,41, ,
2, ,41, ,
2, ,41, ,
2, ,41, ,
2, ,41, ,
1, ,41, ,
1, ,41, ,
1, ,40, ,
0, ,40, ,
0, ,40, ,
-1, ,40, ,
-1, ,40, ,
0, ,40, ,
0, ,40, ,
0, ,40, ,
1, ,40, ,
0, ,40, ,
0, ,40, ,
1, ,41, ,
0, ,40, ,
2, ,40, ,
0, ,40, ,
1, ,40, ,
1, ,41, ,
1, ,40, ,
1, ,40, ,
0, ,40, ,
0, ,40, ,
0, ,40, ,
0, ,40, ,
0, ,40, ,
1, ,40, ,
1, ,40, ,
1, ,40, ,
1, ,40, ,
1, ,40, ,
1, ,40, ,
1, ,40, ,
1, ,40, ,
2, ,41, ,
1, ,41, ,
1, ,41, ,
0, ,40, ,
0, ,40, ,
0, ,40, ,
-1, ,40, ,
-3, ,40, ,
-3, ,40, ,
-4, ,40, ,
-4, ,40, ,
-5, ,40, ,
-5, ,41, ,
-5, ,40, ,
-6, ,40, ,
-7, ,40, ,
-6, ,40, ,
-7, ,40, ,
-7, ,40, ,
-6, ,41, ,
-8, ,41, ,
-8, ,41, ,
-10, ,41, ,
-13, ,40, ,
-13, ,40, ,
-16, ,41, ,
-17, ,41, ,
-21, ,41, ,
-23, ,40, ,
-25, ,40, ,
-28, ,40, ,
-30, ,40, ,
-31, ,40, ,
-31, ,40, ,
-31, ,40, ,
-31, ,40, ,
-30, ,40, ,
-29, ,41, ,
-29, ,40, ,
-28, ,40, ,
-27, ,40, ,
-28, ,40, ,
-28, ,40, ,
-30, ,40, ,
-31, ,40, ,
-33, ,40, ,
-33, ,40, ,
-34, ,40, ,
-34, ,40, ,
-33, ,40, ,
-34, ,40, ,
-30, ,40, ,
-29, ,40, ,
-26, ,40, ,
-23, ,40, ,
-19, ,40, ,
-15, ,41, ,
-12, ,40, ,
-11, ,40, ,
-7, ,40, ,
-5, ,40, ,
-5, ,40, ,
-5, ,41, ,
-5, ,40, ,
-6, ,40, ,
-7, ,40, ,
-7, ,40, ,
-7, ,40, ,
-7, ,40, ,
-7, ,40, ,
-7, ,40, ,
-5, ,40, ,
-2, ,40, ,
-1, ,40, ,
-1, ,40, ,
1, ,40, ,
3, ,40, ,
4, ,40, ,
4, ,40, ,
4, ,41, ,
4, ,40, ,
2, ,40, ,
2, ,40, ,
-1, ,40, ,
-3, ,40, ,
-4, ,40, ,
-6, ,41, ,
-8, ,41, ,
-10, ,41, ,
-10, ,40, ,
-11, ,40, ,
-12, ,40, ,
-11, ,40, ,
-11, ,40, ,
-12, ,40, ,
-12, ,40, ,
-12, ,41, ,
-12, ,41, ,
-12, ,41, ,
-14, ,41, ,
-18, ,41, ,
-18, ,40, ,
-20, ,40, ,
-25, ,40, ,
-24, ,40, ,
-27, ,40, ,
-27, ,40, ,
-27, ,40, ,
-28, ,41, ,
-27, ,40, ,
-29, ,40, ,
-27, ,40, ,
-27, ,40, ,
-26, ,40, ,
-26, ,40, ,
-27, ,40, ,
-28, ,40, ,
-28, ,41, ,
-29, ,41, ,
-31, ,41, ,
-31, ,41, ,
-31, ,40, ,
-32, ,40, ,
-32, ,40, ,
-33, ,41, ,
-33, ,41, ,
-33, ,41, ,
-33, ,40, ,
-32, ,40, ,
-32, ,40, ,
-32, ,40, ,
-32, ,40, ,
-32, ,40, ,
-30, ,40, ,
-30, ,40, ,
-28, ,40, ,
-27, ,40, ,
-25, ,40, ,
-25, ,40, ,
-25, ,41, ,
-26, ,41, ,
-26, ,41, ,
-28, ,41, ,
-30, ,40, ,
-30, ,40, ,
-32, ,40, ,
-33, ,41, ,
-35, ,41, ,
-35, ,41, ,
-34, ,41, ,
-34, ,41, ,
-32, ,40, ,
-31, ,40, ,
-32, ,40, ,
-29, ,40, ,
-28, ,41, ,
-30, ,40, ,
-30, ,40, ,
-31, ,41, ,
-32, ,40, ,
-32, ,40, ,
-34, ,40, ,
-34, ,40, ,
-34, ,40, ,
-34, ,40, ,
-34, ,41, ,
-34, ,40, ,
-32, ,40, ,
-30, ,40, ,
-30, ,40, ,
-29, ,40, ,
-26, ,40, ,
-27, ,40, ,
-26, ,40, ,
-26, ,41, ,
-26, ,40, ,
-25, ,40, ,
-26, ,41, ,
-24, ,41, ,
-23, ,40, ,
-24, ,40, ,
-21, ,40, ,
-21, ,40, ,
-19, ,40, ,
-17, ,40, ,
-17, ,40, ,
-15, ,40, ,
-14, ,41, ,
-13, ,41, ,
-12, ,41, ,
-13, ,41, ,
-10, ,41, ,
-8, ,40, ,
-8, ,40, ,
-5, ,40, ,
-4, ,41, ,
-4, ,41, ,
-2, ,41, ,
0, ,41, ,
0, ,41, ,
2, ,41, ,
2, ,40, ,
2, ,40, ,
3, ,41, ,
4, ,40, ,
3, ,40, ,
3, ,41, ,
5, ,41, ,
5, ,40, ,
5, ,40, ,
6, ,40, ,
8, ,40, ,
8, ,40, ,
8, ,40, ,
7, ,40, ,
7, ,40, ,
7, ,40, ,
6, ,40, ,
6, ,40, ,
5, ,40, ,
4, ,41, ,
4, ,40, ,
3, ,40, ,
2, ,40, ,
1, ,40, ,
0, ,40, ,
0, ,41, ,
0, ,40, ,
-1, ,40, ,
-1, ,40, ,
-2, ,40, ,
-4, ,40, ,
-2, ,40, ,
-3, ,40, ,
-3, ,40, ,
-5, ,41, ,
-7, ,41, ,
-7, ,40, ,
-8, ,40, ,
-9, ,40, ,
-8, ,40, ,
-11, ,40, ,
-11, ,40, ,
-11, ,40, ,
-13, ,40, ,
-13, ,40, ,
-14, ,40, ,
-14, ,40, ,
-14, ,40, ,
-15, ,40, ,
-15, ,40, ,
-16, ,40, ,
-17, ,40, ,
-16, ,40, ,
-18, ,40, ,
-19, ,40, ,
-18, ,40, ,
-20, ,40, ,
-19, ,40, ,
-21, ,40, ,
-24, ,40, ,
-23, ,41, ,
-26, ,41, ,
-29, ,40, ,
-29, ,40, ,
-30, ,40, ,
-31, ,40, ,
-32, ,40, ,
-33, ,40, ,
-32, ,40, ,
-34, ,40, ,
-32, ,40, ,
-32, ,40, ,
-32, ,40, ,
-32, ,41, ,
-33, ,40, ,
-33, ,40, ,
-33, ,40, ,
-32, ,40, ,
-32, ,40, ,
-30, ,40, ,
-29, ,40, ,
-28, ,40, ,
-24, ,40, ,
-24, ,40, ,
-21, ,40, ,
-20, ,40, ,
-16, ,41, ,
-13, ,40, ,
-11, ,40, ,
-9, ,40, ,
-5, ,40, ,
-5, ,40, ,
-1, ,40, ,
-1, ,40, ,
-1, ,40, ,
1, ,40, ,
1, ,40, ,
4, ,40, ,
5, ,40, ,
5, ,41, ,
5, ,40, ,
5, ,40, ,
6, ,40, ,
7, ,40, ,
6, ,40, ,
7, ,40, ,
6, ,40, ,
5, ,40, ,
5, ,41, ,
5, ,40, ,
5, ,40, ,
6, ,40, ,
6, ,40, ,
6, ,40, ,
7, ,40, ,
6, ,41, ,
8, ,41, ,
8, ,41, ,
9, ,40, ,
9, ,40, ,
8, ,40, ,
9, ,40, ,
9, ,40, ,
8, ,40, ,
9, ,41, ,
8, ,40, ,
7, ,40, ,
6, ,40, ,
5, ,41, ,
6, ,40, ,
4, ,40, ,
4, ,40, ,
1, ,40, ,
0, ,40, ,
-1, ,40, ,
-1, ,40, ,
-4, ,40, ,
-5, ,41, ,
-8, ,41, ,
-11, ,41, ,
-10, ,41, ,
-12, ,40, ,
-14, ,40, ,
-14, ,40, ,
-15, ,40, ,
-14, ,40, ,
-15, ,40, ,
-16, ,41, ,
-15, ,41, ,
-15, ,41, ,
-16, ,40, ,
-15, ,40, ,
-16, ,40, ,
-14, ,41, ,
-15, ,40, ,
-15, ,40, ,
-14, ,40, ,
-14, ,40, ,
-15, ,40, ,
-14, ,40, ,
-15, ,41, ,
-14, ,40, ,
-14, ,40, ,
-15, ,40, ,
-15, ,40, ,
-16, ,40, ,
-16, ,41, ,
-17, ,41, ,
-17, ,40, ,
-17, ,40, ,
-18, ,40, ,
-20, ,40, ,
-20, ,40, ,
-20, ,40, ,
-21, ,40, ,
-23, ,41, ,
-23, ,41, ,
-23, ,40, ,
-23, ,40, ,
-25, ,40, ,
-25, ,40, ,
-25, ,40, ,
-25, ,40, ,
-25, ,40, ,
-25, ,41, ,
-24, ,40, ,
-24, ,40, ,
-25, ,40, ,
-24, ,40, ,
-25, ,40, ,
-25, ,40, ,
-24, ,40, ,
-23, ,40, ,
-22, ,40, ,
-22, ,40, ,
-21, ,40, ,
-20, ,40, ,
-20, ,40, ,
-19, ,40, ,
-17, ,40, ,
-17, ,40, ,
-15, ,40, ,
-15, ,40, ,
-15, ,40, ,
-14, ,40, ,
-14, ,41, ,
-15, ,41, ,
-13, ,41, ,
-14, ,40, ,
-13, ,40, ,
-13, ,40, ,
-15, ,40, ,
-13, ,40, ,
-15, ,40, ,
-14, ,40, ,
-15, ,41, ,
-16, ,40, ,
-15, ,40, ,
-16, ,40, ,
-17, ,40, ,
-17, ,41, ,
-18, ,40, ,
-19, ,40, ,
-19, ,40, ,
-19, ,40, ,
-19, ,40, ,
-18, ,41, ,
-17, ,41, ,
-17, ,40, ,
-17, ,40, ,
-15, ,41, ,
-15, ,40, ,
-15, ,40, ,
-14, ,41, ,
-12, ,41, ,
-12, ,41, ,
-11, ,40, ,
-12, ,40, ,
-10, ,40, ,
-9, ,40, ,
-10, ,40, ,
-8, ,40, ,
-9, ,40, ,
-8, ,40, ,
-8, ,40, ,
-7, ,40, ,
-7, ,41, ,
-7, ,40, ,
-7, ,40, ,
-8, ,40, ,
-8, ,40, ,
-8, ,40, ,
-7, ,41, ,
-8, ,41, ,
-8, ,40, ,
-8, ,40, ,
-8, ,40, ,
-8, ,40, ,
-5, ,40, ,
-6, ,40, ,
-4, ,40, ,
-5, ,40, ,
-4, ,40, ,
-2, ,40, ,
-3, ,41, ,
-1, ,41, ,
0, ,41, ,
0, ,41, ,
0, ,40, ,
0, ,40, ,
-2, ,40, ,
1, ,40, ,
0, ,40, ,
0, ,40, ,
0, ,40, ,
-2, ,40, ,
-1, ,40, ,
-3, ,40, ,
-3, ,40, ,
-3, ,40, ,
-5, ,40, ,
-5, ,40, ,
-5, ,41, ,
-8, ,40, ,
-7, ,40, ,
-8, ,40, ,
-10, ,40, ,
-9, ,40, ,
-9, ,40, ,
-9, ,40, ,
-9, ,40, ,
-9, ,40, ,
-9, ,40, ,
-9, ,41, ,
-8, ,41, ,
-9, ,41, ,
-9, ,40, ,
-8, ,40, ,
-8, ,40, ,
-10, ,40, ,
-8, ,40, ,
-9, ,40, ,
-8, ,40, ,
-7, ,40, ,
-7, ,40, ,
-7, ,41, ,
-7, ,41, ,
-7, ,40, ,
-7, ,40, ,
-7, ,40, ,
-8, ,41, ,
-8, ,41, ,
-8, ,41, ,
-8, ,40, ,
-8, ,40, ,
-10, ,40, ,
-9, ,40, ,
-8, ,40, ,
-8, ,40, ,
-8, ,40, ,
-7, ,40, ,
-7, ,40, ,
-5, ,41, ,
-6, ,41, ,
-5, ,40, ,
-6, ,40, ,
-4, ,40, ,
-3, ,40, ,
-4, ,40, ,
-4, ,41, ,
-3, ,40, ,
-3, ,40, ,
-3, ,40, ,
-3, ,40, ,
-3, ,40, ,
-1, ,40, ,
-2, ,41, ,
-1, ,40, ,
-1, ,40, ,
-2, ,40, ,
-1, ,40, ,
-4, ,41, ,
-3, ,41, ,
-3, ,41, ,
-3, ,41, ,
-3, ,40, ,
-4, ,40, ,
-4, ,40, ,
-4, ,41, ,
-4, ,41, ,
-5, ,40, ,
-5, ,40, ,
-5, ,40, ,
-4, ,40, ,
-2, ,40, ,
-4, ,40, ,
-3, ,40, ,
-3, ,40, ,
-3, ,40, ,
-2, ,40, ,
-3, ,40, ,
-2, ,40, ,
-3, ,40, ,
-4, ,40, ,
-3, ,41, ,
-3, ,40, ,
-2, ,40, ,
-2, ,40, ,
-2, ,40, ,
-2, ,40, ,
-2, ,40, ,
-2, ,40, ,
-1, ,40, ,
-2, ,41, ,
-2, ,41, ,
-1, ,40, ,
-3, ,40, ,
-3, ,40, ,
-3, ,41, ,
-4, ,41, ,
-3, ,40, ,
-4, ,40, ,
-4, ,40, ,
-2, ,40, ,
-2, ,41, ,
-2, ,41, ,
-2, ,41, ,
-1, ,41, ,
-1, ,41, ,
-2, ,41, ,
0, ,41, ,
0, ,40, ,
1, ,40, ,
2, ,40, ,
3, ,40, ,
3, ,40, ,
4, ,40, ,
4, ,40, ,
5, ,40, ,
6, ,40, ,
6, ,40, ,
6, ,40, ,
7, ,40, ,
6, ,40, ,
6, ,40, ,
6, ,41, ,
6, ,41, ,
6, ,41, ,
4, ,41, ,
4, ,40, ,
3, ,40, ,
2, ,40, ,
2, ,41, ,
0, ,41, ,
-1, ,41, ,
-1, ,41, ,
-2, ,41, ,
-1, ,41, ,
-2, ,41, ,
-3, ,41, ,
-2, ,41, ,
-4, ,41, ,
-5, ,41, ,
-5, ,41, ,
-5, ,41, ,
-5, ,41, ,
-6, ,40, ,
-7, ,40, ,
-7, ,41, ,
-8, ,41, ,
-8, ,41, ,
-8, ,41, ,
-8, ,40, ,
-8, ,40, ,
-7, ,40, ,
-7, ,41, ,
-7, ,40, ,
-8, ,40, ,
-6, ,40, ,
-6, ,40, ,
-7, ,40, ,
-5, ,40, ,
-4, ,40, ,
-4, ,40, ,
-4, ,40, ,
-2, ,40, ,
-2, ,40, ,
-1, ,40, ,
2, ,40, ,
3, ,40, ,
4, ,40, ,
6, ,40, ,
8, ,40, ,
8, ,41, ,
10, ,40, ,
11, ,40, ,
11, ,40, ,
12, ,40, ,
15, ,40, ,
15, ,41, ,
15, ,40, ,
16, ,40, ,
16, ,40, ,
16, ,40, ,
16, ,40, ,
16, ,40, ,
16, ,40, ,
16, ,40, ,
16, ,40, ,
15, ,40, ,
14, ,41, ,
14, ,41, ,
12, ,41, ,
12, ,41, ,
10, ,41, ,
10, ,41, ,
10, ,40, ,
8, ,40, ,
6, ,40, ,
6, ,40, ,
5, ,40, ,
5, ,40, ,
2, ,40, ,
2, ,41, ,
2, ,41, ,
1, ,41, ,
0, ,41, ,
0, ,41, ,
-2, ,41, ,
-2, ,40, ,
-3, ,40, ,
-3, ,40, ,
-3, ,41, ,
-4, ,41, ,
-5, ,41, ,
-4, ,41, ,
-5, ,41, ,
-5, ,41, ,
-5, ,41, ,
-5, ,41, ,
-4, ,40, ,
-5, ,40, ,
-4, ,40, ,
-4, ,41, ,
-4, ,40, ,
-3, ,40, ,
-3, ,40, ,
-5, ,40, ,
-5, ,40, ,
-5, ,40, ,
-5, ,40, ,
-5, ,41, ,
-5, ,40, ,
-4, ,40, ,
-6, ,40, ,
-6, ,40, ,
-5, ,41, ,
-5, ,41, ,
-5, ,41, ,
-5, ,40, ,
-6, ,40, ,
-6, ,40, ,
-6, ,40, ,
-7, ,40, ,
-7, ,41, ,
-7, ,40, ,
-7, ,40, ,
-7, ,40, ,
-7, ,40, ,
-7, ,40, ,
-7, ,40, ,
-8, ,40, ,
-8, ,40, ,
-8, ,40, ,
-7, ,40, ,
-7, ,40, ,
-7, ,40, ,
-6, ,40, ,
-6, ,40, ,
-7, ,40, ,
-6, ,41, ,
-7, ,41, ,
-7, ,40, ,
-7, ,40, ,
-8, ,40, ,
-8, ,40, ,
-7, ,40, ,
-7, ,40, ,
-7, ,40, ,
-7, ,41, ,
-7, ,40, ,
-7, ,40, ,
-7, ,40, ,
-6, ,40, ,
-6, ,40, ,
-7, ,40, ,
-6, ,40, ,
-6, ,40, ,
-7, ,40, ,
-6, ,40, ,
-7, ,41, ,
-6, ,40, ,
-6, ,40, ,
-7, ,40, ,
-7, ,40, ,
-7, ,40, ,
-7, ,41, ,
-6, ,41, ,
-7, ,40, ,
-7, ,40, ,
-6, ,40, ,
-9, ,40, ,
-7, ,40, ,
-7, ,40, ,
-7, ,40, ,
-7, ,40, ,
-7, ,40, ,
-7, ,40, ,
-7, ,40, ,
-7, ,40, ,
-7, ,40, ,
-8, ,40, ,
-5, ,40, ,
-5, ,40, ,
-5, ,41, ,
-5, ,40, ,
-5, ,40, ,
-5, ,40, ,
-4, ,41, ,
-5, ,41, ,
-5, ,40, ,
-3, ,40, ,
-3, ,40, ,
-2, ,40, ,
-2, ,40, ,
-2, ,40, ,
-2, ,40, ,
-2, ,40, ,
-2, ,41, ,
0, ,41, ,
-1, ,40, ,
0, ,40, ,
-2, ,40, ,
-1, ,40, ,
-1, ,40, ,
-2, ,40, ,
-1, ,40, ,
-1, ,40, ,
-2, ,41, ,
-2, ,41, ,
-1, ,40, ,
-2, ,40, ,
0, ,40, ,
0, ,40, ,
-1, ,40, ,
-1, ,40, ,
-1, ,41, ,
0, ,40, ,
-1, ,40, ,
-2, ,40, ,
0, ,40, ,
0, ,40, ,
-2, ,40, ,
0, ,40, ,
-1, ,40, ,
0, ,40, ,
0, ,40, ,
0, ,41, ,
0, ,40, ,
0, ,40, ,
0, ,40, ,
0, ,40, ,
-1, ,40, ,
0, ,41, ,
0, ,40, ,
-1, ,40, ,
-1, ,40, ,
-2, ,40, ,
-3, ,40, ,
-1, ,40, ,
-2, ,40, ,
-2, ,40, ,
-3, ,40, ,
-3, ,41, ,
-2, ,40, ,
-3, ,40, ,
-3, ,40, ,
-3, ,40, ,
-4, ,40, ,
-2, ,40, ,
-2, ,41, ,
-3, ,41, ,
-3, ,41, ,
-4, ,41, ,
-4, ,40, ,
-2, ,40, ,
-3, ,40, ,
-2, ,40, ,
-1, ,40, ,
-2, ,40, ,
-2, ,40, ,
-2, ,40, ,
-2, ,40, ,
-1, ,40, ,
-2, ,40, ,
-1, ,40, ,
-2, ,40, ,
-2, ,40, ,
-1, ,40, ,
-2, ,40, ,
-2, ,40, ,
-2, ,40, ,
-2, ,40, ,
-2, ,40, ,
-2, ,40, ,
-3, ,40, ,
-3, ,40, ,
-3, ,40, ,
-2, ,40, ,
-2, ,40, ,
-3, ,41, ,
-3, ,40, ,
-2, ,40, ,
-3, ,40, ,
-2, ,40, ,
-2, ,40, ,
-3, ,40, ,
-1, ,40, ,
-1, ,40, ,
-1, ,40, ,
0, ,40, ,
-1, ,41, ,
0, ,40, ,
0, ,40, ,
0, ,41, ,
0, ,41, ,
-1, ,40, ,
1, ,40, ,
2, ,41, ,
1, ,40, ,
2, ,40, ,
1, ,40, ,
1, ,40, ,
1, ,40, ,
1, ,40, ,
3, ,40, ,
3, ,40, ,
1, ,40, ,
3, ,40, ,
3, ,40, ,
3, ,40, ,
4, ,40, ,
3, ,40, ,
4, ,40, ,
5, ,41, ,
5, ,41, ,
6, ,40, ,
6, ,40, ,
6, ,40, ,
8, ,40, ,
8, ,40, ,
8, ,40, ,
10, ,40, ,
10, ,40, ,
10, ,40, ,
10, ,40, ,
11, ,40, ,
11, ,40, ,
11, ,41, ,
11, ,40, ,
11, ,40, ,
10, ,40, ,
10, ,40, ,
9, ,40, ,
8, ,40, ,
10, ,41, ,
6, ,40, ,
6, ,40, ,
6, ,40, ,
4, ,40, ,
4, ,40, ,
2, ,40, ,
1, ,41, ,
1, ,41, ,
-1, ,40, ,
-1, ,40, ,
-4, ,40, ,
-5, ,40, ,
-4, ,40, ,
-7, ,40, ,
-8, ,40, ,
-7, ,40, ,
-7, ,40, ,
-9, ,40, ,
-10, ,41, ,
-10, ,41, ,
-10, ,40, ,
-10, ,40, ,
-10, ,41, ,
-10, ,40, ,
-10, ,40, ,
-9, ,41, ,
-9, ,41, ,
-9, ,40, ,
-9, ,40, ,
-8, ,40, ,
-7, ,40, ,
-6, ,40, ,
-7, ,40, ,
-5, ,40, ,
-4, ,41, ,
-3, ,41, ,
-2, ,40, ,
-2, ,40, ,
-1, ,40, ,
0, ,40, ,
0, ,40, ,
1, ,40, ,
4, ,40, ,
3, ,40, ,
5, ,40, ,
5, ,40, ,
5, ,40, ,
8, ,40, ,
7, ,40, ,
7, ,40, ,
8, ,40, ,
8, ,40, ,
8, ,40, ,
8, ,40, ,
8, ,41, ,
9, ,41, ,
6, ,40, ,
7, ,40, ,
6, ,41, ,
5, ,41, ,
5, ,40, ,
4, ,40, ,
3, ,40, ,
2, ,40, ,
2, ,41, ,
1, ,41, ,
0, ,41, ,
-1, ,41, ,
-1, ,40, ,
-2, ,40, ,
-3, ,40, ,
-2, ,40, ,
-5, ,40, ,
-5, ,41, ,
-5, ,41, ,
-7, ,41, ,
-5, ,40, ,
-5, ,40, ,
-7, ,40, ,
-6, ,41, ,
-6, ,40, ,
-6, ,40, ,
-5, ,40, ,
-4, ,41, ,
-3, ,41, ,
-6, ,41, ,
-4, ,40, ,
-4, ,40, ,
-4, ,40, ,
-4, ,41, ,
-2, ,40, ,
-2, ,40, ,
-2, ,40, ,
-1, ,40, ,
-2, ,40, ,
0, ,40, ,
0, ,40, ,
0, ,40, ,
0, ,40, ,
0, ,40, ,
0, ,40, ,
0, ,40, ,
0, ,40, ,
0, ,40, ,
0, ,40, ,
0, ,40, ,
0, ,41, ,
0, ,41, ,
0, ,41, ,
0, ,41, ,
0, ,40, ,
0, ,40, ,
0, ,41, ,
1, ,40, ,
0, ,40, ,
0, ,40, ,
0, ,40, ,
0, ,40, ,
0, ,40, ,
1, ,40, ,
-2, ,40, ,
0, ,40, ,
0, ,40, ,
-1, ,40, ,
0, ,40, ,
0, ,41, ,
0, ,41, ,
0, ,41, ,
0, ,41, ,
0, ,41, ,
1, ,41, ,
0, ,40, ,
0, ,40, ,
-2, ,40, ,
-1, ,40, ,
-1, ,40, ,
-1, ,40, ,
-1, ,40, ,
0, ,40, ,
0, ,40, ,
0, ,40, ,
0, ,40, ,
-1, ,40, ,
0, ,40, ,
0, ,40, ,
0, ,40, ,
0, ,40, ,
-1, ,40, ,
0, ,40, ,
-1, ,41, ,
-1, ,41, ,
1, ,41, ,
0, ,40, ,
1, ,40, ,
0, ,41, ,
0, ,41, ,
0, ,41, ,
0, ,41, ,
0, ,41, ,
0, ,41, ,
0, ,40, ,
0, ,40, ,
1, ,41, ,
0, ,40, ,
1, ,40, ,
0, ,41, ,
1, ,41, ,
1, ,40, ,
1, ,40, ,
1, ,40, ,
1, ,40, ,
0, ,40, ,
2, ,41, ,
1, ,40, ,
0, ,40, ,
1, ,40, ,
-1, ,40, ,
2, ,40, ,
0, ,40, ,
0, ,40, ,
0, ,40, ,
0, ,41, ,
1, ,41, ,
1, ,40, ,
0, ,40, ,
1, ,40, ,
1, ,40, ,
0, ,40, ,
1, ,40, ,
0, ,40, ,
0, ,40, ,
0, ,40, ,
-1, ,40, ,
0, ,40, ,
0, ,40, ,
-1, ,40, ,
0, ,40, ,
-1, ,40, ,
-1, ,40, ,
0, ,40, ,
0, ,40, ,
1, ,40, ,
2, ,41, ,
0, ,41, ,
2, ,41, ,
1, ,41, ,
1, ,40, ,
2, ,40, ,
2, ,40, ,
3, ,41, ,
3, ,41, ,
3, ,41, ,
3, ,40, ,
4, ,40, ,
5, ,40, ,
4, ,41, ,
4, ,41, ,
4, ,40, ,
6, ,40, ,
5, ,40, ,
6, ,40, ,
5, ,40, ,
6, ,40, ,
6, ,41, ,
5, ,40, ,
5, ,40, ,
5, ,40, ,
6, ,40, ,
7, ,40, ,
5, ,40, ,
5, ,40, ,
5, ,40, ,
4, ,40, ,
5, ,40, ,
4, ,40, ,
4, ,40, ,
4, ,41, ,
3, ,40, ,
3, ,40, ,
3, ,40, ,
2, ,41, ,
3, ,41, ,
3, ,41, ,
1, ,40, ,
2, ,40, ,
1, ,40, ,
1, ,40, ,
2, ,41, ,
0, ,41, ,
1, ,41, ,
2, ,40, ,
0, ,40, ,
0, ,40, ,
1, ,40, ,
0, ,40, ,
0, ,40, ,
0, ,40, ,
0, ,40, ,
-1, ,40, ,
-1, ,40, ,
0, ,40, ,
-1, ,40, ,
-1, ,40, ,
0, ,40, ,
-2, ,40, ,
0, ,41, ,
-1, ,41, ,
-2, ,41, ,
-1, ,41, ,
-2, ,40, ,
-2, ,40, ,
-2, ,40, ,
-3, ,40, ,
-2, ,40, ,
-4, ,40, ,
-4, ,40, ,
-4, ,40, ,
-4, ,40, ,
-4, ,40, ,
-4, ,41, ,
-4, ,40, ,
-3, ,40, ,
-3, ,40, ,
-4, ,40, ,
-4, ,41, ,
-3, ,40, ,
-5, ,40, ,
-2, ,40, ,
-3, ,40, ,
-3, ,40, ,
-2, ,40, ,
-2, ,40, ,
-1, ,40, ,
-2, ,40, ,
-1, ,40, ,
-1, ,40, ,
-2, ,40, ,
0, ,40, ,
0, ,40, ,
-1, ,40, ,
-1, ,40, ,
-1, ,40, ,
-2, ,40, ,
0, ,40, ,
0, ,40, ,
0, ,40, ,
0, ,40, ,
0, ,41, ,
-1, ,41, ,
-1, ,41, ,
-1, ,40, ,
