raw_data/100% Glycerol, Impulsion 2Hz, Sonde 5MHz, Rampe 0.7Hz/temp0000173.CSV

Format,1.0B,
Memory Length,10000,Memory Length,10000,
IntpDistance,0,IntpDistance,0,
Trigger Address,159,Trigger Address,159,
Trigger Level,2.720E-01,Trigger Level,2.720E-01,
Source,CH1,Source,CH2,
Vertical Units,V,Vertical Units,V,
Vertical Units Div,0,Vertical Units Div,0,
Vertical Units Extend Div,16,Vertical Units Extend Div,16,
Label,,Label,,
Probe Type,0,Probe Type,0,
Probe Ratio,1.000e+00,Probe Ratio,1.000e+00,
Vertical Scale,2.000e-01,Vertical Scale,2.000e+00,
Vertical Position,0.000e+00,Vertical Position,0.000e+00,
Horizontal Units,S,Horizontal Units,S,
Horizontal Scale,5.000E-06,Horizontal Scale,5.000E-06,
Horizontal Position,2.420E-05,Horizontal Position,2.420E-05,
Horizontal Mode,Main,Horizontal Mode,Main,
SincET Mode,Real Time,SincET Mode,Real Time,
Sampling Period,5.000e-09,Sampling Period,5.000e-09,
Horizontal Old Scale,5.000E-06,Horizontal Old Scale,5.000E-06,
Horizontal Old Position,2.420E-05,Horizontal Old Position,2.420E-05,
Firmware,V1.32,Firmware,V1.32,
Mode,Fast,Mode,Fast,
Waveform Data,,Waveform Data,,
3, ,-22, ,
2, ,-22, ,
2, ,-22, ,
2, ,-22, ,
1, ,-22, ,
2, ,-22, ,
2, ,-22, ,
1, ,-22, ,
1, ,-22, ,
1, ,-22, ,
3, ,-22, ,
3, ,-22, ,
2, ,-22, ,
3, ,-22, ,
1, ,-22, ,
1, ,-22, ,
2, ,-22, ,
1, ,-22, ,
2, ,-22, ,
1, ,-22, ,
3, ,-22, ,
3, ,-22, ,
3, ,-22, ,
1, ,-22, ,
2, ,-22, ,
1, ,-22, ,
3, ,-22, ,
2, ,-22, ,
2, ,-22, ,
2, ,-22, ,
1, ,-22, ,
1, ,-22, ,
2, ,-22, ,
1, ,-22, ,
3, ,-22, ,
2, ,-22, ,
2, ,-22, ,
3, ,-22, ,
2, ,-22, ,
1, ,-22, ,
2, ,-22, ,
1, ,-22, ,
2, ,-22, ,
2, ,-22, ,
2, ,-22, ,
2, ,-22, ,
1, ,-22, ,
1, ,-22, ,
2, ,-22, ,
2, ,-22, ,
3, ,-22, ,
3, ,-22, ,
1, ,-22, ,
1, ,-22, ,
1, ,-22, ,
0, ,-22, ,
2, ,-22, ,
2, ,-22, ,
2, ,-22, ,
2, ,-22, ,
1, ,-22, ,
2, ,-22, ,
1, ,-22, ,
2, ,-22, ,
2, ,-22, ,
2, ,-22, ,
3, ,-22, ,
2, ,-22, ,
2, ,-22, ,
3, ,-22, ,
3, ,-22, ,
3, ,-22, ,
3, ,-22, ,
2, ,-22, ,
2, ,-22, ,
2, ,-22, ,
1, ,-22, ,
2, ,-22, ,
2, ,-22, ,
2, ,-22, ,
3, ,-22, ,
2, ,-22, ,
2, ,-22, ,
2, ,-22, ,
1, ,-22, ,
3, ,-22, ,
2, ,-22, ,
1, ,-22, ,
3, ,-22, ,
2, ,-22, ,
3, ,-22, ,
2, ,-22, ,
2, ,-22, ,
2, ,-22, ,
1, ,-22, ,
2, ,-22, ,
2, ,-22, ,
1, ,-22, ,
2, ,-22, ,
3, ,-22, ,
2, ,-22, ,
1, ,-22, ,
2, ,-22, ,
1, ,-22, ,
2, ,-22, ,
3, ,-22, ,
3, ,-22, ,
2, ,-22, ,
1, ,-22, ,
2, ,-22, ,
1, ,-22, ,
2, ,-22, ,
2, ,-22, ,
2, ,-22, ,
2, ,-22, ,
2, ,-22, ,
2, ,-22, ,
3, ,-22, ,
2, ,-22, ,
1, ,-22, ,
3, ,-22, ,
2, ,-22, ,
2, ,-22, ,
2, ,-22, ,
2, ,-22, ,
2, ,-22, ,
1, ,-22, ,
1, ,-22, ,
3, ,-22, ,
1, ,-22, ,
2, ,-22, ,
2, ,-22, ,
1, ,-22, ,
3, ,-22, ,
2, ,-22, ,
2, ,-22, ,
1, ,-22, ,
2, ,-22, ,
2, ,-22, ,
2, ,-22, ,
2, ,-22, ,
2, ,-22, ,
2, ,-22, ,
2, ,-22, ,
2, ,-22, ,
1, ,-22, ,
2, ,-22, ,
2, ,-22, ,
2, ,-22, ,
2, ,-22, ,
1, ,-22, ,
2, ,-22, ,
2, ,-22, ,
1, ,-22, ,
3, ,-22, ,
2, ,-22, ,
2, ,-22, ,
2, ,-22, ,
1, ,-22, ,
2, ,-22, ,
2, ,-22, ,
1, ,-22, ,
1, ,-22, ,
1, ,-22, ,
2, ,-22, ,
-1, ,-22, ,
3, ,-22, ,
5, ,-22, ,
44, ,-22, ,
114, ,-22, ,
125, ,-22, ,
125, ,-22, ,
124, ,-22, ,
119, ,-22, ,
92, ,-22, ,
11, ,-22, ,
125, ,-22, ,
125, ,-22, ,
125, ,-22, ,
125, ,-22, ,
125, ,-22, ,
125, ,-22, ,
125, ,-22, ,
125, ,-22, ,
125, ,-22, ,
125, ,-22, ,
125, ,-22, ,
125, ,-22, ,
125, ,-22, ,
125, ,-22, ,
125, ,-22, ,
125, ,-22, ,
125, ,-22, ,
125, ,-22, ,
125, ,-22, ,
125, ,-22, ,
125, ,-22, ,
125, ,-22, ,
125, ,-22, ,
125, ,-22, ,
125, ,-22, ,
125, ,-22, ,
125, ,-22, ,
124, ,-22, ,
118, ,-22, ,
115, ,-22, ,
108, ,-22, ,
101, ,-22, ,
97, ,-22, ,
92, ,-22, ,
89, ,-22, ,
82, ,-22, ,
78, ,-22, ,
74, ,-22, ,
70, ,-22, ,
63, ,-22, ,
62, ,-22, ,
58, ,-22, ,
56, ,-22, ,
51, ,-22, ,
49, ,-22, ,
48, ,-22, ,
44, ,-22, ,
39, ,-22, ,
38, ,-22, ,
35, ,-22, ,
35, ,-22, ,
33, ,-22, ,
29, ,-22, ,
29, ,-22, ,
27, ,-22, ,
23, ,-22, ,
24, ,-22, ,
21, ,-22, ,
20, ,-22, ,
18, ,-22, ,
17, ,-22, ,
17, ,-22, ,
15, ,-22, ,
13, ,-22, ,
12, ,-22, ,
11, ,-22, ,
11, ,-22, ,
10, ,-22, ,
8, ,-22, ,
8, ,-22, ,
7, ,-22, ,
6, ,-22, ,
7, ,-22, ,
5, ,-22, ,
5, ,-22, ,
4, ,-22, ,
3, ,-22, ,
3, ,-22, ,
3, ,-22, ,
2, ,-22, ,
1, ,-22, ,
0, ,-22, ,
0, ,-22, ,
0, ,-22, ,
0, ,-22, ,
0, ,-22, ,
-1, ,-22, ,
-1, ,-22, ,
0, ,-22, ,
-1, ,-22, ,
0, ,-22, ,
-1, ,-22, ,
-2, ,-22, ,
-1, ,-22, ,
-2, ,-22, ,
-2, ,-22, ,
-3, ,-22, ,
-3, ,-22, ,
-3, ,-22, ,
-2, ,-22, ,
-2, ,-22, ,
-2, ,-22, ,
-3, ,-22, ,
-3, ,-22, ,
-3, ,-22, ,
-4, ,-22, ,
-2, ,-22, ,
-3, ,-22, ,
-3, ,-22, ,
-3, ,-22, ,
-4, ,-22, ,
-3, ,-22, ,
-4, ,-22, ,
-4, ,-22, ,
-3, ,-22, ,
-2, ,-22, ,
-3, ,-22, ,
-2, ,-22, ,
-2, ,-22, ,
-3, ,-22, ,
-3, ,-22, ,
-3, ,-22, ,
-4, ,-22, ,
-3, ,-22, ,
-3, ,-22, ,
-3, ,-22, ,
-3, ,-22, ,
-1, ,-22, ,
-2, ,-22, ,
-2, ,-22, ,
-2, ,-22, ,
-2, ,-22, ,
-2, ,-22, ,
-2, ,-22, ,
-2, ,-22, ,
-2, ,-22, ,
-1, ,-22, ,
-1, ,-22, ,
-1, ,-22, ,
-1, ,-22, ,
-1, ,-22, ,
-1, ,-22, ,
-1, ,-22, ,
-1, ,-22, ,
0, ,-22, ,
0, ,-22, ,
0, ,-22, ,
-1, ,-22, ,
-1, ,-22, ,
-1, ,-22, ,
-1, ,-22, ,
-1, ,-22, ,
0, ,-22, ,
0, ,-22, ,
0, ,-22, ,
-1, ,-22, ,
-1, ,-22, ,
0, ,-22, ,
0, ,-22, ,
0, ,-22, ,
0, ,-22, ,
0, ,-22, ,
1, ,-22, ,
2, ,-22, ,
0, ,-22, ,
0, ,-22, ,
0, ,-22, ,
1, ,-22, ,
0, ,-22, ,
0, ,-22, ,
0, ,-22, ,
1, ,-22, ,
1, ,-22, ,
1, ,-22, ,
0, ,-22, ,
0, ,-22, ,
0, ,-22, ,
0, ,-22, ,
1, ,-22, ,
1, ,-22, ,
1, ,-22, ,
1, ,-22, ,
0, ,-22, ,
0, ,-22, ,
2, ,-22, ,
1, ,-22, ,
1, ,-22, ,
2, ,-22, ,
1, ,-22, ,
1, ,-22, ,
1, ,-22, ,
1, ,-22, ,
1, ,-22, ,
1, ,-22, ,
1, ,-22, ,
1, ,-22, ,
0, ,-22, ,
2, ,-22, ,
1, ,-22, ,
1, ,-22, ,
1, ,-22, ,
1, ,-22, ,
1, ,-22, ,
1, ,-22, ,
1, ,-22, ,
1, ,-22, ,
0, ,-22, ,
2, ,-22, ,
2, ,-22, ,
1, ,-22, ,
2, ,-22, ,
2, ,-22, ,
1, ,-22, ,
1, ,-22, ,
1, ,-22, ,
1, ,-22, ,
1, ,-22, ,
0, ,-22, ,
1, ,-22, ,
2, ,-22, ,
1, ,-22, ,
2, ,-22, ,
1, ,-22, ,
2, ,-22, ,
1, ,-22, ,
1, ,-22, ,
1, ,-22, ,
2, ,-22, ,
1, ,-22, ,
1, ,-22, ,
1, ,-22, ,
1, ,-22, ,
2, ,-22, ,
1, ,-22, ,
2, ,-22, ,
2, ,-22, ,
2, ,-22, ,
2, ,-22, ,
1, ,-22, ,
0, ,-22, ,
2, ,-22, ,
1, ,-22, ,
1, ,-22, ,
2, ,-22, ,
1, ,-22, ,
2, ,-22, ,
1, ,-22, ,
0, ,-22, ,
1, ,-22, ,
1, ,-22, ,
1, ,-22, ,
1, ,-22, ,
1, ,-22, ,
1, ,-22, ,
1, ,-22, ,
1, ,-22, ,
2, ,-22, ,
1, ,-22, ,
2, ,-22, ,
2, ,-22, ,
1, ,-22, ,
1, ,-22, ,
1, ,-22, ,
1, ,-22, ,
1, ,-22, ,
0, ,-22, ,
0, ,-22, ,
-1, ,-22, ,
-2, ,-22, ,
0, ,-22, ,
0, ,-22, ,
0, ,-22, ,
0, ,-22, ,
0, ,-22, ,
1, ,-22, ,
1, ,-22, ,
1, ,-22, ,
2, ,-22, ,
1, ,-22, ,
1, ,-22, ,
1, ,-22, ,
2, ,-22, ,
2, ,-22, ,
2, ,-22, ,
1, ,-22, ,
1, ,-22, ,
1, ,-22, ,
1, ,-22, ,
1, ,-22, ,
1, ,-22, ,
1, ,-22, ,
2, ,-22, ,
1, ,-22, ,
2, ,-22, ,
2, ,-22, ,
1, ,-22, ,
2, ,-22, ,
2, ,-22, ,
2, ,-22, ,
2, ,-22, ,
1, ,-22, ,
2, ,-22, ,
0, ,-22, ,
0, ,-22, ,
-1, ,-22, ,
-3, ,-22, ,
-4, ,-22, ,
-5, ,-22, ,
-7, ,-22, ,
-8, ,-22, ,
-9, ,-22, ,
-14, ,-22, ,
-13, ,-22, ,
-16, ,-22, ,
-20, ,-22, ,
-34, ,-22, ,
-43, ,-22, ,
-60, ,-22, ,
-84, ,-22, ,
-126, ,-22, ,
-126, ,-22, ,
-126, ,-22, ,
-126, ,-22, ,
-126, ,-22, ,
-126, ,-22, ,
-126, ,-22, ,
-126, ,-22, ,
-126, ,-22, ,
-126, ,-22, ,
-126, ,-22, ,
-126, ,-22, ,
-126, ,-22, ,
-126, ,-22, ,
-126, ,-22, ,
-126, ,-22, ,
-126, ,-22, ,
-126, ,-22, ,
-126, ,-22, ,
-126, ,-22, ,
-126, ,-22, ,
-126, ,-22, ,
-126, ,-22, ,
-126, ,-22, ,
-126, ,-22, ,
-126, ,-22, ,
-126, ,-22, ,
-126, ,-22, ,
-126, ,-22, ,
-126, ,-22, ,
-126, ,-22, ,
-125, ,-22, ,
-108, ,-22, ,
-120, ,-22, ,
-126, ,-22, ,
-126, ,-22, ,
-126, ,-22, ,
-126, ,-22, ,
-126, ,-22, ,
-126, ,-22, ,
-126, ,-22, ,
-124, ,-22, ,
-120, ,-22, ,
-115, ,-22, ,
-107, ,-22, ,
-103, ,-22, ,
-99, ,-22, ,
-96, ,-22, ,
-88, ,-22, ,
-84, ,-22, ,
-81, ,-22, ,
-77, ,-22, ,
-70, ,-22, ,
-68, ,-22, ,
-64, ,-22, ,
-61, ,-22, ,
-56, ,-22, ,
-53, ,-22, ,
-51, ,-22, ,
-49, ,-22, ,
-28, ,-22, ,
24, ,-22, ,
125, ,-22, ,
125, ,-22, ,
125, ,-22, ,
125, ,-22, ,
125, ,-22, ,
125, ,-22, ,
125, ,-22, ,
125, ,-22, ,
125, ,-22, ,
125, ,-22, ,
125, ,-22, ,
125, ,-22, ,
125, ,-22, ,
125, ,-22, ,
125, ,-22, ,
125, ,-22, ,
125, ,-22, ,
125, ,-22, ,
125, ,-22, ,
125, ,-22, ,
125, ,-22, ,
125, ,-22, ,
125, ,-22, ,
125, ,-22, ,
125, ,-22, ,
120, ,-22, ,
-17, ,-22, ,
-126, ,-22, ,
-126, ,-22, ,
-126, ,-22, ,
-126, ,-22, ,
-126, ,-22, ,
-126, ,-22, ,
-126, ,-22, ,
-126, ,-22, ,
-126, ,-22, ,
-126, ,-22, ,
-126, ,-22, ,
-126, ,-22, ,
-126, ,-22, ,
-126, ,-22, ,
-126, ,-22, ,
-126, ,-22, ,
-126, ,-22, ,
-126, ,-22, ,
-126, ,-22, ,
-126, ,-22, ,
-126, ,-22, ,
-126, ,-22, ,
-126, ,-22, ,
-126, ,-22, ,
-125, ,-22, ,
-120, ,-22, ,
-63, ,-22, ,
106, ,-22, ,
121, ,-22, ,
90, ,-22, ,
25, ,-22, ,
-73, ,-22, ,
-83, ,-22, ,
-78, ,-22, ,
-64, ,-22, ,
-37, ,-22, ,
-21, ,-22, ,
1, ,-22, ,
20, ,-22, ,
54, ,-22, ,
65, ,-22, ,
69, ,-22, ,
71, ,-22, ,
71, ,-22, ,
70, ,-22, ,
72, ,-22, ,
72, ,-22, ,
77, ,-22, ,
84, ,-22, ,
87, ,-22, ,
90, ,-22, ,
89, ,-22, ,
81, ,-22, ,
71, ,-22, ,
54, ,-22, ,
9, ,-22, ,
-18, ,-22, ,
-49, ,-22, ,
-79, ,-22, ,
-126, ,-22, ,
-126, ,-22, ,
-126, ,-22, ,
-126, ,-22, ,
-126, ,-22, ,
-126, ,-22, ,
-126, ,-22, ,
-126, ,-22, ,
-126, ,-22, ,
-121, ,-22, ,
-117, ,-22, ,
-111, ,-22, ,
-104, ,-22, ,
-98, ,-22, ,
-96, ,-22, ,
-92, ,-22, ,
-84, ,-22, ,
-82, ,-22, ,
-78, ,-22, ,
-74, ,-22, ,
-66, ,-22, ,
-66, ,-22, ,
-63, ,-22, ,
-59, ,-22, ,
-53, ,-22, ,
-52, ,-22, ,
-46, ,-22, ,
-45, ,-22, ,
-35, ,-22, ,
-23, ,-22, ,
-3, ,-22, ,
26, ,-22, ,
64, ,-22, ,
70, ,-22, ,
72, ,-22, ,
76, ,-22, ,
87, ,-22, ,
96, ,-22, ,
104, ,-22, ,
106, ,-22, ,
113, ,-22, ,
114, ,-22, ,
115, ,-22, ,
113, ,-22, ,
108, ,-22, ,
104, ,-22, ,
97, ,-22, ,
92, ,-22, ,
79, ,-22, ,
73, ,-22, ,
68, ,-22, ,
64, ,-22, ,
57, ,-22, ,
57, ,-22, ,
54, ,-22, ,
53, ,-22, ,
51, ,-22, ,
49, ,-22, ,
48, ,-22, ,
46, ,-22, ,
43, ,-22, ,
43, ,-22, ,
42, ,-22, ,
42, ,-22, ,
43, ,-22, ,
44, ,-22, ,
46, ,-22, ,
50, ,-22, ,
57, ,-22, ,
65, ,-22, ,
72, ,-22, ,
78, ,-22, ,
94, ,-22, ,
99, ,-22, ,
106, ,-22, ,
109, ,-22, ,
121, ,-22, ,
125, ,-22, ,
125, ,-22, ,
125, ,-22, ,
125, ,-22, ,
125, ,-22, ,
125, ,-22, ,
125, ,-22, ,
125, ,-22, ,
125, ,-22, ,
125, ,-22, ,
125, ,-22, ,
125, ,-22, ,
125, ,-22, ,
125, ,-22, ,
125, ,-22, ,
125, ,-22, ,
125, ,-22, ,
125, ,-22, ,
125, ,-22, ,
124, ,-22, ,
122, ,-22, ,
115, ,-22, ,
107, ,-22, ,
88, ,-22, ,
78, ,-22, ,
69, ,-22, ,
60, ,-22, ,
41, ,-22, ,
34, ,-22, ,
26, ,-22, ,
17, ,-22, ,
4, ,-22, ,
-1, ,-22, ,
-8, ,-22, ,
-14, ,-22, ,
-24, ,-22, ,
-32, ,-22, ,
-36, ,-22, ,
-41, ,-22, ,
-52, ,-22, ,
-56, ,-22, ,
-61, ,-22, ,
-62, ,-22, ,
-69, ,-22, ,
-70, ,-22, ,
-70, ,-22, ,
-71, ,-22, ,
-68, ,-22, ,
-67, ,-22, ,
-66, ,-22, ,
-61, ,-22, ,
-54, ,-22, ,
-53, ,-22, ,
-49, ,-22, ,
-46, ,-22, ,
-39, ,-22, ,
-35, ,-22, ,
-34, ,-22, ,
-30, ,-22, ,
-23, ,-22, ,
-21, ,-22, ,
-14, ,-22, ,
-12, ,-22, ,
-5, ,-22, ,
2, ,-22, ,
5, ,-22, ,
10, ,-22, ,
19, ,-22, ,
24, ,-22, ,
31, ,-22, ,
33, ,-22, ,
42, ,-22, ,
49, ,-22, ,
52, ,-22, ,
57, ,-22, ,
65, ,-22, ,
67, ,-22, ,
71, ,-22, ,
71, ,-22, ,
74, ,-22, ,
76, ,-22, ,
76, ,-22, ,
76, ,-22, ,
76, ,-22, ,
74, ,-22, ,
75, ,-22, ,
74, ,-22, ,
72, ,-22, ,
73, ,-22, ,
73, ,-22, ,
73, ,-22, ,
72, ,-22, ,
73, ,-22, ,
73, ,-22, ,
72, ,-22, ,
73, ,-22, ,
74, ,-22, ,
74, ,-22, ,
74, ,-22, ,
72, ,-22, ,
71, ,-22, ,
71, ,-22, ,
70, ,-22, ,
69, ,-22, ,
71, ,-22, ,
71, ,-22, ,
70, ,-22, ,
70, ,-22, ,
68, ,-22, ,
69, ,-22, ,
67, ,-22, ,
64, ,-22, ,
64, ,-22, ,
61, ,-22, ,
59, ,-22, ,
53, ,-22, ,
49, ,-22, ,
46, ,-22, ,
41, ,-22, ,
34, ,-22, ,
31, ,-22, ,
25, ,-22, ,
23, ,-22, ,
16, ,-22, ,
11, ,-22, ,
8, ,-22, ,
4, ,-22, ,
-1, ,-22, ,
-2, ,-22, ,
-5, ,-22, ,
-6, ,-22, ,
-8, ,-22, ,
-9, ,-22, ,
-10, ,-22, ,
-10, ,-22, ,
-9, ,-22, ,
-7, ,-22, ,
-7, ,-22, ,
-4, ,-22, ,
-1, ,-22, ,
1, ,-22, ,
3, ,-22, ,
1, ,-22, ,
6, ,-22, ,
8, ,-22, ,
8, ,-22, ,
10, ,-22, ,
13, ,-22, ,
13, ,-22, ,
15, ,-22, ,
14, ,-22, ,
15, ,-22, ,
16, ,-22, ,
15, ,-22, ,
15, ,-22, ,
16, ,-22, ,
15, ,-22, ,
15, ,-22, ,
15, ,-22, ,
16, ,-22, ,
17, ,-22, ,
16, ,-22, ,
18, ,-22, ,
20, ,-22, ,
20, ,-22, ,
21, ,-22, ,
21, ,-22, ,
23, ,-22, ,
25, ,-22, ,
26, ,-22, ,
29, ,-22, ,
30, ,-22, ,
31, ,-22, ,
31, ,-22, ,
30, ,-22, ,
29, ,-22, ,
29, ,-22, ,
28, ,-22, ,
27, ,-22, ,
22, ,-22, ,
17, ,-22, ,
14, ,-22, ,
7, ,-22, ,
-6, ,-22, ,
-13, ,-22, ,
-23, ,-22, ,
-33, ,-22, ,
-56, ,-22, ,
-73, ,-22, ,
-88, ,-22, ,
-107, ,-22, ,
-126, ,-22, ,
-126, ,-22, ,
-126, ,-22, ,
-126, ,-22, ,
-126, ,-22, ,
-126, ,-22, ,
-126, ,-22, ,
-126, ,-22, ,
-126, ,-22, ,
-126, ,-22, ,
-126, ,-22, ,
-126, ,-22, ,
-126, ,-22, ,
-126, ,-22, ,
-126, ,-22, ,
-126, ,-22, ,
-126, ,-22, ,
-126, ,-22, ,
-126, ,-22, ,
-126, ,-22, ,
-126, ,-22, ,
-126, ,-22, ,
-126, ,-22, ,
-126, ,-22, ,
-126, ,-22, ,
-126, ,-22, ,
-126, ,-22, ,
-126, ,-22, ,
-126, ,-22, ,
-126, ,-22, ,
-126, ,-22, ,
-126, ,-22, ,
-123, ,-22, ,
-118, ,-22, ,
-113, ,-22, ,
-108, ,-22, ,
-100, ,-22, ,
-97, ,-22, ,
-91, ,-22, ,
-88, ,-22, ,
-81, ,-22, ,
-77, ,-22, ,
-75, ,-22, ,
-71, ,-22, ,
-61, ,-22, ,
-40, ,-22, ,
19, ,-22, ,
125, ,-22, ,
125, ,-22, ,
125, ,-22, ,
125, ,-22, ,
125, ,-22, ,
125, ,-22, ,
125, ,-22, ,
125, ,-22, ,
125, ,-22, ,
125, ,-22, ,
125, ,-22, ,
125, ,-22, ,
125, ,-22, ,
125, ,-22, ,
125, ,-22, ,
125, ,-22, ,
125, ,-22, ,
125, ,-22, ,
125, ,-22, ,
125, ,-22, ,
125, ,-22, ,
125, ,-22, ,
125, ,-22, ,
125, ,-22, ,
125, ,-22, ,
125, ,-22, ,
125, ,-22, ,
125, ,-22, ,
125, ,-22, ,
125, ,-22, ,
125, ,-22, ,
124, ,-22, ,
124, ,-22, ,
99, ,-22, ,
74, ,-22, ,
41, ,-22, ,
10, ,-22, ,
-52, ,-22, ,
-78, ,-22, ,
-97, ,-22, ,
-111, ,-22, ,
-126, ,-22, ,
-126, ,-22, ,
-126, ,-22, ,
-122, ,-22, ,
-106, ,-22, ,
-97, ,-22, ,
-85, ,-22, ,
-73, ,-22, ,
-47, ,-22, ,
-35, ,-22, ,
-24, ,-22, ,
-11, ,-22, ,
10, ,-22, ,
19, ,-22, ,
28, ,-22, ,
36, ,-22, ,
50, ,-22, ,
57, ,-22, ,
60, ,-22, ,
62, ,-22, ,
62, ,-22, ,
59, ,-22, ,
56, ,-22, ,
52, ,-22, ,
38, ,-22, ,
32, ,-22, ,
24, ,-22, ,
17, ,-22, ,
2, ,-22, ,
-7, ,-22, ,
-13, ,-22, ,
-20, ,-22, ,
-29, ,-22, ,
-32, ,-22, ,
-34, ,-22, ,
-35, ,-22, ,
-35, ,-22, ,
-38, ,-22, ,
-39, ,-22, ,
-41, ,-22, ,
-44, ,-22, ,
-44, ,-22, ,
-48, ,-22, ,
-49, ,-22, ,
-54, ,-22, ,
-58, ,-22, ,
-59, ,-22, ,
-64, ,-22, ,
-70, ,-22, ,
-73, ,-22, ,
-79, ,-22, ,
-78, ,-22, ,
-86, ,-22, ,
-89, ,-22, ,
-92, ,-22, ,
-95, ,-22, ,
-100, ,-22, ,
-102, ,-22, ,
-104, ,-22, ,
-105, ,-22, ,
-105, ,-22, ,
-105, ,-22, ,
-104, ,-22, ,
-103, ,-22, ,
-101, ,-22, ,
-96, ,-22, ,
-93, ,-22, ,
-91, ,-22, ,
-86, ,-22, ,
-83, ,-22, ,
-81, ,-22, ,
-78, ,-22, ,
-73, ,-22, ,
-69, ,-22, ,
-70, ,-22, ,
-67, ,-22, ,
-64, ,-22, ,
-63, ,-22, ,
-59, ,-22, ,
-60, ,-22, ,
-58, ,-22, ,
-54, ,-22, ,
-54, ,-22, ,
-52, ,-22, ,
-50, ,-22, ,
-51, ,-22, ,
-48, ,-22, ,
-49, ,-22, ,
-46, ,-22, ,
-44, ,-22, ,
-43, ,-22, ,
-43, ,-22, ,
-38, ,-22, ,
-37, ,-22, ,
-34, ,-22, ,
-33, ,-22, ,
-26, ,-22, ,
-23, ,-22, ,
-20, ,-22, ,
-17, ,-22, ,
-10, ,-22, ,
-9, ,-22, ,
-5, ,-22, ,
-4, ,-22, ,
1, ,-22, ,
4, ,-22, ,
3, ,-22, ,
5, ,-22, ,
6, ,-22, ,
6, ,-22, ,
7, ,-22, ,
6, ,-22, ,
5, ,-22, ,
7, ,-22, ,
5, ,-22, ,
5, ,-22, ,
5, ,-22, ,
2, ,-22, ,
1, ,-22, ,
0, ,-22, ,
-2, ,-22, ,
-3, ,-22, ,
-5, ,-22, ,
-6, ,-22, ,
-11, ,-22, ,
-12, ,-22, ,
-15, ,-22, ,
-17, ,-22, ,
-21, ,-22, ,
-22, ,-22, ,
-24, ,-22, ,
-26, ,-22, ,
-30, ,-22, ,
-32, ,-22, ,
-33, ,-22, ,
-35, ,-22, ,
-38, ,-22, ,
-38, ,-22, ,
-41, ,-22, ,
-42, ,-22, ,
-44, ,-22, ,
-47, ,-22, ,
-47, ,-22, ,
-47, ,-22, ,
-47, ,-22, ,
-47, ,-22, ,
-47, ,-22, ,
-46, ,-22, ,
-44, ,-22, ,
-44, ,-22, ,
-43, ,-22, ,
-43, ,-22, ,
-40, ,-22, ,
-39, ,-22, ,
-39, ,-22, ,
-36, ,-22, ,
-32, ,-22, ,
-32, ,-22, ,
-29, ,-22, ,
-29, ,-22, ,
-25, ,-22, ,
-24, ,-22, ,
-21, ,-22, ,
-21, ,-22, ,
-17, ,-22, ,
-17, ,-22, ,
-16, ,-22, ,
-17, ,-22, ,
-15, ,-22, ,
-15, ,-22, ,
-15, ,-22, ,
-15, ,-22, ,
-15, ,-22, ,
-15, ,-22, ,
-15, ,-22, ,
-15, ,-22, ,
-15, ,-22, ,
-15, ,-22, ,
-14, ,-22, ,
-14, ,-22, ,
-14, ,-22, ,
-14, ,-22, ,
-13, ,-22, ,
-13, ,-22, ,
-11, ,-22, ,
-10, ,-22, ,
-10, ,-22, ,
-9, ,-22, ,
-8, ,-22, ,
-9, ,-22, ,
-7, ,-22, ,
-7, ,-22, ,
-6, ,-22, ,
-5, ,-22, ,
-5, ,-22, ,
-4, ,-22, ,
-3, ,-22, ,
-2, ,-22, ,
-3, ,-22, ,
-4, ,-22, ,
-3, ,-22, ,
-4, ,-22, ,
-5, ,-22, ,
-5, ,-22, ,
-5, ,-22, ,
-9, ,-22, ,
-8, ,-22, ,
-8, ,-22, ,
-11, ,-22, ,
-13, ,-22, ,
-13, ,-22, ,
-15, ,-22, ,
-16, ,-22, ,
-17, ,-22, ,
-16, ,-22, ,
-18, ,-22, ,
-19, ,-22, ,
-18, ,-22, ,
-20, ,-22, ,
-20, ,-22, ,
-20, ,-22, ,
-20, ,-22, ,
-20, ,-22, ,
-20, ,-22, ,
-21, ,-22, ,
-20, ,-22, ,
-20, ,-22, ,
-20, ,-22, ,
-20, ,-22, ,
-20, ,-22, ,
-20, ,-22, ,
-20, ,-22, ,
-19, ,-22, ,
-18, ,-22, ,
-19, ,-22, ,
-18, ,-22, ,
-16, ,-22, ,
-17, ,-22, ,
-15, ,-22, ,
-15, ,-22, ,
-14, ,-22, ,
-13, ,-22, ,
-11, ,-22, ,
-9, ,-22, ,
-7, ,-22, ,
-5, ,-22, ,
-4, ,-22, ,
-4, ,-22, ,
2, ,-22, ,
4, ,-22, ,
6, ,-22, ,
9, ,-22, ,
14, ,-22, ,
14, ,-22, ,
18, ,-22, ,
19, ,-22, ,
23, ,-22, ,
26, ,-22, ,
29, ,-22, ,
31, ,-22, ,
35, ,-22, ,
35, ,-22, ,
39, ,-22, ,
39, ,-22, ,
44, ,-22, ,
46, ,-22, ,
47, ,-22, ,
52, ,-22, ,
56, ,-22, ,
59, ,-22, ,
64, ,-22, ,
65, ,-22, ,
73, ,-22, ,
80, ,-22, ,
82, ,-22, ,
90, ,-22, ,
100, ,-22, ,
105, ,-22, ,
113, ,-22, ,
118, ,-22, ,
125, ,-22, ,
125, ,-22, ,
125, ,-22, ,
125, ,-22, ,
125, ,-22, ,
125, ,-22, ,
125, ,-22, ,
125, ,-22, ,
125, ,-22, ,
125, ,-22, ,
125, ,-22, ,
125, ,-22, ,
125, ,-22, ,
125, ,-22, ,
125, ,-22, ,
125, ,-22, ,
125, ,-22, ,
125, ,-22, ,
125, ,-22, ,
125, ,-22, ,
125, ,-22, ,
125, ,-22, ,
125, ,-22, ,
125, ,-22, ,
125, ,-22, ,
125, ,-22, ,
125, ,-22, ,
125, ,-22, ,
125, ,-22, ,
124, ,-22, ,
124, ,-22, ,
120, ,-22, ,
97, ,-22, ,
81, ,-22, ,
60, ,-22, ,
40, ,-22, ,
-12, ,-22, ,
-41, ,-22, ,
-71, ,-22, ,
-101, ,-22, ,
-126, ,-22, ,
-126, ,-22, ,
-126, ,-22, ,
-126, ,-22, ,
-126, ,-22, ,
-126, ,-22, ,
-126, ,-22, ,
-126, ,-22, ,
-126, ,-22, ,
-126, ,-22, ,
-126, ,-22, ,
-126, ,-22, ,
-126, ,-22, ,
-126, ,-22, ,
-126, ,-22, ,
-126, ,-22, ,
-126, ,-22, ,
-126, ,-22, ,
-126, ,-22, ,
-126, ,-22, ,
-126, ,-22, ,
-126, ,-22, ,
-126, ,-22, ,
-126, ,-22, ,
-126, ,-22, ,
-126, ,-22, ,
-126, ,-22, ,
-126, ,-22, ,
-126, ,-22, ,
-126, ,-22, ,
-126, ,-22, ,
-126, ,-22, ,
-126, ,-22, ,
-126, ,-22, ,
-126, ,-22, ,
-126, ,-22, ,
-115, ,-22, ,
-112, ,-22, ,
-105, ,-22, ,
-104, ,-22, ,
-94, ,-22, ,
-90, ,-22, ,
-86, ,-22, ,
-81, ,-22, ,
-75, ,-22, ,
-71, ,-22, ,
-66, ,-22, ,
-65, ,-22, ,
-56, ,-22, ,
-51, ,-22, ,
-45, ,-22, ,
-32, ,-22, ,
39, ,-22, ,
75, ,-22, ,
97, ,-22, ,
101, ,-22, ,
86, ,-22, ,
81, ,-22, ,
79, ,-22, ,
80, ,-22, ,
79, ,-22, ,
74, ,-22, ,
74, ,-22, ,
73, ,-22, ,
74, ,-22, ,
78, ,-22, ,
80, ,-22, ,
84, ,-22, ,
91, ,-22, ,
97, ,-22, ,
102, ,-22, ,
105, ,-22, ,
117, ,-22, ,
123, ,-22, ,
125, ,-22, ,
125, ,-22, ,
125, ,-22, ,
125, ,-22, ,
125, ,-22, ,
125, ,-22, ,
125, ,-22, ,
125, ,-22, ,
125, ,-22, ,
125, ,-22, ,
125, ,-22, ,
124, ,-22, ,
124, ,-22, ,
122, ,-22, ,
113, ,-22, ,
110, ,-22, ,
103, ,-22, ,
100, ,-22, ,
91, ,-22, ,
86, ,-22, ,
81, ,-22, ,
77, ,-22, ,
71, ,-22, ,
68, ,-22, ,
64, ,-22, ,
63, ,-22, ,
56, ,-22, ,
53, ,-22, ,
51, ,-22, ,
48, ,-22, ,
42, ,-22, ,
41, ,-22, ,
38, ,-22, ,
37, ,-22, ,
34, ,-22, ,
29, ,-22, ,
31, ,-22, ,
25, ,-22, ,
21, ,-22, ,
20, ,-22, ,
17, ,-22, ,
17, ,-22, ,
16, ,-22, ,
15, ,-22, ,
15, ,-22, ,
15, ,-22, ,
16, ,-22, ,
18, ,-22, ,
18, ,-22, ,
21, ,-22, ,
23, ,-22, ,
25, ,-22, ,
28, ,-22, ,
30, ,-22, ,
32, ,-22, ,
35, ,-22, ,
35, ,-22, ,
36, ,-22, ,
38, ,-22, ,
37, ,-22, ,
38, ,-22, ,
36, ,-22, ,
35, ,-22, ,
36, ,-22, ,
33, ,-22, ,
34, ,-22, ,
30, ,-22, ,
25, ,-22, ,
24, ,-22, ,
21, ,-22, ,
14, ,-22, ,
12, ,-22, ,
9, ,-22, ,
7, ,-22, ,
0, ,-22, ,
-3, ,-22, ,
-5, ,-22, ,
-9, ,-22, ,
-14, ,-22, ,
-15, ,-22, ,
-20, ,-22, ,
-21, ,-22, ,
-23, ,-22, ,
-26, ,-22, ,
-26, ,-22, ,
-28, ,-22, ,
-31, ,-22, ,
-31, ,-22, ,
-32, ,-22, ,
-31, ,-22, ,
-33, ,-22, ,
-33, ,-22, ,
-33, ,-22, ,
-35, ,-22, ,
-35, ,-22, ,
-35, ,-22, ,
-36, ,-22, ,
-36, ,-22, ,
-37, ,-22, ,
-38, ,-22, ,
-39, ,-22, ,
-40, ,-22, ,
-42, ,-22, ,
-42, ,-22, ,
-44, ,-22, ,
-44, ,-22, ,
-45, ,-22, ,
-46, ,-22, ,
-46, ,-22, ,
-47, ,-22, ,
-47, ,-22, ,
-47, ,-22, ,
-48, ,-22, ,
-46, ,-22, ,
-45, ,-22, ,
-44, ,-22, ,
-44, ,-22, ,
-44, ,-22, ,
-41, ,-22, ,
-38, ,-22, ,
-38, ,-22, ,
-36, ,-22, ,
-32, ,-22, ,
-30, ,-22, ,
-28, ,-22, ,
-27, ,-22, ,
-22, ,-22, ,
-17, ,-22, ,
-15, ,-22, ,
-12, ,-22, ,
-7, ,-22, ,
-7, ,-22, ,
-2, ,-22, ,
-2, ,-22, ,
4, ,-22, ,
7, ,-22, ,
8, ,-22, ,
11, ,-22, ,
15, ,-22, ,
16, ,-22, ,
18, ,-22, ,
18, ,-22, ,
22, ,-22, ,
22, ,-22, ,
