raw_data/100% Glycerol, Impulsion 2Hz, Sonde 5MHz, Rampe 0.7Hz/temp0000358.CSV

Format,1.0B,
Memory Length,10000,Memory Length,10000,
IntpDistance,0,IntpDistance,0,
Trigger Address,159,Trigger Address,159,
Trigger Level,2.720E-01,Trigger Level,2.720E-01,
Source,CH1,Source,CH2,
Vertical Units,V,Vertical Units,V,
Vertical Units Div,0,Vertical Units Div,0,
Vertical Units Extend Div,16,Vertical Units Extend Div,16,
Label,,Label,,
Probe Type,0,Probe Type,0,
Probe Ratio,1.000e+00,Probe Ratio,1.000e+00,
Vertical Scale,2.000e-01,Vertical Scale,2.000e+00,
Vertical Position,0.000e+00,Vertical Position,0.000e+00,
Horizontal Units,S,Horizontal Units,S,
Horizontal Scale,5.000E-06,Horizontal Scale,5.000E-06,
Horizontal Position,2.420E-05,Horizontal Position,2.420E-05,
Horizontal Mode,Main,Horizontal Mode,Main,
SincET Mode,Real Time,SincET Mode,Real Time,
Sampling Period,5.000e-09,Sampling Period,5.000e-09,
Horizontal Old Scale,5.000E-06,Horizontal Old Scale,5.000E-06,
Horizontal Old Position,2.420E-05,Horizontal Old Position,2.420E-05,
Firmware,V1.32,Firmware,V1.32,
Mode,Fast,Mode,Fast,
Waveform Data,,Waveform Data,,
2, ,24, ,
2, ,24, ,
1, ,24, ,
1, ,24, ,
2, ,24, ,
0, ,24, ,
2, ,24, ,
2, ,24, ,
1, ,24, ,
2, ,24, ,
1, ,24, ,
1, ,24, ,
2, ,24, ,
2, ,24, ,
2, ,24, ,
2, ,24, ,
2, ,24, ,
2, ,24, ,
2, ,24, ,
2, ,24, ,
2, ,24, ,
1, ,24, ,
1, ,24, ,
1, ,24, ,
1, ,24, ,
1, ,24, ,
2, ,24, ,
1, ,24, ,
2, ,24, ,
1, ,24, ,
1, ,24, ,
2, ,24, ,
2, ,24, ,
2, ,24, ,
2, ,24, ,
1, ,24, ,
1, ,24, ,
1, ,24, ,
2, ,24, ,
1, ,24, ,
1, ,24, ,
1, ,24, ,
2, ,24, ,
1, ,24, ,
3, ,24, ,
2, ,24, ,
2, ,24, ,
2, ,24, ,
2, ,24, ,
2, ,24, ,
2, ,24, ,
2, ,24, ,
2, ,24, ,
1, ,24, ,
2, ,24, ,
1, ,24, ,
1, ,24, ,
2, ,24, ,
1, ,24, ,
1, ,24, ,
3, ,24, ,
3, ,24, ,
3, ,24, ,
2, ,24, ,
1, ,24, ,
2, ,24, ,
1, ,24, ,
2, ,24, ,
2, ,24, ,
1, ,24, ,
1, ,24, ,
2, ,24, ,
1, ,24, ,
1, ,24, ,
1, ,24, ,
1, ,24, ,
2, ,24, ,
1, ,24, ,
2, ,24, ,
2, ,24, ,
2, ,24, ,
2, ,24, ,
1, ,24, ,
3, ,24, ,
2, ,24, ,
2, ,24, ,
2, ,24, ,
2, ,24, ,
1, ,24, ,
3, ,24, ,
2, ,24, ,
0, ,24, ,
2, ,24, ,
2, ,24, ,
2, ,24, ,
2, ,24, ,
2, ,24, ,
2, ,24, ,
2, ,24, ,
2, ,24, ,
3, ,24, ,
2, ,24, ,
3, ,24, ,
2, ,24, ,
1, ,24, ,
2, ,24, ,
1, ,24, ,
1, ,24, ,
2, ,24, ,
1, ,24, ,
2, ,24, ,
3, ,24, ,
2, ,24, ,
1, ,24, ,
2, ,24, ,
2, ,24, ,
2, ,24, ,
1, ,24, ,
2, ,24, ,
2, ,24, ,
1, ,24, ,
2, ,24, ,
2, ,24, ,
2, ,24, ,
1, ,24, ,
2, ,24, ,
2, ,24, ,
2, ,24, ,
2, ,24, ,
2, ,24, ,
1, ,24, ,
1, ,24, ,
3, ,24, ,
2, ,24, ,
2, ,24, ,
2, ,24, ,
1, ,24, ,
2, ,24, ,
1, ,24, ,
1, ,24, ,
2, ,24, ,
2, ,24, ,
1, ,24, ,
2, ,24, ,
2, ,24, ,
2, ,24, ,
1, ,24, ,
1, ,24, ,
2, ,24, ,
1, ,24, ,
2, ,24, ,
2, ,24, ,
2, ,24, ,
3, ,24, ,
2, ,24, ,
2, ,24, ,
3, ,24, ,
2, ,24, ,
2, ,24, ,
2, ,24, ,
2, ,24, ,
2, ,24, ,
1, ,24, ,
2, ,24, ,
-1, ,24, ,
-2, ,24, ,
0, ,24, ,
18, ,24, ,
63, ,24, ,
125, ,24, ,
125, ,24, ,
125, ,24, ,
122, ,24, ,
117, ,24, ,
46, ,24, ,
47, ,24, ,
125, ,24, ,
125, ,24, ,
125, ,24, ,
125, ,24, ,
125, ,24, ,
125, ,24, ,
125, ,24, ,
125, ,24, ,
125, ,24, ,
125, ,24, ,
125, ,24, ,
125, ,24, ,
125, ,24, ,
125, ,24, ,
125, ,24, ,
125, ,24, ,
125, ,24, ,
125, ,24, ,
125, ,24, ,
125, ,24, ,
125, ,24, ,
125, ,24, ,
125, ,24, ,
125, ,24, ,
125, ,24, ,
125, ,24, ,
124, ,24, ,
121, ,24, ,
117, ,24, ,
113, ,24, ,
108, ,24, ,
100, ,24, ,
96, ,24, ,
92, ,24, ,
87, ,24, ,
78, ,24, ,
77, ,24, ,
72, ,24, ,
69, ,24, ,
64, ,24, ,
59, ,24, ,
59, ,24, ,
54, ,24, ,
49, ,24, ,
49, ,24, ,
44, ,24, ,
44, ,24, ,
39, ,24, ,
38, ,24, ,
36, ,24, ,
34, ,24, ,
32, ,24, ,
30, ,24, ,
29, ,24, ,
25, ,24, ,
24, ,24, ,
22, ,24, ,
20, ,24, ,
19, ,24, ,
16, ,24, ,
16, ,24, ,
15, ,24, ,
15, ,24, ,
12, ,24, ,
10, ,24, ,
10, ,24, ,
10, ,24, ,
10, ,24, ,
8, ,24, ,
6, ,24, ,
7, ,24, ,
6, ,24, ,
4, ,24, ,
4, ,24, ,
3, ,24, ,
2, ,24, ,
2, ,24, ,
2, ,24, ,
3, ,24, ,
1, ,24, ,
1, ,24, ,
1, ,24, ,
1, ,24, ,
0, ,24, ,
0, ,24, ,
0, ,24, ,
0, ,24, ,
-1, ,24, ,
-3, ,24, ,
-1, ,24, ,
-1, ,24, ,
-1, ,24, ,
-1, ,24, ,
-2, ,24, ,
-2, ,24, ,
-2, ,24, ,
-2, ,24, ,
-1, ,24, ,
-4, ,24, ,
-2, ,24, ,
-2, ,24, ,
-3, ,24, ,
-1, ,24, ,
-2, ,24, ,
-3, ,24, ,
-3, ,24, ,
-3, ,24, ,
-3, ,24, ,
-2, ,24, ,
-3, ,24, ,
-3, ,24, ,
-4, ,24, ,
-3, ,24, ,
-3, ,24, ,
-3, ,24, ,
-3, ,24, ,
-2, ,24, ,
-4, ,24, ,
-2, ,24, ,
-3, ,24, ,
-3, ,24, ,
-2, ,24, ,
-3, ,24, ,
-2, ,24, ,
-2, ,24, ,
-2, ,24, ,
-2, ,24, ,
-1, ,24, ,
-1, ,24, ,
-2, ,24, ,
-2, ,24, ,
-2, ,24, ,
-2, ,24, ,
-2, ,24, ,
-2, ,24, ,
-1, ,24, ,
-2, ,24, ,
-1, ,24, ,
-1, ,24, ,
-2, ,24, ,
-1, ,24, ,
-1, ,24, ,
-1, ,24, ,
-1, ,24, ,
0, ,24, ,
-1, ,24, ,
-2, ,24, ,
0, ,24, ,
0, ,24, ,
0, ,24, ,
0, ,24, ,
0, ,24, ,
0, ,24, ,
0, ,24, ,
0, ,24, ,
-1, ,24, ,
0, ,24, ,
0, ,24, ,
0, ,24, ,
0, ,24, ,
0, ,24, ,
0, ,24, ,
0, ,24, ,
0, ,24, ,
0, ,24, ,
0, ,24, ,
0, ,24, ,
0, ,24, ,
0, ,24, ,
1, ,24, ,
0, ,24, ,
0, ,24, ,
0, ,24, ,
1, ,24, ,
1, ,24, ,
1, ,24, ,
1, ,24, ,
0, ,24, ,
0, ,24, ,
1, ,24, ,
1, ,24, ,
0, ,24, ,
1, ,24, ,
1, ,24, ,
0, ,24, ,
1, ,24, ,
1, ,24, ,
1, ,24, ,
2, ,24, ,
1, ,24, ,
2, ,24, ,
1, ,24, ,
1, ,24, ,
2, ,24, ,
0, ,24, ,
1, ,24, ,
2, ,24, ,
1, ,24, ,
1, ,24, ,
1, ,24, ,
1, ,24, ,
1, ,24, ,
1, ,24, ,
0, ,24, ,
1, ,24, ,
1, ,24, ,
1, ,24, ,
2, ,24, ,
1, ,24, ,
2, ,24, ,
1, ,24, ,
1, ,24, ,
2, ,24, ,
0, ,24, ,
2, ,24, ,
2, ,24, ,
1, ,24, ,
2, ,24, ,
0, ,24, ,
1, ,24, ,
1, ,24, ,
1, ,24, ,
1, ,24, ,
3, ,24, ,
2, ,24, ,
2, ,24, ,
1, ,24, ,
1, ,24, ,
1, ,24, ,
0, ,24, ,
1, ,24, ,
2, ,24, ,
1, ,24, ,
2, ,24, ,
1, ,24, ,
0, ,24, ,
2, ,24, ,
1, ,24, ,
2, ,24, ,
3, ,24, ,
2, ,24, ,
2, ,24, ,
1, ,24, ,
1, ,24, ,
1, ,24, ,
1, ,24, ,
1, ,24, ,
1, ,24, ,
0, ,24, ,
1, ,24, ,
1, ,24, ,
1, ,24, ,
2, ,24, ,
1, ,24, ,
1, ,24, ,
2, ,24, ,
1, ,24, ,
2, ,24, ,
2, ,24, ,
1, ,24, ,
1, ,24, ,
1, ,24, ,
2, ,24, ,
0, ,24, ,
0, ,24, ,
0, ,24, ,
-1, ,24, ,
-1, ,24, ,
0, ,24, ,
-1, ,24, ,
0, ,24, ,
1, ,24, ,
0, ,24, ,
1, ,24, ,
0, ,24, ,
1, ,24, ,
2, ,24, ,
2, ,24, ,
2, ,24, ,
2, ,24, ,
2, ,24, ,
1, ,24, ,
2, ,24, ,
1, ,24, ,
2, ,24, ,
1, ,24, ,
2, ,24, ,
2, ,24, ,
1, ,24, ,
1, ,24, ,
1, ,24, ,
1, ,24, ,
1, ,24, ,
1, ,24, ,
2, ,24, ,
2, ,24, ,
1, ,24, ,
3, ,24, ,
2, ,24, ,
1, ,24, ,
2, ,24, ,
1, ,24, ,
1, ,24, ,
0, ,24, ,
0, ,24, ,
0, ,24, ,
0, ,24, ,
-1, ,24, ,
-1, ,24, ,
-2, ,24, ,
0, ,24, ,
0, ,24, ,
0, ,24, ,
1, ,24, ,
2, ,24, ,
3, ,24, ,
3, ,24, ,
2, ,24, ,
2, ,24, ,
3, ,24, ,
3, ,24, ,
4, ,24, ,
3, ,24, ,
2, ,24, ,
2, ,24, ,
1, ,24, ,
1, ,24, ,
1, ,24, ,
1, ,24, ,
2, ,24, ,
1, ,24, ,
2, ,24, ,
2, ,24, ,
1, ,24, ,
1, ,24, ,
2, ,24, ,
1, ,24, ,
1, ,24, ,
0, ,24, ,
-1, ,24, ,
-1, ,24, ,
-3, ,24, ,
-2, ,24, ,
-4, ,24, ,
-6, ,24, ,
-6, ,24, ,
-6, ,24, ,
-8, ,24, ,
-8, ,24, ,
-8, ,24, ,
-9, ,24, ,
-9, ,24, ,
-9, ,24, ,
-9, ,24, ,
-10, ,24, ,
-11, ,24, ,
-11, ,24, ,
-13, ,24, ,
-13, ,24, ,
-16, ,24, ,
-18, ,24, ,
-18, ,24, ,
-20, ,24, ,
-22, ,24, ,
-24, ,24, ,
-25, ,24, ,
-25, ,24, ,
-25, ,24, ,
-25, ,24, ,
-24, ,24, ,
-25, ,24, ,
-22, ,24, ,
-20, ,24, ,
-21, ,24, ,
-21, ,24, ,
-20, ,24, ,
-21, ,24, ,
-21, ,24, ,
-23, ,24, ,
-25, ,24, ,
-25, ,24, ,
-27, ,24, ,
-28, ,24, ,
-29, ,24, ,
-27, ,24, ,
-27, ,24, ,
-27, ,24, ,
-22, ,24, ,
-20, ,24, ,
-19, ,24, ,
-15, ,24, ,
-10, ,24, ,
-9, ,24, ,
-6, ,24, ,
-4, ,24, ,
-3, ,24, ,
-1, ,24, ,
-2, ,24, ,
-1, ,24, ,
-2, ,24, ,
-4, ,24, ,
-3, ,24, ,
-5, ,24, ,
-5, ,24, ,
-6, ,24, ,
-6, ,24, ,
-6, ,24, ,
-5, ,24, ,
-5, ,24, ,
-3, ,24, ,
-3, ,24, ,
-3, ,24, ,
-2, ,24, ,
-3, ,24, ,
-2, ,24, ,
-5, ,24, ,
-5, ,24, ,
-6, ,24, ,
-9, ,24, ,
-10, ,24, ,
-11, ,24, ,
-15, ,24, ,
-15, ,24, ,
-16, ,24, ,
-17, ,24, ,
-16, ,24, ,
-16, ,24, ,
-15, ,24, ,
-13, ,24, ,
-14, ,24, ,
-13, ,24, ,
-13, ,24, ,
-14, ,24, ,
-15, ,24, ,
-16, ,24, ,
-17, ,24, ,
-18, ,24, ,
-22, ,24, ,
-23, ,24, ,
-25, ,24, ,
-26, ,24, ,
-26, ,24, ,
-28, ,24, ,
-29, ,24, ,
-25, ,24, ,
-25, ,24, ,
-24, ,24, ,
-23, ,24, ,
-24, ,24, ,
-23, ,24, ,
-25, ,24, ,
-25, ,24, ,
-26, ,24, ,
-28, ,24, ,
-28, ,24, ,
-31, ,24, ,
-31, ,24, ,
-32, ,24, ,
-34, ,24, ,
-34, ,24, ,
-35, ,24, ,
-35, ,24, ,
-35, ,24, ,
-35, ,24, ,
-35, ,24, ,
-35, ,24, ,
-35, ,24, ,
-35, ,24, ,
-35, ,24, ,
-35, ,24, ,
-34, ,24, ,
-33, ,24, ,
-34, ,24, ,
-32, ,24, ,
-32, ,24, ,
-33, ,24, ,
-33, ,24, ,
-35, ,24, ,
-35, ,24, ,
-37, ,24, ,
-39, ,24, ,
-39, ,24, ,
-41, ,24, ,
-40, ,24, ,
-40, ,24, ,
-39, ,24, ,
-38, ,24, ,
-37, ,24, ,
-35, ,24, ,
-35, ,24, ,
-34, ,24, ,
-35, ,24, ,
-35, ,24, ,
-35, ,24, ,
-35, ,24, ,
-35, ,24, ,
-36, ,24, ,
-35, ,24, ,
-35, ,24, ,
-33, ,24, ,
-31, ,24, ,
-31, ,24, ,
-29, ,24, ,
-25, ,24, ,
-24, ,24, ,
-20, ,24, ,
-20, ,24, ,
-17, ,24, ,
-16, ,24, ,
-15, ,24, ,
-15, ,24, ,
-15, ,24, ,
-16, ,24, ,
-15, ,24, ,
-15, ,24, ,
-15, ,24, ,
-14, ,24, ,
-14, ,24, ,
-13, ,24, ,
-13, ,24, ,
-14, ,24, ,
-13, ,24, ,
-13, ,24, ,
-15, ,24, ,
-14, ,24, ,
-14, ,24, ,
-14, ,24, ,
-13, ,24, ,
-14, ,24, ,
-11, ,24, ,
-13, ,24, ,
-9, ,24, ,
-9, ,24, ,
-9, ,24, ,
-7, ,24, ,
-5, ,24, ,
-5, ,24, ,
-3, ,24, ,
-2, ,24, ,
-1, ,24, ,
2, ,24, ,
2, ,24, ,
4, ,24, ,
6, ,24, ,
6, ,24, ,
10, ,24, ,
9, ,24, ,
12, ,24, ,
12, ,24, ,
11, ,24, ,
11, ,24, ,
11, ,24, ,
9, ,24, ,
9, ,24, ,
7, ,24, ,
3, ,24, ,
4, ,24, ,
2, ,24, ,
0, ,24, ,
0, ,24, ,
-1, ,24, ,
-1, ,24, ,
-1, ,24, ,
-1, ,24, ,
-1, ,24, ,
-2, ,24, ,
0, ,24, ,
0, ,24, ,
0, ,24, ,
1, ,24, ,
2, ,24, ,
2, ,24, ,
5, ,24, ,
4, ,24, ,
5, ,24, ,
5, ,24, ,
5, ,24, ,
5, ,24, ,
4, ,24, ,
4, ,24, ,
3, ,24, ,
1, ,24, ,
1, ,24, ,
-1, ,24, ,
-3, ,24, ,
-4, ,24, ,
-6, ,24, ,
-10, ,24, ,
-10, ,24, ,
-11, ,24, ,
-11, ,24, ,
-15, ,24, ,
-15, ,24, ,
-17, ,24, ,
-18, ,24, ,
-19, ,24, ,
-20, ,24, ,
-22, ,24, ,
-22, ,24, ,
-23, ,24, ,
-25, ,24, ,
-24, ,24, ,
-25, ,24, ,
-25, ,24, ,
-25, ,24, ,
-25, ,24, ,
-25, ,24, ,
-25, ,24, ,
-25, ,24, ,
-25, ,24, ,
-26, ,24, ,
-27, ,24, ,
-26, ,24, ,
-27, ,24, ,
-27, ,24, ,
-28, ,24, ,
-28, ,24, ,
-27, ,24, ,
-27, ,24, ,
-25, ,24, ,
-25, ,24, ,
-24, ,24, ,
-22, ,24, ,
-20, ,24, ,
-19, ,24, ,
-18, ,24, ,
-17, ,24, ,
-14, ,24, ,
-14, ,24, ,
-12, ,24, ,
-11, ,24, ,
-9, ,24, ,
-10, ,24, ,
-8, ,24, ,
-6, ,24, ,
-5, ,24, ,
-3, ,24, ,
-2, ,24, ,
-1, ,24, ,
0, ,24, ,
0, ,24, ,
0, ,24, ,
-1, ,24, ,
0, ,24, ,
1, ,24, ,
0, ,24, ,
1, ,24, ,
1, ,24, ,
0, ,24, ,
1, ,24, ,
0, ,24, ,
1, ,24, ,
2, ,24, ,
2, ,24, ,
2, ,24, ,
3, ,24, ,
4, ,24, ,
3, ,24, ,
3, ,24, ,
3, ,24, ,
3, ,24, ,
2, ,24, ,
2, ,24, ,
2, ,24, ,
1, ,24, ,
2, ,24, ,
1, ,24, ,
1, ,24, ,
1, ,24, ,
0, ,24, ,
0, ,24, ,
-2, ,24, ,
-3, ,24, ,
-3, ,24, ,
-6, ,24, ,
-8, ,24, ,
-8, ,24, ,
-11, ,24, ,
-11, ,24, ,
-13, ,24, ,
-14, ,24, ,
-13, ,24, ,
-16, ,24, ,
-16, ,24, ,
-18, ,24, ,
-18, ,24, ,
-18, ,24, ,
-20, ,24, ,
-21, ,24, ,
-21, ,24, ,
-22, ,24, ,
-22, ,24, ,
-22, ,24, ,
-23, ,24, ,
-23, ,24, ,
-24, ,24, ,
-24, ,24, ,
-24, ,24, ,
-25, ,24, ,
-25, ,24, ,
-26, ,24, ,
-26, ,24, ,
-27, ,24, ,
-27, ,24, ,
-27, ,24, ,
-28, ,24, ,
-28, ,24, ,
-30, ,24, ,
-30, ,24, ,
-31, ,24, ,
-31, ,24, ,
-32, ,24, ,
-33, ,24, ,
-33, ,24, ,
-34, ,24, ,
-34, ,24, ,
-31, ,24, ,
-32, ,24, ,
-29, ,24, ,
-27, ,24, ,
-25, ,24, ,
-23, ,24, ,
-24, ,24, ,
-20, ,24, ,
-16, ,24, ,
-15, ,24, ,
-14, ,24, ,
-9, ,24, ,
-7, ,24, ,
-6, ,24, ,
-4, ,24, ,
-2, ,24, ,
1, ,24, ,
3, ,24, ,
3, ,24, ,
4, ,24, ,
3, ,24, ,
4, ,24, ,
3, ,24, ,
2, ,24, ,
2, ,24, ,
-2, ,24, ,
-2, ,24, ,
-5, ,24, ,
-7, ,24, ,
-8, ,24, ,
-10, ,24, ,
-11, ,24, ,
-12, ,24, ,
-13, ,24, ,
-15, ,24, ,
-15, ,24, ,
-15, ,24, ,
-15, ,24, ,
-16, ,24, ,
-15, ,24, ,
-16, ,24, ,
-15, ,24, ,
-16, ,24, ,
-14, ,24, ,
-15, ,24, ,
-12, ,24, ,
-12, ,24, ,
-11, ,24, ,
-12, ,24, ,
-10, ,24, ,
-10, ,24, ,
-9, ,24, ,
-8, ,24, ,
-8, ,24, ,
-10, ,24, ,
-9, ,24, ,
-8, ,24, ,
-10, ,24, ,
-10, ,24, ,
-10, ,24, ,
-12, ,24, ,
-11, ,24, ,
-11, ,24, ,
-12, ,24, ,
-10, ,24, ,
-11, ,24, ,
-11, ,24, ,
-11, ,24, ,
-11, ,24, ,
-11, ,24, ,
-11, ,24, ,
-10, ,24, ,
-10, ,24, ,
-10, ,24, ,
-9, ,24, ,
-8, ,24, ,
-8, ,24, ,
-7, ,24, ,
-8, ,24, ,
-5, ,24, ,
-5, ,24, ,
-5, ,24, ,
-4, ,24, ,
-4, ,24, ,
-4, ,24, ,
-4, ,24, ,
-5, ,24, ,
-3, ,24, ,
-3, ,24, ,
-4, ,24, ,
-4, ,24, ,
-4, ,24, ,
-4, ,24, ,
-5, ,24, ,
-5, ,24, ,
-5, ,24, ,
-5, ,24, ,
-6, ,24, ,
-7, ,24, ,
-6, ,24, ,
-7, ,24, ,
-6, ,24, ,
-8, ,24, ,
-8, ,24, ,
-8, ,24, ,
-9, ,24, ,
-8, ,24, ,
-8, ,24, ,
-8, ,24, ,
-8, ,24, ,
-8, ,24, ,
-9, ,24, ,
-8, ,24, ,
-9, ,24, ,
-9, ,24, ,
-9, ,24, ,
-9, ,24, ,
-9, ,24, ,
-9, ,24, ,
-10, ,24, ,
-10, ,24, ,
-11, ,24, ,
-9, ,24, ,
-10, ,24, ,
-10, ,24, ,
-9, ,24, ,
-9, ,24, ,
-10, ,24, ,
-9, ,24, ,
-8, ,24, ,
-8, ,24, ,
-8, ,24, ,
-8, ,24, ,
-8, ,24, ,
-9, ,24, ,
-8, ,24, ,
-8, ,24, ,
-8, ,24, ,
-8, ,24, ,
-7, ,24, ,
-8, ,24, ,
-6, ,24, ,
-7, ,24, ,
-5, ,24, ,
-5, ,24, ,
-5, ,24, ,
-4, ,24, ,
-4, ,24, ,
-4, ,24, ,
-4, ,24, ,
-4, ,24, ,
-3, ,24, ,
-3, ,24, ,
-3, ,24, ,
-2, ,24, ,
-1, ,24, ,
-1, ,24, ,
0, ,24, ,
0, ,24, ,
0, ,24, ,
1, ,24, ,
0, ,24, ,
0, ,24, ,
0, ,24, ,
0, ,24, ,
0, ,24, ,
0, ,24, ,
0, ,24, ,
0, ,24, ,
0, ,24, ,
0, ,24, ,
0, ,24, ,
0, ,24, ,
0, ,24, ,
0, ,24, ,
-2, ,24, ,
0, ,24, ,
-1, ,24, ,
-1, ,24, ,
-1, ,24, ,
-1, ,24, ,
-1, ,24, ,
-2, ,24, ,
-2, ,24, ,
-1, ,24, ,
-2, ,24, ,
-1, ,24, ,
-2, ,24, ,
-3, ,24, ,
-2, ,24, ,
-2, ,24, ,
-2, ,24, ,
-1, ,24, ,
-2, ,24, ,
-2, ,24, ,
-3, ,24, ,
-3, ,24, ,
-4, ,24, ,
-4, ,24, ,
-4, ,24, ,
-5, ,24, ,
-5, ,24, ,
-4, ,24, ,
-4, ,24, ,
-4, ,24, ,
-3, ,24, ,
-4, ,24, ,
-4, ,24, ,
-3, ,24, ,
-3, ,24, ,
-2, ,24, ,
-2, ,24, ,
-2, ,24, ,
-2, ,24, ,
-3, ,24, ,
-1, ,24, ,
0, ,24, ,
-1, ,24, ,
1, ,24, ,
2, ,24, ,
1, ,24, ,
3, ,24, ,
2, ,24, ,
4, ,24, ,
5, ,24, ,
6, ,24, ,
6, ,24, ,
7, ,24, ,
7, ,24, ,
7, ,24, ,
7, ,24, ,
7, ,24, ,
7, ,24, ,
6, ,24, ,
6, ,24, ,
6, ,24, ,
6, ,24, ,
6, ,24, ,
6, ,24, ,
5, ,24, ,
5, ,24, ,
5, ,24, ,
5, ,24, ,
4, ,24, ,
4, ,24, ,
3, ,24, ,
2, ,24, ,
1, ,24, ,
0, ,24, ,
0, ,24, ,
0, ,24, ,
-1, ,24, ,
-2, ,24, ,
-1, ,24, ,
-2, ,24, ,
-2, ,24, ,
-1, ,24, ,
-2, ,24, ,
-1, ,24, ,
-1, ,24, ,
-2, ,24, ,
-1, ,24, ,
-3, ,24, ,
-2, ,24, ,
-2, ,24, ,
-3, ,24, ,
-1, ,24, ,
-1, ,24, ,
-2, ,24, ,
0, ,24, ,
-2, ,24, ,
0, ,24, ,
0, ,24, ,
0, ,24, ,
1, ,24, ,
2, ,24, ,
1, ,24, ,
2, ,24, ,
0, ,24, ,
1, ,24, ,
1, ,24, ,
1, ,24, ,
1, ,24, ,
2, ,24, ,
1, ,24, ,
1, ,24, ,
1, ,24, ,
1, ,24, ,
2, ,24, ,
1, ,24, ,
0, ,24, ,
0, ,24, ,
1, ,24, ,
2, ,24, ,
0, ,24, ,
1, ,24, ,
1, ,24, ,
1, ,24, ,
1, ,24, ,
1, ,24, ,
1, ,24, ,
2, ,24, ,
2, ,24, ,
2, ,24, ,
3, ,24, ,
3, ,24, ,
4, ,24, ,
4, ,24, ,
4, ,24, ,
4, ,24, ,
3, ,24, ,
4, ,24, ,
5, ,24, ,
3, ,24, ,
4, ,24, ,
4, ,24, ,
3, ,24, ,
4, ,24, ,
3, ,24, ,
2, ,24, ,
3, ,24, ,
1, ,24, ,
2, ,24, ,
1, ,24, ,
0, ,24, ,
0, ,24, ,
-1, ,24, ,
-1, ,24, ,
-1, ,24, ,
-2, ,24, ,
-1, ,24, ,
-2, ,24, ,
-2, ,24, ,
-2, ,24, ,
-2, ,24, ,
-3, ,24, ,
-3, ,24, ,
-4, ,24, ,
-3, ,24, ,
-3, ,24, ,
-4, ,24, ,
-3, ,24, ,
-4, ,24, ,
-4, ,24, ,
-4, ,24, ,
-5, ,24, ,
-4, ,24, ,
-4, ,24, ,
-5, ,24, ,
-5, ,24, ,
-5, ,24, ,
-7, ,24, ,
-4, ,24, ,
-5, ,24, ,
-5, ,24, ,
-5, ,24, ,
-6, ,24, ,
-5, ,24, ,
-5, ,24, ,
-5, ,24, ,
-5, ,24, ,
-5, ,24, ,
-5, ,24, ,
-5, ,24, ,
-5, ,24, ,
-5, ,24, ,
-6, ,24, ,
-8, ,24, ,
-5, ,24, ,
-5, ,24, ,
-5, ,24, ,
-5, ,24, ,
-5, ,24, ,
-5, ,24, ,
-6, ,24, ,
-6, ,24, ,
-6, ,24, ,
-6, ,24, ,
-6, ,24, ,
-8, ,24, ,
-8, ,24, ,
-7, ,24, ,
-7, ,24, ,
-7, ,24, ,
-7, ,24, ,
-7, ,24, ,
-7, ,24, ,
-7, ,24, ,
-7, ,24, ,
-7, ,24, ,
-7, ,24, ,
-7, ,24, ,
-7, ,24, ,
-7, ,24, ,
-6, ,24, ,
-6, ,24, ,
-7, ,24, ,
-6, ,24, ,
-6, ,24, ,
-7, ,24, ,
-6, ,24, ,
-5, ,24, ,
-5, ,24, ,
-5, ,24, ,
-5, ,24, ,
-5, ,24, ,
-6, ,24, ,
-5, ,24, ,
-5, ,24, ,
-5, ,24, ,
-4, ,24, ,
-4, ,24, ,
-4, ,24, ,
-4, ,24, ,
-3, ,24, ,
-3, ,24, ,
-4, ,24, ,
-3, ,24, ,
-2, ,24, ,
-1, ,24, ,
-2, ,24, ,
-2, ,24, ,
-2, ,24, ,
-2, ,24, ,
-2, ,24, ,
-2, ,24, ,
-2, ,24, ,
-1, ,24, ,
-2, ,24, ,
-1, ,24, ,
-1, ,24, ,
0, ,24, ,
0, ,24, ,
-1, ,24, ,
0, ,24, ,
0, ,24, ,
0, ,24, ,
-1, ,24, ,
-2, ,24, ,
-1, ,24, ,
-1, ,24, ,
0, ,24, ,
0, ,24, ,
-1, ,24, ,
-2, ,24, ,
0, ,24, ,
0, ,24, ,
-1, ,24, ,
1, ,24, ,
0, ,24, ,
0, ,24, ,
0, ,24, ,
0, ,24, ,
0, ,24, ,
0, ,24, ,
0, ,24, ,
0, ,24, ,
0, ,24, ,
0, ,24, ,
0, ,24, ,
0, ,24, ,
0, ,24, ,
-1, ,24, ,
-2, ,24, ,
-1, ,24, ,
-1, ,24, ,
-1, ,24, ,
-1, ,24, ,
-1, ,24, ,
-2, ,24, ,
-2, ,24, ,
-1, ,24, ,
0, ,24, ,
-1, ,24, ,
-1, ,24, ,
0, ,24, ,
0, ,24, ,
0, ,24, ,
0, ,24, ,
0, ,24, ,
0, ,24, ,
-1, ,24, ,
0, ,24, ,
1, ,24, ,
1, ,24, ,
1, ,24, ,
0, ,24, ,
1, ,24, ,
1, ,24, ,
1, ,24, ,
1, ,24, ,
2, ,24, ,
1, ,24, ,
1, ,24, ,
1, ,24, ,
1, ,24, ,
1, ,24, ,
2, ,24, ,
1, ,24, ,
2, ,24, ,
1, ,24, ,
1, ,24, ,
0, ,24, ,
1, ,24, ,
2, ,24, ,
0, ,24, ,
0, ,24, ,
0, ,24, ,
0, ,24, ,
1, ,24, ,
-2, ,24, ,
-2, ,24, ,
-1, ,24, ,
-2, ,24, ,
-2, ,24, ,
-1, ,24, ,
-2, ,24, ,
-1, ,24, ,
-2, ,24, ,
-2, ,24, ,
-2, ,24, ,
-3, ,24, ,
-2, ,24, ,
-3, ,24, ,
-3, ,24, ,
-2, ,24, ,
-2, ,24, ,
-3, ,24, ,
-2, ,24, ,
-3, ,24, ,
-1, ,24, ,
-2, ,24, ,
-2, ,24, ,
-2, ,24, ,
-2, ,24, ,
-2, ,24, ,
-3, ,24, ,
-4, ,24, ,
-2, ,24, ,
-5, ,24, ,
-6, ,24, ,
-6, ,24, ,
-8, ,24, ,
-14, ,24, ,
-13, ,24, ,
-17, ,24, ,
-20, ,24, ,
-29, ,24, ,
-35, ,24, ,
-39, ,24, ,
-47, ,24, ,
-62, ,24, ,
-71, ,24, ,
-82, ,24, ,
-93, ,24, ,
-116, ,24, ,
-126, ,24, ,
-126, ,24, ,
-126, ,24, ,
-126, ,24, ,
-126, ,24, ,
-126, ,24, ,
-126, ,24, ,
-126, ,24, ,
-126, ,24, ,
-126, ,24, ,
-126, ,24, ,
-126, ,24, ,
-126, ,24, ,
-126, ,24, ,
-123, ,24, ,
-114, ,24, ,
-109, ,24, ,
-105, ,24, ,
-101, ,24, ,
-94, ,24, ,
-89, ,24, ,
-86, ,24, ,
-83, ,24, ,
-76, ,24, ,
-73, ,24, ,
-70, ,24, ,
-67, ,24, ,
-60, ,24, ,
-58, ,24, ,
-53, ,24, ,
-42, ,24, ,
57, ,24, ,
125, ,24, ,
125, ,24, ,
125, ,24, ,
125, ,24, ,
125, ,24, ,
125, ,24, ,
125, ,24, ,
125, ,24, ,
125, ,24, ,
125, ,24, ,
125, ,24, ,
125, ,24, ,
125, ,24, ,
125, ,24, ,
125, ,24, ,
125, ,24, ,
125, ,24, ,
125, ,24, ,
125, ,24, ,
125, ,24, ,
124, ,24, ,
123, ,24, ,
107, ,24, ,
75, ,24, ,
60, ,24, ,
50, ,24, ,
38, ,24, ,
24, ,24, ,
20, ,24, ,
14, ,24, ,
12, ,24, ,
10, ,24, ,
9, ,24, ,
11, ,24, ,
13, ,24, ,
16, ,24, ,
21, ,24, ,
22, ,24, ,
25, ,24, ,
28, ,24, ,
30, ,24, ,
31, ,24, ,
31, ,24, ,
31, ,24, ,
31, ,24, ,
29, ,24, ,
28, ,24, ,
23, ,24, ,
19, ,24, ,
15, ,24, ,
12, ,24, ,
4, ,24, ,
-1, ,24, ,
-6, ,24, ,
-10, ,24, ,
-19, ,24, ,
-23, ,24, ,
-25, ,24, ,
-28, ,24, ,
-32, ,24, ,
-34, ,24, ,
-35, ,24, ,
-34, ,24, ,
-33, ,24, ,
-32, ,24, ,
-27, ,24, ,
-26, ,24, ,
-17, ,24, ,
-10, ,24, ,
-4, ,24, ,
3, ,24, ,
18, ,24, ,
26, ,24, ,
35, ,24, ,
40, ,24, ,
55, ,24, ,
65, ,24, ,
69, ,24, ,
77, ,24, ,
89, ,24, ,
91, ,24, ,
96, ,24, ,
99, ,24, ,
101, ,24, ,
101, ,24, ,
99, ,24, ,
98, ,24, ,
91, ,24, ,
87, ,24, ,
83, ,24, ,
74, ,24, ,
59, ,24, ,
49, ,24, ,
38, ,24, ,
29, ,24, ,
6, ,24, ,
-8, ,24, ,
-20, ,24, ,
-33, ,24, ,
-60, ,24, ,
-72, ,24, ,
-86, ,24, ,
-100, ,24, ,
-121, ,24, ,
-126, ,24, ,
-126, ,24, ,
-126, ,24, ,
-126, ,24, ,
-126, ,24, ,
-126, ,24, ,
-126, ,24, ,
-126, ,24, ,
-126, ,24, ,
-126, ,24, ,
-126, ,24, ,
-126, ,24, ,
-126, ,24, ,
-126, ,24, ,
-126, ,24, ,
-126, ,24, ,
-126, ,24, ,
-126, ,24, ,
-126, ,24, ,
-126, ,24, ,
-126, ,24, ,
-126, ,24, ,
-126, ,24, ,
-126, ,24, ,
-126, ,24, ,
-126, ,24, ,
-126, ,24, ,
-126, ,24, ,
-126, ,24, ,
-126, ,24, ,
-126, ,24, ,
-122, ,24, ,
-117, ,24, ,
-115, ,24, ,
-113, ,24, ,
-108, ,24, ,
-106, ,24, ,
-106, ,24, ,
-103, ,24, ,
-101, ,24, ,
-100, ,24, ,
-98, ,24, ,
-98, ,24, ,
-94, ,24, ,
-91, ,24, ,
-88, ,24, ,
-87, ,24, ,
-81, ,24, ,
-79, ,24, ,
-74, ,24, ,
-72, ,24, ,
-64, ,24, ,
-61, ,24, ,
-57, ,24, ,
-53, ,24, ,
-43, ,24, ,
-39, ,24, ,
-34, ,24, ,
-29, ,24, ,
-20, ,24, ,
-15, ,24, ,
-9, ,24, ,
-5, ,24, ,
5, ,24, ,
7, ,24, ,
13, ,24, ,
16, ,24, ,
23, ,24, ,
27, ,24, ,
28, ,24, ,
32, ,24, ,
37, ,24, ,
37, ,24, ,
40, ,24, ,
40, ,24, ,
44, ,24, ,
46, ,24, ,
45, ,24, ,
48, ,24, ,
49, ,24, ,
49, ,24, ,
50, ,24, ,
49, ,24, ,
51, ,24, ,
51, ,24, ,
51, ,24, ,
51, ,24, ,
52, ,24, ,
51, ,24, ,
51, ,24, ,
49, ,24, ,
49, ,24, ,
48, ,24, ,
48, ,24, ,
47, ,24, ,
44, ,24, ,
44, ,24, ,
43, ,24, ,
40, ,24, ,
38, ,24, ,
38, ,24, ,
35, ,24, ,
36, ,24, ,
34, ,24, ,
32, ,24, ,
31, ,24, ,
29, ,24, ,
27, ,24, ,
27, ,24, ,
26, ,24, ,
25, ,24, ,
24, ,24, ,
23, ,24, ,
22, ,24, ,
21, ,24, ,
22, ,24, ,
23, ,24, ,
21, ,24, ,
22, ,24, ,
22, ,24, ,
21, ,24, ,
23, ,24, ,
23, ,24, ,
23, ,24, ,
24, ,24, ,
23, ,24, ,
25, ,24, ,
25, ,24, ,
26, ,24, ,
28, ,24, ,
25, ,24, ,
29, ,24, ,
30, ,24, ,
30, ,24, ,
30, ,24, ,
33, ,24, ,
33, ,24, ,
34, ,24, ,
34, ,24, ,
35, ,24, ,
35, ,24, ,
35, ,24, ,
35, ,24, ,
37, ,24, ,
37, ,24, ,
38, ,24, ,
