raw_data/100% Glycerol, Impulsion 2Hz, Sonde 5MHz, Rampe 0.7Hz/temp0000015.CSV

Format,1.0B,
Memory Length,10000,Memory Length,10000,
IntpDistance,0,IntpDistance,0,
Trigger Address,159,Trigger Address,159,
Trigger Level,2.720E-01,Trigger Level,2.720E-01,
Source,CH1,Source,CH2,
Vertical Units,V,Vertical Units,V,
Vertical Units Div,0,Vertical Units Div,0,
Vertical Units Extend Div,16,Vertical Units Extend Div,16,
Label,,Label,,
Probe Type,0,Probe Type,0,
Probe Ratio,1.000e+00,Probe Ratio,1.000e+00,
Vertical Scale,2.000e-01,Vertical Scale,2.000e+00,
Vertical Position,0.000e+00,Vertical Position,0.000e+00,
Horizontal Units,S,Horizontal Units,S,
Horizontal Scale,5.000E-06,Horizontal Scale,5.000E-06,
Horizontal Position,2.420E-05,Horizontal Position,2.420E-05,
Horizontal Mode,Main,Horizontal Mode,Main,
SincET Mode,Real Time,SincET Mode,Real Time,
Sampling Period,5.000e-09,Sampling Period,5.000e-09,
Horizontal Old Scale,5.000E-06,Horizontal Old Scale,5.000E-06,
Horizontal Old Position,2.420E-05,Horizontal Old Position,2.420E-05,
Firmware,V1.32,Firmware,V1.32,
Mode,Fast,Mode,Fast,
Waveform Data,,Waveform Data,,
3, ,27, ,
2, ,27, ,
3, ,27, ,
2, ,27, ,
2, ,27, ,
3, ,27, ,
3, ,27, ,
3, ,27, ,
2, ,27, ,
1, ,27, ,
2, ,27, ,
2, ,27, ,
1, ,27, ,
2, ,27, ,
1, ,28, ,
2, ,27, ,
2, ,27, ,
1, ,28, ,
2, ,27, ,
2, ,27, ,
3, ,27, ,
3, ,27, ,
3, ,27, ,
3, ,27, ,
2, ,27, ,
2, ,27, ,
3, ,27, ,
2, ,27, ,
1, ,27, ,
2, ,27, ,
2, ,27, ,
2, ,27, ,
3, ,27, ,
2, ,27, ,
2, ,27, ,
1, ,27, ,
2, ,27, ,
2, ,27, ,
1, ,27, ,
3, ,27, ,
3, ,27, ,
2, ,27, ,
3, ,27, ,
1, ,27, ,
1, ,27, ,
3, ,27, ,
2, ,27, ,
2, ,27, ,
2, ,27, ,
2, ,27, ,
3, ,27, ,
2, ,27, ,
1, ,27, ,
4, ,27, ,
2, ,27, ,
2, ,27, ,
3, ,27, ,
1, ,27, ,
3, ,27, ,
2, ,27, ,
2, ,27, ,
2, ,27, ,
1, ,27, ,
2, ,27, ,
2, ,27, ,
2, ,27, ,
3, ,27, ,
2, ,27, ,
2, ,27, ,
2, ,28, ,
1, ,27, ,
3, ,27, ,
2, ,27, ,
2, ,27, ,
3, ,27, ,
2, ,27, ,
0, ,27, ,
3, ,27, ,
2, ,27, ,
2, ,27, ,
3, ,27, ,
2, ,27, ,
4, ,27, ,
1, ,27, ,
3, ,27, ,
2, ,28, ,
1, ,27, ,
3, ,27, ,
2, ,27, ,
2, ,27, ,
2, ,27, ,
2, ,27, ,
2, ,28, ,
2, ,27, ,
2, ,27, ,
3, ,27, ,
3, ,27, ,
2, ,27, ,
3, ,27, ,
2, ,27, ,
2, ,27, ,
3, ,27, ,
2, ,27, ,
2, ,27, ,
2, ,28, ,
1, ,27, ,
3, ,27, ,
2, ,27, ,
1, ,28, ,
3, ,27, ,
2, ,27, ,
3, ,27, ,
1, ,27, ,
0, ,27, ,
2, ,27, ,
1, ,27, ,
3, ,27, ,
3, ,27, ,
2, ,27, ,
2, ,27, ,
2, ,27, ,
2, ,27, ,
1, ,27, ,
2, ,27, ,
1, ,27, ,
2, ,27, ,
2, ,27, ,
3, ,27, ,
4, ,27, ,
2, ,27, ,
3, ,27, ,
1, ,27, ,
1, ,27, ,
4, ,27, ,
1, ,27, ,
3, ,27, ,
3, ,27, ,
2, ,27, ,
2, ,27, ,
1, ,27, ,
1, ,27, ,
2, ,27, ,
2, ,27, ,
2, ,27, ,
3, ,27, ,
2, ,27, ,
2, ,27, ,
2, ,27, ,
2, ,27, ,
3, ,27, ,
2, ,27, ,
2, ,27, ,
2, ,27, ,
2, ,27, ,
2, ,27, ,
1, ,27, ,
2, ,27, ,
2, ,27, ,
2, ,27, ,
2, ,27, ,
1, ,27, ,
2, ,27, ,
2, ,27, ,
1, ,27, ,
-2, ,27, ,
2, ,27, ,
-3, ,27, ,
14, ,27, ,
125, ,27, ,
125, ,27, ,
125, ,27, ,
125, ,27, ,
118, ,27, ,
61, ,27, ,
-19, ,27, ,
35, ,27, ,
125, ,27, ,
125, ,27, ,
125, ,27, ,
125, ,27, ,
125, ,27, ,
125, ,27, ,
125, ,27, ,
125, ,27, ,
125, ,27, ,
125, ,27, ,
125, ,27, ,
125, ,27, ,
125, ,27, ,
125, ,27, ,
125, ,27, ,
125, ,28, ,
125, ,27, ,
125, ,27, ,
125, ,27, ,
125, ,27, ,
125, ,27, ,
125, ,27, ,
125, ,27, ,
125, ,27, ,
125, ,27, ,
124, ,27, ,
124, ,27, ,
123, ,27, ,
111, ,27, ,
108, ,27, ,
104, ,27, ,
101, ,27, ,
94, ,27, ,
89, ,27, ,
86, ,27, ,
79, ,27, ,
73, ,27, ,
71, ,27, ,
66, ,27, ,
64, ,27, ,
59, ,27, ,
56, ,27, ,
54, ,27, ,
51, ,27, ,
45, ,27, ,
44, ,27, ,
43, ,27, ,
40, ,27, ,
36, ,27, ,
35, ,27, ,
35, ,27, ,
31, ,27, ,
28, ,27, ,
27, ,27, ,
24, ,27, ,
25, ,27, ,
22, ,27, ,
20, ,27, ,
19, ,27, ,
18, ,27, ,
16, ,27, ,
15, ,27, ,
14, ,27, ,
14, ,27, ,
12, ,27, ,
11, ,27, ,
11, ,27, ,
9, ,27, ,
8, ,27, ,
8, ,27, ,
7, ,27, ,
7, ,27, ,
5, ,27, ,
5, ,27, ,
5, ,27, ,
4, ,27, ,
2, ,27, ,
3, ,27, ,
2, ,27, ,
2, ,27, ,
2, ,27, ,
1, ,27, ,
2, ,27, ,
0, ,27, ,
0, ,27, ,
0, ,28, ,
0, ,27, ,
0, ,27, ,
-1, ,27, ,
-1, ,27, ,
-1, ,27, ,
-1, ,27, ,
-3, ,27, ,
0, ,27, ,
-1, ,27, ,
-1, ,27, ,
-1, ,27, ,
-2, ,27, ,
-2, ,27, ,
-2, ,27, ,
-2, ,27, ,
-2, ,27, ,
-3, ,27, ,
-3, ,27, ,
-2, ,27, ,
-3, ,27, ,
-3, ,27, ,
-4, ,27, ,
-2, ,27, ,
-2, ,27, ,
-2, ,27, ,
-2, ,27, ,
-2, ,27, ,
-2, ,27, ,
-1, ,27, ,
-2, ,28, ,
-2, ,27, ,
-2, ,27, ,
-3, ,27, ,
-4, ,27, ,
-1, ,27, ,
-3, ,27, ,
-1, ,27, ,
-2, ,27, ,
-2, ,28, ,
-2, ,27, ,
-2, ,27, ,
-2, ,27, ,
0, ,27, ,
-1, ,27, ,
-1, ,27, ,
-2, ,27, ,
-1, ,28, ,
-1, ,27, ,
-1, ,27, ,
-1, ,27, ,
-1, ,27, ,
-1, ,27, ,
0, ,27, ,
-1, ,27, ,
-2, ,27, ,
0, ,27, ,
-1, ,27, ,
0, ,27, ,
0, ,27, ,
-1, ,27, ,
0, ,27, ,
-1, ,27, ,
0, ,27, ,
0, ,27, ,
0, ,27, ,
1, ,27, ,
1, ,27, ,
0, ,27, ,
0, ,27, ,
0, ,27, ,
0, ,27, ,
0, ,27, ,
0, ,27, ,
0, ,27, ,
0, ,27, ,
0, ,27, ,
0, ,27, ,
0, ,27, ,
1, ,27, ,
1, ,27, ,
0, ,27, ,
1, ,27, ,
1, ,27, ,
0, ,27, ,
1, ,27, ,
2, ,27, ,
0, ,27, ,
0, ,27, ,
0, ,27, ,
0, ,27, ,
1, ,27, ,
1, ,27, ,
2, ,27, ,
0, ,27, ,
1, ,27, ,
1, ,28, ,
1, ,27, ,
1, ,27, ,
1, ,27, ,
1, ,27, ,
1, ,27, ,
1, ,27, ,
0, ,27, ,
1, ,27, ,
1, ,27, ,
2, ,27, ,
2, ,27, ,
1, ,27, ,
1, ,27, ,
1, ,27, ,
2, ,27, ,
2, ,27, ,
1, ,27, ,
2, ,27, ,
2, ,27, ,
1, ,27, ,
2, ,27, ,
1, ,27, ,
1, ,27, ,
2, ,27, ,
2, ,27, ,
2, ,27, ,
2, ,27, ,
1, ,27, ,
2, ,27, ,
1, ,27, ,
1, ,27, ,
1, ,28, ,
1, ,27, ,
2, ,27, ,
2, ,27, ,
1, ,27, ,
2, ,27, ,
1, ,27, ,
0, ,27, ,
3, ,27, ,
2, ,27, ,
2, ,27, ,
2, ,27, ,
1, ,27, ,
2, ,27, ,
0, ,27, ,
2, ,27, ,
2, ,27, ,
1, ,27, ,
2, ,27, ,
2, ,27, ,
2, ,27, ,
2, ,27, ,
2, ,27, ,
1, ,27, ,
3, ,27, ,
3, ,27, ,
2, ,27, ,
2, ,27, ,
1, ,27, ,
2, ,27, ,
2, ,27, ,
2, ,27, ,
2, ,27, ,
1, ,27, ,
1, ,27, ,
1, ,27, ,
1, ,27, ,
1, ,27, ,
1, ,27, ,
1, ,27, ,
2, ,27, ,
2, ,27, ,
1, ,27, ,
1, ,27, ,
1, ,27, ,
1, ,28, ,
1, ,27, ,
2, ,27, ,
2, ,27, ,
1, ,27, ,
1, ,27, ,
0, ,27, ,
-1, ,27, ,
0, ,27, ,
0, ,27, ,
0, ,27, ,
0, ,27, ,
0, ,27, ,
1, ,27, ,
1, ,27, ,
1, ,27, ,
1, ,27, ,
1, ,27, ,
1, ,27, ,
2, ,27, ,
1, ,27, ,
3, ,27, ,
2, ,27, ,
1, ,27, ,
3, ,27, ,
2, ,27, ,
2, ,27, ,
2, ,27, ,
1, ,27, ,
1, ,27, ,
2, ,27, ,
1, ,27, ,
2, ,27, ,
1, ,27, ,
2, ,27, ,
2, ,27, ,
1, ,27, ,
2, ,27, ,
3, ,27, ,
3, ,27, ,
3, ,27, ,
3, ,27, ,
2, ,27, ,
2, ,27, ,
1, ,27, ,
1, ,28, ,
1, ,27, ,
0, ,27, ,
0, ,27, ,
-1, ,27, ,
0, ,27, ,
0, ,27, ,
0, ,27, ,
1, ,27, ,
2, ,27, ,
1, ,27, ,
1, ,27, ,
2, ,27, ,
2, ,27, ,
3, ,27, ,
3, ,27, ,
3, ,27, ,
3, ,27, ,
2, ,27, ,
2, ,27, ,
1, ,27, ,
0, ,27, ,
2, ,27, ,
0, ,27, ,
2, ,27, ,
2, ,27, ,
0, ,27, ,
2, ,27, ,
2, ,27, ,
2, ,27, ,
3, ,27, ,
2, ,27, ,
3, ,27, ,
2, ,27, ,
1, ,27, ,
2, ,27, ,
-1, ,27, ,
-1, ,27, ,
-1, ,27, ,
-4, ,27, ,
-3, ,27, ,
-4, ,27, ,
-6, ,27, ,
-6, ,27, ,
-7, ,27, ,
-7, ,27, ,
-7, ,27, ,
-6, ,27, ,
-6, ,27, ,
-8, ,27, ,
-9, ,27, ,
-8, ,27, ,
-10, ,27, ,
-12, ,27, ,
-11, ,27, ,
-15, ,27, ,
-16, ,27, ,
-18, ,27, ,
-21, ,27, ,
-21, ,27, ,
-26, ,27, ,
-28, ,27, ,
-30, ,28, ,
-31, ,28, ,
-31, ,27, ,
-30, ,27, ,
-31, ,27, ,
-29, ,27, ,
-30, ,27, ,
-27, ,27, ,
-26, ,27, ,
-25, ,27, ,
-25, ,27, ,
-24, ,27, ,
-25, ,27, ,
-25, ,27, ,
-26, ,27, ,
-28, ,27, ,
-28, ,27, ,
-29, ,27, ,
-28, ,27, ,
-26, ,27, ,
-26, ,27, ,
-24, ,28, ,
-24, ,28, ,
-19, ,27, ,
-17, ,27, ,
-17, ,27, ,
-13, ,27, ,
-8, ,27, ,
-7, ,27, ,
-6, ,27, ,
-7, ,27, ,
-5, ,27, ,
-6, ,27, ,
-6, ,27, ,
-7, ,27, ,
-8, ,27, ,
-10, ,27, ,
-10, ,27, ,
-11, ,27, ,
-9, ,27, ,
-8, ,27, ,
-8, ,27, ,
-6, ,27, ,
-3, ,27, ,
-3, ,27, ,
-1, ,27, ,
-1, ,27, ,
-1, ,27, ,
2, ,27, ,
1, ,27, ,
1, ,28, ,
-1, ,27, ,
-2, ,27, ,
-3, ,27, ,
-5, ,27, ,
-9, ,27, ,
-9, ,27, ,
-11, ,28, ,
-10, ,28, ,
-11, ,28, ,
-12, ,27, ,
-11, ,27, ,
-11, ,27, ,
-12, ,27, ,
-9, ,27, ,
-10, ,27, ,
-9, ,27, ,
-10, ,27, ,
-12, ,27, ,
-11, ,27, ,
-15, ,27, ,
-18, ,27, ,
-18, ,27, ,
-21, ,27, ,
-21, ,27, ,
-23, ,27, ,
-24, ,27, ,
-23, ,27, ,
-24, ,27, ,
-24, ,27, ,
-22, ,27, ,
-23, ,27, ,
-23, ,27, ,
-23, ,27, ,
-24, ,27, ,
-24, ,27, ,
-26, ,27, ,
-28, ,27, ,
-28, ,27, ,
-30, ,27, ,
-30, ,27, ,
-31, ,27, ,
-33, ,27, ,
-33, ,28, ,
-34, ,28, ,
-34, ,27, ,
-33, ,27, ,
-34, ,27, ,
-34, ,27, ,
-34, ,27, ,
-34, ,27, ,
-32, ,27, ,
-32, ,27, ,
-30, ,27, ,
-30, ,27, ,
-30, ,27, ,
-29, ,27, ,
-26, ,27, ,
-27, ,27, ,
-28, ,27, ,
-26, ,27, ,
-30, ,27, ,
-30, ,27, ,
-31, ,27, ,
-32, ,27, ,
-35, ,27, ,
-35, ,27, ,
-35, ,27, ,
-35, ,27, ,
-35, ,27, ,
-35, ,27, ,
-34, ,27, ,
-34, ,27, ,
-32, ,27, ,
-32, ,27, ,
-32, ,27, ,
-32, ,27, ,
-33, ,27, ,
-33, ,27, ,
-34, ,27, ,
-35, ,28, ,
-35, ,28, ,
-36, ,28, ,
-35, ,28, ,
-36, ,27, ,
-35, ,27, ,
-33, ,28, ,
-32, ,28, ,
-30, ,28, ,
-27, ,28, ,
-27, ,27, ,
-24, ,27, ,
-24, ,27, ,
-24, ,27, ,
-23, ,27, ,
-23, ,27, ,
-22, ,28, ,
-21, ,27, ,
-20, ,27, ,
-19, ,27, ,
-20, ,27, ,
-17, ,27, ,
-15, ,27, ,
-15, ,27, ,
-13, ,27, ,
-11, ,27, ,
-12, ,27, ,
-10, ,27, ,
-11, ,27, ,
-10, ,27, ,
-9, ,27, ,
-7, ,27, ,
-7, ,27, ,
-5, ,27, ,
-4, ,27, ,
-2, ,28, ,
-2, ,27, ,
0, ,27, ,
0, ,27, ,
0, ,27, ,
0, ,27, ,
1, ,27, ,
1, ,27, ,
1, ,27, ,
1, ,27, ,
3, ,27, ,
3, ,27, ,
4, ,27, ,
5, ,28, ,
6, ,28, ,
5, ,27, ,
7, ,27, ,
6, ,27, ,
8, ,27, ,
10, ,28, ,
10, ,27, ,
10, ,27, ,
10, ,27, ,
10, ,27, ,
11, ,27, ,
10, ,27, ,
10, ,28, ,
10, ,27, ,
9, ,27, ,
10, ,27, ,
10, ,27, ,
10, ,27, ,
9, ,27, ,
8, ,27, ,
7, ,27, ,
8, ,27, ,
6, ,27, ,
6, ,27, ,
4, ,27, ,
2, ,27, ,
2, ,27, ,
1, ,27, ,
-2, ,27, ,
-1, ,27, ,
-4, ,27, ,
-5, ,27, ,
-7, ,27, ,
-8, ,27, ,
-10, ,27, ,
-12, ,27, ,
-13, ,27, ,
-15, ,27, ,
-16, ,27, ,
-16, ,27, ,
-18, ,27, ,
-19, ,27, ,
-19, ,27, ,
-21, ,27, ,
-22, ,27, ,
-22, ,27, ,
-23, ,27, ,
-23, ,27, ,
-24, ,27, ,
-25, ,27, ,
-26, ,27, ,
-28, ,27, ,
-29, ,27, ,
-28, ,27, ,
-31, ,27, ,
-31, ,27, ,
-33, ,28, ,
-34, ,27, ,
-33, ,27, ,
-34, ,27, ,
-35, ,27, ,
-35, ,27, ,
-35, ,27, ,
-35, ,27, ,
-35, ,27, ,
-35, ,27, ,
-35, ,27, ,
-36, ,27, ,
-35, ,27, ,
-35, ,27, ,
-35, ,27, ,
-35, ,27, ,
-34, ,27, ,
-34, ,28, ,
-32, ,28, ,
-30, ,28, ,
-28, ,28, ,
-25, ,27, ,
-23, ,27, ,
-20, ,27, ,
-17, ,27, ,
-15, ,27, ,
-13, ,27, ,
-12, ,27, ,
-7, ,27, ,
-6, ,27, ,
-5, ,27, ,
-2, ,27, ,
0, ,27, ,
1, ,27, ,
4, ,27, ,
5, ,27, ,
7, ,27, ,
9, ,27, ,
11, ,27, ,
11, ,27, ,
13, ,27, ,
12, ,27, ,
13, ,27, ,
11, ,27, ,
11, ,27, ,
12, ,27, ,
12, ,27, ,
12, ,27, ,
13, ,27, ,
12, ,27, ,
13, ,27, ,
12, ,27, ,
12, ,27, ,
11, ,27, ,
11, ,27, ,
12, ,27, ,
10, ,27, ,
9, ,27, ,
10, ,27, ,
8, ,27, ,
7, ,27, ,
7, ,28, ,
6, ,28, ,
6, ,27, ,
5, ,27, ,
5, ,27, ,
4, ,27, ,
4, ,28, ,
0, ,27, ,
1, ,27, ,
0, ,27, ,
-1, ,27, ,
-3, ,28, ,
-4, ,27, ,
-4, ,27, ,
-6, ,27, ,
-7, ,27, ,
-6, ,27, ,
-8, ,27, ,
-8, ,27, ,
-8, ,27, ,
-9, ,27, ,
-9, ,27, ,
-10, ,27, ,
-10, ,27, ,
-10, ,27, ,
-11, ,27, ,
-11, ,27, ,
-12, ,27, ,
-13, ,27, ,
-14, ,27, ,
-15, ,27, ,
-16, ,27, ,
-15, ,27, ,
-19, ,27, ,
-19, ,27, ,
-19, ,27, ,
-22, ,27, ,
-20, ,27, ,
-24, ,27, ,
-25, ,27, ,
-25, ,27, ,
-26, ,27, ,
-25, ,27, ,
-26, ,27, ,
-27, ,27, ,
-26, ,27, ,
-27, ,27, ,
-26, ,27, ,
-26, ,27, ,
-26, ,27, ,
-25, ,27, ,
-23, ,27, ,
-24, ,27, ,
-24, ,27, ,
-23, ,27, ,
-22, ,27, ,
-20, ,27, ,
-20, ,27, ,
-19, ,27, ,
-18, ,27, ,
-19, ,27, ,
-18, ,27, ,
-19, ,27, ,
-20, ,27, ,
-20, ,27, ,
-21, ,27, ,
-20, ,27, ,
-20, ,27, ,
-21, ,28, ,
-20, ,27, ,
-21, ,27, ,
-20, ,27, ,
-19, ,27, ,
-19, ,27, ,
-19, ,27, ,
-18, ,27, ,
-19, ,28, ,
-18, ,27, ,
-19, ,27, ,
-19, ,27, ,
-17, ,27, ,
-18, ,28, ,
-18, ,28, ,
-17, ,28, ,
-17, ,27, ,
-16, ,27, ,
-17, ,27, ,
-17, ,27, ,
-16, ,27, ,
-17, ,27, ,
-16, ,27, ,
-16, ,27, ,
-17, ,27, ,
-16, ,27, ,
-18, ,27, ,
-17, ,27, ,
-17, ,27, ,
-17, ,27, ,
-17, ,27, ,
-17, ,27, ,
-17, ,27, ,
-17, ,27, ,
-15, ,27, ,
-15, ,27, ,
-13, ,27, ,
-13, ,27, ,
-13, ,27, ,
-12, ,28, ,
-11, ,27, ,
-10, ,27, ,
-10, ,27, ,
-10, ,27, ,
-10, ,27, ,
-11, ,28, ,
-9, ,27, ,
-9, ,27, ,
-9, ,27, ,
-8, ,27, ,
-8, ,27, ,
-8, ,27, ,
-9, ,27, ,
-8, ,27, ,
-7, ,27, ,
-7, ,27, ,
-7, ,27, ,
-7, ,27, ,
-7, ,27, ,
-6, ,27, ,
-5, ,27, ,
-5, ,27, ,
-5, ,27, ,
-5, ,28, ,
-5, ,27, ,
-4, ,27, ,
-4, ,27, ,
-4, ,27, ,
-2, ,27, ,
-2, ,27, ,
0, ,27, ,
0, ,27, ,
0, ,27, ,
0, ,27, ,
-1, ,27, ,
0, ,27, ,
0, ,27, ,
0, ,27, ,
1, ,27, ,
0, ,27, ,
0, ,27, ,
1, ,27, ,
0, ,27, ,
0, ,27, ,
0, ,27, ,
0, ,27, ,
0, ,28, ,
0, ,28, ,
-1, ,27, ,
-1, ,27, ,
-3, ,27, ,
-3, ,27, ,
-3, ,27, ,
-3, ,27, ,
-3, ,27, ,
-3, ,27, ,
-3, ,27, ,
-3, ,27, ,
-4, ,27, ,
-4, ,27, ,
-3, ,27, ,
-3, ,27, ,
-3, ,27, ,
-3, ,27, ,
-5, ,27, ,
-5, ,27, ,
-5, ,27, ,
-5, ,27, ,
-5, ,27, ,
-6, ,27, ,
-6, ,27, ,
-6, ,27, ,
-7, ,27, ,
-6, ,27, ,
-6, ,27, ,
-7, ,27, ,
-7, ,27, ,
-9, ,27, ,
-9, ,27, ,
-11, ,27, ,
-12, ,27, ,
-12, ,27, ,
-13, ,27, ,
-15, ,27, ,
-15, ,27, ,
-15, ,28, ,
-15, ,27, ,
-15, ,27, ,
-15, ,27, ,
-14, ,27, ,
-15, ,27, ,
-15, ,27, ,
-14, ,27, ,
-14, ,27, ,
-14, ,27, ,
-12, ,27, ,
-12, ,27, ,
-11, ,27, ,
-12, ,27, ,
-9, ,27, ,
-7, ,27, ,
-9, ,27, ,
-5, ,27, ,
-3, ,27, ,
-2, ,27, ,
-1, ,27, ,
0, ,27, ,
4, ,27, ,
6, ,27, ,
6, ,27, ,
8, ,28, ,
11, ,27, ,
11, ,27, ,
11, ,28, ,
11, ,27, ,
13, ,27, ,
15, ,27, ,
15, ,27, ,
15, ,27, ,
15, ,27, ,
15, ,27, ,
15, ,27, ,
15, ,27, ,
13, ,27, ,
14, ,27, ,
12, ,27, ,
12, ,27, ,
11, ,27, ,
9, ,27, ,
9, ,27, ,
7, ,27, ,
6, ,27, ,
6, ,27, ,
5, ,27, ,
4, ,27, ,
3, ,27, ,
1, ,27, ,
2, ,27, ,
0, ,27, ,
-1, ,27, ,
-1, ,27, ,
-2, ,27, ,
-1, ,27, ,
-3, ,27, ,
-4, ,27, ,
-3, ,27, ,
-5, ,27, ,
-5, ,27, ,
-5, ,27, ,
-5, ,27, ,
-4, ,27, ,
-5, ,27, ,
-6, ,27, ,
-5, ,27, ,
-6, ,27, ,
-6, ,27, ,
-5, ,27, ,
-6, ,27, ,
-5, ,28, ,
-4, ,27, ,
-5, ,27, ,
-5, ,27, ,
-6, ,27, ,
-5, ,27, ,
-4, ,27, ,
-4, ,27, ,
-4, ,27, ,
-3, ,28, ,
-4, ,27, ,
-2, ,27, ,
-3, ,27, ,
-4, ,27, ,
-1, ,27, ,
-2, ,27, ,
-1, ,27, ,
-2, ,27, ,
-1, ,27, ,
-1, ,27, ,
-2, ,27, ,
-2, ,27, ,
-2, ,27, ,
-2, ,27, ,
-2, ,27, ,
-2, ,27, ,
-2, ,27, ,
-2, ,27, ,
-2, ,27, ,
-4, ,27, ,
-3, ,27, ,
-2, ,27, ,
-3, ,27, ,
-4, ,27, ,
-4, ,27, ,
-4, ,27, ,
-5, ,27, ,
-4, ,27, ,
-4, ,27, ,
-5, ,28, ,
-5, ,28, ,
-5, ,28, ,
-5, ,27, ,
-5, ,27, ,
-5, ,27, ,
-5, ,27, ,
-4, ,27, ,
-5, ,27, ,
-3, ,28, ,
-3, ,27, ,
-4, ,27, ,
-3, ,27, ,
-3, ,27, ,
-2, ,27, ,
-2, ,27, ,
-2, ,27, ,
-2, ,27, ,
0, ,28, ,
0, ,28, ,
0, ,28, ,
0, ,28, ,
0, ,28, ,
1, ,27, ,
1, ,27, ,
3, ,27, ,
3, ,27, ,
2, ,28, ,
3, ,27, ,
3, ,27, ,
3, ,27, ,
3, ,27, ,
3, ,27, ,
4, ,27, ,
4, ,27, ,
4, ,27, ,
4, ,27, ,
5, ,27, ,
5, ,28, ,
6, ,27, ,
6, ,27, ,
6, ,27, ,
7, ,27, ,
6, ,27, ,
7, ,27, ,
6, ,27, ,
7, ,27, ,
8, ,27, ,
6, ,27, ,
6, ,27, ,
7, ,27, ,
6, ,27, ,
6, ,27, ,
6, ,27, ,
5, ,27, ,
7, ,27, ,
5, ,27, ,
5, ,28, ,
5, ,27, ,
4, ,27, ,
4, ,27, ,
4, ,27, ,
4, ,27, ,
3, ,27, ,
1, ,27, ,
1, ,27, ,
1, ,27, ,
0, ,27, ,
0, ,27, ,
0, ,28, ,
0, ,28, ,
0, ,27, ,
-1, ,27, ,
0, ,27, ,
-1, ,27, ,
-1, ,27, ,
-2, ,27, ,
-3, ,27, ,
-4, ,27, ,
-4, ,27, ,
-4, ,27, ,
-4, ,27, ,
-4, ,27, ,
-5, ,27, ,
-5, ,27, ,
-5, ,27, ,
-6, ,27, ,
-5, ,27, ,
-6, ,27, ,
-6, ,27, ,
-5, ,27, ,
-6, ,28, ,
-5, ,27, ,
-7, ,27, ,
-7, ,27, ,
-7, ,27, ,
-8, ,27, ,
-7, ,27, ,
-9, ,27, ,
-9, ,27, ,
-9, ,27, ,
-9, ,27, ,
-9, ,27, ,
-9, ,27, ,
-10, ,27, ,
-9, ,27, ,
-9, ,27, ,
-9, ,27, ,
-9, ,27, ,
-10, ,27, ,
-10, ,27, ,
-10, ,27, ,
-10, ,27, ,
-10, ,27, ,
-10, ,28, ,
-10, ,27, ,
-10, ,27, ,
-9, ,27, ,
-9, ,27, ,
-8, ,27, ,
-7, ,27, ,
-7, ,27, ,
-7, ,27, ,
-5, ,27, ,
-4, ,28, ,
-4, ,27, ,
-4, ,27, ,
-1, ,27, ,
-2, ,27, ,
0, ,27, ,
1, ,27, ,
1, ,27, ,
3, ,27, ,
3, ,27, ,
6, ,27, ,
6, ,27, ,
6, ,27, ,
8, ,27, ,
10, ,27, ,
9, ,27, ,
10, ,27, ,
10, ,27, ,
11, ,27, ,
12, ,27, ,
11, ,27, ,
11, ,27, ,
12, ,27, ,
9, ,27, ,
9, ,27, ,
9, ,27, ,
8, ,27, ,
7, ,27, ,
7, ,27, ,
6, ,27, ,
5, ,27, ,
3, ,27, ,
2, ,27, ,
2, ,27, ,
-2, ,27, ,
-2, ,28, ,
-3, ,28, ,
-4, ,27, ,
-5, ,27, ,
-6, ,27, ,
-6, ,27, ,
-8, ,28, ,
-10, ,27, ,
-8, ,27, ,
-9, ,27, ,
-9, ,27, ,
-9, ,28, ,
-8, ,27, ,
-9, ,27, ,
-9, ,27, ,
-7, ,27, ,
-6, ,27, ,
-7, ,27, ,
-5, ,27, ,
-3, ,27, ,
-2, ,27, ,
-2, ,27, ,
-1, ,27, ,
0, ,27, ,
3, ,27, ,
4, ,28, ,
4, ,27, ,
6, ,27, ,
6, ,28, ,
6, ,28, ,
8, ,27, ,
9, ,27, ,
9, ,27, ,
9, ,27, ,
8, ,27, ,
10, ,27, ,
9, ,27, ,
9, ,27, ,
8, ,27, ,
8, ,27, ,
8, ,27, ,
7, ,27, ,
7, ,27, ,
5, ,27, ,
4, ,27, ,
4, ,27, ,
2, ,27, ,
1, ,27, ,
1, ,27, ,
0, ,27, ,
0, ,27, ,
-1, ,27, ,
-3, ,27, ,
-2, ,27, ,
-5, ,28, ,
-5, ,27, ,
-5, ,27, ,
-6, ,27, ,
-6, ,27, ,
-7, ,27, ,
-7, ,27, ,
-7, ,27, ,
-8, ,27, ,
-8, ,27, ,
-8, ,27, ,
-8, ,27, ,
-8, ,27, ,
-8, ,27, ,
-9, ,27, ,
-8, ,27, ,
-8, ,27, ,
-8, ,27, ,
-8, ,27, ,
-7, ,27, ,
-7, ,27, ,
-6, ,27, ,
-6, ,27, ,
-6, ,27, ,
-7, ,27, ,
-6, ,27, ,
-5, ,27, ,
-5, ,27, ,
-5, ,27, ,
-5, ,27, ,
-5, ,27, ,
-4, ,27, ,
-4, ,27, ,
-4, ,27, ,
-3, ,27, ,
-3, ,27, ,
-3, ,27, ,
-2, ,27, ,
-2, ,28, ,
-2, ,27, ,
-2, ,27, ,
-2, ,27, ,
-2, ,27, ,
-2, ,27, ,
-1, ,27, ,
-2, ,27, ,
-3, ,27, ,
-1, ,27, ,
-2, ,27, ,
-3, ,27, ,
-2, ,27, ,
-3, ,27, ,
-3, ,27, ,
-2, ,27, ,
-2, ,27, ,
-1, ,27, ,
-2, ,27, ,
-2, ,27, ,
-1, ,27, ,
-3, ,28, ,
-2, ,27, ,
-2, ,27, ,
-3, ,27, ,
-1, ,27, ,
-2, ,28, ,
-2, ,27, ,
-1, ,27, ,
-2, ,27, ,
-2, ,27, ,
-2, ,27, ,
-2, ,27, ,
-1, ,27, ,
-2, ,28, ,
-1, ,27, ,
-1, ,27, ,
-2, ,27, ,
0, ,27, ,
-1, ,27, ,
-1, ,27, ,
-1, ,27, ,
-2, ,27, ,
-2, ,27, ,
0, ,27, ,
-1, ,27, ,
0, ,27, ,
0, ,27, ,
-1, ,27, ,
-1, ,27, ,
-1, ,27, ,
-1, ,27, ,
-1, ,27, ,
-2, ,27, ,
-2, ,27, ,
-2, ,27, ,
-2, ,27, ,
-2, ,27, ,
-2, ,27, ,
-2, ,27, ,
-1, ,27, ,
-1, ,27, ,
-2, ,27, ,
-2, ,27, ,
-2, ,27, ,
-2, ,28, ,
-3, ,27, ,
-2, ,27, ,
-1, ,27, ,
-1, ,27, ,
-1, ,27, ,
-1, ,27, ,
-2, ,27, ,
-1, ,27, ,
0, ,27, ,
0, ,27, ,
1, ,27, ,
0, ,27, ,
0, ,27, ,
1, ,27, ,
1, ,27, ,
1, ,27, ,
1, ,27, ,
2, ,27, ,
2, ,27, ,
1, ,27, ,
3, ,27, ,
2, ,27, ,
1, ,27, ,
4, ,27, ,
4, ,27, ,
3, ,27, ,
5, ,27, ,
4, ,27, ,
4, ,27, ,
4, ,27, ,
4, ,27, ,
5, ,27, ,
4, ,27, ,
3, ,27, ,
4, ,27, ,
4, ,27, ,
3, ,27, ,
3, ,27, ,
3, ,27, ,
3, ,27, ,
3, ,27, ,
2, ,28, ,
3, ,27, ,
1, ,27, ,
1, ,27, ,
1, ,27, ,
0, ,27, ,
2, ,27, ,
0, ,27, ,
0, ,27, ,
0, ,27, ,
0, ,27, ,
0, ,27, ,
0, ,27, ,
0, ,27, ,
1, ,27, ,
1, ,27, ,
0, ,27, ,
1, ,27, ,
0, ,27, ,
1, ,27, ,
2, ,28, ,
1, ,28, ,
3, ,27, ,
2, ,27, ,
3, ,27, ,
3, ,27, ,
3, ,27, ,
4, ,27, ,
5, ,28, ,
5, ,27, ,
5, ,27, ,
5, ,27, ,
5, ,27, ,
5, ,27, ,
5, ,27, ,
5, ,27, ,
5, ,27, ,
4, ,27, ,
4, ,27, ,
4, ,27, ,
3, ,27, ,
3, ,27, ,
2, ,27, ,
3, ,27, ,
4, ,27, ,
1, ,27, ,
2, ,27, ,
1, ,27, ,
1, ,27, ,
2, ,27, ,
0, ,27, ,
0, ,27, ,
0, ,27, ,
0, ,27, ,
0, ,27, ,
-2, ,27, ,
-1, ,27, ,
-1, ,28, ,
-1, ,28, ,
-1, ,27, ,
-1, ,27, ,
-3, ,27, ,
-2, ,27, ,
-2, ,27, ,
-2, ,28, ,
-2, ,27, ,
-2, ,27, ,
-2, ,27, ,
-1, ,27, ,
-1, ,27, ,
0, ,27, ,
0, ,27, ,
0, ,27, ,
1, ,27, ,
0, ,27, ,
3, ,27, ,
5, ,28, ,
5, ,27, ,
5, ,27, ,
5, ,27, ,
7, ,27, ,
8, ,27, ,
8, ,27, ,
9, ,27, ,
11, ,27, ,
11, ,27, ,
12, ,27, ,
11, ,28, ,
12, ,28, ,
12, ,28, ,
12, ,27, ,
13, ,27, ,
13, ,27, ,
12, ,27, ,
13, ,27, ,
12, ,27, ,
12, ,27, ,
12, ,27, ,
11, ,28, ,
12, ,27, ,
10, ,27, ,
10, ,27, ,
10, ,27, ,
9, ,27, ,
9, ,27, ,
8, ,27, ,
8, ,27, ,
8, ,27, ,
7, ,27, ,
6, ,27, ,
6, ,27, ,
6, ,27, ,
5, ,27, ,
6, ,28, ,
5, ,28, ,
5, ,28, ,
5, ,28, ,
5, ,27, ,
5, ,27, ,
4, ,28, ,
2, ,27, ,
2, ,27, ,
1, ,27, ,
1, ,27, ,
0, ,28, ,
0, ,27, ,
0, ,27, ,
-1, ,27, ,
-2, ,27, ,
-3, ,27, ,
-3, ,28, ,
-3, ,27, ,
-3, ,27, ,
-5, ,28, ,
-5, ,27, ,
-6, ,27, ,
-6, ,27, ,
-6, ,27, ,
-7, ,27, ,
-6, ,27, ,
-6, ,27, ,
-7, ,27, ,
-7, ,27, ,
-7, ,27, ,
-7, ,28, ,
-7, ,27, ,
-7, ,27, ,
-7, ,28, ,
-6, ,27, ,
-6, ,27, ,
-6, ,28, ,
-8, ,28, ,
-7, ,28, ,
-7, ,28, ,
-8, ,28, ,
-7, ,27, ,
-6, ,27, ,
-9, ,27, ,
-9, ,27, ,
-9, ,27, ,
-8, ,27, ,
-9, ,27, ,
-9, ,27, ,
-9, ,27, ,
-8, ,27, ,
-9, ,28, ,
-9, ,27, ,
-9, ,27, ,
-8, ,27, ,
-7, ,27, ,
-8, ,27, ,
-6, ,27, ,
-5, ,28, ,
-5, ,27, ,
-4, ,27, ,
-5, ,27, ,
-3, ,27, ,
-2, ,27, ,
-2, ,27, ,
-2, ,27, ,
1, ,27, ,
1, ,27, ,
3, ,27, ,
2, ,27, ,
5, ,27, ,
6, ,27, ,
5, ,27, ,
8, ,27, ,
9, ,27, ,
8, ,27, ,
10, ,27, ,
10, ,27, ,
10, ,28, ,
12, ,28, ,
12, ,28, ,
12, ,27, ,
13, ,27, ,
13, ,27, ,
13, ,28, ,
13, ,28, ,
14, ,27, ,
14, ,27, ,
15, ,27, ,
15, ,27, ,
15, ,27, ,
15, ,27, ,
16, ,27, ,
15, ,27, ,
15, ,27, ,
15, ,28, ,
15, ,28, ,
15, ,27, ,
15, ,27, ,
14, ,28, ,
15, ,27, ,
13, ,27, ,
13, ,27, ,
13, ,27, ,
11, ,27, ,
11, ,27, ,
10, ,27, ,
9, ,27, ,
9, ,27, ,
8, ,27, ,
5, ,27, ,
5, ,27, ,
5, ,27, ,
4, ,27, ,
2, ,27, ,
2, ,27, ,
1, ,27, ,
-1, ,27, ,
-2, ,27, ,
-2, ,27, ,
-4, ,27, ,
-5, ,27, ,
-6, ,27, ,
-8, ,28, ,
-7, ,27, ,
-9, ,27, ,
-10, ,27, ,
-10, ,27, ,
-11, ,27, ,
-11, ,27, ,
-12, ,27, ,
-11, ,28, ,
-10, ,27, ,
-12, ,27, ,
-12, ,27, ,
-12, ,27, ,
-12, ,27, ,
-12, ,27, ,
-12, ,27, ,
-13, ,27, ,
-13, ,27, ,
