raw_data/100% Glycerol, Impulsion 2Hz, Sonde 5MHz, Rampe 0.7Hz/temp0000044.CSV

Format,1.0B,
Memory Length,10000,Memory Length,10000,
IntpDistance,0,IntpDistance,0,
Trigger Address,159,Trigger Address,159,
Trigger Level,2.720E-01,Trigger Level,2.720E-01,
Source,CH1,Source,CH2,
Vertical Units,V,Vertical Units,V,
Vertical Units Div,0,Vertical Units Div,0,
Vertical Units Extend Div,16,Vertical Units Extend Div,16,
Label,,Label,,
Probe Type,0,Probe Type,0,
Probe Ratio,1.000e+00,Probe Ratio,1.000e+00,
Vertical Scale,2.000e-01,Vertical Scale,2.000e+00,
Vertical Position,0.000e+00,Vertical Position,0.000e+00,
Horizontal Units,S,Horizontal Units,S,
Horizontal Scale,5.000E-06,Horizontal Scale,5.000E-06,
Horizontal Position,2.420E-05,Horizontal Position,2.420E-05,
Horizontal Mode,Main,Horizontal Mode,Main,
SincET Mode,Real Time,SincET Mode,Real Time,
Sampling Period,5.000e-09,Sampling Period,5.000e-09,
Horizontal Old Scale,5.000E-06,Horizontal Old Scale,5.000E-06,
Horizontal Old Position,2.420E-05,Horizontal Old Position,2.420E-05,
Firmware,V1.32,Firmware,V1.32,
Mode,Fast,Mode,Fast,
Waveform Data,,Waveform Data,,
1, ,23, ,
0, ,23, ,
1, ,23, ,
3, ,23, ,
1, ,23, ,
1, ,23, ,
1, ,23, ,
0, ,23, ,
2, ,23, ,
1, ,23, ,
1, ,23, ,
2, ,23, ,
1, ,23, ,
2, ,23, ,
1, ,23, ,
1, ,23, ,
2, ,23, ,
0, ,23, ,
2, ,23, ,
1, ,23, ,
1, ,23, ,
2, ,23, ,
2, ,23, ,
1, ,23, ,
2, ,23, ,
1, ,23, ,
0, ,23, ,
2, ,23, ,
1, ,23, ,
2, ,23, ,
2, ,23, ,
0, ,23, ,
3, ,23, ,
1, ,23, ,
1, ,23, ,
2, ,23, ,
1, ,23, ,
2, ,23, ,
2, ,23, ,
0, ,23, ,
2, ,23, ,
1, ,23, ,
1, ,23, ,
1, ,23, ,
1, ,23, ,
2, ,23, ,
2, ,23, ,
1, ,23, ,
2, ,23, ,
0, ,23, ,
1, ,23, ,
2, ,23, ,
1, ,23, ,
2, ,23, ,
2, ,23, ,
1, ,23, ,
2, ,23, ,
2, ,23, ,
1, ,23, ,
2, ,23, ,
1, ,23, ,
2, ,23, ,
2, ,23, ,
1, ,23, ,
2, ,23, ,
0, ,23, ,
2, ,23, ,
2, ,23, ,
1, ,23, ,
2, ,23, ,
2, ,23, ,
1, ,23, ,
1, ,23, ,
1, ,23, ,
1, ,23, ,
1, ,23, ,
1, ,23, ,
1, ,23, ,
1, ,23, ,
0, ,23, ,
2, ,23, ,
1, ,23, ,
1, ,23, ,
1, ,23, ,
1, ,23, ,
2, ,23, ,
2, ,23, ,
1, ,23, ,
2, ,23, ,
1, ,23, ,
1, ,23, ,
2, ,23, ,
2, ,23, ,
2, ,23, ,
2, ,23, ,
1, ,23, ,
2, ,23, ,
2, ,23, ,
1, ,23, ,
2, ,23, ,
0, ,23, ,
1, ,23, ,
1, ,23, ,
1, ,23, ,
3, ,23, ,
2, ,23, ,
2, ,23, ,
2, ,23, ,
1, ,23, ,
2, ,23, ,
2, ,23, ,
1, ,23, ,
2, ,23, ,
0, ,23, ,
2, ,23, ,
1, ,23, ,
1, ,23, ,
1, ,23, ,
2, ,23, ,
1, ,23, ,
1, ,23, ,
1, ,23, ,
1, ,23, ,
1, ,23, ,
2, ,23, ,
1, ,23, ,
1, ,23, ,
1, ,23, ,
2, ,23, ,
1, ,23, ,
1, ,23, ,
2, ,23, ,
1, ,23, ,
1, ,23, ,
2, ,23, ,
1, ,23, ,
1, ,23, ,
1, ,23, ,
1, ,23, ,
1, ,23, ,
1, ,23, ,
2, ,23, ,
2, ,23, ,
1, ,23, ,
2, ,23, ,
1, ,23, ,
1, ,23, ,
2, ,23, ,
1, ,23, ,
2, ,23, ,
2, ,23, ,
1, ,23, ,
2, ,23, ,
2, ,23, ,
1, ,23, ,
1, ,23, ,
0, ,23, ,
2, ,23, ,
2, ,23, ,
1, ,23, ,
2, ,23, ,
1, ,23, ,
1, ,23, ,
3, ,23, ,
6, ,23, ,
0, ,23, ,
0, ,23, ,
1, ,23, ,
31, ,23, ,
88, ,23, ,
125, ,23, ,
125, ,23, ,
125, ,23, ,
121, ,23, ,
9, ,23, ,
-11, ,23, ,
92, ,23, ,
125, ,23, ,
125, ,23, ,
125, ,23, ,
125, ,23, ,
125, ,23, ,
125, ,23, ,
125, ,23, ,
125, ,23, ,
125, ,23, ,
125, ,23, ,
125, ,23, ,
125, ,23, ,
125, ,23, ,
125, ,23, ,
125, ,23, ,
125, ,23, ,
125, ,23, ,
125, ,23, ,
125, ,23, ,
125, ,23, ,
125, ,23, ,
125, ,23, ,
125, ,23, ,
125, ,23, ,
125, ,23, ,
124, ,23, ,
124, ,23, ,
119, ,23, ,
115, ,23, ,
106, ,23, ,
101, ,23, ,
99, ,23, ,
93, ,23, ,
86, ,23, ,
83, ,23, ,
78, ,23, ,
74, ,23, ,
69, ,23, ,
64, ,23, ,
62, ,23, ,
58, ,23, ,
53, ,23, ,
51, ,23, ,
49, ,23, ,
47, ,23, ,
44, ,23, ,
39, ,23, ,
39, ,23, ,
36, ,23, ,
33, ,23, ,
34, ,23, ,
30, ,23, ,
30, ,23, ,
25, ,23, ,
24, ,23, ,
23, ,23, ,
20, ,23, ,
18, ,23, ,
19, ,23, ,
15, ,23, ,
15, ,23, ,
15, ,23, ,
12, ,23, ,
13, ,23, ,
10, ,23, ,
10, ,23, ,
10, ,23, ,
8, ,23, ,
8, ,23, ,
7, ,23, ,
5, ,23, ,
5, ,23, ,
4, ,23, ,
3, ,23, ,
4, ,23, ,
2, ,23, ,
2, ,23, ,
1, ,23, ,
2, ,23, ,
1, ,23, ,
0, ,23, ,
0, ,23, ,
0, ,23, ,
-1, ,23, ,
-1, ,23, ,
0, ,23, ,
-1, ,23, ,
-2, ,23, ,
-2, ,23, ,
-2, ,23, ,
-1, ,23, ,
-2, ,23, ,
-1, ,23, ,
-3, ,23, ,
-4, ,23, ,
-3, ,23, ,
-3, ,23, ,
-2, ,23, ,
-3, ,23, ,
-3, ,23, ,
-3, ,23, ,
-2, ,23, ,
-4, ,23, ,
-3, ,23, ,
-4, ,23, ,
-4, ,23, ,
-4, ,23, ,
-3, ,23, ,
-3, ,23, ,
-3, ,23, ,
-4, ,23, ,
-2, ,23, ,
-3, ,23, ,
-3, ,23, ,
-3, ,23, ,
-3, ,23, ,
-2, ,23, ,
-3, ,23, ,
-4, ,23, ,
-3, ,23, ,
-3, ,23, ,
-3, ,23, ,
-3, ,23, ,
-4, ,23, ,
-2, ,23, ,
-3, ,23, ,
-3, ,23, ,
-3, ,23, ,
-3, ,23, ,
-2, ,23, ,
-1, ,23, ,
-2, ,23, ,
-2, ,23, ,
-2, ,23, ,
-2, ,23, ,
-1, ,23, ,
-2, ,23, ,
-2, ,23, ,
-2, ,23, ,
-2, ,23, ,
-1, ,23, ,
-1, ,23, ,
-2, ,23, ,
-1, ,23, ,
-2, ,23, ,
-1, ,23, ,
-1, ,23, ,
-1, ,23, ,
-1, ,23, ,
0, ,23, ,
0, ,23, ,
0, ,23, ,
0, ,23, ,
-1, ,23, ,
-1, ,23, ,
-1, ,23, ,
0, ,23, ,
0, ,23, ,
-1, ,23, ,
-1, ,23, ,
-1, ,23, ,
0, ,23, ,
0, ,23, ,
0, ,23, ,
0, ,23, ,
0, ,23, ,
0, ,23, ,
0, ,23, ,
0, ,23, ,
0, ,23, ,
0, ,23, ,
0, ,23, ,
1, ,23, ,
0, ,23, ,
0, ,23, ,
1, ,23, ,
0, ,23, ,
0, ,23, ,
0, ,23, ,
0, ,23, ,
1, ,23, ,
1, ,23, ,
0, ,23, ,
1, ,23, ,
0, ,23, ,
0, ,23, ,
0, ,23, ,
-1, ,23, ,
0, ,23, ,
1, ,23, ,
1, ,23, ,
1, ,23, ,
0, ,23, ,
1, ,23, ,
1, ,23, ,
0, ,23, ,
2, ,23, ,
0, ,23, ,
0, ,23, ,
1, ,23, ,
1, ,23, ,
0, ,23, ,
1, ,23, ,
1, ,23, ,
1, ,23, ,
1, ,23, ,
1, ,23, ,
1, ,23, ,
0, ,23, ,
-1, ,23, ,
-1, ,23, ,
-3, ,23, ,
-3, ,23, ,
-13, ,23, ,
-27, ,23, ,
-50, ,23, ,
-89, ,23, ,
-126, ,23, ,
-126, ,23, ,
-126, ,23, ,
-126, ,23, ,
-126, ,23, ,
-126, ,23, ,
-126, ,23, ,
-126, ,23, ,
-126, ,23, ,
-126, ,23, ,
-126, ,23, ,
-126, ,23, ,
-126, ,23, ,
-126, ,23, ,
-126, ,23, ,
-126, ,23, ,
-126, ,23, ,
-126, ,23, ,
-126, ,23, ,
-126, ,23, ,
-126, ,23, ,
-126, ,23, ,
-126, ,23, ,
-126, ,23, ,
-126, ,23, ,
-126, ,23, ,
-126, ,23, ,
-126, ,23, ,
-126, ,23, ,
-126, ,23, ,
-123, ,23, ,
-112, ,23, ,
125, ,23, ,
125, ,23, ,
125, ,23, ,
125, ,23, ,
125, ,23, ,
125, ,23, ,
125, ,23, ,
125, ,23, ,
125, ,23, ,
125, ,23, ,
125, ,23, ,
125, ,23, ,
125, ,23, ,
125, ,23, ,
125, ,23, ,
125, ,23, ,
125, ,23, ,
125, ,23, ,
125, ,23, ,
120, ,23, ,
-13, ,23, ,
-126, ,23, ,
-126, ,23, ,
-126, ,23, ,
-126, ,23, ,
-126, ,23, ,
-126, ,23, ,
-126, ,23, ,
-126, ,23, ,
-126, ,23, ,
-126, ,23, ,
-126, ,23, ,
-126, ,23, ,
-126, ,23, ,
-126, ,23, ,
-126, ,23, ,
-126, ,23, ,
-126, ,23, ,
-126, ,23, ,
-126, ,23, ,
-116, ,23, ,
-26, ,23, ,
113, ,23, ,
125, ,23, ,
125, ,23, ,
125, ,23, ,
125, ,23, ,
125, ,23, ,
125, ,23, ,
125, ,23, ,
125, ,23, ,
125, ,23, ,
125, ,23, ,
125, ,23, ,
125, ,23, ,
125, ,23, ,
125, ,23, ,
125, ,23, ,
125, ,23, ,
125, ,23, ,
125, ,23, ,
125, ,23, ,
125, ,23, ,
125, ,23, ,
125, ,23, ,
125, ,23, ,
125, ,23, ,
125, ,23, ,
125, ,23, ,
125, ,23, ,
125, ,23, ,
125, ,23, ,
125, ,23, ,
125, ,23, ,
125, ,23, ,
125, ,23, ,
125, ,23, ,
125, ,23, ,
125, ,23, ,
124, ,23, ,
110, ,23, ,
100, ,23, ,
89, ,23, ,
80, ,23, ,
66, ,23, ,
59, ,23, ,
56, ,23, ,
50, ,23, ,
43, ,23, ,
38, ,23, ,
32, ,23, ,
27, ,23, ,
14, ,23, ,
5, ,23, ,
-1, ,23, ,
-8, ,23, ,
-19, ,23, ,
-20, ,23, ,
-25, ,23, ,
-27, ,23, ,
-31, ,23, ,
-35, ,23, ,
-37, ,23, ,
-44, ,23, ,
-57, ,23, ,
-65, ,23, ,
-76, ,23, ,
-85, ,23, ,
-104, ,23, ,
-114, ,23, ,
-120, ,23, ,
-126, ,23, ,
-126, ,23, ,
-126, ,23, ,
-126, ,23, ,
-126, ,23, ,
-126, ,23, ,
-119, ,23, ,
-109, ,23, ,
-102, ,23, ,
-80, ,23, ,
-67, ,23, ,
-55, ,23, ,
-42, ,23, ,
-18, ,23, ,
-8, ,23, ,
4, ,23, ,
15, ,23, ,
35, ,23, ,
47, ,23, ,
57, ,23, ,
65, ,23, ,
82, ,23, ,
87, ,23, ,
93, ,23, ,
95, ,23, ,
96, ,23, ,
96, ,23, ,
93, ,23, ,
93, ,23, ,
82, ,23, ,
76, ,23, ,
70, ,23, ,
64, ,23, ,
50, ,23, ,
44, ,23, ,
37, ,23, ,
33, ,23, ,
22, ,23, ,
15, ,23, ,
11, ,23, ,
5, ,23, ,
-5, ,23, ,
-6, ,23, ,
-14, ,23, ,
-15, ,23, ,
-21, ,23, ,
-24, ,23, ,
-24, ,23, ,
-24, ,23, ,
-22, ,23, ,
-18, ,23, ,
-15, ,23, ,
-10, ,23, ,
5, ,23, ,
14, ,23, ,
23, ,23, ,
31, ,23, ,
48, ,23, ,
57, ,23, ,
63, ,23, ,
71, ,23, ,
79, ,23, ,
82, ,23, ,
86, ,23, ,
87, ,23, ,
89, ,23, ,
90, ,23, ,
89, ,23, ,
89, ,23, ,
88, ,23, ,
86, ,23, ,
85, ,23, ,
83, ,23, ,
79, ,23, ,
79, ,23, ,
77, ,23, ,
75, ,23, ,
71, ,23, ,
67, ,23, ,
66, ,23, ,
64, ,23, ,
59, ,23, ,
58, ,23, ,
56, ,23, ,
55, ,23, ,
50, ,23, ,
48, ,23, ,
47, ,23, ,
43, ,23, ,
39, ,23, ,
38, ,23, ,
35, ,23, ,
34, ,23, ,
30, ,23, ,
24, ,23, ,
22, ,23, ,
20, ,23, ,
2, ,23, ,
-9, ,23, ,
-25, ,23, ,
-46, ,23, ,
-109, ,23, ,
-126, ,23, ,
-126, ,23, ,
-126, ,23, ,
-126, ,23, ,
-126, ,23, ,
-126, ,23, ,
-126, ,23, ,
-126, ,23, ,
-126, ,23, ,
-126, ,23, ,
-126, ,23, ,
-126, ,23, ,
-126, ,23, ,
-126, ,23, ,
-126, ,23, ,
-126, ,23, ,
-126, ,23, ,
-126, ,23, ,
-126, ,23, ,
-126, ,23, ,
-126, ,23, ,
-126, ,23, ,
-126, ,23, ,
-126, ,23, ,
-126, ,23, ,
-126, ,23, ,
-126, ,23, ,
-126, ,23, ,
-126, ,23, ,
-126, ,23, ,
-126, ,23, ,
-126, ,23, ,
-126, ,23, ,
-126, ,23, ,
-126, ,23, ,
-126, ,23, ,
-126, ,23, ,
-126, ,23, ,
-126, ,23, ,
-114, ,23, ,
-95, ,23, ,
-33, ,23, ,
80, ,23, ,
125, ,23, ,
125, ,23, ,
125, ,23, ,
125, ,23, ,
125, ,23, ,
125, ,23, ,
125, ,23, ,
125, ,23, ,
125, ,23, ,
125, ,23, ,
125, ,23, ,
125, ,23, ,
125, ,23, ,
125, ,23, ,
125, ,23, ,
125, ,23, ,
125, ,23, ,
125, ,23, ,
125, ,23, ,
125, ,23, ,
125, ,23, ,
125, ,23, ,
125, ,23, ,
125, ,23, ,
125, ,23, ,
125, ,23, ,
125, ,23, ,
125, ,23, ,
125, ,23, ,
124, ,23, ,
123, ,23, ,
105, ,23, ,
37, ,23, ,
-1, ,23, ,
-43, ,23, ,
-79, ,23, ,
-124, ,23, ,
-126, ,23, ,
-126, ,23, ,
-126, ,23, ,
-125, ,23, ,
-115, ,23, ,
-101, ,23, ,
-82, ,23, ,
-42, ,23, ,
-28, ,23, ,
-9, ,23, ,
5, ,23, ,
24, ,23, ,
34, ,23, ,
39, ,23, ,
46, ,23, ,
54, ,23, ,
57, ,23, ,
59, ,23, ,
59, ,23, ,
59, ,23, ,
60, ,23, ,
56, ,23, ,
54, ,23, ,
44, ,23, ,
36, ,23, ,
29, ,23, ,
20, ,23, ,
4, ,23, ,
-4, ,23, ,
-12, ,23, ,
-16, ,23, ,
-22, ,23, ,
-21, ,23, ,
-18, ,23, ,
-16, ,23, ,
-5, ,23, ,
4, ,23, ,
8, ,23, ,
16, ,23, ,
30, ,23, ,
32, ,23, ,
35, ,23, ,
35, ,23, ,
35, ,23, ,
34, ,23, ,
30, ,23, ,
26, ,23, ,
13, ,23, ,
6, ,23, ,
0, ,23, ,
-9, ,23, ,
-23, ,23, ,
-29, ,23, ,
-36, ,23, ,
-43, ,23, ,
-53, ,23, ,
-62, ,23, ,
-65, ,23, ,
-71, ,23, ,
-79, ,23, ,
-80, ,23, ,
-84, ,23, ,
-84, ,23, ,
-86, ,23, ,
-85, ,23, ,
-84, ,23, ,
-84, ,23, ,
-81, ,23, ,
-77, ,23, ,
-74, ,23, ,
-70, ,23, ,
-66, ,23, ,
-64, ,23, ,
-61, ,23, ,
-60, ,23, ,
-57, ,23, ,
-54, ,23, ,
-53, ,23, ,
-51, ,23, ,
-50, ,23, ,
-51, ,23, ,
-49, ,23, ,
-50, ,23, ,
-50, ,23, ,
-50, ,23, ,
-50, ,23, ,
-50, ,23, ,
-50, ,23, ,
-51, ,23, ,
-51, ,23, ,
-51, ,23, ,
-51, ,23, ,
-49, ,23, ,
-48, ,23, ,
-47, ,23, ,
-46, ,23, ,
-45, ,23, ,
-43, ,23, ,
-41, ,23, ,
-39, ,23, ,
-37, ,23, ,
-39, ,23, ,
-36, ,23, ,
-35, ,23, ,
-36, ,23, ,
-35, ,23, ,
-36, ,23, ,
-39, ,23, ,
-39, ,23, ,
-42, ,23, ,
-43, ,23, ,
-49, ,23, ,
-51, ,23, ,
-54, ,23, ,
-59, ,23, ,
-63, ,23, ,
-66, ,23, ,
-69, ,23, ,
-70, ,23, ,
-73, ,23, ,
-74, ,23, ,
-74, ,23, ,
-74, ,23, ,
-72, ,23, ,
-69, ,23, ,
-67, ,23, ,
-65, ,23, ,
-58, ,23, ,
-56, ,23, ,
-51, ,23, ,
-46, ,23, ,
-35, ,23, ,
-29, ,23, ,
-22, ,23, ,
-14, ,23, ,
5, ,23, ,
16, ,23, ,
27, ,23, ,
36, ,23, ,
62, ,23, ,
75, ,23, ,
88, ,23, ,
103, ,23, ,
125, ,23, ,
125, ,23, ,
125, ,23, ,
125, ,23, ,
125, ,23, ,
125, ,23, ,
125, ,23, ,
125, ,23, ,
125, ,23, ,
125, ,23, ,
125, ,23, ,
125, ,23, ,
125, ,23, ,
125, ,23, ,
125, ,23, ,
125, ,23, ,
125, ,23, ,
125, ,23, ,
125, ,23, ,
125, ,23, ,
125, ,23, ,
125, ,23, ,
125, ,23, ,
125, ,23, ,
125, ,23, ,
125, ,23, ,
125, ,23, ,
125, ,23, ,
124, ,23, ,
124, ,23, ,
120, ,23, ,
115, ,23, ,
105, ,23, ,
100, ,23, ,
94, ,23, ,
87, ,23, ,
67, ,23, ,
52, ,23, ,
33, ,23, ,
6, ,23, ,
-71, ,23, ,
-114, ,23, ,
-126, ,23, ,
-126, ,23, ,
-126, ,23, ,
-126, ,23, ,
-126, ,23, ,
-126, ,23, ,
-126, ,23, ,
-126, ,23, ,
-126, ,23, ,
-126, ,23, ,
-126, ,23, ,
-126, ,23, ,
-126, ,23, ,
-126, ,23, ,
-126, ,23, ,
-126, ,23, ,
-126, ,23, ,
-126, ,23, ,
-126, ,23, ,
-126, ,23, ,
-126, ,23, ,
-126, ,23, ,
-126, ,23, ,
-126, ,23, ,
-126, ,23, ,
-126, ,23, ,
-126, ,23, ,
-126, ,23, ,
-126, ,23, ,
-126, ,23, ,
-126, ,23, ,
-126, ,23, ,
-126, ,23, ,
-126, ,23, ,
-126, ,23, ,
-125, ,23, ,
-114, ,23, ,
-75, ,23, ,
19, ,23, ,
56, ,23, ,
87, ,23, ,
109, ,23, ,
125, ,23, ,
125, ,23, ,
125, ,23, ,
125, ,23, ,
125, ,23, ,
125, ,23, ,
125, ,23, ,
125, ,23, ,
125, ,23, ,
125, ,23, ,
125, ,23, ,
125, ,23, ,
124, ,23, ,
123, ,23, ,
111, ,23, ,
96, ,23, ,
73, ,23, ,
64, ,23, ,
55, ,23, ,
48, ,23, ,
36, ,23, ,
32, ,23, ,
30, ,23, ,
29, ,23, ,
27, ,23, ,
29, ,23, ,
28, ,23, ,
29, ,23, ,
29, ,23, ,
28, ,23, ,
28, ,23, ,
27, ,23, ,
23, ,23, ,
21, ,23, ,
17, ,23, ,
15, ,23, ,
9, ,23, ,
3, ,23, ,
-1, ,23, ,
-6, ,23, ,
-15, ,23, ,
-16, ,23, ,
-20, ,23, ,
-23, ,23, ,
-23, ,23, ,
-24, ,23, ,
-24, ,23, ,
-24, ,23, ,
-19, ,23, ,
-15, ,23, ,
-14, ,23, ,
-7, ,23, ,
2, ,23, ,
6, ,23, ,
13, ,23, ,
17, ,23, ,
28, ,23, ,
33, ,23, ,
35, ,23, ,
41, ,23, ,
44, ,23, ,
44, ,23, ,
44, ,23, ,
43, ,23, ,
39, ,23, ,
39, ,23, ,
35, ,23, ,
31, ,23, ,
25, ,23, ,
19, ,23, ,
17, ,23, ,
12, ,23, ,
6, ,23, ,
5, ,23, ,
4, ,23, ,
3, ,23, ,
3, ,23, ,
3, ,23, ,
5, ,23, ,
6, ,23, ,
11, ,23, ,
15, ,23, ,
16, ,23, ,
20, ,23, ,
27, ,23, ,
28, ,23, ,
33, ,23, ,
34, ,23, ,
37, ,23, ,
41, ,23, ,
40, ,23, ,
43, ,23, ,
43, ,23, ,
40, ,23, ,
40, ,23, ,
37, ,23, ,
34, ,23, ,
33, ,23, ,
27, ,23, ,
26, ,23, ,
19, ,23, ,
14, ,23, ,
12, ,23, ,
8, ,23, ,
0, ,23, ,
-3, ,23, ,
-6, ,23, ,
-8, ,23, ,
-12, ,23, ,
-15, ,23, ,
-17, ,23, ,
-20, ,23, ,
-22, ,23, ,
-21, ,23, ,
-23, ,23, ,
-22, ,23, ,
-22, ,23, ,
-23, ,23, ,
-22, ,23, ,
-21, ,23, ,
-20, ,23, ,
-19, ,23, ,
-21, ,23, ,
-18, ,23, ,
-20, ,23, ,
-21, ,23, ,
-21, ,23, ,
-24, ,23, ,
-27, ,23, ,
-28, ,23, ,
-30, ,23, ,
-32, ,23, ,
-35, ,23, ,
-40, ,23, ,
-41, ,23, ,
-45, ,23, ,
-50, ,23, ,
-53, ,23, ,
-59, ,23, ,
-62, ,23, ,
-69, ,23, ,
-74, ,23, ,
-77, ,23, ,
-83, ,23, ,
-91, ,23, ,
-97, ,23, ,
-104, ,23, ,
-105, ,23, ,
-116, ,23, ,
-119, ,23, ,
-124, ,23, ,
-126, ,23, ,
-126, ,23, ,
-126, ,23, ,
-126, ,23, ,
-126, ,23, ,
-126, ,23, ,
-126, ,23, ,
-126, ,23, ,
-126, ,23, ,
-126, ,23, ,
-126, ,23, ,
-126, ,23, ,
-126, ,23, ,
-126, ,23, ,
-126, ,23, ,
-119, ,23, ,
-115, ,23, ,
-100, ,23, ,
-92, ,23, ,
-83, ,23, ,
-73, ,23, ,
-52, ,23, ,
-42, ,23, ,
-31, ,23, ,
-21, ,23, ,
1, ,23, ,
12, ,23, ,
24, ,23, ,
35, ,23, ,
61, ,23, ,
73, ,23, ,
89, ,23, ,
100, ,23, ,
125, ,23, ,
125, ,23, ,
125, ,23, ,
125, ,23, ,
125, ,23, ,
125, ,23, ,
125, ,23, ,
125, ,23, ,
125, ,23, ,
125, ,23, ,
125, ,23, ,
125, ,23, ,
125, ,23, ,
125, ,23, ,
125, ,23, ,
125, ,23, ,
125, ,23, ,
125, ,23, ,
125, ,23, ,
125, ,23, ,
125, ,23, ,
125, ,23, ,
125, ,23, ,
125, ,23, ,
125, ,23, ,
125, ,23, ,
124, ,23, ,
124, ,23, ,
113, ,23, ,
104, ,23, ,
97, ,23, ,
87, ,23, ,
69, ,23, ,
59, ,23, ,
49, ,23, ,
39, ,23, ,
16, ,23, ,
3, ,23, ,
-9, ,23, ,
-24, ,23, ,
-52, ,23, ,
-66, ,23, ,
-81, ,23, ,
-95, ,23, ,
-119, ,23, ,
-126, ,23, ,
-126, ,23, ,
-126, ,23, ,
-126, ,23, ,
-126, ,23, ,
-126, ,23, ,
-126, ,23, ,
-126, ,23, ,
-126, ,23, ,
-126, ,23, ,
-126, ,23, ,
-126, ,23, ,
-126, ,23, ,
-123, ,23, ,
-112, ,23, ,
-95, ,23, ,
-86, ,23, ,
-77, ,23, ,
-70, ,23, ,
-57, ,23, ,
-51, ,23, ,
-47, ,23, ,
-41, ,23, ,
-36, ,23, ,
-35, ,23, ,
-35, ,23, ,
-35, ,23, ,
-32, ,23, ,
-30, ,23, ,
-30, ,23, ,
-28, ,23, ,
-22, ,23, ,
-22, ,23, ,
-17, ,23, ,
-15, ,23, ,
-7, ,23, ,
-4, ,23, ,
0, ,23, ,
6, ,23, ,
12, ,23, ,
16, ,23, ,
19, ,23, ,
21, ,23, ,
25, ,23, ,
26, ,23, ,
26, ,23, ,
26, ,23, ,
23, ,23, ,
19, ,23, ,
20, ,23, ,
15, ,23, ,
10, ,23, ,
8, ,23, ,
4, ,23, ,
2, ,23, ,
-5, ,23, ,
-8, ,23, ,
-9, ,23, ,
-13, ,23, ,
-16, ,23, ,
-16, ,23, ,
-17, ,23, ,
-16, ,23, ,
-15, ,23, ,
-15, ,23, ,
-13, ,23, ,
-14, ,23, ,
-9, ,23, ,
-7, ,23, ,
-5, ,23, ,
-1, ,23, ,
3, ,23, ,
3, ,23, ,
5, ,23, ,
5, ,23, ,
8, ,23, ,
9, ,23, ,
7, ,23, ,
7, ,23, ,
7, ,23, ,
4, ,23, ,
4, ,23, ,
0, ,23, ,
-3, ,23, ,
-4, ,23, ,
-5, ,23, ,
-6, ,23, ,
-8, ,23, ,
-9, ,23, ,
-9, ,23, ,
-12, ,23, ,
-11, ,23, ,
-9, ,23, ,
-10, ,23, ,
-8, ,23, ,
-6, ,23, ,
-7, ,23, ,
-4, ,23, ,
-3, ,23, ,
-3, ,23, ,
0, ,23, ,
1, ,23, ,
1, ,23, ,
3, ,23, ,
4, ,23, ,
5, ,23, ,
4, ,23, ,
6, ,23, ,
7, ,23, ,
5, ,23, ,
6, ,23, ,
6, ,23, ,
6, ,23, ,
6, ,23, ,
5, ,23, ,
6, ,23, ,
6, ,23, ,
6, ,23, ,
6, ,23, ,
7, ,23, ,
6, ,23, ,
9, ,23, ,
8, ,23, ,
9, ,23, ,
13, ,23, ,
11, ,23, ,
15, ,23, ,
18, ,23, ,
18, ,23, ,
21, ,23, ,
22, ,23, ,
26, ,23, ,
31, ,23, ,
31, ,23, ,
35, ,23, ,
37, ,23, ,
39, ,23, ,
42, ,23, ,
42, ,23, ,
47, ,23, ,
49, ,23, ,
51, ,23, ,
54, ,23, ,
57, ,23, ,
57, ,23, ,
61, ,23, ,
60, ,23, ,
62, ,23, ,
65, ,23, ,
65, ,23, ,
66, ,23, ,
67, ,23, ,
67, ,23, ,
67, ,23, ,
66, ,23, ,
65, ,23, ,
66, ,23, ,
61, ,23, ,
61, ,23, ,
57, ,23, ,
54, ,23, ,
50, ,23, ,
46, ,23, ,
39, ,23, ,
36, ,23, ,
31, ,23, ,
25, ,23, ,
14, ,23, ,
6, ,23, ,
0, ,23, ,
-8, ,23, ,
-22, ,23, ,
-30, ,23, ,
-37, ,23, ,
-45, ,23, ,
-59, ,23, ,
-68, ,23, ,
-74, ,23, ,
-84, ,23, ,
-97, ,23, ,
-102, ,23, ,
-110, ,23, ,
-114, ,23, ,
-126, ,23, ,
-126, ,23, ,
-126, ,23, ,
-126, ,23, ,
-126, ,23, ,
-126, ,23, ,
-126, ,23, ,
-126, ,23, ,
-126, ,23, ,
-126, ,23, ,
-126, ,23, ,
-126, ,23, ,
-126, ,23, ,
-126, ,23, ,
-126, ,23, ,
-126, ,23, ,
-126, ,23, ,
-126, ,23, ,
-126, ,23, ,
-126, ,23, ,
-117, ,23, ,
-109, ,23, ,
-100, ,23, ,
-90, ,23, ,
-69, ,23, ,
-58, ,23, ,
-47, ,23, ,
-37, ,23, ,
-17, ,23, ,
-7, ,23, ,
3, ,23, ,
13, ,23, ,
30, ,23, ,
36, ,23, ,
44, ,23, ,
52, ,23, ,
67, ,23, ,
74, ,23, ,
80, ,23, ,
87, ,23, ,
102, ,23, ,
106, ,23, ,
113, ,23, ,
118, ,23, ,
125, ,23, ,
125, ,23, ,
125, ,23, ,
125, ,23, ,
125, ,23, ,
125, ,23, ,
125, ,23, ,
125, ,23, ,
125, ,23, ,
125, ,23, ,
125, ,23, ,
125, ,23, ,
124, ,23, ,
124, ,23, ,
119, ,23, ,
112, ,23, ,
98, ,23, ,
90, ,23, ,
82, ,23, ,
74, ,23, ,
58, ,23, ,
49, ,23, ,
42, ,23, ,
34, ,23, ,
23, ,23, ,
17, ,23, ,
10, ,23, ,
7, ,23, ,
-2, ,23, ,
-8, ,23, ,
-9, ,23, ,
-14, ,23, ,
-21, ,23, ,
-23, ,23, ,
-26, ,23, ,
-28, ,23, ,
-34, ,23, ,
-36, ,23, ,
-40, ,23, ,
-44, ,23, ,
-50, ,23, ,
-51, ,23, ,
-55, ,23, ,
-58, ,23, ,
-60, ,23, ,
-63, ,23, ,
-62, ,23, ,
-64, ,23, ,
-64, ,23, ,
-61, ,23, ,
-61, ,23, ,
-58, ,23, ,
-54, ,23, ,
-51, ,23, ,
-46, ,23, ,
-45, ,23, ,
-38, ,23, ,
-34, ,23, ,
-31, ,23, ,
-27, ,23, ,
-19, ,23, ,
-18, ,23, ,
-15, ,23, ,
-12, ,23, ,
-9, ,23, ,
-6, ,23, ,
-5, ,23, ,
-3, ,23, ,
-1, ,23, ,
-2, ,23, ,
-1, ,23, ,
-2, ,23, ,
-1, ,23, ,
-1, ,23, ,
-3, ,23, ,
-3, ,23, ,
-3, ,23, ,
-4, ,23, ,
-3, ,23, ,
-4, ,23, ,
-3, ,23, ,
-1, ,23, ,
-1, ,23, ,
0, ,23, ,
1, ,23, ,
2, ,23, ,
3, ,23, ,
1, ,23, ,
5, ,23, ,
6, ,23, ,
6, ,23, ,
6, ,23, ,
6, ,23, ,
6, ,23, ,
6, ,23, ,
5, ,23, ,
4, ,23, ,
4, ,23, ,
2, ,23, ,
3, ,23, ,
0, ,23, ,
0, ,23, ,
-2, ,23, ,
-4, ,23, ,
-5, ,23, ,
-5, ,23, ,
-6, ,23, ,
-8, ,23, ,
-8, ,23, ,
-9, ,23, ,
-9, ,23, ,
-9, ,23, ,
-10, ,23, ,
-8, ,23, ,
-9, ,23, ,
-9, ,23, ,
-10, ,23, ,
-10, ,23, ,
-10, ,23, ,
-10, ,23, ,
-11, ,23, ,
-12, ,23, ,
-13, ,23, ,
-13, ,23, ,
-15, ,23, ,
-16, ,23, ,
-17, ,23, ,
-20, ,23, ,
-22, ,23, ,
-22, ,23, ,
-24, ,23, ,
-24, ,23, ,
-27, ,23, ,
-29, ,23, ,
-29, ,23, ,
-31, ,23, ,
-33, ,23, ,
-33, ,23, ,
-34, ,23, ,
-34, ,23, ,
-34, ,23, ,
-35, ,23, ,
-33, ,23, ,
-34, ,23, ,
-34, ,23, ,
-32, ,23, ,
-30, ,23, ,
-29, ,23, ,
-27, ,23, ,
-27, ,23, ,
-24, ,23, ,
-25, ,23, ,
-20, ,23, ,
-17, ,23, ,
-17, ,23, ,
-14, ,23, ,
-9, ,23, ,
-7, ,23, ,
-5, ,23, ,
-2, ,23, ,
3, ,23, ,
6, ,23, ,
10, ,23, ,
13, ,23, ,
19, ,23, ,
23, ,23, ,
29, ,23, ,
32, ,23, ,
38, ,23, ,
44, ,23, ,
47, ,23, ,
53, ,23, ,
62, ,23, ,
65, ,23, ,
70, ,23, ,
75, ,23, ,
83, ,23, ,
85, ,23, ,
89, ,23, ,
94, ,23, ,
97, ,23, ,
100, ,23, ,
102, ,23, ,
103, ,23, ,
105, ,23, ,
105, ,23, ,
105, ,23, ,
105, ,23, ,
104, ,23, ,
101, ,23, ,
101, ,23, ,
97, ,23, ,
93, ,23, ,
90, ,23, ,
86, ,23, ,
85, ,23, ,
77, ,23, ,
72, ,23, ,
69, ,23, ,
61, ,23, ,
53, ,23, ,
46, ,23, ,
38, ,23, ,
35, ,23, ,
22, ,23, ,
15, ,23, ,
7, ,23, ,
0, ,23, ,
-16, ,23, ,
-23, ,23, ,
-32, ,23, ,
-36, ,23, ,
-52, ,23, ,
-60, ,23, ,
-64, ,23, ,
-73, ,23, ,
-84, ,23, ,
-89, ,23, ,
-94, ,23, ,
-98, ,23, ,
-105, ,23, ,
-108, ,23, ,
-109, ,23, ,
-111, ,23, ,
-113, ,23, ,
-114, ,23, ,
-113, ,23, ,
-113, ,23, ,
-112, ,23, ,
-112, ,23, ,
-109, ,23, ,
-108, ,23, ,
-105, ,23, ,
-101, ,23, ,
-101, ,23, ,
-96, ,23, ,
-88, ,23, ,
-84, ,23, ,
-79, ,23, ,
-73, ,23, ,
-61, ,23, ,
-56, ,23, ,
-50, ,23, ,
-41, ,23, ,
-29, ,23, ,
-21, ,23, ,
-14, ,23, ,
-7, ,23, ,
7, ,23, ,
15, ,23, ,
22, ,23, ,
28, ,23, ,
37, ,23, ,
41, ,23, ,
46, ,23, ,
49, ,23, ,
54, ,23, ,
