raw_data/100% Glycerol, Impulsion 2Hz, Sonde 5MHz, Rampe 0.7Hz/temp0000287.CSV

Format,1.0B,
Memory Length,10000,Memory Length,10000,
IntpDistance,0,IntpDistance,0,
Trigger Address,159,Trigger Address,159,
Trigger Level,2.720E-01,Trigger Level,2.720E-01,
Source,CH1,Source,CH2,
Vertical Units,V,Vertical Units,V,
Vertical Units Div,0,Vertical Units Div,0,
Vertical Units Extend Div,16,Vertical Units Extend Div,16,
Label,,Label,,
Probe Type,0,Probe Type,0,
Probe Ratio,1.000e+00,Probe Ratio,1.000e+00,
Vertical Scale,2.000e-01,Vertical Scale,2.000e+00,
Vertical Position,0.000e+00,Vertical Position,0.000e+00,
Horizontal Units,S,Horizontal Units,S,
Horizontal Scale,5.000E-06,Horizontal Scale,5.000E-06,
Horizontal Position,2.420E-05,Horizontal Position,2.420E-05,
Horizontal Mode,Main,Horizontal Mode,Main,
SincET Mode,Real Time,SincET Mode,Real Time,
Sampling Period,5.000e-09,Sampling Period,5.000e-09,
Horizontal Old Scale,5.000E-06,Horizontal Old Scale,5.000E-06,
Horizontal Old Position,2.420E-05,Horizontal Old Position,2.420E-05,
Firmware,V1.32,Firmware,V1.32,
Mode,Fast,Mode,Fast,
Waveform Data,,Waveform Data,,
2, ,11, ,
1, ,11, ,
2, ,11, ,
2, ,11, ,
2, ,11, ,
2, ,11, ,
1, ,11, ,
0, ,11, ,
2, ,11, ,
2, ,11, ,
3, ,11, ,
3, ,11, ,
2, ,11, ,
2, ,11, ,
1, ,11, ,
2, ,11, ,
2, ,11, ,
1, ,11, ,
2, ,11, ,
2, ,11, ,
2, ,11, ,
2, ,11, ,
2, ,11, ,
1, ,11, ,
2, ,11, ,
1, ,11, ,
3, ,11, ,
2, ,11, ,
2, ,11, ,
2, ,11, ,
2, ,11, ,
1, ,11, ,
2, ,11, ,
1, ,11, ,
1, ,11, ,
2, ,11, ,
2, ,11, ,
2, ,11, ,
1, ,11, ,
1, ,11, ,
2, ,11, ,
2, ,11, ,
2, ,11, ,
2, ,11, ,
1, ,11, ,
2, ,11, ,
0, ,11, ,
2, ,11, ,
2, ,11, ,
1, ,11, ,
2, ,11, ,
2, ,11, ,
1, ,11, ,
2, ,11, ,
2, ,11, ,
2, ,11, ,
3, ,11, ,
3, ,11, ,
3, ,11, ,
2, ,11, ,
1, ,11, ,
2, ,11, ,
1, ,11, ,
2, ,11, ,
3, ,11, ,
1, ,11, ,
3, ,11, ,
2, ,11, ,
2, ,11, ,
1, ,11, ,
1, ,11, ,
1, ,11, ,
2, ,11, ,
1, ,11, ,
1, ,11, ,
2, ,11, ,
2, ,11, ,
1, ,11, ,
2, ,11, ,
2, ,11, ,
2, ,11, ,
2, ,11, ,
2, ,11, ,
2, ,11, ,
2, ,11, ,
2, ,11, ,
1, ,11, ,
1, ,11, ,
2, ,11, ,
2, ,11, ,
2, ,11, ,
3, ,11, ,
2, ,11, ,
2, ,11, ,
2, ,11, ,
2, ,11, ,
2, ,11, ,
2, ,11, ,
2, ,11, ,
2, ,11, ,
2, ,11, ,
1, ,11, ,
2, ,11, ,
1, ,11, ,
2, ,11, ,
2, ,11, ,
2, ,11, ,
2, ,11, ,
1, ,11, ,
2, ,11, ,
2, ,11, ,
2, ,11, ,
1, ,11, ,
0, ,11, ,
1, ,11, ,
2, ,11, ,
2, ,11, ,
2, ,11, ,
1, ,11, ,
1, ,11, ,
2, ,11, ,
2, ,11, ,
2, ,11, ,
2, ,11, ,
1, ,11, ,
2, ,11, ,
1, ,11, ,
1, ,11, ,
2, ,11, ,
2, ,11, ,
2, ,11, ,
2, ,11, ,
1, ,11, ,
2, ,11, ,
2, ,11, ,
1, ,11, ,
2, ,11, ,
2, ,11, ,
2, ,11, ,
2, ,11, ,
2, ,11, ,
3, ,11, ,
3, ,11, ,
2, ,11, ,
2, ,11, ,
1, ,11, ,
2, ,11, ,
2, ,11, ,
1, ,11, ,
2, ,11, ,
2, ,11, ,
1, ,11, ,
3, ,11, ,
2, ,11, ,
2, ,11, ,
2, ,11, ,
2, ,11, ,
2, ,11, ,
2, ,11, ,
2, ,11, ,
2, ,11, ,
1, ,11, ,
2, ,11, ,
1, ,11, ,
2, ,11, ,
-1, ,11, ,
2, ,11, ,
4, ,11, ,
43, ,11, ,
112, ,11, ,
125, ,11, ,
125, ,11, ,
124, ,11, ,
119, ,11, ,
95, ,11, ,
10, ,11, ,
125, ,11, ,
125, ,11, ,
125, ,11, ,
125, ,11, ,
125, ,11, ,
125, ,11, ,
125, ,11, ,
125, ,11, ,
125, ,11, ,
125, ,11, ,
125, ,11, ,
125, ,11, ,
125, ,11, ,
125, ,11, ,
125, ,11, ,
125, ,11, ,
125, ,11, ,
125, ,11, ,
125, ,11, ,
125, ,11, ,
125, ,11, ,
125, ,11, ,
125, ,11, ,
125, ,11, ,
125, ,11, ,
125, ,11, ,
125, ,11, ,
124, ,11, ,
118, ,11, ,
115, ,11, ,
108, ,11, ,
100, ,11, ,
98, ,11, ,
93, ,11, ,
88, ,11, ,
81, ,11, ,
78, ,11, ,
74, ,11, ,
70, ,11, ,
63, ,11, ,
60, ,11, ,
58, ,11, ,
58, ,11, ,
51, ,11, ,
48, ,11, ,
46, ,11, ,
44, ,11, ,
38, ,11, ,
38, ,11, ,
36, ,11, ,
35, ,11, ,
32, ,11, ,
29, ,11, ,
28, ,11, ,
27, ,11, ,
23, ,11, ,
23, ,11, ,
20, ,11, ,
20, ,11, ,
17, ,11, ,
16, ,11, ,
17, ,11, ,
14, ,11, ,
13, ,11, ,
12, ,11, ,
11, ,11, ,
10, ,11, ,
9, ,11, ,
8, ,11, ,
8, ,11, ,
7, ,11, ,
5, ,11, ,
5, ,11, ,
5, ,11, ,
4, ,11, ,
4, ,11, ,
3, ,11, ,
3, ,11, ,
2, ,11, ,
1, ,11, ,
1, ,11, ,
0, ,11, ,
0, ,11, ,
0, ,11, ,
-1, ,11, ,
0, ,11, ,
-1, ,11, ,
-1, ,11, ,
-2, ,11, ,
-1, ,11, ,
-1, ,11, ,
-2, ,11, ,
-1, ,11, ,
-2, ,11, ,
-2, ,11, ,
-2, ,11, ,
-1, ,11, ,
-2, ,11, ,
-2, ,11, ,
-2, ,11, ,
-3, ,11, ,
-1, ,11, ,
-2, ,11, ,
-3, ,11, ,
-3, ,11, ,
-4, ,11, ,
-2, ,11, ,
-3, ,11, ,
-3, ,11, ,
-2, ,11, ,
-3, ,11, ,
-3, ,11, ,
-2, ,11, ,
-2, ,11, ,
-2, ,11, ,
-2, ,11, ,
-4, ,11, ,
-2, ,11, ,
-3, ,11, ,
-3, ,11, ,
-2, ,11, ,
-1, ,11, ,
-2, ,11, ,
-2, ,11, ,
-2, ,11, ,
-2, ,11, ,
-2, ,11, ,
-2, ,11, ,
-1, ,11, ,
-2, ,11, ,
-1, ,11, ,
-1, ,11, ,
-2, ,11, ,
-1, ,11, ,
-2, ,11, ,
-2, ,11, ,
-1, ,11, ,
-1, ,11, ,
-1, ,11, ,
-1, ,11, ,
-1, ,11, ,
-1, ,11, ,
-1, ,11, ,
-1, ,11, ,
-1, ,11, ,
-1, ,11, ,
-1, ,11, ,
-1, ,11, ,
-1, ,11, ,
0, ,11, ,
0, ,11, ,
-1, ,11, ,
-1, ,11, ,
-1, ,11, ,
0, ,11, ,
0, ,11, ,
-1, ,11, ,
0, ,11, ,
-2, ,11, ,
0, ,11, ,
0, ,11, ,
0, ,11, ,
1, ,11, ,
1, ,11, ,
0, ,11, ,
0, ,11, ,
0, ,11, ,
0, ,11, ,
1, ,11, ,
0, ,11, ,
0, ,11, ,
0, ,11, ,
0, ,11, ,
0, ,11, ,
0, ,11, ,
2, ,11, ,
1, ,11, ,
0, ,11, ,
2, ,11, ,
1, ,11, ,
1, ,11, ,
1, ,11, ,
1, ,11, ,
1, ,11, ,
1, ,11, ,
1, ,11, ,
2, ,11, ,
1, ,11, ,
1, ,11, ,
1, ,11, ,
1, ,11, ,
1, ,11, ,
1, ,11, ,
1, ,11, ,
1, ,11, ,
2, ,11, ,
1, ,11, ,
1, ,11, ,
1, ,11, ,
1, ,11, ,
2, ,11, ,
1, ,11, ,
2, ,11, ,
1, ,11, ,
2, ,11, ,
2, ,11, ,
1, ,11, ,
1, ,11, ,
1, ,11, ,
1, ,11, ,
2, ,11, ,
2, ,11, ,
1, ,11, ,
2, ,11, ,
2, ,11, ,
1, ,11, ,
1, ,11, ,
2, ,11, ,
2, ,11, ,
2, ,11, ,
2, ,11, ,
2, ,11, ,
1, ,11, ,
2, ,11, ,
2, ,11, ,
1, ,11, ,
1, ,11, ,
2, ,11, ,
1, ,11, ,
2, ,11, ,
1, ,11, ,
1, ,11, ,
2, ,11, ,
1, ,11, ,
2, ,11, ,
3, ,11, ,
2, ,11, ,
2, ,11, ,
1, ,11, ,
2, ,11, ,
2, ,11, ,
2, ,11, ,
3, ,11, ,
2, ,11, ,
1, ,11, ,
2, ,11, ,
1, ,11, ,
1, ,11, ,
1, ,11, ,
1, ,11, ,
1, ,11, ,
1, ,11, ,
1, ,11, ,
2, ,11, ,
1, ,11, ,
2, ,11, ,
2, ,11, ,
1, ,11, ,
2, ,11, ,
2, ,11, ,
1, ,11, ,
2, ,11, ,
1, ,11, ,
0, ,11, ,
2, ,11, ,
1, ,11, ,
0, ,11, ,
0, ,11, ,
0, ,11, ,
0, ,11, ,
-1, ,11, ,
0, ,11, ,
0, ,11, ,
0, ,11, ,
1, ,11, ,
1, ,11, ,
1, ,11, ,
2, ,11, ,
1, ,11, ,
2, ,11, ,
1, ,11, ,
2, ,11, ,
2, ,11, ,
1, ,11, ,
1, ,11, ,
2, ,11, ,
1, ,11, ,
1, ,11, ,
2, ,11, ,
1, ,11, ,
1, ,11, ,
2, ,11, ,
1, ,11, ,
2, ,11, ,
2, ,11, ,
1, ,11, ,
3, ,11, ,
2, ,11, ,
2, ,11, ,
2, ,11, ,
1, ,11, ,
2, ,11, ,
1, ,11, ,
0, ,11, ,
0, ,11, ,
0, ,11, ,
0, ,11, ,
-1, ,11, ,
-1, ,11, ,
-1, ,11, ,
0, ,11, ,
0, ,11, ,
1, ,11, ,
1, ,11, ,
1, ,11, ,
2, ,11, ,
1, ,11, ,
2, ,11, ,
2, ,11, ,
1, ,11, ,
2, ,11, ,
1, ,11, ,
2, ,11, ,
2, ,11, ,
0, ,11, ,
0, ,11, ,
0, ,11, ,
0, ,11, ,
1, ,11, ,
0, ,11, ,
1, ,11, ,
2, ,11, ,
2, ,11, ,
2, ,11, ,
1, ,11, ,
2, ,11, ,
2, ,11, ,
1, ,11, ,
1, ,11, ,
0, ,11, ,
-1, ,11, ,
-1, ,11, ,
-2, ,11, ,
-3, ,11, ,
-2, ,11, ,
-5, ,11, ,
-5, ,11, ,
-5, ,11, ,
-6, ,11, ,
-6, ,11, ,
-7, ,11, ,
-7, ,11, ,
-7, ,11, ,
-7, ,11, ,
-7, ,11, ,
-8, ,11, ,
-10, ,11, ,
-10, ,11, ,
-11, ,11, ,
-15, ,11, ,
-16, ,11, ,
-18, ,11, ,
-17, ,11, ,
-21, ,11, ,
-24, ,11, ,
-24, ,11, ,
-26, ,11, ,
-28, ,11, ,
-26, ,11, ,
-28, ,11, ,
-27, ,11, ,
-26, ,11, ,
-27, ,11, ,
-25, ,11, ,
-25, ,11, ,
-25, ,11, ,
-25, ,11, ,
-26, ,11, ,
-26, ,11, ,
-29, ,11, ,
-30, ,11, ,
-32, ,11, ,
-33, ,11, ,
-35, ,11, ,
-35, ,11, ,
-36, ,11, ,
-34, ,11, ,
-32, ,11, ,
-32, ,11, ,
-28, ,11, ,
-25, ,11, ,
-22, ,11, ,
-19, ,11, ,
-16, ,11, ,
-14, ,11, ,
-10, ,11, ,
-9, ,11, ,
-8, ,11, ,
-9, ,11, ,
-7, ,11, ,
-7, ,11, ,
-8, ,11, ,
-6, ,11, ,
-4, ,11, ,
-5, ,11, ,
-2, ,11, ,
-1, ,11, ,
1, ,11, ,
5, ,11, ,
6, ,11, ,
6, ,11, ,
10, ,11, ,
10, ,11, ,
10, ,11, ,
9, ,11, ,
8, ,11, ,
8, ,11, ,
5, ,11, ,
5, ,11, ,
3, ,11, ,
1, ,11, ,
0, ,11, ,
-3, ,11, ,
-6, ,11, ,
-7, ,11, ,
-8, ,11, ,
-7, ,11, ,
-9, ,11, ,
-9, ,11, ,
-9, ,11, ,
-10, ,11, ,
-10, ,11, ,
-10, ,11, ,
-12, ,11, ,
-13, ,11, ,
-15, ,11, ,
-19, ,11, ,
-20, ,11, ,
-24, ,11, ,
-27, ,11, ,
-29, ,11, ,
-31, ,11, ,
-31, ,11, ,
-32, ,11, ,
-32, ,11, ,
-31, ,11, ,
-33, ,11, ,
-32, ,11, ,
-31, ,11, ,
-32, ,11, ,
-32, ,11, ,
-32, ,11, ,
-34, ,11, ,
-34, ,11, ,
-35, ,11, ,
-35, ,11, ,
-35, ,11, ,
-35, ,11, ,
-34, ,11, ,
-34, ,11, ,
-34, ,11, ,
-32, ,11, ,
-33, ,11, ,
-33, ,11, ,
-31, ,11, ,
-32, ,11, ,
-31, ,11, ,
-30, ,11, ,
-30, ,11, ,
-29, ,11, ,
-29, ,11, ,
-29, ,11, ,
-29, ,11, ,
-30, ,11, ,
-30, ,11, ,
-31, ,11, ,
-31, ,11, ,
-34, ,11, ,
-35, ,11, ,
-39, ,11, ,
-39, ,11, ,
-40, ,11, ,
-42, ,11, ,
-43, ,11, ,
-44, ,11, ,
-41, ,11, ,
-41, ,11, ,
-38, ,11, ,
-35, ,11, ,
-35, ,11, ,
-34, ,11, ,
-32, ,11, ,
-31, ,11, ,
-31, ,11, ,
-32, ,11, ,
-32, ,11, ,
-32, ,11, ,
-32, ,11, ,
-31, ,11, ,
-30, ,11, ,
-30, ,11, ,
-29, ,11, ,
-27, ,11, ,
-26, ,11, ,
-23, ,11, ,
-23, ,11, ,
-22, ,11, ,
-22, ,11, ,
-22, ,11, ,
-23, ,11, ,
-23, ,11, ,
-24, ,11, ,
-23, ,11, ,
-26, ,11, ,
-26, ,11, ,
-28, ,11, ,
-29, ,11, ,
-29, ,11, ,
-31, ,11, ,
-34, ,11, ,
-38, ,11, ,
-42, ,11, ,
-47, ,11, ,
-65, ,11, ,
-77, ,11, ,
-88, ,11, ,
-103, ,11, ,
-126, ,11, ,
-126, ,11, ,
-126, ,11, ,
-126, ,11, ,
-126, ,11, ,
-126, ,11, ,
-126, ,11, ,
-126, ,11, ,
-126, ,11, ,
-126, ,11, ,
-126, ,11, ,
-126, ,11, ,
-126, ,11, ,
-126, ,11, ,
-126, ,11, ,
-126, ,11, ,
-126, ,11, ,
-126, ,11, ,
-126, ,11, ,
-126, ,11, ,
-126, ,11, ,
-126, ,11, ,
-126, ,11, ,
-126, ,11, ,
-126, ,11, ,
-126, ,11, ,
-125, ,11, ,
-120, ,11, ,
45, ,11, ,
125, ,11, ,
125, ,11, ,
125, ,11, ,
125, ,11, ,
125, ,11, ,
125, ,11, ,
125, ,11, ,
125, ,11, ,
125, ,11, ,
125, ,11, ,
125, ,11, ,
125, ,11, ,
125, ,11, ,
125, ,11, ,
125, ,11, ,
125, ,11, ,
125, ,11, ,
125, ,11, ,
125, ,11, ,
125, ,11, ,
125, ,11, ,
124, ,11, ,
122, ,11, ,
62, ,11, ,
35, ,11, ,
21, ,11, ,
15, ,11, ,
22, ,11, ,
32, ,11, ,
40, ,11, ,
50, ,11, ,
62, ,11, ,
64, ,11, ,
65, ,11, ,
61, ,11, ,
46, ,11, ,
35, ,11, ,
25, ,11, ,
14, ,11, ,
-8, ,11, ,
-17, ,11, ,
-25, ,11, ,
-30, ,11, ,
-34, ,11, ,
-30, ,11, ,
-31, ,11, ,
-29, ,11, ,
-24, ,11, ,
-24, ,11, ,
-22, ,11, ,
-23, ,11, ,
-20, ,11, ,
-18, ,11, ,
-17, ,11, ,
-13, ,11, ,
-4, ,11, ,
3, ,11, ,
9, ,11, ,
16, ,11, ,
33, ,11, ,
41, ,11, ,
47, ,11, ,
54, ,11, ,
62, ,11, ,
63, ,11, ,
64, ,11, ,
63, ,11, ,
60, ,11, ,
59, ,11, ,
53, ,11, ,
49, ,11, ,
44, ,11, ,
39, ,11, ,
37, ,11, ,
34, ,11, ,
31, ,11, ,
30, ,11, ,
27, ,11, ,
26, ,11, ,
22, ,11, ,
19, ,11, ,
18, ,11, ,
13, ,11, ,
5, ,11, ,
2, ,11, ,
-3, ,11, ,
-8, ,11, ,
-17, ,11, ,
-25, ,11, ,
-27, ,11, ,
-33, ,11, ,
-41, ,11, ,
-45, ,11, ,
-49, ,11, ,
-54, ,11, ,
-60, ,11, ,
-65, ,11, ,
-68, ,11, ,
-74, ,11, ,
-82, ,11, ,
-85, ,11, ,
-90, ,11, ,
-92, ,11, ,
-98, ,11, ,
-99, ,11, ,
-98, ,11, ,
-99, ,11, ,
-97, ,11, ,
-94, ,11, ,
-91, ,11, ,
-86, ,11, ,
-77, ,11, ,
-73, ,11, ,
-68, ,11, ,
-63, ,11, ,
-51, ,11, ,
-44, ,11, ,
-37, ,11, ,
-33, ,11, ,
-19, ,11, ,
-14, ,11, ,
-6, ,11, ,
0, ,11, ,
11, ,11, ,
18, ,11, ,
21, ,11, ,
27, ,11, ,
35, ,11, ,
35, ,11, ,
38, ,11, ,
39, ,11, ,
40, ,11, ,
41, ,11, ,
39, ,11, ,
39, ,11, ,
36, ,11, ,
34, ,11, ,
32, ,11, ,
29, ,11, ,
22, ,11, ,
21, ,11, ,
17, ,11, ,
14, ,11, ,
6, ,11, ,
2, ,11, ,
0, ,11, ,
-6, ,11, ,
-12, ,11, ,
-15, ,11, ,
-21, ,11, ,
-23, ,11, ,
-29, ,11, ,
-34, ,11, ,
-35, ,11, ,
-40, ,11, ,
-45, ,11, ,
-49, ,11, ,
-54, ,11, ,
-56, ,11, ,
-62, ,11, ,
-66, ,11, ,
-69, ,11, ,
-73, ,11, ,
-79, ,11, ,
-79, ,11, ,
-84, ,11, ,
-84, ,11, ,
-87, ,11, ,
-89, ,11, ,
-88, ,11, ,
-89, ,11, ,
-86, ,11, ,
-83, ,11, ,
-81, ,11, ,
-76, ,11, ,
-68, ,11, ,
-61, ,11, ,
-54, ,11, ,
-50, ,11, ,
-35, ,11, ,
-28, ,11, ,
-20, ,11, ,
-13, ,11, ,
1, ,11, ,
7, ,11, ,
12, ,11, ,
18, ,11, ,
26, ,11, ,
32, ,11, ,
33, ,11, ,
36, ,11, ,
36, ,11, ,
35, ,11, ,
35, ,11, ,
34, ,11, ,
28, ,11, ,
27, ,11, ,
20, ,11, ,
17, ,11, ,
5, ,11, ,
-2, ,11, ,
-8, ,11, ,
-14, ,11, ,
-28, ,11, ,
-35, ,11, ,
-40, ,11, ,
-45, ,11, ,
-58, ,11, ,
-64, ,11, ,
-68, ,11, ,
-74, ,11, ,
-82, ,11, ,
-84, ,11, ,
-89, ,11, ,
-91, ,11, ,
-94, ,11, ,
-97, ,11, ,
-97, ,11, ,
-98, ,11, ,
-98, ,11, ,
-97, ,11, ,
-97, ,11, ,
-95, ,11, ,
-93, ,11, ,
-92, ,11, ,
-89, ,11, ,
-89, ,11, ,
-84, ,11, ,
-82, ,11, ,
-79, ,11, ,
-77, ,11, ,
-73, ,11, ,
-72, ,11, ,
-69, ,11, ,
-66, ,11, ,
-62, ,11, ,
-58, ,11, ,
-55, ,11, ,
-51, ,11, ,
-44, ,11, ,
-43, ,11, ,
-39, ,11, ,
-37, ,11, ,
-30, ,11, ,
-27, ,11, ,
-26, ,11, ,
-21, ,11, ,
-17, ,11, ,
-15, ,11, ,
-13, ,11, ,
-12, ,11, ,
-9, ,11, ,
-7, ,11, ,
-5, ,11, ,
-2, ,11, ,
-1, ,11, ,
-2, ,11, ,
-1, ,11, ,
0, ,11, ,
-1, ,11, ,
-1, ,11, ,
-2, ,11, ,
-2, ,11, ,
-3, ,11, ,
-6, ,11, ,
-6, ,11, ,
-7, ,11, ,
-9, ,11, ,
-10, ,11, ,
-11, ,11, ,
-10, ,11, ,
-12, ,11, ,
-12, ,11, ,
-13, ,11, ,
-15, ,11, ,
-14, ,11, ,
-14, ,11, ,
-14, ,11, ,
-13, ,11, ,
-13, ,11, ,
-12, ,11, ,
-12, ,11, ,
-10, ,11, ,
-9, ,11, ,
-6, ,11, ,
-5, ,11, ,
-5, ,11, ,
-1, ,11, ,
-2, ,11, ,
0, ,11, ,
0, ,11, ,
2, ,11, ,
2, ,11, ,
2, ,11, ,
3, ,11, ,
4, ,11, ,
5, ,11, ,
5, ,11, ,
6, ,11, ,
6, ,11, ,
8, ,11, ,
8, ,11, ,
9, ,11, ,
10, ,11, ,
12, ,11, ,
13, ,11, ,
15, ,11, ,
15, ,11, ,
18, ,11, ,
18, ,11, ,
19, ,11, ,
22, ,11, ,
24, ,11, ,
24, ,11, ,
25, ,11, ,
28, ,11, ,
31, ,11, ,
32, ,11, ,
35, ,11, ,
36, ,11, ,
38, ,11, ,
39, ,11, ,
39, ,11, ,
42, ,11, ,
43, ,11, ,
42, ,11, ,
45, ,11, ,
45, ,11, ,
44, ,11, ,
44, ,11, ,
43, ,11, ,
42, ,11, ,
43, ,11, ,
43, ,11, ,
42, ,11, ,
41, ,11, ,
39, ,11, ,
39, ,11, ,
38, ,11, ,
35, ,11, ,
36, ,11, ,
34, ,11, ,
33, ,11, ,
32, ,11, ,
29, ,11, ,
29, ,11, ,
28, ,11, ,
24, ,11, ,
24, ,11, ,
23, ,11, ,
22, ,11, ,
20, ,11, ,
17, ,11, ,
17, ,11, ,
14, ,11, ,
12, ,11, ,
12, ,11, ,
10, ,11, ,
8, ,11, ,
7, ,11, ,
4, ,11, ,
4, ,11, ,
2, ,11, ,
0, ,11, ,
0, ,11, ,
-1, ,11, ,
-1, ,11, ,
-2, ,11, ,
-3, ,11, ,
-3, ,11, ,
-4, ,11, ,
-4, ,11, ,
-3, ,11, ,
-5, ,11, ,
-5, ,11, ,
-5, ,11, ,
-4, ,11, ,
-3, ,11, ,
-4, ,11, ,
-4, ,11, ,
-2, ,11, ,
-2, ,11, ,
-2, ,11, ,
-2, ,11, ,
-1, ,11, ,
0, ,11, ,
-1, ,11, ,
0, ,11, ,
0, ,11, ,
-1, ,11, ,
0, ,11, ,
0, ,11, ,
0, ,11, ,
0, ,11, ,
-1, ,11, ,
0, ,11, ,
0, ,11, ,
0, ,11, ,
0, ,11, ,
1, ,11, ,
2, ,11, ,
1, ,11, ,
2, ,11, ,
3, ,11, ,
3, ,11, ,
2, ,11, ,
1, ,11, ,
4, ,11, ,
3, ,11, ,
4, ,11, ,
4, ,11, ,
4, ,11, ,
4, ,11, ,
5, ,11, ,
5, ,11, ,
5, ,11, ,
4, ,11, ,
4, ,11, ,
3, ,11, ,
3, ,11, ,
3, ,11, ,
2, ,11, ,
2, ,11, ,
0, ,11, ,
-1, ,11, ,
-1, ,11, ,
-3, ,11, ,
-5, ,11, ,
-5, ,11, ,
-6, ,11, ,
-8, ,11, ,
-8, ,11, ,
-9, ,11, ,
-8, ,11, ,
-10, ,11, ,
-9, ,11, ,
-9, ,11, ,
-10, ,11, ,
-8, ,11, ,
-8, ,11, ,
-8, ,11, ,
-7, ,11, ,
-7, ,11, ,
-5, ,11, ,
-5, ,11, ,
-3, ,11, ,
-1, ,11, ,
1, ,11, ,
2, ,11, ,
3, ,11, ,
5, ,11, ,
6, ,11, ,
9, ,11, ,
8, ,11, ,
10, ,11, ,
12, ,11, ,
12, ,11, ,
13, ,11, ,
14, ,11, ,
15, ,11, ,
16, ,11, ,
16, ,11, ,
17, ,11, ,
18, ,11, ,
18, ,11, ,
19, ,11, ,
18, ,11, ,
19, ,11, ,
19, ,11, ,
19, ,11, ,
20, ,11, ,
21, ,11, ,
21, ,11, ,
20, ,11, ,
21, ,11, ,
22, ,11, ,
24, ,11, ,
24, ,11, ,
25, ,11, ,
25, ,11, ,
26, ,11, ,
27, ,11, ,
27, ,11, ,
30, ,11, ,
30, ,11, ,
30, ,11, ,
30, ,11, ,
32, ,11, ,
31, ,11, ,
33, ,11, ,
33, ,11, ,
32, ,11, ,
33, ,11, ,
34, ,11, ,
35, ,11, ,
35, ,11, ,
34, ,11, ,
34, ,11, ,
34, ,11, ,
34, ,11, ,
34, ,11, ,
33, ,11, ,
33, ,11, ,
30, ,11, ,
29, ,11, ,
29, ,11, ,
27, ,11, ,
23, ,11, ,
20, ,11, ,
18, ,11, ,
15, ,11, ,
8, ,11, ,
4, ,11, ,
0, ,11, ,
-6, ,11, ,
-15, ,11, ,
-20, ,11, ,
-27, ,11, ,
-31, ,11, ,
-43, ,11, ,
-52, ,11, ,
-57, ,11, ,
-63, ,11, ,
-76, ,11, ,
-80, ,11, ,
-86, ,11, ,
-90, ,11, ,
-98, ,11, ,
-102, ,11, ,
-100, ,11, ,
-104, ,11, ,
-104, ,11, ,
-103, ,11, ,
-104, ,11, ,
-99, ,11, ,
-95, ,11, ,
-91, ,11, ,
-88, ,11, ,
-86, ,11, ,
-77, ,11, ,
-73, ,11, ,
-68, ,11, ,
-62, ,11, ,
-53, ,11, ,
-48, ,11, ,
-43, ,11, ,
-39, ,11, ,
-31, ,11, ,
-27, ,11, ,
-22, ,11, ,
-19, ,11, ,
-8, ,11, ,
-5, ,11, ,
1, ,11, ,
3, ,11, ,
11, ,11, ,
16, ,11, ,
19, ,11, ,
24, ,11, ,
31, ,11, ,
32, ,11, ,
35, ,11, ,
35, ,11, ,
40, ,11, ,
41, ,11, ,
41, ,11, ,
40, ,11, ,
40, ,11, ,
36, ,11, ,
35, ,11, ,
34, ,11, ,
25, ,11, ,
24, ,11, ,
19, ,11, ,
15, ,11, ,
7, ,11, ,
4, ,11, ,
0, ,11, ,
-6, ,11, ,
-10, ,11, ,
-13, ,11, ,
-17, ,11, ,
-18, ,11, ,
-19, ,11, ,
-20, ,11, ,
-20, ,11, ,
-20, ,11, ,
-18, ,11, ,
-15, ,11, ,
-14, ,11, ,
-11, ,11, ,
-5, ,11, ,
-4, ,11, ,
-1, ,11, ,
0, ,11, ,
5, ,11, ,
8, ,11, ,
9, ,11, ,
11, ,11, ,
12, ,11, ,
11, ,11, ,
14, ,11, ,
13, ,11, ,
11, ,11, ,
12, ,11, ,
10, ,11, ,
10, ,11, ,
7, ,11, ,
7, ,11, ,
6, ,11, ,
2, ,11, ,
1, ,11, ,
0, ,11, ,
0, ,11, ,
0, ,11, ,
0, ,11, ,
0, ,11, ,
0, ,11, ,
1, ,11, ,
1, ,11, ,
5, ,11, ,
6, ,11, ,
8, ,11, ,
10, ,11, ,
10, ,11, ,
12, ,11, ,
12, ,11, ,
15, ,11, ,
15, ,11, ,
15, ,11, ,
16, ,11, ,
15, ,11, ,
15, ,11, ,
15, ,11, ,
14, ,11, ,
12, ,11, ,
12, ,11, ,
10, ,11, ,
8, ,11, ,
5, ,11, ,
4, ,11, ,
2, ,11, ,
-1, ,11, ,
-3, ,11, ,
-3, ,11, ,
-5, ,11, ,
-6, ,11, ,
-9, ,11, ,
-10, ,11, ,
-10, ,11, ,
-11, ,11, ,
-13, ,11, ,
-13, ,11, ,
-13, ,11, ,
-12, ,11, ,
-12, ,11, ,
-12, ,11, ,
-12, ,11, ,
-12, ,11, ,
-11, ,11, ,
-10, ,11, ,
-10, ,11, ,
-10, ,11, ,
-8, ,11, ,
-9, ,11, ,
-8, ,11, ,
-9, ,11, ,
-8, ,11, ,
-8, ,11, ,
-8, ,11, ,
-8, ,11, ,
-7, ,11, ,
-7, ,11, ,
-7, ,11, ,
-7, ,11, ,
-7, ,11, ,
-5, ,11, ,
-5, ,11, ,
-5, ,11, ,
-5, ,11, ,
-4, ,11, ,
-4, ,11, ,
-3, ,11, ,
-4, ,11, ,
-1, ,11, ,
-2, ,11, ,
0, ,11, ,
1, ,11, ,
2, ,11, ,
3, ,11, ,
3, ,11, ,
4, ,11, ,
7, ,11, ,
7, ,11, ,
8, ,11, ,
9, ,11, ,
8, ,11, ,
10, ,11, ,
10, ,11, ,
10, ,11, ,
10, ,11, ,
10, ,11, ,
10, ,11, ,
9, ,11, ,
8, ,11, ,
9, ,11, ,
7, ,11, ,
5, ,11, ,
5, ,11, ,
4, ,11, ,
4, ,11, ,
3, ,11, ,
1, ,11, ,
0, ,11, ,
0, ,11, ,
-2, ,11, ,
-3, ,11, ,
-3, ,11, ,
-4, ,11, ,
-5, ,11, ,
-7, ,11, ,
-6, ,11, ,
-8, ,11, ,
-8, ,11, ,
-8, ,11, ,
-9, ,11, ,
-8, ,11, ,
-8, ,11, ,
-8, ,11, ,
-8, ,11, ,
-8, ,11, ,
-7, ,11, ,
-5, ,11, ,
-4, ,11, ,
-4, ,11, ,
-2, ,11, ,
-2, ,11, ,
0, ,11, ,
0, ,11, ,
1, ,11, ,
2, ,11, ,
1, ,11, ,
3, ,11, ,
4, ,11, ,
3, ,11, ,
5, ,11, ,
5, ,11, ,
4, ,11, ,
4, ,11, ,
3, ,11, ,
5, ,11, ,
3, ,11, ,
5, ,11, ,
4, ,11, ,
3, ,11, ,
3, ,11, ,
3, ,11, ,
2, ,11, ,
2, ,11, ,
2, ,11, ,
2, ,11, ,
2, ,11, ,
1, ,11, ,
2, ,11, ,
3, ,11, ,
4, ,11, ,
4, ,11, ,
5, ,11, ,
4, ,11, ,
6, ,11, ,
6, ,11, ,
8, ,11, ,
8, ,11, ,
8, ,11, ,
8, ,11, ,
8, ,11, ,
8, ,11, ,
10, ,11, ,
9, ,11, ,
8, ,11, ,
9, ,11, ,
8, ,11, ,
9, ,11, ,
8, ,11, ,
7, ,11, ,
7, ,11, ,
6, ,11, ,
6, ,11, ,
7, ,11, ,
5, ,11, ,
5, ,11, ,
4, ,11, ,
3, ,11, ,
4, ,11, ,
4, ,11, ,
3, ,11, ,
3, ,11, ,
2, ,11, ,
3, ,11, ,
2, ,11, ,
2, ,11, ,
2, ,11, ,
2, ,11, ,
1, ,11, ,
2, ,11, ,
1, ,11, ,
1, ,11, ,
2, ,11, ,
1, ,11, ,
2, ,11, ,
1, ,11, ,
0, ,11, ,
2, ,11, ,
1, ,11, ,
1, ,11, ,
1, ,11, ,
0, ,11, ,
2, ,11, ,
0, ,11, ,
-1, ,11, ,
0, ,11, ,
-2, ,11, ,
0, ,11, ,
-1, ,11, ,
-2, ,11, ,
-1, ,11, ,
0, ,11, ,
-1, ,11, ,
-1, ,11, ,
-1, ,11, ,
-1, ,11, ,
-1, ,11, ,
0, ,11, ,
-1, ,11, ,
-1, ,11, ,
-2, ,11, ,
-1, ,11, ,
-1, ,11, ,
-1, ,11, ,
0, ,11, ,
-1, ,11, ,
-1, ,11, ,
-2, ,11, ,
-2, ,11, ,
-2, ,11, ,
-3, ,11, ,
-2, ,11, ,
-3, ,11, ,
-3, ,11, ,
-3, ,11, ,
-4, ,11, ,
-3, ,11, ,
-5, ,11, ,
-5, ,11, ,
-4, ,11, ,
-4, ,11, ,
-4, ,11, ,
-4, ,11, ,
-3, ,11, ,
-3, ,11, ,
-3, ,11, ,
-3, ,11, ,
-2, ,11, ,
-1, ,11, ,
-2, ,11, ,
-1, ,11, ,
-2, ,11, ,
0, ,11, ,
0, ,11, ,
0, ,11, ,
2, ,11, ,
2, ,11, ,
1, ,11, ,
3, ,11, ,
3, ,11, ,
4, ,11, ,
4, ,11, ,
5, ,11, ,
5, ,11, ,
7, ,11, ,
6, ,11, ,
8, ,11, ,
8, ,11, ,
8, ,11, ,
9, ,11, ,
8, ,11, ,
8, ,11, ,
10, ,11, ,
9, ,11, ,
9, ,11, ,
9, ,11, ,
8, ,11, ,
9, ,11, ,
8, ,11, ,
8, ,11, ,
7, ,11, ,
7, ,11, ,
6, ,11, ,
6, ,11, ,
6, ,11, ,
6, ,11, ,
4, ,11, ,
4, ,11, ,
3, ,11, ,
3, ,11, ,
3, ,11, ,
1, ,11, ,
1, ,11, ,
0, ,11, ,
0, ,11, ,
0, ,11, ,
0, ,11, ,
-1, ,11, ,
0, ,11, ,
-2, ,11, ,
-1, ,11, ,
-1, ,11, ,
-2, ,11, ,
-1, ,11, ,
-1, ,11, ,
-2, ,11, ,
-2, ,11, ,
-1, ,11, ,
-2, ,11, ,
-2, ,11, ,
-3, ,11, ,
-3, ,11, ,
-3, ,11, ,
-4, ,11, ,
-3, ,11, ,
-5, ,11, ,
-3, ,11, ,
-3, ,11, ,
-4, ,11, ,
-3, ,11, ,
-4, ,11, ,
-4, ,11, ,
-4, ,11, ,
-3, ,11, ,
-2, ,11, ,
-2, ,11, ,
-3, ,11, ,
-3, ,11, ,
-2, ,11, ,
-2, ,11, ,
-2, ,11, ,
-3, ,11, ,
-1, ,11, ,
-1, ,11, ,
-1, ,11, ,
0, ,11, ,
1, ,11, ,
1, ,11, ,
1, ,11, ,
1, ,11, ,
0, ,11, ,
3, ,11, ,
2, ,11, ,
2, ,11, ,
2, ,11, ,
2, ,11, ,
2, ,11, ,
1, ,11, ,
2, ,11, ,
2, ,11, ,
2, ,11, ,
3, ,11, ,
2, ,11, ,
1, ,11, ,
3, ,11, ,
1, ,11, ,
2, ,11, ,
1, ,11, ,
1, ,11, ,
2, ,11, ,
1, ,11, ,
1, ,11, ,
1, ,11, ,
0, ,11, ,
0, ,11, ,
2, ,11, ,
1, ,11, ,
1, ,11, ,
1, ,11, ,
1, ,11, ,
1, ,11, ,
1, ,11, ,
1, ,11, ,
1, ,11, ,
1, ,11, ,
1, ,11, ,
1, ,11, ,
2, ,11, ,
2, ,11, ,
1, ,11, ,
2, ,11, ,
4, ,11, ,
3, ,11, ,
4, ,11, ,
4, ,11, ,
4, ,11, ,
4, ,11, ,
4, ,11, ,
3, ,11, ,
4, ,11, ,
4, ,11, ,
4, ,11, ,
3, ,11, ,
2, ,11, ,
2, ,11, ,
1, ,11, ,
0, ,11, ,
