raw_data/100% Glycerol, Impulsion 2Hz, Sonde 5MHz, Rampe 0.7Hz/temp0000064.CSV

Format,1.0B,
Memory Length,10000,Memory Length,10000,
IntpDistance,0,IntpDistance,0,
Trigger Address,159,Trigger Address,159,
Trigger Level,2.720E-01,Trigger Level,2.720E-01,
Source,CH1,Source,CH2,
Vertical Units,V,Vertical Units,V,
Vertical Units Div,0,Vertical Units Div,0,
Vertical Units Extend Div,16,Vertical Units Extend Div,16,
Label,,Label,,
Probe Type,0,Probe Type,0,
Probe Ratio,1.000e+00,Probe Ratio,1.000e+00,
Vertical Scale,2.000e-01,Vertical Scale,2.000e+00,
Vertical Position,0.000e+00,Vertical Position,0.000e+00,
Horizontal Units,S,Horizontal Units,S,
Horizontal Scale,5.000E-06,Horizontal Scale,5.000E-06,
Horizontal Position,2.420E-05,Horizontal Position,2.420E-05,
Horizontal Mode,Main,Horizontal Mode,Main,
SincET Mode,Real Time,SincET Mode,Real Time,
Sampling Period,5.000e-09,Sampling Period,5.000e-09,
Horizontal Old Scale,5.000E-06,Horizontal Old Scale,5.000E-06,
Horizontal Old Position,2.420E-05,Horizontal Old Position,2.420E-05,
Firmware,V1.32,Firmware,V1.32,
Mode,Fast,Mode,Fast,
Waveform Data,,Waveform Data,,
2, ,0, ,
1, ,0, ,
1, ,0, ,
2, ,0, ,
1, ,0, ,
3, ,0, ,
3, ,0, ,
2, ,0, ,
2, ,0, ,
2, ,0, ,
2, ,0, ,
3, ,0, ,
3, ,0, ,
3, ,0, ,
3, ,0, ,
2, ,0, ,
2, ,0, ,
1, ,0, ,
2, ,0, ,
3, ,0, ,
2, ,0, ,
2, ,0, ,
2, ,0, ,
2, ,0, ,
2, ,0, ,
2, ,0, ,
2, ,0, ,
3, ,0, ,
2, ,0, ,
2, ,0, ,
2, ,0, ,
2, ,0, ,
2, ,0, ,
2, ,0, ,
2, ,0, ,
4, ,0, ,
2, ,0, ,
2, ,0, ,
3, ,0, ,
2, ,0, ,
2, ,0, ,
1, ,0, ,
1, ,0, ,
3, ,0, ,
1, ,0, ,
2, ,0, ,
2, ,0, ,
1, ,0, ,
3, ,0, ,
3, ,0, ,
2, ,0, ,
2, ,0, ,
2, ,0, ,
2, ,0, ,
2, ,0, ,
2, ,0, ,
2, ,0, ,
1, ,0, ,
1, ,0, ,
2, ,0, ,
1, ,0, ,
2, ,0, ,
2, ,0, ,
1, ,0, ,
2, ,0, ,
1, ,0, ,
1, ,0, ,
2, ,0, ,
2, ,0, ,
2, ,0, ,
2, ,0, ,
2, ,0, ,
2, ,0, ,
2, ,0, ,
2, ,0, ,
3, ,0, ,
3, ,0, ,
3, ,0, ,
2, ,0, ,
1, ,0, ,
3, ,0, ,
2, ,0, ,
2, ,0, ,
3, ,0, ,
2, ,0, ,
2, ,0, ,
3, ,0, ,
2, ,0, ,
2, ,0, ,
1, ,0, ,
2, ,0, ,
2, ,0, ,
2, ,0, ,
3, ,0, ,
3, ,0, ,
2, ,0, ,
3, ,0, ,
2, ,0, ,
1, ,0, ,
3, ,0, ,
3, ,0, ,
2, ,0, ,
2, ,0, ,
2, ,0, ,
2, ,0, ,
1, ,0, ,
2, ,0, ,
3, ,0, ,
1, ,0, ,
2, ,0, ,
2, ,0, ,
1, ,0, ,
3, ,0, ,
1, ,0, ,
2, ,0, ,
2, ,0, ,
2, ,0, ,
3, ,0, ,
2, ,0, ,
1, ,0, ,
2, ,0, ,
1, ,0, ,
2, ,0, ,
2, ,0, ,
2, ,0, ,
3, ,0, ,
2, ,0, ,
2, ,0, ,
3, ,0, ,
3, ,0, ,
2, ,0, ,
2, ,0, ,
1, ,0, ,
2, ,0, ,
2, ,0, ,
2, ,0, ,
2, ,0, ,
1, ,0, ,
1, ,0, ,
2, ,0, ,
1, ,0, ,
2, ,0, ,
2, ,0, ,
2, ,0, ,
2, ,0, ,
2, ,0, ,
1, ,0, ,
3, ,0, ,
2, ,0, ,
2, ,0, ,
3, ,0, ,
3, ,0, ,
3, ,0, ,
2, ,0, ,
2, ,0, ,
2, ,0, ,
1, ,0, ,
2, ,0, ,
2, ,0, ,
3, ,0, ,
3, ,0, ,
2, ,0, ,
1, ,0, ,
3, ,0, ,
5, ,0, ,
-1, ,0, ,
-1, ,0, ,
4, ,0, ,
38, ,0, ,
102, ,0, ,
125, ,0, ,
125, ,0, ,
124, ,0, ,
120, ,0, ,
-4, ,0, ,
1, ,0, ,
116, ,0, ,
125, ,0, ,
125, ,0, ,
125, ,0, ,
125, ,0, ,
125, ,0, ,
125, ,0, ,
125, ,0, ,
125, ,0, ,
125, ,0, ,
125, ,0, ,
125, ,0, ,
125, ,0, ,
125, ,0, ,
125, ,0, ,
125, ,0, ,
125, ,0, ,
125, ,0, ,
125, ,0, ,
125, ,0, ,
125, ,0, ,
125, ,0, ,
125, ,0, ,
125, ,0, ,
125, ,0, ,
125, ,0, ,
124, ,0, ,
124, ,0, ,
118, ,0, ,
114, ,0, ,
106, ,0, ,
102, ,0, ,
98, ,0, ,
92, ,0, ,
85, ,0, ,
82, ,0, ,
78, ,0, ,
74, ,0, ,
68, ,0, ,
64, ,0, ,
62, ,0, ,
58, ,0, ,
54, ,0, ,
51, ,0, ,
48, ,0, ,
47, ,0, ,
43, ,0, ,
40, ,0, ,
39, ,0, ,
36, ,0, ,
33, ,0, ,
32, ,0, ,
30, ,0, ,
29, ,0, ,
25, ,0, ,
24, ,0, ,
24, ,0, ,
21, ,0, ,
19, ,0, ,
19, ,0, ,
16, ,0, ,
15, ,0, ,
15, ,0, ,
13, ,0, ,
14, ,0, ,
11, ,0, ,
9, ,0, ,
10, ,0, ,
9, ,0, ,
9, ,0, ,
6, ,0, ,
6, ,0, ,
6, ,0, ,
5, ,0, ,
4, ,0, ,
4, ,0, ,
3, ,0, ,
3, ,0, ,
3, ,0, ,
2, ,0, ,
2, ,0, ,
1, ,0, ,
1, ,0, ,
1, ,0, ,
0, ,0, ,
0, ,0, ,
0, ,0, ,
-1, ,0, ,
-1, ,0, ,
-2, ,0, ,
-2, ,0, ,
-1, ,0, ,
-2, ,0, ,
-1, ,0, ,
-1, ,0, ,
-2, ,0, ,
-1, ,0, ,
-2, ,0, ,
-2, ,0, ,
-1, ,0, ,
-2, ,0, ,
-1, ,0, ,
-1, ,0, ,
-3, ,0, ,
-2, ,0, ,
-4, ,0, ,
-3, ,0, ,
-3, ,0, ,
-4, ,0, ,
-3, ,0, ,
-2, ,0, ,
-2, ,0, ,
-2, ,0, ,
-3, ,0, ,
-4, ,0, ,
-2, ,0, ,
-2, ,0, ,
-2, ,0, ,
-2, ,0, ,
-2, ,0, ,
-1, ,0, ,
-2, ,0, ,
-2, ,0, ,
-1, ,0, ,
-3, ,0, ,
-2, ,0, ,
-2, ,0, ,
-2, ,0, ,
-1, ,0, ,
-2, ,0, ,
-3, ,0, ,
-1, ,0, ,
-2, ,0, ,
-2, ,0, ,
-1, ,0, ,
-1, ,0, ,
-1, ,0, ,
-1, ,0, ,
-2, ,0, ,
-1, ,0, ,
-2, ,0, ,
0, ,0, ,
-1, ,0, ,
-2, ,0, ,
0, ,0, ,
0, ,0, ,
0, ,0, ,
0, ,0, ,
0, ,0, ,
0, ,0, ,
0, ,0, ,
0, ,0, ,
0, ,0, ,
-1, ,0, ,
-1, ,0, ,
0, ,0, ,
0, ,0, ,
1, ,0, ,
0, ,0, ,
-1, ,0, ,
1, ,0, ,
-1, ,0, ,
0, ,0, ,
1, ,0, ,
0, ,0, ,
0, ,0, ,
1, ,0, ,
1, ,0, ,
2, ,0, ,
0, ,0, ,
0, ,0, ,
1, ,0, ,
0, ,0, ,
1, ,0, ,
1, ,0, ,
1, ,0, ,
1, ,0, ,
1, ,0, ,
1, ,0, ,
1, ,0, ,
1, ,0, ,
1, ,0, ,
1, ,0, ,
0, ,0, ,
1, ,0, ,
0, ,0, ,
1, ,0, ,
2, ,0, ,
1, ,0, ,
1, ,0, ,
1, ,0, ,
1, ,0, ,
1, ,0, ,
1, ,0, ,
1, ,0, ,
2, ,0, ,
1, ,0, ,
1, ,0, ,
1, ,0, ,
1, ,0, ,
1, ,0, ,
1, ,0, ,
1, ,0, ,
1, ,0, ,
1, ,0, ,
1, ,0, ,
1, ,0, ,
1, ,0, ,
1, ,0, ,
1, ,0, ,
2, ,0, ,
3, ,0, ,
1, ,0, ,
2, ,0, ,
2, ,0, ,
0, ,0, ,
2, ,0, ,
1, ,0, ,
2, ,0, ,
3, ,0, ,
1, ,0, ,
2, ,0, ,
2, ,0, ,
2, ,0, ,
2, ,0, ,
2, ,0, ,
1, ,0, ,
1, ,0, ,
2, ,0, ,
2, ,0, ,
2, ,0, ,
2, ,0, ,
2, ,0, ,
1, ,0, ,
1, ,0, ,
1, ,0, ,
1, ,0, ,
2, ,0, ,
2, ,0, ,
1, ,0, ,
2, ,0, ,
2, ,0, ,
2, ,0, ,
3, ,0, ,
1, ,0, ,
2, ,0, ,
2, ,0, ,
1, ,0, ,
2, ,0, ,
1, ,0, ,
1, ,0, ,
2, ,0, ,
1, ,0, ,
2, ,0, ,
1, ,0, ,
1, ,0, ,
2, ,0, ,
1, ,0, ,
1, ,0, ,
2, ,0, ,
1, ,0, ,
2, ,0, ,
1, ,0, ,
1, ,0, ,
1, ,0, ,
0, ,0, ,
-1, ,0, ,
-1, ,0, ,
-2, ,0, ,
0, ,0, ,
0, ,0, ,
0, ,0, ,
1, ,0, ,
0, ,0, ,
1, ,0, ,
1, ,0, ,
1, ,0, ,
2, ,0, ,
2, ,0, ,
1, ,0, ,
2, ,0, ,
1, ,0, ,
1, ,0, ,
2, ,0, ,
1, ,0, ,
1, ,0, ,
2, ,0, ,
1, ,0, ,
2, ,0, ,
0, ,0, ,
0, ,0, ,
2, ,0, ,
0, ,0, ,
0, ,0, ,
1, ,0, ,
0, ,0, ,
0, ,0, ,
-1, ,0, ,
-3, ,0, ,
-5, ,0, ,
-10, ,0, ,
-18, ,0, ,
-53, ,0, ,
-86, ,0, ,
-124, ,0, ,
-126, ,0, ,
-126, ,0, ,
-126, ,0, ,
-126, ,0, ,
-126, ,0, ,
-126, ,0, ,
-126, ,0, ,
-126, ,0, ,
-126, ,0, ,
-126, ,0, ,
-126, ,0, ,
-126, ,0, ,
-126, ,0, ,
-126, ,0, ,
-126, ,0, ,
-126, ,0, ,
-126, ,0, ,
-126, ,0, ,
-126, ,0, ,
-126, ,0, ,
-126, ,0, ,
-126, ,0, ,
-126, ,0, ,
-126, ,0, ,
-126, ,0, ,
-126, ,0, ,
-126, ,0, ,
-126, ,0, ,
-126, ,0, ,
-126, ,0, ,
-126, ,0, ,
-126, ,0, ,
-126, ,0, ,
-126, ,0, ,
-123, ,0, ,
-105, ,0, ,
-23, ,0, ,
125, ,0, ,
125, ,0, ,
125, ,0, ,
125, ,0, ,
125, ,0, ,
125, ,0, ,
125, ,0, ,
125, ,0, ,
125, ,0, ,
125, ,0, ,
125, ,0, ,
125, ,0, ,
125, ,0, ,
125, ,0, ,
125, ,0, ,
125, ,0, ,
125, ,0, ,
125, ,0, ,
125, ,0, ,
125, ,0, ,
125, ,0, ,
125, ,0, ,
125, ,0, ,
125, ,0, ,
125, ,0, ,
125, ,0, ,
125, ,0, ,
125, ,0, ,
125, ,0, ,
125, ,0, ,
125, ,0, ,
125, ,0, ,
125, ,0, ,
124, ,0, ,
124, ,0, ,
123, ,0, ,
115, ,0, ,
110, ,0, ,
106, ,0, ,
103, ,0, ,
96, ,0, ,
90, ,0, ,
87, ,0, ,
85, ,0, ,
76, ,0, ,
76, ,0, ,
71, ,0, ,
69, ,0, ,
63, ,0, ,
59, ,0, ,
58, ,0, ,
53, ,0, ,
48, ,0, ,
46, ,0, ,
40, ,0, ,
36, ,0, ,
19, ,0, ,
5, ,0, ,
-11, ,0, ,
-26, ,0, ,
-60, ,0, ,
-73, ,0, ,
-84, ,0, ,
-94, ,0, ,
-106, ,0, ,
-112, ,0, ,
-115, ,0, ,
-120, ,0, ,
-126, ,0, ,
-126, ,0, ,
-126, ,0, ,
-126, ,0, ,
-126, ,0, ,
-126, ,0, ,
-126, ,0, ,
-126, ,0, ,
-126, ,0, ,
-126, ,0, ,
-126, ,0, ,
-126, ,0, ,
-105, ,0, ,
-91, ,0, ,
-77, ,0, ,
-63, ,0, ,
-38, ,0, ,
-27, ,0, ,
-20, ,0, ,
-10, ,0, ,
2, ,0, ,
3, ,0, ,
7, ,0, ,
7, ,0, ,
4, ,0, ,
4, ,0, ,
-1, ,0, ,
-4, ,0, ,
-16, ,0, ,
-23, ,0, ,
-28, ,0, ,
-38, ,0, ,
-56, ,0, ,
-66, ,0, ,
-80, ,0, ,
-91, ,0, ,
-116, ,0, ,
-126, ,0, ,
-126, ,0, ,
-126, ,0, ,
-126, ,0, ,
-126, ,0, ,
-126, ,0, ,
-126, ,0, ,
-126, ,0, ,
-126, ,0, ,
-126, ,0, ,
-126, ,0, ,
-126, ,0, ,
-126, ,0, ,
-126, ,0, ,
-126, ,0, ,
-126, ,0, ,
-126, ,0, ,
-126, ,0, ,
-126, ,0, ,
-126, ,0, ,
-126, ,0, ,
-126, ,0, ,
-126, ,0, ,
-126, ,0, ,
-126, ,0, ,
-126, ,0, ,
-126, ,0, ,
-117, ,0, ,
-106, ,0, ,
-96, ,0, ,
-88, ,0, ,
-68, ,0, ,
-61, ,0, ,
-50, ,0, ,
-43, ,0, ,
-28, ,0, ,
-17, ,0, ,
-10, ,0, ,
0, ,0, ,
20, ,0, ,
27, ,0, ,
35, ,0, ,
39, ,0, ,
54, ,0, ,
59, ,0, ,
62, ,0, ,
67, ,0, ,
73, ,0, ,
75, ,0, ,
80, ,0, ,
80, ,0, ,
86, ,0, ,
90, ,0, ,
92, ,0, ,
96, ,0, ,
99, ,0, ,
98, ,0, ,
99, ,0, ,
96, ,0, ,
93, ,0, ,
91, ,0, ,
84, ,0, ,
79, ,0, ,
66, ,0, ,
59, ,0, ,
53, ,0, ,
46, ,0, ,
34, ,0, ,
29, ,0, ,
24, ,0, ,
20, ,0, ,
14, ,0, ,
12, ,0, ,
10, ,0, ,
7, ,0, ,
5, ,0, ,
5, ,0, ,
5, ,0, ,
6, ,0, ,
9, ,0, ,
10, ,0, ,
15, ,0, ,
17, ,0, ,
25, ,0, ,
30, ,0, ,
35, ,0, ,
38, ,0, ,
46, ,0, ,
50, ,0, ,
54, ,0, ,
54, ,0, ,
59, ,0, ,
60, ,0, ,
59, ,0, ,
59, ,0, ,
56, ,0, ,
52, ,0, ,
49, ,0, ,
46, ,0, ,
35, ,0, ,
33, ,0, ,
26, ,0, ,
22, ,0, ,
10, ,0, ,
5, ,0, ,
0, ,0, ,
-6, ,0, ,
-11, ,0, ,
-14, ,0, ,
-17, ,0, ,
-16, ,0, ,
-15, ,0, ,
-14, ,0, ,
-12, ,0, ,
-9, ,0, ,
-2, ,0, ,
3, ,0, ,
6, ,0, ,
11, ,0, ,
20, ,0, ,
21, ,0, ,
27, ,0, ,
29, ,0, ,
34, ,0, ,
37, ,0, ,
39, ,0, ,
40, ,0, ,
43, ,0, ,
43, ,0, ,
45, ,0, ,
44, ,0, ,
45, ,0, ,
47, ,0, ,
45, ,0, ,
49, ,0, ,
52, ,0, ,
53, ,0, ,
56, ,0, ,
57, ,0, ,
65, ,0, ,
70, ,0, ,
74, ,0, ,
79, ,0, ,
87, ,0, ,
92, ,0, ,
97, ,0, ,
100, ,0, ,
107, ,0, ,
112, ,0, ,
114, ,0, ,
118, ,0, ,
120, ,0, ,
119, ,0, ,
120, ,0, ,
118, ,0, ,
115, ,0, ,
115, ,0, ,
110, ,0, ,
111, ,0, ,
104, ,0, ,
101, ,0, ,
98, ,0, ,
94, ,0, ,
84, ,0, ,
81, ,0, ,
77, ,0, ,
73, ,0, ,
65, ,0, ,
61, ,0, ,
57, ,0, ,
53, ,0, ,
48, ,0, ,
46, ,0, ,
44, ,0, ,
41, ,0, ,
39, ,0, ,
36, ,0, ,
36, ,0, ,
35, ,0, ,
32, ,0, ,
32, ,0, ,
30, ,0, ,
30, ,0, ,
28, ,0, ,
26, ,0, ,
27, ,0, ,
24, ,0, ,
23, ,0, ,
23, ,0, ,
23, ,0, ,
23, ,0, ,
21, ,0, ,
20, ,0, ,
20, ,0, ,
19, ,0, ,
13, ,0, ,
12, ,0, ,
10, ,0, ,
7, ,0, ,
2, ,0, ,
-3, ,0, ,
-4, ,0, ,
-8, ,0, ,
-15, ,0, ,
-18, ,0, ,
-23, ,0, ,
-23, ,0, ,
-30, ,0, ,
-35, ,0, ,
-35, ,0, ,
-39, ,0, ,
-43, ,0, ,
-44, ,0, ,
-45, ,0, ,
-46, ,0, ,
-50, ,0, ,
-50, ,0, ,
-52, ,0, ,
-55, ,0, ,
-59, ,0, ,
-59, ,0, ,
-65, ,0, ,
-69, ,0, ,
-81, ,0, ,
-90, ,0, ,
-100, ,0, ,
-108, ,0, ,
-126, ,0, ,
-126, ,0, ,
-126, ,0, ,
-126, ,0, ,
-126, ,0, ,
-126, ,0, ,
-126, ,0, ,
-126, ,0, ,
-126, ,0, ,
-126, ,0, ,
-126, ,0, ,
-126, ,0, ,
-126, ,0, ,
-126, ,0, ,
-126, ,0, ,
-126, ,0, ,
-126, ,0, ,
-126, ,0, ,
-126, ,0, ,
-126, ,0, ,
-126, ,0, ,
-126, ,0, ,
-126, ,0, ,
-126, ,0, ,
-126, ,0, ,
-126, ,0, ,
-126, ,0, ,
-126, ,0, ,
-126, ,0, ,
-119, ,0, ,
-103, ,0, ,
-90, ,0, ,
-71, ,0, ,
-65, ,0, ,
-58, ,0, ,
-51, ,0, ,
-36, ,0, ,
-29, ,0, ,
-20, ,0, ,
-14, ,0, ,
5, ,0, ,
16, ,0, ,
26, ,0, ,
36, ,0, ,
58, ,0, ,
68, ,0, ,
79, ,0, ,
88, ,0, ,
104, ,0, ,
111, ,0, ,
116, ,0, ,
121, ,0, ,
124, ,0, ,
124, ,0, ,
122, ,0, ,
117, ,0, ,
109, ,0, ,
105, ,0, ,
96, ,0, ,
90, ,0, ,
75, ,0, ,
63, ,0, ,
58, ,0, ,
48, ,0, ,
35, ,0, ,
30, ,0, ,
25, ,0, ,
22, ,0, ,
18, ,0, ,
18, ,0, ,
20, ,0, ,
20, ,0, ,
25, ,0, ,
32, ,0, ,
35, ,0, ,
40, ,0, ,
52, ,0, ,
57, ,0, ,
63, ,0, ,
68, ,0, ,
76, ,0, ,
80, ,0, ,
84, ,0, ,
86, ,0, ,
89, ,0, ,
90, ,0, ,
90, ,0, ,
90, ,0, ,
89, ,0, ,
89, ,0, ,
88, ,0, ,
89, ,0, ,
90, ,0, ,
89, ,0, ,
92, ,0, ,
92, ,0, ,
97, ,0, ,
102, ,0, ,
104, ,0, ,
109, ,0, ,
119, ,0, ,
125, ,0, ,
125, ,0, ,
125, ,0, ,
125, ,0, ,
125, ,0, ,
125, ,0, ,
125, ,0, ,
125, ,0, ,
125, ,0, ,
125, ,0, ,
125, ,0, ,
125, ,0, ,
125, ,0, ,
125, ,0, ,
125, ,0, ,
125, ,0, ,
125, ,0, ,
125, ,0, ,
125, ,0, ,
124, ,0, ,
118, ,0, ,
107, ,0, ,
99, ,0, ,
83, ,0, ,
73, ,0, ,
63, ,0, ,
56, ,0, ,
41, ,0, ,
36, ,0, ,
30, ,0, ,
25, ,0, ,
15, ,0, ,
12, ,0, ,
8, ,0, ,
5, ,0, ,
4, ,0, ,
4, ,0, ,
3, ,0, ,
3, ,0, ,
4, ,0, ,
3, ,0, ,
4, ,0, ,
2, ,0, ,
-1, ,0, ,
0, ,0, ,
-3, ,0, ,
-3, ,0, ,
-10, ,0, ,
-13, ,0, ,
-16, ,0, ,
-23, ,0, ,
-32, ,0, ,
-36, ,0, ,
-44, ,0, ,
-47, ,0, ,
-59, ,0, ,
-67, ,0, ,
-74, ,0, ,
-79, ,0, ,
-90, ,0, ,
-94, ,0, ,
-98, ,0, ,
-100, ,0, ,
-104, ,0, ,
-105, ,0, ,
-103, ,0, ,
-103, ,0, ,
-98, ,0, ,
-93, ,0, ,
-91, ,0, ,
-83, ,0, ,
-71, ,0, ,
-66, ,0, ,
-59, ,0, ,
-54, ,0, ,
-41, ,0, ,
-35, ,0, ,
-30, ,0, ,
-24, ,0, ,
-15, ,0, ,
-10, ,0, ,
-9, ,0, ,
-7, ,0, ,
-5, ,0, ,
-5, ,0, ,
-6, ,0, ,
-5, ,0, ,
-9, ,0, ,
-15, ,0, ,
-17, ,0, ,
-21, ,0, ,
-30, ,0, ,
-33, ,0, ,
-37, ,0, ,
-40, ,0, ,
-47, ,0, ,
-49, ,0, ,
-52, ,0, ,
-54, ,0, ,
-54, ,0, ,
-53, ,0, ,
-54, ,0, ,
-51, ,0, ,
-48, ,0, ,
-45, ,0, ,
-42, ,0, ,
-39, ,0, ,
-34, ,0, ,
-29, ,0, ,
-27, ,0, ,
-24, ,0, ,
-19, ,0, ,
-17, ,0, ,
-14, ,0, ,
-15, ,0, ,
-13, ,0, ,
-14, ,0, ,
-16, ,0, ,
-17, ,0, ,
-21, ,0, ,
-24, ,0, ,
-28, ,0, ,
-31, ,0, ,
-39, ,0, ,
-42, ,0, ,
-44, ,0, ,
-50, ,0, ,
-55, ,0, ,
-59, ,0, ,
-61, ,0, ,
-64, ,0, ,
-65, ,0, ,
-66, ,0, ,
-65, ,0, ,
-66, ,0, ,
-63, ,0, ,
-64, ,0, ,
-61, ,0, ,
-59, ,0, ,
-56, ,0, ,
-53, ,0, ,
-51, ,0, ,
-48, ,0, ,
-44, ,0, ,
-41, ,0, ,
-38, ,0, ,
-38, ,0, ,
-35, ,0, ,
-32, ,0, ,
-30, ,0, ,
-30, ,0, ,
-28, ,0, ,
-29, ,0, ,
-27, ,0, ,
-27, ,0, ,
-27, ,0, ,
-25, ,0, ,
-26, ,0, ,
-25, ,0, ,
-24, ,0, ,
-24, ,0, ,
-21, ,0, ,
-23, ,0, ,
-17, ,0, ,
-17, ,0, ,
-17, ,0, ,
-13, ,0, ,
-9, ,0, ,
-10, ,0, ,
-6, ,0, ,
-5, ,0, ,
0, ,0, ,
1, ,0, ,
4, ,0, ,
6, ,0, ,
8, ,0, ,
9, ,0, ,
9, ,0, ,
10, ,0, ,
11, ,0, ,
12, ,0, ,
10, ,0, ,
10, ,0, ,
10, ,0, ,
9, ,0, ,
10, ,0, ,
7, ,0, ,
4, ,0, ,
4, ,0, ,
2, ,0, ,
2, ,0, ,
0, ,0, ,
0, ,0, ,
0, ,0, ,
-2, ,0, ,
-1, ,0, ,
-1, ,0, ,
-1, ,0, ,
0, ,0, ,
1, ,0, ,
0, ,0, ,
3, ,0, ,
2, ,0, ,
5, ,0, ,
8, ,0, ,
8, ,0, ,
10, ,0, ,
14, ,0, ,
16, ,0, ,
18, ,0, ,
19, ,0, ,
25, ,0, ,
28, ,0, ,
28, ,0, ,
33, ,0, ,
37, ,0, ,
39, ,0, ,
42, ,0, ,
43, ,0, ,
48, ,0, ,
50, ,0, ,
52, ,0, ,
53, ,0, ,
58, ,0, ,
57, ,0, ,
59, ,0, ,
60, ,0, ,
61, ,0, ,
63, ,0, ,
62, ,0, ,
64, ,0, ,
64, ,0, ,
62, ,0, ,
63, ,0, ,
62, ,0, ,
60, ,0, ,
58, ,0, ,
57, ,0, ,
57, ,0, ,
53, ,0, ,
51, ,0, ,
48, ,0, ,
43, ,0, ,
38, ,0, ,
35, ,0, ,
32, ,0, ,
29, ,0, ,
22, ,0, ,
17, ,0, ,
13, ,0, ,
9, ,0, ,
0, ,0, ,
-1, ,0, ,
-5, ,0, ,
-9, ,0, ,
-15, ,0, ,
-18, ,0, ,
-18, ,0, ,
-21, ,0, ,
-22, ,0, ,
-21, ,0, ,
-23, ,0, ,
-19, ,0, ,
-18, ,0, ,
-19, ,0, ,
-15, ,0, ,
-14, ,0, ,
-12, ,0, ,
-7, ,0, ,
-7, ,0, ,
-5, ,0, ,
-4, ,0, ,
-4, ,0, ,
-3, ,0, ,
-4, ,0, ,
-2, ,0, ,
-1, ,0, ,
-4, ,0, ,
-4, ,0, ,
-4, ,0, ,
-7, ,0, ,
-7, ,0, ,
-8, ,0, ,
-10, ,0, ,
-12, ,0, ,
-15, ,0, ,
-15, ,0, ,
-20, ,0, ,
-21, ,0, ,
-21, ,0, ,
-24, ,0, ,
-25, ,0, ,
-28, ,0, ,
-31, ,0, ,
-33, ,0, ,
-35, ,0, ,
-35, ,0, ,
-38, ,0, ,
-39, ,0, ,
-44, ,0, ,
-44, ,0, ,
-46, ,0, ,
-48, ,0, ,
-51, ,0, ,
-54, ,0, ,
-55, ,0, ,
-57, ,0, ,
-59, ,0, ,
-59, ,0, ,
-60, ,0, ,
-59, ,0, ,
-59, ,0, ,
-59, ,0, ,
-58, ,0, ,
-58, ,0, ,
-56, ,0, ,
-54, ,0, ,
-55, ,0, ,
-53, ,0, ,
-51, ,0, ,
-52, ,0, ,
-50, ,0, ,
-49, ,0, ,
-48, ,0, ,
-46, ,0, ,
-46, ,0, ,
-45, ,0, ,
-44, ,0, ,
-44, ,0, ,
-41, ,0, ,
-41, ,0, ,
-40, ,0, ,
-39, ,0, ,
-39, ,0, ,
-38, ,0, ,
-37, ,0, ,
-37, ,0, ,
-37, ,0, ,
-37, ,0, ,
-36, ,0, ,
-35, ,0, ,
-35, ,0, ,
-34, ,0, ,
-32, ,0, ,
-32, ,0, ,
-31, ,0, ,
-30, ,0, ,
-29, ,0, ,
-27, ,0, ,
-27, ,0, ,
-25, ,0, ,
-22, ,0, ,
-22, ,0, ,
-19, ,0, ,
-20, ,0, ,
-17, ,0, ,
-14, ,0, ,
-15, ,0, ,
-12, ,0, ,
-8, ,0, ,
-7, ,0, ,
-5, ,0, ,
-4, ,0, ,
1, ,0, ,
3, ,0, ,
5, ,0, ,
8, ,0, ,
11, ,0, ,
13, ,0, ,
15, ,0, ,
15, ,0, ,
18, ,0, ,
21, ,0, ,
20, ,0, ,
23, ,0, ,
26, ,0, ,
26, ,0, ,
28, ,0, ,
28, ,0, ,
29, ,0, ,
29, ,0, ,
29, ,0, ,
30, ,0, ,
30, ,0, ,
29, ,0, ,
29, ,0, ,
26, ,0, ,
25, ,0, ,
25, ,0, ,
23, ,0, ,
24, ,0, ,
20, ,0, ,
18, ,0, ,
17, ,0, ,
14, ,0, ,
9, ,0, ,
10, ,0, ,
6, ,0, ,
6, ,0, ,
2, ,0, ,
-1, ,0, ,
-1, ,0, ,
-2, ,0, ,
-3, ,0, ,
-4, ,0, ,
-5, ,0, ,
-3, ,0, ,
0, ,0, ,
0, ,0, ,
3, ,0, ,
4, ,0, ,
10, ,0, ,
13, ,0, ,
18, ,0, ,
23, ,0, ,
31, ,0, ,
35, ,0, ,
40, ,0, ,
44, ,0, ,
53, ,0, ,
59, ,0, ,
63, ,0, ,
68, ,0, ,
77, ,0, ,
78, ,0, ,
82, ,0, ,
85, ,0, ,
87, ,0, ,
90, ,0, ,
91, ,0, ,
91, ,0, ,
90, ,0, ,
89, ,0, ,
89, ,0, ,
86, ,0, ,
82, ,0, ,
80, ,0, ,
76, ,0, ,
73, ,0, ,
66, ,0, ,
61, ,0, ,
57, ,0, ,
52, ,0, ,
43, ,0, ,
39, ,0, ,
34, ,0, ,
31, ,0, ,
20, ,0, ,
15, ,0, ,
12, ,0, ,
4, ,0, ,
-5, ,0, ,
-10, ,0, ,
-15, ,0, ,
-18, ,0, ,
-25, ,0, ,
-28, ,0, ,
-32, ,0, ,
-33, ,0, ,
-38, ,0, ,
-38, ,0, ,
-40, ,0, ,
-39, ,0, ,
-40, ,0, ,
-39, ,0, ,
-38, ,0, ,
-36, ,0, ,
-35, ,0, ,
-33, ,0, ,
-32, ,0, ,
-29, ,0, ,
-22, ,0, ,
-21, ,0, ,
-16, ,0, ,
-14, ,0, ,
-8, ,0, ,
-3, ,0, ,
-2, ,0, ,
4, ,0, ,
8, ,0, ,
10, ,0, ,
11, ,0, ,
11, ,0, ,
17, ,0, ,
18, ,0, ,
17, ,0, ,
19, ,0, ,
19, ,0, ,
18, ,0, ,
19, ,0, ,
17, ,0, ,
15, ,0, ,
16, ,0, ,
14, ,0, ,
14, ,0, ,
10, ,0, ,
9, ,0, ,
8, ,0, ,
4, ,0, ,
4, ,0, ,
4, ,0, ,
1, ,0, ,
1, ,0, ,
0, ,0, ,
0, ,0, ,
0, ,0, ,
-1, ,0, ,
-1, ,0, ,
-1, ,0, ,
0, ,0, ,
0, ,0, ,
0, ,0, ,
0, ,0, ,
1, ,0, ,
1, ,0, ,
3, ,0, ,
3, ,0, ,
3, ,0, ,
4, ,0, ,
2, ,0, ,
1, ,0, ,
2, ,0, ,
0, ,0, ,
-1, ,0, ,
-3, ,0, ,
-3, ,0, ,
-4, ,0, ,
-8, ,0, ,
-9, ,0, ,
-10, ,0, ,
-15, ,0, ,
-17, ,0, ,
-18, ,0, ,
-22, ,0, ,
-21, ,0, ,
-24, ,0, ,
-26, ,0, ,
-27, ,0, ,
-28, ,0, ,
-30, ,0, ,
-30, ,0, ,
-31, ,0, ,
-31, ,0, ,
-29, ,0, ,
-29, ,0, ,
-28, ,0, ,
-27, ,0, ,
-25, ,0, ,
-24, ,0, ,
-25, ,0, ,
-20, ,0, ,
-20, ,0, ,
-19, ,0, ,
-16, ,0, ,
-16, ,0, ,
-13, ,0, ,
-10, ,0, ,
-10, ,0, ,
-9, ,0, ,
-9, ,0, ,
-8, ,0, ,
-6, ,0, ,
-7, ,0, ,
-6, ,0, ,
-5, ,0, ,
-7, ,0, ,
-5, ,0, ,
-5, ,0, ,
-6, ,0, ,
-5, ,0, ,
-5, ,0, ,
-5, ,0, ,
-4, ,0, ,
-5, ,0, ,
-4, ,0, ,
-4, ,0, ,
-2, ,0, ,
-2, ,0, ,
-3, ,0, ,
-1, ,0, ,
-2, ,0, ,
-1, ,0, ,
0, ,0, ,
0, ,0, ,
0, ,0, ,
1, ,0, ,
0, ,0, ,
0, ,0, ,
0, ,0, ,
0, ,0, ,
0, ,0, ,
-1, ,0, ,
-1, ,0, ,
-2, ,0, ,
-2, ,0, ,
-3, ,0, ,
-4, ,0, ,
-5, ,0, ,
-5, ,0, ,
-6, ,0, ,
-7, ,0, ,
-5, ,0, ,
-7, ,0, ,
-7, ,0, ,
-8, ,0, ,
-8, ,0, ,
-9, ,0, ,
-8, ,0, ,
-9, ,0, ,
-9, ,0, ,
-9, ,0, ,
-8, ,0, ,
-7, ,0, ,
-7, ,0, ,
-7, ,0, ,
-6, ,0, ,
-7, ,0, ,
-4, ,0, ,
-5, ,0, ,
-5, ,0, ,
-3, ,0, ,
-4, ,0, ,
-1, ,0, ,
-2, ,0, ,
-1, ,0, ,
-1, ,0, ,
-1, ,0, ,
0, ,0, ,
2, ,0, ,
3, ,0, ,
3, ,0, ,
3, ,0, ,
3, ,0, ,
4, ,0, ,
6, ,0, ,
6, ,0, ,
7, ,0, ,
9, ,0, ,
10, ,0, ,
11, ,0, ,
10, ,0, ,
13, ,0, ,
13, ,0, ,
15, ,0, ,
16, ,0, ,
17, ,0, ,
20, ,0, ,
21, ,0, ,
21, ,0, ,
23, ,0, ,
23, ,0, ,
24, ,0, ,
27, ,0, ,
29, ,0, ,
30, ,0, ,
31, ,0, ,
33, ,0, ,
33, ,0, ,
33, ,0, ,
35, ,0, ,
35, ,0, ,
35, ,0, ,
38, ,0, ,
38, ,0, ,
37, ,0, ,
39, ,0, ,
39, ,0, ,
39, ,0, ,
40, ,0, ,
39, ,0, ,
39, ,0, ,
38, ,0, ,
36, ,0, ,
37, ,0, ,
35, ,0, ,
35, ,0, ,
34, ,0, ,
32, ,0, ,
32, ,0, ,
29, ,0, ,
25, ,0, ,
24, ,0, ,
23, ,0, ,
17, ,0, ,
17, ,0, ,
15, ,0, ,
12, ,0, ,
9, ,0, ,
5, ,0, ,
4, ,0, ,
0, ,0, ,
-5, ,0, ,
-7, ,0, ,
-10, ,0, ,
-12, ,0, ,
-18, ,0, ,
-21, ,0, ,
-22, ,0, ,
-25, ,0, ,
-30, ,0, ,
-32, ,0, ,
-33, ,0, ,
-35, ,0, ,
-39, ,0, ,
-42, ,0, ,
-44, ,0, ,
-44, ,0, ,
-48, ,0, ,
-48, ,0, ,
-50, ,0, ,
-51, ,0, ,
-52, ,0, ,
-53, ,0, ,
-54, ,0, ,
-54, ,0, ,
-55, ,0, ,
-54, ,0, ,
-54, ,0, ,
-53, ,0, ,
-52, ,0, ,
-53, ,0, ,
-50, ,0, ,
-51, ,0, ,
-47, ,0, ,
-46, ,0, ,
-44, ,0, ,
-43, ,0, ,
-39, ,0, ,
-38, ,0, ,
-35, ,0, ,
-35, ,0, ,
-29, ,0, ,
-27, ,0, ,
-25, ,0, ,
-22, ,0, ,
-17, ,0, ,
-15, ,0, ,
-10, ,0, ,
-10, ,0, ,
-4, ,0, ,
1, ,0, ,
1, ,0, ,
5, ,0, ,
10, ,0, ,
13, ,0, ,
17, ,0, ,
18, ,0, ,
25, ,0, ,
26, ,0, ,
30, ,0, ,
34, ,0, ,
37, ,0, ,
39, ,0, ,
41, ,0, ,
42, ,0, ,
46, ,0, ,
48, ,0, ,
47, ,0, ,
50, ,0, ,
51, ,0, ,
50, ,0, ,
52, ,0, ,
51, ,0, ,
49, ,0, ,
50, ,0, ,
49, ,0, ,
49, ,0, ,
46, ,0, ,
46, ,0, ,
44, ,0, ,
41, ,0, ,
39, ,0, ,
38, ,0, ,
35, ,0, ,
32, ,0, ,
29, ,0, ,
25, ,0, ,
23, ,0, ,
20, ,0, ,
14, ,0, ,
11, ,0, ,
8, ,0, ,
5, ,0, ,
-3, ,0, ,
-6, ,0, ,
-7, ,0, ,
-12, ,0, ,
-18, ,0, ,
-21, ,0, ,
-25, ,0, ,
-27, ,0, ,
-32, ,0, ,
-35, ,0, ,
-35, ,0, ,
-39, ,0, ,
-42, ,0, ,
-44, ,0, ,
-46, ,0, ,
-44, ,0, ,
-48, ,0, ,
-50, ,0, ,
-49, ,0, ,
-50, ,0, ,
-51, ,0, ,
-49, ,0, ,
-51, ,0, ,
-49, ,0, ,
-47, ,0, ,
-48, ,0, ,
-46, ,0, ,
-44, ,0, ,
-43, ,0, ,
-40, ,0, ,
-39, ,0, ,
-37, ,0, ,
-35, ,0, ,
-34, ,0, ,
-30, ,0, ,
-30, ,0, ,
-26, ,0, ,
-23, ,0, ,
-23, ,0, ,
-18, ,0, ,
-15, ,0, ,
-14, ,0, ,
-12, ,0, ,
-8, ,0, ,
-5, ,0, ,
-2, ,0, ,
-1, ,0, ,
0, ,0, ,
5, ,0, ,
5, ,0, ,
9, ,0, ,
9, ,0, ,
12, ,0, ,
13, ,0, ,
11, ,0, ,
15, ,0, ,
17, ,0, ,
17, ,0, ,
19, ,0, ,
18, ,0, ,
20, ,0, ,
21, ,0, ,
21, ,0, ,
22, ,0, ,
23, ,0, ,
23, ,0, ,
24, ,0, ,
23, ,0, ,
24, ,0, ,
25, ,0, ,
25, ,0, ,
26, ,0, ,
28, ,0, ,
26, ,0, ,
29, ,0, ,
29, ,0, ,
30, ,0, ,
31, ,0, ,
32, ,0, ,
32, ,0, ,
33, ,0, ,
33, ,0, ,
33, ,0, ,
33, ,0, ,
33, ,0, ,
34, ,0, ,
33, ,0, ,
34, ,0, ,
34, ,0, ,
33, ,0, ,
33, ,0, ,
33, ,0, ,
31, ,0, ,
31, ,0, ,
30, ,0, ,
29, ,0, ,
29, ,0, ,
28, ,0, ,
27, ,0, ,
26, ,0, ,
25, ,0, ,
25, ,0, ,
24, ,0, ,
24, ,0, ,
21, ,0, ,
20, ,0, ,
20, ,0, ,
20, ,0, ,
19, ,0, ,
18, ,0, ,
17, ,0, ,
17, ,0, ,
15, ,0, ,
15, ,0, ,
15, ,0, ,
15, ,0, ,
14, ,0, ,
15, ,0, ,
15, ,0, ,
15, ,0, ,
16, ,0, ,
15, ,0, ,
16, ,0, ,
15, ,0, ,
15, ,0, ,
16, ,0, ,
16, ,0, ,
16, ,0, ,
15, ,0, ,
15, ,0, ,
