raw_data/100% Glycerol, Impulsion 2Hz, Sonde 5MHz, Rampe 0.7Hz/temp0000283.CSV

Format,1.0B,
Memory Length,10000,Memory Length,10000,
IntpDistance,0,IntpDistance,0,
Trigger Address,159,Trigger Address,159,
Trigger Level,2.720E-01,Trigger Level,2.720E-01,
Source,CH1,Source,CH2,
Vertical Units,V,Vertical Units,V,
Vertical Units Div,0,Vertical Units Div,0,
Vertical Units Extend Div,16,Vertical Units Extend Div,16,
Label,,Label,,
Probe Type,0,Probe Type,0,
Probe Ratio,1.000e+00,Probe Ratio,1.000e+00,
Vertical Scale,2.000e-01,Vertical Scale,2.000e+00,
Vertical Position,0.000e+00,Vertical Position,0.000e+00,
Horizontal Units,S,Horizontal Units,S,
Horizontal Scale,5.000E-06,Horizontal Scale,5.000E-06,
Horizontal Position,2.420E-05,Horizontal Position,2.420E-05,
Horizontal Mode,Main,Horizontal Mode,Main,
SincET Mode,Real Time,SincET Mode,Real Time,
Sampling Period,5.000e-09,Sampling Period,5.000e-09,
Horizontal Old Scale,5.000E-06,Horizontal Old Scale,5.000E-06,
Horizontal Old Position,2.420E-05,Horizontal Old Position,2.420E-05,
Firmware,V1.32,Firmware,V1.32,
Mode,Fast,Mode,Fast,
Waveform Data,,Waveform Data,,
2, ,31, ,
2, ,31, ,
1, ,31, ,
1, ,31, ,
3, ,31, ,
1, ,31, ,
1, ,31, ,
2, ,31, ,
1, ,31, ,
1, ,31, ,
2, ,31, ,
2, ,31, ,
2, ,31, ,
2, ,31, ,
2, ,31, ,
2, ,31, ,
1, ,31, ,
1, ,31, ,
1, ,31, ,
3, ,31, ,
2, ,31, ,
1, ,31, ,
1, ,31, ,
2, ,31, ,
1, ,31, ,
1, ,31, ,
1, ,31, ,
1, ,31, ,
2, ,31, ,
2, ,31, ,
2, ,31, ,
1, ,31, ,
2, ,31, ,
2, ,31, ,
1, ,31, ,
1, ,31, ,
2, ,31, ,
2, ,31, ,
2, ,31, ,
2, ,31, ,
2, ,31, ,
2, ,31, ,
2, ,31, ,
2, ,31, ,
2, ,31, ,
2, ,31, ,
2, ,31, ,
2, ,31, ,
1, ,31, ,
2, ,31, ,
1, ,31, ,
1, ,31, ,
2, ,31, ,
1, ,31, ,
2, ,31, ,
2, ,31, ,
1, ,31, ,
1, ,31, ,
1, ,31, ,
2, ,31, ,
2, ,31, ,
2, ,31, ,
2, ,31, ,
2, ,31, ,
2, ,31, ,
2, ,31, ,
1, ,31, ,
1, ,32, ,
2, ,31, ,
2, ,31, ,
2, ,31, ,
2, ,31, ,
2, ,31, ,
2, ,31, ,
2, ,31, ,
1, ,31, ,
2, ,31, ,
1, ,31, ,
2, ,31, ,
3, ,31, ,
2, ,31, ,
2, ,31, ,
1, ,31, ,
1, ,31, ,
2, ,31, ,
1, ,31, ,
2, ,31, ,
2, ,31, ,
1, ,31, ,
1, ,31, ,
1, ,31, ,
1, ,31, ,
1, ,31, ,
1, ,31, ,
2, ,31, ,
2, ,31, ,
1, ,32, ,
2, ,31, ,
2, ,31, ,
2, ,31, ,
2, ,31, ,
2, ,31, ,
2, ,31, ,
2, ,31, ,
1, ,31, ,
2, ,31, ,
1, ,31, ,
2, ,31, ,
1, ,31, ,
1, ,31, ,
2, ,31, ,
2, ,31, ,
1, ,31, ,
2, ,31, ,
1, ,31, ,
2, ,31, ,
2, ,31, ,
1, ,31, ,
2, ,31, ,
2, ,31, ,
1, ,31, ,
2, ,31, ,
2, ,31, ,
2, ,31, ,
2, ,31, ,
2, ,31, ,
2, ,31, ,
2, ,31, ,
1, ,31, ,
2, ,31, ,
1, ,31, ,
2, ,31, ,
2, ,31, ,
2, ,31, ,
2, ,31, ,
2, ,31, ,
1, ,31, ,
2, ,31, ,
1, ,31, ,
2, ,31, ,
3, ,31, ,
3, ,31, ,
2, ,31, ,
2, ,31, ,
1, ,31, ,
2, ,31, ,
1, ,31, ,
2, ,31, ,
2, ,31, ,
1, ,31, ,
2, ,31, ,
2, ,31, ,
1, ,31, ,
2, ,31, ,
1, ,31, ,
1, ,31, ,
2, ,31, ,
2, ,31, ,
2, ,31, ,
2, ,31, ,
1, ,31, ,
2, ,31, ,
1, ,31, ,
2, ,31, ,
-1, ,31, ,
-3, ,31, ,
1, ,31, ,
15, ,31, ,
57, ,31, ,
125, ,31, ,
125, ,31, ,
125, ,31, ,
123, ,31, ,
118, ,31, ,
58, ,31, ,
36, ,31, ,
125, ,31, ,
125, ,31, ,
125, ,31, ,
125, ,31, ,
125, ,31, ,
125, ,31, ,
125, ,31, ,
125, ,31, ,
125, ,31, ,
125, ,31, ,
125, ,31, ,
125, ,31, ,
125, ,31, ,
125, ,31, ,
125, ,31, ,
125, ,31, ,
125, ,31, ,
125, ,31, ,
125, ,31, ,
125, ,31, ,
125, ,31, ,
125, ,31, ,
125, ,31, ,
125, ,31, ,
125, ,31, ,
125, ,31, ,
124, ,31, ,
122, ,31, ,
117, ,31, ,
111, ,31, ,
108, ,31, ,
101, ,31, ,
95, ,31, ,
92, ,31, ,
87, ,31, ,
79, ,31, ,
76, ,31, ,
71, ,31, ,
69, ,31, ,
63, ,31, ,
60, ,31, ,
58, ,31, ,
54, ,31, ,
51, ,31, ,
48, ,31, ,
46, ,31, ,
43, ,31, ,
39, ,31, ,
36, ,31, ,
36, ,31, ,
34, ,31, ,
31, ,31, ,
30, ,31, ,
27, ,31, ,
25, ,31, ,
24, ,31, ,
22, ,31, ,
21, ,31, ,
20, ,31, ,
17, ,31, ,
17, ,31, ,
15, ,31, ,
15, ,31, ,
14, ,31, ,
11, ,31, ,
11, ,31, ,
10, ,31, ,
9, ,31, ,
8, ,31, ,
6, ,31, ,
7, ,31, ,
6, ,31, ,
5, ,31, ,
5, ,31, ,
4, ,31, ,
3, ,31, ,
2, ,31, ,
2, ,31, ,
2, ,31, ,
1, ,31, ,
0, ,31, ,
0, ,31, ,
0, ,31, ,
0, ,31, ,
0, ,31, ,
-1, ,31, ,
0, ,31, ,
-1, ,31, ,
-2, ,31, ,
-1, ,31, ,
-2, ,31, ,
-2, ,31, ,
-1, ,31, ,
-3, ,31, ,
-3, ,31, ,
-2, ,31, ,
-3, ,31, ,
-3, ,31, ,
-4, ,31, ,
-3, ,31, ,
-2, ,31, ,
-3, ,31, ,
-3, ,31, ,
-3, ,31, ,
-4, ,31, ,
-3, ,31, ,
-3, ,31, ,
-3, ,31, ,
-3, ,31, ,
-4, ,31, ,
-2, ,31, ,
-2, ,31, ,
-3, ,31, ,
-3, ,31, ,
-3, ,31, ,
-3, ,31, ,
-2, ,31, ,
-4, ,31, ,
-2, ,31, ,
-2, ,31, ,
-2, ,31, ,
-2, ,31, ,
-2, ,31, ,
-3, ,31, ,
-2, ,31, ,
-2, ,31, ,
-2, ,31, ,
-2, ,31, ,
-2, ,31, ,
-2, ,31, ,
-2, ,31, ,
-2, ,31, ,
-2, ,31, ,
-2, ,31, ,
-1, ,31, ,
-1, ,31, ,
-2, ,31, ,
-1, ,31, ,
-2, ,31, ,
-1, ,31, ,
-1, ,31, ,
-2, ,31, ,
-2, ,31, ,
-2, ,31, ,
-2, ,31, ,
-2, ,31, ,
-3, ,31, ,
0, ,31, ,
0, ,31, ,
-1, ,31, ,
-1, ,31, ,
0, ,31, ,
0, ,31, ,
0, ,31, ,
-1, ,31, ,
-2, ,31, ,
-1, ,31, ,
-2, ,31, ,
0, ,31, ,
0, ,31, ,
0, ,31, ,
0, ,31, ,
0, ,31, ,
1, ,31, ,
0, ,31, ,
0, ,31, ,
0, ,31, ,
0, ,31, ,
0, ,31, ,
1, ,31, ,
0, ,31, ,
0, ,31, ,
1, ,31, ,
0, ,31, ,
0, ,31, ,
0, ,31, ,
0, ,31, ,
0, ,31, ,
0, ,31, ,
1, ,31, ,
1, ,31, ,
1, ,31, ,
1, ,31, ,
0, ,31, ,
0, ,31, ,
0, ,31, ,
0, ,31, ,
0, ,31, ,
1, ,31, ,
0, ,31, ,
1, ,31, ,
1, ,31, ,
1, ,31, ,
1, ,31, ,
0, ,31, ,
1, ,31, ,
1, ,31, ,
0, ,31, ,
1, ,31, ,
1, ,31, ,
0, ,31, ,
0, ,31, ,
0, ,31, ,
0, ,31, ,
0, ,31, ,
0, ,31, ,
1, ,31, ,
1, ,31, ,
0, ,31, ,
1, ,31, ,
1, ,31, ,
1, ,31, ,
2, ,31, ,
1, ,31, ,
2, ,31, ,
2, ,31, ,
1, ,31, ,
1, ,31, ,
1, ,31, ,
1, ,31, ,
2, ,31, ,
1, ,31, ,
2, ,31, ,
1, ,31, ,
2, ,31, ,
2, ,31, ,
2, ,31, ,
1, ,31, ,
2, ,31, ,
1, ,31, ,
1, ,31, ,
1, ,31, ,
0, ,31, ,
2, ,31, ,
1, ,31, ,
1, ,31, ,
2, ,31, ,
1, ,31, ,
1, ,31, ,
2, ,31, ,
2, ,31, ,
2, ,31, ,
1, ,31, ,
1, ,31, ,
1, ,31, ,
1, ,31, ,
0, ,31, ,
2, ,31, ,
0, ,31, ,
0, ,31, ,
0, ,31, ,
0, ,31, ,
1, ,31, ,
0, ,31, ,
0, ,31, ,
1, ,31, ,
1, ,31, ,
1, ,31, ,
1, ,31, ,
1, ,31, ,
2, ,31, ,
0, ,31, ,
1, ,31, ,
1, ,31, ,
0, ,31, ,
0, ,31, ,
0, ,31, ,
-1, ,31, ,
-1, ,31, ,
-1, ,31, ,
-1, ,31, ,
-1, ,31, ,
0, ,31, ,
0, ,31, ,
1, ,31, ,
0, ,31, ,
1, ,31, ,
1, ,31, ,
1, ,31, ,
2, ,31, ,
0, ,31, ,
1, ,31, ,
2, ,31, ,
1, ,31, ,
1, ,31, ,
1, ,31, ,
2, ,31, ,
0, ,31, ,
1, ,31, ,
2, ,31, ,
0, ,31, ,
1, ,31, ,
1, ,31, ,
1, ,31, ,
2, ,31, ,
2, ,31, ,
2, ,31, ,
2, ,31, ,
1, ,31, ,
1, ,31, ,
2, ,31, ,
2, ,31, ,
2, ,31, ,
2, ,31, ,
0, ,31, ,
0, ,31, ,
0, ,31, ,
-1, ,31, ,
0, ,31, ,
-2, ,31, ,
0, ,31, ,
0, ,31, ,
0, ,31, ,
2, ,31, ,
0, ,31, ,
2, ,31, ,
2, ,31, ,
1, ,31, ,
2, ,31, ,
3, ,31, ,
1, ,31, ,
1, ,31, ,
1, ,31, ,
0, ,31, ,
0, ,31, ,
-1, ,31, ,
-1, ,31, ,
0, ,31, ,
0, ,31, ,
0, ,31, ,
0, ,31, ,
0, ,31, ,
1, ,31, ,
1, ,31, ,
2, ,31, ,
0, ,31, ,
0, ,31, ,
0, ,31, ,
-1, ,31, ,
-1, ,31, ,
-2, ,31, ,
-3, ,31, ,
-3, ,31, ,
-4, ,31, ,
-5, ,31, ,
-5, ,31, ,
-6, ,31, ,
-7, ,31, ,
-6, ,31, ,
-6, ,31, ,
-5, ,31, ,
-5, ,31, ,
-7, ,31, ,
-6, ,31, ,
-7, ,31, ,
-7, ,31, ,
-7, ,31, ,
-9, ,31, ,
-9, ,31, ,
-11, ,31, ,
-13, ,31, ,
-14, ,31, ,
-16, ,31, ,
-20, ,31, ,
-20, ,31, ,
-22, ,31, ,
-22, ,31, ,
-25, ,31, ,
-25, ,31, ,
-25, ,31, ,
-26, ,31, ,
-25, ,31, ,
-25, ,31, ,
-24, ,31, ,
-24, ,31, ,
-25, ,31, ,
-26, ,31, ,
-26, ,31, ,
-28, ,31, ,
-30, ,31, ,
-30, ,31, ,
-32, ,31, ,
-32, ,31, ,
-33, ,31, ,
-34, ,31, ,
-32, ,31, ,
-32, ,31, ,
-29, ,31, ,
-26, ,31, ,
-25, ,31, ,
-22, ,31, ,
-15, ,31, ,
-16, ,31, ,
-11, ,31, ,
-11, ,31, ,
-9, ,31, ,
-7, ,31, ,
-7, ,31, ,
-7, ,31, ,
-8, ,31, ,
-9, ,31, ,
-8, ,31, ,
-10, ,31, ,
-10, ,31, ,
-10, ,31, ,
-10, ,31, ,
-9, ,31, ,
-5, ,31, ,
-6, ,31, ,
-4, ,31, ,
-4, ,31, ,
0, ,31, ,
-1, ,31, ,
0, ,31, ,
-1, ,31, ,
-2, ,31, ,
-3, ,31, ,
-5, ,31, ,
-7, ,31, ,
-10, ,31, ,
-11, ,31, ,
-12, ,31, ,
-14, ,31, ,
-16, ,31, ,
-17, ,31, ,
-18, ,31, ,
-18, ,31, ,
-18, ,31, ,
-16, ,31, ,
-17, ,31, ,
-15, ,31, ,
-15, ,31, ,
-15, ,31, ,
-15, ,31, ,
-16, ,31, ,
-18, ,31, ,
-18, ,31, ,
-20, ,31, ,
-20, ,31, ,
-21, ,31, ,
-22, ,31, ,
-21, ,31, ,
-22, ,31, ,
-20, ,31, ,
-19, ,31, ,
-18, ,31, ,
-18, ,31, ,
-18, ,31, ,
-19, ,31, ,
-18, ,31, ,
-20, ,31, ,
-21, ,31, ,
-22, ,31, ,
-25, ,31, ,
-25, ,31, ,
-28, ,31, ,
-31, ,31, ,
-31, ,31, ,
-33, ,31, ,
-34, ,31, ,
-34, ,31, ,
-34, ,31, ,
-34, ,31, ,
-34, ,31, ,
-35, ,31, ,
-33, ,31, ,
-34, ,31, ,
-32, ,31, ,
-30, ,31, ,
-30, ,31, ,
-29, ,31, ,
-26, ,31, ,
-27, ,31, ,
-24, ,31, ,
-24, ,31, ,
-25, ,31, ,
-24, ,31, ,
-27, ,31, ,
-26, ,31, ,
-30, ,31, ,
-31, ,31, ,
-31, ,31, ,
-34, ,31, ,
-34, ,31, ,
-34, ,31, ,
-34, ,31, ,
-32, ,31, ,
-31, ,31, ,
-32, ,31, ,
-31, ,31, ,
-33, ,31, ,
-34, ,31, ,
-34, ,31, ,
-35, ,31, ,
-35, ,31, ,
-38, ,31, ,
-39, ,31, ,
-40, ,31, ,
-41, ,31, ,
-40, ,31, ,
-40, ,31, ,
-40, ,31, ,
-39, ,31, ,
-36, ,31, ,
-35, ,31, ,
-34, ,31, ,
-34, ,31, ,
-32, ,31, ,
-30, ,31, ,
-30, ,31, ,
-28, ,31, ,
-27, ,31, ,
-27, ,31, ,
-25, ,31, ,
-24, ,31, ,
-22, ,31, ,
-19, ,31, ,
-20, ,31, ,
-18, ,31, ,
-13, ,31, ,
-13, ,31, ,
-12, ,31, ,
-10, ,31, ,
-10, ,31, ,
-9, ,31, ,
-9, ,31, ,
-8, ,31, ,
-7, ,31, ,
-6, ,31, ,
-5, ,31, ,
-5, ,31, ,
-3, ,31, ,
-2, ,31, ,
-2, ,31, ,
-2, ,31, ,
-2, ,31, ,
-2, ,31, ,
-1, ,31, ,
-1, ,31, ,
-2, ,31, ,
0, ,31, ,
0, ,31, ,
0, ,31, ,
1, ,31, ,
3, ,31, ,
4, ,31, ,
3, ,31, ,
5, ,31, ,
7, ,31, ,
6, ,31, ,
8, ,31, ,
7, ,31, ,
6, ,31, ,
6, ,31, ,
6, ,31, ,
6, ,31, ,
6, ,31, ,
5, ,31, ,
5, ,31, ,
6, ,31, ,
5, ,31, ,
5, ,31, ,
5, ,31, ,
6, ,31, ,
6, ,31, ,
6, ,31, ,
6, ,31, ,
6, ,31, ,
5, ,31, ,
5, ,31, ,
5, ,31, ,
4, ,31, ,
3, ,31, ,
2, ,31, ,
2, ,31, ,
1, ,31, ,
0, ,31, ,
0, ,31, ,
-2, ,31, ,
-3, ,31, ,
-3, ,31, ,
-4, ,31, ,
-5, ,31, ,
-5, ,31, ,
-8, ,31, ,
-8, ,31, ,
-10, ,31, ,
-13, ,31, ,
-12, ,31, ,
-15, ,31, ,
-16, ,31, ,
-18, ,31, ,
-20, ,31, ,
-20, ,31, ,
-23, ,31, ,
-25, ,31, ,
-27, ,31, ,
-30, ,31, ,
-30, ,31, ,
-33, ,31, ,
-35, ,31, ,
-35, ,31, ,
-36, ,31, ,
-38, ,31, ,
-38, ,31, ,
-38, ,31, ,
-38, ,31, ,
-37, ,31, ,
-37, ,31, ,
-37, ,31, ,
-38, ,31, ,
-36, ,31, ,
-35, ,31, ,
-36, ,31, ,
-35, ,31, ,
-34, ,31, ,
-34, ,31, ,
-34, ,31, ,
-32, ,31, ,
-29, ,31, ,
-27, ,31, ,
-25, ,31, ,
-22, ,31, ,
-19, ,31, ,
-17, ,31, ,
-14, ,31, ,
-14, ,31, ,
-9, ,31, ,
-7, ,31, ,
-7, ,31, ,
-5, ,31, ,
-3, ,31, ,
-2, ,31, ,
-1, ,31, ,
1, ,31, ,
2, ,31, ,
5, ,31, ,
5, ,31, ,
6, ,31, ,
8, ,31, ,
9, ,31, ,
9, ,31, ,
8, ,31, ,
8, ,31, ,
9, ,31, ,
7, ,31, ,
8, ,31, ,
7, ,31, ,
5, ,31, ,
6, ,32, ,
7, ,31, ,
6, ,31, ,
5, ,31, ,
5, ,31, ,
5, ,31, ,
5, ,31, ,
5, ,31, ,
5, ,31, ,
4, ,31, ,
3, ,31, ,
4, ,31, ,
3, ,31, ,
3, ,31, ,
2, ,31, ,
2, ,31, ,
3, ,31, ,
2, ,31, ,
2, ,31, ,
2, ,31, ,
1, ,31, ,
1, ,31, ,
-1, ,31, ,
-1, ,31, ,
-3, ,31, ,
-4, ,31, ,
-5, ,31, ,
-7, ,31, ,
-9, ,31, ,
-9, ,31, ,
-11, ,31, ,
-13, ,31, ,
-14, ,31, ,
-15, ,31, ,
-18, ,31, ,
-18, ,31, ,
-20, ,31, ,
-20, ,31, ,
-22, ,31, ,
-23, ,31, ,
-24, ,31, ,
-25, ,31, ,
-26, ,31, ,
-27, ,31, ,
-27, ,31, ,
-27, ,31, ,
-27, ,31, ,
-27, ,31, ,
-26, ,31, ,
-27, ,31, ,
-26, ,31, ,
-26, ,31, ,
-25, ,31, ,
-25, ,31, ,
-23, ,31, ,
-22, ,31, ,
-22, ,31, ,
-22, ,31, ,
-20, ,31, ,
-20, ,31, ,
-20, ,31, ,
-19, ,31, ,
-17, ,31, ,
-17, ,31, ,
-16, ,31, ,
-16, ,31, ,
-16, ,31, ,
-16, ,31, ,
-15, ,31, ,
-15, ,31, ,
-15, ,31, ,
-13, ,31, ,
-12, ,31, ,
-12, ,31, ,
-12, ,31, ,
-11, ,31, ,
-11, ,31, ,
-10, ,31, ,
-11, ,31, ,
-11, ,31, ,
-11, ,31, ,
-10, ,31, ,
-10, ,31, ,
-10, ,31, ,
-9, ,31, ,
-9, ,31, ,
-9, ,31, ,
-9, ,31, ,
-9, ,31, ,
-9, ,31, ,
-9, ,31, ,
-10, ,31, ,
-10, ,31, ,
-11, ,31, ,
-12, ,31, ,
-13, ,31, ,
-13, ,31, ,
-14, ,31, ,
-14, ,31, ,
-14, ,31, ,
-15, ,31, ,
-15, ,31, ,
-15, ,31, ,
-16, ,31, ,
-16, ,31, ,
-16, ,31, ,
-17, ,31, ,
-17, ,31, ,
-17, ,31, ,
-17, ,31, ,
-17, ,31, ,
-18, ,31, ,
-17, ,31, ,
-18, ,31, ,
-18, ,31, ,
-16, ,31, ,
-16, ,31, ,
-15, ,31, ,
-12, ,31, ,
-12, ,31, ,
-11, ,31, ,
-12, ,31, ,
-10, ,31, ,
-9, ,31, ,
-9, ,31, ,
-8, ,31, ,
-7, ,31, ,
-6, ,31, ,
-7, ,31, ,
-5, ,31, ,
-5, ,31, ,
-4, ,31, ,
-4, ,31, ,
-4, ,31, ,
-4, ,31, ,
-4, ,31, ,
-4, ,32, ,
-5, ,32, ,
-6, ,31, ,
-6, ,31, ,
-8, ,31, ,
-8, ,31, ,
-9, ,31, ,
-10, ,31, ,
-10, ,31, ,
-10, ,31, ,
-10, ,31, ,
-10, ,31, ,
-11, ,31, ,
-11, ,31, ,
-11, ,31, ,
-10, ,31, ,
-10, ,31, ,
-10, ,31, ,
-10, ,31, ,
-7, ,31, ,
-8, ,31, ,
-5, ,31, ,
-4, ,31, ,
-5, ,31, ,
-1, ,31, ,
-2, ,31, ,
0, ,31, ,
1, ,31, ,
3, ,31, ,
4, ,31, ,
5, ,31, ,
5, ,31, ,
5, ,31, ,
5, ,31, ,
5, ,31, ,
6, ,31, ,
5, ,31, ,
5, ,31, ,
4, ,31, ,
3, ,31, ,
2, ,31, ,
0, ,31, ,
-1, ,31, ,
-1, ,31, ,
-2, ,31, ,
-3, ,31, ,
-4, ,31, ,
-7, ,31, ,
-6, ,31, ,
-9, ,31, ,
-11, ,31, ,
-11, ,31, ,
-12, ,31, ,
-12, ,31, ,
-13, ,31, ,
-13, ,31, ,
-15, ,31, ,
-15, ,31, ,
-15, ,31, ,
-14, ,31, ,
-15, ,31, ,
-14, ,31, ,
-15, ,31, ,
-16, ,31, ,
-15, ,31, ,
-16, ,31, ,
-17, ,31, ,
-15, ,31, ,
-17, ,31, ,
-16, ,31, ,
-15, ,31, ,
-15, ,31, ,
-15, ,31, ,
-15, ,31, ,
-15, ,31, ,
-14, ,31, ,
-14, ,31, ,
-14, ,31, ,
-12, ,31, ,
-12, ,31, ,
-11, ,31, ,
-12, ,31, ,
-10, ,31, ,
-10, ,31, ,
-9, ,31, ,
-9, ,31, ,
-8, ,31, ,
-8, ,31, ,
-6, ,31, ,
-6, ,31, ,
-6, ,31, ,
-4, ,31, ,
-4, ,31, ,
-3, ,31, ,
-2, ,31, ,
-3, ,31, ,
0, ,31, ,
-2, ,31, ,
-1, ,31, ,
0, ,31, ,
-1, ,31, ,
-1, ,31, ,
-1, ,31, ,
-1, ,31, ,
0, ,31, ,
0, ,31, ,
0, ,31, ,
1, ,31, ,
0, ,31, ,
0, ,31, ,
0, ,31, ,
0, ,31, ,
-1, ,31, ,
-1, ,31, ,
-1, ,31, ,
-1, ,31, ,
-2, ,31, ,
-2, ,31, ,
-2, ,31, ,
-2, ,31, ,
-2, ,31, ,
-2, ,31, ,
-1, ,31, ,
-1, ,31, ,
-2, ,31, ,
-1, ,31, ,
-2, ,31, ,
-3, ,31, ,
-3, ,31, ,
-4, ,31, ,
-4, ,32, ,
-4, ,32, ,
-5, ,31, ,
-4, ,31, ,
-4, ,31, ,
-4, ,31, ,
-2, ,31, ,
-3, ,31, ,
-4, ,31, ,
-3, ,31, ,
-3, ,31, ,
-3, ,31, ,
-2, ,31, ,
-2, ,31, ,
-2, ,31, ,
-2, ,31, ,
-2, ,31, ,
-1, ,31, ,
-3, ,31, ,
-1, ,31, ,
0, ,31, ,
0, ,31, ,
0, ,31, ,
-1, ,31, ,
1, ,31, ,
1, ,31, ,
1, ,31, ,
3, ,31, ,
3, ,31, ,
4, ,31, ,
4, ,31, ,
3, ,31, ,
3, ,31, ,
4, ,31, ,
3, ,31, ,
3, ,31, ,
3, ,31, ,
3, ,31, ,
3, ,31, ,
2, ,31, ,
2, ,31, ,
3, ,31, ,
2, ,31, ,
2, ,31, ,
1, ,31, ,
1, ,31, ,
0, ,31, ,
0, ,31, ,
0, ,31, ,
0, ,31, ,
0, ,31, ,
0, ,31, ,
0, ,31, ,
-1, ,31, ,
-1, ,31, ,
0, ,31, ,
-1, ,31, ,
0, ,31, ,
0, ,31, ,
0, ,31, ,
0, ,31, ,
0, ,31, ,
0, ,31, ,
0, ,31, ,
0, ,31, ,
0, ,31, ,
0, ,31, ,
1, ,31, ,
2, ,31, ,
1, ,31, ,
2, ,31, ,
1, ,31, ,
4, ,31, ,
3, ,31, ,
5, ,31, ,
5, ,31, ,
5, ,31, ,
5, ,31, ,
5, ,31, ,
5, ,31, ,
6, ,31, ,
6, ,31, ,
6, ,31, ,
7, ,31, ,
7, ,31, ,
6, ,31, ,
7, ,31, ,
6, ,31, ,
6, ,31, ,
8, ,31, ,
6, ,31, ,
7, ,31, ,
8, ,31, ,
7, ,31, ,
7, ,31, ,
6, ,31, ,
6, ,31, ,
6, ,31, ,
6, ,31, ,
6, ,31, ,
6, ,31, ,
5, ,31, ,
5, ,31, ,
4, ,31, ,
4, ,31, ,
4, ,31, ,
4, ,31, ,
4, ,31, ,
3, ,31, ,
3, ,31, ,
4, ,31, ,
3, ,31, ,
2, ,31, ,
2, ,31, ,
1, ,31, ,
2, ,31, ,
1, ,31, ,
1, ,31, ,
1, ,31, ,
0, ,31, ,
0, ,31, ,
0, ,31, ,
0, ,31, ,
-1, ,31, ,
0, ,31, ,
-1, ,31, ,
-1, ,31, ,
-2, ,31, ,
-2, ,31, ,
-1, ,31, ,
-3, ,31, ,
-3, ,31, ,
-3, ,31, ,
-4, ,31, ,
-4, ,31, ,
-5, ,31, ,
-5, ,31, ,
-4, ,31, ,
-5, ,31, ,
-5, ,31, ,
-6, ,31, ,
-7, ,31, ,
-6, ,31, ,
-7, ,31, ,
-8, ,31, ,
-8, ,31, ,
-8, ,31, ,
-8, ,31, ,
-9, ,31, ,
-9, ,31, ,
-9, ,31, ,
-9, ,31, ,
-10, ,31, ,
-9, ,31, ,
-9, ,31, ,
-9, ,31, ,
-9, ,31, ,
-10, ,31, ,
-8, ,31, ,
-9, ,31, ,
-7, ,31, ,
-7, ,31, ,
-7, ,31, ,
-7, ,31, ,
-6, ,31, ,
-6, ,31, ,
-5, ,31, ,
-6, ,31, ,
-3, ,31, ,
-3, ,31, ,
-2, ,31, ,
-2, ,31, ,
0, ,31, ,
0, ,31, ,
0, ,31, ,
0, ,31, ,
2, ,31, ,
2, ,31, ,
1, ,31, ,
2, ,31, ,
2, ,31, ,
1, ,31, ,
0, ,31, ,
0, ,31, ,
0, ,31, ,
0, ,31, ,
-1, ,31, ,
-1, ,31, ,
-2, ,31, ,
-3, ,31, ,
-3, ,31, ,
-5, ,31, ,
-5, ,31, ,
-5, ,31, ,
-5, ,31, ,
-5, ,31, ,
-4, ,31, ,
-4, ,31, ,
-4, ,31, ,
-4, ,31, ,
-5, ,31, ,
-3, ,31, ,
-4, ,31, ,
-3, ,31, ,
-4, ,31, ,
-4, ,31, ,
-2, ,31, ,
-3, ,31, ,
-3, ,31, ,
-2, ,31, ,
-4, ,31, ,
-1, ,31, ,
-1, ,31, ,
-1, ,31, ,
0, ,31, ,
-1, ,31, ,
-2, ,31, ,
-1, ,31, ,
-1, ,31, ,
0, ,31, ,
-1, ,31, ,
0, ,32, ,
-1, ,31, ,
-1, ,31, ,
-1, ,31, ,
-1, ,31, ,
-2, ,31, ,
-2, ,31, ,
-3, ,31, ,
-3, ,31, ,
-4, ,31, ,
-4, ,31, ,
-4, ,31, ,
-4, ,31, ,
-4, ,31, ,
-4, ,31, ,
-4, ,31, ,
-4, ,31, ,
-5, ,31, ,
-5, ,31, ,
-4, ,31, ,
-5, ,31, ,
-5, ,31, ,
-5, ,31, ,
-5, ,31, ,
-5, ,31, ,
-5, ,31, ,
-5, ,31, ,
-4, ,31, ,
-5, ,31, ,
-5, ,31, ,
-5, ,31, ,
-2, ,31, ,
-3, ,31, ,
-3, ,31, ,
-5, ,31, ,
-3, ,31, ,
-3, ,31, ,
-4, ,31, ,
-3, ,31, ,
-2, ,31, ,
-2, ,31, ,
-3, ,32, ,
-3, ,31, ,
-2, ,31, ,
-2, ,31, ,
-3, ,31, ,
-3, ,31, ,
-2, ,31, ,
-3, ,31, ,
-3, ,31, ,
-3, ,31, ,
-1, ,31, ,
-2, ,31, ,
-3, ,31, ,
-3, ,31, ,
-1, ,31, ,
-2, ,31, ,
-2, ,31, ,
-2, ,31, ,
-2, ,31, ,
-2, ,31, ,
-2, ,31, ,
-2, ,31, ,
-2, ,31, ,
-3, ,31, ,
-3, ,31, ,
-3, ,31, ,
-2, ,31, ,
-1, ,31, ,
-2, ,31, ,
-2, ,31, ,
-3, ,31, ,
-3, ,31, ,
-2, ,31, ,
-2, ,31, ,
-3, ,31, ,
-2, ,31, ,
-3, ,31, ,
-2, ,31, ,
-1, ,31, ,
-1, ,31, ,
-1, ,31, ,
-2, ,31, ,
-1, ,31, ,
-1, ,31, ,
-2, ,31, ,
-1, ,31, ,
0, ,31, ,
0, ,31, ,
0, ,31, ,
0, ,31, ,
0, ,31, ,
1, ,31, ,
0, ,31, ,
0, ,31, ,
0, ,31, ,
0, ,31, ,
0, ,31, ,
0, ,31, ,
0, ,31, ,
0, ,31, ,
-1, ,31, ,
0, ,31, ,
-1, ,31, ,
-2, ,31, ,
0, ,31, ,
-1, ,31, ,
0, ,31, ,
0, ,31, ,
0, ,31, ,
0, ,31, ,
0, ,31, ,
0, ,31, ,
0, ,31, ,
0, ,31, ,
0, ,31, ,
0, ,31, ,
1, ,31, ,
1, ,31, ,
1, ,31, ,
1, ,31, ,
1, ,31, ,
0, ,31, ,
0, ,31, ,
0, ,31, ,
0, ,31, ,
0, ,31, ,
0, ,31, ,
-1, ,31, ,
0, ,31, ,
-2, ,31, ,
-2, ,31, ,
-2, ,31, ,
-2, ,31, ,
-3, ,31, ,
-4, ,31, ,
-4, ,31, ,
-4, ,31, ,
-5, ,31, ,
-6, ,31, ,
-7, ,31, ,
-7, ,31, ,
-7, ,31, ,
-7, ,31, ,
-8, ,31, ,
-8, ,31, ,
-8, ,31, ,
-9, ,31, ,
-7, ,31, ,
-8, ,31, ,
-7, ,31, ,
-7, ,31, ,
-8, ,31, ,
-6, ,31, ,
-7, ,31, ,
-5, ,31, ,
-4, ,31, ,
-3, ,31, ,
-2, ,31, ,
-1, ,31, ,
0, ,31, ,
2, ,31, ,
1, ,31, ,
3, ,31, ,
5, ,31, ,
4, ,31, ,
6, ,31, ,
8, ,31, ,
8, ,31, ,
8, ,31, ,
8, ,31, ,
10, ,31, ,
10, ,31, ,
10, ,31, ,
10, ,31, ,
11, ,31, ,
10, ,31, ,
10, ,31, ,
10, ,31, ,
10, ,31, ,
10, ,31, ,
10, ,31, ,
10, ,31, ,
10, ,31, ,
9, ,31, ,
9, ,31, ,
8, ,31, ,
7, ,31, ,
6, ,31, ,
5, ,31, ,
5, ,31, ,
5, ,31, ,
4, ,31, ,
5, ,31, ,
2, ,31, ,
3, ,31, ,
3, ,31, ,
1, ,31, ,
1, ,31, ,
1, ,31, ,
0, ,31, ,
1, ,31, ,
0, ,31, ,
0, ,31, ,
0, ,31, ,
-1, ,31, ,
-1, ,31, ,
-1, ,31, ,
-1, ,31, ,
-1, ,31, ,
-2, ,31, ,
0, ,31, ,
0, ,31, ,
-2, ,31, ,
-2, ,31, ,
-2, ,31, ,
-1, ,31, ,
-2, ,31, ,
-1, ,31, ,
-2, ,31, ,
0, ,31, ,
-1, ,31, ,
-1, ,31, ,
0, ,31, ,
0, ,31, ,
-1, ,31, ,
-1, ,31, ,
0, ,31, ,
0, ,31, ,
-1, ,31, ,
0, ,31, ,
0, ,31, ,
-2, ,31, ,
-1, ,31, ,
-1, ,31, ,
-2, ,31, ,
-1, ,31, ,
-2, ,31, ,
-1, ,31, ,
-1, ,31, ,
-1, ,31, ,
-1, ,31, ,
-2, ,32, ,
-1, ,31, ,
0, ,31, ,
0, ,31, ,
0, ,31, ,
0, ,31, ,
0, ,31, ,
1, ,31, ,
1, ,31, ,
1, ,31, ,
2, ,31, ,
1, ,31, ,
3, ,31, ,
5, ,31, ,
4, ,31, ,
4, ,31, ,
4, ,31, ,
5, ,31, ,
5, ,31, ,
5, ,31, ,
6, ,31, ,
5, ,31, ,
5, ,31, ,
5, ,31, ,
5, ,31, ,
5, ,31, ,
5, ,31, ,
5, ,31, ,
5, ,31, ,
5, ,31, ,
5, ,31, ,
5, ,31, ,
4, ,31, ,
3, ,31, ,
3, ,31, ,
2, ,31, ,
3, ,31, ,
2, ,31, ,
1, ,31, ,
1, ,31, ,
1, ,31, ,
0, ,31, ,
0, ,31, ,
0, ,31, ,
1, ,31, ,
0, ,31, ,
-1, ,31, ,
-1, ,31, ,
-2, ,31, ,
0, ,31, ,
-1, ,31, ,
-1, ,31, ,
0, ,31, ,
-1, ,31, ,
-1, ,31, ,
-1, ,31, ,
-1, ,31, ,
0, ,31, ,
0, ,31, ,
0, ,31, ,
1, ,31, ,
1, ,31, ,
1, ,31, ,
1, ,31, ,
1, ,31, ,
1, ,31, ,
1, ,31, ,
0, ,31, ,
2, ,31, ,
2, ,31, ,
1, ,31, ,
2, ,31, ,
1, ,31, ,
1, ,31, ,
2, ,31, ,
1, ,31, ,
1, ,31, ,
1, ,31, ,
0, ,31, ,
2, ,31, ,
0, ,31, ,
0, ,31, ,
0, ,31, ,
0, ,31, ,
0, ,31, ,
0, ,31, ,
1, ,31, ,
1, ,31, ,
1, ,31, ,
0, ,31, ,
0, ,31, ,
0, ,31, ,
0, ,31, ,
1, ,31, ,
1, ,31, ,
1, ,31, ,
1, ,31, ,
2, ,31, ,
2, ,31, ,
1, ,31, ,
2, ,31, ,
2, ,31, ,
2, ,31, ,
2, ,31, ,
2, ,31, ,
2, ,31, ,
2, ,31, ,
1, ,31, ,
2, ,31, ,
1, ,31, ,
0, ,31, ,
0, ,31, ,
0, ,31, ,
0, ,31, ,
0, ,31, ,
0, ,31, ,
0, ,31, ,
-1, ,31, ,
-2, ,31, ,
-1, ,31, ,
-2, ,31, ,
-2, ,31, ,
-2, ,31, ,
-2, ,31, ,
-2, ,31, ,
-3, ,31, ,
-3, ,31, ,
-2, ,31, ,
-3, ,31, ,
-3, ,31, ,
-3, ,31, ,
-4, ,31, ,
-2, ,31, ,
-2, ,31, ,
-2, ,31, ,
-2, ,31, ,
-1, ,31, ,
-2, ,31, ,
-1, ,31, ,
-2, ,31, ,
-1, ,31, ,
0, ,31, ,
-1, ,31, ,
-1, ,31, ,
-2, ,31, ,
-1, ,31, ,
-1, ,31, ,
-1, ,31, ,
0, ,31, ,
-1, ,31, ,
-2, ,31, ,
0, ,31, ,
0, ,31, ,
0, ,31, ,
0, ,31, ,
-1, ,31, ,
0, ,31, ,
0, ,31, ,
0, ,31, ,
-1, ,31, ,
-2, ,31, ,
-1, ,31, ,
0, ,31, ,
0, ,31, ,
0, ,31, ,
-1, ,31, ,
-1, ,31, ,
-1, ,31, ,
-2, ,31, ,
-2, ,31, ,
-1, ,31, ,
-2, ,31, ,
-2, ,31, ,
-2, ,31, ,
-2, ,31, ,
-1, ,31, ,
-3, ,31, ,
-2, ,31, ,
-3, ,31, ,
-3, ,31, ,
-3, ,31, ,
-3, ,31, ,
-3, ,31, ,
-2, ,31, ,
-3, ,31, ,
-2, ,31, ,
-2, ,31, ,
-2, ,31, ,
-2, ,31, ,
-1, ,31, ,
-1, ,31, ,
-1, ,31, ,
-1, ,31, ,
-1, ,31, ,
-1, ,31, ,
-1, ,31, ,
0, ,31, ,
0, ,31, ,
0, ,31, ,
1, ,31, ,
1, ,31, ,
1, ,31, ,
2, ,31, ,
1, ,31, ,
2, ,31, ,
1, ,31, ,
1, ,31, ,
1, ,31, ,
