raw_data/100% Glycerol, Impulsion 2Hz, Sonde 5MHz, Rampe 0.7Hz/temp0000268.CSV

Format,1.0B,
Memory Length,10000,Memory Length,10000,
IntpDistance,0,IntpDistance,0,
Trigger Address,159,Trigger Address,159,
Trigger Level,2.720E-01,Trigger Level,2.720E-01,
Source,CH1,Source,CH2,
Vertical Units,V,Vertical Units,V,
Vertical Units Div,0,Vertical Units Div,0,
Vertical Units Extend Div,16,Vertical Units Extend Div,16,
Label,,Label,,
Probe Type,0,Probe Type,0,
Probe Ratio,1.000e+00,Probe Ratio,1.000e+00,
Vertical Scale,2.000e-01,Vertical Scale,2.000e+00,
Vertical Position,0.000e+00,Vertical Position,0.000e+00,
Horizontal Units,S,Horizontal Units,S,
Horizontal Scale,5.000E-06,Horizontal Scale,5.000E-06,
Horizontal Position,2.420E-05,Horizontal Position,2.420E-05,
Horizontal Mode,Main,Horizontal Mode,Main,
SincET Mode,Real Time,SincET Mode,Real Time,
Sampling Period,5.000e-09,Sampling Period,5.000e-09,
Horizontal Old Scale,5.000E-06,Horizontal Old Scale,5.000E-06,
Horizontal Old Position,2.420E-05,Horizontal Old Position,2.420E-05,
Firmware,V1.32,Firmware,V1.32,
Mode,Fast,Mode,Fast,
Waveform Data,,Waveform Data,,
3, ,35, ,
2, ,35, ,
2, ,35, ,
1, ,35, ,
1, ,35, ,
2, ,35, ,
2, ,35, ,
2, ,35, ,
2, ,35, ,
1, ,35, ,
2, ,35, ,
2, ,35, ,
1, ,35, ,
1, ,35, ,
2, ,35, ,
2, ,35, ,
1, ,35, ,
3, ,35, ,
2, ,35, ,
1, ,35, ,
1, ,35, ,
2, ,35, ,
1, ,35, ,
2, ,35, ,
2, ,35, ,
1, ,35, ,
1, ,35, ,
2, ,35, ,
2, ,35, ,
1, ,35, ,
2, ,35, ,
2, ,35, ,
2, ,35, ,
1, ,35, ,
2, ,35, ,
2, ,35, ,
1, ,35, ,
1, ,35, ,
1, ,35, ,
2, ,35, ,
2, ,35, ,
1, ,35, ,
2, ,35, ,
2, ,35, ,
2, ,35, ,
3, ,35, ,
2, ,35, ,
3, ,35, ,
1, ,35, ,
1, ,35, ,
1, ,35, ,
1, ,35, ,
1, ,35, ,
2, ,35, ,
1, ,35, ,
2, ,35, ,
2, ,35, ,
1, ,35, ,
3, ,35, ,
2, ,35, ,
2, ,35, ,
3, ,35, ,
2, ,35, ,
2, ,35, ,
2, ,35, ,
1, ,35, ,
2, ,35, ,
2, ,35, ,
2, ,35, ,
2, ,35, ,
1, ,35, ,
1, ,35, ,
3, ,35, ,
1, ,35, ,
2, ,35, ,
1, ,35, ,
2, ,35, ,
2, ,35, ,
2, ,35, ,
2, ,35, ,
2, ,35, ,
2, ,35, ,
2, ,35, ,
1, ,35, ,
1, ,35, ,
2, ,35, ,
1, ,35, ,
2, ,35, ,
2, ,35, ,
1, ,35, ,
2, ,35, ,
1, ,35, ,
2, ,35, ,
2, ,35, ,
2, ,35, ,
3, ,35, ,
2, ,35, ,
2, ,35, ,
2, ,35, ,
1, ,35, ,
1, ,35, ,
3, ,35, ,
3, ,35, ,
3, ,35, ,
2, ,35, ,
1, ,35, ,
2, ,35, ,
3, ,35, ,
3, ,35, ,
3, ,35, ,
2, ,35, ,
3, ,35, ,
3, ,35, ,
2, ,35, ,
2, ,35, ,
1, ,35, ,
2, ,35, ,
2, ,35, ,
2, ,35, ,
2, ,35, ,
3, ,35, ,
2, ,35, ,
2, ,35, ,
2, ,35, ,
1, ,35, ,
2, ,35, ,
2, ,35, ,
2, ,35, ,
2, ,35, ,
2, ,35, ,
2, ,35, ,
2, ,35, ,
2, ,35, ,
2, ,35, ,
1, ,35, ,
2, ,35, ,
2, ,35, ,
1, ,35, ,
2, ,35, ,
2, ,35, ,
1, ,35, ,
2, ,35, ,
1, ,35, ,
2, ,35, ,
2, ,35, ,
1, ,35, ,
3, ,35, ,
2, ,35, ,
1, ,35, ,
3, ,35, ,
1, ,35, ,
1, ,35, ,
2, ,35, ,
1, ,35, ,
1, ,35, ,
1, ,35, ,
1, ,35, ,
1, ,35, ,
1, ,35, ,
1, ,35, ,
1, ,35, ,
1, ,35, ,
3, ,35, ,
1, ,35, ,
0, ,35, ,
3, ,35, ,
-3, ,35, ,
5, ,35, ,
110, ,35, ,
125, ,35, ,
125, ,35, ,
125, ,35, ,
120, ,35, ,
102, ,35, ,
-9, ,35, ,
6, ,35, ,
125, ,35, ,
125, ,35, ,
125, ,35, ,
125, ,35, ,
125, ,35, ,
125, ,35, ,
125, ,35, ,
125, ,35, ,
125, ,35, ,
125, ,35, ,
125, ,35, ,
125, ,35, ,
125, ,35, ,
125, ,35, ,
125, ,35, ,
125, ,35, ,
125, ,35, ,
125, ,35, ,
125, ,35, ,
125, ,35, ,
125, ,35, ,
125, ,35, ,
125, ,35, ,
125, ,35, ,
125, ,35, ,
125, ,35, ,
124, ,35, ,
124, ,35, ,
112, ,35, ,
110, ,35, ,
105, ,35, ,
103, ,35, ,
94, ,35, ,
91, ,35, ,
86, ,35, ,
79, ,35, ,
73, ,35, ,
71, ,35, ,
66, ,35, ,
66, ,35, ,
58, ,35, ,
56, ,35, ,
53, ,35, ,
51, ,35, ,
46, ,35, ,
43, ,35, ,
43, ,35, ,
40, ,35, ,
37, ,35, ,
35, ,35, ,
34, ,35, ,
30, ,35, ,
29, ,35, ,
29, ,35, ,
25, ,35, ,
25, ,35, ,
23, ,35, ,
22, ,35, ,
19, ,35, ,
17, ,35, ,
14, ,35, ,
14, ,35, ,
14, ,35, ,
14, ,35, ,
11, ,35, ,
10, ,35, ,
10, ,35, ,
9, ,35, ,
7, ,35, ,
8, ,35, ,
5, ,35, ,
5, ,35, ,
5, ,35, ,
4, ,35, ,
4, ,35, ,
4, ,35, ,
3, ,35, ,
3, ,35, ,
2, ,35, ,
2, ,35, ,
1, ,35, ,
1, ,35, ,
2, ,35, ,
0, ,35, ,
0, ,35, ,
0, ,35, ,
-1, ,35, ,
-1, ,35, ,
-1, ,35, ,
-1, ,35, ,
-1, ,35, ,
-2, ,35, ,
-2, ,35, ,
-2, ,35, ,
-3, ,35, ,
-2, ,35, ,
-1, ,35, ,
-3, ,35, ,
-2, ,35, ,
-2, ,35, ,
-2, ,35, ,
-2, ,35, ,
-3, ,35, ,
-3, ,35, ,
-3, ,35, ,
-3, ,35, ,
-3, ,35, ,
-2, ,35, ,
-2, ,35, ,
-2, ,35, ,
-2, ,35, ,
-2, ,35, ,
-3, ,35, ,
-4, ,35, ,
-2, ,35, ,
-4, ,35, ,
-4, ,35, ,
-1, ,35, ,
-3, ,35, ,
-2, ,35, ,
-2, ,35, ,
-2, ,35, ,
-2, ,35, ,
-2, ,35, ,
-2, ,35, ,
-2, ,35, ,
-2, ,35, ,
-3, ,35, ,
-3, ,35, ,
-1, ,35, ,
-1, ,35, ,
-2, ,35, ,
-2, ,35, ,
-2, ,35, ,
-2, ,35, ,
-2, ,35, ,
-2, ,35, ,
-3, ,35, ,
-1, ,35, ,
-2, ,35, ,
-2, ,35, ,
-1, ,35, ,
-1, ,35, ,
-2, ,35, ,
-1, ,35, ,
-2, ,35, ,
-1, ,35, ,
-2, ,35, ,
0, ,35, ,
0, ,35, ,
0, ,35, ,
0, ,35, ,
1, ,35, ,
0, ,35, ,
0, ,35, ,
-1, ,35, ,
-1, ,35, ,
0, ,35, ,
-1, ,35, ,
-1, ,35, ,
0, ,35, ,
0, ,35, ,
0, ,35, ,
0, ,35, ,
0, ,35, ,
1, ,35, ,
0, ,35, ,
0, ,35, ,
1, ,35, ,
1, ,35, ,
1, ,35, ,
0, ,35, ,
0, ,35, ,
2, ,35, ,
0, ,35, ,
1, ,35, ,
1, ,35, ,
1, ,35, ,
1, ,35, ,
0, ,35, ,
1, ,35, ,
1, ,35, ,
0, ,35, ,
0, ,35, ,
1, ,35, ,
1, ,35, ,
1, ,35, ,
1, ,35, ,
0, ,35, ,
1, ,35, ,
1, ,35, ,
2, ,35, ,
1, ,35, ,
1, ,35, ,
2, ,35, ,
1, ,35, ,
1, ,35, ,
2, ,35, ,
0, ,35, ,
1, ,35, ,
2, ,35, ,
1, ,35, ,
2, ,35, ,
1, ,35, ,
1, ,35, ,
1, ,35, ,
1, ,35, ,
2, ,35, ,
2, ,35, ,
1, ,35, ,
2, ,35, ,
1, ,35, ,
1, ,35, ,
2, ,35, ,
1, ,35, ,
1, ,35, ,
1, ,35, ,
1, ,35, ,
2, ,35, ,
1, ,35, ,
2, ,35, ,
2, ,35, ,
2, ,35, ,
2, ,35, ,
1, ,35, ,
1, ,35, ,
2, ,35, ,
1, ,35, ,
1, ,35, ,
3, ,35, ,
1, ,35, ,
2, ,35, ,
2, ,35, ,
1, ,35, ,
2, ,35, ,
1, ,35, ,
2, ,35, ,
2, ,35, ,
2, ,35, ,
2, ,35, ,
2, ,35, ,
1, ,35, ,
3, ,35, ,
1, ,35, ,
1, ,35, ,
2, ,35, ,
0, ,35, ,
1, ,35, ,
1, ,35, ,
1, ,35, ,
1, ,35, ,
1, ,35, ,
1, ,35, ,
1, ,35, ,
1, ,35, ,
1, ,35, ,
2, ,35, ,
2, ,35, ,
2, ,35, ,
2, ,35, ,
1, ,35, ,
2, ,35, ,
1, ,35, ,
1, ,35, ,
0, ,35, ,
0, ,35, ,
0, ,35, ,
-1, ,35, ,
-1, ,35, ,
-1, ,35, ,
-1, ,35, ,
-1, ,35, ,
1, ,35, ,
0, ,35, ,
1, ,35, ,
0, ,35, ,
2, ,35, ,
1, ,35, ,
1, ,35, ,
1, ,35, ,
2, ,35, ,
2, ,35, ,
1, ,35, ,
0, ,35, ,
0, ,35, ,
1, ,35, ,
1, ,35, ,
1, ,35, ,
2, ,35, ,
1, ,35, ,
2, ,35, ,
0, ,35, ,
1, ,35, ,
1, ,35, ,
1, ,35, ,
3, ,35, ,
3, ,35, ,
2, ,35, ,
2, ,35, ,
1, ,35, ,
2, ,35, ,
2, ,35, ,
1, ,35, ,
2, ,35, ,
2, ,35, ,
1, ,35, ,
1, ,35, ,
0, ,35, ,
0, ,35, ,
0, ,35, ,
0, ,35, ,
0, ,35, ,
1, ,35, ,
1, ,35, ,
1, ,35, ,
2, ,35, ,
2, ,35, ,
3, ,35, ,
2, ,35, ,
2, ,35, ,
2, ,35, ,
2, ,35, ,
2, ,35, ,
1, ,35, ,
0, ,35, ,
0, ,35, ,
0, ,35, ,
1, ,35, ,
2, ,35, ,
0, ,35, ,
1, ,35, ,
2, ,35, ,
0, ,35, ,
1, ,35, ,
0, ,35, ,
2, ,35, ,
1, ,35, ,
1, ,35, ,
0, ,35, ,
0, ,35, ,
-1, ,35, ,
-1, ,35, ,
-3, ,35, ,
-3, ,35, ,
-5, ,35, ,
-6, ,35, ,
-6, ,35, ,
-7, ,35, ,
-6, ,35, ,
-6, ,35, ,
-6, ,35, ,
-6, ,35, ,
-7, ,35, ,
-7, ,35, ,
-7, ,35, ,
-8, ,35, ,
-8, ,35, ,
-8, ,35, ,
-11, ,35, ,
-11, ,35, ,
-13, ,35, ,
-15, ,35, ,
-15, ,35, ,
-17, ,35, ,
-19, ,35, ,
-18, ,35, ,
-20, ,35, ,
-20, ,35, ,
-20, ,35, ,
-20, ,35, ,
-20, ,35, ,
-20, ,35, ,
-20, ,35, ,
-18, ,35, ,
-19, ,35, ,
-20, ,35, ,
-20, ,35, ,
-23, ,35, ,
-25, ,35, ,
-26, ,35, ,
-30, ,35, ,
-31, ,35, ,
-31, ,35, ,
-31, ,35, ,
-33, ,35, ,
-32, ,35, ,
-31, ,35, ,
-30, ,35, ,
-27, ,35, ,
-24, ,35, ,
-22, ,35, ,
-19, ,35, ,
-13, ,35, ,
-15, ,35, ,
-10, ,35, ,
-11, ,35, ,
-10, ,35, ,
-7, ,35, ,
-8, ,35, ,
-8, ,35, ,
-8, ,35, ,
-8, ,35, ,
-8, ,35, ,
-9, ,35, ,
-7, ,35, ,
-7, ,35, ,
-6, ,35, ,
-7, ,35, ,
-3, ,35, ,
-3, ,35, ,
-2, ,35, ,
-1, ,35, ,
0, ,35, ,
0, ,35, ,
0, ,35, ,
-1, ,35, ,
-4, ,35, ,
-5, ,35, ,
-6, ,35, ,
-8, ,35, ,
-10, ,35, ,
-10, ,35, ,
-11, ,35, ,
-11, ,35, ,
-11, ,35, ,
-12, ,35, ,
-10, ,35, ,
-10, ,35, ,
-9, ,35, ,
-8, ,35, ,
-7, ,35, ,
-8, ,35, ,
-9, ,35, ,
-9, ,35, ,
-10, ,35, ,
-13, ,35, ,
-18, ,35, ,
-19, ,35, ,
-23, ,35, ,
-24, ,35, ,
-27, ,35, ,
-29, ,35, ,
-29, ,35, ,
-29, ,35, ,
-30, ,35, ,
-29, ,35, ,
-28, ,35, ,
-28, ,35, ,
-28, ,35, ,
-28, ,35, ,
-28, ,35, ,
-28, ,35, ,
-29, ,35, ,
-28, ,35, ,
-30, ,35, ,
-30, ,35, ,
-30, ,35, ,
-31, ,35, ,
-31, ,35, ,
-32, ,35, ,
-33, ,35, ,
-32, ,35, ,
-33, ,35, ,
-33, ,35, ,
-34, ,35, ,
-34, ,35, ,
-34, ,35, ,
-34, ,35, ,
-32, ,35, ,
-32, ,35, ,
-32, ,35, ,
-30, ,35, ,
-29, ,35, ,
-28, ,35, ,
-28, ,35, ,
-28, ,35, ,
-29, ,35, ,
-28, ,35, ,
-30, ,35, ,
-30, ,35, ,
-31, ,35, ,
-32, ,35, ,
-32, ,35, ,
-32, ,35, ,
-32, ,35, ,
-32, ,35, ,
-32, ,35, ,
-30, ,35, ,
-30, ,35, ,
-31, ,35, ,
-31, ,35, ,
-32, ,35, ,
-35, ,35, ,
-35, ,35, ,
-36, ,35, ,
-37, ,35, ,
-39, ,35, ,
-39, ,35, ,
-39, ,35, ,
-39, ,35, ,
-39, ,35, ,
-36, ,35, ,
-37, ,35, ,
-35, ,35, ,
-33, ,35, ,
-32, ,35, ,
-31, ,35, ,
-30, ,35, ,
-29, ,35, ,
-28, ,35, ,
-28, ,35, ,
-27, ,35, ,
-26, ,35, ,
-25, ,35, ,
-24, ,35, ,
-25, ,35, ,
-22, ,35, ,
-19, ,35, ,
-18, ,35, ,
-18, ,35, ,
-15, ,35, ,
-17, ,35, ,
-15, ,35, ,
-16, ,35, ,
-14, ,35, ,
-11, ,35, ,
-10, ,35, ,
-10, ,35, ,
-8, ,35, ,
-7, ,35, ,
-5, ,35, ,
-5, ,35, ,
-3, ,35, ,
-1, ,35, ,
-1, ,35, ,
-1, ,35, ,
0, ,35, ,
0, ,35, ,
0, ,35, ,
0, ,35, ,
0, ,35, ,
1, ,35, ,
0, ,35, ,
2, ,35, ,
2, ,35, ,
3, ,35, ,
4, ,35, ,
3, ,35, ,
5, ,35, ,
5, ,35, ,
5, ,35, ,
5, ,35, ,
4, ,35, ,
4, ,35, ,
4, ,35, ,
3, ,35, ,
3, ,35, ,
3, ,35, ,
3, ,35, ,
3, ,35, ,
4, ,35, ,
5, ,35, ,
5, ,35, ,
5, ,35, ,
5, ,35, ,
5, ,35, ,
4, ,35, ,
4, ,35, ,
3, ,35, ,
2, ,35, ,
1, ,35, ,
0, ,35, ,
-3, ,35, ,
-2, ,35, ,
-5, ,35, ,
-5, ,35, ,
-8, ,35, ,
-11, ,35, ,
-10, ,35, ,
-13, ,35, ,
-16, ,35, ,
-16, ,35, ,
-20, ,35, ,
-20, ,35, ,
-21, ,35, ,
-23, ,35, ,
-24, ,35, ,
-24, ,35, ,
-26, ,35, ,
-26, ,35, ,
-28, ,35, ,
-28, ,35, ,
-30, ,35, ,
-33, ,35, ,
-35, ,35, ,
-36, ,35, ,
-45, ,35, ,
-48, ,35, ,
-55, ,35, ,
-63, ,35, ,
-83, ,35, ,
-97, ,35, ,
-110, ,35, ,
-124, ,35, ,
-126, ,35, ,
-126, ,35, ,
-126, ,35, ,
-126, ,35, ,
-126, ,35, ,
-126, ,35, ,
-126, ,35, ,
-126, ,35, ,
-126, ,35, ,
-126, ,35, ,
-126, ,35, ,
-126, ,35, ,
-126, ,35, ,
-126, ,35, ,
-126, ,35, ,
-126, ,35, ,
-126, ,35, ,
-126, ,35, ,
-126, ,35, ,
-126, ,35, ,
-126, ,35, ,
-126, ,35, ,
-126, ,35, ,
-126, ,35, ,
-126, ,35, ,
-126, ,35, ,
-126, ,35, ,
-126, ,35, ,
-124, ,35, ,
-106, ,35, ,
-56, ,35, ,
48, ,35, ,
125, ,35, ,
125, ,35, ,
125, ,35, ,
125, ,35, ,
125, ,35, ,
125, ,35, ,
125, ,35, ,
125, ,35, ,
125, ,35, ,
125, ,35, ,
125, ,35, ,
125, ,35, ,
125, ,35, ,
125, ,35, ,
125, ,35, ,
125, ,35, ,
125, ,35, ,
124, ,35, ,
122, ,35, ,
111, ,35, ,
-13, ,35, ,
-55, ,35, ,
-79, ,35, ,
-86, ,35, ,
-59, ,35, ,
-36, ,35, ,
-8, ,35, ,
24, ,35, ,
85, ,35, ,
107, ,35, ,
125, ,35, ,
125, ,35, ,
125, ,35, ,
125, ,35, ,
125, ,35, ,
125, ,35, ,
125, ,35, ,
125, ,35, ,
125, ,35, ,
125, ,35, ,
125, ,35, ,
125, ,35, ,
124, ,35, ,
124, ,35, ,
114, ,35, ,
107, ,35, ,
97, ,35, ,
85, ,35, ,
55, ,35, ,
37, ,35, ,
18, ,35, ,
-2, ,35, ,
-38, ,35, ,
-52, ,35, ,
-62, ,35, ,
-74, ,35, ,
-81, ,35, ,
-81, ,35, ,
-80, ,35, ,
-78, ,35, ,
-69, ,35, ,
-69, ,35, ,
-65, ,35, ,
-64, ,35, ,
-62, ,35, ,
-62, ,35, ,
-64, ,35, ,
-64, ,35, ,
-63, ,35, ,
-63, ,35, ,
-63, ,35, ,
-61, ,35, ,
-57, ,35, ,
-51, ,35, ,
-49, ,35, ,
-45, ,35, ,
-36, ,35, ,
-35, ,35, ,
-32, ,35, ,
-30, ,35, ,
-25, ,35, ,
-23, ,35, ,
-22, ,35, ,
-17, ,35, ,
-11, ,35, ,
-9, ,35, ,
-4, ,35, ,
-1, ,35, ,
9, ,35, ,
15, ,35, ,
19, ,35, ,
25, ,35, ,
33, ,35, ,
36, ,35, ,
40, ,35, ,
42, ,35, ,
45, ,35, ,
47, ,35, ,
48, ,35, ,
47, ,35, ,
46, ,35, ,
43, ,35, ,
44, ,35, ,
41, ,35, ,
36, ,35, ,
35, ,35, ,
32, ,35, ,
29, ,35, ,
21, ,35, ,
14, ,35, ,
12, ,35, ,
5, ,35, ,
-6, ,35, ,
-13, ,35, ,
-19, ,35, ,
-23, ,35, ,
-35, ,35, ,
-39, ,35, ,
-43, ,35, ,
-49, ,35, ,
-54, ,35, ,
-57, ,35, ,
-60, ,35, ,
-60, ,35, ,
-61, ,35, ,
-63, ,35, ,
-64, ,35, ,
-64, ,35, ,
-65, ,35, ,
-65, ,35, ,
-67, ,35, ,
-69, ,35, ,
-70, ,35, ,
-72, ,35, ,
-73, ,35, ,
-77, ,35, ,
-80, ,35, ,
-81, ,35, ,
-86, ,35, ,
-88, ,35, ,
-92, ,35, ,
-95, ,35, ,
-97, ,35, ,
-99, ,35, ,
-102, ,35, ,
-103, ,35, ,
-104, ,35, ,
-103, ,35, ,
-101, ,35, ,
-99, ,35, ,
-96, ,35, ,
-94, ,35, ,
-87, ,35, ,
-81, ,35, ,
-76, ,35, ,
-71, ,35, ,
-58, ,35, ,
-54, ,35, ,
-46, ,35, ,
-41, ,35, ,
-32, ,35, ,
-27, ,35, ,
-24, ,35, ,
-19, ,35, ,
-14, ,35, ,
-13, ,35, ,
-11, ,35, ,
-12, ,35, ,
-13, ,35, ,
-14, ,35, ,
-17, ,35, ,
-18, ,35, ,
-25, ,35, ,
-28, ,35, ,
-31, ,35, ,
-35, ,35, ,
-44, ,35, ,
-47, ,35, ,
-52, ,35, ,
-54, ,35, ,
-62, ,35, ,
-67, ,35, ,
-69, ,35, ,
-75, ,35, ,
-80, ,35, ,
-83, ,35, ,
-88, ,35, ,
-89, ,35, ,
-95, ,35, ,
-98, ,35, ,
-100, ,35, ,
-102, ,35, ,
-106, ,35, ,
-109, ,35, ,
-111, ,35, ,
-113, ,35, ,
-118, ,35, ,
-121, ,35, ,
-123, ,35, ,
-125, ,35, ,
-126, ,35, ,
-126, ,35, ,
-126, ,35, ,
-126, ,35, ,
-126, ,35, ,
-126, ,35, ,
-126, ,35, ,
-125, ,35, ,
-121, ,35, ,
-117, ,35, ,
-112, ,35, ,
-107, ,35, ,
-99, ,35, ,
-93, ,35, ,
-86, ,35, ,
-81, ,35, ,
-64, ,35, ,
-55, ,35, ,
-49, ,35, ,
-39, ,35, ,
-25, ,35, ,
-19, ,35, ,
-10, ,35, ,
-4, ,35, ,
7, ,35, ,
14, ,35, ,
20, ,35, ,
23, ,35, ,
31, ,35, ,
33, ,35, ,
35, ,35, ,
35, ,35, ,
38, ,35, ,
39, ,35, ,
38, ,35, ,
38, ,35, ,
38, ,35, ,
36, ,35, ,
35, ,35, ,
34, ,35, ,
30, ,35, ,
29, ,35, ,
27, ,35, ,
27, ,35, ,
24, ,35, ,
22, ,35, ,
20, ,35, ,
19, ,35, ,
17, ,35, ,
17, ,35, ,
15, ,35, ,
15, ,35, ,
15, ,35, ,
14, ,35, ,
15, ,35, ,
15, ,35, ,
15, ,35, ,
15, ,35, ,
15, ,35, ,
15, ,35, ,
15, ,35, ,
15, ,35, ,
15, ,35, ,
15, ,35, ,
15, ,35, ,
16, ,35, ,
16, ,35, ,
16, ,35, ,
18, ,35, ,
18, ,35, ,
20, ,35, ,
20, ,35, ,
20, ,35, ,
25, ,35, ,
25, ,35, ,
25, ,35, ,
28, ,35, ,
28, ,35, ,
31, ,35, ,
31, ,35, ,
35, ,35, ,
37, ,35, ,
37, ,35, ,
42, ,35, ,
46, ,35, ,
47, ,35, ,
49, ,35, ,
50, ,35, ,
54, ,35, ,
55, ,35, ,
55, ,35, ,
57, ,35, ,
59, ,35, ,
59, ,35, ,
59, ,35, ,
59, ,35, ,
60, ,35, ,
61, ,35, ,
60, ,35, ,
60, ,35, ,
61, ,35, ,
60, ,35, ,
61, ,35, ,
60, ,35, ,
59, ,35, ,
59, ,35, ,
56, ,35, ,
57, ,35, ,
54, ,35, ,
53, ,35, ,
53, ,35, ,
51, ,35, ,
50, ,35, ,
49, ,35, ,
48, ,35, ,
48, ,35, ,
48, ,35, ,
44, ,35, ,
44, ,35, ,
42, ,35, ,
39, ,35, ,
39, ,35, ,
38, ,35, ,
36, ,35, ,
33, ,35, ,
32, ,35, ,
32, ,35, ,
29, ,35, ,
25, ,35, ,
24, ,35, ,
21, ,35, ,
22, ,35, ,
18, ,35, ,
17, ,35, ,
17, ,35, ,
15, ,35, ,
12, ,35, ,
12, ,35, ,
9, ,35, ,
10, ,35, ,
8, ,35, ,
7, ,35, ,
7, ,35, ,
6, ,35, ,
5, ,35, ,
4, ,35, ,
4, ,35, ,
3, ,35, ,
3, ,35, ,
1, ,35, ,
2, ,35, ,
2, ,35, ,
2, ,35, ,
3, ,35, ,
3, ,35, ,
3, ,35, ,
3, ,35, ,
3, ,35, ,
4, ,35, ,
3, ,35, ,
5, ,35, ,
6, ,35, ,
5, ,35, ,
6, ,35, ,
7, ,35, ,
6, ,35, ,
6, ,35, ,
6, ,35, ,
6, ,35, ,
7, ,35, ,
6, ,35, ,
6, ,35, ,
6, ,35, ,
5, ,35, ,
7, ,35, ,
4, ,35, ,
4, ,35, ,
4, ,35, ,
3, ,35, ,
3, ,35, ,
2, ,35, ,
2, ,35, ,
1, ,35, ,
1, ,35, ,
1, ,35, ,
1, ,35, ,
1, ,35, ,
1, ,35, ,
2, ,35, ,
0, ,35, ,
1, ,35, ,
1, ,35, ,
1, ,35, ,
2, ,35, ,
1, ,35, ,
1, ,35, ,
2, ,35, ,
1, ,35, ,
3, ,35, ,
2, ,35, ,
1, ,35, ,
2, ,35, ,
2, ,35, ,
2, ,35, ,
1, ,35, ,
0, ,35, ,
1, ,35, ,
-1, ,35, ,
-1, ,35, ,
-2, ,35, ,
-3, ,35, ,
-3, ,35, ,
-3, ,35, ,
-4, ,35, ,
-4, ,35, ,
-5, ,35, ,
-7, ,35, ,
-6, ,35, ,
-7, ,35, ,
-7, ,35, ,
-7, ,35, ,
-8, ,35, ,
-8, ,35, ,
-8, ,35, ,
-9, ,35, ,
-8, ,35, ,
-10, ,35, ,
-8, ,35, ,
-8, ,35, ,
-9, ,35, ,
-9, ,35, ,
-9, ,35, ,
-8, ,35, ,
-7, ,35, ,
-7, ,35, ,
-5, ,35, ,
-5, ,35, ,
-4, ,35, ,
-4, ,35, ,
-4, ,35, ,
-4, ,35, ,
-3, ,35, ,
-3, ,35, ,
-3, ,35, ,
-3, ,35, ,
-4, ,35, ,
-2, ,35, ,
-3, ,35, ,
-4, ,35, ,
-3, ,35, ,
-4, ,35, ,
-1, ,35, ,
-4, ,35, ,
-4, ,35, ,
-3, ,35, ,
-5, ,35, ,
-5, ,35, ,
-6, ,35, ,
-6, ,35, ,
-6, ,35, ,
-7, ,35, ,
-7, ,35, ,
-7, ,35, ,
-6, ,35, ,
-7, ,35, ,
-6, ,35, ,
-7, ,35, ,
-5, ,35, ,
-4, ,35, ,
-5, ,35, ,
-3, ,35, ,
-4, ,35, ,
-2, ,35, ,
-1, ,35, ,
-2, ,35, ,
0, ,35, ,
0, ,35, ,
1, ,35, ,
1, ,35, ,
2, ,35, ,
4, ,35, ,
5, ,35, ,
4, ,35, ,
4, ,35, ,
6, ,35, ,
6, ,35, ,
6, ,35, ,
6, ,35, ,
7, ,35, ,
7, ,35, ,
6, ,35, ,
6, ,35, ,
6, ,35, ,
5, ,35, ,
5, ,35, ,
5, ,35, ,
4, ,35, ,
3, ,35, ,
2, ,35, ,
1, ,35, ,
0, ,35, ,
-1, ,35, ,
-1, ,35, ,
-3, ,35, ,
-5, ,35, ,
-6, ,35, ,
-9, ,35, ,
-10, ,35, ,
-11, ,35, ,
-13, ,35, ,
-13, ,35, ,
-15, ,35, ,
-17, ,35, ,
-17, ,35, ,
-19, ,35, ,
-19, ,35, ,
-20, ,35, ,
-22, ,35, ,
-23, ,35, ,
-25, ,35, ,
-26, ,35, ,
-26, ,35, ,
-26, ,35, ,
-26, ,35, ,
-27, ,35, ,
-28, ,35, ,
-28, ,35, ,
-28, ,35, ,
-29, ,35, ,
-29, ,35, ,
-28, ,35, ,
-28, ,35, ,
-28, ,35, ,
-27, ,35, ,
-27, ,35, ,
-27, ,35, ,
-27, ,35, ,
-26, ,35, ,
-27, ,35, ,
-25, ,35, ,
-23, ,35, ,
-24, ,35, ,
-21, ,35, ,
-20, ,35, ,
-19, ,35, ,
-18, ,35, ,
-17, ,35, ,
-15, ,35, ,
-14, ,35, ,
-11, ,35, ,
-9, ,35, ,
-10, ,35, ,
-5, ,35, ,
-3, ,35, ,
0, ,35, ,
1, ,35, ,
6, ,35, ,
6, ,35, ,
9, ,35, ,
11, ,35, ,
15, ,35, ,
18, ,35, ,
20, ,35, ,
23, ,35, ,
28, ,35, ,
28, ,35, ,
32, ,35, ,
32, ,35, ,
35, ,35, ,
37, ,35, ,
36, ,35, ,
38, ,35, ,
40, ,35, ,
40, ,35, ,
42, ,35, ,
41, ,35, ,
41, ,35, ,
41, ,35, ,
40, ,35, ,
41, ,35, ,
38, ,35, ,
37, ,35, ,
36, ,35, ,
35, ,35, ,
31, ,35, ,
30, ,35, ,
25, ,35, ,
22, ,35, ,
17, ,35, ,
12, ,35, ,
8, ,35, ,
2, ,35, ,
-8, ,35, ,
-13, ,35, ,
-20, ,35, ,
-23, ,35, ,
-35, ,35, ,
-42, ,35, ,
-47, ,35, ,
-55, ,35, ,
-64, ,35, ,
-70, ,35, ,
-75, ,35, ,
-79, ,35, ,
-85, ,35, ,
-89, ,35, ,
-89, ,35, ,
-91, ,35, ,
-92, ,35, ,
-90, ,35, ,
-89, ,35, ,
-86, ,35, ,
-83, ,35, ,
-81, ,35, ,
-74, ,35, ,
-73, ,35, ,
-64, ,35, ,
-61, ,35, ,
-55, ,35, ,
-51, ,35, ,
-43, ,35, ,
-38, ,35, ,
-34, ,35, ,
-30, ,35, ,
-21, ,35, ,
-17, ,35, ,
-12, ,35, ,
-6, ,35, ,
1, ,35, ,
6, ,35, ,
11, ,35, ,
13, ,35, ,
22, ,35, ,
28, ,35, ,
30, ,35, ,
33, ,35, ,
41, ,35, ,
42, ,35, ,
47, ,35, ,
49, ,35, ,
52, ,35, ,
54, ,35, ,
54, ,35, ,
54, ,35, ,
54, ,35, ,
51, ,35, ,
51, ,35, ,
46, ,35, ,
42, ,35, ,
39, ,35, ,
36, ,35, ,
34, ,35, ,
25, ,35, ,
19, ,35, ,
15, ,35, ,
11, ,35, ,
3, ,35, ,
0, ,35, ,
-3, ,35, ,
-6, ,35, ,
-10, ,35, ,
-12, ,35, ,
-13, ,35, ,
-15, ,35, ,
-14, ,35, ,
-13, ,35, ,
-13, ,35, ,
-12, ,35, ,
-10, ,35, ,
-8, ,35, ,
-6, ,35, ,
-4, ,35, ,
0, ,35, ,
3, ,35, ,
5, ,35, ,
7, ,35, ,
11, ,35, ,
11, ,35, ,
13, ,35, ,
14, ,35, ,
14, ,35, ,
15, ,35, ,
14, ,35, ,
14, ,35, ,
13, ,35, ,
11, ,35, ,
11, ,35, ,
10, ,35, ,
6, ,35, ,
7, ,35, ,
4, ,35, ,
4, ,35, ,
1, ,35, ,
0, ,35, ,
-1, ,35, ,
-3, ,35, ,
-5, ,35, ,
-5, ,35, ,
-6, ,35, ,
-6, ,35, ,
-7, ,35, ,
-9, ,35, ,
-8, ,35, ,
-9, ,35, ,
-9, ,35, ,
-8, ,35, ,
-8, ,35, ,
-8, ,35, ,
-8, ,35, ,
-9, ,35, ,
-7, ,35, ,
-7, ,35, ,
-5, ,35, ,
-5, ,35, ,
-6, ,35, ,
-4, ,35, ,
-4, ,35, ,
-4, ,35, ,
-4, ,35, ,
-4, ,35, ,
-3, ,35, ,
-2, ,35, ,
-2, ,35, ,
-2, ,35, ,
-2, ,35, ,
-1, ,35, ,
-1, ,35, ,
-1, ,35, ,
0, ,35, ,
0, ,35, ,
0, ,35, ,
0, ,35, ,
1, ,35, ,
1, ,35, ,
1, ,35, ,
1, ,35, ,
1, ,35, ,
2, ,35, ,
1, ,35, ,
2, ,35, ,
2, ,35, ,
3, ,35, ,
3, ,35, ,
3, ,35, ,
3, ,35, ,
4, ,35, ,
3, ,35, ,
3, ,35, ,
4, ,35, ,
5, ,35, ,
5, ,35, ,
5, ,35, ,
4, ,35, ,
7, ,35, ,
6, ,35, ,
6, ,35, ,
8, ,35, ,
7, ,35, ,
8, ,35, ,
7, ,35, ,
8, ,35, ,
8, ,35, ,
8, ,35, ,
8, ,35, ,
9, ,35, ,
10, ,35, ,
10, ,35, ,
11, ,35, ,
10, ,35, ,
12, ,35, ,
12, ,35, ,
12, ,35, ,
13, ,35, ,
13, ,35, ,
14, ,35, ,
13, ,35, ,
16, ,35, ,
16, ,35, ,
15, ,35, ,
16, ,35, ,
19, ,35, ,
18, ,35, ,
20, ,35, ,
20, ,35, ,
20, ,35, ,
21, ,35, ,
22, ,35, ,
22, ,35, ,
23, ,35, ,
24, ,35, ,
24, ,35, ,
24, ,35, ,
25, ,35, ,
25, ,35, ,
25, ,35, ,
26, ,35, ,
27, ,35, ,
25, ,35, ,
25, ,35, ,
25, ,35, ,
24, ,35, ,
25, ,35, ,
24, ,35, ,
24, ,35, ,
23, ,35, ,
22, ,35, ,
22, ,35, ,
20, ,35, ,
19, ,35, ,
19, ,35, ,
17, ,35, ,
17, ,35, ,
16, ,35, ,
14, ,35, ,
14, ,35, ,
12, ,35, ,
11, ,35, ,
9, ,35, ,
8, ,35, ,
8, ,35, ,
7, ,35, ,
5, ,35, ,
5, ,35, ,
4, ,35, ,
3, ,35, ,
4, ,35, ,
1, ,35, ,
2, ,35, ,
2, ,35, ,
-1, ,35, ,
-1, ,35, ,
-2, ,35, ,
-5, ,35, ,
-5, ,35, ,
-5, ,35, ,
-5, ,35, ,
-6, ,35, ,
-8, ,35, ,
-8, ,35, ,
-9, ,35, ,
-10, ,35, ,
-10, ,35, ,
-10, ,35, ,
-10, ,35, ,
-11, ,35, ,
-12, ,35, ,
-11, ,35, ,
-12, ,35, ,
-12, ,35, ,
-11, ,35, ,
-12, ,35, ,
-11, ,35, ,
-11, ,35, ,
-11, ,35, ,
-10, ,35, ,
-10, ,35, ,
-10, ,35, ,
-9, ,35, ,
-10, ,35, ,
-7, ,35, ,
-7, ,35, ,
-6, ,35, ,
-6, ,35, ,
-7, ,35, ,
-6, ,35, ,
-5, ,35, ,
-6, ,35, ,
-5, ,35, ,
-6, ,35, ,
-6, ,35, ,
-6, ,35, ,
-7, ,35, ,
-8, ,35, ,
-8, ,35, ,
-10, ,35, ,
-10, ,35, ,
-10, ,35, ,
-11, ,35, ,
-11, ,35, ,
-12, ,35, ,
-13, ,35, ,
-13, ,35, ,
-15, ,35, ,
-14, ,35, ,
-14, ,35, ,
-14, ,35, ,
-14, ,35, ,
-15, ,35, ,
-14, ,35, ,
-15, ,35, ,
-15, ,35, ,
-15, ,35, ,
-14, ,35, ,
-14, ,35, ,
-14, ,35, ,
-13, ,35, ,
-14, ,35, ,
-12, ,35, ,
-12, ,35, ,
-10, ,35, ,
-9, ,35, ,
-9, ,35, ,
-8, ,35, ,
-8, ,35, ,
-7, ,35, ,
-6, ,35, ,
-7, ,35, ,
-5, ,35, ,
