raw_data/100% Glycerol, Impulsion 2Hz, Sonde 5MHz, Rampe 0.7Hz/temp0000175.CSV

Format,1.0B,
Memory Length,10000,Memory Length,10000,
IntpDistance,0,IntpDistance,0,
Trigger Address,159,Trigger Address,159,
Trigger Level,2.720E-01,Trigger Level,2.720E-01,
Source,CH1,Source,CH2,
Vertical Units,V,Vertical Units,V,
Vertical Units Div,0,Vertical Units Div,0,
Vertical Units Extend Div,16,Vertical Units Extend Div,16,
Label,,Label,,
Probe Type,0,Probe Type,0,
Probe Ratio,1.000e+00,Probe Ratio,1.000e+00,
Vertical Scale,2.000e-01,Vertical Scale,2.000e+00,
Vertical Position,0.000e+00,Vertical Position,0.000e+00,
Horizontal Units,S,Horizontal Units,S,
Horizontal Scale,5.000E-06,Horizontal Scale,5.000E-06,
Horizontal Position,2.420E-05,Horizontal Position,2.420E-05,
Horizontal Mode,Main,Horizontal Mode,Main,
SincET Mode,Real Time,SincET Mode,Real Time,
Sampling Period,5.000e-09,Sampling Period,5.000e-09,
Horizontal Old Scale,5.000E-06,Horizontal Old Scale,5.000E-06,
Horizontal Old Position,2.420E-05,Horizontal Old Position,2.420E-05,
Firmware,V1.32,Firmware,V1.32,
Mode,Fast,Mode,Fast,
Waveform Data,,Waveform Data,,
2, ,2, ,
3, ,2, ,
2, ,2, ,
2, ,2, ,
2, ,2, ,
3, ,2, ,
3, ,2, ,
2, ,2, ,
2, ,2, ,
3, ,2, ,
2, ,2, ,
3, ,2, ,
1, ,2, ,
3, ,2, ,
3, ,2, ,
2, ,2, ,
2, ,2, ,
2, ,2, ,
2, ,2, ,
2, ,2, ,
2, ,2, ,
2, ,2, ,
3, ,2, ,
2, ,2, ,
3, ,2, ,
4, ,2, ,
2, ,2, ,
2, ,2, ,
2, ,2, ,
3, ,2, ,
2, ,2, ,
2, ,2, ,
2, ,2, ,
2, ,2, ,
1, ,2, ,
2, ,2, ,
2, ,2, ,
2, ,2, ,
2, ,2, ,
2, ,2, ,
2, ,2, ,
2, ,2, ,
1, ,2, ,
3, ,2, ,
2, ,2, ,
3, ,2, ,
3, ,2, ,
2, ,2, ,
2, ,2, ,
3, ,2, ,
3, ,2, ,
3, ,2, ,
2, ,2, ,
1, ,2, ,
2, ,2, ,
2, ,2, ,
2, ,2, ,
3, ,2, ,
2, ,2, ,
3, ,2, ,
2, ,2, ,
2, ,2, ,
3, ,2, ,
2, ,2, ,
3, ,2, ,
2, ,2, ,
2, ,2, ,
2, ,2, ,
2, ,2, ,
2, ,2, ,
3, ,2, ,
2, ,2, ,
3, ,2, ,
4, ,2, ,
3, ,2, ,
1, ,2, ,
2, ,2, ,
3, ,2, ,
3, ,2, ,
2, ,2, ,
3, ,2, ,
2, ,2, ,
1, ,2, ,
2, ,2, ,
2, ,2, ,
3, ,2, ,
2, ,2, ,
2, ,2, ,
1, ,2, ,
3, ,2, ,
3, ,2, ,
4, ,2, ,
1, ,2, ,
2, ,2, ,
2, ,2, ,
2, ,2, ,
2, ,2, ,
3, ,2, ,
2, ,2, ,
3, ,2, ,
3, ,2, ,
3, ,2, ,
2, ,2, ,
2, ,2, ,
2, ,2, ,
2, ,2, ,
2, ,2, ,
1, ,2, ,
2, ,2, ,
2, ,2, ,
3, ,2, ,
2, ,2, ,
3, ,2, ,
3, ,2, ,
3, ,2, ,
3, ,2, ,
3, ,2, ,
2, ,2, ,
1, ,2, ,
2, ,2, ,
2, ,2, ,
3, ,2, ,
2, ,2, ,
2, ,2, ,
1, ,2, ,
2, ,2, ,
3, ,2, ,
1, ,2, ,
2, ,2, ,
2, ,2, ,
1, ,2, ,
3, ,2, ,
2, ,2, ,
2, ,2, ,
2, ,2, ,
1, ,2, ,
2, ,2, ,
2, ,2, ,
2, ,2, ,
2, ,2, ,
1, ,2, ,
2, ,2, ,
2, ,2, ,
2, ,2, ,
2, ,2, ,
2, ,2, ,
2, ,2, ,
2, ,2, ,
1, ,2, ,
1, ,2, ,
3, ,2, ,
3, ,2, ,
3, ,2, ,
2, ,2, ,
2, ,2, ,
2, ,2, ,
1, ,2, ,
2, ,2, ,
2, ,2, ,
2, ,2, ,
2, ,2, ,
2, ,2, ,
2, ,2, ,
3, ,2, ,
7, ,2, ,
0, ,2, ,
-1, ,2, ,
1, ,2, ,
28, ,2, ,
125, ,2, ,
125, ,2, ,
125, ,2, ,
125, ,2, ,
117, ,2, ,
21, ,2, ,
-15, ,2, ,
74, ,2, ,
125, ,2, ,
125, ,2, ,
125, ,2, ,
125, ,2, ,
125, ,2, ,
125, ,2, ,
125, ,2, ,
125, ,2, ,
125, ,2, ,
125, ,2, ,
125, ,2, ,
125, ,2, ,
125, ,2, ,
125, ,2, ,
125, ,2, ,
125, ,2, ,
125, ,2, ,
125, ,2, ,
125, ,2, ,
125, ,2, ,
125, ,2, ,
125, ,2, ,
125, ,2, ,
125, ,2, ,
125, ,2, ,
124, ,2, ,
124, ,2, ,
120, ,2, ,
110, ,2, ,
107, ,2, ,
101, ,2, ,
99, ,2, ,
92, ,2, ,
87, ,2, ,
83, ,2, ,
79, ,2, ,
71, ,2, ,
69, ,2, ,
65, ,2, ,
64, ,2, ,
58, ,2, ,
54, ,2, ,
53, ,2, ,
50, ,2, ,
44, ,2, ,
44, ,2, ,
41, ,2, ,
40, ,2, ,
36, ,2, ,
34, ,2, ,
34, ,2, ,
30, ,2, ,
27, ,2, ,
27, ,2, ,
25, ,2, ,
24, ,2, ,
21, ,2, ,
19, ,2, ,
19, ,2, ,
17, ,2, ,
15, ,2, ,
15, ,2, ,
13, ,2, ,
13, ,2, ,
12, ,2, ,
10, ,2, ,
10, ,2, ,
9, ,2, ,
7, ,2, ,
8, ,2, ,
6, ,2, ,
6, ,2, ,
5, ,2, ,
4, ,2, ,
4, ,2, ,
3, ,2, ,
3, ,2, ,
3, ,2, ,
2, ,2, ,
2, ,2, ,
1, ,2, ,
0, ,2, ,
0, ,2, ,
-1, ,2, ,
-2, ,2, ,
-1, ,2, ,
-1, ,2, ,
-1, ,2, ,
-1, ,2, ,
-2, ,2, ,
-1, ,2, ,
-2, ,2, ,
-2, ,2, ,
-2, ,2, ,
-3, ,2, ,
-3, ,2, ,
-3, ,2, ,
-3, ,2, ,
-2, ,2, ,
-2, ,2, ,
-2, ,2, ,
-2, ,2, ,
-3, ,2, ,
-1, ,2, ,
-2, ,2, ,
-3, ,2, ,
-3, ,2, ,
-4, ,2, ,
-3, ,2, ,
-2, ,2, ,
-4, ,2, ,
-2, ,2, ,
-2, ,2, ,
-2, ,2, ,
-2, ,2, ,
-2, ,2, ,
-2, ,2, ,
-2, ,2, ,
-2, ,2, ,
-2, ,2, ,
-2, ,2, ,
-2, ,2, ,
-1, ,2, ,
-3, ,2, ,
-2, ,2, ,
-1, ,2, ,
-2, ,2, ,
-1, ,2, ,
-1, ,2, ,
-1, ,2, ,
-1, ,2, ,
-2, ,2, ,
-4, ,2, ,
-2, ,2, ,
-1, ,2, ,
-1, ,2, ,
-1, ,2, ,
-2, ,2, ,
-1, ,2, ,
-2, ,2, ,
-1, ,2, ,
-1, ,2, ,
-2, ,2, ,
0, ,2, ,
0, ,2, ,
-1, ,2, ,
0, ,2, ,
-1, ,2, ,
0, ,2, ,
0, ,2, ,
-1, ,2, ,
0, ,2, ,
0, ,2, ,
0, ,2, ,
0, ,2, ,
0, ,2, ,
0, ,2, ,
0, ,2, ,
0, ,2, ,
0, ,2, ,
0, ,2, ,
1, ,2, ,
1, ,2, ,
1, ,2, ,
1, ,2, ,
1, ,2, ,
0, ,2, ,
0, ,2, ,
1, ,2, ,
0, ,2, ,
1, ,2, ,
0, ,2, ,
1, ,2, ,
1, ,2, ,
0, ,2, ,
1, ,2, ,
1, ,2, ,
0, ,2, ,
1, ,2, ,
0, ,2, ,
0, ,2, ,
1, ,2, ,
1, ,2, ,
1, ,2, ,
0, ,2, ,
0, ,2, ,
1, ,2, ,
0, ,2, ,
1, ,2, ,
2, ,2, ,
1, ,2, ,
2, ,2, ,
1, ,2, ,
0, ,2, ,
2, ,2, ,
1, ,2, ,
1, ,2, ,
1, ,2, ,
1, ,2, ,
2, ,2, ,
1, ,2, ,
0, ,2, ,
1, ,2, ,
0, ,2, ,
2, ,2, ,
2, ,2, ,
1, ,2, ,
2, ,2, ,
2, ,2, ,
1, ,2, ,
1, ,2, ,
0, ,2, ,
0, ,2, ,
2, ,2, ,
1, ,2, ,
2, ,2, ,
1, ,2, ,
2, ,2, ,
3, ,2, ,
1, ,2, ,
2, ,2, ,
2, ,2, ,
1, ,2, ,
2, ,2, ,
1, ,2, ,
1, ,2, ,
1, ,2, ,
1, ,2, ,
1, ,2, ,
1, ,2, ,
1, ,2, ,
2, ,2, ,
3, ,2, ,
2, ,2, ,
2, ,2, ,
2, ,2, ,
2, ,2, ,
3, ,2, ,
1, ,2, ,
1, ,2, ,
2, ,2, ,
1, ,2, ,
2, ,2, ,
2, ,2, ,
1, ,2, ,
1, ,2, ,
1, ,2, ,
2, ,2, ,
1, ,2, ,
0, ,2, ,
1, ,2, ,
0, ,2, ,
1, ,2, ,
2, ,2, ,
1, ,2, ,
2, ,2, ,
2, ,2, ,
1, ,2, ,
2, ,2, ,
2, ,2, ,
1, ,2, ,
2, ,2, ,
1, ,2, ,
0, ,2, ,
0, ,2, ,
0, ,2, ,
0, ,2, ,
-1, ,2, ,
0, ,2, ,
0, ,2, ,
0, ,2, ,
1, ,2, ,
1, ,2, ,
1, ,2, ,
1, ,2, ,
1, ,2, ,
1, ,2, ,
3, ,2, ,
2, ,2, ,
2, ,2, ,
3, ,2, ,
2, ,2, ,
2, ,2, ,
2, ,2, ,
1, ,2, ,
2, ,2, ,
0, ,2, ,
2, ,2, ,
2, ,2, ,
2, ,2, ,
2, ,2, ,
2, ,2, ,
3, ,2, ,
3, ,2, ,
2, ,2, ,
3, ,2, ,
3, ,2, ,
2, ,2, ,
2, ,2, ,
1, ,2, ,
0, ,2, ,
0, ,2, ,
-1, ,2, ,
-1, ,2, ,
-2, ,2, ,
-5, ,2, ,
-5, ,2, ,
-6, ,2, ,
-7, ,2, ,
-5, ,2, ,
-6, ,2, ,
-5, ,2, ,
-4, ,2, ,
-5, ,2, ,
-5, ,2, ,
-5, ,2, ,
-5, ,2, ,
-5, ,2, ,
-7, ,2, ,
-8, ,2, ,
-13, ,2, ,
-16, ,2, ,
-19, ,2, ,
-23, ,2, ,
-28, ,2, ,
-30, ,2, ,
-29, ,2, ,
-27, ,2, ,
-24, ,2, ,
-23, ,2, ,
-19, ,2, ,
-17, ,2, ,
-14, ,2, ,
-11, ,2, ,
-12, ,2, ,
-10, ,2, ,
-11, ,2, ,
-13, ,2, ,
-13, ,2, ,
-15, ,2, ,
-18, ,2, ,
-19, ,2, ,
-20, ,2, ,
-20, ,2, ,
-19, ,2, ,
-19, ,2, ,
-16, ,2, ,
-15, ,2, ,
-12, ,2, ,
-10, ,2, ,
-10, ,2, ,
-10, ,2, ,
-10, ,2, ,
-13, ,2, ,
-13, ,2, ,
-16, ,2, ,
-25, ,2, ,
-30, ,2, ,
-33, ,2, ,
-39, ,2, ,
-49, ,2, ,
-54, ,2, ,
-58, ,2, ,
-64, ,2, ,
-70, ,2, ,
-70, ,2, ,
-71, ,2, ,
-69, ,2, ,
-65, ,2, ,
-61, ,2, ,
-57, ,2, ,
-52, ,2, ,
-40, ,2, ,
-35, ,2, ,
-29, ,2, ,
-24, ,2, ,
-12, ,2, ,
-7, ,2, ,
-1, ,2, ,
5, ,2, ,
15, ,2, ,
20, ,2, ,
23, ,2, ,
27, ,2, ,
35, ,2, ,
38, ,2, ,
42, ,2, ,
43, ,2, ,
45, ,2, ,
49, ,2, ,
49, ,2, ,
49, ,2, ,
48, ,2, ,
46, ,2, ,
46, ,2, ,
42, ,2, ,
38, ,2, ,
34, ,2, ,
28, ,2, ,
22, ,2, ,
5, ,2, ,
-6, ,2, ,
-16, ,2, ,
-29, ,2, ,
-52, ,2, ,
-60, ,2, ,
-68, ,2, ,
-73, ,2, ,
-74, ,2, ,
-76, ,2, ,
-72, ,2, ,
-70, ,2, ,
-56, ,2, ,
-49, ,2, ,
-42, ,2, ,
-32, ,2, ,
-13, ,2, ,
-5, ,2, ,
5, ,2, ,
11, ,2, ,
26, ,2, ,
34, ,2, ,
37, ,2, ,
44, ,2, ,
50, ,2, ,
52, ,2, ,
54, ,2, ,
54, ,2, ,
56, ,2, ,
58, ,2, ,
55, ,2, ,
55, ,2, ,
51, ,2, ,
47, ,2, ,
46, ,2, ,
41, ,2, ,
34, ,2, ,
29, ,2, ,
22, ,2, ,
18, ,2, ,
4, ,2, ,
-1, ,2, ,
-5, ,2, ,
-10, ,2, ,
-13, ,2, ,
-14, ,2, ,
-14, ,2, ,
-11, ,2, ,
-7, ,2, ,
-4, ,2, ,
-2, ,2, ,
1, ,2, ,
5, ,2, ,
11, ,2, ,
13, ,2, ,
15, ,2, ,
18, ,2, ,
19, ,2, ,
21, ,2, ,
20, ,2, ,
23, ,2, ,
24, ,2, ,
23, ,2, ,
25, ,2, ,
26, ,2, ,
27, ,2, ,
30, ,2, ,
30, ,2, ,
33, ,2, ,
36, ,2, ,
37, ,2, ,
38, ,2, ,
41, ,2, ,
41, ,2, ,
41, ,2, ,
40, ,2, ,
39, ,2, ,
39, ,2, ,
38, ,2, ,
38, ,2, ,
36, ,2, ,
35, ,2, ,
35, ,2, ,
32, ,2, ,
31, ,2, ,
32, ,2, ,
29, ,2, ,
28, ,2, ,
27, ,2, ,
25, ,2, ,
25, ,2, ,
23, ,2, ,
22, ,2, ,
21, ,2, ,
21, ,2, ,
20, ,2, ,
19, ,2, ,
17, ,2, ,
16, ,2, ,
15, ,2, ,
-6, ,2, ,
-37, ,2, ,
-100, ,2, ,
-126, ,2, ,
-126, ,2, ,
-126, ,2, ,
-126, ,2, ,
-126, ,2, ,
-126, ,2, ,
-126, ,2, ,
-126, ,2, ,
-126, ,2, ,
-126, ,2, ,
-126, ,2, ,
-126, ,2, ,
-126, ,2, ,
-126, ,2, ,
-126, ,2, ,
-126, ,2, ,
-126, ,2, ,
-126, ,2, ,
-126, ,2, ,
-126, ,2, ,
-126, ,2, ,
-126, ,2, ,
-124, ,2, ,
-121, ,2, ,
-63, ,2, ,
-27, ,2, ,
-19, ,2, ,
-8, ,2, ,
1, ,2, ,
6, ,2, ,
0, ,2, ,
-11, ,2, ,
-21, ,2, ,
-43, ,2, ,
-51, ,2, ,
-57, ,2, ,
-66, ,2, ,
-67, ,2, ,
-63, ,2, ,
-60, ,2, ,
-52, ,2, ,
-34, ,2, ,
-25, ,2, ,
-17, ,2, ,
-9, ,2, ,
4, ,2, ,
8, ,2, ,
11, ,2, ,
12, ,2, ,
12, ,2, ,
11, ,2, ,
11, ,2, ,
8, ,2, ,
6, ,2, ,
6, ,2, ,
4, ,2, ,
3, ,2, ,
-1, ,2, ,
-4, ,2, ,
-5, ,2, ,
-10, ,2, ,
-18, ,2, ,
-21, ,2, ,
-26, ,2, ,
-30, ,2, ,
-39, ,2, ,
-42, ,2, ,
-45, ,2, ,
-50, ,2, ,
-54, ,2, ,
-54, ,2, ,
-58, ,2, ,
-60, ,2, ,
-64, ,2, ,
-66, ,2, ,
-68, ,2, ,
-70, ,2, ,
-72, ,2, ,
-72, ,2, ,
-73, ,2, ,
-70, ,2, ,
-64, ,2, ,
-60, ,2, ,
-53, ,2, ,
-46, ,2, ,
-27, ,2, ,
-15, ,2, ,
-6, ,2, ,
9, ,2, ,
34, ,2, ,
43, ,2, ,
56, ,2, ,
68, ,2, ,
88, ,2, ,
99, ,2, ,
106, ,2, ,
113, ,2, ,
125, ,2, ,
125, ,2, ,
125, ,2, ,
125, ,2, ,
125, ,2, ,
125, ,2, ,
125, ,2, ,
125, ,2, ,
125, ,2, ,
125, ,2, ,
125, ,2, ,
125, ,2, ,
124, ,2, ,
123, ,2, ,
117, ,2, ,
112, ,2, ,
99, ,2, ,
94, ,2, ,
88, ,2, ,
81, ,2, ,
71, ,2, ,
67, ,2, ,
62, ,2, ,
58, ,2, ,
51, ,2, ,
46, ,2, ,
46, ,2, ,
43, ,2, ,
38, ,2, ,
39, ,2, ,
38, ,2, ,
39, ,2, ,
39, ,2, ,
40, ,2, ,
42, ,2, ,
41, ,2, ,
43, ,2, ,
43, ,2, ,
41, ,2, ,
42, ,2, ,
38, ,2, ,
35, ,2, ,
32, ,2, ,
28, ,2, ,
16, ,2, ,
13, ,2, ,
7, ,2, ,
0, ,2, ,
-10, ,2, ,
-17, ,2, ,
-21, ,2, ,
-27, ,2, ,
-35, ,2, ,
-40, ,2, ,
-45, ,2, ,
-49, ,2, ,
-58, ,2, ,
-62, ,2, ,
-64, ,2, ,
-70, ,2, ,
-75, ,2, ,
-79, ,2, ,
-81, ,2, ,
-83, ,2, ,
-85, ,2, ,
-86, ,2, ,
-85, ,2, ,
-86, ,2, ,
-84, ,2, ,
-82, ,2, ,
-81, ,2, ,
-79, ,2, ,
-73, ,2, ,
-71, ,2, ,
-66, ,2, ,
-64, ,2, ,
-58, ,2, ,
-52, ,2, ,
-48, ,2, ,
-41, ,2, ,
-34, ,2, ,
-28, ,2, ,
-23, ,2, ,
-20, ,2, ,
-9, ,2, ,
-2, ,2, ,
1, ,2, ,
8, ,2, ,
18, ,2, ,
21, ,2, ,
26, ,2, ,
30, ,2, ,
35, ,2, ,
43, ,2, ,
45, ,2, ,
49, ,2, ,
55, ,2, ,
56, ,2, ,
60, ,2, ,
60, ,2, ,
64, ,2, ,
66, ,2, ,
65, ,2, ,
67, ,2, ,
68, ,2, ,
68, ,2, ,
68, ,2, ,
66, ,2, ,
64, ,2, ,
65, ,2, ,
62, ,2, ,
62, ,2, ,
60, ,2, ,
56, ,2, ,
56, ,2, ,
53, ,2, ,
49, ,2, ,
50, ,2, ,
47, ,2, ,
46, ,2, ,
44, ,2, ,
41, ,2, ,
42, ,2, ,
39, ,2, ,
37, ,2, ,
38, ,2, ,
36, ,2, ,
37, ,2, ,
35, ,2, ,
35, ,2, ,
35, ,2, ,
35, ,2, ,
35, ,2, ,
36, ,2, ,
35, ,2, ,
36, ,2, ,
35, ,2, ,
32, ,2, ,
32, ,2, ,
30, ,2, ,
26, ,2, ,
25, ,2, ,
22, ,2, ,
20, ,2, ,
14, ,2, ,
10, ,2, ,
9, ,2, ,
5, ,2, ,
0, ,2, ,
-3, ,2, ,
-7, ,2, ,
-8, ,2, ,
-13, ,2, ,
-18, ,2, ,
-18, ,2, ,
-22, ,2, ,
-25, ,2, ,
-25, ,2, ,
-28, ,2, ,
-27, ,2, ,
-27, ,2, ,
-27, ,2, ,
-27, ,2, ,
-25, ,2, ,
-24, ,2, ,
-20, ,2, ,
-20, ,2, ,
-17, ,2, ,
-14, ,2, ,
-12, ,2, ,
-8, ,2, ,
-8, ,2, ,
-4, ,2, ,
-2, ,2, ,
0, ,2, ,
3, ,2, ,
5, ,2, ,
5, ,2, ,
6, ,2, ,
5, ,2, ,
7, ,2, ,
7, ,2, ,
6, ,2, ,
6, ,2, ,
5, ,2, ,
5, ,2, ,
5, ,2, ,
4, ,2, ,
0, ,2, ,
2, ,2, ,
0, ,2, ,
0, ,2, ,
-2, ,2, ,
-4, ,2, ,
-5, ,2, ,
-5, ,2, ,
-5, ,2, ,
-6, ,2, ,
-8, ,2, ,
-8, ,2, ,
-9, ,2, ,
-10, ,2, ,
-10, ,2, ,
-11, ,2, ,
-12, ,2, ,
-12, ,2, ,
-13, ,2, ,
-13, ,2, ,
-15, ,2, ,
-16, ,2, ,
-15, ,2, ,
-17, ,2, ,
-18, ,2, ,
-18, ,2, ,
-20, ,2, ,
-20, ,2, ,
-21, ,2, ,
-24, ,2, ,
-23, ,2, ,
-25, ,2, ,
-26, ,2, ,
-25, ,2, ,
-26, ,2, ,
-26, ,2, ,
-26, ,2, ,
-27, ,2, ,
-25, ,2, ,
-26, ,2, ,
-22, ,2, ,
-22, ,2, ,
-20, ,2, ,
-18, ,2, ,
-14, ,2, ,
-14, ,2, ,
-12, ,2, ,
-9, ,2, ,
-4, ,2, ,
-1, ,2, ,
1, ,2, ,
5, ,2, ,
11, ,2, ,
13, ,2, ,
18, ,2, ,
19, ,2, ,
26, ,2, ,
30, ,2, ,
30, ,2, ,
33, ,2, ,
37, ,2, ,
39, ,2, ,
40, ,2, ,
40, ,2, ,
43, ,2, ,
45, ,2, ,
45, ,2, ,
45, ,2, ,
44, ,2, ,
44, ,2, ,
43, ,2, ,
40, ,2, ,
38, ,2, ,
36, ,2, ,
35, ,2, ,
32, ,2, ,
28, ,2, ,
24, ,2, ,
22, ,2, ,
17, ,2, ,
10, ,2, ,
8, ,2, ,
4, ,2, ,
2, ,2, ,
-3, ,2, ,
-6, ,2, ,
-9, ,2, ,
-13, ,2, ,
-18, ,2, ,
-18, ,2, ,
-21, ,2, ,
-22, ,2, ,
-25, ,2, ,
-27, ,2, ,
-28, ,2, ,
-30, ,2, ,
-31, ,2, ,
-30, ,2, ,
-30, ,2, ,
-30, ,2, ,
-30, ,2, ,
-30, ,2, ,
-29, ,2, ,
-30, ,2, ,
-29, ,2, ,
-27, ,2, ,
-28, ,2, ,
-25, ,2, ,
-23, ,2, ,
-25, ,2, ,
-21, ,2, ,
-22, ,2, ,
-19, ,2, ,
-16, ,2, ,
-14, ,2, ,
-12, ,2, ,
-9, ,2, ,
-9, ,2, ,
-7, ,2, ,
-7, ,2, ,
-5, ,2, ,
-5, ,2, ,
-6, ,2, ,
-7, ,2, ,
-8, ,2, ,
-13, ,2, ,
-15, ,2, ,
-20, ,2, ,
-28, ,2, ,
-34, ,2, ,
-40, ,2, ,
-46, ,2, ,
-63, ,2, ,
-73, ,2, ,
-83, ,2, ,
-96, ,2, ,
-117, ,2, ,
-126, ,2, ,
-126, ,2, ,
-126, ,2, ,
-126, ,2, ,
-126, ,2, ,
-126, ,2, ,
-126, ,2, ,
-126, ,2, ,
-126, ,2, ,
-126, ,2, ,
-126, ,2, ,
-126, ,2, ,
-126, ,2, ,
-126, ,2, ,
-126, ,2, ,
-126, ,2, ,
-126, ,2, ,
-126, ,2, ,
-126, ,2, ,
-126, ,2, ,
-126, ,2, ,
-121, ,2, ,
-118, ,2, ,
-109, ,2, ,
-104, ,2, ,
-99, ,2, ,
-95, ,2, ,
-87, ,2, ,
-84, ,2, ,
-80, ,2, ,
-77, ,2, ,
-71, ,2, ,
-66, ,2, ,
-65, ,2, ,
-61, ,2, ,
-55, ,2, ,
-54, ,2, ,
-50, ,2, ,
-49, ,2, ,
-45, ,2, ,
-41, ,2, ,
-41, ,2, ,
-38, ,2, ,
-24, ,2, ,
9, ,2, ,
99, ,2, ,
125, ,2, ,
125, ,2, ,
125, ,2, ,
125, ,2, ,
125, ,2, ,
125, ,2, ,
125, ,2, ,
125, ,2, ,
125, ,2, ,
125, ,2, ,
125, ,2, ,
125, ,2, ,
125, ,2, ,
125, ,2, ,
125, ,2, ,
125, ,2, ,
125, ,2, ,
125, ,2, ,
125, ,2, ,
125, ,2, ,
125, ,2, ,
125, ,2, ,
125, ,2, ,
125, ,2, ,
125, ,2, ,
125, ,2, ,
125, ,2, ,
125, ,2, ,
125, ,2, ,
125, ,2, ,
125, ,2, ,
125, ,2, ,
125, ,2, ,
125, ,2, ,
125, ,2, ,
124, ,2, ,
124, ,2, ,
118, ,2, ,
112, ,2, ,
108, ,2, ,
104, ,2, ,
93, ,2, ,
88, ,2, ,
77, ,2, ,
64, ,2, ,
0, ,2, ,
-49, ,2, ,
-112, ,2, ,
-126, ,2, ,
-126, ,2, ,
-126, ,2, ,
-126, ,2, ,
-126, ,2, ,
-126, ,2, ,
-126, ,2, ,
-126, ,2, ,
-126, ,2, ,
-126, ,2, ,
-126, ,2, ,
-126, ,2, ,
-126, ,2, ,
-126, ,2, ,
-126, ,2, ,
-126, ,2, ,
-126, ,2, ,
-126, ,2, ,
-126, ,2, ,
-126, ,2, ,
-126, ,2, ,
-123, ,2, ,
-116, ,2, ,
-9, ,2, ,
96, ,2, ,
125, ,2, ,
125, ,2, ,
125, ,2, ,
125, ,2, ,
125, ,2, ,
125, ,2, ,
125, ,2, ,
125, ,2, ,
125, ,2, ,
125, ,2, ,
125, ,2, ,
124, ,2, ,
119, ,2, ,
100, ,2, ,
82, ,2, ,
61, ,2, ,
19, ,2, ,
-2, ,2, ,
-24, ,2, ,
-42, ,2, ,
-83, ,2, ,
-102, ,2, ,
-116, ,2, ,
-126, ,2, ,
-126, ,2, ,
-126, ,2, ,
-126, ,2, ,
-126, ,2, ,
-126, ,2, ,
-126, ,2, ,
-126, ,2, ,
-126, ,2, ,
-126, ,2, ,
-126, ,2, ,
-126, ,2, ,
-126, ,2, ,
-126, ,2, ,
-126, ,2, ,
-126, ,2, ,
-126, ,2, ,
-126, ,2, ,
-126, ,2, ,
-126, ,2, ,
-126, ,2, ,
-126, ,2, ,
-126, ,2, ,
-126, ,2, ,
-126, ,2, ,
-126, ,2, ,
-126, ,2, ,
-126, ,2, ,
-126, ,2, ,
-122, ,2, ,
-117, ,2, ,
-113, ,2, ,
-108, ,2, ,
-101, ,2, ,
-94, ,2, ,
-91, ,2, ,
-86, ,2, ,
-76, ,2, ,
-73, ,2, ,
-62, ,2, ,
-46, ,2, ,
25, ,2, ,
58, ,2, ,
81, ,2, ,
94, ,2, ,
104, ,2, ,
111, ,2, ,
120, ,2, ,
125, ,2, ,
125, ,2, ,
125, ,2, ,
125, ,2, ,
125, ,2, ,
125, ,2, ,
125, ,2, ,
125, ,2, ,
124, ,2, ,
122, ,2, ,
118, ,2, ,
113, ,2, ,
112, ,2, ,
105, ,2, ,
101, ,2, ,
98, ,2, ,
94, ,2, ,
89, ,2, ,
88, ,2, ,
83, ,2, ,
84, ,2, ,
79, ,2, ,
76, ,2, ,
76, ,2, ,
73, ,2, ,
67, ,2, ,
67, ,2, ,
63, ,2, ,
61, ,2, ,
56, ,2, ,
52, ,2, ,
49, ,2, ,
44, ,2, ,
38, ,2, ,
36, ,2, ,
32, ,2, ,
29, ,2, ,
20, ,2, ,
14, ,2, ,
12, ,2, ,
6, ,2, ,
-5, ,2, ,
-8, ,2, ,
-14, ,2, ,
-16, ,2, ,
-28, ,2, ,
-31, ,2, ,
-34, ,2, ,
-39, ,2, ,
-42, ,2, ,
-45, ,2, ,
-49, ,2, ,
-50, ,2, ,
-51, ,2, ,
-53, ,2, ,
-53, ,2, ,
-54, ,2, ,
-54, ,2, ,
-53, ,2, ,
-53, ,2, ,
-51, ,2, ,
-49, ,2, ,
-47, ,2, ,
-44, ,2, ,
-45, ,2, ,
-39, ,2, ,
-37, ,2, ,
-36, ,2, ,
-32, ,2, ,
-27, ,2, ,
-27, ,2, ,
-22, ,2, ,
-21, ,2, ,
-17, ,2, ,
-15, ,2, ,
-12, ,2, ,
-12, ,2, ,
-10, ,2, ,
-7, ,2, ,
-7, ,2, ,
-7, ,2, ,
-8, ,2, ,
-8, ,2, ,
-10, ,2, ,
-10, ,2, ,
-12, ,2, ,
-15, ,2, ,
-16, ,2, ,
-18, ,2, ,
-21, ,2, ,
-22, ,2, ,
-25, ,2, ,
-26, ,2, ,
-30, ,2, ,
-31, ,2, ,
-30, ,2, ,
-32, ,2, ,
-31, ,2, ,
-29, ,2, ,
-30, ,2, ,
-25, ,2, ,
-23, ,2, ,
-22, ,2, ,
-18, ,2, ,
-14, ,2, ,
-8, ,2, ,
0, ,2, ,
2, ,2, ,
8, ,2, ,
18, ,2, ,
21, ,2, ,
29, ,2, ,
33, ,2, ,
41, ,2, ,
47, ,2, ,
50, ,2, ,
56, ,2, ,
64, ,2, ,
67, ,2, ,
71, ,2, ,
73, ,2, ,
77, ,2, ,
80, ,2, ,
80, ,2, ,
82, ,2, ,
82, ,2, ,
81, ,2, ,
81, ,2, ,
80, ,2, ,
78, ,2, ,
79, ,2, ,
76, ,2, ,
74, ,2, ,
73, ,2, ,
69, ,2, ,
69, ,2, ,
65, ,2, ,
61, ,2, ,
59, ,2, ,
57, ,2, ,
55, ,2, ,
51, ,2, ,
49, ,2, ,
47, ,2, ,
44, ,2, ,
41, ,2, ,
40, ,2, ,
38, ,2, ,
37, ,2, ,
35, ,2, ,
32, ,2, ,
33, ,2, ,
31, ,2, ,
29, ,2, ,
28, ,2, ,
26, ,2, ,
25, ,2, ,
25, ,2, ,
23, ,2, ,
22, ,2, ,
21, ,2, ,
21, ,2, ,
20, ,2, ,
18, ,2, ,
17, ,2, ,
16, ,2, ,
15, ,2, ,
16, ,2, ,
13, ,2, ,
11, ,2, ,
11, ,2, ,
10, ,2, ,
10, ,2, ,
8, ,2, ,
7, ,2, ,
7, ,2, ,
6, ,2, ,
5, ,2, ,
5, ,2, ,
5, ,2, ,
5, ,2, ,
5, ,2, ,
4, ,2, ,
4, ,2, ,
3, ,2, ,
2, ,2, ,
3, ,2, ,
3, ,2, ,
3, ,2, ,
2, ,2, ,
2, ,2, ,
2, ,2, ,
1, ,2, ,
0, ,2, ,
2, ,2, ,
0, ,2, ,
1, ,2, ,
2, ,2, ,
0, ,2, ,
0, ,2, ,
0, ,2, ,
0, ,2, ,
1, ,2, ,
1, ,2, ,
2, ,2, ,
4, ,2, ,
3, ,2, ,
6, ,2, ,
5, ,2, ,
8, ,2, ,
12, ,2, ,
12, ,2, ,
16, ,2, ,
21, ,2, ,
23, ,2, ,
27, ,2, ,
29, ,2, ,
35, ,2, ,
41, ,2, ,
44, ,2, ,
50, ,2, ,
56, ,2, ,
59, ,2, ,
63, ,2, ,
66, ,2, ,
74, ,2, ,
78, ,2, ,
80, ,2, ,
84, ,2, ,
90, ,2, ,
91, ,2, ,
94, ,2, ,
95, ,2, ,
97, ,2, ,
98, ,2, ,
96, ,2, ,
96, ,2, ,
94, ,2, ,
93, ,2, ,
91, ,2, ,
87, ,2, ,
83, ,2, ,
79, ,2, ,
74, ,2, ,
72, ,2, ,
63, ,2, ,
58, ,2, ,
54, ,2, ,
47, ,2, ,
35, ,2, ,
33, ,2, ,
25, ,2, ,
19, ,2, ,
5, ,2, ,
-3, ,2, ,
-10, ,2, ,
-19, ,2, ,
-35, ,2, ,
-42, ,2, ,
-53, ,2, ,
-60, ,2, ,
-80, ,2, ,
-90, ,2, ,
-101, ,2, ,
-111, ,2, ,
-126, ,2, ,
-126, ,2, ,
-126, ,2, ,
-126, ,2, ,
-126, ,2, ,
-126, ,2, ,
-126, ,2, ,
-126, ,2, ,
-126, ,2, ,
-126, ,2, ,
-126, ,2, ,
-126, ,2, ,
-126, ,2, ,
-126, ,2, ,
-126, ,2, ,
-126, ,2, ,
-126, ,2, ,
-126, ,2, ,
-126, ,2, ,
-126, ,2, ,
-126, ,2, ,
-126, ,2, ,
-126, ,2, ,
-126, ,2, ,
-126, ,2, ,
-126, ,2, ,
-126, ,2, ,
-126, ,2, ,
-122, ,2, ,
-120, ,2, ,
-113, ,2, ,
-109, ,2, ,
-103, ,2, ,
-97, ,2, ,
-93, ,2, ,
-88, ,2, ,
-82, ,2, ,
-79, ,2, ,
-74, ,2, ,
-73, ,2, ,
-66, ,2, ,
-62, ,2, ,
-60, ,2, ,
-55, ,2, ,
-52, ,2, ,
-49, ,2, ,
-46, ,2, ,
-44, ,2, ,
-41, ,2, ,
-38, ,2, ,
-36, ,2, ,
-34, ,2, ,
-30, ,2, ,
-29, ,2, ,
-26, ,2, ,
-24, ,2, ,
-5, ,2, ,
35, ,2, ,
96, ,2, ,
125, ,2, ,
125, ,2, ,
125, ,2, ,
125, ,2, ,
125, ,2, ,
125, ,2, ,
125, ,2, ,
125, ,2, ,
125, ,2, ,
125, ,2, ,
125, ,2, ,
125, ,2, ,
125, ,2, ,
125, ,2, ,
125, ,2, ,
125, ,2, ,
125, ,2, ,
125, ,2, ,
125, ,2, ,
125, ,2, ,
125, ,2, ,
125, ,2, ,
125, ,2, ,
125, ,2, ,
125, ,2, ,
125, ,2, ,
125, ,2, ,
124, ,2, ,
124, ,2, ,
108, ,2, ,
95, ,2, ,
80, ,2, ,
67, ,2, ,
39, ,2, ,
26, ,2, ,
13, ,2, ,
1, ,2, ,
-21, ,2, ,
-30, ,2, ,
-38, ,2, ,
-45, ,2, ,
-56, ,2, ,
-61, ,2, ,
-65, ,2, ,
-67, ,2, ,
-67, ,2, ,
-66, ,2, ,
-64, ,2, ,
-63, ,2, ,
-57, ,2, ,
-55, ,2, ,
-51, ,2, ,
-47, ,2, ,
-39, ,2, ,
-35, ,2, ,
-33, ,2, ,
-28, ,2, ,
-22, ,2, ,
-19, ,2, ,
-16, ,2, ,
-16, ,2, ,
-12, ,2, ,
-9, ,2, ,
-10, ,2, ,
-8, ,2, ,
-5, ,2, ,
-5, ,2, ,
-4, ,2, ,
-4, ,2, ,
-2, ,2, ,
1, ,2, ,
3, ,2, ,
2, ,2, ,
6, ,2, ,
7, ,2, ,
9, ,2, ,
9, ,2, ,
11, ,2, ,
12, ,2, ,
12, ,2, ,
13, ,2, ,
11, ,2, ,
10, ,2, ,
10, ,2, ,
8, ,2, ,
5, ,2, ,
2, ,2, ,
1, ,2, ,
-3, ,2, ,
-10, ,2, ,
-13, ,2, ,
-17, ,2, ,
-21, ,2, ,
-30, ,2, ,
-33, ,2, ,
-35, ,2, ,
-40, ,2, ,
-47, ,2, ,
-51, ,2, ,
-54, ,2, ,
-58, ,2, ,
-64, ,2, ,
-67, ,2, ,
-69, ,2, ,
-70, ,2, ,
-75, ,2, ,
-76, ,2, ,
-77, ,2, ,
-81, ,2, ,
-82, ,2, ,
-84, ,2, ,
-85, ,2, ,
-85, ,2, ,
-87, ,2, ,
-88, ,2, ,
-88, ,2, ,
-89, ,2, ,
-91, ,2, ,
-89, ,2, ,
-90, ,2, ,
-90, ,2, ,
-89, ,2, ,
-88, ,2, ,
-86, ,2, ,
-87, ,2, ,
-83, ,2, ,
-81, ,2, ,
-80, ,2, ,
-77, ,2, ,
-71, ,2, ,
-68, ,2, ,
-65, ,2, ,
-63, ,2, ,
-56, ,2, ,
-53, ,2, ,
-48, ,2, ,
-43, ,2, ,
-37, ,2, ,
-35, ,2, ,
-31, ,2, ,
-29, ,2, ,
-22, ,2, ,
-17, ,2, ,
-15, ,2, ,
-12, ,2, ,
-5, ,2, ,
-4, ,2, ,
1, ,2, ,
3, ,2, ,
8, ,2, ,
10, ,2, ,
14, ,2, ,
18, ,2, ,
22, ,2, ,
25, ,2, ,
29, ,2, ,
30, ,2, ,
35, ,2, ,
38, ,2, ,
40, ,2, ,
44, ,2, ,
49, ,2, ,
50, ,2, ,
52, ,2, ,
54, ,2, ,
58, ,2, ,
60, ,2, ,
62, ,2, ,
63, ,2, ,
65, ,2, ,
64, ,2, ,
66, ,2, ,
65, ,2, ,
65, ,2, ,
65, ,2, ,
64, ,2, ,
64, ,2, ,
61, ,2, ,
61, ,2, ,
60, ,2, ,
56, ,2, ,
54, ,2, ,
52, ,2, ,
51, ,2, ,
49, ,2, ,
44, ,2, ,
42, ,2, ,
39, ,2, ,
36, ,2, ,
31, ,2, ,
29, ,2, ,
26, ,2, ,
24, ,2, ,
19, ,2, ,
14, ,2, ,
12, ,2, ,
10, ,2, ,
4, ,2, ,
1, ,2, ,
-2, ,2, ,
-5, ,2, ,
-11, ,2, ,
-13, ,2, ,
-15, ,2, ,
-18, ,2, ,
-22, ,2, ,
-25, ,2, ,
-26, ,2, ,
-28, ,2, ,
-30, ,2, ,
-33, ,2, ,
-33, ,2, ,
-35, ,2, ,
-36, ,2, ,
-35, ,2, ,
-35, ,2, ,
-35, ,2, ,
-35, ,2, ,
-35, ,2, ,
-35, ,2, ,
-35, ,2, ,
-34, ,2, ,
-33, ,2, ,
-34, ,2, ,
-30, ,2, ,
-30, ,2, ,
-30, ,2, ,
-29, ,2, ,
-29, ,2, ,
-27, ,2, ,
-25, ,2, ,
