raw_data/100% Glycerol, Impulsion 2Hz, Sonde 5MHz, Rampe 0.7Hz/temp0000062.CSV

Format,1.0B,
Memory Length,10000,Memory Length,10000,
IntpDistance,0,IntpDistance,0,
Trigger Address,159,Trigger Address,159,
Trigger Level,2.720E-01,Trigger Level,2.720E-01,
Source,CH1,Source,CH2,
Vertical Units,V,Vertical Units,V,
Vertical Units Div,0,Vertical Units Div,0,
Vertical Units Extend Div,16,Vertical Units Extend Div,16,
Label,,Label,,
Probe Type,0,Probe Type,0,
Probe Ratio,1.000e+00,Probe Ratio,1.000e+00,
Vertical Scale,2.000e-01,Vertical Scale,2.000e+00,
Vertical Position,0.000e+00,Vertical Position,0.000e+00,
Horizontal Units,S,Horizontal Units,S,
Horizontal Scale,5.000E-06,Horizontal Scale,5.000E-06,
Horizontal Position,2.420E-05,Horizontal Position,2.420E-05,
Horizontal Mode,Main,Horizontal Mode,Main,
SincET Mode,Real Time,SincET Mode,Real Time,
Sampling Period,5.000e-09,Sampling Period,5.000e-09,
Horizontal Old Scale,5.000E-06,Horizontal Old Scale,5.000E-06,
Horizontal Old Position,2.420E-05,Horizontal Old Position,2.420E-05,
Firmware,V1.32,Firmware,V1.32,
Mode,Fast,Mode,Fast,
Waveform Data,,Waveform Data,,
3, ,24, ,
2, ,24, ,
1, ,24, ,
1, ,23, ,
0, ,23, ,
1, ,23, ,
3, ,23, ,
2, ,23, ,
2, ,23, ,
2, ,24, ,
0, ,24, ,
1, ,24, ,
1, ,24, ,
1, ,24, ,
1, ,24, ,
1, ,24, ,
1, ,24, ,
2, ,24, ,
2, ,24, ,
2, ,24, ,
1, ,24, ,
1, ,24, ,
2, ,24, ,
1, ,24, ,
2, ,24, ,
1, ,23, ,
1, ,23, ,
1, ,23, ,
1, ,23, ,
0, ,23, ,
1, ,24, ,
1, ,24, ,
2, ,24, ,
2, ,24, ,
1, ,24, ,
1, ,24, ,
0, ,24, ,
1, ,24, ,
2, ,23, ,
2, ,23, ,
2, ,24, ,
2, ,24, ,
1, ,24, ,
2, ,24, ,
1, ,24, ,
1, ,24, ,
2, ,24, ,
1, ,24, ,
2, ,24, ,
2, ,24, ,
1, ,24, ,
2, ,24, ,
1, ,24, ,
0, ,24, ,
2, ,24, ,
1, ,23, ,
1, ,23, ,
1, ,24, ,
1, ,24, ,
2, ,23, ,
1, ,23, ,
0, ,23, ,
2, ,24, ,
1, ,24, ,
1, ,23, ,
2, ,23, ,
1, ,23, ,
2, ,23, ,
1, ,24, ,
1, ,24, ,
2, ,24, ,
1, ,24, ,
2, ,24, ,
2, ,24, ,
1, ,24, ,
2, ,23, ,
1, ,23, ,
0, ,23, ,
2, ,24, ,
1, ,24, ,
2, ,24, ,
2, ,24, ,
1, ,24, ,
2, ,24, ,
1, ,24, ,
1, ,24, ,
2, ,24, ,
1, ,24, ,
2, ,24, ,
2, ,24, ,
1, ,24, ,
1, ,24, ,
1, ,24, ,
1, ,24, ,
1, ,24, ,
2, ,24, ,
2, ,24, ,
1, ,24, ,
1, ,24, ,
2, ,24, ,
1, ,24, ,
1, ,24, ,
2, ,24, ,
1, ,24, ,
2, ,24, ,
2, ,24, ,
1, ,23, ,
1, ,23, ,
1, ,23, ,
1, ,23, ,
2, ,24, ,
1, ,23, ,
2, ,23, ,
2, ,24, ,
1, ,24, ,
1, ,24, ,
1, ,24, ,
2, ,24, ,
1, ,24, ,
2, ,24, ,
0, ,23, ,
2, ,23, ,
1, ,23, ,
2, ,24, ,
2, ,24, ,
1, ,24, ,
2, ,24, ,
1, ,24, ,
2, ,24, ,
2, ,24, ,
1, ,24, ,
2, ,23, ,
1, ,23, ,
1, ,23, ,
1, ,24, ,
1, ,24, ,
2, ,24, ,
2, ,24, ,
1, ,24, ,
2, ,24, ,
1, ,24, ,
1, ,24, ,
1, ,24, ,
1, ,23, ,
1, ,23, ,
2, ,24, ,
1, ,23, ,
1, ,23, ,
0, ,24, ,
2, ,23, ,
2, ,23, ,
1, ,24, ,
2, ,24, ,
1, ,24, ,
1, ,24, ,
1, ,23, ,
1, ,23, ,
0, ,23, ,
1, ,24, ,
1, ,23, ,
2, ,23, ,
1, ,23, ,
3, ,24, ,
2, ,24, ,
0, ,24, ,
-1, ,24, ,
3, ,24, ,
-3, ,24, ,
4, ,24, ,
106, ,24, ,
125, ,24, ,
125, ,23, ,
125, ,23, ,
120, ,23, ,
106, ,24, ,
-7, ,24, ,
5, ,24, ,
125, ,24, ,
125, ,24, ,
125, ,23, ,
125, ,23, ,
125, ,24, ,
125, ,24, ,
125, ,24, ,
125, ,24, ,
125, ,24, ,
125, ,24, ,
125, ,23, ,
125, ,23, ,
125, ,23, ,
125, ,24, ,
125, ,24, ,
125, ,23, ,
125, ,23, ,
125, ,23, ,
125, ,23, ,
125, ,24, ,
125, ,24, ,
125, ,24, ,
125, ,24, ,
125, ,24, ,
125, ,24, ,
124, ,24, ,
124, ,24, ,
123, ,24, ,
113, ,24, ,
109, ,24, ,
105, ,24, ,
101, ,24, ,
94, ,24, ,
88, ,24, ,
85, ,24, ,
80, ,24, ,
73, ,24, ,
70, ,24, ,
66, ,24, ,
63, ,24, ,
59, ,24, ,
54, ,24, ,
53, ,24, ,
51, ,24, ,
44, ,24, ,
44, ,24, ,
42, ,23, ,
40, ,23, ,
36, ,24, ,
34, ,24, ,
33, ,24, ,
31, ,24, ,
29, ,24, ,
26, ,24, ,
24, ,24, ,
24, ,23, ,
21, ,23, ,
19, ,23, ,
19, ,24, ,
17, ,24, ,
15, ,24, ,
14, ,24, ,
14, ,24, ,
12, ,24, ,
12, ,24, ,
10, ,24, ,
9, ,24, ,
9, ,24, ,
7, ,24, ,
7, ,24, ,
5, ,24, ,
6, ,23, ,
5, ,23, ,
3, ,23, ,
4, ,24, ,
3, ,24, ,
1, ,24, ,
4, ,24, ,
1, ,24, ,
2, ,24, ,
0, ,24, ,
0, ,24, ,
0, ,24, ,
0, ,24, ,
0, ,24, ,
-1, ,24, ,
-1, ,24, ,
-2, ,24, ,
-1, ,24, ,
-3, ,24, ,
-2, ,24, ,
-3, ,24, ,
-4, ,24, ,
-3, ,24, ,
-3, ,23, ,
-4, ,23, ,
-3, ,24, ,
-3, ,24, ,
-3, ,23, ,
-4, ,23, ,
-4, ,23, ,
-3, ,24, ,
-5, ,23, ,
-3, ,23, ,
-3, ,24, ,
-3, ,24, ,
-3, ,23, ,
-3, ,23, ,
-4, ,23, ,
-3, ,24, ,
-4, ,24, ,
-3, ,24, ,
-4, ,24, ,
-3, ,24, ,
-3, ,24, ,
-4, ,24, ,
-4, ,24, ,
-1, ,24, ,
-4, ,24, ,
-3, ,24, ,
-2, ,24, ,
-2, ,24, ,
-3, ,23, ,
-3, ,23, ,
-3, ,23, ,
-3, ,24, ,
-4, ,24, ,
-2, ,24, ,
-2, ,24, ,
-3, ,24, ,
-2, ,24, ,
-2, ,24, ,
-2, ,24, ,
-2, ,24, ,
-2, ,24, ,
-2, ,23, ,
-1, ,23, ,
-3, ,23, ,
-2, ,24, ,
-1, ,24, ,
-2, ,23, ,
-1, ,23, ,
-2, ,24, ,
-2, ,24, ,
-1, ,24, ,
-1, ,24, ,
-1, ,23, ,
-2, ,23, ,
-2, ,24, ,
0, ,24, ,
-2, ,24, ,
0, ,23, ,
-1, ,23, ,
-1, ,23, ,
-1, ,23, ,
-1, ,23, ,
-1, ,23, ,
0, ,24, ,
0, ,24, ,
0, ,24, ,
-1, ,24, ,
-2, ,24, ,
0, ,24, ,
0, ,24, ,
0, ,24, ,
0, ,24, ,
0, ,24, ,
0, ,24, ,
0, ,24, ,
-1, ,23, ,
0, ,23, ,
0, ,24, ,
0, ,24, ,
0, ,24, ,
-1, ,24, ,
0, ,24, ,
0, ,24, ,
0, ,24, ,
0, ,24, ,
-1, ,24, ,
0, ,24, ,
0, ,24, ,
0, ,24, ,
1, ,24, ,
1, ,24, ,
0, ,24, ,
1, ,23, ,
1, ,23, ,
1, ,23, ,
1, ,24, ,
0, ,24, ,
0, ,24, ,
1, ,24, ,
0, ,24, ,
1, ,24, ,
0, ,24, ,
0, ,24, ,
1, ,24, ,
0, ,24, ,
1, ,24, ,
1, ,24, ,
0, ,24, ,
1, ,24, ,
0, ,24, ,
0, ,24, ,
0, ,24, ,
0, ,24, ,
1, ,24, ,
1, ,24, ,
1, ,24, ,
1, ,24, ,
0, ,24, ,
0, ,24, ,
0, ,24, ,
0, ,24, ,
1, ,24, ,
1, ,24, ,
1, ,24, ,
1, ,24, ,
1, ,24, ,
1, ,24, ,
1, ,24, ,
0, ,23, ,
1, ,23, ,
1, ,24, ,
1, ,24, ,
1, ,24, ,
0, ,24, ,
1, ,23, ,
2, ,23, ,
-1, ,24, ,
1, ,24, ,
2, ,24, ,
2, ,24, ,
1, ,23, ,
2, ,23, ,
1, ,23, ,
2, ,24, ,
1, ,24, ,
2, ,24, ,
1, ,24, ,
1, ,24, ,
2, ,24, ,
1, ,24, ,
0, ,23, ,
0, ,23, ,
-1, ,24, ,
1, ,24, ,
0, ,24, ,
0, ,24, ,
1, ,24, ,
0, ,24, ,
0, ,24, ,
1, ,24, ,
0, ,24, ,
0, ,24, ,
1, ,24, ,
0, ,24, ,
1, ,24, ,
0, ,24, ,
0, ,24, ,
1, ,24, ,
0, ,24, ,
0, ,24, ,
0, ,24, ,
-1, ,24, ,
0, ,24, ,
-2, ,24, ,
-2, ,24, ,
-1, ,24, ,
-2, ,23, ,
-1, ,23, ,
0, ,24, ,
0, ,24, ,
1, ,24, ,
0, ,24, ,
0, ,24, ,
0, ,24, ,
0, ,24, ,
1, ,24, ,
1, ,24, ,
1, ,24, ,
2, ,23, ,
1, ,23, ,
0, ,23, ,
0, ,24, ,
0, ,24, ,
1, ,24, ,
1, ,24, ,
0, ,24, ,
0, ,24, ,
0, ,24, ,
1, ,24, ,
1, ,24, ,
0, ,24, ,
1, ,24, ,
0, ,24, ,
0, ,24, ,
1, ,24, ,
0, ,24, ,
0, ,24, ,
1, ,24, ,
1, ,24, ,
1, ,24, ,
0, ,24, ,
0, ,24, ,
0, ,24, ,
0, ,24, ,
-1, ,23, ,
0, ,23, ,
0, ,24, ,
1, ,24, ,
2, ,24, ,
1, ,24, ,
2, ,23, ,
2, ,23, ,
1, ,23, ,
2, ,24, ,
1, ,24, ,
2, ,24, ,
1, ,24, ,
2, ,24, ,
2, ,24, ,
1, ,24, ,
0, ,24, ,
0, ,24, ,
-1, ,23, ,
0, ,23, ,
0, ,23, ,
0, ,23, ,
1, ,24, ,
0, ,24, ,
-1, ,24, ,
1, ,24, ,
0, ,24, ,
0, ,24, ,
0, ,24, ,
-1, ,24, ,
0, ,24, ,
-3, ,24, ,
-3, ,23, ,
-3, ,23, ,
-5, ,24, ,
-4, ,24, ,
-5, ,24, ,
-7, ,24, ,
-6, ,24, ,
-7, ,24, ,
-7, ,23, ,
-6, ,23, ,
-7, ,24, ,
-6, ,24, ,
-7, ,24, ,
-8, ,24, ,
-8, ,24, ,
-9, ,24, ,
-10, ,24, ,
-11, ,24, ,
-13, ,24, ,
-13, ,24, ,
-16, ,24, ,
-19, ,23, ,
-19, ,23, ,
-21, ,24, ,
-26, ,24, ,
-27, ,24, ,
-28, ,23, ,
-29, ,23, ,
-29, ,23, ,
-30, ,23, ,
-29, ,23, ,
-29, ,23, ,
-29, ,23, ,
-28, ,24, ,
-29, ,24, ,
-27, ,24, ,
-28, ,24, ,
-30, ,24, ,
-30, ,24, ,
-31, ,23, ,
-35, ,23, ,
-35, ,23, ,
-35, ,24, ,
-35, ,24, ,
-35, ,24, ,
-34, ,23, ,
-32, ,23, ,
-31, ,23, ,
-27, ,24, ,
-23, ,24, ,
-20, ,24, ,
-18, ,24, ,
-11, ,24, ,
-11, ,23, ,
-9, ,23, ,
-7, ,24, ,
-5, ,24, ,
-5, ,24, ,
-6, ,24, ,
-6, ,23, ,
-8, ,23, ,
-9, ,23, ,
-9, ,24, ,
-10, ,24, ,
-9, ,23, ,
-9, ,23, ,
-8, ,24, ,
-8, ,24, ,
-5, ,24, ,
-5, ,23, ,
-4, ,23, ,
-4, ,24, ,
-5, ,24, ,
-5, ,24, ,
-6, ,24, ,
-5, ,24, ,
-8, ,24, ,
-11, ,24, ,
-12, ,24, ,
-16, ,24, ,
-20, ,24, ,
-21, ,23, ,
-23, ,23, ,
-25, ,24, ,
-25, ,24, ,
-27, ,24, ,
-26, ,24, ,
-25, ,24, ,
-25, ,24, ,
-24, ,24, ,
-22, ,24, ,
-22, ,24, ,
-21, ,24, ,
-22, ,24, ,
-21, ,24, ,
-23, ,24, ,
-24, ,23, ,
-24, ,23, ,
-26, ,24, ,
-25, ,24, ,
-25, ,24, ,
-25, ,24, ,
-24, ,24, ,
-22, ,24, ,
-21, ,24, ,
-18, ,24, ,
-19, ,24, ,
-18, ,24, ,
-17, ,24, ,
-18, ,24, ,
-18, ,24, ,
-20, ,24, ,
-22, ,24, ,
-23, ,24, ,
-26, ,24, ,
-26, ,24, ,
-28, ,24, ,
-30, ,24, ,
-30, ,24, ,
-32, ,24, ,
-33, ,24, ,
-33, ,24, ,
-34, ,24, ,
-34, ,24, ,
-34, ,24, ,
-33, ,24, ,
-32, ,24, ,
-32, ,24, ,
-30, ,24, ,
-27, ,24, ,
-27, ,24, ,
-24, ,23, ,
-21, ,23, ,
-20, ,23, ,
-18, ,24, ,
-18, ,24, ,
-19, ,24, ,
-17, ,24, ,
-17, ,24, ,
-17, ,24, ,
-17, ,24, ,
-18, ,24, ,
-17, ,24, ,
-17, ,24, ,
-17, ,24, ,
-15, ,24, ,
-15, ,24, ,
-14, ,23, ,
-11, ,23, ,
-13, ,23, ,
-12, ,23, ,
-13, ,23, ,
-16, ,23, ,
-16, ,24, ,
-18, ,24, ,
-18, ,23, ,
-23, ,23, ,
-24, ,23, ,
-25, ,24, ,
-27, ,24, ,
-27, ,24, ,
-26, ,24, ,
-27, ,24, ,
-27, ,24, ,
-25, ,24, ,
-26, ,24, ,
-24, ,24, ,
-25, ,24, ,
-25, ,24, ,
-25, ,24, ,
-26, ,24, ,
-25, ,24, ,
-25, ,24, ,
-25, ,24, ,
-25, ,24, ,
-24, ,24, ,
-22, ,24, ,
-20, ,24, ,
-20, ,24, ,
-17, ,24, ,
-15, ,24, ,
-16, ,24, ,
-14, ,24, ,
-13, ,24, ,
-12, ,24, ,
-10, ,24, ,
-10, ,24, ,
-8, ,24, ,
-6, ,24, ,
-6, ,23, ,
-4, ,23, ,
-5, ,24, ,
-4, ,23, ,
-2, ,23, ,
-3, ,23, ,
-2, ,23, ,
-2, ,24, ,
-4, ,24, ,
-4, ,24, ,
-5, ,24, ,
-4, ,24, ,
-3, ,24, ,
-4, ,23, ,
-2, ,23, ,
-1, ,24, ,
-1, ,24, ,
-1, ,24, ,
0, ,24, ,
1, ,24, ,
1, ,24, ,
1, ,24, ,
3, ,24, ,
2, ,24, ,
1, ,24, ,
1, ,24, ,
1, ,24, ,
1, ,24, ,
3, ,24, ,
2, ,24, ,
2, ,24, ,
2, ,24, ,
2, ,24, ,
4, ,24, ,
1, ,24, ,
3, ,24, ,
4, ,24, ,
4, ,24, ,
5, ,24, ,
5, ,24, ,
4, ,24, ,
5, ,24, ,
4, ,24, ,
3, ,24, ,
5, ,24, ,
4, ,24, ,
5, ,24, ,
4, ,24, ,
3, ,23, ,
3, ,23, ,
1, ,24, ,
-1, ,24, ,
-1, ,24, ,
-5, ,24, ,
-5, ,24, ,
-9, ,24, ,
-10, ,24, ,
-13, ,24, ,
-16, ,24, ,
-22, ,24, ,
-23, ,24, ,
-25, ,24, ,
-25, ,24, ,
-32, ,24, ,
-33, ,24, ,
-34, ,24, ,
-35, ,24, ,
-40, ,24, ,
-40, ,24, ,
-42, ,24, ,
-43, ,24, ,
-43, ,24, ,
-45, ,24, ,
-43, ,24, ,
-43, ,24, ,
-41, ,24, ,
-38, ,24, ,
-39, ,24, ,
-36, ,24, ,
-34, ,24, ,
-33, ,24, ,
-30, ,24, ,
-30, ,24, ,
-26, ,24, ,
-24, ,24, ,
-22, ,24, ,
-20, ,24, ,
-19, ,24, ,
-19, ,24, ,
-17, ,24, ,
-18, ,24, ,
-16, ,24, ,
-14, ,24, ,
-14, ,24, ,
-12, ,24, ,
-11, ,24, ,
-13, ,23, ,
-12, ,23, ,
-13, ,24, ,
-13, ,24, ,
-13, ,24, ,
-15, ,24, ,
-15, ,24, ,
-16, ,24, ,
-17, ,24, ,
-17, ,24, ,
-18, ,24, ,
-18, ,24, ,
-18, ,24, ,
-19, ,24, ,
-19, ,24, ,
-18, ,24, ,
-19, ,24, ,
-19, ,23, ,
-19, ,23, ,
-19, ,23, ,
-18, ,23, ,
-17, ,23, ,
-17, ,23, ,
-15, ,23, ,
-14, ,23, ,
-11, ,24, ,
-11, ,24, ,
-7, ,24, ,
-4, ,24, ,
-4, ,23, ,
0, ,23, ,
2, ,24, ,
3, ,24, ,
5, ,24, ,
5, ,24, ,
8, ,24, ,
9, ,24, ,
9, ,24, ,
11, ,24, ,
12, ,24, ,
12, ,24, ,
12, ,24, ,
12, ,24, ,
12, ,24, ,
12, ,24, ,
11, ,24, ,
11, ,24, ,
9, ,24, ,
8, ,24, ,
7, ,24, ,
6, ,24, ,
4, ,23, ,
4, ,23, ,
2, ,24, ,
2, ,24, ,
0, ,24, ,
-1, ,24, ,
-1, ,24, ,
-3, ,24, ,
-5, ,24, ,
-5, ,24, ,
-6, ,24, ,
-7, ,24, ,
-11, ,24, ,
-12, ,24, ,
-13, ,24, ,
-15, ,24, ,
-19, ,24, ,
-18, ,24, ,
-21, ,24, ,
-22, ,24, ,
-22, ,24, ,
-24, ,24, ,
-24, ,24, ,
-25, ,24, ,
-26, ,24, ,
-26, ,24, ,
-27, ,24, ,
-26, ,24, ,
-27, ,24, ,
-27, ,24, ,
-27, ,24, ,
-27, ,24, ,
-27, ,23, ,
-26, ,23, ,
-26, ,24, ,
-26, ,24, ,
-25, ,24, ,
-27, ,24, ,
-26, ,23, ,
-26, ,23, ,
-25, ,23, ,
-24, ,24, ,
-24, ,24, ,
-24, ,23, ,
-23, ,23, ,
-23, ,23, ,
-23, ,23, ,
-24, ,24, ,
-22, ,24, ,
-23, ,24, ,
-24, ,24, ,
-23, ,24, ,
-23, ,24, ,
-24, ,24, ,
-23, ,24, ,
-24, ,24, ,
-22, ,24, ,
-21, ,24, ,
-22, ,24, ,
-20, ,24, ,
-19, ,24, ,
-19, ,24, ,
-18, ,24, ,
-19, ,24, ,
-17, ,24, ,
-15, ,24, ,
-16, ,24, ,
-14, ,24, ,
-13, ,24, ,
-14, ,24, ,
-12, ,23, ,
-12, ,23, ,
-11, ,23, ,
-9, ,24, ,
-8, ,23, ,
-8, ,23, ,
-9, ,24, ,
-9, ,24, ,
-8, ,24, ,
-10, ,24, ,
-11, ,24, ,
-11, ,24, ,
-12, ,24, ,
-11, ,23, ,
-12, ,23, ,
-14, ,23, ,
-14, ,23, ,
-15, ,23, ,
-15, ,23, ,
-15, ,24, ,
-16, ,24, ,
-16, ,24, ,
-16, ,24, ,
-16, ,24, ,
-16, ,24, ,
-17, ,24, ,
-17, ,24, ,
-16, ,24, ,
-17, ,24, ,
-15, ,24, ,
-14, ,24, ,
-14, ,24, ,
-12, ,24, ,
-12, ,24, ,
-10, ,24, ,
-9, ,24, ,
-8, ,24, ,
-7, ,24, ,
-5, ,24, ,
-5, ,24, ,
-4, ,24, ,
-4, ,24, ,
-4, ,24, ,
-2, ,24, ,
-2, ,24, ,
-2, ,23, ,
-2, ,23, ,
-3, ,23, ,
-1, ,23, ,
-1, ,23, ,
-2, ,23, ,
-1, ,24, ,
-1, ,24, ,
-1, ,24, ,
0, ,24, ,
-2, ,23, ,
-1, ,23, ,
-2, ,24, ,
-4, ,24, ,
-4, ,23, ,
-5, ,23, ,
-5, ,23, ,
-5, ,23, ,
-5, ,23, ,
-5, ,23, ,
-5, ,23, ,
-5, ,23, ,
-5, ,24, ,
-6, ,23, ,
-6, ,23, ,
-7, ,24, ,
-7, ,23, ,
-7, ,23, ,
-8, ,24, ,
-8, ,23, ,
-8, ,23, ,
-9, ,24, ,
-8, ,24, ,
-9, ,24, ,
-9, ,24, ,
-8, ,24, ,
-9, ,24, ,
-9, ,24, ,
-7, ,24, ,
-8, ,23, ,
-8, ,23, ,
-7, ,23, ,
-8, ,23, ,
-8, ,24, ,
-8, ,24, ,
-7, ,24, ,
-7, ,23, ,
-7, ,23, ,
-7, ,24, ,
-6, ,24, ,
-7, ,24, ,
-5, ,24, ,
-5, ,24, ,
-5, ,24, ,
-5, ,24, ,
-6, ,24, ,
-6, ,24, ,
-5, ,24, ,
-5, ,23, ,
-5, ,23, ,
-5, ,24, ,
-5, ,24, ,
-5, ,24, ,
-5, ,24, ,
-5, ,24, ,
-5, ,24, ,
-5, ,23, ,
-5, ,23, ,
-4, ,23, ,
-5, ,23, ,
-4, ,24, ,
-5, ,24, ,
-5, ,23, ,
-6, ,23, ,
-5, ,23, ,
-5, ,24, ,
-6, ,24, ,
-6, ,24, ,
-6, ,24, ,
-7, ,24, ,
-6, ,24, ,
-6, ,24, ,
-6, ,24, ,
-6, ,24, ,
-6, ,24, ,
-5, ,24, ,
-5, ,24, ,
-5, ,24, ,
-5, ,24, ,
-5, ,24, ,
-5, ,24, ,
-5, ,23, ,
-6, ,23, ,
-5, ,23, ,
-5, ,23, ,
-5, ,24, ,
-4, ,24, ,
-2, ,24, ,
-3, ,24, ,
-1, ,24, ,
-2, ,24, ,
-1, ,24, ,
0, ,24, ,
0, ,24, ,
0, ,24, ,
0, ,24, ,
1, ,24, ,
1, ,24, ,
0, ,24, ,
0, ,24, ,
1, ,24, ,
0, ,23, ,
1, ,23, ,
1, ,24, ,
1, ,23, ,
1, ,23, ,
2, ,24, ,
0, ,24, ,
0, ,24, ,
0, ,24, ,
0, ,24, ,
0, ,24, ,
-2, ,24, ,
-2, ,24, ,
-2, ,24, ,
-1, ,24, ,
-1, ,24, ,
-2, ,24, ,
-1, ,24, ,
-1, ,24, ,
-2, ,24, ,
0, ,23, ,
-1, ,23, ,
-2, ,23, ,
0, ,24, ,
0, ,24, ,
0, ,24, ,
0, ,24, ,
0, ,24, ,
0, ,24, ,
-1, ,24, ,
-1, ,23, ,
0, ,23, ,
-1, ,24, ,
-1, ,23, ,
0, ,23, ,
0, ,23, ,
0, ,23, ,
-1, ,23, ,
-3, ,23, ,
0, ,24, ,
0, ,23, ,
0, ,23, ,
-1, ,24, ,
-2, ,23, ,
-1, ,23, ,
-3, ,24, ,
-2, ,24, ,
-3, ,24, ,
-3, ,24, ,
-2, ,24, ,
-2, ,24, ,
-3, ,24, ,
-2, ,24, ,
-1, ,24, ,
-2, ,24, ,
-1, ,24, ,
-1, ,24, ,
-1, ,24, ,
-1, ,24, ,
-1, ,24, ,
-1, ,24, ,
-2, ,24, ,
-1, ,24, ,
0, ,23, ,
-2, ,23, ,
1, ,24, ,
1, ,24, ,
0, ,24, ,
1, ,24, ,
1, ,24, ,
1, ,24, ,
1, ,24, ,
2, ,24, ,
2, ,24, ,
3, ,24, ,
2, ,24, ,
3, ,24, ,
1, ,24, ,
2, ,24, ,
3, ,23, ,
2, ,23, ,
3, ,24, ,
4, ,24, ,
3, ,24, ,
4, ,24, ,
4, ,24, ,
4, ,23, ,
5, ,23, ,
4, ,23, ,
5, ,23, ,
5, ,24, ,
4, ,24, ,
5, ,24, ,
3, ,24, ,
4, ,23, ,
5, ,23, ,
3, ,24, ,
3, ,24, ,
3, ,24, ,
1, ,24, ,
2, ,24, ,
1, ,24, ,
0, ,24, ,
0, ,24, ,
-2, ,24, ,
-1, ,24, ,
-3, ,24, ,
-4, ,24, ,
-4, ,24, ,
-5, ,24, ,
-6, ,24, ,
-6, ,24, ,
-7, ,24, ,
-6, ,23, ,
-8, ,23, ,
-10, ,23, ,
-6, ,23, ,
-8, ,23, ,
-9, ,23, ,
-8, ,24, ,
-7, ,24, ,
-6, ,24, ,
-6, ,24, ,
-5, ,24, ,
-4, ,24, ,
-5, ,24, ,
-4, ,24, ,
-1, ,24, ,
-2, ,24, ,
1, ,24, ,
4, ,24, ,
3, ,24, ,
5, ,23, ,
5, ,23, ,
8, ,23, ,
11, ,23, ,
10, ,24, ,
12, ,24, ,
13, ,24, ,
13, ,24, ,
15, ,24, ,
15, ,24, ,
14, ,24, ,
14, ,23, ,
14, ,23, ,
14, ,24, ,
13, ,24, ,
13, ,24, ,
13, ,23, ,
12, ,23, ,
10, ,23, ,
10, ,24, ,
8, ,23, ,
8, ,23, ,
6, ,24, ,
5, ,23, ,
4, ,23, ,
3, ,24, ,
2, ,24, ,
2, ,24, ,
0, ,23, ,
0, ,23, ,
-1, ,24, ,
-3, ,24, ,
-3, ,24, ,
-4, ,24, ,
-4, ,24, ,
-4, ,24, ,
-5, ,24, ,
-4, ,24, ,
-4, ,24, ,
-6, ,24, ,
-5, ,24, ,
-7, ,24, ,
-5, ,24, ,
-5, ,24, ,
-5, ,24, ,
-6, ,23, ,
-7, ,23, ,
-8, ,23, ,
-6, ,24, ,
-6, ,24, ,
-7, ,24, ,
-7, ,24, ,
-8, ,24, ,
-7, ,24, ,
-8, ,24, ,
-9, ,24, ,
-8, ,24, ,
-9, ,24, ,
-9, ,24, ,
-8, ,24, ,
-10, ,24, ,
-10, ,24, ,
-10, ,24, ,
-11, ,24, ,
-11, ,24, ,
-11, ,24, ,
-11, ,24, ,
-10, ,24, ,
-10, ,24, ,
-10, ,24, ,
-9, ,24, ,
-9, ,23, ,
-9, ,23, ,
-10, ,24, ,
-10, ,24, ,
-9, ,24, ,
-10, ,24, ,
-9, ,24, ,
-8, ,24, ,
-9, ,24, ,
-8, ,24, ,
-9, ,24, ,
-9, ,23, ,
-9, ,23, ,
-9, ,24, ,
-8, ,24, ,
-10, ,24, ,
-10, ,24, ,
-10, ,24, ,
-10, ,24, ,
-9, ,24, ,
-8, ,24, ,
-9, ,24, ,
-9, ,24, ,
-8, ,24, ,
-8, ,24, ,
-7, ,24, ,
-8, ,24, ,
-7, ,24, ,
-5, ,24, ,
-6, ,24, ,
-5, ,24, ,
-4, ,24, ,
-4, ,24, ,
-3, ,24, ,
-5, ,24, ,
-3, ,23, ,
-3, ,23, ,
-3, ,24, ,
-2, ,24, ,
-1, ,24, ,
-1, ,24, ,
-1, ,24, ,
-2, ,24, ,
-2, ,24, ,
-2, ,24, ,
-3, ,24, ,
-2, ,24, ,
-4, ,24, ,
-4, ,24, ,
-5, ,24, ,
-5, ,24, ,
-8, ,24, ,
-8, ,24, ,
-9, ,24, ,
-8, ,23, ,
-10, ,23, ,
-10, ,23, ,
-10, ,24, ,
-10, ,24, ,
-12, ,24, ,
-11, ,24, ,
-11, ,23, ,
-11, ,23, ,
-10, ,24, ,
-10, ,24, ,
-10, ,23, ,
-9, ,23, ,
-9, ,24, ,
-8, ,24, ,
-8, ,24, ,
-7, ,24, ,
-4, ,24, ,
-5, ,24, ,
-2, ,23, ,
-2, ,23, ,
-2, ,23, ,
-1, ,24, ,
-2, ,24, ,
0, ,24, ,
1, ,24, ,
1, ,24, ,
3, ,24, ,
3, ,24, ,
3, ,24, ,
4, ,23, ,
3, ,23, ,
3, ,24, ,
4, ,24, ,
3, ,24, ,
4, ,24, ,
4, ,24, ,
4, ,24, ,
3, ,24, ,
3, ,23, ,
3, ,23, ,
3, ,23, ,
3, ,23, ,
4, ,23, ,
2, ,24, ,
3, ,24, ,
4, ,24, ,
1, ,24, ,
2, ,24, ,
2, ,24, ,
2, ,24, ,
2, ,24, ,
1, ,24, ,
1, ,24, ,
1, ,24, ,
1, ,24, ,
3, ,23, ,
1, ,23, ,
0, ,23, ,
1, ,24, ,
0, ,24, ,
0, ,24, ,
0, ,24, ,
0, ,23, ,
1, ,23, ,
1, ,23, ,
-1, ,23, ,
-1, ,24, ,
-1, ,24, ,
-2, ,24, ,
-1, ,24, ,
-1, ,23, ,
-1, ,23, ,
-1, ,23, ,
-1, ,24, ,
-1, ,24, ,
-2, ,24, ,
-3, ,23, ,
-2, ,23, ,
-4, ,24, ,
-2, ,23, ,
-2, ,23, ,
-2, ,23, ,
-2, ,23, ,
-2, ,23, ,
-4, ,23, ,
-2, ,24, ,
-3, ,23, ,
-2, ,23, ,
-1, ,23, ,
-2, ,23, ,
-1, ,23, ,
-2, ,23, ,
-2, ,23, ,
-1, ,24, ,
-2, ,24, ,
0, ,24, ,
0, ,24, ,
-1, ,24, ,
0, ,24, ,
0, ,24, ,
0, ,24, ,
0, ,24, ,
0, ,24, ,
0, ,23, ,
1, ,23, ,
1, ,23, ,
1, ,24, ,
1, ,24, ,
1, ,24, ,
2, ,24, ,
0, ,24, ,
2, ,24, ,
2, ,24, ,
0, ,24, ,
1, ,24, ,
0, ,24, ,
0, ,24, ,
1, ,24, ,
1, ,24, ,
0, ,24, ,
0, ,24, ,
-1, ,24, ,
0, ,23, ,
-2, ,23, ,
-1, ,23, ,
-2, ,24, ,
-2, ,23, ,
-2, ,23, ,
-3, ,24, ,
-3, ,24, ,
-3, ,23, ,
-4, ,23, ,
-5, ,23, ,
-3, ,24, ,
-4, ,24, ,
-3, ,24, ,
-4, ,24, ,
-4, ,23, ,
-4, ,23, ,
-4, ,24, ,
-4, ,23, ,
-3, ,23, ,
-4, ,24, ,
-3, ,24, ,
-2, ,24, ,
-2, ,24, ,
-1, ,23, ,
-1, ,23, ,
-2, ,23, ,
-2, ,24, ,
-1, ,24, ,
-1, ,24, ,
0, ,24, ,
0, ,24, ,
0, ,24, ,
-1, ,24, ,
0, ,23, ,
0, ,23, ,
0, ,24, ,
1, ,24, ,
2, ,24, ,
0, ,24, ,
2, ,24, ,
2, ,24, ,
1, ,24, ,
3, ,24, ,
2, ,24, ,
4, ,24, ,
3, ,24, ,
3, ,24, ,
4, ,23, ,
2, ,23, ,
2, ,23, ,
2, ,24, ,
1, ,24, ,
2, ,24, ,
2, ,24, ,
1, ,24, ,
1, ,23, ,
0, ,23, ,
-1, ,23, ,
1, ,24, ,
0, ,24, ,
0, ,24, ,
0, ,24, ,
0, ,24, ,
1, ,24, ,
-2, ,24, ,
-2, ,24, ,
-1, ,24, ,
-3, ,24, ,
-2, ,24, ,
-3, ,24, ,
-3, ,24, ,
-3, ,23, ,
-3, ,23, ,
-4, ,23, ,
-2, ,24, ,
-2, ,24, ,
-1, ,24, ,
-1, ,24, ,
-2, ,24, ,
-2, ,24, ,
-2, ,24, ,
-2, ,24, ,
0, ,24, ,
-1, ,24, ,
0, ,24, ,
1, ,24, ,
0, ,24, ,
2, ,24, ,
2, ,24, ,
1, ,23, ,
3, ,23, ,
3, ,24, ,
4, ,24, ,
3, ,24, ,
3, ,23, ,
3, ,23, ,
3, ,23, ,
4, ,23, ,
4, ,23, ,
3, ,23, ,
5, ,24, ,
4, ,24, ,
4, ,23, ,
5, ,23, ,
4, ,24, ,
3, ,24, ,
5, ,24, ,
4, ,23, ,
5, ,23, ,
5, ,23, ,
5, ,23, ,
5, ,23, ,
5, ,23, ,
4, ,23, ,
4, ,23, ,
3, ,24, ,
4, ,24, ,
4, ,24, ,
3, ,23, ,
4, ,23, ,
3, ,23, ,
2, ,23, ,
3, ,24, ,
2, ,23, ,
3, ,23, ,
4, ,24, ,
1, ,24, ,
2, ,24, ,
1, ,24, ,
1, ,24, ,
3, ,24, ,
1, ,24, ,
1, ,23, ,
1, ,23, ,
0, ,23, ,
1, ,23, ,
1, ,23, ,
0, ,23, ,
1, ,24, ,
0, ,23, ,
2, ,23, ,
1, ,24, ,
0, ,24, ,
2, ,24, ,
0, ,24, ,
0, ,24, ,
1, ,24, ,
0, ,24, ,
1, ,24, ,
2, ,24, ,
1, ,24, ,
1, ,24, ,
1, ,24, ,
1, ,24, ,
2, ,24, ,
1, ,24, ,
2, ,24, ,
1, ,24, ,
2, ,24, ,
3, ,24, ,
1, ,24, ,
2, ,24, ,
3, ,24, ,
2, ,24, ,
4, ,24, ,
4, ,24, ,
2, ,24, ,
3, ,23, ,
3, ,23, ,
2, ,23, ,
3, ,23, ,
2, ,24, ,
3, ,24, ,
1, ,24, ,
1, ,24, ,
1, ,24, ,
0, ,24, ,
-1, ,24, ,
0, ,24, ,
-2, ,23, ,
0, ,23, ,
-1, ,23, ,
-4, ,23, ,
-3, ,24, ,
-4, ,24, ,
-5, ,24, ,
-4, ,24, ,
-5, ,23, ,
-5, ,23, ,
-6, ,24, ,
-6, ,23, ,
-7, ,23, ,
-8, ,24, ,
-6, ,24, ,
-6, ,24, ,
-7, ,24, ,
-7, ,24, ,
-6, ,24, ,
-6, ,24, ,
-6, ,23, ,
-5, ,23, ,
-5, ,23, ,
-2, ,24, ,
-3, ,23, ,
-2, ,23, ,
-1, ,24, ,
-1, ,24, ,
0, ,24, ,
0, ,24, ,
2, ,23, ,
3, ,23, ,
2, ,24, ,
4, ,23, ,
4, ,23, ,
4, ,23, ,
5, ,24, ,
5, ,24, ,
5, ,24, ,
5, ,24, ,
5, ,23, ,
4, ,23, ,
4, ,24, ,
4, ,23, ,
4, ,23, ,
3, ,24, ,
1, ,24, ,
2, ,24, ,
0, ,24, ,
0, ,24, ,
0, ,24, ,
-1, ,24, ,
-1, ,24, ,
-2, ,24, ,
-3, ,24, ,
-3, ,24, ,
-3, ,24, ,
-3, ,24, ,
-3, ,24, ,
-4, ,24, ,
-4, ,24, ,
-4, ,24, ,
-2, ,24, ,
-1, ,24, ,
-2, ,24, ,
0, ,24, ,
0, ,24, ,
0, ,24, ,
1, ,24, ,
3, ,24, ,
3, ,24, ,
5, ,24, ,
5, ,23, ,
5, ,23, ,
7, ,23, ,
6, ,23, ,
7, ,23, ,
7, ,24, ,
7, ,24, ,
8, ,24, ,
6, ,24, ,
8, ,24, ,
7, ,24, ,
6, ,24, ,
7, ,24, ,
6, ,24, ,
5, ,24, ,
4, ,24, ,
4, ,24, ,
3, ,24, ,
3, ,24, ,
1, ,24, ,
1, ,24, ,
0, ,24, ,
0, ,24, ,
0, ,24, ,
-1, ,24, ,
-1, ,24, ,
-1, ,24, ,
-4, ,23, ,
-2, ,23, ,
-3, ,24, ,
-5, ,24, ,
-4, ,24, ,
-5, ,23, ,
-5, ,23, ,
-5, ,24, ,
-5, ,23, ,
-6, ,23, ,
-7, ,23, ,
-6, ,23, ,
-5, ,23, ,
-5, ,24, ,
-5, ,24, ,
-6, ,24, ,
-7, ,24, ,
-5, ,23, ,
-6, ,23, ,
