raw_data/100% Glycerol, Impulsion 2Hz, Sonde 5MHz, Rampe 0.7Hz/temp0000119.CSV

Format,1.0B,
Memory Length,10000,Memory Length,10000,
IntpDistance,0,IntpDistance,0,
Trigger Address,159,Trigger Address,159,
Trigger Level,2.720E-01,Trigger Level,2.720E-01,
Source,CH1,Source,CH2,
Vertical Units,V,Vertical Units,V,
Vertical Units Div,0,Vertical Units Div,0,
Vertical Units Extend Div,16,Vertical Units Extend Div,16,
Label,,Label,,
Probe Type,0,Probe Type,0,
Probe Ratio,1.000e+00,Probe Ratio,1.000e+00,
Vertical Scale,2.000e-01,Vertical Scale,2.000e+00,
Vertical Position,0.000e+00,Vertical Position,0.000e+00,
Horizontal Units,S,Horizontal Units,S,
Horizontal Scale,5.000E-06,Horizontal Scale,5.000E-06,
Horizontal Position,2.420E-05,Horizontal Position,2.420E-05,
Horizontal Mode,Main,Horizontal Mode,Main,
SincET Mode,Real Time,SincET Mode,Real Time,
Sampling Period,5.000e-09,Sampling Period,5.000e-09,
Horizontal Old Scale,5.000E-06,Horizontal Old Scale,5.000E-06,
Horizontal Old Position,2.420E-05,Horizontal Old Position,2.420E-05,
Firmware,V1.32,Firmware,V1.32,
Mode,Fast,Mode,Fast,
Waveform Data,,Waveform Data,,
1, ,41, ,
1, ,41, ,
1, ,41, ,
1, ,41, ,
1, ,42, ,
2, ,41, ,
1, ,41, ,
2, ,41, ,
1, ,41, ,
1, ,41, ,
2, ,41, ,
1, ,41, ,
2, ,41, ,
2, ,41, ,
2, ,41, ,
2, ,41, ,
2, ,41, ,
2, ,41, ,
2, ,41, ,
1, ,41, ,
1, ,41, ,
2, ,41, ,
1, ,41, ,
1, ,42, ,
1, ,41, ,
1, ,41, ,
2, ,41, ,
1, ,41, ,
2, ,41, ,
1, ,41, ,
1, ,41, ,
1, ,41, ,
0, ,41, ,
1, ,41, ,
2, ,41, ,
1, ,41, ,
2, ,41, ,
2, ,41, ,
2, ,41, ,
1, ,41, ,
1, ,41, ,
1, ,41, ,
2, ,41, ,
2, ,41, ,
1, ,41, ,
2, ,41, ,
1, ,41, ,
2, ,41, ,
0, ,41, ,
1, ,41, ,
1, ,41, ,
1, ,41, ,
1, ,41, ,
2, ,41, ,
2, ,41, ,
2, ,41, ,
1, ,41, ,
1, ,41, ,
1, ,41, ,
1, ,41, ,
2, ,41, ,
2, ,42, ,
1, ,41, ,
1, ,41, ,
1, ,41, ,
1, ,41, ,
1, ,41, ,
1, ,42, ,
2, ,41, ,
2, ,41, ,
1, ,41, ,
2, ,41, ,
1, ,41, ,
1, ,41, ,
2, ,41, ,
1, ,42, ,
1, ,41, ,
2, ,41, ,
1, ,41, ,
1, ,41, ,
0, ,41, ,
0, ,41, ,
1, ,41, ,
0, ,41, ,
2, ,41, ,
2, ,41, ,
1, ,41, ,
2, ,41, ,
1, ,41, ,
1, ,41, ,
2, ,41, ,
1, ,41, ,
2, ,41, ,
2, ,41, ,
1, ,42, ,
2, ,41, ,
0, ,41, ,
2, ,41, ,
2, ,41, ,
1, ,42, ,
1, ,41, ,
2, ,41, ,
1, ,41, ,
3, ,41, ,
1, ,41, ,
1, ,41, ,
2, ,41, ,
1, ,41, ,
1, ,41, ,
2, ,41, ,
0, ,41, ,
1, ,41, ,
1, ,41, ,
1, ,41, ,
1, ,41, ,
1, ,41, ,
2, ,41, ,
2, ,41, ,
1, ,41, ,
2, ,41, ,
1, ,41, ,
1, ,41, ,
1, ,41, ,
2, ,41, ,
2, ,41, ,
2, ,41, ,
1, ,41, ,
2, ,41, ,
0, ,42, ,
1, ,41, ,
2, ,41, ,
1, ,41, ,
2, ,41, ,
2, ,41, ,
0, ,41, ,
2, ,41, ,
1, ,41, ,
0, ,41, ,
2, ,41, ,
2, ,42, ,
2, ,42, ,
2, ,42, ,
1, ,41, ,
2, ,41, ,
0, ,41, ,
1, ,41, ,
2, ,41, ,
1, ,41, ,
1, ,41, ,
1, ,41, ,
1, ,41, ,
2, ,41, ,
1, ,41, ,
0, ,41, ,
2, ,41, ,
1, ,41, ,
2, ,41, ,
1, ,41, ,
1, ,42, ,
1, ,41, ,
1, ,41, ,
1, ,41, ,
1, ,41, ,
1, ,41, ,
0, ,41, ,
-1, ,41, ,
0, ,41, ,
-2, ,41, ,
6, ,41, ,
111, ,41, ,
125, ,41, ,
125, ,41, ,
125, ,41, ,
119, ,42, ,
97, ,41, ,
-11, ,41, ,
10, ,42, ,
125, ,41, ,
125, ,41, ,
125, ,41, ,
125, ,41, ,
125, ,42, ,
125, ,42, ,
125, ,41, ,
125, ,41, ,
125, ,42, ,
125, ,42, ,
125, ,42, ,
125, ,42, ,
125, ,41, ,
125, ,41, ,
125, ,41, ,
125, ,41, ,
125, ,41, ,
125, ,41, ,
125, ,41, ,
125, ,41, ,
125, ,41, ,
125, ,41, ,
125, ,41, ,
125, ,41, ,
125, ,41, ,
125, ,41, ,
124, ,41, ,
124, ,41, ,
113, ,41, ,
108, ,41, ,
105, ,41, ,
100, ,41, ,
91, ,41, ,
90, ,41, ,
84, ,41, ,
81, ,41, ,
74, ,41, ,
69, ,41, ,
68, ,41, ,
63, ,41, ,
57, ,41, ,
56, ,41, ,
53, ,41, ,
52, ,41, ,
46, ,41, ,
44, ,41, ,
43, ,41, ,
38, ,41, ,
35, ,41, ,
35, ,41, ,
32, ,41, ,
31, ,41, ,
29, ,41, ,
25, ,41, ,
25, ,42, ,
25, ,42, ,
20, ,41, ,
20, ,41, ,
19, ,42, ,
17, ,41, ,
15, ,41, ,
14, ,41, ,
14, ,41, ,
12, ,41, ,
12, ,41, ,
11, ,41, ,
8, ,41, ,
9, ,41, ,
7, ,42, ,
6, ,42, ,
7, ,41, ,
4, ,41, ,
3, ,41, ,
4, ,41, ,
3, ,41, ,
3, ,41, ,
2, ,41, ,
2, ,41, ,
1, ,41, ,
1, ,41, ,
1, ,41, ,
0, ,41, ,
0, ,41, ,
0, ,41, ,
0, ,41, ,
-2, ,41, ,
0, ,41, ,
-1, ,41, ,
-1, ,41, ,
-1, ,41, ,
-3, ,42, ,
-1, ,42, ,
-2, ,42, ,
-2, ,41, ,
-1, ,41, ,
-3, ,41, ,
-2, ,41, ,
-3, ,41, ,
-4, ,41, ,
-3, ,41, ,
-3, ,41, ,
-3, ,41, ,
-2, ,41, ,
-3, ,41, ,
-4, ,41, ,
-2, ,41, ,
-4, ,41, ,
-3, ,41, ,
-3, ,41, ,
-3, ,41, ,
-3, ,41, ,
-4, ,41, ,
-3, ,41, ,
-2, ,41, ,
-2, ,42, ,
-2, ,41, ,
-3, ,41, ,
-3, ,41, ,
-3, ,41, ,
-3, ,41, ,
-4, ,41, ,
-3, ,41, ,
-4, ,41, ,
-3, ,41, ,
-2, ,41, ,
-3, ,41, ,
-3, ,41, ,
-3, ,41, ,
-3, ,41, ,
-2, ,41, ,
-2, ,41, ,
-2, ,41, ,
-3, ,41, ,
-3, ,41, ,
-2, ,41, ,
-2, ,41, ,
-1, ,41, ,
-1, ,41, ,
-1, ,41, ,
0, ,41, ,
0, ,41, ,
-1, ,41, ,
-1, ,41, ,
-2, ,41, ,
-2, ,41, ,
-1, ,41, ,
-1, ,41, ,
-1, ,41, ,
-1, ,41, ,
-2, ,41, ,
0, ,41, ,
-1, ,41, ,
-1, ,41, ,
-1, ,41, ,
-1, ,41, ,
0, ,41, ,
-1, ,41, ,
-1, ,41, ,
-1, ,41, ,
-2, ,41, ,
0, ,41, ,
0, ,42, ,
0, ,41, ,
0, ,41, ,
0, ,41, ,
0, ,41, ,
1, ,41, ,
0, ,41, ,
0, ,41, ,
1, ,41, ,
0, ,41, ,
0, ,41, ,
0, ,41, ,
0, ,41, ,
0, ,42, ,
0, ,42, ,
0, ,41, ,
1, ,41, ,
0, ,41, ,
1, ,42, ,
0, ,42, ,
0, ,41, ,
1, ,41, ,
1, ,41, ,
0, ,41, ,
1, ,41, ,
0, ,41, ,
1, ,41, ,
1, ,41, ,
0, ,41, ,
1, ,41, ,
0, ,42, ,
0, ,41, ,
0, ,41, ,
0, ,41, ,
1, ,41, ,
1, ,41, ,
1, ,41, ,
1, ,41, ,
1, ,42, ,
0, ,42, ,
0, ,42, ,
1, ,42, ,
0, ,42, ,
1, ,41, ,
0, ,41, ,
1, ,41, ,
1, ,41, ,
1, ,42, ,
1, ,41, ,
0, ,41, ,
0, ,41, ,
1, ,41, ,
1, ,41, ,
1, ,41, ,
1, ,41, ,
1, ,41, ,
1, ,41, ,
1, ,41, ,
1, ,41, ,
1, ,41, ,
1, ,41, ,
1, ,41, ,
1, ,41, ,
1, ,41, ,
2, ,41, ,
1, ,41, ,
1, ,41, ,
1, ,41, ,
1, ,41, ,
1, ,41, ,
1, ,41, ,
1, ,41, ,
1, ,41, ,
1, ,41, ,
1, ,41, ,
1, ,41, ,
0, ,42, ,
2, ,41, ,
1, ,41, ,
1, ,41, ,
1, ,41, ,
1, ,41, ,
1, ,41, ,
1, ,41, ,
1, ,41, ,
1, ,41, ,
0, ,41, ,
-1, ,41, ,
0, ,41, ,
-2, ,41, ,
1, ,41, ,
1, ,41, ,
0, ,41, ,
2, ,41, ,
0, ,41, ,
1, ,41, ,
1, ,41, ,
1, ,41, ,
1, ,41, ,
0, ,41, ,
0, ,41, ,
0, ,41, ,
0, ,41, ,
0, ,41, ,
0, ,41, ,
-1, ,41, ,
-1, ,41, ,
-1, ,42, ,
-1, ,41, ,
0, ,41, ,
-1, ,41, ,
0, ,41, ,
1, ,41, ,
1, ,41, ,
2, ,41, ,
2, ,41, ,
0, ,41, ,
2, ,42, ,
1, ,41, ,
1, ,41, ,
2, ,41, ,
1, ,41, ,
1, ,41, ,
1, ,41, ,
1, ,42, ,
2, ,41, ,
0, ,41, ,
1, ,41, ,
2, ,41, ,
0, ,41, ,
2, ,41, ,
1, ,41, ,
0, ,41, ,
1, ,41, ,
1, ,41, ,
1, ,41, ,
2, ,41, ,
1, ,41, ,
1, ,41, ,
1, ,41, ,
1, ,41, ,
1, ,41, ,
0, ,41, ,
-1, ,41, ,
-1, ,41, ,
-2, ,41, ,
-1, ,41, ,
0, ,41, ,
-1, ,41, ,
0, ,41, ,
-1, ,41, ,
0, ,41, ,
1, ,41, ,
0, ,41, ,
1, ,41, ,
2, ,41, ,
1, ,41, ,
2, ,41, ,
1, ,41, ,
2, ,41, ,
1, ,41, ,
0, ,41, ,
1, ,41, ,
0, ,41, ,
-1, ,41, ,
0, ,41, ,
-1, ,41, ,
-1, ,41, ,
1, ,42, ,
0, ,41, ,
1, ,41, ,
1, ,41, ,
1, ,41, ,
2, ,41, ,
1, ,41, ,
1, ,41, ,
1, ,41, ,
0, ,41, ,
0, ,41, ,
-1, ,41, ,
-3, ,41, ,
-3, ,41, ,
-4, ,41, ,
-6, ,41, ,
-5, ,41, ,
-5, ,41, ,
-6, ,41, ,
-6, ,41, ,
-6, ,41, ,
-6, ,41, ,
-7, ,41, ,
-6, ,41, ,
-6, ,41, ,
-8, ,41, ,
-8, ,41, ,
-11, ,41, ,
-12, ,41, ,
-13, ,41, ,
-15, ,41, ,
-18, ,41, ,
-20, ,41, ,
-21, ,41, ,
-24, ,41, ,
-27, ,41, ,
-30, ,41, ,
-31, ,41, ,
-32, ,42, ,
-32, ,42, ,
-31, ,41, ,
-32, ,41, ,
-30, ,41, ,
-27, ,41, ,
-28, ,41, ,
-26, ,41, ,
-27, ,41, ,
-25, ,41, ,
-25, ,41, ,
-26, ,41, ,
-26, ,41, ,
-28, ,42, ,
-28, ,41, ,
-30, ,41, ,
-30, ,41, ,
-29, ,41, ,
-27, ,41, ,
-29, ,41, ,
-25, ,41, ,
-20, ,41, ,
-20, ,41, ,
-18, ,41, ,
-16, ,41, ,
-14, ,41, ,
-12, ,41, ,
-10, ,41, ,
-10, ,41, ,
-8, ,42, ,
-8, ,41, ,
-8, ,41, ,
-9, ,41, ,
-10, ,41, ,
-11, ,41, ,
-11, ,41, ,
-10, ,41, ,
-9, ,41, ,
-10, ,41, ,
-7, ,41, ,
-7, ,41, ,
-4, ,41, ,
-2, ,41, ,
0, ,41, ,
0, ,41, ,
1, ,41, ,
2, ,41, ,
1, ,41, ,
0, ,41, ,
-1, ,41, ,
-2, ,41, ,
-4, ,41, ,
-4, ,41, ,
-6, ,41, ,
-10, ,41, ,
-10, ,41, ,
-11, ,41, ,
-12, ,41, ,
-11, ,41, ,
-11, ,41, ,
-10, ,41, ,
-9, ,41, ,
-9, ,41, ,
-9, ,41, ,
-10, ,41, ,
-10, ,41, ,
-10, ,41, ,
-12, ,41, ,
-13, ,41, ,
-17, ,41, ,
-18, ,41, ,
-20, ,41, ,
-21, ,41, ,
-25, ,41, ,
-25, ,41, ,
-26, ,41, ,
-25, ,41, ,
-25, ,41, ,
-25, ,41, ,
-25, ,41, ,
-25, ,41, ,
-25, ,41, ,
-25, ,41, ,
-26, ,41, ,
-27, ,41, ,
-28, ,41, ,
-31, ,41, ,
-30, ,41, ,
-33, ,41, ,
-34, ,41, ,
-34, ,41, ,
-34, ,41, ,
-33, ,41, ,
-34, ,41, ,
-34, ,41, ,
-34, ,41, ,
-34, ,41, ,
-34, ,41, ,
-34, ,41, ,
-34, ,41, ,
-33, ,41, ,
-31, ,41, ,
-30, ,41, ,
-30, ,41, ,
-30, ,41, ,
-27, ,41, ,
-28, ,41, ,
-27, ,41, ,
-29, ,41, ,
-30, ,41, ,
-32, ,41, ,
-32, ,41, ,
-35, ,41, ,
-36, ,41, ,
-36, ,41, ,
-37, ,41, ,
-37, ,41, ,
-36, ,41, ,
-37, ,41, ,
-35, ,41, ,
-35, ,41, ,
-35, ,41, ,
-33, ,41, ,
-33, ,41, ,
-33, ,41, ,
-33, ,41, ,
-34, ,41, ,
-34, ,41, ,
-35, ,41, ,
-35, ,41, ,
-35, ,41, ,
-35, ,42, ,
-34, ,41, ,
-32, ,41, ,
-32, ,41, ,
-30, ,41, ,
-30, ,41, ,
-26, ,41, ,
-25, ,41, ,
-24, ,41, ,
-23, ,41, ,
-23, ,41, ,
-24, ,41, ,
-23, ,41, ,
-24, ,42, ,
-25, ,41, ,
-24, ,41, ,
-24, ,41, ,
-24, ,41, ,
-22, ,41, ,
-24, ,41, ,
-21, ,41, ,
-22, ,41, ,
-22, ,41, ,
-20, ,41, ,
-21, ,41, ,
-20, ,41, ,
-21, ,41, ,
-20, ,41, ,
-19, ,41, ,
-19, ,41, ,
-17, ,41, ,
-15, ,41, ,
-14, ,41, ,
-12, ,41, ,
-8, ,41, ,
-7, ,41, ,
-6, ,41, ,
-4, ,41, ,
-3, ,41, ,
1, ,41, ,
1, ,41, ,
3, ,41, ,
6, ,41, ,
8, ,41, ,
10, ,41, ,
12, ,41, ,
16, ,41, ,
18, ,41, ,
18, ,42, ,
20, ,42, ,
21, ,42, ,
21, ,41, ,
21, ,41, ,
20, ,41, ,
19, ,41, ,
20, ,41, ,
17, ,41, ,
17, ,41, ,
15, ,41, ,
12, ,41, ,
11, ,41, ,
9, ,41, ,
8, ,41, ,
8, ,41, ,
5, ,41, ,
5, ,41, ,
3, ,41, ,
2, ,41, ,
2, ,41, ,
0, ,41, ,
-1, ,41, ,
-1, ,41, ,
-3, ,41, ,
-2, ,41, ,
-5, ,41, ,
-6, ,41, ,
-6, ,41, ,
-7, ,41, ,
-8, ,41, ,
-9, ,41, ,
-11, ,41, ,
-10, ,41, ,
-12, ,41, ,
-14, ,41, ,
-13, ,41, ,
-16, ,41, ,
-18, ,41, ,
-17, ,41, ,
-20, ,41, ,
-20, ,41, ,
-20, ,41, ,
-21, ,41, ,
-21, ,41, ,
-22, ,42, ,
-24, ,41, ,
-23, ,41, ,
-26, ,41, ,
-26, ,41, ,
-26, ,41, ,
-27, ,41, ,
-28, ,41, ,
-29, ,41, ,
-29, ,41, ,
-29, ,41, ,
-28, ,41, ,
-28, ,41, ,
-27, ,41, ,
-27, ,41, ,
-27, ,41, ,
-27, ,42, ,
-26, ,41, ,
-25, ,41, ,
-26, ,41, ,
-26, ,41, ,
-26, ,41, ,
-27, ,41, ,
-26, ,41, ,
-27, ,41, ,
-27, ,41, ,
-25, ,41, ,
-25, ,41, ,
-25, ,41, ,
-25, ,41, ,
-23, ,41, ,
-22, ,41, ,
-23, ,41, ,
-20, ,41, ,
-19, ,41, ,
-20, ,41, ,
-18, ,41, ,
-17, ,41, ,
-17, ,41, ,
-17, ,41, ,
-15, ,41, ,
-14, ,41, ,
-12, ,41, ,
-13, ,41, ,
-11, ,41, ,
-5, ,41, ,
-6, ,41, ,
-4, ,41, ,
-5, ,41, ,
-1, ,41, ,
1, ,41, ,
1, ,41, ,
3, ,41, ,
5, ,41, ,
6, ,41, ,
8, ,41, ,
7, ,41, ,
10, ,41, ,
11, ,41, ,
13, ,41, ,
13, ,41, ,
14, ,41, ,
14, ,41, ,
14, ,41, ,
13, ,41, ,
13, ,41, ,
14, ,41, ,
13, ,41, ,
11, ,41, ,
9, ,41, ,
8, ,41, ,
8, ,41, ,
7, ,42, ,
5, ,41, ,
6, ,41, ,
4, ,41, ,
4, ,41, ,
2, ,41, ,
2, ,41, ,
1, ,41, ,
-1, ,42, ,
-2, ,42, ,
-3, ,41, ,
-5, ,41, ,
-5, ,41, ,
-6, ,41, ,
-7, ,41, ,
-8, ,41, ,
-8, ,41, ,
-10, ,41, ,
-10, ,42, ,
-11, ,41, ,
-11, ,41, ,
-11, ,41, ,
-14, ,41, ,
-13, ,41, ,
-15, ,41, ,
-16, ,41, ,
-17, ,41, ,
-19, ,42, ,
-18, ,41, ,
-20, ,41, ,
-22, ,41, ,
-21, ,41, ,
-21, ,41, ,
-24, ,41, ,
-23, ,41, ,
-24, ,41, ,
-23, ,41, ,
-25, ,41, ,
-25, ,41, ,
-26, ,41, ,
-26, ,41, ,
-25, ,41, ,
-25, ,41, ,
-25, ,41, ,
-25, ,41, ,
-25, ,41, ,
-27, ,41, ,
-25, ,41, ,
-25, ,41, ,
-26, ,41, ,
-25, ,41, ,
-25, ,41, ,
-24, ,41, ,
-24, ,41, ,
-23, ,41, ,
-23, ,41, ,
-24, ,41, ,
-22, ,41, ,
-20, ,41, ,
-20, ,41, ,
-20, ,41, ,
-20, ,41, ,
-20, ,41, ,
-20, ,41, ,
-21, ,41, ,
-21, ,41, ,
-19, ,41, ,
-19, ,41, ,
-19, ,41, ,
-18, ,41, ,
-19, ,41, ,
-17, ,41, ,
-18, ,41, ,
-17, ,41, ,
-16, ,41, ,
-17, ,41, ,
-17, ,41, ,
-18, ,41, ,
-19, ,41, ,
-18, ,41, ,
-18, ,41, ,
-18, ,41, ,
-18, ,41, ,
-19, ,41, ,
-18, ,41, ,
-18, ,41, ,
-18, ,41, ,
-19, ,41, ,
-19, ,41, ,
-19, ,41, ,
-18, ,41, ,
-20, ,41, ,
-19, ,41, ,
-19, ,41, ,
-19, ,41, ,
-19, ,41, ,
-19, ,41, ,
-19, ,41, ,
-17, ,42, ,
-17, ,41, ,
-17, ,41, ,
-16, ,42, ,
-15, ,41, ,
-14, ,41, ,
-15, ,41, ,
-14, ,41, ,
-12, ,41, ,
-13, ,41, ,
-10, ,41, ,
-10, ,41, ,
-10, ,41, ,
-9, ,41, ,
-10, ,41, ,
-9, ,41, ,
-7, ,41, ,
-7, ,41, ,
-5, ,41, ,
-5, ,41, ,
-5, ,41, ,
-4, ,41, ,
-4, ,41, ,
-2, ,41, ,
-2, ,41, ,
-3, ,41, ,
0, ,41, ,
0, ,41, ,
0, ,41, ,
1, ,41, ,
1, ,41, ,
3, ,41, ,
3, ,41, ,
3, ,41, ,
4, ,41, ,
5, ,41, ,
4, ,41, ,
4, ,41, ,
4, ,41, ,
5, ,41, ,
5, ,41, ,
5, ,41, ,
4, ,41, ,
3, ,41, ,
3, ,41, ,
3, ,42, ,
3, ,41, ,
1, ,41, ,
2, ,41, ,
1, ,41, ,
2, ,41, ,
0, ,41, ,
0, ,41, ,
-1, ,41, ,
-2, ,41, ,
-3, ,41, ,
-3, ,41, ,
-4, ,41, ,
-4, ,41, ,
-5, ,41, ,
-5, ,41, ,
-6, ,41, ,
-6, ,41, ,
-8, ,41, ,
-9, ,41, ,
-9, ,41, ,
-9, ,41, ,
-9, ,41, ,
-10, ,41, ,
-9, ,41, ,
-11, ,41, ,
-11, ,41, ,
-11, ,41, ,
-12, ,41, ,
-12, ,41, ,
-12, ,41, ,
-12, ,41, ,
-12, ,41, ,
-12, ,41, ,
-13, ,41, ,
-11, ,41, ,
-11, ,41, ,
-11, ,41, ,
-10, ,41, ,
-10, ,41, ,
-10, ,41, ,
-10, ,41, ,
-9, ,41, ,
-9, ,41, ,
-10, ,42, ,
-9, ,41, ,
-8, ,41, ,
-9, ,41, ,
-7, ,41, ,
-8, ,41, ,
-8, ,41, ,
-7, ,41, ,
-6, ,41, ,
-6, ,41, ,
-6, ,41, ,
-7, ,41, ,
-6, ,41, ,
-7, ,41, ,
-7, ,41, ,
-7, ,41, ,
-8, ,41, ,
-8, ,41, ,
-8, ,41, ,
-9, ,41, ,
-7, ,41, ,
-8, ,41, ,
-9, ,41, ,
-7, ,42, ,
-7, ,41, ,
-7, ,41, ,
-6, ,41, ,
-7, ,41, ,
-6, ,41, ,
-7, ,41, ,
-7, ,41, ,
-7, ,41, ,
-7, ,41, ,
-6, ,41, ,
-6, ,41, ,
-6, ,41, ,
-5, ,42, ,
-5, ,41, ,
-5, ,41, ,
-3, ,41, ,
-3, ,41, ,
-2, ,41, ,
0, ,41, ,
0, ,41, ,
0, ,41, ,
0, ,41, ,
0, ,41, ,
0, ,41, ,
0, ,41, ,
0, ,41, ,
1, ,41, ,
0, ,41, ,
1, ,41, ,
0, ,41, ,
0, ,41, ,
0, ,41, ,
0, ,41, ,
1, ,41, ,
-1, ,41, ,
-1, ,41, ,
-1, ,41, ,
-2, ,41, ,
-2, ,41, ,
-3, ,41, ,
-4, ,41, ,
-3, ,41, ,
-4, ,41, ,
-4, ,41, ,
-3, ,41, ,
-2, ,41, ,
-2, ,41, ,
-1, ,41, ,
0, ,41, ,
1, ,41, ,
2, ,41, ,
2, ,41, ,
3, ,41, ,
1, ,41, ,
4, ,41, ,
5, ,41, ,
4, ,41, ,
5, ,41, ,
5, ,41, ,
5, ,41, ,
5, ,41, ,
5, ,41, ,
4, ,41, ,
5, ,41, ,
4, ,41, ,
4, ,41, ,
4, ,41, ,
3, ,41, ,
2, ,41, ,
1, ,41, ,
0, ,41, ,
0, ,41, ,
-1, ,41, ,
-1, ,41, ,
-3, ,42, ,
-5, ,41, ,
-3, ,41, ,
-4, ,41, ,
-5, ,41, ,
-4, ,41, ,
-4, ,41, ,
-4, ,41, ,
-4, ,41, ,
-4, ,41, ,
-4, ,41, ,
-5, ,41, ,
-3, ,41, ,
-2, ,41, ,
-4, ,41, ,
-1, ,41, ,
-1, ,41, ,
-1, ,41, ,
0, ,41, ,
0, ,41, ,
0, ,41, ,
2, ,41, ,
2, ,41, ,
3, ,41, ,
4, ,41, ,
3, ,41, ,
5, ,41, ,
4, ,42, ,
3, ,42, ,
4, ,42, ,
3, ,41, ,
4, ,41, ,
4, ,41, ,
3, ,41, ,
3, ,41, ,
3, ,41, ,
3, ,41, ,
3, ,41, ,
2, ,41, ,
2, ,41, ,
3, ,41, ,
3, ,41, ,
3, ,41, ,
2, ,41, ,
2, ,41, ,
2, ,42, ,
1, ,41, ,
3, ,41, ,
2, ,41, ,
0, ,41, ,
2, ,41, ,
2, ,41, ,
2, ,41, ,
2, ,41, ,
1, ,41, ,
2, ,41, ,
3, ,41, ,
3, ,42, ,
3, ,42, ,
2, ,42, ,
3, ,41, ,
3, ,41, ,
3, ,41, ,
4, ,41, ,
4, ,41, ,
2, ,41, ,
2, ,41, ,
2, ,41, ,
1, ,41, ,
3, ,41, ,
3, ,41, ,
2, ,41, ,
2, ,41, ,
2, ,41, ,
2, ,41, ,
1, ,41, ,
2, ,42, ,
2, ,41, ,
0, ,41, ,
2, ,41, ,
2, ,41, ,
1, ,41, ,
1, ,41, ,
1, ,41, ,
0, ,41, ,
2, ,41, ,
0, ,41, ,
0, ,41, ,
1, ,41, ,
0, ,41, ,
0, ,41, ,
0, ,41, ,
-1, ,41, ,
-1, ,41, ,
-1, ,41, ,
-1, ,41, ,
-1, ,42, ,
-2, ,42, ,
-2, ,41, ,
-3, ,41, ,
-3, ,41, ,
-2, ,41, ,
-4, ,41, ,
-4, ,41, ,
-4, ,41, ,
-5, ,41, ,
-5, ,41, ,
-6, ,41, ,
-5, ,41, ,
-5, ,41, ,
-6, ,41, ,
-5, ,41, ,
-5, ,41, ,
-7, ,41, ,
-6, ,41, ,
-7, ,41, ,
-7, ,41, ,
-7, ,41, ,
-8, ,41, ,
-8, ,41, ,
-8, ,41, ,
-9, ,41, ,
-8, ,41, ,
-10, ,41, ,
-10, ,41, ,
-10, ,41, ,
-10, ,41, ,
-9, ,41, ,
-10, ,41, ,
-10, ,42, ,
-10, ,41, ,
-11, ,41, ,
-11, ,41, ,
-11, ,41, ,
-10, ,42, ,
-10, ,41, ,
-10, ,41, ,
-10, ,41, ,
-9, ,41, ,
-9, ,41, ,
-9, ,41, ,
-7, ,41, ,
-7, ,42, ,
-7, ,41, ,
-5, ,41, ,
-6, ,41, ,
-4, ,41, ,
-4, ,41, ,
-4, ,41, ,
-2, ,41, ,
-2, ,41, ,
-1, ,41, ,
0, ,41, ,
0, ,41, ,
1, ,41, ,
0, ,41, ,
2, ,41, ,
2, ,41, ,
2, ,41, ,
2, ,41, ,
2, ,41, ,
2, ,41, ,
2, ,41, ,
1, ,41, ,
0, ,41, ,
0, ,41, ,
-1, ,41, ,
-2, ,41, ,
-2, ,41, ,
-2, ,41, ,
-2, ,41, ,
-4, ,41, ,
-5, ,41, ,
-4, ,41, ,
-5, ,41, ,
-5, ,41, ,
-6, ,41, ,
-7, ,41, ,
-6, ,41, ,
-9, ,41, ,
-9, ,41, ,
-8, ,41, ,
-9, ,41, ,
-8, ,41, ,
-9, ,41, ,
-9, ,41, ,
-9, ,41, ,
-9, ,41, ,
-9, ,41, ,
-8, ,41, ,
-9, ,41, ,
-8, ,41, ,
-7, ,42, ,
-9, ,41, ,
-6, ,41, ,
-7, ,42, ,
-7, ,42, ,
-5, ,42, ,
-5, ,41, ,
-4, ,41, ,
-4, ,41, ,
-2, ,41, ,
-2, ,41, ,
-4, ,41, ,
0, ,41, ,
0, ,41, ,
0, ,42, ,
0, ,41, ,
1, ,41, ,
1, ,41, ,
2, ,41, ,
2, ,41, ,
2, ,41, ,
2, ,41, ,
1, ,41, ,
3, ,41, ,
3, ,41, ,
2, ,41, ,
3, ,41, ,
1, ,41, ,
2, ,41, ,
2, ,41, ,
1, ,41, ,
1, ,42, ,
1, ,41, ,
1, ,41, ,
1, ,41, ,
0, ,41, ,
0, ,41, ,
0, ,41, ,
0, ,41, ,
0, ,41, ,
1, ,42, ,
0, ,41, ,
1, ,41, ,
-1, ,41, ,
0, ,41, ,
1, ,41, ,
0, ,41, ,
2, ,41, ,
2, ,41, ,
1, ,41, ,
3, ,41, ,
2, ,41, ,
1, ,41, ,
2, ,41, ,
1, ,41, ,
2, ,41, ,
1, ,41, ,
0, ,41, ,
0, ,41, ,
0, ,41, ,
-1, ,41, ,
0, ,41, ,
-2, ,41, ,
-1, ,41, ,
-3, ,41, ,
-4, ,41, ,
-3, ,41, ,
-4, ,41, ,
-5, ,41, ,
-5, ,41, ,
-5, ,41, ,
-5, ,41, ,
-4, ,41, ,
-5, ,41, ,
-3, ,41, ,
-5, ,41, ,
-4, ,41, ,
-3, ,41, ,
-4, ,42, ,
-3, ,42, ,
-2, ,41, ,
-2, ,41, ,
-1, ,41, ,
-2, ,41, ,
-1, ,41, ,
0, ,41, ,
0, ,41, ,
0, ,41, ,
1, ,41, ,
1, ,41, ,
1, ,41, ,
1, ,41, ,
1, ,41, ,
2, ,41, ,
1, ,41, ,
1, ,41, ,
1, ,41, ,
1, ,41, ,
1, ,41, ,
0, ,41, ,
0, ,41, ,
1, ,42, ,
0, ,41, ,
0, ,41, ,
0, ,41, ,
-1, ,41, ,
-1, ,41, ,
-1, ,41, ,
-1, ,42, ,
0, ,41, ,
0, ,41, ,
0, ,41, ,
0, ,41, ,
0, ,41, ,
0, ,41, ,
0, ,41, ,
-1, ,41, ,
0, ,41, ,
0, ,41, ,
0, ,41, ,
0, ,41, ,
0, ,41, ,
0, ,41, ,
-1, ,41, ,
0, ,41, ,
0, ,41, ,
0, ,41, ,
0, ,41, ,
-1, ,41, ,
-2, ,41, ,
-2, ,41, ,
-4, ,41, ,
-2, ,41, ,
-2, ,41, ,
-3, ,41, ,
-3, ,41, ,
-3, ,42, ,
-4, ,42, ,
-3, ,41, ,
-4, ,41, ,
-4, ,41, ,
-3, ,41, ,
-5, ,41, ,
-4, ,42, ,
-4, ,42, ,
-5, ,41, ,
-5, ,41, ,
-5, ,41, ,
-5, ,41, ,
-3, ,41, ,
-4, ,41, ,
-4, ,41, ,
-3, ,41, ,
-4, ,41, ,
-3, ,41, ,
-4, ,41, ,
-4, ,41, ,
-4, ,41, ,
-5, ,41, ,
-3, ,41, ,
-4, ,41, ,
-4, ,41, ,
-3, ,41, ,
-3, ,41, ,
-4, ,41, ,
-3, ,41, ,
-3, ,41, ,
-3, ,41, ,
-2, ,42, ,
-3, ,41, ,
-2, ,41, ,
-2, ,42, ,
-1, ,41, ,
-1, ,41, ,
-2, ,41, ,
0, ,41, ,
0, ,41, ,
-1, ,41, ,
0, ,41, ,
1, ,41, ,
1, ,41, ,
1, ,41, ,
1, ,41, ,
2, ,41, ,
3, ,41, ,
3, ,41, ,
3, ,41, ,
3, ,41, ,
4, ,42, ,
4, ,42, ,
4, ,42, ,
5, ,41, ,
5, ,41, ,
4, ,41, ,
5, ,41, ,
5, ,41, ,
5, ,41, ,
5, ,41, ,
4, ,41, ,
4, ,41, ,
4, ,41, ,
5, ,41, ,
5, ,41, ,
4, ,41, ,
3, ,41, ,
3, ,41, ,
3, ,41, ,
3, ,41, ,
2, ,41, ,
2, ,41, ,
3, ,41, ,
2, ,41, ,
1, ,41, ,
2, ,42, ,
1, ,41, ,
1, ,41, ,
1, ,41, ,
1, ,41, ,
1, ,41, ,
0, ,41, ,
2, ,42, ,
2, ,41, ,
1, ,41, ,
2, ,41, ,
1, ,41, ,
1, ,41, ,
1, ,41, ,
0, ,41, ,
0, ,41, ,
1, ,41, ,
0, ,41, ,
2, ,41, ,
0, ,41, ,
-1, ,41, ,
0, ,41, ,
0, ,41, ,
0, ,41, ,
0, ,41, ,
0, ,41, ,
1, ,41, ,
1, ,41, ,
0, ,41, ,
1, ,41, ,
1, ,41, ,
1, ,41, ,
2, ,41, ,
2, ,41, ,
2, ,41, ,
3, ,41, ,
3, ,41, ,
4, ,41, ,
3, ,41, ,
4, ,41, ,
4, ,41, ,
4, ,41, ,
5, ,41, ,
5, ,41, ,
5, ,41, ,
6, ,41, ,
5, ,41, ,
5, ,41, ,
6, ,41, ,
6, ,41, ,
6, ,41, ,
5, ,41, ,
5, ,41, ,
5, ,41, ,
4, ,41, ,
4, ,41, ,
4, ,41, ,
3, ,41, ,
3, ,41, ,
2, ,41, ,
1, ,41, ,
2, ,41, ,
1, ,41, ,
1, ,41, ,
1, ,41, ,
1, ,41, ,
1, ,41, ,
1, ,41, ,
0, ,41, ,
0, ,41, ,
0, ,41, ,
0, ,41, ,
-1, ,41, ,
-2, ,41, ,
0, ,41, ,
0, ,41, ,
-2, ,41, ,
0, ,41, ,
0, ,41, ,
0, ,41, ,
0, ,41, ,
0, ,41, ,
0, ,41, ,
0, ,41, ,
0, ,41, ,
-1, ,41, ,
-2, ,41, ,
-1, ,41, ,
-1, ,41, ,
-1, ,41, ,
0, ,41, ,
0, ,41, ,
0, ,41, ,
0, ,41, ,
0, ,41, ,
-1, ,41, ,
0, ,41, ,
-1, ,41, ,
0, ,41, ,
0, ,41, ,
-1, ,41, ,
-1, ,41, ,
-2, ,41, ,
-2, ,41, ,
-1, ,41, ,
-2, ,41, ,
-1, ,41, ,
-2, ,41, ,
-2, ,41, ,
-1, ,41, ,
-2, ,41, ,
-3, ,41, ,
-1, ,41, ,
-1, ,41, ,
-1, ,41, ,
0, ,42, ,
-1, ,41, ,
-1, ,41, ,
-2, ,41, ,
-2, ,41, ,
-1, ,41, ,
-2, ,41, ,
-1, ,41, ,
-1, ,41, ,
-3, ,41, ,
-2, ,41, ,
-3, ,41, ,
-3, ,41, ,
-2, ,41, ,
-3, ,41, ,
-1, ,41, ,
-2, ,41, ,
-3, ,41, ,
-3, ,41, ,
-4, ,41, ,
-5, ,42, ,
-5, ,42, ,
-5, ,42, ,
-4, ,41, ,
-5, ,41, ,
-5, ,41, ,
-5, ,41, ,
-5, ,41, ,
-6, ,41, ,
-4, ,41, ,
-5, ,41, ,
-5, ,41, ,
-4, ,41, ,
-4, ,41, ,
-3, ,41, ,
-5, ,41, ,
-4, ,41, ,
-1, ,41, ,
-2, ,41, ,
-1, ,41, ,
-1, ,42, ,
-2, ,41, ,
1, ,41, ,
1, ,41, ,
1, ,41, ,
2, ,41, ,
2, ,41, ,
3, ,41, ,
4, ,41, ,
4, ,41, ,
4, ,41, ,
4, ,41, ,
3, ,41, ,
5, ,41, ,
4, ,41, ,
5, ,41, ,
5, ,41, ,
4, ,41, ,
4, ,41, ,
4, ,41, ,
3, ,41, ,
4, ,41, ,
4, ,41, ,
3, ,41, ,
3, ,41, ,
2, ,42, ,
2, ,42, ,
2, ,42, ,
2, ,41, ,
2, ,41, ,
0, ,41, ,
2, ,41, ,
2, ,41, ,
1, ,41, ,
2, ,41, ,
1, ,41, ,
1, ,41, ,
2, ,41, ,
1, ,41, ,
1, ,41, ,
2, ,41, ,
1, ,41, ,
2, ,41, ,
0, ,41, ,
1, ,41, ,
1, ,41, ,
1, ,41, ,
2, ,41, ,
1, ,41, ,
0, ,41, ,
1, ,41, ,
0, ,41, ,
0, ,41, ,
0, ,42, ,
0, ,42, ,
0, ,41, ,
0, ,41, ,
0, ,41, ,
0, ,41, ,
0, ,41, ,
0, ,41, ,
0, ,41, ,
-1, ,41, ,
0, ,41, ,
0, ,41, ,
0, ,41, ,
0, ,41, ,
0, ,41, ,
-1, ,41, ,
0, ,41, ,
-2, ,42, ,
0, ,42, ,
0, ,41, ,
0, ,41, ,
2, ,41, ,
-2, ,41, ,
0, ,41, ,
0, ,41, ,
0, ,41, ,
0, ,41, ,
