raw_data/100% Glycerol, Impulsion 2Hz, Sonde 5MHz, Rampe 0.7Hz/temp0000217.CSV

Format,1.0B,
Memory Length,10000,Memory Length,10000,
IntpDistance,0,IntpDistance,0,
Trigger Address,159,Trigger Address,159,
Trigger Level,2.720E-01,Trigger Level,2.720E-01,
Source,CH1,Source,CH2,
Vertical Units,V,Vertical Units,V,
Vertical Units Div,0,Vertical Units Div,0,
Vertical Units Extend Div,16,Vertical Units Extend Div,16,
Label,,Label,,
Probe Type,0,Probe Type,0,
Probe Ratio,1.000e+00,Probe Ratio,1.000e+00,
Vertical Scale,2.000e-01,Vertical Scale,2.000e+00,
Vertical Position,0.000e+00,Vertical Position,0.000e+00,
Horizontal Units,S,Horizontal Units,S,
Horizontal Scale,5.000E-06,Horizontal Scale,5.000E-06,
Horizontal Position,2.420E-05,Horizontal Position,2.420E-05,
Horizontal Mode,Main,Horizontal Mode,Main,
SincET Mode,Real Time,SincET Mode,Real Time,
Sampling Period,5.000e-09,Sampling Period,5.000e-09,
Horizontal Old Scale,5.000E-06,Horizontal Old Scale,5.000E-06,
Horizontal Old Position,2.420E-05,Horizontal Old Position,2.420E-05,
Firmware,V1.32,Firmware,V1.32,
Mode,Fast,Mode,Fast,
Waveform Data,,Waveform Data,,
2, ,-32, ,
1, ,-32, ,
2, ,-32, ,
2, ,-32, ,
2, ,-32, ,
2, ,-32, ,
2, ,-32, ,
1, ,-32, ,
3, ,-32, ,
2, ,-32, ,
2, ,-32, ,
2, ,-32, ,
2, ,-32, ,
2, ,-32, ,
2, ,-32, ,
3, ,-32, ,
3, ,-32, ,
2, ,-32, ,
2, ,-32, ,
2, ,-32, ,
2, ,-32, ,
1, ,-33, ,
1, ,-33, ,
2, ,-32, ,
2, ,-32, ,
2, ,-32, ,
3, ,-32, ,
2, ,-32, ,
2, ,-32, ,
2, ,-32, ,
2, ,-32, ,
1, ,-32, ,
2, ,-32, ,
1, ,-32, ,
1, ,-33, ,
2, ,-33, ,
1, ,-32, ,
3, ,-32, ,
2, ,-33, ,
1, ,-33, ,
2, ,-33, ,
2, ,-32, ,
2, ,-32, ,
2, ,-33, ,
2, ,-33, ,
2, ,-33, ,
2, ,-32, ,
2, ,-32, ,
2, ,-32, ,
2, ,-32, ,
3, ,-32, ,
3, ,-32, ,
2, ,-32, ,
2, ,-32, ,
2, ,-32, ,
2, ,-32, ,
3, ,-33, ,
2, ,-33, ,
2, ,-32, ,
3, ,-32, ,
2, ,-32, ,
2, ,-32, ,
1, ,-33, ,
2, ,-33, ,
3, ,-33, ,
3, ,-32, ,
3, ,-32, ,
2, ,-32, ,
1, ,-32, ,
2, ,-33, ,
2, ,-33, ,
2, ,-32, ,
2, ,-32, ,
2, ,-32, ,
2, ,-32, ,
2, ,-32, ,
1, ,-32, ,
2, ,-32, ,
0, ,-32, ,
2, ,-32, ,
1, ,-32, ,
3, ,-32, ,
3, ,-32, ,
2, ,-33, ,
2, ,-33, ,
2, ,-33, ,
2, ,-32, ,
1, ,-32, ,
3, ,-32, ,
1, ,-33, ,
3, ,-33, ,
3, ,-32, ,
2, ,-32, ,
2, ,-32, ,
1, ,-33, ,
2, ,-33, ,
2, ,-33, ,
1, ,-32, ,
1, ,-32, ,
2, ,-32, ,
1, ,-32, ,
2, ,-33, ,
2, ,-33, ,
1, ,-32, ,
3, ,-32, ,
2, ,-32, ,
2, ,-32, ,
3, ,-32, ,
2, ,-32, ,
2, ,-32, ,
1, ,-32, ,
1, ,-32, ,
2, ,-32, ,
2, ,-32, ,
1, ,-33, ,
2, ,-33, ,
1, ,-32, ,
1, ,-32, ,
2, ,-32, ,
2, ,-32, ,
2, ,-32, ,
1, ,-32, ,
2, ,-32, ,
2, ,-32, ,
2, ,-32, ,
2, ,-32, ,
1, ,-33, ,
1, ,-33, ,
2, ,-33, ,
2, ,-32, ,
3, ,-33, ,
3, ,-33, ,
2, ,-32, ,
3, ,-33, ,
2, ,-33, ,
1, ,-32, ,
3, ,-32, ,
3, ,-32, ,
3, ,-32, ,
2, ,-32, ,
1, ,-32, ,
3, ,-32, ,
2, ,-32, ,
2, ,-32, ,
2, ,-32, ,
1, ,-32, ,
3, ,-32, ,
2, ,-32, ,
2, ,-32, ,
2, ,-32, ,
2, ,-32, ,
2, ,-32, ,
2, ,-32, ,
2, ,-32, ,
2, ,-32, ,
2, ,-32, ,
2, ,-32, ,
2, ,-32, ,
1, ,-32, ,
1, ,-32, ,
2, ,-32, ,
2, ,-32, ,
3, ,-32, ,
2, ,-32, ,
4, ,-32, ,
-1, ,-32, ,
2, ,-32, ,
4, ,-32, ,
43, ,-33, ,
111, ,-33, ,
125, ,-32, ,
125, ,-32, ,
124, ,-32, ,
120, ,-32, ,
99, ,-32, ,
10, ,-32, ,
125, ,-32, ,
125, ,-32, ,
125, ,-32, ,
125, ,-32, ,
125, ,-32, ,
125, ,-33, ,
125, ,-33, ,
125, ,-32, ,
125, ,-32, ,
125, ,-32, ,
125, ,-32, ,
125, ,-32, ,
125, ,-32, ,
125, ,-32, ,
125, ,-32, ,
125, ,-32, ,
125, ,-33, ,
125, ,-33, ,
125, ,-33, ,
125, ,-33, ,
125, ,-32, ,
125, ,-32, ,
125, ,-32, ,
125, ,-32, ,
125, ,-33, ,
125, ,-33, ,
125, ,-32, ,
124, ,-33, ,
119, ,-33, ,
115, ,-33, ,
108, ,-32, ,
102, ,-32, ,
98, ,-32, ,
93, ,-32, ,
91, ,-33, ,
82, ,-33, ,
77, ,-32, ,
74, ,-33, ,
71, ,-33, ,
63, ,-32, ,
61, ,-32, ,
59, ,-32, ,
58, ,-32, ,
51, ,-32, ,
49, ,-32, ,
47, ,-32, ,
43, ,-32, ,
39, ,-32, ,
37, ,-32, ,
36, ,-32, ,
35, ,-33, ,
33, ,-33, ,
29, ,-32, ,
28, ,-32, ,
27, ,-32, ,
24, ,-32, ,
24, ,-32, ,
22, ,-32, ,
22, ,-32, ,
18, ,-32, ,
17, ,-32, ,
17, ,-32, ,
15, ,-32, ,
13, ,-32, ,
13, ,-32, ,
11, ,-32, ,
11, ,-32, ,
9, ,-32, ,
7, ,-32, ,
8, ,-33, ,
7, ,-33, ,
6, ,-33, ,
6, ,-33, ,
5, ,-32, ,
5, ,-32, ,
4, ,-32, ,
4, ,-32, ,
4, ,-32, ,
2, ,-32, ,
1, ,-32, ,
1, ,-32, ,
0, ,-32, ,
1, ,-33, ,
1, ,-33, ,
0, ,-33, ,
0, ,-33, ,
0, ,-32, ,
-1, ,-32, ,
-1, ,-32, ,
-1, ,-32, ,
-1, ,-32, ,
-1, ,-32, ,
-2, ,-32, ,
-2, ,-32, ,
-2, ,-32, ,
-2, ,-32, ,
-2, ,-32, ,
-2, ,-32, ,
-1, ,-32, ,
-1, ,-32, ,
-2, ,-32, ,
-1, ,-32, ,
-2, ,-32, ,
-3, ,-32, ,
-1, ,-32, ,
-2, ,-32, ,
-2, ,-32, ,
-2, ,-33, ,
-3, ,-33, ,
-1, ,-33, ,
-4, ,-32, ,
-2, ,-32, ,
-1, ,-32, ,
-3, ,-32, ,
-1, ,-33, ,
-2, ,-33, ,
-2, ,-32, ,
-2, ,-32, ,
-2, ,-32, ,
-2, ,-32, ,
-2, ,-32, ,
-1, ,-32, ,
-2, ,-32, ,
-1, ,-32, ,
-2, ,-33, ,
-2, ,-33, ,
-2, ,-33, ,
-2, ,-33, ,
-1, ,-33, ,
-1, ,-32, ,
-2, ,-33, ,
-2, ,-33, ,
-2, ,-32, ,
-1, ,-32, ,
-1, ,-32, ,
-2, ,-32, ,
-2, ,-32, ,
-2, ,-32, ,
0, ,-32, ,
0, ,-32, ,
-1, ,-32, ,
-1, ,-32, ,
-1, ,-32, ,
-1, ,-32, ,
0, ,-32, ,
-2, ,-32, ,
0, ,-32, ,
0, ,-32, ,
0, ,-32, ,
0, ,-32, ,
-1, ,-32, ,
-2, ,-32, ,
0, ,-32, ,
-1, ,-32, ,
0, ,-32, ,
0, ,-33, ,
0, ,-33, ,
0, ,-33, ,
0, ,-32, ,
0, ,-32, ,
0, ,-32, ,
0, ,-32, ,
0, ,-32, ,
1, ,-32, ,
1, ,-32, ,
1, ,-32, ,
1, ,-32, ,
1, ,-32, ,
1, ,-32, ,
1, ,-32, ,
1, ,-32, ,
2, ,-32, ,
1, ,-32, ,
2, ,-32, ,
0, ,-32, ,
1, ,-32, ,
1, ,-32, ,
1, ,-32, ,
1, ,-33, ,
1, ,-33, ,
1, ,-32, ,
1, ,-32, ,
1, ,-32, ,
1, ,-32, ,
1, ,-33, ,
1, ,-33, ,
1, ,-32, ,
1, ,-32, ,
1, ,-32, ,
2, ,-32, ,
1, ,-32, ,
1, ,-32, ,
1, ,-32, ,
1, ,-32, ,
1, ,-33, ,
2, ,-33, ,
2, ,-32, ,
1, ,-32, ,
1, ,-32, ,
1, ,-32, ,
2, ,-32, ,
2, ,-32, ,
2, ,-32, ,
2, ,-32, ,
1, ,-32, ,
2, ,-32, ,
1, ,-32, ,
2, ,-32, ,
2, ,-32, ,
1, ,-32, ,
2, ,-32, ,
2, ,-32, ,
2, ,-32, ,
2, ,-32, ,
1, ,-32, ,
1, ,-32, ,
3, ,-32, ,
2, ,-32, ,
2, ,-32, ,
1, ,-32, ,
1, ,-32, ,
1, ,-32, ,
1, ,-32, ,
1, ,-33, ,
2, ,-33, ,
1, ,-33, ,
2, ,-32, ,
2, ,-32, ,
0, ,-32, ,
2, ,-32, ,
1, ,-32, ,
1, ,-32, ,
3, ,-33, ,
2, ,-33, ,
2, ,-32, ,
1, ,-32, ,
0, ,-32, ,
2, ,-32, ,
1, ,-32, ,
1, ,-32, ,
2, ,-32, ,
1, ,-32, ,
1, ,-32, ,
2, ,-32, ,
2, ,-32, ,
1, ,-32, ,
1, ,-32, ,
1, ,-32, ,
1, ,-32, ,
1, ,-32, ,
1, ,-32, ,
1, ,-32, ,
1, ,-32, ,
1, ,-32, ,
1, ,-32, ,
2, ,-32, ,
2, ,-32, ,
1, ,-32, ,
2, ,-32, ,
2, ,-32, ,
1, ,-32, ,
2, ,-33, ,
1, ,-33, ,
2, ,-32, ,
1, ,-32, ,
1, ,-32, ,
1, ,-32, ,
0, ,-32, ,
0, ,-32, ,
0, ,-32, ,
0, ,-32, ,
1, ,-32, ,
1, ,-32, ,
1, ,-32, ,
1, ,-32, ,
1, ,-32, ,
1, ,-32, ,
2, ,-32, ,
1, ,-32, ,
0, ,-32, ,
2, ,-32, ,
1, ,-32, ,
1, ,-32, ,
1, ,-32, ,
1, ,-32, ,
1, ,-32, ,
1, ,-32, ,
2, ,-32, ,
1, ,-32, ,
1, ,-32, ,
1, ,-33, ,
1, ,-33, ,
2, ,-32, ,
2, ,-32, ,
2, ,-32, ,
2, ,-32, ,
2, ,-33, ,
2, ,-33, ,
2, ,-32, ,
3, ,-33, ,
3, ,-33, ,
4, ,-33, ,
1, ,-32, ,
2, ,-32, ,
2, ,-32, ,
1, ,-32, ,
1, ,-33, ,
0, ,-33, ,
0, ,-32, ,
0, ,-32, ,
0, ,-32, ,
0, ,-32, ,
1, ,-33, ,
2, ,-33, ,
3, ,-32, ,
2, ,-32, ,
2, ,-32, ,
2, ,-32, ,
1, ,-32, ,
2, ,-32, ,
2, ,-32, ,
1, ,-32, ,
1, ,-32, ,
1, ,-32, ,
0, ,-32, ,
1, ,-33, ,
0, ,-33, ,
0, ,-32, ,
0, ,-32, ,
0, ,-32, ,
0, ,-32, ,
0, ,-32, ,
1, ,-32, ,
2, ,-32, ,
2, ,-32, ,
1, ,-32, ,
2, ,-32, ,
1, ,-32, ,
1, ,-33, ,
0, ,-33, ,
-1, ,-32, ,
-1, ,-32, ,
-2, ,-32, ,
-5, ,-32, ,
-5, ,-33, ,
-6, ,-33, ,
-6, ,-32, ,
-6, ,-32, ,
-6, ,-32, ,
-6, ,-32, ,
-7, ,-33, ,
-7, ,-33, ,
-7, ,-33, ,
-8, ,-32, ,
-8, ,-32, ,
-9, ,-32, ,
-9, ,-32, ,
-10, ,-33, ,
-12, ,-33, ,
-15, ,-32, ,
-16, ,-32, ,
-18, ,-32, ,
-18, ,-32, ,
-23, ,-32, ,
-25, ,-32, ,
-26, ,-32, ,
-28, ,-32, ,
-29, ,-32, ,
-29, ,-32, ,
-29, ,-32, ,
-29, ,-32, ,
-26, ,-32, ,
-27, ,-32, ,
-25, ,-32, ,
-24, ,-32, ,
-23, ,-32, ,
-24, ,-33, ,
-25, ,-33, ,
-25, ,-32, ,
-29, ,-33, ,
-28, ,-33, ,
-30, ,-33, ,
-31, ,-32, ,
-31, ,-32, ,
-32, ,-32, ,
-31, ,-32, ,
-32, ,-33, ,
-28, ,-33, ,
-26, ,-32, ,
-24, ,-33, ,
-20, ,-33, ,
-16, ,-32, ,
-13, ,-32, ,
-10, ,-32, ,
-9, ,-32, ,
-6, ,-33, ,
-5, ,-33, ,
-5, ,-33, ,
-5, ,-32, ,
-5, ,-32, ,
-5, ,-32, ,
-6, ,-32, ,
-6, ,-32, ,
-6, ,-32, ,
-6, ,-32, ,
-5, ,-32, ,
-5, ,-32, ,
-3, ,-32, ,
-1, ,-32, ,
-1, ,-32, ,
1, ,-32, ,
2, ,-33, ,
2, ,-33, ,
2, ,-33, ,
2, ,-33, ,
1, ,-33, ,
1, ,-33, ,
-1, ,-32, ,
-3, ,-32, ,
-4, ,-32, ,
-9, ,-32, ,
-8, ,-32, ,
-10, ,-32, ,
-12, ,-32, ,
-12, ,-32, ,
-12, ,-32, ,
-12, ,-32, ,
-13, ,-32, ,
-11, ,-32, ,
-11, ,-32, ,
-11, ,-32, ,
-11, ,-32, ,
-11, ,-32, ,
-13, ,-32, ,
-13, ,-33, ,
-16, ,-33, ,
-18, ,-32, ,
-20, ,-32, ,
-22, ,-32, ,
-26, ,-32, ,
-27, ,-32, ,
-29, ,-32, ,
-29, ,-32, ,
-28, ,-32, ,
-27, ,-32, ,
-26, ,-32, ,
-26, ,-32, ,
-25, ,-32, ,
-23, ,-32, ,
-24, ,-32, ,
-23, ,-33, ,
-23, ,-33, ,
-24, ,-32, ,
-24, ,-33, ,
-25, ,-33, ,
-26, ,-32, ,
-26, ,-32, ,
-27, ,-32, ,
-26, ,-33, ,
-28, ,-33, ,
-29, ,-32, ,
-30, ,-32, ,
-30, ,-33, ,
-32, ,-33, ,
-32, ,-33, ,
-33, ,-32, ,
-34, ,-32, ,
-35, ,-33, ,
-35, ,-33, ,
-35, ,-33, ,
-35, ,-32, ,
-35, ,-32, ,
-34, ,-32, ,
-34, ,-32, ,
-33, ,-32, ,
-34, ,-32, ,
-34, ,-32, ,
-34, ,-32, ,
-35, ,-32, ,
-35, ,-32, ,
-36, ,-32, ,
-36, ,-32, ,
-36, ,-32, ,
-35, ,-32, ,
-34, ,-32, ,
-34, ,-33, ,
-32, ,-33, ,
-30, ,-32, ,
-27, ,-32, ,
-26, ,-32, ,
-25, ,-32, ,
-25, ,-32, ,
-25, ,-32, ,
-25, ,-32, ,
-26, ,-33, ,
-28, ,-33, ,
-28, ,-33, ,
-30, ,-32, ,
-30, ,-32, ,
-31, ,-32, ,
-32, ,-32, ,
-30, ,-32, ,
-30, ,-32, ,
-29, ,-32, ,
-28, ,-32, ,
-26, ,-32, ,
-26, ,-33, ,
-24, ,-33, ,
-24, ,-32, ,
-24, ,-32, ,
-24, ,-32, ,
-24, ,-32, ,
-22, ,-32, ,
-22, ,-32, ,
-22, ,-32, ,
-20, ,-32, ,
-20, ,-32, ,
-20, ,-32, ,
-18, ,-32, ,
-17, ,-32, ,
-15, ,-32, ,
-16, ,-32, ,
-14, ,-32, ,
-14, ,-32, ,
-14, ,-32, ,
-13, ,-32, ,
-14, ,-32, ,
-12, ,-32, ,
-12, ,-32, ,
-11, ,-32, ,
-9, ,-32, ,
-9, ,-32, ,
-9, ,-32, ,
-9, ,-32, ,
-8, ,-32, ,
-9, ,-32, ,
-8, ,-32, ,
-8, ,-32, ,
-9, ,-32, ,
-8, ,-32, ,
-9, ,-32, ,
-7, ,-32, ,
-8, ,-32, ,
-5, ,-32, ,
-4, ,-32, ,
-5, ,-32, ,
-2, ,-32, ,
1, ,-32, ,
2, ,-32, ,
4, ,-32, ,
6, ,-32, ,
8, ,-32, ,
9, ,-32, ,
11, ,-32, ,
12, ,-32, ,
15, ,-32, ,
16, ,-32, ,
18, ,-32, ,
18, ,-32, ,
20, ,-32, ,
22, ,-32, ,
21, ,-32, ,
23, ,-32, ,
24, ,-33, ,
23, ,-33, ,
23, ,-33, ,
22, ,-32, ,
20, ,-32, ,
18, ,-32, ,
17, ,-33, ,
17, ,-33, ,
14, ,-32, ,
12, ,-32, ,
10, ,-32, ,
7, ,-32, ,
4, ,-32, ,
2, ,-32, ,
-1, ,-32, ,
-3, ,-32, ,
-6, ,-32, ,
-8, ,-32, ,
-10, ,-32, ,
-11, ,-33, ,
-16, ,-33, ,
-16, ,-33, ,
-18, ,-32, ,
-18, ,-32, ,
-20, ,-33, ,
-20, ,-33, ,
-20, ,-33, ,
-21, ,-32, ,
-23, ,-32, ,
-22, ,-32, ,
-24, ,-32, ,
-24, ,-32, ,
-26, ,-32, ,
-28, ,-32, ,
-28, ,-32, ,
-29, ,-32, ,
-30, ,-32, ,
-31, ,-32, ,
-31, ,-32, ,
-32, ,-32, ,
-33, ,-33, ,
-33, ,-33, ,
-34, ,-33, ,
-33, ,-32, ,
-34, ,-32, ,
-34, ,-32, ,
-33, ,-32, ,
-34, ,-32, ,
-33, ,-32, ,
-34, ,-32, ,
-33, ,-32, ,
-33, ,-32, ,
-33, ,-32, ,
-32, ,-32, ,
-31, ,-32, ,
-30, ,-32, ,
-29, ,-32, ,
-26, ,-32, ,
-25, ,-32, ,
-25, ,-32, ,
-21, ,-32, ,
-20, ,-32, ,
-19, ,-32, ,
-17, ,-32, ,
-15, ,-32, ,
-15, ,-32, ,
-14, ,-32, ,
-11, ,-32, ,
-11, ,-32, ,
-9, ,-32, ,
-8, ,-32, ,
-7, ,-32, ,
-5, ,-32, ,
-4, ,-32, ,
-2, ,-32, ,
-3, ,-32, ,
0, ,-32, ,
1, ,-32, ,
0, ,-32, ,
2, ,-32, ,
4, ,-32, ,
3, ,-32, ,
5, ,-32, ,
4, ,-32, ,
4, ,-32, ,
5, ,-32, ,
6, ,-32, ,
7, ,-32, ,
8, ,-33, ,
9, ,-33, ,
9, ,-33, ,
9, ,-32, ,
7, ,-32, ,
7, ,-32, ,
6, ,-32, ,
6, ,-32, ,
5, ,-32, ,
3, ,-32, ,
3, ,-32, ,
2, ,-32, ,
1, ,-32, ,
0, ,-33, ,
-2, ,-33, ,
-2, ,-32, ,
-3, ,-32, ,
-5, ,-32, ,
-5, ,-32, ,
-5, ,-32, ,
-5, ,-32, ,
-6, ,-33, ,
-7, ,-33, ,
-7, ,-32, ,
-7, ,-32, ,
-9, ,-32, ,
-8, ,-32, ,
-9, ,-32, ,
-9, ,-32, ,
-8, ,-33, ,
-9, ,-33, ,
-9, ,-32, ,
-8, ,-32, ,
-9, ,-32, ,
-8, ,-32, ,
-10, ,-32, ,
-11, ,-32, ,
-12, ,-32, ,
-13, ,-32, ,
-13, ,-32, ,
-15, ,-32, ,
-18, ,-32, ,
-17, ,-32, ,
-20, ,-32, ,
-22, ,-32, ,
-22, ,-32, ,
-23, ,-32, ,
-22, ,-32, ,
-25, ,-32, ,
-26, ,-32, ,
-26, ,-32, ,
-28, ,-33, ,
-29, ,-33, ,
-28, ,-33, ,
-28, ,-32, ,
-28, ,-33, ,
-27, ,-33, ,
-27, ,-32, ,
-27, ,-32, ,
-26, ,-32, ,
-26, ,-32, ,
-24, ,-32, ,
-24, ,-32, ,
-22, ,-32, ,
-21, ,-32, ,
-19, ,-32, ,
-17, ,-32, ,
-18, ,-32, ,
-14, ,-32, ,
-12, ,-32, ,
-12, ,-32, ,
-12, ,-32, ,
-10, ,-32, ,
-10, ,-32, ,
-10, ,-33, ,
-9, ,-33, ,
-10, ,-32, ,
-10, ,-32, ,
-10, ,-32, ,
-10, ,-32, ,
-10, ,-32, ,
-10, ,-32, ,
-10, ,-32, ,
-11, ,-32, ,
-11, ,-32, ,
-9, ,-32, ,
-10, ,-32, ,
-11, ,-33, ,
-11, ,-33, ,
-12, ,-32, ,
-11, ,-32, ,
-12, ,-32, ,
-13, ,-32, ,
-13, ,-33, ,
-13, ,-33, ,
-14, ,-32, ,
-14, ,-32, ,
-15, ,-32, ,
-14, ,-32, ,
-13, ,-32, ,
-14, ,-32, ,
-13, ,-32, ,
-14, ,-32, ,
-14, ,-32, ,
-13, ,-32, ,
-15, ,-32, ,
-14, ,-32, ,
-15, ,-32, ,
-16, ,-32, ,
-15, ,-32, ,
-16, ,-32, ,
-15, ,-32, ,
-15, ,-32, ,
-15, ,-32, ,
-15, ,-32, ,
-15, ,-32, ,
-15, ,-32, ,
-14, ,-32, ,
-14, ,-32, ,
-14, ,-32, ,
-14, ,-32, ,
-14, ,-32, ,
-13, ,-32, ,
-13, ,-32, ,
-14, ,-32, ,
-12, ,-32, ,
-12, ,-32, ,
-12, ,-32, ,
-10, ,-32, ,
-9, ,-32, ,
-8, ,-32, ,
-8, ,-32, ,
-6, ,-32, ,
-5, ,-32, ,
-5, ,-32, ,
-4, ,-32, ,
-3, ,-32, ,
-2, ,-32, ,
-1, ,-32, ,
-1, ,-32, ,
0, ,-32, ,
0, ,-32, ,
1, ,-32, ,
3, ,-32, ,
3, ,-32, ,
3, ,-32, ,
3, ,-32, ,
4, ,-33, ,
3, ,-33, ,
5, ,-33, ,
4, ,-32, ,
3, ,-32, ,
4, ,-32, ,
3, ,-32, ,
4, ,-32, ,
2, ,-33, ,
2, ,-33, ,
2, ,-33, ,
1, ,-32, ,
2, ,-32, ,
0, ,-32, ,
0, ,-32, ,
0, ,-32, ,
-1, ,-32, ,
-2, ,-32, ,
-2, ,-32, ,
-3, ,-32, ,
-3, ,-32, ,
-3, ,-32, ,
-5, ,-32, ,
-5, ,-32, ,
-5, ,-32, ,
-6, ,-32, ,
-6, ,-32, ,
-6, ,-32, ,
-7, ,-32, ,
-8, ,-32, ,
-8, ,-32, ,
-9, ,-32, ,
-9, ,-32, ,
-10, ,-32, ,
-11, ,-32, ,
-11, ,-32, ,
-11, ,-32, ,
-13, ,-32, ,
-14, ,-32, ,
-14, ,-32, ,
-15, ,-32, ,
-15, ,-32, ,
-14, ,-32, ,
-14, ,-32, ,
-15, ,-32, ,
-15, ,-32, ,
-14, ,-32, ,
-14, ,-32, ,
-14, ,-32, ,
-14, ,-32, ,
-13, ,-32, ,
-13, ,-32, ,
-12, ,-32, ,
-10, ,-32, ,
-10, ,-32, ,
-9, ,-32, ,
-9, ,-32, ,
-7, ,-32, ,
-5, ,-32, ,
-5, ,-32, ,
-4, ,-32, ,
-3, ,-33, ,
-2, ,-33, ,
-1, ,-33, ,
-2, ,-33, ,
0, ,-33, ,
0, ,-33, ,
0, ,-32, ,
0, ,-33, ,
-1, ,-33, ,
-2, ,-32, ,
-2, ,-33, ,
-2, ,-33, ,
-3, ,-32, ,
-3, ,-32, ,
-3, ,-32, ,
-4, ,-32, ,
-3, ,-32, ,
-3, ,-32, ,
-4, ,-32, ,
-4, ,-33, ,
-4, ,-33, ,
-4, ,-33, ,
-4, ,-32, ,
-4, ,-32, ,
-4, ,-32, ,
-4, ,-32, ,
-4, ,-32, ,
-5, ,-33, ,
-3, ,-33, ,
-2, ,-33, ,
-3, ,-32, ,
-2, ,-32, ,
-1, ,-32, ,
-1, ,-32, ,
0, ,-32, ,
-2, ,-33, ,
-2, ,-33, ,
-1, ,-33, ,
-2, ,-32, ,
-2, ,-32, ,
-2, ,-32, ,
-2, ,-32, ,
-3, ,-32, ,
-3, ,-32, ,
-3, ,-32, ,
-2, ,-33, ,
-5, ,-33, ,
-4, ,-32, ,
-4, ,-32, ,
-4, ,-32, ,
-4, ,-32, ,
-5, ,-33, ,
-5, ,-33, ,
-6, ,-33, ,
-6, ,-32, ,
-6, ,-33, ,
-6, ,-33, ,
-7, ,-32, ,
-6, ,-32, ,
-7, ,-32, ,
-7, ,-32, ,
-5, ,-32, ,
-5, ,-32, ,
-5, ,-32, ,
-4, ,-32, ,
-4, ,-32, ,
-3, ,-32, ,
-4, ,-32, ,
-2, ,-32, ,
-2, ,-33, ,
-2, ,-33, ,
-1, ,-32, ,
0, ,-32, ,
0, ,-32, ,
1, ,-32, ,
1, ,-32, ,
2, ,-32, ,
3, ,-32, ,
3, ,-32, ,
4, ,-32, ,
4, ,-32, ,
4, ,-32, ,
5, ,-32, ,
5, ,-32, ,
6, ,-32, ,
6, ,-32, ,
6, ,-32, ,
6, ,-32, ,
5, ,-32, ,
5, ,-32, ,
5, ,-32, ,
4, ,-32, ,
3, ,-32, ,
3, ,-32, ,
3, ,-32, ,
3, ,-32, ,
1, ,-32, ,
1, ,-32, ,
1, ,-32, ,
0, ,-33, ,
0, ,-33, ,
1, ,-33, ,
0, ,-32, ,
0, ,-32, ,
-1, ,-32, ,
-1, ,-32, ,
0, ,-32, ,
-1, ,-32, ,
-2, ,-32, ,
-1, ,-32, ,
-1, ,-32, ,
-1, ,-32, ,
0, ,-33, ,
0, ,-33, ,
0, ,-33, ,
0, ,-32, ,
0, ,-32, ,
1, ,-32, ,
0, ,-32, ,
1, ,-32, ,
1, ,-32, ,
1, ,-32, ,
2, ,-32, ,
1, ,-32, ,
1, ,-32, ,
3, ,-32, ,
3, ,-32, ,
3, ,-32, ,
4, ,-33, ,
4, ,-33, ,
5, ,-33, ,
5, ,-32, ,
5, ,-32, ,
5, ,-32, ,
5, ,-32, ,
5, ,-33, ,
5, ,-33, ,
5, ,-32, ,
6, ,-32, ,
6, ,-32, ,
5, ,-32, ,
5, ,-32, ,
4, ,-32, ,
5, ,-32, ,
5, ,-32, ,
5, ,-32, ,
5, ,-32, ,
4, ,-32, ,
5, ,-32, ,
4, ,-32, ,
4, ,-32, ,
4, ,-33, ,
4, ,-33, ,
2, ,-32, ,
2, ,-32, ,
3, ,-32, ,
3, ,-32, ,
3, ,-32, ,
3, ,-32, ,
3, ,-32, ,
3, ,-32, ,
3, ,-32, ,
3, ,-32, ,
2, ,-32, ,
3, ,-32, ,
3, ,-32, ,
3, ,-32, ,
3, ,-33, ,
3, ,-33, ,
2, ,-32, ,
2, ,-33, ,
2, ,-33, ,
1, ,-32, ,
2, ,-32, ,
2, ,-32, ,
2, ,-33, ,
2, ,-33, ,
1, ,-32, ,
0, ,-32, ,
0, ,-33, ,
0, ,-33, ,
0, ,-33, ,
0, ,-32, ,
-1, ,-32, ,
0, ,-32, ,
-1, ,-32, ,
-1, ,-32, ,
-2, ,-32, ,
-3, ,-32, ,
-3, ,-32, ,
-3, ,-32, ,
-3, ,-32, ,
-3, ,-32, ,
-3, ,-32, ,
-3, ,-32, ,
-4, ,-32, ,
-2, ,-32, ,
-3, ,-32, ,
-4, ,-32, ,
-3, ,-32, ,
-3, ,-32, ,
-4, ,-32, ,
-3, ,-32, ,
-4, ,-32, ,
-4, ,-32, ,
-4, ,-32, ,
-4, ,-32, ,
-4, ,-32, ,
-5, ,-33, ,
-5, ,-33, ,
-4, ,-33, ,
-4, ,-32, ,
-4, ,-32, ,
-4, ,-32, ,
-4, ,-32, ,
-4, ,-32, ,
-4, ,-32, ,
-5, ,-32, ,
-4, ,-32, ,
-4, ,-32, ,
-4, ,-32, ,
-4, ,-32, ,
-5, ,-32, ,
-4, ,-32, ,
-4, ,-32, ,
-4, ,-32, ,
-4, ,-32, ,
-4, ,-33, ,
-4, ,-33, ,
-2, ,-33, ,
-4, ,-32, ,
-4, ,-32, ,
-4, ,-32, ,
-5, ,-32, ,
-5, ,-32, ,
-5, ,-32, ,
-5, ,-32, ,
-5, ,-32, ,
-5, ,-32, ,
-7, ,-32, ,
-7, ,-32, ,
-7, ,-33, ,
-7, ,-33, ,
-8, ,-32, ,
-8, ,-32, ,
-8, ,-32, ,
-8, ,-32, ,
-8, ,-32, ,
-8, ,-32, ,
-9, ,-32, ,
-10, ,-32, ,
-10, ,-32, ,
-9, ,-32, ,
-9, ,-32, ,
-9, ,-32, ,
-8, ,-32, ,
-7, ,-32, ,
-8, ,-32, ,
-6, ,-32, ,
-8, ,-32, ,
-5, ,-32, ,
-5, ,-32, ,
-5, ,-32, ,
-4, ,-32, ,
-3, ,-32, ,
-4, ,-32, ,
0, ,-32, ,
0, ,-33, ,
-1, ,-33, ,
-1, ,-32, ,
1, ,-32, ,
0, ,-32, ,
1, ,-32, ,
2, ,-32, ,
2, ,-32, ,
1, ,-32, ,
2, ,-32, ,
3, ,-32, ,
2, ,-32, ,
2, ,-32, ,
2, ,-32, ,
0, ,-32, ,
1, ,-32, ,
1, ,-32, ,
-1, ,-32, ,
-1, ,-32, ,
-2, ,-32, ,
-2, ,-33, ,
-1, ,-33, ,
-2, ,-32, ,
-1, ,-32, ,
-3, ,-33, ,
-3, ,-33, ,
-4, ,-33, ,
-4, ,-32, ,
-3, ,-33, ,
-2, ,-33, ,
-3, ,-32, ,
-3, ,-32, ,
-4, ,-32, ,
-5, ,-32, ,
-4, ,-32, ,
-5, ,-32, ,
-4, ,-32, ,
-3, ,-32, ,
-4, ,-32, ,
-4, ,-32, ,
-4, ,-32, ,
-5, ,-32, ,
-5, ,-32, ,
-6, ,-32, ,
-5, ,-33, ,
-5, ,-33, ,
-5, ,-32, ,
-5, ,-32, ,
-5, ,-32, ,
-5, ,-32, ,
-5, ,-32, ,
-4, ,-32, ,
-4, ,-32, ,
-4, ,-32, ,
-4, ,-32, ,
-3, ,-32, ,
-3, ,-32, ,
-2, ,-32, ,
0, ,-32, ,
0, ,-32, ,
1, ,-33, ,
2, ,-33, ,
2, ,-32, ,
3, ,-32, ,
5, ,-32, ,
5, ,-32, ,
7, ,-33, ,
6, ,-33, ,
8, ,-32, ,
8, ,-32, ,
7, ,-32, ,
9, ,-32, ,
8, ,-32, ,
8, ,-32, ,
8, ,-32, ,
7, ,-32, ,
8, ,-32, ,
8, ,-32, ,
6, ,-32, ,
6, ,-32, ,
5, ,-33, ,
4, ,-33, ,
4, ,-33, ,
2, ,-32, ,
2, ,-32, ,
1, ,-32, ,
1, ,-32, ,
0, ,-32, ,
0, ,-32, ,
-1, ,-32, ,
-1, ,-32, ,
-2, ,-32, ,
-1, ,-32, ,
-2, ,-32, ,
-2, ,-32, ,
-2, ,-32, ,
-2, ,-32, ,
-1, ,-32, ,
-1, ,-32, ,
-2, ,-32, ,
-1, ,-32, ,
-1, ,-32, ,
0, ,-32, ,
0, ,-32, ,
0, ,-32, ,
0, ,-32, ,
2, ,-32, ,
1, ,-32, ,
1, ,-32, ,
2, ,-32, ,
2, ,-32, ,
2, ,-32, ,
1, ,-32, ,
1, ,-32, ,
2, ,-32, ,
1, ,-32, ,
1, ,-33, ,
1, ,-33, ,
1, ,-32, ,
1, ,-32, ,
0, ,-32, ,
0, ,-33, ,
0, ,-33, ,
0, ,-33, ,
0, ,-32, ,
0, ,-32, ,
0, ,-32, ,
0, ,-32, ,
-1, ,-32, ,
-2, ,-32, ,
-1, ,-32, ,
-1, ,-32, ,
-2, ,-32, ,
-2, ,-33, ,
-2, ,-33, ,
-2, ,-33, ,
-2, ,-32, ,
-2, ,-32, ,
-1, ,-32, ,
-1, ,-32, ,
-2, ,-32, ,
-1, ,-32, ,
0, ,-32, ,
0, ,-32, ,
-1, ,-32, ,
0, ,-32, ,
0, ,-33, ,
-1, ,-33, ,
-1, ,-32, ,
0, ,-32, ,
0, ,-32, ,
0, ,-32, ,
0, ,-32, ,
-1, ,-32, ,
-1, ,-32, ,
-1, ,-32, ,
-1, ,-32, ,
-1, ,-32, ,
-2, ,-32, ,
-2, ,-32, ,
0, ,-32, ,
-1, ,-32, ,
-1, ,-33, ,
-1, ,-33, ,
-1, ,-32, ,
-2, ,-32, ,
-1, ,-32, ,
0, ,-32, ,
-2, ,-32, ,
0, ,-32, ,
0, ,-32, ,
0, ,-32, ,
0, ,-33, ,
0, ,-33, ,
0, ,-32, ,
0, ,-32, ,
-1, ,-32, ,
-1, ,-32, ,
0, ,-32, ,
0, ,-32, ,
0, ,-32, ,
1, ,-32, ,
0, ,-32, ,
0, ,-32, ,
0, ,-32, ,
0, ,-32, ,
0, ,-32, ,
0, ,-32, ,
1, ,-32, ,
0, ,-32, ,
0, ,-32, ,
1, ,-32, ,
1, ,-32, ,
0, ,-32, ,
0, ,-32, ,
0, ,-32, ,
0, ,-32, ,
0, ,-32, ,
0, ,-32, ,
0, ,-32, ,
0, ,-33, ,
0, ,-33, ,
0, ,-33, ,
0, ,-32, ,
0, ,-32, ,
0, ,-32, ,
0, ,-32, ,
0, ,-32, ,
0, ,-32, ,
0, ,-32, ,
0, ,-32, ,
0, ,-32, ,
0, ,-32, ,
1, ,-32, ,
0, ,-33, ,
0, ,-33, ,
0, ,-33, ,
0, ,-32, ,
0, ,-32, ,
0, ,-32, ,
1, ,-32, ,
2, ,-32, ,
1, ,-32, ,
1, ,-32, ,
2, ,-32, ,
2, ,-32, ,
2, ,-32, ,
2, ,-32, ,
2, ,-32, ,
3, ,-32, ,
2, ,-32, ,
3, ,-32, ,
2, ,-32, ,
3, ,-32, ,
4, ,-32, ,
1, ,-32, ,
2, ,-32, ,
2, ,-33, ,
3, ,-33, ,
4, ,-33, ,
2, ,-33, ,
1, ,-32, ,
3, ,-32, ,
2, ,-32, ,
2, ,-32, ,
2, ,-32, ,
2, ,-32, ,
2, ,-32, ,
0, ,-32, ,
0, ,-32, ,
1, ,-32, ,
0, ,-32, ,
0, ,-32, ,
1, ,-32, ,
1, ,-32, ,
1, ,-32, ,
0, ,-32, ,
0, ,-32, ,
1, ,-32, ,
0, ,-32, ,
2, ,-32, ,
1, ,-33, ,
2, ,-33, ,
1, ,-33, ,
0, ,-32, ,
2, ,-32, ,
2, ,-32, ,
2, ,-32, ,
2, ,-32, ,
3, ,-32, ,
2, ,-32, ,
2, ,-33, ,
2, ,-33, ,
3, ,-32, ,
3, ,-32, ,
3, ,-32, ,
3, ,-32, ,
4, ,-32, ,
3, ,-32, ,
4, ,-32, ,
2, ,-32, ,
3, ,-32, ,
4, ,-33, ,
3, ,-33, ,
3, ,-32, ,
3, ,-32, ,
2, ,-32, ,
2, ,-33, ,
2, ,-33, ,
1, ,-32, ,
1, ,-32, ,
1, ,-32, ,
1, ,-32, ,
1, ,-32, ,
1, ,-32, ,
1, ,-32, ,
1, ,-32, ,
1, ,-32, ,
1, ,-32, ,
1, ,-32, ,
1, ,-32, ,
1, ,-32, ,
0, ,-32, ,
2, ,-32, ,
1, ,-33, ,
1, ,-33, ,
2, ,-32, ,
2, ,-32, ,
2, ,-32, ,
1, ,-32, ,
2, ,-32, ,
2, ,-32, ,
2, ,-33, ,
3, ,-33, ,
