raw_data/100% Glycerol, Impulsion 2Hz, Sonde 5MHz, Rampe 0.7Hz/temp0000363.CSV

Format,1.0B,
Memory Length,10000,Memory Length,10000,
IntpDistance,0,IntpDistance,0,
Trigger Address,159,Trigger Address,159,
Trigger Level,2.720E-01,Trigger Level,2.720E-01,
Source,CH1,Source,CH2,
Vertical Units,V,Vertical Units,V,
Vertical Units Div,0,Vertical Units Div,0,
Vertical Units Extend Div,16,Vertical Units Extend Div,16,
Label,,Label,,
Probe Type,0,Probe Type,0,
Probe Ratio,1.000e+00,Probe Ratio,1.000e+00,
Vertical Scale,2.000e-01,Vertical Scale,2.000e+00,
Vertical Position,0.000e+00,Vertical Position,0.000e+00,
Horizontal Units,S,Horizontal Units,S,
Horizontal Scale,5.000E-06,Horizontal Scale,5.000E-06,
Horizontal Position,2.420E-05,Horizontal Position,2.420E-05,
Horizontal Mode,Main,Horizontal Mode,Main,
SincET Mode,Real Time,SincET Mode,Real Time,
Sampling Period,5.000e-09,Sampling Period,5.000e-09,
Horizontal Old Scale,5.000E-06,Horizontal Old Scale,5.000E-06,
Horizontal Old Position,2.420E-05,Horizontal Old Position,2.420E-05,
Firmware,V1.32,Firmware,V1.32,
Mode,Fast,Mode,Fast,
Waveform Data,,Waveform Data,,
2, ,6, ,
2, ,6, ,
2, ,6, ,
2, ,6, ,
1, ,6, ,
1, ,6, ,
1, ,6, ,
1, ,6, ,
1, ,6, ,
1, ,6, ,
1, ,6, ,
1, ,6, ,
2, ,6, ,
1, ,6, ,
2, ,6, ,
2, ,6, ,
2, ,6, ,
1, ,6, ,
2, ,6, ,
2, ,6, ,
2, ,6, ,
1, ,6, ,
1, ,6, ,
1, ,6, ,
2, ,6, ,
2, ,6, ,
2, ,6, ,
1, ,6, ,
1, ,6, ,
2, ,6, ,
1, ,6, ,
2, ,6, ,
2, ,6, ,
1, ,6, ,
2, ,6, ,
2, ,6, ,
2, ,6, ,
1, ,6, ,
2, ,6, ,
1, ,6, ,
1, ,6, ,
1, ,6, ,
2, ,6, ,
2, ,6, ,
2, ,6, ,
2, ,6, ,
1, ,6, ,
2, ,6, ,
1, ,6, ,
2, ,6, ,
1, ,6, ,
1, ,6, ,
1, ,6, ,
1, ,6, ,
1, ,6, ,
2, ,6, ,
1, ,6, ,
1, ,6, ,
1, ,6, ,
0, ,6, ,
2, ,6, ,
2, ,6, ,
2, ,6, ,
2, ,6, ,
1, ,6, ,
1, ,6, ,
2, ,6, ,
2, ,6, ,
2, ,6, ,
1, ,6, ,
1, ,6, ,
2, ,6, ,
1, ,6, ,
1, ,6, ,
2, ,6, ,
1, ,6, ,
2, ,6, ,
1, ,6, ,
0, ,6, ,
2, ,6, ,
2, ,6, ,
2, ,6, ,
2, ,6, ,
2, ,6, ,
2, ,6, ,
1, ,6, ,
2, ,6, ,
2, ,6, ,
2, ,6, ,
1, ,6, ,
1, ,6, ,
1, ,6, ,
2, ,6, ,
1, ,6, ,
1, ,6, ,
1, ,6, ,
1, ,6, ,
1, ,6, ,
1, ,6, ,
1, ,6, ,
1, ,6, ,
1, ,6, ,
2, ,6, ,
2, ,6, ,
2, ,6, ,
2, ,6, ,
2, ,6, ,
1, ,6, ,
2, ,6, ,
1, ,6, ,
1, ,6, ,
2, ,6, ,
2, ,6, ,
1, ,6, ,
2, ,6, ,
2, ,6, ,
1, ,6, ,
2, ,6, ,
1, ,6, ,
1, ,6, ,
1, ,6, ,
1, ,6, ,
1, ,6, ,
1, ,6, ,
1, ,6, ,
0, ,6, ,
0, ,6, ,
1, ,6, ,
1, ,6, ,
1, ,6, ,
1, ,6, ,
1, ,6, ,
2, ,6, ,
1, ,6, ,
1, ,6, ,
1, ,6, ,
1, ,6, ,
2, ,6, ,
2, ,6, ,
1, ,6, ,
2, ,6, ,
1, ,6, ,
2, ,6, ,
1, ,6, ,
1, ,6, ,
1, ,6, ,
2, ,6, ,
2, ,6, ,
0, ,6, ,
0, ,6, ,
0, ,6, ,
2, ,6, ,
2, ,6, ,
2, ,6, ,
1, ,6, ,
1, ,6, ,
2, ,6, ,
2, ,6, ,
1, ,6, ,
2, ,6, ,
1, ,6, ,
2, ,6, ,
2, ,6, ,
1, ,6, ,
4, ,6, ,
-2, ,6, ,
0, ,6, ,
-3, ,6, ,
20, ,6, ,
68, ,6, ,
125, ,6, ,
125, ,6, ,
125, ,6, ,
122, ,6, ,
37, ,6, ,
-20, ,6, ,
54, ,6, ,
125, ,6, ,
125, ,6, ,
125, ,6, ,
125, ,6, ,
125, ,6, ,
125, ,6, ,
125, ,6, ,
125, ,6, ,
125, ,6, ,
125, ,6, ,
125, ,6, ,
125, ,6, ,
125, ,6, ,
125, ,6, ,
125, ,6, ,
125, ,6, ,
125, ,6, ,
125, ,6, ,
125, ,6, ,
125, ,6, ,
125, ,6, ,
125, ,6, ,
125, ,6, ,
125, ,6, ,
125, ,6, ,
124, ,6, ,
124, ,6, ,
122, ,6, ,
115, ,6, ,
105, ,6, ,
104, ,6, ,
98, ,6, ,
96, ,6, ,
86, ,6, ,
83, ,6, ,
79, ,6, ,
74, ,6, ,
69, ,6, ,
66, ,6, ,
63, ,6, ,
59, ,6, ,
54, ,6, ,
51, ,6, ,
51, ,6, ,
49, ,6, ,
41, ,6, ,
41, ,6, ,
39, ,6, ,
38, ,6, ,
35, ,6, ,
31, ,6, ,
32, ,6, ,
27, ,6, ,
26, ,6, ,
24, ,6, ,
23, ,6, ,
23, ,6, ,
19, ,6, ,
17, ,6, ,
17, ,6, ,
16, ,6, ,
15, ,6, ,
13, ,6, ,
11, ,6, ,
12, ,6, ,
10, ,6, ,
9, ,6, ,
8, ,6, ,
7, ,6, ,
6, ,6, ,
7, ,6, ,
5, ,6, ,
5, ,6, ,
4, ,6, ,
3, ,6, ,
4, ,6, ,
2, ,6, ,
2, ,6, ,
2, ,6, ,
1, ,6, ,
1, ,6, ,
0, ,6, ,
0, ,6, ,
-1, ,6, ,
-2, ,6, ,
-1, ,6, ,
-1, ,6, ,
-1, ,6, ,
-1, ,6, ,
-2, ,6, ,
-2, ,6, ,
-2, ,6, ,
-2, ,6, ,
-3, ,6, ,
-3, ,6, ,
-3, ,6, ,
-3, ,6, ,
-3, ,6, ,
-4, ,6, ,
-3, ,6, ,
-3, ,6, ,
-3, ,6, ,
-3, ,6, ,
-3, ,6, ,
-3, ,6, ,
-3, ,6, ,
-3, ,6, ,
-3, ,6, ,
-3, ,6, ,
-4, ,6, ,
-3, ,6, ,
-3, ,6, ,
-3, ,6, ,
-3, ,6, ,
-3, ,6, ,
-3, ,6, ,
-4, ,6, ,
-4, ,6, ,
-3, ,6, ,
-3, ,6, ,
-4, ,6, ,
-3, ,6, ,
-3, ,6, ,
-2, ,6, ,
-2, ,6, ,
-3, ,6, ,
-3, ,6, ,
-2, ,6, ,
-2, ,6, ,
-2, ,6, ,
-1, ,6, ,
-2, ,6, ,
-3, ,6, ,
-3, ,6, ,
-3, ,6, ,
-2, ,6, ,
-2, ,6, ,
-2, ,6, ,
-2, ,6, ,
-3, ,6, ,
-3, ,6, ,
-2, ,6, ,
-1, ,6, ,
0, ,6, ,
0, ,6, ,
-1, ,6, ,
-1, ,6, ,
-1, ,6, ,
-1, ,6, ,
0, ,6, ,
0, ,6, ,
-1, ,6, ,
-1, ,6, ,
0, ,6, ,
0, ,6, ,
0, ,6, ,
-1, ,6, ,
0, ,6, ,
0, ,6, ,
0, ,6, ,
0, ,6, ,
0, ,6, ,
0, ,6, ,
0, ,6, ,
0, ,6, ,
0, ,6, ,
0, ,6, ,
0, ,6, ,
0, ,6, ,
0, ,6, ,
0, ,6, ,
0, ,6, ,
0, ,6, ,
0, ,6, ,
0, ,6, ,
0, ,6, ,
0, ,6, ,
0, ,6, ,
0, ,6, ,
0, ,6, ,
0, ,6, ,
1, ,6, ,
1, ,6, ,
0, ,6, ,
0, ,6, ,
1, ,6, ,
1, ,6, ,
0, ,6, ,
0, ,6, ,
0, ,6, ,
1, ,6, ,
0, ,6, ,
0, ,6, ,
1, ,6, ,
0, ,6, ,
1, ,6, ,
0, ,6, ,
0, ,6, ,
0, ,6, ,
0, ,6, ,
1, ,6, ,
1, ,6, ,
1, ,6, ,
1, ,6, ,
1, ,6, ,
1, ,6, ,
1, ,6, ,
1, ,6, ,
1, ,6, ,
1, ,6, ,
1, ,6, ,
1, ,6, ,
1, ,6, ,
1, ,6, ,
1, ,6, ,
1, ,6, ,
1, ,6, ,
0, ,6, ,
0, ,6, ,
1, ,6, ,
1, ,6, ,
0, ,6, ,
1, ,6, ,
0, ,6, ,
2, ,6, ,
1, ,6, ,
1, ,6, ,
1, ,6, ,
1, ,6, ,
1, ,6, ,
1, ,6, ,
1, ,6, ,
1, ,6, ,
2, ,6, ,
1, ,6, ,
1, ,6, ,
1, ,6, ,
1, ,6, ,
2, ,6, ,
1, ,6, ,
1, ,6, ,
2, ,6, ,
1, ,6, ,
1, ,6, ,
1, ,6, ,
0, ,6, ,
0, ,6, ,
0, ,6, ,
1, ,6, ,
1, ,6, ,
0, ,6, ,
0, ,6, ,
0, ,6, ,
1, ,6, ,
1, ,6, ,
1, ,6, ,
1, ,6, ,
1, ,6, ,
1, ,6, ,
1, ,6, ,
0, ,6, ,
0, ,6, ,
1, ,6, ,
0, ,6, ,
0, ,6, ,
-1, ,6, ,
-3, ,6, ,
-3, ,6, ,
-4, ,6, ,
-4, ,6, ,
-4, ,6, ,
-3, ,6, ,
-2, ,6, ,
-2, ,6, ,
-2, ,6, ,
-1, ,6, ,
-2, ,6, ,
-2, ,6, ,
-2, ,6, ,
-3, ,6, ,
-4, ,6, ,
-4, ,6, ,
-7, ,6, ,
-10, ,6, ,
-11, ,6, ,
-16, ,6, ,
-16, ,6, ,
-19, ,6, ,
-20, ,6, ,
-20, ,6, ,
-21, ,6, ,
-19, ,6, ,
-19, ,6, ,
-14, ,6, ,
-12, ,6, ,
-11, ,6, ,
-9, ,6, ,
-7, ,6, ,
-7, ,6, ,
-7, ,6, ,
-7, ,6, ,
-7, ,6, ,
-7, ,6, ,
-8, ,6, ,
-7, ,6, ,
-4, ,6, ,
-3, ,6, ,
-2, ,6, ,
-1, ,6, ,
3, ,6, ,
6, ,6, ,
8, ,6, ,
8, ,6, ,
11, ,6, ,
11, ,6, ,
13, ,6, ,
13, ,6, ,
13, ,6, ,
13, ,6, ,
12, ,6, ,
11, ,6, ,
10, ,6, ,
10, ,6, ,
7, ,6, ,
7, ,6, ,
5, ,6, ,
4, ,6, ,
3, ,6, ,
3, ,6, ,
3, ,6, ,
3, ,6, ,
4, ,6, ,
4, ,6, ,
3, ,6, ,
5, ,6, ,
5, ,6, ,
5, ,6, ,
5, ,6, ,
5, ,6, ,
5, ,6, ,
5, ,6, ,
6, ,6, ,
6, ,6, ,
6, ,6, ,
6, ,6, ,
8, ,6, ,
7, ,6, ,
8, ,6, ,
8, ,6, ,
9, ,6, ,
7, ,6, ,
9, ,6, ,
8, ,6, ,
8, ,6, ,
8, ,6, ,
8, ,6, ,
7, ,6, ,
5, ,6, ,
5, ,6, ,
3, ,6, ,
1, ,6, ,
-6, ,6, ,
-13, ,6, ,
-22, ,6, ,
-32, ,6, ,
-60, ,6, ,
-76, ,6, ,
-94, ,6, ,
-106, ,6, ,
-125, ,6, ,
-126, ,6, ,
-125, ,6, ,
-122, ,6, ,
-104, ,6, ,
-92, ,6, ,
-80, ,6, ,
-66, ,6, ,
-39, ,6, ,
-29, ,6, ,
-20, ,6, ,
-8, ,6, ,
6, ,6, ,
13, ,6, ,
19, ,6, ,
24, ,6, ,
30, ,6, ,
32, ,6, ,
33, ,6, ,
33, ,6, ,
35, ,6, ,
35, ,6, ,
34, ,6, ,
34, ,6, ,
32, ,6, ,
30, ,6, ,
30, ,6, ,
29, ,6, ,
26, ,6, ,
27, ,6, ,
27, ,6, ,
27, ,6, ,
29, ,6, ,
29, ,6, ,
31, ,6, ,
31, ,6, ,
34, ,6, ,
35, ,6, ,
35, ,6, ,
35, ,6, ,
35, ,6, ,
35, ,6, ,
35, ,6, ,
34, ,6, ,
32, ,6, ,
31, ,6, ,
30, ,6, ,
30, ,6, ,
29, ,6, ,
27, ,6, ,
27, ,6, ,
25, ,6, ,
24, ,6, ,
24, ,6, ,
22, ,6, ,
22, ,6, ,
21, ,6, ,
20, ,6, ,
19, ,6, ,
19, ,6, ,
17, ,6, ,
17, ,6, ,
17, ,6, ,
16, ,6, ,
14, ,6, ,
14, ,6, ,
14, ,6, ,
12, ,6, ,
12, ,6, ,
12, ,6, ,
10, ,6, ,
10, ,6, ,
8, ,6, ,
6, ,6, ,
5, ,6, ,
3, ,6, ,
-5, ,6, ,
-11, ,6, ,
-21, ,6, ,
-33, ,6, ,
-65, ,6, ,
-85, ,6, ,
-106, ,6, ,
-125, ,6, ,
-126, ,6, ,
-126, ,6, ,
-126, ,6, ,
-126, ,6, ,
-126, ,6, ,
-126, ,6, ,
-126, ,6, ,
-126, ,6, ,
-116, ,6, ,
-103, ,6, ,
-92, ,6, ,
-77, ,6, ,
-54, ,6, ,
-42, ,6, ,
-32, ,6, ,
-24, ,6, ,
-5, ,6, ,
1, ,6, ,
7, ,6, ,
11, ,6, ,
15, ,6, ,
15, ,6, ,
15, ,6, ,
13, ,6, ,
6, ,6, ,
2, ,6, ,
-3, ,6, ,
-7, ,6, ,
-18, ,6, ,
-23, ,6, ,
-25, ,6, ,
-30, ,6, ,
-33, ,6, ,
-33, ,6, ,
-34, ,6, ,
-34, ,6, ,
-35, ,6, ,
-35, ,6, ,
-35, ,6, ,
-37, ,6, ,
-40, ,6, ,
-42, ,6, ,
-44, ,6, ,
-46, ,6, ,
-51, ,6, ,
-54, ,6, ,
-57, ,6, ,
-60, ,6, ,
-63, ,6, ,
-62, ,6, ,
-66, ,6, ,
-67, ,6, ,
-68, ,6, ,
-73, ,6, ,
-74, ,6, ,
-76, ,6, ,
-82, ,6, ,
-84, ,6, ,
-88, ,6, ,
-89, ,6, ,
-95, ,6, ,
-95, ,6, ,
-98, ,6, ,
-100, ,6, ,
-102, ,6, ,
-102, ,6, ,
-103, ,6, ,
-104, ,6, ,
-105, ,6, ,
-105, ,6, ,
-106, ,6, ,
-106, ,6, ,
-105, ,6, ,
-105, ,6, ,
-104, ,6, ,
-103, ,6, ,
-98, ,6, ,
-97, ,6, ,
-93, ,6, ,
-91, ,6, ,
-80, ,6, ,
-74, ,6, ,
-73, ,6, ,
-64, ,6, ,
-51, ,6, ,
-46, ,6, ,
-35, ,6, ,
-28, ,6, ,
-10, ,6, ,
1, ,6, ,
10, ,6, ,
21, ,6, ,
40, ,6, ,
49, ,6, ,
59, ,6, ,
67, ,6, ,
81, ,6, ,
90, ,6, ,
94, ,6, ,
99, ,6, ,
106, ,6, ,
107, ,6, ,
110, ,6, ,
110, ,6, ,
110, ,6, ,
110, ,6, ,
108, ,6, ,
106, ,6, ,
101, ,6, ,
98, ,6, ,
94, ,6, ,
88, ,6, ,
78, ,6, ,
72, ,6, ,
64, ,6, ,
59, ,6, ,
45, ,6, ,
36, ,6, ,
29, ,6, ,
22, ,6, ,
5, ,6, ,
-2, ,6, ,
-10, ,6, ,
-17, ,6, ,
-33, ,6, ,
-40, ,6, ,
-47, ,6, ,
-57, ,6, ,
-71, ,6, ,
-78, ,6, ,
-85, ,6, ,
-90, ,6, ,
-104, ,6, ,
-108, ,6, ,
-113, ,6, ,
-118, ,6, ,
-126, ,6, ,
-126, ,6, ,
-126, ,6, ,
-126, ,6, ,
-126, ,6, ,
-126, ,6, ,
-126, ,6, ,
-126, ,6, ,
-126, ,6, ,
-126, ,6, ,
-126, ,6, ,
-126, ,6, ,
-126, ,6, ,
-126, ,6, ,
-125, ,6, ,
-120, ,6, ,
-106, ,6, ,
-100, ,6, ,
-94, ,6, ,
-86, ,6, ,
-74, ,6, ,
-66, ,6, ,
-60, ,6, ,
-56, ,6, ,
-43, ,6, ,
-38, ,6, ,
-35, ,6, ,
-30, ,6, ,
-22, ,6, ,
-20, ,6, ,
-16, ,6, ,
-12, ,6, ,
-9, ,6, ,
-5, ,6, ,
-4, ,6, ,
-2, ,6, ,
1, ,6, ,
3, ,6, ,
5, ,6, ,
5, ,6, ,
8, ,6, ,
9, ,6, ,
9, ,6, ,
12, ,6, ,
16, ,6, ,
18, ,6, ,
22, ,6, ,
23, ,6, ,
28, ,6, ,
31, ,6, ,
33, ,6, ,
35, ,6, ,
39, ,6, ,
40, ,6, ,
41, ,6, ,
43, ,6, ,
45, ,6, ,
47, ,6, ,
49, ,6, ,
50, ,6, ,
54, ,6, ,
52, ,6, ,
57, ,6, ,
57, ,6, ,
61, ,6, ,
64, ,6, ,
64, ,6, ,
67, ,6, ,
69, ,6, ,
69, ,6, ,
71, ,6, ,
70, ,6, ,
74, ,6, ,
74, ,6, ,
74, ,6, ,
74, ,6, ,
73, ,6, ,
71, ,6, ,
72, ,6, ,
69, ,6, ,
65, ,6, ,
63, ,6, ,
61, ,6, ,
58, ,6, ,
51, ,6, ,
48, ,6, ,
46, ,6, ,
41, ,6, ,
34, ,6, ,
34, ,6, ,
28, ,6, ,
27, ,6, ,
20, ,6, ,
17, ,6, ,
15, ,6, ,
12, ,6, ,
9, ,6, ,
7, ,6, ,
5, ,6, ,
4, ,6, ,
-1, ,6, ,
-3, ,6, ,
-5, ,6, ,
-6, ,6, ,
-8, ,6, ,
-8, ,6, ,
-10, ,6, ,
-10, ,6, ,
-11, ,6, ,
-14, ,6, ,
-13, ,6, ,
-14, ,6, ,
-15, ,6, ,
-15, ,6, ,
-16, ,6, ,
-16, ,6, ,
-16, ,6, ,
-17, ,6, ,
-17, ,6, ,
-17, ,6, ,
-17, ,6, ,
-17, ,6, ,
-17, ,6, ,
-17, ,6, ,
-16, ,6, ,
-16, ,6, ,
-15, ,6, ,
-15, ,6, ,
-15, ,6, ,
-14, ,6, ,
-14, ,6, ,
-14, ,6, ,
-14, ,6, ,
-15, ,6, ,
-15, ,6, ,
-16, ,6, ,
-17, ,6, ,
-18, ,6, ,
-20, ,6, ,
-19, ,6, ,
-22, ,6, ,
-24, ,6, ,
-24, ,6, ,
-25, ,6, ,
-26, ,6, ,
-26, ,6, ,
-28, ,6, ,
-28, ,6, ,
-28, ,6, ,
-30, ,6, ,
-30, ,6, ,
-31, ,6, ,
-31, ,6, ,
-31, ,6, ,
-32, ,6, ,
-32, ,6, ,
-33, ,6, ,
-35, ,6, ,
-33, ,6, ,
-35, ,6, ,
-36, ,6, ,
-36, ,6, ,
-37, ,6, ,
-37, ,6, ,
-40, ,6, ,
-41, ,6, ,
-41, ,6, ,
-44, ,6, ,
-47, ,6, ,
-48, ,6, ,
-49, ,6, ,
-49, ,6, ,
-49, ,6, ,
-53, ,6, ,
-53, ,6, ,
-54, ,6, ,
-54, ,6, ,
-53, ,6, ,
-54, ,6, ,
-54, ,6, ,
-53, ,6, ,
-52, ,6, ,
-52, ,6, ,
-51, ,6, ,
-49, ,6, ,
-48, ,6, ,
-49, ,6, ,
-46, ,6, ,
-43, ,6, ,
-42, ,6, ,
-37, ,6, ,
-38, ,6, ,
-33, ,6, ,
-29, ,6, ,
-24, ,6, ,
-21, ,6, ,
-16, ,6, ,
-13, ,6, ,
-10, ,6, ,
-5, ,6, ,
1, ,6, ,
6, ,6, ,
9, ,6, ,
11, ,6, ,
20, ,6, ,
21, ,6, ,
28, ,6, ,
30, ,6, ,
33, ,6, ,
34, ,6, ,
35, ,6, ,
35, ,6, ,
34, ,6, ,
34, ,6, ,
32, ,6, ,
30, ,6, ,
25, ,6, ,
22, ,6, ,
20, ,6, ,
17, ,6, ,
9, ,6, ,
5, ,6, ,
0, ,6, ,
-3, ,6, ,
-12, ,6, ,
-15, ,6, ,
-19, ,6, ,
-22, ,6, ,
-28, ,6, ,
-31, ,6, ,
-32, ,6, ,
-35, ,6, ,
-36, ,6, ,
-35, ,6, ,
-36, ,6, ,
-34, ,6, ,
-32, ,6, ,
-32, ,6, ,
-29, ,6, ,
-27, ,6, ,
-22, ,6, ,
-17, ,6, ,
-14, ,6, ,
-9, ,6, ,
0, ,6, ,
2, ,6, ,
6, ,6, ,
11, ,6, ,
18, ,6, ,
23, ,6, ,
25, ,6, ,
28, ,6, ,
37, ,6, ,
37, ,6, ,
41, ,6, ,
42, ,6, ,
46, ,6, ,
48, ,6, ,
49, ,6, ,
49, ,6, ,
49, ,6, ,
49, ,6, ,
49, ,6, ,
47, ,6, ,
46, ,6, ,
44, ,6, ,
44, ,6, ,
44, ,6, ,
43, ,6, ,
41, ,6, ,
41, ,6, ,
40, ,6, ,
39, ,6, ,
39, ,6, ,
37, ,6, ,
37, ,6, ,
37, ,6, ,
37, ,6, ,
37, ,6, ,
37, ,6, ,
38, ,6, ,
38, ,6, ,
37, ,6, ,
39, ,6, ,
39, ,6, ,
39, ,6, ,
40, ,6, ,
40, ,6, ,
39, ,6, ,
40, ,6, ,
40, ,6, ,
40, ,6, ,
39, ,6, ,
37, ,6, ,
37, ,6, ,
36, ,6, ,
36, ,6, ,
36, ,6, ,
35, ,6, ,
35, ,6, ,
35, ,6, ,
34, ,6, ,
34, ,6, ,
32, ,6, ,
29, ,6, ,
29, ,6, ,
27, ,6, ,
25, ,6, ,
20, ,6, ,
18, ,6, ,
15, ,6, ,
12, ,6, ,
6, ,6, ,
3, ,6, ,
-1, ,6, ,
-3, ,6, ,
-8, ,6, ,
-13, ,6, ,
-15, ,6, ,
-18, ,6, ,
-26, ,6, ,
-26, ,6, ,
-28, ,6, ,
-31, ,6, ,
-34, ,6, ,
-35, ,6, ,
-34, ,6, ,
-35, ,6, ,
-32, ,6, ,
-29, ,6, ,
-29, ,6, ,
-24, ,6, ,
-18, ,6, ,
-14, ,6, ,
-9, ,6, ,
-6, ,6, ,
4, ,6, ,
9, ,6, ,
15, ,6, ,
18, ,6, ,
26, ,6, ,
30, ,6, ,
33, ,6, ,
35, ,6, ,
37, ,6, ,
39, ,6, ,
39, ,6, ,
37, ,6, ,
35, ,6, ,
33, ,6, ,
30, ,6, ,
27, ,6, ,
19, ,6, ,
15, ,6, ,
9, ,6, ,
3, ,6, ,
-7, ,6, ,
-13, ,6, ,
-18, ,6, ,
-23, ,6, ,
-31, ,6, ,
-35, ,6, ,
-39, ,6, ,
-41, ,6, ,
-45, ,6, ,
-47, ,6, ,
-47, ,6, ,
-47, ,6, ,
-47, ,6, ,
-46, ,6, ,
-46, ,6, ,
-45, ,6, ,
-42, ,6, ,
-41, ,6, ,
-38, ,6, ,
-39, ,6, ,
-35, ,6, ,
-35, ,6, ,
-35, ,6, ,
-34, ,6, ,
-35, ,6, ,
-35, ,6, ,
-35, ,6, ,
-35, ,6, ,
-38, ,6, ,
-38, ,6, ,
-40, ,6, ,
-40, ,6, ,
-45, ,6, ,
-47, ,6, ,
-50, ,6, ,
-52, ,6, ,
-57, ,6, ,
-56, ,6, ,
-60, ,6, ,
-61, ,6, ,
-62, ,6, ,
-63, ,6, ,
-63, ,6, ,
-63, ,6, ,
-61, ,6, ,
-59, ,6, ,
-57, ,6, ,
-54, ,6, ,
-51, ,6, ,
-46, ,6, ,
-41, ,6, ,
-39, ,6, ,
-31, ,6, ,
-26, ,6, ,
-22, ,6, ,
-17, ,6, ,
-8, ,6, ,
-4, ,6, ,
0, ,6, ,
5, ,6, ,
11, ,6, ,
16, ,6, ,
19, ,6, ,
22, ,6, ,
28, ,6, ,
28, ,6, ,
33, ,6, ,
33, ,6, ,
35, ,6, ,
35, ,6, ,
35, ,6, ,
35, ,6, ,
36, ,6, ,
35, ,6, ,
35, ,6, ,
35, ,6, ,
35, ,6, ,
35, ,6, ,
34, ,6, ,
34, ,6, ,
33, ,6, ,
32, ,6, ,
30, ,6, ,
30, ,6, ,
29, ,6, ,
27, ,6, ,
26, ,6, ,
25, ,6, ,
24, ,6, ,
22, ,6, ,
23, ,6, ,
20, ,6, ,
19, ,6, ,
20, ,6, ,
17, ,6, ,
16, ,6, ,
15, ,6, ,
14, ,6, ,
12, ,6, ,
11, ,6, ,
9, ,6, ,
7, ,6, ,
5, ,6, ,
5, ,6, ,
4, ,6, ,
2, ,6, ,
0, ,6, ,
-1, ,6, ,
-5, ,6, ,
-5, ,6, ,
-8, ,6, ,
-10, ,6, ,
-11, ,6, ,
-13, ,6, ,
-15, ,6, ,
-16, ,6, ,
-18, ,6, ,
-21, ,6, ,
-23, ,6, ,
-22, ,6, ,
-26, ,6, ,
-27, ,6, ,
-27, ,6, ,
-28, ,6, ,
-30, ,6, ,
-30, ,6, ,
-30, ,6, ,
-31, ,6, ,
-30, ,6, ,
-31, ,6, ,
-30, ,6, ,
-31, ,6, ,
-32, ,6, ,
-30, ,6, ,
-32, ,6, ,
-32, ,6, ,
-31, ,6, ,
-32, ,6, ,
-31, ,6, ,
-32, ,6, ,
-33, ,6, ,
-33, ,6, ,
-34, ,6, ,
-34, ,6, ,
-35, ,6, ,
-35, ,6, ,
-35, ,6, ,
-36, ,6, ,
-36, ,6, ,
-35, ,6, ,
-35, ,6, ,
-35, ,6, ,
-34, ,6, ,
-33, ,6, ,
-32, ,6, ,
-30, ,6, ,
-29, ,6, ,
-25, ,6, ,
-24, ,6, ,
-20, ,6, ,
-17, ,6, ,
-15, ,6, ,
-11, ,6, ,
-10, ,6, ,
-5, ,6, ,
-2, ,6, ,
-1, ,6, ,
3, ,6, ,
6, ,6, ,
7, ,6, ,
10, ,6, ,
10, ,6, ,
13, ,6, ,
15, ,6, ,
15, ,6, ,
16, ,6, ,
16, ,6, ,
17, ,6, ,
17, ,6, ,
16, ,6, ,
16, ,6, ,
16, ,6, ,
16, ,6, ,
16, ,6, ,
18, ,6, ,
17, ,6, ,
20, ,6, ,
20, ,6, ,
21, ,6, ,
22, ,6, ,
24, ,6, ,
24, ,6, ,
26, ,6, ,
28, ,6, ,
29, ,6, ,
28, ,6, ,
30, ,6, ,
31, ,6, ,
32, ,6, ,
32, ,6, ,
32, ,6, ,
31, ,6, ,
31, ,6, ,
30, ,6, ,
26, ,6, ,
26, ,6, ,
24, ,6, ,
22, ,6, ,
19, ,6, ,
16, ,6, ,
15, ,6, ,
10, ,6, ,
5, ,6, ,
4, ,6, ,
0, ,6, ,
-1, ,6, ,
-6, ,6, ,
-8, ,6, ,
-7, ,6, ,
-11, ,6, ,
-12, ,6, ,
-12, ,6, ,
-13, ,6, ,
-13, ,6, ,
-12, ,6, ,
-13, ,6, ,
-12, ,6, ,
-13, ,6, ,
-10, ,6, ,
-8, ,6, ,
-9, ,6, ,
-7, ,6, ,
-5, ,6, ,
-6, ,6, ,
-4, ,6, ,
-4, ,6, ,
-1, ,6, ,
-1, ,6, ,
-1, ,6, ,
-1, ,6, ,
-1, ,6, ,
-3, ,6, ,
-3, ,6, ,
-4, ,6, ,
-5, ,6, ,
-5, ,6, ,
-7, ,6, ,
-6, ,6, ,
-7, ,6, ,
-8, ,6, ,
-9, ,6, ,
-9, ,6, ,
-11, ,6, ,
-11, ,6, ,
-11, ,6, ,
-11, ,6, ,
-12, ,6, ,
-12, ,6, ,
-12, ,6, ,
-12, ,6, ,
-11, ,6, ,
-11, ,6, ,
-11, ,6, ,
-10, ,6, ,
-11, ,6, ,
-11, ,6, ,
-10, ,6, ,
-10, ,6, ,
-10, ,6, ,
-9, ,6, ,
-8, ,6, ,
-8, ,6, ,
-7, ,6, ,
-8, ,6, ,
-8, ,6, ,
-8, ,6, ,
-7, ,6, ,
-7, ,6, ,
-7, ,6, ,
-7, ,6, ,
-7, ,6, ,
-8, ,6, ,
-6, ,6, ,
-6, ,6, ,
-7, ,6, ,
-7, ,6, ,
-6, ,6, ,
-6, ,6, ,
-5, ,6, ,
-5, ,6, ,
-5, ,6, ,
-5, ,6, ,
-4, ,6, ,
-4, ,6, ,
-4, ,6, ,
-3, ,6, ,
-3, ,6, ,
-4, ,6, ,
-2, ,6, ,
-2, ,6, ,
-2, ,6, ,
-1, ,6, ,
-1, ,6, ,
-1, ,6, ,
-1, ,6, ,
0, ,6, ,
0, ,6, ,
0, ,6, ,
-1, ,6, ,
-1, ,6, ,
-2, ,6, ,
-1, ,6, ,
-2, ,6, ,
-1, ,6, ,
-2, ,6, ,
-1, ,6, ,
-2, ,6, ,
-2, ,6, ,
-2, ,6, ,
-1, ,6, ,
-2, ,6, ,
-2, ,6, ,
-3, ,6, ,
-3, ,6, ,
-2, ,6, ,
-1, ,6, ,
-2, ,6, ,
-2, ,6, ,
-2, ,6, ,
-3, ,6, ,
-1, ,6, ,
-2, ,6, ,
-1, ,6, ,
-1, ,6, ,
-2, ,6, ,
-1, ,6, ,
-1, ,6, ,
-1, ,6, ,
-1, ,6, ,
-2, ,6, ,
0, ,6, ,
0, ,6, ,
0, ,6, ,
2, ,6, ,
2, ,6, ,
1, ,6, ,
2, ,6, ,
3, ,6, ,
3, ,6, ,
3, ,6, ,
3, ,6, ,
4, ,6, ,
4, ,6, ,
3, ,6, ,
5, ,6, ,
4, ,6, ,
4, ,6, ,
5, ,6, ,
5, ,6, ,
6, ,6, ,
5, ,6, ,
6, ,6, ,
6, ,6, ,
6, ,6, ,
6, ,6, ,
7, ,6, ,
7, ,6, ,
7, ,6, ,
9, ,6, ,
9, ,6, ,
8, ,6, ,
7, ,6, ,
8, ,6, ,
9, ,6, ,
9, ,6, ,
9, ,6, ,
9, ,6, ,
8, ,6, ,
10, ,6, ,
10, ,6, ,
9, ,6, ,
9, ,6, ,
9, ,6, ,
9, ,6, ,
9, ,6, ,
8, ,6, ,
8, ,6, ,
6, ,6, ,
7, ,6, ,
6, ,6, ,
6, ,6, ,
6, ,6, ,
6, ,6, ,
5, ,6, ,
5, ,6, ,
5, ,6, ,
4, ,6, ,
4, ,6, ,
3, ,6, ,
4, ,6, ,
4, ,6, ,
4, ,6, ,
4, ,6, ,
4, ,6, ,
4, ,6, ,
4, ,6, ,
3, ,6, ,
5, ,6, ,
5, ,6, ,
5, ,6, ,
5, ,6, ,
4, ,6, ,
5, ,6, ,
5, ,6, ,
4, ,6, ,
4, ,6, ,
3, ,6, ,
3, ,6, ,
3, ,6, ,
3, ,6, ,
2, ,6, ,
1, ,6, ,
0, ,6, ,
0, ,6, ,
-1, ,6, ,
-2, ,6, ,
-1, ,6, ,
-3, ,6, ,
-4, ,6, ,
-5, ,6, ,
-5, ,6, ,
-6, ,6, ,
-6, ,6, ,
-7, ,6, ,
-7, ,6, ,
-7, ,6, ,
-8, ,6, ,
-7, ,6, ,
-7, ,6, ,
-6, ,6, ,
-6, ,6, ,
-7, ,6, ,
-7, ,6, ,
-7, ,6, ,
-5, ,6, ,
-4, ,6, ,
-2, ,6, ,
-1, ,6, ,
0, ,6, ,
0, ,6, ,
1, ,6, ,
0, ,6, ,
3, ,6, ,
4, ,6, ,
3, ,6, ,
6, ,6, ,
6, ,6, ,
6, ,6, ,
6, ,6, ,
6, ,6, ,
7, ,6, ,
8, ,6, ,
10, ,6, ,
10, ,6, ,
9, ,6, ,
9, ,6, ,
9, ,6, ,
8, ,6, ,
7, ,6, ,
10, ,6, ,
7, ,6, ,
7, ,6, ,
6, ,6, ,
5, ,6, ,
5, ,6, ,
5, ,6, ,
4, ,6, ,
4, ,6, ,
1, ,6, ,
2, ,6, ,
1, ,6, ,
1, ,6, ,
0, ,6, ,
-1, ,6, ,
-1, ,6, ,
-1, ,6, ,
-2, ,6, ,
-2, ,6, ,
-2, ,6, ,
-4, ,6, ,
-3, ,6, ,
-2, ,6, ,
-4, ,6, ,
-3, ,6, ,
-3, ,6, ,
-4, ,6, ,
-3, ,6, ,
-4, ,6, ,
-3, ,6, ,
-4, ,6, ,
-2, ,6, ,
-3, ,6, ,
-4, ,6, ,
-2, ,6, ,
-1, ,6, ,
-2, ,6, ,
-1, ,6, ,
-2, ,6, ,
-1, ,6, ,
0, ,6, ,
-1, ,6, ,
0, ,6, ,
1, ,6, ,
1, ,6, ,
1, ,6, ,
1, ,6, ,
1, ,6, ,
2, ,6, ,
2, ,6, ,
1, ,6, ,
3, ,6, ,
3, ,6, ,
3, ,6, ,
3, ,6, ,
3, ,6, ,
3, ,6, ,
3, ,6, ,
3, ,6, ,
1, ,6, ,
1, ,6, ,
0, ,6, ,
0, ,6, ,
0, ,6, ,
-2, ,6, ,
-2, ,6, ,
-2, ,6, ,
-3, ,6, ,
-5, ,6, ,
-5, ,6, ,
-5, ,6, ,
-7, ,6, ,
-6, ,6, ,
-6, ,6, ,
-7, ,6, ,
-7, ,6, ,
-7, ,6, ,
-6, ,6, ,
-7, ,6, ,
-6, ,6, ,
-5, ,6, ,
-5, ,6, ,
-4, ,6, ,
-4, ,6, ,
-4, ,6, ,
-2, ,6, ,
-2, ,6, ,
-1, ,6, ,
1, ,6, ,
1, ,6, ,
4, ,6, ,
5, ,6, ,
5, ,6, ,
6, ,6, ,
7, ,6, ,
8, ,6, ,
9, ,6, ,
8, ,6, ,
9, ,6, ,
10, ,6, ,
10, ,6, ,
10, ,6, ,
10, ,6, ,
9, ,6, ,
9, ,6, ,
8, ,6, ,
7, ,6, ,
7, ,6, ,
5, ,6, ,
5, ,6, ,
3, ,6, ,
0, ,6, ,
0, ,6, ,
-3, ,6, ,
-3, ,6, ,
-6, ,6, ,
-8, ,6, ,
-8, ,6, ,
-11, ,6, ,
-13, ,6, ,
-12, ,6, ,
-15, ,6, ,
-16, ,6, ,
-18, ,6, ,
-19, ,6, ,
-20, ,6, ,
-20, ,6, ,
-20, ,6, ,
-21, ,6, ,
-20, ,6, ,
-20, ,6, ,
-19, ,6, ,
-19, ,6, ,
-19, ,6, ,
-17, ,6, ,
-16, ,6, ,
-15, ,6, ,
-14, ,6, ,
-12, ,6, ,
-9, ,6, ,
-7, ,6, ,
-6, ,6, ,
-5, ,6, ,
-2, ,6, ,
1, ,6, ,
0, ,6, ,
3, ,6, ,
6, ,6, ,
6, ,6, ,
8, ,6, ,
8, ,6, ,
9, ,6, ,
11, ,6, ,
11, ,6, ,
12, ,6, ,
13, ,6, ,
12, ,6, ,
12, ,6, ,
11, ,6, ,
12, ,6, ,
12, ,6, ,
11, ,6, ,
10, ,6, ,
8, ,6, ,
8, ,6, ,
6, ,6, ,
7, ,6, ,
6, ,6, ,
5, ,6, ,
5, ,6, ,
3, ,6, ,
3, ,6, ,
2, ,6, ,
2, ,6, ,
0, ,6, ,
1, ,6, ,
1, ,6, ,
0, ,6, ,
0, ,6, ,
0, ,6, ,
0, ,6, ,
1, ,6, ,
0, ,6, ,
0, ,6, ,
1, ,6, ,
2, ,6, ,
2, ,6, ,
3, ,6, ,
3, ,6, ,
4, ,6, ,
5, ,6, ,
5, ,6, ,
9, ,6, ,
8, ,6, ,
8, ,6, ,
10, ,6, ,
10, ,6, ,
11, ,6, ,
11, ,6, ,
13, ,6, ,
13, ,6, ,
13, ,6, ,
13, ,6, ,
13, ,6, ,
15, ,6, ,
15, ,6, ,
14, ,6, ,
15, ,6, ,
15, ,6, ,
15, ,6, ,
15, ,6, ,
15, ,6, ,
15, ,6, ,
15, ,6, ,
15, ,6, ,
13, ,6, ,
14, ,6, ,
13, ,6, ,
13, ,6, ,
13, ,6, ,
12, ,6, ,
12, ,6, ,
10, ,6, ,
9, ,6, ,
10, ,6, ,
8, ,6, ,
8, ,6, ,
7, ,6, ,
5, ,6, ,
5, ,6, ,
5, ,6, ,
4, ,6, ,
4, ,6, ,
3, ,6, ,
3, ,6, ,
2, ,6, ,
1, ,6, ,
1, ,6, ,
0, ,6, ,
-1, ,6, ,
-1, ,6, ,
-2, ,6, ,
-1, ,6, ,
-2, ,6, ,
-4, ,6, ,
-3, ,6, ,
-4, ,6, ,
-4, ,6, ,
-4, ,6, ,
-5, ,6, ,
-5, ,6, ,
-5, ,6, ,
-5, ,6, ,
-5, ,6, ,
-5, ,6, ,
-5, ,6, ,
-7, ,6, ,
-6, ,6, ,
-6, ,6, ,
-6, ,6, ,
-7, ,6, ,
-6, ,6, ,
-6, ,6, ,
-5, ,6, ,
-5, ,6, ,
-5, ,6, ,
-5, ,6, ,
-4, ,6, ,
-4, ,6, ,
-4, ,6, ,
-4, ,6, ,
-3, ,6, ,
-3, ,6, ,
-4, ,6, ,
-2, ,6, ,
-2, ,6, ,
-2, ,6, ,
-1, ,6, ,
0, ,6, ,
0, ,6, ,
0, ,6, ,
0, ,6, ,
0, ,6, ,
1, ,6, ,
1, ,6, ,
1, ,6, ,
1, ,6, ,
0, ,6, ,
1, ,6, ,
0, ,6, ,
1, ,6, ,
1, ,6, ,
0, ,6, ,
1, ,6, ,
1, ,6, ,
1, ,6, ,
1, ,6, ,
0, ,6, ,
0, ,6, ,
1, ,6, ,
0, ,6, ,
0, ,6, ,
0, ,6, ,
1, ,6, ,
2, ,6, ,
1, ,6, ,
2, ,6, ,
2, ,6, ,
2, ,6, ,
2, ,6, ,
3, ,6, ,
3, ,6, ,
3, ,6, ,
3, ,6, ,
4, ,6, ,
