raw_data/100% Glycerol, Impulsion 2Hz, Sonde 5MHz, Rampe 0.7Hz/temp0000177.CSV

Format,1.0B,
Memory Length,10000,Memory Length,10000,
IntpDistance,0,IntpDistance,0,
Trigger Address,159,Trigger Address,159,
Trigger Level,2.720E-01,Trigger Level,2.720E-01,
Source,CH1,Source,CH2,
Vertical Units,V,Vertical Units,V,
Vertical Units Div,0,Vertical Units Div,0,
Vertical Units Extend Div,16,Vertical Units Extend Div,16,
Label,,Label,,
Probe Type,0,Probe Type,0,
Probe Ratio,1.000e+00,Probe Ratio,1.000e+00,
Vertical Scale,2.000e-01,Vertical Scale,2.000e+00,
Vertical Position,0.000e+00,Vertical Position,0.000e+00,
Horizontal Units,S,Horizontal Units,S,
Horizontal Scale,5.000E-06,Horizontal Scale,5.000E-06,
Horizontal Position,2.420E-05,Horizontal Position,2.420E-05,
Horizontal Mode,Main,Horizontal Mode,Main,
SincET Mode,Real Time,SincET Mode,Real Time,
Sampling Period,5.000e-09,Sampling Period,5.000e-09,
Horizontal Old Scale,5.000E-06,Horizontal Old Scale,5.000E-06,
Horizontal Old Position,2.420E-05,Horizontal Old Position,2.420E-05,
Firmware,V1.32,Firmware,V1.32,
Mode,Fast,Mode,Fast,
Waveform Data,,Waveform Data,,
1, ,26, ,
1, ,26, ,
2, ,26, ,
1, ,26, ,
1, ,26, ,
2, ,26, ,
1, ,26, ,
2, ,26, ,
1, ,26, ,
2, ,26, ,
0, ,26, ,
2, ,26, ,
2, ,26, ,
1, ,26, ,
1, ,26, ,
1, ,26, ,
0, ,26, ,
0, ,26, ,
0, ,26, ,
1, ,26, ,
2, ,26, ,
2, ,26, ,
0, ,26, ,
1, ,26, ,
1, ,26, ,
1, ,26, ,
1, ,26, ,
0, ,27, ,
2, ,26, ,
1, ,26, ,
1, ,26, ,
1, ,26, ,
1, ,26, ,
2, ,27, ,
1, ,26, ,
1, ,26, ,
2, ,26, ,
1, ,26, ,
1, ,26, ,
2, ,26, ,
2, ,26, ,
1, ,27, ,
1, ,27, ,
2, ,27, ,
1, ,26, ,
2, ,26, ,
1, ,26, ,
1, ,27, ,
1, ,26, ,
1, ,26, ,
1, ,26, ,
1, ,26, ,
1, ,26, ,
1, ,26, ,
1, ,26, ,
2, ,26, ,
0, ,27, ,
1, ,27, ,
0, ,26, ,
1, ,26, ,
2, ,26, ,
1, ,26, ,
1, ,26, ,
2, ,26, ,
1, ,26, ,
1, ,26, ,
1, ,26, ,
1, ,26, ,
1, ,26, ,
1, ,27, ,
1, ,26, ,
1, ,26, ,
1, ,26, ,
1, ,26, ,
0, ,26, ,
1, ,26, ,
2, ,26, ,
0, ,26, ,
2, ,26, ,
1, ,26, ,
1, ,26, ,
1, ,26, ,
1, ,26, ,
1, ,26, ,
2, ,26, ,
1, ,27, ,
1, ,26, ,
2, ,26, ,
1, ,27, ,
1, ,26, ,
1, ,26, ,
1, ,26, ,
1, ,26, ,
1, ,26, ,
2, ,26, ,
1, ,26, ,
0, ,26, ,
2, ,26, ,
1, ,26, ,
1, ,26, ,
1, ,26, ,
1, ,26, ,
1, ,26, ,
1, ,26, ,
1, ,26, ,
1, ,26, ,
1, ,26, ,
1, ,26, ,
1, ,26, ,
1, ,26, ,
1, ,26, ,
2, ,26, ,
1, ,26, ,
1, ,26, ,
1, ,26, ,
1, ,26, ,
1, ,26, ,
1, ,26, ,
1, ,26, ,
2, ,26, ,
1, ,26, ,
1, ,26, ,
0, ,26, ,
1, ,26, ,
1, ,26, ,
1, ,26, ,
1, ,26, ,
2, ,26, ,
2, ,26, ,
2, ,26, ,
0, ,26, ,
0, ,26, ,
1, ,26, ,
0, ,26, ,
1, ,26, ,
2, ,26, ,
1, ,26, ,
2, ,26, ,
0, ,26, ,
1, ,27, ,
1, ,27, ,
1, ,26, ,
1, ,26, ,
1, ,26, ,
1, ,26, ,
1, ,26, ,
1, ,27, ,
1, ,27, ,
1, ,26, ,
1, ,26, ,
1, ,26, ,
2, ,26, ,
1, ,27, ,
1, ,26, ,
1, ,26, ,
1, ,26, ,
2, ,26, ,
0, ,26, ,
2, ,26, ,
2, ,26, ,
0, ,26, ,
1, ,26, ,
0, ,26, ,
-2, ,26, ,
-3, ,26, ,
1, ,26, ,
-3, ,27, ,
59, ,26, ,
125, ,26, ,
125, ,26, ,
125, ,26, ,
122, ,27, ,
118, ,26, ,
56, ,26, ,
-21, ,26, ,
125, ,26, ,
125, ,26, ,
125, ,26, ,
125, ,26, ,
125, ,26, ,
125, ,26, ,
125, ,27, ,
125, ,26, ,
125, ,26, ,
125, ,26, ,
125, ,26, ,
125, ,26, ,
125, ,27, ,
125, ,27, ,
125, ,27, ,
125, ,27, ,
125, ,26, ,
125, ,26, ,
125, ,26, ,
125, ,27, ,
125, ,27, ,
125, ,27, ,
125, ,27, ,
125, ,26, ,
125, ,26, ,
125, ,26, ,
124, ,26, ,
124, ,26, ,
116, ,26, ,
112, ,26, ,
105, ,26, ,
104, ,26, ,
96, ,26, ,
90, ,26, ,
87, ,26, ,
83, ,26, ,
74, ,26, ,
73, ,26, ,
68, ,27, ,
67, ,26, ,
59, ,26, ,
57, ,27, ,
55, ,27, ,
51, ,26, ,
46, ,26, ,
46, ,26, ,
43, ,26, ,
39, ,26, ,
38, ,26, ,
34, ,26, ,
34, ,26, ,
32, ,26, ,
29, ,26, ,
28, ,26, ,
26, ,26, ,
25, ,26, ,
21, ,26, ,
20, ,27, ,
20, ,26, ,
17, ,26, ,
15, ,26, ,
16, ,26, ,
13, ,26, ,
12, ,27, ,
11, ,26, ,
11, ,26, ,
9, ,26, ,
8, ,26, ,
7, ,26, ,
7, ,26, ,
6, ,26, ,
6, ,26, ,
5, ,26, ,
4, ,26, ,
5, ,26, ,
3, ,26, ,
2, ,26, ,
2, ,26, ,
1, ,26, ,
2, ,26, ,
1, ,26, ,
0, ,26, ,
0, ,26, ,
0, ,26, ,
0, ,26, ,
0, ,26, ,
-1, ,26, ,
-1, ,27, ,
-2, ,27, ,
-3, ,26, ,
-1, ,26, ,
-2, ,26, ,
-2, ,26, ,
-3, ,26, ,
-3, ,26, ,
-3, ,27, ,
-3, ,26, ,
-4, ,26, ,
-3, ,26, ,
-4, ,26, ,
-4, ,26, ,
-3, ,26, ,
-4, ,26, ,
-3, ,26, ,
-3, ,26, ,
-3, ,26, ,
-3, ,26, ,
-4, ,26, ,
-3, ,26, ,
-3, ,26, ,
-4, ,26, ,
-3, ,26, ,
-3, ,26, ,
-3, ,26, ,
-3, ,26, ,
-3, ,26, ,
-5, ,26, ,
-3, ,26, ,
-3, ,27, ,
-3, ,26, ,
-3, ,26, ,
-3, ,26, ,
-3, ,26, ,
-2, ,26, ,
-3, ,27, ,
-3, ,26, ,
-3, ,26, ,
-3, ,26, ,
-3, ,27, ,
-3, ,26, ,
-2, ,26, ,
-3, ,26, ,
-3, ,26, ,
-3, ,26, ,
-3, ,26, ,
-2, ,26, ,
-2, ,26, ,
-2, ,27, ,
-2, ,26, ,
-3, ,26, ,
-1, ,26, ,
-1, ,26, ,
-2, ,27, ,
-2, ,27, ,
-2, ,27, ,
-2, ,27, ,
-1, ,26, ,
-1, ,26, ,
-2, ,26, ,
-1, ,26, ,
-2, ,27, ,
-1, ,26, ,
-1, ,26, ,
-1, ,26, ,
-1, ,26, ,
-2, ,26, ,
-1, ,26, ,
-2, ,26, ,
-1, ,26, ,
-1, ,26, ,
0, ,26, ,
-2, ,26, ,
-1, ,26, ,
-1, ,26, ,
-1, ,26, ,
0, ,26, ,
0, ,26, ,
-1, ,26, ,
0, ,26, ,
0, ,26, ,
0, ,27, ,
0, ,27, ,
0, ,27, ,
0, ,26, ,
0, ,26, ,
0, ,27, ,
0, ,26, ,
0, ,26, ,
0, ,26, ,
0, ,26, ,
0, ,26, ,
1, ,26, ,
0, ,26, ,
1, ,26, ,
0, ,26, ,
0, ,26, ,
0, ,26, ,
0, ,26, ,
0, ,26, ,
0, ,26, ,
0, ,26, ,
0, ,26, ,
1, ,26, ,
1, ,26, ,
1, ,26, ,
0, ,26, ,
0, ,26, ,
1, ,26, ,
1, ,26, ,
1, ,27, ,
1, ,27, ,
1, ,27, ,
2, ,26, ,
1, ,26, ,
0, ,26, ,
0, ,27, ,
1, ,26, ,
1, ,26, ,
2, ,26, ,
0, ,26, ,
0, ,26, ,
1, ,26, ,
-1, ,26, ,
1, ,26, ,
0, ,26, ,
0, ,26, ,
1, ,26, ,
1, ,26, ,
1, ,26, ,
0, ,26, ,
0, ,26, ,
2, ,26, ,
1, ,26, ,
1, ,26, ,
1, ,26, ,
1, ,26, ,
1, ,26, ,
1, ,26, ,
0, ,26, ,
1, ,26, ,
1, ,27, ,
2, ,26, ,
1, ,26, ,
1, ,27, ,
1, ,26, ,
0, ,26, ,
1, ,27, ,
1, ,26, ,
1, ,26, ,
1, ,26, ,
2, ,27, ,
0, ,27, ,
1, ,26, ,
1, ,26, ,
1, ,27, ,
1, ,26, ,
0, ,26, ,
0, ,26, ,
0, ,26, ,
0, ,26, ,
0, ,26, ,
0, ,26, ,
0, ,26, ,
0, ,26, ,
0, ,26, ,
0, ,26, ,
2, ,26, ,
0, ,26, ,
1, ,26, ,
1, ,26, ,
0, ,26, ,
1, ,26, ,
0, ,26, ,
0, ,27, ,
0, ,26, ,
0, ,26, ,
-1, ,26, ,
-1, ,26, ,
-1, ,26, ,
0, ,26, ,
-2, ,26, ,
0, ,26, ,
0, ,26, ,
0, ,26, ,
1, ,26, ,
0, ,26, ,
1, ,26, ,
1, ,26, ,
1, ,26, ,
2, ,26, ,
1, ,26, ,
0, ,26, ,
0, ,26, ,
0, ,26, ,
0, ,26, ,
1, ,26, ,
-1, ,26, ,
0, ,26, ,
0, ,27, ,
-2, ,27, ,
0, ,26, ,
0, ,26, ,
-1, ,26, ,
0, ,26, ,
0, ,27, ,
0, ,26, ,
1, ,26, ,
1, ,26, ,
1, ,26, ,
0, ,27, ,
-1, ,27, ,
-1, ,27, ,
-3, ,26, ,
-2, ,26, ,
-3, ,26, ,
-4, ,26, ,
-4, ,26, ,
-5, ,26, ,
-5, ,26, ,
-5, ,26, ,
-5, ,26, ,
-5, ,26, ,
-4, ,26, ,
-4, ,26, ,
-2, ,27, ,
-2, ,27, ,
-1, ,27, ,
-1, ,26, ,
-2, ,26, ,
-1, ,27, ,
-2, ,27, ,
-4, ,26, ,
-3, ,26, ,
-5, ,26, ,
-8, ,26, ,
-7, ,26, ,
-8, ,26, ,
-7, ,26, ,
-8, ,26, ,
-7, ,26, ,
-5, ,27, ,
-5, ,27, ,
-3, ,27, ,
0, ,26, ,
0, ,26, ,
0, ,27, ,
0, ,27, ,
-1, ,26, ,
-1, ,26, ,
-1, ,26, ,
-3, ,26, ,
-4, ,26, ,
-6, ,26, ,
-5, ,26, ,
-9, ,26, ,
-9, ,26, ,
-9, ,26, ,
-9, ,26, ,
-9, ,26, ,
-10, ,26, ,
-9, ,26, ,
-9, ,26, ,
-9, ,26, ,
-11, ,26, ,
-11, ,26, ,
-12, ,26, ,
-16, ,26, ,
-15, ,26, ,
-19, ,26, ,
-20, ,26, ,
-26, ,26, ,
-28, ,26, ,
-30, ,26, ,
-33, ,26, ,
-35, ,26, ,
-36, ,26, ,
-36, ,26, ,
-36, ,26, ,
-35, ,26, ,
-34, ,26, ,
-32, ,26, ,
-29, ,26, ,
-25, ,26, ,
-22, ,26, ,
-20, ,26, ,
-19, ,26, ,
-15, ,26, ,
-14, ,27, ,
-14, ,26, ,
-13, ,26, ,
-13, ,26, ,
-12, ,26, ,
-12, ,26, ,
-10, ,26, ,
-9, ,26, ,
-9, ,26, ,
-8, ,26, ,
-6, ,26, ,
-3, ,26, ,
0, ,26, ,
1, ,27, ,
3, ,26, ,
6, ,26, ,
7, ,26, ,
7, ,26, ,
6, ,26, ,
5, ,27, ,
5, ,27, ,
4, ,26, ,
2, ,26, ,
-1, ,27, ,
-5, ,27, ,
-5, ,26, ,
-9, ,26, ,
-14, ,27, ,
-14, ,27, ,
-15, ,26, ,
-15, ,26, ,
-13, ,26, ,
-14, ,26, ,
-12, ,26, ,
-11, ,26, ,
-8, ,27, ,
-6, ,26, ,
-7, ,26, ,
-4, ,27, ,
0, ,27, ,
-1, ,27, ,
1, ,27, ,
1, ,26, ,
3, ,26, ,
5, ,26, ,
5, ,27, ,
5, ,26, ,
7, ,26, ,
6, ,26, ,
9, ,26, ,
8, ,26, ,
10, ,26, ,
10, ,27, ,
10, ,26, ,
10, ,26, ,
9, ,26, ,
6, ,26, ,
6, ,26, ,
4, ,26, ,
-1, ,26, ,
-3, ,26, ,
-6, ,27, ,
-7, ,26, ,
-13, ,26, ,
-16, ,26, ,
-18, ,26, ,
-20, ,26, ,
-22, ,26, ,
-25, ,26, ,
-26, ,26, ,
-27, ,26, ,
-30, ,26, ,
-35, ,26, ,
-36, ,26, ,
-37, ,26, ,
-43, ,26, ,
-44, ,26, ,
-46, ,26, ,
-47, ,26, ,
-48, ,26, ,
-48, ,27, ,
-44, ,26, ,
-45, ,26, ,
-39, ,26, ,
-38, ,26, ,
-35, ,26, ,
-29, ,26, ,
-21, ,26, ,
-17, ,27, ,
-13, ,27, ,
-9, ,27, ,
-1, ,26, ,
3, ,26, ,
6, ,26, ,
9, ,26, ,
11, ,26, ,
11, ,26, ,
12, ,26, ,
9, ,26, ,
4, ,26, ,
2, ,26, ,
-3, ,26, ,
-8, ,26, ,
-17, ,26, ,
-25, ,26, ,
-28, ,26, ,
-35, ,26, ,
-42, ,26, ,
-45, ,26, ,
-47, ,27, ,
-48, ,26, ,
-51, ,26, ,
-51, ,26, ,
-50, ,26, ,
-51, ,26, ,
-51, ,26, ,
-48, ,26, ,
-48, ,26, ,
-48, ,26, ,
-44, ,26, ,
-43, ,27, ,
-41, ,27, ,
-40, ,26, ,
-39, ,26, ,
-35, ,26, ,
-35, ,26, ,
-32, ,26, ,
-28, ,26, ,
-27, ,26, ,
-24, ,26, ,
-24, ,26, ,
-18, ,26, ,
-14, ,26, ,
-12, ,26, ,
-8, ,26, ,
2, ,26, ,
9, ,26, ,
17, ,26, ,
26, ,26, ,
45, ,26, ,
58, ,26, ,
69, ,26, ,
80, ,26, ,
97, ,26, ,
105, ,27, ,
108, ,26, ,
109, ,26, ,
112, ,26, ,
111, ,26, ,
109, ,27, ,
109, ,27, ,
105, ,27, ,
101, ,27, ,
101, ,26, ,
96, ,26, ,
90, ,26, ,
88, ,26, ,
85, ,26, ,
82, ,26, ,
76, ,26, ,
74, ,27, ,
72, ,26, ,
68, ,26, ,
64, ,26, ,
62, ,26, ,
59, ,26, ,
58, ,27, ,
53, ,27, ,
50, ,27, ,
48, ,27, ,
45, ,26, ,
30, ,26, ,
7, ,26, ,
-39, ,26, ,
-105, ,26, ,
-126, ,27, ,
-126, ,27, ,
-126, ,26, ,
-126, ,26, ,
-126, ,26, ,
-126, ,26, ,
-126, ,26, ,
-126, ,26, ,
-126, ,26, ,
-126, ,26, ,
-126, ,27, ,
-126, ,26, ,
-126, ,26, ,
-126, ,26, ,
-126, ,26, ,
-126, ,26, ,
-126, ,26, ,
-126, ,27, ,
-126, ,26, ,
-126, ,26, ,
-121, ,26, ,
-69, ,26, ,
-48, ,26, ,
-34, ,26, ,
-4, ,26, ,
10, ,26, ,
21, ,26, ,
25, ,26, ,
18, ,26, ,
13, ,26, ,
3, ,26, ,
-8, ,27, ,
-26, ,27, ,
-35, ,27, ,
-42, ,26, ,
-49, ,26, ,
-52, ,27, ,
-49, ,26, ,
-48, ,26, ,
-42, ,26, ,
-32, ,26, ,
-27, ,26, ,
-23, ,26, ,
-19, ,26, ,
-17, ,26, ,
-16, ,26, ,
-18, ,26, ,
-20, ,26, ,
-25, ,26, ,
-31, ,26, ,
-35, ,26, ,
-37, ,26, ,
-41, ,26, ,
-44, ,26, ,
-47, ,27, ,
-49, ,27, ,
-54, ,26, ,
-57, ,26, ,
-60, ,26, ,
-64, ,27, ,
-73, ,27, ,
-76, ,27, ,
-79, ,27, ,
-80, ,27, ,
-81, ,27, ,
-81, ,27, ,
-78, ,26, ,
-75, ,26, ,
-64, ,26, ,
-55, ,26, ,
-49, ,26, ,
-39, ,26, ,
-22, ,26, ,
-17, ,26, ,
-6, ,26, ,
1, ,26, ,
14, ,27, ,
20, ,26, ,
25, ,26, ,
30, ,26, ,
37, ,26, ,
42, ,26, ,
46, ,26, ,
50, ,26, ,
59, ,26, ,
63, ,26, ,
65, ,26, ,
71, ,27, ,
79, ,26, ,
79, ,26, ,
84, ,26, ,
86, ,26, ,
89, ,26, ,
93, ,26, ,
94, ,26, ,
97, ,26, ,
100, ,26, ,
101, ,26, ,
104, ,27, ,
104, ,26, ,
106, ,26, ,
108, ,26, ,
108, ,27, ,
107, ,26, ,
105, ,26, ,
103, ,26, ,
101, ,26, ,
98, ,27, ,
89, ,26, ,
86, ,26, ,
80, ,26, ,
74, ,26, ,
61, ,26, ,
52, ,26, ,
44, ,26, ,
36, ,26, ,
20, ,27, ,
13, ,26, ,
3, ,26, ,
-6, ,26, ,
-22, ,26, ,
-30, ,26, ,
-36, ,26, ,
-44, ,26, ,
-59, ,26, ,
-61, ,26, ,
-69, ,26, ,
-71, ,26, ,
-77, ,26, ,
-78, ,26, ,
-79, ,26, ,
-81, ,26, ,
-79, ,27, ,
-78, ,27, ,
-77, ,26, ,
-76, ,26, ,
-71, ,26, ,
-72, ,26, ,
-68, ,26, ,
-65, ,27, ,
-62, ,27, ,
-59, ,26, ,
-56, ,26, ,
-54, ,26, ,
-48, ,26, ,
-46, ,26, ,
-44, ,26, ,
-41, ,26, ,
-37, ,26, ,
-35, ,27, ,
-34, ,27, ,
-31, ,27, ,
-29, ,26, ,
-28, ,26, ,
-25, ,26, ,
-26, ,26, ,
-24, ,26, ,
-23, ,26, ,
-23, ,26, ,
-21, ,26, ,
-17, ,26, ,
-17, ,26, ,
-15, ,26, ,
-14, ,27, ,
-8, ,27, ,
-3, ,26, ,
-2, ,26, ,
4, ,26, ,
11, ,26, ,
13, ,26, ,
18, ,26, ,
22, ,26, ,
28, ,26, ,
32, ,26, ,
35, ,27, ,
38, ,26, ,
42, ,26, ,
45, ,26, ,
47, ,26, ,
47, ,26, ,
52, ,26, ,
52, ,26, ,
53, ,26, ,
54, ,27, ,
54, ,26, ,
51, ,26, ,
51, ,26, ,
49, ,26, ,
46, ,26, ,
44, ,26, ,
41, ,27, ,
39, ,26, ,
36, ,26, ,
35, ,26, ,
34, ,27, ,
31, ,26, ,
28, ,26, ,
28, ,26, ,
26, ,26, ,
27, ,26, ,
27, ,26, ,
27, ,26, ,
28, ,26, ,
29, ,26, ,
30, ,26, ,
33, ,26, ,
34, ,26, ,
35, ,26, ,
36, ,26, ,
38, ,27, ,
40, ,27, ,
40, ,26, ,
42, ,26, ,
44, ,26, ,
44, ,27, ,
44, ,27, ,
43, ,26, ,
41, ,26, ,
41, ,26, ,
39, ,26, ,
34, ,26, ,
35, ,26, ,
30, ,26, ,
27, ,26, ,
22, ,26, ,
17, ,26, ,
15, ,26, ,
9, ,26, ,
4, ,26, ,
2, ,27, ,
-2, ,26, ,
-4, ,26, ,
-9, ,26, ,
-13, ,26, ,
-15, ,26, ,
-17, ,26, ,
-23, ,26, ,
-22, ,26, ,
-25, ,26, ,
-25, ,26, ,
-24, ,26, ,
-25, ,26, ,
-24, ,26, ,
-25, ,26, ,
-23, ,26, ,
-21, ,26, ,
-21, ,26, ,
-17, ,26, ,
-15, ,26, ,
-14, ,26, ,
-11, ,27, ,
-10, ,26, ,
-5, ,26, ,
-3, ,26, ,
-1, ,26, ,
2, ,26, ,
8, ,26, ,
7, ,26, ,
13, ,26, ,
13, ,26, ,
18, ,26, ,
20, ,26, ,
22, ,26, ,
23, ,26, ,
28, ,26, ,
28, ,26, ,
29, ,26, ,
30, ,26, ,
30, ,27, ,
31, ,27, ,
30, ,27, ,
30, ,26, ,
30, ,26, ,
29, ,26, ,
28, ,26, ,
26, ,26, ,
25, ,27, ,
24, ,26, ,
22, ,26, ,
22, ,26, ,
19, ,26, ,
14, ,26, ,
13, ,26, ,
12, ,26, ,
8, ,26, ,
7, ,26, ,
6, ,27, ,
4, ,26, ,
0, ,26, ,
-1, ,26, ,
-3, ,26, ,
-3, ,26, ,
-6, ,26, ,
-6, ,26, ,
-10, ,26, ,
-10, ,26, ,
-15, ,26, ,
-15, ,26, ,
-16, ,26, ,
-19, ,26, ,
-21, ,26, ,
-23, ,26, ,
-23, ,26, ,
-24, ,26, ,
-26, ,26, ,
-27, ,26, ,
-27, ,26, ,
-27, ,26, ,
-28, ,26, ,
-28, ,27, ,
-28, ,26, ,
-28, ,26, ,
-27, ,26, ,
-27, ,26, ,
-25, ,26, ,
-24, ,26, ,
-22, ,26, ,
-18, ,26, ,
-17, ,26, ,
-13, ,26, ,
-7, ,26, ,
-4, ,26, ,
0, ,26, ,
1, ,26, ,
8, ,26, ,
13, ,26, ,
16, ,26, ,
20, ,26, ,
26, ,26, ,
27, ,26, ,
30, ,26, ,
33, ,26, ,
35, ,26, ,
37, ,26, ,
39, ,27, ,
39, ,26, ,
42, ,26, ,
41, ,26, ,
42, ,26, ,
41, ,26, ,
39, ,27, ,
39, ,26, ,
35, ,26, ,
35, ,27, ,
32, ,26, ,
30, ,26, ,
28, ,26, ,
25, ,26, ,
19, ,26, ,
17, ,26, ,
15, ,26, ,
11, ,26, ,
6, ,26, ,
3, ,26, ,
0, ,26, ,
-3, ,26, ,
-8, ,26, ,
-8, ,27, ,
-12, ,26, ,
-14, ,26, ,
-16, ,26, ,
-21, ,26, ,
-21, ,26, ,
-23, ,26, ,
-25, ,26, ,
-25, ,26, ,
-25, ,26, ,
-25, ,26, ,
-24, ,26, ,
-25, ,26, ,
-23, ,26, ,
-24, ,26, ,
-22, ,27, ,
-20, ,26, ,
-20, ,26, ,
-18, ,26, ,
-15, ,26, ,
-13, ,26, ,
-11, ,26, ,
-10, ,26, ,
-6, ,26, ,
-2, ,26, ,
1, ,26, ,
3, ,26, ,
8, ,26, ,
9, ,26, ,
13, ,26, ,
15, ,26, ,
18, ,27, ,
22, ,26, ,
22, ,26, ,
25, ,26, ,
27, ,26, ,
28, ,26, ,
30, ,26, ,
30, ,26, ,
31, ,26, ,
31, ,26, ,
32, ,27, ,
32, ,26, ,
31, ,26, ,
30, ,27, ,
30, ,26, ,
29, ,26, ,
27, ,26, ,
28, ,27, ,
26, ,26, ,
26, ,26, ,
25, ,26, ,
21, ,26, ,
20, ,26, ,
18, ,26, ,
16, ,26, ,
17, ,26, ,
14, ,26, ,
14, ,26, ,
9, ,26, ,
8, ,26, ,
7, ,26, ,
4, ,26, ,
0, ,26, ,
0, ,26, ,
-5, ,26, ,
-5, ,27, ,
-11, ,26, ,
-16, ,26, ,
-20, ,26, ,
-24, ,26, ,
-33, ,26, ,
-36, ,26, ,
-42, ,26, ,
-47, ,26, ,
-57, ,26, ,
-64, ,26, ,
-67, ,26, ,
-73, ,26, ,
-81, ,26, ,
-84, ,26, ,
-89, ,26, ,
-90, ,26, ,
-89, ,26, ,
-87, ,26, ,
-84, ,26, ,
-81, ,26, ,
-69, ,26, ,
-59, ,26, ,
-49, ,26, ,
-38, ,26, ,
-13, ,26, ,
-1, ,26, ,
12, ,26, ,
23, ,26, ,
42, ,26, ,
51, ,26, ,
54, ,26, ,
56, ,26, ,
47, ,26, ,
33, ,26, ,
15, ,26, ,
-11, ,26, ,
-81, ,26, ,
-123, ,26, ,
-126, ,26, ,
-126, ,26, ,
-126, ,26, ,
-126, ,26, ,
-126, ,26, ,
-126, ,26, ,
-126, ,26, ,
-126, ,26, ,
-126, ,26, ,
-126, ,26, ,
-126, ,26, ,
-126, ,26, ,
-126, ,26, ,
-126, ,26, ,
-126, ,26, ,
-126, ,26, ,
-126, ,26, ,
-126, ,26, ,
-126, ,26, ,
-126, ,26, ,
-122, ,26, ,
-120, ,26, ,
-109, ,26, ,
-104, ,26, ,
-102, ,26, ,
-96, ,26, ,
-89, ,26, ,
-86, ,26, ,
-83, ,26, ,
-80, ,26, ,
-75, ,26, ,
-72, ,26, ,
-69, ,26, ,
-62, ,26, ,
54, ,26, ,
125, ,26, ,
125, ,26, ,
125, ,26, ,
125, ,26, ,
125, ,26, ,
125, ,26, ,
125, ,26, ,
125, ,26, ,
125, ,26, ,
125, ,26, ,
125, ,26, ,
125, ,26, ,
125, ,26, ,
125, ,26, ,
125, ,26, ,
125, ,26, ,
125, ,26, ,
125, ,26, ,
125, ,26, ,
125, ,26, ,
125, ,26, ,
125, ,26, ,
121, ,26, ,
18, ,26, ,
-126, ,26, ,
-126, ,26, ,
-126, ,26, ,
-126, ,26, ,
-126, ,26, ,
-126, ,27, ,
-126, ,26, ,
-126, ,26, ,
-126, ,26, ,
-126, ,26, ,
-126, ,26, ,
-126, ,26, ,
-126, ,26, ,
-126, ,26, ,
-126, ,26, ,
-126, ,26, ,
-126, ,26, ,
-126, ,26, ,
-126, ,26, ,
-126, ,26, ,
-126, ,26, ,
-126, ,27, ,
-126, ,26, ,
-126, ,26, ,
-126, ,26, ,
-126, ,26, ,
-126, ,26, ,
-126, ,26, ,
-126, ,26, ,
-126, ,26, ,
-125, ,26, ,
-113, ,27, ,
-110, ,26, ,
-104, ,26, ,
-99, ,26, ,
-92, ,26, ,
-86, ,26, ,
-83, ,27, ,
-74, ,26, ,
-5, ,26, ,
75, ,27, ,
125, ,26, ,
125, ,26, ,
125, ,26, ,
125, ,26, ,
125, ,26, ,
125, ,27, ,
122, ,26, ,
99, ,26, ,
67, ,26, ,
35, ,26, ,
-27, ,26, ,
-51, ,26, ,
-73, ,26, ,
-91, ,26, ,
-111, ,26, ,
-113, ,26, ,
-111, ,26, ,
-108, ,26, ,
-103, ,26, ,
-100, ,26, ,
-99, ,26, ,
-93, ,26, ,
-85, ,26, ,
-84, ,26, ,
-78, ,26, ,
-76, ,26, ,
-71, ,26, ,
-67, ,26, ,
-64, ,27, ,
-60, ,26, ,
-56, ,26, ,
-53, ,26, ,
-50, ,26, ,
-49, ,26, ,
-45, ,26, ,
-42, ,26, ,
-42, ,26, ,
-41, ,26, ,
-36, ,26, ,
-36, ,27, ,
-35, ,27, ,
-33, ,26, ,
-32, ,26, ,
-30, ,26, ,
-30, ,26, ,
-27, ,26, ,
-26, ,26, ,
-24, ,26, ,
-23, ,27, ,
-25, ,26, ,
-21, ,26, ,
-20, ,26, ,
-19, ,26, ,
-19, ,26, ,
-14, ,26, ,
-15, ,26, ,
-13, ,26, ,
-13, ,26, ,
-11, ,26, ,
-6, ,26, ,
1, ,26, ,
26, ,26, ,
125, ,26, ,
125, ,26, ,
125, ,27, ,
125, ,26, ,
125, ,26, ,
125, ,27, ,
125, ,27, ,
125, ,26, ,
125, ,26, ,
125, ,26, ,
125, ,26, ,
124, ,26, ,
114, ,26, ,
106, ,26, ,
98, ,27, ,
89, ,26, ,
74, ,26, ,
67, ,26, ,
63, ,26, ,
56, ,26, ,
48, ,26, ,
46, ,26, ,
41, ,26, ,
39, ,26, ,
37, ,26, ,
35, ,26, ,
35, ,26, ,
35, ,26, ,
35, ,26, ,
35, ,26, ,
35, ,26, ,
37, ,26, ,
37, ,26, ,
36, ,26, ,
36, ,26, ,
35, ,27, ,
35, ,26, ,
35, ,26, ,
35, ,26, ,
35, ,26, ,
35, ,26, ,
35, ,26, ,
35, ,26, ,
35, ,26, ,
36, ,26, ,
37, ,26, ,
37, ,27, ,
37, ,26, ,
40, ,26, ,
39, ,27, ,
40, ,26, ,
39, ,26, ,
38, ,27, ,
38, ,26, ,
35, ,26, ,
34, ,26, ,
29, ,26, ,
24, ,26, ,
19, ,26, ,
15, ,26, ,
4, ,26, ,
-1, ,26, ,
-6, ,26, ,
-11, ,26, ,
-21, ,26, ,
-29, ,26, ,
-33, ,26, ,
-37, ,26, ,
-45, ,26, ,
-49, ,26, ,
-52, ,26, ,
-55, ,27, ,
-59, ,26, ,
-61, ,26, ,
-61, ,26, ,
-62, ,26, ,
-62, ,26, ,
-60, ,26, ,
-60, ,26, ,
-57, ,27, ,
-55, ,27, ,
-53, ,27, ,
-50, ,27, ,
-50, ,26, ,
-43, ,26, ,
-40, ,26, ,
-38, ,26, ,
-35, ,26, ,
-27, ,26, ,
-28, ,26, ,
-24, ,26, ,
-20, ,26, ,
-17, ,26, ,
-14, ,26, ,
-10, ,26, ,
-9, ,26, ,
-5, ,26, ,
-4, ,27, ,
-3, ,27, ,
-2, ,26, ,
2, ,26, ,
5, ,27, ,
5, ,26, ,
8, ,26, ,
12, ,26, ,
15, ,26, ,
18, ,26, ,
20, ,26, ,
26, ,26, ,
29, ,26, ,
33, ,26, ,
37, ,26, ,
43, ,26, ,
45, ,27, ,
49, ,26, ,
52, ,26, ,
57, ,26, ,
60, ,26, ,
62, ,26, ,
66, ,26, ,
72, ,26, ,
72, ,26, ,
74, ,26, ,
77, ,26, ,
79, ,26, ,
80, ,26, ,
80, ,26, ,
81, ,27, ,
81, ,27, ,
80, ,27, ,
80, ,26, ,
78, ,26, ,
76, ,26, ,
76, ,26, ,
73, ,26, ,
74, ,26, ,
68, ,26, ,
66, ,26, ,
64, ,26, ,
61, ,26, ,
54, ,26, ,
54, ,26, ,
50, ,26, ,
49, ,27, ,
43, ,27, ,
41, ,27, ,
40, ,26, ,
35, ,26, ,
32, ,26, ,
32, ,26, ,
27, ,26, ,
27, ,26, ,
24, ,26, ,
22, ,26, ,
22, ,26, ,
20, ,26, ,
17, ,26, ,
17, ,26, ,
17, ,26, ,
16, ,26, ,
14, ,26, ,
14, ,26, ,
13, ,26, ,
13, ,26, ,
12, ,26, ,
13, ,26, ,
11, ,26, ,
13, ,26, ,
13, ,26, ,
11, ,26, ,
13, ,26, ,
12, ,26, ,
12, ,26, ,
12, ,26, ,
12, ,26, ,
12, ,26, ,
12, ,26, ,
11, ,26, ,
12, ,26, ,
10, ,26, ,
10, ,26, ,
10, ,26, ,
9, ,26, ,
10, ,26, ,
9, ,26, ,
8, ,26, ,
9, ,26, ,
7, ,26, ,
5, ,26, ,
6, ,26, ,
6, ,27, ,
5, ,26, ,
4, ,26, ,
3, ,26, ,
4, ,26, ,
1, ,26, ,
0, ,26, ,
0, ,27, ,
-1, ,27, ,
0, ,26, ,
-2, ,26, ,
-4, ,26, ,
-4, ,26, ,
-5, ,26, ,
-7, ,26, ,
-7, ,26, ,
-7, ,27, ,
-8, ,26, ,
-10, ,26, ,
-10, ,26, ,
-11, ,26, ,
-12, ,26, ,
-13, ,27, ,
-13, ,26, ,
-15, ,26, ,
-15, ,26, ,
-17, ,26, ,
-18, ,26, ,
-18, ,26, ,
-19, ,26, ,
-21, ,26, ,
-21, ,26, ,
-22, ,27, ,
-21, ,26, ,
-24, ,26, ,
-24, ,26, ,
-23, ,26, ,
-25, ,26, ,
-26, ,26, ,
-27, ,26, ,
-27, ,26, ,
-27, ,26, ,
-26, ,26, ,
-27, ,26, ,
-26, ,26, ,
-25, ,26, ,
-26, ,26, ,
-24, ,26, ,
-24, ,26, ,
-22, ,26, ,
-20, ,26, ,
-19, ,26, ,
-16, ,26, ,
-16, ,26, ,
-12, ,26, ,
-12, ,26, ,
-12, ,26, ,
-9, ,26, ,
-5, ,26, ,
-5, ,26, ,
-2, ,26, ,
-2, ,26, ,
0, ,26, ,
2, ,26, ,
4, ,26, ,
5, ,26, ,
6, ,26, ,
6, ,26, ,
7, ,26, ,
6, ,26, ,
6, ,26, ,
7, ,26, ,
6, ,26, ,
6, ,26, ,
5, ,26, ,
5, ,26, ,
5, ,26, ,
4, ,27, ,
2, ,27, ,
2, ,26, ,
1, ,26, ,
0, ,26, ,
-2, ,26, ,
-3, ,26, ,
-2, ,26, ,
-5, ,26, ,
-7, ,26, ,
-7, ,26, ,
-8, ,26, ,
-8, ,27, ,
-11, ,27, ,
-12, ,26, ,
-12, ,26, ,
-13, ,26, ,
-15, ,26, ,
-16, ,26, ,
-16, ,26, ,
-18, ,26, ,
-18, ,26, ,
-18, ,26, ,
-18, ,26, ,
-19, ,26, ,
-20, ,26, ,
-19, ,26, ,
-20, ,26, ,
-19, ,26, ,
-18, ,26, ,
-19, ,27, ,
-18, ,26, ,
-18, ,26, ,
-17, ,26, ,
-17, ,26, ,
-16, ,26, ,
-15, ,26, ,
-15, ,26, ,
-14, ,27, ,
-14, ,26, ,
-14, ,26, ,
-14, ,27, ,
-13, ,26, ,
-14, ,26, ,
-14, ,26, ,
-13, ,26, ,
-14, ,26, ,
-13, ,26, ,
-13, ,26, ,
-12, ,26, ,
-12, ,26, ,
-13, ,26, ,
-13, ,26, ,
-12, ,26, ,
-13, ,26, ,
-12, ,26, ,
-15, ,26, ,
-13, ,27, ,
-13, ,27, ,
-14, ,26, ,
-14, ,26, ,
-14, ,26, ,
-14, ,26, ,
-13, ,26, ,
-15, ,26, ,
-15, ,26, ,
-14, ,26, ,
-15, ,27, ,
-15, ,26, ,
-15, ,26, ,
-15, ,26, ,
-15, ,26, ,
-16, ,26, ,
-17, ,26, ,
-16, ,26, ,
