raw_data/100% Glycerol, Impulsion 2Hz, Sonde 5MHz, Rampe 0.7Hz/temp0000090.CSV

Format,1.0B,
Memory Length,10000,Memory Length,10000,
IntpDistance,0,IntpDistance,0,
Trigger Address,159,Trigger Address,159,
Trigger Level,2.720E-01,Trigger Level,2.720E-01,
Source,CH1,Source,CH2,
Vertical Units,V,Vertical Units,V,
Vertical Units Div,0,Vertical Units Div,0,
Vertical Units Extend Div,16,Vertical Units Extend Div,16,
Label,,Label,,
Probe Type,0,Probe Type,0,
Probe Ratio,1.000e+00,Probe Ratio,1.000e+00,
Vertical Scale,2.000e-01,Vertical Scale,2.000e+00,
Vertical Position,0.000e+00,Vertical Position,0.000e+00,
Horizontal Units,S,Horizontal Units,S,
Horizontal Scale,5.000E-06,Horizontal Scale,5.000E-06,
Horizontal Position,2.420E-05,Horizontal Position,2.420E-05,
Horizontal Mode,Main,Horizontal Mode,Main,
SincET Mode,Real Time,SincET Mode,Real Time,
Sampling Period,5.000e-09,Sampling Period,5.000e-09,
Horizontal Old Scale,5.000E-06,Horizontal Old Scale,5.000E-06,
Horizontal Old Position,2.420E-05,Horizontal Old Position,2.420E-05,
Firmware,V1.32,Firmware,V1.32,
Mode,Fast,Mode,Fast,
Waveform Data,,Waveform Data,,
2, ,42, ,
2, ,42, ,
1, ,42, ,
1, ,42, ,
1, ,42, ,
1, ,42, ,
1, ,42, ,
2, ,42, ,
1, ,42, ,
2, ,42, ,
1, ,41, ,
1, ,41, ,
2, ,41, ,
1, ,41, ,
1, ,41, ,
2, ,41, ,
1, ,42, ,
2, ,42, ,
0, ,41, ,
2, ,41, ,
2, ,41, ,
2, ,42, ,
2, ,42, ,
2, ,42, ,
1, ,42, ,
3, ,41, ,
2, ,41, ,
2, ,41, ,
2, ,41, ,
2, ,42, ,
2, ,42, ,
2, ,42, ,
1, ,42, ,
3, ,42, ,
1, ,42, ,
2, ,42, ,
2, ,42, ,
1, ,41, ,
2, ,41, ,
1, ,42, ,
1, ,42, ,
1, ,42, ,
1, ,42, ,
1, ,42, ,
2, ,41, ,
2, ,41, ,
2, ,42, ,
2, ,42, ,
1, ,42, ,
2, ,42, ,
1, ,41, ,
2, ,41, ,
2, ,41, ,
1, ,42, ,
1, ,41, ,
2, ,41, ,
1, ,42, ,
1, ,42, ,
3, ,42, ,
2, ,42, ,
2, ,41, ,
2, ,41, ,
2, ,41, ,
2, ,42, ,
1, ,42, ,
2, ,42, ,
2, ,42, ,
2, ,42, ,
2, ,41, ,
2, ,41, ,
2, ,42, ,
2, ,42, ,
1, ,42, ,
1, ,41, ,
1, ,41, ,
2, ,41, ,
1, ,42, ,
1, ,42, ,
1, ,42, ,
2, ,42, ,
2, ,42, ,
2, ,42, ,
2, ,41, ,
2, ,41, ,
2, ,41, ,
1, ,42, ,
2, ,42, ,
1, ,41, ,
1, ,41, ,
1, ,41, ,
1, ,42, ,
1, ,42, ,
1, ,42, ,
2, ,42, ,
3, ,41, ,
2, ,41, ,
1, ,42, ,
2, ,42, ,
1, ,42, ,
1, ,42, ,
2, ,41, ,
1, ,41, ,
1, ,42, ,
2, ,42, ,
1, ,42, ,
2, ,41, ,
1, ,41, ,
1, ,42, ,
1, ,42, ,
1, ,42, ,
2, ,42, ,
2, ,42, ,
1, ,42, ,
2, ,42, ,
1, ,42, ,
2, ,42, ,
2, ,41, ,
1, ,41, ,
1, ,42, ,
2, ,42, ,
1, ,42, ,
2, ,41, ,
1, ,41, ,
0, ,41, ,
2, ,41, ,
1, ,42, ,
2, ,41, ,
1, ,41, ,
1, ,41, ,
1, ,41, ,
1, ,41, ,
2, ,41, ,
2, ,41, ,
2, ,41, ,
2, ,42, ,
2, ,42, ,
1, ,42, ,
2, ,41, ,
2, ,41, ,
2, ,41, ,
2, ,42, ,
2, ,42, ,
1, ,42, ,
1, ,42, ,
1, ,42, ,
1, ,41, ,
1, ,41, ,
1, ,41, ,
2, ,41, ,
1, ,41, ,
1, ,42, ,
2, ,42, ,
1, ,42, ,
1, ,42, ,
2, ,41, ,
2, ,41, ,
2, ,41, ,
1, ,42, ,
2, ,42, ,
0, ,42, ,
1, ,42, ,
2, ,41, ,
0, ,41, ,
0, ,42, ,
5, ,42, ,
-1, ,42, ,
0, ,41, ,
1, ,41, ,
26, ,41, ,
80, ,41, ,
125, ,42, ,
125, ,42, ,
125, ,42, ,
121, ,42, ,
117, ,41, ,
-15, ,41, ,
70, ,42, ,
125, ,42, ,
125, ,42, ,
125, ,42, ,
125, ,42, ,
125, ,42, ,
125, ,42, ,
125, ,42, ,
125, ,42, ,
125, ,42, ,
125, ,41, ,
125, ,41, ,
125, ,41, ,
125, ,41, ,
125, ,42, ,
125, ,42, ,
125, ,42, ,
125, ,41, ,
125, ,41, ,
125, ,42, ,
125, ,42, ,
125, ,42, ,
125, ,42, ,
125, ,42, ,
125, ,42, ,
125, ,42, ,
125, ,41, ,
124, ,41, ,
120, ,41, ,
115, ,42, ,
112, ,41, ,
104, ,41, ,
99, ,42, ,
95, ,42, ,
91, ,42, ,
84, ,41, ,
80, ,41, ,
74, ,41, ,
72, ,41, ,
65, ,41, ,
61, ,41, ,
59, ,41, ,
56, ,41, ,
51, ,42, ,
49, ,42, ,
47, ,42, ,
45, ,41, ,
41, ,41, ,
39, ,42, ,
37, ,42, ,
35, ,42, ,
33, ,41, ,
31, ,41, ,
28, ,41, ,
28, ,42, ,
25, ,41, ,
23, ,41, ,
22, ,41, ,
20, ,41, ,
18, ,41, ,
16, ,41, ,
16, ,41, ,
16, ,42, ,
14, ,42, ,
12, ,42, ,
12, ,42, ,
10, ,41, ,
9, ,41, ,
9, ,41, ,
8, ,42, ,
7, ,41, ,
6, ,41, ,
5, ,42, ,
5, ,41, ,
5, ,41, ,
3, ,41, ,
4, ,41, ,
2, ,42, ,
2, ,42, ,
1, ,41, ,
1, ,41, ,
1, ,41, ,
0, ,41, ,
0, ,41, ,
0, ,41, ,
0, ,41, ,
0, ,42, ,
-1, ,42, ,
-2, ,42, ,
-1, ,42, ,
-2, ,41, ,
-2, ,41, ,
-1, ,41, ,
-2, ,41, ,
-1, ,42, ,
-2, ,42, ,
-2, ,42, ,
-2, ,42, ,
-3, ,42, ,
-2, ,42, ,
-1, ,42, ,
-2, ,41, ,
-2, ,41, ,
-3, ,41, ,
-3, ,41, ,
-2, ,41, ,
-3, ,42, ,
-3, ,42, ,
-3, ,42, ,
-3, ,42, ,
-3, ,42, ,
-2, ,42, ,
-3, ,42, ,
-3, ,42, ,
-3, ,42, ,
-3, ,42, ,
-3, ,41, ,
-4, ,41, ,
-4, ,42, ,
-3, ,42, ,
-4, ,42, ,
-2, ,41, ,
-2, ,41, ,
-3, ,41, ,
-3, ,41, ,
-2, ,41, ,
-1, ,41, ,
-3, ,41, ,
-3, ,41, ,
-3, ,41, ,
-4, ,42, ,
-2, ,42, ,
-2, ,42, ,
-2, ,42, ,
-1, ,42, ,
-1, ,42, ,
-2, ,42, ,
-1, ,42, ,
-2, ,41, ,
-3, ,41, ,
-1, ,41, ,
-2, ,41, ,
-2, ,42, ,
0, ,42, ,
-1, ,42, ,
0, ,42, ,
-1, ,41, ,
-2, ,41, ,
-1, ,41, ,
-1, ,42, ,
0, ,42, ,
0, ,42, ,
-1, ,42, ,
-1, ,42, ,
-1, ,41, ,
0, ,41, ,
-1, ,42, ,
0, ,42, ,
0, ,42, ,
0, ,42, ,
0, ,42, ,
0, ,41, ,
0, ,41, ,
0, ,42, ,
0, ,42, ,
0, ,42, ,
1, ,42, ,
2, ,42, ,
0, ,42, ,
0, ,42, ,
-1, ,41, ,
0, ,41, ,
1, ,41, ,
1, ,41, ,
1, ,42, ,
0, ,42, ,
0, ,42, ,
2, ,42, ,
1, ,42, ,
1, ,42, ,
1, ,42, ,
0, ,41, ,
2, ,41, ,
2, ,41, ,
1, ,41, ,
1, ,42, ,
1, ,42, ,
0, ,42, ,
1, ,42, ,
1, ,42, ,
1, ,41, ,
1, ,41, ,
1, ,41, ,
1, ,41, ,
0, ,41, ,
2, ,41, ,
1, ,41, ,
0, ,41, ,
1, ,42, ,
1, ,41, ,
1, ,41, ,
1, ,41, ,
1, ,41, ,
0, ,41, ,
1, ,41, ,
0, ,41, ,
0, ,41, ,
1, ,41, ,
1, ,41, ,
1, ,41, ,
1, ,42, ,
1, ,42, ,
1, ,42, ,
1, ,42, ,
2, ,41, ,
2, ,41, ,
0, ,42, ,
1, ,42, ,
1, ,41, ,
1, ,41, ,
2, ,41, ,
1, ,41, ,
1, ,41, ,
1, ,41, ,
1, ,42, ,
1, ,41, ,
0, ,41, ,
1, ,42, ,
1, ,42, ,
1, ,42, ,
2, ,41, ,
2, ,41, ,
1, ,42, ,
2, ,42, ,
1, ,42, ,
1, ,41, ,
2, ,41, ,
1, ,41, ,
1, ,42, ,
2, ,42, ,
0, ,41, ,
2, ,41, ,
1, ,41, ,
2, ,42, ,
2, ,42, ,
1, ,42, ,
1, ,42, ,
1, ,42, ,
0, ,42, ,
1, ,42, ,
0, ,42, ,
0, ,42, ,
1, ,42, ,
1, ,41, ,
1, ,41, ,
1, ,42, ,
1, ,42, ,
1, ,41, ,
1, ,41, ,
1, ,42, ,
3, ,42, ,
1, ,42, ,
2, ,41, ,
2, ,41, ,
0, ,41, ,
0, ,41, ,
0, ,42, ,
0, ,42, ,
0, ,42, ,
-1, ,42, ,
0, ,42, ,
-1, ,42, ,
0, ,42, ,
0, ,42, ,
0, ,41, ,
2, ,41, ,
2, ,41, ,
1, ,41, ,
2, ,42, ,
2, ,42, ,
1, ,42, ,
1, ,42, ,
2, ,42, ,
1, ,42, ,
1, ,42, ,
1, ,42, ,
1, ,42, ,
0, ,42, ,
1, ,42, ,
1, ,42, ,
0, ,41, ,
1, ,41, ,
2, ,41, ,
1, ,41, ,
2, ,42, ,
2, ,41, ,
2, ,41, ,
3, ,41, ,
2, ,41, ,
2, ,41, ,
2, ,41, ,
2, ,42, ,
2, ,41, ,
2, ,41, ,
2, ,42, ,
2, ,41, ,
1, ,41, ,
1, ,42, ,
1, ,42, ,
0, ,42, ,
0, ,41, ,
0, ,41, ,
-1, ,42, ,
-1, ,42, ,
-1, ,41, ,
-1, ,41, ,
-1, ,41, ,
-2, ,42, ,
-2, ,42, ,
-10, ,41, ,
-17, ,41, ,
-27, ,41, ,
-46, ,41, ,
-105, ,42, ,
-126, ,42, ,
-126, ,42, ,
-126, ,41, ,
-126, ,41, ,
-126, ,41, ,
-126, ,41, ,
-126, ,41, ,
-126, ,41, ,
-126, ,41, ,
-126, ,41, ,
-126, ,41, ,
-126, ,41, ,
-126, ,41, ,
-126, ,41, ,
-126, ,41, ,
-126, ,41, ,
-126, ,41, ,
-126, ,41, ,
-126, ,41, ,
-126, ,41, ,
-126, ,41, ,
-126, ,42, ,
-126, ,41, ,
-126, ,41, ,
-126, ,41, ,
-126, ,41, ,
-126, ,41, ,
-126, ,41, ,
-126, ,41, ,
-126, ,41, ,
-126, ,42, ,
-126, ,42, ,
-126, ,42, ,
-126, ,42, ,
-126, ,41, ,
-126, ,41, ,
-126, ,42, ,
-125, ,42, ,
-113, ,41, ,
10, ,41, ,
119, ,41, ,
125, ,42, ,
125, ,42, ,
125, ,41, ,
125, ,41, ,
125, ,41, ,
125, ,42, ,
125, ,42, ,
125, ,42, ,
125, ,42, ,
125, ,42, ,
125, ,42, ,
125, ,42, ,
125, ,42, ,
125, ,41, ,
125, ,41, ,
125, ,42, ,
125, ,41, ,
125, ,41, ,
125, ,42, ,
125, ,41, ,
125, ,41, ,
125, ,41, ,
125, ,41, ,
125, ,41, ,
125, ,41, ,
125, ,41, ,
125, ,41, ,
125, ,41, ,
125, ,42, ,
125, ,42, ,
125, ,42, ,
125, ,41, ,
125, ,41, ,
125, ,42, ,
124, ,42, ,
124, ,42, ,
120, ,41, ,
114, ,41, ,
105, ,42, ,
103, ,42, ,
98, ,42, ,
93, ,41, ,
89, ,41, ,
83, ,42, ,
81, ,42, ,
76, ,41, ,
71, ,41, ,
68, ,41, ,
64, ,42, ,
63, ,42, ,
58, ,41, ,
54, ,41, ,
53, ,41, ,
48, ,41, ,
44, ,41, ,
43, ,41, ,
39, ,42, ,
36, ,41, ,
25, ,41, ,
14, ,42, ,
1, ,41, ,
-17, ,41, ,
-66, ,41, ,
-91, ,41, ,
-116, ,41, ,
-126, ,42, ,
-126, ,42, ,
-126, ,42, ,
-126, ,42, ,
-126, ,42, ,
-126, ,42, ,
-126, ,42, ,
-126, ,42, ,
-126, ,41, ,
-126, ,41, ,
-126, ,41, ,
-126, ,41, ,
-126, ,41, ,
-126, ,42, ,
-126, ,42, ,
-126, ,41, ,
-126, ,41, ,
-101, ,42, ,
-73, ,42, ,
-44, ,41, ,
-20, ,41, ,
26, ,41, ,
40, ,41, ,
50, ,41, ,
59, ,42, ,
65, ,42, ,
64, ,42, ,
64, ,42, ,
60, ,41, ,
43, ,41, ,
33, ,41, ,
21, ,42, ,
10, ,42, ,
-19, ,42, ,
-36, ,42, ,
-50, ,42, ,
-70, ,42, ,
-105, ,42, ,
-120, ,42, ,
-126, ,42, ,
-126, ,41, ,
-126, ,41, ,
-126, ,42, ,
-126, ,42, ,
-126, ,42, ,
-126, ,42, ,
-126, ,42, ,
-126, ,42, ,
-126, ,42, ,
-126, ,42, ,
-126, ,42, ,
-126, ,42, ,
-126, ,42, ,
-126, ,42, ,
-126, ,42, ,
-126, ,42, ,
-126, ,42, ,
-126, ,42, ,
-126, ,42, ,
-126, ,42, ,
-126, ,41, ,
-126, ,41, ,
-126, ,41, ,
-126, ,41, ,
-126, ,41, ,
-126, ,41, ,
-126, ,41, ,
-126, ,41, ,
-125, ,42, ,
-106, ,42, ,
-97, ,42, ,
-88, ,42, ,
-76, ,41, ,
-53, ,41, ,
-43, ,41, ,
-31, ,41, ,
-21, ,41, ,
-1, ,42, ,
10, ,42, ,
19, ,42, ,
29, ,42, ,
43, ,41, ,
49, ,41, ,
58, ,41, ,
62, ,41, ,
75, ,42, ,
81, ,41, ,
85, ,41, ,
92, ,41, ,
100, ,41, ,
103, ,42, ,
106, ,42, ,
108, ,41, ,
110, ,41, ,
113, ,42, ,
112, ,42, ,
113, ,42, ,
112, ,42, ,
108, ,41, ,
108, ,41, ,
105, ,41, ,
102, ,41, ,
100, ,41, ,
94, ,41, ,
92, ,42, ,
85, ,42, ,
79, ,42, ,
78, ,42, ,
73, ,41, ,
66, ,41, ,
65, ,41, ,
61, ,41, ,
60, ,42, ,
58, ,42, ,
57, ,42, ,
57, ,42, ,
56, ,42, ,
57, ,42, ,
57, ,42, ,
57, ,42, ,
57, ,42, ,
58, ,42, ,
57, ,42, ,
58, ,42, ,
58, ,42, ,
57, ,42, ,
59, ,41, ,
57, ,41, ,
58, ,42, ,
56, ,42, ,
55, ,41, ,
54, ,41, ,
50, ,41, ,
45, ,41, ,
44, ,41, ,
38, ,41, ,
36, ,42, ,
27, ,42, ,
22, ,42, ,
17, ,42, ,
12, ,41, ,
0, ,41, ,
-1, ,42, ,
-7, ,42, ,
-11, ,41, ,
-18, ,41, ,
-21, ,42, ,
-23, ,42, ,
-25, ,42, ,
-26, ,41, ,
-26, ,41, ,
-27, ,41, ,
-24, ,41, ,
-20, ,41, ,
-20, ,41, ,
-15, ,41, ,
-14, ,41, ,
-7, ,41, ,
-3, ,42, ,
1, ,42, ,
5, ,42, ,
10, ,41, ,
12, ,41, ,
16, ,41, ,
16, ,42, ,
20, ,42, ,
22, ,41, ,
21, ,41, ,
22, ,41, ,
21, ,41, ,
20, ,41, ,
20, ,41, ,
19, ,41, ,
17, ,42, ,
17, ,42, ,
16, ,42, ,
17, ,42, ,
16, ,42, ,
16, ,42, ,
17, ,42, ,
16, ,42, ,
19, ,41, ,
20, ,41, ,
21, ,41, ,
25, ,41, ,
28, ,41, ,
30, ,41, ,
33, ,41, ,
35, ,42, ,
40, ,42, ,
47, ,42, ,
50, ,42, ,
54, ,41, ,
64, ,41, ,
69, ,41, ,
75, ,42, ,
77, ,42, ,
88, ,42, ,
93, ,41, ,
94, ,41, ,
100, ,41, ,
108, ,41, ,
111, ,42, ,
114, ,42, ,
115, ,42, ,
119, ,42, ,
123, ,41, ,
124, ,41, ,
124, ,42, ,
125, ,41, ,
124, ,41, ,
124, ,41, ,
122, ,41, ,
118, ,41, ,
115, ,41, ,
112, ,41, ,
108, ,41, ,
103, ,41, ,
98, ,41, ,
95, ,41, ,
91, ,41, ,
83, ,42, ,
81, ,42, ,
76, ,41, ,
73, ,41, ,
65, ,42, ,
61, ,41, ,
58, ,41, ,
51, ,42, ,
48, ,42, ,
44, ,42, ,
41, ,42, ,
39, ,41, ,
35, ,41, ,
31, ,41, ,
30, ,42, ,
27, ,41, ,
22, ,41, ,
20, ,42, ,
18, ,42, ,
16, ,41, ,
12, ,41, ,
9, ,41, ,
9, ,42, ,
4, ,42, ,
2, ,42, ,
0, ,42, ,
-3, ,42, ,
-3, ,42, ,
-8, ,42, ,
-10, ,42, ,
-10, ,41, ,
-12, ,41, ,
-15, ,42, ,
-16, ,42, ,
-17, ,42, ,
-18, ,42, ,
-21, ,42, ,
-25, ,42, ,
-26, ,42, ,
-31, ,41, ,
-35, ,41, ,
-36, ,41, ,
-42, ,41, ,
-44, ,42, ,
-51, ,42, ,
-55, ,42, ,
-56, ,42, ,
-61, ,42, ,
-67, ,42, ,
-70, ,42, ,
-76, ,42, ,
-78, ,41, ,
-85, ,41, ,
-88, ,42, ,
-91, ,42, ,
-97, ,42, ,
-102, ,42, ,
-106, ,42, ,
-111, ,42, ,
-116, ,42, ,
-126, ,42, ,
-126, ,42, ,
-126, ,42, ,
-126, ,42, ,
-126, ,42, ,
-126, ,42, ,
-126, ,42, ,
-126, ,42, ,
-126, ,42, ,
-126, ,41, ,
-126, ,41, ,
-126, ,42, ,
-126, ,42, ,
-126, ,42, ,
-126, ,42, ,
-126, ,42, ,
-126, ,42, ,
-126, ,42, ,
-126, ,42, ,
-126, ,42, ,
-126, ,42, ,
-126, ,42, ,
-126, ,42, ,
-126, ,42, ,
-126, ,41, ,
-126, ,41, ,
-126, ,41, ,
-126, ,42, ,
-126, ,42, ,
-126, ,42, ,
-126, ,42, ,
-126, ,41, ,
-126, ,41, ,
-123, ,41, ,
-114, ,42, ,
-108, ,42, ,
-92, ,42, ,
-76, ,41, ,
-59, ,41, ,
-38, ,42, ,
-17, ,42, ,
-10, ,42, ,
-4, ,41, ,
3, ,41, ,
20, ,42, ,
28, ,42, ,
35, ,42, ,
43, ,42, ,
59, ,41, ,
65, ,41, ,
74, ,41, ,
79, ,41, ,
92, ,42, ,
99, ,42, ,
104, ,42, ,
108, ,42, ,
117, ,42, ,
119, ,42, ,
122, ,42, ,
121, ,42, ,
119, ,41, ,
118, ,41, ,
116, ,41, ,
115, ,41, ,
108, ,41, ,
104, ,41, ,
102, ,42, ,
96, ,42, ,
86, ,42, ,
82, ,42, ,
78, ,42, ,
74, ,42, ,
67, ,42, ,
64, ,42, ,
59, ,41, ,
56, ,41, ,
50, ,42, ,
50, ,42, ,
47, ,42, ,
48, ,41, ,
46, ,41, ,
44, ,42, ,
46, ,41, ,
46, ,41, ,
47, ,41, ,
49, ,42, ,
49, ,41, ,
52, ,41, ,
55, ,42, ,
57, ,42, ,
59, ,42, ,
60, ,42, ,
65, ,42, ,
69, ,42, ,
70, ,42, ,
74, ,42, ,
79, ,42, ,
81, ,42, ,
85, ,42, ,
87, ,42, ,
92, ,42, ,
98, ,42, ,
100, ,41, ,
105, ,41, ,
111, ,42, ,
113, ,41, ,
118, ,41, ,
120, ,42, ,
125, ,42, ,
125, ,42, ,
125, ,42, ,
125, ,42, ,
125, ,42, ,
125, ,42, ,
125, ,42, ,
125, ,41, ,
125, ,41, ,
125, ,41, ,
125, ,41, ,
125, ,41, ,
125, ,41, ,
124, ,41, ,
124, ,41, ,
118, ,42, ,
110, ,42, ,
106, ,42, ,
101, ,42, ,
97, ,42, ,
87, ,42, ,
80, ,42, ,
78, ,42, ,
71, ,42, ,
62, ,42, ,
58, ,42, ,
53, ,41, ,
51, ,41, ,
44, ,41, ,
39, ,41, ,
38, ,41, ,
34, ,41, ,
30, ,41, ,
28, ,41, ,
25, ,42, ,
24, ,41, ,
20, ,41, ,
19, ,42, ,
16, ,42, ,
16, ,42, ,
11, ,42, ,
11, ,42, ,
9, ,42, ,
7, ,41, ,
2, ,41, ,
-2, ,42, ,
-3, ,42, ,
-10, ,42, ,
-15, ,42, ,
-18, ,42, ,
-26, ,42, ,
-29, ,41, ,
-38, ,41, ,
-44, ,42, ,
-49, ,42, ,
-55, ,42, ,
-66, ,42, ,
-72, ,42, ,
-77, ,42, ,
-80, ,42, ,
-89, ,42, ,
-93, ,42, ,
-95, ,42, ,
-99, ,42, ,
-100, ,41, ,
-98, ,41, ,
-98, ,41, ,
-98, ,41, ,
-91, ,41, ,
-88, ,42, ,
-82, ,41, ,
-78, ,41, ,
-66, ,42, ,
-59, ,42, ,
-53, ,42, ,
-46, ,42, ,
-34, ,42, ,
-29, ,41, ,
-24, ,41, ,
-19, ,42, ,
-10, ,42, ,
-5, ,41, ,
-5, ,41, ,
0, ,41, ,
3, ,41, ,
2, ,41, ,
2, ,41, ,
-1, ,41, ,
-3, ,42, ,
-3, ,41, ,
-9, ,41, ,
-11, ,42, ,
-17, ,42, ,
-21, ,41, ,
-23, ,41, ,
-29, ,41, ,
-34, ,41, ,
-35, ,41, ,
-38, ,42, ,
-39, ,41, ,
-39, ,41, ,
-39, ,41, ,
-37, ,42, ,
-38, ,41, ,
-35, ,41, ,
-32, ,41, ,
-32, ,41, ,
-29, ,41, ,
-27, ,42, ,
-25, ,42, ,
-22, ,42, ,
-22, ,42, ,
-20, ,41, ,
-20, ,41, ,
-21, ,41, ,
-21, ,42, ,
-21, ,42, ,
-25, ,42, ,
-26, ,42, ,
-27, ,41, ,
-33, ,41, ,
-35, ,41, ,
-38, ,42, ,
-39, ,42, ,
-46, ,42, ,
-49, ,41, ,
-53, ,41, ,
-57, ,41, ,
-61, ,42, ,
-64, ,42, ,
-66, ,42, ,
-67, ,42, ,
-68, ,42, ,
-69, ,42, ,
-69, ,42, ,
-69, ,41, ,
-68, ,41, ,
-65, ,42, ,
-64, ,42, ,
-61, ,42, ,
-59, ,42, ,
-55, ,41, ,
-52, ,41, ,
-52, ,41, ,
-46, ,42, ,
-44, ,42, ,
-43, ,42, ,
-41, ,42, ,
-36, ,42, ,
-35, ,42, ,
-34, ,42, ,
-33, ,41, ,
-30, ,41, ,
-27, ,42, ,
-26, ,42, ,
-25, ,42, ,
-23, ,42, ,
-22, ,42, ,
-22, ,42, ,
-22, ,41, ,
-19, ,41, ,
-19, ,41, ,
-17, ,42, ,
-15, ,41, ,
-12, ,41, ,
-12, ,42, ,
-10, ,41, ,
-9, ,41, ,
-6, ,42, ,
-3, ,42, ,
-2, ,42, ,
0, ,42, ,
2, ,41, ,
3, ,41, ,
6, ,41, ,
5, ,42, ,
8, ,42, ,
10, ,42, ,
9, ,42, ,
11, ,42, ,
12, ,42, ,
12, ,42, ,
12, ,41, ,
12, ,41, ,
11, ,42, ,
13, ,42, ,
13, ,42, ,
12, ,41, ,
12, ,41, ,
12, ,42, ,
12, ,42, ,
10, ,42, ,
11, ,42, ,
10, ,42, ,
10, ,42, ,
10, ,41, ,
10, ,41, ,
10, ,42, ,
10, ,41, ,
10, ,41, ,
9, ,41, ,
10, ,42, ,
9, ,42, ,
10, ,41, ,
9, ,41, ,
9, ,42, ,
7, ,42, ,
7, ,42, ,
5, ,41, ,
5, ,41, ,
4, ,41, ,
4, ,42, ,
4, ,42, ,
0, ,42, ,
1, ,42, ,
0, ,42, ,
-1, ,42, ,
0, ,41, ,
1, ,41, ,
1, ,42, ,
2, ,42, ,
4, ,42, ,
5, ,42, ,
4, ,42, ,
9, ,41, ,
11, ,41, ,
12, ,41, ,
15, ,41, ,
20, ,41, ,
21, ,41, ,
24, ,42, ,
26, ,42, ,
28, ,42, ,
33, ,42, ,
34, ,42, ,
35, ,42, ,
38, ,42, ,
39, ,42, ,
41, ,41, ,
42, ,41, ,
45, ,41, ,
46, ,41, ,
45, ,41, ,
48, ,42, ,
49, ,42, ,
49, ,42, ,
49, ,42, ,
50, ,42, ,
51, ,42, ,
51, ,42, ,
52, ,42, ,
53, ,42, ,
52, ,42, ,
52, ,42, ,
52, ,42, ,
50, ,42, ,
48, ,42, ,
49, ,41, ,
46, ,41, ,
45, ,42, ,
43, ,42, ,
38, ,42, ,
36, ,42, ,
34, ,42, ,
27, ,42, ,
27, ,42, ,
24, ,42, ,
22, ,42, ,
14, ,42, ,
11, ,42, ,
9, ,42, ,
4, ,41, ,
-1, ,41, ,
-3, ,41, ,
-8, ,42, ,
-10, ,42, ,
-13, ,42, ,
-18, ,42, ,
-18, ,42, ,
-20, ,42, ,
-25, ,42, ,
-25, ,41, ,
-27, ,41, ,
-28, ,42, ,
-30, ,42, ,
-33, ,42, ,
-32, ,42, ,
-34, ,42, ,
-35, ,41, ,
-35, ,41, ,
-37, ,41, ,
-37, ,42, ,
-39, ,42, ,
-40, ,42, ,
-42, ,42, ,
-43, ,41, ,
-45, ,41, ,
-45, ,41, ,
-46, ,41, ,
-45, ,41, ,
-47, ,42, ,
-48, ,42, ,
-47, ,42, ,
-48, ,42, ,
-47, ,41, ,
-45, ,41, ,
-46, ,41, ,
-44, ,41, ,
-41, ,41, ,
-43, ,42, ,
-39, ,41, ,
-39, ,41, ,
-36, ,41, ,
-35, ,42, ,
-33, ,42, ,
-31, ,42, ,
-29, ,42, ,
-29, ,42, ,
-27, ,42, ,
-27, ,41, ,
-26, ,41, ,
-26, ,41, ,
-26, ,42, ,
-25, ,42, ,
-26, ,42, ,
-26, ,42, ,
-26, ,42, ,
-28, ,42, ,
-29, ,42, ,
-29, ,41, ,
-28, ,41, ,
-31, ,41, ,
-32, ,42, ,
-32, ,42, ,
-32, ,41, ,
-33, ,41, ,
-32, ,42, ,
-32, ,42, ,
-33, ,42, ,
-31, ,42, ,
-31, ,42, ,
-32, ,41, ,
-31, ,41, ,
-32, ,41, ,
-30, ,41, ,
-31, ,42, ,
-30, ,41, ,
-30, ,41, ,
-30, ,42, ,
-30, ,42, ,
-30, ,42, ,
-30, ,42, ,
-30, ,41, ,
-29, ,41, ,
-32, ,41, ,
-30, ,42, ,
-30, ,42, ,
-32, ,42, ,
-31, ,42, ,
-32, ,42, ,
-31, ,42, ,
-31, ,42, ,
-31, ,41, ,
-30, ,41, ,
-30, ,42, ,
-30, ,41, ,
-27, ,41, ,
-27, ,42, ,
-24, ,42, ,
-23, ,42, ,
-22, ,42, ,
-20, ,42, ,
-16, ,42, ,
-15, ,42, ,
-12, ,42, ,
-12, ,41, ,
-9, ,41, ,
-5, ,41, ,
-4, ,42, ,
-1, ,42, ,
3, ,41, ,
5, ,41, ,
8, ,41, ,
8, ,42, ,
13, ,42, ,
16, ,42, ,
16, ,42, ,
18, ,41, ,
23, ,41, ,
24, ,42, ,
27, ,42, ,
29, ,41, ,
32, ,41, ,
35, ,42, ,
36, ,42, ,
39, ,42, ,
42, ,42, ,
44, ,42, ,
45, ,41, ,
45, ,41, ,
49, ,42, ,
51, ,42, ,
50, ,42, ,
52, ,42, ,
52, ,42, ,
52, ,42, ,
52, ,42, ,
51, ,42, ,
48, ,42, ,
49, ,41, ,
44, ,41, ,
44, ,42, ,
39, ,42, ,
36, ,41, ,
35, ,41, ,
30, ,42, ,
25, ,42, ,
21, ,42, ,
16, ,42, ,
12, ,41, ,
5, ,41, ,
0, ,41, ,
-1, ,42, ,
-6, ,41, ,
-11, ,41, ,
-11, ,41, ,
-16, ,41, ,
-16, ,42, ,
-18, ,42, ,
-19, ,41, ,
-16, ,41, ,
-17, ,41, ,
-13, ,42, ,
-10, ,42, ,
-10, ,41, ,
-6, ,41, ,
1, ,41, ,
5, ,42, ,
10, ,42, ,
12, ,42, ,
20, ,42, ,
27, ,42, ,
30, ,42, ,
35, ,42, ,
44, ,42, ,
47, ,42, ,
52, ,42, ,
53, ,42, ,
59, ,42, ,
65, ,42, ,
64, ,42, ,
67, ,42, ,
70, ,42, ,
69, ,42, ,
70, ,41, ,
70, ,41, ,
68, ,42, ,
68, ,42, ,
66, ,42, ,
64, ,42, ,
59, ,41, ,
57, ,41, ,
55, ,41, ,
51, ,42, ,
43, ,42, ,
42, ,42, ,
36, ,42, ,
35, ,41, ,
26, ,41, ,
20, ,41, ,
16, ,42, ,
12, ,42, ,
4, ,42, ,
0, ,42, ,
-6, ,42, ,
-8, ,42, ,
-17, ,42, ,
-20, ,42, ,
-23, ,42, ,
-28, ,41, ,
-33, ,41, ,
-34, ,41, ,
-38, ,42, ,
-38, ,41, ,
-40, ,41, ,
-40, ,42, ,
-40, ,42, ,
-41, ,42, ,
-39, ,42, ,
-38, ,42, ,
-36, ,41, ,
-35, ,41, ,
-30, ,42, ,
-29, ,42, ,
-26, ,42, ,
-24, ,41, ,
-19, ,41, ,
-15, ,41, ,
-12, ,41, ,
-9, ,41, ,
-2, ,41, ,
-2, ,42, ,
2, ,41, ,
4, ,41, ,
8, ,41, ,
12, ,41, ,
12, ,41, ,
15, ,41, ,
16, ,41, ,
18, ,41, ,
18, ,41, ,
18, ,42, ,
19, ,41, ,
18, ,41, ,
18, ,41, ,
18, ,42, ,
17, ,41, ,
15, ,41, ,
15, ,41, ,
14, ,41, ,
11, ,41, ,
11, ,41, ,
10, ,41, ,
9, ,41, ,
8, ,41, ,
6, ,42, ,
7, ,42, ,
5, ,41, ,
4, ,41, ,
5, ,41, ,
3, ,41, ,
4, ,41, ,
4, ,42, ,
2, ,42, ,
3, ,42, ,
2, ,42, ,
3, ,42, ,
3, ,42, ,
2, ,42, ,
2, ,42, ,
2, ,42, ,
2, ,42, ,
1, ,41, ,
0, ,41, ,
-1, ,41, ,
0, ,41, ,
-3, ,42, ,
-3, ,42, ,
-5, ,42, ,
-8, ,42, ,
-8, ,42, ,
-10, ,42, ,
-14, ,42, ,
-13, ,42, ,
-17, ,41, ,
-17, ,41, ,
-21, ,41, ,
-21, ,41, ,
-23, ,41, ,
-25, ,42, ,
-26, ,42, ,
-26, ,41, ,
-27, ,41, ,
-27, ,41, ,
-26, ,41, ,
-27, ,42, ,
-26, ,42, ,
-25, ,41, ,
-25, ,41, ,
-22, ,41, ,
-22, ,41, ,
-21, ,41, ,
-19, ,41, ,
-19, ,41, ,
-17, ,41, ,
-18, ,41, ,
-15, ,41, ,
-14, ,41, ,
-14, ,42, ,
-13, ,42, ,
-14, ,41, ,
-14, ,41, ,
-14, ,41, ,
-14, ,42, ,
-15, ,42, ,
-17, ,41, ,
-17, ,41, ,
-17, ,41, ,
-19, ,41, ,
-20, ,42, ,
-20, ,42, ,
-21, ,41, ,
-21, ,41, ,
-21, ,41, ,
-22, ,42, ,
-22, ,41, ,
-21, ,41, ,
-22, ,41, ,
-20, ,42, ,
-21, ,41, ,
-19, ,41, ,
-19, ,41, ,
-17, ,41, ,
-17, ,41, ,
-15, ,41, ,
-13, ,41, ,
-11, ,41, ,
-11, ,41, ,
-8, ,42, ,
-7, ,41, ,
-7, ,41, ,
-4, ,42, ,
-3, ,41, ,
-3, ,41, ,
-2, ,41, ,
0, ,42, ,
0, ,42, ,
2, ,42, ,
3, ,42, ,
4, ,41, ,
5, ,41, ,
6, ,42, ,
7, ,42, ,
6, ,42, ,
8, ,42, ,
8, ,41, ,
8, ,41, ,
9, ,42, ,
10, ,42, ,
11, ,42, ,
11, ,42, ,
10, ,42, ,
13, ,42, ,
13, ,41, ,
12, ,41, ,
12, ,41, ,
13, ,42, ,
12, ,42, ,
12, ,42, ,
12, ,42, ,
12, ,41, ,
13, ,41, ,
11, ,41, ,
11, ,41, ,
11, ,41, ,
9, ,41, ,
10, ,41, ,
10, ,41, ,
9, ,41, ,
10, ,41, ,
9, ,41, ,
10, ,42, ,
10, ,41, ,
10, ,41, ,
10, ,41, ,
10, ,41, ,
10, ,41, ,
10, ,41, ,
10, ,42, ,
11, ,41, ,
12, ,41, ,
11, ,41, ,
13, ,41, ,
12, ,41, ,
13, ,41, ,
14, ,41, ,
14, ,41, ,
15, ,42, ,
16, ,42, ,
16, ,41, ,
18, ,41, ,
18, ,42, ,
18, ,41, ,
20, ,41, ,
19, ,41, ,
21, ,42, ,
22, ,42, ,
21, ,42, ,
23, ,42, ,
22, ,42, ,
22, ,42, ,
22, ,42, ,
21, ,42, ,
23, ,41, ,
24, ,41, ,
23, ,41, ,
24, ,41, ,
23, ,42, ,
24, ,42, ,
24, ,42, ,
23, ,42, ,
23, ,41, ,
22, ,41, ,
21, ,41, ,
23, ,41, ,
22, ,41, ,
22, ,41, ,
