raw_data/100% Glycerol, Impulsion 2Hz, Sonde 5MHz, Rampe 0.7Hz/temp0000059.CSV

Format,1.0B,
Memory Length,10000,Memory Length,10000,
IntpDistance,0,IntpDistance,0,
Trigger Address,159,Trigger Address,159,
Trigger Level,2.720E-01,Trigger Level,2.720E-01,
Source,CH1,Source,CH2,
Vertical Units,V,Vertical Units,V,
Vertical Units Div,0,Vertical Units Div,0,
Vertical Units Extend Div,16,Vertical Units Extend Div,16,
Label,,Label,,
Probe Type,0,Probe Type,0,
Probe Ratio,1.000e+00,Probe Ratio,1.000e+00,
Vertical Scale,2.000e-01,Vertical Scale,2.000e+00,
Vertical Position,0.000e+00,Vertical Position,0.000e+00,
Horizontal Units,S,Horizontal Units,S,
Horizontal Scale,5.000E-06,Horizontal Scale,5.000E-06,
Horizontal Position,2.420E-05,Horizontal Position,2.420E-05,
Horizontal Mode,Main,Horizontal Mode,Main,
SincET Mode,Real Time,SincET Mode,Real Time,
Sampling Period,5.000e-09,Sampling Period,5.000e-09,
Horizontal Old Scale,5.000E-06,Horizontal Old Scale,5.000E-06,
Horizontal Old Position,2.420E-05,Horizontal Old Position,2.420E-05,
Firmware,V1.32,Firmware,V1.32,
Mode,Fast,Mode,Fast,
Waveform Data,,Waveform Data,,
2, ,27, ,
3, ,28, ,
3, ,27, ,
2, ,27, ,
3, ,27, ,
2, ,27, ,
2, ,27, ,
3, ,28, ,
3, ,27, ,
4, ,27, ,
3, ,28, ,
3, ,27, ,
2, ,27, ,
3, ,27, ,
3, ,27, ,
2, ,28, ,
2, ,27, ,
3, ,27, ,
2, ,27, ,
2, ,27, ,
3, ,28, ,
2, ,27, ,
2, ,27, ,
2, ,28, ,
2, ,28, ,
2, ,27, ,
2, ,27, ,
2, ,27, ,
3, ,27, ,
2, ,27, ,
2, ,27, ,
2, ,27, ,
1, ,27, ,
2, ,28, ,
2, ,27, ,
2, ,27, ,
3, ,27, ,
2, ,27, ,
3, ,27, ,
3, ,28, ,
2, ,28, ,
2, ,28, ,
1, ,28, ,
2, ,27, ,
3, ,27, ,
2, ,28, ,
2, ,27, ,
2, ,27, ,
2, ,27, ,
2, ,27, ,
1, ,27, ,
2, ,27, ,
3, ,27, ,
3, ,27, ,
3, ,27, ,
3, ,28, ,
2, ,27, ,
3, ,27, ,
2, ,27, ,
3, ,28, ,
3, ,28, ,
2, ,27, ,
2, ,27, ,
3, ,27, ,
3, ,27, ,
3, ,27, ,
3, ,27, ,
3, ,27, ,
3, ,28, ,
2, ,27, ,
2, ,27, ,
2, ,27, ,
2, ,27, ,
2, ,28, ,
3, ,28, ,
3, ,27, ,
4, ,27, ,
3, ,27, ,
3, ,28, ,
2, ,28, ,
1, ,27, ,
2, ,27, ,
2, ,27, ,
2, ,27, ,
2, ,27, ,
1, ,27, ,
3, ,27, ,
3, ,27, ,
2, ,27, ,
2, ,27, ,
1, ,27, ,
2, ,27, ,
3, ,28, ,
2, ,27, ,
3, ,27, ,
2, ,27, ,
2, ,27, ,
2, ,27, ,
2, ,27, ,
2, ,27, ,
3, ,28, ,
3, ,27, ,
3, ,27, ,
2, ,27, ,
2, ,27, ,
2, ,27, ,
2, ,27, ,
2, ,27, ,
2, ,27, ,
2, ,27, ,
3, ,27, ,
3, ,27, ,
2, ,27, ,
3, ,27, ,
2, ,27, ,
3, ,27, ,
3, ,27, ,
4, ,27, ,
4, ,27, ,
3, ,27, ,
2, ,27, ,
3, ,27, ,
1, ,28, ,
2, ,27, ,
2, ,27, ,
2, ,27, ,
2, ,27, ,
3, ,27, ,
2, ,27, ,
3, ,27, ,
3, ,27, ,
2, ,27, ,
2, ,27, ,
2, ,27, ,
3, ,27, ,
3, ,27, ,
1, ,27, ,
4, ,27, ,
3, ,27, ,
3, ,27, ,
3, ,27, ,
3, ,27, ,
3, ,27, ,
3, ,27, ,
3, ,27, ,
3, ,27, ,
2, ,27, ,
2, ,27, ,
3, ,28, ,
3, ,28, ,
3, ,28, ,
2, ,28, ,
2, ,27, ,
2, ,27, ,
2, ,27, ,
2, ,27, ,
2, ,27, ,
1, ,28, ,
3, ,28, ,
3, ,28, ,
2, ,27, ,
2, ,27, ,
2, ,27, ,
7, ,27, ,
0, ,27, ,
0, ,27, ,
0, ,27, ,
26, ,28, ,
78, ,28, ,
125, ,28, ,
125, ,28, ,
125, ,27, ,
121, ,27, ,
117, ,28, ,
27, ,28, ,
68, ,28, ,
125, ,28, ,
125, ,27, ,
125, ,27, ,
125, ,27, ,
125, ,27, ,
125, ,27, ,
125, ,27, ,
125, ,27, ,
125, ,27, ,
125, ,27, ,
125, ,27, ,
125, ,27, ,
125, ,27, ,
125, ,28, ,
125, ,27, ,
125, ,27, ,
125, ,27, ,
125, ,27, ,
125, ,27, ,
125, ,27, ,
125, ,27, ,
125, ,27, ,
125, ,27, ,
125, ,27, ,
125, ,27, ,
125, ,27, ,
124, ,28, ,
122, ,27, ,
118, ,27, ,
111, ,28, ,
107, ,27, ,
99, ,27, ,
95, ,27, ,
93, ,27, ,
86, ,27, ,
79, ,27, ,
75, ,27, ,
72, ,27, ,
69, ,27, ,
63, ,28, ,
59, ,27, ,
57, ,27, ,
54, ,28, ,
49, ,27, ,
49, ,27, ,
44, ,27, ,
43, ,27, ,
40, ,27, ,
36, ,27, ,
36, ,27, ,
35, ,27, ,
30, ,27, ,
30, ,27, ,
27, ,27, ,
27, ,27, ,
23, ,27, ,
24, ,28, ,
21, ,28, ,
19, ,28, ,
18, ,28, ,
18, ,28, ,
17, ,28, ,
14, ,27, ,
13, ,27, ,
11, ,27, ,
11, ,27, ,
10, ,27, ,
9, ,27, ,
8, ,28, ,
8, ,28, ,
7, ,28, ,
7, ,28, ,
5, ,27, ,
5, ,27, ,
4, ,28, ,
4, ,27, ,
2, ,27, ,
2, ,27, ,
3, ,27, ,
2, ,27, ,
1, ,27, ,
1, ,27, ,
1, ,27, ,
1, ,27, ,
1, ,27, ,
0, ,27, ,
0, ,27, ,
0, ,28, ,
0, ,28, ,
-1, ,27, ,
-1, ,27, ,
-1, ,27, ,
0, ,27, ,
-2, ,27, ,
-2, ,27, ,
-2, ,27, ,
-2, ,27, ,
-2, ,28, ,
-2, ,27, ,
-2, ,27, ,
-2, ,27, ,
-3, ,27, ,
-3, ,27, ,
-2, ,28, ,
-1, ,27, ,
-1, ,27, ,
-3, ,28, ,
-3, ,27, ,
-2, ,27, ,
-2, ,27, ,
-2, ,27, ,
-2, ,27, ,
-3, ,27, ,
-2, ,27, ,
-3, ,27, ,
-4, ,27, ,
-2, ,27, ,
-2, ,27, ,
-2, ,27, ,
-2, ,28, ,
-2, ,27, ,
-1, ,27, ,
-2, ,27, ,
-2, ,27, ,
-1, ,27, ,
-3, ,28, ,
-1, ,28, ,
-2, ,28, ,
-2, ,27, ,
-1, ,27, ,
-1, ,27, ,
-1, ,27, ,
0, ,28, ,
0, ,27, ,
0, ,27, ,
-1, ,28, ,
-1, ,28, ,
-1, ,27, ,
-2, ,27, ,
-1, ,27, ,
0, ,27, ,
-1, ,27, ,
0, ,28, ,
-1, ,28, ,
-1, ,28, ,
-1, ,27, ,
-1, ,27, ,
0, ,27, ,
0, ,27, ,
0, ,27, ,
0, ,27, ,
0, ,28, ,
0, ,28, ,
0, ,27, ,
0, ,27, ,
0, ,27, ,
0, ,27, ,
0, ,28, ,
0, ,27, ,
0, ,27, ,
0, ,27, ,
0, ,27, ,
0, ,27, ,
0, ,27, ,
1, ,27, ,
1, ,28, ,
1, ,27, ,
0, ,27, ,
1, ,27, ,
2, ,27, ,
1, ,27, ,
1, ,27, ,
1, ,28, ,
1, ,27, ,
1, ,27, ,
1, ,28, ,
1, ,28, ,
1, ,27, ,
1, ,27, ,
1, ,27, ,
1, ,27, ,
1, ,28, ,
2, ,27, ,
2, ,27, ,
1, ,27, ,
2, ,27, ,
1, ,27, ,
1, ,27, ,
2, ,27, ,
1, ,27, ,
2, ,27, ,
2, ,28, ,
1, ,27, ,
1, ,27, ,
1, ,27, ,
1, ,27, ,
2, ,27, ,
1, ,27, ,
2, ,27, ,
2, ,27, ,
2, ,27, ,
1, ,27, ,
1, ,27, ,
2, ,27, ,
3, ,28, ,
2, ,28, ,
3, ,27, ,
2, ,27, ,
1, ,27, ,
2, ,27, ,
1, ,27, ,
1, ,27, ,
2, ,28, ,
2, ,27, ,
2, ,27, ,
2, ,27, ,
2, ,27, ,
2, ,27, ,
1, ,28, ,
2, ,27, ,
2, ,27, ,
1, ,28, ,
2, ,27, ,
2, ,27, ,
2, ,27, ,
2, ,27, ,
1, ,27, ,
1, ,27, ,
1, ,28, ,
2, ,27, ,
2, ,27, ,
2, ,28, ,
2, ,27, ,
2, ,27, ,
1, ,27, ,
2, ,28, ,
2, ,28, ,
1, ,28, ,
1, ,27, ,
2, ,27, ,
1, ,27, ,
2, ,28, ,
2, ,27, ,
2, ,27, ,
2, ,27, ,
2, ,27, ,
2, ,27, ,
2, ,27, ,
1, ,27, ,
2, ,27, ,
0, ,27, ,
2, ,27, ,
1, ,27, ,
1, ,28, ,
2, ,27, ,
2, ,27, ,
1, ,27, ,
2, ,27, ,
1, ,27, ,
1, ,27, ,
3, ,27, ,
2, ,27, ,
2, ,27, ,
1, ,27, ,
1, ,27, ,
1, ,27, ,
0, ,27, ,
-1, ,27, ,
-1, ,27, ,
-2, ,27, ,
0, ,27, ,
0, ,28, ,
0, ,28, ,
1, ,28, ,
1, ,27, ,
1, ,27, ,
2, ,27, ,
2, ,27, ,
2, ,27, ,
3, ,28, ,
3, ,28, ,
2, ,28, ,
2, ,28, ,
2, ,27, ,
2, ,27, ,
1, ,28, ,
2, ,28, ,
3, ,28, ,
1, ,28, ,
2, ,28, ,
1, ,28, ,
1, ,28, ,
1, ,28, ,
2, ,27, ,
2, ,27, ,
3, ,28, ,
3, ,27, ,
3, ,27, ,
2, ,28, ,
2, ,27, ,
2, ,27, ,
2, ,27, ,
1, ,27, ,
0, ,27, ,
0, ,27, ,
-1, ,28, ,
0, ,27, ,
-2, ,27, ,
0, ,27, ,
0, ,28, ,
0, ,28, ,
1, ,28, ,
1, ,27, ,
2, ,27, ,
0, ,27, ,
2, ,27, ,
3, ,27, ,
2, ,27, ,
2, ,27, ,
4, ,27, ,
3, ,27, ,
3, ,27, ,
3, ,27, ,
2, ,27, ,
2, ,27, ,
2, ,27, ,
2, ,27, ,
2, ,27, ,
1, ,27, ,
2, ,27, ,
1, ,27, ,
3, ,27, ,
3, ,27, ,
3, ,28, ,
3, ,27, ,
3, ,27, ,
1, ,27, ,
2, ,28, ,
1, ,28, ,
0, ,27, ,
0, ,27, ,
-1, ,27, ,
-1, ,27, ,
-4, ,28, ,
-5, ,27, ,
-5, ,27, ,
-7, ,27, ,
-7, ,27, ,
-7, ,27, ,
-7, ,27, ,
-7, ,27, ,
-8, ,27, ,
-8, ,27, ,
-8, ,27, ,
-8, ,27, ,
-9, ,27, ,
-8, ,27, ,
-10, ,27, ,
-10, ,27, ,
-15, ,27, ,
-15, ,27, ,
-16, ,27, ,
-19, ,28, ,
-21, ,28, ,
-22, ,28, ,
-25, ,27, ,
-25, ,27, ,
-26, ,28, ,
-28, ,28, ,
-28, ,27, ,
-27, ,27, ,
-26, ,27, ,
-26, ,28, ,
-25, ,27, ,
-25, ,27, ,
-25, ,28, ,
-26, ,27, ,
-27, ,27, ,
-28, ,27, ,
-30, ,27, ,
-30, ,28, ,
-32, ,28, ,
-32, ,27, ,
-33, ,27, ,
-34, ,27, ,
-33, ,27, ,
-34, ,28, ,
-31, ,27, ,
-27, ,27, ,
-26, ,27, ,
-22, ,27, ,
-19, ,27, ,
-16, ,28, ,
-14, ,27, ,
-13, ,27, ,
-10, ,27, ,
-9, ,28, ,
-9, ,27, ,
-9, ,27, ,
-8, ,27, ,
-10, ,27, ,
-10, ,27, ,
-10, ,27, ,
-9, ,27, ,
-7, ,27, ,
-5, ,27, ,
-6, ,27, ,
-1, ,27, ,
0, ,27, ,
1, ,27, ,
3, ,27, ,
4, ,27, ,
5, ,28, ,
4, ,27, ,
6, ,27, ,
4, ,28, ,
2, ,28, ,
1, ,27, ,
-1, ,27, ,
-4, ,27, ,
-7, ,28, ,
-8, ,28, ,
-10, ,28, ,
-12, ,28, ,
-12, ,27, ,
-15, ,27, ,
-15, ,27, ,
-15, ,27, ,
-15, ,27, ,
-15, ,28, ,
-15, ,27, ,
-15, ,27, ,
-17, ,27, ,
-16, ,27, ,
-19, ,27, ,
-23, ,27, ,
-24, ,27, ,
-26, ,28, ,
-28, ,27, ,
-31, ,27, ,
-33, ,27, ,
-32, ,27, ,
-33, ,27, ,
-32, ,27, ,
-31, ,27, ,
-31, ,28, ,
-31, ,27, ,
-30, ,27, ,
-30, ,27, ,
-30, ,27, ,
-31, ,27, ,
-33, ,27, ,
-33, ,27, ,
-35, ,27, ,
-37, ,27, ,
-39, ,27, ,
-40, ,27, ,
-40, ,27, ,
-42, ,27, ,
-43, ,27, ,
-43, ,27, ,
-44, ,27, ,
-43, ,27, ,
-41, ,28, ,
-42, ,28, ,
-39, ,27, ,
-40, ,27, ,
-37, ,27, ,
-35, ,28, ,
-34, ,27, ,
-31, ,27, ,
-27, ,27, ,
-25, ,27, ,
-24, ,27, ,
-22, ,27, ,
-21, ,27, ,
-21, ,27, ,
-22, ,28, ,
-22, ,28, ,
-23, ,28, ,
-26, ,28, ,
-26, ,27, ,
-27, ,27, ,
-27, ,27, ,
-27, ,27, ,
-27, ,27, ,
-26, ,27, ,
-25, ,27, ,
-24, ,27, ,
-24, ,27, ,
-24, ,27, ,
-25, ,27, ,
-25, ,27, ,
-26, ,28, ,
-25, ,27, ,
-27, ,27, ,
-27, ,27, ,
-27, ,27, ,
-27, ,27, ,
-25, ,27, ,
-24, ,28, ,
-23, ,27, ,
-20, ,27, ,
-15, ,27, ,
-16, ,27, ,
-12, ,27, ,
-12, ,27, ,
-9, ,27, ,
-8, ,27, ,
-9, ,27, ,
-7, ,27, ,
-7, ,27, ,
-7, ,27, ,
-6, ,27, ,
-7, ,27, ,
-5, ,27, ,
-5, ,28, ,
-4, ,27, ,
-3, ,27, ,
-2, ,28, ,
-1, ,28, ,
-1, ,28, ,
-1, ,28, ,
-2, ,27, ,
-1, ,27, ,
-2, ,27, ,
0, ,27, ,
1, ,27, ,
0, ,27, ,
3, ,27, ,
4, ,27, ,
5, ,27, ,
6, ,28, ,
5, ,27, ,
7, ,27, ,
5, ,27, ,
6, ,27, ,
7, ,27, ,
6, ,28, ,
6, ,27, ,
6, ,27, ,
7, ,28, ,
7, ,27, ,
8, ,27, ,
8, ,27, ,
9, ,27, ,
10, ,27, ,
10, ,27, ,
12, ,27, ,
12, ,27, ,
11, ,27, ,
11, ,27, ,
11, ,27, ,
11, ,27, ,
10, ,28, ,
9, ,27, ,
10, ,27, ,
7, ,27, ,
8, ,27, ,
8, ,27, ,
7, ,27, ,
7, ,27, ,
5, ,27, ,
5, ,27, ,
4, ,28, ,
4, ,27, ,
2, ,27, ,
0, ,27, ,
-1, ,27, ,
-2, ,28, ,
-5, ,28, ,
-8, ,27, ,
-8, ,27, ,
-11, ,27, ,
-12, ,27, ,
-15, ,27, ,
-18, ,27, ,
-18, ,28, ,
-20, ,28, ,
-22, ,28, ,
-23, ,28, ,
-25, ,27, ,
-26, ,27, ,
-28, ,27, ,
-29, ,27, ,
-28, ,27, ,
-30, ,28, ,
-29, ,28, ,
-29, ,28, ,
-30, ,28, ,
-29, ,27, ,
-28, ,27, ,
-29, ,27, ,
-29, ,27, ,
-29, ,27, ,
-30, ,27, ,
-30, ,27, ,
-31, ,27, ,
-31, ,27, ,
-32, ,27, ,
-33, ,27, ,
-33, ,27, ,
-34, ,27, ,
-33, ,27, ,
-32, ,27, ,
-33, ,27, ,
-33, ,27, ,
-30, ,27, ,
-30, ,27, ,
-30, ,27, ,
-30, ,27, ,
-28, ,27, ,
-28, ,28, ,
-27, ,28, ,
-25, ,27, ,
-23, ,27, ,
-24, ,27, ,
-22, ,27, ,
-20, ,27, ,
-17, ,27, ,
-14, ,28, ,
-14, ,27, ,
-11, ,27, ,
-7, ,27, ,
-7, ,27, ,
-4, ,27, ,
-4, ,27, ,
-2, ,27, ,
-2, ,28, ,
-2, ,27, ,
-2, ,27, ,
-2, ,28, ,
-3, ,27, ,
-2, ,27, ,
-5, ,28, ,
-2, ,28, ,
-2, ,28, ,
-3, ,27, ,
-3, ,27, ,
-3, ,28, ,
-4, ,27, ,
-4, ,27, ,
-4, ,27, ,
-5, ,27, ,
-5, ,28, ,
-5, ,27, ,
-4, ,27, ,
-2, ,28, ,
-1, ,27, ,
0, ,27, ,
0, ,27, ,
3, ,27, ,
6, ,27, ,
5, ,27, ,
7, ,27, ,
10, ,27, ,
11, ,27, ,
11, ,27, ,
10, ,27, ,
13, ,27, ,
14, ,28, ,
13, ,27, ,
14, ,27, ,
14, ,28, ,
14, ,27, ,
13, ,27, ,
13, ,27, ,
12, ,28, ,
12, ,28, ,
10, ,27, ,
9, ,27, ,
7, ,27, ,
3, ,27, ,
2, ,27, ,
2, ,27, ,
-6, ,28, ,
-5, ,28, ,
-8, ,27, ,
-8, ,27, ,
-13, ,28, ,
-14, ,27, ,
-15, ,27, ,
-18, ,27, ,
-20, ,27, ,
-22, ,27, ,
-25, ,27, ,
-26, ,27, ,
-28, ,28, ,
-29, ,28, ,
-32, ,28, ,
-35, ,28, ,
-37, ,27, ,
-37, ,27, ,
-39, ,28, ,
-40, ,28, ,
-43, ,28, ,
-44, ,27, ,
-45, ,27, ,
-47, ,27, ,
-48, ,27, ,
-48, ,27, ,
-48, ,27, ,
-47, ,27, ,
-47, ,27, ,
-46, ,27, ,
-45, ,27, ,
-46, ,27, ,
-42, ,27, ,
-41, ,28, ,
-39, ,27, ,
-37, ,27, ,
-34, ,27, ,
-32, ,27, ,
-30, ,27, ,
-29, ,28, ,
-25, ,27, ,
-20, ,27, ,
-21, ,28, ,
-18, ,27, ,
-14, ,27, ,
-14, ,27, ,
-10, ,27, ,
-10, ,27, ,
-8, ,27, ,
-6, ,28, ,
-7, ,27, ,
-5, ,27, ,
-6, ,27, ,
-5, ,27, ,
-5, ,27, ,
-5, ,28, ,
-4, ,27, ,
-4, ,27, ,
-4, ,28, ,
-4, ,27, ,
-5, ,27, ,
-5, ,27, ,
-5, ,27, ,
-5, ,27, ,
-7, ,27, ,
-7, ,28, ,
-8, ,28, ,
-8, ,27, ,
-8, ,27, ,
-10, ,27, ,
-10, ,27, ,
-11, ,27, ,
-11, ,27, ,
-12, ,27, ,
-12, ,27, ,
-11, ,27, ,
-12, ,28, ,
-12, ,27, ,
-12, ,27, ,
-13, ,27, ,
-13, ,27, ,
-13, ,27, ,
-13, ,27, ,
-13, ,27, ,
-13, ,27, ,
-13, ,27, ,
-13, ,28, ,
-12, ,28, ,
-10, ,27, ,
-10, ,27, ,
-10, ,27, ,
-9, ,27, ,
-9, ,27, ,
-9, ,27, ,
-8, ,27, ,
-8, ,27, ,
-7, ,27, ,
-7, ,27, ,
-8, ,27, ,
-8, ,27, ,
-7, ,28, ,
-7, ,27, ,
-7, ,27, ,
-7, ,28, ,
-7, ,27, ,
-7, ,27, ,
-8, ,27, ,
-8, ,28, ,
-7, ,27, ,
-7, ,27, ,
-7, ,27, ,
-8, ,27, ,
-9, ,27, ,
-8, ,28, ,
-8, ,27, ,
-8, ,27, ,
-7, ,28, ,
-7, ,28, ,
-6, ,27, ,
-7, ,27, ,
-5, ,27, ,
-4, ,27, ,
-4, ,27, ,
-2, ,27, ,
-1, ,27, ,
0, ,27, ,
1, ,27, ,
1, ,27, ,
2, ,27, ,
3, ,27, ,
4, ,27, ,
5, ,28, ,
5, ,28, ,
5, ,27, ,
6, ,27, ,
6, ,28, ,
5, ,27, ,
5, ,27, ,
5, ,28, ,
5, ,27, ,
4, ,27, ,
3, ,27, ,
2, ,27, ,
2, ,27, ,
0, ,27, ,
-1, ,28, ,
-3, ,28, ,
-2, ,28, ,
-5, ,28, ,
-5, ,27, ,
-6, ,27, ,
-9, ,27, ,
-9, ,27, ,
-9, ,27, ,
-10, ,28, ,
-10, ,27, ,
-11, ,27, ,
-11, ,27, ,
-12, ,27, ,
-12, ,27, ,
-13, ,27, ,
-12, ,27, ,
-13, ,27, ,
-13, ,27, ,
-12, ,27, ,
-11, ,27, ,
-10, ,27, ,
-10, ,28, ,
-10, ,28, ,
-9, ,28, ,
-10, ,27, ,
-8, ,27, ,
-8, ,28, ,
-8, ,27, ,
-8, ,27, ,
-9, ,27, ,
-9, ,27, ,
-8, ,28, ,
-8, ,28, ,
-7, ,28, ,
-6, ,28, ,
-6, ,28, ,
-6, ,27, ,
-7, ,27, ,
-5, ,27, ,
-5, ,27, ,
-5, ,27, ,
-5, ,27, ,
-4, ,27, ,
-4, ,27, ,
-4, ,27, ,
-5, ,27, ,
-5, ,27, ,
-4, ,28, ,
-5, ,27, ,
-4, ,27, ,
-4, ,28, ,
-3, ,28, ,
-3, ,28, ,
-4, ,28, ,
-1, ,27, ,
-2, ,27, ,
-2, ,27, ,
-2, ,27, ,
-2, ,27, ,
-2, ,27, ,
-1, ,27, ,
-2, ,27, ,
-3, ,27, ,
-2, ,27, ,
-3, ,28, ,
-2, ,28, ,
-1, ,28, ,
-2, ,27, ,
-1, ,27, ,
-2, ,27, ,
-2, ,27, ,
-2, ,27, ,
-3, ,27, ,
-1, ,27, ,
-3, ,27, ,
-4, ,27, ,
-3, ,27, ,
-3, ,27, ,
-3, ,27, ,
-2, ,27, ,
-3, ,28, ,
-1, ,27, ,
-1, ,27, ,
-1, ,27, ,
-1, ,28, ,
-1, ,28, ,
0, ,27, ,
0, ,27, ,
0, ,28, ,
1, ,27, ,
2, ,27, ,
2, ,27, ,
2, ,27, ,
2, ,27, ,
3, ,27, ,
3, ,27, ,
3, ,27, ,
3, ,27, ,
3, ,27, ,
3, ,27, ,
4, ,27, ,
3, ,27, ,
2, ,27, ,
2, ,27, ,
2, ,27, ,
2, ,27, ,
1, ,27, ,
0, ,27, ,
0, ,27, ,
0, ,27, ,
0, ,27, ,
0, ,27, ,
-1, ,28, ,
-1, ,28, ,
-2, ,28, ,
0, ,28, ,
0, ,28, ,
0, ,28, ,
0, ,27, ,
1, ,27, ,
0, ,28, ,
1, ,28, ,
2, ,28, ,
1, ,28, ,
2, ,28, ,
1, ,27, ,
2, ,27, ,
3, ,27, ,
3, ,27, ,
4, ,27, ,
3, ,27, ,
4, ,27, ,
4, ,28, ,
3, ,28, ,
3, ,27, ,
4, ,27, ,
3, ,27, ,
3, ,27, ,
3, ,27, ,
2, ,27, ,
2, ,27, ,
1, ,28, ,
0, ,28, ,
1, ,28, ,
0, ,28, ,
0, ,28, ,
0, ,28, ,
-1, ,28, ,
0, ,27, ,
-4, ,27, ,
-1, ,27, ,
-1, ,28, ,
-1, ,28, ,
-1, ,27, ,
-1, ,27, ,
-2, ,27, ,
-1, ,27, ,
-2, ,27, ,
-1, ,27, ,
0, ,28, ,
-1, ,27, ,
0, ,27, ,
1, ,27, ,
0, ,27, ,
0, ,27, ,
0, ,28, ,
0, ,27, ,
0, ,27, ,
0, ,28, ,
1, ,28, ,
1, ,28, ,
0, ,28, ,
1, ,27, ,
1, ,27, ,
1, ,27, ,
1, ,27, ,
1, ,27, ,
1, ,27, ,
2, ,28, ,
2, ,27, ,
2, ,27, ,
2, ,27, ,
2, ,27, ,
4, ,27, ,
3, ,27, ,
3, ,27, ,
5, ,27, ,
4, ,27, ,
5, ,27, ,
5, ,28, ,
5, ,28, ,
6, ,27, ,
5, ,27, ,
5, ,27, ,
6, ,28, ,
5, ,28, ,
5, ,28, ,
4, ,28, ,
5, ,28, ,
5, ,28, ,
5, ,27, ,
5, ,27, ,
5, ,27, ,
3, ,27, ,
3, ,27, ,
3, ,27, ,
2, ,27, ,
3, ,27, ,
2, ,27, ,
2, ,27, ,
2, ,27, ,
1, ,28, ,
3, ,28, ,
0, ,28, ,
1, ,27, ,
2, ,27, ,
0, ,28, ,
2, ,28, ,
2, ,27, ,
0, ,27, ,
0, ,27, ,
0, ,27, ,
0, ,27, ,
0, ,27, ,
0, ,28, ,
-1, ,28, ,
-1, ,28, ,
-1, ,28, ,
-2, ,28, ,
-2, ,28, ,
-2, ,27, ,
-1, ,27, ,
-3, ,28, ,
-2, ,27, ,
-3, ,27, ,
-4, ,27, ,
-2, ,27, ,
-3, ,27, ,
-4, ,27, ,
-4, ,27, ,
-5, ,27, ,
-3, ,27, ,
-4, ,27, ,
-4, ,27, ,
-5, ,27, ,
-5, ,27, ,
-4, ,27, ,
-3, ,27, ,
-4, ,28, ,
-4, ,28, ,
-4, ,27, ,
-4, ,27, ,
-4, ,27, ,
-5, ,27, ,
-5, ,27, ,
-5, ,28, ,
-5, ,27, ,
-5, ,27, ,
-6, ,27, ,
-7, ,27, ,
-7, ,27, ,
-7, ,27, ,
-6, ,27, ,
-7, ,27, ,
-9, ,27, ,
-7, ,28, ,
-7, ,28, ,
-9, ,28, ,
-7, ,27, ,
-8, ,27, ,
-7, ,27, ,
-7, ,27, ,
-6, ,27, ,
-7, ,27, ,
-7, ,27, ,
-7, ,27, ,
-6, ,27, ,
-7, ,28, ,
-6, ,28, ,
-5, ,27, ,
-5, ,27, ,
-4, ,27, ,
-3, ,27, ,
-5, ,27, ,
-3, ,28, ,
-2, ,28, ,
-2, ,27, ,
-1, ,27, ,
-1, ,28, ,
-1, ,27, ,
-2, ,27, ,
-1, ,27, ,
-1, ,27, ,
-2, ,27, ,
-1, ,27, ,
-2, ,28, ,
-2, ,28, ,
-1, ,27, ,
-1, ,27, ,
-2, ,27, ,
-2, ,27, ,
-2, ,27, ,
-3, ,27, ,
-2, ,27, ,
-3, ,28, ,
-2, ,27, ,
-2, ,27, ,
-3, ,27, ,
-3, ,27, ,
-4, ,27, ,
-2, ,27, ,
-2, ,27, ,
-3, ,28, ,
-3, ,28, ,
-3, ,27, ,
-3, ,27, ,
-3, ,27, ,
-3, ,27, ,
-4, ,27, ,
-3, ,27, ,
-4, ,27, ,
-3, ,27, ,
-4, ,27, ,
-5, ,27, ,
-5, ,28, ,
-5, ,28, ,
-6, ,27, ,
-6, ,27, ,
-6, ,27, ,
-6, ,27, ,
-7, ,27, ,
-7, ,27, ,
-7, ,27, ,
-8, ,27, ,
-10, ,27, ,
-10, ,27, ,
-10, ,27, ,
-9, ,27, ,
-9, ,28, ,
-9, ,27, ,
-9, ,27, ,
-9, ,27, ,
-8, ,27, ,
-7, ,27, ,
-8, ,28, ,
-6, ,27, ,
-5, ,27, ,
-5, ,27, ,
-6, ,27, ,
-3, ,27, ,
-3, ,27, ,
-1, ,28, ,
-1, ,27, ,
1, ,27, ,
2, ,27, ,
3, ,27, ,
4, ,27, ,
3, ,28, ,
5, ,28, ,
7, ,28, ,
7, ,27, ,
8, ,27, ,
8, ,27, ,
10, ,28, ,
10, ,27, ,
10, ,27, ,
10, ,27, ,
11, ,28, ,
11, ,27, ,
12, ,27, ,
12, ,28, ,
12, ,27, ,
12, ,27, ,
11, ,27, ,
12, ,27, ,
12, ,27, ,
11, ,27, ,
12, ,27, ,
12, ,27, ,
10, ,27, ,
10, ,27, ,
10, ,28, ,
9, ,27, ,
9, ,27, ,
8, ,27, ,
9, ,27, ,
7, ,28, ,
6, ,28, ,
6, ,28, ,
5, ,28, ,
4, ,28, ,
4, ,28, ,
2, ,28, ,
2, ,27, ,
2, ,27, ,
1, ,27, ,
1, ,27, ,
1, ,27, ,
0, ,27, ,
0, ,27, ,
0, ,27, ,
0, ,27, ,
0, ,28, ,
0, ,27, ,
0, ,27, ,
0, ,28, ,
-1, ,28, ,
-1, ,28, ,
-1, ,27, ,
0, ,27, ,
0, ,27, ,
0, ,27, ,
1, ,27, ,
0, ,27, ,
0, ,27, ,
0, ,27, ,
1, ,27, ,
1, ,27, ,
0, ,28, ,
-1, ,27, ,
-1, ,27, ,
-1, ,28, ,
-1, ,27, ,
-1, ,27, ,
-3, ,28, ,
-3, ,27, ,
-1, ,27, ,
-4, ,27, ,
-4, ,27, ,
-4, ,28, ,
-5, ,28, ,
-5, ,28, ,
-6, ,27, ,
-5, ,27, ,
-7, ,28, ,
-8, ,27, ,
-8, ,27, ,
-9, ,28, ,
-9, ,28, ,
-9, ,28, ,
-9, ,28, ,
-9, ,28, ,
-9, ,28, ,
-10, ,27, ,
-9, ,27, ,
-10, ,27, ,
-10, ,27, ,
-9, ,28, ,
-10, ,28, ,
-10, ,28, ,
-9, ,28, ,
-9, ,27, ,
-9, ,27, ,
-9, ,27, ,
-9, ,27, ,
-8, ,27, ,
-9, ,28, ,
-9, ,28, ,
-8, ,28, ,
-9, ,27, ,
-7, ,27, ,
-7, ,28, ,
-6, ,28, ,
-7, ,28, ,
-6, ,28, ,
-5, ,28, ,
-5, ,28, ,
-5, ,28, ,
-5, ,27, ,
-5, ,27, ,
-5, ,27, ,
-5, ,27, ,
-5, ,27, ,
-4, ,27, ,
-2, ,27, ,
-3, ,27, ,
-1, ,27, ,
-2, ,27, ,
-2, ,27, ,
-1, ,27, ,
-2, ,27, ,
0, ,27, ,
1, ,27, ,
1, ,27, ,
1, ,27, ,
0, ,28, ,
2, ,28, ,
3, ,28, ,
3, ,28, ,
3, ,27, ,
4, ,27, ,
3, ,27, ,
4, ,28, ,
4, ,27, ,
4, ,27, ,
4, ,27, ,
4, ,27, ,
4, ,27, ,
4, ,28, ,
3, ,27, ,
4, ,27, ,
3, ,28, ,
3, ,27, ,
4, ,27, ,
3, ,27, ,
3, ,27, ,
2, ,27, ,
2, ,27, ,
2, ,27, ,
1, ,27, ,
1, ,27, ,
1, ,27, ,
2, ,27, ,
1, ,27, ,
1, ,28, ,
0, ,28, ,
1, ,28, ,
0, ,28, ,
0, ,27, ,
0, ,27, ,
-1, ,27, ,
-1, ,27, ,
-1, ,27, ,
-2, ,27, ,
-2, ,27, ,
-3, ,27, ,
-2, ,27, ,
-1, ,27, ,
-2, ,27, ,
-1, ,27, ,
-1, ,27, ,
-2, ,28, ,
-1, ,27, ,
-2, ,27, ,
0, ,27, ,
0, ,27, ,
0, ,27, ,
0, ,27, ,
0, ,27, ,
0, ,27, ,
0, ,27, ,
1, ,27, ,
1, ,27, ,
3, ,27, ,
3, ,27, ,
4, ,27, ,
5, ,27, ,
5, ,27, ,
7, ,27, ,
5, ,27, ,
8, ,27, ,
9, ,27, ,
8, ,28, ,
10, ,28, ,
10, ,27, ,
11, ,27, ,
11, ,27, ,
11, ,27, ,
12, ,27, ,
12, ,27, ,
12, ,27, ,
12, ,27, ,
13, ,27, ,
13, ,27, ,
12, ,27, ,
12, ,27, ,
11, ,27, ,
11, ,27, ,
11, ,28, ,
11, ,27, ,
11, ,27, ,
9, ,27, ,
9, ,28, ,
8, ,28, ,
6, ,28, ,
7, ,28, ,
6, ,27, ,
6, ,27, ,
5, ,27, ,
4, ,27, ,
4, ,27, ,
3, ,28, ,
2, ,28, ,
2, ,28, ,
0, ,27, ,
1, ,27, ,
1, ,28, ,
0, ,28, ,
0, ,27, ,
-1, ,27, ,
-2, ,27, ,
-1, ,27, ,
-2, ,27, ,
-2, ,27, ,
-3, ,27, ,
-3, ,27, ,
-3, ,27, ,
-3, ,28, ,
-3, ,28, ,
-3, ,28, ,
-4, ,28, ,
-3, ,27, ,
-3, ,27, ,
-3, ,27, ,
-2, ,27, ,
-3, ,27, ,
-2, ,27, ,
-1, ,28, ,
-1, ,27, ,
0, ,27, ,
1, ,27, ,
0, ,27, ,
1, ,28, ,
1, ,28, ,
1, ,27, ,
3, ,27, ,
3, ,28, ,
3, ,27, ,
4, ,27, ,
4, ,27, ,
5, ,28, ,
5, ,28, ,
5, ,28, ,
5, ,28, ,
5, ,27, ,
5, ,27, ,
5, ,28, ,
4, ,27, ,
4, ,27, ,
2, ,28, ,
3, ,27, ,
2, ,27, ,
2, ,27, ,
2, ,27, ,
2, ,27, ,
1, ,27, ,
0, ,27, ,
0, ,27, ,
-2, ,27, ,
0, ,28, ,
-1, ,28, ,
-1, ,27, ,
-1, ,27, ,
-3, ,27, ,
-2, ,28, ,
-3, ,28, ,
-3, ,28, ,
-3, ,28, ,
-4, ,28, ,
-3, ,27, ,
-3, ,27, ,
-4, ,27, ,
-2, ,28, ,
-2, ,27, ,
-2, ,27, ,
-3, ,27, ,
-2, ,27, ,
-2, ,27, ,
-2, ,27, ,
-3, ,27, ,
-2, ,27, ,
-3, ,28, ,
-2, ,27, ,
-2, ,27, ,
-3, ,28, ,
-2, ,27, ,
-1, ,27, ,
-2, ,27, ,
-1, ,27, ,
-2, ,28, ,
-2, ,28, ,
-1, ,28, ,
-2, ,27, ,
-2, ,27, ,
0, ,28, ,
-1, ,27, ,
0, ,27, ,
-2, ,27, ,
0, ,27, ,
0, ,28, ,
0, ,27, ,
0, ,27, ,
0, ,27, ,
0, ,27, ,
0, ,27, ,
0, ,27, ,
0, ,27, ,
1, ,27, ,
0, ,27, ,
0, ,27, ,
1, ,27, ,
1, ,27, ,
1, ,27, ,
0, ,28, ,
0, ,27, ,
1, ,27, ,
0, ,27, ,
2, ,27, ,
1, ,27, ,
1, ,27, ,
2, ,27, ,
1, ,27, ,
1, ,27, ,
1, ,28, ,
1, ,27, ,
2, ,27, ,
1, ,27, ,
1, ,27, ,
1, ,27, ,
0, ,27, ,
0, ,27, ,
1, ,27, ,
0, ,28, ,
1, ,27, ,
0, ,27, ,
0, ,27, ,
0, ,28, ,
1, ,27, ,
0, ,27, ,
2, ,27, ,
1, ,28, ,
2, ,28, ,
2, ,28, ,
1, ,27, ,
2, ,27, ,
1, ,28, ,
3, ,27, ,
3, ,27, ,
3, ,27, ,
3, ,27, ,
4, ,27, ,
3, ,27, ,
4, ,27, ,
4, ,27, ,
3, ,27, ,
4, ,27, ,
3, ,28, ,
4, ,28, ,
4, ,28, ,
4, ,28, ,
4, ,27, ,
3, ,27, ,
2, ,27, ,
3, ,28, ,
1, ,28, ,
3, ,27, ,
2, ,27, ,
1, ,27, ,
1, ,27, ,
0, ,27, ,
0, ,27, ,
0, ,28, ,
0, ,27, ,
0, ,27, ,
-1, ,28, ,
-1, ,27, ,
-1, ,27, ,
-1, ,28, ,
-2, ,27, ,
-2, ,27, ,
-2, ,28, ,
-2, ,27, ,
0, ,27, ,
-2, ,27, ,
-1, ,27, ,
-2, ,27, ,
-2, ,27, ,
-2, ,28, ,
-2, ,27, ,
-1, ,27, ,
-1, ,28, ,
-1, ,28, ,
