raw_data/100% Glycerol, Impulsion 2Hz, Sonde 5MHz, Rampe 0.7Hz/temp0000389.CSV

Format,1.0B,
Memory Length,10000,Memory Length,10000,
IntpDistance,0,IntpDistance,0,
Trigger Address,159,Trigger Address,159,
Trigger Level,2.720E-01,Trigger Level,2.720E-01,
Source,CH1,Source,CH2,
Vertical Units,V,Vertical Units,V,
Vertical Units Div,0,Vertical Units Div,0,
Vertical Units Extend Div,16,Vertical Units Extend Div,16,
Label,,Label,,
Probe Type,0,Probe Type,0,
Probe Ratio,1.000e+00,Probe Ratio,1.000e+00,
Vertical Scale,2.000e-01,Vertical Scale,2.000e+00,
Vertical Position,0.000e+00,Vertical Position,0.000e+00,
Horizontal Units,S,Horizontal Units,S,
Horizontal Scale,5.000E-06,Horizontal Scale,5.000E-06,
Horizontal Position,2.420E-05,Horizontal Position,2.420E-05,
Horizontal Mode,Main,Horizontal Mode,Main,
SincET Mode,Real Time,SincET Mode,Real Time,
Sampling Period,5.000e-09,Sampling Period,5.000e-09,
Horizontal Old Scale,5.000E-06,Horizontal Old Scale,5.000E-06,
Horizontal Old Position,2.420E-05,Horizontal Old Position,2.420E-05,
Firmware,V1.32,Firmware,V1.32,
Mode,Fast,Mode,Fast,
Waveform Data,,Waveform Data,,
2, ,33, ,
1, ,33, ,
0, ,33, ,
0, ,33, ,
0, ,33, ,
1, ,33, ,
0, ,33, ,
0, ,33, ,
1, ,33, ,
1, ,33, ,
1, ,33, ,
1, ,33, ,
1, ,33, ,
1, ,33, ,
2, ,33, ,
1, ,33, ,
2, ,33, ,
1, ,33, ,
2, ,33, ,
2, ,33, ,
1, ,33, ,
1, ,33, ,
1, ,32, ,
1, ,32, ,
1, ,33, ,
0, ,33, ,
0, ,33, ,
1, ,33, ,
1, ,33, ,
1, ,33, ,
1, ,32, ,
1, ,32, ,
1, ,33, ,
0, ,33, ,
1, ,33, ,
2, ,33, ,
0, ,33, ,
1, ,33, ,
1, ,33, ,
0, ,32, ,
1, ,32, ,
1, ,32, ,
1, ,33, ,
1, ,33, ,
1, ,33, ,
1, ,33, ,
2, ,33, ,
1, ,33, ,
2, ,33, ,
1, ,33, ,
0, ,33, ,
0, ,33, ,
0, ,33, ,
1, ,33, ,
1, ,33, ,
1, ,32, ,
2, ,32, ,
1, ,32, ,
1, ,33, ,
1, ,33, ,
1, ,33, ,
1, ,33, ,
1, ,33, ,
1, ,33, ,
1, ,33, ,
1, ,32, ,
1, ,32, ,
1, ,33, ,
1, ,33, ,
1, ,33, ,
2, ,33, ,
1, ,33, ,
1, ,33, ,
1, ,33, ,
0, ,33, ,
1, ,33, ,
1, ,33, ,
1, ,33, ,
1, ,32, ,
1, ,32, ,
2, ,33, ,
0, ,33, ,
1, ,33, ,
2, ,33, ,
1, ,33, ,
1, ,32, ,
2, ,32, ,
0, ,33, ,
0, ,33, ,
1, ,33, ,
1, ,33, ,
1, ,33, ,
1, ,33, ,
1, ,33, ,
2, ,33, ,
2, ,32, ,
1, ,32, ,
1, ,32, ,
1, ,32, ,
2, ,33, ,
1, ,33, ,
1, ,33, ,
1, ,33, ,
1, ,32, ,
2, ,32, ,
1, ,32, ,
1, ,33, ,
1, ,33, ,
1, ,32, ,
2, ,32, ,
2, ,32, ,
1, ,32, ,
2, ,32, ,
1, ,33, ,
1, ,33, ,
1, ,32, ,
1, ,32, ,
1, ,33, ,
1, ,33, ,
1, ,33, ,
1, ,33, ,
1, ,33, ,
1, ,33, ,
1, ,33, ,
1, ,33, ,
2, ,33, ,
2, ,32, ,
1, ,32, ,
2, ,33, ,
1, ,33, ,
1, ,33, ,
1, ,33, ,
1, ,32, ,
1, ,32, ,
1, ,32, ,
1, ,33, ,
2, ,33, ,
1, ,32, ,
1, ,32, ,
2, ,33, ,
1, ,33, ,
2, ,33, ,
2, ,32, ,
1, ,32, ,
1, ,33, ,
1, ,33, ,
1, ,33, ,
2, ,33, ,
1, ,33, ,
1, ,32, ,
1, ,32, ,
1, ,33, ,
1, ,33, ,
1, ,33, ,
0, ,33, ,
1, ,33, ,
0, ,33, ,
0, ,33, ,
1, ,33, ,
1, ,33, ,
1, ,33, ,
1, ,33, ,
2, ,33, ,
2, ,33, ,
2, ,32, ,
0, ,32, ,
0, ,32, ,
-1, ,32, ,
23, ,32, ,
73, ,32, ,
125, ,33, ,
125, ,33, ,
125, ,33, ,
122, ,33, ,
32, ,33, ,
-19, ,33, ,
62, ,33, ,
125, ,32, ,
125, ,32, ,
125, ,33, ,
125, ,32, ,
125, ,32, ,
125, ,32, ,
125, ,32, ,
125, ,32, ,
125, ,32, ,
125, ,33, ,
125, ,33, ,
125, ,33, ,
125, ,33, ,
125, ,33, ,
125, ,33, ,
125, ,33, ,
125, ,33, ,
125, ,33, ,
125, ,33, ,
125, ,33, ,
125, ,33, ,
125, ,33, ,
125, ,33, ,
125, ,33, ,
125, ,33, ,
124, ,33, ,
124, ,33, ,
122, ,33, ,
116, ,33, ,
107, ,33, ,
102, ,32, ,
98, ,32, ,
93, ,32, ,
86, ,32, ,
82, ,33, ,
79, ,33, ,
75, ,33, ,
69, ,33, ,
64, ,33, ,
61, ,33, ,
59, ,33, ,
53, ,33, ,
52, ,33, ,
49, ,33, ,
48, ,33, ,
43, ,32, ,
39, ,32, ,
39, ,33, ,
36, ,33, ,
33, ,33, ,
32, ,33, ,
30, ,33, ,
29, ,33, ,
26, ,33, ,
24, ,33, ,
24, ,33, ,
20, ,33, ,
18, ,33, ,
18, ,33, ,
16, ,33, ,
16, ,33, ,
14, ,33, ,
13, ,33, ,
11, ,33, ,
11, ,32, ,
9, ,32, ,
9, ,33, ,
8, ,33, ,
8, ,33, ,
7, ,32, ,
5, ,32, ,
5, ,33, ,
4, ,32, ,
3, ,32, ,
3, ,32, ,
2, ,32, ,
3, ,33, ,
2, ,32, ,
0, ,32, ,
0, ,33, ,
0, ,33, ,
0, ,33, ,
0, ,33, ,
-1, ,32, ,
-1, ,32, ,
-1, ,32, ,
-1, ,33, ,
-2, ,33, ,
-2, ,33, ,
-3, ,33, ,
-2, ,33, ,
-2, ,33, ,
-2, ,33, ,
-2, ,33, ,
-2, ,33, ,
-3, ,33, ,
-3, ,33, ,
-3, ,32, ,
-3, ,32, ,
-3, ,33, ,
-3, ,33, ,
-2, ,33, ,
-3, ,33, ,
-3, ,33, ,
-4, ,33, ,
-4, ,33, ,
-4, ,33, ,
-4, ,33, ,
-3, ,33, ,
-3, ,33, ,
-4, ,33, ,
-3, ,33, ,
-4, ,33, ,
-4, ,32, ,
-4, ,32, ,
-4, ,33, ,
-4, ,33, ,
-3, ,33, ,
-4, ,33, ,
-4, ,33, ,
-4, ,33, ,
-3, ,33, ,
-3, ,33, ,
-3, ,33, ,
-3, ,33, ,
-3, ,33, ,
-3, ,33, ,
-3, ,33, ,
-3, ,33, ,
-3, ,33, ,
-1, ,32, ,
-2, ,32, ,
-1, ,33, ,
-2, ,33, ,
-2, ,33, ,
-1, ,33, ,
-2, ,32, ,
-2, ,32, ,
-1, ,33, ,
-1, ,33, ,
-1, ,33, ,
-1, ,32, ,
-2, ,32, ,
-1, ,33, ,
-2, ,33, ,
-1, ,33, ,
-1, ,33, ,
-2, ,32, ,
0, ,32, ,
-1, ,32, ,
-2, ,33, ,
-1, ,33, ,
-2, ,33, ,
-1, ,33, ,
0, ,33, ,
-2, ,33, ,
0, ,33, ,
0, ,33, ,
0, ,33, ,
-1, ,33, ,
-1, ,33, ,
0, ,33, ,
0, ,33, ,
-1, ,33, ,
0, ,33, ,
0, ,33, ,
0, ,33, ,
0, ,33, ,
-1, ,33, ,
-1, ,33, ,
-1, ,33, ,
0, ,33, ,
0, ,33, ,
0, ,33, ,
0, ,33, ,
0, ,33, ,
-1, ,33, ,
0, ,33, ,
0, ,33, ,
0, ,33, ,
1, ,33, ,
0, ,33, ,
0, ,33, ,
0, ,33, ,
0, ,33, ,
0, ,33, ,
0, ,33, ,
0, ,33, ,
0, ,33, ,
0, ,32, ,
1, ,32, ,
1, ,33, ,
0, ,33, ,
0, ,33, ,
1, ,33, ,
0, ,33, ,
1, ,32, ,
0, ,32, ,
0, ,33, ,
0, ,33, ,
0, ,33, ,
0, ,33, ,
0, ,33, ,
0, ,33, ,
0, ,33, ,
1, ,33, ,
1, ,32, ,
1, ,32, ,
0, ,32, ,
0, ,33, ,
1, ,33, ,
1, ,33, ,
1, ,33, ,
1, ,33, ,
1, ,32, ,
1, ,32, ,
1, ,32, ,
1, ,33, ,
1, ,32, ,
1, ,32, ,
1, ,32, ,
0, ,33, ,
1, ,32, ,
1, ,32, ,
0, ,33, ,
2, ,33, ,
2, ,33, ,
1, ,33, ,
2, ,33, ,
1, ,33, ,
0, ,33, ,
0, ,33, ,
0, ,33, ,
1, ,33, ,
1, ,33, ,
1, ,33, ,
1, ,33, ,
2, ,33, ,
1, ,33, ,
2, ,33, ,
0, ,33, ,
1, ,33, ,
2, ,33, ,
1, ,33, ,
1, ,32, ,
1, ,32, ,
0, ,33, ,
0, ,33, ,
0, ,33, ,
0, ,33, ,
1, ,33, ,
1, ,33, ,
1, ,33, ,
2, ,33, ,
1, ,33, ,
1, ,33, ,
1, ,33, ,
1, ,33, ,
2, ,32, ,
0, ,32, ,
1, ,33, ,
1, ,33, ,
0, ,32, ,
1, ,32, ,
0, ,32, ,
-1, ,33, ,
-1, ,32, ,
-1, ,32, ,
-1, ,32, ,
-2, ,33, ,
-1, ,33, ,
-1, ,33, ,
-1, ,32, ,
1, ,32, ,
1, ,33, ,
1, ,32, ,
1, ,32, ,
1, ,32, ,
1, ,33, ,
2, ,33, ,
1, ,33, ,
1, ,33, ,
1, ,32, ,
1, ,32, ,
1, ,33, ,
1, ,32, ,
0, ,32, ,
1, ,33, ,
0, ,33, ,
0, ,33, ,
1, ,33, ,
0, ,33, ,
1, ,32, ,
1, ,32, ,
2, ,33, ,
4, ,33, ,
2, ,33, ,
1, ,33, ,
1, ,33, ,
1, ,32, ,
2, ,32, ,
1, ,32, ,
0, ,32, ,
0, ,32, ,
-1, ,33, ,
-1, ,33, ,
-1, ,33, ,
-1, ,32, ,
-1, ,32, ,
0, ,32, ,
-1, ,32, ,
0, ,33, ,
0, ,33, ,
1, ,33, ,
1, ,33, ,
1, ,33, ,
1, ,33, ,
2, ,33, ,
1, ,32, ,
0, ,32, ,
0, ,32, ,
0, ,32, ,
0, ,33, ,
0, ,33, ,
0, ,33, ,
0, ,33, ,
0, ,32, ,
0, ,32, ,
-1, ,32, ,
0, ,32, ,
1, ,33, ,
1, ,33, ,
1, ,33, ,
0, ,33, ,
0, ,33, ,
0, ,33, ,
0, ,32, ,
0, ,32, ,
0, ,33, ,
-1, ,33, ,
-1, ,33, ,
-4, ,33, ,
-4, ,33, ,
-5, ,33, ,
-6, ,33, ,
-7, ,33, ,
-7, ,33, ,
-7, ,33, ,
-6, ,33, ,
-7, ,33, ,
-7, ,32, ,
-8, ,32, ,
-8, ,32, ,
-9, ,32, ,
-9, ,33, ,
-9, ,33, ,
-11, ,33, ,
-12, ,33, ,
-15, ,33, ,
-16, ,33, ,
-17, ,33, ,
-21, ,33, ,
-21, ,33, ,
-25, ,33, ,
-25, ,33, ,
-28, ,33, ,
-30, ,33, ,
-30, ,33, ,
-30, ,33, ,
-27, ,33, ,
-27, ,33, ,
-27, ,32, ,
-25, ,32, ,
-25, ,32, ,
-26, ,32, ,
-26, ,33, ,
-26, ,33, ,
-27, ,33, ,
-28, ,33, ,
-28, ,33, ,
-31, ,33, ,
-33, ,32, ,
-33, ,32, ,
-33, ,32, ,
-34, ,32, ,
-32, ,33, ,
-30, ,33, ,
-30, ,33, ,
-25, ,33, ,
-20, ,33, ,
-19, ,33, ,
-15, ,33, ,
-15, ,33, ,
-12, ,33, ,
-9, ,33, ,
-7, ,33, ,
-7, ,33, ,
-6, ,33, ,
-8, ,32, ,
-7, ,32, ,
-9, ,33, ,
-9, ,33, ,
-9, ,33, ,
-9, ,33, ,
-9, ,33, ,
-6, ,33, ,
-6, ,33, ,
-4, ,33, ,
-2, ,32, ,
0, ,32, ,
0, ,33, ,
0, ,32, ,
1, ,32, ,
0, ,32, ,
-1, ,33, ,
-1, ,33, ,
-3, ,33, ,
-5, ,33, ,
-7, ,33, ,
-9, ,33, ,
-11, ,33, ,
-13, ,33, ,
-15, ,33, ,
-15, ,33, ,
-15, ,32, ,
-15, ,32, ,
-14, ,33, ,
-14, ,33, ,
-13, ,33, ,
-10, ,33, ,
-10, ,33, ,
-9, ,33, ,
-9, ,33, ,
-10, ,33, ,
-10, ,32, ,
-14, ,32, ,
-13, ,33, ,
-18, ,33, ,
-20, ,33, ,
-21, ,33, ,
-22, ,33, ,
-23, ,33, ,
-24, ,33, ,
-23, ,33, ,
-24, ,33, ,
-24, ,33, ,
-25, ,33, ,
-25, ,33, ,
-28, ,32, ,
-29, ,32, ,
-30, ,33, ,
-33, ,33, ,
-35, ,33, ,
-37, ,33, ,
-40, ,33, ,
-41, ,33, ,
-42, ,33, ,
-44, ,33, ,
-45, ,32, ,
-45, ,32, ,
-46, ,33, ,
-46, ,33, ,
-44, ,33, ,
-44, ,33, ,
-43, ,32, ,
-41, ,32, ,
-40, ,33, ,
-38, ,33, ,
-37, ,33, ,
-34, ,33, ,
-33, ,33, ,
-30, ,33, ,
-29, ,33, ,
-27, ,33, ,
-25, ,33, ,
-25, ,33, ,
-26, ,33, ,
-25, ,32, ,
-27, ,32, ,
-28, ,32, ,
-28, ,32, ,
-29, ,33, ,
-29, ,33, ,
-29, ,32, ,
-29, ,32, ,
-25, ,32, ,
-24, ,32, ,
-22, ,32, ,
-22, ,32, ,
-20, ,33, ,
-19, ,33, ,
-20, ,33, ,
-20, ,33, ,
-20, ,33, ,
-22, ,32, ,
-22, ,32, ,
-24, ,32, ,
-25, ,33, ,
-26, ,33, ,
-26, ,33, ,
-26, ,33, ,
-25, ,33, ,
-25, ,33, ,
-24, ,33, ,
-24, ,33, ,
-23, ,33, ,
-22, ,33, ,
-22, ,33, ,
-22, ,33, ,
-20, ,33, ,
-21, ,33, ,
-20, ,33, ,
-21, ,32, ,
-17, ,32, ,
-18, ,33, ,
-15, ,33, ,
-14, ,33, ,
-11, ,32, ,
-10, ,32, ,
-8, ,33, ,
-7, ,33, ,
-6, ,33, ,
-4, ,33, ,
-4, ,33, ,
-3, ,33, ,
-2, ,33, ,
-3, ,32, ,
-2, ,32, ,
-2, ,32, ,
-2, ,33, ,
0, ,33, ,
-1, ,33, ,
0, ,33, ,
0, ,33, ,
-1, ,33, ,
0, ,33, ,
-2, ,33, ,
-1, ,33, ,
-1, ,33, ,
-2, ,33, ,
-2, ,33, ,
-1, ,33, ,
0, ,32, ,
1, ,32, ,
0, ,32, ,
2, ,32, ,
4, ,33, ,
3, ,32, ,
5, ,32, ,
7, ,32, ,
6, ,32, ,
7, ,32, ,
6, ,32, ,
5, ,33, ,
6, ,32, ,
6, ,32, ,
6, ,33, ,
6, ,33, ,
5, ,33, ,
6, ,33, ,
5, ,33, ,
4, ,33, ,
4, ,33, ,
3, ,33, ,
4, ,33, ,
2, ,33, ,
-1, ,33, ,
-1, ,33, ,
-2, ,33, ,
-5, ,33, ,
-5, ,32, ,
-6, ,32, ,
-8, ,33, ,
-8, ,32, ,
-11, ,32, ,
-13, ,33, ,
-14, ,33, ,
-15, ,33, ,
-16, ,33, ,
-18, ,33, ,
-18, ,32, ,
-20, ,32, ,
-20, ,33, ,
-21, ,33, ,
-22, ,33, ,
-23, ,33, ,
-23, ,32, ,
-24, ,32, ,
-23, ,32, ,
-25, ,32, ,
-26, ,32, ,
-26, ,33, ,
-28, ,33, ,
-30, ,33, ,
-29, ,33, ,
-31, ,33, ,
-31, ,33, ,
-33, ,32, ,
-35, ,32, ,
-35, ,32, ,
-35, ,32, ,
-37, ,33, ,
-37, ,32, ,
-38, ,32, ,
-37, ,33, ,
-36, ,33, ,
-36, ,33, ,
-36, ,33, ,
-36, ,33, ,
-35, ,33, ,
-35, ,33, ,
-35, ,33, ,
-34, ,33, ,
-32, ,33, ,
-32, ,33, ,
-32, ,33, ,
-32, ,33, ,
-30, ,33, ,
-28, ,33, ,
-29, ,33, ,
-26, ,33, ,
-24, ,33, ,
-24, ,33, ,
-22, ,33, ,
-22, ,33, ,
-20, ,33, ,
-19, ,33, ,
-20, ,33, ,
-18, ,33, ,
-18, ,33, ,
-17, ,33, ,
-17, ,33, ,
-16, ,33, ,
-15, ,33, ,
-14, ,33, ,
-12, ,33, ,
-11, ,33, ,
-7, ,33, ,
-5, ,33, ,
-3, ,33, ,
-2, ,33, ,
0, ,33, ,
4, ,33, ,
5, ,32, ,
6, ,32, ,
13, ,32, ,
11, ,32, ,
15, ,32, ,
16, ,32, ,
20, ,33, ,
23, ,33, ,
23, ,33, ,
25, ,33, ,
26, ,33, ,
26, ,33, ,
27, ,33, ,
26, ,33, ,
25, ,33, ,
25, ,33, ,
22, ,33, ,
21, ,33, ,
18, ,33, ,
15, ,33, ,
14, ,33, ,
11, ,33, ,
7, ,33, ,
7, ,32, ,
3, ,32, ,
1, ,33, ,
-1, ,32, ,
-6, ,32, ,
-5, ,33, ,
-10, ,33, ,
-11, ,32, ,
-12, ,32, ,
-15, ,33, ,
-15, ,33, ,
-16, ,32, ,
-16, ,32, ,
-16, ,33, ,
-16, ,33, ,
-17, ,33, ,
-15, ,33, ,
-16, ,33, ,
-16, ,33, ,
-15, ,32, ,
-15, ,32, ,
-16, ,32, ,
-16, ,32, ,
-15, ,32, ,
-15, ,33, ,
-15, ,33, ,
-15, ,33, ,
-16, ,33, ,
-17, ,33, ,
-16, ,33, ,
-17, ,33, ,
-18, ,33, ,
-18, ,33, ,
-19, ,33, ,
-18, ,33, ,
-20, ,33, ,
-20, ,33, ,
-20, ,33, ,
-20, ,33, ,
-20, ,33, ,
-20, ,33, ,
-21, ,33, ,
-21, ,33, ,
-21, ,33, ,
-21, ,33, ,
-21, ,33, ,
-21, ,33, ,
-21, ,33, ,
-20, ,33, ,
-21, ,33, ,
-20, ,33, ,
-20, ,32, ,
-20, ,32, ,
-20, ,33, ,
-21, ,33, ,
-22, ,33, ,
-22, ,33, ,
-22, ,33, ,
-22, ,32, ,
-23, ,32, ,
-24, ,33, ,
-24, ,33, ,
-24, ,32, ,
-25, ,32, ,
-24, ,33, ,
-24, ,33, ,
-23, ,33, ,
-22, ,33, ,
-22, ,33, ,
-22, ,33, ,
-21, ,33, ,
-19, ,33, ,
-18, ,33, ,
-19, ,32, ,
-16, ,32, ,
-15, ,32, ,
-15, ,32, ,
-13, ,32, ,
-14, ,32, ,
-12, ,33, ,
-11, ,33, ,
-10, ,33, ,
-10, ,33, ,
-9, ,33, ,
-9, ,33, ,
-9, ,33, ,
-9, ,32, ,
-8, ,32, ,
-9, ,33, ,
-10, ,33, ,
-10, ,33, ,
-11, ,33, ,
-12, ,33, ,
-11, ,33, ,
-14, ,33, ,
-14, ,33, ,
-14, ,33, ,
-14, ,33, ,
-15, ,33, ,
-14, ,32, ,
-15, ,32, ,
-13, ,33, ,
-15, ,33, ,
-15, ,32, ,
-15, ,32, ,
-15, ,33, ,
-15, ,33, ,
-17, ,33, ,
-17, ,33, ,
-17, ,33, ,
-18, ,33, ,
-19, ,33, ,
-16, ,33, ,
-18, ,33, ,
-19, ,33, ,
-19, ,33, ,
-20, ,33, ,
-21, ,33, ,
-22, ,33, ,
-23, ,33, ,
-23, ,33, ,
-24, ,33, ,
-24, ,32, ,
-24, ,32, ,
-24, ,33, ,
-24, ,33, ,
-24, ,33, ,
-22, ,33, ,
-21, ,33, ,
-20, ,33, ,
-19, ,33, ,
-15, ,33, ,
-13, ,33, ,
-12, ,33, ,
-10, ,33, ,
-4, ,33, ,
0, ,33, ,
0, ,33, ,
3, ,33, ,
8, ,33, ,
10, ,33, ,
12, ,33, ,
13, ,33, ,
16, ,33, ,
18, ,33, ,
19, ,33, ,
20, ,33, ,
19, ,32, ,
18, ,32, ,
19, ,33, ,
16, ,33, ,
15, ,33, ,
14, ,33, ,
10, ,32, ,
9, ,32, ,
4, ,32, ,
2, ,32, ,
0, ,32, ,
-2, ,32, ,
-5, ,33, ,
-6, ,33, ,
-8, ,33, ,
-7, ,33, ,
-12, ,32, ,
-13, ,32, ,
-14, ,33, ,
-15, ,33, ,
-15, ,33, ,
-15, ,33, ,
-16, ,33, ,
-15, ,33, ,
-13, ,33, ,
-15, ,33, ,
-14, ,33, ,
-14, ,33, ,
-12, ,33, ,
-10, ,32, ,
-11, ,32, ,
-9, ,32, ,
-9, ,33, ,
-9, ,32, ,
-8, ,32, ,
-9, ,33, ,
-8, ,33, ,
-7, ,33, ,
-8, ,33, ,
-6, ,33, ,
-6, ,33, ,
-7, ,33, ,
-6, ,33, ,
-5, ,33, ,
-5, ,33, ,
-4, ,33, ,
-4, ,33, ,
-3, ,33, ,
-2, ,32, ,
-2, ,32, ,
-2, ,33, ,
-2, ,32, ,
-1, ,32, ,
0, ,33, ,
-2, ,32, ,
0, ,32, ,
1, ,32, ,
0, ,33, ,
2, ,33, ,
1, ,33, ,
3, ,33, ,
5, ,32, ,
5, ,32, ,
5, ,32, ,
5, ,33, ,
5, ,33, ,
5, ,33, ,
4, ,33, ,
3, ,33, ,
4, ,32, ,
3, ,32, ,
3, ,32, ,
3, ,33, ,
1, ,33, ,
1, ,33, ,
1, ,33, ,
0, ,33, ,
0, ,33, ,
-1, ,33, ,
0, ,33, ,
-1, ,33, ,
-2, ,32, ,
-1, ,32, ,
-3, ,33, ,
-4, ,33, ,
-3, ,33, ,
-5, ,33, ,
-5, ,33, ,
-5, ,33, ,
-5, ,33, ,
-5, ,33, ,
-6, ,33, ,
-7, ,33, ,
-7, ,33, ,
-8, ,33, ,
-9, ,33, ,
-8, ,33, ,
-10, ,33, ,
-10, ,33, ,
-11, ,33, ,
-11, ,33, ,
-12, ,33, ,
-12, ,33, ,
-12, ,33, ,
-11, ,33, ,
-12, ,33, ,
-10, ,33, ,
-12, ,33, ,
-11, ,33, ,
-9, ,33, ,
-9, ,33, ,
-8, ,33, ,
-6, ,33, ,
-6, ,33, ,
-5, ,33, ,
-6, ,32, ,
-4, ,32, ,
-3, ,33, ,
-2, ,32, ,
-2, ,32, ,
-1, ,32, ,
-1, ,33, ,
0, ,32, ,
0, ,32, ,
0, ,32, ,
1, ,33, ,
2, ,33, ,
2, ,33, ,
2, ,32, ,
2, ,32, ,
2, ,33, ,
1, ,33, ,
1, ,33, ,
0, ,33, ,
0, ,33, ,
0, ,33, ,
-1, ,33, ,
-2, ,32, ,
-2, ,32, ,
-3, ,32, ,
-5, ,32, ,
-5, ,33, ,
-5, ,33, ,
-6, ,33, ,
-5, ,33, ,
-8, ,33, ,
-8, ,33, ,
-9, ,33, ,
-10, ,33, ,
-10, ,33, ,
-10, ,33, ,
-11, ,33, ,
-12, ,33, ,
-12, ,33, ,
-12, ,33, ,
-11, ,32, ,
-11, ,32, ,
-10, ,33, ,
-10, ,33, ,
-10, ,33, ,
-8, ,33, ,
-7, ,33, ,
-5, ,33, ,
-5, ,33, ,
-4, ,33, ,
0, ,33, ,
0, ,33, ,
1, ,33, ,
5, ,33, ,
5, ,33, ,
7, ,33, ,
8, ,32, ,
8, ,32, ,
10, ,33, ,
12, ,33, ,
13, ,33, ,
15, ,33, ,
14, ,33, ,
15, ,33, ,
15, ,32, ,
15, ,32, ,
15, ,33, ,
14, ,32, ,
14, ,32, ,
14, ,32, ,
13, ,33, ,
13, ,32, ,
12, ,32, ,
11, ,32, ,
11, ,33, ,
10, ,33, ,
10, ,33, ,
9, ,33, ,
8, ,33, ,
7, ,33, ,
7, ,33, ,
6, ,33, ,
5, ,33, ,
3, ,33, ,
5, ,33, ,
3, ,33, ,
3, ,33, ,
3, ,33, ,
2, ,33, ,
1, ,33, ,
2, ,33, ,
1, ,33, ,
2, ,33, ,
2, ,32, ,
0, ,32, ,
0, ,32, ,
0, ,33, ,
0, ,33, ,
1, ,33, ,
0, ,33, ,
0, ,33, ,
0, ,33, ,
0, ,33, ,
0, ,33, ,
0, ,33, ,
0, ,33, ,
0, ,33, ,
-1, ,33, ,
-1, ,33, ,
-1, ,33, ,
-1, ,33, ,
-1, ,33, ,
-2, ,32, ,
-2, ,32, ,
-2, ,33, ,
-3, ,33, ,
-3, ,33, ,
-3, ,33, ,
-6, ,33, ,
-6, ,33, ,
-7, ,33, ,
-9, ,33, ,
-8, ,32, ,
-10, ,32, ,
-10, ,32, ,
-11, ,33, ,
-12, ,33, ,
-12, ,33, ,
-14, ,33, ,
-16, ,33, ,
-15, ,33, ,
-17, ,33, ,
-16, ,33, ,
-16, ,33, ,
-17, ,33, ,
-16, ,33, ,
-17, ,33, ,
-16, ,33, ,
-15, ,32, ,
-14, ,32, ,
-14, ,32, ,
-12, ,32, ,
-11, ,32, ,
-9, ,33, ,
-8, ,33, ,
-6, ,33, ,
-2, ,32, ,
-3, ,32, ,
0, ,33, ,
1, ,32, ,
0, ,32, ,
3, ,33, ,
3, ,33, ,
5, ,33, ,
5, ,32, ,
6, ,32, ,
7, ,33, ,
8, ,33, ,
8, ,32, ,
9, ,32, ,
7, ,33, ,
7, ,33, ,
8, ,33, ,
7, ,32, ,
8, ,32, ,
7, ,32, ,
6, ,33, ,
6, ,33, ,
5, ,33, ,
5, ,33, ,
5, ,32, ,
5, ,32, ,
4, ,33, ,
4, ,32, ,
3, ,32, ,
3, ,33, ,
3, ,33, ,
3, ,33, ,
2, ,33, ,
0, ,33, ,
0, ,32, ,
-1, ,32, ,
-2, ,33, ,
-2, ,33, ,
-4, ,33, ,
-5, ,33, ,
-5, ,33, ,
-6, ,33, ,
-6, ,33, ,
-8, ,32, ,
-10, ,32, ,
-11, ,33, ,
-11, ,33, ,
-12, ,33, ,
-13, ,33, ,
-14, ,33, ,
-14, ,33, ,
-15, ,33, ,
-15, ,33, ,
-14, ,32, ,
-15, ,32, ,
-15, ,32, ,
-14, ,32, ,
-14, ,32, ,
-13, ,33, ,
-12, ,33, ,
-12, ,33, ,
-12, ,33, ,
-12, ,32, ,
-11, ,32, ,
-10, ,33, ,
-10, ,33, ,
-9, ,33, ,
-8, ,32, ,
-8, ,32, ,
-7, ,33, ,
-7, ,33, ,
-7, ,33, ,
-6, ,33, ,
-6, ,33, ,
-5, ,33, ,
-5, ,33, ,
-5, ,32, ,
-4, ,32, ,
-4, ,32, ,
-4, ,33, ,
-4, ,33, ,
-4, ,33, ,
-4, ,33, ,
-4, ,33, ,
-4, ,32, ,
-3, ,32, ,
-3, ,32, ,
-4, ,33, ,
-4, ,33, ,
-3, ,33, ,
-2, ,33, ,
-2, ,32, ,
-2, ,32, ,
-2, ,33, ,
-2, ,32, ,
-2, ,32, ,
-1, ,33, ,
-2, ,33, ,
-2, ,33, ,
-1, ,33, ,
-1, ,32, ,
0, ,32, ,
-1, ,32, ,
-2, ,33, ,
0, ,32, ,
-1, ,32, ,
-1, ,32, ,
-3, ,33, ,
-2, ,32, ,
-2, ,32, ,
-3, ,32, ,
-4, ,32, ,
-5, ,33, ,
-5, ,33, ,
-5, ,33, ,
-5, ,33, ,
-7, ,33, ,
-7, ,33, ,
-7, ,33, ,
-9, ,33, ,
-9, ,33, ,
-10, ,33, ,
-10, ,33, ,
-9, ,32, ,
-10, ,32, ,
-10, ,33, ,
-10, ,33, ,
-10, ,33, ,
-10, ,33, ,
-10, ,33, ,
-9, ,33, ,
-8, ,33, ,
-8, ,33, ,
-8, ,33, ,
-9, ,33, ,
-7, ,33, ,
-6, ,33, ,
-4, ,33, ,
-4, ,33, ,
-3, ,33, ,
-2, ,33, ,
-2, ,33, ,
-2, ,32, ,
1, ,32, ,
2, ,33, ,
3, ,33, ,
4, ,33, ,
5, ,33, ,
4, ,33, ,
7, ,32, ,
8, ,32, ,
8, ,32, ,
11, ,33, ,
11, ,33, ,
11, ,33, ,
14, ,33, ,
13, ,33, ,
15, ,33, ,
15, ,33, ,
18, ,33, ,
18, ,33, ,
18, ,33, ,
19, ,33, ,
20, ,33, ,
19, ,33, ,
20, ,33, ,
20, ,33, ,
19, ,33, ,
20, ,33, ,
19, ,33, ,
19, ,33, ,
18, ,33, ,
17, ,33, ,
18, ,33, ,
15, ,33, ,
15, ,33, ,
14, ,33, ,
12, ,33, ,
11, ,33, ,
9, ,33, ,
7, ,33, ,
6, ,33, ,
5, ,33, ,
2, ,33, ,
2, ,32, ,
1, ,32, ,
1, ,33, ,
-1, ,33, ,
-2, ,32, ,
-3, ,32, ,
-4, ,32, ,
-5, ,33, ,
-5, ,33, ,
-5, ,32, ,
-5, ,32, ,
-5, ,32, ,
-6, ,32, ,
-5, ,32, ,
-6, ,32, ,
-7, ,33, ,
-5, ,33, ,
-5, ,33, ,
-4, ,33, ,
-3, ,33, ,
-4, ,33, ,
-3, ,33, ,
-5, ,33, ,
-4, ,33, ,
-5, ,33, ,
-5, ,33, ,
-5, ,33, ,
-5, ,33, ,
-6, ,32, ,
-7, ,32, ,
-7, ,32, ,
-7, ,33, ,
-8, ,32, ,
-8, ,32, ,
-9, ,33, ,
-9, ,33, ,
-10, ,32, ,
-11, ,32, ,
-12, ,32, ,
-11, ,32, ,
-11, ,32, ,
-12, ,32, ,
-13, ,32, ,
-14, ,32, ,
-13, ,32, ,
-13, ,32, ,
-13, ,32, ,
-13, ,33, ,
-13, ,33, ,
-12, ,33, ,
-11, ,33, ,
-10, ,33, ,
-11, ,32, ,
-11, ,32, ,
-12, ,33, ,
-10, ,33, ,
-9, ,32, ,
-9, ,32, ,
-8, ,33, ,
-7, ,33, ,
-7, ,33, ,
-7, ,33, ,
-6, ,33, ,
-6, ,33, ,
-5, ,32, ,
-5, ,32, ,
-5, ,32, ,
-5, ,33, ,
-4, ,33, ,
-4, ,33, ,
-5, ,32, ,
-4, ,32, ,
-4, ,33, ,
-4, ,33, ,
-4, ,33, ,
-3, ,33, ,
-3, ,33, ,
-4, ,33, ,
-3, ,33, ,
-4, ,33, ,
-3, ,32, ,
-4, ,32, ,
-3, ,32, ,
-2, ,33, ,
-4, ,33, ,
-1, ,33, ,
-3, ,33, ,
-3, ,33, ,
-3, ,33, ,
-3, ,32, ,
-3, ,32, ,
-3, ,32, ,
-3, ,33, ,
-3, ,33, ,
-3, ,33, ,
-4, ,33, ,
-3, ,33, ,
-3, ,33, ,
-3, ,33, ,
-3, ,33, ,
-4, ,33, ,
-4, ,33, ,
-4, ,33, ,
-4, ,33, ,
-3, ,33, ,
-3, ,33, ,
-3, ,32, ,
-2, ,32, ,
-3, ,33, ,
-1, ,32, ,
-1, ,32, ,
0, ,32, ,
1, ,33, ,
1, ,33, ,
2, ,33, ,
3, ,33, ,
5, ,33, ,
5, ,33, ,
5, ,32, ,
6, ,32, ,
8, ,32, ,
8, ,32, ,
9, ,33, ,
10, ,33, ,
10, ,32, ,
9, ,32, ,
10, ,32, ,
10, ,33, ,
11, ,33, ,
10, ,33, ,
11, ,33, ,
8, ,33, ,
8, ,33, ,
8, ,33, ,
8, ,33, ,
7, ,33, ,
6, ,32, ,
4, ,32, ,
4, ,32, ,
2, ,32, ,
0, ,33, ,
-1, ,33, ,
-2, ,33, ,
-5, ,33, ,
-6, ,33, ,
-7, ,33, ,
-6, ,33, ,
-9, ,32, ,
-11, ,32, ,
-11, ,33, ,
-13, ,33, ,
-14, ,33, ,
-13, ,33, ,
-14, ,33, ,
-14, ,33, ,
-13, ,33, ,
-13, ,33, ,
-13, ,33, ,
-12, ,33, ,
-10, ,33, ,
-9, ,33, ,
-8, ,33, ,
-5, ,33, ,
-2, ,33, ,
-1, ,33, ,
1, ,33, ,
1, ,33, ,
6, ,33, ,
9, ,33, ,
10, ,33, ,
13, ,33, ,
16, ,33, ,
16, ,33, ,
20, ,33, ,
20, ,32, ,
21, ,32, ,
23, ,33, ,
24, ,33, ,
23, ,33, ,
22, ,33, ,
22, ,33, ,
21, ,33, ,
21, ,33, ,
20, ,33, ,
21, ,33, ,
18, ,33, ,
18, ,33, ,
16, ,33, ,
14, ,32, ,
14, ,32, ,
12, ,32, ,
10, ,33, ,
9, ,32, ,
8, ,32, ,
7, ,32, ,
6, ,33, ,
5, ,33, ,
5, ,33, ,
4, ,33, ,
3, ,33, ,
3, ,33, ,
3, ,33, ,
3, ,33, ,
3, ,33, ,
2, ,33, ,
2, ,32, ,
1, ,32, ,
1, ,32, ,
2, ,33, ,
1, ,33, ,
1, ,33, ,
1, ,33, ,
1, ,32, ,
0, ,32, ,
0, ,32, ,
-1, ,33, ,
-1, ,33, ,
-1, ,33, ,
-1, ,32, ,
-1, ,32, ,
-2, ,33, ,
-2, ,33, ,
-2, ,33, ,
-2, ,33, ,
0, ,32, ,
0, ,32, ,
0, ,33, ,
0, ,33, ,
1, ,33, ,
2, ,33, ,
2, ,33, ,
3, ,33, ,
4, ,33, ,
3, ,32, ,
5, ,32, ,
5, ,32, ,
6, ,33, ,
6, ,33, ,
5, ,33, ,
6, ,33, ,
6, ,33, ,
6, ,33, ,
7, ,33, ,
8, ,33, ,
7, ,33, ,
7, ,33, ,
5, ,33, ,
5, ,33, ,
6, ,33, ,
4, ,33, ,
5, ,32, ,
4, ,32, ,
3, ,33, ,
2, ,33, ,
2, ,33, ,
0, ,33, ,
0, ,32, ,
0, ,32, ,
0, ,33, ,
0, ,33, ,
-1, ,33, ,
0, ,33, ,
-2, ,32, ,
-2, ,32, ,
-2, ,32, ,
-3, ,32, ,
-4, ,32, ,
-4, ,32, ,
-5, ,33, ,
-5, ,33, ,
-5, ,33, ,
-7, ,33, ,
-7, ,32, ,
-8, ,32, ,
-8, ,33, ,
-11, ,32, ,
-11, ,32, ,
-11, ,33, ,
-12, ,33, ,
-13, ,33, ,
-14, ,33, ,
-15, ,33, ,
-16, ,32, ,
-17, ,32, ,
-17, ,33, ,
-17, ,33, ,
-18, ,33, ,
-19, ,33, ,
-18, ,33, ,
-18, ,33, ,
-18, ,33, ,
-17, ,33, ,
-17, ,33, ,
-16, ,33, ,
-17, ,33, ,
-14, ,33, ,
-13, ,33, ,
-12, ,33, ,
