raw_data/100% Glycerol, Impulsion 2Hz, Sonde 5MHz, Rampe 0.7Hz/temp0000360.CSV

Format,1.0B,
Memory Length,10000,Memory Length,10000,
IntpDistance,0,IntpDistance,0,
Trigger Address,159,Trigger Address,159,
Trigger Level,2.720E-01,Trigger Level,2.720E-01,
Source,CH1,Source,CH2,
Vertical Units,V,Vertical Units,V,
Vertical Units Div,0,Vertical Units Div,0,
Vertical Units Extend Div,16,Vertical Units Extend Div,16,
Label,,Label,,
Probe Type,0,Probe Type,0,
Probe Ratio,1.000e+00,Probe Ratio,1.000e+00,
Vertical Scale,2.000e-01,Vertical Scale,2.000e+00,
Vertical Position,0.000e+00,Vertical Position,0.000e+00,
Horizontal Units,S,Horizontal Units,S,
Horizontal Scale,5.000E-06,Horizontal Scale,5.000E-06,
Horizontal Position,2.420E-05,Horizontal Position,2.420E-05,
Horizontal Mode,Main,Horizontal Mode,Main,
SincET Mode,Real Time,SincET Mode,Real Time,
Sampling Period,5.000e-09,Sampling Period,5.000e-09,
Horizontal Old Scale,5.000E-06,Horizontal Old Scale,5.000E-06,
Horizontal Old Position,2.420E-05,Horizontal Old Position,2.420E-05,
Firmware,V1.32,Firmware,V1.32,
Mode,Fast,Mode,Fast,
Waveform Data,,Waveform Data,,
1, ,41, ,
2, ,41, ,
2, ,41, ,
2, ,41, ,
2, ,41, ,
1, ,41, ,
2, ,41, ,
2, ,41, ,
2, ,40, ,
1, ,40, ,
2, ,40, ,
1, ,40, ,
1, ,40, ,
1, ,40, ,
2, ,40, ,
2, ,41, ,
2, ,41, ,
2, ,41, ,
2, ,41, ,
1, ,41, ,
2, ,41, ,
1, ,41, ,
1, ,40, ,
2, ,40, ,
2, ,41, ,
2, ,41, ,
2, ,41, ,
2, ,41, ,
2, ,41, ,
1, ,41, ,
1, ,41, ,
1, ,41, ,
2, ,40, ,
2, ,40, ,
2, ,41, ,
1, ,41, ,
1, ,41, ,
1, ,40, ,
1, ,40, ,
2, ,40, ,
1, ,40, ,
1, ,40, ,
1, ,40, ,
1, ,40, ,
2, ,40, ,
2, ,40, ,
2, ,40, ,
2, ,40, ,
2, ,40, ,
2, ,40, ,
2, ,41, ,
2, ,41, ,
2, ,41, ,
1, ,41, ,
3, ,41, ,
2, ,40, ,
2, ,40, ,
1, ,40, ,
2, ,40, ,
2, ,41, ,
1, ,40, ,
1, ,40, ,
1, ,41, ,
2, ,41, ,
1, ,40, ,
1, ,40, ,
1, ,40, ,
1, ,41, ,
2, ,41, ,
2, ,40, ,
2, ,40, ,
2, ,40, ,
1, ,41, ,
1, ,41, ,
1, ,41, ,
1, ,41, ,
1, ,40, ,
2, ,40, ,
1, ,40, ,
1, ,40, ,
1, ,40, ,
1, ,41, ,
2, ,41, ,
2, ,41, ,
2, ,41, ,
1, ,41, ,
1, ,40, ,
2, ,40, ,
1, ,40, ,
1, ,40, ,
2, ,40, ,
1, ,40, ,
2, ,41, ,
1, ,41, ,
1, ,41, ,
1, ,41, ,
1, ,40, ,
2, ,40, ,
1, ,40, ,
2, ,40, ,
2, ,41, ,
1, ,40, ,
1, ,40, ,
1, ,40, ,
1, ,41, ,
1, ,41, ,
2, ,41, ,
1, ,41, ,
2, ,41, ,
1, ,41, ,
1, ,41, ,
1, ,41, ,
2, ,41, ,
2, ,41, ,
2, ,41, ,
1, ,40, ,
2, ,40, ,
0, ,40, ,
2, ,40, ,
1, ,40, ,
0, ,41, ,
2, ,41, ,
2, ,41, ,
2, ,41, ,
2, ,41, ,
2, ,41, ,
1, ,41, ,
1, ,40, ,
1, ,40, ,
2, ,41, ,
2, ,41, ,
2, ,41, ,
2, ,40, ,
1, ,40, ,
2, ,40, ,
2, ,40, ,
1, ,40, ,
0, ,40, ,
2, ,40, ,
1, ,41, ,
3, ,41, ,
2, ,40, ,
1, ,40, ,
1, ,40, ,
1, ,40, ,
1, ,40, ,
2, ,41, ,
1, ,41, ,
4, ,41, ,
1, ,41, ,
2, ,41, ,
2, ,41, ,
1, ,41, ,
1, ,41, ,
2, ,41, ,
1, ,41, ,
2, ,40, ,
2, ,40, ,
1, ,40, ,
2, ,40, ,
1, ,40, ,
1, ,41, ,
2, ,41, ,
1, ,41, ,
4, ,40, ,
-2, ,40, ,
0, ,41, ,
-2, ,41, ,
18, ,40, ,
67, ,40, ,
125, ,40, ,
125, ,40, ,
125, ,40, ,
122, ,40, ,
39, ,41, ,
-22, ,40, ,
51, ,40, ,
125, ,40, ,
125, ,40, ,
125, ,40, ,
125, ,41, ,
125, ,41, ,
125, ,40, ,
125, ,40, ,
125, ,41, ,
125, ,41, ,
125, ,41, ,
125, ,41, ,
125, ,41, ,
125, ,40, ,
125, ,40, ,
125, ,40, ,
125, ,41, ,
125, ,41, ,
125, ,41, ,
125, ,40, ,
125, ,40, ,
125, ,40, ,
125, ,40, ,
125, ,40, ,
125, ,40, ,
125, ,41, ,
124, ,41, ,
124, ,41, ,
122, ,40, ,
116, ,40, ,
106, ,40, ,
103, ,40, ,
99, ,40, ,
95, ,41, ,
88, ,41, ,
83, ,41, ,
79, ,41, ,
75, ,40, ,
67, ,40, ,
66, ,40, ,
61, ,41, ,
60, ,41, ,
55, ,41, ,
51, ,41, ,
49, ,41, ,
47, ,41, ,
43, ,41, ,
41, ,40, ,
39, ,40, ,
38, ,41, ,
34, ,41, ,
32, ,40, ,
30, ,40, ,
28, ,40, ,
25, ,40, ,
25, ,40, ,
23, ,40, ,
22, ,40, ,
20, ,40, ,
18, ,41, ,
17, ,41, ,
15, ,40, ,
15, ,40, ,
14, ,40, ,
12, ,40, ,
11, ,40, ,
10, ,40, ,
9, ,40, ,
10, ,41, ,
7, ,41, ,
6, ,41, ,
7, ,41, ,
5, ,40, ,
5, ,40, ,
4, ,40, ,
3, ,40, ,
3, ,40, ,
2, ,40, ,
1, ,40, ,
1, ,40, ,
2, ,40, ,
0, ,41, ,
0, ,41, ,
0, ,40, ,
0, ,40, ,
-1, ,41, ,
-1, ,41, ,
-1, ,40, ,
-2, ,40, ,
-2, ,40, ,
-2, ,40, ,
-2, ,40, ,
-1, ,40, ,
-2, ,40, ,
-2, ,40, ,
-2, ,40, ,
-2, ,41, ,
-2, ,41, ,
-2, ,40, ,
-2, ,40, ,
-2, ,40, ,
-3, ,40, ,
-3, ,40, ,
-2, ,40, ,
-3, ,40, ,
-3, ,40, ,
-3, ,40, ,
-3, ,40, ,
-3, ,41, ,
-3, ,40, ,
-4, ,40, ,
-2, ,40, ,
-3, ,40, ,
-2, ,40, ,
-3, ,40, ,
-3, ,41, ,
-2, ,41, ,
-3, ,41, ,
-2, ,41, ,
-2, ,40, ,
-2, ,40, ,
-2, ,40, ,
-2, ,40, ,
-2, ,40, ,
-2, ,40, ,
-3, ,40, ,
-3, ,40, ,
-2, ,41, ,
-2, ,41, ,
-1, ,41, ,
-1, ,41, ,
-2, ,41, ,
-2, ,41, ,
-2, ,41, ,
-2, ,40, ,
-2, ,40, ,
-2, ,41, ,
-3, ,41, ,
-1, ,40, ,
-1, ,40, ,
-2, ,41, ,
-2, ,40, ,
-2, ,40, ,
-1, ,40, ,
0, ,40, ,
0, ,40, ,
0, ,40, ,
-1, ,41, ,
-1, ,40, ,
-2, ,40, ,
0, ,40, ,
0, ,40, ,
-1, ,41, ,
-1, ,41, ,
-1, ,41, ,
-1, ,41, ,
0, ,41, ,
0, ,40, ,
-1, ,40, ,
-1, ,40, ,
0, ,40, ,
0, ,40, ,
0, ,40, ,
-1, ,40, ,
0, ,40, ,
-2, ,41, ,
0, ,41, ,
0, ,41, ,
0, ,40, ,
0, ,40, ,
0, ,40, ,
0, ,40, ,
0, ,40, ,
0, ,40, ,
0, ,40, ,
0, ,40, ,
0, ,41, ,
0, ,41, ,
1, ,41, ,
1, ,41, ,
0, ,41, ,
0, ,40, ,
0, ,40, ,
1, ,40, ,
0, ,40, ,
1, ,40, ,
0, ,40, ,
-1, ,41, ,
1, ,41, ,
0, ,40, ,
0, ,40, ,
1, ,40, ,
1, ,40, ,
1, ,40, ,
2, ,40, ,
1, ,40, ,
2, ,41, ,
0, ,41, ,
0, ,41, ,
0, ,41, ,
1, ,41, ,
1, ,41, ,
1, ,41, ,
0, ,41, ,
1, ,41, ,
1, ,41, ,
1, ,41, ,
2, ,40, ,
1, ,40, ,
2, ,41, ,
1, ,41, ,
1, ,40, ,
1, ,40, ,
0, ,41, ,
1, ,40, ,
1, ,40, ,
1, ,41, ,
2, ,41, ,
1, ,41, ,
1, ,41, ,
1, ,40, ,
1, ,40, ,
0, ,41, ,
2, ,41, ,
1, ,40, ,
1, ,40, ,
1, ,40, ,
1, ,40, ,
1, ,40, ,
1, ,40, ,
1, ,40, ,
1, ,40, ,
1, ,41, ,
1, ,41, ,
2, ,41, ,
1, ,41, ,
2, ,41, ,
1, ,41, ,
1, ,41, ,
1, ,41, ,
1, ,41, ,
1, ,41, ,
2, ,41, ,
1, ,41, ,
2, ,40, ,
1, ,40, ,
1, ,41, ,
1, ,41, ,
1, ,40, ,
1, ,40, ,
0, ,40, ,
-1, ,41, ,
1, ,41, ,
0, ,41, ,
0, ,41, ,
2, ,41, ,
1, ,40, ,
1, ,40, ,
1, ,40, ,
0, ,40, ,
1, ,41, ,
0, ,41, ,
1, ,40, ,
1, ,40, ,
0, ,40, ,
0, ,40, ,
0, ,40, ,
-1, ,40, ,
-1, ,41, ,
-1, ,41, ,
-1, ,40, ,
0, ,40, ,
0, ,41, ,
0, ,41, ,
1, ,41, ,
1, ,40, ,
1, ,40, ,
1, ,40, ,
2, ,40, ,
2, ,40, ,
1, ,41, ,
2, ,40, ,
1, ,40, ,
2, ,40, ,
1, ,41, ,
0, ,41, ,
0, ,41, ,
1, ,40, ,
0, ,40, ,
0, ,40, ,
0, ,40, ,
0, ,40, ,
-1, ,40, ,
-1, ,40, ,
-2, ,41, ,
-2, ,40, ,
-3, ,40, ,
-6, ,40, ,
-13, ,40, ,
-23, ,40, ,
-37, ,41, ,
-63, ,41, ,
-126, ,41, ,
-126, ,41, ,
-126, ,41, ,
-126, ,41, ,
-126, ,41, ,
-126, ,41, ,
-126, ,40, ,
-126, ,40, ,
-126, ,41, ,
-126, ,41, ,
-126, ,41, ,
-126, ,40, ,
-126, ,40, ,
-126, ,40, ,
-126, ,40, ,
-126, ,40, ,
-126, ,41, ,
-126, ,41, ,
-126, ,40, ,
-126, ,40, ,
-126, ,41, ,
-126, ,40, ,
-126, ,40, ,
-126, ,41, ,
-126, ,41, ,
-126, ,41, ,
-126, ,41, ,
-126, ,41, ,
-126, ,41, ,
-126, ,41, ,
-126, ,40, ,
-126, ,40, ,
-126, ,40, ,
-126, ,41, ,
-126, ,40, ,
-126, ,40, ,
-126, ,40, ,
-126, ,41, ,
-125, ,41, ,
-118, ,41, ,
-110, ,40, ,
-105, ,40, ,
-103, ,40, ,
-98, ,40, ,
-90, ,40, ,
-87, ,41, ,
-81, ,41, ,
-79, ,41, ,
-73, ,41, ,
-69, ,41, ,
-67, ,40, ,
-64, ,40, ,
-42, ,41, ,
12, ,41, ,
122, ,41, ,
125, ,41, ,
125, ,41, ,
125, ,41, ,
125, ,40, ,
125, ,40, ,
125, ,40, ,
125, ,40, ,
125, ,40, ,
125, ,40, ,
125, ,41, ,
125, ,41, ,
125, ,41, ,
125, ,41, ,
125, ,40, ,
125, ,40, ,
125, ,40, ,
125, ,41, ,
125, ,41, ,
125, ,41, ,
125, ,40, ,
125, ,40, ,
125, ,40, ,
125, ,40, ,
124, ,41, ,
118, ,41, ,
-61, ,41, ,
-126, ,41, ,
-126, ,40, ,
-126, ,40, ,
-126, ,40, ,
-126, ,41, ,
-126, ,40, ,
-126, ,40, ,
-126, ,41, ,
-126, ,41, ,
-126, ,41, ,
-126, ,41, ,
-126, ,41, ,
-126, ,41, ,
-126, ,41, ,
-126, ,41, ,
-126, ,41, ,
-126, ,41, ,
-126, ,41, ,
-126, ,41, ,
-126, ,41, ,
-126, ,41, ,
-126, ,41, ,
-126, ,41, ,
-124, ,41, ,
-117, ,40, ,
-39, ,40, ,
95, ,41, ,
125, ,41, ,
125, ,41, ,
125, ,40, ,
125, ,40, ,
125, ,40, ,
125, ,40, ,
125, ,40, ,
125, ,41, ,
125, ,41, ,
125, ,41, ,
125, ,41, ,
124, ,41, ,
123, ,41, ,
115, ,41, ,
101, ,40, ,
85, ,40, ,
42, ,40, ,
20, ,41, ,
-1, ,41, ,
-19, ,41, ,
-42, ,41, ,
-46, ,41, ,
-46, ,40, ,
-43, ,40, ,
-32, ,41, ,
-25, ,40, ,
-20, ,40, ,
-21, ,41, ,
-26, ,41, ,
-35, ,41, ,
-49, ,41, ,
-65, ,41, ,
-102, ,41, ,
-121, ,40, ,
-126, ,40, ,
-126, ,41, ,
-126, ,41, ,
-126, ,40, ,
-126, ,40, ,
-126, ,40, ,
-126, ,40, ,
-126, ,41, ,
-126, ,41, ,
-126, ,41, ,
-126, ,41, ,
-126, ,40, ,
-126, ,40, ,
-126, ,40, ,
-126, ,40, ,
-126, ,40, ,
-126, ,40, ,
-126, ,40, ,
-126, ,41, ,
-126, ,41, ,
-126, ,40, ,
-124, ,40, ,
-113, ,40, ,
-108, ,41, ,
-104, ,41, ,
-98, ,41, ,
-69, ,41, ,
-38, ,41, ,
-5, ,41, ,
29, ,41, ,
64, ,41, ,
72, ,41, ,
79, ,41, ,
87, ,40, ,
102, ,40, ,
108, ,40, ,
110, ,40, ,
112, ,41, ,
115, ,40, ,
115, ,40, ,
115, ,41, ,
112, ,41, ,
109, ,41, ,
107, ,41, ,
103, ,40, ,
99, ,40, ,
87, ,40, ,
79, ,41, ,
74, ,41, ,
65, ,41, ,
51, ,41, ,
44, ,41, ,
38, ,41, ,
32, ,41, ,
20, ,41, ,
14, ,40, ,
9, ,40, ,
4, ,41, ,
-4, ,41, ,
-7, ,41, ,
-9, ,41, ,
-11, ,40, ,
-10, ,40, ,
-10, ,40, ,
-9, ,41, ,
-5, ,41, ,
-1, ,41, ,
5, ,41, ,
11, ,41, ,
18, ,41, ,
32, ,41, ,
39, ,40, ,
47, ,40, ,
53, ,40, ,
69, ,41, ,
75, ,40, ,
81, ,40, ,
87, ,40, ,
99, ,40, ,
104, ,41, ,
109, ,40, ,
114, ,40, ,
124, ,40, ,
125, ,40, ,
125, ,40, ,
125, ,41, ,
125, ,41, ,
125, ,40, ,
125, ,40, ,
125, ,40, ,
125, ,40, ,
125, ,40, ,
125, ,41, ,
125, ,40, ,
124, ,40, ,
124, ,40, ,
120, ,40, ,
109, ,40, ,
91, ,40, ,
82, ,41, ,
71, ,41, ,
64, ,41, ,
46, ,41, ,
38, ,41, ,
34, ,40, ,
25, ,40, ,
14, ,40, ,
8, ,40, ,
1, ,40, ,
-5, ,40, ,
-14, ,40, ,
-20, ,40, ,
-23, ,40, ,
-26, ,40, ,
-32, ,40, ,
-32, ,41, ,
-32, ,41, ,
-32, ,41, ,
-31, ,40, ,
-30, ,40, ,
-25, ,40, ,
-25, ,40, ,
-17, ,41, ,
-13, ,41, ,
-9, ,41, ,
-5, ,41, ,
3, ,41, ,
6, ,41, ,
11, ,41, ,
13, ,41, ,
15, ,41, ,
20, ,41, ,
20, ,40, ,
20, ,40, ,
21, ,41, ,
21, ,41, ,
21, ,41, ,
23, ,41, ,
23, ,40, ,
24, ,40, ,
24, ,40, ,
26, ,40, ,
30, ,40, ,
31, ,41, ,
36, ,41, ,
39, ,41, ,
45, ,41, ,
51, ,41, ,
55, ,40, ,
61, ,40, ,
68, ,41, ,
71, ,40, ,
75, ,40, ,
78, ,41, ,
85, ,41, ,
89, ,40, ,
90, ,40, ,
92, ,41, ,
98, ,41, ,
97, ,41, ,
102, ,40, ,
100, ,40, ,
103, ,40, ,
104, ,40, ,
104, ,40, ,
103, ,40, ,
102, ,40, ,
99, ,40, ,
98, ,40, ,
94, ,41, ,
87, ,41, ,
84, ,41, ,
78, ,41, ,
75, ,40, ,
65, ,40, ,
59, ,40, ,
56, ,40, ,
51, ,40, ,
41, ,40, ,
38, ,40, ,
35, ,40, ,
32, ,40, ,
27, ,41, ,
24, ,41, ,
22, ,40, ,
19, ,40, ,
17, ,41, ,
16, ,40, ,
15, ,40, ,
15, ,40, ,
15, ,40, ,
13, ,40, ,
16, ,41, ,
19, ,41, ,
20, ,41, ,
23, ,41, ,
25, ,40, ,
28, ,40, ,
31, ,40, ,
34, ,40, ,
35, ,40, ,
35, ,40, ,
41, ,40, ,
44, ,40, ,
44, ,40, ,
47, ,41, ,
52, ,41, ,
52, ,41, ,
53, ,40, ,
55, ,40, ,
55, ,40, ,
55, ,41, ,
54, ,41, ,
54, ,41, ,
49, ,41, ,
48, ,40, ,
48, ,40, ,
44, ,40, ,
39, ,40, ,
36, ,40, ,
33, ,40, ,
32, ,40, ,
23, ,40, ,
19, ,41, ,
17, ,41, ,
11, ,41, ,
2, ,41, ,
-2, ,41, ,
-8, ,40, ,
-13, ,40, ,
-27, ,40, ,
-35, ,40, ,
-40, ,41, ,
-49, ,41, ,
-67, ,40, ,
-78, ,40, ,
-90, ,41, ,
-101, ,41, ,
-126, ,41, ,
-126, ,41, ,
-126, ,41, ,
-126, ,41, ,
-126, ,41, ,
-126, ,41, ,
-126, ,41, ,
-126, ,41, ,
-126, ,41, ,
-126, ,40, ,
-126, ,40, ,
-126, ,41, ,
-126, ,41, ,
-126, ,41, ,
-126, ,41, ,
-126, ,41, ,
-126, ,41, ,
-126, ,41, ,
-126, ,40, ,
-126, ,40, ,
-126, ,40, ,
-126, ,41, ,
-126, ,41, ,
-126, ,41, ,
-126, ,41, ,
-126, ,41, ,
-126, ,41, ,
-126, ,41, ,
-126, ,40, ,
-126, ,40, ,
-126, ,41, ,
-126, ,41, ,
-126, ,40, ,
-126, ,40, ,
-126, ,41, ,
-126, ,41, ,
-120, ,41, ,
-115, ,41, ,
-109, ,40, ,
-105, ,40, ,
-98, ,40, ,
-92, ,40, ,
-89, ,41, ,
-86, ,41, ,
-78, ,40, ,
-73, ,40, ,
-71, ,41, ,
-66, ,41, ,
4, ,40, ,
109, ,40, ,
125, ,40, ,
125, ,40, ,
125, ,40, ,
125, ,40, ,
125, ,40, ,
125, ,41, ,
125, ,41, ,
125, ,41, ,
125, ,41, ,
125, ,41, ,
125, ,40, ,
125, ,40, ,
125, ,40, ,
125, ,40, ,
125, ,40, ,
125, ,40, ,
125, ,40, ,
125, ,40, ,
125, ,40, ,
125, ,41, ,
125, ,41, ,
125, ,41, ,
125, ,41, ,
125, ,40, ,
125, ,40, ,
125, ,41, ,
125, ,40, ,
125, ,40, ,
125, ,40, ,
124, ,40, ,
115, ,40, ,
93, ,40, ,
67, ,40, ,
37, ,40, ,
-27, ,40, ,
-58, ,40, ,
-86, ,40, ,
-109, ,40, ,
-126, ,40, ,
-126, ,40, ,
-126, ,40, ,
-126, ,40, ,
-126, ,40, ,
-126, ,41, ,
-126, ,41, ,
-125, ,41, ,
-99, ,41, ,
-79, ,41, ,
-56, ,40, ,
-35, ,40, ,
9, ,40, ,
31, ,41, ,
49, ,40, ,
67, ,40, ,
95, ,40, ,
105, ,40, ,
114, ,40, ,
120, ,40, ,
125, ,40, ,
125, ,40, ,
124, ,40, ,
124, ,40, ,
114, ,40, ,
106, ,41, ,
98, ,40, ,
88, ,40, ,
62, ,41, ,
48, ,41, ,
31, ,40, ,
16, ,40, ,
-17, ,40, ,
-32, ,40, ,
-46, ,40, ,
-60, ,40, ,
-79, ,40, ,
-86, ,40, ,
-94, ,40, ,
-97, ,41, ,
-98, ,40, ,
-98, ,40, ,
-94, ,40, ,
-93, ,40, ,
-83, ,40, ,
-77, ,41, ,
-71, ,40, ,
-65, ,40, ,
-53, ,41, ,
-49, ,40, ,
-44, ,40, ,
-41, ,40, ,
-38, ,40, ,
-36, ,41, ,
-37, ,40, ,
-39, ,40, ,
-43, ,40, ,
-48, ,40, ,
-51, ,41, ,
-57, ,41, ,
-70, ,41, ,
-76, ,41, ,
-84, ,41, ,
-90, ,41, ,
-104, ,41, ,
-108, ,40, ,
-113, ,40, ,
-119, ,40, ,
-126, ,40, ,
-126, ,40, ,
-126, ,41, ,
-126, ,40, ,
-123, ,40, ,
-122, ,40, ,
-118, ,40, ,
-115, ,40, ,
-106, ,41, ,
-100, ,40, ,
-95, ,40, ,
-89, ,40, ,
-78, ,40, ,
-72, ,40, ,
-66, ,40, ,
-62, ,41, ,
-54, ,40, ,
-49, ,40, ,
-48, ,40, ,
-45, ,41, ,
-40, ,41, ,
-41, ,41, ,
-39, ,40, ,
-38, ,40, ,
-39, ,40, ,
-39, ,41, ,
-39, ,40, ,
-39, ,40, ,
-38, ,40, ,
-36, ,40, ,
-37, ,40, ,
-35, ,40, ,
-34, ,40, ,
-30, ,40, ,
-29, ,41, ,
-27, ,40, ,
-19, ,40, ,
-18, ,40, ,
-14, ,40, ,
-10, ,40, ,
-6, ,40, ,
-2, ,40, ,
-1, ,40, ,
3, ,40, ,
4, ,41, ,
8, ,41, ,
10, ,41, ,
9, ,41, ,
12, ,41, ,
13, ,41, ,
13, ,41, ,
14, ,40, ,
15, ,40, ,
15, ,40, ,
15, ,41, ,
17, ,41, ,
16, ,40, ,
18, ,40, ,
18, ,40, ,
17, ,40, ,
18, ,40, ,
18, ,40, ,
18, ,40, ,
18, ,40, ,
19, ,41, ,
18, ,41, ,
18, ,41, ,
17, ,40, ,
16, ,40, ,
13, ,40, ,
13, ,40, ,
10, ,40, ,
4, ,40, ,
2, ,41, ,
-2, ,41, ,
-4, ,41, ,
-11, ,41, ,
-17, ,41, ,
-20, ,41, ,
-26, ,41, ,
-35, ,41, ,
-37, ,41, ,
-42, ,40, ,
-45, ,40, ,
-50, ,40, ,
-55, ,40, ,
-57, ,41, ,
-59, ,41, ,
-64, ,41, ,
-66, ,41, ,
-69, ,41, ,
-69, ,41, ,
-71, ,41, ,
-71, ,41, ,
-71, ,41, ,
-71, ,40, ,
-68, ,40, ,
-67, ,40, ,
-67, ,40, ,
-66, ,40, ,
-59, ,40, ,
-58, ,40, ,
-56, ,40, ,
-54, ,40, ,
-49, ,40, ,
-45, ,41, ,
-43, ,41, ,
-41, ,41, ,
-35, ,41, ,
-35, ,41, ,
-30, ,41, ,
-30, ,41, ,
-24, ,40, ,
-22, ,40, ,
-22, ,41, ,
-19, ,41, ,
-15, ,41, ,
-14, ,41, ,
-12, ,40, ,
-11, ,40, ,
-9, ,40, ,
-9, ,41, ,
-7, ,40, ,
-6, ,40, ,
-5, ,40, ,
-4, ,41, ,
-4, ,40, ,
-4, ,40, ,
-4, ,40, ,
-2, ,40, ,
-4, ,40, ,
-4, ,40, ,
-4, ,40, ,
-5, ,41, ,
-3, ,40, ,
-3, ,40, ,
-5, ,40, ,
-5, ,41, ,
-6, ,40, ,
-5, ,40, ,
-8, ,40, ,
-10, ,41, ,
-10, ,41, ,
-13, ,41, ,
-14, ,41, ,
-15, ,40, ,
-16, ,40, ,
-18, ,40, ,
-20, ,40, ,
-23, ,40, ,
-23, ,40, ,
-23, ,40, ,
-25, ,40, ,
-25, ,40, ,
-25, ,40, ,
-25, ,40, ,
-24, ,40, ,
-23, ,40, ,
-22, ,41, ,
-22, ,41, ,
-17, ,41, ,
-15, ,41, ,
-15, ,40, ,
-11, ,40, ,
-3, ,40, ,
0, ,41, ,
5, ,40, ,
9, ,40, ,
18, ,40, ,
23, ,40, ,
28, ,40, ,
35, ,41, ,
45, ,40, ,
52, ,40, ,
57, ,40, ,
64, ,41, ,
76, ,40, ,
83, ,40, ,
89, ,41, ,
97, ,41, ,
111, ,41, ,
117, ,41, ,
124, ,40, ,
125, ,40, ,
125, ,41, ,
125, ,41, ,
125, ,41, ,
125, ,41, ,
125, ,41, ,
125, ,40, ,
125, ,40, ,
125, ,41, ,
125, ,40, ,
125, ,40, ,
125, ,40, ,
125, ,40, ,
125, ,40, ,
125, ,40, ,
125, ,41, ,
125, ,41, ,
125, ,40, ,
125, ,40, ,
125, ,40, ,
125, ,40, ,
125, ,41, ,
125, ,41, ,
125, ,40, ,
125, ,40, ,
125, ,40, ,
125, ,40, ,
125, ,41, ,
125, ,41, ,
125, ,41, ,
125, ,41, ,
125, ,41, ,
124, ,41, ,
115, ,41, ,
105, ,40, ,
95, ,40, ,
82, ,41, ,
52, ,40, ,
35, ,40, ,
16, ,41, ,
-6, ,41, ,
-49, ,41, ,
-72, ,41, ,
-96, ,40, ,
-119, ,40, ,
-126, ,40, ,
-126, ,40, ,
-126, ,41, ,
-126, ,41, ,
-126, ,41, ,
-126, ,41, ,
-126, ,41, ,
-126, ,41, ,
-126, ,41, ,
-126, ,40, ,
-126, ,40, ,
-126, ,40, ,
-126, ,40, ,
-126, ,40, ,
-126, ,41, ,
-126, ,40, ,
-126, ,40, ,
-126, ,40, ,
-126, ,40, ,
-126, ,40, ,
-126, ,40, ,
-126, ,41, ,
-126, ,40, ,
-126, ,40, ,
-126, ,40, ,
-126, ,41, ,
-126, ,41, ,
-126, ,41, ,
-126, ,41, ,
-126, ,41, ,
-126, ,41, ,
-126, ,41, ,
-126, ,41, ,
-126, ,41, ,
-126, ,40, ,
-126, ,40, ,
-123, ,40, ,
-117, ,40, ,
-112, ,41, ,
-107, ,41, ,
-99, ,41, ,
-93, ,41, ,
-90, ,40, ,
-86, ,40, ,
-78, ,41, ,
-74, ,41, ,
-69, ,41, ,
-63, ,41, ,
-17, ,41, ,
32, ,41, ,
86, ,40, ,
124, ,40, ,
125, ,40, ,
125, ,40, ,
125, ,40, ,
125, ,40, ,
125, ,41, ,
124, ,41, ,
124, ,41, ,
118, ,41, ,
102, ,41, ,
94, ,41, ,
84, ,41, ,
74, ,41, ,
56, ,41, ,
44, ,41, ,
38, ,40, ,
31, ,40, ,
18, ,41, ,
15, ,40, ,
11, ,40, ,
9, ,40, ,
8, ,41, ,
8, ,40, ,
13, ,40, ,
13, ,41, ,
22, ,41, ,
26, ,41, ,
29, ,40, ,
35, ,40, ,
43, ,41, ,
49, ,41, ,
54, ,40, ,
58, ,40, ,
65, ,40, ,
68, ,40, ,
71, ,40, ,
73, ,40, ,
78, ,40, ,
77, ,40, ,
79, ,41, ,
79, ,41, ,
80, ,41, ,
81, ,40, ,
81, ,40, ,
79, ,40, ,
79, ,40, ,
79, ,41, ,
80, ,40, ,
79, ,40, ,
78, ,40, ,
79, ,41, ,
78, ,40, ,
79, ,40, ,
79, ,40, ,
79, ,40, ,
79, ,41, ,
77, ,41, ,
75, ,41, ,
74, ,41, ,
72, ,40, ,
71, ,40, ,
68, ,40, ,
63, ,41, ,
61, ,41, ,
59, ,41, ,
53, ,41, ,
51, ,41, ,
48, ,41, ,
46, ,41, ,
41, ,41, ,
39, ,41, ,
38, ,41, ,
35, ,41, ,
34, ,40, ,
33, ,40, ,
32, ,40, ,
32, ,40, ,
32, ,40, ,
33, ,41, ,
34, ,41, ,
35, ,40, ,
35, ,40, ,
37, ,40, ,
38, ,40, ,
40, ,41, ,
40, ,41, ,
41, ,41, ,
40, ,40, ,
41, ,40, ,
38, ,40, ,
36, ,41, ,
35, ,41, ,
34, ,40, ,
29, ,40, ,
24, ,40, ,
22, ,40, ,
19, ,40, ,
10, ,40, ,
6, ,40, ,
3, ,40, ,
-1, ,40, ,
-10, ,41, ,
-13, ,41, ,
-16, ,40, ,
-20, ,40, ,
-25, ,41, ,
-26, ,41, ,
-30, ,41, ,
-30, ,40, ,
-31, ,40, ,
-33, ,40, ,
-32, ,40, ,
-32, ,40, ,
-31, ,41, ,
-29, ,41, ,
-29, ,41, ,
-28, ,41, ,
-25, ,41, ,
-24, ,41, ,
-22, ,41, ,
-22, ,41, ,
-20, ,40, ,
-19, ,40, ,
-19, ,41, ,
-19, ,41, ,
-18, ,41, ,
-20, ,41, ,
-19, ,40, ,
-20, ,40, ,
-21, ,40, ,
-23, ,41, ,
-23, ,40, ,
-24, ,40, ,
-25, ,41, ,
-26, ,41, ,
-26, ,40, ,
-27, ,40, ,
-27, ,40, ,
-26, ,40, ,
-27, ,40, ,
-26, ,41, ,
-25, ,41, ,
-26, ,40, ,
-22, ,40, ,
-22, ,40, ,
-19, ,41, ,
-18, ,40, ,
-16, ,40, ,
-14, ,40, ,
-12, ,41, ,
-8, ,41, ,
-5, ,40, ,
-6, ,40, ,
-1, ,40, ,
0, ,40, ,
1, ,40, ,
3, ,40, ,
6, ,40, ,
7, ,40, ,
7, ,40, ,
10, ,40, ,
10, ,40, ,
13, ,41, ,
12, ,40, ,
14, ,40, ,
14, ,40, ,
14, ,41, ,
14, ,41, ,
14, ,41, ,
14, ,41, ,
13, ,41, ,
13, ,40, ,
13, ,40, ,
12, ,40, ,
11, ,41, ,
10, ,40, ,
10, ,40, ,
9, ,40, ,
9, ,41, ,
8, ,41, ,
8, ,40, ,
6, ,40, ,
7, ,40, ,
5, ,40, ,
5, ,40, ,
5, ,41, ,
5, ,41, ,
4, ,40, ,
5, ,40, ,
5, ,40, ,
4, ,40, ,
5, ,40, ,
5, ,40, ,
5, ,41, ,
5, ,41, ,
5, ,41, ,
6, ,41, ,
6, ,41, ,
6, ,40, ,
6, ,40, ,
6, ,41, ,
6, ,41, ,
6, ,40, ,
6, ,40, ,
7, ,40, ,
7, ,40, ,
6, ,40, ,
6, ,40, ,
5, ,40, ,
3, ,40, ,
4, ,41, ,
4, ,40, ,
3, ,40, ,
0, ,40, ,
-1, ,41, ,
-1, ,41, ,
-6, ,40, ,
-8, ,40, ,
-7, ,40, ,
-13, ,41, ,
-13, ,41, ,
-19, ,40, ,
-21, ,40, ,
-23, ,41, ,
-28, ,41, ,
-33, ,41, ,
-35, ,40, ,
-38, ,40, ,
-41, ,41, ,
-49, ,41, ,
-52, ,41, ,
-55, ,40, ,
-59, ,40, ,
-65, ,41, ,
-67, ,40, ,
-72, ,40, ,
-75, ,40, ,
-82, ,40, ,
-85, ,40, ,
-87, ,41, ,
-92, ,41, ,
-98, ,41, ,
-100, ,41, ,
-104, ,40, ,
-105, ,40, ,
-112, ,40, ,
-114, ,40, ,
-115, ,40, ,
-119, ,40, ,
-123, ,40, ,
-126, ,40, ,
-126, ,40, ,
-126, ,40, ,
-126, ,40, ,
-126, ,40, ,
-126, ,40, ,
-126, ,40, ,
-121, ,40, ,
-118, ,40, ,
-114, ,40, ,
-112, ,40, ,
-105, ,40, ,
-103, ,40, ,
-98, ,40, ,
-95, ,40, ,
-88, ,41, ,
-83, ,40, ,
-82, ,40, ,
-78, ,40, ,
-71, ,40, ,
-69, ,41, ,
-65, ,40, ,
-63, ,40, ,
-56, ,40, ,
-54, ,41, ,
-51, ,41, ,
-47, ,41, ,
-38, ,41, ,
-29, ,41, ,
-10, ,40, ,
14, ,40, ,
61, ,41, ,
79, ,41, ,
91, ,41, ,
104, ,41, ,
125, ,41, ,
125, ,41, ,
125, ,40, ,
125, ,40, ,
125, ,41, ,
125, ,41, ,
125, ,40, ,
125, ,40, ,
125, ,40, ,
125, ,40, ,
125, ,40, ,
125, ,41, ,
125, ,41, ,
125, ,41, ,
125, ,41, ,
125, ,40, ,
125, ,40, ,
125, ,40, ,
125, ,40, ,
125, ,40, ,
125, ,40, ,
125, ,40, ,
125, ,40, ,
125, ,41, ,
125, ,41, ,
125, ,41, ,
125, ,40, ,
125, ,40, ,
125, ,41, ,
125, ,41, ,
125, ,41, ,
125, ,41, ,
125, ,41, ,
125, ,41, ,
124, ,41, ,
124, ,40, ,
103, ,40, ,
82, ,40, ,
60, ,40, ,
40, ,40, ,
-4, ,40, ,
-26, ,40, ,
-47, ,41, ,
-70, ,41, ,
-111, ,40, ,
-126, ,40, ,
-126, ,41, ,
-126, ,40, ,
-126, ,40, ,
-126, ,40, ,
-126, ,41, ,
-126, ,41, ,
-126, ,41, ,
-126, ,41, ,
-126, ,40, ,
-126, ,40, ,
-126, ,41, ,
-126, ,40, ,
-126, ,40, ,
-126, ,41, ,
-126, ,41, ,
-126, ,41, ,
-126, ,41, ,
-126, ,41, ,
-126, ,40, ,
-126, ,40, ,
-126, ,40, ,
-126, ,40, ,
-126, ,40, ,
-126, ,40, ,
-126, ,40, ,
-126, ,41, ,
-126, ,40, ,
-126, ,40, ,
-126, ,40, ,
-123, ,41, ,
-69, ,40, ,
-48, ,40, ,
-33, ,41, ,
-18, ,41, ,
8, ,41, ,
20, ,41, ,
31, ,41, ,
39, ,40, ,
