raw_data/100% Glycerol, Impulsion 2Hz, Sonde 5MHz, Rampe 0.7Hz/temp0000294.CSV

Format,1.0B,
Memory Length,10000,Memory Length,10000,
IntpDistance,0,IntpDistance,0,
Trigger Address,159,Trigger Address,159,
Trigger Level,2.720E-01,Trigger Level,2.720E-01,
Source,CH1,Source,CH2,
Vertical Units,V,Vertical Units,V,
Vertical Units Div,0,Vertical Units Div,0,
Vertical Units Extend Div,16,Vertical Units Extend Div,16,
Label,,Label,,
Probe Type,0,Probe Type,0,
Probe Ratio,1.000e+00,Probe Ratio,1.000e+00,
Vertical Scale,2.000e-01,Vertical Scale,2.000e+00,
Vertical Position,0.000e+00,Vertical Position,0.000e+00,
Horizontal Units,S,Horizontal Units,S,
Horizontal Scale,5.000E-06,Horizontal Scale,5.000E-06,
Horizontal Position,2.420E-05,Horizontal Position,2.420E-05,
Horizontal Mode,Main,Horizontal Mode,Main,
SincET Mode,Real Time,SincET Mode,Real Time,
Sampling Period,5.000e-09,Sampling Period,5.000e-09,
Horizontal Old Scale,5.000E-06,Horizontal Old Scale,5.000E-06,
Horizontal Old Position,2.420E-05,Horizontal Old Position,2.420E-05,
Firmware,V1.32,Firmware,V1.32,
Mode,Fast,Mode,Fast,
Waveform Data,,Waveform Data,,
2, ,-14, ,
2, ,-14, ,
1, ,-14, ,
2, ,-14, ,
2, ,-15, ,
2, ,-15, ,
2, ,-15, ,
1, ,-15, ,
1, ,-15, ,
1, ,-14, ,
1, ,-15, ,
1, ,-15, ,
2, ,-15, ,
2, ,-15, ,
2, ,-15, ,
1, ,-15, ,
2, ,-15, ,
3, ,-15, ,
1, ,-15, ,
1, ,-14, ,
2, ,-14, ,
1, ,-14, ,
2, ,-14, ,
1, ,-15, ,
1, ,-15, ,
2, ,-14, ,
2, ,-15, ,
2, ,-15, ,
3, ,-15, ,
3, ,-15, ,
3, ,-15, ,
2, ,-15, ,
1, ,-15, ,
2, ,-15, ,
1, ,-15, ,
2, ,-14, ,
2, ,-15, ,
2, ,-15, ,
2, ,-14, ,
2, ,-14, ,
2, ,-14, ,
2, ,-14, ,
2, ,-15, ,
2, ,-15, ,
2, ,-15, ,
2, ,-14, ,
2, ,-14, ,
1, ,-15, ,
3, ,-15, ,
2, ,-14, ,
1, ,-14, ,
2, ,-14, ,
2, ,-14, ,
1, ,-14, ,
3, ,-14, ,
2, ,-15, ,
1, ,-15, ,
3, ,-14, ,
2, ,-14, ,
2, ,-14, ,
2, ,-14, ,
1, ,-14, ,
2, ,-14, ,
1, ,-15, ,
2, ,-15, ,
2, ,-14, ,
2, ,-14, ,
3, ,-14, ,
2, ,-15, ,
1, ,-15, ,
2, ,-15, ,
2, ,-15, ,
1, ,-15, ,
2, ,-14, ,
1, ,-15, ,
2, ,-15, ,
2, ,-14, ,
2, ,-15, ,
2, ,-15, ,
2, ,-15, ,
1, ,-15, ,
2, ,-15, ,
1, ,-15, ,
2, ,-15, ,
2, ,-14, ,
1, ,-15, ,
2, ,-15, ,
3, ,-15, ,
2, ,-14, ,
2, ,-14, ,
2, ,-14, ,
2, ,-14, ,
2, ,-14, ,
2, ,-15, ,
2, ,-15, ,
2, ,-15, ,
2, ,-15, ,
2, ,-15, ,
2, ,-15, ,
2, ,-15, ,
2, ,-14, ,
2, ,-14, ,
3, ,-14, ,
2, ,-14, ,
1, ,-14, ,
2, ,-15, ,
2, ,-15, ,
2, ,-15, ,
3, ,-15, ,
3, ,-15, ,
3, ,-15, ,
2, ,-15, ,
2, ,-15, ,
2, ,-15, ,
1, ,-15, ,
3, ,-14, ,
3, ,-14, ,
1, ,-15, ,
2, ,-15, ,
2, ,-15, ,
1, ,-15, ,
2, ,-15, ,
2, ,-15, ,
2, ,-15, ,
2, ,-14, ,
2, ,-15, ,
2, ,-15, ,
1, ,-15, ,
1, ,-15, ,
2, ,-15, ,
2, ,-15, ,
2, ,-14, ,
2, ,-15, ,
1, ,-15, ,
2, ,-15, ,
3, ,-15, ,
1, ,-15, ,
2, ,-15, ,
1, ,-15, ,
2, ,-15, ,
2, ,-14, ,
1, ,-14, ,
2, ,-14, ,
2, ,-14, ,
2, ,-15, ,
2, ,-15, ,
1, ,-15, ,
2, ,-14, ,
2, ,-14, ,
1, ,-14, ,
2, ,-14, ,
1, ,-14, ,
2, ,-14, ,
2, ,-14, ,
2, ,-15, ,
2, ,-15, ,
3, ,-14, ,
1, ,-15, ,
4, ,-15, ,
2, ,-15, ,
1, ,-15, ,
3, ,-15, ,
1, ,-15, ,
1, ,-14, ,
-2, ,-15, ,
1, ,-15, ,
-2, ,-15, ,
11, ,-15, ,
125, ,-15, ,
125, ,-15, ,
125, ,-15, ,
125, ,-15, ,
118, ,-15, ,
67, ,-15, ,
-18, ,-15, ,
26, ,-15, ,
125, ,-15, ,
125, ,-15, ,
125, ,-15, ,
125, ,-15, ,
125, ,-15, ,
125, ,-15, ,
125, ,-14, ,
125, ,-15, ,
125, ,-15, ,
125, ,-14, ,
125, ,-14, ,
125, ,-15, ,
125, ,-15, ,
125, ,-14, ,
125, ,-14, ,
125, ,-14, ,
125, ,-15, ,
125, ,-15, ,
125, ,-15, ,
125, ,-14, ,
125, ,-15, ,
125, ,-15, ,
125, ,-14, ,
125, ,-14, ,
125, ,-14, ,
124, ,-14, ,
124, ,-15, ,
123, ,-15, ,
113, ,-14, ,
107, ,-15, ,
105, ,-15, ,
99, ,-15, ,
93, ,-15, ,
89, ,-15, ,
83, ,-15, ,
81, ,-14, ,
74, ,-15, ,
68, ,-15, ,
66, ,-15, ,
65, ,-14, ,
57, ,-14, ,
56, ,-14, ,
53, ,-14, ,
51, ,-14, ,
46, ,-15, ,
43, ,-15, ,
43, ,-15, ,
39, ,-15, ,
35, ,-15, ,
35, ,-15, ,
32, ,-15, ,
32, ,-14, ,
28, ,-15, ,
26, ,-15, ,
25, ,-15, ,
24, ,-15, ,
20, ,-15, ,
20, ,-15, ,
19, ,-14, ,
18, ,-14, ,
15, ,-14, ,
14, ,-15, ,
15, ,-15, ,
12, ,-15, ,
11, ,-15, ,
10, ,-15, ,
9, ,-15, ,
9, ,-15, ,
7, ,-15, ,
7, ,-15, ,
6, ,-15, ,
6, ,-14, ,
5, ,-14, ,
4, ,-14, ,
3, ,-14, ,
4, ,-15, ,
3, ,-15, ,
2, ,-15, ,
2, ,-15, ,
0, ,-15, ,
1, ,-15, ,
1, ,-15, ,
1, ,-15, ,
1, ,-15, ,
0, ,-15, ,
-2, ,-15, ,
0, ,-14, ,
-2, ,-14, ,
-2, ,-14, ,
-1, ,-14, ,
-2, ,-14, ,
-1, ,-14, ,
-2, ,-15, ,
-2, ,-15, ,
-2, ,-15, ,
-2, ,-15, ,
-2, ,-14, ,
-2, ,-14, ,
-2, ,-14, ,
-2, ,-14, ,
-3, ,-15, ,
-3, ,-15, ,
-3, ,-14, ,
-4, ,-14, ,
-5, ,-14, ,
-3, ,-14, ,
-3, ,-14, ,
-2, ,-14, ,
-2, ,-14, ,
-3, ,-14, ,
-2, ,-14, ,
-2, ,-14, ,
-2, ,-15, ,
-2, ,-15, ,
-2, ,-14, ,
-3, ,-14, ,
-3, ,-14, ,
-2, ,-15, ,
-2, ,-15, ,
-2, ,-15, ,
-2, ,-14, ,
-2, ,-14, ,
-2, ,-15, ,
-2, ,-15, ,
-2, ,-15, ,
-2, ,-15, ,
-2, ,-15, ,
-2, ,-15, ,
-2, ,-15, ,
-1, ,-15, ,
-3, ,-15, ,
-2, ,-14, ,
-1, ,-15, ,
-2, ,-15, ,
-1, ,-15, ,
-1, ,-15, ,
-2, ,-15, ,
-2, ,-15, ,
-2, ,-15, ,
-1, ,-15, ,
-1, ,-15, ,
-2, ,-14, ,
-1, ,-15, ,
-2, ,-15, ,
-1, ,-15, ,
-1, ,-15, ,
-2, ,-15, ,
-1, ,-14, ,
-1, ,-15, ,
-1, ,-15, ,
-1, ,-15, ,
-1, ,-15, ,
-1, ,-15, ,
0, ,-15, ,
-1, ,-15, ,
0, ,-15, ,
0, ,-14, ,
0, ,-15, ,
0, ,-15, ,
0, ,-15, ,
0, ,-14, ,
0, ,-14, ,
0, ,-15, ,
0, ,-15, ,
0, ,-15, ,
0, ,-15, ,
0, ,-14, ,
0, ,-14, ,
0, ,-14, ,
0, ,-14, ,
0, ,-15, ,
0, ,-15, ,
1, ,-15, ,
1, ,-14, ,
1, ,-15, ,
1, ,-15, ,
1, ,-14, ,
1, ,-15, ,
0, ,-15, ,
0, ,-15, ,
1, ,-14, ,
0, ,-14, ,
1, ,-14, ,
1, ,-14, ,
1, ,-15, ,
2, ,-15, ,
1, ,-15, ,
2, ,-15, ,
1, ,-14, ,
0, ,-15, ,
1, ,-15, ,
1, ,-15, ,
1, ,-15, ,
1, ,-14, ,
0, ,-15, ,
1, ,-15, ,
1, ,-15, ,
1, ,-15, ,
1, ,-14, ,
1, ,-14, ,
0, ,-15, ,
2, ,-15, ,
1, ,-15, ,
1, ,-14, ,
2, ,-14, ,
1, ,-15, ,
2, ,-15, ,
1, ,-15, ,
1, ,-15, ,
2, ,-15, ,
0, ,-15, ,
2, ,-15, ,
1, ,-15, ,
1, ,-15, ,
2, ,-15, ,
2, ,-15, ,
1, ,-14, ,
2, ,-14, ,
2, ,-14, ,
1, ,-14, ,
-7, ,-15, ,
-27, ,-15, ,
-72, ,-15, ,
-126, ,-15, ,
-126, ,-15, ,
-126, ,-15, ,
-126, ,-15, ,
-126, ,-14, ,
-126, ,-15, ,
-126, ,-15, ,
-126, ,-14, ,
-126, ,-15, ,
-126, ,-15, ,
-126, ,-15, ,
-126, ,-15, ,
-126, ,-15, ,
-114, ,-14, ,
34, ,-15, ,
125, ,-15, ,
125, ,-15, ,
125, ,-14, ,
125, ,-15, ,
125, ,-15, ,
124, ,-15, ,
106, ,-15, ,
74, ,-15, ,
45, ,-15, ,
25, ,-15, ,
24, ,-15, ,
38, ,-14, ,
53, ,-15, ,
71, ,-15, ,
95, ,-14, ,
104, ,-15, ,
112, ,-15, ,
115, ,-15, ,
120, ,-15, ,
121, ,-15, ,
119, ,-15, ,
121, ,-15, ,
118, ,-15, ,
116, ,-15, ,
115, ,-15, ,
112, ,-15, ,
108, ,-15, ,
106, ,-14, ,
103, ,-14, ,
101, ,-14, ,
95, ,-14, ,
91, ,-15, ,
88, ,-15, ,
85, ,-15, ,
79, ,-15, ,
78, ,-15, ,
75, ,-15, ,
73, ,-15, ,
67, ,-15, ,
64, ,-15, ,
61, ,-15, ,
57, ,-15, ,
40, ,-15, ,
28, ,-14, ,
8, ,-14, ,
-17, ,-14, ,
-64, ,-14, ,
-79, ,-15, ,
-84, ,-15, ,
-81, ,-15, ,
-41, ,-15, ,
-19, ,-15, ,
0, ,-15, ,
18, ,-15, ,
36, ,-15, ,
39, ,-15, ,
44, ,-14, ,
45, ,-15, ,
49, ,-15, ,
49, ,-15, ,
48, ,-15, ,
48, ,-15, ,
44, ,-14, ,
43, ,-14, ,
40, ,-14, ,
36, ,-15, ,
29, ,-15, ,
27, ,-14, ,
20, ,-14, ,
19, ,-14, ,
15, ,-15, ,
14, ,-15, ,
16, ,-15, ,
18, ,-15, ,
21, ,-15, ,
24, ,-15, ,
25, ,-15, ,
26, ,-15, ,
27, ,-14, ,
26, ,-15, ,
27, ,-15, ,
27, ,-15, ,
26, ,-15, ,
26, ,-15, ,
25, ,-15, ,
25, ,-14, ,
24, ,-14, ,
22, ,-14, ,
22, ,-14, ,
21, ,-14, ,
19, ,-14, ,
19, ,-14, ,
18, ,-15, ,
19, ,-15, ,
17, ,-15, ,
17, ,-15, ,
16, ,-15, ,
13, ,-15, ,
13, ,-15, ,
12, ,-14, ,
10, ,-14, ,
10, ,-14, ,
5, ,-14, ,
3, ,-14, ,
2, ,-14, ,
0, ,-14, ,
-4, ,-14, ,
-4, ,-14, ,
-5, ,-15, ,
-5, ,-15, ,
-4, ,-14, ,
-4, ,-15, ,
-4, ,-15, ,
-4, ,-15, ,
-4, ,-14, ,
-4, ,-14, ,
-6, ,-14, ,
-6, ,-14, ,
-11, ,-15, ,
-14, ,-15, ,
-15, ,-15, ,
-21, ,-15, ,
-28, ,-15, ,
-33, ,-14, ,
-35, ,-15, ,
-36, ,-15, ,
-37, ,-15, ,
-38, ,-15, ,
-36, ,-15, ,
-35, ,-15, ,
-30, ,-15, ,
-26, ,-15, ,
-24, ,-15, ,
-19, ,-14, ,
-14, ,-15, ,
-15, ,-15, ,
-13, ,-14, ,
-13, ,-15, ,
-16, ,-15, ,
-18, ,-15, ,
-23, ,-15, ,
-25, ,-15, ,
-35, ,-14, ,
-43, ,-15, ,
-49, ,-15, ,
-55, ,-15, ,
-66, ,-14, ,
-70, ,-14, ,
-74, ,-14, ,
-74, ,-14, ,
-73, ,-15, ,
-72, ,-15, ,
-69, ,-14, ,
-65, ,-15, ,
-56, ,-15, ,
-51, ,-14, ,
-47, ,-14, ,
-44, ,-14, ,
-36, ,-15, ,
-35, ,-15, ,
-34, ,-15, ,
-35, ,-15, ,
-34, ,-14, ,
-35, ,-14, ,
-38, ,-15, ,
-39, ,-15, ,
-44, ,-14, ,
-49, ,-14, ,
-51, ,-14, ,
-55, ,-15, ,
-60, ,-15, ,
-61, ,-14, ,
-62, ,-15, ,
-61, ,-15, ,
-58, ,-15, ,
-55, ,-15, ,
-51, ,-14, ,
-46, ,-15, ,
-32, ,-15, ,
-23, ,-15, ,
-15, ,-15, ,
-7, ,-14, ,
8, ,-14, ,
12, ,-14, ,
18, ,-14, ,
20, ,-15, ,
24, ,-15, ,
24, ,-14, ,
22, ,-14, ,
19, ,-14, ,
9, ,-14, ,
1, ,-15, ,
-6, ,-15, ,
-16, ,-15, ,
-36, ,-15, ,
-47, ,-15, ,
-57, ,-15, ,
-68, ,-14, ,
-84, ,-15, ,
-89, ,-15, ,
-91, ,-15, ,
-92, ,-15, ,
-89, ,-15, ,
-83, ,-15, ,
-77, ,-15, ,
-68, ,-15, ,
-51, ,-15, ,
-42, ,-15, ,
-34, ,-14, ,
-25, ,-14, ,
-13, ,-14, ,
-6, ,-14, ,
-4, ,-14, ,
3, ,-14, ,
7, ,-15, ,
5, ,-15, ,
6, ,-15, ,
4, ,-15, ,
0, ,-14, ,
-3, ,-14, ,
-5, ,-15, ,
-8, ,-15, ,
-16, ,-14, ,
-21, ,-14, ,
-26, ,-14, ,
-31, ,-14, ,
-39, ,-15, ,
-40, ,-15, ,
-45, ,-15, ,
-46, ,-14, ,
-46, ,-14, ,
-48, ,-14, ,
-43, ,-14, ,
-43, ,-15, ,
-35, ,-15, ,
-30, ,-15, ,
-27, ,-15, ,
-22, ,-15, ,
-11, ,-14, ,
-8, ,-15, ,
-3, ,-15, ,
-1, ,-15, ,
7, ,-14, ,
11, ,-14, ,
13, ,-14, ,
17, ,-14, ,
21, ,-15, ,
21, ,-15, ,
23, ,-15, ,
25, ,-15, ,
24, ,-15, ,
24, ,-14, ,
23, ,-15, ,
21, ,-15, ,
19, ,-15, ,
18, ,-15, ,
18, ,-15, ,
18, ,-15, ,
19, ,-15, ,
21, ,-15, ,
20, ,-15, ,
25, ,-14, ,
30, ,-15, ,
33, ,-15, ,
37, ,-15, ,
39, ,-15, ,
45, ,-15, ,
47, ,-15, ,
48, ,-15, ,
48, ,-15, ,
44, ,-14, ,
43, ,-14, ,
40, ,-14, ,
35, ,-15, ,
28, ,-15, ,
24, ,-15, ,
17, ,-15, ,
14, ,-15, ,
4, ,-15, ,
-1, ,-15, ,
-2, ,-14, ,
-7, ,-15, ,
-13, ,-15, ,
-14, ,-15, ,
-17, ,-15, ,
-18, ,-15, ,
-20, ,-15, ,
-20, ,-15, ,
-21, ,-15, ,
-22, ,-15, ,
-24, ,-14, ,
-25, ,-14, ,
-26, ,-14, ,
-26, ,-14, ,
-28, ,-15, ,
-33, ,-15, ,
-34, ,-14, ,
-37, ,-15, ,
-40, ,-15, ,
-39, ,-14, ,
-41, ,-15, ,
-41, ,-15, ,
-38, ,-15, ,
-38, ,-15, ,
-34, ,-15, ,
-32, ,-15, ,
-21, ,-15, ,
-15, ,-15, ,
-12, ,-15, ,
-4, ,-14, ,
6, ,-15, ,
11, ,-15, ,
15, ,-15, ,
16, ,-15, ,
23, ,-15, ,
23, ,-14, ,
22, ,-15, ,
22, ,-15, ,
19, ,-14, ,
15, ,-15, ,
13, ,-15, ,
10, ,-15, ,
2, ,-15, ,
-1, ,-15, ,
-7, ,-14, ,
-10, ,-15, ,
-16, ,-15, ,
-20, ,-14, ,
-21, ,-14, ,
-22, ,-15, ,
-25, ,-15, ,
-23, ,-14, ,
-24, ,-15, ,
-22, ,-15, ,
-21, ,-14, ,
-19, ,-15, ,
-17, ,-15, ,
-17, ,-15, ,
-15, ,-15, ,
-14, ,-15, ,
-15, ,-15, ,
-15, ,-14, ,
-18, ,-14, ,
-20, ,-15, ,
-22, ,-15, ,
-26, ,-15, ,
-32, ,-15, ,
-35, ,-14, ,
-39, ,-15, ,
-42, ,-15, ,
-50, ,-14, ,
-57, ,-15, ,
-57, ,-15, ,
-63, ,-15, ,
-70, ,-14, ,
-71, ,-14, ,
-76, ,-14, ,
-76, ,-14, ,
-79, ,-15, ,
-79, ,-15, ,
-78, ,-14, ,
-78, ,-15, ,
-76, ,-15, ,
-74, ,-15, ,
-70, ,-15, ,
-66, ,-15, ,
-59, ,-14, ,
-56, ,-15, ,
-52, ,-15, ,
-49, ,-15, ,
-44, ,-15, ,
-40, ,-15, ,
-41, ,-15, ,
-38, ,-15, ,
-37, ,-14, ,
-38, ,-14, ,
-36, ,-14, ,
-38, ,-15, ,
-39, ,-15, ,
-39, ,-14, ,
-40, ,-15, ,
-39, ,-15, ,
-38, ,-14, ,
-37, ,-14, ,
-35, ,-14, ,
-35, ,-14, ,
-27, ,-15, ,
-23, ,-15, ,
-19, ,-15, ,
-12, ,-14, ,
-1, ,-15, ,
3, ,-15, ,
10, ,-15, ,
16, ,-15, ,
26, ,-15, ,
32, ,-14, ,
35, ,-14, ,
41, ,-14, ,
49, ,-14, ,
53, ,-15, ,
54, ,-15, ,
54, ,-15, ,
53, ,-15, ,
53, ,-15, ,
50, ,-15, ,
49, ,-14, ,
43, ,-15, ,
39, ,-15, ,
38, ,-15, ,
35, ,-14, ,
28, ,-14, ,
27, ,-14, ,
24, ,-14, ,
23, ,-14, ,
21, ,-14, ,
18, ,-15, ,
18, ,-15, ,
16, ,-15, ,
14, ,-15, ,
14, ,-15, ,
12, ,-15, ,
12, ,-15, ,
12, ,-14, ,
10, ,-14, ,
10, ,-14, ,
9, ,-15, ,
7, ,-15, ,
7, ,-14, ,
4, ,-15, ,
4, ,-15, ,
0, ,-14, ,
-1, ,-14, ,
-2, ,-14, ,
-5, ,-15, ,
-7, ,-15, ,
-6, ,-15, ,
-9, ,-15, ,
-9, ,-14, ,
-10, ,-15, ,
-10, ,-15, ,
-10, ,-14, ,
-10, ,-15, ,
-11, ,-15, ,
-11, ,-15, ,
-11, ,-15, ,
-10, ,-15, ,
-10, ,-15, ,
-11, ,-14, ,
-10, ,-14, ,
-12, ,-14, ,
-11, ,-14, ,
-11, ,-14, ,
-12, ,-14, ,
-11, ,-14, ,
-10, ,-15, ,
-10, ,-15, ,
-8, ,-14, ,
-9, ,-15, ,
-8, ,-15, ,
-5, ,-14, ,
-5, ,-14, ,
-4, ,-14, ,
-1, ,-14, ,
-1, ,-14, ,
0, ,-15, ,
0, ,-15, ,
1, ,-15, ,
1, ,-15, ,
1, ,-15, ,
2, ,-14, ,
2, ,-15, ,
0, ,-15, ,
2, ,-14, ,
-1, ,-15, ,
-1, ,-15, ,
-1, ,-15, ,
-2, ,-15, ,
-2, ,-15, ,
-3, ,-14, ,
-3, ,-15, ,
-3, ,-15, ,
-4, ,-15, ,
-3, ,-14, ,
-3, ,-15, ,
-4, ,-15, ,
-4, ,-15, ,
-4, ,-15, ,
-5, ,-15, ,
-4, ,-14, ,
-4, ,-14, ,
-4, ,-14, ,
-3, ,-14, ,
-3, ,-14, ,
-2, ,-15, ,
-2, ,-15, ,
-2, ,-14, ,
-2, ,-14, ,
-2, ,-14, ,
-3, ,-14, ,
-3, ,-14, ,
-6, ,-14, ,
-5, ,-14, ,
-8, ,-14, ,
-11, ,-14, ,
-11, ,-14, ,
-15, ,-14, ,
-18, ,-14, ,
-20, ,-15, ,
-23, ,-15, ,
-22, ,-15, ,
-26, ,-14, ,
-28, ,-14, ,
-28, ,-14, ,
-30, ,-15, ,
-31, ,-15, ,
-31, ,-15, ,
-32, ,-15, ,
-30, ,-14, ,
-30, ,-15, ,
-31, ,-15, ,
-29, ,-14, ,
-29, ,-14, ,
-27, ,-15, ,
-25, ,-15, ,
-25, ,-15, ,
-23, ,-14, ,
-22, ,-14, ,
-22, ,-14, ,
-21, ,-14, ,
-22, ,-14, ,
-22, ,-15, ,
-22, ,-15, ,
-22, ,-15, ,
-22, ,-14, ,
-22, ,-15, ,
-24, ,-15, ,
-23, ,-14, ,
-22, ,-15, ,
-20, ,-15, ,
-19, ,-15, ,
-17, ,-15, ,
-15, ,-14, ,
-12, ,-14, ,
-11, ,-15, ,
-7, ,-15, ,
-7, ,-15, ,
-3, ,-14, ,
0, ,-14, ,
0, ,-15, ,
3, ,-15, ,
5, ,-15, ,
5, ,-15, ,
8, ,-14, ,
7, ,-15, ,
7, ,-15, ,
8, ,-14, ,
7, ,-14, ,
7, ,-15, ,
7, ,-15, ,
7, ,-15, ,
5, ,-15, ,
3, ,-15, ,
1, ,-14, ,
2, ,-14, ,
-1, ,-14, ,
-2, ,-14, ,
-4, ,-15, ,
-6, ,-15, ,
-6, ,-14, ,
-9, ,-15, ,
-12, ,-15, ,
-13, ,-15, ,
-16, ,-15, ,
-15, ,-15, ,
-20, ,-14, ,
-21, ,-15, ,
-21, ,-15, ,
-25, ,-15, ,
-26, ,-15, ,
-27, ,-15, ,
-28, ,-15, ,
-28, ,-14, ,
-29, ,-15, ,
-29, ,-15, ,
-29, ,-14, ,
-29, ,-15, ,
-30, ,-15, ,
-27, ,-15, ,
-28, ,-15, ,
-25, ,-15, ,
-24, ,-14, ,
-24, ,-15, ,
-23, ,-15, ,
-24, ,-15, ,
-21, ,-15, ,
-20, ,-15, ,
-21, ,-15, ,
-19, ,-14, ,
-18, ,-15, ,
-17, ,-15, ,
-16, ,-14, ,
-17, ,-15, ,
-15, ,-15, ,
-12, ,-14, ,
-11, ,-14, ,
-10, ,-14, ,
-8, ,-14, ,
-7, ,-14, ,
-4, ,-14, ,
-5, ,-14, ,
-2, ,-15, ,
1, ,-15, ,
1, ,-15, ,
3, ,-14, ,
6, ,-14, ,
6, ,-14, ,
8, ,-14, ,
10, ,-14, ,
13, ,-14, ,
15, ,-14, ,
15, ,-14, ,
17, ,-14, ,
19, ,-14, ,
18, ,-14, ,
20, ,-14, ,
19, ,-14, ,
19, ,-15, ,
18, ,-15, ,
17, ,-15, ,
18, ,-14, ,
15, ,-14, ,
13, ,-14, ,
13, ,-14, ,
12, ,-15, ,
10, ,-15, ,
9, ,-15, ,
8, ,-15, ,
8, ,-15, ,
7, ,-15, ,
5, ,-14, ,
5, ,-14, ,
4, ,-14, ,
3, ,-14, ,
4, ,-14, ,
1, ,-15, ,
2, ,-15, ,
1, ,-14, ,
1, ,-15, ,
1, ,-15, ,
1, ,-15, ,
-1, ,-14, ,
-1, ,-14, ,
-2, ,-14, ,
-1, ,-15, ,
-3, ,-15, ,
-5, ,-14, ,
-5, ,-14, ,
-7, ,-14, ,
-11, ,-14, ,
-10, ,-14, ,
-12, ,-14, ,
-12, ,-14, ,
-13, ,-15, ,
-14, ,-15, ,
-13, ,-15, ,
-14, ,-14, ,
-11, ,-14, ,
-10, ,-14, ,
-9, ,-14, ,
-8, ,-14, ,
-5, ,-14, ,
-4, ,-14, ,
-2, ,-15, ,
-2, ,-15, ,
5, ,-15, ,
4, ,-15, ,
6, ,-15, ,
8, ,-14, ,
10, ,-15, ,
10, ,-15, ,
11, ,-14, ,
12, ,-14, ,
13, ,-15, ,
16, ,-15, ,
16, ,-15, ,
17, ,-14, ,
17, ,-15, ,
16, ,-15, ,
16, ,-15, ,
16, ,-15, ,
18, ,-14, ,
19, ,-14, ,
18, ,-14, ,
18, ,-14, ,
18, ,-14, ,
18, ,-14, ,
17, ,-14, ,
17, ,-14, ,
16, ,-15, ,
16, ,-15, ,
15, ,-14, ,
15, ,-15, ,
15, ,-15, ,
13, ,-15, ,
13, ,-15, ,
12, ,-15, ,
9, ,-14, ,
9, ,-14, ,
7, ,-14, ,
7, ,-14, ,
4, ,-15, ,
1, ,-15, ,
1, ,-14, ,
0, ,-15, ,
-3, ,-15, ,
-3, ,-14, ,
-5, ,-14, ,
-5, ,-14, ,
-5, ,-15, ,
-6, ,-15, ,
-6, ,-15, ,
-8, ,-15, ,
-9, ,-14, ,
-8, ,-14, ,
-8, ,-15, ,
-8, ,-15, ,
-9, ,-14, ,
-9, ,-14, ,
-9, ,-14, ,
-10, ,-15, ,
-10, ,-15, ,
-9, ,-14, ,
-9, ,-14, ,
-9, ,-14, ,
-9, ,-14, ,
-10, ,-15, ,
-8, ,-15, ,
-10, ,-15, ,
-9, ,-14, ,
-8, ,-15, ,
-10, ,-15, ,
-9, ,-15, ,
-7, ,-14, ,
-7, ,-15, ,
-6, ,-15, ,
-6, ,-15, ,
-6, ,-15, ,
-3, ,-14, ,
-3, ,-15, ,
-2, ,-15, ,
0, ,-14, ,
0, ,-15, ,
1, ,-15, ,
1, ,-15, ,
3, ,-15, ,
4, ,-15, ,
4, ,-15, ,
5, ,-14, ,
5, ,-15, ,
4, ,-15, ,
6, ,-15, ,
6, ,-15, ,
5, ,-15, ,
5, ,-15, ,
4, ,-15, ,
5, ,-15, ,
4, ,-14, ,
3, ,-14, ,
4, ,-14, ,
2, ,-15, ,
1, ,-15, ,
1, ,-14, ,
0, ,-14, ,
1, ,-14, ,
1, ,-14, ,
-2, ,-14, ,
-2, ,-14, ,
-2, ,-14, ,
-4, ,-15, ,
-5, ,-15, ,
-5, ,-15, ,
-6, ,-14, ,
-8, ,-14, ,
-9, ,-15, ,
-10, ,-15, ,
-11, ,-15, ,
-12, ,-14, ,
-13, ,-14, ,
-15, ,-14, ,
-14, ,-14, ,
-17, ,-14, ,
-18, ,-14, ,
-18, ,-14, ,
-20, ,-15, ,
-20, ,-15, ,
-19, ,-15, ,
-20, ,-15, ,
-19, ,-14, ,
-19, ,-14, ,
-19, ,-15, ,
-18, ,-15, ,
-19, ,-15, ,
-17, ,-15, ,
-16, ,-15, ,
-17, ,-15, ,
-16, ,-14, ,
-15, ,-14, ,
-16, ,-14, ,
-14, ,-14, ,
-14, ,-15, ,
-14, ,-15, ,
-13, ,-14, ,
-14, ,-14, ,
-12, ,-14, ,
-11, ,-14, ,
-11, ,-14, ,
-11, ,-14, ,
-12, ,-14, ,
-9, ,-14, ,
-7, ,-14, ,
-7, ,-14, ,
-6, ,-14, ,
-4, ,-15, ,
-4, ,-15, ,
-3, ,-15, ,
-3, ,-15, ,
-3, ,-15, ,
-2, ,-15, ,
-2, ,-15, ,
-2, ,-15, ,
-1, ,-14, ,
-1, ,-15, ,
-1, ,-15, ,
-2, ,-15, ,
-3, ,-14, ,
-1, ,-14, ,
-5, ,-14, ,
-3, ,-14, ,
-4, ,-15, ,
-5, ,-15, ,
-5, ,-14, ,
-5, ,-15, ,
-6, ,-15, ,
-6, ,-14, ,
-6, ,-15, ,
-6, ,-15, ,
-5, ,-14, ,
-5, ,-14, ,
-5, ,-14, ,
-5, ,-14, ,
-5, ,-15, ,
-2, ,-15, ,
-4, ,-15, ,
0, ,-14, ,
1, ,-15, ,
0, ,-15, ,
2, ,-15, ,
1, ,-15, ,
3, ,-15, ,
4, ,-14, ,
4, ,-14, ,
5, ,-14, ,
5, ,-14, ,
5, ,-14, ,
5, ,-14, ,
4, ,-14, ,
4, ,-14, ,
5, ,-14, ,
4, ,-14, ,
5, ,-14, ,
2, ,-15, ,
2, ,-15, ,
1, ,-14, ,
1, ,-15, ,
0, ,-15, ,
0, ,-15, ,
-1, ,-15, ,
-1, ,-14, ,
-1, ,-15, ,
-4, ,-15, ,
-1, ,-14, ,
-3, ,-14, ,
-3, ,-15, ,
-3, ,-15, ,
-3, ,-15, ,
-2, ,-14, ,
-2, ,-15, ,
-2, ,-15, ,
-1, ,-14, ,
-2, ,-14, ,
-1, ,-15, ,
-2, ,-15, ,
-1, ,-15, ,
0, ,-15, ,
1, ,-15, ,
1, ,-15, ,
2, ,-15, ,
1, ,-15, ,
1, ,-15, ,
3, ,-15, ,
3, ,-15, ,
4, ,-15, ,
4, ,-15, ,
3, ,-15, ,
5, ,-14, ,
4, ,-15, ,
5, ,-15, ,
6, ,-14, ,
5, ,-14, ,
7, ,-14, ,
6, ,-14, ,
5, ,-14, ,
5, ,-14, ,
5, ,-14, ,
4, ,-15, ,
3, ,-15, ,
3, ,-15, ,
3, ,-14, ,
2, ,-14, ,
0, ,-15, ,
0, ,-15, ,
-1, ,-15, ,
-3, ,-15, ,
-2, ,-14, ,
-2, ,-14, ,
-3, ,-15, ,
-4, ,-15, ,
-5, ,-15, ,
-4, ,-15, ,
-6, ,-15, ,
-7, ,-14, ,
-7, ,-14, ,
-8, ,-14, ,
-8, ,-14, ,
-8, ,-14, ,
-10, ,-14, ,
-8, ,-14, ,
-9, ,-14, ,
-10, ,-14, ,
-9, ,-14, ,
-10, ,-14, ,
-10, ,-14, ,
-9, ,-15, ,
-10, ,-15, ,
-10, ,-15, ,
-10, ,-15, ,
-9, ,-15, ,
-8, ,-15, ,
-9, ,-15, ,
-7, ,-14, ,
-6, ,-14, ,
-7, ,-14, ,
-5, ,-14, ,
-5, ,-14, ,
-4, ,-14, ,
-2, ,-14, ,
-2, ,-15, ,
-2, ,-15, ,
-2, ,-14, ,
0, ,-14, ,
0, ,-15, ,
-1, ,-15, ,
2, ,-15, ,
3, ,-15, ,
2, ,-15, ,
3, ,-14, ,
3, ,-15, ,
3, ,-15, ,
4, ,-15, ,
4, ,-15, ,
4, ,-15, ,
6, ,-15, ,
5, ,-15, ,
6, ,-15, ,
5, ,-14, ,
5, ,-14, ,
5, ,-14, ,
5, ,-15, ,
5, ,-15, ,
5, ,-14, ,
5, ,-14, ,
5, ,-14, ,
5, ,-15, ,
5, ,-15, ,
5, ,-14, ,
4, ,-15, ,
3, ,-15, ,
3, ,-14, ,
2, ,-14, ,
2, ,-14, ,
0, ,-14, ,
-1, ,-15, ,
-1, ,-15, ,
-1, ,-15, ,
-2, ,-14, ,
-1, ,-14, ,
-3, ,-15, ,
-3, ,-15, ,
-4, ,-14, ,
-4, ,-14, ,
-4, ,-14, ,
-5, ,-14, ,
-6, ,-14, ,
-5, ,-14, ,
-6, ,-15, ,
-5, ,-15, ,
-5, ,-14, ,
-5, ,-15, ,
-5, ,-15, ,
-6, ,-15, ,
-5, ,-15, ,
-4, ,-15, ,
-4, ,-15, ,
-3, ,-14, ,
-3, ,-14, ,
-5, ,-15, ,
-3, ,-15, ,
-3, ,-15, ,
-4, ,-14, ,
-2, ,-14, ,
-2, ,-15, ,
-2, ,-15, ,
-2, ,-14, ,
-2, ,-14, ,
-1, ,-14, ,
-1, ,-15, ,
1, ,-15, ,
1, ,-15, ,
0, ,-15, ,
1, ,-15, ,
3, ,-14, ,
3, ,-14, ,
4, ,-14, ,
3, ,-14, ,
3, ,-15, ,
3, ,-15, ,
3, ,-15, ,
4, ,-15, ,
5, ,-15, ,
5, ,-15, ,
5, ,-14, ,
5, ,-15, ,
5, ,-15, ,
6, ,-15, ,
4, ,-15, ,
5, ,-14, ,
5, ,-15, ,
5, ,-15, ,
5, ,-15, ,
5, ,-15, ,
4, ,-14, ,
4, ,-14, ,
3, ,-15, ,
3, ,-15, ,
3, ,-15, ,
3, ,-15, ,
3, ,-14, ,
1, ,-15, ,
2, ,-15, ,
2, ,-14, ,
1, ,-14, ,
2, ,-14, ,
2, ,-14, ,
-2, ,-14, ,
-1, ,-14, ,
-2, ,-14, ,
-2, ,-15, ,
-2, ,-15, ,
-3, ,-15, ,
-3, ,-15, ,
-3, ,-15, ,
-4, ,-15, ,
-3, ,-14, ,
-5, ,-14, ,
-4, ,-14, ,
-4, ,-14, ,
-4, ,-14, ,
-4, ,-14, ,
-3, ,-15, ,
-4, ,-15, ,
-3, ,-14, ,
-4, ,-15, ,
-4, ,-15, ,
-2, ,-14, ,
-2, ,-15, ,
-1, ,-15, ,
0, ,-14, ,
0, ,-14, ,
0, ,-14, ,
-1, ,-14, ,
0, ,-15, ,
0, ,-15, ,
0, ,-15, ,
1, ,-14, ,
2, ,-15, ,
1, ,-15, ,
2, ,-15, ,
2, ,-15, ,
2, ,-15, ,
2, ,-14, ,
2, ,-15, ,
3, ,-15, ,
3, ,-15, ,
2, ,-15, ,
3, ,-15, ,
2, ,-15, ,
3, ,-14, ,
3, ,-15, ,
3, ,-15, ,
4, ,-15, ,
4, ,-15, ,
4, ,-15, ,
4, ,-15, ,
4, ,-15, ,
3, ,-15, ,
3, ,-14, ,
3, ,-15, ,
3, ,-15, ,
3, ,-15, ,
2, ,-15, ,
3, ,-15, ,
1, ,-15, ,
2, ,-15, ,
1, ,-15, ,
1, ,-15, ,
1, ,-14, ,
1, ,-15, ,
0, ,-15, ,
1, ,-15, ,
0, ,-15, ,
0, ,-14, ,
1, ,-14, ,
1, ,-14, ,
1, ,-14, ,
0, ,-15, ,
0, ,-15, ,
0, ,-15, ,
-1, ,-15, ,
0, ,-15, ,
0, ,-15, ,
-1, ,-15, ,
-1, ,-14, ,
-1, ,-15, ,
-1, ,-15, ,
-1, ,-15, ,
0, ,-14, ,
-1, ,-14, ,
-1, ,-14, ,
-2, ,-15, ,
-1, ,-15, ,
-1, ,-15, ,
-2, ,-15, ,
0, ,-14, ,
-1, ,-14, ,
1, ,-15, ,
1, ,-15, ,
1, ,-14, ,
2, ,-14, ,
2, ,-15, ,
1, ,-15, ,
3, ,-15, ,
3, ,-15, ,
2, ,-15, ,
5, ,-14, ,
5, ,-14, ,
5, ,-14, ,
5, ,-14, ,
5, ,-15, ,
7, ,-15, ,
5, ,-15, ,
6, ,-15, ,
6, ,-15, ,
6, ,-15, ,
6, ,-14, ,
7, ,-15, ,
