raw_data/100% Glycerol, Impulsion 2Hz, Sonde 5MHz, Rampe 0.7Hz/temp0000127.CSV

Format,1.0B,
Memory Length,10000,Memory Length,10000,
IntpDistance,0,IntpDistance,0,
Trigger Address,159,Trigger Address,159,
Trigger Level,2.720E-01,Trigger Level,2.720E-01,
Source,CH1,Source,CH2,
Vertical Units,V,Vertical Units,V,
Vertical Units Div,0,Vertical Units Div,0,
Vertical Units Extend Div,16,Vertical Units Extend Div,16,
Label,,Label,,
Probe Type,0,Probe Type,0,
Probe Ratio,1.000e+00,Probe Ratio,1.000e+00,
Vertical Scale,2.000e-01,Vertical Scale,2.000e+00,
Vertical Position,0.000e+00,Vertical Position,0.000e+00,
Horizontal Units,S,Horizontal Units,S,
Horizontal Scale,5.000E-06,Horizontal Scale,5.000E-06,
Horizontal Position,2.420E-05,Horizontal Position,2.420E-05,
Horizontal Mode,Main,Horizontal Mode,Main,
SincET Mode,Real Time,SincET Mode,Real Time,
Sampling Period,5.000e-09,Sampling Period,5.000e-09,
Horizontal Old Scale,5.000E-06,Horizontal Old Scale,5.000E-06,
Horizontal Old Position,2.420E-05,Horizontal Old Position,2.420E-05,
Firmware,V1.32,Firmware,V1.32,
Mode,Fast,Mode,Fast,
Waveform Data,,Waveform Data,,
1, ,-39, ,
0, ,-39, ,
1, ,-39, ,
0, ,-39, ,
1, ,-39, ,
2, ,-39, ,
1, ,-39, ,
2, ,-39, ,
2, ,-39, ,
1, ,-39, ,
2, ,-39, ,
1, ,-39, ,
1, ,-39, ,
1, ,-39, ,
1, ,-39, ,
2, ,-39, ,
2, ,-39, ,
2, ,-39, ,
2, ,-39, ,
2, ,-39, ,
1, ,-39, ,
2, ,-39, ,
1, ,-39, ,
2, ,-39, ,
1, ,-39, ,
1, ,-39, ,
2, ,-39, ,
1, ,-39, ,
0, ,-39, ,
2, ,-39, ,
1, ,-39, ,
2, ,-39, ,
2, ,-39, ,
1, ,-39, ,
2, ,-39, ,
1, ,-39, ,
1, ,-39, ,
2, ,-39, ,
1, ,-39, ,
2, ,-39, ,
2, ,-39, ,
1, ,-39, ,
2, ,-39, ,
2, ,-39, ,
1, ,-39, ,
1, ,-39, ,
2, ,-39, ,
2, ,-39, ,
2, ,-39, ,
2, ,-39, ,
2, ,-39, ,
1, ,-39, ,
2, ,-39, ,
2, ,-39, ,
1, ,-39, ,
2, ,-39, ,
2, ,-39, ,
1, ,-39, ,
3, ,-39, ,
1, ,-39, ,
2, ,-39, ,
2, ,-39, ,
1, ,-39, ,
2, ,-39, ,
2, ,-39, ,
2, ,-39, ,
2, ,-39, ,
1, ,-39, ,
2, ,-39, ,
1, ,-39, ,
1, ,-39, ,
2, ,-39, ,
3, ,-39, ,
2, ,-39, ,
2, ,-39, ,
1, ,-39, ,
1, ,-39, ,
1, ,-39, ,
1, ,-39, ,
1, ,-39, ,
2, ,-39, ,
2, ,-39, ,
1, ,-39, ,
1, ,-39, ,
1, ,-39, ,
2, ,-39, ,
2, ,-39, ,
2, ,-39, ,
1, ,-39, ,
1, ,-39, ,
2, ,-39, ,
1, ,-39, ,
1, ,-39, ,
2, ,-39, ,
1, ,-39, ,
2, ,-39, ,
3, ,-39, ,
2, ,-39, ,
2, ,-39, ,
1, ,-39, ,
1, ,-39, ,
1, ,-39, ,
1, ,-39, ,
1, ,-39, ,
2, ,-39, ,
1, ,-39, ,
2, ,-39, ,
1, ,-39, ,
1, ,-39, ,
2, ,-39, ,
1, ,-39, ,
1, ,-39, ,
1, ,-39, ,
1, ,-39, ,
2, ,-39, ,
0, ,-39, ,
2, ,-39, ,
2, ,-39, ,
2, ,-39, ,
2, ,-39, ,
2, ,-39, ,
2, ,-39, ,
2, ,-39, ,
2, ,-39, ,
1, ,-39, ,
2, ,-39, ,
1, ,-39, ,
1, ,-39, ,
2, ,-39, ,
2, ,-39, ,
2, ,-39, ,
1, ,-39, ,
2, ,-39, ,
2, ,-39, ,
1, ,-39, ,
2, ,-39, ,
2, ,-39, ,
1, ,-39, ,
2, ,-39, ,
1, ,-39, ,
1, ,-39, ,
1, ,-39, ,
1, ,-39, ,
1, ,-39, ,
2, ,-39, ,
1, ,-39, ,
2, ,-39, ,
1, ,-39, ,
1, ,-39, ,
2, ,-39, ,
1, ,-39, ,
2, ,-39, ,
2, ,-39, ,
0, ,-39, ,
2, ,-39, ,
2, ,-39, ,
1, ,-39, ,
3, ,-39, ,
2, ,-39, ,
3, ,-39, ,
3, ,-39, ,
2, ,-40, ,
4, ,-40, ,
1, ,-40, ,
0, ,-39, ,
1, ,-39, ,
-2, ,-39, ,
1, ,-39, ,
81, ,-39, ,
125, ,-39, ,
125, ,-39, ,
125, ,-39, ,
121, ,-39, ,
116, ,-39, ,
18, ,-39, ,
-15, ,-39, ,
125, ,-39, ,
125, ,-39, ,
125, ,-39, ,
125, ,-39, ,
125, ,-39, ,
125, ,-39, ,
125, ,-39, ,
125, ,-39, ,
125, ,-39, ,
125, ,-39, ,
125, ,-39, ,
125, ,-39, ,
125, ,-39, ,
125, ,-39, ,
125, ,-39, ,
125, ,-39, ,
125, ,-39, ,
125, ,-39, ,
125, ,-39, ,
125, ,-39, ,
125, ,-39, ,
125, ,-39, ,
125, ,-39, ,
125, ,-39, ,
125, ,-39, ,
125, ,-39, ,
124, ,-39, ,
124, ,-39, ,
116, ,-39, ,
111, ,-39, ,
105, ,-39, ,
103, ,-39, ,
94, ,-39, ,
91, ,-39, ,
87, ,-39, ,
81, ,-39, ,
74, ,-39, ,
71, ,-39, ,
68, ,-39, ,
65, ,-39, ,
61, ,-39, ,
56, ,-39, ,
54, ,-39, ,
51, ,-39, ,
46, ,-39, ,
44, ,-39, ,
41, ,-39, ,
41, ,-39, ,
37, ,-39, ,
35, ,-40, ,
34, ,-40, ,
32, ,-40, ,
29, ,-39, ,
29, ,-39, ,
24, ,-39, ,
25, ,-39, ,
22, ,-39, ,
19, ,-39, ,
19, ,-39, ,
17, ,-39, ,
15, ,-39, ,
15, ,-39, ,
15, ,-39, ,
14, ,-39, ,
11, ,-39, ,
10, ,-39, ,
10, ,-39, ,
9, ,-39, ,
6, ,-39, ,
7, ,-39, ,
6, ,-39, ,
6, ,-39, ,
5, ,-39, ,
4, ,-39, ,
5, ,-39, ,
3, ,-39, ,
3, ,-39, ,
3, ,-39, ,
2, ,-39, ,
2, ,-39, ,
0, ,-39, ,
0, ,-39, ,
0, ,-39, ,
0, ,-39, ,
-1, ,-39, ,
0, ,-39, ,
-2, ,-39, ,
0, ,-39, ,
-1, ,-39, ,
-1, ,-39, ,
-1, ,-39, ,
-1, ,-39, ,
-2, ,-39, ,
-2, ,-39, ,
-2, ,-39, ,
-2, ,-39, ,
-3, ,-39, ,
-4, ,-39, ,
-2, ,-39, ,
-3, ,-39, ,
-3, ,-39, ,
-3, ,-39, ,
-3, ,-39, ,
-3, ,-39, ,
-3, ,-39, ,
-3, ,-39, ,
-2, ,-39, ,
-4, ,-39, ,
-4, ,-39, ,
-3, ,-39, ,
-4, ,-39, ,
-3, ,-39, ,
-3, ,-39, ,
-4, ,-39, ,
-3, ,-39, ,
-4, ,-39, ,
-3, ,-39, ,
-3, ,-39, ,
-4, ,-39, ,
-2, ,-39, ,
-2, ,-39, ,
-4, ,-39, ,
-2, ,-39, ,
-3, ,-39, ,
-3, ,-39, ,
-2, ,-39, ,
-2, ,-39, ,
-1, ,-39, ,
-3, ,-39, ,
-3, ,-39, ,
-2, ,-39, ,
-4, ,-39, ,
-2, ,-39, ,
-2, ,-39, ,
-2, ,-39, ,
-2, ,-39, ,
-1, ,-39, ,
-2, ,-39, ,
-2, ,-39, ,
-2, ,-39, ,
-2, ,-39, ,
-1, ,-39, ,
-2, ,-39, ,
-2, ,-39, ,
-1, ,-39, ,
-1, ,-39, ,
0, ,-39, ,
-2, ,-39, ,
-1, ,-39, ,
-1, ,-39, ,
-2, ,-39, ,
-1, ,-39, ,
0, ,-39, ,
-1, ,-39, ,
0, ,-39, ,
-1, ,-39, ,
-2, ,-39, ,
0, ,-39, ,
-1, ,-39, ,
0, ,-39, ,
1, ,-39, ,
-2, ,-39, ,
0, ,-39, ,
0, ,-39, ,
0, ,-39, ,
0, ,-39, ,
0, ,-39, ,
0, ,-39, ,
0, ,-39, ,
0, ,-39, ,
0, ,-39, ,
0, ,-39, ,
0, ,-39, ,
1, ,-39, ,
0, ,-39, ,
0, ,-39, ,
0, ,-39, ,
0, ,-39, ,
0, ,-39, ,
0, ,-39, ,
0, ,-39, ,
0, ,-39, ,
0, ,-39, ,
0, ,-39, ,
1, ,-39, ,
1, ,-39, ,
1, ,-39, ,
0, ,-39, ,
0, ,-39, ,
0, ,-39, ,
0, ,-39, ,
0, ,-39, ,
0, ,-39, ,
0, ,-39, ,
1, ,-39, ,
1, ,-39, ,
1, ,-39, ,
0, ,-39, ,
0, ,-39, ,
1, ,-39, ,
1, ,-39, ,
1, ,-39, ,
1, ,-39, ,
1, ,-39, ,
0, ,-39, ,
1, ,-39, ,
1, ,-39, ,
1, ,-39, ,
2, ,-39, ,
0, ,-39, ,
1, ,-39, ,
0, ,-39, ,
0, ,-39, ,
1, ,-39, ,
0, ,-39, ,
1, ,-39, ,
1, ,-39, ,
2, ,-39, ,
2, ,-39, ,
1, ,-39, ,
0, ,-39, ,
1, ,-39, ,
1, ,-39, ,
1, ,-39, ,
1, ,-39, ,
1, ,-39, ,
2, ,-39, ,
1, ,-39, ,
0, ,-39, ,
1, ,-39, ,
0, ,-39, ,
1, ,-39, ,
1, ,-39, ,
0, ,-39, ,
1, ,-39, ,
1, ,-39, ,
1, ,-39, ,
2, ,-39, ,
1, ,-39, ,
1, ,-39, ,
1, ,-39, ,
1, ,-39, ,
1, ,-39, ,
1, ,-39, ,
2, ,-39, ,
1, ,-39, ,
0, ,-39, ,
0, ,-39, ,
1, ,-39, ,
1, ,-39, ,
1, ,-39, ,
0, ,-39, ,
1, ,-39, ,
1, ,-39, ,
1, ,-39, ,
1, ,-39, ,
2, ,-39, ,
1, ,-39, ,
1, ,-39, ,
1, ,-39, ,
1, ,-39, ,
0, ,-39, ,
0, ,-39, ,
0, ,-39, ,
0, ,-39, ,
-1, ,-39, ,
-1, ,-39, ,
-2, ,-39, ,
-2, ,-39, ,
-2, ,-39, ,
-1, ,-39, ,
0, ,-39, ,
1, ,-39, ,
0, ,-39, ,
2, ,-39, ,
-1, ,-39, ,
1, ,-39, ,
1, ,-39, ,
1, ,-39, ,
2, ,-39, ,
2, ,-39, ,
0, ,-39, ,
1, ,-39, ,
1, ,-39, ,
1, ,-39, ,
2, ,-39, ,
2, ,-39, ,
2, ,-39, ,
2, ,-39, ,
1, ,-39, ,
2, ,-39, ,
0, ,-39, ,
2, ,-39, ,
3, ,-39, ,
1, ,-39, ,
2, ,-39, ,
2, ,-39, ,
2, ,-39, ,
2, ,-39, ,
1, ,-39, ,
1, ,-39, ,
1, ,-39, ,
1, ,-39, ,
2, ,-39, ,
0, ,-39, ,
0, ,-39, ,
-1, ,-39, ,
-1, ,-39, ,
-1, ,-39, ,
-1, ,-39, ,
-1, ,-39, ,
0, ,-39, ,
1, ,-39, ,
0, ,-39, ,
1, ,-39, ,
1, ,-39, ,
2, ,-39, ,
2, ,-39, ,
1, ,-39, ,
2, ,-39, ,
1, ,-39, ,
1, ,-39, ,
1, ,-39, ,
1, ,-39, ,
0, ,-39, ,
0, ,-39, ,
0, ,-39, ,
0, ,-39, ,
0, ,-39, ,
0, ,-39, ,
1, ,-39, ,
1, ,-39, ,
1, ,-39, ,
2, ,-39, ,
1, ,-39, ,
1, ,-39, ,
1, ,-39, ,
0, ,-39, ,
1, ,-39, ,
0, ,-39, ,
-1, ,-39, ,
-1, ,-39, ,
-4, ,-39, ,
-2, ,-39, ,
-5, ,-39, ,
-5, ,-39, ,
-6, ,-39, ,
-7, ,-39, ,
-6, ,-39, ,
-6, ,-39, ,
-7, ,-39, ,
-6, ,-39, ,
-7, ,-39, ,
-8, ,-39, ,
-7, ,-39, ,
-9, ,-39, ,
-11, ,-39, ,
-11, ,-39, ,
-12, ,-39, ,
-14, ,-39, ,
-17, ,-39, ,
-21, ,-39, ,
-21, ,-39, ,
-23, ,-39, ,
-28, ,-39, ,
-30, ,-39, ,
-31, ,-39, ,
-30, ,-39, ,
-32, ,-39, ,
-32, ,-39, ,
-31, ,-39, ,
-32, ,-39, ,
-29, ,-39, ,
-29, ,-39, ,
-27, ,-39, ,
-26, ,-39, ,
-25, ,-39, ,
-26, ,-39, ,
-26, ,-39, ,
-27, ,-39, ,
-28, ,-39, ,
-28, ,-39, ,
-30, ,-39, ,
-30, ,-39, ,
-30, ,-39, ,
-29, ,-39, ,
-27, ,-39, ,
-27, ,-39, ,
-22, ,-39, ,
-20, ,-39, ,
-20, ,-39, ,
-17, ,-39, ,
-13, ,-39, ,
-12, ,-39, ,
-10, ,-39, ,
-10, ,-39, ,
-8, ,-39, ,
-9, ,-39, ,
-9, ,-39, ,
-10, ,-39, ,
-10, ,-39, ,
-10, ,-39, ,
-10, ,-39, ,
-11, ,-39, ,
-11, ,-39, ,
-8, ,-39, ,
-7, ,-39, ,
-7, ,-39, ,
-3, ,-39, ,
-4, ,-39, ,
0, ,-39, ,
0, ,-39, ,
2, ,-39, ,
2, ,-39, ,
1, ,-39, ,
2, ,-39, ,
0, ,-39, ,
0, ,-39, ,
-3, ,-39, ,
-4, ,-39, ,
-7, ,-39, ,
-8, ,-39, ,
-10, ,-39, ,
-10, ,-39, ,
-10, ,-39, ,
-12, ,-39, ,
-11, ,-39, ,
-11, ,-39, ,
-12, ,-39, ,
-9, ,-39, ,
-9, ,-39, ,
-9, ,-39, ,
-10, ,-39, ,
-12, ,-39, ,
-10, ,-39, ,
-12, ,-39, ,
-14, ,-39, ,
-17, ,-39, ,
-21, ,-39, ,
-20, ,-39, ,
-24, ,-39, ,
-25, ,-39, ,
-25, ,-39, ,
-25, ,-39, ,
-25, ,-39, ,
-25, ,-39, ,
-24, ,-39, ,
-24, ,-39, ,
-24, ,-39, ,
-26, ,-39, ,
-26, ,-39, ,
-28, ,-39, ,
-29, ,-39, ,
-29, ,-39, ,
-31, ,-39, ,
-31, ,-39, ,
-31, ,-39, ,
-33, ,-39, ,
-33, ,-39, ,
-34, ,-39, ,
-35, ,-39, ,
-34, ,-39, ,
-35, ,-39, ,
-33, ,-39, ,
-34, ,-39, ,
-33, ,-39, ,
-34, ,-39, ,
-35, ,-39, ,
-31, ,-39, ,
-32, ,-39, ,
-30, ,-39, ,
-29, ,-39, ,
-28, ,-39, ,
-29, ,-39, ,
-28, ,-39, ,
-29, ,-39, ,
-31, ,-39, ,
-31, ,-39, ,
-33, ,-39, ,
-34, ,-39, ,
-35, ,-39, ,
-37, ,-39, ,
-37, ,-39, ,
-37, ,-39, ,
-36, ,-39, ,
-36, ,-39, ,
-37, ,-39, ,
-35, ,-39, ,
-34, ,-39, ,
-33, ,-39, ,
-33, ,-39, ,
-33, ,-39, ,
-32, ,-39, ,
-32, ,-39, ,
-33, ,-39, ,
-33, ,-39, ,
-35, ,-39, ,
-35, ,-39, ,
-35, ,-39, ,
-34, ,-39, ,
-34, ,-39, ,
-32, ,-39, ,
-30, ,-39, ,
-30, ,-39, ,
-27, ,-39, ,
-27, ,-39, ,
-24, ,-39, ,
-24, ,-39, ,
-24, ,-39, ,
-24, ,-39, ,
-24, ,-39, ,
-23, ,-39, ,
-25, ,-39, ,
-25, ,-39, ,
-26, ,-39, ,
-26, ,-39, ,
-25, ,-39, ,
-24, ,-39, ,
-23, ,-39, ,
-23, ,-39, ,
-22, ,-39, ,
-22, ,-39, ,
-21, ,-39, ,
-22, ,-39, ,
-22, ,-39, ,
-20, ,-39, ,
-20, ,-39, ,
-20, ,-39, ,
-16, ,-39, ,
-14, ,-39, ,
-12, ,-39, ,
-10, ,-39, ,
-7, ,-39, ,
-5, ,-39, ,
-5, ,-39, ,
0, ,-39, ,
1, ,-39, ,
1, ,-39, ,
4, ,-39, ,
4, ,-39, ,
8, ,-39, ,
10, ,-39, ,
11, ,-40, ,
14, ,-40, ,
16, ,-39, ,
18, ,-39, ,
19, ,-39, ,
19, ,-39, ,
21, ,-39, ,
22, ,-39, ,
19, ,-39, ,
19, ,-39, ,
18, ,-39, ,
16, ,-39, ,
15, ,-39, ,
14, ,-39, ,
12, ,-39, ,
11, ,-39, ,
9, ,-39, ,
9, ,-39, ,
6, ,-39, ,
5, ,-39, ,
6, ,-39, ,
3, ,-39, ,
2, ,-39, ,
2, ,-39, ,
1, ,-39, ,
0, ,-39, ,
-1, ,-39, ,
-1, ,-39, ,
-1, ,-39, ,
-3, ,-39, ,
-5, ,-39, ,
-5, ,-39, ,
-6, ,-39, ,
-6, ,-39, ,
-8, ,-39, ,
-9, ,-39, ,
-8, ,-39, ,
-11, ,-39, ,
-13, ,-39, ,
-13, ,-39, ,
-15, ,-39, ,
-15, ,-39, ,
-17, ,-39, ,
-18, ,-39, ,
-19, ,-39, ,
-20, ,-39, ,
-20, ,-39, ,
-20, ,-39, ,
-21, ,-39, ,
-21, ,-39, ,
-23, ,-39, ,
-23, ,-39, ,
-25, ,-39, ,
-25, ,-39, ,
-27, ,-39, ,
-27, ,-39, ,
-27, ,-39, ,
-27, ,-39, ,
-28, ,-39, ,
-29, ,-39, ,
-29, ,-39, ,
-29, ,-39, ,
-27, ,-39, ,
-29, ,-39, ,
-28, ,-39, ,
-27, ,-39, ,
-27, ,-39, ,
-26, ,-39, ,
-27, ,-39, ,
-27, ,-39, ,
-27, ,-39, ,
-27, ,-39, ,
-27, ,-39, ,
-27, ,-39, ,
-27, ,-39, ,
-27, ,-39, ,
-27, ,-39, ,
-27, ,-39, ,
-26, ,-39, ,
-25, ,-39, ,
-24, ,-39, ,
-23, ,-39, ,
-22, ,-39, ,
-22, ,-39, ,
-20, ,-39, ,
-21, ,-39, ,
-19, ,-39, ,
-17, ,-39, ,
-17, ,-39, ,
-15, ,-39, ,
-15, ,-39, ,
-13, ,-39, ,
-11, ,-39, ,
-12, ,-39, ,
-9, ,-39, ,
-5, ,-39, ,
-4, ,-39, ,
-2, ,-39, ,
1, ,-39, ,
1, ,-39, ,
4, ,-39, ,
3, ,-39, ,
7, ,-39, ,
8, ,-39, ,
6, ,-39, ,
10, ,-39, ,
11, ,-39, ,
10, ,-39, ,
13, ,-39, ,
13, ,-39, ,
14, ,-39, ,
14, ,-39, ,
14, ,-39, ,
14, ,-39, ,
13, ,-39, ,
12, ,-39, ,
12, ,-39, ,
10, ,-39, ,
9, ,-39, ,
7, ,-39, ,
7, ,-39, ,
7, ,-39, ,
6, ,-39, ,
5, ,-39, ,
4, ,-39, ,
4, ,-39, ,
3, ,-39, ,
4, ,-39, ,
2, ,-39, ,
0, ,-39, ,
-1, ,-39, ,
-3, ,-39, ,
-2, ,-39, ,
-4, ,-39, ,
-5, ,-39, ,
-6, ,-39, ,
-8, ,-39, ,
-8, ,-39, ,
-9, ,-39, ,
-10, ,-39, ,
-10, ,-39, ,
-11, ,-39, ,
-13, ,-39, ,
-13, ,-39, ,
-14, ,-39, ,
-13, ,-39, ,
-16, ,-39, ,
-17, ,-39, ,
-17, ,-39, ,
-18, ,-39, ,
-20, ,-39, ,
-20, ,-39, ,
-22, ,-39, ,
-22, ,-39, ,
-22, ,-39, ,
-24, ,-39, ,
-23, ,-39, ,
-24, ,-39, ,
-26, ,-39, ,
-25, ,-39, ,
-27, ,-39, ,
-25, ,-39, ,
-25, ,-39, ,
-25, ,-39, ,
-25, ,-39, ,
-26, ,-39, ,
-26, ,-39, ,
-26, ,-39, ,
-25, ,-39, ,
-25, ,-39, ,
-25, ,-39, ,
-25, ,-39, ,
-24, ,-39, ,
-25, ,-39, ,
-24, ,-39, ,
-23, ,-39, ,
-24, ,-39, ,
-22, ,-39, ,
-21, ,-39, ,
-21, ,-39, ,
-21, ,-39, ,
-20, ,-39, ,
-19, ,-39, ,
-19, ,-39, ,
-20, ,-39, ,
-19, ,-39, ,
-19, ,-39, ,
-20, ,-39, ,
-19, ,-39, ,
-20, ,-39, ,
-19, ,-39, ,
-18, ,-39, ,
-18, ,-39, ,
-18, ,-39, ,
-17, ,-39, ,
-18, ,-39, ,
-18, ,-39, ,
-18, ,-39, ,
-19, ,-39, ,
-17, ,-39, ,
-18, ,-39, ,
-18, ,-39, ,
-18, ,-39, ,
-20, ,-39, ,
-18, ,-39, ,
-19, ,-39, ,
-19, ,-39, ,
-18, ,-39, ,
-19, ,-39, ,
-17, ,-39, ,
-18, ,-39, ,
-18, ,-40, ,
-18, ,-40, ,
-19, ,-40, ,
-18, ,-39, ,
-18, ,-39, ,
-19, ,-39, ,
-17, ,-39, ,
-17, ,-39, ,
-17, ,-39, ,
-17, ,-39, ,
-16, ,-39, ,
-16, ,-39, ,
-14, ,-39, ,
-13, ,-39, ,
-14, ,-39, ,
-13, ,-39, ,
-12, ,-39, ,
-11, ,-39, ,
-10, ,-39, ,
-10, ,-39, ,
-10, ,-39, ,
-10, ,-39, ,
-9, ,-39, ,
-7, ,-39, ,
-7, ,-39, ,
-6, ,-39, ,
-7, ,-39, ,
-5, ,-39, ,
-4, ,-39, ,
-4, ,-39, ,
-3, ,-39, ,
-1, ,-39, ,
0, ,-39, ,
1, ,-39, ,
0, ,-39, ,
1, ,-39, ,
2, ,-39, ,
1, ,-39, ,
2, ,-39, ,
2, ,-39, ,
1, ,-39, ,
3, ,-39, ,
3, ,-39, ,
3, ,-39, ,
4, ,-39, ,
3, ,-39, ,
4, ,-39, ,
4, ,-39, ,
4, ,-39, ,
4, ,-39, ,
3, ,-39, ,
2, ,-39, ,
2, ,-39, ,
2, ,-39, ,
2, ,-39, ,
2, ,-39, ,
1, ,-39, ,
0, ,-39, ,
0, ,-39, ,
-2, ,-39, ,
-1, ,-39, ,
-1, ,-39, ,
-3, ,-39, ,
-3, ,-39, ,
-4, ,-39, ,
-5, ,-39, ,
-5, ,-39, ,
-6, ,-39, ,
-6, ,-39, ,
-8, ,-39, ,
-6, ,-39, ,
-9, ,-39, ,
-9, ,-39, ,
-7, ,-39, ,
-8, ,-39, ,
-10, ,-39, ,
-9, ,-39, ,
-10, ,-39, ,
-10, ,-39, ,
-10, ,-39, ,
-11, ,-39, ,
-11, ,-39, ,
-12, ,-39, ,
-11, ,-39, ,
-11, ,-39, ,
-11, ,-39, ,
-10, ,-39, ,
-10, ,-39, ,
-10, ,-39, ,
-9, ,-39, ,
-9, ,-39, ,
-9, ,-39, ,
-9, ,-39, ,
-9, ,-39, ,
-8, ,-39, ,
-9, ,-39, ,
-9, ,-39, ,
-8, ,-39, ,
-10, ,-39, ,
-9, ,-39, ,
-9, ,-39, ,
-9, ,-39, ,
-9, ,-39, ,
-8, ,-39, ,
-9, ,-39, ,
-8, ,-39, ,
-8, ,-39, ,
-9, ,-39, ,
-7, ,-39, ,
-7, ,-39, ,
-8, ,-39, ,
-9, ,-39, ,
-9, ,-39, ,
-9, ,-39, ,
-10, ,-39, ,
-9, ,-39, ,
-9, ,-39, ,
-9, ,-39, ,
-9, ,-39, ,
-8, ,-39, ,
-7, ,-39, ,
-7, ,-39, ,
-7, ,-39, ,
-7, ,-39, ,
-6, ,-39, ,
-6, ,-39, ,
-6, ,-39, ,
-6, ,-39, ,
-7, ,-39, ,
-6, ,-39, ,
-6, ,-39, ,
-5, ,-39, ,
-5, ,-39, ,
-5, ,-39, ,
-4, ,-39, ,
-2, ,-39, ,
-3, ,-39, ,
0, ,-39, ,
0, ,-39, ,
0, ,-39, ,
1, ,-39, ,
0, ,-39, ,
0, ,-39, ,
1, ,-39, ,
0, ,-39, ,
0, ,-39, ,
0, ,-39, ,
0, ,-39, ,
0, ,-39, ,
0, ,-39, ,
0, ,-39, ,
-1, ,-39, ,
-2, ,-39, ,
0, ,-39, ,
-1, ,-39, ,
-4, ,-39, ,
-1, ,-39, ,
-1, ,-39, ,
-2, ,-39, ,
-2, ,-39, ,
-2, ,-39, ,
-2, ,-39, ,
-3, ,-39, ,
-2, ,-39, ,
-1, ,-39, ,
-2, ,-39, ,
0, ,-39, ,
1, ,-39, ,
2, ,-39, ,
2, ,-39, ,
2, ,-39, ,
3, ,-39, ,
4, ,-39, ,
5, ,-39, ,
5, ,-39, ,
5, ,-39, ,
4, ,-39, ,
4, ,-39, ,
4, ,-39, ,
4, ,-39, ,
4, ,-39, ,
3, ,-39, ,
3, ,-39, ,
3, ,-39, ,
2, ,-39, ,
2, ,-39, ,
0, ,-39, ,
0, ,-39, ,
0, ,-39, ,
-1, ,-39, ,
-1, ,-39, ,
-2, ,-39, ,
-3, ,-39, ,
-3, ,-39, ,
-4, ,-39, ,
-5, ,-39, ,
-5, ,-39, ,
-5, ,-39, ,
-4, ,-39, ,
-4, ,-39, ,
-5, ,-39, ,
-4, ,-39, ,
-4, ,-39, ,
-4, ,-39, ,
-2, ,-39, ,
-2, ,-39, ,
-2, ,-39, ,
-1, ,-39, ,
0, ,-39, ,
0, ,-39, ,
0, ,-39, ,
1, ,-39, ,
1, ,-39, ,
0, ,-39, ,
3, ,-39, ,
3, ,-39, ,
2, ,-39, ,
3, ,-39, ,
3, ,-39, ,
3, ,-39, ,
3, ,-39, ,
4, ,-39, ,
3, ,-39, ,
3, ,-39, ,
3, ,-39, ,
3, ,-39, ,
3, ,-39, ,
2, ,-39, ,
2, ,-39, ,
2, ,-39, ,
2, ,-39, ,
2, ,-39, ,
2, ,-39, ,
1, ,-39, ,
2, ,-39, ,
2, ,-39, ,
1, ,-39, ,
2, ,-39, ,
2, ,-39, ,
3, ,-39, ,
2, ,-39, ,
3, ,-39, ,
1, ,-39, ,
2, ,-39, ,
2, ,-39, ,
2, ,-39, ,
3, ,-39, ,
2, ,-39, ,
2, ,-39, ,
3, ,-39, ,
3, ,-39, ,
3, ,-39, ,
3, ,-39, ,
2, ,-39, ,
3, ,-39, ,
3, ,-39, ,
3, ,-39, ,
3, ,-39, ,
3, ,-39, ,
3, ,-39, ,
3, ,-39, ,
1, ,-39, ,
3, ,-39, ,
3, ,-39, ,
2, ,-39, ,
3, ,-39, ,
3, ,-39, ,
2, ,-39, ,
3, ,-39, ,
3, ,-39, ,
3, ,-39, ,
4, ,-39, ,
2, ,-39, ,
2, ,-39, ,
2, ,-39, ,
2, ,-39, ,
2, ,-39, ,
1, ,-39, ,
1, ,-39, ,
0, ,-39, ,
0, ,-39, ,
0, ,-39, ,
0, ,-39, ,
0, ,-39, ,
0, ,-39, ,
-1, ,-39, ,
0, ,-39, ,
-1, ,-39, ,
-2, ,-39, ,
-1, ,-39, ,
-3, ,-39, ,
-2, ,-39, ,
-4, ,-39, ,
-4, ,-39, ,
-3, ,-39, ,
-5, ,-39, ,
-5, ,-39, ,
-5, ,-39, ,
-6, ,-39, ,
-7, ,-39, ,
-5, ,-39, ,
-7, ,-39, ,
-6, ,-39, ,
-6, ,-39, ,
-7, ,-39, ,
-6, ,-39, ,
-7, ,-39, ,
-6, ,-39, ,
-6, ,-39, ,
-10, ,-39, ,
-8, ,-39, ,
-9, ,-39, ,
-9, ,-39, ,
-9, ,-39, ,
-9, ,-39, ,
-10, ,-39, ,
-9, ,-39, ,
-10, ,-39, ,
-8, ,-39, ,
-10, ,-39, ,
-10, ,-39, ,
-10, ,-39, ,
-10, ,-39, ,
-10, ,-39, ,
-10, ,-39, ,
-10, ,-39, ,
-9, ,-39, ,
-9, ,-39, ,
-10, ,-39, ,
-8, ,-39, ,
-9, ,-39, ,
-6, ,-39, ,
-6, ,-39, ,
-7, ,-39, ,
-5, ,-39, ,
-4, ,-39, ,
-2, ,-39, ,
-2, ,-39, ,
-2, ,-39, ,
0, ,-39, ,
0, ,-39, ,
0, ,-39, ,
1, ,-39, ,
0, ,-39, ,
0, ,-39, ,
1, ,-39, ,
2, ,-39, ,
2, ,-39, ,
2, ,-39, ,
2, ,-39, ,
2, ,-39, ,
1, ,-39, ,
0, ,-39, ,
0, ,-39, ,
0, ,-39, ,
0, ,-39, ,
-1, ,-39, ,
-4, ,-39, ,
-2, ,-39, ,
-4, ,-39, ,
-5, ,-39, ,
-5, ,-39, ,
-6, ,-39, ,
-6, ,-39, ,
-7, ,-39, ,
-7, ,-39, ,
-8, ,-39, ,
-9, ,-39, ,
-9, ,-39, ,
-9, ,-39, ,
-9, ,-39, ,
-10, ,-39, ,
-9, ,-39, ,
-10, ,-39, ,
-10, ,-39, ,
-10, ,-39, ,
-10, ,-39, ,
-9, ,-39, ,
-9, ,-39, ,
-8, ,-39, ,
-8, ,-39, ,
-9, ,-39, ,
-7, ,-39, ,
-5, ,-39, ,
-6, ,-39, ,
-5, ,-39, ,
-7, ,-39, ,
-4, ,-39, ,
-4, ,-39, ,
-4, ,-39, ,
-3, ,-39, ,
-2, ,-39, ,
-2, ,-39, ,
-1, ,-39, ,
-1, ,-39, ,
-2, ,-39, ,
1, ,-39, ,
1, ,-39, ,
1, ,-39, ,
2, ,-39, ,
1, ,-39, ,
2, ,-39, ,
1, ,-39, ,
3, ,-39, ,
2, ,-39, ,
1, ,-39, ,
2, ,-39, ,
1, ,-39, ,
1, ,-39, ,
1, ,-39, ,
1, ,-39, ,
1, ,-39, ,
1, ,-39, ,
1, ,-39, ,
2, ,-39, ,
1, ,-39, ,
1, ,-39, ,
0, ,-39, ,
0, ,-39, ,
0, ,-39, ,
2, ,-39, ,
0, ,-39, ,
1, ,-39, ,
1, ,-39, ,
1, ,-39, ,
1, ,-39, ,
1, ,-39, ,
1, ,-39, ,
2, ,-39, ,
1, ,-39, ,
2, ,-39, ,
3, ,-39, ,
2, ,-39, ,
3, ,-39, ,
1, ,-39, ,
1, ,-39, ,
1, ,-39, ,
0, ,-39, ,
0, ,-39, ,
0, ,-39, ,
0, ,-39, ,
-1, ,-39, ,
-1, ,-39, ,
-2, ,-39, ,
-2, ,-39, ,
-2, ,-39, ,
-4, ,-39, ,
-4, ,-39, ,
-5, ,-39, ,
-3, ,-39, ,
-5, ,-39, ,
-4, ,-39, ,
-4, ,-39, ,
-5, ,-39, ,
-4, ,-39, ,
-4, ,-39, ,
-4, ,-39, ,
-3, ,-39, ,
-4, ,-39, ,
-2, ,-39, ,
-1, ,-39, ,
-1, ,-39, ,
-1, ,-39, ,
0, ,-39, ,
0, ,-39, ,
0, ,-39, ,
0, ,-39, ,
1, ,-39, ,
2, ,-39, ,
1, ,-39, ,
1, ,-39, ,
2, ,-39, ,
0, ,-39, ,
1, ,-39, ,
2, ,-39, ,
0, ,-39, ,
1, ,-39, ,
1, ,-39, ,
1, ,-39, ,
1, ,-39, ,
1, ,-39, ,
1, ,-39, ,
0, ,-39, ,
0, ,-39, ,
0, ,-39, ,
0, ,-39, ,
0, ,-39, ,
0, ,-39, ,
0, ,-39, ,
0, ,-39, ,
-1, ,-39, ,
-2, ,-39, ,
0, ,-39, ,
0, ,-39, ,
0, ,-39, ,
0, ,-39, ,
-1, ,-39, ,
0, ,-39, ,
-2, ,-39, ,
0, ,-39, ,
0, ,-39, ,
-1, ,-39, ,
0, ,-39, ,
-1, ,-39, ,
-2, ,-39, ,
-1, ,-39, ,
-1, ,-39, ,
-2, ,-39, ,
0, ,-39, ,
-1, ,-39, ,
-1, ,-39, ,
-1, ,-39, ,
-2, ,-39, ,
-2, ,-39, ,
-3, ,-39, ,
-3, ,-39, ,
-2, ,-39, ,
-4, ,-39, ,
-3, ,-39, ,
-4, ,-39, ,
-5, ,-39, ,
-4, ,-39, ,
-4, ,-39, ,
-4, ,-39, ,
-5, ,-39, ,
-5, ,-39, ,
-5, ,-39, ,
-4, ,-39, ,
-4, ,-39, ,
-4, ,-39, ,
-4, ,-39, ,
-4, ,-39, ,
-4, ,-39, ,
-4, ,-39, ,
-4, ,-39, ,
-3, ,-39, ,
-4, ,-39, ,
-3, ,-39, ,
-3, ,-39, ,
-4, ,-39, ,
-4, ,-39, ,
-3, ,-39, ,
-3, ,-39, ,
-3, ,-39, ,
-4, ,-39, ,
-4, ,-39, ,
-5, ,-39, ,
-3, ,-39, ,
-3, ,-39, ,
-4, ,-39, ,
-2, ,-39, ,
-2, ,-39, ,
0, ,-39, ,
0, ,-39, ,
-1, ,-39, ,
-1, ,-39, ,
0, ,-39, ,
1, ,-39, ,
1, ,-39, ,
2, ,-39, ,
2, ,-39, ,
2, ,-39, ,
2, ,-39, ,
3, ,-39, ,
4, ,-39, ,
3, ,-39, ,
5, ,-39, ,
5, ,-39, ,
4, ,-39, ,
4, ,-39, ,
4, ,-39, ,
4, ,-39, ,
5, ,-39, ,
5, ,-39, ,
5, ,-39, ,
5, ,-39, ,
5, ,-39, ,
5, ,-39, ,
5, ,-39, ,
4, ,-39, ,
4, ,-39, ,
4, ,-39, ,
4, ,-39, ,
2, ,-39, ,
2, ,-39, ,
1, ,-39, ,
2, ,-39, ,
1, ,-39, ,
3, ,-39, ,
2, ,-39, ,
2, ,-39, ,
1, ,-39, ,
1, ,-40, ,
1, ,-40, ,
0, ,-40, ,
0, ,-39, ,
0, ,-39, ,
0, ,-39, ,
1, ,-39, ,
0, ,-39, ,
0, ,-39, ,
0, ,-39, ,
0, ,-39, ,
1, ,-39, ,
1, ,-39, ,
0, ,-39, ,
0, ,-39, ,
1, ,-39, ,
0, ,-39, ,
1, ,-39, ,
0, ,-40, ,
1, ,-40, ,
1, ,-39, ,
1, ,-39, ,
1, ,-39, ,
1, ,-39, ,
0, ,-39, ,
1, ,-39, ,
0, ,-39, ,
0, ,-39, ,
1, ,-39, ,
1, ,-39, ,
2, ,-39, ,
2, ,-39, ,
1, ,-39, ,
2, ,-39, ,
1, ,-39, ,
2, ,-39, ,
4, ,-39, ,
3, ,-39, ,
4, ,-39, ,
4, ,-39, ,
3, ,-39, ,
5, ,-39, ,
4, ,-39, ,
4, ,-39, ,
5, ,-39, ,
5, ,-39, ,
5, ,-39, ,
5, ,-39, ,
5, ,-39, ,
5, ,-39, ,
5, ,-39, ,
4, ,-39, ,
4, ,-39, ,
2, ,-39, ,
4, ,-39, ,
3, ,-39, ,
3, ,-39, ,
3, ,-39, ,
2, ,-39, ,
1, ,-39, ,
2, ,-39, ,
2, ,-39, ,
1, ,-39, ,
1, ,-39, ,
1, ,-39, ,
1, ,-39, ,
0, ,-39, ,
0, ,-39, ,
0, ,-39, ,
0, ,-39, ,
0, ,-39, ,
1, ,-40, ,
0, ,-40, ,
0, ,-39, ,
0, ,-39, ,
0, ,-39, ,
0, ,-39, ,
0, ,-39, ,
0, ,-39, ,
0, ,-39, ,
0, ,-39, ,
0, ,-39, ,
-1, ,-39, ,
0, ,-39, ,
0, ,-39, ,
0, ,-39, ,
0, ,-39, ,
1, ,-39, ,
1, ,-39, ,
1, ,-39, ,
0, ,-39, ,
0, ,-39, ,
