raw_data/100% Glycerol, Impulsion 2Hz, Sonde 5MHz, Rampe 0.7Hz/temp0000251.CSV

Format,1.0B,
Memory Length,10000,Memory Length,10000,
IntpDistance,0,IntpDistance,0,
Trigger Address,159,Trigger Address,159,
Trigger Level,2.720E-01,Trigger Level,2.720E-01,
Source,CH1,Source,CH2,
Vertical Units,V,Vertical Units,V,
Vertical Units Div,0,Vertical Units Div,0,
Vertical Units Extend Div,16,Vertical Units Extend Div,16,
Label,,Label,,
Probe Type,0,Probe Type,0,
Probe Ratio,1.000e+00,Probe Ratio,1.000e+00,
Vertical Scale,2.000e-01,Vertical Scale,2.000e+00,
Vertical Position,0.000e+00,Vertical Position,0.000e+00,
Horizontal Units,S,Horizontal Units,S,
Horizontal Scale,5.000E-06,Horizontal Scale,5.000E-06,
Horizontal Position,2.420E-05,Horizontal Position,2.420E-05,
Horizontal Mode,Main,Horizontal Mode,Main,
SincET Mode,Real Time,SincET Mode,Real Time,
Sampling Period,5.000e-09,Sampling Period,5.000e-09,
Horizontal Old Scale,5.000E-06,Horizontal Old Scale,5.000E-06,
Horizontal Old Position,2.420E-05,Horizontal Old Position,2.420E-05,
Firmware,V1.32,Firmware,V1.32,
Mode,Fast,Mode,Fast,
Waveform Data,,Waveform Data,,
2, ,14, ,
2, ,14, ,
2, ,14, ,
2, ,14, ,
2, ,14, ,
1, ,14, ,
3, ,14, ,
2, ,14, ,
3, ,14, ,
3, ,14, ,
3, ,14, ,
2, ,14, ,
2, ,14, ,
2, ,14, ,
1, ,14, ,
3, ,14, ,
3, ,14, ,
3, ,14, ,
2, ,14, ,
2, ,14, ,
2, ,14, ,
2, ,14, ,
3, ,14, ,
3, ,14, ,
2, ,14, ,
2, ,14, ,
2, ,14, ,
2, ,14, ,
2, ,14, ,
2, ,14, ,
1, ,14, ,
3, ,14, ,
2, ,14, ,
2, ,14, ,
2, ,14, ,
1, ,14, ,
3, ,14, ,
3, ,14, ,
3, ,14, ,
3, ,14, ,
3, ,14, ,
3, ,14, ,
3, ,14, ,
3, ,14, ,
3, ,14, ,
3, ,14, ,
3, ,14, ,
3, ,14, ,
3, ,14, ,
3, ,14, ,
3, ,14, ,
2, ,14, ,
3, ,14, ,
1, ,14, ,
2, ,14, ,
4, ,14, ,
2, ,14, ,
2, ,14, ,
4, ,14, ,
2, ,14, ,
3, ,14, ,
3, ,14, ,
2, ,14, ,
3, ,14, ,
2, ,14, ,
2, ,14, ,
3, ,14, ,
3, ,14, ,
3, ,14, ,
3, ,14, ,
3, ,14, ,
3, ,14, ,
3, ,14, ,
3, ,14, ,
3, ,14, ,
2, ,14, ,
2, ,14, ,
2, ,14, ,
2, ,14, ,
3, ,14, ,
3, ,14, ,
2, ,14, ,
2, ,14, ,
1, ,14, ,
2, ,14, ,
2, ,14, ,
2, ,14, ,
2, ,14, ,
1, ,14, ,
3, ,14, ,
3, ,14, ,
1, ,14, ,
3, ,14, ,
1, ,14, ,
1, ,14, ,
3, ,14, ,
3, ,14, ,
4, ,14, ,
2, ,14, ,
2, ,14, ,
2, ,14, ,
1, ,14, ,
2, ,14, ,
2, ,14, ,
2, ,14, ,
3, ,14, ,
2, ,14, ,
3, ,14, ,
2, ,14, ,
3, ,14, ,
2, ,14, ,
2, ,14, ,
2, ,14, ,
2, ,14, ,
3, ,14, ,
2, ,14, ,
3, ,14, ,
2, ,14, ,
3, ,14, ,
3, ,14, ,
2, ,14, ,
2, ,14, ,
3, ,14, ,
2, ,14, ,
2, ,14, ,
1, ,14, ,
2, ,14, ,
2, ,14, ,
1, ,14, ,
2, ,14, ,
3, ,14, ,
3, ,14, ,
3, ,14, ,
3, ,14, ,
2, ,14, ,
4, ,14, ,
3, ,14, ,
3, ,14, ,
3, ,14, ,
2, ,14, ,
3, ,14, ,
3, ,14, ,
3, ,14, ,
3, ,14, ,
3, ,14, ,
3, ,14, ,
2, ,14, ,
1, ,14, ,
3, ,14, ,
2, ,14, ,
2, ,14, ,
2, ,14, ,
2, ,14, ,
2, ,14, ,
2, ,14, ,
1, ,14, ,
2, ,14, ,
3, ,14, ,
2, ,14, ,
3, ,14, ,
2, ,14, ,
3, ,14, ,
2, ,14, ,
0, ,14, ,
2, ,14, ,
-2, ,14, ,
-3, ,14, ,
10, ,14, ,
50, ,14, ,
125, ,14, ,
125, ,14, ,
125, ,14, ,
123, ,14, ,
118, ,14, ,
-19, ,14, ,
26, ,14, ,
125, ,14, ,
125, ,14, ,
125, ,14, ,
125, ,14, ,
125, ,14, ,
125, ,14, ,
125, ,14, ,
125, ,14, ,
125, ,14, ,
125, ,14, ,
125, ,14, ,
125, ,14, ,
125, ,14, ,
125, ,14, ,
125, ,14, ,
125, ,14, ,
125, ,14, ,
125, ,14, ,
125, ,14, ,
125, ,14, ,
125, ,14, ,
125, ,14, ,
125, ,14, ,
125, ,14, ,
125, ,14, ,
125, ,14, ,
124, ,14, ,
123, ,14, ,
120, ,14, ,
113, ,14, ,
104, ,14, ,
101, ,14, ,
98, ,14, ,
93, ,14, ,
84, ,14, ,
80, ,14, ,
78, ,14, ,
73, ,14, ,
67, ,14, ,
64, ,14, ,
61, ,14, ,
59, ,14, ,
54, ,14, ,
49, ,14, ,
49, ,14, ,
46, ,14, ,
42, ,14, ,
39, ,14, ,
38, ,14, ,
36, ,14, ,
34, ,14, ,
31, ,14, ,
31, ,14, ,
28, ,14, ,
25, ,14, ,
25, ,14, ,
22, ,14, ,
23, ,14, ,
20, ,14, ,
17, ,14, ,
17, ,14, ,
16, ,14, ,
14, ,14, ,
13, ,14, ,
12, ,14, ,
12, ,14, ,
10, ,14, ,
8, ,14, ,
8, ,14, ,
8, ,14, ,
7, ,14, ,
6, ,14, ,
5, ,14, ,
5, ,14, ,
5, ,14, ,
3, ,14, ,
4, ,14, ,
3, ,14, ,
2, ,14, ,
3, ,14, ,
1, ,14, ,
2, ,14, ,
1, ,14, ,
0, ,14, ,
0, ,14, ,
0, ,14, ,
-1, ,14, ,
0, ,14, ,
-2, ,14, ,
0, ,14, ,
0, ,14, ,
-1, ,14, ,
-1, ,14, ,
-2, ,14, ,
-2, ,14, ,
-2, ,14, ,
-2, ,14, ,
-1, ,14, ,
-1, ,14, ,
-2, ,14, ,
-1, ,14, ,
-2, ,14, ,
-3, ,14, ,
-2, ,14, ,
-3, ,14, ,
-2, ,14, ,
-2, ,14, ,
-2, ,14, ,
-2, ,14, ,
-2, ,14, ,
-2, ,14, ,
-2, ,14, ,
-2, ,14, ,
-2, ,14, ,
-2, ,14, ,
-2, ,14, ,
-1, ,14, ,
-2, ,14, ,
-2, ,14, ,
-2, ,14, ,
-1, ,14, ,
-1, ,14, ,
-2, ,14, ,
-1, ,14, ,
-1, ,14, ,
-2, ,14, ,
-3, ,14, ,
-2, ,14, ,
-2, ,14, ,
-2, ,14, ,
-1, ,14, ,
-2, ,14, ,
0, ,14, ,
0, ,14, ,
-1, ,14, ,
-1, ,14, ,
-2, ,14, ,
0, ,14, ,
0, ,14, ,
-1, ,14, ,
0, ,14, ,
-1, ,14, ,
-1, ,14, ,
-1, ,14, ,
-2, ,14, ,
-1, ,14, ,
0, ,14, ,
0, ,14, ,
0, ,14, ,
1, ,14, ,
0, ,14, ,
0, ,14, ,
-1, ,14, ,
0, ,14, ,
0, ,14, ,
-1, ,14, ,
0, ,14, ,
0, ,14, ,
0, ,14, ,
1, ,14, ,
0, ,14, ,
1, ,14, ,
1, ,14, ,
0, ,14, ,
1, ,14, ,
0, ,14, ,
0, ,14, ,
1, ,14, ,
0, ,14, ,
1, ,14, ,
1, ,14, ,
1, ,14, ,
1, ,14, ,
0, ,14, ,
0, ,14, ,
1, ,14, ,
0, ,14, ,
1, ,14, ,
2, ,14, ,
1, ,14, ,
1, ,14, ,
0, ,14, ,
-10, ,14, ,
-36, ,14, ,
-98, ,14, ,
-126, ,14, ,
-126, ,14, ,
-126, ,14, ,
-126, ,14, ,
-126, ,14, ,
-126, ,14, ,
-126, ,14, ,
-121, ,14, ,
-114, ,14, ,
110, ,14, ,
105, ,14, ,
94, ,14, ,
87, ,14, ,
100, ,14, ,
104, ,14, ,
103, ,14, ,
97, ,14, ,
89, ,14, ,
86, ,14, ,
84, ,14, ,
82, ,14, ,
76, ,14, ,
75, ,14, ,
72, ,14, ,
71, ,14, ,
66, ,14, ,
61, ,14, ,
51, ,14, ,
15, ,14, ,
-126, ,14, ,
-126, ,14, ,
-126, ,14, ,
-126, ,14, ,
-126, ,14, ,
-126, ,14, ,
-126, ,14, ,
-126, ,14, ,
-126, ,14, ,
-126, ,14, ,
-126, ,14, ,
-126, ,14, ,
-126, ,14, ,
-126, ,14, ,
-126, ,14, ,
-126, ,14, ,
-126, ,14, ,
-126, ,14, ,
-125, ,14, ,
-117, ,14, ,
125, ,14, ,
125, ,14, ,
125, ,14, ,
125, ,14, ,
125, ,14, ,
125, ,14, ,
125, ,14, ,
125, ,14, ,
125, ,14, ,
125, ,14, ,
125, ,14, ,
125, ,14, ,
122, ,14, ,
97, ,14, ,
67, ,14, ,
50, ,14, ,
58, ,14, ,
77, ,14, ,
105, ,14, ,
125, ,14, ,
125, ,14, ,
125, ,14, ,
125, ,14, ,
125, ,14, ,
125, ,14, ,
125, ,14, ,
125, ,14, ,
125, ,14, ,
125, ,14, ,
125, ,14, ,
125, ,14, ,
125, ,14, ,
124, ,14, ,
124, ,14, ,
123, ,14, ,
117, ,14, ,
108, ,14, ,
105, ,14, ,
99, ,14, ,
94, ,14, ,
84, ,14, ,
78, ,14, ,
75, ,14, ,
71, ,14, ,
64, ,14, ,
63, ,14, ,
59, ,14, ,
58, ,14, ,
53, ,14, ,
48, ,14, ,
45, ,14, ,
39, ,14, ,
29, ,14, ,
24, ,14, ,
15, ,14, ,
10, ,14, ,
-4, ,14, ,
-8, ,14, ,
-8, ,14, ,
-7, ,14, ,
-7, ,14, ,
-3, ,14, ,
-1, ,14, ,
-1, ,14, ,
-2, ,14, ,
-6, ,14, ,
-9, ,14, ,
-13, ,14, ,
-23, ,14, ,
-28, ,14, ,
-29, ,14, ,
-29, ,14, ,
-23, ,14, ,
-16, ,14, ,
-10, ,14, ,
-3, ,14, ,
14, ,14, ,
20, ,14, ,
25, ,14, ,
30, ,14, ,
36, ,14, ,
37, ,14, ,
39, ,14, ,
40, ,14, ,
40, ,14, ,
41, ,14, ,
40, ,14, ,
40, ,14, ,
39, ,14, ,
38, ,14, ,
38, ,14, ,
36, ,14, ,
35, ,14, ,
35, ,14, ,
32, ,14, ,
33, ,14, ,
31, ,14, ,
30, ,14, ,
30, ,14, ,
28, ,14, ,
26, ,14, ,
26, ,14, ,
24, ,14, ,
24, ,14, ,
22, ,14, ,
21, ,14, ,
20, ,14, ,
19, ,14, ,
18, ,14, ,
19, ,14, ,
15, ,14, ,
15, ,14, ,
15, ,14, ,
14, ,14, ,
15, ,14, ,
13, ,14, ,
12, ,14, ,
12, ,14, ,
11, ,14, ,
11, ,14, ,
7, ,14, ,
0, ,14, ,
-17, ,14, ,
-56, ,14, ,
-126, ,14, ,
-126, ,14, ,
-126, ,14, ,
-126, ,14, ,
-126, ,14, ,
-126, ,14, ,
-126, ,14, ,
-126, ,14, ,
-126, ,14, ,
-126, ,14, ,
-126, ,14, ,
-126, ,14, ,
-126, ,14, ,
-126, ,14, ,
-126, ,14, ,
-126, ,14, ,
-126, ,14, ,
-126, ,14, ,
-126, ,14, ,
-126, ,14, ,
-126, ,14, ,
-126, ,14, ,
-126, ,14, ,
-126, ,14, ,
-126, ,14, ,
-126, ,14, ,
-126, ,14, ,
-126, ,14, ,
-124, ,14, ,
-116, ,14, ,
-35, ,14, ,
125, ,14, ,
125, ,14, ,
125, ,14, ,
125, ,14, ,
125, ,14, ,
125, ,14, ,
125, ,14, ,
125, ,14, ,
125, ,14, ,
125, ,14, ,
125, ,14, ,
125, ,14, ,
125, ,14, ,
125, ,14, ,
125, ,14, ,
125, ,14, ,
125, ,14, ,
125, ,14, ,
125, ,14, ,
125, ,14, ,
125, ,14, ,
125, ,14, ,
125, ,14, ,
125, ,14, ,
125, ,14, ,
125, ,14, ,
125, ,14, ,
125, ,14, ,
124, ,14, ,
110, ,14, ,
72, ,14, ,
26, ,14, ,
-32, ,14, ,
-126, ,14, ,
-126, ,14, ,
-126, ,14, ,
-126, ,14, ,
-126, ,14, ,
-126, ,14, ,
-124, ,14, ,
-105, ,14, ,
-35, ,14, ,
0, ,14, ,
29, ,14, ,
53, ,14, ,
89, ,14, ,
100, ,14, ,
107, ,14, ,
111, ,14, ,
114, ,14, ,
115, ,14, ,
111, ,14, ,
111, ,14, ,
105, ,14, ,
99, ,14, ,
94, ,14, ,
88, ,14, ,
70, ,14, ,
58, ,14, ,
42, ,14, ,
25, ,14, ,
-22, ,14, ,
-45, ,14, ,
-68, ,14, ,
-91, ,14, ,
-121, ,14, ,
-126, ,14, ,
-126, ,14, ,
-126, ,14, ,
-103, ,14, ,
-86, ,14, ,
-62, ,14, ,
-37, ,14, ,
12, ,14, ,
34, ,14, ,
52, ,14, ,
69, ,14, ,
90, ,14, ,
96, ,14, ,
99, ,14, ,
99, ,14, ,
94, ,14, ,
91, ,14, ,
82, ,14, ,
73, ,14, ,
48, ,14, ,
29, ,14, ,
12, ,14, ,
-8, ,14, ,
-49, ,14, ,
-70, ,14, ,
-90, ,14, ,
-109, ,14, ,
-126, ,14, ,
-126, ,14, ,
-126, ,14, ,
-126, ,14, ,
-126, ,14, ,
-126, ,14, ,
-126, ,14, ,
-126, ,14, ,
-126, ,14, ,
-126, ,14, ,
-126, ,14, ,
-126, ,14, ,
-126, ,14, ,
-126, ,14, ,
-126, ,14, ,
-126, ,14, ,
-126, ,14, ,
-126, ,14, ,
-126, ,14, ,
-126, ,14, ,
-126, ,14, ,
-126, ,14, ,
-126, ,14, ,
-126, ,14, ,
-126, ,14, ,
-126, ,14, ,
-126, ,14, ,
-126, ,14, ,
-125, ,14, ,
-120, ,14, ,
-96, ,14, ,
-70, ,14, ,
-7, ,14, ,
25, ,14, ,
58, ,14, ,
90, ,14, ,
125, ,14, ,
125, ,14, ,
125, ,14, ,
125, ,14, ,
125, ,14, ,
125, ,14, ,
125, ,14, ,
125, ,14, ,
125, ,14, ,
125, ,14, ,
125, ,14, ,
125, ,14, ,
125, ,14, ,
125, ,14, ,
125, ,14, ,
125, ,14, ,
125, ,14, ,
125, ,14, ,
125, ,14, ,
125, ,14, ,
125, ,14, ,
125, ,14, ,
125, ,14, ,
125, ,14, ,
125, ,14, ,
125, ,14, ,
125, ,14, ,
125, ,14, ,
125, ,14, ,
125, ,14, ,
125, ,14, ,
125, ,14, ,
124, ,14, ,
120, ,14, ,
111, ,14, ,
99, ,14, ,
34, ,14, ,
-30, ,14, ,
-106, ,14, ,
-126, ,14, ,
-126, ,14, ,
-126, ,14, ,
-126, ,14, ,
-126, ,14, ,
-126, ,14, ,
-126, ,14, ,
-126, ,14, ,
-126, ,14, ,
-126, ,14, ,
-126, ,14, ,
-126, ,14, ,
-126, ,14, ,
-126, ,14, ,
-126, ,14, ,
-126, ,14, ,
-126, ,14, ,
-126, ,14, ,
-126, ,14, ,
-126, ,14, ,
-126, ,14, ,
-126, ,14, ,
-126, ,14, ,
-126, ,14, ,
-126, ,14, ,
-126, ,14, ,
-126, ,14, ,
-126, ,14, ,
-126, ,14, ,
-102, ,14, ,
-76, ,14, ,
-44, ,14, ,
-13, ,14, ,
51, ,14, ,
83, ,14, ,
110, ,14, ,
125, ,14, ,
125, ,14, ,
125, ,14, ,
125, ,14, ,
125, ,14, ,
125, ,14, ,
125, ,14, ,
125, ,14, ,
125, ,14, ,
125, ,14, ,
124, ,14, ,
123, ,14, ,
110, ,14, ,
69, ,14, ,
49, ,14, ,
33, ,14, ,
18, ,14, ,
-3, ,14, ,
-11, ,14, ,
-15, ,14, ,
-15, ,14, ,
-13, ,14, ,
-7, ,14, ,
-2, ,14, ,
6, ,14, ,
23, ,14, ,
31, ,14, ,
40, ,14, ,
49, ,14, ,
65, ,14, ,
74, ,14, ,
80, ,14, ,
85, ,14, ,
93, ,14, ,
93, ,14, ,
94, ,14, ,
90, ,14, ,
82, ,14, ,
79, ,14, ,
71, ,14, ,
64, ,14, ,
48, ,14, ,
38, ,14, ,
31, ,14, ,
22, ,14, ,
9, ,14, ,
5, ,14, ,
0, ,14, ,
0, ,14, ,
0, ,14, ,
3, ,14, ,
8, ,14, ,
10, ,14, ,
26, ,14, ,
33, ,14, ,
42, ,14, ,
50, ,14, ,
67, ,14, ,
73, ,14, ,
80, ,14, ,
89, ,14, ,
95, ,14, ,
100, ,14, ,
101, ,14, ,
103, ,14, ,
103, ,14, ,
101, ,14, ,
99, ,14, ,
95, ,14, ,
89, ,14, ,
86, ,14, ,
80, ,14, ,
78, ,14, ,
69, ,14, ,
65, ,14, ,
61, ,14, ,
58, ,14, ,
51, ,14, ,
46, ,14, ,
45, ,14, ,
41, ,14, ,
33, ,14, ,
28, ,14, ,
24, ,14, ,
17, ,14, ,
3, ,14, ,
-5, ,14, ,
-15, ,14, ,
-25, ,14, ,
-46, ,14, ,
-60, ,14, ,
-73, ,14, ,
-87, ,14, ,
-115, ,14, ,
-126, ,14, ,
-126, ,14, ,
-126, ,14, ,
-126, ,14, ,
-126, ,14, ,
-126, ,14, ,
-126, ,14, ,
-126, ,14, ,
-126, ,14, ,
-126, ,14, ,
-126, ,14, ,
-126, ,14, ,
-126, ,14, ,
-126, ,14, ,
-126, ,14, ,
-126, ,14, ,
-126, ,14, ,
-126, ,14, ,
-126, ,14, ,
-126, ,14, ,
-126, ,14, ,
-126, ,14, ,
-126, ,14, ,
-126, ,14, ,
-126, ,14, ,
-126, ,14, ,
-126, ,14, ,
-126, ,14, ,
-121, ,14, ,
-102, ,14, ,
-81, ,14, ,
-39, ,14, ,
-17, ,14, ,
7, ,14, ,
32, ,14, ,
79, ,14, ,
103, ,14, ,
125, ,14, ,
125, ,14, ,
125, ,14, ,
125, ,14, ,
125, ,14, ,
125, ,14, ,
125, ,14, ,
125, ,14, ,
125, ,14, ,
125, ,14, ,
125, ,14, ,
125, ,14, ,
125, ,14, ,
125, ,14, ,
125, ,14, ,
125, ,14, ,
125, ,14, ,
125, ,14, ,
125, ,14, ,
125, ,14, ,
125, ,14, ,
125, ,14, ,
125, ,14, ,
125, ,14, ,
124, ,14, ,
124, ,14, ,
112, ,14, ,
108, ,14, ,
104, ,14, ,
99, ,14, ,
84, ,14, ,
76, ,14, ,
67, ,14, ,
54, ,14, ,
30, ,14, ,
15, ,14, ,
-2, ,14, ,
-19, ,14, ,
-55, ,14, ,
-75, ,14, ,
-93, ,14, ,
-111, ,14, ,
-126, ,14, ,
-126, ,14, ,
-126, ,14, ,
-126, ,14, ,
-126, ,14, ,
-126, ,14, ,
-126, ,14, ,
-126, ,14, ,
-126, ,14, ,
-126, ,14, ,
-126, ,14, ,
-121, ,14, ,
-91, ,14, ,
-78, ,14, ,
-62, ,14, ,
-50, ,14, ,
-30, ,14, ,
-19, ,14, ,
-16, ,14, ,
-9, ,14, ,
-7, ,14, ,
-7, ,14, ,
-8, ,14, ,
-14, ,14, ,
-18, ,14, ,
-22, ,14, ,
-28, ,14, ,
-32, ,14, ,
-37, ,14, ,
-40, ,14, ,
-41, ,14, ,
-41, ,14, ,
-39, ,14, ,
-36, ,14, ,
-34, ,14, ,
-29, ,14, ,
-22, ,14, ,
-18, ,14, ,
-10, ,14, ,
-7, ,14, ,
3, ,14, ,
10, ,14, ,
12, ,14, ,
16, ,14, ,
22, ,14, ,
22, ,14, ,
23, ,14, ,
21, ,14, ,
19, ,14, ,
17, ,14, ,
13, ,14, ,
11, ,14, ,
2, ,14, ,
-4, ,14, ,
-8, ,14, ,
-13, ,14, ,
-23, ,14, ,
-27, ,14, ,
-31, ,14, ,
-35, ,14, ,
-39, ,14, ,
-41, ,14, ,
-42, ,14, ,
-42, ,14, ,
-42, ,14, ,
-39, ,14, ,
-40, ,14, ,
-36, ,14, ,
-34, ,14, ,
-32, ,14, ,
-29, ,14, ,
-30, ,14, ,
-24, ,14, ,
-20, ,14, ,
-20, ,14, ,
-17, ,14, ,
-14, ,14, ,
-14, ,14, ,
-10, ,14, ,
-10, ,14, ,
-9, ,14, ,
-5, ,14, ,
-7, ,14, ,
-2, ,14, ,
1, ,14, ,
4, ,14, ,
8, ,14, ,
11, ,14, ,
20, ,14, ,
25, ,14, ,
29, ,14, ,
35, ,14, ,
47, ,14, ,
54, ,14, ,
60, ,14, ,
66, ,14, ,
76, ,14, ,
80, ,14, ,
85, ,14, ,
91, ,14, ,
97, ,14, ,
98, ,14, ,
100, ,14, ,
100, ,14, ,
99, ,14, ,
99, ,14, ,
96, ,14, ,
93, ,14, ,
88, ,14, ,
81, ,14, ,
77, ,14, ,
71, ,14, ,
59, ,14, ,
53, ,14, ,
45, ,14, ,
39, ,14, ,
24, ,14, ,
17, ,14, ,
11, ,14, ,
-1, ,14, ,
-13, ,14, ,
-19, ,14, ,
-27, ,14, ,
-33, ,14, ,
-45, ,14, ,
-54, ,14, ,
-60, ,14, ,
-69, ,14, ,
-83, ,14, ,
-88, ,14, ,
-96, ,14, ,
-104, ,14, ,
-116, ,14, ,
-124, ,14, ,
-126, ,14, ,
-126, ,14, ,
-126, ,14, ,
-126, ,14, ,
-126, ,14, ,
-126, ,14, ,
-126, ,14, ,
-126, ,14, ,
-126, ,14, ,
-126, ,14, ,
-126, ,14, ,
-126, ,14, ,
-126, ,14, ,
-119, ,14, ,
-103, ,14, ,
-95, ,14, ,
-84, ,14, ,
-76, ,14, ,
-58, ,14, ,
-48, ,14, ,
-39, ,14, ,
-32, ,14, ,
-16, ,14, ,
-10, ,14, ,
-4, ,14, ,
2, ,14, ,
13, ,14, ,
19, ,14, ,
23, ,14, ,
30, ,14, ,
39, ,14, ,
46, ,14, ,
52, ,14, ,
57, ,14, ,
72, ,14, ,
80, ,14, ,
85, ,14, ,
92, ,14, ,
105, ,14, ,
109, ,14, ,
114, ,14, ,
117, ,14, ,
120, ,14, ,
122, ,14, ,
120, ,14, ,
119, ,14, ,
112, ,14, ,
107, ,14, ,
103, ,14, ,
94, ,14, ,
81, ,14, ,
74, ,14, ,
64, ,14, ,
58, ,14, ,
44, ,14, ,
36, ,14, ,
34, ,14, ,
26, ,14, ,
19, ,14, ,
17, ,14, ,
14, ,14, ,
14, ,14, ,
13, ,14, ,
12, ,14, ,
13, ,14, ,
11, ,14, ,
11, ,14, ,
13, ,14, ,
10, ,14, ,
9, ,14, ,
7, ,14, ,
4, ,14, ,
3, ,14, ,
-2, ,14, ,
-9, ,14, ,
-12, ,14, ,
-16, ,14, ,
-19, ,14, ,
-25, ,14, ,
-26, ,14, ,
-29, ,14, ,
-31, ,14, ,
-30, ,14, ,
-30, ,14, ,
-30, ,14, ,
-28, ,14, ,
-22, ,14, ,
-20, ,14, ,
-16, ,14, ,
-13, ,14, ,
-6, ,14, ,
-1, ,14, ,
1, ,14, ,
5, ,14, ,
13, ,14, ,
13, ,14, ,
17, ,14, ,
18, ,14, ,
21, ,14, ,
21, ,14, ,
21, ,14, ,
22, ,14, ,
22, ,14, ,
20, ,14, ,
20, ,14, ,
19, ,14, ,
16, ,14, ,
14, ,14, ,
13, ,14, ,
12, ,14, ,
8, ,14, ,
6, ,14, ,
5, ,14, ,
2, ,14, ,
0, ,14, ,
0, ,14, ,
-3, ,14, ,
-3, ,14, ,
-5, ,14, ,
-7, ,14, ,
-6, ,14, ,
-9, ,14, ,
-11, ,14, ,
-11, ,14, ,
-13, ,14, ,
-13, ,14, ,
-15, ,14, ,
-16, ,14, ,
-18, ,14, ,
-21, ,14, ,
-24, ,14, ,
-24, ,14, ,
-28, ,14, ,
-27, ,14, ,
-29, ,14, ,
-32, ,14, ,
-32, ,14, ,
-32, ,14, ,
-32, ,14, ,
-32, ,14, ,
-31, ,14, ,
-31, ,14, ,
-27, ,14, ,
-26, ,14, ,
-22, ,14, ,
-22, ,14, ,
-16, ,14, ,
-12, ,14, ,
-9, ,14, ,
-5, ,14, ,
1, ,14, ,
5, ,14, ,
11, ,14, ,
13, ,14, ,
20, ,14, ,
23, ,14, ,
25, ,14, ,
30, ,14, ,
33, ,14, ,
35, ,14, ,
37, ,14, ,
36, ,14, ,
38, ,14, ,
40, ,14, ,
40, ,14, ,
41, ,14, ,
43, ,14, ,
42, ,14, ,
44, ,14, ,
44, ,14, ,
44, ,14, ,
46, ,14, ,
46, ,14, ,
47, ,14, ,
46, ,14, ,
45, ,14, ,
46, ,14, ,
44, ,14, ,
43, ,14, ,
42, ,14, ,
39, ,14, ,
39, ,14, ,
33, ,14, ,
27, ,14, ,
23, ,14, ,
19, ,14, ,
10, ,14, ,
7, ,14, ,
0, ,14, ,
-5, ,14, ,
-16, ,14, ,
-23, ,14, ,
-26, ,14, ,
-31, ,14, ,
-39, ,14, ,
-42, ,14, ,
-48, ,14, ,
-51, ,14, ,
-54, ,14, ,
-59, ,14, ,
-60, ,14, ,
-63, ,14, ,
-65, ,14, ,
-66, ,14, ,
-67, ,14, ,
-67, ,14, ,
-70, ,14, ,
-72, ,14, ,
-74, ,14, ,
-75, ,14, ,
-77, ,14, ,
-76, ,14, ,
-78, ,14, ,
-77, ,14, ,
-75, ,14, ,
-76, ,14, ,
-73, ,14, ,
-72, ,14, ,
-66, ,14, ,
-63, ,14, ,
-58, ,14, ,
-52, ,14, ,
-43, ,14, ,
-36, ,14, ,
-31, ,14, ,
-27, ,14, ,
-15, ,14, ,
-9, ,14, ,
-4, ,14, ,
2, ,14, ,
10, ,14, ,
13, ,14, ,
18, ,14, ,
19, ,14, ,
22, ,14, ,
25, ,14, ,
25, ,14, ,
25, ,14, ,
25, ,14, ,
23, ,14, ,
25, ,14, ,
24, ,14, ,
24, ,14, ,
25, ,14, ,
25, ,14, ,
26, ,14, ,
28, ,14, ,
28, ,14, ,
30, ,14, ,
30, ,14, ,
31, ,14, ,
32, ,14, ,
33, ,14, ,
33, ,14, ,
32, ,14, ,
29, ,14, ,
29, ,14, ,
26, ,14, ,
23, ,14, ,
22, ,14, ,
19, ,14, ,
15, ,14, ,
11, ,14, ,
8, ,14, ,
6, ,14, ,
4, ,14, ,
-2, ,14, ,
-3, ,14, ,
-6, ,14, ,
-6, ,14, ,
-8, ,14, ,
-9, ,14, ,
-9, ,14, ,
-9, ,14, ,
-8, ,14, ,
-8, ,14, ,
-8, ,14, ,
-7, ,14, ,
-5, ,14, ,
-5, ,14, ,
-4, ,14, ,
-3, ,14, ,
-4, ,14, ,
-1, ,14, ,
-2, ,14, ,
-1, ,14, ,
0, ,14, ,
-1, ,14, ,
-1, ,14, ,
-2, ,14, ,
-1, ,14, ,
-1, ,14, ,
-2, ,14, ,
0, ,14, ,
-1, ,14, ,
-2, ,14, ,
-1, ,14, ,
-3, ,14, ,
-2, ,14, ,
-2, ,14, ,
0, ,14, ,
0, ,14, ,
1, ,14, ,
1, ,14, ,
1, ,14, ,
1, ,14, ,
0, ,14, ,
1, ,14, ,
1, ,14, ,
1, ,14, ,
0, ,14, ,
0, ,14, ,
-2, ,14, ,
-2, ,14, ,
-3, ,14, ,
-5, ,14, ,
-7, ,14, ,
-6, ,14, ,
-11, ,14, ,
-13, ,14, ,
-15, ,14, ,
-18, ,14, ,
-21, ,14, ,
-21, ,14, ,
-23, ,14, ,
-24, ,14, ,
-28, ,14, ,
-29, ,14, ,
-29, ,14, ,
-29, ,14, ,
-29, ,14, ,
-29, ,14, ,
-29, ,14, ,
-28, ,14, ,
-27, ,14, ,
-27, ,14, ,
-25, ,14, ,
-25, ,14, ,
-23, ,14, ,
-22, ,14, ,
-23, ,14, ,
-20, ,14, ,
-19, ,14, ,
-19, ,14, ,
-17, ,14, ,
-17, ,14, ,
-16, ,14, ,
-15, ,14, ,
-14, ,14, ,
-11, ,14, ,
-9, ,14, ,
-8, ,14, ,
-7, ,14, ,
-5, ,14, ,
0, ,14, ,
3, ,14, ,
4, ,14, ,
6, ,14, ,
13, ,14, ,
15, ,14, ,
20, ,14, ,
22, ,14, ,
26, ,14, ,
31, ,14, ,
34, ,14, ,
36, ,14, ,
41, ,14, ,
41, ,14, ,
43, ,14, ,
43, ,14, ,
45, ,14, ,
46, ,14, ,
46, ,14, ,
46, ,14, ,
45, ,14, ,
44, ,14, ,
44, ,14, ,
44, ,14, ,
41, ,14, ,
41, ,14, ,
39, ,14, ,
39, ,14, ,
37, ,14, ,
36, ,14, ,
36, ,14, ,
34, ,14, ,
32, ,14, ,
30, ,14, ,
29, ,14, ,
28, ,14, ,
24, ,14, ,
21, ,14, ,
20, ,14, ,
15, ,14, ,
10, ,14, ,
8, ,14, ,
4, ,14, ,
2, ,14, ,
-5, ,14, ,
-9, ,14, ,
-11, ,14, ,
-15, ,14, ,
-21, ,14, ,
-21, ,14, ,
-23, ,14, ,
-25, ,14, ,
-26, ,14, ,
-28, ,14, ,
-28, ,14, ,
-29, ,14, ,
-29, ,14, ,
-27, ,14, ,
-27, ,14, ,
-25, ,14, ,
-24, ,14, ,
-24, ,14, ,
-22, ,14, ,
-23, ,14, ,
-20, ,14, ,
-20, ,14, ,
-20, ,14, ,
-19, ,14, ,
-18, ,14, ,
-19, ,14, ,
-17, ,14, ,
-17, ,14, ,
-17, ,14, ,
-14, ,14, ,
-12, ,14, ,
-11, ,14, ,
-10, ,14, ,
-7, ,14, ,
-6, ,14, ,
-4, ,14, ,
-1, ,14, ,
2, ,14, ,
3, ,14, ,
6, ,14, ,
10, ,14, ,
10, ,14, ,
12, ,14, ,
13, ,14, ,
14, ,14, ,
15, ,14, ,
14, ,14, ,
15, ,14, ,
14, ,14, ,
14, ,14, ,
14, ,14, ,
12, ,14, ,
10, ,14, ,
10, ,14, ,
10, ,14, ,
10, ,14, ,
8, ,14, ,
7, ,14, ,
8, ,14, ,
7, ,14, ,
6, ,14, ,
8, ,14, ,
8, ,14, ,
8, ,14, ,
8, ,14, ,
8, ,14, ,
9, ,14, ,
9, ,14, ,
9, ,14, ,
9, ,14, ,
8, ,14, ,
9, ,14, ,
10, ,14, ,
8, ,14, ,
9, ,14, ,
8, ,14, ,
6, ,14, ,
8, ,14, ,
8, ,14, ,
7, ,14, ,
7, ,14, ,
6, ,14, ,
8, ,14, ,
6, ,14, ,
7, ,14, ,
7, ,14, ,
6, ,14, ,
8, ,14, ,
10, ,14, ,
10, ,14, ,
11, ,14, ,
10, ,14, ,
11, ,14, ,
12, ,14, ,
14, ,14, ,
15, ,14, ,
16, ,14, ,
16, ,14, ,
16, ,14, ,
17, ,14, ,
16, ,14, ,
18, ,14, ,
17, ,14, ,
17, ,14, ,
15, ,14, ,
15, ,14, ,
14, ,14, ,
14, ,14, ,
12, ,14, ,
12, ,14, ,
11, ,14, ,
10, ,14, ,
7, ,14, ,
6, ,14, ,
7, ,14, ,
5, ,14, ,
3, ,14, ,
3, ,14, ,
2, ,14, ,
0, ,14, ,
0, ,14, ,
-2, ,14, ,
-2, ,14, ,
-4, ,14, ,
-6, ,14, ,
-6, ,14, ,
-8, ,14, ,
-7, ,14, ,
-10, ,14, ,
-11, ,14, ,
-11, ,14, ,
-14, ,14, ,
-17, ,14, ,
-16, ,14, ,
-20, ,14, ,
-20, ,14, ,
-22, ,14, ,
-23, ,14, ,
-23, ,14, ,
-25, ,14, ,
-26, ,14, ,
-25, ,14, ,
-27, ,14, ,
-26, ,14, ,
-25, ,14, ,
-25, ,14, ,
-24, ,14, ,
-24, ,14, ,
-22, ,14, ,
-19, ,14, ,
-20, ,14, ,
-18, ,14, ,
-15, ,14, ,
-14, ,14, ,
-13, ,14, ,
-12, ,14, ,
-12, ,14, ,
-9, ,14, ,
-7, ,14, ,
-5, ,14, ,
-3, ,14, ,
-3, ,14, ,
0, ,14, ,
-2, ,14, ,
3, ,14, ,
3, ,14, ,
5, ,14, ,
7, ,14, ,
10, ,14, ,
10, ,14, ,
11, ,14, ,
13, ,14, ,
15, ,14, ,
19, ,14, ,
19, ,14, ,
21, ,14, ,
24, ,14, ,
24, ,14, ,
25, ,14, ,
25, ,14, ,
26, ,14, ,
27, ,14, ,
26, ,14, ,
25, ,14, ,
25, ,14, ,
25, ,14, ,
23, ,14, ,
22, ,14, ,
20, ,14, ,
19, ,14, ,
20, ,14, ,
18, ,14, ,
16, ,14, ,
15, ,14, ,
15, ,14, ,
14, ,14, ,
12, ,14, ,
12, ,14, ,
10, ,14, ,
