raw_data/100% Glycerol, Impulsion 2Hz, Sonde 5MHz, Rampe 0.7Hz/temp0000164.CSV

Format,1.0B,
Memory Length,10000,Memory Length,10000,
IntpDistance,0,IntpDistance,0,
Trigger Address,159,Trigger Address,159,
Trigger Level,2.720E-01,Trigger Level,2.720E-01,
Source,CH1,Source,CH2,
Vertical Units,V,Vertical Units,V,
Vertical Units Div,0,Vertical Units Div,0,
Vertical Units Extend Div,16,Vertical Units Extend Div,16,
Label,,Label,,
Probe Type,0,Probe Type,0,
Probe Ratio,1.000e+00,Probe Ratio,1.000e+00,
Vertical Scale,2.000e-01,Vertical Scale,2.000e+00,
Vertical Position,0.000e+00,Vertical Position,0.000e+00,
Horizontal Units,S,Horizontal Units,S,
Horizontal Scale,5.000E-06,Horizontal Scale,5.000E-06,
Horizontal Position,2.420E-05,Horizontal Position,2.420E-05,
Horizontal Mode,Main,Horizontal Mode,Main,
SincET Mode,Real Time,SincET Mode,Real Time,
Sampling Period,5.000e-09,Sampling Period,5.000e-09,
Horizontal Old Scale,5.000E-06,Horizontal Old Scale,5.000E-06,
Horizontal Old Position,2.420E-05,Horizontal Old Position,2.420E-05,
Firmware,V1.32,Firmware,V1.32,
Mode,Fast,Mode,Fast,
Waveform Data,,Waveform Data,,
2, ,41, ,
2, ,41, ,
2, ,41, ,
2, ,41, ,
2, ,41, ,
1, ,41, ,
1, ,41, ,
1, ,42, ,
2, ,41, ,
3, ,41, ,
1, ,42, ,
2, ,41, ,
1, ,41, ,
1, ,42, ,
2, ,41, ,
2, ,41, ,
1, ,42, ,
1, ,42, ,
1, ,41, ,
1, ,41, ,
2, ,41, ,
1, ,41, ,
1, ,41, ,
2, ,41, ,
1, ,42, ,
2, ,42, ,
2, ,42, ,
1, ,41, ,
2, ,41, ,
0, ,41, ,
2, ,41, ,
2, ,41, ,
2, ,41, ,
2, ,41, ,
1, ,41, ,
1, ,41, ,
1, ,41, ,
1, ,41, ,
1, ,41, ,
2, ,41, ,
2, ,41, ,
2, ,41, ,
1, ,41, ,
2, ,41, ,
1, ,42, ,
1, ,42, ,
1, ,42, ,
2, ,42, ,
1, ,41, ,
3, ,41, ,
1, ,41, ,
2, ,41, ,
2, ,41, ,
1, ,41, ,
2, ,41, ,
1, ,42, ,
1, ,41, ,
2, ,41, ,
1, ,41, ,
2, ,42, ,
2, ,41, ,
1, ,41, ,
2, ,41, ,
2, ,42, ,
1, ,42, ,
2, ,41, ,
1, ,41, ,
0, ,41, ,
2, ,41, ,
2, ,41, ,
2, ,41, ,
2, ,41, ,
2, ,41, ,
2, ,41, ,
1, ,41, ,
1, ,42, ,
2, ,41, ,
1, ,41, ,
2, ,42, ,
2, ,41, ,
2, ,41, ,
2, ,42, ,
1, ,42, ,
2, ,42, ,
3, ,42, ,
2, ,42, ,
2, ,42, ,
2, ,42, ,
1, ,41, ,
2, ,41, ,
1, ,41, ,
1, ,42, ,
2, ,41, ,
1, ,41, ,
0, ,41, ,
1, ,41, ,
1, ,41, ,
2, ,41, ,
2, ,41, ,
2, ,41, ,
2, ,41, ,
1, ,41, ,
1, ,41, ,
1, ,41, ,
2, ,41, ,
3, ,41, ,
1, ,41, ,
1, ,42, ,
2, ,41, ,
1, ,41, ,
2, ,41, ,
2, ,41, ,
1, ,42, ,
3, ,42, ,
2, ,41, ,
1, ,41, ,
2, ,41, ,
1, ,41, ,
2, ,41, ,
2, ,41, ,
1, ,42, ,
2, ,42, ,
1, ,42, ,
1, ,42, ,
2, ,41, ,
1, ,41, ,
2, ,41, ,
1, ,41, ,
1, ,41, ,
1, ,41, ,
1, ,41, ,
1, ,41, ,
2, ,42, ,
2, ,41, ,
2, ,41, ,
2, ,41, ,
2, ,41, ,
2, ,41, ,
1, ,41, ,
1, ,42, ,
2, ,42, ,
1, ,42, ,
2, ,42, ,
2, ,41, ,
1, ,41, ,
2, ,41, ,
1, ,41, ,
1, ,41, ,
2, ,41, ,
2, ,41, ,
2, ,41, ,
2, ,41, ,
1, ,42, ,
2, ,42, ,
0, ,42, ,
1, ,41, ,
2, ,41, ,
1, ,41, ,
2, ,41, ,
2, ,41, ,
1, ,41, ,
2, ,41, ,
2, ,42, ,
1, ,41, ,
7, ,41, ,
0, ,41, ,
1, ,41, ,
1, ,41, ,
31, ,42, ,
94, ,42, ,
125, ,42, ,
125, ,41, ,
125, ,41, ,
121, ,41, ,
116, ,41, ,
-9, ,41, ,
94, ,41, ,
125, ,41, ,
125, ,41, ,
125, ,41, ,
125, ,42, ,
125, ,41, ,
125, ,41, ,
125, ,41, ,
125, ,41, ,
125, ,41, ,
125, ,41, ,
125, ,42, ,
125, ,42, ,
125, ,42, ,
125, ,42, ,
125, ,41, ,
125, ,41, ,
125, ,42, ,
125, ,41, ,
125, ,41, ,
125, ,42, ,
125, ,42, ,
125, ,41, ,
125, ,41, ,
125, ,41, ,
125, ,41, ,
125, ,41, ,
124, ,42, ,
120, ,42, ,
114, ,42, ,
111, ,42, ,
102, ,42, ,
97, ,42, ,
94, ,41, ,
89, ,41, ,
81, ,41, ,
78, ,41, ,
75, ,41, ,
71, ,41, ,
64, ,42, ,
63, ,41, ,
59, ,41, ,
54, ,41, ,
51, ,41, ,
51, ,41, ,
46, ,41, ,
44, ,42, ,
41, ,41, ,
38, ,41, ,
37, ,41, ,
35, ,41, ,
30, ,42, ,
29, ,42, ,
28, ,41, ,
27, ,41, ,
25, ,41, ,
23, ,41, ,
22, ,41, ,
19, ,41, ,
17, ,41, ,
17, ,41, ,
15, ,41, ,
15, ,42, ,
13, ,41, ,
11, ,41, ,
11, ,41, ,
11, ,41, ,
9, ,41, ,
9, ,41, ,
7, ,41, ,
7, ,41, ,
5, ,41, ,
5, ,41, ,
5, ,41, ,
4, ,41, ,
4, ,41, ,
3, ,41, ,
2, ,41, ,
3, ,42, ,
3, ,41, ,
1, ,41, ,
1, ,42, ,
0, ,41, ,
0, ,41, ,
0, ,41, ,
-1, ,41, ,
-1, ,41, ,
-2, ,41, ,
-2, ,41, ,
-2, ,41, ,
-2, ,41, ,
-1, ,42, ,
-1, ,42, ,
-2, ,42, ,
-2, ,41, ,
-2, ,41, ,
-3, ,42, ,
-3, ,42, ,
-3, ,42, ,
-4, ,41, ,
-2, ,41, ,
-3, ,41, ,
-1, ,41, ,
-3, ,41, ,
-3, ,41, ,
-4, ,41, ,
-3, ,42, ,
-3, ,42, ,
-2, ,41, ,
-4, ,41, ,
-3, ,42, ,
-3, ,41, ,
-4, ,41, ,
-3, ,41, ,
-3, ,41, ,
-3, ,41, ,
-3, ,42, ,
-4, ,41, ,
-2, ,41, ,
-2, ,41, ,
-3, ,41, ,
-3, ,41, ,
-4, ,41, ,
-3, ,41, ,
-3, ,41, ,
-3, ,42, ,
-2, ,41, ,
-3, ,41, ,
-3, ,42, ,
-3, ,41, ,
-3, ,41, ,
-4, ,41, ,
-2, ,41, ,
-2, ,41, ,
-2, ,41, ,
-2, ,41, ,
-3, ,42, ,
-2, ,42, ,
-3, ,42, ,
-2, ,42, ,
-1, ,41, ,
-2, ,41, ,
-1, ,42, ,
-1, ,41, ,
-2, ,41, ,
-1, ,42, ,
-1, ,42, ,
0, ,41, ,
0, ,41, ,
-1, ,41, ,
-1, ,41, ,
-1, ,41, ,
-1, ,41, ,
-1, ,41, ,
-1, ,41, ,
0, ,41, ,
0, ,41, ,
0, ,41, ,
0, ,41, ,
0, ,41, ,
0, ,41, ,
0, ,41, ,
0, ,41, ,
0, ,41, ,
0, ,41, ,
0, ,41, ,
0, ,41, ,
0, ,42, ,
0, ,41, ,
0, ,41, ,
0, ,41, ,
1, ,41, ,
1, ,41, ,
1, ,41, ,
0, ,41, ,
0, ,42, ,
0, ,41, ,
0, ,41, ,
0, ,41, ,
0, ,41, ,
0, ,41, ,
0, ,41, ,
0, ,41, ,
1, ,42, ,
0, ,41, ,
1, ,41, ,
0, ,42, ,
0, ,41, ,
1, ,41, ,
0, ,41, ,
1, ,41, ,
1, ,41, ,
1, ,41, ,
1, ,41, ,
1, ,41, ,
1, ,41, ,
1, ,42, ,
1, ,41, ,
1, ,41, ,
1, ,41, ,
1, ,42, ,
1, ,42, ,
0, ,42, ,
0, ,41, ,
1, ,41, ,
1, ,41, ,
1, ,41, ,
1, ,41, ,
1, ,41, ,
1, ,41, ,
0, ,41, ,
0, ,41, ,
1, ,42, ,
0, ,42, ,
0, ,42, ,
1, ,42, ,
1, ,41, ,
0, ,41, ,
0, ,42, ,
1, ,42, ,
2, ,42, ,
2, ,42, ,
2, ,41, ,
2, ,41, ,
1, ,42, ,
1, ,41, ,
1, ,41, ,
0, ,41, ,
1, ,41, ,
1, ,41, ,
1, ,41, ,
1, ,42, ,
1, ,41, ,
1, ,41, ,
1, ,41, ,
1, ,41, ,
1, ,41, ,
1, ,41, ,
2, ,42, ,
2, ,41, ,
1, ,41, ,
1, ,41, ,
1, ,41, ,
1, ,42, ,
1, ,41, ,
1, ,41, ,
1, ,41, ,
1, ,41, ,
1, ,41, ,
1, ,41, ,
0, ,41, ,
0, ,41, ,
1, ,41, ,
1, ,41, ,
1, ,42, ,
1, ,41, ,
0, ,41, ,
1, ,42, ,
0, ,41, ,
0, ,41, ,
2, ,42, ,
0, ,41, ,
2, ,41, ,
0, ,41, ,
0, ,41, ,
1, ,41, ,
0, ,41, ,
-1, ,42, ,
-1, ,42, ,
-1, ,41, ,
-1, ,41, ,
0, ,41, ,
0, ,41, ,
0, ,41, ,
1, ,41, ,
0, ,41, ,
1, ,42, ,
0, ,42, ,
1, ,42, ,
2, ,42, ,
1, ,41, ,
2, ,41, ,
1, ,42, ,
1, ,42, ,
1, ,41, ,
1, ,41, ,
1, ,41, ,
1, ,41, ,
0, ,41, ,
1, ,42, ,
0, ,41, ,
1, ,41, ,
1, ,41, ,
1, ,41, ,
2, ,41, ,
2, ,41, ,
1, ,41, ,
3, ,41, ,
1, ,41, ,
1, ,41, ,
2, ,41, ,
2, ,41, ,
2, ,42, ,
0, ,41, ,
0, ,41, ,
0, ,41, ,
-1, ,42, ,
-2, ,42, ,
0, ,41, ,
0, ,41, ,
0, ,41, ,
0, ,42, ,
0, ,41, ,
1, ,41, ,
1, ,41, ,
2, ,42, ,
2, ,41, ,
2, ,41, ,
2, ,41, ,
2, ,41, ,
1, ,41, ,
1, ,41, ,
2, ,41, ,
0, ,41, ,
0, ,42, ,
0, ,42, ,
-1, ,42, ,
0, ,42, ,
0, ,41, ,
-1, ,41, ,
0, ,41, ,
0, ,42, ,
0, ,42, ,
-2, ,42, ,
1, ,42, ,
1, ,42, ,
1, ,42, ,
1, ,42, ,
0, ,41, ,
-1, ,41, ,
-1, ,42, ,
-2, ,42, ,
-3, ,42, ,
-3, ,42, ,
-5, ,41, ,
-6, ,41, ,
-6, ,41, ,
-7, ,41, ,
-7, ,42, ,
-7, ,42, ,
-7, ,42, ,
-7, ,41, ,
-7, ,41, ,
-7, ,42, ,
-8, ,41, ,
-10, ,41, ,
-10, ,41, ,
-11, ,41, ,
-10, ,41, ,
-14, ,42, ,
-15, ,41, ,
-16, ,41, ,
-20, ,41, ,
-23, ,42, ,
-24, ,42, ,
-26, ,42, ,
-29, ,42, ,
-29, ,42, ,
-30, ,42, ,
-30, ,41, ,
-30, ,41, ,
-30, ,41, ,
-29, ,41, ,
-28, ,41, ,
-29, ,41, ,
-28, ,42, ,
-29, ,41, ,
-29, ,41, ,
-30, ,41, ,
-31, ,41, ,
-32, ,41, ,
-34, ,41, ,
-33, ,42, ,
-35, ,41, ,
-36, ,41, ,
-34, ,41, ,
-35, ,41, ,
-30, ,41, ,
-28, ,42, ,
-24, ,41, ,
-24, ,41, ,
-15, ,41, ,
-13, ,41, ,
-10, ,41, ,
-9, ,41, ,
-6, ,41, ,
-4, ,41, ,
-4, ,41, ,
-4, ,41, ,
-5, ,41, ,
-6, ,41, ,
-6, ,41, ,
-8, ,41, ,
-9, ,41, ,
-9, ,41, ,
-9, ,41, ,
-9, ,41, ,
-7, ,41, ,
-7, ,41, ,
-6, ,41, ,
-6, ,41, ,
-5, ,41, ,
-4, ,41, ,
-4, ,42, ,
-5, ,41, ,
-6, ,41, ,
-8, ,41, ,
-9, ,41, ,
-10, ,41, ,
-12, ,41, ,
-12, ,42, ,
-14, ,41, ,
-14, ,41, ,
-13, ,41, ,
-13, ,41, ,
-12, ,41, ,
-12, ,41, ,
-9, ,41, ,
-6, ,41, ,
-6, ,41, ,
-2, ,41, ,
-1, ,41, ,
0, ,42, ,
0, ,42, ,
0, ,41, ,
-2, ,41, ,
-4, ,42, ,
-5, ,41, ,
-5, ,41, ,
-10, ,41, ,
-12, ,41, ,
-13, ,41, ,
-16, ,41, ,
-16, ,42, ,
-17, ,41, ,
-18, ,41, ,
-18, ,42, ,
-19, ,41, ,
-20, ,41, ,
-20, ,42, ,
-21, ,41, ,
-24, ,41, ,
-25, ,41, ,
-26, ,41, ,
-26, ,41, ,
-29, ,41, ,
-29, ,41, ,
-30, ,41, ,
-31, ,41, ,
-31, ,41, ,
-31, ,41, ,
-32, ,41, ,
-32, ,42, ,
-32, ,42, ,
-32, ,42, ,
-32, ,42, ,
-31, ,42, ,
-32, ,41, ,
-30, ,41, ,
-30, ,41, ,
-30, ,41, ,
-28, ,41, ,
-28, ,42, ,
-27, ,42, ,
-28, ,42, ,
-26, ,41, ,
-28, ,41, ,
-30, ,41, ,
-31, ,41, ,
-33, ,41, ,
-35, ,41, ,
-35, ,41, ,
-37, ,41, ,
-38, ,41, ,
-38, ,42, ,
-37, ,42, ,
-36, ,42, ,
-35, ,42, ,
-35, ,41, ,
-35, ,41, ,
-35, ,41, ,
-35, ,41, ,
-36, ,41, ,
-37, ,41, ,
-37, ,41, ,
-39, ,41, ,
-41, ,41, ,
-40, ,41, ,
-41, ,41, ,
-41, ,41, ,
-41, ,41, ,
-41, ,41, ,
-38, ,41, ,
-36, ,41, ,
-34, ,41, ,
-31, ,41, ,
-32, ,41, ,
-27, ,41, ,
-25, ,41, ,
-25, ,41, ,
-23, ,42, ,
-22, ,42, ,
-20, ,42, ,
-18, ,42, ,
-17, ,42, ,
-16, ,42, ,
-14, ,41, ,
-12, ,41, ,
-10, ,41, ,
-8, ,42, ,
-9, ,41, ,
-6, ,41, ,
-7, ,42, ,
-7, ,41, ,
-6, ,41, ,
-7, ,41, ,
-7, ,42, ,
-7, ,42, ,
-7, ,42, ,
-6, ,41, ,
-6, ,41, ,
-5, ,41, ,
-5, ,42, ,
-4, ,41, ,
-3, ,41, ,
-3, ,41, ,
-3, ,41, ,
-3, ,41, ,
-2, ,41, ,
-2, ,42, ,
-1, ,42, ,
-1, ,41, ,
0, ,41, ,
3, ,41, ,
2, ,42, ,
6, ,41, ,
6, ,41, ,
8, ,41, ,
10, ,41, ,
10, ,41, ,
10, ,41, ,
11, ,42, ,
11, ,42, ,
11, ,42, ,
10, ,42, ,
10, ,42, ,
10, ,41, ,
9, ,41, ,
9, ,42, ,
6, ,42, ,
6, ,41, ,
6, ,41, ,
5, ,42, ,
4, ,42, ,
4, ,42, ,
3, ,42, ,
2, ,42, ,
0, ,42, ,
-1, ,42, ,
-1, ,42, ,
-2, ,42, ,
-3, ,42, ,
-5, ,41, ,
-6, ,41, ,
-6, ,42, ,
-8, ,41, ,
-9, ,41, ,
-10, ,42, ,
-11, ,42, ,
-13, ,42, ,
-14, ,42, ,
-15, ,42, ,
-15, ,42, ,
-18, ,42, ,
-19, ,41, ,
-19, ,41, ,
-21, ,41, ,
-23, ,41, ,
-23, ,41, ,
-24, ,41, ,
-23, ,41, ,
-26, ,41, ,
-28, ,41, ,
-28, ,41, ,
-29, ,41, ,
-31, ,41, ,
-32, ,41, ,
-33, ,41, ,
-32, ,41, ,
-35, ,42, ,
-35, ,41, ,
-36, ,41, ,
-38, ,41, ,
-36, ,41, ,
-36, ,41, ,
-36, ,41, ,
-35, ,41, ,
-34, ,41, ,
-34, ,42, ,
-34, ,42, ,
-33, ,42, ,
-33, ,41, ,
-31, ,41, ,
-31, ,41, ,
-30, ,41, ,
-28, ,41, ,
-29, ,41, ,
-27, ,41, ,
-27, ,41, ,
-24, ,41, ,
-22, ,41, ,
-22, ,42, ,
-19, ,42, ,
-17, ,41, ,
-18, ,41, ,
-15, ,41, ,
-15, ,41, ,
-12, ,41, ,
-12, ,41, ,
-10, ,41, ,
-10, ,41, ,
-9, ,41, ,
-7, ,41, ,
-7, ,41, ,
-7, ,41, ,
-4, ,41, ,
-3, ,41, ,
-2, ,41, ,
-2, ,41, ,
3, ,42, ,
2, ,42, ,
5, ,41, ,
5, ,41, ,
6, ,41, ,
6, ,42, ,
6, ,42, ,
7, ,42, ,
8, ,42, ,
8, ,41, ,
9, ,41, ,
9, ,42, ,
9, ,41, ,
10, ,41, ,
10, ,42, ,
10, ,41, ,
10, ,41, ,
9, ,42, ,
9, ,42, ,
9, ,42, ,
6, ,42, ,
7, ,41, ,
5, ,41, ,
5, ,41, ,
4, ,41, ,
3, ,41, ,
3, ,41, ,
2, ,41, ,
2, ,41, ,
2, ,41, ,
1, ,41, ,
1, ,41, ,
0, ,41, ,
-1, ,41, ,
0, ,41, ,
-1, ,41, ,
-2, ,41, ,
-3, ,41, ,
-3, ,41, ,
-4, ,41, ,
-4, ,41, ,
-5, ,42, ,
-5, ,42, ,
-6, ,42, ,
-7, ,41, ,
-7, ,41, ,
-9, ,41, ,
-9, ,41, ,
-11, ,41, ,
-13, ,41, ,
-13, ,41, ,
-16, ,41, ,
-18, ,41, ,
-18, ,42, ,
-20, ,42, ,
-20, ,42, ,
-22, ,42, ,
-23, ,41, ,
-23, ,41, ,
-25, ,41, ,
-26, ,42, ,
-26, ,41, ,
-27, ,41, ,
-25, ,42, ,
-26, ,42, ,
-26, ,42, ,
-25, ,41, ,
-25, ,41, ,
-25, ,41, ,
-24, ,41, ,
-24, ,41, ,
-22, ,41, ,
-22, ,42, ,
-21, ,41, ,
-21, ,41, ,
-21, ,42, ,
-19, ,42, ,
-19, ,42, ,
-17, ,42, ,
-16, ,41, ,
-15, ,41, ,
-15, ,41, ,
-15, ,41, ,
-15, ,41, ,
-15, ,41, ,
-15, ,42, ,
-15, ,42, ,
-15, ,42, ,
-15, ,42, ,
-16, ,41, ,
-15, ,41, ,
-17, ,41, ,
-17, ,42, ,
-16, ,41, ,
-18, ,41, ,
-18, ,42, ,
-18, ,41, ,
-19, ,41, ,
-18, ,42, ,
-19, ,41, ,
-20, ,41, ,
-20, ,41, ,
-21, ,41, ,
-21, ,41, ,
-22, ,42, ,
-22, ,41, ,
-22, ,41, ,
-23, ,41, ,
-22, ,41, ,
-22, ,41, ,
-22, ,41, ,
-21, ,41, ,
-20, ,41, ,
-20, ,41, ,
-20, ,42, ,
-20, ,41, ,
-20, ,41, ,
-18, ,42, ,
-19, ,41, ,
-18, ,41, ,
-17, ,41, ,
-17, ,41, ,
-17, ,41, ,
-17, ,42, ,
-16, ,42, ,
-15, ,41, ,
-15, ,41, ,
-14, ,41, ,
-13, ,41, ,
-12, ,41, ,
-11, ,42, ,
-11, ,42, ,
-10, ,41, ,
-10, ,41, ,
-9, ,42, ,
-8, ,42, ,
-8, ,42, ,
-7, ,41, ,
-7, ,41, ,
-7, ,41, ,
-6, ,42, ,
-5, ,41, ,
-5, ,41, ,
-4, ,41, ,
-3, ,41, ,
-3, ,41, ,
-2, ,41, ,
-1, ,41, ,
-2, ,41, ,
-1, ,41, ,
-1, ,41, ,
-1, ,41, ,
0, ,41, ,
0, ,41, ,
0, ,41, ,
0, ,41, ,
0, ,42, ,
0, ,41, ,
0, ,41, ,
1, ,42, ,
1, ,42, ,
0, ,42, ,
1, ,42, ,
1, ,41, ,
1, ,41, ,
1, ,42, ,
0, ,42, ,
0, ,42, ,
0, ,42, ,
-1, ,41, ,
0, ,41, ,
-1, ,41, ,
-2, ,42, ,
-2, ,42, ,
-4, ,42, ,
-3, ,42, ,
-4, ,41, ,
-5, ,41, ,
-4, ,42, ,
-5, ,41, ,
-7, ,41, ,
-8, ,42, ,
-8, ,42, ,
-9, ,42, ,
-9, ,42, ,
-10, ,42, ,
-10, ,42, ,
-10, ,42, ,
-11, ,41, ,
-11, ,41, ,
-12, ,42, ,
-11, ,42, ,
-11, ,42, ,
-12, ,42, ,
-11, ,41, ,
-12, ,41, ,
-14, ,41, ,
-12, ,41, ,
-13, ,41, ,
-12, ,41, ,
-12, ,42, ,
-12, ,41, ,
-10, ,41, ,
-10, ,41, ,
-10, ,41, ,
-10, ,41, ,
-10, ,41, ,
-9, ,41, ,
-9, ,41, ,
-9, ,41, ,
-9, ,41, ,
-10, ,41, ,
-10, ,41, ,
-10, ,41, ,
-10, ,41, ,
-9, ,41, ,
-9, ,41, ,
-9, ,41, ,
-8, ,41, ,
-10, ,42, ,
-7, ,42, ,
-8, ,41, ,
-8, ,41, ,
-7, ,41, ,
-6, ,42, ,
-6, ,42, ,
-7, ,42, ,
-7, ,42, ,
-7, ,41, ,
-7, ,41, ,
-6, ,41, ,
-6, ,41, ,
-5, ,41, ,
-5, ,41, ,
-5, ,41, ,
-5, ,41, ,
-4, ,41, ,
-4, ,41, ,
-3, ,41, ,
-3, ,42, ,
-3, ,42, ,
-4, ,41, ,
-2, ,41, ,
-3, ,41, ,
-4, ,41, ,
-3, ,41, ,
-4, ,41, ,
-3, ,41, ,
-4, ,42, ,
-2, ,41, ,
-1, ,41, ,
-3, ,41, ,
0, ,42, ,
0, ,42, ,
0, ,42, ,
0, ,42, ,
-1, ,41, ,
-1, ,41, ,
0, ,41, ,
0, ,42, ,
0, ,42, ,
1, ,42, ,
0, ,41, ,
0, ,41, ,
0, ,41, ,
0, ,41, ,
1, ,41, ,
0, ,41, ,
0, ,41, ,
0, ,42, ,
0, ,42, ,
0, ,42, ,
0, ,41, ,
0, ,41, ,
0, ,42, ,
-1, ,42, ,
-2, ,42, ,
-2, ,41, ,
-2, ,41, ,
-1, ,41, ,
0, ,41, ,
0, ,41, ,
0, ,41, ,
0, ,41, ,
0, ,41, ,
0, ,41, ,
0, ,42, ,
0, ,42, ,
0, ,42, ,
0, ,42, ,
2, ,41, ,
-1, ,41, ,
-2, ,41, ,
0, ,42, ,
0, ,42, ,
0, ,42, ,
0, ,41, ,
0, ,41, ,
0, ,41, ,
0, ,41, ,
0, ,42, ,
0, ,42, ,
-1, ,41, ,
0, ,41, ,
0, ,41, ,
-1, ,41, ,
-1, ,41, ,
-1, ,42, ,
-2, ,41, ,
0, ,41, ,
-1, ,41, ,
-1, ,41, ,
-2, ,41, ,
-3, ,41, ,
-3, ,41, ,
-3, ,42, ,
-2, ,42, ,
-1, ,41, ,
-2, ,41, ,
-1, ,42, ,
-1, ,41, ,
-2, ,41, ,
0, ,42, ,
-2, ,42, ,
-2, ,42, ,
-1, ,42, ,
-2, ,42, ,
-1, ,42, ,
0, ,42, ,
-2, ,41, ,
-1, ,41, ,
-1, ,41, ,
0, ,41, ,
1, ,41, ,
0, ,41, ,
2, ,41, ,
2, ,41, ,
1, ,42, ,
2, ,41, ,
2, ,41, ,
2, ,41, ,
3, ,41, ,
3, ,41, ,
3, ,41, ,
3, ,42, ,
3, ,41, ,
4, ,41, ,
3, ,41, ,
3, ,42, ,
4, ,41, ,
3, ,41, ,
4, ,42, ,
4, ,42, ,
3, ,42, ,
3, ,41, ,
2, ,41, ,
1, ,41, ,
2, ,41, ,
2, ,41, ,
2, ,41, ,
1, ,41, ,
1, ,41, ,
2, ,41, ,
1, ,42, ,
1, ,41, ,
1, ,41, ,
0, ,41, ,
2, ,41, ,
2, ,41, ,
1, ,41, ,
2, ,42, ,
1, ,42, ,
1, ,42, ,
2, ,41, ,
1, ,41, ,
3, ,41, ,
3, ,41, ,
2, ,41, ,
3, ,41, ,
3, ,41, ,
3, ,42, ,
4, ,41, ,
3, ,41, ,
5, ,41, ,
5, ,41, ,
5, ,41, ,
5, ,42, ,
5, ,42, ,
5, ,42, ,
5, ,41, ,
5, ,41, ,
5, ,41, ,
5, ,41, ,
4, ,41, ,
4, ,41, ,
3, ,41, ,
4, ,41, ,
4, ,41, ,
3, ,41, ,
2, ,41, ,
2, ,41, ,
2, ,42, ,
2, ,42, ,
1, ,41, ,
0, ,41, ,
0, ,42, ,
0, ,42, ,
0, ,42, ,
0, ,42, ,
-1, ,41, ,
-1, ,41, ,
-2, ,42, ,
-1, ,41, ,
-1, ,41, ,
-2, ,41, ,
-2, ,41, ,
-3, ,41, ,
-4, ,41, ,
-3, ,41, ,
-3, ,41, ,
-5, ,41, ,
-5, ,42, ,
-5, ,42, ,
-5, ,41, ,
-6, ,41, ,
-8, ,41, ,
-8, ,41, ,
-10, ,41, ,
-10, ,41, ,
-9, ,41, ,
-9, ,42, ,
-9, ,42, ,
-10, ,42, ,
-11, ,42, ,
-11, ,41, ,
-11, ,41, ,
-10, ,41, ,
-10, ,42, ,
-10, ,41, ,
-10, ,41, ,
-10, ,41, ,
-10, ,41, ,
-10, ,41, ,
-10, ,41, ,
-10, ,42, ,
-9, ,42, ,
-9, ,42, ,
-9, ,41, ,
-7, ,41, ,
-7, ,41, ,
-7, ,41, ,
-5, ,41, ,
-5, ,41, ,
-4, ,41, ,
-4, ,41, ,
-3, ,41, ,
-3, ,42, ,
-2, ,41, ,
-2, ,41, ,
-2, ,42, ,
-1, ,42, ,
0, ,41, ,
-2, ,41, ,
0, ,41, ,
1, ,41, ,
0, ,41, ,
1, ,41, ,
0, ,41, ,
1, ,41, ,
0, ,41, ,
0, ,41, ,
0, ,41, ,
0, ,41, ,
0, ,42, ,
0, ,41, ,
0, ,41, ,
0, ,41, ,
-1, ,41, ,
-1, ,42, ,
-2, ,41, ,
-1, ,41, ,
-4, ,42, ,
-1, ,41, ,
-2, ,41, ,
-3, ,41, ,
-3, ,41, ,
-3, ,41, ,
-3, ,41, ,
-4, ,42, ,
-3, ,42, ,
-4, ,42, ,
-5, ,42, ,
-5, ,41, ,
-5, ,41, ,
-5, ,42, ,
-4, ,41, ,
-4, ,41, ,
-6, ,42, ,
-5, ,42, ,
-6, ,41, ,
-7, ,41, ,
-5, ,42, ,
-6, ,42, ,
-5, ,42, ,
-6, ,42, ,
-7, ,41, ,
-6, ,41, ,
-6, ,41, ,
-6, ,41, ,
-5, ,41, ,
-5, ,41, ,
-5, ,41, ,
-5, ,41, ,
-5, ,41, ,
-4, ,41, ,
-4, ,41, ,
-4, ,41, ,
-2, ,41, ,
-3, ,41, ,
-3, ,41, ,
-3, ,41, ,
-2, ,41, ,
-2, ,41, ,
-2, ,41, ,
-2, ,41, ,
-1, ,41, ,
-1, ,41, ,
-1, ,42, ,
-2, ,41, ,
-2, ,41, ,
-1, ,41, ,
-1, ,41, ,
-2, ,41, ,
-2, ,42, ,
-2, ,42, ,
-2, ,41, ,
-2, ,41, ,
-3, ,41, ,
-3, ,41, ,
-3, ,41, ,
-3, ,42, ,
-3, ,42, ,
-4, ,42, ,
-4, ,42, ,
-3, ,41, ,
-4, ,41, ,
-3, ,42, ,
-4, ,42, ,
-4, ,42, ,
-3, ,41, ,
-3, ,41, ,
-3, ,41, ,
-4, ,41, ,
-4, ,41, ,
-4, ,41, ,
-4, ,41, ,
-4, ,41, ,
-3, ,41, ,
-4, ,41, ,
-3, ,41, ,
-3, ,42, ,
-3, ,42, ,
-3, ,41, ,
-4, ,41, ,
-3, ,41, ,
-4, ,41, ,
-2, ,41, ,
-2, ,41, ,
-2, ,41, ,
-3, ,41, ,
-3, ,41, ,
-3, ,41, ,
-2, ,41, ,
-2, ,42, ,
-2, ,42, ,
-2, ,41, ,
-2, ,41, ,
-2, ,42, ,
-2, ,42, ,
-2, ,42, ,
-2, ,42, ,
-1, ,41, ,
-2, ,41, ,
-1, ,41, ,
-2, ,42, ,
-1, ,41, ,
-1, ,41, ,
-2, ,41, ,
0, ,41, ,
-1, ,41, ,
-1, ,41, ,
-2, ,41, ,
-2, ,41, ,
-2, ,41, ,
-2, ,41, ,
-1, ,41, ,
-2, ,41, ,
0, ,41, ,
-1, ,41, ,
-1, ,41, ,
-1, ,41, ,
-1, ,42, ,
-1, ,42, ,
-2, ,42, ,
-1, ,42, ,
-1, ,41, ,
-2, ,41, ,
-1, ,41, ,
-1, ,41, ,
-1, ,42, ,
0, ,42, ,
0, ,42, ,
0, ,41, ,
0, ,41, ,
0, ,41, ,
0, ,41, ,
2, ,42, ,
2, ,41, ,
2, ,41, ,
1, ,41, ,
4, ,41, ,
3, ,41, ,
5, ,42, ,
4, ,42, ,
6, ,41, ,
4, ,41, ,
7, ,42, ,
6, ,42, ,
6, ,42, ,
7, ,42, ,
6, ,42, ,
7, ,41, ,
7, ,41, ,
6, ,41, ,
7, ,41, ,
5, ,41, ,
6, ,41, ,
7, ,41, ,
6, ,42, ,
6, ,41, ,
7, ,41, ,
5, ,42, ,
5, ,42, ,
4, ,42, ,
3, ,42, ,
3, ,42, ,
3, ,41, ,
2, ,41, ,
1, ,41, ,
0, ,41, ,
0, ,41, ,
0, ,41, ,
-1, ,41, ,
-1, ,41, ,
-2, ,42, ,
-2, ,42, ,
-3, ,41, ,
-3, ,41, ,
-3, ,41, ,
-4, ,41, ,
-5, ,41, ,
-5, ,41, ,
-5, ,41, ,
-5, ,41, ,
-6, ,41, ,
-6, ,41, ,
-5, ,41, ,
-6, ,42, ,
-6, ,41, ,
-5, ,41, ,
-5, ,41, ,
-4, ,41, ,
-4, ,41, ,
-5, ,41, ,
-3, ,41, ,
-3, ,41, ,
-2, ,41, ,
0, ,42, ,
0, ,42, ,
0, ,41, ,
1, ,41, ,
1, ,41, ,
2, ,41, ,
0, ,41, ,
1, ,41, ,
3, ,41, ,
3, ,41, ,
3, ,41, ,
3, ,41, ,
2, ,41, ,
2, ,41, ,
2, ,42, ,
1, ,41, ,
1, ,41, ,
0, ,41, ,
0, ,41, ,
0, ,41, ,
0, ,41, ,
-1, ,41, ,
-1, ,41, ,
-2, ,41, ,
-2, ,42, ,
-3, ,42, ,
-3, ,42, ,
-3, ,42, ,
-4, ,42, ,
-2, ,41, ,
-3, ,41, ,
-3, ,41, ,
-2, ,42, ,
-2, ,42, ,
-2, ,41, ,
-1, ,41, ,
0, ,41, ,
0, ,41, ,
0, ,41, ,
0, ,41, ,
1, ,41, ,
1, ,42, ,
2, ,42, ,
2, ,42, ,
1, ,41, ,
2, ,41, ,
2, ,41, ,
2, ,42, ,
2, ,42, ,
1, ,41, ,
2, ,41, ,
1, ,41, ,
0, ,41, ,
0, ,41, ,
0, ,41, ,
-1, ,41, ,
-1, ,41, ,
-2, ,41, ,
-1, ,41, ,
-1, ,41, ,
-2, ,42, ,
-2, ,42, ,
-2, ,41, ,
-3, ,41, ,
-2, ,41, ,
-2, ,41, ,
0, ,41, ,
0, ,41, ,
0, ,42, ,
1, ,42, ,
1, ,42, ,
2, ,42, ,
4, ,42, ,
5, ,42, ,
5, ,41, ,
6, ,41, ,
6, ,41, ,
8, ,41, ,
7, ,41, ,
8, ,41, ,
10, ,42, ,
10, ,41, ,
10, ,41, ,
11, ,41, ,
11, ,41, ,
11, ,41, ,
10, ,41, ,
11, ,41, ,
12, ,41, ,
10, ,42, ,
11, ,42, ,
10, ,42, ,
9, ,42, ,
9, ,42, ,
8, ,41, ,
7, ,41, ,
7, ,41, ,
5, ,41, ,
5, ,41, ,
4, ,41, ,
3, ,41, ,
3, ,41, ,
2, ,41, ,
2, ,41, ,
2, ,41, ,
2, ,41, ,
1, ,41, ,
0, ,41, ,
-1, ,42, ,
-1, ,42, ,
-2, ,41, ,
-2, ,41, ,
-1, ,41, ,
-2, ,41, ,
-1, ,41, ,
-2, ,41, ,
-2, ,41, ,
-2, ,41, ,
-2, ,41, ,
-2, ,41, ,
-1, ,41, ,
-2, ,41, ,
-2, ,41, ,
-2, ,41, ,
-2, ,41, ,
-2, ,41, ,
-2, ,41, ,
-2, ,41, ,
0, ,42, ,
-1, ,42, ,
-1, ,42, ,
0, ,42, ,
-1, ,41, ,
-1, ,41, ,
-2, ,41, ,
-1, ,42, ,
-2, ,42, ,
-2, ,42, ,
-2, ,42, ,
-2, ,41, ,
-2, ,41, ,
-2, ,41, ,
-2, ,42, ,
-3, ,42, ,
-2, ,42, ,
-2, ,41, ,
-2, ,41, ,
-3, ,41, ,
-3, ,41, ,
-3, ,41, ,
-4, ,41, ,
-3, ,42, ,
-2, ,41, ,
-3, ,41, ,
-2, ,41, ,
-1, ,41, ,
-2, ,42, ,
-1, ,42, ,
-2, ,41, ,
-3, ,41, ,
-1, ,41, ,
0, ,42, ,
0, ,42, ,
0, ,42, ,
0, ,41, ,
0, ,41, ,
0, ,41, ,
1, ,41, ,
2, ,41, ,
1, ,42, ,
1, ,41, ,
2, ,41, ,
2, ,41, ,
2, ,41, ,
1, ,41, ,
1, ,41, ,
3, ,41, ,
2, ,41, ,
2, ,41, ,
2, ,41, ,
1, ,41, ,
2, ,41, ,
0, ,41, ,
0, ,41, ,
0, ,41, ,
-1, ,42, ,
-1, ,42, ,
-1, ,42, ,
-2, ,42, ,
-1, ,42, ,
-3, ,41, ,
-4, ,41, ,
-3, ,41, ,
-5, ,41, ,
-4, ,41, ,
-5, ,42, ,
-6, ,41, ,
-6, ,41, ,
-7, ,41, ,
-7, ,41, ,
-7, ,41, ,
-8, ,41, ,
-8, ,41, ,
-7, ,41, ,
-7, ,41, ,
-7, ,42, ,
-8, ,42, ,
-7, ,42, ,
-5, ,41, ,
-7, ,41, ,
-7, ,41, ,
-5, ,41, ,
-5, ,41, ,
-4, ,41, ,
-5, ,41, ,
-3, ,41, ,
-3, ,41, ,
-4, ,41, ,
-2, ,41, ,
0, ,41, ,
0, ,41, ,
1, ,42, ,
1, ,42, ,
1, ,42, ,
1, ,41, ,
1, ,41, ,
2, ,41, ,
3, ,41, ,
3, ,41, ,
4, ,41, ,
3, ,41, ,
4, ,41, ,
5, ,41, ,
3, ,41, ,
5, ,41, ,
6, ,41, ,
5, ,41, ,
7, ,42, ,
6, ,41, ,
6, ,41, ,
6, ,41, ,
6, ,41, ,
8, ,41, ,
7, ,42, ,
7, ,41, ,
7, ,41, ,
7, ,41, ,
7, ,42, ,
7, ,41, ,
6, ,41, ,
7, ,42, ,
7, ,42, ,
6, ,42, ,
7, ,42, ,
6, ,42, ,
5, ,42, ,
7, ,42, ,
6, ,41, ,
6, ,41, ,
6, ,41, ,
5, ,42, ,
5, ,42, ,
4, ,41, ,
4, ,41, ,
5, ,41, ,
3, ,41, ,
4, ,41, ,
3, ,41, ,
3, ,41, ,
