raw_data/100% Glycerol, Impulsion 2Hz, Sonde 5MHz, Rampe 0.7Hz/temp0000190.CSV

Format,1.0B,
Memory Length,10000,Memory Length,10000,
IntpDistance,0,IntpDistance,0,
Trigger Address,159,Trigger Address,159,
Trigger Level,2.720E-01,Trigger Level,2.720E-01,
Source,CH1,Source,CH2,
Vertical Units,V,Vertical Units,V,
Vertical Units Div,0,Vertical Units Div,0,
Vertical Units Extend Div,16,Vertical Units Extend Div,16,
Label,,Label,,
Probe Type,0,Probe Type,0,
Probe Ratio,1.000e+00,Probe Ratio,1.000e+00,
Vertical Scale,2.000e-01,Vertical Scale,2.000e+00,
Vertical Position,0.000e+00,Vertical Position,0.000e+00,
Horizontal Units,S,Horizontal Units,S,
Horizontal Scale,5.000E-06,Horizontal Scale,5.000E-06,
Horizontal Position,2.420E-05,Horizontal Position,2.420E-05,
Horizontal Mode,Main,Horizontal Mode,Main,
SincET Mode,Real Time,SincET Mode,Real Time,
Sampling Period,5.000e-09,Sampling Period,5.000e-09,
Horizontal Old Scale,5.000E-06,Horizontal Old Scale,5.000E-06,
Horizontal Old Position,2.420E-05,Horizontal Old Position,2.420E-05,
Firmware,V1.32,Firmware,V1.32,
Mode,Fast,Mode,Fast,
Waveform Data,,Waveform Data,,
3, ,1, ,
3, ,1, ,
2, ,1, ,
2, ,1, ,
1, ,1, ,
2, ,1, ,
2, ,1, ,
2, ,1, ,
2, ,1, ,
2, ,2, ,
3, ,2, ,
2, ,2, ,
2, ,2, ,
2, ,2, ,
2, ,1, ,
2, ,1, ,
2, ,1, ,
2, ,1, ,
2, ,1, ,
2, ,1, ,
2, ,1, ,
1, ,1, ,
2, ,2, ,
1, ,2, ,
3, ,1, ,
3, ,1, ,
2, ,1, ,
2, ,1, ,
2, ,1, ,
2, ,1, ,
2, ,2, ,
2, ,2, ,
2, ,1, ,
2, ,1, ,
2, ,2, ,
2, ,2, ,
3, ,2, ,
3, ,2, ,
3, ,2, ,
2, ,1, ,
2, ,1, ,
2, ,1, ,
2, ,1, ,
2, ,1, ,
2, ,2, ,
2, ,2, ,
2, ,2, ,
1, ,1, ,
3, ,1, ,
3, ,1, ,
2, ,2, ,
2, ,1, ,
2, ,1, ,
1, ,1, ,
2, ,1, ,
1, ,2, ,
2, ,2, ,
3, ,2, ,
2, ,1, ,
2, ,1, ,
1, ,1, ,
1, ,1, ,
3, ,1, ,
2, ,2, ,
2, ,2, ,
2, ,2, ,
2, ,2, ,
2, ,2, ,
2, ,2, ,
2, ,2, ,
2, ,1, ,
2, ,1, ,
2, ,1, ,
3, ,2, ,
2, ,1, ,
2, ,1, ,
1, ,2, ,
2, ,1, ,
2, ,1, ,
2, ,2, ,
2, ,2, ,
2, ,1, ,
1, ,1, ,
2, ,2, ,
1, ,2, ,
1, ,2, ,
3, ,2, ,
2, ,2, ,
2, ,1, ,
2, ,1, ,
2, ,1, ,
2, ,1, ,
1, ,1, ,
3, ,1, ,
3, ,1, ,
2, ,1, ,
3, ,1, ,
2, ,2, ,
1, ,1, ,
2, ,1, ,
2, ,1, ,
1, ,1, ,
3, ,1, ,
2, ,2, ,
2, ,1, ,
2, ,1, ,
1, ,1, ,
1, ,1, ,
1, ,1, ,
2, ,1, ,
2, ,2, ,
1, ,2, ,
3, ,2, ,
2, ,2, ,
2, ,2, ,
2, ,1, ,
1, ,1, ,
2, ,1, ,
2, ,1, ,
2, ,1, ,
2, ,1, ,
2, ,1, ,
2, ,1, ,
2, ,1, ,
2, ,1, ,
2, ,1, ,
2, ,1, ,
1, ,2, ,
2, ,2, ,
3, ,2, ,
3, ,2, ,
3, ,2, ,
2, ,1, ,
1, ,1, ,
3, ,1, ,
2, ,1, ,
2, ,1, ,
3, ,1, ,
2, ,1, ,
2, ,1, ,
1, ,1, ,
2, ,1, ,
3, ,2, ,
2, ,2, ,
3, ,2, ,
3, ,2, ,
2, ,2, ,
3, ,1, ,
2, ,1, ,
3, ,1, ,
3, ,1, ,
2, ,2, ,
2, ,1, ,
3, ,1, ,
2, ,2, ,
2, ,2, ,
2, ,2, ,
2, ,2, ,
2, ,2, ,
1, ,2, ,
3, ,1, ,
3, ,1, ,
3, ,2, ,
3, ,1, ,
7, ,1, ,
1, ,1, ,
0, ,1, ,
3, ,1, ,
35, ,1, ,
125, ,1, ,
125, ,1, ,
125, ,1, ,
125, ,1, ,
116, ,1, ,
2, ,1, ,
-4, ,1, ,
105, ,2, ,
125, ,2, ,
125, ,2, ,
125, ,2, ,
125, ,2, ,
125, ,1, ,
125, ,1, ,
125, ,1, ,
125, ,1, ,
125, ,1, ,
125, ,2, ,
125, ,2, ,
125, ,2, ,
125, ,2, ,
125, ,1, ,
125, ,1, ,
125, ,2, ,
125, ,2, ,
125, ,2, ,
125, ,2, ,
125, ,2, ,
125, ,2, ,
125, ,2, ,
125, ,2, ,
125, ,2, ,
125, ,2, ,
124, ,2, ,
124, ,2, ,
118, ,1, ,
108, ,1, ,
107, ,1, ,
101, ,1, ,
98, ,2, ,
91, ,2, ,
85, ,2, ,
83, ,2, ,
78, ,2, ,
71, ,2, ,
69, ,2, ,
64, ,2, ,
62, ,2, ,
57, ,2, ,
54, ,1, ,
53, ,1, ,
48, ,1, ,
44, ,1, ,
42, ,1, ,
41, ,2, ,
39, ,2, ,
36, ,1, ,
33, ,1, ,
32, ,1, ,
31, ,1, ,
26, ,1, ,
26, ,1, ,
24, ,2, ,
24, ,2, ,
20, ,2, ,
19, ,2, ,
18, ,2, ,
16, ,2, ,
14, ,2, ,
15, ,1, ,
12, ,1, ,
13, ,1, ,
11, ,2, ,
10, ,2, ,
10, ,1, ,
9, ,1, ,
7, ,1, ,
6, ,1, ,
6, ,1, ,
6, ,1, ,
5, ,2, ,
4, ,1, ,
5, ,1, ,
4, ,2, ,
2, ,1, ,
2, ,1, ,
1, ,1, ,
1, ,1, ,
1, ,1, ,
0, ,2, ,
0, ,2, ,
0, ,2, ,
0, ,2, ,
0, ,1, ,
-1, ,1, ,
-1, ,1, ,
-1, ,2, ,
-1, ,1, ,
-1, ,1, ,
-2, ,2, ,
-2, ,1, ,
-2, ,1, ,
-2, ,1, ,
-2, ,1, ,
-2, ,1, ,
-3, ,1, ,
-2, ,1, ,
-2, ,1, ,
-3, ,1, ,
-3, ,1, ,
-3, ,2, ,
-3, ,2, ,
-3, ,2, ,
-5, ,1, ,
-3, ,1, ,
-3, ,1, ,
-3, ,1, ,
-2, ,1, ,
-4, ,2, ,
-2, ,1, ,
-2, ,1, ,
-4, ,1, ,
-2, ,1, ,
-3, ,1, ,
-4, ,1, ,
-3, ,2, ,
-3, ,2, ,
-3, ,2, ,
-2, ,2, ,
-2, ,1, ,
-2, ,1, ,
-2, ,2, ,
-2, ,1, ,
-1, ,1, ,
-4, ,1, ,
-2, ,2, ,
-2, ,2, ,
-3, ,2, ,
-1, ,2, ,
-2, ,2, ,
-2, ,2, ,
-1, ,2, ,
-2, ,2, ,
-1, ,2, ,
-2, ,2, ,
-1, ,1, ,
-1, ,1, ,
-2, ,2, ,
-2, ,2, ,
-2, ,1, ,
-1, ,1, ,
-1, ,1, ,
0, ,2, ,
-2, ,2, ,
-1, ,1, ,
-1, ,1, ,
0, ,1, ,
0, ,2, ,
-1, ,2, ,
0, ,2, ,
0, ,2, ,
0, ,2, ,
0, ,2, ,
-1, ,2, ,
0, ,2, ,
0, ,2, ,
-1, ,2, ,
0, ,2, ,
1, ,2, ,
0, ,1, ,
0, ,1, ,
-1, ,2, ,
-1, ,2, ,
0, ,2, ,
0, ,2, ,
1, ,1, ,
0, ,1, ,
0, ,2, ,
0, ,2, ,
0, ,2, ,
0, ,2, ,
2, ,2, ,
0, ,2, ,
1, ,2, ,
1, ,1, ,
0, ,1, ,
1, ,1, ,
0, ,2, ,
0, ,1, ,
2, ,1, ,
1, ,1, ,
1, ,1, ,
1, ,2, ,
1, ,2, ,
1, ,1, ,
0, ,1, ,
1, ,1, ,
1, ,1, ,
1, ,1, ,
2, ,1, ,
2, ,1, ,
1, ,2, ,
1, ,1, ,
1, ,1, ,
1, ,1, ,
1, ,1, ,
1, ,1, ,
1, ,1, ,
1, ,1, ,
1, ,2, ,
1, ,1, ,
1, ,1, ,
1, ,1, ,
2, ,1, ,
1, ,2, ,
1, ,1, ,
1, ,1, ,
1, ,2, ,
2, ,1, ,
0, ,1, ,
1, ,1, ,
1, ,1, ,
2, ,1, ,
1, ,1, ,
2, ,1, ,
1, ,1, ,
2, ,1, ,
1, ,2, ,
2, ,1, ,
2, ,1, ,
1, ,1, ,
2, ,2, ,
2, ,2, ,
0, ,2, ,
2, ,2, ,
2, ,1, ,
1, ,1, ,
2, ,2, ,
1, ,2, ,
2, ,2, ,
1, ,2, ,
2, ,2, ,
2, ,2, ,
0, ,2, ,
2, ,1, ,
3, ,1, ,
1, ,1, ,
2, ,1, ,
3, ,1, ,
2, ,1, ,
2, ,1, ,
1, ,2, ,
0, ,1, ,
1, ,1, ,
0, ,1, ,
1, ,1, ,
1, ,1, ,
1, ,1, ,
1, ,1, ,
0, ,1, ,
1, ,1, ,
2, ,1, ,
1, ,1, ,
1, ,1, ,
2, ,2, ,
1, ,2, ,
2, ,1, ,
0, ,1, ,
0, ,1, ,
0, ,1, ,
0, ,1, ,
-1, ,1, ,
-4, ,1, ,
-5, ,1, ,
-5, ,1, ,
-8, ,2, ,
-9, ,1, ,
-6, ,1, ,
-5, ,2, ,
-6, ,2, ,
-1, ,2, ,
-1, ,1, ,
0, ,1, ,
0, ,2, ,
2, ,1, ,
3, ,1, ,
2, ,2, ,
3, ,1, ,
4, ,1, ,
3, ,2, ,
4, ,1, ,
3, ,1, ,
4, ,1, ,
5, ,1, ,
4, ,2, ,
5, ,1, ,
4, ,1, ,
4, ,2, ,
4, ,2, ,
4, ,2, ,
3, ,2, ,
5, ,2, ,
3, ,1, ,
3, ,1, ,
4, ,1, ,
4, ,1, ,
4, ,1, ,
3, ,2, ,
2, ,1, ,
3, ,1, ,
1, ,2, ,
1, ,2, ,
0, ,2, ,
-1, ,2, ,
-1, ,2, ,
-1, ,1, ,
0, ,1, ,
0, ,1, ,
0, ,2, ,
1, ,1, ,
2, ,1, ,
2, ,2, ,
3, ,2, ,
2, ,2, ,
2, ,2, ,
4, ,2, ,
3, ,2, ,
4, ,2, ,
4, ,1, ,
3, ,1, ,
4, ,1, ,
3, ,1, ,
3, ,1, ,
3, ,1, ,
2, ,1, ,
3, ,1, ,
3, ,2, ,
2, ,2, ,
3, ,2, ,
1, ,2, ,
2, ,1, ,
2, ,1, ,
2, ,1, ,
2, ,1, ,
1, ,1, ,
0, ,1, ,
0, ,1, ,
0, ,1, ,
-2, ,1, ,
-3, ,2, ,
-3, ,2, ,
-4, ,1, ,
-5, ,1, ,
-5, ,1, ,
-5, ,1, ,
-6, ,2, ,
-6, ,1, ,
-6, ,1, ,
-7, ,1, ,
-6, ,1, ,
-8, ,1, ,
-9, ,2, ,
-8, ,2, ,
-10, ,2, ,
-12, ,1, ,
-12, ,1, ,
-15, ,1, ,
-16, ,1, ,
-18, ,2, ,
-21, ,2, ,
-22, ,1, ,
-25, ,1, ,
-27, ,1, ,
-26, ,1, ,
-28, ,2, ,
-29, ,1, ,
-26, ,1, ,
-27, ,2, ,
-24, ,1, ,
-24, ,1, ,
-22, ,1, ,
-21, ,1, ,
-21, ,1, ,
-21, ,1, ,
-23, ,2, ,
-25, ,1, ,
-24, ,1, ,
-28, ,2, ,
-31, ,1, ,
-33, ,1, ,
-34, ,1, ,
-34, ,1, ,
-35, ,1, ,
-35, ,2, ,
-35, ,1, ,
-32, ,1, ,
-29, ,1, ,
-26, ,1, ,
-24, ,2, ,
-22, ,1, ,
-15, ,1, ,
-14, ,1, ,
-12, ,1, ,
-10, ,2, ,
-8, ,1, ,
-8, ,1, ,
-9, ,2, ,
-7, ,2, ,
-7, ,2, ,
-7, ,2, ,
-6, ,2, ,
-8, ,1, ,
-4, ,1, ,
-2, ,1, ,
-1, ,2, ,
1, ,1, ,
3, ,1, ,
4, ,2, ,
4, ,1, ,
4, ,1, ,
3, ,1, ,
2, ,1, ,
2, ,1, ,
0, ,1, ,
-3, ,2, ,
-6, ,1, ,
-8, ,1, ,
-10, ,2, ,
-16, ,2, ,
-18, ,1, ,
-20, ,1, ,
-23, ,1, ,
-22, ,1, ,
-22, ,2, ,
-22, ,1, ,
-22, ,1, ,
-19, ,1, ,
-18, ,1, ,
-17, ,1, ,
-15, ,2, ,
-14, ,1, ,
-14, ,1, ,
-14, ,1, ,
-15, ,2, ,
-15, ,1, ,
-15, ,1, ,
-16, ,1, ,
-15, ,1, ,
-15, ,1, ,
-15, ,1, ,
-15, ,1, ,
-15, ,2, ,
-14, ,1, ,
-13, ,1, ,
-14, ,2, ,
-14, ,1, ,
-14, ,1, ,
-16, ,2, ,
-17, ,1, ,
-19, ,1, ,
-22, ,1, ,
-22, ,1, ,
-23, ,1, ,
-25, ,1, ,
-27, ,2, ,
-28, ,1, ,
-28, ,1, ,
-30, ,1, ,
-30, ,1, ,
-31, ,1, ,
-32, ,1, ,
-33, ,1, ,
-33, ,2, ,
-33, ,2, ,
-32, ,2, ,
-33, ,2, ,
-32, ,1, ,
-32, ,1, ,
-31, ,1, ,
-30, ,1, ,
-30, ,1, ,
-31, ,2, ,
-30, ,2, ,
-32, ,2, ,
-34, ,1, ,
-34, ,1, ,
-35, ,1, ,
-35, ,2, ,
-36, ,1, ,
-37, ,1, ,
-36, ,1, ,
-35, ,1, ,
-35, ,1, ,
-32, ,1, ,
-31, ,2, ,
-30, ,1, ,
-27, ,1, ,
-28, ,2, ,
-26, ,1, ,
-27, ,1, ,
-28, ,1, ,
-28, ,1, ,
-30, ,1, ,
-29, ,2, ,
-33, ,2, ,
-33, ,1, ,
-34, ,1, ,
-34, ,2, ,
-34, ,2, ,
-34, ,1, ,
-34, ,1, ,
-34, ,1, ,
-34, ,2, ,
-34, ,1, ,
-33, ,1, ,
-35, ,2, ,
-36, ,2, ,
-36, ,1, ,
-36, ,1, ,
-36, ,1, ,
-35, ,1, ,
-35, ,2, ,
-34, ,1, ,
-32, ,1, ,
-29, ,1, ,
-27, ,1, ,
-25, ,2, ,
-22, ,2, ,
-19, ,2, ,
-19, ,1, ,
-16, ,1, ,
-16, ,2, ,
-12, ,1, ,
-11, ,1, ,
-11, ,2, ,
-9, ,2, ,
-6, ,2, ,
-6, ,2, ,
-5, ,2, ,
-5, ,2, ,
-5, ,2, ,
-5, ,1, ,
-6, ,1, ,
-7, ,1, ,
-8, ,1, ,
-8, ,1, ,
-9, ,1, ,
-10, ,1, ,
-9, ,1, ,
-8, ,2, ,
-8, ,2, ,
-7, ,1, ,
-5, ,1, ,
-4, ,2, ,
-2, ,1, ,
-1, ,1, ,
1, ,1, ,
3, ,2, ,
5, ,2, ,
6, ,1, ,
8, ,1, ,
8, ,1, ,
11, ,1, ,
11, ,1, ,
13, ,2, ,
14, ,1, ,
14, ,1, ,
14, ,1, ,
16, ,2, ,
15, ,1, ,
16, ,1, ,
15, ,1, ,
15, ,1, ,
15, ,1, ,
14, ,1, ,
14, ,1, ,
12, ,2, ,
9, ,2, ,
10, ,2, ,
8, ,2, ,
6, ,2, ,
5, ,1, ,
4, ,1, ,
2, ,1, ,
-1, ,1, ,
-1, ,1, ,
-3, ,1, ,
-4, ,1, ,
-7, ,1, ,
-7, ,1, ,
-8, ,1, ,
-7, ,1, ,
-9, ,2, ,
-11, ,1, ,
-10, ,1, ,
-13, ,2, ,
-14, ,1, ,
-13, ,1, ,
-15, ,2, ,
-15, ,2, ,
-18, ,1, ,
-20, ,1, ,
-19, ,2, ,
-22, ,2, ,
-24, ,2, ,
-24, ,1, ,
-26, ,1, ,
-27, ,1, ,
-30, ,2, ,
-31, ,1, ,
-32, ,1, ,
-33, ,1, ,
-33, ,1, ,
-33, ,1, ,
-34, ,1, ,
-32, ,1, ,
-31, ,2, ,
-32, ,1, ,
-31, ,1, ,
-30, ,1, ,
-29, ,1, ,
-27, ,2, ,
-27, ,2, ,
-24, ,1, ,
-22, ,1, ,
-20, ,2, ,
-17, ,2, ,
-15, ,2, ,
-12, ,1, ,
-9, ,1, ,
-9, ,2, ,
-5, ,2, ,
-2, ,2, ,
-3, ,2, ,
0, ,2, ,
1, ,2, ,
0, ,1, ,
2, ,1, ,
1, ,2, ,
2, ,2, ,
2, ,2, ,
1, ,1, ,
1, ,1, ,
1, ,2, ,
1, ,1, ,
1, ,1, ,
0, ,1, ,
0, ,1, ,
0, ,1, ,
-1, ,1, ,
-1, ,1, ,
-2, ,2, ,
-1, ,2, ,
0, ,2, ,
0, ,2, ,
1, ,2, ,
2, ,2, ,
3, ,1, ,
3, ,1, ,
3, ,2, ,
6, ,2, ,
8, ,2, ,
8, ,2, ,
8, ,1, ,
10, ,1, ,
9, ,1, ,
10, ,1, ,
10, ,1, ,
10, ,1, ,
10, ,1, ,
9, ,1, ,
10, ,1, ,
9, ,1, ,
7, ,1, ,
7, ,1, ,
4, ,2, ,
2, ,2, ,
2, ,1, ,
0, ,1, ,
0, ,1, ,
-5, ,1, ,
-6, ,2, ,
-8, ,1, ,
-10, ,1, ,
-15, ,1, ,
-15, ,1, ,
-17, ,1, ,
-18, ,1, ,
-20, ,2, ,
-21, ,1, ,
-21, ,1, ,
-23, ,1, ,
-24, ,2, ,
-25, ,2, ,
-25, ,2, ,
-25, ,1, ,
-27, ,1, ,
-26, ,2, ,
-25, ,2, ,
-26, ,2, ,
-26, ,2, ,
-24, ,2, ,
-24, ,2, ,
-23, ,1, ,
-23, ,1, ,
-24, ,2, ,
-22, ,2, ,
-22, ,2, ,
-20, ,1, ,
-20, ,1, ,
-20, ,1, ,
-20, ,1, ,
-19, ,2, ,
-19, ,2, ,
-20, ,2, ,
-20, ,1, ,
-20, ,1, ,
-20, ,1, ,
-21, ,1, ,
-21, ,1, ,
-22, ,1, ,
-23, ,1, ,
-24, ,1, ,
-24, ,2, ,
-25, ,2, ,
-25, ,2, ,
-26, ,2, ,
-26, ,1, ,
-27, ,1, ,
-27, ,2, ,
-27, ,2, ,
-28, ,1, ,
-29, ,1, ,
-28, ,1, ,
-29, ,2, ,
-29, ,1, ,
-28, ,1, ,
-29, ,2, ,
-27, ,2, ,
-27, ,2, ,
-26, ,1, ,
-27, ,1, ,
-25, ,2, ,
-24, ,2, ,
-24, ,1, ,
-23, ,1, ,
-21, ,1, ,
-22, ,1, ,
-22, ,1, ,
-19, ,1, ,
-19, ,2, ,
-18, ,1, ,
-17, ,1, ,
-18, ,1, ,
-16, ,1, ,
-16, ,2, ,
-15, ,2, ,
-13, ,1, ,
-15, ,1, ,
-14, ,1, ,
-14, ,1, ,
-14, ,2, ,
-13, ,2, ,
-13, ,2, ,
-14, ,2, ,
-14, ,1, ,
-14, ,1, ,
-14, ,1, ,
-13, ,2, ,
-14, ,1, ,
-13, ,1, ,
-15, ,2, ,
-14, ,1, ,
-12, ,1, ,
-12, ,1, ,
-11, ,1, ,
-12, ,1, ,
-11, ,2, ,
-12, ,1, ,
-11, ,1, ,
-11, ,1, ,
-9, ,1, ,
-9, ,1, ,
-8, ,1, ,
-8, ,1, ,
-8, ,1, ,
-6, ,1, ,
-7, ,1, ,
-5, ,2, ,
-5, ,2, ,
-5, ,2, ,
-4, ,1, ,
-4, ,1, ,
-4, ,1, ,
-3, ,1, ,
-4, ,1, ,
-4, ,1, ,
-4, ,2, ,
-3, ,2, ,
-3, ,1, ,
-3, ,1, ,
-3, ,2, ,
-2, ,2, ,
-3, ,2, ,
-2, ,1, ,
-1, ,1, ,
-3, ,2, ,
-1, ,2, ,
-1, ,2, ,
-2, ,2, ,
-2, ,1, ,
-2, ,1, ,
-2, ,1, ,
-2, ,1, ,
-2, ,1, ,
-2, ,1, ,
-3, ,2, ,
-3, ,1, ,
-3, ,1, ,
-4, ,1, ,
-4, ,1, ,
-4, ,1, ,
-4, ,1, ,
-4, ,1, ,
-4, ,1, ,
-5, ,2, ,
-5, ,1, ,
-6, ,1, ,
-6, ,1, ,
-5, ,1, ,
-6, ,1, ,
-6, ,1, ,
-5, ,2, ,
-6, ,2, ,
-5, ,1, ,
-7, ,1, ,
-6, ,1, ,
-6, ,1, ,
-6, ,2, ,
-6, ,2, ,
-7, ,2, ,
-7, ,1, ,
-7, ,1, ,
-8, ,1, ,
-9, ,1, ,
-7, ,1, ,
-8, ,2, ,
-8, ,2, ,
-8, ,2, ,
-9, ,1, ,
-8, ,1, ,
-9, ,1, ,
-9, ,1, ,
-9, ,2, ,
-9, ,2, ,
-9, ,1, ,
-10, ,1, ,
-10, ,1, ,
-10, ,1, ,
-11, ,1, ,
-11, ,1, ,
-11, ,1, ,
-12, ,2, ,
-11, ,2, ,
-10, ,2, ,
-10, ,2, ,
-9, ,2, ,
-10, ,2, ,
-9, ,2, ,
-8, ,2, ,
-9, ,2, ,
-8, ,2, ,
-9, ,2, ,
-9, ,1, ,
-9, ,1, ,
-10, ,2, ,
-10, ,2, ,
-9, ,1, ,
-10, ,1, ,
-9, ,1, ,
-9, ,2, ,
-9, ,2, ,
-9, ,1, ,
-9, ,1, ,
-9, ,1, ,
-6, ,1, ,
-7, ,2, ,
-5, ,2, ,
-5, ,2, ,
-5, ,1, ,
-4, ,1, ,
-4, ,2, ,
-3, ,2, ,
-1, ,1, ,
0, ,1, ,
2, ,1, ,
5, ,2, ,
6, ,2, ,
8, ,1, ,
7, ,1, ,
10, ,1, ,
10, ,2, ,
10, ,2, ,
11, ,2, ,
12, ,2, ,
11, ,2, ,
12, ,1, ,
12, ,1, ,
10, ,1, ,
10, ,1, ,
10, ,2, ,
10, ,2, ,
9, ,2, ,
8, ,2, ,
7, ,1, ,
6, ,1, ,
5, ,1, ,
4, ,1, ,
3, ,1, ,
3, ,1, ,
3, ,2, ,
1, ,1, ,
1, ,1, ,
0, ,2, ,
-1, ,2, ,
0, ,1, ,
0, ,1, ,
-1, ,1, ,
0, ,2, ,
0, ,1, ,
1, ,1, ,
0, ,1, ,
2, ,1, ,
2, ,1, ,
2, ,2, ,
2, ,1, ,
4, ,1, ,
3, ,2, ,
5, ,2, ,
4, ,2, ,
4, ,1, ,
5, ,1, ,
5, ,2, ,
6, ,1, ,
7, ,1, ,
5, ,1, ,
6, ,1, ,
5, ,2, ,
6, ,2, ,
7, ,1, ,
6, ,1, ,
5, ,1, ,
5, ,1, ,
3, ,1, ,
4, ,1, ,
3, ,1, ,
2, ,1, ,
2, ,2, ,
2, ,2, ,
2, ,1, ,
1, ,1, ,
1, ,1, ,
1, ,1, ,
0, ,1, ,
1, ,1, ,
1, ,1, ,
1, ,1, ,
1, ,1, ,
0, ,1, ,
0, ,2, ,
1, ,2, ,
0, ,2, ,
1, ,2, ,
3, ,2, ,
3, ,2, ,
3, ,1, ,
5, ,1, ,
4, ,2, ,
5, ,2, ,
5, ,2, ,
5, ,2, ,
6, ,1, ,
5, ,1, ,
6, ,1, ,
7, ,1, ,
5, ,2, ,
5, ,1, ,
4, ,1, ,
3, ,1, ,
5, ,1, ,
4, ,1, ,
5, ,1, ,
3, ,1, ,
2, ,1, ,
2, ,1, ,
1, ,1, ,
0, ,1, ,
0, ,1, ,
-1, ,1, ,
-1, ,1, ,
-1, ,2, ,
-2, ,2, ,
-1, ,1, ,
-2, ,1, ,
-4, ,1, ,
-2, ,1, ,
-2, ,2, ,
-1, ,2, ,
-1, ,2, ,
-3, ,2, ,
0, ,2, ,
-2, ,2, ,
0, ,2, ,
0, ,1, ,
0, ,1, ,
1, ,1, ,
2, ,1, ,
2, ,2, ,
3, ,2, ,
3, ,2, ,
1, ,1, ,
2, ,1, ,
1, ,1, ,
2, ,1, ,
2, ,2, ,
0, ,1, ,
0, ,1, ,
-2, ,2, ,
-3, ,2, ,
-3, ,1, ,
-4, ,1, ,
-3, ,2, ,
-4, ,2, ,
-6, ,2, ,
-5, ,2, ,
-7, ,1, ,
-7, ,1, ,
-8, ,1, ,
-9, ,1, ,
-8, ,1, ,
-8, ,2, ,
-8, ,2, ,
-8, ,1, ,
-7, ,1, ,
-7, ,1, ,
-5, ,1, ,
-6, ,2, ,
-5, ,1, ,
-4, ,1, ,
-5, ,2, ,
-3, ,1, ,
-4, ,1, ,
-3, ,1, ,
-1, ,1, ,
0, ,2, ,
0, ,1, ,
0, ,1, ,
-1, ,2, ,
0, ,2, ,
-1, ,2, ,
0, ,1, ,
0, ,1, ,
0, ,2, ,
0, ,2, ,
-1, ,2, ,
-2, ,2, ,
-2, ,1, ,
-3, ,1, ,
-4, ,1, ,
-4, ,1, ,
-4, ,1, ,
-4, ,1, ,
-5, ,1, ,
-6, ,1, ,
-6, ,1, ,
-6, ,1, ,
-6, ,1, ,
-6, ,1, ,
-7, ,1, ,
-5, ,1, ,
-6, ,1, ,
-6, ,1, ,
-6, ,1, ,
-7, ,2, ,
-6, ,2, ,
-5, ,2, ,
-5, ,2, ,
-4, ,2, ,
-4, ,2, ,
-4, ,1, ,
-4, ,1, ,
-4, ,2, ,
-4, ,2, ,
-3, ,1, ,
-4, ,1, ,
-3, ,1, ,
-3, ,2, ,
-4, ,1, ,
-4, ,1, ,
-4, ,2, ,
-4, ,1, ,
-4, ,1, ,
-5, ,1, ,
-5, ,1, ,
-5, ,2, ,
-5, ,1, ,
-5, ,1, ,
-6, ,1, ,
-6, ,1, ,
-6, ,2, ,
-7, ,2, ,
-7, ,2, ,
-7, ,1, ,
-7, ,1, ,
-7, ,2, ,
-7, ,2, ,
-7, ,2, ,
-5, ,2, ,
-6, ,2, ,
-6, ,2, ,
-6, ,2, ,
-6, ,2, ,
-5, ,2, ,
-5, ,2, ,
-5, ,2, ,
-5, ,2, ,
-5, ,2, ,
-4, ,1, ,
-4, ,1, ,
-4, ,2, ,
-3, ,2, ,
-4, ,2, ,
-3, ,2, ,
-3, ,1, ,
-2, ,1, ,
-2, ,1, ,
-2, ,1, ,
-2, ,1, ,
-2, ,1, ,
-2, ,1, ,
-2, ,1, ,
0, ,1, ,
-2, ,1, ,
-2, ,1, ,
-1, ,2, ,
-3, ,2, ,
-1, ,1, ,
-1, ,1, ,
-2, ,1, ,
-2, ,1, ,
-2, ,1, ,
-3, ,1, ,
-3, ,1, ,
-3, ,1, ,
-4, ,1, ,
-4, ,1, ,
-3, ,1, ,
-3, ,1, ,
-3, ,2, ,
-3, ,2, ,
-3, ,2, ,
-4, ,1, ,
-4, ,1, ,
-3, ,1, ,
-4, ,1, ,
-3, ,1, ,
-3, ,2, ,
-3, ,2, ,
-2, ,2, ,
-3, ,2, ,
-2, ,2, ,
-2, ,2, ,
-2, ,1, ,
-2, ,1, ,
-3, ,1, ,
-1, ,1, ,
-1, ,2, ,
-2, ,2, ,
-1, ,1, ,
-2, ,1, ,
-1, ,1, ,
-1, ,1, ,
-1, ,1, ,
-1, ,1, ,
0, ,1, ,
-1, ,1, ,
0, ,1, ,
-1, ,1, ,
-1, ,1, ,
0, ,1, ,
0, ,1, ,
0, ,2, ,
-1, ,2, ,
-2, ,2, ,
-1, ,2, ,
-1, ,2, ,
-2, ,1, ,
-1, ,1, ,
-1, ,2, ,
-1, ,2, ,
-2, ,2, ,
-2, ,2, ,
-1, ,2, ,
-2, ,2, ,
-3, ,2, ,
-2, ,1, ,
-3, ,1, ,
-1, ,1, ,
-1, ,1, ,
-2, ,2, ,
-2, ,2, ,
-2, ,2, ,
-2, ,1, ,
-1, ,1, ,
-2, ,1, ,
-2, ,1, ,
-1, ,1, ,
-2, ,1, ,
-1, ,1, ,
-1, ,2, ,
-1, ,1, ,
0, ,1, ,
-1, ,1, ,
0, ,1, ,
0, ,2, ,
0, ,2, ,
0, ,1, ,
-1, ,1, ,
0, ,1, ,
0, ,2, ,
0, ,1, ,
0, ,1, ,
0, ,1, ,
0, ,2, ,
0, ,2, ,
0, ,2, ,
1, ,1, ,
2, ,1, ,
1, ,2, ,
2, ,2, ,
3, ,2, ,
3, ,2, ,
4, ,1, ,
3, ,1, ,
3, ,1, ,
5, ,1, ,
4, ,1, ,
5, ,1, ,
5, ,2, ,
5, ,2, ,
5, ,1, ,
5, ,1, ,
5, ,1, ,
4, ,2, ,
4, ,2, ,
4, ,1, ,
4, ,1, ,
3, ,2, ,
3, ,2, ,
2, ,2, ,
1, ,2, ,
2, ,1, ,
1, ,1, ,
1, ,1, ,
0, ,2, ,
0, ,1, ,
0, ,1, ,
-1, ,2, ,
-1, ,1, ,
-1, ,1, ,
-2, ,2, ,
-1, ,1, ,
-2, ,1, ,
-2, ,1, ,
-2, ,1, ,
-2, ,1, ,
-2, ,1, ,
-2, ,1, ,
-3, ,1, ,
-2, ,1, ,
-3, ,2, ,
-3, ,1, ,
-2, ,1, ,
-2, ,2, ,
-2, ,2, ,
0, ,2, ,
-1, ,2, ,
-1, ,1, ,
-2, ,1, ,
-3, ,2, ,
-2, ,1, ,
-2, ,1, ,
-3, ,1, ,
-3, ,1, ,
-4, ,1, ,
-3, ,1, ,
-4, ,2, ,
-3, ,2, ,
-3, ,2, ,
-3, ,2, ,
-2, ,2, ,
-2, ,2, ,
-2, ,2, ,
-2, ,1, ,
-2, ,1, ,
-3, ,2, ,
-2, ,1, ,
-2, ,1, ,
-2, ,1, ,
0, ,2, ,
-1, ,1, ,
0, ,1, ,
0, ,1, ,
0, ,2, ,
0, ,1, ,
0, ,1, ,
1, ,1, ,
2, ,1, ,
1, ,1, ,
3, ,2, ,
3, ,2, ,
2, ,2, ,
3, ,2, ,
2, ,2, ,
1, ,2, ,
2, ,1, ,
1, ,1, ,
2, ,1, ,
2, ,2, ,
2, ,2, ,
1, ,1, ,
1, ,1, ,
1, ,1, ,
1, ,1, ,
0, ,1, ,
0, ,1, ,
0, ,1, ,
0, ,2, ,
0, ,1, ,
0, ,1, ,
-1, ,1, ,
-1, ,1, ,
-1, ,1, ,
0, ,1, ,
-1, ,2, ,
-1, ,2, ,
-1, ,1, ,
-2, ,1, ,
-2, ,1, ,
-2, ,1, ,
-2, ,1, ,
-2, ,1, ,
-1, ,2, ,
-2, ,2, ,
-2, ,1, ,
-1, ,1, ,
-2, ,1, ,
-1, ,2, ,
-2, ,1, ,
-2, ,1, ,
-1, ,1, ,
-2, ,1, ,
0, ,1, ,
-2, ,2, ,
-2, ,2, ,
-1, ,2, ,
-2, ,2, ,
0, ,1, ,
-1, ,1, ,
-2, ,1, ,
-1, ,1, ,
-2, ,1, ,
-2, ,1, ,
-1, ,1, ,
-2, ,1, ,
0, ,1, ,
1, ,2, ,
0, ,1, ,
0, ,1, ,
0, ,2, ,
1, ,2, ,
2, ,2, ,
1, ,2, ,
2, ,1, ,
2, ,1, ,
1, ,2, ,
3, ,2, ,
3, ,2, ,
3, ,1, ,
3, ,1, ,
3, ,2, ,
3, ,2, ,
5, ,2, ,
5, ,2, ,
5, ,2, ,
5, ,2, ,
5, ,1, ,
5, ,1, ,
5, ,2, ,
6, ,2, ,
6, ,2, ,
5, ,2, ,
5, ,1, ,
5, ,1, ,
4, ,1, ,
4, ,1, ,
4, ,2, ,
3, ,2, ,
4, ,2, ,
2, ,1, ,
3, ,1, ,
1, ,2, ,
0, ,2, ,
0, ,2, ,
-1, ,2, ,
-1, ,2, ,
0, ,1, ,
-2, ,1, ,
-1, ,1, ,
-2, ,1, ,
-3, ,1, ,
-3, ,2, ,
-3, ,2, ,
-3, ,1, ,
-3, ,1, ,
-4, ,1, ,
-3, ,1, ,
-5, ,2, ,
-4, ,2, ,
-3, ,1, ,
-4, ,1, ,
-2, ,1, ,
-1, ,1, ,
-3, ,2, ,
0, ,1, ,
-1, ,1, ,
0, ,1, ,
2, ,2, ,
1, ,2, ,
4, ,2, ,
4, ,2, ,
5, ,2, ,
7, ,2, ,
6, ,2, ,
8, ,2, ,
9, ,1, ,
9, ,1, ,
10, ,2, ,
11, ,1, ,
11, ,1, ,
12, ,1, ,
12, ,1, ,
12, ,1, ,
13, ,1, ,
12, ,1, ,
12, ,1, ,
12, ,2, ,
11, ,1, ,
12, ,1, ,
11, ,1, ,
10, ,2, ,
10, ,1, ,
8, ,1, ,
9, ,1, ,
8, ,1, ,
7, ,1, ,
7, ,2, ,
6, ,2, ,
5, ,2, ,
4, ,1, ,
4, ,1, ,
3, ,1, ,
2, ,2, ,
0, ,1, ,
0, ,1, ,
0, ,1, ,
-1, ,1, ,
0, ,2, ,
-1, ,1, ,
0, ,1, ,
0, ,1, ,
-3, ,1, ,
-1, ,1, ,
-2, ,1, ,
-2, ,1, ,
-2, ,1, ,
-2, ,1, ,
-1, ,1, ,
-1, ,2, ,
-1, ,1, ,
0, ,1, ,
-1, ,1, ,
-2, ,1, ,
0, ,1, ,
0, ,1, ,
1, ,1, ,
1, ,2, ,
1, ,2, ,
2, ,1, ,
2, ,1, ,
1, ,1, ,
3, ,1, ,
3, ,1, ,
3, ,1, ,
4, ,1, ,
3, ,2, ,
4, ,1, ,
3, ,1, ,
2, ,1, ,
3, ,1, ,
1, ,1, ,
4, ,2, ,
2, ,2, ,
1, ,2, ,
2, ,1, ,
0, ,1, ,
0, ,1, ,
0, ,1, ,
0, ,2, ,
0, ,2, ,
-1, ,2, ,
-2, ,2, ,
-2, ,2, ,
-3, ,2, ,
-4, ,2, ,
-2, ,2, ,
-4, ,2, ,
-4, ,2, ,
-3, ,2, ,
-5, ,2, ,
-4, ,2, ,
-4, ,1, ,
-4, ,1, ,
-4, ,2, ,
-5, ,2, ,
-4, ,2, ,
-3, ,2, ,
-4, ,2, ,
-4, ,1, ,
-4, ,1, ,
-4, ,1, ,
-4, ,1, ,
-4, ,2, ,
-4, ,1, ,
-3, ,1, ,
-2, ,1, ,
-2, ,1, ,
-3, ,1, ,
-4, ,1, ,
-3, ,1, ,
-3, ,1, ,
-3, ,1, ,
-3, ,2, ,
-3, ,2, ,
-3, ,2, ,
-3, ,2, ,
-4, ,2, ,
-3, ,1, ,
-5, ,1, ,
-3, ,1, ,
-4, ,1, ,
-5, ,2, ,
-4, ,2, ,
-4, ,2, ,
-4, ,2, ,
-4, ,2, ,
-4, ,2, ,
-4, ,2, ,
-3, ,2, ,
-4, ,1, ,
-3, ,1, ,
-5, ,1, ,
-4, ,1, ,
-3, ,1, ,
-4, ,1, ,
-3, ,1, ,
-2, ,2, ,
-4, ,1, ,
-1, ,1, ,
-2, ,2, ,
-2, ,2, ,
-1, ,1, ,
-1, ,1, ,
0, ,1, ,
0, ,1, ,
-1, ,1, ,
0, ,1, ,
-2, ,2, ,
0, ,2, ,
0, ,1, ,
-1, ,1, ,
0, ,1, ,
1, ,1, ,
0, ,1, ,
1, ,2, ,
1, ,2, ,
0, ,2, ,
2, ,1, ,
0, ,1, ,
1, ,1, ,
2, ,1, ,
1, ,1, ,
2, ,1, ,
2, ,1, ,
2, ,1, ,
3, ,1, ,
2, ,2, ,
3, ,1, ,
2, ,1, ,
1, ,1, ,
3, ,1, ,
2, ,1, ,
2, ,1, ,
3, ,1, ,
3, ,1, ,
3, ,1, ,
4, ,2, ,
2, ,2, ,
2, ,2, ,
2, ,2, ,
3, ,2, ,
3, ,2, ,
2, ,2, ,
2, ,1, ,
3, ,1, ,
2, ,1, ,
4, ,1, ,
3, ,1, ,
2, ,1, ,
4, ,1, ,
2, ,1, ,
3, ,1, ,
2, ,1, ,
2, ,1, ,
3, ,1, ,
1, ,2, ,
3, ,1, ,
4, ,1, ,
3, ,1, ,
4, ,1, ,
5, ,1, ,
4, ,2, ,
4, ,2, ,
4, ,2, ,
5, ,2, ,
5, ,2, ,
5, ,1, ,
5, ,1, ,
6, ,1, ,
5, ,1, ,
5, ,1, ,
5, ,1, ,
5, ,2, ,
5, ,1, ,
5, ,1, ,
6, ,1, ,
6, ,2, ,
6, ,2, ,
7, ,1, ,
5, ,1, ,
4, ,1, ,
6, ,2, ,
5, ,2, ,
6, ,2, ,
5, ,2, ,
5, ,2, ,
5, ,2, ,
5, ,2, ,
5, ,1, ,
6, ,1, ,
3, ,1, ,
5, ,1, ,
5, ,2, ,
4, ,2, ,
5, ,1, ,
4, ,1, ,
3, ,1, ,
5, ,2, ,
4, ,2, ,
6, ,2, ,
5, ,2, ,
4, ,1, ,
5, ,1, ,
3, ,1, ,
4, ,1, ,
5, ,2, ,
4, ,2, ,
5, ,2, ,
5, ,2, ,
4, ,2, ,
4, ,1, ,
5, ,1, ,
4, ,1, ,
4, ,2, ,
3, ,2, ,
5, ,2, ,
5, ,2, ,
3, ,1, ,
4, ,1, ,
3, ,2, ,
4, ,2, ,
4, ,2, ,
4, ,2, ,
4, ,1, ,
3, ,1, ,
2, ,2, ,
4, ,1, ,
3, ,1, ,
2, ,1, ,
4, ,2, ,
3, ,1, ,
3, ,1, ,
2, ,1, ,
2, ,1, ,
2, ,1, ,
2, ,2, ,
1, ,2, ,
2, ,2, ,
2, ,2, ,
2, ,1, ,
2, ,1, ,
2, ,2, ,
2, ,1, ,
1, ,1, ,
2, ,1, ,
2, ,2, ,
2, ,2, ,
2, ,2, ,
2, ,2, ,
1, ,1, ,
2, ,1, ,
2, ,1, ,
2, ,1, ,
2, ,2, ,
1, ,2, ,
2, ,1, ,
2, ,1, ,
2, ,1, ,
2, ,1, ,
1, ,2, ,
1, ,2, ,
2, ,2, ,
2, ,2, ,
2, ,2, ,
2, ,2, ,
1, ,1, ,
2, ,1, ,
1, ,2, ,
2, ,1, ,
2, ,1, ,
1, ,2, ,
2, ,2, ,
2, ,2, ,
1, ,2, ,
2, ,1, ,
0, ,1, ,
0, ,1, ,
1, ,1, ,
1, ,1, ,
1, ,1, ,
1, ,1, ,
0, ,1, ,
1, ,1, ,
1, ,1, ,
1, ,1, ,
1, ,1, ,
1, ,2, ,
1, ,1, ,
2, ,1, ,
2, ,2, ,
2, ,2, ,
2, ,2, ,
3, ,2, ,
3, ,2, ,
2, ,1, ,
2, ,1, ,
3, ,1, ,
3, ,1, ,
4, ,1, ,
2, ,1, ,
2, ,1, ,
3, ,1, ,
4, ,1, ,
4, ,1, ,
