raw_data/100% Glycerol, Impulsion 2Hz, Sonde 5MHz, Rampe 0.7Hz/temp0000387.CSV

Format,1.0B,
Memory Length,10000,Memory Length,10000,
IntpDistance,0,IntpDistance,0,
Trigger Address,159,Trigger Address,159,
Trigger Level,2.720E-01,Trigger Level,2.720E-01,
Source,CH1,Source,CH2,
Vertical Units,V,Vertical Units,V,
Vertical Units Div,0,Vertical Units Div,0,
Vertical Units Extend Div,16,Vertical Units Extend Div,16,
Label,,Label,,
Probe Type,0,Probe Type,0,
Probe Ratio,1.000e+00,Probe Ratio,1.000e+00,
Vertical Scale,2.000e-01,Vertical Scale,2.000e+00,
Vertical Position,0.000e+00,Vertical Position,0.000e+00,
Horizontal Units,S,Horizontal Units,S,
Horizontal Scale,5.000E-06,Horizontal Scale,5.000E-06,
Horizontal Position,2.420E-05,Horizontal Position,2.420E-05,
Horizontal Mode,Main,Horizontal Mode,Main,
SincET Mode,Real Time,SincET Mode,Real Time,
Sampling Period,5.000e-09,Sampling Period,5.000e-09,
Horizontal Old Scale,5.000E-06,Horizontal Old Scale,5.000E-06,
Horizontal Old Position,2.420E-05,Horizontal Old Position,2.420E-05,
Firmware,V1.32,Firmware,V1.32,
Mode,Fast,Mode,Fast,
Waveform Data,,Waveform Data,,
1, ,9, ,
2, ,9, ,
1, ,9, ,
1, ,9, ,
1, ,9, ,
1, ,9, ,
2, ,9, ,
1, ,9, ,
0, ,9, ,
1, ,9, ,
0, ,9, ,
2, ,9, ,
2, ,9, ,
1, ,9, ,
1, ,9, ,
1, ,9, ,
1, ,9, ,
2, ,9, ,
1, ,9, ,
1, ,9, ,
1, ,9, ,
0, ,9, ,
2, ,9, ,
1, ,9, ,
1, ,9, ,
1, ,9, ,
2, ,9, ,
2, ,9, ,
1, ,9, ,
1, ,9, ,
1, ,9, ,
0, ,9, ,
1, ,9, ,
2, ,9, ,
1, ,9, ,
1, ,9, ,
1, ,9, ,
1, ,9, ,
2, ,9, ,
1, ,9, ,
1, ,9, ,
2, ,9, ,
1, ,9, ,
2, ,9, ,
2, ,9, ,
1, ,9, ,
2, ,9, ,
0, ,9, ,
1, ,9, ,
2, ,9, ,
1, ,9, ,
1, ,9, ,
2, ,9, ,
2, ,9, ,
1, ,9, ,
1, ,9, ,
1, ,9, ,
2, ,9, ,
1, ,9, ,
2, ,9, ,
2, ,9, ,
1, ,9, ,
1, ,9, ,
0, ,9, ,
1, ,9, ,
1, ,9, ,
1, ,9, ,
1, ,9, ,
1, ,9, ,
1, ,9, ,
1, ,9, ,
1, ,9, ,
0, ,9, ,
1, ,9, ,
1, ,9, ,
1, ,9, ,
2, ,9, ,
1, ,9, ,
2, ,9, ,
1, ,9, ,
1, ,9, ,
1, ,9, ,
1, ,9, ,
1, ,9, ,
1, ,9, ,
1, ,9, ,
1, ,9, ,
1, ,9, ,
1, ,9, ,
0, ,9, ,
2, ,9, ,
2, ,9, ,
2, ,9, ,
1, ,9, ,
2, ,9, ,
1, ,9, ,
1, ,9, ,
1, ,9, ,
1, ,9, ,
1, ,9, ,
1, ,9, ,
1, ,9, ,
2, ,9, ,
2, ,9, ,
1, ,9, ,
1, ,9, ,
1, ,9, ,
1, ,9, ,
2, ,9, ,
1, ,9, ,
1, ,9, ,
1, ,9, ,
1, ,9, ,
2, ,9, ,
1, ,9, ,
2, ,9, ,
2, ,9, ,
1, ,9, ,
1, ,9, ,
1, ,9, ,
0, ,9, ,
2, ,9, ,
1, ,9, ,
1, ,9, ,
1, ,9, ,
1, ,9, ,
1, ,9, ,
0, ,9, ,
1, ,9, ,
1, ,9, ,
1, ,9, ,
1, ,9, ,
1, ,9, ,
1, ,9, ,
1, ,9, ,
2, ,9, ,
1, ,9, ,
1, ,9, ,
2, ,9, ,
1, ,9, ,
2, ,9, ,
1, ,9, ,
1, ,9, ,
1, ,9, ,
1, ,9, ,
1, ,9, ,
0, ,9, ,
1, ,9, ,
2, ,9, ,
1, ,9, ,
1, ,9, ,
1, ,9, ,
1, ,9, ,
1, ,9, ,
0, ,9, ,
1, ,9, ,
1, ,9, ,
1, ,9, ,
1, ,9, ,
1, ,9, ,
1, ,9, ,
2, ,9, ,
1, ,9, ,
1, ,9, ,
-1, ,9, ,
-3, ,9, ,
0, ,9, ,
-3, ,9, ,
62, ,9, ,
125, ,9, ,
125, ,9, ,
125, ,9, ,
122, ,9, ,
117, ,9, ,
49, ,9, ,
-22, ,9, ,
125, ,9, ,
125, ,9, ,
125, ,9, ,
125, ,9, ,
125, ,9, ,
125, ,9, ,
125, ,9, ,
125, ,9, ,
125, ,9, ,
125, ,9, ,
125, ,9, ,
125, ,9, ,
125, ,9, ,
125, ,9, ,
125, ,9, ,
125, ,9, ,
125, ,9, ,
125, ,9, ,
125, ,9, ,
125, ,9, ,
125, ,9, ,
125, ,9, ,
125, ,9, ,
125, ,9, ,
125, ,9, ,
125, ,9, ,
124, ,9, ,
124, ,9, ,
117, ,9, ,
112, ,9, ,
107, ,9, ,
103, ,9, ,
95, ,9, ,
91, ,9, ,
86, ,9, ,
83, ,9, ,
76, ,9, ,
71, ,9, ,
68, ,9, ,
66, ,9, ,
58, ,9, ,
58, ,9, ,
54, ,9, ,
53, ,9, ,
48, ,9, ,
45, ,9, ,
44, ,9, ,
39, ,9, ,
36, ,9, ,
36, ,9, ,
34, ,9, ,
32, ,9, ,
30, ,9, ,
26, ,9, ,
25, ,9, ,
25, ,9, ,
20, ,9, ,
20, ,9, ,
18, ,9, ,
18, ,9, ,
16, ,9, ,
15, ,9, ,
15, ,9, ,
13, ,9, ,
12, ,9, ,
11, ,9, ,
9, ,9, ,
9, ,9, ,
8, ,9, ,
6, ,9, ,
6, ,9, ,
5, ,9, ,
4, ,9, ,
4, ,9, ,
4, ,9, ,
4, ,9, ,
4, ,9, ,
2, ,9, ,
2, ,9, ,
0, ,9, ,
0, ,9, ,
0, ,9, ,
0, ,9, ,
0, ,9, ,
0, ,9, ,
-2, ,9, ,
0, ,9, ,
-1, ,9, ,
-2, ,9, ,
-2, ,9, ,
-1, ,9, ,
-2, ,9, ,
-3, ,9, ,
-3, ,9, ,
-2, ,9, ,
-3, ,9, ,
-3, ,9, ,
-3, ,9, ,
-4, ,9, ,
-3, ,9, ,
-2, ,9, ,
-3, ,9, ,
-2, ,9, ,
-4, ,9, ,
-3, ,9, ,
-3, ,9, ,
-3, ,9, ,
-3, ,9, ,
-3, ,9, ,
-4, ,9, ,
-3, ,9, ,
-4, ,9, ,
-3, ,9, ,
-3, ,9, ,
-3, ,9, ,
-3, ,9, ,
-3, ,9, ,
-4, ,9, ,
-3, ,9, ,
-3, ,9, ,
-3, ,9, ,
-2, ,9, ,
-3, ,9, ,
-3, ,9, ,
-2, ,9, ,
-3, ,9, ,
-3, ,9, ,
-4, ,9, ,
-4, ,9, ,
-3, ,9, ,
-3, ,9, ,
-3, ,9, ,
-2, ,9, ,
-4, ,9, ,
-2, ,9, ,
-2, ,9, ,
-2, ,9, ,
-2, ,9, ,
-2, ,9, ,
-1, ,9, ,
-2, ,9, ,
-2, ,9, ,
-1, ,9, ,
-2, ,9, ,
-2, ,9, ,
-2, ,9, ,
-2, ,9, ,
-1, ,9, ,
-1, ,9, ,
-2, ,9, ,
-1, ,9, ,
-1, ,9, ,
-1, ,9, ,
-1, ,9, ,
-1, ,9, ,
-1, ,9, ,
-1, ,9, ,
-1, ,9, ,
1, ,9, ,
-1, ,9, ,
-1, ,9, ,
-1, ,9, ,
-2, ,9, ,
0, ,9, ,
0, ,9, ,
-1, ,9, ,
0, ,9, ,
-1, ,9, ,
0, ,9, ,
0, ,9, ,
-1, ,9, ,
0, ,9, ,
0, ,9, ,
0, ,9, ,
0, ,9, ,
0, ,9, ,
-1, ,9, ,
0, ,9, ,
0, ,9, ,
0, ,9, ,
0, ,9, ,
-1, ,9, ,
0, ,9, ,
0, ,9, ,
0, ,9, ,
0, ,9, ,
0, ,9, ,
0, ,9, ,
0, ,9, ,
0, ,9, ,
0, ,9, ,
0, ,9, ,
-1, ,9, ,
0, ,9, ,
0, ,9, ,
1, ,9, ,
0, ,9, ,
0, ,9, ,
0, ,9, ,
0, ,9, ,
0, ,9, ,
1, ,9, ,
0, ,9, ,
0, ,9, ,
0, ,9, ,
0, ,9, ,
0, ,9, ,
0, ,9, ,
0, ,9, ,
1, ,9, ,
0, ,9, ,
2, ,9, ,
1, ,9, ,
0, ,9, ,
2, ,9, ,
0, ,9, ,
0, ,9, ,
1, ,9, ,
1, ,9, ,
1, ,9, ,
1, ,9, ,
1, ,9, ,
1, ,9, ,
0, ,9, ,
0, ,9, ,
2, ,9, ,
2, ,9, ,
2, ,9, ,
2, ,9, ,
0, ,9, ,
1, ,9, ,
1, ,9, ,
1, ,9, ,
2, ,9, ,
0, ,9, ,
0, ,9, ,
1, ,9, ,
0, ,9, ,
1, ,9, ,
0, ,9, ,
1, ,9, ,
1, ,9, ,
1, ,9, ,
1, ,9, ,
0, ,9, ,
0, ,9, ,
0, ,9, ,
0, ,9, ,
0, ,9, ,
2, ,9, ,
0, ,9, ,
0, ,9, ,
0, ,9, ,
1, ,9, ,
0, ,9, ,
0, ,9, ,
0, ,9, ,
1, ,9, ,
0, ,9, ,
2, ,9, ,
2, ,9, ,
0, ,9, ,
0, ,9, ,
-1, ,9, ,
0, ,9, ,
0, ,9, ,
-1, ,9, ,
0, ,9, ,
-1, ,9, ,
-2, ,9, ,
-1, ,9, ,
-1, ,9, ,
0, ,9, ,
0, ,9, ,
0, ,9, ,
1, ,9, ,
2, ,9, ,
0, ,9, ,
1, ,9, ,
1, ,9, ,
1, ,9, ,
1, ,9, ,
1, ,9, ,
2, ,9, ,
1, ,9, ,
1, ,9, ,
2, ,9, ,
-1, ,9, ,
0, ,9, ,
1, ,9, ,
0, ,9, ,
1, ,9, ,
1, ,9, ,
1, ,9, ,
2, ,9, ,
1, ,9, ,
1, ,9, ,
2, ,9, ,
1, ,9, ,
2, ,9, ,
1, ,9, ,
1, ,9, ,
2, ,9, ,
0, ,9, ,
-1, ,9, ,
-1, ,9, ,
-2, ,9, ,
0, ,9, ,
-1, ,9, ,
-1, ,9, ,
0, ,9, ,
0, ,9, ,
0, ,9, ,
0, ,9, ,
1, ,9, ,
1, ,9, ,
1, ,9, ,
1, ,9, ,
1, ,9, ,
1, ,9, ,
0, ,9, ,
0, ,9, ,
0, ,9, ,
1, ,9, ,
0, ,9, ,
0, ,9, ,
0, ,9, ,
0, ,9, ,
-1, ,9, ,
0, ,9, ,
-1, ,9, ,
0, ,9, ,
1, ,9, ,
0, ,9, ,
0, ,9, ,
0, ,9, ,
0, ,9, ,
0, ,9, ,
0, ,9, ,
0, ,9, ,
-1, ,9, ,
-2, ,9, ,
-3, ,9, ,
-3, ,9, ,
-6, ,9, ,
-5, ,9, ,
-7, ,9, ,
-6, ,9, ,
-7, ,9, ,
-7, ,9, ,
-7, ,9, ,
-8, ,9, ,
-8, ,9, ,
-8, ,9, ,
-9, ,9, ,
-9, ,9, ,
-10, ,9, ,
-11, ,9, ,
-11, ,9, ,
-15, ,9, ,
-18, ,9, ,
-19, ,9, ,
-21, ,9, ,
-23, ,9, ,
-26, ,9, ,
-28, ,9, ,
-29, ,9, ,
-30, ,9, ,
-30, ,9, ,
-28, ,9, ,
-29, ,9, ,
-27, ,9, ,
-26, ,9, ,
-26, ,9, ,
-25, ,9, ,
-25, ,9, ,
-26, ,9, ,
-27, ,9, ,
-28, ,9, ,
-27, ,9, ,
-30, ,9, ,
-31, ,9, ,
-31, ,9, ,
-34, ,9, ,
-34, ,9, ,
-32, ,9, ,
-31, ,9, ,
-31, ,9, ,
-25, ,9, ,
-24, ,9, ,
-21, ,9, ,
-19, ,9, ,
-14, ,9, ,
-13, ,9, ,
-10, ,9, ,
-8, ,9, ,
-7, ,9, ,
-7, ,9, ,
-6, ,9, ,
-8, ,9, ,
-9, ,9, ,
-8, ,9, ,
-10, ,9, ,
-9, ,9, ,
-8, ,9, ,
-9, ,9, ,
-6, ,9, ,
-7, ,9, ,
-3, ,9, ,
-3, ,9, ,
-2, ,9, ,
0, ,9, ,
0, ,9, ,
0, ,9, ,
0, ,9, ,
0, ,9, ,
-3, ,9, ,
-3, ,9, ,
-6, ,9, ,
-7, ,9, ,
-10, ,9, ,
-12, ,9, ,
-13, ,9, ,
-15, ,9, ,
-15, ,9, ,
-15, ,9, ,
-16, ,9, ,
-14, ,9, ,
-13, ,9, ,
-11, ,9, ,
-10, ,9, ,
-10, ,9, ,
-10, ,9, ,
-10, ,9, ,
-12, ,9, ,
-11, ,9, ,
-14, ,9, ,
-16, ,9, ,
-16, ,9, ,
-19, ,9, ,
-21, ,9, ,
-21, ,9, ,
-23, ,9, ,
-23, ,9, ,
-24, ,9, ,
-24, ,9, ,
-24, ,9, ,
-25, ,9, ,
-26, ,9, ,
-26, ,9, ,
-29, ,9, ,
-29, ,9, ,
-33, ,9, ,
-35, ,9, ,
-36, ,9, ,
-39, ,9, ,
-42, ,9, ,
-43, ,9, ,
-44, ,9, ,
-45, ,9, ,
-45, ,9, ,
-46, ,9, ,
-46, ,9, ,
-46, ,9, ,
-44, ,9, ,
-44, ,9, ,
-43, ,9, ,
-41, ,9, ,
-38, ,9, ,
-38, ,9, ,
-35, ,9, ,
-32, ,9, ,
-31, ,9, ,
-28, ,9, ,
-28, ,9, ,
-26, ,9, ,
-26, ,9, ,
-27, ,9, ,
-26, ,9, ,
-28, ,9, ,
-29, ,9, ,
-30, ,9, ,
-30, ,9, ,
-30, ,9, ,
-27, ,9, ,
-28, ,9, ,
-26, ,9, ,
-26, ,9, ,
-24, ,9, ,
-22, ,9, ,
-20, ,9, ,
-20, ,9, ,
-20, ,9, ,
-23, ,9, ,
-23, ,9, ,
-23, ,9, ,
-24, ,9, ,
-24, ,9, ,
-25, ,9, ,
-25, ,9, ,
-25, ,9, ,
-25, ,9, ,
-24, ,9, ,
-23, ,9, ,
-22, ,9, ,
-21, ,9, ,
-22, ,9, ,
-20, ,9, ,
-20, ,9, ,
-20, ,9, ,
-20, ,9, ,
-20, ,9, ,
-20, ,9, ,
-18, ,9, ,
-18, ,9, ,
-17, ,9, ,
-14, ,9, ,
-15, ,9, ,
-12, ,9, ,
-10, ,9, ,
-7, ,9, ,
-5, ,9, ,
-6, ,9, ,
-4, ,9, ,
-2, ,9, ,
-3, ,9, ,
-1, ,9, ,
-2, ,9, ,
-1, ,9, ,
1, ,9, ,
0, ,9, ,
2, ,9, ,
2, ,9, ,
1, ,9, ,
1, ,9, ,
1, ,9, ,
0, ,9, ,
0, ,9, ,
0, ,9, ,
0, ,9, ,
0, ,9, ,
0, ,9, ,
1, ,9, ,
1, ,9, ,
1, ,9, ,
3, ,9, ,
2, ,9, ,
5, ,9, ,
5, ,9, ,
5, ,9, ,
5, ,9, ,
5, ,9, ,
6, ,9, ,
6, ,9, ,
6, ,9, ,
6, ,9, ,
6, ,9, ,
5, ,9, ,
6, ,9, ,
5, ,9, ,
5, ,9, ,
5, ,9, ,
4, ,9, ,
4, ,9, ,
3, ,9, ,
1, ,9, ,
2, ,9, ,
0, ,9, ,
-2, ,9, ,
-1, ,9, ,
-4, ,9, ,
-4, ,9, ,
-7, ,9, ,
-8, ,9, ,
-8, ,9, ,
-11, ,9, ,
-13, ,9, ,
-13, ,9, ,
-16, ,9, ,
-16, ,9, ,
-18, ,9, ,
-20, ,9, ,
-20, ,9, ,
-21, ,9, ,
-22, ,9, ,
-22, ,9, ,
-23, ,9, ,
-23, ,9, ,
-25, ,9, ,
-25, ,9, ,
-25, ,9, ,
-27, ,9, ,
-28, ,9, ,
-27, ,9, ,
-29, ,9, ,
-29, ,9, ,
-31, ,9, ,
-31, ,9, ,
-33, ,9, ,
-35, ,9, ,
-36, ,9, ,
-36, ,9, ,
-37, ,9, ,
-36, ,9, ,
-37, ,9, ,
-37, ,9, ,
-36, ,9, ,
-36, ,9, ,
-36, ,9, ,
-36, ,9, ,
-35, ,9, ,
-36, ,9, ,
-35, ,9, ,
-35, ,9, ,
-34, ,9, ,
-34, ,9, ,
-33, ,9, ,
-31, ,9, ,
-32, ,9, ,
-29, ,9, ,
-27, ,9, ,
-25, ,9, ,
-24, ,9, ,
-24, ,9, ,
-22, ,9, ,
-20, ,9, ,
-20, ,9, ,
-19, ,9, ,
-17, ,9, ,
-18, ,9, ,
-17, ,9, ,
-19, ,9, ,
-16, ,9, ,
-15, ,9, ,
-16, ,9, ,
-13, ,9, ,
-12, ,9, ,
-11, ,9, ,
-7, ,9, ,
-7, ,9, ,
-3, ,9, ,
-1, ,9, ,
-2, ,9, ,
2, ,9, ,
4, ,9, ,
6, ,9, ,
8, ,9, ,
9, ,9, ,
13, ,9, ,
16, ,9, ,
17, ,9, ,
21, ,9, ,
23, ,9, ,
25, ,9, ,
26, ,9, ,
26, ,9, ,
27, ,9, ,
27, ,9, ,
25, ,9, ,
25, ,9, ,
24, ,9, ,
21, ,9, ,
20, ,9, ,
20, ,9, ,
14, ,9, ,
14, ,9, ,
10, ,9, ,
10, ,9, ,
4, ,9, ,
1, ,9, ,
2, ,9, ,
-3, ,9, ,
-5, ,9, ,
-7, ,9, ,
-10, ,9, ,
-11, ,9, ,
-15, ,9, ,
-16, ,9, ,
-16, ,9, ,
-18, ,9, ,
-19, ,9, ,
-18, ,9, ,
-18, ,9, ,
-17, ,9, ,
-18, ,9, ,
-18, ,9, ,
-18, ,9, ,
-19, ,9, ,
-18, ,9, ,
-18, ,9, ,
-19, ,9, ,
-17, ,9, ,
-17, ,9, ,
-18, ,9, ,
-18, ,9, ,
-18, ,9, ,
-19, ,9, ,
-18, ,9, ,
-19, ,9, ,
-18, ,9, ,
-19, ,9, ,
-20, ,9, ,
-20, ,9, ,
-20, ,9, ,
-20, ,9, ,
-20, ,9, ,
-20, ,9, ,
-20, ,9, ,
-20, ,9, ,
-20, ,9, ,
-20, ,9, ,
-20, ,9, ,
-20, ,9, ,
-20, ,9, ,
-20, ,9, ,
-19, ,9, ,
-19, ,9, ,
-20, ,9, ,
-19, ,9, ,
-20, ,9, ,
-19, ,9, ,
-19, ,9, ,
-20, ,9, ,
-20, ,9, ,
-20, ,9, ,
-21, ,9, ,
-21, ,9, ,
-23, ,9, ,
-24, ,9, ,
-23, ,9, ,
-24, ,9, ,
-24, ,9, ,
-23, ,9, ,
-24, ,9, ,
-24, ,9, ,
-24, ,9, ,
-23, ,9, ,
-22, ,9, ,
-23, ,9, ,
-21, ,9, ,
-21, ,9, ,
-20, ,9, ,
-18, ,9, ,
-19, ,9, ,
-15, ,9, ,
-14, ,9, ,
-15, ,9, ,
-12, ,9, ,
-10, ,9, ,
-10, ,9, ,
-9, ,9, ,
-10, ,9, ,
-9, ,9, ,
-8, ,9, ,
-9, ,9, ,
-9, ,9, ,
-8, ,9, ,
-10, ,9, ,
-9, ,9, ,
-10, ,9, ,
-10, ,9, ,
-10, ,9, ,
-11, ,9, ,
-11, ,9, ,
-12, ,9, ,
-12, ,9, ,
-12, ,9, ,
-13, ,9, ,
-12, ,9, ,
-12, ,9, ,
-12, ,9, ,
-12, ,9, ,
-13, ,9, ,
-14, ,9, ,
-14, ,9, ,
-15, ,9, ,
-15, ,9, ,
-15, ,9, ,
-15, ,9, ,
-15, ,9, ,
-15, ,9, ,
-16, ,9, ,
-15, ,9, ,
-17, ,9, ,
-17, ,9, ,
-16, ,9, ,
-19, ,9, ,
-19, ,9, ,
-21, ,9, ,
-22, ,9, ,
-22, ,9, ,
-23, ,9, ,
-24, ,9, ,
-24, ,9, ,
-24, ,9, ,
-23, ,9, ,
-22, ,9, ,
-21, ,9, ,
-20, ,9, ,
-19, ,9, ,
-17, ,9, ,
-14, ,9, ,
-13, ,9, ,
-10, ,9, ,
-7, ,9, ,
-7, ,9, ,
-2, ,9, ,
0, ,9, ,
5, ,9, ,
8, ,9, ,
8, ,9, ,
12, ,9, ,
16, ,9, ,
16, ,9, ,
18, ,9, ,
17, ,9, ,
19, ,9, ,
18, ,9, ,
18, ,9, ,
17, ,9, ,
15, ,9, ,
13, ,9, ,
12, ,9, ,
10, ,9, ,
6, ,9, ,
5, ,9, ,
2, ,9, ,
0, ,9, ,
-2, ,9, ,
-5, ,9, ,
-5, ,9, ,
-8, ,9, ,
-12, ,9, ,
-11, ,9, ,
-14, ,9, ,
-13, ,9, ,
-15, ,9, ,
-15, ,9, ,
-15, ,9, ,
-15, ,9, ,
-15, ,9, ,
-14, ,9, ,
-15, ,9, ,
-13, ,9, ,
-12, ,9, ,
-12, ,9, ,
-11, ,9, ,
-10, ,9, ,
-10, ,9, ,
-9, ,9, ,
-8, ,9, ,
-9, ,9, ,
-7, ,9, ,
-7, ,9, ,
-6, ,9, ,
-7, ,9, ,
-5, ,9, ,
-5, ,9, ,
-5, ,9, ,
-4, ,9, ,
-4, ,9, ,
-4, ,9, ,
-3, ,9, ,
-3, ,9, ,
-3, ,9, ,
-2, ,9, ,
-2, ,9, ,
-2, ,9, ,
0, ,9, ,
0, ,9, ,
0, ,9, ,
0, ,9, ,
0, ,9, ,
3, ,9, ,
3, ,9, ,
3, ,9, ,
5, ,9, ,
5, ,9, ,
5, ,9, ,
5, ,9, ,
5, ,9, ,
5, ,9, ,
4, ,9, ,
4, ,9, ,
5, ,9, ,
4, ,9, ,
4, ,9, ,
2, ,9, ,
3, ,9, ,
3, ,9, ,
2, ,9, ,
2, ,9, ,
2, ,9, ,
0, ,9, ,
0, ,9, ,
-1, ,9, ,
-1, ,9, ,
-1, ,9, ,
-2, ,9, ,
-2, ,9, ,
-3, ,9, ,
-5, ,9, ,
-4, ,9, ,
-5, ,9, ,
-5, ,9, ,
-5, ,9, ,
-6, ,9, ,
-6, ,9, ,
-6, ,9, ,
-7, ,9, ,
-7, ,9, ,
-9, ,9, ,
-10, ,9, ,
-9, ,9, ,
-10, ,9, ,
-9, ,9, ,
-10, ,9, ,
-11, ,9, ,
-11, ,9, ,
-12, ,9, ,
-11, ,9, ,
-10, ,9, ,
-10, ,9, ,
-10, ,9, ,
-10, ,9, ,
-9, ,9, ,
-9, ,9, ,
-9, ,9, ,
-8, ,9, ,
-6, ,9, ,
-7, ,9, ,
-5, ,9, ,
-4, ,9, ,
-4, ,9, ,
-2, ,9, ,
-2, ,9, ,
-1, ,9, ,
0, ,9, ,
1, ,9, ,
1, ,9, ,
2, ,9, ,
1, ,9, ,
3, ,9, ,
2, ,9, ,
2, ,9, ,
2, ,9, ,
1, ,9, ,
2, ,9, ,
1, ,9, ,
0, ,9, ,
0, ,9, ,
0, ,9, ,
-1, ,9, ,
-1, ,9, ,
-2, ,9, ,
-1, ,9, ,
-3, ,9, ,
-3, ,9, ,
-4, ,9, ,
-5, ,9, ,
-6, ,9, ,
-6, ,9, ,
-8, ,9, ,
-7, ,9, ,
-9, ,9, ,
-10, ,9, ,
-10, ,9, ,
-11, ,9, ,
-12, ,9, ,
-11, ,9, ,
-11, ,9, ,
-11, ,9, ,
-10, ,9, ,
-11, ,9, ,
-9, ,9, ,
-10, ,9, ,
-8, ,9, ,
-6, ,9, ,
-7, ,9, ,
-5, ,9, ,
-2, ,9, ,
-2, ,9, ,
0, ,9, ,
0, ,9, ,
2, ,9, ,
4, ,9, ,
6, ,9, ,
7, ,9, ,
10, ,9, ,
11, ,9, ,
11, ,9, ,
12, ,9, ,
13, ,9, ,
14, ,9, ,
13, ,9, ,
15, ,9, ,
15, ,9, ,
14, ,9, ,
15, ,9, ,
14, ,9, ,
14, ,9, ,
14, ,9, ,
14, ,9, ,
14, ,9, ,
12, ,9, ,
11, ,9, ,
12, ,9, ,
10, ,9, ,
9, ,9, ,
9, ,9, ,
8, ,9, ,
8, ,9, ,
7, ,9, ,
5, ,9, ,
5, ,9, ,
4, ,9, ,
3, ,9, ,
4, ,9, ,
2, ,9, ,
2, ,9, ,
2, ,9, ,
1, ,9, ,
1, ,9, ,
1, ,9, ,
0, ,9, ,
0, ,9, ,
0, ,9, ,
0, ,9, ,
0, ,9, ,
0, ,9, ,
0, ,9, ,
0, ,9, ,
-1, ,9, ,
-1, ,9, ,
-1, ,9, ,
0, ,9, ,
0, ,9, ,
-1, ,9, ,
-1, ,9, ,
-1, ,9, ,
-1, ,9, ,
-1, ,9, ,
-1, ,9, ,
-1, ,9, ,
-1, ,9, ,
-4, ,9, ,
-2, ,9, ,
-3, ,9, ,
-4, ,9, ,
-3, ,9, ,
-6, ,9, ,
-6, ,9, ,
-5, ,9, ,
-8, ,9, ,
-8, ,9, ,
-9, ,9, ,
-11, ,9, ,
-11, ,9, ,
-12, ,9, ,
-13, ,9, ,
-14, ,9, ,
-15, ,9, ,
-15, ,9, ,
-16, ,9, ,
-18, ,9, ,
-17, ,9, ,
-17, ,9, ,
-17, ,9, ,
-17, ,9, ,
-17, ,9, ,
-15, ,9, ,
-15, ,9, ,
-14, ,9, ,
-12, ,9, ,
-12, ,9, ,
-10, ,9, ,
-9, ,9, ,
-10, ,9, ,
-5, ,9, ,
-6, ,9, ,
-4, ,9, ,
-2, ,9, ,
0, ,9, ,
1, ,9, ,
3, ,9, ,
5, ,9, ,
6, ,9, ,
5, ,9, ,
6, ,9, ,
8, ,9, ,
8, ,9, ,
8, ,9, ,
9, ,9, ,
7, ,9, ,
10, ,9, ,
9, ,9, ,
7, ,9, ,
9, ,9, ,
8, ,9, ,
8, ,9, ,
7, ,9, ,
6, ,9, ,
6, ,9, ,
6, ,9, ,
6, ,9, ,
6, ,9, ,
5, ,9, ,
5, ,9, ,
4, ,9, ,
3, ,9, ,
3, ,9, ,
2, ,9, ,
1, ,9, ,
1, ,9, ,
-1, ,9, ,
-1, ,9, ,
-1, ,9, ,
-4, ,9, ,
-4, ,9, ,
-5, ,9, ,
-7, ,9, ,
-7, ,9, ,
-8, ,9, ,
-9, ,9, ,
-10, ,9, ,
-11, ,9, ,
-11, ,9, ,
-12, ,9, ,
-13, ,9, ,
-14, ,9, ,
-15, ,9, ,
-14, ,9, ,
-14, ,9, ,
-14, ,9, ,
-14, ,9, ,
-14, ,9, ,
-13, ,9, ,
-13, ,9, ,
-14, ,9, ,
-12, ,9, ,
-11, ,9, ,
-12, ,9, ,
-10, ,9, ,
-10, ,9, ,
-10, ,9, ,
-9, ,9, ,
-10, ,9, ,
-8, ,9, ,
-7, ,9, ,
-7, ,9, ,
-6, ,9, ,
-6, ,9, ,
-6, ,9, ,
-5, ,9, ,
-5, ,9, ,
-5, ,9, ,
-5, ,9, ,
-5, ,9, ,
-4, ,9, ,
-4, ,9, ,
-4, ,9, ,
-3, ,9, ,
-4, ,9, ,
-3, ,9, ,
-2, ,9, ,
-2, ,9, ,
-2, ,9, ,
-2, ,9, ,
-2, ,9, ,
-2, ,9, ,
-2, ,9, ,
-2, ,9, ,
-2, ,9, ,
-2, ,9, ,
-1, ,9, ,
-2, ,9, ,
-2, ,9, ,
-1, ,9, ,
-2, ,9, ,
-1, ,9, ,
-1, ,9, ,
-2, ,9, ,
-2, ,9, ,
-2, ,9, ,
-2, ,9, ,
-1, ,9, ,
-3, ,9, ,
-2, ,9, ,
-2, ,9, ,
-5, ,9, ,
-3, ,9, ,
-5, ,9, ,
-5, ,9, ,
-5, ,9, ,
-6, ,9, ,
-5, ,9, ,
-7, ,9, ,
-8, ,9, ,
-8, ,9, ,
-9, ,9, ,
-8, ,9, ,
-8, ,9, ,
-10, ,9, ,
-9, ,9, ,
-9, ,9, ,
-10, ,9, ,
-10, ,9, ,
-9, ,9, ,
-9, ,9, ,
-8, ,9, ,
-9, ,9, ,
-8, ,9, ,
-7, ,9, ,
-8, ,9, ,
-6, ,9, ,
-6, ,9, ,
-5, ,9, ,
-3, ,9, ,
-4, ,9, ,
-2, ,9, ,
0, ,9, ,
1, ,9, ,
2, ,9, ,
1, ,9, ,
3, ,9, ,
5, ,9, ,
5, ,9, ,
7, ,9, ,
8, ,9, ,
8, ,9, ,
10, ,9, ,
10, ,9, ,
11, ,9, ,
14, ,9, ,
13, ,9, ,
15, ,9, ,
16, ,9, ,
16, ,9, ,
17, ,9, ,
18, ,9, ,
17, ,9, ,
19, ,9, ,
18, ,9, ,
19, ,9, ,
20, ,9, ,
19, ,9, ,
19, ,9, ,
19, ,9, ,
19, ,9, ,
19, ,9, ,
17, ,9, ,
17, ,9, ,
15, ,9, ,
14, ,9, ,
14, ,9, ,
13, ,9, ,
10, ,9, ,
10, ,9, ,
9, ,9, ,
7, ,9, ,
4, ,9, ,
3, ,9, ,
3, ,9, ,
1, ,9, ,
-1, ,9, ,
-1, ,9, ,
-3, ,9, ,
-3, ,9, ,
-5, ,9, ,
-5, ,9, ,
-5, ,9, ,
-6, ,9, ,
-6, ,9, ,
-7, ,9, ,
-7, ,9, ,
-6, ,9, ,
-6, ,9, ,
-6, ,9, ,
-6, ,9, ,
-6, ,9, ,
-5, ,9, ,
-4, ,9, ,
-5, ,9, ,
-5, ,9, ,
-4, ,9, ,
-5, ,9, ,
-4, ,9, ,
-5, ,9, ,
-5, ,9, ,
-5, ,9, ,
-5, ,9, ,
-5, ,9, ,
-5, ,9, ,
-6, ,9, ,
-5, ,9, ,
-7, ,9, ,
-8, ,9, ,
-8, ,9, ,
-9, ,9, ,
-9, ,9, ,
-9, ,9, ,
-10, ,9, ,
-10, ,9, ,
-11, ,9, ,
-12, ,9, ,
-11, ,9, ,
-12, ,9, ,
-11, ,9, ,
-11, ,9, ,
-11, ,9, ,
-11, ,9, ,
-11, ,9, ,
-11, ,9, ,
-11, ,9, ,
-11, ,9, ,
-10, ,9, ,
-9, ,9, ,
-9, ,9, ,
-9, ,9, ,
-9, ,9, ,
-8, ,9, ,
-8, ,9, ,
-7, ,9, ,
-7, ,9, ,
-6, ,9, ,
-7, ,9, ,
-5, ,9, ,
-5, ,9, ,
-4, ,9, ,
-3, ,9, ,
-4, ,9, ,
-3, ,9, ,
-3, ,9, ,
-4, ,9, ,
-3, ,9, ,
-3, ,9, ,
-2, ,9, ,
-2, ,9, ,
-3, ,9, ,
-3, ,9, ,
-2, ,9, ,
-2, ,9, ,
-2, ,9, ,
-2, ,9, ,
-2, ,9, ,
-2, ,9, ,
-2, ,9, ,
-2, ,9, ,
-2, ,9, ,
-2, ,9, ,
-2, ,9, ,
-2, ,9, ,
-2, ,9, ,
-2, ,9, ,
-4, ,9, ,
-2, ,9, ,
-1, ,9, ,
-3, ,9, ,
-2, ,9, ,
-4, ,9, ,
-4, ,9, ,
-3, ,9, ,
-3, ,9, ,
-3, ,9, ,
-2, ,9, ,
-4, ,9, ,
-3, ,9, ,
-3, ,9, ,
-3, ,9, ,
-2, ,9, ,
-3, ,9, ,
-1, ,9, ,
-1, ,9, ,
-1, ,9, ,
0, ,9, ,
0, ,9, ,
0, ,9, ,
3, ,9, ,
2, ,9, ,
3, ,9, ,
5, ,9, ,
5, ,9, ,
6, ,9, ,
6, ,9, ,
8, ,9, ,
8, ,9, ,
9, ,9, ,
10, ,9, ,
11, ,9, ,
10, ,9, ,
11, ,9, ,
10, ,9, ,
10, ,9, ,
10, ,9, ,
10, ,9, ,
11, ,9, ,
12, ,9, ,
9, ,9, ,
8, ,9, ,
7, ,9, ,
6, ,9, ,
6, ,9, ,
5, ,9, ,
4, ,9, ,
1, ,9, ,
0, ,9, ,
1, ,9, ,
-2, ,9, ,
-4, ,9, ,
-3, ,9, ,
-7, ,9, ,
-6, ,9, ,
-10, ,9, ,
-10, ,9, ,
-11, ,9, ,
-12, ,9, ,
-14, ,9, ,
-14, ,9, ,
-15, ,9, ,
-15, ,9, ,
-15, ,9, ,
-15, ,9, ,
-14, ,9, ,
-15, ,9, ,
-13, ,9, ,
-12, ,9, ,
-12, ,9, ,
-10, ,9, ,
-7, ,9, ,
-6, ,9, ,
-3, ,9, ,
-4, ,9, ,
1, ,9, ,
4, ,9, ,
3, ,9, ,
8, ,9, ,
12, ,9, ,
13, ,9, ,
15, ,9, ,
14, ,9, ,
19, ,9, ,
21, ,9, ,
21, ,9, ,
23, ,9, ,
25, ,9, ,
24, ,9, ,
24, ,9, ,
23, ,9, ,
22, ,9, ,
22, ,9, ,
22, ,9, ,
20, ,9, ,
19, ,9, ,
18, ,9, ,
19, ,9, ,
16, ,9, ,
13, ,9, ,
14, ,9, ,
11, ,9, ,
11, ,9, ,
9, ,9, ,
7, ,9, ,
7, ,9, ,
5, ,9, ,
5, ,9, ,
5, ,9, ,
3, ,9, ,
3, ,9, ,
3, ,9, ,
2, ,9, ,
3, ,9, ,
1, ,9, ,
1, ,9, ,
2, ,9, ,
1, ,9, ,
0, ,9, ,
0, ,9, ,
1, ,9, ,
0, ,9, ,
0, ,9, ,
0, ,9, ,
1, ,9, ,
0, ,9, ,
1, ,9, ,
0, ,9, ,
-1, ,9, ,
0, ,9, ,
0, ,9, ,
1, ,9, ,
1, ,9, ,
1, ,9, ,
1, ,9, ,
2, ,9, ,
3, ,9, ,
4, ,9, ,
3, ,9, ,
4, ,9, ,
5, ,9, ,
5, ,9, ,
6, ,9, ,
7, ,9, ,
6, ,9, ,
7, ,9, ,
7, ,9, ,
8, ,9, ,
8, ,9, ,
7, ,9, ,
6, ,9, ,
8, ,9, ,
7, ,9, ,
7, ,9, ,
5, ,9, ,
5, ,9, ,
5, ,9, ,
4, ,9, ,
5, ,9, ,
4, ,9, ,
2, ,9, ,
3, ,9, ,
1, ,9, ,
1, ,9, ,
1, ,9, ,
0, ,9, ,
0, ,9, ,
0, ,9, ,
-2, ,9, ,
-1, ,9, ,
-1, ,9, ,
-2, ,9, ,
-2, ,9, ,
-4, ,9, ,
-3, ,9, ,
-6, ,9, ,
-6, ,9, ,
-6, ,9, ,
-6, ,9, ,
-7, ,9, ,
-8, ,9, ,
-9, ,9, ,
-9, ,9, ,
-10, ,9, ,
-12, ,9, ,
-11, ,9, ,
-13, ,9, ,
-14, ,9, ,
-13, ,9, ,
-16, ,9, ,
-15, ,9, ,
-16, ,9, ,
-18, ,9, ,
-18, ,9, ,
-19, ,9, ,
-19, ,9, ,
-18, ,9, ,
-20, ,9, ,
-17, ,9, ,
-17, ,9, ,
-18, ,9, ,
-17, ,9, ,
-17, ,9, ,
-15, ,9, ,
-14, ,9, ,
-14, ,9, ,
-12, ,9, ,
-10, ,9, ,
-9, ,9, ,
-9, ,9, ,
-7, ,9, ,
-5, ,9, ,
-2, ,9, ,
-2, ,9, ,
-1, ,9, ,
2, ,9, ,
3, ,9, ,
3, ,9, ,
5, ,9, ,
6, ,9, ,
8, ,9, ,
9, ,9, ,
9, ,9, ,
10, ,9, ,
11, ,9, ,
12, ,9, ,
11, ,9, ,
11, ,9, ,
12, ,9, ,
11, ,9, ,
13, ,9, ,
13, ,9, ,
12, ,9, ,
12, ,9, ,
12, ,9, ,
11, ,9, ,
12, ,9, ,
10, ,9, ,
9, ,9, ,
9, ,9, ,
7, ,9, ,
7, ,9, ,
5, ,9, ,
4, ,9, ,
4, ,9, ,
2, ,9, ,
3, ,9, ,
0, ,9, ,
-1, ,9, ,
-1, ,9, ,
-3, ,9, ,
-5, ,9, ,
-5, ,9, ,
-7, ,9, ,
-6, ,9, ,
-8, ,9, ,
-10, ,9, ,
-10, ,9, ,
-12, ,9, ,
-12, ,9, ,
-11, ,9, ,
-14, ,9, ,
-15, ,9, ,
-15, ,9, ,
-15, ,9, ,
-15, ,9, ,
-15, ,9, ,
-16, ,9, ,
-16, ,9, ,
-17, ,9, ,
-16, ,9, ,
-16, ,9, ,
-17, ,9, ,
-15, ,9, ,
-17, ,9, ,
-14, ,9, ,
-14, ,9, ,
-14, ,9, ,
-13, ,9, ,
-11, ,9, ,
-11, ,9, ,
-11, ,9, ,
-10, ,9, ,
-10, ,9, ,
-7, ,9, ,
-8, ,9, ,
-6, ,9, ,
-5, ,9, ,
-4, ,9, ,
-2, ,9, ,
-2, ,9, ,
0, ,9, ,
0, ,9, ,
-1, ,9, ,
2, ,9, ,
3, ,9, ,
3, ,9, ,
5, ,9, ,
4, ,9, ,
5, ,9, ,
6, ,9, ,
6, ,9, ,
7, ,9, ,
8, ,9, ,
8, ,9, ,
9, ,9, ,
9, ,9, ,
9, ,9, ,
9, ,9, ,
9, ,9, ,
10, ,9, ,
10, ,9, ,
8, ,9, ,
10, ,9, ,
9, ,9, ,
9, ,9, ,
11, ,9, ,
10, ,9, ,
10, ,9, ,
10, ,9, ,
10, ,9, ,
10, ,9, ,
10, ,9, ,
10, ,9, ,
10, ,9, ,
10, ,9, ,
10, ,9, ,
10, ,9, ,
9, ,9, ,
9, ,9, ,
9, ,9, ,
8, ,9, ,
9, ,9, ,
8, ,9, ,
8, ,9, ,
7, ,9, ,
7, ,9, ,
8, ,9, ,
7, ,9, ,
6, ,9, ,
6, ,9, ,
5, ,9, ,
5, ,9, ,
4, ,9, ,
4, ,9, ,
4, ,9, ,
3, ,9, ,
2, ,9, ,
1, ,9, ,
0, ,9, ,
0, ,9, ,
-1, ,9, ,
-2, ,9, ,
-2, ,9, ,
-3, ,9, ,
-5, ,9, ,
-5, ,9, ,
-5, ,9, ,
-5, ,9, ,
-5, ,9, ,
-6, ,9, ,
-6, ,9, ,
-7, ,9, ,
-6, ,9, ,
-5, ,9, ,
-5, ,9, ,
-4, ,9, ,
-3, ,9, ,
-4, ,9, ,
-1, ,9, ,
-2, ,9, ,
1, ,9, ,
3, ,9, ,
5, ,9, ,
7, ,9, ,
9, ,9, ,
10, ,9, ,
