raw_data/100% Glycerol, Impulsion 2Hz, Sonde 5MHz, Rampe 0.7Hz/temp0000213.CSV

Format,1.0B,
Memory Length,10000,Memory Length,10000,
IntpDistance,0,IntpDistance,0,
Trigger Address,159,Trigger Address,159,
Trigger Level,2.720E-01,Trigger Level,2.720E-01,
Source,CH1,Source,CH2,
Vertical Units,V,Vertical Units,V,
Vertical Units Div,0,Vertical Units Div,0,
Vertical Units Extend Div,16,Vertical Units Extend Div,16,
Label,,Label,,
Probe Type,0,Probe Type,0,
Probe Ratio,1.000e+00,Probe Ratio,1.000e+00,
Vertical Scale,2.000e-01,Vertical Scale,2.000e+00,
Vertical Position,0.000e+00,Vertical Position,0.000e+00,
Horizontal Units,S,Horizontal Units,S,
Horizontal Scale,5.000E-06,Horizontal Scale,5.000E-06,
Horizontal Position,2.420E-05,Horizontal Position,2.420E-05,
Horizontal Mode,Main,Horizontal Mode,Main,
SincET Mode,Real Time,SincET Mode,Real Time,
Sampling Period,5.000e-09,Sampling Period,5.000e-09,
Horizontal Old Scale,5.000E-06,Horizontal Old Scale,5.000E-06,
Horizontal Old Position,2.420E-05,Horizontal Old Position,2.420E-05,
Firmware,V1.32,Firmware,V1.32,
Mode,Fast,Mode,Fast,
Waveform Data,,Waveform Data,,
2, ,-8, ,
1, ,-8, ,
1, ,-8, ,
2, ,-8, ,
1, ,-8, ,
1, ,-8, ,
1, ,-8, ,
1, ,-8, ,
1, ,-8, ,
1, ,-8, ,
1, ,-8, ,
2, ,-8, ,
1, ,-8, ,
2, ,-8, ,
1, ,-8, ,
1, ,-8, ,
2, ,-8, ,
1, ,-8, ,
2, ,-8, ,
1, ,-8, ,
1, ,-8, ,
1, ,-8, ,
1, ,-8, ,
2, ,-8, ,
2, ,-8, ,
1, ,-8, ,
1, ,-8, ,
2, ,-8, ,
0, ,-8, ,
2, ,-8, ,
1, ,-8, ,
1, ,-8, ,
1, ,-8, ,
1, ,-8, ,
1, ,-8, ,
2, ,-8, ,
1, ,-8, ,
1, ,-8, ,
2, ,-8, ,
2, ,-8, ,
2, ,-8, ,
1, ,-8, ,
2, ,-8, ,
2, ,-8, ,
1, ,-8, ,
2, ,-8, ,
1, ,-8, ,
1, ,-8, ,
1, ,-8, ,
1, ,-8, ,
1, ,-8, ,
2, ,-8, ,
2, ,-8, ,
2, ,-8, ,
1, ,-8, ,
2, ,-8, ,
2, ,-8, ,
1, ,-8, ,
1, ,-8, ,
2, ,-8, ,
1, ,-8, ,
2, ,-8, ,
1, ,-8, ,
1, ,-8, ,
1, ,-8, ,
2, ,-8, ,
2, ,-8, ,
2, ,-8, ,
1, ,-8, ,
2, ,-8, ,
1, ,-8, ,
2, ,-8, ,
2, ,-8, ,
1, ,-8, ,
1, ,-8, ,
2, ,-8, ,
1, ,-8, ,
2, ,-8, ,
2, ,-8, ,
1, ,-8, ,
1, ,-8, ,
1, ,-8, ,
1, ,-8, ,
1, ,-8, ,
1, ,-8, ,
1, ,-8, ,
1, ,-8, ,
2, ,-8, ,
2, ,-8, ,
1, ,-8, ,
1, ,-8, ,
1, ,-8, ,
1, ,-8, ,
2, ,-8, ,
1, ,-8, ,
1, ,-8, ,
1, ,-8, ,
2, ,-8, ,
2, ,-8, ,
1, ,-8, ,
1, ,-8, ,
2, ,-8, ,
2, ,-8, ,
1, ,-8, ,
1, ,-8, ,
1, ,-8, ,
1, ,-8, ,
2, ,-8, ,
2, ,-8, ,
2, ,-8, ,
2, ,-8, ,
1, ,-8, ,
2, ,-8, ,
1, ,-8, ,
2, ,-8, ,
2, ,-8, ,
3, ,-8, ,
3, ,-8, ,
1, ,-8, ,
1, ,-8, ,
2, ,-8, ,
1, ,-8, ,
2, ,-8, ,
2, ,-8, ,
1, ,-8, ,
2, ,-8, ,
1, ,-8, ,
0, ,-8, ,
1, ,-8, ,
1, ,-8, ,
1, ,-8, ,
2, ,-8, ,
2, ,-8, ,
1, ,-8, ,
1, ,-8, ,
1, ,-8, ,
3, ,-8, ,
1, ,-8, ,
1, ,-8, ,
2, ,-8, ,
2, ,-8, ,
2, ,-8, ,
2, ,-8, ,
1, ,-8, ,
1, ,-8, ,
1, ,-8, ,
2, ,-8, ,
2, ,-8, ,
1, ,-8, ,
1, ,-8, ,
1, ,-8, ,
1, ,-8, ,
3, ,-8, ,
1, ,-8, ,
1, ,-8, ,
1, ,-8, ,
1, ,-8, ,
2, ,-8, ,
2, ,-8, ,
1, ,-8, ,
1, ,-8, ,
0, ,-8, ,
2, ,-8, ,
1, ,-8, ,
2, ,-8, ,
-2, ,-8, ,
-3, ,-8, ,
-2, ,-8, ,
17, ,-8, ,
65, ,-8, ,
125, ,-8, ,
125, ,-8, ,
125, ,-8, ,
122, ,-8, ,
117, ,-8, ,
-21, ,-8, ,
50, ,-8, ,
125, ,-8, ,
125, ,-8, ,
125, ,-8, ,
125, ,-8, ,
125, ,-8, ,
125, ,-8, ,
125, ,-8, ,
125, ,-8, ,
125, ,-8, ,
125, ,-8, ,
125, ,-8, ,
125, ,-8, ,
125, ,-8, ,
125, ,-8, ,
125, ,-8, ,
125, ,-8, ,
125, ,-8, ,
125, ,-8, ,
125, ,-8, ,
125, ,-8, ,
125, ,-8, ,
125, ,-8, ,
125, ,-8, ,
125, ,-8, ,
125, ,-8, ,
125, ,-8, ,
124, ,-8, ,
121, ,-8, ,
117, ,-8, ,
110, ,-8, ,
103, ,-8, ,
99, ,-8, ,
94, ,-8, ,
91, ,-8, ,
83, ,-8, ,
79, ,-8, ,
76, ,-8, ,
71, ,-8, ,
66, ,-8, ,
63, ,-8, ,
58, ,-8, ,
57, ,-8, ,
53, ,-8, ,
49, ,-8, ,
47, ,-8, ,
45, ,-8, ,
39, ,-8, ,
39, ,-8, ,
36, ,-8, ,
36, ,-8, ,
33, ,-8, ,
30, ,-8, ,
29, ,-8, ,
27, ,-8, ,
24, ,-8, ,
24, ,-8, ,
21, ,-8, ,
20, ,-8, ,
19, ,-8, ,
16, ,-8, ,
17, ,-8, ,
14, ,-8, ,
12, ,-8, ,
12, ,-8, ,
12, ,-8, ,
12, ,-8, ,
8, ,-8, ,
8, ,-8, ,
7, ,-8, ,
7, ,-8, ,
6, ,-8, ,
6, ,-8, ,
4, ,-8, ,
4, ,-8, ,
4, ,-8, ,
3, ,-8, ,
3, ,-8, ,
2, ,-8, ,
1, ,-8, ,
1, ,-8, ,
1, ,-8, ,
1, ,-8, ,
1, ,-8, ,
0, ,-8, ,
0, ,-8, ,
-1, ,-8, ,
-2, ,-8, ,
-1, ,-8, ,
-2, ,-8, ,
-1, ,-8, ,
-1, ,-8, ,
-2, ,-8, ,
-2, ,-8, ,
-3, ,-8, ,
-4, ,-8, ,
-3, ,-8, ,
-3, ,-8, ,
-3, ,-8, ,
-3, ,-8, ,
-4, ,-8, ,
-3, ,-8, ,
-4, ,-8, ,
-4, ,-8, ,
-2, ,-8, ,
-4, ,-8, ,
-2, ,-8, ,
-3, ,-8, ,
-4, ,-8, ,
-3, ,-8, ,
-5, ,-8, ,
-3, ,-8, ,
-2, ,-8, ,
-3, ,-8, ,
-2, ,-8, ,
-3, ,-8, ,
-3, ,-8, ,
-3, ,-8, ,
-4, ,-8, ,
-2, ,-8, ,
-3, ,-8, ,
-3, ,-8, ,
-3, ,-8, ,
-1, ,-8, ,
-3, ,-8, ,
-2, ,-8, ,
-2, ,-8, ,
-3, ,-8, ,
-3, ,-8, ,
-4, ,-8, ,
-2, ,-8, ,
-2, ,-8, ,
-3, ,-8, ,
-1, ,-8, ,
-2, ,-8, ,
-2, ,-8, ,
-2, ,-8, ,
-2, ,-8, ,
-1, ,-8, ,
-1, ,-8, ,
-2, ,-8, ,
-2, ,-8, ,
-1, ,-8, ,
-2, ,-8, ,
-1, ,-8, ,
-1, ,-8, ,
-1, ,-8, ,
0, ,-8, ,
-1, ,-8, ,
-1, ,-8, ,
-2, ,-8, ,
-1, ,-8, ,
-1, ,-8, ,
-1, ,-8, ,
-1, ,-8, ,
0, ,-8, ,
-1, ,-8, ,
0, ,-8, ,
-1, ,-8, ,
-1, ,-8, ,
0, ,-8, ,
0, ,-8, ,
0, ,-8, ,
0, ,-8, ,
0, ,-8, ,
0, ,-8, ,
0, ,-8, ,
0, ,-8, ,
0, ,-8, ,
0, ,-8, ,
0, ,-8, ,
0, ,-8, ,
-1, ,-8, ,
0, ,-8, ,
0, ,-8, ,
0, ,-8, ,
1, ,-8, ,
0, ,-8, ,
1, ,-8, ,
0, ,-8, ,
0, ,-8, ,
1, ,-8, ,
0, ,-8, ,
0, ,-8, ,
0, ,-8, ,
0, ,-8, ,
1, ,-8, ,
1, ,-8, ,
0, ,-8, ,
0, ,-8, ,
0, ,-8, ,
-1, ,-8, ,
1, ,-8, ,
0, ,-8, ,
0, ,-8, ,
1, ,-8, ,
0, ,-8, ,
1, ,-8, ,
0, ,-8, ,
1, ,-8, ,
2, ,-8, ,
0, ,-8, ,
1, ,-8, ,
0, ,-8, ,
0, ,-8, ,
1, ,-8, ,
0, ,-8, ,
0, ,-8, ,
2, ,-8, ,
1, ,-8, ,
1, ,-8, ,
1, ,-8, ,
1, ,-8, ,
1, ,-8, ,
0, ,-8, ,
0, ,-8, ,
2, ,-8, ,
0, ,-8, ,
1, ,-8, ,
2, ,-8, ,
0, ,-8, ,
1, ,-8, ,
1, ,-8, ,
1, ,-8, ,
2, ,-8, ,
1, ,-8, ,
2, ,-8, ,
0, ,-8, ,
1, ,-8, ,
1, ,-8, ,
0, ,-8, ,
1, ,-8, ,
1, ,-8, ,
0, ,-8, ,
1, ,-8, ,
1, ,-8, ,
0, ,-8, ,
1, ,-8, ,
0, ,-8, ,
0, ,-8, ,
2, ,-8, ,
2, ,-8, ,
2, ,-8, ,
1, ,-8, ,
1, ,-8, ,
1, ,-8, ,
0, ,-8, ,
0, ,-8, ,
0, ,-8, ,
0, ,-8, ,
1, ,-8, ,
0, ,-8, ,
0, ,-8, ,
1, ,-8, ,
0, ,-8, ,
1, ,-8, ,
1, ,-8, ,
1, ,-8, ,
1, ,-8, ,
2, ,-8, ,
2, ,-8, ,
2, ,-8, ,
1, ,-8, ,
1, ,-8, ,
1, ,-8, ,
0, ,-8, ,
0, ,-8, ,
0, ,-8, ,
-1, ,-8, ,
-1, ,-8, ,
-1, ,-8, ,
0, ,-8, ,
1, ,-8, ,
1, ,-8, ,
2, ,-8, ,
1, ,-8, ,
1, ,-8, ,
2, ,-8, ,
1, ,-8, ,
1, ,-8, ,
1, ,-8, ,
1, ,-8, ,
2, ,-8, ,
1, ,-8, ,
0, ,-8, ,
1, ,-8, ,
1, ,-8, ,
0, ,-8, ,
1, ,-8, ,
0, ,-8, ,
0, ,-8, ,
1, ,-8, ,
0, ,-8, ,
1, ,-8, ,
1, ,-8, ,
2, ,-8, ,
2, ,-8, ,
1, ,-8, ,
1, ,-8, ,
2, ,-8, ,
2, ,-8, ,
2, ,-8, ,
1, ,-8, ,
0, ,-8, ,
0, ,-8, ,
0, ,-8, ,
0, ,-8, ,
0, ,-8, ,
0, ,-8, ,
0, ,-8, ,
-1, ,-8, ,
0, ,-8, ,
1, ,-8, ,
-1, ,-8, ,
1, ,-8, ,
1, ,-8, ,
0, ,-8, ,
1, ,-8, ,
1, ,-8, ,
1, ,-8, ,
2, ,-8, ,
1, ,-8, ,
1, ,-8, ,
0, ,-8, ,
0, ,-8, ,
0, ,-8, ,
0, ,-8, ,
-1, ,-8, ,
-1, ,-8, ,
-1, ,-8, ,
0, ,-8, ,
0, ,-8, ,
1, ,-8, ,
0, ,-8, ,
1, ,-8, ,
0, ,-8, ,
1, ,-8, ,
0, ,-8, ,
1, ,-8, ,
-1, ,-8, ,
-2, ,-8, ,
-1, ,-8, ,
-2, ,-8, ,
-3, ,-8, ,
-6, ,-8, ,
-6, ,-8, ,
-6, ,-8, ,
-8, ,-8, ,
-8, ,-8, ,
-7, ,-8, ,
-8, ,-8, ,
-9, ,-8, ,
-8, ,-8, ,
-8, ,-8, ,
-8, ,-8, ,
-9, ,-8, ,
-10, ,-8, ,
-10, ,-8, ,
-12, ,-8, ,
-15, ,-8, ,
-15, ,-8, ,
-18, ,-8, ,
-20, ,-8, ,
-23, ,-8, ,
-26, ,-8, ,
-26, ,-8, ,
-28, ,-8, ,
-30, ,-8, ,
-30, ,-8, ,
-30, ,-8, ,
-30, ,-8, ,
-29, ,-8, ,
-27, ,-8, ,
-26, ,-8, ,
-25, ,-8, ,
-25, ,-8, ,
-26, ,-8, ,
-26, ,-8, ,
-27, ,-8, ,
-27, ,-8, ,
-29, ,-8, ,
-30, ,-8, ,
-31, ,-8, ,
-34, ,-8, ,
-33, ,-8, ,
-33, ,-8, ,
-32, ,-8, ,
-30, ,-8, ,
-29, ,-8, ,
-25, ,-8, ,
-24, ,-8, ,
-19, ,-8, ,
-16, ,-8, ,
-14, ,-8, ,
-10, ,-8, ,
-7, ,-8, ,
-6, ,-8, ,
-4, ,-8, ,
-5, ,-8, ,
-6, ,-8, ,
-5, ,-8, ,
-6, ,-8, ,
-6, ,-8, ,
-6, ,-8, ,
-7, ,-8, ,
-6, ,-8, ,
-7, ,-8, ,
-4, ,-8, ,
-2, ,-8, ,
-2, ,-8, ,
-1, ,-8, ,
2, ,-8, ,
1, ,-8, ,
2, ,-8, ,
1, ,-8, ,
0, ,-8, ,
-1, ,-8, ,
-2, ,-8, ,
-2, ,-8, ,
-5, ,-8, ,
-6, ,-8, ,
-8, ,-8, ,
-11, ,-8, ,
-12, ,-8, ,
-13, ,-8, ,
-13, ,-8, ,
-13, ,-8, ,
-12, ,-8, ,
-12, ,-8, ,
-12, ,-8, ,
-11, ,-8, ,
-12, ,-8, ,
-11, ,-8, ,
-11, ,-8, ,
-14, ,-8, ,
-15, ,-8, ,
-18, ,-8, ,
-17, ,-8, ,
-21, ,-8, ,
-24, ,-8, ,
-27, ,-8, ,
-28, ,-8, ,
-28, ,-8, ,
-29, ,-8, ,
-29, ,-8, ,
-28, ,-8, ,
-28, ,-8, ,
-27, ,-8, ,
-25, ,-8, ,
-26, ,-8, ,
-25, ,-8, ,
-25, ,-8, ,
-26, ,-8, ,
-26, ,-8, ,
-26, ,-8, ,
-26, ,-8, ,
-26, ,-8, ,
-28, ,-8, ,
-28, ,-8, ,
-29, ,-8, ,
-30, ,-8, ,
-30, ,-8, ,
-31, ,-8, ,
-32, ,-8, ,
-33, ,-8, ,
-34, ,-8, ,
-33, ,-8, ,
-35, ,-8, ,
-35, ,-8, ,
-35, ,-8, ,
-35, ,-8, ,
-35, ,-8, ,
-34, ,-8, ,
-34, ,-8, ,
-34, ,-8, ,
-34, ,-8, ,
-34, ,-8, ,
-35, ,-8, ,
-35, ,-8, ,
-35, ,-8, ,
-37, ,-8, ,
-37, ,-8, ,
-38, ,-8, ,
-36, ,-8, ,
-36, ,-8, ,
-34, ,-8, ,
-33, ,-8, ,
-30, ,-8, ,
-29, ,-8, ,
-28, ,-8, ,
-28, ,-8, ,
-25, ,-8, ,
-26, ,-8, ,
-26, ,-8, ,
-27, ,-8, ,
-29, ,-8, ,
-29, ,-8, ,
-30, ,-8, ,
-30, ,-8, ,
-32, ,-8, ,
-32, ,-8, ,
-31, ,-8, ,
-31, ,-8, ,
-29, ,-8, ,
-28, ,-8, ,
-27, ,-8, ,
-27, ,-8, ,
-26, ,-8, ,
-26, ,-8, ,
-24, ,-8, ,
-24, ,-8, ,
-24, ,-8, ,
-24, ,-8, ,
-25, ,-8, ,
-24, ,-8, ,
-22, ,-8, ,
-21, ,-8, ,
-19, ,-8, ,
-20, ,-8, ,
-18, ,-8, ,
-15, ,-8, ,
-17, ,-8, ,
-16, ,-8, ,
-15, ,-8, ,
-15, ,-8, ,
-15, ,-8, ,
-14, ,-8, ,
-14, ,-8, ,
-13, ,-8, ,
-12, ,-8, ,
-12, ,-8, ,
-10, ,-8, ,
-11, ,-8, ,
-9, ,-8, ,
-9, ,-8, ,
-9, ,-8, ,
-8, ,-8, ,
-10, ,-8, ,
-9, ,-8, ,
-10, ,-8, ,
-10, ,-8, ,
-8, ,-8, ,
-8, ,-8, ,
-7, ,-8, ,
-7, ,-8, ,
-4, ,-8, ,
-2, ,-8, ,
1, ,-8, ,
1, ,-8, ,
3, ,-8, ,
3, ,-8, ,
6, ,-8, ,
9, ,-8, ,
10, ,-8, ,
11, ,-8, ,
14, ,-8, ,
14, ,-8, ,
16, ,-8, ,
17, ,-8, ,
18, ,-8, ,
20, ,-8, ,
21, ,-8, ,
21, ,-8, ,
21, ,-8, ,
22, ,-8, ,
22, ,-8, ,
21, ,-8, ,
20, ,-8, ,
20, ,-8, ,
18, ,-8, ,
16, ,-8, ,
15, ,-8, ,
11, ,-8, ,
10, ,-8, ,
9, ,-8, ,
3, ,-8, ,
3, ,-8, ,
0, ,-8, ,
0, ,-8, ,
-5, ,-8, ,
-8, ,-8, ,
-8, ,-8, ,
-11, ,-8, ,
-13, ,-8, ,
-16, ,-8, ,
-18, ,-8, ,
-18, ,-8, ,
-19, ,-8, ,
-22, ,-8, ,
-22, ,-8, ,
-23, ,-8, ,
-23, ,-8, ,
-23, ,-8, ,
-25, ,-8, ,
-25, ,-8, ,
-27, ,-8, ,
-28, ,-8, ,
-28, ,-8, ,
-30, ,-8, ,
-31, ,-8, ,
-30, ,-8, ,
-33, ,-8, ,
-33, ,-8, ,
-34, ,-8, ,
-35, ,-8, ,
-34, ,-8, ,
-35, ,-8, ,
-35, ,-8, ,
-34, ,-8, ,
-34, ,-8, ,
-33, ,-8, ,
-34, ,-8, ,
-34, ,-8, ,
-33, ,-8, ,
-34, ,-8, ,
-32, ,-8, ,
-31, ,-8, ,
-32, ,-8, ,
-31, ,-8, ,
-30, ,-8, ,
-28, ,-8, ,
-27, ,-8, ,
-26, ,-8, ,
-24, ,-8, ,
-20, ,-8, ,
-19, ,-8, ,
-19, ,-8, ,
-15, ,-8, ,
-15, ,-8, ,
-13, ,-8, ,
-13, ,-8, ,
-11, ,-8, ,
-9, ,-8, ,
-10, ,-8, ,
-7, ,-8, ,
-6, ,-8, ,
-4, ,-8, ,
-4, ,-8, ,
-4, ,-8, ,
-1, ,-8, ,
0, ,-8, ,
0, ,-8, ,
0, ,-8, ,
1, ,-8, ,
3, ,-8, ,
4, ,-8, ,
3, ,-8, ,
5, ,-8, ,
5, ,-8, ,
5, ,-8, ,
6, ,-8, ,
7, ,-8, ,
6, ,-8, ,
8, ,-8, ,
8, ,-8, ,
9, ,-8, ,
9, ,-8, ,
8, ,-8, ,
8, ,-8, ,
6, ,-8, ,
5, ,-8, ,
4, ,-8, ,
4, ,-8, ,
3, ,-8, ,
1, ,-8, ,
0, ,-8, ,
1, ,-8, ,
0, ,-8, ,
-3, ,-8, ,
-4, ,-8, ,
-5, ,-8, ,
-6, ,-8, ,
-6, ,-8, ,
-7, ,-8, ,
-8, ,-8, ,
-10, ,-8, ,
-11, ,-8, ,
-10, ,-8, ,
-13, ,-8, ,
-13, ,-8, ,
-13, ,-8, ,
-14, ,-8, ,
-13, ,-8, ,
-13, ,-8, ,
-14, ,-8, ,
-13, ,-8, ,
-15, ,-8, ,
-15, ,-8, ,
-14, ,-8, ,
-15, ,-8, ,
-15, ,-8, ,
-16, ,-8, ,
-18, ,-8, ,
-17, ,-8, ,
-20, ,-8, ,
-21, ,-8, ,
-20, ,-8, ,
-22, ,-8, ,
-22, ,-8, ,
-23, ,-8, ,
-25, ,-8, ,
-25, ,-8, ,
-26, ,-8, ,
-26, ,-8, ,
-26, ,-8, ,
-26, ,-8, ,
-26, ,-8, ,
-27, ,-8, ,
-27, ,-8, ,
-26, ,-8, ,
-28, ,-8, ,
-25, ,-8, ,
-26, ,-8, ,
-24, ,-8, ,
-23, ,-8, ,
-21, ,-8, ,
-22, ,-8, ,
-20, ,-8, ,
-19, ,-8, ,
-17, ,-8, ,
-17, ,-8, ,
-15, ,-8, ,
-14, ,-8, ,
-12, ,-8, ,
-12, ,-8, ,
-11, ,-8, ,
-11, ,-8, ,
-11, ,-8, ,
-11, ,-8, ,
-11, ,-8, ,
-10, ,-8, ,
-10, ,-8, ,
-11, ,-8, ,
-11, ,-8, ,
-12, ,-8, ,
-11, ,-8, ,
-10, ,-8, ,
-11, ,-8, ,
-11, ,-8, ,
-12, ,-8, ,
-11, ,-8, ,
-13, ,-8, ,
-14, ,-8, ,
-14, ,-8, ,
-14, ,-8, ,
-14, ,-8, ,
-14, ,-8, ,
-13, ,-8, ,
-15, ,-8, ,
-14, ,-8, ,
-15, ,-8, ,
-15, ,-8, ,
-14, ,-8, ,
-14, ,-8, ,
-14, ,-8, ,
-14, ,-8, ,
-15, ,-8, ,
-15, ,-8, ,
-16, ,-8, ,
-16, ,-8, ,
-16, ,-8, ,
-16, ,-8, ,
-16, ,-8, ,
-15, ,-8, ,
-16, ,-8, ,
-15, ,-8, ,
-16, ,-8, ,
-16, ,-8, ,
-15, ,-8, ,
-15, ,-8, ,
-15, ,-8, ,
-15, ,-8, ,
-15, ,-8, ,
-15, ,-8, ,
-15, ,-8, ,
-14, ,-8, ,
-14, ,-8, ,
-14, ,-8, ,
-13, ,-8, ,
-12, ,-8, ,
-10, ,-8, ,
-10, ,-8, ,
-10, ,-8, ,
-7, ,-8, ,
-6, ,-8, ,
-5, ,-8, ,
-4, ,-8, ,
-3, ,-8, ,
-3, ,-8, ,
-2, ,-8, ,
-2, ,-8, ,
-2, ,-8, ,
1, ,-8, ,
1, ,-8, ,
1, ,-8, ,
3, ,-8, ,
3, ,-8, ,
3, ,-8, ,
3, ,-8, ,
4, ,-8, ,
5, ,-8, ,
4, ,-8, ,
5, ,-8, ,
4, ,-8, ,
3, ,-8, ,
4, ,-8, ,
1, ,-8, ,
2, ,-8, ,
2, ,-8, ,
0, ,-8, ,
0, ,-8, ,
-1, ,-8, ,
-1, ,-8, ,
-1, ,-8, ,
-2, ,-8, ,
-2, ,-8, ,
-3, ,-8, ,
-3, ,-8, ,
-4, ,-8, ,
-4, ,-8, ,
-6, ,-8, ,
-6, ,-8, ,
-7, ,-8, ,
-7, ,-8, ,
-6, ,-8, ,
-8, ,-8, ,
-8, ,-8, ,
-8, ,-8, ,
-8, ,-8, ,
-8, ,-8, ,
-10, ,-8, ,
-10, ,-8, ,
-10, ,-8, ,
-11, ,-8, ,
-11, ,-8, ,
-11, ,-8, ,
-13, ,-8, ,
-14, ,-8, ,
-14, ,-8, ,
-15, ,-8, ,
-15, ,-8, ,
-15, ,-8, ,
-15, ,-8, ,
-15, ,-8, ,
-16, ,-8, ,
-15, ,-8, ,
-15, ,-8, ,
-14, ,-8, ,
-13, ,-8, ,
-14, ,-8, ,
-13, ,-8, ,
-14, ,-8, ,
-11, ,-8, ,
-11, ,-8, ,
-12, ,-8, ,
-9, ,-8, ,
-9, ,-8, ,
-7, ,-8, ,
-5, ,-8, ,
-3, ,-8, ,
-4, ,-8, ,
-2, ,-8, ,
-2, ,-8, ,
-1, ,-8, ,
0, ,-8, ,
-2, ,-8, ,
-1, ,-8, ,
-1, ,-8, ,
-2, ,-8, ,
-1, ,-8, ,
-3, ,-8, ,
-3, ,-8, ,
-2, ,-8, ,
-3, ,-8, ,
-3, ,-8, ,
-3, ,-8, ,
-4, ,-8, ,
-4, ,-8, ,
-4, ,-8, ,
-4, ,-8, ,
-4, ,-8, ,
-5, ,-8, ,
-5, ,-8, ,
-5, ,-8, ,
-5, ,-8, ,
-5, ,-8, ,
-5, ,-8, ,
-4, ,-8, ,
-4, ,-8, ,
-5, ,-8, ,
-4, ,-8, ,
-3, ,-8, ,
-4, ,-8, ,
-2, ,-8, ,
-2, ,-8, ,
-3, ,-8, ,
-2, ,-8, ,
-2, ,-8, ,
-1, ,-8, ,
-4, ,-8, ,
-3, ,-8, ,
-3, ,-8, ,
-4, ,-8, ,
-3, ,-8, ,
-3, ,-8, ,
-4, ,-8, ,
-4, ,-8, ,
-2, ,-8, ,
-4, ,-8, ,
-4, ,-8, ,
-5, ,-8, ,
-5, ,-8, ,
-5, ,-8, ,
-6, ,-8, ,
-6, ,-8, ,
-7, ,-8, ,
-7, ,-8, ,
-8, ,-8, ,
-8, ,-8, ,
-7, ,-8, ,
-6, ,-8, ,
-8, ,-8, ,
-6, ,-8, ,
-5, ,-8, ,
-6, ,-8, ,
-4, ,-8, ,
-4, ,-8, ,
-4, ,-8, ,
-4, ,-8, ,
-4, ,-8, ,
-3, ,-8, ,
-2, ,-8, ,
-1, ,-8, ,
-1, ,-8, ,
-1, ,-8, ,
0, ,-8, ,
2, ,-8, ,
2, ,-8, ,
2, ,-8, ,
3, ,-8, ,
3, ,-8, ,
3, ,-8, ,
3, ,-8, ,
3, ,-8, ,
4, ,-8, ,
3, ,-8, ,
4, ,-8, ,
3, ,-8, ,
3, ,-8, ,
4, ,-8, ,
2, ,-8, ,
3, ,-8, ,
3, ,-8, ,
2, ,-8, ,
2, ,-8, ,
1, ,-8, ,
1, ,-8, ,
1, ,-8, ,
1, ,-8, ,
1, ,-8, ,
1, ,-8, ,
0, ,-8, ,
0, ,-8, ,
0, ,-8, ,
-1, ,-8, ,
0, ,-8, ,
-1, ,-8, ,
0, ,-8, ,
0, ,-8, ,
-1, ,-8, ,
0, ,-8, ,
0, ,-8, ,
-1, ,-8, ,
0, ,-8, ,
-1, ,-8, ,
0, ,-8, ,
0, ,-8, ,
0, ,-8, ,
2, ,-8, ,
1, ,-8, ,
1, ,-8, ,
1, ,-8, ,
1, ,-8, ,
1, ,-8, ,
2, ,-8, ,
2, ,-8, ,
3, ,-8, ,
3, ,-8, ,
2, ,-8, ,
4, ,-8, ,
4, ,-8, ,
3, ,-8, ,
5, ,-8, ,
5, ,-8, ,
7, ,-8, ,
5, ,-8, ,
5, ,-8, ,
5, ,-8, ,
4, ,-8, ,
5, ,-8, ,
4, ,-8, ,
4, ,-8, ,
4, ,-8, ,
4, ,-8, ,
4, ,-8, ,
3, ,-8, ,
3, ,-8, ,
3, ,-8, ,
3, ,-8, ,
3, ,-8, ,
3, ,-8, ,
2, ,-8, ,
2, ,-8, ,
2, ,-8, ,
1, ,-8, ,
2, ,-8, ,
3, ,-8, ,
1, ,-8, ,
2, ,-8, ,
2, ,-8, ,
1, ,-8, ,
1, ,-8, ,
2, ,-8, ,
1, ,-8, ,
3, ,-8, ,
2, ,-8, ,
2, ,-8, ,
2, ,-8, ,
1, ,-8, ,
2, ,-8, ,
1, ,-8, ,
0, ,-8, ,
3, ,-8, ,
1, ,-8, ,
1, ,-8, ,
0, ,-8, ,
0, ,-8, ,
0, ,-8, ,
0, ,-8, ,
0, ,-8, ,
0, ,-8, ,
-1, ,-8, ,
-1, ,-8, ,
-2, ,-8, ,
-2, ,-8, ,
-2, ,-8, ,
-3, ,-8, ,
-3, ,-8, ,
-3, ,-8, ,
-4, ,-8, ,
-3, ,-8, ,
-3, ,-8, ,
-4, ,-8, ,
-4, ,-8, ,
-3, ,-8, ,
-4, ,-8, ,
-4, ,-8, ,
-4, ,-8, ,
-4, ,-8, ,
-4, ,-8, ,
-5, ,-8, ,
-4, ,-8, ,
-5, ,-8, ,
-5, ,-8, ,
-5, ,-8, ,
-6, ,-8, ,
-6, ,-8, ,
-5, ,-8, ,
-5, ,-8, ,
-5, ,-8, ,
-5, ,-8, ,
-5, ,-8, ,
-5, ,-8, ,
-5, ,-8, ,
-5, ,-8, ,
-5, ,-8, ,
-5, ,-8, ,
-5, ,-8, ,
-5, ,-8, ,
-5, ,-8, ,
-5, ,-8, ,
-6, ,-8, ,
-6, ,-8, ,
-5, ,-8, ,
-6, ,-8, ,
-5, ,-8, ,
-5, ,-8, ,
-5, ,-8, ,
-5, ,-8, ,
-5, ,-8, ,
-4, ,-8, ,
-4, ,-8, ,
-4, ,-8, ,
-4, ,-8, ,
-4, ,-8, ,
-5, ,-8, ,
-5, ,-8, ,
-6, ,-8, ,
-5, ,-8, ,
-5, ,-8, ,
-7, ,-8, ,
-7, ,-8, ,
-8, ,-8, ,
-8, ,-8, ,
-8, ,-8, ,
-8, ,-8, ,
-8, ,-8, ,
-9, ,-8, ,
-10, ,-8, ,
-8, ,-8, ,
-10, ,-8, ,
-10, ,-8, ,
-9, ,-8, ,
-9, ,-8, ,
-9, ,-8, ,
-9, ,-8, ,
-10, ,-8, ,
-9, ,-8, ,
-10, ,-8, ,
-7, ,-8, ,
-7, ,-8, ,
-6, ,-8, ,
-6, ,-8, ,
-4, ,-8, ,
-5, ,-8, ,
-4, ,-8, ,
-4, ,-8, ,
-3, ,-8, ,
-1, ,-8, ,
-2, ,-8, ,
0, ,-8, ,
0, ,-8, ,
0, ,-8, ,
1, ,-8, ,
1, ,-8, ,
1, ,-8, ,
2, ,-8, ,
1, ,-8, ,
2, ,-8, ,
1, ,-8, ,
0, ,-8, ,
0, ,-8, ,
0, ,-8, ,
-1, ,-8, ,
-1, ,-8, ,
-1, ,-8, ,
-1, ,-8, ,
-2, ,-8, ,
-2, ,-8, ,
-2, ,-8, ,
-2, ,-8, ,
-2, ,-8, ,
-2, ,-8, ,
-3, ,-8, ,
-3, ,-8, ,
-4, ,-8, ,
-5, ,-8, ,
-3, ,-8, ,
-5, ,-8, ,
-4, ,-8, ,
-4, ,-8, ,
-4, ,-8, ,
-4, ,-8, ,
-3, ,-8, ,
-5, ,-8, ,
-4, ,-8, ,
-5, ,-8, ,
-5, ,-8, ,
-5, ,-8, ,
-6, ,-8, ,
-5, ,-8, ,
-6, ,-8, ,
-6, ,-8, ,
-6, ,-8, ,
-6, ,-8, ,
-6, ,-8, ,
-6, ,-8, ,
-6, ,-8, ,
-6, ,-8, ,
-6, ,-8, ,
-6, ,-8, ,
-5, ,-8, ,
-4, ,-8, ,
-4, ,-8, ,
-3, ,-8, ,
-2, ,-8, ,
-1, ,-8, ,
0, ,-8, ,
1, ,-8, ,
2, ,-8, ,
1, ,-8, ,
3, ,-8, ,
5, ,-8, ,
4, ,-8, ,
6, ,-8, ,
7, ,-8, ,
7, ,-8, ,
7, ,-8, ,
7, ,-8, ,
8, ,-8, ,
8, ,-8, ,
8, ,-8, ,
8, ,-8, ,
7, ,-8, ,
7, ,-8, ,
6, ,-8, ,
5, ,-8, ,
5, ,-8, ,
5, ,-8, ,
3, ,-8, ,
3, ,-8, ,
2, ,-8, ,
0, ,-8, ,
0, ,-8, ,
0, ,-8, ,
-1, ,-8, ,
-1, ,-8, ,
-2, ,-8, ,
-2, ,-8, ,
-2, ,-8, ,
-3, ,-8, ,
-3, ,-8, ,
-3, ,-8, ,
-2, ,-8, ,
-2, ,-8, ,
-2, ,-8, ,
-2, ,-8, ,
-1, ,-8, ,
-3, ,-8, ,
-1, ,-8, ,
-2, ,-8, ,
-1, ,-8, ,
0, ,-8, ,
0, ,-8, ,
0, ,-8, ,
0, ,-8, ,
1, ,-8, ,
1, ,-8, ,
0, ,-8, ,
0, ,-8, ,
1, ,-8, ,
0, ,-8, ,
0, ,-8, ,
0, ,-8, ,
0, ,-8, ,
0, ,-8, ,
-1, ,-8, ,
-2, ,-8, ,
0, ,-8, ,
-1, ,-8, ,
-1, ,-8, ,
-1, ,-8, ,
-1, ,-8, ,
-1, ,-8, ,
-2, ,-8, ,
-3, ,-8, ,
-3, ,-8, ,
-4, ,-8, ,
-2, ,-8, ,
-2, ,-8, ,
-2, ,-8, ,
-2, ,-8, ,
-2, ,-8, ,
-2, ,-8, ,
-2, ,-8, ,
-1, ,-8, ,
-1, ,-8, ,
-2, ,-8, ,
-1, ,-8, ,
-1, ,-8, ,
-1, ,-8, ,
-2, ,-8, ,
-2, ,-8, ,
-2, ,-8, ,
-1, ,-8, ,
-1, ,-8, ,
-1, ,-8, ,
0, ,-8, ,
-1, ,-8, ,
-2, ,-8, ,
-2, ,-8, ,
-2, ,-8, ,
-2, ,-8, ,
-2, ,-8, ,
-1, ,-8, ,
-2, ,-8, ,
-2, ,-8, ,
-2, ,-8, ,
-2, ,-8, ,
-2, ,-8, ,
-2, ,-8, ,
-1, ,-8, ,
-2, ,-8, ,
-1, ,-8, ,
-2, ,-8, ,
-3, ,-8, ,
-1, ,-8, ,
-1, ,-8, ,
-1, ,-8, ,
-1, ,-8, ,
-1, ,-8, ,
-1, ,-8, ,
-2, ,-8, ,
-1, ,-8, ,
0, ,-8, ,
-1, ,-8, ,
0, ,-8, ,
0, ,-8, ,
-1, ,-8, ,
0, ,-8, ,
-1, ,-8, ,
0, ,-8, ,
0, ,-8, ,
0, ,-8, ,
0, ,-8, ,
0, ,-8, ,
0, ,-8, ,
0, ,-8, ,
-1, ,-8, ,
0, ,-8, ,
0, ,-8, ,
0, ,-8, ,
0, ,-8, ,
-1, ,-8, ,
-1, ,-8, ,
-1, ,-8, ,
-2, ,-8, ,
-1, ,-8, ,
-1, ,-8, ,
-2, ,-8, ,
0, ,-8, ,
-1, ,-8, ,
0, ,-8, ,
0, ,-8, ,
0, ,-8, ,
-1, ,-8, ,
-1, ,-8, ,
-1, ,-8, ,
0, ,-8, ,
0, ,-8, ,
0, ,-8, ,
0, ,-8, ,
0, ,-8, ,
0, ,-8, ,
0, ,-8, ,
0, ,-8, ,
0, ,-8, ,
0, ,-8, ,
0, ,-8, ,
0, ,-8, ,
0, ,-8, ,
0, ,-8, ,
1, ,-8, ,
0, ,-8, ,
1, ,-8, ,
2, ,-8, ,
2, ,-8, ,
3, ,-8, ,
2, ,-8, ,
1, ,-8, ,
1, ,-8, ,
1, ,-8, ,
2, ,-8, ,
3, ,-8, ,
2, ,-8, ,
2, ,-8, ,
1, ,-8, ,
1, ,-8, ,
3, ,-8, ,
1, ,-8, ,
1, ,-8, ,
1, ,-8, ,
0, ,-8, ,
0, ,-8, ,
0, ,-8, ,
0, ,-8, ,
0, ,-8, ,
0, ,-8, ,
1, ,-8, ,
0, ,-8, ,
-1, ,-8, ,
0, ,-8, ,
-1, ,-8, ,
0, ,-8, ,
0, ,-8, ,
0, ,-8, ,
0, ,-8, ,
1, ,-8, ,
0, ,-8, ,
0, ,-8, ,
0, ,-8, ,
0, ,-8, ,
1, ,-8, ,
1, ,-8, ,
2, ,-8, ,
2, ,-8, ,
0, ,-8, ,
4, ,-8, ,
1, ,-8, ,
2, ,-8, ,
2, ,-8, ,
1, ,-8, ,
3, ,-8, ,
2, ,-8, ,
1, ,-8, ,
2, ,-8, ,
1, ,-8, ,
1, ,-8, ,
2, ,-8, ,
2, ,-8, ,
2, ,-8, ,
2, ,-8, ,
2, ,-8, ,
2, ,-8, ,
1, ,-8, ,
0, ,-8, ,
1, ,-8, ,
1, ,-8, ,
1, ,-8, ,
0, ,-8, ,
0, ,-8, ,
1, ,-8, ,
1, ,-8, ,
1, ,-8, ,
1, ,-8, ,
1, ,-8, ,
1, ,-8, ,
1, ,-8, ,
1, ,-8, ,
1, ,-8, ,
0, ,-8, ,
1, ,-8, ,
2, ,-8, ,
1, ,-8, ,
1, ,-8, ,
1, ,-8, ,
1, ,-8, ,
1, ,-8, ,
1, ,-8, ,
0, ,-8, ,
1, ,-8, ,
1, ,-8, ,
1, ,-8, ,
1, ,-8, ,
1, ,-8, ,
1, ,-8, ,
1, ,-8, ,
2, ,-8, ,
1, ,-8, ,
1, ,-8, ,
1, ,-8, ,
2, ,-8, ,
1, ,-8, ,
2, ,-8, ,
1, ,-8, ,
1, ,-8, ,
2, ,-8, ,
2, ,-8, ,
2, ,-8, ,
3, ,-8, ,
2, ,-8, ,
4, ,-8, ,
2, ,-8, ,
3, ,-8, ,
3, ,-8, ,
3, ,-8, ,
3, ,-8, ,
2, ,-8, ,
1, ,-8, ,
2, ,-8, ,
1, ,-8, ,
1, ,-8, ,
3, ,-8, ,
2, ,-8, ,
2, ,-8, ,
1, ,-8, ,
1, ,-8, ,
1, ,-8, ,
2, ,-8, ,
2, ,-8, ,
2, ,-8, ,
0, ,-8, ,
1, ,-8, ,
2, ,-8, ,
0, ,-8, ,
0, ,-8, ,
0, ,-8, ,
-1, ,-8, ,
-1, ,-8, ,
-2, ,-8, ,
-1, ,-8, ,
0, ,-8, ,
-1, ,-8, ,
0, ,-8, ,
-1, ,-8, ,
-1, ,-8, ,
-1, ,-8, ,
-2, ,-8, ,
0, ,-8, ,
-1, ,-8, ,
-1, ,-8, ,
-1, ,-8, ,
-2, ,-8, ,
-2, ,-8, ,
-1, ,-8, ,
-2, ,-8, ,
-1, ,-8, ,
-1, ,-8, ,
-1, ,-8, ,
-1, ,-8, ,
-1, ,-8, ,
-1, ,-8, ,
0, ,-8, ,
-1, ,-8, ,
-1, ,-8, ,
-1, ,-8, ,
-1, ,-8, ,
0, ,-8, ,
0, ,-8, ,
0, ,-8, ,
0, ,-8, ,
0, ,-8, ,
0, ,-8, ,
0, ,-8, ,
0, ,-8, ,
0, ,-8, ,
0, ,-8, ,
1, ,-8, ,
1, ,-8, ,
-1, ,-8, ,
0, ,-8, ,
0, ,-8, ,
0, ,-8, ,
1, ,-8, ,
0, ,-8, ,
0, ,-8, ,
1, ,-8, ,
0, ,-8, ,
0, ,-8, ,
0, ,-8, ,
0, ,-8, ,
0, ,-8, ,
0, ,-8, ,
0, ,-8, ,
1, ,-8, ,
0, ,-8, ,
0, ,-8, ,
0, ,-8, ,
0, ,-8, ,
0, ,-8, ,
0, ,-8, ,
0, ,-8, ,
0, ,-8, ,
0, ,-8, ,
0, ,-8, ,
0, ,-8, ,
-1, ,-8, ,
0, ,-8, ,
-1, ,-8, ,
0, ,-8, ,
0, ,-8, ,
-1, ,-8, ,
-1, ,-8, ,
-1, ,-8, ,
-3, ,-8, ,
-1, ,-8, ,
-2, ,-8, ,
-2, ,-8, ,
-2, ,-8, ,
-2, ,-8, ,
-2, ,-8, ,
-2, ,-8, ,
-2, ,-8, ,
-1, ,-8, ,
-4, ,-8, ,
-2, ,-8, ,
-2, ,-8, ,
-2, ,-8, ,
-2, ,-8, ,
-1, ,-8, ,
-3, ,-8, ,
-1, ,-8, ,
-2, ,-8, ,
-3, ,-8, ,
