raw_data/100% Glycerol, Impulsion 2Hz, Sonde 5MHz, Rampe 0.7Hz/temp0000386.CSV

Format,1.0B,
Memory Length,10000,Memory Length,10000,
IntpDistance,0,IntpDistance,0,
Trigger Address,159,Trigger Address,159,
Trigger Level,2.720E-01,Trigger Level,2.720E-01,
Source,CH1,Source,CH2,
Vertical Units,V,Vertical Units,V,
Vertical Units Div,0,Vertical Units Div,0,
Vertical Units Extend Div,16,Vertical Units Extend Div,16,
Label,,Label,,
Probe Type,0,Probe Type,0,
Probe Ratio,1.000e+00,Probe Ratio,1.000e+00,
Vertical Scale,2.000e-01,Vertical Scale,2.000e+00,
Vertical Position,0.000e+00,Vertical Position,0.000e+00,
Horizontal Units,S,Horizontal Units,S,
Horizontal Scale,5.000E-06,Horizontal Scale,5.000E-06,
Horizontal Position,2.420E-05,Horizontal Position,2.420E-05,
Horizontal Mode,Main,Horizontal Mode,Main,
SincET Mode,Real Time,SincET Mode,Real Time,
Sampling Period,5.000e-09,Sampling Period,5.000e-09,
Horizontal Old Scale,5.000E-06,Horizontal Old Scale,5.000E-06,
Horizontal Old Position,2.420E-05,Horizontal Old Position,2.420E-05,
Firmware,V1.32,Firmware,V1.32,
Mode,Fast,Mode,Fast,
Waveform Data,,Waveform Data,,
2, ,-1, ,
2, ,-1, ,
2, ,-1, ,
2, ,-1, ,
2, ,-1, ,
2, ,-1, ,
2, ,-1, ,
1, ,-2, ,
2, ,-2, ,
2, ,-1, ,
1, ,-1, ,
2, ,-1, ,
1, ,-1, ,
1, ,-2, ,
2, ,-2, ,
2, ,-1, ,
1, ,-1, ,
2, ,-1, ,
1, ,-1, ,
2, ,-1, ,
2, ,-1, ,
2, ,-1, ,
1, ,-1, ,
1, ,-2, ,
1, ,-2, ,
2, ,-2, ,
1, ,-2, ,
2, ,-1, ,
2, ,-1, ,
2, ,-1, ,
1, ,-1, ,
2, ,-1, ,
2, ,-1, ,
2, ,-1, ,
1, ,-1, ,
1, ,-1, ,
1, ,-1, ,
1, ,-1, ,
2, ,-1, ,
2, ,-2, ,
3, ,-2, ,
3, ,-1, ,
2, ,-1, ,
2, ,-1, ,
1, ,-1, ,
2, ,-1, ,
2, ,-1, ,
1, ,-1, ,
2, ,-1, ,
2, ,-1, ,
2, ,-1, ,
2, ,-1, ,
1, ,-1, ,
1, ,-2, ,
3, ,-2, ,
2, ,-1, ,
3, ,-1, ,
2, ,-1, ,
2, ,-1, ,
2, ,-1, ,
1, ,-1, ,
1, ,-1, ,
3, ,-2, ,
2, ,-2, ,
2, ,-2, ,
2, ,-2, ,
2, ,-2, ,
2, ,-2, ,
1, ,-2, ,
1, ,-2, ,
2, ,-1, ,
1, ,-1, ,
2, ,-1, ,
2, ,-1, ,
1, ,-1, ,
2, ,-1, ,
1, ,-1, ,
2, ,-1, ,
2, ,-1, ,
2, ,-1, ,
3, ,-2, ,
2, ,-2, ,
1, ,-2, ,
2, ,-1, ,
2, ,-1, ,
1, ,-1, ,
2, ,-1, ,
2, ,-1, ,
2, ,-1, ,
2, ,-1, ,
2, ,-1, ,
2, ,-1, ,
1, ,-1, ,
2, ,-2, ,
2, ,-2, ,
2, ,-1, ,
2, ,-1, ,
2, ,-1, ,
2, ,-1, ,
1, ,-2, ,
2, ,-2, ,
1, ,-2, ,
3, ,-1, ,
3, ,-1, ,
3, ,-2, ,
2, ,-2, ,
1, ,-2, ,
2, ,-1, ,
1, ,-1, ,
1, ,-1, ,
3, ,-1, ,
2, ,-1, ,
2, ,-1, ,
2, ,-1, ,
1, ,-1, ,
2, ,-1, ,
2, ,-1, ,
2, ,-1, ,
2, ,-1, ,
2, ,-2, ,
2, ,-2, ,
1, ,-1, ,
2, ,-1, ,
2, ,-1, ,
1, ,-1, ,
2, ,-1, ,
2, ,-1, ,
1, ,-1, ,
3, ,-1, ,
3, ,-1, ,
1, ,-1, ,
1, ,-1, ,
2, ,-1, ,
1, ,-1, ,
2, ,-1, ,
2, ,-1, ,
2, ,-2, ,
1, ,-2, ,
1, ,-2, ,
1, ,-2, ,
1, ,-1, ,
2, ,-1, ,
3, ,-1, ,
1, ,-1, ,
2, ,-1, ,
2, ,-1, ,
1, ,-1, ,
2, ,-1, ,
1, ,-1, ,
1, ,-1, ,
2, ,-1, ,
2, ,-1, ,
2, ,-1, ,
2, ,-1, ,
1, ,-1, ,
2, ,-1, ,
2, ,-1, ,
2, ,-1, ,
2, ,-1, ,
2, ,-1, ,
2, ,-1, ,
2, ,-1, ,
1, ,-1, ,
2, ,-1, ,
0, ,-1, ,
0, ,-1, ,
-3, ,-1, ,
11, ,-1, ,
53, ,-1, ,
125, ,-1, ,
125, ,-1, ,
125, ,-2, ,
123, ,-2, ,
69, ,-2, ,
-18, ,-1, ,
27, ,-1, ,
125, ,-1, ,
125, ,-1, ,
125, ,-1, ,
125, ,-1, ,
125, ,-1, ,
125, ,-1, ,
125, ,-1, ,
125, ,-1, ,
125, ,-1, ,
125, ,-1, ,
125, ,-1, ,
125, ,-1, ,
125, ,-1, ,
125, ,-1, ,
125, ,-1, ,
125, ,-1, ,
125, ,-2, ,
125, ,-2, ,
125, ,-2, ,
125, ,-2, ,
125, ,-2, ,
125, ,-2, ,
125, ,-1, ,
125, ,-2, ,
125, ,-2, ,
124, ,-1, ,
124, ,-1, ,
122, ,-1, ,
118, ,-1, ,
108, ,-1, ,
104, ,-1, ,
99, ,-2, ,
96, ,-2, ,
89, ,-2, ,
84, ,-2, ,
80, ,-1, ,
76, ,-1, ,
70, ,-1, ,
67, ,-1, ,
63, ,-1, ,
61, ,-1, ,
54, ,-1, ,
53, ,-1, ,
51, ,-1, ,
48, ,-1, ,
43, ,-2, ,
41, ,-2, ,
39, ,-1, ,
36, ,-1, ,
35, ,-1, ,
32, ,-1, ,
30, ,-2, ,
29, ,-2, ,
25, ,-2, ,
25, ,-1, ,
24, ,-1, ,
22, ,-1, ,
20, ,-1, ,
19, ,-1, ,
18, ,-1, ,
16, ,-1, ,
15, ,-1, ,
14, ,-1, ,
11, ,-1, ,
11, ,-1, ,
10, ,-1, ,
9, ,-1, ,
9, ,-1, ,
8, ,-1, ,
7, ,-1, ,
6, ,-1, ,
5, ,-1, ,
5, ,-1, ,
5, ,-1, ,
4, ,-1, ,
4, ,-1, ,
3, ,-1, ,
1, ,-1, ,
2, ,-1, ,
1, ,-1, ,
1, ,-1, ,
0, ,-1, ,
0, ,-2, ,
0, ,-2, ,
0, ,-2, ,
-1, ,-2, ,
-1, ,-2, ,
-1, ,-1, ,
-1, ,-1, ,
-1, ,-1, ,
-1, ,-1, ,
-1, ,-1, ,
-2, ,-1, ,
-2, ,-1, ,
-2, ,-1, ,
-2, ,-1, ,
-2, ,-1, ,
-3, ,-1, ,
-4, ,-1, ,
-3, ,-1, ,
-4, ,-1, ,
-4, ,-1, ,
-4, ,-1, ,
-3, ,-1, ,
-3, ,-1, ,
-3, ,-1, ,
-4, ,-1, ,
-3, ,-2, ,
-3, ,-2, ,
-3, ,-2, ,
-3, ,-1, ,
-3, ,-1, ,
-2, ,-1, ,
-1, ,-1, ,
-2, ,-1, ,
-2, ,-1, ,
-2, ,-1, ,
-2, ,-1, ,
-3, ,-1, ,
-3, ,-1, ,
-3, ,-1, ,
-2, ,-1, ,
-2, ,-2, ,
-2, ,-2, ,
-2, ,-1, ,
-2, ,-2, ,
-2, ,-2, ,
-2, ,-1, ,
-2, ,-1, ,
-2, ,-1, ,
-2, ,-1, ,
-1, ,-1, ,
-2, ,-1, ,
-2, ,-1, ,
-1, ,-1, ,
-2, ,-1, ,
-1, ,-1, ,
-1, ,-1, ,
-1, ,-2, ,
-1, ,-2, ,
-2, ,-1, ,
-1, ,-1, ,
-1, ,-1, ,
-1, ,-1, ,
-2, ,-1, ,
-1, ,-1, ,
-2, ,-2, ,
-2, ,-2, ,
-1, ,-1, ,
-1, ,-1, ,
0, ,-1, ,
0, ,-2, ,
0, ,-2, ,
0, ,-1, ,
0, ,-1, ,
0, ,-1, ,
0, ,-1, ,
0, ,-1, ,
0, ,-1, ,
0, ,-1, ,
0, ,-1, ,
0, ,-1, ,
0, ,-1, ,
0, ,-2, ,
0, ,-2, ,
0, ,-2, ,
1, ,-1, ,
0, ,-1, ,
1, ,-1, ,
0, ,-1, ,
0, ,-1, ,
0, ,-1, ,
0, ,-1, ,
1, ,-1, ,
1, ,-1, ,
1, ,-1, ,
1, ,-1, ,
0, ,-1, ,
0, ,-1, ,
0, ,-1, ,
0, ,-1, ,
1, ,-1, ,
1, ,-1, ,
1, ,-1, ,
1, ,-1, ,
2, ,-1, ,
1, ,-2, ,
3, ,-2, ,
0, ,-1, ,
0, ,-1, ,
1, ,-1, ,
1, ,-1, ,
1, ,-1, ,
1, ,-1, ,
1, ,-1, ,
1, ,-2, ,
1, ,-2, ,
1, ,-2, ,
1, ,-1, ,
1, ,-1, ,
1, ,-1, ,
1, ,-1, ,
1, ,-1, ,
1, ,-2, ,
1, ,-2, ,
1, ,-2, ,
2, ,-1, ,
1, ,-1, ,
2, ,-1, ,
1, ,-1, ,
1, ,-1, ,
1, ,-1, ,
1, ,-1, ,
1, ,-2, ,
1, ,-2, ,
1, ,-1, ,
1, ,-1, ,
2, ,-1, ,
1, ,-1, ,
1, ,-1, ,
1, ,-1, ,
1, ,-1, ,
1, ,-1, ,
1, ,-1, ,
2, ,-1, ,
1, ,-1, ,
1, ,-1, ,
1, ,-1, ,
1, ,-1, ,
1, ,-1, ,
1, ,-1, ,
1, ,-2, ,
2, ,-2, ,
2, ,-2, ,
1, ,-2, ,
2, ,-2, ,
1, ,-2, ,
1, ,-2, ,
1, ,-1, ,
1, ,-1, ,
2, ,-2, ,
3, ,-2, ,
1, ,-2, ,
2, ,-1, ,
1, ,-1, ,
1, ,-1, ,
1, ,-1, ,
1, ,-1, ,
1, ,-1, ,
2, ,-1, ,
0, ,-1, ,
1, ,-2, ,
1, ,-2, ,
1, ,-2, ,
1, ,-2, ,
0, ,-1, ,
0, ,-2, ,
2, ,-2, ,
1, ,-2, ,
2, ,-2, ,
1, ,-2, ,
1, ,-2, ,
1, ,-1, ,
1, ,-1, ,
0, ,-1, ,
0, ,-1, ,
-1, ,-1, ,
-1, ,-1, ,
-1, ,-1, ,
-1, ,-1, ,
0, ,-1, ,
0, ,-1, ,
0, ,-2, ,
1, ,-2, ,
1, ,-2, ,
1, ,-1, ,
1, ,-1, ,
1, ,-1, ,
1, ,-1, ,
1, ,-1, ,
2, ,-1, ,
2, ,-1, ,
2, ,-2, ,
2, ,-2, ,
1, ,-1, ,
1, ,-2, ,
1, ,-2, ,
1, ,-1, ,
1, ,-1, ,
2, ,-2, ,
1, ,-2, ,
1, ,-2, ,
0, ,-1, ,
2, ,-1, ,
2, ,-1, ,
2, ,-1, ,
2, ,-1, ,
2, ,-1, ,
2, ,-1, ,
2, ,-1, ,
1, ,-1, ,
1, ,-1, ,
2, ,-1, ,
1, ,-1, ,
0, ,-1, ,
0, ,-1, ,
0, ,-2, ,
0, ,-2, ,
0, ,-1, ,
0, ,-1, ,
1, ,-1, ,
0, ,-1, ,
0, ,-1, ,
1, ,-1, ,
2, ,-1, ,
2, ,-1, ,
2, ,-1, ,
1, ,-1, ,
2, ,-1, ,
2, ,-2, ,
1, ,-2, ,
2, ,-1, ,
1, ,-1, ,
2, ,-2, ,
0, ,-2, ,
0, ,-2, ,
0, ,-1, ,
-1, ,-1, ,
0, ,-1, ,
1, ,-1, ,
1, ,-1, ,
1, ,-2, ,
1, ,-2, ,
1, ,-2, ,
1, ,-2, ,
1, ,-2, ,
1, ,-1, ,
0, ,-1, ,
0, ,-1, ,
0, ,-1, ,
-1, ,-1, ,
-3, ,-1, ,
-3, ,-1, ,
-5, ,-1, ,
-4, ,-1, ,
-6, ,-1, ,
-6, ,-1, ,
-6, ,-1, ,
-7, ,-1, ,
-7, ,-1, ,
-7, ,-1, ,
-8, ,-2, ,
-8, ,-2, ,
-8, ,-1, ,
-9, ,-1, ,
-9, ,-1, ,
-11, ,-1, ,
-13, ,-2, ,
-14, ,-2, ,
-16, ,-1, ,
-16, ,-1, ,
-19, ,-1, ,
-22, ,-1, ,
-23, ,-1, ,
-25, ,-1, ,
-28, ,-1, ,
-26, ,-1, ,
-29, ,-1, ,
-29, ,-1, ,
-27, ,-1, ,
-27, ,-1, ,
-27, ,-1, ,
-26, ,-1, ,
-25, ,-1, ,
-24, ,-1, ,
-25, ,-1, ,
-25, ,-1, ,
-27, ,-1, ,
-28, ,-1, ,
-28, ,-1, ,
-30, ,-1, ,
-32, ,-1, ,
-32, ,-1, ,
-33, ,-1, ,
-32, ,-1, ,
-31, ,-1, ,
-30, ,-1, ,
-29, ,-1, ,
-25, ,-1, ,
-22, ,-1, ,
-18, ,-1, ,
-16, ,-1, ,
-14, ,-1, ,
-9, ,-1, ,
-9, ,-1, ,
-8, ,-1, ,
-6, ,-1, ,
-6, ,-1, ,
-5, ,-1, ,
-8, ,-1, ,
-8, ,-1, ,
-9, ,-1, ,
-9, ,-1, ,
-9, ,-1, ,
-10, ,-1, ,
-7, ,-1, ,
-5, ,-1, ,
-5, ,-1, ,
-3, ,-1, ,
0, ,-1, ,
0, ,-2, ,
1, ,-2, ,
0, ,-1, ,
0, ,-1, ,
0, ,-1, ,
-1, ,-1, ,
-2, ,-2, ,
-4, ,-2, ,
-6, ,-2, ,
-8, ,-2, ,
-9, ,-1, ,
-14, ,-1, ,
-13, ,-1, ,
-15, ,-1, ,
-15, ,-1, ,
-14, ,-1, ,
-14, ,-1, ,
-13, ,-1, ,
-13, ,-1, ,
-10, ,-1, ,
-10, ,-1, ,
-9, ,-1, ,
-10, ,-1, ,
-11, ,-1, ,
-11, ,-1, ,
-12, ,-1, ,
-14, ,-1, ,
-17, ,-2, ,
-17, ,-2, ,
-20, ,-1, ,
-20, ,-1, ,
-22, ,-1, ,
-22, ,-1, ,
-22, ,-1, ,
-23, ,-1, ,
-24, ,-1, ,
-23, ,-1, ,
-25, ,-1, ,
-25, ,-1, ,
-27, ,-1, ,
-28, ,-1, ,
-30, ,-1, ,
-31, ,-1, ,
-35, ,-1, ,
-38, ,-1, ,
-39, ,-1, ,
-40, ,-1, ,
-44, ,-1, ,
-45, ,-2, ,
-45, ,-2, ,
-45, ,-1, ,
-44, ,-1, ,
-44, ,-1, ,
-45, ,-1, ,
-44, ,-2, ,
-43, ,-2, ,
-43, ,-2, ,
-40, ,-2, ,
-39, ,-2, ,
-35, ,-2, ,
-35, ,-1, ,
-33, ,-2, ,
-30, ,-2, ,
-28, ,-1, ,
-27, ,-1, ,
-26, ,-2, ,
-27, ,-2, ,
-28, ,-2, ,
-28, ,-1, ,
-28, ,-1, ,
-28, ,-1, ,
-30, ,-1, ,
-30, ,-1, ,
-30, ,-1, ,
-29, ,-1, ,
-28, ,-1, ,
-26, ,-1, ,
-24, ,-1, ,
-24, ,-1, ,
-21, ,-1, ,
-22, ,-1, ,
-21, ,-1, ,
-21, ,-1, ,
-21, ,-2, ,
-23, ,-2, ,
-23, ,-1, ,
-23, ,-1, ,
-25, ,-1, ,
-25, ,-1, ,
-25, ,-2, ,
-25, ,-2, ,
-24, ,-2, ,
-22, ,-1, ,
-23, ,-1, ,
-21, ,-1, ,
-20, ,-1, ,
-20, ,-1, ,
-20, ,-2, ,
-20, ,-2, ,
-20, ,-2, ,
-20, ,-1, ,
-20, ,-1, ,
-19, ,-1, ,
-17, ,-1, ,
-17, ,-1, ,
-16, ,-2, ,
-15, ,-2, ,
-12, ,-2, ,
-10, ,-1, ,
-10, ,-2, ,
-7, ,-2, ,
-6, ,-1, ,
-4, ,-1, ,
-4, ,-1, ,
-4, ,-1, ,
-2, ,-1, ,
-1, ,-1, ,
0, ,-1, ,
0, ,-1, ,
2, ,-1, ,
1, ,-1, ,
2, ,-1, ,
3, ,-1, ,
3, ,-1, ,
3, ,-1, ,
2, ,-1, ,
1, ,-1, ,
1, ,-1, ,
1, ,-2, ,
1, ,-2, ,
1, ,-1, ,
1, ,-2, ,
2, ,-2, ,
2, ,-1, ,
3, ,-1, ,
4, ,-1, ,
5, ,-1, ,
5, ,-2, ,
5, ,-2, ,
6, ,-2, ,
6, ,-1, ,
6, ,-2, ,
6, ,-2, ,
7, ,-1, ,
7, ,-1, ,
7, ,-1, ,
5, ,-1, ,
5, ,-1, ,
7, ,-1, ,
5, ,-1, ,
5, ,-2, ,
5, ,-2, ,
4, ,-2, ,
5, ,-1, ,
4, ,-1, ,
2, ,-1, ,
2, ,-1, ,
0, ,-1, ,
0, ,-1, ,
-3, ,-1, ,
-3, ,-1, ,
-5, ,-1, ,
-6, ,-1, ,
-8, ,-2, ,
-10, ,-2, ,
-11, ,-1, ,
-11, ,-1, ,
-14, ,-1, ,
-16, ,-1, ,
-17, ,-1, ,
-19, ,-1, ,
-20, ,-1, ,
-20, ,-1, ,
-22, ,-2, ,
-21, ,-2, ,
-22, ,-1, ,
-24, ,-1, ,
-24, ,-2, ,
-25, ,-2, ,
-25, ,-1, ,
-25, ,-1, ,
-26, ,-2, ,
-26, ,-2, ,
-28, ,-2, ,
-29, ,-2, ,
-29, ,-2, ,
-31, ,-1, ,
-33, ,-1, ,
-33, ,-1, ,
-34, ,-1, ,
-35, ,-1, ,
-35, ,-1, ,
-36, ,-1, ,
-36, ,-1, ,
-36, ,-1, ,
-36, ,-1, ,
-35, ,-1, ,
-36, ,-1, ,
-35, ,-1, ,
-35, ,-1, ,
-35, ,-1, ,
-35, ,-2, ,
-35, ,-2, ,
-33, ,-2, ,
-33, ,-1, ,
-32, ,-1, ,
-31, ,-1, ,
-30, ,-1, ,
-28, ,-1, ,
-27, ,-1, ,
-29, ,-1, ,
-24, ,-2, ,
-24, ,-2, ,
-21, ,-2, ,
-21, ,-2, ,
-19, ,-2, ,
-19, ,-2, ,
-17, ,-1, ,
-16, ,-1, ,
-16, ,-1, ,
-15, ,-1, ,
-15, ,-1, ,
-15, ,-1, ,
-13, ,-1, ,
-14, ,-1, ,
-11, ,-1, ,
-10, ,-1, ,
-9, ,-1, ,
-6, ,-1, ,
-7, ,-1, ,
-4, ,-1, ,
0, ,-2, ,
0, ,-2, ,
1, ,-1, ,
3, ,-1, ,
6, ,-1, ,
9, ,-1, ,
11, ,-1, ,
14, ,-1, ,
17, ,-1, ,
17, ,-1, ,
21, ,-1, ,
21, ,-1, ,
24, ,-1, ,
26, ,-1, ,
25, ,-1, ,
27, ,-1, ,
27, ,-1, ,
25, ,-1, ,
26, ,-1, ,
24, ,-1, ,
21, ,-1, ,
22, ,-1, ,
19, ,-1, ,
18, ,-2, ,
13, ,-2, ,
10, ,-2, ,
10, ,-2, ,
7, ,-2, ,
2, ,-2, ,
2, ,-1, ,
-3, ,-2, ,
-5, ,-2, ,
-6, ,-1, ,
-10, ,-1, ,
-11, ,-2, ,
-13, ,-2, ,
-17, ,-2, ,
-17, ,-1, ,
-18, ,-1, ,
-17, ,-2, ,
-18, ,-2, ,
-18, ,-2, ,
-18, ,-1, ,
-18, ,-1, ,
-19, ,-1, ,
-19, ,-1, ,
-19, ,-1, ,
-19, ,-1, ,
-19, ,-1, ,
-18, ,-1, ,
-18, ,-1, ,
-19, ,-2, ,
-19, ,-2, ,
-18, ,-2, ,
-17, ,-1, ,
-18, ,-1, ,
-19, ,-1, ,
-18, ,-2, ,
-19, ,-2, ,
-19, ,-1, ,
-19, ,-1, ,
-19, ,-2, ,
-19, ,-2, ,
-19, ,-1, ,
-19, ,-1, ,
-20, ,-1, ,
-19, ,-1, ,
-19, ,-1, ,
-20, ,-1, ,
-20, ,-1, ,
-20, ,-2, ,
-20, ,-2, ,
-19, ,-1, ,
-19, ,-1, ,
-18, ,-1, ,
-18, ,-1, ,
-18, ,-1, ,
-17, ,-1, ,
-17, ,-1, ,
-17, ,-1, ,
-16, ,-1, ,
-18, ,-1, ,
-18, ,-1, ,
-19, ,-1, ,
-19, ,-1, ,
-19, ,-1, ,
-21, ,-1, ,
-22, ,-1, ,
-23, ,-1, ,
-23, ,-1, ,
-23, ,-1, ,
-24, ,-1, ,
-24, ,-2, ,
-24, ,-2, ,
-24, ,-2, ,
-23, ,-2, ,
-22, ,-1, ,
-22, ,-2, ,
-22, ,-2, ,
-23, ,-1, ,
-20, ,-1, ,
-19, ,-1, ,
-18, ,-1, ,
-16, ,-1, ,
-15, ,-1, ,
-15, ,-1, ,
-14, ,-1, ,
-13, ,-1, ,
-11, ,-1, ,
-10, ,-1, ,
-9, ,-1, ,
-9, ,-1, ,
-8, ,-1, ,
-8, ,-1, ,
-8, ,-2, ,
-8, ,-2, ,
-8, ,-2, ,
-9, ,-1, ,
-9, ,-1, ,
-9, ,-1, ,
-9, ,-1, ,
-10, ,-1, ,
-10, ,-1, ,
-11, ,-1, ,
-10, ,-1, ,
-11, ,-1, ,
-11, ,-1, ,
-12, ,-1, ,
-12, ,-1, ,
-12, ,-1, ,
-12, ,-1, ,
-13, ,-1, ,
-14, ,-1, ,
-13, ,-1, ,
-13, ,-2, ,
-13, ,-2, ,
-13, ,-2, ,
-13, ,-2, ,
-13, ,-2, ,
-14, ,-2, ,
-14, ,-2, ,
-14, ,-1, ,
-14, ,-1, ,
-15, ,-2, ,
-16, ,-2, ,
-16, ,-2, ,
-16, ,-1, ,
-18, ,-1, ,
-20, ,-1, ,
-20, ,-1, ,
-20, ,-1, ,
-21, ,-1, ,
-22, ,-1, ,
-22, ,-2, ,
-22, ,-2, ,
-22, ,-1, ,
-21, ,-1, ,
-20, ,-1, ,
-20, ,-1, ,
-20, ,-1, ,
-16, ,-1, ,
-16, ,-1, ,
-13, ,-1, ,
-12, ,-1, ,
-9, ,-1, ,
-5, ,-1, ,
-4, ,-2, ,
-2, ,-2, ,
5, ,-1, ,
7, ,-1, ,
8, ,-1, ,
10, ,-1, ,
14, ,-1, ,
15, ,-1, ,
16, ,-1, ,
18, ,-1, ,
19, ,-1, ,
18, ,-1, ,
18, ,-2, ,
17, ,-2, ,
14, ,-2, ,
14, ,-1, ,
12, ,-1, ,
10, ,-1, ,
8, ,-1, ,
6, ,-1, ,
4, ,-1, ,
2, ,-1, ,
-1, ,-1, ,
-4, ,-1, ,
-6, ,-1, ,
-6, ,-2, ,
-11, ,-2, ,
-12, ,-2, ,
-12, ,-1, ,
-14, ,-1, ,
-15, ,-1, ,
-14, ,-1, ,
-15, ,-2, ,
-14, ,-2, ,
-15, ,-1, ,
-14, ,-1, ,
-13, ,-1, ,
-13, ,-1, ,
-12, ,-1, ,
-10, ,-1, ,
-10, ,-1, ,
-10, ,-1, ,
-9, ,-1, ,
-10, ,-1, ,
-8, ,-1, ,
-9, ,-1, ,
-6, ,-1, ,
-6, ,-1, ,
-6, ,-2, ,
-5, ,-2, ,
-5, ,-1, ,
-4, ,-1, ,
-3, ,-1, ,
-3, ,-1, ,
-2, ,-1, ,
-2, ,-1, ,
-2, ,-2, ,
-1, ,-2, ,
0, ,-1, ,
0, ,-1, ,
0, ,-1, ,
0, ,-1, ,
-1, ,-1, ,
1, ,-1, ,
1, ,-1, ,
1, ,-1, ,
3, ,-1, ,
3, ,-1, ,
4, ,-2, ,
3, ,-2, ,
5, ,-2, ,
5, ,-2, ,
5, ,-1, ,
5, ,-1, ,
5, ,-1, ,
5, ,-1, ,
5, ,-1, ,
5, ,-1, ,
5, ,-1, ,
5, ,-1, ,
4, ,-1, ,
4, ,-1, ,
5, ,-1, ,
4, ,-1, ,
4, ,-1, ,
2, ,-1, ,
1, ,-2, ,
2, ,-2, ,
0, ,-1, ,
0, ,-1, ,
-1, ,-1, ,
-2, ,-1, ,
-2, ,-1, ,
-3, ,-1, ,
-4, ,-1, ,
-4, ,-1, ,
-4, ,-1, ,
-4, ,-1, ,
-5, ,-1, ,
-5, ,-1, ,
-5, ,-1, ,
-6, ,-1, ,
-7, ,-1, ,
-6, ,-1, ,
-8, ,-1, ,
-6, ,-2, ,
-7, ,-2, ,
-9, ,-2, ,
-9, ,-2, ,
-10, ,-2, ,
-10, ,-2, ,
-9, ,-1, ,
-10, ,-2, ,
-10, ,-2, ,
-10, ,-1, ,
-12, ,-1, ,
-9, ,-2, ,
-9, ,-2, ,
-10, ,-2, ,
-9, ,-1, ,
-10, ,-1, ,
-8, ,-1, ,
-7, ,-1, ,
-7, ,-1, ,
-6, ,-1, ,
-7, ,-1, ,
-4, ,-1, ,
-4, ,-1, ,
-3, ,-1, ,
-1, ,-1, ,
0, ,-1, ,
1, ,-1, ,
1, ,-1, ,
1, ,-1, ,
1, ,-1, ,
3, ,-1, ,
3, ,-1, ,
3, ,-1, ,
3, ,-1, ,
2, ,-1, ,
3, ,-1, ,
1, ,-1, ,
1, ,-2, ,
1, ,-2, ,
0, ,-1, ,
0, ,-1, ,
0, ,-1, ,
-1, ,-1, ,
0, ,-1, ,
-2, ,-1, ,
-2, ,-1, ,
-3, ,-1, ,
-3, ,-1, ,
-4, ,-1, ,
-5, ,-1, ,
-6, ,-1, ,
-6, ,-1, ,
-6, ,-1, ,
-9, ,-1, ,
-9, ,-1, ,
-8, ,-1, ,
-10, ,-1, ,
-10, ,-1, ,
-10, ,-1, ,
-10, ,-1, ,
-10, ,-1, ,
-10, ,-1, ,
-9, ,-1, ,
-10, ,-1, ,
-8, ,-1, ,
-8, ,-1, ,
-7, ,-1, ,
-5, ,-1, ,
-5, ,-1, ,
-3, ,-1, ,
-1, ,-1, ,
-1, ,-1, ,
1, ,-1, ,
3, ,-1, ,
5, ,-1, ,
6, ,-2, ,
6, ,-2, ,
8, ,-2, ,
12, ,-2, ,
12, ,-2, ,
13, ,-2, ,
15, ,-1, ,
15, ,-1, ,
16, ,-1, ,
15, ,-1, ,
14, ,-1, ,
16, ,-1, ,
15, ,-2, ,
15, ,-2, ,
15, ,-1, ,
14, ,-1, ,
14, ,-1, ,
13, ,-1, ,
13, ,-1, ,
12, ,-2, ,
12, ,-2, ,
10, ,-2, ,
10, ,-1, ,
9, ,-1, ,
9, ,-1, ,
7, ,-1, ,
6, ,-1, ,
6, ,-1, ,
5, ,-1, ,
5, ,-1, ,
4, ,-1, ,
4, ,-2, ,
4, ,-2, ,
3, ,-1, ,
1, ,-1, ,
2, ,-1, ,
0, ,-1, ,
1, ,-1, ,
1, ,-1, ,
0, ,-1, ,
0, ,-1, ,
0, ,-1, ,
-1, ,-1, ,
-1, ,-1, ,
-1, ,-1, ,
-1, ,-1, ,
-1, ,-1, ,
-1, ,-2, ,
0, ,-2, ,
-1, ,-1, ,
-2, ,-1, ,
0, ,-1, ,
-2, ,-1, ,
0, ,-2, ,
-1, ,-2, ,
-1, ,-2, ,
-1, ,-1, ,
-2, ,-1, ,
-1, ,-1, ,
-1, ,-1, ,
-2, ,-1, ,
-1, ,-1, ,
-3, ,-1, ,
-4, ,-1, ,
-4, ,-1, ,
-5, ,-1, ,
-6, ,-2, ,
-6, ,-2, ,
-8, ,-1, ,
-8, ,-1, ,
-10, ,-1, ,
-10, ,-1, ,
-11, ,-2, ,
-11, ,-2, ,
-13, ,-2, ,
-14, ,-2, ,
-15, ,-1, ,
-16, ,-1, ,
-17, ,-1, ,
-17, ,-2, ,
-17, ,-2, ,
-17, ,-2, ,
-17, ,-2, ,
-17, ,-1, ,
-17, ,-1, ,
-16, ,-2, ,
-15, ,-2, ,
-15, ,-2, ,
-13, ,-2, ,
-14, ,-2, ,
-10, ,-2, ,
-9, ,-2, ,
-8, ,-1, ,
-6, ,-1, ,
-4, ,-1, ,
-3, ,-2, ,
-2, ,-2, ,
0, ,-2, ,
2, ,-1, ,
4, ,-1, ,
4, ,-1, ,
6, ,-1, ,
7, ,-1, ,
7, ,-1, ,
8, ,-1, ,
9, ,-2, ,
10, ,-2, ,
10, ,-2, ,
10, ,-1, ,
10, ,-1, ,
10, ,-1, ,
9, ,-1, ,
10, ,-1, ,
8, ,-1, ,
8, ,-1, ,
8, ,-1, ,
7, ,-1, ,
7, ,-2, ,
8, ,-2, ,
7, ,-2, ,
7, ,-1, ,
6, ,-1, ,
5, ,-1, ,
5, ,-1, ,
5, ,-1, ,
5, ,-1, ,
2, ,-1, ,
2, ,-1, ,
2, ,-1, ,
1, ,-1, ,
-1, ,-1, ,
-1, ,-1, ,
-3, ,-1, ,
-3, ,-1, ,
-5, ,-1, ,
-6, ,-1, ,
-6, ,-2, ,
-8, ,-2, ,
-10, ,-2, ,
-10, ,-2, ,
-10, ,-1, ,
-11, ,-1, ,
-11, ,-1, ,
-13, ,-1, ,
-14, ,-1, ,
-13, ,-1, ,
-13, ,-1, ,
-13, ,-1, ,
-14, ,-1, ,
-13, ,-1, ,
-12, ,-1, ,
-14, ,-1, ,
-12, ,-1, ,
-12, ,-2, ,
-12, ,-2, ,
-11, ,-2, ,
-11, ,-1, ,
-9, ,-2, ,
-9, ,-2, ,
-9, ,-2, ,
-7, ,-1, ,
-8, ,-1, ,
-7, ,-1, ,
-6, ,-2, ,
-7, ,-2, ,
-5, ,-1, ,
-5, ,-1, ,
-5, ,-1, ,
-5, ,-1, ,
-5, ,-1, ,
-4, ,-1, ,
-4, ,-1, ,
-4, ,-2, ,
-4, ,-2, ,
-3, ,-2, ,
-3, ,-2, ,
-2, ,-2, ,
-2, ,-2, ,
-2, ,-2, ,
-1, ,-1, ,
-3, ,-1, ,
-1, ,-1, ,
-1, ,-1, ,
-1, ,-1, ,
0, ,-1, ,
-1, ,-1, ,
-2, ,-1, ,
-1, ,-1, ,
-2, ,-1, ,
0, ,-1, ,
-1, ,-1, ,
-1, ,-2, ,
-1, ,-2, ,
-1, ,-1, ,
0, ,-2, ,
-1, ,-2, ,
-1, ,-1, ,
-1, ,-2, ,
-1, ,-2, ,
-2, ,-2, ,
-1, ,-1, ,
-2, ,-1, ,
-3, ,-1, ,
-3, ,-1, ,
-4, ,-1, ,
-3, ,-1, ,
-5, ,-1, ,
-5, ,-2, ,
-5, ,-2, ,
-5, ,-1, ,
-6, ,-2, ,
-6, ,-2, ,
-7, ,-1, ,
-8, ,-1, ,
-9, ,-1, ,
-9, ,-1, ,
-8, ,-1, ,
-9, ,-1, ,
-10, ,-2, ,
-10, ,-2, ,
-10, ,-1, ,
-9, ,-1, ,
-9, ,-1, ,
-9, ,-1, ,
-9, ,-1, ,
-8, ,-1, ,
-8, ,-1, ,
-6, ,-1, ,
-7, ,-1, ,
-6, ,-1, ,
-4, ,-1, ,
-4, ,-1, ,
-4, ,-1, ,
-4, ,-1, ,
-1, ,-1, ,
0, ,-1, ,
2, ,-1, ,
1, ,-2, ,
3, ,-2, ,
5, ,-2, ,
5, ,-2, ,
5, ,-2, ,
6, ,-1, ,
9, ,-1, ,
8, ,-2, ,
10, ,-2, ,
13, ,-1, ,
13, ,-1, ,
13, ,-1, ,
15, ,-1, ,
16, ,-1, ,
16, ,-1, ,
16, ,-1, ,
18, ,-1, ,
18, ,-1, ,
19, ,-1, ,
19, ,-1, ,
19, ,-1, ,
20, ,-1, ,
20, ,-1, ,
20, ,-1, ,
20, ,-1, ,
20, ,-1, ,
19, ,-1, ,
19, ,-1, ,
17, ,-1, ,
16, ,-1, ,
16, ,-1, ,
15, ,-1, ,
15, ,-1, ,
12, ,-1, ,
11, ,-1, ,
11, ,-1, ,
9, ,-1, ,
7, ,-1, ,
7, ,-1, ,
4, ,-1, ,
4, ,-2, ,
0, ,-2, ,
0, ,-2, ,
-1, ,-2, ,
-2, ,-1, ,
-3, ,-1, ,
-4, ,-1, ,
-5, ,-1, ,
-5, ,-1, ,
-6, ,-1, ,
-7, ,-1, ,
-7, ,-1, ,
-7, ,-1, ,
-6, ,-2, ,
-6, ,-2, ,
-6, ,-2, ,
-5, ,-2, ,
-4, ,-1, ,
-5, ,-2, ,
-5, ,-2, ,
-5, ,-2, ,
-5, ,-2, ,
-3, ,-1, ,
-4, ,-2, ,
-4, ,-2, ,
-4, ,-1, ,
-4, ,-1, ,
-4, ,-1, ,
-5, ,-1, ,
-5, ,-1, ,
-5, ,-1, ,
-5, ,-1, ,
-5, ,-1, ,
-6, ,-1, ,
-6, ,-1, ,
-6, ,-1, ,
-6, ,-1, ,
-8, ,-1, ,
-8, ,-1, ,
-9, ,-1, ,
-9, ,-1, ,
-10, ,-1, ,
-10, ,-1, ,
-10, ,-1, ,
-10, ,-1, ,
-11, ,-1, ,
-11, ,-1, ,
-12, ,-1, ,
-11, ,-1, ,
-10, ,-1, ,
-11, ,-1, ,
-10, ,-1, ,
-10, ,-1, ,
-10, ,-1, ,
-9, ,-1, ,
-9, ,-1, ,
-8, ,-1, ,
-7, ,-1, ,
-8, ,-1, ,
-6, ,-1, ,
-7, ,-1, ,
-7, ,-2, ,
-6, ,-2, ,
-5, ,-1, ,
-6, ,-1, ,
-4, ,-1, ,
-4, ,-1, ,
-4, ,-1, ,
-3, ,-1, ,
-3, ,-1, ,
-2, ,-1, ,
-2, ,-1, ,
-2, ,-1, ,
-2, ,-1, ,
-2, ,-1, ,
-2, ,-1, ,
-3, ,-1, ,
-2, ,-1, ,
-1, ,-1, ,
-2, ,-1, ,
-1, ,-1, ,
-1, ,-1, ,
-1, ,-1, ,
-1, ,-1, ,
-1, ,-1, ,
-2, ,-1, ,
0, ,-1, ,
-1, ,-2, ,
-1, ,-2, ,
-1, ,-1, ,
-2, ,-1, ,
0, ,-1, ,
-2, ,-1, ,
-1, ,-2, ,
-2, ,-2, ,
-2, ,-1, ,
-2, ,-2, ,
-2, ,-2, ,
-2, ,-2, ,
-2, ,-1, ,
-3, ,-1, ,
-3, ,-1, ,
-3, ,-1, ,
-3, ,-1, ,
-3, ,-1, ,
-2, ,-1, ,
-3, ,-1, ,
-2, ,-1, ,
-3, ,-1, ,
-2, ,-1, ,
0, ,-1, ,
0, ,-1, ,
0, ,-1, ,
2, ,-1, ,
0, ,-1, ,
3, ,-2, ,
2, ,-2, ,
3, ,-2, ,
5, ,-1, ,
5, ,-1, ,
6, ,-1, ,
8, ,-1, ,
8, ,-1, ,
9, ,-1, ,
9, ,-1, ,
10, ,-1, ,
10, ,-1, ,
10, ,-1, ,
11, ,-2, ,
11, ,-2, ,
12, ,-2, ,
12, ,-1, ,
11, ,-1, ,
10, ,-1, ,
10, ,-1, ,
10, ,-1, ,
10, ,-1, ,
9, ,-1, ,
8, ,-2, ,
7, ,-2, ,
5, ,-1, ,
4, ,-1, ,
3, ,-1, ,
2, ,-1, ,
2, ,-1, ,
-1, ,-1, ,
-2, ,-1, ,
-1, ,-1, ,
-4, ,-2, ,
-6, ,-2, ,
-7, ,-2, ,
-8, ,-2, ,
-8, ,-2, ,
-10, ,-1, ,
-11, ,-2, ,
-12, ,-2, ,
-13, ,-1, ,
-14, ,-1, ,
-15, ,-1, ,
-15, ,-1, ,
-15, ,-1, ,
-15, ,-1, ,
-15, ,-1, ,
-14, ,-2, ,
-14, ,-2, ,
-12, ,-2, ,
-10, ,-1, ,
-9, ,-1, ,
-7, ,-1, ,
-5, ,-1, ,
-4, ,-2, ,
-2, ,-2, ,
0, ,-1, ,
5, ,-1, ,
6, ,-1, ,
8, ,-1, ,
11, ,-1, ,
15, ,-1, ,
15, ,-2, ,
18, ,-2, ,
19, ,-1, ,
20, ,-1, ,
23, ,-1, ,
24, ,-2, ,
23, ,-2, ,
24, ,-2, ,
24, ,-1, ,
24, ,-1, ,
24, ,-1, ,
22, ,-1, ,
23, ,-1, ,
20, ,-1, ,
20, ,-1, ,
17, ,-1, ,
16, ,-1, ,
17, ,-1, ,
14, ,-1, ,
12, ,-2, ,
11, ,-2, ,
11, ,-1, ,
9, ,-1, ,
8, ,-1, ,
7, ,-1, ,
7, ,-1, ,
5, ,-1, ,
2, ,-1, ,
4, ,-1, ,
3, ,-1, ,
3, ,-1, ,
2, ,-1, ,
1, ,-1, ,
1, ,-2, ,
1, ,-2, ,
0, ,-2, ,
1, ,-1, ,
0, ,-1, ,
1, ,-1, ,
1, ,-1, ,
1, ,-1, ,
0, ,-1, ,
-2, ,-1, ,
0, ,-1, ,
0, ,-1, ,
0, ,-1, ,
1, ,-1, ,
1, ,-1, ,
1, ,-1, ,
2, ,-1, ,
1, ,-1, ,
2, ,-1, ,
3, ,-1, ,
3, ,-1, ,
3, ,-2, ,
5, ,-2, ,
4, ,-2, ,
6, ,-2, ,
6, ,-1, ,
6, ,-1, ,
7, ,-1, ,
6, ,-1, ,
8, ,-2, ,
8, ,-2, ,
8, ,-2, ,
8, ,-1, ,
8, ,-1, ,
9, ,-1, ,
9, ,-1, ,
7, ,-1, ,
7, ,-1, ,
7, ,-1, ,
6, ,-1, ,
6, ,-1, ,
5, ,-1, ,
5, ,-2, ,
5, ,-2, ,
4, ,-1, ,
4, ,-1, ,
4, ,-1, ,
2, ,-1, ,
2, ,-2, ,
2, ,-2, ,
1, ,-2, ,
1, ,-1, ,
1, ,-2, ,
1, ,-2, ,
-1, ,-1, ,
-2, ,-1, ,
-2, ,-1, ,
-2, ,-1, ,
-3, ,-2, ,
-3, ,-2, ,
-4, ,-1, ,
-4, ,-2, ,
-5, ,-2, ,
-6, ,-2, ,
-6, ,-1, ,
-7, ,-1, ,
-9, ,-1, ,
-8, ,-1, ,
-9, ,-1, ,
-10, ,-1, ,
-12, ,-1, ,
-13, ,-1, ,
-12, ,-1, ,
-14, ,-1, ,
-15, ,-1, ,
-15, ,-1, ,
-17, ,-1, ,
-17, ,-2, ,
-17, ,-2, ,
-18, ,-2, ,
-18, ,-2, ,
-18, ,-1, ,
-18, ,-1, ,
-17, ,-1, ,
-17, ,-2, ,
-16, ,-2, ,
-15, ,-1, ,
-15, ,-1, ,
