raw_data/100% Glycerol, Impulsion 2Hz, Sonde 5MHz, Rampe 0.7Hz/temp0000087.CSV

Format,1.0B,
Memory Length,10000,Memory Length,10000,
IntpDistance,0,IntpDistance,0,
Trigger Address,159,Trigger Address,159,
Trigger Level,2.720E-01,Trigger Level,2.720E-01,
Source,CH1,Source,CH2,
Vertical Units,V,Vertical Units,V,
Vertical Units Div,0,Vertical Units Div,0,
Vertical Units Extend Div,16,Vertical Units Extend Div,16,
Label,,Label,,
Probe Type,0,Probe Type,0,
Probe Ratio,1.000e+00,Probe Ratio,1.000e+00,
Vertical Scale,2.000e-01,Vertical Scale,2.000e+00,
Vertical Position,0.000e+00,Vertical Position,0.000e+00,
Horizontal Units,S,Horizontal Units,S,
Horizontal Scale,5.000E-06,Horizontal Scale,5.000E-06,
Horizontal Position,2.420E-05,Horizontal Position,2.420E-05,
Horizontal Mode,Main,Horizontal Mode,Main,
SincET Mode,Real Time,SincET Mode,Real Time,
Sampling Period,5.000e-09,Sampling Period,5.000e-09,
Horizontal Old Scale,5.000E-06,Horizontal Old Scale,5.000E-06,
Horizontal Old Position,2.420E-05,Horizontal Old Position,2.420E-05,
Firmware,V1.32,Firmware,V1.32,
Mode,Fast,Mode,Fast,
Waveform Data,,Waveform Data,,
2, ,11, ,
1, ,11, ,
1, ,11, ,
2, ,11, ,
0, ,11, ,
2, ,11, ,
2, ,11, ,
1, ,11, ,
2, ,11, ,
2, ,11, ,
1, ,11, ,
1, ,11, ,
1, ,11, ,
1, ,11, ,
2, ,11, ,
1, ,11, ,
2, ,11, ,
2, ,11, ,
1, ,11, ,
2, ,11, ,
2, ,11, ,
1, ,11, ,
2, ,11, ,
1, ,11, ,
2, ,11, ,
1, ,11, ,
1, ,11, ,
2, ,11, ,
1, ,11, ,
2, ,11, ,
2, ,11, ,
2, ,11, ,
2, ,11, ,
2, ,11, ,
2, ,11, ,
2, ,11, ,
0, ,11, ,
1, ,11, ,
1, ,11, ,
1, ,11, ,
1, ,11, ,
2, ,11, ,
1, ,11, ,
2, ,11, ,
2, ,11, ,
1, ,11, ,
2, ,11, ,
1, ,11, ,
2, ,11, ,
1, ,11, ,
2, ,11, ,
2, ,11, ,
0, ,11, ,
2, ,11, ,
2, ,11, ,
1, ,11, ,
1, ,11, ,
2, ,11, ,
1, ,11, ,
1, ,11, ,
1, ,11, ,
1, ,11, ,
2, ,11, ,
1, ,11, ,
1, ,11, ,
2, ,11, ,
2, ,11, ,
2, ,11, ,
1, ,11, ,
1, ,11, ,
2, ,11, ,
2, ,11, ,
2, ,11, ,
1, ,11, ,
1, ,11, ,
2, ,11, ,
2, ,11, ,
1, ,11, ,
3, ,11, ,
2, ,11, ,
2, ,11, ,
2, ,11, ,
2, ,11, ,
2, ,11, ,
1, ,11, ,
1, ,11, ,
2, ,11, ,
2, ,11, ,
2, ,11, ,
2, ,11, ,
1, ,11, ,
2, ,11, ,
1, ,11, ,
2, ,11, ,
2, ,11, ,
2, ,11, ,
2, ,11, ,
1, ,11, ,
2, ,11, ,
2, ,11, ,
2, ,11, ,
2, ,11, ,
1, ,11, ,
2, ,11, ,
2, ,11, ,
1, ,11, ,
1, ,11, ,
2, ,11, ,
2, ,11, ,
1, ,11, ,
1, ,11, ,
1, ,11, ,
2, ,11, ,
2, ,11, ,
1, ,11, ,
2, ,11, ,
2, ,11, ,
2, ,11, ,
1, ,11, ,
1, ,11, ,
2, ,11, ,
2, ,11, ,
1, ,11, ,
2, ,11, ,
1, ,11, ,
1, ,11, ,
2, ,11, ,
1, ,11, ,
2, ,11, ,
2, ,11, ,
1, ,11, ,
1, ,11, ,
1, ,11, ,
1, ,11, ,
2, ,11, ,
2, ,11, ,
1, ,11, ,
1, ,11, ,
1, ,11, ,
2, ,11, ,
2, ,11, ,
2, ,11, ,
2, ,11, ,
1, ,11, ,
2, ,11, ,
2, ,11, ,
2, ,11, ,
2, ,11, ,
1, ,11, ,
2, ,11, ,
2, ,11, ,
2, ,11, ,
3, ,11, ,
2, ,11, ,
2, ,11, ,
1, ,11, ,
2, ,11, ,
1, ,11, ,
2, ,11, ,
1, ,11, ,
1, ,11, ,
2, ,11, ,
0, ,11, ,
2, ,11, ,
0, ,11, ,
1, ,11, ,
-4, ,11, ,
10, ,11, ,
51, ,11, ,
125, ,11, ,
125, ,11, ,
125, ,11, ,
123, ,11, ,
73, ,11, ,
-18, ,11, ,
24, ,11, ,
125, ,11, ,
125, ,11, ,
125, ,11, ,
125, ,11, ,
125, ,11, ,
125, ,11, ,
125, ,11, ,
125, ,11, ,
125, ,11, ,
125, ,11, ,
125, ,11, ,
125, ,11, ,
125, ,11, ,
125, ,11, ,
125, ,11, ,
125, ,11, ,
125, ,11, ,
125, ,11, ,
125, ,11, ,
125, ,11, ,
125, ,11, ,
125, ,11, ,
125, ,11, ,
125, ,11, ,
125, ,11, ,
124, ,11, ,
124, ,11, ,
122, ,11, ,
118, ,11, ,
107, ,11, ,
103, ,11, ,
101, ,11, ,
96, ,11, ,
88, ,11, ,
84, ,11, ,
82, ,11, ,
76, ,11, ,
70, ,11, ,
66, ,11, ,
62, ,11, ,
61, ,11, ,
54, ,11, ,
51, ,11, ,
51, ,11, ,
48, ,11, ,
44, ,11, ,
41, ,11, ,
39, ,11, ,
38, ,11, ,
35, ,11, ,
33, ,11, ,
31, ,11, ,
29, ,11, ,
26, ,11, ,
27, ,11, ,
23, ,11, ,
23, ,11, ,
20, ,11, ,
18, ,11, ,
17, ,11, ,
16, ,11, ,
14, ,11, ,
14, ,11, ,
12, ,11, ,
12, ,11, ,
10, ,11, ,
9, ,11, ,
9, ,11, ,
7, ,11, ,
7, ,11, ,
6, ,11, ,
6, ,11, ,
6, ,11, ,
5, ,11, ,
3, ,11, ,
3, ,11, ,
3, ,11, ,
2, ,11, ,
2, ,11, ,
1, ,11, ,
1, ,11, ,
1, ,11, ,
0, ,11, ,
1, ,11, ,
-1, ,11, ,
-1, ,11, ,
0, ,11, ,
-1, ,11, ,
-1, ,11, ,
-1, ,11, ,
-2, ,11, ,
-2, ,11, ,
-2, ,11, ,
-3, ,11, ,
-3, ,11, ,
-3, ,11, ,
-3, ,11, ,
-2, ,11, ,
-3, ,11, ,
-2, ,11, ,
-3, ,11, ,
-3, ,11, ,
-2, ,11, ,
-3, ,11, ,
-3, ,11, ,
-3, ,11, ,
-3, ,11, ,
-2, ,11, ,
-3, ,11, ,
-3, ,11, ,
-3, ,11, ,
-3, ,11, ,
-3, ,11, ,
-2, ,11, ,
-3, ,11, ,
-3, ,11, ,
-4, ,11, ,
-2, ,11, ,
-3, ,11, ,
-3, ,11, ,
-3, ,11, ,
-3, ,11, ,
-3, ,11, ,
-3, ,11, ,
-3, ,11, ,
-4, ,11, ,
-2, ,11, ,
-2, ,11, ,
-2, ,11, ,
-2, ,11, ,
-2, ,11, ,
-2, ,11, ,
-1, ,11, ,
-2, ,11, ,
-2, ,11, ,
-3, ,11, ,
-1, ,11, ,
-2, ,11, ,
-2, ,11, ,
-1, ,11, ,
-1, ,11, ,
-2, ,11, ,
-2, ,11, ,
-2, ,11, ,
-1, ,11, ,
0, ,11, ,
0, ,11, ,
-1, ,11, ,
-1, ,11, ,
-1, ,11, ,
0, ,11, ,
-1, ,11, ,
-1, ,11, ,
-1, ,11, ,
-1, ,11, ,
0, ,11, ,
0, ,11, ,
0, ,11, ,
0, ,11, ,
0, ,11, ,
0, ,11, ,
0, ,11, ,
0, ,11, ,
0, ,11, ,
-1, ,11, ,
0, ,11, ,
0, ,11, ,
0, ,11, ,
0, ,11, ,
0, ,11, ,
0, ,11, ,
0, ,11, ,
0, ,11, ,
0, ,11, ,
0, ,11, ,
0, ,11, ,
0, ,11, ,
1, ,11, ,
0, ,11, ,
1, ,11, ,
0, ,11, ,
1, ,11, ,
1, ,11, ,
1, ,11, ,
1, ,11, ,
1, ,11, ,
1, ,11, ,
1, ,11, ,
1, ,11, ,
0, ,11, ,
0, ,11, ,
1, ,11, ,
1, ,11, ,
1, ,11, ,
1, ,11, ,
1, ,11, ,
1, ,11, ,
0, ,11, ,
0, ,11, ,
0, ,11, ,
1, ,11, ,
2, ,11, ,
1, ,11, ,
2, ,11, ,
1, ,11, ,
1, ,11, ,
1, ,11, ,
1, ,11, ,
1, ,11, ,
1, ,11, ,
1, ,11, ,
1, ,11, ,
0, ,11, ,
1, ,11, ,
1, ,11, ,
0, ,11, ,
1, ,11, ,
2, ,11, ,
1, ,11, ,
1, ,11, ,
1, ,11, ,
1, ,11, ,
2, ,11, ,
1, ,11, ,
2, ,11, ,
2, ,11, ,
1, ,11, ,
1, ,11, ,
0, ,11, ,
1, ,11, ,
1, ,11, ,
1, ,11, ,
1, ,11, ,
1, ,11, ,
1, ,11, ,
2, ,11, ,
2, ,11, ,
1, ,11, ,
1, ,11, ,
2, ,11, ,
1, ,11, ,
1, ,11, ,
1, ,11, ,
1, ,11, ,
1, ,11, ,
1, ,11, ,
1, ,11, ,
0, ,11, ,
0, ,11, ,
0, ,11, ,
0, ,11, ,
0, ,11, ,
0, ,11, ,
1, ,11, ,
1, ,11, ,
1, ,11, ,
1, ,11, ,
1, ,11, ,
1, ,11, ,
2, ,11, ,
0, ,11, ,
0, ,11, ,
0, ,11, ,
0, ,11, ,
1, ,11, ,
1, ,11, ,
-1, ,11, ,
0, ,11, ,
-2, ,11, ,
0, ,11, ,
0, ,11, ,
0, ,11, ,
0, ,11, ,
1, ,11, ,
1, ,11, ,
2, ,11, ,
1, ,11, ,
1, ,11, ,
1, ,11, ,
1, ,11, ,
2, ,11, ,
2, ,11, ,
1, ,11, ,
2, ,11, ,
1, ,11, ,
1, ,11, ,
1, ,11, ,
1, ,11, ,
1, ,11, ,
2, ,11, ,
2, ,11, ,
1, ,11, ,
1, ,11, ,
1, ,11, ,
1, ,11, ,
1, ,11, ,
1, ,11, ,
2, ,11, ,
1, ,11, ,
2, ,11, ,
1, ,11, ,
0, ,11, ,
1, ,11, ,
1, ,11, ,
0, ,11, ,
1, ,11, ,
0, ,11, ,
0, ,11, ,
0, ,11, ,
0, ,11, ,
0, ,11, ,
1, ,11, ,
1, ,11, ,
1, ,11, ,
1, ,11, ,
1, ,11, ,
1, ,11, ,
1, ,11, ,
2, ,11, ,
1, ,11, ,
2, ,11, ,
2, ,11, ,
1, ,11, ,
1, ,11, ,
0, ,11, ,
0, ,11, ,
0, ,11, ,
0, ,11, ,
0, ,11, ,
0, ,11, ,
-1, ,11, ,
0, ,11, ,
0, ,11, ,
0, ,11, ,
0, ,11, ,
1, ,11, ,
0, ,11, ,
0, ,11, ,
0, ,11, ,
-1, ,11, ,
-1, ,11, ,
-3, ,11, ,
-3, ,11, ,
-5, ,11, ,
-5, ,11, ,
-6, ,11, ,
-8, ,11, ,
-7, ,11, ,
-7, ,11, ,
-7, ,11, ,
-7, ,11, ,
-7, ,11, ,
-7, ,11, ,
-8, ,11, ,
-9, ,11, ,
-8, ,11, ,
-11, ,11, ,
-13, ,11, ,
-13, ,11, ,
-15, ,11, ,
-16, ,11, ,
-18, ,11, ,
-22, ,11, ,
-24, ,11, ,
-26, ,11, ,
-30, ,11, ,
-30, ,11, ,
-31, ,11, ,
-31, ,11, ,
-31, ,11, ,
-32, ,11, ,
-30, ,11, ,
-30, ,11, ,
-28, ,11, ,
-27, ,11, ,
-29, ,11, ,
-27, ,11, ,
-28, ,11, ,
-30, ,11, ,
-30, ,11, ,
-31, ,11, ,
-34, ,11, ,
-33, ,11, ,
-32, ,11, ,
-32, ,11, ,
-31, ,11, ,
-29, ,11, ,
-28, ,11, ,
-26, ,11, ,
-22, ,11, ,
-17, ,11, ,
-15, ,11, ,
-13, ,11, ,
-8, ,11, ,
-9, ,11, ,
-6, ,11, ,
-5, ,11, ,
-6, ,11, ,
-6, ,11, ,
-7, ,11, ,
-7, ,11, ,
-8, ,11, ,
-8, ,11, ,
-8, ,11, ,
-9, ,11, ,
-5, ,11, ,
-4, ,11, ,
-4, ,11, ,
-2, ,11, ,
1, ,11, ,
0, ,11, ,
2, ,11, ,
4, ,11, ,
2, ,11, ,
2, ,11, ,
1, ,11, ,
1, ,11, ,
-2, ,11, ,
-3, ,11, ,
-3, ,11, ,
-7, ,11, ,
-10, ,11, ,
-10, ,11, ,
-13, ,11, ,
-13, ,11, ,
-14, ,11, ,
-15, ,11, ,
-14, ,11, ,
-14, ,11, ,
-13, ,11, ,
-14, ,11, ,
-13, ,11, ,
-12, ,11, ,
-13, ,11, ,
-15, ,11, ,
-17, ,11, ,
-18, ,11, ,
-21, ,11, ,
-22, ,11, ,
-23, ,11, ,
-24, ,11, ,
-24, ,11, ,
-25, ,11, ,
-23, ,11, ,
-24, ,11, ,
-23, ,11, ,
-21, ,11, ,
-22, ,11, ,
-22, ,11, ,
-22, ,11, ,
-24, ,11, ,
-23, ,11, ,
-26, ,11, ,
-28, ,11, ,
-28, ,11, ,
-30, ,11, ,
-31, ,11, ,
-32, ,11, ,
-33, ,11, ,
-34, ,11, ,
-35, ,11, ,
-35, ,11, ,
-34, ,11, ,
-35, ,11, ,
-35, ,11, ,
-34, ,11, ,
-34, ,11, ,
-33, ,11, ,
-34, ,11, ,
-32, ,11, ,
-30, ,11, ,
-30, ,11, ,
-30, ,11, ,
-28, ,11, ,
-30, ,11, ,
-30, ,11, ,
-31, ,11, ,
-35, ,11, ,
-35, ,11, ,
-37, ,11, ,
-38, ,11, ,
-41, ,11, ,
-42, ,11, ,
-44, ,11, ,
-44, ,11, ,
-44, ,11, ,
-42, ,11, ,
-43, ,11, ,
-41, ,11, ,
-39, ,11, ,
-39, ,11, ,
-37, ,11, ,
-38, ,11, ,
-36, ,11, ,
-36, ,11, ,
-35, ,11, ,
-35, ,11, ,
-34, ,11, ,
-31, ,11, ,
-29, ,11, ,
-29, ,11, ,
-24, ,11, ,
-20, ,11, ,
-20, ,11, ,
-16, ,11, ,
-12, ,11, ,
-12, ,11, ,
-12, ,11, ,
-11, ,11, ,
-12, ,11, ,
-11, ,11, ,
-11, ,11, ,
-12, ,11, ,
-14, ,11, ,
-14, ,11, ,
-15, ,11, ,
-15, ,11, ,
-14, ,11, ,
-15, ,11, ,
-15, ,11, ,
-15, ,11, ,
-15, ,11, ,
-15, ,11, ,
-15, ,11, ,
-15, ,11, ,
-15, ,11, ,
-14, ,11, ,
-11, ,11, ,
-9, ,11, ,
-6, ,11, ,
-5, ,11, ,
-4, ,11, ,
-4, ,11, ,
-2, ,11, ,
1, ,11, ,
1, ,11, ,
1, ,11, ,
4, ,11, ,
3, ,11, ,
5, ,11, ,
5, ,11, ,
6, ,11, ,
8, ,11, ,
7, ,11, ,
8, ,11, ,
9, ,11, ,
10, ,11, ,
10, ,11, ,
10, ,11, ,
10, ,11, ,
10, ,11, ,
9, ,11, ,
10, ,11, ,
9, ,11, ,
8, ,11, ,
7, ,11, ,
7, ,11, ,
5, ,11, ,
6, ,11, ,
5, ,11, ,
5, ,11, ,
5, ,11, ,
5, ,11, ,
5, ,11, ,
4, ,11, ,
3, ,11, ,
4, ,11, ,
3, ,11, ,
2, ,11, ,
1, ,11, ,
0, ,11, ,
0, ,11, ,
-1, ,11, ,
-3, ,11, ,
-4, ,11, ,
-4, ,11, ,
-5, ,11, ,
-8, ,11, ,
-8, ,11, ,
-10, ,11, ,
-12, ,11, ,
-14, ,11, ,
-15, ,11, ,
-16, ,11, ,
-18, ,11, ,
-21, ,11, ,
-22, ,11, ,
-22, ,11, ,
-23, ,11, ,
-25, ,11, ,
-25, ,11, ,
-27, ,11, ,
-27, ,11, ,
-30, ,11, ,
-31, ,11, ,
-30, ,11, ,
-32, ,11, ,
-33, ,11, ,
-35, ,11, ,
-35, ,11, ,
-35, ,11, ,
-35, ,11, ,
-35, ,11, ,
-35, ,11, ,
-34, ,11, ,
-35, ,11, ,
-33, ,11, ,
-33, ,11, ,
-33, ,11, ,
-33, ,11, ,
-33, ,11, ,
-32, ,11, ,
-32, ,11, ,
-33, ,11, ,
-33, ,11, ,
-33, ,11, ,
-32, ,11, ,
-31, ,11, ,
-32, ,11, ,
-29, ,11, ,
-30, ,11, ,
-29, ,11, ,
-27, ,11, ,
-24, ,11, ,
-22, ,11, ,
-21, ,11, ,
-19, ,11, ,
-18, ,11, ,
-17, ,11, ,
-15, ,11, ,
-12, ,11, ,
-12, ,11, ,
-11, ,11, ,
-7, ,11, ,
-8, ,11, ,
-4, ,11, ,
-4, ,11, ,
0, ,11, ,
1, ,11, ,
1, ,11, ,
4, ,11, ,
5, ,11, ,
5, ,11, ,
6, ,11, ,
5, ,11, ,
6, ,11, ,
8, ,11, ,
8, ,11, ,
8, ,11, ,
10, ,11, ,
10, ,11, ,
10, ,11, ,
11, ,11, ,
12, ,11, ,
13, ,11, ,
12, ,11, ,
13, ,11, ,
13, ,11, ,
13, ,11, ,
12, ,11, ,
12, ,11, ,
12, ,11, ,
12, ,11, ,
10, ,11, ,
9, ,11, ,
8, ,11, ,
6, ,11, ,
7, ,11, ,
5, ,11, ,
1, ,11, ,
0, ,11, ,
0, ,11, ,
-1, ,11, ,
-5, ,11, ,
-6, ,11, ,
-8, ,11, ,
-11, ,11, ,
-13, ,11, ,
-13, ,11, ,
-15, ,11, ,
-15, ,11, ,
-16, ,11, ,
-17, ,11, ,
-15, ,11, ,
-15, ,11, ,
-17, ,11, ,
-16, ,11, ,
-15, ,11, ,
-15, ,11, ,
-14, ,11, ,
-14, ,11, ,
-13, ,11, ,
-14, ,11, ,
-12, ,11, ,
-11, ,11, ,
-11, ,11, ,
-11, ,11, ,
-11, ,11, ,
-10, ,11, ,
-10, ,11, ,
-10, ,11, ,
-11, ,11, ,
-10, ,11, ,
-12, ,11, ,
-12, ,11, ,
-13, ,11, ,
-14, ,11, ,
-14, ,11, ,
-16, ,11, ,
-16, ,11, ,
-16, ,11, ,
-18, ,11, ,
-18, ,11, ,
-19, ,11, ,
-20, ,11, ,
-20, ,11, ,
-20, ,11, ,
-21, ,11, ,
-22, ,11, ,
-21, ,11, ,
-21, ,11, ,
-22, ,11, ,
-21, ,11, ,
-21, ,11, ,
-21, ,11, ,
-21, ,11, ,
-21, ,11, ,
-22, ,11, ,
-22, ,11, ,
-21, ,11, ,
-23, ,11, ,
-20, ,11, ,
-21, ,11, ,
-21, ,11, ,
-20, ,11, ,
-20, ,11, ,
-20, ,11, ,
-20, ,11, ,
-21, ,11, ,
-20, ,11, ,
-20, ,11, ,
-20, ,11, ,
-21, ,11, ,
-22, ,11, ,
-21, ,11, ,
-21, ,11, ,
-21, ,11, ,
-20, ,11, ,
-21, ,11, ,
-21, ,11, ,
-20, ,11, ,
-20, ,11, ,
-20, ,11, ,
-19, ,11, ,
-19, ,11, ,
-18, ,11, ,
-20, ,11, ,
-19, ,11, ,
-20, ,11, ,
-20, ,11, ,
-19, ,11, ,
-19, ,11, ,
-19, ,11, ,
-19, ,11, ,
-19, ,11, ,
-18, ,11, ,
-18, ,11, ,
-18, ,11, ,
-17, ,11, ,
-16, ,11, ,
-15, ,11, ,
-15, ,11, ,
-15, ,11, ,
-14, ,11, ,
-13, ,11, ,
-14, ,11, ,
-12, ,11, ,
-9, ,11, ,
-9, ,11, ,
-7, ,11, ,
-7, ,11, ,
-4, ,11, ,
-2, ,11, ,
0, ,11, ,
1, ,11, ,
3, ,11, ,
5, ,11, ,
5, ,11, ,
5, ,11, ,
6, ,11, ,
8, ,11, ,
8, ,11, ,
9, ,11, ,
10, ,11, ,
9, ,11, ,
9, ,11, ,
9, ,11, ,
8, ,11, ,
9, ,11, ,
9, ,11, ,
8, ,11, ,
7, ,11, ,
6, ,11, ,
6, ,11, ,
5, ,11, ,
4, ,11, ,
4, ,11, ,
3, ,11, ,
3, ,11, ,
3, ,11, ,
2, ,11, ,
2, ,11, ,
0, ,11, ,
0, ,11, ,
0, ,11, ,
-1, ,11, ,
-1, ,11, ,
-1, ,11, ,
-3, ,11, ,
-3, ,11, ,
-4, ,11, ,
-6, ,11, ,
-5, ,11, ,
-7, ,11, ,
-7, ,11, ,
-7, ,11, ,
-9, ,11, ,
-8, ,11, ,
-10, ,11, ,
-11, ,11, ,
-11, ,11, ,
-11, ,11, ,
-12, ,11, ,
-13, ,11, ,
-15, ,11, ,
-16, ,11, ,
-17, ,11, ,
-18, ,11, ,
-17, ,11, ,
-19, ,11, ,
-16, ,11, ,
-20, ,11, ,
-20, ,11, ,
-20, ,11, ,
-21, ,11, ,
-22, ,11, ,
-21, ,11, ,
-22, ,11, ,
-22, ,11, ,
-22, ,11, ,
-23, ,11, ,
-23, ,11, ,
-24, ,11, ,
-23, ,11, ,
-23, ,11, ,
-24, ,11, ,
-22, ,11, ,
-22, ,11, ,
-23, ,11, ,
-22, ,11, ,
-22, ,11, ,
-21, ,11, ,
-22, ,11, ,
-21, ,11, ,
-20, ,11, ,
-20, ,11, ,
-20, ,11, ,
-20, ,11, ,
-20, ,11, ,
-19, ,11, ,
-17, ,11, ,
-17, ,11, ,
-15, ,11, ,
-14, ,11, ,
-13, ,11, ,
-11, ,11, ,
-8, ,11, ,
-5, ,11, ,
-5, ,11, ,
-2, ,11, ,
-1, ,11, ,
1, ,11, ,
1, ,11, ,
3, ,11, ,
3, ,11, ,
6, ,11, ,
6, ,11, ,
7, ,11, ,
9, ,11, ,
10, ,11, ,
10, ,11, ,
10, ,11, ,
10, ,11, ,
10, ,11, ,
10, ,11, ,
9, ,11, ,
9, ,11, ,
7, ,11, ,
6, ,11, ,
5, ,11, ,
5, ,11, ,
3, ,11, ,
4, ,11, ,
2, ,11, ,
2, ,11, ,
1, ,11, ,
0, ,11, ,
0, ,11, ,
-1, ,11, ,
-2, ,11, ,
-2, ,11, ,
-2, ,11, ,
-3, ,11, ,
-3, ,11, ,
-4, ,11, ,
-4, ,11, ,
-5, ,11, ,
-5, ,11, ,
-5, ,11, ,
-5, ,11, ,
-5, ,11, ,
-5, ,11, ,
-6, ,11, ,
-5, ,11, ,
-5, ,11, ,
-5, ,11, ,
-5, ,11, ,
-6, ,11, ,
-6, ,11, ,
-6, ,11, ,
-5, ,11, ,
-5, ,11, ,
-5, ,11, ,
-4, ,11, ,
-4, ,11, ,
-4, ,11, ,
-1, ,11, ,
0, ,11, ,
0, ,11, ,
1, ,11, ,
2, ,11, ,
2, ,11, ,
3, ,11, ,
5, ,11, ,
5, ,11, ,
7, ,11, ,
6, ,11, ,
7, ,11, ,
7, ,11, ,
8, ,11, ,
10, ,11, ,
9, ,11, ,
11, ,11, ,
11, ,11, ,
11, ,11, ,
11, ,11, ,
12, ,11, ,
11, ,11, ,
11, ,11, ,
11, ,11, ,
10, ,11, ,
9, ,11, ,
9, ,11, ,
7, ,11, ,
7, ,11, ,
5, ,11, ,
4, ,11, ,
3, ,11, ,
3, ,11, ,
2, ,11, ,
-1, ,11, ,
-1, ,11, ,
-3, ,11, ,
-4, ,11, ,
-4, ,11, ,
-6, ,11, ,
-5, ,11, ,
-6, ,11, ,
-8, ,11, ,
-9, ,11, ,
-10, ,11, ,
-10, ,11, ,
-10, ,11, ,
-10, ,11, ,
-9, ,11, ,
-9, ,11, ,
-9, ,11, ,
-9, ,11, ,
-7, ,11, ,
-7, ,11, ,
-5, ,11, ,
-3, ,11, ,
-4, ,11, ,
0, ,11, ,
0, ,11, ,
3, ,11, ,
2, ,11, ,
5, ,11, ,
7, ,11, ,
6, ,11, ,
9, ,11, ,
12, ,11, ,
11, ,11, ,
13, ,11, ,
14, ,11, ,
15, ,11, ,
16, ,11, ,
17, ,11, ,
17, ,11, ,
18, ,11, ,
17, ,11, ,
17, ,11, ,
16, ,11, ,
16, ,11, ,
17, ,11, ,
16, ,11, ,
16, ,11, ,
15, ,11, ,
12, ,11, ,
12, ,11, ,
12, ,11, ,
11, ,11, ,
12, ,11, ,
10, ,11, ,
11, ,11, ,
10, ,11, ,
9, ,11, ,
9, ,11, ,
7, ,11, ,
7, ,11, ,
7, ,11, ,
6, ,11, ,
6, ,11, ,
6, ,11, ,
5, ,11, ,
5, ,11, ,
4, ,11, ,
3, ,11, ,
4, ,11, ,
3, ,11, ,
3, ,11, ,
2, ,11, ,
2, ,11, ,
2, ,11, ,
1, ,11, ,
0, ,11, ,
0, ,11, ,
-3, ,11, ,
0, ,11, ,
-1, ,11, ,
-3, ,11, ,
-2, ,11, ,
-4, ,11, ,
-4, ,11, ,
-4, ,11, ,
-5, ,11, ,
-5, ,11, ,
-5, ,11, ,
-6, ,11, ,
-6, ,11, ,
-7, ,11, ,
-8, ,11, ,
-8, ,11, ,
-9, ,11, ,
-9, ,11, ,
-10, ,11, ,
-11, ,11, ,
-10, ,11, ,
-10, ,11, ,
-11, ,11, ,
-10, ,11, ,
-11, ,11, ,
-10, ,11, ,
-10, ,11, ,
-10, ,11, ,
-11, ,11, ,
-12, ,11, ,
-11, ,11, ,
-11, ,11, ,
-11, ,11, ,
-11, ,11, ,
-11, ,11, ,
-11, ,11, ,
-12, ,11, ,
-11, ,11, ,
-12, ,11, ,
-12, ,11, ,
-12, ,11, ,
-12, ,11, ,
-11, ,11, ,
-12, ,11, ,
-12, ,11, ,
-12, ,11, ,
-13, ,11, ,
-13, ,11, ,
-14, ,11, ,
-13, ,11, ,
-14, ,11, ,
-14, ,11, ,
-13, ,11, ,
-14, ,11, ,
-13, ,11, ,
-12, ,11, ,
-12, ,11, ,
-12, ,11, ,
-11, ,11, ,
-12, ,11, ,
-11, ,11, ,
-11, ,11, ,
-10, ,11, ,
-10, ,11, ,
-10, ,11, ,
-10, ,11, ,
-8, ,11, ,
-10, ,11, ,
-9, ,11, ,
-9, ,11, ,
-8, ,11, ,
-8, ,11, ,
-8, ,11, ,
-8, ,11, ,
-8, ,11, ,
-8, ,11, ,
-7, ,11, ,
-8, ,11, ,
-7, ,11, ,
-8, ,11, ,
-8, ,11, ,
-8, ,11, ,
-7, ,11, ,
-7, ,11, ,
-7, ,11, ,
-7, ,11, ,
-7, ,11, ,
-6, ,11, ,
-6, ,11, ,
-6, ,11, ,
-6, ,11, ,
-5, ,11, ,
-5, ,11, ,
-5, ,11, ,
-5, ,11, ,
-4, ,11, ,
-4, ,11, ,
-4, ,11, ,
-4, ,11, ,
-3, ,11, ,
-3, ,11, ,
-2, ,11, ,
0, ,11, ,
0, ,11, ,
0, ,11, ,
0, ,11, ,
0, ,11, ,
0, ,11, ,
0, ,11, ,
0, ,11, ,
1, ,11, ,
1, ,11, ,
0, ,11, ,
0, ,11, ,
1, ,11, ,
1, ,11, ,
0, ,11, ,
0, ,11, ,
-1, ,11, ,
-1, ,11, ,
-2, ,11, ,
-1, ,11, ,
-2, ,11, ,
-1, ,11, ,
-1, ,11, ,
-2, ,11, ,
-3, ,11, ,
-2, ,11, ,
-2, ,11, ,
-2, ,11, ,
-2, ,11, ,
-2, ,11, ,
-2, ,11, ,
-2, ,11, ,
-3, ,11, ,
0, ,11, ,
0, ,11, ,
0, ,11, ,
0, ,11, ,
1, ,11, ,
2, ,11, ,
0, ,11, ,
2, ,11, ,
3, ,11, ,
2, ,11, ,
3, ,11, ,
3, ,11, ,
3, ,11, ,
3, ,11, ,
3, ,11, ,
4, ,11, ,
3, ,11, ,
4, ,11, ,
3, ,11, ,
3, ,11, ,
3, ,11, ,
3, ,11, ,
2, ,11, ,
2, ,11, ,
3, ,11, ,
2, ,11, ,
1, ,11, ,
0, ,11, ,
0, ,11, ,
1, ,11, ,
0, ,11, ,
-1, ,11, ,
0, ,11, ,
-1, ,11, ,
-1, ,11, ,
-1, ,11, ,
-1, ,11, ,
-1, ,11, ,
-2, ,11, ,
-2, ,11, ,
-2, ,11, ,
-2, ,11, ,
-1, ,11, ,
-1, ,11, ,
-2, ,11, ,
-2, ,11, ,
-1, ,11, ,
-1, ,11, ,
0, ,11, ,
-1, ,11, ,
0, ,11, ,
0, ,11, ,
0, ,11, ,
0, ,11, ,
0, ,11, ,
0, ,11, ,
1, ,11, ,
-2, ,11, ,
0, ,11, ,
-1, ,11, ,
-1, ,11, ,
0, ,11, ,
-1, ,11, ,
-2, ,11, ,
-1, ,11, ,
-2, ,11, ,
-2, ,11, ,
-1, ,11, ,
-1, ,11, ,
-1, ,11, ,
-1, ,11, ,
-2, ,11, ,
-1, ,11, ,
-1, ,11, ,
-2, ,11, ,
-1, ,11, ,
-1, ,11, ,
0, ,11, ,
-1, ,11, ,
0, ,11, ,
1, ,11, ,
1, ,11, ,
2, ,11, ,
2, ,11, ,
2, ,11, ,
2, ,11, ,
2, ,11, ,
4, ,11, ,
4, ,11, ,
3, ,11, ,
3, ,11, ,
3, ,11, ,
3, ,11, ,
3, ,11, ,
3, ,11, ,
1, ,11, ,
3, ,11, ,
2, ,11, ,
3, ,11, ,
1, ,11, ,
2, ,11, ,
2, ,11, ,
1, ,11, ,
2, ,11, ,
2, ,11, ,
1, ,11, ,
1, ,11, ,
1, ,11, ,
0, ,11, ,
1, ,11, ,
0, ,11, ,
0, ,11, ,
0, ,11, ,
0, ,11, ,
0, ,11, ,
0, ,11, ,
0, ,11, ,
0, ,11, ,
-1, ,11, ,
0, ,11, ,
0, ,11, ,
0, ,11, ,
0, ,11, ,
0, ,11, ,
-1, ,11, ,
1, ,11, ,
1, ,11, ,
-1, ,11, ,
1, ,11, ,
1, ,11, ,
2, ,11, ,
1, ,11, ,
1, ,11, ,
1, ,11, ,
1, ,11, ,
0, ,11, ,
0, ,11, ,
0, ,11, ,
0, ,11, ,
0, ,11, ,
0, ,11, ,
0, ,11, ,
0, ,11, ,
-1, ,11, ,
0, ,11, ,
0, ,11, ,
0, ,11, ,
-1, ,11, ,
-1, ,11, ,
-1, ,11, ,
-2, ,11, ,
-1, ,11, ,
-1, ,11, ,
-2, ,11, ,
-1, ,11, ,
-1, ,11, ,
-2, ,11, ,
-1, ,11, ,
-2, ,11, ,
-2, ,11, ,
-2, ,11, ,
-1, ,11, ,
-1, ,11, ,
0, ,11, ,
0, ,11, ,
0, ,11, ,
0, ,11, ,
1, ,11, ,
2, ,11, ,
1, ,11, ,
1, ,11, ,
2, ,11, ,
2, ,11, ,
3, ,11, ,
2, ,11, ,
1, ,11, ,
3, ,11, ,
3, ,11, ,
4, ,11, ,
3, ,11, ,
2, ,11, ,
2, ,11, ,
1, ,11, ,
1, ,11, ,
1, ,11, ,
1, ,11, ,
0, ,11, ,
0, ,11, ,
0, ,11, ,
0, ,11, ,
-1, ,11, ,
-1, ,11, ,
-1, ,11, ,
-1, ,11, ,
-2, ,11, ,
-2, ,11, ,
-3, ,11, ,
-3, ,11, ,
-4, ,11, ,
-3, ,11, ,
-3, ,11, ,
-3, ,11, ,
-2, ,11, ,
-2, ,11, ,
-2, ,11, ,
-1, ,11, ,
-2, ,11, ,
-2, ,11, ,
-1, ,11, ,
-1, ,11, ,
0, ,11, ,
0, ,11, ,
0, ,11, ,
1, ,11, ,
1, ,11, ,
2, ,11, ,
2, ,11, ,
1, ,11, ,
4, ,11, ,
4, ,11, ,
0, ,11, ,
3, ,11, ,
3, ,11, ,
3, ,11, ,
3, ,11, ,
3, ,11, ,
4, ,11, ,
3, ,11, ,
2, ,11, ,
2, ,11, ,
2, ,11, ,
2, ,11, ,
3, ,11, ,
2, ,11, ,
2, ,11, ,
2, ,11, ,
2, ,11, ,
1, ,11, ,
2, ,11, ,
1, ,11, ,
2, ,11, ,
1, ,11, ,
2, ,11, ,
2, ,11, ,
2, ,11, ,
2, ,11, ,
2, ,11, ,
3, ,11, ,
3, ,11, ,
3, ,11, ,
4, ,11, ,
3, ,11, ,
3, ,11, ,
3, ,11, ,
3, ,11, ,
3, ,11, ,
5, ,11, ,
4, ,11, ,
5, ,11, ,
5, ,11, ,
5, ,11, ,
5, ,11, ,
5, ,11, ,
6, ,11, ,
7, ,11, ,
5, ,11, ,
6, ,11, ,
6, ,11, ,
4, ,11, ,
6, ,11, ,
5, ,11, ,
5, ,11, ,
6, ,11, ,
5, ,11, ,
5, ,11, ,
5, ,11, ,
5, ,11, ,
4, ,11, ,
3, ,11, ,
3, ,11, ,
3, ,11, ,
2, ,11, ,
3, ,11, ,
2, ,11, ,
1, ,11, ,
0, ,11, ,
0, ,11, ,
0, ,11, ,
0, ,11, ,
-1, ,11, ,
-1, ,11, ,
-1, ,11, ,
-2, ,11, ,
-1, ,11, ,
-4, ,11, ,
-3, ,11, ,
-3, ,11, ,
-4, ,11, ,
-4, ,11, ,
-5, ,11, ,
-6, ,11, ,
-6, ,11, ,
-6, ,11, ,
-7, ,11, ,
-8, ,11, ,
-8, ,11, ,
-9, ,11, ,
-10, ,11, ,
-11, ,11, ,
-11, ,11, ,
-12, ,11, ,
-13, ,11, ,
-12, ,11, ,
-14, ,11, ,
-14, ,11, ,
-14, ,11, ,
-15, ,11, ,
-15, ,11, ,
-15, ,11, ,
-14, ,11, ,
-14, ,11, ,
-14, ,11, ,
-12, ,11, ,
-12, ,11, ,
-10, ,11, ,
-10, ,11, ,
-10, ,11, ,
-7, ,11, ,
-5, ,11, ,
-5, ,11, ,
-4, ,11, ,
-1, ,11, ,
-2, ,11, ,
1, ,11, ,
2, ,11, ,
3, ,11, ,
5, ,11, ,
6, ,11, ,
7, ,11, ,
7, ,11, ,
8, ,11, ,
8, ,11, ,
8, ,11, ,
9, ,11, ,
8, ,11, ,
8, ,11, ,
8, ,11, ,
7, ,11, ,
6, ,11, ,
6, ,11, ,
6, ,11, ,
5, ,11, ,
5, ,11, ,
4, ,11, ,
4, ,11, ,
3, ,11, ,
3, ,11, ,
2, ,11, ,
1, ,11, ,
1, ,11, ,
1, ,11, ,
1, ,11, ,
1, ,11, ,
0, ,11, ,
0, ,11, ,
0, ,11, ,
0, ,11, ,
0, ,11, ,
2, ,11, ,
0, ,11, ,
0, ,11, ,
1, ,11, ,
2, ,11, ,
3, ,11, ,
2, ,11, ,
2, ,11, ,
3, ,11, ,
3, ,11, ,
3, ,11, ,
4, ,11, ,
3, ,11, ,
5, ,11, ,
5, ,11, ,
5, ,11, ,
5, ,11, ,
5, ,11, ,
6, ,11, ,
7, ,11, ,
6, ,11, ,
7, ,11, ,
6, ,11, ,
8, ,11, ,
8, ,11, ,
8, ,11, ,
8, ,11, ,
8, ,11, ,
6, ,11, ,
6, ,11, ,
6, ,11, ,
