raw_data/100% Glycerol, Impulsion 2Hz, Sonde 5MHz, Rampe 0.7Hz/temp0000323.CSV

Format,1.0B,
Memory Length,10000,Memory Length,10000,
IntpDistance,0,IntpDistance,0,
Trigger Address,159,Trigger Address,159,
Trigger Level,2.720E-01,Trigger Level,2.720E-01,
Source,CH1,Source,CH2,
Vertical Units,V,Vertical Units,V,
Vertical Units Div,0,Vertical Units Div,0,
Vertical Units Extend Div,16,Vertical Units Extend Div,16,
Label,,Label,,
Probe Type,0,Probe Type,0,
Probe Ratio,1.000e+00,Probe Ratio,1.000e+00,
Vertical Scale,2.000e-01,Vertical Scale,2.000e+00,
Vertical Position,0.000e+00,Vertical Position,0.000e+00,
Horizontal Units,S,Horizontal Units,S,
Horizontal Scale,5.000E-06,Horizontal Scale,5.000E-06,
Horizontal Position,2.420E-05,Horizontal Position,2.420E-05,
Horizontal Mode,Main,Horizontal Mode,Main,
SincET Mode,Real Time,SincET Mode,Real Time,
Sampling Period,5.000e-09,Sampling Period,5.000e-09,
Horizontal Old Scale,5.000E-06,Horizontal Old Scale,5.000E-06,
Horizontal Old Position,2.420E-05,Horizontal Old Position,2.420E-05,
Firmware,V1.32,Firmware,V1.32,
Mode,Fast,Mode,Fast,
Waveform Data,,Waveform Data,,
1, ,-31, ,
1, ,-31, ,
1, ,-31, ,
1, ,-31, ,
1, ,-31, ,
2, ,-31, ,
2, ,-31, ,
2, ,-31, ,
1, ,-31, ,
2, ,-31, ,
2, ,-31, ,
2, ,-31, ,
2, ,-31, ,
2, ,-31, ,
1, ,-31, ,
3, ,-31, ,
2, ,-31, ,
2, ,-31, ,
2, ,-31, ,
1, ,-31, ,
1, ,-31, ,
2, ,-31, ,
1, ,-31, ,
3, ,-31, ,
2, ,-31, ,
2, ,-31, ,
3, ,-31, ,
2, ,-31, ,
2, ,-31, ,
2, ,-31, ,
1, ,-31, ,
2, ,-31, ,
2, ,-31, ,
1, ,-31, ,
2, ,-31, ,
1, ,-31, ,
2, ,-31, ,
2, ,-31, ,
2, ,-31, ,
2, ,-31, ,
1, ,-31, ,
2, ,-31, ,
1, ,-31, ,
1, ,-31, ,
2, ,-31, ,
2, ,-31, ,
2, ,-31, ,
2, ,-31, ,
2, ,-31, ,
1, ,-31, ,
2, ,-31, ,
2, ,-31, ,
3, ,-31, ,
2, ,-31, ,
1, ,-31, ,
2, ,-31, ,
2, ,-31, ,
2, ,-31, ,
2, ,-31, ,
1, ,-31, ,
2, ,-31, ,
2, ,-31, ,
2, ,-31, ,
2, ,-31, ,
1, ,-31, ,
2, ,-31, ,
2, ,-31, ,
1, ,-31, ,
2, ,-31, ,
2, ,-31, ,
2, ,-31, ,
2, ,-31, ,
2, ,-31, ,
1, ,-31, ,
2, ,-31, ,
1, ,-31, ,
2, ,-31, ,
1, ,-31, ,
2, ,-31, ,
2, ,-31, ,
1, ,-31, ,
2, ,-31, ,
2, ,-31, ,
2, ,-31, ,
2, ,-31, ,
2, ,-31, ,
2, ,-31, ,
2, ,-31, ,
1, ,-31, ,
2, ,-31, ,
2, ,-31, ,
2, ,-31, ,
2, ,-31, ,
2, ,-31, ,
2, ,-31, ,
2, ,-31, ,
1, ,-31, ,
2, ,-31, ,
3, ,-31, ,
2, ,-31, ,
2, ,-31, ,
3, ,-31, ,
2, ,-31, ,
3, ,-31, ,
1, ,-31, ,
2, ,-31, ,
1, ,-31, ,
1, ,-31, ,
4, ,-31, ,
1, ,-31, ,
2, ,-31, ,
2, ,-31, ,
1, ,-31, ,
1, ,-31, ,
2, ,-31, ,
2, ,-31, ,
2, ,-31, ,
2, ,-31, ,
2, ,-31, ,
2, ,-31, ,
2, ,-31, ,
1, ,-31, ,
2, ,-31, ,
2, ,-31, ,
2, ,-31, ,
2, ,-31, ,
2, ,-31, ,
3, ,-31, ,
1, ,-31, ,
1, ,-31, ,
3, ,-31, ,
2, ,-31, ,
4, ,-31, ,
2, ,-31, ,
2, ,-31, ,
2, ,-31, ,
2, ,-31, ,
3, ,-31, ,
3, ,-31, ,
2, ,-31, ,
2, ,-31, ,
2, ,-31, ,
2, ,-31, ,
2, ,-31, ,
2, ,-31, ,
2, ,-31, ,
2, ,-31, ,
2, ,-31, ,
2, ,-31, ,
2, ,-31, ,
1, ,-31, ,
2, ,-31, ,
1, ,-31, ,
1, ,-31, ,
2, ,-31, ,
1, ,-31, ,
2, ,-31, ,
2, ,-31, ,
2, ,-31, ,
3, ,-31, ,
2, ,-31, ,
1, ,-31, ,
1, ,-31, ,
0, ,-31, ,
1, ,-31, ,
1, ,-31, ,
-4, ,-31, ,
9, ,-31, ,
49, ,-31, ,
125, ,-31, ,
125, ,-31, ,
125, ,-31, ,
123, ,-31, ,
83, ,-31, ,
-17, ,-31, ,
21, ,-31, ,
125, ,-31, ,
125, ,-31, ,
125, ,-31, ,
125, ,-31, ,
125, ,-31, ,
125, ,-31, ,
125, ,-31, ,
125, ,-31, ,
125, ,-31, ,
125, ,-31, ,
125, ,-31, ,
125, ,-31, ,
125, ,-31, ,
125, ,-31, ,
125, ,-31, ,
125, ,-31, ,
125, ,-31, ,
125, ,-31, ,
125, ,-31, ,
125, ,-31, ,
125, ,-31, ,
125, ,-31, ,
125, ,-31, ,
125, ,-31, ,
125, ,-31, ,
124, ,-31, ,
124, ,-31, ,
122, ,-31, ,
118, ,-31, ,
108, ,-31, ,
105, ,-31, ,
101, ,-31, ,
95, ,-31, ,
88, ,-31, ,
86, ,-31, ,
81, ,-31, ,
76, ,-31, ,
71, ,-31, ,
68, ,-31, ,
63, ,-31, ,
61, ,-31, ,
56, ,-31, ,
53, ,-31, ,
51, ,-31, ,
48, ,-31, ,
44, ,-31, ,
41, ,-31, ,
40, ,-31, ,
38, ,-31, ,
34, ,-31, ,
34, ,-31, ,
30, ,-31, ,
30, ,-31, ,
27, ,-31, ,
25, ,-31, ,
24, ,-31, ,
21, ,-31, ,
19, ,-31, ,
18, ,-31, ,
18, ,-31, ,
16, ,-31, ,
15, ,-31, ,
13, ,-31, ,
13, ,-31, ,
11, ,-31, ,
10, ,-31, ,
10, ,-31, ,
9, ,-31, ,
9, ,-31, ,
8, ,-31, ,
6, ,-31, ,
6, ,-31, ,
5, ,-31, ,
4, ,-31, ,
4, ,-31, ,
3, ,-31, ,
4, ,-31, ,
2, ,-31, ,
2, ,-31, ,
2, ,-31, ,
1, ,-31, ,
1, ,-31, ,
0, ,-31, ,
0, ,-31, ,
0, ,-31, ,
0, ,-31, ,
-1, ,-31, ,
0, ,-31, ,
-1, ,-31, ,
-2, ,-31, ,
-2, ,-31, ,
-1, ,-31, ,
-1, ,-31, ,
-2, ,-31, ,
-2, ,-31, ,
-1, ,-31, ,
-2, ,-31, ,
-2, ,-31, ,
-2, ,-31, ,
-3, ,-31, ,
-3, ,-31, ,
-3, ,-31, ,
-3, ,-31, ,
-3, ,-31, ,
-3, ,-31, ,
-3, ,-31, ,
-3, ,-31, ,
-3, ,-31, ,
-3, ,-31, ,
-2, ,-31, ,
-3, ,-31, ,
-3, ,-31, ,
-3, ,-31, ,
-2, ,-31, ,
-2, ,-31, ,
-3, ,-31, ,
-3, ,-31, ,
-2, ,-31, ,
-3, ,-31, ,
-2, ,-31, ,
-3, ,-31, ,
-3, ,-31, ,
-2, ,-31, ,
-4, ,-31, ,
-3, ,-31, ,
-3, ,-31, ,
-2, ,-31, ,
-2, ,-31, ,
-2, ,-31, ,
-1, ,-31, ,
-2, ,-31, ,
-2, ,-31, ,
-2, ,-31, ,
-2, ,-31, ,
-2, ,-31, ,
-1, ,-31, ,
-1, ,-31, ,
-1, ,-31, ,
-1, ,-31, ,
-1, ,-31, ,
-1, ,-31, ,
-1, ,-31, ,
-1, ,-31, ,
-1, ,-31, ,
0, ,-31, ,
0, ,-31, ,
0, ,-31, ,
0, ,-31, ,
0, ,-31, ,
-1, ,-31, ,
-1, ,-31, ,
-1, ,-31, ,
-1, ,-31, ,
-1, ,-31, ,
-1, ,-31, ,
-1, ,-31, ,
-1, ,-31, ,
0, ,-31, ,
0, ,-31, ,
0, ,-31, ,
0, ,-31, ,
0, ,-31, ,
0, ,-31, ,
0, ,-31, ,
0, ,-31, ,
0, ,-31, ,
0, ,-31, ,
0, ,-31, ,
0, ,-31, ,
1, ,-31, ,
1, ,-31, ,
1, ,-31, ,
1, ,-31, ,
0, ,-31, ,
0, ,-31, ,
0, ,-31, ,
0, ,-31, ,
1, ,-31, ,
1, ,-31, ,
1, ,-31, ,
1, ,-31, ,
1, ,-31, ,
0, ,-31, ,
1, ,-31, ,
0, ,-31, ,
0, ,-31, ,
1, ,-31, ,
1, ,-31, ,
1, ,-31, ,
1, ,-31, ,
1, ,-31, ,
1, ,-31, ,
1, ,-31, ,
1, ,-31, ,
0, ,-31, ,
0, ,-31, ,
1, ,-31, ,
2, ,-31, ,
1, ,-31, ,
2, ,-31, ,
1, ,-31, ,
1, ,-31, ,
1, ,-31, ,
0, ,-31, ,
0, ,-31, ,
1, ,-31, ,
1, ,-31, ,
2, ,-31, ,
1, ,-31, ,
1, ,-31, ,
2, ,-31, ,
3, ,-31, ,
2, ,-31, ,
1, ,-31, ,
1, ,-31, ,
1, ,-31, ,
1, ,-31, ,
1, ,-31, ,
2, ,-31, ,
1, ,-31, ,
2, ,-31, ,
1, ,-31, ,
2, ,-31, ,
2, ,-31, ,
1, ,-31, ,
1, ,-31, ,
1, ,-31, ,
0, ,-31, ,
1, ,-31, ,
2, ,-31, ,
1, ,-31, ,
1, ,-31, ,
1, ,-31, ,
1, ,-31, ,
2, ,-31, ,
1, ,-31, ,
2, ,-31, ,
2, ,-31, ,
1, ,-31, ,
2, ,-31, ,
1, ,-31, ,
2, ,-31, ,
2, ,-31, ,
2, ,-31, ,
2, ,-31, ,
1, ,-31, ,
1, ,-31, ,
1, ,-31, ,
0, ,-31, ,
0, ,-31, ,
1, ,-31, ,
1, ,-31, ,
1, ,-31, ,
1, ,-31, ,
1, ,-31, ,
1, ,-31, ,
1, ,-31, ,
1, ,-31, ,
2, ,-31, ,
1, ,-31, ,
1, ,-31, ,
2, ,-31, ,
1, ,-31, ,
1, ,-31, ,
1, ,-31, ,
0, ,-31, ,
0, ,-31, ,
-1, ,-31, ,
0, ,-31, ,
0, ,-31, ,
0, ,-31, ,
0, ,-31, ,
0, ,-31, ,
1, ,-31, ,
1, ,-31, ,
1, ,-31, ,
2, ,-31, ,
2, ,-31, ,
2, ,-31, ,
2, ,-31, ,
1, ,-31, ,
0, ,-31, ,
2, ,-31, ,
2, ,-31, ,
1, ,-31, ,
1, ,-31, ,
1, ,-31, ,
2, ,-31, ,
0, ,-31, ,
1, ,-31, ,
1, ,-31, ,
0, ,-31, ,
2, ,-31, ,
2, ,-31, ,
0, ,-31, ,
1, ,-31, ,
1, ,-31, ,
0, ,-31, ,
0, ,-31, ,
-1, ,-31, ,
-2, ,-31, ,
-8, ,-31, ,
-15, ,-31, ,
-24, ,-31, ,
-38, ,-31, ,
-84, ,-31, ,
-113, ,-31, ,
-126, ,-31, ,
-126, ,-31, ,
-126, ,-31, ,
-126, ,-31, ,
-126, ,-31, ,
-126, ,-31, ,
-126, ,-31, ,
-126, ,-31, ,
-126, ,-31, ,
-126, ,-31, ,
-126, ,-31, ,
-126, ,-31, ,
-126, ,-31, ,
-126, ,-31, ,
-126, ,-31, ,
-126, ,-31, ,
-126, ,-31, ,
-126, ,-31, ,
-126, ,-31, ,
-126, ,-31, ,
-126, ,-31, ,
-126, ,-31, ,
-126, ,-31, ,
-126, ,-31, ,
-126, ,-31, ,
-126, ,-31, ,
-126, ,-31, ,
-126, ,-31, ,
-126, ,-31, ,
-126, ,-31, ,
-126, ,-31, ,
-126, ,-31, ,
-126, ,-31, ,
-126, ,-31, ,
-126, ,-31, ,
-126, ,-31, ,
-126, ,-31, ,
-126, ,-31, ,
-124, ,-31, ,
-118, ,-31, ,
-114, ,-31, ,
-109, ,-31, ,
-101, ,-31, ,
-95, ,-31, ,
-85, ,-31, ,
-54, ,-31, ,
125, ,-31, ,
125, ,-31, ,
125, ,-31, ,
125, ,-31, ,
125, ,-31, ,
125, ,-31, ,
125, ,-31, ,
125, ,-31, ,
125, ,-31, ,
125, ,-31, ,
125, ,-31, ,
125, ,-31, ,
125, ,-31, ,
125, ,-31, ,
125, ,-31, ,
125, ,-31, ,
125, ,-31, ,
125, ,-31, ,
125, ,-31, ,
125, ,-31, ,
125, ,-31, ,
125, ,-31, ,
125, ,-31, ,
125, ,-31, ,
125, ,-31, ,
125, ,-31, ,
125, ,-31, ,
125, ,-31, ,
125, ,-31, ,
125, ,-31, ,
125, ,-31, ,
125, ,-31, ,
125, ,-31, ,
125, ,-31, ,
125, ,-31, ,
125, ,-31, ,
124, ,-31, ,
118, ,-31, ,
110, ,-31, ,
94, ,-31, ,
-24, ,-31, ,
-126, ,-31, ,
-126, ,-31, ,
-126, ,-31, ,
-126, ,-31, ,
-126, ,-31, ,
-126, ,-31, ,
-126, ,-31, ,
-126, ,-31, ,
-126, ,-31, ,
-126, ,-31, ,
-126, ,-31, ,
-126, ,-31, ,
-126, ,-31, ,
-126, ,-31, ,
-126, ,-31, ,
-126, ,-31, ,
-126, ,-31, ,
-126, ,-31, ,
-126, ,-31, ,
-126, ,-31, ,
-126, ,-31, ,
-126, ,-31, ,
-126, ,-31, ,
-126, ,-31, ,
-126, ,-31, ,
-119, ,-31, ,
-93, ,-31, ,
125, ,-31, ,
125, ,-31, ,
125, ,-31, ,
125, ,-31, ,
125, ,-31, ,
125, ,-31, ,
125, ,-31, ,
125, ,-31, ,
125, ,-31, ,
123, ,-31, ,
121, ,-31, ,
88, ,-31, ,
4, ,-31, ,
-34, ,-31, ,
-70, ,-31, ,
-103, ,-31, ,
-126, ,-31, ,
-126, ,-31, ,
-126, ,-31, ,
-126, ,-31, ,
-126, ,-31, ,
-126, ,-31, ,
-126, ,-31, ,
-126, ,-31, ,
-126, ,-31, ,
-126, ,-31, ,
-124, ,-31, ,
-102, ,-31, ,
-55, ,-31, ,
-33, ,-31, ,
-22, ,-31, ,
-9, ,-31, ,
-3, ,-31, ,
-10, ,-31, ,
-16, ,-31, ,
-27, ,-31, ,
-57, ,-31, ,
-75, ,-31, ,
-93, ,-31, ,
-111, ,-31, ,
-126, ,-31, ,
-126, ,-31, ,
-126, ,-31, ,
-126, ,-31, ,
-126, ,-31, ,
-126, ,-31, ,
-126, ,-31, ,
-126, ,-31, ,
-126, ,-31, ,
-126, ,-31, ,
-126, ,-31, ,
-126, ,-31, ,
-126, ,-31, ,
-122, ,-31, ,
-118, ,-31, ,
-112, ,-31, ,
-103, ,-31, ,
-100, ,-31, ,
-93, ,-31, ,
-91, ,-31, ,
-71, ,-31, ,
-43, ,-31, ,
-6, ,-31, ,
37, ,-31, ,
92, ,-31, ,
99, ,-31, ,
104, ,-31, ,
108, ,-31, ,
124, ,-31, ,
125, ,-31, ,
125, ,-31, ,
125, ,-31, ,
125, ,-31, ,
124, ,-31, ,
124, ,-31, ,
123, ,-31, ,
114, ,-31, ,
111, ,-31, ,
105, ,-31, ,
101, ,-31, ,
92, ,-31, ,
84, ,-31, ,
81, ,-31, ,
76, ,-31, ,
66, ,-31, ,
63, ,-31, ,
57, ,-31, ,
54, ,-31, ,
45, ,-31, ,
39, ,-31, ,
36, ,-31, ,
32, ,-31, ,
25, ,-31, ,
22, ,-31, ,
18, ,-31, ,
15, ,-31, ,
11, ,-31, ,
10, ,-31, ,
11, ,-31, ,
10, ,-31, ,
13, ,-31, ,
16, ,-31, ,
18, ,-31, ,
23, ,-31, ,
35, ,-31, ,
39, ,-31, ,
49, ,-31, ,
56, ,-31, ,
73, ,-31, ,
83, ,-31, ,
90, ,-31, ,
99, ,-31, ,
111, ,-31, ,
115, ,-31, ,
120, ,-31, ,
123, ,-31, ,
125, ,-31, ,
125, ,-31, ,
125, ,-31, ,
125, ,-31, ,
124, ,-31, ,
121, ,-31, ,
117, ,-31, ,
112, ,-31, ,
102, ,-31, ,
98, ,-31, ,
89, ,-31, ,
83, ,-31, ,
69, ,-31, ,
59, ,-31, ,
51, ,-31, ,
44, ,-31, ,
27, ,-31, ,
22, ,-31, ,
13, ,-31, ,
9, ,-31, ,
-5, ,-31, ,
-10, ,-31, ,
-12, ,-31, ,
-16, ,-31, ,
-21, ,-31, ,
-22, ,-31, ,
-23, ,-31, ,
-24, ,-31, ,
-22, ,-31, ,
-20, ,-31, ,
-20, ,-31, ,
-18, ,-31, ,
-12, ,-31, ,
-7, ,-31, ,
-4, ,-31, ,
0, ,-31, ,
8, ,-31, ,
11, ,-31, ,
16, ,-31, ,
18, ,-31, ,
26, ,-31, ,
30, ,-31, ,
30, ,-31, ,
34, ,-31, ,
36, ,-31, ,
37, ,-31, ,
39, ,-31, ,
39, ,-31, ,
41, ,-31, ,
41, ,-31, ,
41, ,-31, ,
42, ,-31, ,
42, ,-31, ,
44, ,-31, ,
44, ,-31, ,
45, ,-31, ,
47, ,-31, ,
50, ,-31, ,
52, ,-31, ,
55, ,-31, ,
60, ,-31, ,
62, ,-31, ,
65, ,-31, ,
68, ,-31, ,
76, ,-31, ,
81, ,-31, ,
82, ,-31, ,
90, ,-31, ,
94, ,-31, ,
98, ,-31, ,
101, ,-31, ,
102, ,-31, ,
106, ,-31, ,
107, ,-31, ,
107, ,-31, ,
105, ,-31, ,
105, ,-31, ,
101, ,-31, ,
101, ,-31, ,
99, ,-31, ,
93, ,-31, ,
91, ,-31, ,
87, ,-31, ,
85, ,-31, ,
79, ,-31, ,
75, ,-31, ,
70, ,-31, ,
69, ,-31, ,
62, ,-31, ,
59, ,-31, ,
55, ,-31, ,
53, ,-31, ,
48, ,-31, ,
46, ,-31, ,
43, ,-31, ,
41, ,-31, ,
39, ,-31, ,
39, ,-31, ,
38, ,-31, ,
38, ,-31, ,
40, ,-31, ,
40, ,-31, ,
41, ,-31, ,
40, ,-31, ,
41, ,-31, ,
42, ,-31, ,
42, ,-31, ,
42, ,-31, ,
43, ,-31, ,
42, ,-31, ,
43, ,-31, ,
43, ,-31, ,
41, ,-31, ,
41, ,-31, ,
40, ,-31, ,
40, ,-31, ,
37, ,-31, ,
36, ,-31, ,
35, ,-31, ,
33, ,-31, ,
29, ,-31, ,
27, ,-31, ,
25, ,-31, ,
23, ,-31, ,
19, ,-31, ,
14, ,-31, ,
12, ,-31, ,
8, ,-31, ,
1, ,-31, ,
-2, ,-31, ,
-6, ,-31, ,
-10, ,-31, ,
-20, ,-31, ,
-28, ,-31, ,
-32, ,-31, ,
-39, ,-31, ,
-52, ,-31, ,
-60, ,-31, ,
-69, ,-31, ,
-77, ,-31, ,
-95, ,-31, ,
-105, ,-31, ,
-113, ,-31, ,
-125, ,-31, ,
-126, ,-31, ,
-126, ,-31, ,
-126, ,-31, ,
-126, ,-31, ,
-126, ,-31, ,
-126, ,-31, ,
-126, ,-31, ,
-126, ,-31, ,
-126, ,-31, ,
-126, ,-31, ,
-126, ,-31, ,
-126, ,-31, ,
-126, ,-31, ,
-126, ,-31, ,
-126, ,-31, ,
-126, ,-31, ,
-126, ,-31, ,
-126, ,-31, ,
-126, ,-31, ,
-126, ,-31, ,
-126, ,-31, ,
-126, ,-31, ,
-126, ,-31, ,
-126, ,-31, ,
-126, ,-31, ,
-126, ,-31, ,
-126, ,-31, ,
-126, ,-31, ,
-126, ,-31, ,
-126, ,-31, ,
-126, ,-31, ,
-126, ,-31, ,
-126, ,-31, ,
-126, ,-31, ,
-126, ,-31, ,
-126, ,-31, ,
-119, ,-31, ,
-115, ,-31, ,
-108, ,-31, ,
-105, ,-31, ,
-97, ,-31, ,
-91, ,-31, ,
-89, ,-31, ,
-84, ,-31, ,
-76, ,-31, ,
-73, ,-31, ,
-68, ,-31, ,
-66, ,-31, ,
-58, ,-31, ,
-54, ,-31, ,
-53, ,-31, ,
-48, ,-31, ,
-42, ,-31, ,
-39, ,-31, ,
-33, ,-31, ,
-17, ,-31, ,
49, ,-31, ,
82, ,-31, ,
100, ,-31, ,
105, ,-31, ,
103, ,-31, ,
104, ,-31, ,
107, ,-31, ,
113, ,-31, ,
119, ,-31, ,
123, ,-31, ,
125, ,-31, ,
125, ,-31, ,
125, ,-31, ,
125, ,-31, ,
125, ,-31, ,
125, ,-31, ,
125, ,-31, ,
125, ,-31, ,
125, ,-31, ,
125, ,-31, ,
125, ,-31, ,
125, ,-31, ,
125, ,-31, ,
125, ,-31, ,
125, ,-31, ,
125, ,-31, ,
125, ,-31, ,
125, ,-31, ,
125, ,-31, ,
125, ,-31, ,
125, ,-31, ,
125, ,-31, ,
125, ,-31, ,
125, ,-31, ,
125, ,-31, ,
125, ,-31, ,
125, ,-31, ,
125, ,-31, ,
125, ,-31, ,
125, ,-31, ,
125, ,-31, ,
125, ,-31, ,
125, ,-31, ,
125, ,-31, ,
125, ,-31, ,
125, ,-31, ,
125, ,-31, ,
125, ,-31, ,
125, ,-31, ,
125, ,-31, ,
125, ,-31, ,
125, ,-31, ,
125, ,-31, ,
125, ,-31, ,
125, ,-31, ,
125, ,-31, ,
124, ,-31, ,
124, ,-31, ,
117, ,-31, ,
112, ,-31, ,
93, ,-31, ,
83, ,-31, ,
72, ,-31, ,
60, ,-31, ,
34, ,-31, ,
19, ,-31, ,
3, ,-31, ,
-10, ,-31, ,
-36, ,-31, ,
-51, ,-31, ,
-61, ,-31, ,
-72, ,-31, ,
-87, ,-31, ,
-90, ,-31, ,
-93, ,-31, ,
-93, ,-31, ,
-89, ,-31, ,
-86, ,-31, ,
-78, ,-31, ,
-73, ,-31, ,
-56, ,-31, ,
-46, ,-31, ,
-37, ,-31, ,
-27, ,-31, ,
-12, ,-31, ,
-5, ,-31, ,
3, ,-31, ,
8, ,-31, ,
15, ,-31, ,
17, ,-31, ,
17, ,-31, ,
17, ,-31, ,
9, ,-31, ,
4, ,-31, ,
-3, ,-31, ,
-11, ,-31, ,
-33, ,-31, ,
-42, ,-31, ,
-55, ,-31, ,
-66, ,-31, ,
-90, ,-31, ,
-102, ,-31, ,
-109, ,-31, ,
-119, ,-31, ,
-126, ,-31, ,
-126, ,-31, ,
-126, ,-31, ,
-126, ,-31, ,
-126, ,-31, ,
-126, ,-31, ,
-126, ,-31, ,
-126, ,-31, ,
-126, ,-31, ,
-121, ,-31, ,
-113, ,-31, ,
-105, ,-31, ,
-88, ,-31, ,
-80, ,-31, ,
-73, ,-31, ,
-63, ,-31, ,
-49, ,-31, ,
-42, ,-31, ,
-38, ,-31, ,
-33, ,-31, ,
-27, ,-31, ,
-25, ,-31, ,
-24, ,-31, ,
-24, ,-31, ,
-25, ,-31, ,
-25, ,-31, ,
-28, ,-31, ,
-29, ,-31, ,
-31, ,-31, ,
-32, ,-31, ,
-34, ,-31, ,
-34, ,-31, ,
-33, ,-31, ,
-32, ,-31, ,
-33, ,-31, ,
-30, ,-31, ,
-29, ,-31, ,
-26, ,-31, ,
-23, ,-31, ,
-20, ,-31, ,
-16, ,-31, ,
-11, ,-31, ,
-11, ,-31, ,
-9, ,-31, ,
-5, ,-31, ,
-4, ,-31, ,
-2, ,-31, ,
-2, ,-31, ,
-2, ,-31, ,
-1, ,-31, ,
-3, ,-31, ,
-3, ,-31, ,
-6, ,-31, ,
-8, ,-31, ,
-8, ,-31, ,
-13, ,-31, ,
-15, ,-31, ,
-16, ,-31, ,
-19, ,-31, ,
-20, ,-31, ,
-23, ,-31, ,
-24, ,-31, ,
-26, ,-31, ,
-27, ,-31, ,
-29, ,-31, ,
-29, ,-31, ,
-29, ,-31, ,
-29, ,-31, ,
-31, ,-31, ,
-32, ,-31, ,
-31, ,-31, ,
-32, ,-31, ,
-32, ,-31, ,
-32, ,-31, ,
-32, ,-31, ,
-32, ,-31, ,
-32, ,-31, ,
-33, ,-31, ,
-33, ,-31, ,
-33, ,-31, ,
-34, ,-31, ,
-34, ,-31, ,
-34, ,-31, ,
-34, ,-31, ,
-35, ,-31, ,
-35, ,-31, ,
-35, ,-31, ,
-36, ,-31, ,
-37, ,-31, ,
-39, ,-31, ,
-39, ,-31, ,
-39, ,-31, ,
-40, ,-31, ,
-41, ,-31, ,
-41, ,-31, ,
-40, ,-31, ,
-40, ,-31, ,
-41, ,-31, ,
-39, ,-31, ,
-38, ,-31, ,
-38, ,-31, ,
-36, ,-31, ,
-35, ,-31, ,
-35, ,-31, ,
-33, ,-31, ,
-30, ,-31, ,
-29, ,-31, ,
-28, ,-31, ,
-25, ,-31, ,
-23, ,-31, ,
-22, ,-31, ,
-18, ,-31, ,
-15, ,-31, ,
-12, ,-31, ,
-11, ,-31, ,
-9, ,-31, ,
-5, ,-31, ,
-2, ,-31, ,
1, ,-31, ,
0, ,-31, ,
3, ,-31, ,
6, ,-31, ,
5, ,-31, ,
8, ,-31, ,
10, ,-31, ,
10, ,-31, ,
11, ,-31, ,
11, ,-31, ,
13, ,-31, ,
14, ,-31, ,
13, ,-31, ,
14, ,-31, ,
12, ,-31, ,
11, ,-31, ,
10, ,-31, ,
10, ,-31, ,
7, ,-31, ,
8, ,-31, ,
5, ,-31, ,
4, ,-31, ,
2, ,-31, ,
0, ,-31, ,
-1, ,-31, ,
-1, ,-31, ,
-3, ,-31, ,
-5, ,-31, ,
-5, ,-31, ,
-5, ,-31, ,
-5, ,-31, ,
-6, ,-31, ,
-5, ,-31, ,
-6, ,-31, ,
-4, ,-31, ,
-4, ,-31, ,
-3, ,-31, ,
0, ,-31, ,
2, ,-31, ,
5, ,-31, ,
5, ,-31, ,
8, ,-31, ,
11, ,-31, ,
16, ,-31, ,
19, ,-31, ,
22, ,-31, ,
28, ,-31, ,
29, ,-31, ,
35, ,-31, ,
35, ,-31, ,
41, ,-31, ,
45, ,-31, ,
47, ,-31, ,
50, ,-31, ,
54, ,-31, ,
57, ,-31, ,
60, ,-31, ,
61, ,-31, ,
67, ,-31, ,
69, ,-31, ,
71, ,-31, ,
74, ,-31, ,
76, ,-31, ,
79, ,-31, ,
80, ,-31, ,
82, ,-31, ,
85, ,-31, ,
87, ,-31, ,
87, ,-31, ,
90, ,-31, ,
91, ,-31, ,
90, ,-31, ,
92, ,-31, ,
91, ,-31, ,
90, ,-31, ,
89, ,-31, ,
89, ,-31, ,
88, ,-31, ,
84, ,-31, ,
83, ,-31, ,
83, ,-31, ,
77, ,-31, ,
72, ,-31, ,
70, ,-31, ,
66, ,-31, ,
64, ,-31, ,
57, ,-31, ,
51, ,-31, ,
51, ,-31, ,
45, ,-31, ,
38, ,-31, ,
35, ,-31, ,
33, ,-31, ,
30, ,-31, ,
24, ,-31, ,
21, ,-31, ,
19, ,-31, ,
14, ,-31, ,
9, ,-31, ,
6, ,-31, ,
3, ,-31, ,
0, ,-31, ,
-6, ,-31, ,
-10, ,-31, ,
-12, ,-31, ,
-16, ,-31, ,
-23, ,-31, ,
-26, ,-31, ,
-28, ,-31, ,
-31, ,-31, ,
-37, ,-31, ,
-41, ,-31, ,
-44, ,-31, ,
-49, ,-31, ,
-54, ,-31, ,
-55, ,-31, ,
-60, ,-31, ,
-62, ,-31, ,
-67, ,-31, ,
-70, ,-31, ,
-72, ,-31, ,
-75, ,-31, ,
-78, ,-31, ,
-79, ,-31, ,
-83, ,-31, ,
-83, ,-31, ,
-87, ,-31, ,
-88, ,-31, ,
-90, ,-31, ,
-93, ,-31, ,
-94, ,-31, ,
-96, ,-31, ,
-97, ,-31, ,
-100, ,-31, ,
-102, ,-31, ,
-105, ,-31, ,
-106, ,-31, ,
-107, ,-31, ,
-111, ,-31, ,
-111, ,-31, ,
-113, ,-31, ,
-114, ,-31, ,
-116, ,-31, ,
-116, ,-31, ,
-116, ,-31, ,
-116, ,-31, ,
-117, ,-31, ,
-114, ,-31, ,
-115, ,-31, ,
-114, ,-31, ,
-113, ,-31, ,
-112, ,-31, ,
-111, ,-31, ,
-110, ,-31, ,
-107, ,-31, ,
-105, ,-31, ,
-105, ,-31, ,
-103, ,-31, ,
-99, ,-31, ,
-98, ,-31, ,
-94, ,-31, ,
-94, ,-31, ,
-89, ,-31, ,
-86, ,-31, ,
-83, ,-31, ,
-83, ,-31, ,
-78, ,-31, ,
-76, ,-31, ,
-72, ,-31, ,
-71, ,-31, ,
-67, ,-31, ,
-62, ,-31, ,
-61, ,-31, ,
-58, ,-31, ,
-54, ,-31, ,
-50, ,-31, ,
-47, ,-31, ,
-48, ,-31, ,
-41, ,-31, ,
-40, ,-31, ,
-36, ,-31, ,
-35, ,-31, ,
-28, ,-31, ,
-28, ,-31, ,
-25, ,-31, ,
-22, ,-31, ,
-17, ,-31, ,
-13, ,-31, ,
-10, ,-31, ,
-7, ,-31, ,
0, ,-31, ,
3, ,-31, ,
10, ,-31, ,
13, ,-31, ,
22, ,-31, ,
25, ,-31, ,
29, ,-31, ,
35, ,-31, ,
42, ,-31, ,
47, ,-31, ,
52, ,-31, ,
55, ,-31, ,
65, ,-31, ,
69, ,-31, ,
74, ,-31, ,
79, ,-31, ,
87, ,-31, ,
89, ,-31, ,
94, ,-31, ,
97, ,-31, ,
103, ,-31, ,
106, ,-31, ,
106, ,-31, ,
110, ,-31, ,
115, ,-31, ,
115, ,-31, ,
117, ,-31, ,
118, ,-31, ,
119, ,-31, ,
118, ,-31, ,
118, ,-31, ,
117, ,-31, ,
113, ,-31, ,
112, ,-31, ,
110, ,-31, ,
108, ,-31, ,
103, ,-31, ,
101, ,-31, ,
96, ,-31, ,
93, ,-31, ,
84, ,-31, ,
81, ,-31, ,
78, ,-31, ,
74, ,-31, ,
68, ,-31, ,
65, ,-31, ,
62, ,-31, ,
59, ,-31, ,
54, ,-31, ,
53, ,-31, ,
53, ,-31, ,
50, ,-31, ,
50, ,-31, ,
50, ,-31, ,
49, ,-31, ,
49, ,-31, ,
50, ,-31, ,
49, ,-31, ,
49, ,-31, ,
49, ,-31, ,
50, ,-31, ,
50, ,-31, ,
50, ,-31, ,
49, ,-31, ,
48, ,-31, ,
45, ,-31, ,
46, ,-31, ,
43, ,-31, ,
41, ,-31, ,
41, ,-31, ,
38, ,-31, ,
36, ,-31, ,
33, ,-31, ,
29, ,-31, ,
27, ,-31, ,
25, ,-31, ,
19, ,-31, ,
16, ,-31, ,
13, ,-31, ,
12, ,-31, ,
5, ,-31, ,
1, ,-31, ,
-1, ,-31, ,
-6, ,-31, ,
-12, ,-31, ,
-13, ,-31, ,
-18, ,-31, ,
-20, ,-31, ,
-27, ,-31, ,
-30, ,-31, ,
-33, ,-31, ,
-35, ,-31, ,
-40, ,-31, ,
-41, ,-31, ,
-44, ,-31, ,
-45, ,-31, ,
-46, ,-31, ,
-46, ,-31, ,
-45, ,-31, ,
-46, ,-31, ,
-43, ,-31, ,
-41, ,-31, ,
-41, ,-31, ,
-38, ,-31, ,
-32, ,-31, ,
-30, ,-31, ,
-25, ,-31, ,
-22, ,-31, ,
-16, ,-31, ,
-13, ,-31, ,
-10, ,-31, ,
-5, ,-31, ,
0, ,-31, ,
2, ,-31, ,
6, ,-31, ,
5, ,-31, ,
9, ,-31, ,
10, ,-31, ,
10, ,-31, ,
10, ,-31, ,
9, ,-31, ,
6, ,-31, ,
6, ,-31, ,
3, ,-31, ,
0, ,-31, ,
-2, ,-31, ,
-5, ,-31, ,
-6, ,-31, ,
-12, ,-31, ,
-13, ,-31, ,
-14, ,-31, ,
-17, ,-31, ,
-19, ,-31, ,
-19, ,-31, ,
-20, ,-31, ,
-19, ,-31, ,
-18, ,-31, ,
-17, ,-31, ,
-17, ,-31, ,
-15, ,-31, ,
-13, ,-31, ,
-11, ,-31, ,
-9, ,-31, ,
-9, ,-31, ,
-5, ,-31, ,
-2, ,-31, ,
-1, ,-31, ,
-2, ,-31, ,
1, ,-31, ,
3, ,-31, ,
2, ,-31, ,
3, ,-31, ,
2, ,-31, ,
1, ,-31, ,
0, ,-31, ,
-1, ,-31, ,
-3, ,-31, ,
-3, ,-31, ,
-4, ,-31, ,
-5, ,-31, ,
-8, ,-31, ,
-9, ,-31, ,
-10, ,-31, ,
-11, ,-31, ,
-13, ,-31, ,
-11, ,-31, ,
-13, ,-31, ,
-13, ,-31, ,
-13, ,-31, ,
-13, ,-31, ,
-13, ,-31, ,
-13, ,-31, ,
-12, ,-31, ,
-11, ,-31, ,
-12, ,-31, ,
-10, ,-31, ,
-10, ,-31, ,
-11, ,-31, ,
-11, ,-31, ,
-12, ,-31, ,
-11, ,-31, ,
-11, ,-31, ,
-12, ,-31, ,
-11, ,-31, ,
-11, ,-31, ,
-12, ,-31, ,
-13, ,-31, ,
-14, ,-31, ,
-15, ,-31, ,
-14, ,-31, ,
-16, ,-31, ,
-16, ,-31, ,
-16, ,-31, ,
-17, ,-31, ,
-16, ,-31, ,
-17, ,-31, ,
-16, ,-31, ,
-16, ,-31, ,
-17, ,-31, ,
-16, ,-31, ,
-15, ,-31, ,
-15, ,-31, ,
-15, ,-31, ,
-16, ,-31, ,
-14, ,-31, ,
-14, ,-31, ,
-14, ,-31, ,
-14, ,-31, ,
-14, ,-31, ,
-14, ,-31, ,
-14, ,-31, ,
-15, ,-31, ,
