raw_data/100% Glycerol, Impulsion 2Hz, Sonde 5MHz, Rampe 0.7Hz/temp0000361.CSV

Format,1.0B,
Memory Length,10000,Memory Length,10000,
IntpDistance,0,IntpDistance,0,
Trigger Address,159,Trigger Address,159,
Trigger Level,2.720E-01,Trigger Level,2.720E-01,
Source,CH1,Source,CH2,
Vertical Units,V,Vertical Units,V,
Vertical Units Div,0,Vertical Units Div,0,
Vertical Units Extend Div,16,Vertical Units Extend Div,16,
Label,,Label,,
Probe Type,0,Probe Type,0,
Probe Ratio,1.000e+00,Probe Ratio,1.000e+00,
Vertical Scale,2.000e-01,Vertical Scale,2.000e+00,
Vertical Position,0.000e+00,Vertical Position,0.000e+00,
Horizontal Units,S,Horizontal Units,S,
Horizontal Scale,5.000E-06,Horizontal Scale,5.000E-06,
Horizontal Position,2.420E-05,Horizontal Position,2.420E-05,
Horizontal Mode,Main,Horizontal Mode,Main,
SincET Mode,Real Time,SincET Mode,Real Time,
Sampling Period,5.000e-09,Sampling Period,5.000e-09,
Horizontal Old Scale,5.000E-06,Horizontal Old Scale,5.000E-06,
Horizontal Old Position,2.420E-05,Horizontal Old Position,2.420E-05,
Firmware,V1.32,Firmware,V1.32,
Mode,Fast,Mode,Fast,
Waveform Data,,Waveform Data,,
0, ,30, ,
1, ,30, ,
3, ,30, ,
3, ,30, ,
3, ,30, ,
2, ,30, ,
2, ,30, ,
3, ,30, ,
2, ,30, ,
2, ,30, ,
2, ,30, ,
2, ,30, ,
1, ,30, ,
3, ,30, ,
3, ,30, ,
3, ,30, ,
2, ,30, ,
1, ,30, ,
3, ,30, ,
2, ,30, ,
1, ,30, ,
2, ,30, ,
1, ,30, ,
2, ,30, ,
2, ,30, ,
2, ,30, ,
2, ,30, ,
2, ,30, ,
2, ,30, ,
2, ,30, ,
2, ,30, ,
2, ,30, ,
2, ,30, ,
2, ,30, ,
2, ,30, ,
2, ,30, ,
2, ,30, ,
2, ,30, ,
1, ,30, ,
1, ,30, ,
2, ,30, ,
2, ,30, ,
3, ,30, ,
1, ,30, ,
2, ,30, ,
3, ,30, ,
2, ,30, ,
2, ,30, ,
3, ,30, ,
3, ,30, ,
3, ,30, ,
3, ,30, ,
2, ,30, ,
3, ,30, ,
2, ,30, ,
2, ,30, ,
2, ,30, ,
3, ,30, ,
3, ,30, ,
3, ,30, ,
3, ,30, ,
3, ,30, ,
2, ,30, ,
2, ,30, ,
1, ,30, ,
2, ,30, ,
2, ,30, ,
2, ,30, ,
2, ,30, ,
2, ,30, ,
2, ,30, ,
3, ,30, ,
3, ,30, ,
3, ,30, ,
3, ,30, ,
3, ,30, ,
2, ,30, ,
2, ,30, ,
1, ,30, ,
2, ,30, ,
2, ,30, ,
1, ,30, ,
2, ,30, ,
2, ,30, ,
2, ,30, ,
3, ,30, ,
3, ,30, ,
3, ,30, ,
2, ,30, ,
2, ,30, ,
3, ,30, ,
3, ,30, ,
2, ,30, ,
2, ,30, ,
2, ,30, ,
2, ,30, ,
3, ,30, ,
2, ,30, ,
2, ,30, ,
1, ,30, ,
2, ,30, ,
2, ,30, ,
2, ,30, ,
2, ,30, ,
4, ,30, ,
2, ,30, ,
3, ,30, ,
2, ,30, ,
1, ,30, ,
3, ,30, ,
2, ,30, ,
3, ,30, ,
3, ,30, ,
1, ,30, ,
2, ,30, ,
2, ,30, ,
3, ,30, ,
3, ,30, ,
2, ,30, ,
2, ,30, ,
3, ,30, ,
3, ,30, ,
2, ,30, ,
1, ,30, ,
3, ,30, ,
3, ,30, ,
2, ,30, ,
2, ,30, ,
3, ,30, ,
2, ,30, ,
2, ,30, ,
2, ,30, ,
3, ,30, ,
2, ,30, ,
2, ,30, ,
2, ,30, ,
4, ,30, ,
1, ,30, ,
2, ,30, ,
2, ,30, ,
2, ,30, ,
2, ,30, ,
2, ,30, ,
3, ,30, ,
2, ,30, ,
2, ,30, ,
2, ,30, ,
1, ,30, ,
2, ,30, ,
2, ,30, ,
2, ,30, ,
2, ,30, ,
3, ,30, ,
2, ,30, ,
2, ,30, ,
2, ,30, ,
3, ,30, ,
3, ,30, ,
2, ,30, ,
2, ,30, ,
2, ,30, ,
2, ,30, ,
2, ,30, ,
0, ,30, ,
-1, ,30, ,
3, ,30, ,
-4, ,30, ,
9, ,30, ,
121, ,30, ,
125, ,30, ,
125, ,30, ,
125, ,30, ,
119, ,30, ,
82, ,30, ,
-15, ,30, ,
22, ,30, ,
125, ,30, ,
125, ,30, ,
125, ,30, ,
125, ,30, ,
125, ,30, ,
125, ,30, ,
125, ,30, ,
125, ,30, ,
125, ,30, ,
125, ,30, ,
125, ,30, ,
125, ,30, ,
125, ,30, ,
125, ,30, ,
125, ,30, ,
125, ,30, ,
125, ,30, ,
125, ,30, ,
125, ,30, ,
125, ,30, ,
125, ,30, ,
125, ,30, ,
125, ,30, ,
125, ,30, ,
125, ,30, ,
125, ,30, ,
124, ,30, ,
124, ,30, ,
112, ,30, ,
110, ,30, ,
105, ,30, ,
103, ,30, ,
94, ,30, ,
89, ,30, ,
86, ,30, ,
81, ,30, ,
73, ,30, ,
71, ,30, ,
67, ,30, ,
65, ,30, ,
59, ,30, ,
54, ,30, ,
54, ,30, ,
51, ,30, ,
47, ,30, ,
44, ,30, ,
43, ,30, ,
39, ,30, ,
37, ,30, ,
35, ,30, ,
33, ,30, ,
30, ,30, ,
28, ,30, ,
28, ,30, ,
25, ,30, ,
24, ,30, ,
22, ,30, ,
20, ,30, ,
20, ,30, ,
19, ,30, ,
15, ,30, ,
15, ,30, ,
15, ,30, ,
13, ,30, ,
11, ,30, ,
11, ,30, ,
10, ,30, ,
9, ,30, ,
8, ,30, ,
8, ,30, ,
7, ,30, ,
7, ,30, ,
5, ,30, ,
4, ,30, ,
4, ,30, ,
4, ,30, ,
3, ,30, ,
2, ,30, ,
2, ,30, ,
1, ,30, ,
1, ,30, ,
0, ,30, ,
2, ,30, ,
0, ,30, ,
-1, ,30, ,
-1, ,30, ,
-2, ,30, ,
0, ,30, ,
0, ,30, ,
-2, ,30, ,
0, ,30, ,
-1, ,30, ,
-4, ,30, ,
-1, ,30, ,
-2, ,30, ,
-2, ,30, ,
-2, ,30, ,
-2, ,30, ,
-2, ,30, ,
-3, ,30, ,
-3, ,30, ,
-2, ,30, ,
-3, ,30, ,
-2, ,30, ,
-2, ,30, ,
-2, ,30, ,
-3, ,30, ,
-3, ,30, ,
-2, ,30, ,
-3, ,30, ,
-3, ,30, ,
-3, ,30, ,
-1, ,30, ,
-3, ,30, ,
-2, ,30, ,
-3, ,30, ,
-2, ,30, ,
-2, ,30, ,
-2, ,30, ,
-2, ,30, ,
-2, ,30, ,
-2, ,30, ,
-2, ,30, ,
-2, ,30, ,
-2, ,30, ,
-2, ,30, ,
-2, ,30, ,
-1, ,30, ,
-2, ,30, ,
-3, ,30, ,
-1, ,30, ,
-2, ,30, ,
-1, ,30, ,
0, ,30, ,
-1, ,30, ,
-1, ,30, ,
-1, ,30, ,
-1, ,30, ,
0, ,30, ,
0, ,30, ,
0, ,30, ,
0, ,30, ,
0, ,30, ,
0, ,30, ,
0, ,30, ,
0, ,30, ,
-1, ,30, ,
-1, ,30, ,
-1, ,30, ,
0, ,30, ,
0, ,30, ,
1, ,30, ,
0, ,30, ,
0, ,30, ,
0, ,30, ,
0, ,30, ,
0, ,30, ,
0, ,30, ,
-1, ,30, ,
0, ,30, ,
1, ,30, ,
1, ,30, ,
1, ,30, ,
0, ,30, ,
0, ,30, ,
0, ,30, ,
0, ,30, ,
1, ,30, ,
1, ,30, ,
1, ,30, ,
1, ,30, ,
1, ,30, ,
0, ,30, ,
1, ,30, ,
1, ,30, ,
0, ,30, ,
1, ,30, ,
0, ,30, ,
1, ,30, ,
1, ,30, ,
1, ,30, ,
1, ,30, ,
1, ,30, ,
1, ,30, ,
1, ,30, ,
1, ,30, ,
1, ,30, ,
0, ,30, ,
1, ,30, ,
1, ,30, ,
1, ,30, ,
2, ,30, ,
2, ,30, ,
1, ,30, ,
2, ,30, ,
1, ,30, ,
1, ,30, ,
2, ,30, ,
1, ,30, ,
1, ,30, ,
1, ,30, ,
1, ,30, ,
1, ,30, ,
1, ,30, ,
2, ,30, ,
2, ,30, ,
2, ,30, ,
1, ,30, ,
1, ,30, ,
2, ,30, ,
2, ,30, ,
1, ,30, ,
2, ,30, ,
1, ,30, ,
1, ,30, ,
2, ,30, ,
3, ,30, ,
1, ,30, ,
2, ,30, ,
1, ,30, ,
1, ,30, ,
2, ,30, ,
1, ,30, ,
3, ,30, ,
2, ,30, ,
1, ,30, ,
2, ,30, ,
2, ,30, ,
2, ,30, ,
2, ,30, ,
1, ,30, ,
2, ,30, ,
2, ,30, ,
2, ,30, ,
2, ,30, ,
1, ,30, ,
1, ,30, ,
3, ,30, ,
2, ,30, ,
2, ,30, ,
2, ,30, ,
2, ,30, ,
2, ,30, ,
1, ,30, ,
0, ,30, ,
2, ,30, ,
1, ,30, ,
1, ,30, ,
1, ,30, ,
0, ,30, ,
1, ,30, ,
1, ,30, ,
1, ,30, ,
2, ,30, ,
1, ,30, ,
2, ,30, ,
1, ,30, ,
1, ,30, ,
2, ,30, ,
1, ,30, ,
2, ,30, ,
2, ,30, ,
1, ,30, ,
1, ,30, ,
2, ,30, ,
0, ,30, ,
0, ,30, ,
-1, ,30, ,
-1, ,30, ,
-1, ,30, ,
-1, ,30, ,
1, ,30, ,
1, ,30, ,
0, ,30, ,
2, ,30, ,
1, ,30, ,
2, ,30, ,
2, ,30, ,
2, ,30, ,
2, ,30, ,
2, ,30, ,
1, ,30, ,
1, ,30, ,
0, ,30, ,
-2, ,30, ,
-3, ,30, ,
-4, ,30, ,
-5, ,30, ,
-9, ,30, ,
-12, ,30, ,
-14, ,30, ,
-18, ,30, ,
-28, ,30, ,
-31, ,30, ,
-40, ,30, ,
-50, ,30, ,
-81, ,30, ,
-104, ,30, ,
-126, ,30, ,
-126, ,30, ,
-126, ,30, ,
-126, ,30, ,
-126, ,30, ,
-126, ,30, ,
-126, ,30, ,
-126, ,30, ,
-126, ,30, ,
-126, ,30, ,
-126, ,30, ,
-126, ,30, ,
-126, ,30, ,
-126, ,30, ,
-126, ,30, ,
-126, ,30, ,
-126, ,30, ,
-126, ,30, ,
-125, ,30, ,
-108, ,30, ,
-99, ,30, ,
-88, ,30, ,
-68, ,30, ,
-60, ,30, ,
-53, ,30, ,
-49, ,30, ,
-37, ,30, ,
-32, ,30, ,
-27, ,30, ,
-22, ,30, ,
-16, ,30, ,
-18, ,30, ,
-21, ,30, ,
-26, ,30, ,
-48, ,30, ,
-63, ,30, ,
-78, ,30, ,
-95, ,30, ,
-126, ,30, ,
-126, ,30, ,
-126, ,30, ,
-126, ,30, ,
-126, ,30, ,
-126, ,30, ,
-126, ,30, ,
-125, ,30, ,
-97, ,30, ,
-72, ,30, ,
-42, ,30, ,
-15, ,30, ,
45, ,30, ,
75, ,30, ,
98, ,30, ,
120, ,30, ,
125, ,30, ,
125, ,30, ,
125, ,30, ,
125, ,30, ,
125, ,30, ,
125, ,30, ,
125, ,30, ,
125, ,30, ,
125, ,30, ,
125, ,30, ,
125, ,30, ,
125, ,30, ,
125, ,30, ,
125, ,30, ,
125, ,30, ,
125, ,30, ,
125, ,30, ,
125, ,30, ,
125, ,30, ,
125, ,30, ,
125, ,30, ,
125, ,30, ,
125, ,30, ,
125, ,30, ,
125, ,30, ,
125, ,30, ,
125, ,30, ,
125, ,30, ,
124, ,30, ,
122, ,30, ,
118, ,30, ,
113, ,30, ,
105, ,30, ,
100, ,30, ,
98, ,30, ,
93, ,30, ,
86, ,30, ,
84, ,30, ,
80, ,30, ,
78, ,30, ,
73, ,30, ,
67, ,30, ,
66, ,30, ,
64, ,30, ,
54, ,30, ,
35, ,30, ,
-17, ,30, ,
-126, ,30, ,
-126, ,30, ,
-126, ,30, ,
-126, ,30, ,
-126, ,30, ,
-126, ,30, ,
-126, ,30, ,
-126, ,30, ,
-126, ,30, ,
-126, ,30, ,
-126, ,30, ,
-126, ,30, ,
-126, ,30, ,
-126, ,30, ,
-126, ,30, ,
-126, ,30, ,
-126, ,30, ,
-126, ,30, ,
-126, ,30, ,
-126, ,30, ,
-126, ,30, ,
-126, ,30, ,
-126, ,30, ,
-126, ,30, ,
-126, ,30, ,
-126, ,30, ,
-126, ,30, ,
-126, ,30, ,
-126, ,30, ,
-125, ,30, ,
-115, ,30, ,
-86, ,30, ,
-63, ,30, ,
-45, ,30, ,
-48, ,30, ,
-51, ,30, ,
-49, ,30, ,
-32, ,30, ,
-21, ,30, ,
-10, ,30, ,
1, ,30, ,
29, ,30, ,
41, ,30, ,
56, ,30, ,
67, ,30, ,
86, ,30, ,
94, ,30, ,
95, ,30, ,
96, ,30, ,
88, ,30, ,
77, ,30, ,
65, ,30, ,
48, ,30, ,
8, ,30, ,
-13, ,30, ,
-37, ,30, ,
-60, ,30, ,
-101, ,30, ,
-116, ,30, ,
-124, ,30, ,
-126, ,30, ,
-122, ,30, ,
-117, ,30, ,
-113, ,30, ,
-109, ,30, ,
-104, ,30, ,
-99, ,30, ,
-95, ,30, ,
-91, ,30, ,
-84, ,30, ,
-79, ,30, ,
-78, ,30, ,
-71, ,30, ,
-65, ,30, ,
-61, ,30, ,
-54, ,30, ,
-41, ,30, ,
28, ,30, ,
64, ,30, ,
89, ,30, ,
99, ,30, ,
99, ,30, ,
99, ,30, ,
102, ,30, ,
104, ,30, ,
103, ,30, ,
100, ,30, ,
93, ,30, ,
89, ,30, ,
78, ,30, ,
71, ,30, ,
62, ,30, ,
54, ,30, ,
37, ,30, ,
30, ,30, ,
20, ,30, ,
13, ,30, ,
-1, ,30, ,
-6, ,30, ,
-10, ,30, ,
-13, ,30, ,
-12, ,30, ,
-12, ,30, ,
-10, ,30, ,
-7, ,30, ,
2, ,30, ,
7, ,30, ,
13, ,30, ,
18, ,30, ,
31, ,30, ,
39, ,30, ,
46, ,30, ,
55, ,30, ,
71, ,30, ,
79, ,30, ,
88, ,30, ,
94, ,30, ,
105, ,30, ,
111, ,30, ,
113, ,30, ,
118, ,30, ,
118, ,30, ,
117, ,30, ,
118, ,30, ,
113, ,30, ,
110, ,30, ,
110, ,30, ,
107, ,30, ,
107, ,30, ,
105, ,30, ,
105, ,30, ,
105, ,30, ,
105, ,30, ,
105, ,30, ,
106, ,30, ,
106, ,30, ,
108, ,30, ,
110, ,30, ,
109, ,30, ,
111, ,30, ,
112, ,30, ,
116, ,30, ,
119, ,30, ,
123, ,30, ,
125, ,30, ,
125, ,30, ,
125, ,30, ,
125, ,30, ,
125, ,30, ,
125, ,30, ,
125, ,30, ,
125, ,30, ,
125, ,30, ,
125, ,30, ,
125, ,30, ,
125, ,30, ,
125, ,30, ,
125, ,30, ,
124, ,30, ,
124, ,30, ,
120, ,30, ,
98, ,30, ,
87, ,30, ,
75, ,30, ,
63, ,30, ,
38, ,30, ,
28, ,30, ,
15, ,30, ,
4, ,30, ,
-17, ,30, ,
-28, ,30, ,
-36, ,30, ,
-45, ,30, ,
-61, ,30, ,
-65, ,30, ,
-70, ,30, ,
-76, ,30, ,
-83, ,30, ,
-86, ,30, ,
-86, ,30, ,
-86, ,30, ,
-83, ,30, ,
-81, ,30, ,
-79, ,30, ,
-74, ,30, ,
-63, ,30, ,
-60, ,30, ,
-52, ,30, ,
-48, ,30, ,
-35, ,30, ,
-30, ,30, ,
-26, ,30, ,
-19, ,30, ,
-10, ,30, ,
-5, ,30, ,
0, ,30, ,
1, ,30, ,
6, ,30, ,
8, ,30, ,
10, ,30, ,
12, ,30, ,
14, ,30, ,
14, ,30, ,
15, ,30, ,
15, ,30, ,
17, ,30, ,
19, ,30, ,
19, ,30, ,
19, ,30, ,
20, ,30, ,
20, ,30, ,
21, ,30, ,
21, ,30, ,
23, ,30, ,
23, ,30, ,
22, ,30, ,
25, ,30, ,
28, ,30, ,
30, ,30, ,
32, ,30, ,
33, ,30, ,
40, ,30, ,
42, ,30, ,
46, ,30, ,
50, ,30, ,
55, ,30, ,
58, ,30, ,
62, ,30, ,
62, ,30, ,
65, ,30, ,
67, ,30, ,
66, ,30, ,
66, ,30, ,
63, ,30, ,
61, ,30, ,
61, ,30, ,
59, ,30, ,
54, ,30, ,
52, ,30, ,
48, ,30, ,
46, ,30, ,
43, ,30, ,
38, ,30, ,
37, ,30, ,
33, ,30, ,
29, ,30, ,
29, ,30, ,
26, ,30, ,
27, ,30, ,
25, ,30, ,
25, ,30, ,
25, ,30, ,
26, ,30, ,
26, ,30, ,
28, ,30, ,
28, ,30, ,
29, ,30, ,
32, ,30, ,
31, ,30, ,
33, ,30, ,
35, ,30, ,
35, ,30, ,
38, ,30, ,
37, ,30, ,
40, ,30, ,
41, ,30, ,
40, ,30, ,
41, ,30, ,
40, ,30, ,
38, ,30, ,
39, ,30, ,
36, ,30, ,
34, ,30, ,
30, ,30, ,
24, ,30, ,
22, ,30, ,
17, ,30, ,
10, ,30, ,
5, ,30, ,
2, ,30, ,
0, ,30, ,
-6, ,30, ,
-10, ,30, ,
-11, ,30, ,
-15, ,30, ,
-18, ,30, ,
-17, ,30, ,
-19, ,30, ,
-19, ,30, ,
-19, ,30, ,
-20, ,30, ,
-20, ,30, ,
-20, ,30, ,
-19, ,30, ,
-19, ,30, ,
-20, ,30, ,
-20, ,30, ,
-20, ,30, ,
-22, ,30, ,
-21, ,30, ,
-22, ,30, ,
-24, ,30, ,
-25, ,30, ,
-26, ,30, ,
-26, ,30, ,
-30, ,30, ,
-33, ,30, ,
-34, ,30, ,
-36, ,30, ,
-43, ,30, ,
-46, ,30, ,
-52, ,30, ,
-57, ,30, ,
-70, ,30, ,
-80, ,30, ,
-89, ,30, ,
-102, ,30, ,
-123, ,30, ,
-126, ,30, ,
-126, ,30, ,
-126, ,30, ,
-126, ,30, ,
-126, ,30, ,
-126, ,30, ,
-126, ,30, ,
-126, ,30, ,
-126, ,30, ,
-126, ,30, ,
-126, ,30, ,
-126, ,30, ,
-126, ,30, ,
-126, ,30, ,
-126, ,30, ,
-126, ,30, ,
-126, ,30, ,
-126, ,30, ,
-126, ,30, ,
-126, ,30, ,
-126, ,30, ,
-126, ,30, ,
-126, ,30, ,
-126, ,30, ,
-126, ,30, ,
-126, ,30, ,
-126, ,30, ,
-126, ,30, ,
-126, ,30, ,
-126, ,30, ,
-122, ,30, ,
-112, ,30, ,
-105, ,30, ,
-103, ,30, ,
-98, ,30, ,
-89, ,30, ,
-86, ,30, ,
-82, ,30, ,
-79, ,30, ,
-72, ,30, ,
-68, ,30, ,
-66, ,30, ,
-61, ,30, ,
-55, ,30, ,
-53, ,30, ,
-49, ,30, ,
-48, ,30, ,
-19, ,30, ,
40, ,30, ,
125, ,30, ,
125, ,30, ,
125, ,30, ,
125, ,30, ,
125, ,30, ,
125, ,30, ,
125, ,30, ,
125, ,30, ,
125, ,30, ,
125, ,30, ,
125, ,30, ,
125, ,30, ,
125, ,30, ,
125, ,30, ,
125, ,30, ,
125, ,30, ,
125, ,30, ,
125, ,30, ,
125, ,30, ,
125, ,30, ,
125, ,30, ,
125, ,30, ,
125, ,30, ,
125, ,30, ,
125, ,30, ,
125, ,30, ,
125, ,30, ,
125, ,30, ,
125, ,30, ,
125, ,30, ,
125, ,30, ,
124, ,30, ,
123, ,30, ,
116, ,30, ,
82, ,30, ,
61, ,30, ,
43, ,30, ,
26, ,30, ,
-2, ,30, ,
-15, ,30, ,
-26, ,30, ,
-35, ,30, ,
-48, ,30, ,
-55, ,30, ,
-59, ,30, ,
-62, ,30, ,
-63, ,30, ,
-62, ,30, ,
-61, ,30, ,
-58, ,30, ,
-51, ,30, ,
-49, ,30, ,
-43, ,30, ,
-38, ,30, ,
-28, ,30, ,
-20, ,30, ,
-15, ,30, ,
-9, ,30, ,
3, ,30, ,
6, ,30, ,
11, ,30, ,
13, ,30, ,
20, ,30, ,
21, ,30, ,
21, ,30, ,
22, ,30, ,
21, ,30, ,
20, ,30, ,
19, ,30, ,
17, ,30, ,
13, ,30, ,
13, ,30, ,
10, ,30, ,
9, ,30, ,
6, ,30, ,
2, ,30, ,
0, ,30, ,
-2, ,30, ,
-8, ,30, ,
-13, ,30, ,
-18, ,30, ,
-21, ,30, ,
-31, ,30, ,
-39, ,30, ,
-42, ,30, ,
-51, ,30, ,
-64, ,30, ,
-70, ,30, ,
-78, ,30, ,
-82, ,30, ,
-94, ,30, ,
-100, ,30, ,
-102, ,30, ,
-107, ,30, ,
-111, ,30, ,
-111, ,30, ,
-112, ,30, ,
-110, ,30, ,
-108, ,30, ,
-106, ,30, ,
-104, ,30, ,
-101, ,30, ,
-94, ,30, ,
-86, ,30, ,
-85, ,30, ,
-78, ,30, ,
-70, ,30, ,
-66, ,30, ,
-62, ,30, ,
-58, ,30, ,
-51, ,30, ,
-48, ,30, ,
-47, ,30, ,
-43, ,30, ,
-42, ,30, ,
-39, ,30, ,
-39, ,30, ,
-39, ,30, ,
-38, ,30, ,
-36, ,30, ,
-36, ,30, ,
-35, ,30, ,
-34, ,30, ,
-35, ,30, ,
-33, ,30, ,
-32, ,30, ,
-30, ,30, ,
-28, ,30, ,
-28, ,30, ,
-27, ,30, ,
-24, ,30, ,
-23, ,30, ,
-20, ,30, ,
-20, ,30, ,
-15, ,30, ,
-14, ,30, ,
-14, ,30, ,
-10, ,30, ,
-7, ,30, ,
-7, ,30, ,
-5, ,30, ,
-5, ,30, ,
-5, ,30, ,
-6, ,30, ,
-6, ,30, ,
-8, ,30, ,
-9, ,30, ,
-11, ,30, ,
-12, ,30, ,
-14, ,30, ,
-18, ,30, ,
-18, ,30, ,
-21, ,30, ,
-22, ,30, ,
-25, ,30, ,
-27, ,30, ,
-27, ,30, ,
-27, ,30, ,
-28, ,30, ,
-29, ,30, ,
-28, ,30, ,
-27, ,30, ,
-25, ,30, ,
-25, ,30, ,
-23, ,30, ,
-23, ,30, ,
-21, ,30, ,
-19, ,30, ,
-19, ,30, ,
-19, ,30, ,
-19, ,30, ,
-19, ,30, ,
-19, ,30, ,
-20, ,30, ,
-22, ,30, ,
-22, ,30, ,
-24, ,30, ,
-26, ,30, ,
-31, ,30, ,
-34, ,30, ,
-36, ,30, ,
-39, ,30, ,
-44, ,30, ,
-48, ,30, ,
-51, ,30, ,
-54, ,30, ,
-59, ,30, ,
-61, ,30, ,
-62, ,30, ,
-65, ,30, ,
-68, ,30, ,
-68, ,30, ,
-68, ,30, ,
-68, ,30, ,
-67, ,30, ,
-66, ,30, ,
-63, ,30, ,
-64, ,30, ,
-58, ,30, ,
-53, ,30, ,
-54, ,30, ,
-51, ,30, ,
-43, ,30, ,
-40, ,30, ,
-38, ,30, ,
-34, ,30, ,
-29, ,30, ,
-25, ,30, ,
-23, ,30, ,
-20, ,30, ,
-15, ,30, ,
-12, ,30, ,
-11, ,30, ,
-10, ,30, ,
-6, ,30, ,
-4, ,30, ,
-1, ,30, ,
0, ,30, ,
3, ,30, ,
4, ,30, ,
6, ,30, ,
7, ,30, ,
10, ,30, ,
11, ,30, ,
13, ,30, ,
13, ,30, ,
15, ,30, ,
15, ,30, ,
15, ,30, ,
15, ,30, ,
16, ,30, ,
16, ,30, ,
15, ,30, ,
16, ,30, ,
16, ,30, ,
15, ,30, ,
15, ,30, ,
15, ,30, ,
15, ,30, ,
15, ,30, ,
14, ,30, ,
14, ,30, ,
13, ,30, ,
12, ,30, ,
12, ,30, ,
10, ,30, ,
8, ,30, ,
9, ,30, ,
7, ,30, ,
8, ,30, ,
7, ,30, ,
6, ,30, ,
6, ,30, ,
5, ,30, ,
5, ,30, ,
6, ,30, ,
5, ,30, ,
5, ,30, ,
6, ,30, ,
6, ,30, ,
6, ,30, ,
6, ,30, ,
7, ,30, ,
7, ,30, ,
7, ,30, ,
8, ,30, ,
9, ,30, ,
9, ,30, ,
9, ,30, ,
10, ,30, ,
9, ,30, ,
11, ,30, ,
11, ,30, ,
11, ,30, ,
12, ,30, ,
12, ,30, ,
13, ,30, ,
13, ,30, ,
15, ,30, ,
15, ,30, ,
15, ,30, ,
16, ,30, ,
18, ,30, ,
18, ,30, ,
18, ,30, ,
18, ,30, ,
19, ,30, ,
20, ,30, ,
20, ,30, ,
21, ,30, ,
22, ,30, ,
21, ,30, ,
23, ,30, ,
23, ,30, ,
24, ,30, ,
27, ,30, ,
26, ,30, ,
28, ,30, ,
31, ,30, ,
30, ,30, ,
35, ,30, ,
34, ,30, ,
37, ,30, ,
43, ,30, ,
44, ,30, ,
49, ,30, ,
57, ,30, ,
61, ,30, ,
65, ,30, ,
69, ,30, ,
82, ,30, ,
88, ,30, ,
94, ,30, ,
100, ,30, ,
113, ,30, ,
119, ,30, ,
125, ,30, ,
125, ,30, ,
125, ,30, ,
125, ,30, ,
125, ,30, ,
125, ,30, ,
125, ,30, ,
125, ,30, ,
125, ,30, ,
125, ,30, ,
125, ,30, ,
125, ,30, ,
125, ,30, ,
125, ,30, ,
125, ,30, ,
125, ,30, ,
125, ,30, ,
125, ,30, ,
125, ,30, ,
125, ,30, ,
125, ,30, ,
125, ,30, ,
125, ,30, ,
124, ,30, ,
124, ,30, ,
120, ,30, ,
104, ,30, ,
94, ,30, ,
80, ,30, ,
69, ,30, ,
41, ,30, ,
25, ,30, ,
8, ,30, ,
-11, ,30, ,
-53, ,30, ,
-76, ,30, ,
-101, ,30, ,
-122, ,30, ,
-126, ,30, ,
-126, ,30, ,
-126, ,30, ,
-126, ,30, ,
-126, ,30, ,
-126, ,30, ,
-126, ,30, ,
-126, ,30, ,
-126, ,30, ,
-126, ,30, ,
-126, ,30, ,
-126, ,30, ,
-126, ,30, ,
-126, ,30, ,
-126, ,30, ,
-126, ,30, ,
-126, ,30, ,
-126, ,30, ,
-126, ,30, ,
-126, ,30, ,
-126, ,30, ,
-126, ,30, ,
-126, ,30, ,
-126, ,30, ,
-126, ,30, ,
-126, ,30, ,
-126, ,30, ,
-126, ,30, ,
-126, ,30, ,
-126, ,30, ,
-126, ,30, ,
-126, ,30, ,
-126, ,30, ,
-126, ,30, ,
-121, ,30, ,
-117, ,30, ,
-107, ,30, ,
-102, ,30, ,
-99, ,30, ,
-95, ,30, ,
-86, ,30, ,
-82, ,30, ,
-78, ,30, ,
-74, ,30, ,
-69, ,30, ,
-64, ,30, ,
-63, ,30, ,
-58, ,30, ,
-53, ,30, ,
-49, ,30, ,
-46, ,30, ,
-46, ,30, ,
-40, ,30, ,
-36, ,30, ,
-34, ,30, ,
-25, ,30, ,
35, ,30, ,
82, ,30, ,
125, ,30, ,
125, ,30, ,
125, ,30, ,
125, ,30, ,
125, ,30, ,
125, ,30, ,
125, ,30, ,
125, ,30, ,
125, ,30, ,
125, ,30, ,
125, ,30, ,
125, ,30, ,
125, ,30, ,
125, ,30, ,
125, ,30, ,
125, ,30, ,
125, ,30, ,
125, ,30, ,
125, ,30, ,
125, ,30, ,
125, ,30, ,
125, ,30, ,
125, ,30, ,
125, ,30, ,
125, ,30, ,
124, ,30, ,
114, ,30, ,
103, ,30, ,
90, ,30, ,
77, ,30, ,
50, ,30, ,
37, ,30, ,
27, ,30, ,
14, ,30, ,
-5, ,30, ,
-13, ,30, ,
-23, ,30, ,
-28, ,30, ,
-37, ,30, ,
-42, ,30, ,
-44, ,30, ,
-45, ,30, ,
-44, ,30, ,
-42, ,30, ,
-41, ,30, ,
-37, ,30, ,
-29, ,30, ,
-25, ,30, ,
-20, ,30, ,
-14, ,30, ,
-4, ,30, ,
5, ,30, ,
11, ,30, ,
18, ,30, ,
30, ,30, ,
35, ,30, ,
42, ,30, ,
45, ,30, ,
54, ,30, ,
60, ,30, ,
62, ,30, ,
67, ,30, ,
70, ,30, ,
71, ,30, ,
73, ,30, ,
72, ,30, ,
72, ,30, ,
73, ,30, ,
72, ,30, ,
70, ,30, ,
65, ,30, ,
63, ,30, ,
59, ,30, ,
56, ,30, ,
48, ,30, ,
44, ,30, ,
39, ,30, ,
35, ,30, ,
27, ,30, ,
23, ,30, ,
19, ,30, ,
14, ,30, ,
7, ,30, ,
5, ,30, ,
0, ,30, ,
0, ,30, ,
-6, ,30, ,
-10, ,30, ,
-10, ,30, ,
-13, ,30, ,
-17, ,30, ,
-16, ,30, ,
-19, ,30, ,
-20, ,30, ,
-22, ,30, ,
-25, ,30, ,
-26, ,30, ,
-28, ,30, ,
-31, ,30, ,
-31, ,30, ,
-35, ,30, ,
-36, ,30, ,
-40, ,30, ,
-42, ,30, ,
-45, ,30, ,
-50, ,30, ,
-52, ,30, ,
-57, ,30, ,
-60, ,30, ,
-61, ,30, ,
-66, ,30, ,
-70, ,30, ,
-71, ,30, ,
-75, ,30, ,
-77, ,30, ,
-78, ,30, ,
-78, ,30, ,
-79, ,30, ,
-79, ,30, ,
-79, ,30, ,
-79, ,30, ,
-79, ,30, ,
-78, ,30, ,
-75, ,30, ,
-74, ,30, ,
-73, ,30, ,
-68, ,30, ,
-66, ,30, ,
-63, ,30, ,
-61, ,30, ,
-55, ,30, ,
-51, ,30, ,
-48, ,30, ,
-43, ,30, ,
-38, ,30, ,
-35, ,30, ,
-32, ,30, ,
-30, ,30, ,
-22, ,30, ,
-20, ,30, ,
-16, ,30, ,
-12, ,30, ,
-7, ,30, ,
-6, ,30, ,
-2, ,30, ,
-1, ,30, ,
3, ,30, ,
7, ,30, ,
7, ,30, ,
9, ,30, ,
12, ,30, ,
14, ,30, ,
15, ,30, ,
15, ,30, ,
18, ,30, ,
19, ,30, ,
20, ,30, ,
21, ,30, ,
21, ,30, ,
23, ,30, ,
24, ,30, ,
24, ,30, ,
26, ,30, ,
27, ,30, ,
27, ,30, ,
27, ,30, ,
28, ,30, ,
28, ,30, ,
29, ,30, ,
29, ,30, ,
29, ,30, ,
30, ,30, ,
30, ,30, ,
30, ,30, ,
30, ,30, ,
28, ,30, ,
29, ,30, ,
27, ,30, ,
26, ,30, ,
26, ,30, ,
24, ,30, ,
25, ,30, ,
22, ,30, ,
20, ,30, ,
20, ,30, ,
17, ,30, ,
15, ,30, ,
14, ,30, ,
12, ,30, ,
12, ,30, ,
7, ,30, ,
5, ,30, ,
4, ,30, ,
2, ,30, ,
-1, ,30, ,
-1, ,30, ,
-3, ,30, ,
-4, ,30, ,
-6, ,30, ,
-7, ,30, ,
-6, ,30, ,
-9, ,30, ,
-10, ,30, ,
-10, ,30, ,
-10, ,30, ,
-9, ,30, ,
-10, ,30, ,
-10, ,30, ,
-10, ,30, ,
-10, ,30, ,
-10, ,30, ,
-10, ,30, ,
-10, ,30, ,
-9, ,30, ,
-11, ,30, ,
-11, ,30, ,
-11, ,30, ,
-12, ,30, ,
-14, ,30, ,
-14, ,30, ,
-15, ,30, ,
-16, ,30, ,
-18, ,30, ,
-21, ,30, ,
-21, ,30, ,
-23, ,30, ,
-28, ,30, ,
-29, ,30, ,
-33, ,30, ,
-34, ,30, ,
-39, ,30, ,
-40, ,30, ,
-45, ,30, ,
-49, ,30, ,
-55, ,30, ,
-58, ,30, ,
-64, ,30, ,
-66, ,30, ,
-73, ,30, ,
-79, ,30, ,
-84, ,30, ,
-88, ,30, ,
-98, ,30, ,
-100, ,30, ,
-105, ,30, ,
-110, ,30, ,
-118, ,30, ,
-124, ,30, ,
-125, ,30, ,
-126, ,30, ,
-126, ,30, ,
-126, ,30, ,
-126, ,30, ,
-126, ,30, ,
-126, ,30, ,
-123, ,30, ,
-119, ,30, ,
-117, ,30, ,
-109, ,30, ,
-105, ,30, ,
-102, ,30, ,
-98, ,30, ,
-91, ,30, ,
-88, ,30, ,
-84, ,30, ,
-81, ,30, ,
-75, ,30, ,
-70, ,30, ,
-69, ,30, ,
-66, ,30, ,
-60, ,30, ,
-59, ,30, ,
-54, ,30, ,
-54, ,30, ,
-48, ,30, ,
-45, ,30, ,
-43, ,30, ,
-40, ,30, ,
-36, ,30, ,
-31, ,30, ,
-22, ,30, ,
1, ,30, ,
99, ,30, ,
125, ,30, ,
125, ,30, ,
125, ,30, ,
125, ,30, ,
125, ,30, ,
125, ,30, ,
125, ,30, ,
125, ,30, ,
125, ,30, ,
125, ,30, ,
125, ,30, ,
125, ,30, ,
125, ,30, ,
125, ,30, ,
125, ,30, ,
125, ,30, ,
125, ,30, ,
125, ,30, ,
125, ,30, ,
125, ,30, ,
125, ,30, ,
125, ,30, ,
125, ,30, ,
125, ,30, ,
125, ,30, ,
125, ,30, ,
125, ,30, ,
125, ,30, ,
125, ,30, ,
125, ,30, ,
