raw_data/100% Glycerol, Impulsion 2Hz, Sonde 5MHz, Rampe 0.7Hz/temp0000043.CSV

Format,1.0B,
Memory Length,10000,Memory Length,10000,
IntpDistance,0,IntpDistance,0,
Trigger Address,159,Trigger Address,159,
Trigger Level,2.720E-01,Trigger Level,2.720E-01,
Source,CH1,Source,CH2,
Vertical Units,V,Vertical Units,V,
Vertical Units Div,0,Vertical Units Div,0,
Vertical Units Extend Div,16,Vertical Units Extend Div,16,
Label,,Label,,
Probe Type,0,Probe Type,0,
Probe Ratio,1.000e+00,Probe Ratio,1.000e+00,
Vertical Scale,2.000e-01,Vertical Scale,2.000e+00,
Vertical Position,0.000e+00,Vertical Position,0.000e+00,
Horizontal Units,S,Horizontal Units,S,
Horizontal Scale,5.000E-06,Horizontal Scale,5.000E-06,
Horizontal Position,2.420E-05,Horizontal Position,2.420E-05,
Horizontal Mode,Main,Horizontal Mode,Main,
SincET Mode,Real Time,SincET Mode,Real Time,
Sampling Period,5.000e-09,Sampling Period,5.000e-09,
Horizontal Old Scale,5.000E-06,Horizontal Old Scale,5.000E-06,
Horizontal Old Position,2.420E-05,Horizontal Old Position,2.420E-05,
Firmware,V1.32,Firmware,V1.32,
Mode,Fast,Mode,Fast,
Waveform Data,,Waveform Data,,
1, ,11, ,
2, ,11, ,
1, ,11, ,
1, ,11, ,
2, ,11, ,
1, ,11, ,
2, ,11, ,
2, ,11, ,
1, ,11, ,
1, ,11, ,
1, ,11, ,
1, ,11, ,
2, ,11, ,
1, ,11, ,
1, ,11, ,
1, ,11, ,
2, ,11, ,
2, ,11, ,
2, ,11, ,
2, ,11, ,
2, ,11, ,
2, ,11, ,
2, ,11, ,
1, ,11, ,
1, ,11, ,
1, ,11, ,
1, ,11, ,
1, ,11, ,
1, ,11, ,
2, ,11, ,
2, ,11, ,
3, ,11, ,
2, ,11, ,
2, ,11, ,
1, ,11, ,
2, ,11, ,
2, ,11, ,
1, ,11, ,
2, ,11, ,
2, ,11, ,
1, ,11, ,
2, ,11, ,
1, ,11, ,
2, ,11, ,
2, ,11, ,
1, ,11, ,
1, ,11, ,
2, ,11, ,
2, ,11, ,
3, ,11, ,
1, ,11, ,
2, ,11, ,
2, ,11, ,
1, ,11, ,
1, ,11, ,
2, ,11, ,
1, ,11, ,
2, ,11, ,
2, ,11, ,
1, ,11, ,
3, ,11, ,
1, ,11, ,
2, ,11, ,
2, ,11, ,
1, ,11, ,
2, ,11, ,
1, ,11, ,
1, ,11, ,
1, ,11, ,
1, ,11, ,
2, ,11, ,
3, ,11, ,
2, ,11, ,
2, ,11, ,
1, ,11, ,
2, ,11, ,
2, ,11, ,
2, ,11, ,
1, ,11, ,
2, ,11, ,
1, ,11, ,
1, ,11, ,
1, ,11, ,
2, ,11, ,
2, ,11, ,
1, ,11, ,
1, ,11, ,
2, ,11, ,
1, ,11, ,
2, ,11, ,
1, ,11, ,
1, ,11, ,
2, ,11, ,
1, ,11, ,
1, ,11, ,
2, ,11, ,
2, ,11, ,
2, ,11, ,
1, ,11, ,
2, ,11, ,
3, ,11, ,
1, ,11, ,
2, ,11, ,
2, ,11, ,
1, ,11, ,
2, ,11, ,
2, ,11, ,
1, ,11, ,
1, ,11, ,
1, ,11, ,
1, ,11, ,
2, ,11, ,
1, ,11, ,
2, ,11, ,
1, ,11, ,
2, ,11, ,
2, ,11, ,
1, ,11, ,
2, ,11, ,
2, ,11, ,
1, ,11, ,
2, ,11, ,
1, ,11, ,
1, ,11, ,
2, ,11, ,
1, ,11, ,
2, ,11, ,
3, ,11, ,
2, ,11, ,
2, ,11, ,
1, ,11, ,
1, ,11, ,
2, ,11, ,
2, ,11, ,
2, ,11, ,
2, ,11, ,
2, ,11, ,
3, ,11, ,
2, ,11, ,
1, ,11, ,
2, ,11, ,
2, ,11, ,
2, ,11, ,
2, ,11, ,
1, ,11, ,
2, ,11, ,
1, ,11, ,
2, ,11, ,
2, ,11, ,
1, ,11, ,
2, ,11, ,
2, ,11, ,
1, ,11, ,
2, ,11, ,
2, ,11, ,
1, ,11, ,
3, ,11, ,
2, ,11, ,
2, ,11, ,
2, ,11, ,
1, ,11, ,
2, ,11, ,
1, ,11, ,
2, ,11, ,
2, ,11, ,
4, ,11, ,
0, ,11, ,
-2, ,11, ,
3, ,11, ,
40, ,11, ,
105, ,11, ,
125, ,11, ,
125, ,11, ,
124, ,11, ,
120, ,11, ,
-8, ,11, ,
6, ,11, ,
123, ,11, ,
125, ,11, ,
125, ,11, ,
125, ,11, ,
125, ,11, ,
125, ,11, ,
125, ,11, ,
125, ,11, ,
125, ,11, ,
125, ,11, ,
125, ,11, ,
125, ,11, ,
125, ,11, ,
125, ,11, ,
125, ,11, ,
125, ,11, ,
125, ,11, ,
125, ,11, ,
125, ,11, ,
125, ,11, ,
125, ,11, ,
125, ,11, ,
125, ,11, ,
125, ,11, ,
125, ,11, ,
125, ,11, ,
124, ,11, ,
124, ,11, ,
118, ,11, ,
114, ,11, ,
105, ,11, ,
101, ,11, ,
98, ,11, ,
93, ,11, ,
85, ,11, ,
82, ,11, ,
76, ,11, ,
73, ,11, ,
68, ,11, ,
63, ,11, ,
61, ,11, ,
58, ,11, ,
53, ,11, ,
51, ,11, ,
48, ,11, ,
49, ,11, ,
43, ,11, ,
39, ,11, ,
38, ,11, ,
35, ,11, ,
34, ,11, ,
30, ,11, ,
30, ,11, ,
29, ,11, ,
26, ,11, ,
24, ,11, ,
22, ,11, ,
20, ,11, ,
18, ,11, ,
18, ,11, ,
15, ,11, ,
16, ,11, ,
14, ,11, ,
12, ,11, ,
13, ,11, ,
11, ,11, ,
9, ,11, ,
8, ,11, ,
8, ,11, ,
8, ,11, ,
6, ,11, ,
5, ,11, ,
5, ,11, ,
5, ,11, ,
4, ,11, ,
4, ,11, ,
3, ,11, ,
3, ,11, ,
2, ,11, ,
1, ,11, ,
0, ,11, ,
0, ,11, ,
0, ,11, ,
0, ,11, ,
-1, ,11, ,
0, ,11, ,
-1, ,11, ,
-2, ,11, ,
-1, ,11, ,
-2, ,11, ,
-2, ,11, ,
-1, ,11, ,
-2, ,11, ,
-1, ,11, ,
-1, ,11, ,
-1, ,11, ,
-2, ,11, ,
-2, ,11, ,
-2, ,11, ,
-2, ,11, ,
-2, ,11, ,
-2, ,11, ,
-3, ,11, ,
-3, ,11, ,
-2, ,11, ,
-3, ,11, ,
-4, ,11, ,
-3, ,11, ,
-3, ,11, ,
-3, ,11, ,
-2, ,11, ,
-3, ,11, ,
-2, ,11, ,
-4, ,11, ,
-2, ,11, ,
-2, ,11, ,
-3, ,11, ,
-3, ,11, ,
-3, ,11, ,
-4, ,11, ,
-2, ,11, ,
-2, ,11, ,
-2, ,11, ,
-1, ,11, ,
-2, ,11, ,
-2, ,11, ,
-2, ,11, ,
-3, ,11, ,
-1, ,11, ,
-2, ,11, ,
-2, ,11, ,
-2, ,11, ,
-2, ,11, ,
-2, ,11, ,
-2, ,11, ,
-3, ,11, ,
-1, ,11, ,
-2, ,11, ,
-2, ,11, ,
-2, ,11, ,
-1, ,11, ,
-1, ,11, ,
0, ,11, ,
-1, ,11, ,
-1, ,11, ,
-1, ,11, ,
-1, ,11, ,
-1, ,11, ,
-2, ,11, ,
-1, ,11, ,
0, ,11, ,
-2, ,11, ,
0, ,11, ,
0, ,11, ,
-1, ,11, ,
0, ,11, ,
-1, ,11, ,
0, ,11, ,
0, ,11, ,
1, ,11, ,
0, ,11, ,
0, ,11, ,
0, ,11, ,
0, ,11, ,
0, ,11, ,
0, ,11, ,
0, ,11, ,
0, ,11, ,
0, ,11, ,
0, ,11, ,
0, ,11, ,
1, ,11, ,
0, ,11, ,
0, ,11, ,
1, ,11, ,
1, ,11, ,
1, ,11, ,
0, ,11, ,
0, ,11, ,
1, ,11, ,
0, ,11, ,
1, ,11, ,
1, ,11, ,
1, ,11, ,
0, ,11, ,
0, ,11, ,
1, ,11, ,
1, ,11, ,
0, ,11, ,
0, ,11, ,
1, ,11, ,
0, ,11, ,
1, ,11, ,
0, ,11, ,
1, ,11, ,
1, ,11, ,
1, ,11, ,
1, ,11, ,
1, ,11, ,
0, ,11, ,
2, ,11, ,
1, ,11, ,
1, ,11, ,
1, ,11, ,
0, ,11, ,
0, ,11, ,
1, ,11, ,
1, ,11, ,
2, ,11, ,
1, ,11, ,
2, ,11, ,
1, ,11, ,
1, ,11, ,
1, ,11, ,
1, ,11, ,
1, ,11, ,
1, ,11, ,
1, ,11, ,
1, ,11, ,
2, ,11, ,
1, ,11, ,
2, ,11, ,
0, ,11, ,
-1, ,11, ,
-4, ,11, ,
-16, ,11, ,
-103, ,11, ,
-126, ,11, ,
-126, ,11, ,
-126, ,11, ,
-126, ,11, ,
-126, ,11, ,
-126, ,11, ,
-126, ,11, ,
-126, ,11, ,
-126, ,11, ,
-126, ,11, ,
-126, ,11, ,
-126, ,11, ,
-126, ,11, ,
-126, ,11, ,
-126, ,11, ,
-126, ,11, ,
-126, ,11, ,
-126, ,11, ,
-126, ,11, ,
-126, ,11, ,
-126, ,11, ,
-126, ,11, ,
-126, ,11, ,
-126, ,11, ,
-126, ,11, ,
-126, ,11, ,
-126, ,11, ,
-126, ,11, ,
-126, ,11, ,
-126, ,11, ,
-126, ,11, ,
-109, ,11, ,
-9, ,11, ,
125, ,11, ,
125, ,11, ,
125, ,11, ,
125, ,11, ,
125, ,11, ,
125, ,11, ,
125, ,11, ,
125, ,11, ,
125, ,11, ,
125, ,11, ,
125, ,11, ,
125, ,11, ,
125, ,11, ,
125, ,11, ,
125, ,11, ,
125, ,11, ,
125, ,11, ,
125, ,11, ,
125, ,11, ,
120, ,11, ,
112, ,11, ,
-17, ,11, ,
-126, ,11, ,
-126, ,11, ,
-126, ,11, ,
-126, ,11, ,
-126, ,11, ,
-126, ,11, ,
-126, ,11, ,
-126, ,11, ,
-126, ,11, ,
-126, ,11, ,
-126, ,11, ,
-126, ,11, ,
-126, ,11, ,
-126, ,11, ,
-126, ,11, ,
-126, ,11, ,
-112, ,11, ,
84, ,11, ,
125, ,11, ,
125, ,11, ,
125, ,11, ,
125, ,11, ,
125, ,11, ,
125, ,11, ,
125, ,11, ,
125, ,11, ,
125, ,11, ,
125, ,11, ,
125, ,11, ,
125, ,11, ,
124, ,11, ,
122, ,11, ,
72, ,11, ,
40, ,11, ,
4, ,11, ,
-28, ,11, ,
-84, ,11, ,
-99, ,11, ,
-104, ,11, ,
-97, ,11, ,
-44, ,11, ,
-2, ,11, ,
43, ,11, ,
94, ,11, ,
125, ,11, ,
125, ,11, ,
125, ,11, ,
125, ,11, ,
125, ,11, ,
125, ,11, ,
125, ,11, ,
125, ,11, ,
125, ,11, ,
125, ,11, ,
125, ,11, ,
125, ,11, ,
125, ,11, ,
124, ,11, ,
124, ,11, ,
119, ,11, ,
77, ,11, ,
53, ,11, ,
32, ,11, ,
13, ,11, ,
-24, ,11, ,
-40, ,11, ,
-53, ,11, ,
-66, ,11, ,
-90, ,11, ,
-100, ,11, ,
-108, ,11, ,
-116, ,11, ,
-126, ,11, ,
-126, ,11, ,
-126, ,11, ,
-126, ,11, ,
-126, ,11, ,
-126, ,11, ,
-126, ,11, ,
-126, ,11, ,
-126, ,11, ,
-126, ,11, ,
-126, ,11, ,
-126, ,11, ,
-126, ,11, ,
-126, ,11, ,
-126, ,11, ,
-126, ,11, ,
-126, ,11, ,
-126, ,11, ,
-126, ,11, ,
-126, ,11, ,
-126, ,11, ,
-126, ,11, ,
-126, ,11, ,
-126, ,11, ,
-126, ,11, ,
-126, ,11, ,
-126, ,11, ,
-126, ,11, ,
-123, ,11, ,
-112, ,11, ,
-102, ,11, ,
-87, ,11, ,
-55, ,11, ,
-34, ,11, ,
-15, ,11, ,
7, ,11, ,
49, ,11, ,
68, ,11, ,
88, ,11, ,
103, ,11, ,
124, ,11, ,
125, ,11, ,
125, ,11, ,
125, ,11, ,
124, ,11, ,
124, ,11, ,
121, ,11, ,
110, ,11, ,
98, ,11, ,
93, ,11, ,
86, ,11, ,
83, ,11, ,
81, ,11, ,
80, ,11, ,
82, ,11, ,
83, ,11, ,
85, ,11, ,
88, ,11, ,
84, ,11, ,
84, ,11, ,
76, ,11, ,
68, ,11, ,
63, ,11, ,
54, ,11, ,
38, ,11, ,
33, ,11, ,
24, ,11, ,
19, ,11, ,
15, ,11, ,
14, ,11, ,
17, ,11, ,
21, ,11, ,
33, ,11, ,
43, ,11, ,
53, ,11, ,
63, ,11, ,
85, ,11, ,
96, ,11, ,
104, ,11, ,
111, ,11, ,
125, ,11, ,
125, ,11, ,
125, ,11, ,
125, ,11, ,
125, ,11, ,
125, ,11, ,
125, ,11, ,
125, ,11, ,
125, ,11, ,
125, ,11, ,
125, ,11, ,
125, ,11, ,
125, ,11, ,
125, ,11, ,
125, ,11, ,
125, ,11, ,
125, ,11, ,
125, ,11, ,
125, ,11, ,
125, ,11, ,
125, ,11, ,
124, ,11, ,
124, ,11, ,
118, ,11, ,
111, ,11, ,
107, ,11, ,
104, ,11, ,
100, ,11, ,
93, ,11, ,
88, ,11, ,
86, ,11, ,
80, ,11, ,
73, ,11, ,
69, ,11, ,
64, ,11, ,
63, ,11, ,
53, ,11, ,
48, ,11, ,
44, ,11, ,
36, ,11, ,
21, ,11, ,
10, ,11, ,
-4, ,11, ,
-17, ,11, ,
-56, ,11, ,
-81, ,11, ,
-105, ,11, ,
-126, ,11, ,
-126, ,11, ,
-126, ,11, ,
-126, ,11, ,
-126, ,11, ,
-126, ,11, ,
-126, ,11, ,
-126, ,11, ,
-126, ,11, ,
-126, ,11, ,
-126, ,11, ,
-126, ,11, ,
-126, ,11, ,
-126, ,11, ,
-126, ,11, ,
-126, ,11, ,
-126, ,11, ,
-126, ,11, ,
-126, ,11, ,
-126, ,11, ,
-126, ,11, ,
-126, ,11, ,
-126, ,11, ,
-126, ,11, ,
-126, ,11, ,
-126, ,11, ,
-126, ,11, ,
-126, ,11, ,
-126, ,11, ,
-126, ,11, ,
-126, ,11, ,
-126, ,11, ,
-126, ,11, ,
-126, ,11, ,
-126, ,11, ,
-126, ,11, ,
-126, ,11, ,
-126, ,11, ,
-126, ,11, ,
-126, ,11, ,
-123, ,11, ,
-107, ,11, ,
-80, ,11, ,
-9, ,11, ,
113, ,11, ,
125, ,11, ,
125, ,11, ,
125, ,11, ,
125, ,11, ,
125, ,11, ,
125, ,11, ,
125, ,11, ,
125, ,11, ,
125, ,11, ,
125, ,11, ,
125, ,11, ,
125, ,11, ,
125, ,11, ,
125, ,11, ,
125, ,11, ,
125, ,11, ,
125, ,11, ,
125, ,11, ,
125, ,11, ,
125, ,11, ,
125, ,11, ,
125, ,11, ,
125, ,11, ,
125, ,11, ,
125, ,11, ,
125, ,11, ,
125, ,11, ,
125, ,11, ,
125, ,11, ,
125, ,11, ,
124, ,11, ,
122, ,11, ,
66, ,11, ,
32, ,11, ,
0, ,11, ,
-31, ,11, ,
-68, ,11, ,
-76, ,11, ,
-81, ,11, ,
-78, ,11, ,
-61, ,11, ,
-51, ,11, ,
-37, ,11, ,
-24, ,11, ,
5, ,11, ,
18, ,11, ,
28, ,11, ,
36, ,11, ,
49, ,11, ,
54, ,11, ,
55, ,11, ,
57, ,11, ,
57, ,11, ,
56, ,11, ,
54, ,11, ,
54, ,11, ,
49, ,11, ,
44, ,11, ,
41, ,11, ,
35, ,11, ,
21, ,11, ,
15, ,11, ,
7, ,11, ,
-1, ,11, ,
-17, ,11, ,
-24, ,11, ,
-27, ,11, ,
-33, ,11, ,
-33, ,11, ,
-29, ,11, ,
-27, ,11, ,
-20, ,11, ,
-5, ,11, ,
1, ,11, ,
11, ,11, ,
18, ,11, ,
31, ,11, ,
37, ,11, ,
40, ,11, ,
44, ,11, ,
44, ,11, ,
43, ,11, ,
43, ,11, ,
39, ,11, ,
31, ,11, ,
28, ,11, ,
22, ,11, ,
17, ,11, ,
9, ,11, ,
3, ,11, ,
1, ,11, ,
-4, ,11, ,
-8, ,11, ,
-10, ,11, ,
-11, ,11, ,
-11, ,11, ,
-12, ,11, ,
-12, ,11, ,
-12, ,11, ,
-13, ,11, ,
-14, ,11, ,
-15, ,11, ,
-18, ,11, ,
-17, ,11, ,
-23, ,11, ,
-26, ,11, ,
-28, ,11, ,
-35, ,11, ,
-43, ,11, ,
-48, ,11, ,
-54, ,11, ,
-59, ,11, ,
-72, ,11, ,
-78, ,11, ,
-82, ,11, ,
-90, ,11, ,
-99, ,11, ,
-104, ,11, ,
-105, ,11, ,
-109, ,11, ,
-111, ,11, ,
-110, ,11, ,
-112, ,11, ,
-108, ,11, ,
-105, ,11, ,
-101, ,11, ,
-96, ,11, ,
-92, ,11, ,
-83, ,11, ,
-79, ,11, ,
-72, ,11, ,
-68, ,11, ,
-56, ,11, ,
-50, ,11, ,
-47, ,11, ,
-40, ,11, ,
-32, ,11, ,
-29, ,11, ,
-24, ,11, ,
-22, ,11, ,
-18, ,11, ,
-17, ,11, ,
-18, ,11, ,
-18, ,11, ,
-21, ,11, ,
-25, ,11, ,
-30, ,11, ,
-33, ,11, ,
-42, ,11, ,
-49, ,11, ,
-55, ,11, ,
-60, ,11, ,
-70, ,11, ,
-76, ,11, ,
-79, ,11, ,
-83, ,11, ,
-89, ,11, ,
-91, ,11, ,
-91, ,11, ,
-91, ,11, ,
-91, ,11, ,
-90, ,11, ,
-88, ,11, ,
-85, ,11, ,
-78, ,11, ,
-76, ,11, ,
-72, ,11, ,
-68, ,11, ,
-57, ,11, ,
-54, ,11, ,
-48, ,11, ,
-44, ,11, ,
-35, ,11, ,
-29, ,11, ,
-24, ,11, ,
-19, ,11, ,
-9, ,11, ,
-4, ,11, ,
1, ,11, ,
6, ,11, ,
16, ,11, ,
21, ,11, ,
26, ,11, ,
32, ,11, ,
42, ,11, ,
47, ,11, ,
55, ,11, ,
60, ,11, ,
75, ,11, ,
85, ,11, ,
91, ,11, ,
102, ,11, ,
116, ,11, ,
124, ,11, ,
125, ,11, ,
125, ,11, ,
125, ,11, ,
125, ,11, ,
125, ,11, ,
125, ,11, ,
125, ,11, ,
125, ,11, ,
125, ,11, ,
125, ,11, ,
125, ,11, ,
125, ,11, ,
125, ,11, ,
125, ,11, ,
125, ,11, ,
125, ,11, ,
125, ,11, ,
125, ,11, ,
125, ,11, ,
125, ,11, ,
125, ,11, ,
125, ,11, ,
125, ,11, ,
125, ,11, ,
125, ,11, ,
125, ,11, ,
124, ,11, ,
122, ,11, ,
118, ,11, ,
115, ,11, ,
104, ,11, ,
95, ,11, ,
88, ,11, ,
75, ,11, ,
44, ,11, ,
21, ,11, ,
-13, ,11, ,
-49, ,11, ,
-126, ,11, ,
-126, ,11, ,
-126, ,11, ,
-126, ,11, ,
-126, ,11, ,
-126, ,11, ,
-126, ,11, ,
-126, ,11, ,
-126, ,11, ,
-126, ,11, ,
-126, ,11, ,
-126, ,11, ,
-126, ,11, ,
-126, ,11, ,
-126, ,11, ,
-126, ,11, ,
-126, ,11, ,
-126, ,11, ,
-126, ,11, ,
-126, ,11, ,
-126, ,11, ,
-126, ,11, ,
-126, ,11, ,
-126, ,11, ,
-126, ,11, ,
-126, ,11, ,
-126, ,11, ,
-126, ,11, ,
-126, ,11, ,
-126, ,11, ,
-126, ,11, ,
-126, ,11, ,
-126, ,11, ,
-126, ,11, ,
-125, ,11, ,
-112, ,11, ,
-83, ,11, ,
-65, ,11, ,
-46, ,11, ,
-28, ,11, ,
6, ,11, ,
19, ,11, ,
34, ,11, ,
45, ,11, ,
65, ,11, ,
72, ,11, ,
75, ,11, ,
81, ,11, ,
82, ,11, ,
81, ,11, ,
79, ,11, ,
77, ,11, ,
68, ,11, ,
66, ,11, ,
61, ,11, ,
57, ,11, ,
49, ,11, ,
44, ,11, ,
40, ,11, ,
36, ,11, ,
29, ,11, ,
27, ,11, ,
23, ,11, ,
20, ,11, ,
14, ,11, ,
12, ,11, ,
11, ,11, ,
9, ,11, ,
5, ,11, ,
6, ,11, ,
2, ,11, ,
2, ,11, ,
-3, ,11, ,
-5, ,11, ,
-5, ,11, ,
-9, ,11, ,
-10, ,11, ,
-12, ,11, ,
-14, ,11, ,
-14, ,11, ,
-13, ,11, ,
-14, ,11, ,
-12, ,11, ,
-9, ,11, ,
-7, ,11, ,
-2, ,11, ,
1, ,11, ,
5, ,11, ,
11, ,11, ,
16, ,11, ,
20, ,11, ,
23, ,11, ,
32, ,11, ,
36, ,11, ,
39, ,11, ,
44, ,11, ,
51, ,11, ,
53, ,11, ,
56, ,11, ,
59, ,11, ,
61, ,11, ,
64, ,11, ,
64, ,11, ,
64, ,11, ,
64, ,11, ,
63, ,11, ,
61, ,11, ,
59, ,11, ,
57, ,11, ,
55, ,11, ,
54, ,11, ,
53, ,11, ,
50, ,11, ,
46, ,11, ,
46, ,11, ,
44, ,11, ,
43, ,11, ,
43, ,11, ,
42, ,11, ,
43, ,11, ,
40, ,11, ,
40, ,11, ,
40, ,11, ,
39, ,11, ,
38, ,11, ,
38, ,11, ,
36, ,11, ,
37, ,11, ,
36, ,11, ,
35, ,11, ,
35, ,11, ,
35, ,11, ,
33, ,11, ,
34, ,11, ,
32, ,11, ,
30, ,11, ,
29, ,11, ,
26, ,11, ,
26, ,11, ,
24, ,11, ,
19, ,11, ,
18, ,11, ,
14, ,11, ,
12, ,11, ,
9, ,11, ,
5, ,11, ,
4, ,11, ,
0, ,11, ,
-3, ,11, ,
-5, ,11, ,
-7, ,11, ,
-9, ,11, ,
-11, ,11, ,
-13, ,11, ,
-14, ,11, ,
-16, ,11, ,
-17, ,11, ,
-17, ,11, ,
-17, ,11, ,
-17, ,11, ,
-16, ,11, ,
-17, ,11, ,
-15, ,11, ,
-15, ,11, ,
-15, ,11, ,
-14, ,11, ,
-14, ,11, ,
-13, ,11, ,
-14, ,11, ,
-15, ,11, ,
-15, ,11, ,
-17, ,11, ,
-19, ,11, ,
-21, ,11, ,
-20, ,11, ,
-23, ,11, ,
-26, ,11, ,
-29, ,11, ,
-31, ,11, ,
-32, ,11, ,
-37, ,11, ,
-37, ,11, ,
-40, ,11, ,
-42, ,11, ,
-48, ,11, ,
-51, ,11, ,
-53, ,11, ,
-57, ,11, ,
-61, ,11, ,
-64, ,11, ,
-67, ,11, ,
-69, ,11, ,
-74, ,11, ,
-77, ,11, ,
-80, ,11, ,
-82, ,11, ,
-87, ,11, ,
-89, ,11, ,
-91, ,11, ,
-92, ,11, ,
-97, ,11, ,
-97, ,11, ,
-100, ,11, ,
-102, ,11, ,
-105, ,11, ,
-104, ,11, ,
-105, ,11, ,
-104, ,11, ,
-104, ,11, ,
-103, ,11, ,
-101, ,11, ,
-98, ,11, ,
-92, ,11, ,
-88, ,11, ,
-85, ,11, ,
-79, ,11, ,
-69, ,11, ,
-61, ,11, ,
-55, ,11, ,
-48, ,11, ,
-34, ,11, ,
-25, ,11, ,
-19, ,11, ,
-10, ,11, ,
6, ,11, ,
16, ,11, ,
25, ,11, ,
34, ,11, ,
49, ,11, ,
60, ,11, ,
69, ,11, ,
79, ,11, ,
97, ,11, ,
106, ,11, ,
116, ,11, ,
125, ,11, ,
125, ,11, ,
125, ,11, ,
125, ,11, ,
125, ,11, ,
125, ,11, ,
125, ,11, ,
125, ,11, ,
125, ,11, ,
125, ,11, ,
125, ,11, ,
125, ,11, ,
125, ,11, ,
125, ,11, ,
125, ,11, ,
125, ,11, ,
125, ,11, ,
125, ,11, ,
125, ,11, ,
125, ,11, ,
125, ,11, ,
125, ,11, ,
124, ,11, ,
124, ,11, ,
118, ,11, ,
105, ,11, ,
100, ,11, ,
94, ,11, ,
91, ,11, ,
80, ,11, ,
76, ,11, ,
70, ,11, ,
63, ,11, ,
53, ,11, ,
49, ,11, ,
42, ,11, ,
38, ,11, ,
25, ,11, ,
17, ,11, ,
10, ,11, ,
3, ,11, ,
-16, ,11, ,
-21, ,11, ,
-28, ,11, ,
-36, ,11, ,
-48, ,11, ,
-56, ,11, ,
-60, ,11, ,
-65, ,11, ,
-73, ,11, ,
-73, ,11, ,
-76, ,11, ,
-76, ,11, ,
-76, ,11, ,
-76, ,11, ,
-73, ,11, ,
-71, ,11, ,
-68, ,11, ,
-63, ,11, ,
-59, ,11, ,
-59, ,11, ,
-54, ,11, ,
-53, ,11, ,
-51, ,11, ,
-52, ,11, ,
-51, ,11, ,
-50, ,11, ,
-51, ,11, ,
-51, ,11, ,
-52, ,11, ,
-54, ,11, ,
-54, ,11, ,
-55, ,11, ,
-55, ,11, ,
-54, ,11, ,
-54, ,11, ,
-54, ,11, ,
-51, ,11, ,
-51, ,11, ,
-48, ,11, ,
-49, ,11, ,
-43, ,11, ,
-43, ,11, ,
-41, ,11, ,
-38, ,11, ,
-35, ,11, ,
-35, ,11, ,
-32, ,11, ,
-30, ,11, ,
-27, ,11, ,
-24, ,11, ,
-24, ,11, ,
-22, ,11, ,
-19, ,11, ,
-19, ,11, ,
-17, ,11, ,
-16, ,11, ,
-14, ,11, ,
-14, ,11, ,
-14, ,11, ,
-13, ,11, ,
-14, ,11, ,
-15, ,11, ,
-15, ,11, ,
-15, ,11, ,
-14, ,11, ,
-14, ,11, ,
-15, ,11, ,
-15, ,11, ,
-15, ,11, ,
-14, ,11, ,
-15, ,11, ,
-15, ,11, ,
-15, ,11, ,
-15, ,11, ,
-15, ,11, ,
-15, ,11, ,
-16, ,11, ,
-17, ,11, ,
-18, ,11, ,
-18, ,11, ,
-20, ,11, ,
-20, ,11, ,
-21, ,11, ,
-21, ,11, ,
-23, ,11, ,
-23, ,11, ,
-25, ,11, ,
-25, ,11, ,
-26, ,11, ,
-27, ,11, ,
-27, ,11, ,
-27, ,11, ,
-27, ,11, ,
-27, ,11, ,
-26, ,11, ,
-25, ,11, ,
-25, ,11, ,
-21, ,11, ,
-20, ,11, ,
-19, ,11, ,
-17, ,11, ,
-17, ,11, ,
-14, ,11, ,
-13, ,11, ,
-11, ,11, ,
-9, ,11, ,
-9, ,11, ,
-7, ,11, ,
-4, ,11, ,
-4, ,11, ,
-2, ,11, ,
-2, ,11, ,
1, ,11, ,
1, ,11, ,
3, ,11, ,
5, ,11, ,
6, ,11, ,
8, ,11, ,
9, ,11, ,
10, ,11, ,
12, ,11, ,
13, ,11, ,
16, ,11, ,
16, ,11, ,
20, ,11, ,
19, ,11, ,
22, ,11, ,
21, ,11, ,
23, ,11, ,
26, ,11, ,
26, ,11, ,
29, ,11, ,
28, ,11, ,
30, ,11, ,
31, ,11, ,
31, ,11, ,
34, ,11, ,
33, ,11, ,
35, ,11, ,
35, ,11, ,
37, ,11, ,
36, ,11, ,
38, ,11, ,
39, ,11, ,
39, ,11, ,
43, ,11, ,
43, ,11, ,
45, ,11, ,
47, ,11, ,
47, ,11, ,
50, ,11, ,
50, ,11, ,
53, ,11, ,
54, ,11, ,
54, ,11, ,
55, ,11, ,
58, ,11, ,
57, ,11, ,
59, ,11, ,
58, ,11, ,
57, ,11, ,
58, ,11, ,
57, ,11, ,
56, ,11, ,
53, ,11, ,
52, ,11, ,
50, ,11, ,
48, ,11, ,
43, ,11, ,
41, ,11, ,
36, ,11, ,
36, ,11, ,
29, ,11, ,
24, ,11, ,
20, ,11, ,
15, ,11, ,
7, ,11, ,
3, ,11, ,
-3, ,11, ,
-6, ,11, ,
-16, ,11, ,
-21, ,11, ,
-26, ,11, ,
-31, ,11, ,
-39, ,11, ,
-44, ,11, ,
-49, ,11, ,
-54, ,11, ,
-60, ,11, ,
-64, ,11, ,
-70, ,11, ,
-71, ,11, ,
-80, ,11, ,
-82, ,11, ,
-85, ,11, ,
-88, ,11, ,
-92, ,11, ,
-97, ,11, ,
-97, ,11, ,
-100, ,11, ,
-105, ,11, ,
-105, ,11, ,
-108, ,11, ,
-109, ,11, ,
-111, ,11, ,
-112, ,11, ,
-112, ,11, ,
-113, ,11, ,
-112, ,11, ,
-112, ,11, ,
-110, ,11, ,
-109, ,11, ,
-105, ,11, ,
-104, ,11, ,
-101, ,11, ,
-98, ,11, ,
-91, ,11, ,
-85, ,11, ,
-81, ,11, ,
-76, ,11, ,
-64, ,11, ,
-60, ,11, ,
-53, ,11, ,
-48, ,11, ,
-38, ,11, ,
-32, ,11, ,
-27, ,11, ,
-21, ,11, ,
-12, ,11, ,
-7, ,11, ,
-1, ,11, ,
1, ,11, ,
13, ,11, ,
16, ,11, ,
20, ,11, ,
25, ,11, ,
34, ,11, ,
35, ,11, ,
40, ,11, ,
44, ,11, ,
50, ,11, ,
55, ,11, ,
60, ,11, ,
62, ,11, ,
69, ,11, ,
72, ,11, ,
75, ,11, ,
76, ,11, ,
80, ,11, ,
81, ,11, ,
82, ,11, ,
82, ,11, ,
81, ,11, ,
79, ,11, ,
78, ,11, ,
76, ,11, ,
71, ,11, ,
71, ,11, ,
68, ,11, ,
65, ,11, ,
59, ,11, ,
56, ,11, ,
53, ,11, ,
49, ,11, ,
42, ,11, ,
41, ,11, ,
36, ,11, ,
35, ,11, ,
30, ,11, ,
25, ,11, ,
24, ,11, ,
21, ,11, ,
14, ,11, ,
13, ,11, ,
10, ,11, ,
8, ,11, ,
4, ,11, ,
2, ,11, ,
-1, ,11, ,
-3, ,11, ,
-6, ,11, ,
-8, ,11, ,
-11, ,11, ,
-11, ,11, ,
-15, ,11, ,
-16, ,11, ,
-17, ,11, ,
-19, ,11, ,
-20, ,11, ,
-20, ,11, ,
-20, ,11, ,
-19, ,11, ,
-20, ,11, ,
-20, ,11, ,
-19, ,11, ,
-19, ,11, ,
-18, ,11, ,
-16, ,11, ,
-17, ,11, ,
-14, ,11, ,
-12, ,11, ,
-10, ,11, ,
-9, ,11, ,
-9, ,11, ,
-7, ,11, ,
-6, ,11, ,
-4, ,11, ,
-2, ,11, ,
0, ,11, ,
0, ,11, ,
1, ,11, ,
3, ,11, ,
5, ,11, ,
5, ,11, ,
5, ,11, ,
6, ,11, ,
9, ,11, ,
8, ,11, ,
10, ,11, ,
10, ,11, ,
11, ,11, ,
13, ,11, ,
12, ,11, ,
14, ,11, ,
15, ,11, ,
15, ,11, ,
16, ,11, ,
15, ,11, ,
17, ,11, ,
18, ,11, ,
18, ,11, ,
18, ,11, ,
18, ,11, ,
18, ,11, ,
18, ,11, ,
18, ,11, ,
18, ,11, ,
18, ,11, ,
17, ,11, ,
17, ,11, ,
17, ,11, ,
16, ,11, ,
17, ,11, ,
14, ,11, ,
14, ,11, ,
15, ,11, ,
12, ,11, ,
12, ,11, ,
11, ,11, ,
9, ,11, ,
9, ,11, ,
9, ,11, ,
7, ,11, ,
7, ,11, ,
6, ,11, ,
5, ,11, ,
5, ,11, ,
2, ,11, ,
1, ,11, ,
0, ,11, ,
-1, ,11, ,
0, ,11, ,
-3, ,11, ,
-4, ,11, ,
-6, ,11, ,
-9, ,11, ,
-8, ,11, ,
-11, ,11, ,
-13, ,11, ,
-14, ,11, ,
-16, ,11, ,
-16, ,11, ,
-20, ,11, ,
-21, ,11, ,
-21, ,11, ,
-24, ,11, ,
-26, ,11, ,
-26, ,11, ,
-29, ,11, ,
-29, ,11, ,
-29, ,11, ,
-31, ,11, ,
-32, ,11, ,
-33, ,11, ,
-34, ,11, ,
-34, ,11, ,
-34, ,11, ,
-34, ,11, ,
-34, ,11, ,
-35, ,11, ,
-33, ,11, ,
-35, ,11, ,
-32, ,11, ,
-32, ,11, ,
-31, ,11, ,
-29, ,11, ,
-27, ,11, ,
-29, ,11, ,
-25, ,11, ,
-25, ,11, ,
-20, ,11, ,
-19, ,11, ,
-17, ,11, ,
-15, ,11, ,
-10, ,11, ,
-8, ,11, ,
-6, ,11, ,
-3, ,11, ,
1, ,11, ,
6, ,11, ,
8, ,11, ,
11, ,11, ,
17, ,11, ,
19, ,11, ,
22, ,11, ,
25, ,11, ,
29, ,11, ,
35, ,11, ,
35, ,11, ,
39, ,11, ,
43, ,11, ,
46, ,11, ,
49, ,11, ,
50, ,11, ,
55, ,11, ,
58, ,11, ,
58, ,11, ,
61, ,11, ,
62, ,11, ,
64, ,11, ,
66, ,11, ,
67, ,11, ,
67, ,11, ,
68, ,11, ,
68, ,11, ,
69, ,11, ,
68, ,11, ,
67, ,11, ,
68, ,11, ,
65, ,11, ,
64, ,11, ,
63, ,11, ,
60, ,11, ,
60, ,11, ,
56, ,11, ,
55, ,11, ,
52, ,11, ,
50, ,11, ,
44, ,11, ,
43, ,11, ,
