raw_data/100% Glycerol, Impulsion 2Hz, Sonde 5MHz, Rampe 0.7Hz/temp0000052.CSV

Format,1.0B,
Memory Length,10000,Memory Length,10000,
IntpDistance,0,IntpDistance,0,
Trigger Address,159,Trigger Address,159,
Trigger Level,2.720E-01,Trigger Level,2.720E-01,
Source,CH1,Source,CH2,
Vertical Units,V,Vertical Units,V,
Vertical Units Div,0,Vertical Units Div,0,
Vertical Units Extend Div,16,Vertical Units Extend Div,16,
Label,,Label,,
Probe Type,0,Probe Type,0,
Probe Ratio,1.000e+00,Probe Ratio,1.000e+00,
Vertical Scale,2.000e-01,Vertical Scale,2.000e+00,
Vertical Position,0.000e+00,Vertical Position,0.000e+00,
Horizontal Units,S,Horizontal Units,S,
Horizontal Scale,5.000E-06,Horizontal Scale,5.000E-06,
Horizontal Position,2.420E-05,Horizontal Position,2.420E-05,
Horizontal Mode,Main,Horizontal Mode,Main,
SincET Mode,Real Time,SincET Mode,Real Time,
Sampling Period,5.000e-09,Sampling Period,5.000e-09,
Horizontal Old Scale,5.000E-06,Horizontal Old Scale,5.000E-06,
Horizontal Old Position,2.420E-05,Horizontal Old Position,2.420E-05,
Firmware,V1.32,Firmware,V1.32,
Mode,Fast,Mode,Fast,
Waveform Data,,Waveform Data,,
1, ,-29, ,
2, ,-29, ,
2, ,-29, ,
1, ,-29, ,
1, ,-29, ,
2, ,-29, ,
1, ,-29, ,
0, ,-29, ,
2, ,-29, ,
3, ,-29, ,
2, ,-29, ,
2, ,-29, ,
2, ,-29, ,
2, ,-29, ,
3, ,-29, ,
2, ,-29, ,
0, ,-29, ,
3, ,-29, ,
2, ,-29, ,
2, ,-29, ,
2, ,-29, ,
1, ,-29, ,
2, ,-29, ,
2, ,-29, ,
1, ,-29, ,
2, ,-29, ,
1, ,-29, ,
3, ,-29, ,
2, ,-29, ,
2, ,-29, ,
2, ,-29, ,
2, ,-29, ,
2, ,-29, ,
2, ,-29, ,
2, ,-29, ,
2, ,-29, ,
2, ,-29, ,
1, ,-29, ,
2, ,-29, ,
1, ,-29, ,
2, ,-29, ,
2, ,-29, ,
1, ,-29, ,
2, ,-29, ,
2, ,-29, ,
1, ,-29, ,
3, ,-29, ,
2, ,-29, ,
0, ,-29, ,
2, ,-29, ,
2, ,-29, ,
1, ,-29, ,
2, ,-29, ,
2, ,-29, ,
2, ,-29, ,
2, ,-29, ,
2, ,-29, ,
2, ,-29, ,
1, ,-29, ,
3, ,-29, ,
2, ,-29, ,
1, ,-29, ,
2, ,-29, ,
3, ,-29, ,
2, ,-29, ,
2, ,-29, ,
2, ,-29, ,
2, ,-29, ,
2, ,-29, ,
2, ,-29, ,
2, ,-29, ,
2, ,-29, ,
2, ,-29, ,
2, ,-29, ,
1, ,-29, ,
2, ,-29, ,
1, ,-29, ,
1, ,-29, ,
2, ,-29, ,
1, ,-29, ,
1, ,-29, ,
1, ,-29, ,
1, ,-29, ,
2, ,-29, ,
2, ,-29, ,
2, ,-29, ,
2, ,-29, ,
1, ,-29, ,
1, ,-29, ,
2, ,-29, ,
2, ,-29, ,
2, ,-29, ,
2, ,-29, ,
1, ,-29, ,
2, ,-29, ,
1, ,-29, ,
1, ,-29, ,
2, ,-29, ,
2, ,-28, ,
2, ,-29, ,
2, ,-29, ,
2, ,-29, ,
2, ,-29, ,
1, ,-29, ,
2, ,-29, ,
2, ,-29, ,
2, ,-29, ,
2, ,-29, ,
2, ,-29, ,
1, ,-29, ,
2, ,-29, ,
1, ,-29, ,
2, ,-29, ,
2, ,-29, ,
1, ,-29, ,
2, ,-29, ,
1, ,-29, ,
1, ,-29, ,
2, ,-29, ,
0, ,-29, ,
2, ,-29, ,
2, ,-29, ,
1, ,-29, ,
3, ,-29, ,
2, ,-29, ,
1, ,-29, ,
1, ,-29, ,
1, ,-29, ,
1, ,-29, ,
2, ,-29, ,
1, ,-29, ,
2, ,-29, ,
2, ,-29, ,
1, ,-29, ,
2, ,-29, ,
2, ,-29, ,
2, ,-29, ,
2, ,-29, ,
1, ,-29, ,
2, ,-29, ,
2, ,-29, ,
1, ,-29, ,
3, ,-29, ,
2, ,-29, ,
1, ,-29, ,
2, ,-29, ,
2, ,-29, ,
2, ,-29, ,
2, ,-29, ,
2, ,-29, ,
2, ,-29, ,
2, ,-29, ,
2, ,-29, ,
2, ,-29, ,
1, ,-29, ,
2, ,-29, ,
1, ,-29, ,
2, ,-29, ,
1, ,-29, ,
2, ,-29, ,
1, ,-29, ,
2, ,-29, ,
2, ,-29, ,
2, ,-29, ,
0, ,-29, ,
3, ,-29, ,
-1, ,-29, ,
3, ,-29, ,
105, ,-29, ,
125, ,-29, ,
125, ,-29, ,
125, ,-29, ,
120, ,-29, ,
107, ,-29, ,
-6, ,-29, ,
4, ,-29, ,
125, ,-29, ,
125, ,-29, ,
125, ,-29, ,
125, ,-29, ,
125, ,-29, ,
125, ,-29, ,
125, ,-29, ,
125, ,-29, ,
125, ,-29, ,
125, ,-29, ,
125, ,-29, ,
125, ,-29, ,
125, ,-29, ,
125, ,-29, ,
125, ,-29, ,
125, ,-29, ,
125, ,-29, ,
125, ,-29, ,
125, ,-29, ,
125, ,-29, ,
125, ,-29, ,
125, ,-29, ,
125, ,-29, ,
125, ,-29, ,
125, ,-29, ,
125, ,-29, ,
124, ,-29, ,
124, ,-29, ,
115, ,-29, ,
110, ,-29, ,
105, ,-29, ,
102, ,-29, ,
93, ,-29, ,
89, ,-29, ,
84, ,-29, ,
83, ,-29, ,
76, ,-29, ,
68, ,-29, ,
68, ,-29, ,
65, ,-29, ,
59, ,-29, ,
56, ,-29, ,
53, ,-29, ,
51, ,-29, ,
46, ,-29, ,
43, ,-29, ,
43, ,-29, ,
39, ,-29, ,
35, ,-29, ,
35, ,-29, ,
33, ,-29, ,
32, ,-29, ,
30, ,-29, ,
26, ,-29, ,
26, ,-29, ,
24, ,-29, ,
22, ,-29, ,
20, ,-29, ,
18, ,-29, ,
18, ,-29, ,
16, ,-29, ,
14, ,-29, ,
15, ,-29, ,
12, ,-29, ,
11, ,-29, ,
11, ,-29, ,
9, ,-29, ,
10, ,-29, ,
8, ,-29, ,
7, ,-29, ,
7, ,-29, ,
6, ,-29, ,
5, ,-29, ,
5, ,-29, ,
4, ,-29, ,
4, ,-29, ,
3, ,-29, ,
2, ,-29, ,
2, ,-29, ,
1, ,-29, ,
1, ,-29, ,
1, ,-29, ,
0, ,-29, ,
0, ,-29, ,
0, ,-29, ,
-1, ,-29, ,
-1, ,-29, ,
-1, ,-29, ,
-2, ,-29, ,
-1, ,-29, ,
-2, ,-29, ,
-1, ,-29, ,
-2, ,-29, ,
-2, ,-29, ,
-2, ,-29, ,
-2, ,-29, ,
-3, ,-29, ,
-2, ,-29, ,
-2, ,-29, ,
-4, ,-29, ,
-2, ,-29, ,
-3, ,-29, ,
-3, ,-29, ,
-3, ,-29, ,
-3, ,-29, ,
-3, ,-29, ,
-3, ,-29, ,
-3, ,-29, ,
-2, ,-29, ,
-4, ,-29, ,
-2, ,-29, ,
-3, ,-29, ,
-4, ,-29, ,
-2, ,-29, ,
-2, ,-29, ,
-2, ,-29, ,
-2, ,-29, ,
-2, ,-29, ,
-3, ,-29, ,
-3, ,-29, ,
-2, ,-29, ,
-3, ,-29, ,
-3, ,-29, ,
-2, ,-29, ,
-2, ,-29, ,
-3, ,-29, ,
-3, ,-29, ,
-3, ,-29, ,
-3, ,-29, ,
-2, ,-29, ,
-2, ,-29, ,
-2, ,-29, ,
-1, ,-29, ,
-3, ,-29, ,
-1, ,-29, ,
-1, ,-29, ,
-2, ,-29, ,
-1, ,-29, ,
-2, ,-29, ,
-1, ,-29, ,
-1, ,-29, ,
-1, ,-29, ,
-1, ,-29, ,
-2, ,-29, ,
-2, ,-29, ,
0, ,-29, ,
-1, ,-29, ,
-1, ,-29, ,
0, ,-29, ,
-1, ,-29, ,
0, ,-29, ,
-1, ,-29, ,
0, ,-29, ,
0, ,-29, ,
0, ,-29, ,
0, ,-29, ,
0, ,-29, ,
0, ,-29, ,
0, ,-29, ,
0, ,-29, ,
0, ,-29, ,
0, ,-29, ,
0, ,-29, ,
0, ,-29, ,
0, ,-29, ,
0, ,-29, ,
0, ,-29, ,
0, ,-29, ,
0, ,-29, ,
0, ,-29, ,
0, ,-29, ,
0, ,-29, ,
1, ,-29, ,
1, ,-29, ,
0, ,-29, ,
0, ,-29, ,
1, ,-29, ,
1, ,-29, ,
0, ,-29, ,
1, ,-29, ,
1, ,-29, ,
1, ,-29, ,
1, ,-29, ,
0, ,-29, ,
0, ,-29, ,
1, ,-29, ,
0, ,-29, ,
1, ,-29, ,
0, ,-29, ,
0, ,-29, ,
1, ,-29, ,
1, ,-29, ,
0, ,-29, ,
1, ,-29, ,
1, ,-29, ,
1, ,-29, ,
1, ,-29, ,
1, ,-29, ,
1, ,-29, ,
1, ,-29, ,
1, ,-29, ,
1, ,-29, ,
1, ,-29, ,
1, ,-29, ,
1, ,-29, ,
0, ,-29, ,
1, ,-29, ,
1, ,-29, ,
1, ,-29, ,
2, ,-29, ,
1, ,-29, ,
2, ,-29, ,
2, ,-29, ,
1, ,-29, ,
2, ,-29, ,
0, ,-29, ,
1, ,-29, ,
1, ,-29, ,
1, ,-29, ,
1, ,-29, ,
1, ,-29, ,
1, ,-29, ,
1, ,-29, ,
1, ,-29, ,
1, ,-29, ,
2, ,-29, ,
1, ,-28, ,
0, ,-29, ,
2, ,-29, ,
1, ,-29, ,
3, ,-29, ,
2, ,-29, ,
2, ,-29, ,
2, ,-29, ,
1, ,-29, ,
2, ,-29, ,
2, ,-29, ,
1, ,-29, ,
2, ,-29, ,
1, ,-29, ,
1, ,-29, ,
2, ,-29, ,
2, ,-29, ,
2, ,-29, ,
2, ,-29, ,
0, ,-29, ,
0, ,-29, ,
0, ,-29, ,
1, ,-29, ,
1, ,-29, ,
1, ,-29, ,
1, ,-29, ,
1, ,-29, ,
0, ,-29, ,
1, ,-29, ,
1, ,-29, ,
2, ,-29, ,
2, ,-29, ,
1, ,-29, ,
2, ,-29, ,
1, ,-29, ,
1, ,-29, ,
2, ,-29, ,
0, ,-29, ,
0, ,-29, ,
0, ,-29, ,
0, ,-29, ,
0, ,-29, ,
0, ,-29, ,
0, ,-29, ,
0, ,-29, ,
-1, ,-29, ,
-1, ,-29, ,
1, ,-29, ,
1, ,-29, ,
1, ,-29, ,
2, ,-29, ,
1, ,-29, ,
2, ,-29, ,
1, ,-29, ,
2, ,-29, ,
2, ,-29, ,
1, ,-29, ,
2, ,-29, ,
1, ,-29, ,
1, ,-29, ,
1, ,-29, ,
0, ,-29, ,
1, ,-29, ,
1, ,-29, ,
1, ,-29, ,
1, ,-29, ,
2, ,-29, ,
2, ,-29, ,
2, ,-29, ,
2, ,-29, ,
2, ,-29, ,
3, ,-29, ,
1, ,-29, ,
1, ,-29, ,
1, ,-29, ,
0, ,-29, ,
1, ,-29, ,
0, ,-29, ,
-1, ,-29, ,
-1, ,-29, ,
-2, ,-29, ,
-1, ,-29, ,
-1, ,-29, ,
-1, ,-29, ,
-1, ,-29, ,
-2, ,-29, ,
0, ,-29, ,
1, ,-29, ,
1, ,-29, ,
3, ,-29, ,
3, ,-29, ,
1, ,-29, ,
3, ,-29, ,
2, ,-29, ,
1, ,-29, ,
2, ,-29, ,
2, ,-29, ,
2, ,-29, ,
2, ,-29, ,
2, ,-29, ,
1, ,-29, ,
1, ,-29, ,
1, ,-29, ,
2, ,-29, ,
0, ,-29, ,
2, ,-29, ,
3, ,-29, ,
3, ,-29, ,
3, ,-29, ,
2, ,-29, ,
1, ,-29, ,
2, ,-29, ,
2, ,-29, ,
0, ,-29, ,
-1, ,-29, ,
-1, ,-29, ,
-3, ,-29, ,
-4, ,-29, ,
-6, ,-29, ,
-6, ,-29, ,
-7, ,-29, ,
-7, ,-29, ,
-8, ,-29, ,
-9, ,-29, ,
-7, ,-29, ,
-8, ,-29, ,
-8, ,-29, ,
-8, ,-29, ,
-9, ,-28, ,
-9, ,-29, ,
-10, ,-29, ,
-10, ,-29, ,
-11, ,-29, ,
-14, ,-29, ,
-17, ,-29, ,
-16, ,-29, ,
-20, ,-29, ,
-20, ,-29, ,
-23, ,-29, ,
-25, ,-29, ,
-25, ,-29, ,
-27, ,-29, ,
-27, ,-29, ,
-27, ,-29, ,
-27, ,-29, ,
-26, ,-29, ,
-25, ,-29, ,
-26, ,-29, ,
-24, ,-29, ,
-25, ,-29, ,
-26, ,-29, ,
-26, ,-29, ,
-28, ,-29, ,
-28, ,-29, ,
-31, ,-29, ,
-33, ,-29, ,
-33, ,-29, ,
-35, ,-29, ,
-35, ,-29, ,
-34, ,-29, ,
-32, ,-29, ,
-32, ,-29, ,
-27, ,-29, ,
-27, ,-29, ,
-25, ,-29, ,
-22, ,-29, ,
-17, ,-29, ,
-15, ,-29, ,
-14, ,-29, ,
-12, ,-29, ,
-10, ,-29, ,
-11, ,-29, ,
-10, ,-29, ,
-10, ,-29, ,
-11, ,-29, ,
-10, ,-29, ,
-11, ,-29, ,
-10, ,-29, ,
-9, ,-29, ,
-8, ,-29, ,
-5, ,-29, ,
-5, ,-29, ,
-1, ,-29, ,
2, ,-29, ,
3, ,-29, ,
5, ,-29, ,
5, ,-29, ,
5, ,-29, ,
5, ,-29, ,
4, ,-29, ,
2, ,-29, ,
2, ,-29, ,
0, ,-29, ,
-1, ,-29, ,
-4, ,-29, ,
-8, ,-29, ,
-8, ,-29, ,
-11, ,-29, ,
-13, ,-29, ,
-14, ,-29, ,
-15, ,-29, ,
-15, ,-29, ,
-15, ,-29, ,
-15, ,-29, ,
-14, ,-29, ,
-15, ,-29, ,
-16, ,-29, ,
-16, ,-29, ,
-18, ,-29, ,
-19, ,-29, ,
-22, ,-29, ,
-24, ,-29, ,
-26, ,-29, ,
-27, ,-29, ,
-28, ,-29, ,
-28, ,-29, ,
-29, ,-29, ,
-28, ,-29, ,
-27, ,-29, ,
-27, ,-29, ,
-26, ,-29, ,
-26, ,-29, ,
-28, ,-29, ,
-26, ,-29, ,
-31, ,-29, ,
-30, ,-29, ,
-33, ,-29, ,
-35, ,-29, ,
-37, ,-29, ,
-40, ,-29, ,
-44, ,-29, ,
-44, ,-29, ,
-48, ,-29, ,
-48, ,-29, ,
-49, ,-29, ,
-51, ,-29, ,
-51, ,-29, ,
-51, ,-29, ,
-51, ,-29, ,
-49, ,-29, ,
-49, ,-29, ,
-47, ,-29, ,
-43, ,-29, ,
-41, ,-29, ,
-38, ,-29, ,
-35, ,-29, ,
-29, ,-29, ,
-28, ,-29, ,
-25, ,-29, ,
-22, ,-29, ,
-20, ,-29, ,
-20, ,-29, ,
-20, ,-29, ,
-21, ,-29, ,
-21, ,-29, ,
-21, ,-29, ,
-21, ,-29, ,
-22, ,-29, ,
-21, ,-29, ,
-21, ,-28, ,
-21, ,-29, ,
-20, ,-29, ,
-21, ,-29, ,
-20, ,-29, ,
-22, ,-29, ,
-23, ,-29, ,
-25, ,-29, ,
-26, ,-29, ,
-26, ,-29, ,
-28, ,-29, ,
-30, ,-29, ,
-30, ,-29, ,
-30, ,-29, ,
-30, ,-29, ,
-30, ,-29, ,
-27, ,-29, ,
-26, ,-29, ,
-27, ,-29, ,
-23, ,-29, ,
-20, ,-29, ,
-19, ,-29, ,
-16, ,-29, ,
-14, ,-29, ,
-15, ,-29, ,
-12, ,-29, ,
-13, ,-29, ,
-12, ,-29, ,
-9, ,-29, ,
-10, ,-29, ,
-7, ,-29, ,
-5, ,-29, ,
-4, ,-29, ,
-2, ,-29, ,
-1, ,-29, ,
0, ,-29, ,
1, ,-29, ,
1, ,-29, ,
2, ,-29, ,
3, ,-29, ,
2, ,-29, ,
4, ,-29, ,
3, ,-29, ,
4, ,-29, ,
5, ,-29, ,
5, ,-29, ,
5, ,-29, ,
6, ,-29, ,
8, ,-29, ,
7, ,-29, ,
7, ,-29, ,
6, ,-29, ,
7, ,-29, ,
5, ,-29, ,
5, ,-29, ,
5, ,-29, ,
5, ,-29, ,
6, ,-29, ,
5, ,-29, ,
7, ,-29, ,
9, ,-29, ,
8, ,-29, ,
10, ,-29, ,
11, ,-29, ,
10, ,-29, ,
11, ,-29, ,
10, ,-29, ,
10, ,-29, ,
10, ,-29, ,
10, ,-29, ,
10, ,-29, ,
9, ,-29, ,
9, ,-29, ,
9, ,-29, ,
8, ,-29, ,
6, ,-29, ,
7, ,-29, ,
6, ,-29, ,
6, ,-29, ,
5, ,-29, ,
3, ,-29, ,
3, ,-29, ,
1, ,-29, ,
-1, ,-29, ,
-2, ,-29, ,
-4, ,-29, ,
-4, ,-29, ,
-6, ,-29, ,
-9, ,-29, ,
-9, ,-29, ,
-13, ,-29, ,
-15, ,-29, ,
-17, ,-29, ,
-18, ,-29, ,
-18, ,-29, ,
-23, ,-29, ,
-23, ,-29, ,
-26, ,-29, ,
-27, ,-29, ,
-30, ,-29, ,
-30, ,-29, ,
-32, ,-29, ,
-32, ,-29, ,
-33, ,-29, ,
-34, ,-29, ,
-34, ,-29, ,
-35, ,-29, ,
-35, ,-29, ,
-34, ,-29, ,
-35, ,-29, ,
-35, ,-29, ,
-35, ,-29, ,
-35, ,-29, ,
-35, ,-29, ,
-35, ,-29, ,
-34, ,-29, ,
-34, ,-29, ,
-34, ,-29, ,
-32, ,-29, ,
-30, ,-29, ,
-30, ,-29, ,
-29, ,-29, ,
-29, ,-29, ,
-29, ,-29, ,
-27, ,-29, ,
-27, ,-29, ,
-27, ,-29, ,
-26, ,-29, ,
-27, ,-29, ,
-25, ,-29, ,
-25, ,-29, ,
-25, ,-29, ,
-23, ,-29, ,
-24, ,-29, ,
-22, ,-29, ,
-20, ,-29, ,
-19, ,-29, ,
-15, ,-29, ,
-15, ,-29, ,
-11, ,-29, ,
-9, ,-29, ,
-7, ,-29, ,
-6, ,-29, ,
-3, ,-29, ,
-2, ,-29, ,
-1, ,-29, ,
-2, ,-29, ,
1, ,-29, ,
3, ,-29, ,
4, ,-29, ,
5, ,-29, ,
6, ,-29, ,
5, ,-29, ,
8, ,-29, ,
7, ,-29, ,
7, ,-29, ,
9, ,-29, ,
7, ,-29, ,
7, ,-29, ,
6, ,-29, ,
4, ,-29, ,
4, ,-29, ,
4, ,-29, ,
3, ,-29, ,
2, ,-29, ,
1, ,-29, ,
2, ,-29, ,
2, ,-29, ,
1, ,-29, ,
1, ,-29, ,
1, ,-29, ,
1, ,-29, ,
2, ,-29, ,
1, ,-29, ,
1, ,-29, ,
1, ,-29, ,
1, ,-29, ,
1, ,-29, ,
0, ,-29, ,
2, ,-29, ,
3, ,-29, ,
1, ,-29, ,
3, ,-29, ,
3, ,-29, ,
3, ,-29, ,
4, ,-29, ,
2, ,-29, ,
2, ,-29, ,
2, ,-29, ,
0, ,-29, ,
0, ,-29, ,
-1, ,-29, ,
-3, ,-29, ,
-3, ,-29, ,
-5, ,-29, ,
-6, ,-29, ,
-8, ,-29, ,
-9, ,-29, ,
-10, ,-29, ,
-12, ,-29, ,
-14, ,-29, ,
-15, ,-29, ,
-16, ,-29, ,
-20, ,-29, ,
-20, ,-29, ,
-22, ,-29, ,
-23, ,-29, ,
-25, ,-29, ,
-27, ,-29, ,
-28, ,-29, ,
-29, ,-29, ,
-30, ,-29, ,
-31, ,-29, ,
-33, ,-29, ,
-32, ,-29, ,
-34, ,-29, ,
-35, ,-29, ,
-35, ,-29, ,
-35, ,-29, ,
-38, ,-29, ,
-38, ,-29, ,
-39, ,-29, ,
-39, ,-29, ,
-40, ,-29, ,
-41, ,-29, ,
-41, ,-29, ,
-42, ,-29, ,
-42, ,-29, ,
-43, ,-29, ,
-45, ,-29, ,
-44, ,-29, ,
-43, ,-29, ,
-44, ,-29, ,
-42, ,-29, ,
-43, ,-29, ,
-42, ,-29, ,
-39, ,-29, ,
-39, ,-29, ,
-37, ,-29, ,
-35, ,-29, ,
-35, ,-29, ,
-31, ,-29, ,
-32, ,-29, ,
-27, ,-29, ,
-25, ,-29, ,
-24, ,-29, ,
-22, ,-29, ,
-16, ,-29, ,
-17, ,-29, ,
-13, ,-29, ,
-11, ,-29, ,
-9, ,-29, ,
-6, ,-29, ,
-8, ,-29, ,
-5, ,-29, ,
-4, ,-29, ,
-3, ,-29, ,
-3, ,-29, ,
-4, ,-29, ,
-2, ,-29, ,
-2, ,-29, ,
-2, ,-29, ,
-2, ,-29, ,
-2, ,-29, ,
-2, ,-29, ,
-2, ,-29, ,
-2, ,-29, ,
-3, ,-29, ,
-3, ,-29, ,
-4, ,-29, ,
-4, ,-29, ,
-4, ,-29, ,
-5, ,-29, ,
-5, ,-29, ,
-6, ,-29, ,
-6, ,-29, ,
-5, ,-29, ,
-7, ,-29, ,
-5, ,-29, ,
-7, ,-29, ,
-7, ,-29, ,
-6, ,-29, ,
-6, ,-29, ,
-6, ,-29, ,
-6, ,-29, ,
-6, ,-29, ,
-5, ,-29, ,
-4, ,-29, ,
-5, ,-29, ,
-5, ,-29, ,
-5, ,-29, ,
-4, ,-29, ,
-4, ,-29, ,
-5, ,-29, ,
-5, ,-29, ,
-4, ,-29, ,
-4, ,-29, ,
-3, ,-29, ,
-3, ,-29, ,
-3, ,-29, ,
-2, ,-29, ,
-3, ,-29, ,
-2, ,-29, ,
-4, ,-29, ,
-4, ,-29, ,
-2, ,-29, ,
-4, ,-29, ,
-5, ,-29, ,
-5, ,-29, ,
-5, ,-29, ,
-4, ,-29, ,
-5, ,-29, ,
-5, ,-29, ,
-4, ,-29, ,
-5, ,-29, ,
-5, ,-29, ,
-6, ,-29, ,
-6, ,-29, ,
-6, ,-29, ,
-6, ,-29, ,
-6, ,-29, ,
-6, ,-29, ,
-6, ,-29, ,
-5, ,-29, ,
-5, ,-29, ,
-6, ,-29, ,
-3, ,-29, ,
-2, ,-29, ,
-2, ,-29, ,
-1, ,-29, ,
0, ,-29, ,
0, ,-29, ,
0, ,-29, ,
1, ,-29, ,
1, ,-29, ,
2, ,-29, ,
3, ,-29, ,
3, ,-29, ,
3, ,-29, ,
2, ,-29, ,
2, ,-29, ,
2, ,-29, ,
2, ,-29, ,
3, ,-29, ,
1, ,-29, ,
1, ,-29, ,
0, ,-29, ,
-1, ,-29, ,
0, ,-29, ,
-3, ,-29, ,
-3, ,-29, ,
-5, ,-29, ,
-5, ,-29, ,
-6, ,-29, ,
-6, ,-29, ,
-8, ,-29, ,
-8, ,-29, ,
-9, ,-29, ,
-9, ,-29, ,
-9, ,-29, ,
-10, ,-29, ,
-10, ,-29, ,
-11, ,-29, ,
-12, ,-29, ,
-12, ,-29, ,
-12, ,-29, ,
-12, ,-29, ,
-12, ,-29, ,
-13, ,-29, ,
-12, ,-29, ,
-13, ,-29, ,
-11, ,-29, ,
-10, ,-29, ,
-12, ,-29, ,
-10, ,-29, ,
-9, ,-29, ,
-11, ,-29, ,
-8, ,-29, ,
-10, ,-29, ,
-8, ,-29, ,
-8, ,-29, ,
-9, ,-29, ,
-8, ,-29, ,
-7, ,-29, ,
-7, ,-29, ,
-7, ,-29, ,
-7, ,-29, ,
-7, ,-29, ,
-5, ,-29, ,
-5, ,-29, ,
-5, ,-29, ,
-4, ,-29, ,
-5, ,-29, ,
-2, ,-29, ,
-3, ,-29, ,
-3, ,-29, ,
-2, ,-29, ,
-3, ,-29, ,
-2, ,-29, ,
-2, ,-29, ,
-2, ,-29, ,
-2, ,-29, ,
-2, ,-29, ,
-1, ,-29, ,
-1, ,-29, ,
-1, ,-29, ,
0, ,-29, ,
-1, ,-29, ,
-2, ,-29, ,
-2, ,-29, ,
-2, ,-29, ,
-2, ,-29, ,
-3, ,-29, ,
-3, ,-29, ,
-4, ,-29, ,
-5, ,-29, ,
-6, ,-29, ,
-5, ,-29, ,
-5, ,-29, ,
-5, ,-29, ,
-5, ,-29, ,
-5, ,-29, ,
-5, ,-29, ,
-5, ,-29, ,
-5, ,-29, ,
-4, ,-29, ,
-4, ,-29, ,
-4, ,-29, ,
-4, ,-29, ,
-4, ,-29, ,
-3, ,-29, ,
-2, ,-29, ,
-3, ,-29, ,
-2, ,-29, ,
-3, ,-29, ,
0, ,-29, ,
0, ,-29, ,
0, ,-29, ,
1, ,-29, ,
1, ,-29, ,
1, ,-29, ,
1, ,-29, ,
1, ,-29, ,
1, ,-29, ,
1, ,-29, ,
0, ,-29, ,
1, ,-29, ,
1, ,-29, ,
0, ,-29, ,
2, ,-29, ,
0, ,-29, ,
1, ,-29, ,
0, ,-29, ,
0, ,-29, ,
0, ,-29, ,
0, ,-29, ,
0, ,-29, ,
1, ,-29, ,
0, ,-29, ,
0, ,-29, ,
0, ,-29, ,
0, ,-29, ,
0, ,-29, ,
0, ,-29, ,
0, ,-29, ,
-1, ,-29, ,
-2, ,-29, ,
0, ,-29, ,
0, ,-29, ,
-1, ,-29, ,
0, ,-29, ,
1, ,-29, ,
0, ,-29, ,
2, ,-29, ,
1, ,-29, ,
1, ,-29, ,
1, ,-29, ,
1, ,-29, ,
2, ,-29, ,
3, ,-29, ,
2, ,-29, ,
2, ,-29, ,
2, ,-29, ,
3, ,-29, ,
3, ,-29, ,
3, ,-29, ,
3, ,-29, ,
4, ,-29, ,
4, ,-29, ,
5, ,-29, ,
3, ,-29, ,
3, ,-29, ,
4, ,-29, ,
3, ,-29, ,
3, ,-29, ,
3, ,-29, ,
3, ,-29, ,
3, ,-29, ,
2, ,-29, ,
1, ,-29, ,
2, ,-29, ,
0, ,-29, ,
1, ,-29, ,
0, ,-29, ,
0, ,-29, ,
0, ,-29, ,
0, ,-29, ,
0, ,-29, ,
0, ,-29, ,
0, ,-29, ,
0, ,-29, ,
0, ,-29, ,
0, ,-29, ,
0, ,-29, ,
-1, ,-29, ,
-1, ,-29, ,
2, ,-29, ,
0, ,-29, ,
1, ,-29, ,
1, ,-29, ,
1, ,-29, ,
1, ,-29, ,
1, ,-29, ,
1, ,-29, ,
2, ,-29, ,
1, ,-29, ,
1, ,-29, ,
1, ,-29, ,
1, ,-29, ,
2, ,-29, ,
1, ,-29, ,
2, ,-29, ,
2, ,-29, ,
1, ,-29, ,
2, ,-29, ,
2, ,-29, ,
1, ,-29, ,
3, ,-29, ,
3, ,-29, ,
4, ,-29, ,
4, ,-29, ,
3, ,-29, ,
3, ,-29, ,
3, ,-29, ,
3, ,-29, ,
4, ,-29, ,
4, ,-29, ,
4, ,-29, ,
4, ,-29, ,
3, ,-29, ,
4, ,-29, ,
4, ,-29, ,
4, ,-29, ,
5, ,-29, ,
4, ,-29, ,
3, ,-29, ,
4, ,-29, ,
2, ,-29, ,
3, ,-29, ,
2, ,-29, ,
1, ,-29, ,
1, ,-29, ,
0, ,-29, ,
-1, ,-29, ,
0, ,-29, ,
-2, ,-29, ,
-1, ,-29, ,
-1, ,-29, ,
-3, ,-29, ,
-3, ,-29, ,
-4, ,-29, ,
-3, ,-29, ,
-3, ,-29, ,
-4, ,-29, ,
-4, ,-29, ,
-5, ,-29, ,
-5, ,-29, ,
-5, ,-29, ,
-5, ,-29, ,
-6, ,-29, ,
-6, ,-29, ,
-6, ,-29, ,
-5, ,-29, ,
-5, ,-29, ,
-6, ,-29, ,
-5, ,-29, ,
-5, ,-29, ,
-5, ,-29, ,
-5, ,-29, ,
-5, ,-29, ,
-5, ,-29, ,
-6, ,-29, ,
-6, ,-29, ,
-6, ,-29, ,
-7, ,-29, ,
-7, ,-29, ,
-7, ,-29, ,
-7, ,-29, ,
-6, ,-29, ,
-6, ,-29, ,
-7, ,-29, ,
-6, ,-29, ,
-6, ,-29, ,
-7, ,-29, ,
-6, ,-29, ,
-7, ,-29, ,
-6, ,-29, ,
-6, ,-29, ,
-6, ,-29, ,
-6, ,-29, ,
-7, ,-29, ,
-5, ,-29, ,
-5, ,-29, ,
-5, ,-29, ,
-5, ,-29, ,
-5, ,-29, ,
-6, ,-29, ,
-5, ,-29, ,
-5, ,-29, ,
-5, ,-29, ,
-5, ,-29, ,
-6, ,-29, ,
-5, ,-29, ,
-5, ,-29, ,
-5, ,-29, ,
-5, ,-29, ,
-5, ,-29, ,
-5, ,-29, ,
-4, ,-29, ,
-5, ,-29, ,
-5, ,-29, ,
-5, ,-29, ,
-5, ,-29, ,
-4, ,-29, ,
-4, ,-29, ,
-4, ,-29, ,
-2, ,-29, ,
-3, ,-29, ,
-2, ,-29, ,
-2, ,-29, ,
-2, ,-29, ,
-2, ,-29, ,
-2, ,-29, ,
-1, ,-29, ,
-1, ,-29, ,
-1, ,-29, ,
0, ,-29, ,
-1, ,-29, ,
-1, ,-29, ,
0, ,-29, ,
-1, ,-29, ,
-2, ,-29, ,
-1, ,-29, ,
-2, ,-29, ,
-2, ,-29, ,
-1, ,-29, ,
-3, ,-29, ,
-3, ,-29, ,
-4, ,-29, ,
-3, ,-29, ,
-3, ,-29, ,
-4, ,-29, ,
-5, ,-29, ,
-5, ,-29, ,
-5, ,-29, ,
-5, ,-29, ,
-5, ,-29, ,
-5, ,-29, ,
-5, ,-29, ,
-6, ,-29, ,
-6, ,-29, ,
-6, ,-29, ,
-6, ,-29, ,
-6, ,-29, ,
-7, ,-29, ,
-7, ,-29, ,
-6, ,-29, ,
-7, ,-29, ,
-7, ,-29, ,
-8, ,-29, ,
-8, ,-29, ,
-7, ,-29, ,
-7, ,-29, ,
-7, ,-29, ,
-7, ,-29, ,
-7, ,-29, ,
-7, ,-29, ,
-6, ,-29, ,
-5, ,-29, ,
-5, ,-29, ,
-5, ,-29, ,
-4, ,-29, ,
-4, ,-29, ,
-3, ,-29, ,
-2, ,-29, ,
-1, ,-29, ,
-1, ,-29, ,
1, ,-29, ,
1, ,-29, ,
1, ,-29, ,
4, ,-29, ,
4, ,-29, ,
5, ,-29, ,
6, ,-29, ,
6, ,-29, ,
7, ,-29, ,
6, ,-29, ,
8, ,-29, ,
8, ,-29, ,
8, ,-29, ,
9, ,-29, ,
10, ,-29, ,
10, ,-29, ,
10, ,-29, ,
10, ,-29, ,
10, ,-29, ,
10, ,-29, ,
10, ,-29, ,
10, ,-29, ,
10, ,-29, ,
10, ,-29, ,
9, ,-29, ,
9, ,-29, ,
9, ,-29, ,
9, ,-29, ,
8, ,-29, ,
8, ,-29, ,
8, ,-29, ,
6, ,-29, ,
7, ,-29, ,
6, ,-29, ,
5, ,-29, ,
5, ,-29, ,
4, ,-29, ,
4, ,-29, ,
4, ,-29, ,
4, ,-29, ,
2, ,-29, ,
2, ,-29, ,
1, ,-29, ,
1, ,-29, ,
1, ,-29, ,
0, ,-29, ,
-1, ,-29, ,
-1, ,-29, ,
-2, ,-29, ,
-2, ,-29, ,
-2, ,-29, ,
-2, ,-29, ,
-3, ,-29, ,
-3, ,-29, ,
-4, ,-29, ,
-4, ,-29, ,
-4, ,-29, ,
-5, ,-29, ,
-4, ,-29, ,
-3, ,-29, ,
-4, ,-29, ,
-2, ,-29, ,
-4, ,-29, ,
-3, ,-29, ,
-3, ,-29, ,
-3, ,-29, ,
-2, ,-29, ,
-2, ,-29, ,
-2, ,-29, ,
-1, ,-29, ,
-2, ,-29, ,
-2, ,-29, ,
-1, ,-29, ,
-2, ,-29, ,
-2, ,-29, ,
-1, ,-29, ,
-2, ,-29, ,
-2, ,-29, ,
-2, ,-29, ,
-4, ,-29, ,
-2, ,-29, ,
-2, ,-29, ,
-3, ,-29, ,
-3, ,-29, ,
-3, ,-29, ,
-3, ,-29, ,
-4, ,-29, ,
-5, ,-29, ,
-4, ,-29, ,
-5, ,-29, ,
-5, ,-29, ,
-5, ,-29, ,
-5, ,-29, ,
-5, ,-29, ,
-5, ,-29, ,
-5, ,-29, ,
-5, ,-29, ,
-6, ,-29, ,
-6, ,-29, ,
-5, ,-29, ,
-6, ,-29, ,
-6, ,-29, ,
-6, ,-29, ,
-7, ,-29, ,
-6, ,-29, ,
-7, ,-29, ,
-7, ,-29, ,
-7, ,-29, ,
-8, ,-29, ,
-7, ,-29, ,
-7, ,-29, ,
-8, ,-29, ,
-8, ,-29, ,
-8, ,-29, ,
-6, ,-29, ,
-7, ,-29, ,
-6, ,-29, ,
-6, ,-29, ,
-5, ,-29, ,
-5, ,-29, ,
-5, ,-29, ,
-4, ,-29, ,
-4, ,-29, ,
-4, ,-29, ,
-4, ,-29, ,
-3, ,-29, ,
-2, ,-29, ,
-2, ,-29, ,
-1, ,-29, ,
-1, ,-29, ,
1, ,-29, ,
1, ,-29, ,
1, ,-29, ,
1, ,-29, ,
2, ,-29, ,
2, ,-29, ,
2, ,-29, ,
1, ,-29, ,
1, ,-29, ,
1, ,-29, ,
2, ,-29, ,
2, ,-29, ,
1, ,-29, ,
1, ,-29, ,
1, ,-29, ,
0, ,-29, ,
0, ,-29, ,
1, ,-29, ,
0, ,-29, ,
0, ,-29, ,
-1, ,-29, ,
-1, ,-29, ,
-2, ,-29, ,
-2, ,-29, ,
-2, ,-29, ,
-1, ,-29, ,
-3, ,-29, ,
-2, ,-29, ,
-2, ,-29, ,
-1, ,-29, ,
-1, ,-29, ,
-2, ,-29, ,
-2, ,-29, ,
0, ,-29, ,
-1, ,-29, ,
0, ,-29, ,
0, ,-29, ,
0, ,-29, ,
1, ,-29, ,
0, ,-29, ,
1, ,-29, ,
2, ,-29, ,
2, ,-29, ,
3, ,-29, ,
3, ,-29, ,
3, ,-29, ,
4, ,-29, ,
3, ,-29, ,
4, ,-29, ,
5, ,-29, ,
4, ,-29, ,
5, ,-29, ,
4, ,-29, ,
3, ,-29, ,
4, ,-29, ,
2, ,-29, ,
3, ,-29, ,
3, ,-29, ,
2, ,-29, ,
2, ,-29, ,
1, ,-29, ,
1, ,-29, ,
1, ,-29, ,
0, ,-29, ,
-1, ,-29, ,
0, ,-29, ,
-1, ,-29, ,
-1, ,-29, ,
-1, ,-29, ,
-2, ,-29, ,
-1, ,-29, ,
-2, ,-29, ,
-2, ,-28, ,
-1, ,-29, ,
-2, ,-29, ,
0, ,-29, ,
-1, ,-29, ,
-2, ,-29, ,
-1, ,-29, ,
-1, ,-29, ,
0, ,-29, ,
3, ,-29, ,
2, ,-29, ,
3, ,-29, ,
5, ,-29, ,
5, ,-29, ,
5, ,-29, ,
6, ,-29, ,
6, ,-29, ,
9, ,-29, ,
8, ,-29, ,
10, ,-29, ,
11, ,-29, ,
10, ,-29, ,
12, ,-29, ,
11, ,-29, ,
12, ,-29, ,
14, ,-29, ,
13, ,-29, ,
12, ,-29, ,
12, ,-29, ,
13, ,-29, ,
13, ,-29, ,
12, ,-29, ,
12, ,-29, ,
12, ,-29, ,
11, ,-29, ,
12, ,-29, ,
9, ,-29, ,
9, ,-29, ,
9, ,-29, ,
7, ,-29, ,
5, ,-29, ,
6, ,-29, ,
5, ,-29, ,
4, ,-29, ,
4, ,-29, ,
1, ,-29, ,
1, ,-29, ,
1, ,-29, ,
0, ,-29, ,
0, ,-29, ,
-1, ,-29, ,
-1, ,-29, ,
-2, ,-29, ,
-2, ,-29, ,
-2, ,-29, ,
