raw_data/100% Glycerol, Impulsion 2Hz, Sonde 5MHz, Rampe 0.7Hz/temp0000092.CSV

Format,1.0B,
Memory Length,10000,Memory Length,10000,
IntpDistance,0,IntpDistance,0,
Trigger Address,159,Trigger Address,159,
Trigger Level,2.720E-01,Trigger Level,2.720E-01,
Source,CH1,Source,CH2,
Vertical Units,V,Vertical Units,V,
Vertical Units Div,0,Vertical Units Div,0,
Vertical Units Extend Div,16,Vertical Units Extend Div,16,
Label,,Label,,
Probe Type,0,Probe Type,0,
Probe Ratio,1.000e+00,Probe Ratio,1.000e+00,
Vertical Scale,2.000e-01,Vertical Scale,2.000e+00,
Vertical Position,0.000e+00,Vertical Position,0.000e+00,
Horizontal Units,S,Horizontal Units,S,
Horizontal Scale,5.000E-06,Horizontal Scale,5.000E-06,
Horizontal Position,2.420E-05,Horizontal Position,2.420E-05,
Horizontal Mode,Main,Horizontal Mode,Main,
SincET Mode,Real Time,SincET Mode,Real Time,
Sampling Period,5.000e-09,Sampling Period,5.000e-09,
Horizontal Old Scale,5.000E-06,Horizontal Old Scale,5.000E-06,
Horizontal Old Position,2.420E-05,Horizontal Old Position,2.420E-05,
Firmware,V1.32,Firmware,V1.32,
Mode,Fast,Mode,Fast,
Waveform Data,,Waveform Data,,
1, ,17, ,
2, ,17, ,
0, ,17, ,
1, ,17, ,
1, ,17, ,
1, ,17, ,
1, ,17, ,
0, ,17, ,
2, ,17, ,
2, ,17, ,
1, ,17, ,
2, ,17, ,
2, ,18, ,
2, ,17, ,
1, ,17, ,
2, ,17, ,
1, ,17, ,
2, ,17, ,
2, ,17, ,
3, ,17, ,
1, ,17, ,
1, ,17, ,
1, ,17, ,
2, ,17, ,
2, ,17, ,
2, ,17, ,
1, ,17, ,
2, ,17, ,
2, ,17, ,
1, ,17, ,
2, ,17, ,
2, ,17, ,
1, ,17, ,
1, ,17, ,
2, ,17, ,
2, ,17, ,
2, ,17, ,
2, ,17, ,
2, ,17, ,
1, ,17, ,
1, ,17, ,
2, ,17, ,
1, ,17, ,
1, ,17, ,
1, ,18, ,
1, ,17, ,
1, ,17, ,
1, ,17, ,
2, ,17, ,
2, ,17, ,
1, ,17, ,
1, ,17, ,
3, ,17, ,
2, ,17, ,
2, ,17, ,
0, ,17, ,
1, ,17, ,
2, ,17, ,
1, ,17, ,
3, ,17, ,
2, ,17, ,
1, ,17, ,
2, ,17, ,
2, ,18, ,
1, ,17, ,
2, ,17, ,
1, ,17, ,
2, ,17, ,
2, ,17, ,
1, ,17, ,
2, ,17, ,
0, ,17, ,
2, ,17, ,
2, ,17, ,
1, ,17, ,
2, ,17, ,
2, ,17, ,
2, ,17, ,
3, ,17, ,
2, ,17, ,
1, ,17, ,
1, ,17, ,
2, ,17, ,
2, ,17, ,
2, ,17, ,
1, ,17, ,
3, ,17, ,
1, ,17, ,
2, ,17, ,
2, ,17, ,
1, ,17, ,
2, ,17, ,
2, ,17, ,
1, ,17, ,
2, ,17, ,
2, ,17, ,
2, ,17, ,
2, ,17, ,
2, ,17, ,
2, ,17, ,
3, ,17, ,
2, ,17, ,
2, ,17, ,
1, ,17, ,
2, ,17, ,
3, ,17, ,
0, ,17, ,
2, ,17, ,
3, ,17, ,
2, ,18, ,
2, ,17, ,
1, ,17, ,
1, ,17, ,
3, ,17, ,
2, ,17, ,
3, ,17, ,
2, ,17, ,
2, ,17, ,
2, ,17, ,
1, ,17, ,
2, ,17, ,
2, ,17, ,
0, ,17, ,
3, ,17, ,
3, ,17, ,
2, ,17, ,
2, ,17, ,
1, ,17, ,
2, ,17, ,
2, ,17, ,
2, ,17, ,
2, ,17, ,
2, ,17, ,
1, ,17, ,
2, ,17, ,
1, ,17, ,
2, ,17, ,
2, ,17, ,
2, ,17, ,
2, ,17, ,
2, ,17, ,
0, ,17, ,
2, ,17, ,
2, ,17, ,
1, ,17, ,
2, ,17, ,
1, ,17, ,
2, ,17, ,
1, ,17, ,
1, ,17, ,
2, ,17, ,
0, ,17, ,
2, ,17, ,
2, ,17, ,
2, ,17, ,
2, ,17, ,
3, ,17, ,
1, ,17, ,
4, ,17, ,
1, ,17, ,
0, ,17, ,
2, ,17, ,
1, ,17, ,
3, ,17, ,
-1, ,17, ,
0, ,17, ,
-2, ,17, ,
15, ,17, ,
125, ,17, ,
125, ,17, ,
125, ,17, ,
125, ,17, ,
118, ,17, ,
50, ,17, ,
-19, ,17, ,
40, ,18, ,
125, ,17, ,
125, ,17, ,
125, ,17, ,
125, ,17, ,
125, ,17, ,
125, ,17, ,
125, ,18, ,
125, ,17, ,
125, ,17, ,
125, ,17, ,
125, ,17, ,
125, ,17, ,
125, ,17, ,
125, ,17, ,
125, ,17, ,
125, ,17, ,
125, ,17, ,
125, ,17, ,
125, ,17, ,
125, ,17, ,
125, ,17, ,
125, ,17, ,
125, ,17, ,
125, ,17, ,
125, ,17, ,
124, ,17, ,
124, ,17, ,
122, ,17, ,
113, ,17, ,
107, ,17, ,
103, ,18, ,
100, ,17, ,
91, ,17, ,
89, ,17, ,
84, ,17, ,
81, ,17, ,
73, ,17, ,
68, ,17, ,
66, ,17, ,
62, ,17, ,
57, ,17, ,
56, ,17, ,
52, ,18, ,
50, ,17, ,
46, ,17, ,
43, ,17, ,
41, ,17, ,
38, ,17, ,
35, ,17, ,
34, ,18, ,
32, ,18, ,
32, ,17, ,
27, ,17, ,
25, ,17, ,
25, ,17, ,
22, ,17, ,
20, ,17, ,
20, ,17, ,
18, ,17, ,
17, ,17, ,
15, ,17, ,
13, ,17, ,
14, ,17, ,
14, ,17, ,
10, ,17, ,
10, ,17, ,
9, ,17, ,
9, ,17, ,
6, ,17, ,
7, ,17, ,
7, ,17, ,
4, ,17, ,
4, ,17, ,
4, ,17, ,
4, ,17, ,
4, ,17, ,
3, ,17, ,
2, ,17, ,
2, ,17, ,
1, ,18, ,
1, ,18, ,
2, ,17, ,
0, ,17, ,
0, ,17, ,
0, ,17, ,
-1, ,17, ,
-1, ,17, ,
-1, ,17, ,
-1, ,17, ,
-2, ,17, ,
-2, ,17, ,
-1, ,17, ,
-2, ,17, ,
-2, ,17, ,
-1, ,17, ,
-2, ,17, ,
-3, ,17, ,
-2, ,17, ,
-3, ,17, ,
-2, ,17, ,
-2, ,17, ,
-2, ,17, ,
-2, ,17, ,
-2, ,17, ,
-3, ,17, ,
-3, ,17, ,
-4, ,17, ,
-3, ,17, ,
-3, ,17, ,
-3, ,17, ,
-3, ,17, ,
-4, ,17, ,
-3, ,17, ,
-3, ,17, ,
-4, ,17, ,
-4, ,17, ,
-4, ,17, ,
-3, ,17, ,
-2, ,18, ,
-4, ,17, ,
-2, ,17, ,
-2, ,17, ,
-2, ,17, ,
-2, ,17, ,
-2, ,17, ,
-2, ,17, ,
-2, ,17, ,
-3, ,17, ,
-4, ,17, ,
-2, ,17, ,
-2, ,17, ,
-2, ,17, ,
-2, ,17, ,
-2, ,17, ,
-1, ,17, ,
-2, ,17, ,
-2, ,17, ,
-1, ,17, ,
-3, ,17, ,
-1, ,17, ,
-1, ,17, ,
-2, ,17, ,
-1, ,17, ,
-1, ,17, ,
-1, ,18, ,
-1, ,18, ,
-1, ,18, ,
-1, ,17, ,
-1, ,17, ,
-1, ,17, ,
0, ,17, ,
-1, ,17, ,
0, ,17, ,
0, ,17, ,
-1, ,17, ,
0, ,17, ,
0, ,17, ,
-1, ,17, ,
0, ,17, ,
-1, ,17, ,
0, ,17, ,
0, ,17, ,
0, ,17, ,
0, ,17, ,
1, ,17, ,
0, ,17, ,
1, ,17, ,
-1, ,17, ,
0, ,17, ,
0, ,17, ,
0, ,17, ,
1, ,17, ,
1, ,17, ,
0, ,17, ,
0, ,17, ,
0, ,17, ,
0, ,17, ,
0, ,17, ,
0, ,17, ,
0, ,17, ,
1, ,17, ,
0, ,17, ,
0, ,17, ,
0, ,17, ,
0, ,17, ,
0, ,18, ,
0, ,17, ,
1, ,17, ,
1, ,18, ,
0, ,17, ,
1, ,17, ,
0, ,17, ,
0, ,17, ,
1, ,17, ,
1, ,17, ,
2, ,17, ,
1, ,17, ,
1, ,17, ,
1, ,18, ,
1, ,17, ,
1, ,17, ,
2, ,17, ,
2, ,17, ,
3, ,17, ,
2, ,17, ,
1, ,17, ,
1, ,17, ,
2, ,17, ,
1, ,17, ,
1, ,17, ,
1, ,17, ,
1, ,17, ,
1, ,17, ,
2, ,17, ,
2, ,17, ,
1, ,17, ,
1, ,17, ,
2, ,17, ,
1, ,17, ,
2, ,17, ,
2, ,17, ,
1, ,17, ,
1, ,17, ,
1, ,17, ,
0, ,17, ,
2, ,17, ,
2, ,17, ,
2, ,17, ,
2, ,17, ,
1, ,17, ,
2, ,17, ,
1, ,17, ,
1, ,17, ,
2, ,17, ,
0, ,17, ,
2, ,17, ,
2, ,17, ,
1, ,17, ,
2, ,17, ,
1, ,17, ,
2, ,17, ,
2, ,17, ,
2, ,17, ,
2, ,17, ,
1, ,17, ,
1, ,17, ,
1, ,18, ,
0, ,17, ,
1, ,17, ,
2, ,17, ,
0, ,17, ,
1, ,17, ,
0, ,17, ,
0, ,17, ,
1, ,17, ,
1, ,17, ,
1, ,17, ,
1, ,17, ,
1, ,17, ,
2, ,17, ,
1, ,17, ,
1, ,17, ,
1, ,17, ,
0, ,17, ,
0, ,17, ,
0, ,17, ,
-2, ,17, ,
-1, ,17, ,
-1, ,18, ,
-3, ,17, ,
-2, ,17, ,
-1, ,17, ,
-2, ,17, ,
1, ,17, ,
0, ,17, ,
1, ,17, ,
1, ,17, ,
0, ,17, ,
1, ,17, ,
-1, ,17, ,
-1, ,17, ,
-1, ,17, ,
-3, ,17, ,
-3, ,17, ,
-8, ,17, ,
-11, ,17, ,
-13, ,17, ,
-18, ,17, ,
-25, ,17, ,
-31, ,17, ,
-35, ,17, ,
-39, ,17, ,
-51, ,17, ,
-55, ,17, ,
-62, ,17, ,
-70, ,17, ,
-92, ,17, ,
-105, ,17, ,
-119, ,17, ,
-126, ,17, ,
-126, ,17, ,
-126, ,17, ,
-126, ,17, ,
-126, ,17, ,
-126, ,17, ,
-126, ,17, ,
-126, ,17, ,
-126, ,17, ,
-126, ,17, ,
-126, ,17, ,
-123, ,17, ,
-105, ,17, ,
-64, ,17, ,
-45, ,17, ,
-29, ,17, ,
-14, ,17, ,
6, ,17, ,
11, ,17, ,
15, ,17, ,
18, ,17, ,
16, ,17, ,
16, ,17, ,
15, ,17, ,
15, ,17, ,
17, ,17, ,
18, ,17, ,
22, ,17, ,
25, ,17, ,
31, ,17, ,
32, ,17, ,
31, ,17, ,
31, ,17, ,
22, ,17, ,
14, ,18, ,
3, ,17, ,
-7, ,17, ,
-35, ,17, ,
-48, ,17, ,
-63, ,17, ,
-76, ,17, ,
-97, ,17, ,
-104, ,17, ,
-108, ,17, ,
-109, ,17, ,
-103, ,17, ,
-95, ,17, ,
-86, ,17, ,
-73, ,17, ,
-42, ,17, ,
-29, ,17, ,
-10, ,17, ,
5, ,17, ,
40, ,17, ,
56, ,17, ,
73, ,17, ,
88, ,17, ,
109, ,17, ,
116, ,17, ,
124, ,18, ,
125, ,17, ,
125, ,17, ,
125, ,17, ,
125, ,17, ,
125, ,17, ,
124, ,17, ,
121, ,17, ,
119, ,17, ,
116, ,17, ,
108, ,17, ,
105, ,17, ,
103, ,17, ,
98, ,17, ,
93, ,17, ,
91, ,17, ,
88, ,17, ,
85, ,17, ,
81, ,17, ,
79, ,17, ,
75, ,17, ,
74, ,17, ,
71, ,17, ,
68, ,17, ,
66, ,17, ,
63, ,17, ,
59, ,17, ,
56, ,17, ,
55, ,17, ,
53, ,17, ,
49, ,17, ,
47, ,17, ,
46, ,17, ,
43, ,17, ,
41, ,17, ,
39, ,18, ,
36, ,17, ,
36, ,17, ,
35, ,17, ,
32, ,17, ,
32, ,17, ,
30, ,17, ,
28, ,17, ,
27, ,17, ,
25, ,17, ,
25, ,17, ,
23, ,17, ,
22, ,17, ,
22, ,17, ,
16, ,17, ,
-32, ,17, ,
-110, ,17, ,
-126, ,17, ,
-126, ,17, ,
-126, ,18, ,
-126, ,17, ,
-126, ,17, ,
-126, ,17, ,
-126, ,17, ,
-126, ,17, ,
-126, ,17, ,
-126, ,17, ,
-126, ,17, ,
-126, ,17, ,
-126, ,17, ,
-126, ,17, ,
-126, ,17, ,
-126, ,17, ,
-126, ,17, ,
-126, ,17, ,
-126, ,17, ,
-126, ,17, ,
-126, ,17, ,
-126, ,17, ,
-126, ,17, ,
-126, ,17, ,
-126, ,17, ,
-126, ,17, ,
-126, ,17, ,
-126, ,17, ,
-126, ,17, ,
-126, ,17, ,
-125, ,17, ,
-106, ,17, ,
-87, ,17, ,
-73, ,17, ,
-69, ,17, ,
-72, ,17, ,
-68, ,17, ,
-62, ,17, ,
-37, ,17, ,
-18, ,17, ,
1, ,17, ,
20, ,17, ,
58, ,17, ,
77, ,17, ,
92, ,17, ,
102, ,17, ,
111, ,17, ,
110, ,17, ,
104, ,17, ,
97, ,17, ,
69, ,17, ,
52, ,17, ,
35, ,17, ,
18, ,17, ,
-19, ,17, ,
-34, ,17, ,
-47, ,17, ,
-60, ,17, ,
-82, ,17, ,
-91, ,17, ,
-95, ,17, ,
-101, ,17, ,
-104, ,17, ,
-103, ,17, ,
-102, ,17, ,
-98, ,17, ,
-93, ,17, ,
-88, ,17, ,
-83, ,17, ,
-78, ,17, ,
-57, ,17, ,
-42, ,18, ,
-26, ,17, ,
-11, ,17, ,
14, ,17, ,
23, ,17, ,
31, ,17, ,
37, ,17, ,
44, ,17, ,
46, ,18, ,
41, ,17, ,
41, ,17, ,
31, ,17, ,
22, ,17, ,
16, ,17, ,
8, ,17, ,
-6, ,17, ,
-13, ,17, ,
-16, ,17, ,
-20, ,17, ,
-21, ,17, ,
-22, ,17, ,
-20, ,17, ,
-19, ,17, ,
-9, ,17, ,
-3, ,17, ,
3, ,17, ,
10, ,17, ,
25, ,17, ,
32, ,17, ,
41, ,17, ,
51, ,17, ,
71, ,17, ,
82, ,17, ,
92, ,17, ,
103, ,17, ,
122, ,17, ,
125, ,17, ,
125, ,17, ,
125, ,17, ,
125, ,17, ,
125, ,18, ,
125, ,17, ,
125, ,17, ,
125, ,17, ,
125, ,17, ,
125, ,17, ,
125, ,17, ,
125, ,17, ,
125, ,17, ,
125, ,17, ,
125, ,17, ,
124, ,17, ,
119, ,17, ,
110, ,17, ,
103, ,17, ,
88, ,17, ,
81, ,17, ,
75, ,17, ,
71, ,17, ,
65, ,17, ,
64, ,17, ,
65, ,17, ,
64, ,17, ,
67, ,17, ,
72, ,17, ,
74, ,17, ,
80, ,17, ,
89, ,17, ,
94, ,17, ,
99, ,17, ,
104, ,17, ,
116, ,17, ,
121, ,17, ,
125, ,17, ,
125, ,17, ,
125, ,17, ,
125, ,17, ,
125, ,17, ,
125, ,17, ,
125, ,17, ,
125, ,17, ,
125, ,17, ,
125, ,17, ,
125, ,17, ,
125, ,17, ,
125, ,17, ,
124, ,17, ,
111, ,17, ,
101, ,17, ,
85, ,17, ,
73, ,17, ,
46, ,17, ,
31, ,17, ,
18, ,17, ,
2, ,17, ,
-26, ,17, ,
-35, ,17, ,
-47, ,17, ,
-57, ,17, ,
-77, ,17, ,
-86, ,17, ,
-92, ,17, ,
-99, ,17, ,
-108, ,17, ,
-108, ,17, ,
-111, ,17, ,
-111, ,17, ,
-111, ,17, ,
-111, ,17, ,
-107, ,17, ,
-105, ,17, ,
-99, ,17, ,
-94, ,17, ,
-92, ,17, ,
-86, ,17, ,
-76, ,17, ,
-73, ,17, ,
-68, ,17, ,
-64, ,17, ,
-54, ,17, ,
-49, ,18, ,
-47, ,17, ,
-42, ,17, ,
-35, ,17, ,
-33, ,17, ,
-30, ,17, ,
-26, ,17, ,
-22, ,17, ,
-19, ,17, ,
-18, ,17, ,
-15, ,17, ,
-10, ,17, ,
-9, ,17, ,
-5, ,17, ,
-4, ,17, ,
4, ,17, ,
8, ,17, ,
11, ,17, ,
16, ,17, ,
24, ,17, ,
27, ,17, ,
34, ,17, ,
37, ,17, ,
42, ,17, ,
49, ,17, ,
50, ,17, ,
55, ,17, ,
59, ,17, ,
62, ,17, ,
64, ,17, ,
65, ,17, ,
68, ,17, ,
70, ,17, ,
69, ,17, ,
71, ,17, ,
72, ,17, ,
70, ,17, ,
71, ,17, ,
70, ,17, ,
68, ,17, ,
68, ,17, ,
64, ,17, ,
64, ,17, ,
60, ,17, ,
56, ,17, ,
56, ,17, ,
52, ,17, ,
49, ,17, ,
49, ,17, ,
47, ,17, ,
47, ,17, ,
46, ,17, ,
45, ,17, ,
47, ,17, ,
47, ,17, ,
47, ,17, ,
49, ,17, ,
49, ,17, ,
52, ,17, ,
54, ,17, ,
54, ,17, ,
56, ,17, ,
57, ,17, ,
59, ,17, ,
59, ,17, ,
58, ,17, ,
59, ,17, ,
57, ,17, ,
54, ,17, ,
55, ,17, ,
52, ,17, ,
48, ,17, ,
47, ,17, ,
44, ,17, ,
41, ,17, ,
36, ,17, ,
32, ,17, ,
28, ,17, ,
25, ,17, ,
20, ,17, ,
18, ,17, ,
13, ,17, ,
12, ,17, ,
5, ,17, ,
2, ,17, ,
0, ,17, ,
-3, ,17, ,
-8, ,17, ,
-10, ,17, ,
-14, ,17, ,
-15, ,17, ,
-20, ,17, ,
-21, ,17, ,
-21, ,17, ,
-24, ,17, ,
-24, ,17, ,
-24, ,17, ,
-25, ,17, ,
-24, ,17, ,
-23, ,17, ,
-22, ,17, ,
-20, ,17, ,
-19, ,17, ,
-17, ,17, ,
-14, ,17, ,
-13, ,17, ,
-10, ,17, ,
-7, ,17, ,
-7, ,17, ,
-6, ,17, ,
-6, ,17, ,
-8, ,17, ,
-7, ,17, ,
-11, ,17, ,
-11, ,17, ,
-16, ,17, ,
-20, ,17, ,
-23, ,17, ,
-29, ,17, ,
-38, ,17, ,
-43, ,17, ,
-49, ,17, ,
-57, ,17, ,
-72, ,17, ,
-80, ,17, ,
-89, ,17, ,
-98, ,17, ,
-113, ,17, ,
-121, ,17, ,
-126, ,17, ,
-126, ,17, ,
-126, ,17, ,
-126, ,17, ,
-126, ,17, ,
-126, ,17, ,
-126, ,17, ,
-126, ,17, ,
-126, ,17, ,
-126, ,17, ,
-126, ,17, ,
-126, ,17, ,
-126, ,17, ,
-126, ,17, ,
-126, ,17, ,
-126, ,17, ,
-126, ,17, ,
-126, ,17, ,
-126, ,17, ,
-126, ,17, ,
-126, ,17, ,
-126, ,17, ,
-126, ,17, ,
-126, ,17, ,
-126, ,17, ,
-126, ,17, ,
-126, ,17, ,
-126, ,17, ,
-126, ,17, ,
-126, ,17, ,
-126, ,17, ,
-126, ,17, ,
-124, ,17, ,
-117, ,17, ,
-108, ,17, ,
-105, ,17, ,
-98, ,17, ,
-96, ,17, ,
-88, ,17, ,
-84, ,17, ,
-81, ,17, ,
-76, ,17, ,
-69, ,17, ,
-65, ,17, ,
-63, ,17, ,
-60, ,17, ,
-56, ,17, ,
-51, ,17, ,
-51, ,17, ,
-48, ,17, ,
-42, ,17, ,
-41, ,17, ,
-37, ,17, ,
-35, ,17, ,
16, ,17, ,
101, ,17, ,
125, ,17, ,
125, ,17, ,
125, ,17, ,
125, ,17, ,
125, ,17, ,
125, ,17, ,
125, ,17, ,
125, ,17, ,
125, ,17, ,
125, ,17, ,
125, ,17, ,
125, ,17, ,
125, ,17, ,
125, ,17, ,
125, ,17, ,
125, ,17, ,
125, ,17, ,
125, ,17, ,
125, ,17, ,
125, ,17, ,
125, ,17, ,
125, ,17, ,
125, ,17, ,
125, ,17, ,
125, ,17, ,
125, ,17, ,
125, ,17, ,
125, ,17, ,
125, ,17, ,
125, ,17, ,
125, ,17, ,
124, ,17, ,
123, ,17, ,
109, ,18, ,
72, ,18, ,
53, ,17, ,
36, ,17, ,
20, ,17, ,
-6, ,17, ,
-14, ,17, ,
-25, ,17, ,
-33, ,17, ,
-41, ,17, ,
-45, ,17, ,
-45, ,17, ,
-47, ,17, ,
-44, ,17, ,
-41, ,17, ,
-40, ,17, ,
-35, ,17, ,
-31, ,17, ,
-26, ,17, ,
-22, ,17, ,
-20, ,17, ,
-14, ,17, ,
-9, ,17, ,
-7, ,17, ,
-5, ,17, ,
-1, ,17, ,
-2, ,17, ,
-1, ,17, ,
-2, ,17, ,
-4, ,17, ,
-3, ,17, ,
-7, ,17, ,
-8, ,17, ,
-11, ,17, ,
-14, ,17, ,
-14, ,18, ,
-16, ,17, ,
-18, ,17, ,
-19, ,18, ,
-20, ,17, ,
-20, ,17, ,
-21, ,17, ,
-23, ,17, ,
-23, ,17, ,
-25, ,17, ,
-28, ,17, ,
-31, ,17, ,
-33, ,17, ,
-35, ,17, ,
-42, ,17, ,
-46, ,17, ,
-51, ,17, ,
-55, ,17, ,
-64, ,17, ,
-68, ,17, ,
-72, ,17, ,
-77, ,18, ,
-82, ,18, ,
-87, ,17, ,
-89, ,17, ,
-89, ,17, ,
-92, ,17, ,
-91, ,17, ,
-91, ,17, ,
-88, ,17, ,
-86, ,17, ,
-83, ,17, ,
-80, ,17, ,
-78, ,17, ,
-69, ,17, ,
-64, ,17, ,
-61, ,17, ,
-56, ,17, ,
-49, ,17, ,
-48, ,17, ,
-44, ,17, ,
-41, ,17, ,
-39, ,17, ,
-37, ,17, ,
-36, ,17, ,
-36, ,17, ,
-35, ,17, ,
-37, ,17, ,
-37, ,17, ,
-39, ,17, ,
-40, ,17, ,
-41, ,17, ,
-44, ,17, ,
-44, ,17, ,
-46, ,17, ,
-49, ,17, ,
-49, ,17, ,
-51, ,17, ,
-52, ,17, ,
-52, ,17, ,
-51, ,17, ,
-50, ,17, ,
-49, ,17, ,
-47, ,17, ,
-46, ,17, ,
-44, ,17, ,
-39, ,17, ,
-35, ,17, ,
-34, ,17, ,
-31, ,17, ,
-23, ,17, ,
-22, ,17, ,
-17, ,17, ,
-14, ,17, ,
-9, ,17, ,
-7, ,17, ,
-5, ,17, ,
-3, ,17, ,
-2, ,17, ,
-2, ,17, ,
-1, ,17, ,
-5, ,17, ,
-10, ,17, ,
-11, ,17, ,
-15, ,17, ,
-18, ,17, ,
-26, ,18, ,
-31, ,17, ,
-35, ,17, ,
-40, ,17, ,
-53, ,17, ,
-56, ,17, ,
-62, ,17, ,
-67, ,17, ,
-77, ,17, ,
-82, ,17, ,
-84, ,17, ,
-89, ,17, ,
-95, ,17, ,
-96, ,17, ,
-99, ,17, ,
-99, ,17, ,
-99, ,17, ,
-99, ,17, ,
-97, ,17, ,
-95, ,17, ,
-93, ,17, ,
-88, ,17, ,
-84, ,17, ,
-81, ,17, ,
-73, ,17, ,
-68, ,17, ,
-64, ,18, ,
-60, ,17, ,
-51, ,17, ,
-45, ,17, ,
-41, ,17, ,
-38, ,17, ,
-31, ,17, ,
-28, ,17, ,
-24, ,17, ,
-21, ,17, ,
-15, ,17, ,
-14, ,17, ,
-10, ,17, ,
-9, ,18, ,
-5, ,18, ,
-5, ,17, ,
-3, ,17, ,
-3, ,17, ,
0, ,17, ,
3, ,17, ,
3, ,17, ,
5, ,17, ,
8, ,17, ,
10, ,17, ,
11, ,17, ,
13, ,17, ,
15, ,17, ,
18, ,17, ,
17, ,17, ,
21, ,17, ,
23, ,17, ,
23, ,17, ,
26, ,17, ,
26, ,17, ,
30, ,17, ,
31, ,17, ,
31, ,17, ,
34, ,17, ,
35, ,17, ,
35, ,17, ,
36, ,17, ,
35, ,17, ,
37, ,17, ,
37, ,17, ,
36, ,17, ,
36, ,17, ,
35, ,17, ,
34, ,17, ,
35, ,17, ,
32, ,17, ,
30, ,17, ,
29, ,17, ,
28, ,17, ,
28, ,17, ,
24, ,17, ,
22, ,17, ,
21, ,17, ,
20, ,17, ,
15, ,17, ,
15, ,17, ,
13, ,17, ,
12, ,17, ,
8, ,17, ,
7, ,17, ,
6, ,17, ,
2, ,17, ,
0, ,17, ,
0, ,17, ,
-2, ,17, ,
-3, ,17, ,
-5, ,17, ,
-6, ,17, ,
-6, ,17, ,
-6, ,17, ,
-8, ,17, ,
-7, ,17, ,
-8, ,17, ,
-8, ,17, ,
-7, ,17, ,
-7, ,17, ,
-6, ,17, ,
-8, ,17, ,
-6, ,17, ,
-5, ,18, ,
-5, ,18, ,
-4, ,17, ,
-2, ,17, ,
-4, ,17, ,
-1, ,17, ,
-1, ,17, ,
0, ,17, ,
2, ,17, ,
1, ,17, ,
2, ,17, ,
3, ,17, ,
2, ,17, ,
3, ,18, ,
2, ,17, ,
1, ,17, ,
2, ,17, ,
1, ,17, ,
1, ,17, ,
0, ,17, ,
0, ,17, ,
0, ,17, ,
-1, ,18, ,
-2, ,17, ,
-3, ,17, ,
-4, ,17, ,
-5, ,17, ,
-6, ,17, ,
-6, ,17, ,
-7, ,17, ,
-9, ,17, ,
-9, ,17, ,
-9, ,17, ,
-9, ,17, ,
-9, ,17, ,
-8, ,17, ,
-8, ,17, ,
-7, ,17, ,
-7, ,17, ,
-4, ,17, ,
0, ,17, ,
1, ,17, ,
3, ,17, ,
8, ,17, ,
12, ,17, ,
18, ,17, ,
18, ,17, ,
26, ,17, ,
34, ,17, ,
35, ,17, ,
42, ,17, ,
54, ,17, ,
59, ,17, ,
65, ,17, ,
71, ,17, ,
84, ,17, ,
92, ,17, ,
99, ,17, ,
106, ,17, ,
120, ,17, ,
125, ,17, ,
125, ,17, ,
125, ,17, ,
125, ,17, ,
125, ,17, ,
125, ,17, ,
125, ,17, ,
125, ,17, ,
125, ,17, ,
125, ,17, ,
125, ,17, ,
125, ,17, ,
125, ,17, ,
125, ,17, ,
125, ,17, ,
125, ,17, ,
125, ,17, ,
125, ,17, ,
125, ,17, ,
125, ,17, ,
125, ,17, ,
125, ,17, ,
125, ,17, ,
125, ,17, ,
125, ,17, ,
125, ,17, ,
125, ,17, ,
124, ,17, ,
124, ,17, ,
117, ,17, ,
106, ,17, ,
79, ,17, ,
62, ,17, ,
44, ,17, ,
23, ,17, ,
-22, ,17, ,
-46, ,17, ,
-77, ,17, ,
-102, ,17, ,
-126, ,17, ,
-126, ,17, ,
-126, ,17, ,
-126, ,18, ,
-126, ,17, ,
-126, ,17, ,
-126, ,17, ,
-126, ,17, ,
-126, ,17, ,
-126, ,17, ,
-126, ,17, ,
-126, ,17, ,
-126, ,17, ,
-126, ,17, ,
-126, ,17, ,
-126, ,17, ,
-126, ,18, ,
-126, ,17, ,
-126, ,17, ,
-126, ,17, ,
-126, ,17, ,
-126, ,17, ,
-126, ,17, ,
-126, ,17, ,
-126, ,17, ,
-126, ,17, ,
-126, ,17, ,
-126, ,17, ,
-126, ,17, ,
-126, ,17, ,
-126, ,17, ,
-126, ,17, ,
-126, ,17, ,
-126, ,17, ,
-125, ,17, ,
-119, ,17, ,
-110, ,17, ,
-105, ,17, ,
-101, ,17, ,
-96, ,17, ,
-88, ,17, ,
-85, ,17, ,
-80, ,17, ,
-76, ,17, ,
-71, ,17, ,
-66, ,18, ,
-65, ,17, ,
-61, ,17, ,
-53, ,17, ,
-45, ,17, ,
-17, ,17, ,
56, ,17, ,
125, ,17, ,
125, ,17, ,
125, ,17, ,
125, ,17, ,
125, ,17, ,
125, ,17, ,
125, ,17, ,
125, ,17, ,
125, ,17, ,
125, ,17, ,
125, ,17, ,
125, ,17, ,
125, ,18, ,
125, ,17, ,
125, ,17, ,
125, ,17, ,
125, ,17, ,
125, ,17, ,
125, ,17, ,
124, ,17, ,
110, ,17, ,
84, ,17, ,
60, ,17, ,
35, ,17, ,
-7, ,17, ,
-27, ,18, ,
-45, ,17, ,
-61, ,17, ,
-91, ,17, ,
-105, ,17, ,
-113, ,17, ,
-124, ,17, ,
-126, ,17, ,
-126, ,17, ,
-126, ,17, ,
-126, ,17, ,
-126, ,17, ,
-126, ,17, ,
-126, ,17, ,
-126, ,17, ,
-117, ,17, ,
-106, ,17, ,
-98, ,17, ,
-85, ,17, ,
-62, ,18, ,
-50, ,17, ,
-37, ,17, ,
-25, ,17, ,
-2, ,17, ,
9, ,17, ,
21, ,17, ,
30, ,17, ,
48, ,17, ,
55, ,17, ,
63, ,17, ,
67, ,17, ,
78, ,17, ,
82, ,17, ,
83, ,17, ,
84, ,17, ,
83, ,17, ,
80, ,17, ,
79, ,17, ,
77, ,17, ,
69, ,17, ,
66, ,17, ,
59, ,17, ,
57, ,17, ,
47, ,17, ,
43, ,17, ,
38, ,18, ,
34, ,17, ,
29, ,17, ,
25, ,17, ,
21, ,17, ,
20, ,17, ,
14, ,17, ,
11, ,17, ,
10, ,17, ,
7, ,17, ,
3, ,17, ,
1, ,17, ,
0, ,17, ,
-3, ,17, ,
-7, ,17, ,
-11, ,17, ,
-12, ,17, ,
-16, ,17, ,
-20, ,17, ,
-23, ,17, ,
-26, ,17, ,
-28, ,17, ,
-34, ,17, ,
-36, ,17, ,
-39, ,17, ,
-43, ,17, ,
-49, ,17, ,
-51, ,17, ,
-55, ,17, ,
-56, ,17, ,
-62, ,17, ,
-65, ,17, ,
-65, ,17, ,
-70, ,17, ,
-74, ,17, ,
-76, ,17, ,
-77, ,17, ,
-81, ,17, ,
-84, ,17, ,
-85, ,17, ,
-84, ,17, ,
-86, ,17, ,
-86, ,17, ,
-86, ,17, ,
-86, ,17, ,
-85, ,17, ,
-84, ,17, ,
-83, ,17, ,
-82, ,17, ,
-81, ,18, ,
-78, ,17, ,
-77, ,17, ,
-76, ,17, ,
-72, ,17, ,
-70, ,18, ,
-69, ,17, ,
-67, ,17, ,
-66, ,17, ,
-63, ,17, ,
-60, ,17, ,
-58, ,17, ,
-59, ,17, ,
-53, ,17, ,
-53, ,17, ,
-50, ,17, ,
-50, ,17, ,
-47, ,17, ,
-43, ,17, ,
-42, ,17, ,
-39, ,17, ,
-35, ,17, ,
-34, ,17, ,
-31, ,17, ,
-30, ,17, ,
-24, ,17, ,
-20, ,17, ,
-17, ,17, ,
-13, ,17, ,
-5, ,17, ,
-3, ,17, ,
1, ,18, ,
3, ,17, ,
11, ,17, ,
16, ,17, ,
18, ,17, ,
22, ,17, ,
31, ,17, ,
31, ,17, ,
35, ,17, ,
38, ,17, ,
43, ,17, ,
47, ,17, ,
49, ,17, ,
52, ,17, ,
55, ,17, ,
56, ,17, ,
58, ,17, ,
57, ,18, ,
60, ,18, ,
60, ,18, ,
60, ,17, ,
60, ,17, ,
59, ,17, ,
58, ,17, ,
57, ,17, ,
56, ,18, ,
52, ,17, ,
51, ,17, ,
49, ,17, ,
48, ,17, ,
44, ,17, ,
43, ,17, ,
39, ,18, ,
37, ,17, ,
35, ,17, ,
32, ,17, ,
29, ,17, ,
29, ,17, ,
23, ,17, ,
21, ,17, ,
19, ,17, ,
16, ,17, ,
12, ,17, ,
11, ,17, ,
10, ,17, ,
9, ,17, ,
5, ,17, ,
3, ,17, ,
2, ,17, ,
-1, ,17, ,
-4, ,17, ,
-5, ,17, ,
-7, ,17, ,
-8, ,17, ,
-10, ,17, ,
-12, ,17, ,
-13, ,17, ,
-13, ,17, ,
-17, ,17, ,
-16, ,17, ,
-19, ,17, ,
-18, ,17, ,
-20, ,17, ,
-21, ,17, ,
-20, ,17, ,
-24, ,17, ,
-25, ,17, ,
-25, ,17, ,
-26, ,17, ,
-26, ,17, ,
-28, ,17, ,
-30, ,17, ,
-31, ,17, ,
-33, ,17, ,
-35, ,17, ,
-35, ,17, ,
-37, ,17, ,
-38, ,17, ,
-42, ,17, ,
-44, ,17, ,
-44, ,17, ,
-48, ,17, ,
-52, ,17, ,
-55, ,17, ,
-59, ,17, ,
-59, ,17, ,
-64, ,17, ,
-67, ,17, ,
-69, ,17, ,
-70, ,17, ,
-74, ,17, ,
-75, ,17, ,
-78, ,17, ,
-79, ,17, ,
-80, ,17, ,
-83, ,17, ,
-84, ,17, ,
-86, ,17, ,
-87, ,17, ,
-87, ,17, ,
-89, ,17, ,
-89, ,17, ,
-88, ,17, ,
-89, ,17, ,
-88, ,17, ,
-87, ,17, ,
-86, ,17, ,
-85, ,17, ,
-85, ,17, ,
-82, ,17, ,
-80, ,17, ,
-78, ,17, ,
-77, ,18, ,
-76, ,17, ,
-69, ,17, ,
-67, ,17, ,
-64, ,17, ,
-63, ,17, ,
-55, ,17, ,
-54, ,17, ,
-49, ,17, ,
-46, ,18, ,
-38, ,17, ,
-32, ,17, ,
-29, ,17, ,
-23, ,17, ,
-12, ,17, ,
-7, ,17, ,
0, ,17, ,
5, ,17, ,
20, ,17, ,
26, ,17, ,
33, ,17, ,
40, ,17, ,
57, ,17, ,
65, ,17, ,
74, ,17, ,
82, ,17, ,
101, ,17, ,
109, ,17, ,
119, ,17, ,
125, ,17, ,
125, ,17, ,
125, ,17, ,
