raw_data/100% Glycerol, Impulsion 2Hz, Sonde 5MHz, Rampe 0.7Hz/temp0000269.CSV

Format,1.0B,
Memory Length,10000,Memory Length,10000,
IntpDistance,0,IntpDistance,0,
Trigger Address,159,Trigger Address,159,
Trigger Level,2.720E-01,Trigger Level,2.720E-01,
Source,CH1,Source,CH2,
Vertical Units,V,Vertical Units,V,
Vertical Units Div,0,Vertical Units Div,0,
Vertical Units Extend Div,16,Vertical Units Extend Div,16,
Label,,Label,,
Probe Type,0,Probe Type,0,
Probe Ratio,1.000e+00,Probe Ratio,1.000e+00,
Vertical Scale,2.000e-01,Vertical Scale,2.000e+00,
Vertical Position,0.000e+00,Vertical Position,0.000e+00,
Horizontal Units,S,Horizontal Units,S,
Horizontal Scale,5.000E-06,Horizontal Scale,5.000E-06,
Horizontal Position,2.420E-05,Horizontal Position,2.420E-05,
Horizontal Mode,Main,Horizontal Mode,Main,
SincET Mode,Real Time,SincET Mode,Real Time,
Sampling Period,5.000e-09,Sampling Period,5.000e-09,
Horizontal Old Scale,5.000E-06,Horizontal Old Scale,5.000E-06,
Horizontal Old Position,2.420E-05,Horizontal Old Position,2.420E-05,
Firmware,V1.32,Firmware,V1.32,
Mode,Fast,Mode,Fast,
Waveform Data,,Waveform Data,,
2, ,42, ,
1, ,42, ,
3, ,42, ,
3, ,42, ,
2, ,42, ,
2, ,42, ,
0, ,42, ,
2, ,42, ,
2, ,42, ,
1, ,42, ,
3, ,42, ,
2, ,42, ,
2, ,42, ,
2, ,42, ,
1, ,42, ,
2, ,42, ,
1, ,42, ,
2, ,42, ,
1, ,42, ,
2, ,42, ,
1, ,42, ,
2, ,42, ,
1, ,42, ,
1, ,42, ,
3, ,42, ,
3, ,42, ,
2, ,42, ,
2, ,42, ,
2, ,42, ,
2, ,42, ,
1, ,42, ,
2, ,42, ,
2, ,42, ,
1, ,42, ,
2, ,42, ,
3, ,42, ,
2, ,42, ,
2, ,42, ,
2, ,42, ,
1, ,42, ,
1, ,42, ,
1, ,42, ,
2, ,42, ,
3, ,42, ,
1, ,42, ,
1, ,42, ,
2, ,42, ,
2, ,42, ,
2, ,42, ,
2, ,42, ,
2, ,42, ,
2, ,42, ,
2, ,42, ,
2, ,42, ,
1, ,42, ,
0, ,42, ,
1, ,42, ,
2, ,42, ,
2, ,42, ,
3, ,42, ,
2, ,42, ,
2, ,42, ,
1, ,42, ,
2, ,42, ,
2, ,42, ,
2, ,42, ,
2, ,42, ,
2, ,42, ,
1, ,42, ,
3, ,42, ,
2, ,42, ,
0, ,42, ,
2, ,42, ,
1, ,42, ,
2, ,42, ,
2, ,42, ,
2, ,42, ,
2, ,42, ,
1, ,42, ,
1, ,42, ,
3, ,42, ,
2, ,42, ,
2, ,42, ,
2, ,42, ,
2, ,42, ,
2, ,42, ,
2, ,42, ,
1, ,42, ,
2, ,42, ,
2, ,42, ,
2, ,42, ,
2, ,42, ,
1, ,42, ,
2, ,42, ,
1, ,42, ,
3, ,42, ,
2, ,42, ,
2, ,42, ,
2, ,42, ,
2, ,42, ,
2, ,42, ,
2, ,42, ,
2, ,42, ,
1, ,42, ,
3, ,42, ,
2, ,42, ,
2, ,42, ,
3, ,42, ,
2, ,42, ,
2, ,42, ,
2, ,42, ,
2, ,42, ,
2, ,42, ,
2, ,42, ,
3, ,42, ,
3, ,42, ,
1, ,42, ,
4, ,42, ,
2, ,42, ,
1, ,42, ,
3, ,42, ,
1, ,42, ,
2, ,42, ,
2, ,42, ,
2, ,42, ,
1, ,42, ,
1, ,42, ,
2, ,42, ,
2, ,42, ,
1, ,42, ,
2, ,42, ,
1, ,42, ,
1, ,42, ,
2, ,42, ,
2, ,42, ,
1, ,42, ,
2, ,42, ,
2, ,42, ,
2, ,42, ,
2, ,42, ,
1, ,42, ,
2, ,42, ,
1, ,42, ,
2, ,42, ,
2, ,42, ,
1, ,42, ,
3, ,42, ,
3, ,42, ,
2, ,42, ,
2, ,42, ,
2, ,42, ,
2, ,42, ,
2, ,42, ,
2, ,42, ,
2, ,42, ,
2, ,42, ,
2, ,42, ,
2, ,42, ,
2, ,42, ,
1, ,42, ,
2, ,42, ,
2, ,42, ,
3, ,42, ,
7, ,42, ,
0, ,42, ,
2, ,42, ,
-1, ,42, ,
34, ,42, ,
98, ,42, ,
125, ,42, ,
125, ,42, ,
125, ,42, ,
121, ,42, ,
116, ,42, ,
2, ,42, ,
103, ,42, ,
125, ,42, ,
125, ,42, ,
125, ,42, ,
125, ,42, ,
125, ,42, ,
125, ,42, ,
125, ,42, ,
125, ,42, ,
125, ,42, ,
125, ,42, ,
125, ,42, ,
125, ,42, ,
125, ,42, ,
125, ,42, ,
125, ,42, ,
125, ,42, ,
125, ,42, ,
125, ,42, ,
125, ,42, ,
125, ,42, ,
125, ,42, ,
125, ,42, ,
125, ,42, ,
125, ,42, ,
125, ,42, ,
125, ,42, ,
124, ,42, ,
120, ,42, ,
115, ,42, ,
111, ,42, ,
104, ,42, ,
97, ,42, ,
94, ,42, ,
89, ,42, ,
86, ,42, ,
79, ,42, ,
75, ,42, ,
71, ,42, ,
67, ,42, ,
60, ,42, ,
59, ,42, ,
57, ,42, ,
54, ,42, ,
49, ,42, ,
48, ,42, ,
44, ,42, ,
41, ,42, ,
38, ,42, ,
36, ,42, ,
35, ,42, ,
34, ,42, ,
32, ,42, ,
28, ,42, ,
26, ,42, ,
25, ,42, ,
22, ,42, ,
22, ,42, ,
20, ,42, ,
20, ,42, ,
17, ,42, ,
16, ,42, ,
15, ,42, ,
14, ,42, ,
12, ,42, ,
13, ,42, ,
10, ,42, ,
10, ,42, ,
9, ,42, ,
8, ,42, ,
8, ,42, ,
6, ,42, ,
5, ,42, ,
5, ,42, ,
4, ,42, ,
4, ,42, ,
4, ,42, ,
3, ,42, ,
3, ,42, ,
2, ,42, ,
1, ,42, ,
2, ,42, ,
1, ,42, ,
1, ,42, ,
0, ,42, ,
0, ,42, ,
0, ,42, ,
0, ,42, ,
0, ,42, ,
0, ,42, ,
-1, ,42, ,
-1, ,42, ,
-1, ,42, ,
-1, ,42, ,
-2, ,42, ,
-2, ,42, ,
-2, ,42, ,
-1, ,42, ,
-2, ,42, ,
-1, ,42, ,
-2, ,42, ,
-2, ,42, ,
-2, ,42, ,
-2, ,42, ,
-3, ,42, ,
-3, ,42, ,
-3, ,42, ,
-3, ,42, ,
-2, ,42, ,
-2, ,42, ,
-2, ,42, ,
-3, ,42, ,
-3, ,42, ,
-3, ,42, ,
-4, ,42, ,
-3, ,42, ,
-2, ,42, ,
-3, ,42, ,
-2, ,42, ,
-3, ,42, ,
-3, ,42, ,
-3, ,42, ,
-2, ,42, ,
-2, ,42, ,
-2, ,42, ,
-2, ,42, ,
-2, ,42, ,
-2, ,42, ,
-2, ,42, ,
-2, ,42, ,
-2, ,42, ,
-2, ,42, ,
-1, ,42, ,
-2, ,42, ,
-1, ,42, ,
-1, ,42, ,
-1, ,42, ,
-1, ,42, ,
-2, ,42, ,
-1, ,42, ,
-2, ,42, ,
-1, ,42, ,
-1, ,42, ,
-2, ,42, ,
-1, ,42, ,
-1, ,42, ,
-1, ,42, ,
0, ,42, ,
0, ,42, ,
0, ,42, ,
0, ,42, ,
0, ,42, ,
-1, ,42, ,
0, ,42, ,
0, ,42, ,
0, ,42, ,
0, ,42, ,
-1, ,42, ,
1, ,42, ,
-1, ,42, ,
0, ,42, ,
0, ,42, ,
0, ,42, ,
1, ,42, ,
1, ,42, ,
0, ,42, ,
0, ,42, ,
-1, ,42, ,
1, ,42, ,
1, ,42, ,
1, ,42, ,
1, ,42, ,
1, ,42, ,
0, ,42, ,
0, ,42, ,
0, ,42, ,
1, ,42, ,
1, ,42, ,
1, ,42, ,
1, ,42, ,
0, ,42, ,
0, ,42, ,
0, ,42, ,
0, ,42, ,
1, ,42, ,
1, ,42, ,
1, ,42, ,
1, ,42, ,
1, ,42, ,
1, ,42, ,
1, ,42, ,
0, ,42, ,
0, ,42, ,
1, ,42, ,
0, ,42, ,
2, ,42, ,
2, ,42, ,
1, ,42, ,
1, ,42, ,
1, ,42, ,
1, ,42, ,
1, ,42, ,
2, ,42, ,
1, ,42, ,
2, ,42, ,
1, ,42, ,
1, ,42, ,
1, ,42, ,
1, ,42, ,
1, ,42, ,
1, ,42, ,
1, ,42, ,
1, ,42, ,
1, ,42, ,
2, ,42, ,
1, ,42, ,
1, ,42, ,
1, ,42, ,
2, ,42, ,
2, ,42, ,
2, ,42, ,
0, ,42, ,
2, ,42, ,
2, ,42, ,
1, ,42, ,
1, ,42, ,
1, ,42, ,
1, ,42, ,
2, ,42, ,
1, ,42, ,
2, ,42, ,
1, ,42, ,
1, ,42, ,
3, ,42, ,
2, ,42, ,
2, ,42, ,
2, ,42, ,
2, ,42, ,
2, ,42, ,
1, ,42, ,
1, ,42, ,
1, ,42, ,
1, ,42, ,
2, ,42, ,
4, ,42, ,
2, ,42, ,
2, ,42, ,
1, ,42, ,
1, ,42, ,
1, ,42, ,
0, ,42, ,
0, ,42, ,
1, ,42, ,
0, ,42, ,
2, ,42, ,
1, ,42, ,
1, ,42, ,
2, ,42, ,
1, ,42, ,
2, ,42, ,
1, ,42, ,
1, ,42, ,
2, ,42, ,
1, ,42, ,
1, ,42, ,
1, ,42, ,
0, ,42, ,
0, ,42, ,
0, ,42, ,
-1, ,42, ,
0, ,42, ,
0, ,42, ,
0, ,42, ,
0, ,42, ,
-1, ,42, ,
-1, ,42, ,
-5, ,42, ,
-9, ,42, ,
-21, ,42, ,
-44, ,42, ,
-126, ,42, ,
-126, ,42, ,
-126, ,42, ,
-126, ,42, ,
-126, ,42, ,
-126, ,42, ,
-126, ,42, ,
-126, ,42, ,
-126, ,42, ,
-126, ,42, ,
-126, ,42, ,
-126, ,42, ,
-126, ,42, ,
-126, ,42, ,
-126, ,42, ,
-126, ,42, ,
-126, ,42, ,
-126, ,42, ,
-126, ,42, ,
-126, ,42, ,
-126, ,42, ,
-126, ,42, ,
-126, ,42, ,
-126, ,42, ,
-126, ,42, ,
-126, ,42, ,
-122, ,42, ,
-114, ,42, ,
125, ,42, ,
125, ,42, ,
125, ,42, ,
125, ,42, ,
125, ,42, ,
125, ,42, ,
125, ,42, ,
125, ,42, ,
125, ,42, ,
125, ,42, ,
125, ,42, ,
125, ,42, ,
125, ,42, ,
125, ,42, ,
125, ,42, ,
125, ,42, ,
125, ,42, ,
125, ,42, ,
125, ,42, ,
125, ,42, ,
125, ,42, ,
124, ,42, ,
124, ,42, ,
115, ,42, ,
114, ,42, ,
120, ,42, ,
125, ,42, ,
125, ,42, ,
125, ,42, ,
125, ,42, ,
125, ,42, ,
125, ,42, ,
124, ,42, ,
119, ,42, ,
118, ,42, ,
113, ,42, ,
107, ,42, ,
104, ,42, ,
101, ,42, ,
99, ,42, ,
91, ,42, ,
87, ,42, ,
86, ,42, ,
81, ,42, ,
75, ,42, ,
73, ,42, ,
69, ,42, ,
68, ,42, ,
63, ,42, ,
59, ,42, ,
57, ,42, ,
54, ,42, ,
49, ,42, ,
48, ,42, ,
43, ,42, ,
41, ,42, ,
35, ,42, ,
31, ,42, ,
29, ,42, ,
21, ,42, ,
13, ,42, ,
12, ,42, ,
7, ,42, ,
4, ,42, ,
0, ,42, ,
-3, ,42, ,
-3, ,42, ,
-5, ,42, ,
-9, ,42, ,
-10, ,42, ,
-11, ,42, ,
-11, ,42, ,
-14, ,42, ,
-14, ,42, ,
-13, ,42, ,
-14, ,42, ,
-10, ,42, ,
-7, ,42, ,
-5, ,42, ,
-2, ,42, ,
6, ,42, ,
6, ,42, ,
10, ,42, ,
11, ,42, ,
13, ,42, ,
17, ,42, ,
17, ,42, ,
19, ,42, ,
20, ,42, ,
18, ,42, ,
21, ,42, ,
20, ,42, ,
20, ,42, ,
20, ,42, ,
20, ,42, ,
20, ,42, ,
19, ,42, ,
19, ,42, ,
19, ,42, ,
18, ,42, ,
17, ,42, ,
17, ,42, ,
16, ,42, ,
16, ,42, ,
15, ,42, ,
15, ,42, ,
14, ,42, ,
13, ,42, ,
12, ,42, ,
12, ,42, ,
9, ,42, ,
9, ,42, ,
7, ,42, ,
4, ,42, ,
2, ,42, ,
-3, ,42, ,
-12, ,42, ,
-19, ,42, ,
-28, ,42, ,
-35, ,42, ,
-55, ,42, ,
-65, ,42, ,
-74, ,42, ,
-84, ,42, ,
-99, ,42, ,
-105, ,42, ,
-109, ,42, ,
-113, ,42, ,
-122, ,42, ,
-126, ,42, ,
-126, ,42, ,
-126, ,42, ,
-126, ,42, ,
-126, ,42, ,
-126, ,42, ,
-126, ,42, ,
-121, ,42, ,
-116, ,42, ,
-107, ,42, ,
-101, ,42, ,
-82, ,42, ,
-71, ,42, ,
-63, ,42, ,
-51, ,42, ,
-36, ,42, ,
-30, ,42, ,
-22, ,42, ,
-18, ,42, ,
-7, ,42, ,
-2, ,42, ,
2, ,42, ,
5, ,42, ,
13, ,42, ,
16, ,42, ,
18, ,42, ,
20, ,42, ,
24, ,42, ,
27, ,42, ,
28, ,42, ,
29, ,42, ,
29, ,42, ,
25, ,42, ,
25, ,42, ,
22, ,42, ,
13, ,42, ,
9, ,42, ,
1, ,42, ,
-5, ,42, ,
-21, ,42, ,
-32, ,42, ,
-41, ,42, ,
-52, ,42, ,
-72, ,42, ,
-80, ,42, ,
-89, ,42, ,
-95, ,42, ,
-105, ,42, ,
-112, ,42, ,
-115, ,42, ,
-118, ,42, ,
-121, ,42, ,
-121, ,42, ,
-124, ,42, ,
-124, ,42, ,
-126, ,42, ,
-126, ,42, ,
-126, ,42, ,
-126, ,42, ,
-126, ,42, ,
-126, ,42, ,
-126, ,42, ,
-126, ,42, ,
-126, ,42, ,
-126, ,42, ,
-126, ,42, ,
-126, ,42, ,
-126, ,42, ,
-126, ,42, ,
-126, ,42, ,
-126, ,42, ,
-126, ,42, ,
-126, ,42, ,
-126, ,42, ,
-126, ,42, ,
-126, ,42, ,
-126, ,42, ,
-126, ,42, ,
-126, ,42, ,
-126, ,42, ,
-126, ,42, ,
-125, ,42, ,
-117, ,42, ,
-97, ,42, ,
-85, ,42, ,
-75, ,42, ,
-62, ,42, ,
-40, ,42, ,
-29, ,42, ,
-16, ,42, ,
-6, ,42, ,
18, ,42, ,
27, ,42, ,
35, ,42, ,
46, ,42, ,
65, ,42, ,
69, ,42, ,
79, ,42, ,
85, ,42, ,
95, ,42, ,
102, ,42, ,
105, ,42, ,
110, ,42, ,
119, ,42, ,
119, ,42, ,
125, ,42, ,
125, ,42, ,
125, ,42, ,
125, ,42, ,
125, ,42, ,
125, ,42, ,
125, ,42, ,
125, ,42, ,
125, ,42, ,
125, ,42, ,
125, ,42, ,
125, ,42, ,
125, ,42, ,
125, ,42, ,
125, ,42, ,
125, ,42, ,
125, ,42, ,
125, ,42, ,
125, ,42, ,
125, ,42, ,
125, ,42, ,
125, ,42, ,
124, ,42, ,
120, ,42, ,
116, ,42, ,
108, ,42, ,
88, ,42, ,
75, ,42, ,
59, ,42, ,
43, ,42, ,
5, ,42, ,
-19, ,42, ,
-40, ,42, ,
-67, ,42, ,
-113, ,42, ,
-126, ,42, ,
-126, ,42, ,
-126, ,42, ,
-126, ,42, ,
-126, ,42, ,
-126, ,42, ,
-126, ,42, ,
-126, ,42, ,
-126, ,42, ,
-126, ,42, ,
-126, ,42, ,
-126, ,42, ,
-126, ,42, ,
-126, ,42, ,
-126, ,42, ,
-126, ,42, ,
-126, ,42, ,
-126, ,42, ,
-126, ,42, ,
-126, ,42, ,
-126, ,42, ,
-122, ,42, ,
-118, ,42, ,
-113, ,42, ,
-110, ,42, ,
-108, ,42, ,
-104, ,42, ,
-98, ,42, ,
-94, ,42, ,
-88, ,42, ,
-81, ,42, ,
-61, ,42, ,
-49, ,42, ,
-38, ,42, ,
-24, ,42, ,
4, ,42, ,
15, ,42, ,
31, ,42, ,
43, ,42, ,
66, ,42, ,
77, ,42, ,
86, ,42, ,
95, ,42, ,
104, ,42, ,
106, ,42, ,
107, ,42, ,
105, ,42, ,
103, ,42, ,
98, ,42, ,
92, ,42, ,
88, ,42, ,
73, ,42, ,
66, ,42, ,
59, ,42, ,
52, ,42, ,
41, ,42, ,
39, ,42, ,
36, ,42, ,
35, ,42, ,
37, ,42, ,
37, ,42, ,
42, ,42, ,
44, ,42, ,
54, ,42, ,
60, ,42, ,
64, ,42, ,
70, ,42, ,
80, ,42, ,
84, ,42, ,
90, ,42, ,
93, ,42, ,
99, ,42, ,
104, ,42, ,
104, ,42, ,
104, ,42, ,
103, ,42, ,
103, ,42, ,
100, ,42, ,
96, ,42, ,
89, ,42, ,
86, ,42, ,
80, ,42, ,
75, ,42, ,
64, ,42, ,
56, ,42, ,
51, ,42, ,
45, ,42, ,
35, ,42, ,
33, ,42, ,
29, ,42, ,
25, ,42, ,
17, ,42, ,
14, ,42, ,
12, ,42, ,
8, ,42, ,
4, ,42, ,
2, ,42, ,
0, ,42, ,
-3, ,42, ,
-6, ,42, ,
-10, ,42, ,
-11, ,42, ,
-15, ,42, ,
-21, ,42, ,
-22, ,42, ,
-27, ,42, ,
-28, ,42, ,
-34, ,42, ,
-39, ,42, ,
-39, ,42, ,
-43, ,42, ,
-49, ,42, ,
-51, ,42, ,
-54, ,42, ,
-55, ,42, ,
-57, ,42, ,
-58, ,42, ,
-56, ,42, ,
-58, ,42, ,
-53, ,42, ,
-50, ,42, ,
-48, ,42, ,
-43, ,42, ,
-37, ,42, ,
-35, ,42, ,
-29, ,42, ,
-25, ,42, ,
-17, ,42, ,
-9, ,42, ,
-7, ,42, ,
0, ,42, ,
9, ,42, ,
11, ,42, ,
16, ,42, ,
21, ,42, ,
26, ,42, ,
29, ,42, ,
31, ,42, ,
33, ,42, ,
35, ,42, ,
37, ,42, ,
37, ,42, ,
36, ,42, ,
36, ,42, ,
35, ,42, ,
34, ,42, ,
34, ,42, ,
28, ,42, ,
24, ,42, ,
22, ,42, ,
19, ,42, ,
12, ,42, ,
10, ,42, ,
7, ,42, ,
5, ,42, ,
0, ,42, ,
-5, ,42, ,
-5, ,42, ,
-9, ,42, ,
-12, ,42, ,
-13, ,42, ,
-17, ,42, ,
-16, ,42, ,
-20, ,42, ,
-22, ,42, ,
-23, ,42, ,
-24, ,42, ,
-28, ,42, ,
-29, ,42, ,
-31, ,42, ,
-30, ,42, ,
-35, ,42, ,
-37, ,42, ,
-36, ,42, ,
-39, ,42, ,
-42, ,42, ,
-42, ,42, ,
-44, ,42, ,
-47, ,42, ,
-49, ,42, ,
-50, ,42, ,
-49, ,42, ,
-51, ,42, ,
-50, ,42, ,
-49, ,42, ,
-49, ,42, ,
-46, ,42, ,
-43, ,42, ,
-40, ,42, ,
-39, ,42, ,
-38, ,42, ,
-31, ,42, ,
-28, ,42, ,
-25, ,42, ,
-22, ,42, ,
-13, ,42, ,
-10, ,42, ,
-6, ,42, ,
-4, ,42, ,
3, ,42, ,
8, ,42, ,
11, ,42, ,
15, ,42, ,
21, ,42, ,
24, ,42, ,
26, ,42, ,
27, ,42, ,
32, ,42, ,
34, ,42, ,
34, ,42, ,
35, ,42, ,
37, ,42, ,
37, ,42, ,
37, ,42, ,
37, ,42, ,
37, ,42, ,
37, ,42, ,
38, ,42, ,
38, ,42, ,
38, ,42, ,
38, ,42, ,
37, ,42, ,
35, ,42, ,
36, ,42, ,
36, ,42, ,
35, ,42, ,
35, ,42, ,
35, ,42, ,
32, ,42, ,
32, ,42, ,
30, ,42, ,
26, ,42, ,
25, ,42, ,
22, ,42, ,
20, ,42, ,
17, ,42, ,
11, ,42, ,
10, ,42, ,
5, ,42, ,
0, ,42, ,
-1, ,42, ,
-6, ,42, ,
-8, ,42, ,
-15, ,42, ,
-18, ,42, ,
-20, ,42, ,
-24, ,42, ,
-28, ,42, ,
-28, ,42, ,
-30, ,42, ,
-31, ,42, ,
-33, ,42, ,
-34, ,42, ,
-33, ,42, ,
-35, ,42, ,
-35, ,42, ,
-33, ,42, ,
-35, ,42, ,
-33, ,42, ,
-32, ,42, ,
-32, ,42, ,
-31, ,42, ,
-30, ,42, ,
-27, ,42, ,
-24, ,42, ,
-21, ,42, ,
-19, ,42, ,
-12, ,42, ,
-10, ,42, ,
-6, ,42, ,
-4, ,42, ,
4, ,42, ,
10, ,42, ,
12, ,42, ,
17, ,42, ,
26, ,42, ,
28, ,42, ,
34, ,42, ,
35, ,42, ,
38, ,42, ,
43, ,42, ,
42, ,42, ,
45, ,42, ,
45, ,42, ,
43, ,42, ,
44, ,42, ,
41, ,42, ,
36, ,42, ,
35, ,42, ,
32, ,42, ,
30, ,42, ,
24, ,42, ,
17, ,42, ,
15, ,42, ,
11, ,42, ,
4, ,42, ,
2, ,42, ,
-2, ,42, ,
-6, ,42, ,
-9, ,42, ,
-13, ,42, ,
-15, ,42, ,
-20, ,42, ,
-22, ,42, ,
-23, ,42, ,
-26, ,42, ,
-27, ,42, ,
-29, ,42, ,
-31, ,42, ,
-31, ,42, ,
-32, ,42, ,
-32, ,42, ,
-31, ,42, ,
-32, ,42, ,
-30, ,42, ,
-28, ,42, ,
-29, ,42, ,
-27, ,42, ,
-25, ,42, ,
-24, ,42, ,
-21, ,42, ,
-22, ,42, ,
-20, ,42, ,
-15, ,42, ,
-17, ,42, ,
-13, ,42, ,
-14, ,42, ,
-14, ,42, ,
-13, ,42, ,
-14, ,42, ,
-13, ,42, ,
-16, ,42, ,
-16, ,42, ,
-18, ,42, ,
-20, ,42, ,
-22, ,42, ,
-23, ,42, ,
-26, ,42, ,
-27, ,42, ,
-30, ,42, ,
-33, ,42, ,
-33, ,42, ,
-35, ,42, ,
-35, ,42, ,
-35, ,42, ,
-35, ,42, ,
-35, ,42, ,
-33, ,42, ,
-34, ,42, ,
-32, ,42, ,
-32, ,42, ,
-30, ,42, ,
-29, ,42, ,
-27, ,42, ,
-26, ,42, ,
-24, ,42, ,
-24, ,42, ,
-22, ,42, ,
-22, ,42, ,
-18, ,42, ,
-15, ,42, ,
-15, ,42, ,
-14, ,42, ,
-12, ,42, ,
-11, ,42, ,
-10, ,42, ,
-8, ,42, ,
-8, ,42, ,
-5, ,42, ,
-5, ,42, ,
-4, ,42, ,
-2, ,42, ,
-2, ,42, ,
0, ,42, ,
2, ,42, ,
3, ,42, ,
5, ,42, ,
6, ,42, ,
8, ,42, ,
11, ,42, ,
12, ,42, ,
15, ,42, ,
15, ,42, ,
18, ,42, ,
18, ,42, ,
20, ,42, ,
20, ,42, ,
23, ,42, ,
23, ,42, ,
25, ,42, ,
24, ,42, ,
26, ,42, ,
28, ,42, ,
28, ,42, ,
29, ,42, ,
30, ,42, ,
29, ,42, ,
29, ,42, ,
28, ,42, ,
29, ,42, ,
28, ,42, ,
27, ,42, ,
27, ,42, ,
24, ,42, ,
20, ,42, ,
19, ,42, ,
14, ,42, ,
9, ,42, ,
7, ,42, ,
3, ,42, ,
1, ,42, ,
-6, ,42, ,
-10, ,42, ,
-15, ,42, ,
-19, ,42, ,
-28, ,42, ,
-30, ,42, ,
-35, ,42, ,
-36, ,42, ,
-43, ,42, ,
-47, ,42, ,
-47, ,42, ,
-50, ,42, ,
-52, ,42, ,
-51, ,42, ,
-51, ,42, ,
-50, ,42, ,
-49, ,42, ,
-48, ,42, ,
-46, ,42, ,
-45, ,42, ,
-39, ,42, ,
-37, ,42, ,
-35, ,42, ,
-32, ,42, ,
-27, ,42, ,
-26, ,42, ,
-22, ,42, ,
-19, ,42, ,
-15, ,42, ,
-10, ,42, ,
-9, ,42, ,
-6, ,42, ,
0, ,42, ,
1, ,42, ,
5, ,42, ,
5, ,42, ,
12, ,42, ,
15, ,42, ,
17, ,42, ,
21, ,42, ,
26, ,42, ,
28, ,42, ,
31, ,42, ,
31, ,42, ,
36, ,42, ,
39, ,42, ,
40, ,42, ,
42, ,42, ,
45, ,42, ,
44, ,42, ,
44, ,42, ,
44, ,42, ,
44, ,42, ,
43, ,42, ,
39, ,42, ,
39, ,42, ,
35, ,42, ,
30, ,42, ,
30, ,42, ,
24, ,42, ,
17, ,42, ,
15, ,42, ,
10, ,42, ,
7, ,42, ,
0, ,42, ,
-2, ,42, ,
-6, ,42, ,
-10, ,42, ,
-13, ,42, ,
-15, ,42, ,
-18, ,42, ,
-18, ,42, ,
-20, ,42, ,
-21, ,42, ,
-20, ,42, ,
-22, ,42, ,
-22, ,42, ,
-19, ,42, ,
-20, ,42, ,
-17, ,42, ,
-15, ,42, ,
-15, ,42, ,
-14, ,42, ,
-13, ,42, ,
-10, ,42, ,
-8, ,42, ,
-10, ,42, ,
-6, ,42, ,
-5, ,42, ,
-5, ,42, ,
-3, ,42, ,
-4, ,42, ,
-4, ,42, ,
-3, ,42, ,
-4, ,42, ,
-3, ,42, ,
-3, ,42, ,
-4, ,42, ,
-3, ,42, ,
-4, ,42, ,
-4, ,42, ,
-4, ,42, ,
-4, ,42, ,
-5, ,42, ,
-6, ,42, ,
-6, ,42, ,
-6, ,42, ,
-7, ,42, ,
-8, ,42, ,
-8, ,42, ,
-10, ,42, ,
-10, ,42, ,
-11, ,42, ,
-11, ,42, ,
-13, ,42, ,
-14, ,42, ,
-15, ,42, ,
-16, ,42, ,
-18, ,42, ,
-18, ,42, ,
-20, ,42, ,
-22, ,42, ,
-24, ,42, ,
-25, ,42, ,
-28, ,42, ,
-28, ,42, ,
-30, ,42, ,
-31, ,42, ,
-34, ,42, ,
-34, ,42, ,
-35, ,42, ,
-36, ,42, ,
-35, ,42, ,
-37, ,42, ,
-38, ,42, ,
-38, ,42, ,
-38, ,42, ,
-37, ,42, ,
-36, ,42, ,
-37, ,42, ,
-35, ,42, ,
-34, ,42, ,
-34, ,42, ,
-32, ,42, ,
-30, ,42, ,
-28, ,42, ,
-25, ,42, ,
-24, ,42, ,
-19, ,42, ,
-14, ,42, ,
-12, ,42, ,
-10, ,42, ,
-2, ,42, ,
0, ,42, ,
5, ,42, ,
6, ,42, ,
13, ,42, ,
17, ,42, ,
18, ,42, ,
21, ,42, ,
26, ,42, ,
28, ,42, ,
32, ,42, ,
31, ,42, ,
35, ,42, ,
35, ,42, ,
36, ,42, ,
38, ,42, ,
39, ,42, ,
39, ,42, ,
39, ,42, ,
39, ,42, ,
39, ,42, ,
38, ,42, ,
38, ,42, ,
38, ,42, ,
36, ,42, ,
34, ,42, ,
35, ,42, ,
32, ,42, ,
30, ,42, ,
30, ,42, ,
26, ,42, ,
25, ,42, ,
24, ,42, ,
22, ,42, ,
22, ,42, ,
19, ,42, ,
17, ,42, ,
16, ,42, ,
15, ,42, ,
14, ,42, ,
13, ,42, ,
12, ,42, ,
12, ,42, ,
11, ,42, ,
11, ,42, ,
11, ,42, ,
10, ,42, ,
11, ,42, ,
11, ,42, ,
10, ,42, ,
10, ,42, ,
9, ,42, ,
9, ,42, ,
9, ,42, ,
8, ,42, ,
9, ,42, ,
9, ,42, ,
8, ,42, ,
9, ,42, ,
6, ,42, ,
7, ,42, ,
7, ,42, ,
6, ,42, ,
7, ,42, ,
6, ,42, ,
6, ,42, ,
6, ,42, ,
5, ,42, ,
6, ,42, ,
6, ,42, ,
5, ,42, ,
5, ,42, ,
5, ,42, ,
4, ,42, ,
5, ,42, ,
5, ,42, ,
5, ,42, ,
4, ,42, ,
4, ,42, ,
4, ,42, ,
4, ,42, ,
2, ,42, ,
1, ,42, ,
0, ,42, ,
0, ,42, ,
0, ,42, ,
-1, ,42, ,
-1, ,42, ,
-5, ,42, ,
-5, ,42, ,
-6, ,42, ,
-8, ,42, ,
-11, ,42, ,
-11, ,42, ,
-13, ,42, ,
-13, ,42, ,
-15, ,42, ,
-17, ,42, ,
-16, ,42, ,
-20, ,42, ,
-20, ,42, ,
-20, ,42, ,
-21, ,42, ,
-21, ,42, ,
-22, ,42, ,
-24, ,42, ,
-24, ,42, ,
-25, ,42, ,
-23, ,42, ,
-22, ,42, ,
-22, ,42, ,
-22, ,42, ,
-21, ,42, ,
-23, ,42, ,
-21, ,42, ,
-22, ,42, ,
-20, ,42, ,
-19, ,42, ,
-19, ,42, ,
-18, ,42, ,
-17, ,42, ,
-18, ,42, ,
-17, ,42, ,
-17, ,42, ,
-14, ,42, ,
-14, ,42, ,
-14, ,42, ,
-14, ,42, ,
-11, ,42, ,
-11, ,42, ,
-9, ,42, ,
-10, ,42, ,
-8, ,42, ,
-7, ,42, ,
-6, ,42, ,
-5, ,42, ,
-2, ,42, ,
-1, ,42, ,
-1, ,42, ,
1, ,42, ,
3, ,42, ,
4, ,42, ,
5, ,42, ,
6, ,42, ,
8, ,42, ,
8, ,42, ,
10, ,42, ,
10, ,42, ,
10, ,42, ,
12, ,42, ,
12, ,42, ,
13, ,42, ,
14, ,42, ,
13, ,42, ,
14, ,42, ,
13, ,42, ,
14, ,42, ,
15, ,42, ,
15, ,42, ,
15, ,42, ,
14, ,42, ,
13, ,42, ,
14, ,42, ,
13, ,42, ,
12, ,42, ,
13, ,42, ,
12, ,42, ,
13, ,42, ,
13, ,42, ,
12, ,42, ,
12, ,42, ,
11, ,42, ,
13, ,42, ,
13, ,42, ,
12, ,42, ,
12, ,42, ,
12, ,42, ,
10, ,42, ,
11, ,42, ,
10, ,42, ,
10, ,42, ,
10, ,42, ,
9, ,42, ,
9, ,42, ,
9, ,42, ,
9, ,42, ,
8, ,42, ,
7, ,42, ,
6, ,42, ,
6, ,42, ,
6, ,42, ,
5, ,42, ,
5, ,42, ,
4, ,42, ,
4, ,42, ,
3, ,42, ,
2, ,42, ,
1, ,42, ,
0, ,42, ,
0, ,42, ,
0, ,42, ,
-1, ,42, ,
0, ,42, ,
-2, ,42, ,
-3, ,42, ,
-3, ,42, ,
-5, ,42, ,
-4, ,42, ,
-6, ,42, ,
-8, ,42, ,
-8, ,42, ,
-9, ,42, ,
-11, ,42, ,
-11, ,42, ,
-12, ,42, ,
-11, ,42, ,
-14, ,42, ,
-16, ,42, ,
-16, ,42, ,
-17, ,42, ,
-17, ,42, ,
-18, ,42, ,
-19, ,42, ,
-19, ,42, ,
-19, ,42, ,
-18, ,42, ,
-18, ,42, ,
-19, ,42, ,
-18, ,42, ,
-15, ,42, ,
-15, ,42, ,
-15, ,42, ,
-12, ,42, ,
-11, ,42, ,
-10, ,42, ,
-9, ,42, ,
-5, ,42, ,
-3, ,42, ,
-3, ,42, ,
0, ,42, ,
3, ,42, ,
2, ,42, ,
6, ,42, ,
7, ,42, ,
9, ,42, ,
11, ,42, ,
13, ,42, ,
15, ,42, ,
16, ,42, ,
18, ,42, ,
19, ,42, ,
18, ,42, ,
19, ,42, ,
21, ,42, ,
21, ,42, ,
21, ,42, ,
22, ,42, ,
22, ,42, ,
22, ,42, ,
23, ,42, ,
23, ,42, ,
24, ,42, ,
21, ,42, ,
20, ,42, ,
20, ,42, ,
20, ,42, ,
19, ,42, ,
19, ,42, ,
17, ,42, ,
17, ,42, ,
15, ,42, ,
15, ,42, ,
14, ,42, ,
12, ,42, ,
12, ,42, ,
10, ,42, ,
9, ,42, ,
8, ,42, ,
7, ,42, ,
6, ,42, ,
5, ,42, ,
2, ,42, ,
3, ,42, ,
1, ,42, ,
0, ,42, ,
-1, ,42, ,
-1, ,42, ,
-3, ,42, ,
-4, ,42, ,
-4, ,42, ,
-4, ,42, ,
-6, ,42, ,
-6, ,42, ,
-6, ,42, ,
-7, ,42, ,
-7, ,42, ,
-8, ,42, ,
-8, ,42, ,
-8, ,42, ,
-8, ,42, ,
-8, ,42, ,
-7, ,42, ,
-7, ,42, ,
-7, ,42, ,
-6, ,42, ,
-7, ,42, ,
-6, ,42, ,
-6, ,42, ,
-6, ,42, ,
-4, ,42, ,
-5, ,42, ,
-4, ,42, ,
-4, ,42, ,
-5, ,42, ,
-4, ,42, ,
-4, ,42, ,
-4, ,42, ,
-3, ,42, ,
-5, ,42, ,
-4, ,42, ,
-3, ,42, ,
-5, ,42, ,
-4, ,42, ,
-5, ,42, ,
-5, ,42, ,
-5, ,42, ,
-6, ,42, ,
-7, ,42, ,
-6, ,42, ,
-8, ,42, ,
-8, ,42, ,
-9, ,42, ,
-10, ,42, ,
-10, ,42, ,
-12, ,42, ,
-11, ,42, ,
-12, ,42, ,
-12, ,42, ,
-13, ,42, ,
-13, ,42, ,
-13, ,42, ,
-13, ,42, ,
-13, ,42, ,
-13, ,42, ,
-14, ,42, ,
-14, ,42, ,
-13, ,42, ,
-15, ,42, ,
-12, ,42, ,
-11, ,42, ,
-11, ,42, ,
-10, ,42, ,
-9, ,42, ,
-9, ,42, ,
-9, ,42, ,
-8, ,42, ,
-7, ,42, ,
-5, ,42, ,
-5, ,42, ,
-4, ,42, ,
-2, ,42, ,
-3, ,42, ,
0, ,42, ,
0, ,42, ,
0, ,42, ,
1, ,42, ,
1, ,42, ,
3, ,42, ,
3, ,42, ,
3, ,42, ,
6, ,42, ,
5, ,42, ,
5, ,42, ,
7, ,42, ,
7, ,42, ,
8, ,42, ,
10, ,42, ,
10, ,42, ,
10, ,42, ,
10, ,42, ,
10, ,42, ,
10, ,42, ,
10, ,42, ,
10, ,42, ,
