raw_data/100% Glycerol, Impulsion 2Hz, Sonde 5MHz, Rampe 0.7Hz/temp0000111.CSV

Format,1.0B,
Memory Length,10000,Memory Length,10000,
IntpDistance,0,IntpDistance,0,
Trigger Address,159,Trigger Address,159,
Trigger Level,2.720E-01,Trigger Level,2.720E-01,
Source,CH1,Source,CH2,
Vertical Units,V,Vertical Units,V,
Vertical Units Div,0,Vertical Units Div,0,
Vertical Units Extend Div,16,Vertical Units Extend Div,16,
Label,,Label,,
Probe Type,0,Probe Type,0,
Probe Ratio,1.000e+00,Probe Ratio,1.000e+00,
Vertical Scale,2.000e-01,Vertical Scale,2.000e+00,
Vertical Position,0.000e+00,Vertical Position,0.000e+00,
Horizontal Units,S,Horizontal Units,S,
Horizontal Scale,5.000E-06,Horizontal Scale,5.000E-06,
Horizontal Position,2.420E-05,Horizontal Position,2.420E-05,
Horizontal Mode,Main,Horizontal Mode,Main,
SincET Mode,Real Time,SincET Mode,Real Time,
Sampling Period,5.000e-09,Sampling Period,5.000e-09,
Horizontal Old Scale,5.000E-06,Horizontal Old Scale,5.000E-06,
Horizontal Old Position,2.420E-05,Horizontal Old Position,2.420E-05,
Firmware,V1.32,Firmware,V1.32,
Mode,Fast,Mode,Fast,
Waveform Data,,Waveform Data,,
2, ,-33, ,
2, ,-33, ,
2, ,-33, ,
2, ,-33, ,
2, ,-33, ,
1, ,-33, ,
1, ,-33, ,
2, ,-33, ,
2, ,-33, ,
1, ,-33, ,
1, ,-33, ,
2, ,-33, ,
1, ,-33, ,
2, ,-33, ,
1, ,-33, ,
0, ,-33, ,
1, ,-33, ,
1, ,-33, ,
2, ,-33, ,
1, ,-33, ,
2, ,-33, ,
2, ,-33, ,
1, ,-33, ,
2, ,-33, ,
2, ,-33, ,
1, ,-33, ,
1, ,-33, ,
2, ,-33, ,
1, ,-33, ,
1, ,-33, ,
1, ,-33, ,
1, ,-33, ,
2, ,-33, ,
2, ,-33, ,
2, ,-33, ,
3, ,-33, ,
2, ,-33, ,
2, ,-33, ,
1, ,-33, ,
1, ,-33, ,
2, ,-33, ,
1, ,-33, ,
2, ,-33, ,
2, ,-33, ,
1, ,-33, ,
2, ,-33, ,
1, ,-33, ,
2, ,-33, ,
2, ,-33, ,
1, ,-33, ,
1, ,-33, ,
1, ,-33, ,
1, ,-33, ,
2, ,-33, ,
2, ,-33, ,
2, ,-33, ,
2, ,-33, ,
1, ,-33, ,
1, ,-33, ,
1, ,-33, ,
2, ,-33, ,
2, ,-33, ,
2, ,-33, ,
2, ,-33, ,
2, ,-33, ,
1, ,-33, ,
2, ,-33, ,
2, ,-33, ,
2, ,-33, ,
2, ,-33, ,
1, ,-33, ,
1, ,-33, ,
1, ,-33, ,
1, ,-33, ,
1, ,-33, ,
1, ,-33, ,
1, ,-33, ,
2, ,-33, ,
1, ,-33, ,
0, ,-33, ,
2, ,-33, ,
1, ,-33, ,
2, ,-33, ,
2, ,-33, ,
1, ,-33, ,
2, ,-33, ,
1, ,-33, ,
1, ,-33, ,
3, ,-33, ,
1, ,-33, ,
2, ,-33, ,
2, ,-33, ,
1, ,-33, ,
2, ,-33, ,
1, ,-33, ,
1, ,-33, ,
3, ,-33, ,
2, ,-33, ,
3, ,-33, ,
2, ,-33, ,
2, ,-33, ,
2, ,-33, ,
2, ,-33, ,
1, ,-33, ,
2, ,-33, ,
1, ,-33, ,
2, ,-33, ,
2, ,-33, ,
1, ,-33, ,
2, ,-33, ,
2, ,-33, ,
2, ,-33, ,
2, ,-33, ,
2, ,-33, ,
2, ,-33, ,
2, ,-33, ,
2, ,-33, ,
2, ,-33, ,
1, ,-33, ,
1, ,-33, ,
1, ,-33, ,
1, ,-33, ,
2, ,-33, ,
2, ,-33, ,
2, ,-33, ,
2, ,-33, ,
2, ,-33, ,
1, ,-33, ,
3, ,-33, ,
1, ,-33, ,
2, ,-33, ,
2, ,-33, ,
1, ,-33, ,
2, ,-33, ,
1, ,-33, ,
2, ,-33, ,
2, ,-33, ,
1, ,-33, ,
3, ,-33, ,
2, ,-33, ,
1, ,-33, ,
2, ,-33, ,
0, ,-33, ,
2, ,-33, ,
2, ,-33, ,
2, ,-33, ,
2, ,-33, ,
2, ,-33, ,
1, ,-33, ,
1, ,-33, ,
2, ,-33, ,
1, ,-33, ,
1, ,-33, ,
1, ,-33, ,
2, ,-33, ,
2, ,-33, ,
1, ,-33, ,
2, ,-33, ,
1, ,-33, ,
1, ,-33, ,
3, ,-33, ,
2, ,-33, ,
2, ,-33, ,
1, ,-33, ,
2, ,-33, ,
-2, ,-33, ,
1, ,-33, ,
8, ,-33, ,
49, ,-33, ,
123, ,-33, ,
125, ,-33, ,
125, ,-33, ,
123, ,-33, ,
119, ,-33, ,
77, ,-33, ,
22, ,-33, ,
125, ,-33, ,
125, ,-33, ,
125, ,-33, ,
125, ,-33, ,
125, ,-33, ,
125, ,-33, ,
125, ,-33, ,
125, ,-33, ,
125, ,-33, ,
125, ,-33, ,
125, ,-33, ,
125, ,-33, ,
125, ,-33, ,
125, ,-33, ,
125, ,-33, ,
125, ,-33, ,
125, ,-33, ,
125, ,-33, ,
125, ,-33, ,
125, ,-33, ,
125, ,-33, ,
125, ,-33, ,
125, ,-33, ,
125, ,-33, ,
125, ,-33, ,
125, ,-33, ,
124, ,-33, ,
123, ,-33, ,
117, ,-33, ,
114, ,-33, ,
108, ,-33, ,
101, ,-33, ,
96, ,-33, ,
93, ,-33, ,
88, ,-33, ,
80, ,-33, ,
76, ,-33, ,
73, ,-33, ,
68, ,-33, ,
64, ,-33, ,
61, ,-33, ,
58, ,-33, ,
54, ,-33, ,
51, ,-33, ,
48, ,-33, ,
46, ,-33, ,
43, ,-33, ,
39, ,-33, ,
37, ,-33, ,
36, ,-33, ,
35, ,-33, ,
32, ,-33, ,
29, ,-33, ,
30, ,-33, ,
25, ,-33, ,
22, ,-33, ,
23, ,-33, ,
20, ,-33, ,
20, ,-33, ,
18, ,-33, ,
15, ,-33, ,
17, ,-33, ,
15, ,-33, ,
12, ,-33, ,
11, ,-33, ,
10, ,-33, ,
11, ,-33, ,
10, ,-33, ,
7, ,-33, ,
7, ,-33, ,
6, ,-33, ,
5, ,-33, ,
5, ,-33, ,
4, ,-33, ,
4, ,-33, ,
4, ,-33, ,
1, ,-33, ,
4, ,-33, ,
1, ,-33, ,
1, ,-33, ,
1, ,-33, ,
0, ,-33, ,
0, ,-33, ,
0, ,-33, ,
-1, ,-33, ,
0, ,-33, ,
-2, ,-33, ,
-1, ,-33, ,
-2, ,-33, ,
-2, ,-33, ,
-2, ,-33, ,
-1, ,-33, ,
-2, ,-33, ,
-1, ,-33, ,
-2, ,-33, ,
-4, ,-33, ,
-3, ,-33, ,
-3, ,-33, ,
-3, ,-33, ,
-2, ,-33, ,
-3, ,-33, ,
-2, ,-33, ,
-3, ,-33, ,
-3, ,-33, ,
-3, ,-33, ,
-4, ,-33, ,
-2, ,-33, ,
-3, ,-33, ,
-4, ,-33, ,
-2, ,-33, ,
-4, ,-33, ,
-4, ,-33, ,
-3, ,-33, ,
-3, ,-33, ,
-3, ,-33, ,
-2, ,-33, ,
-2, ,-33, ,
-2, ,-33, ,
-2, ,-33, ,
-2, ,-33, ,
-1, ,-33, ,
-3, ,-33, ,
-3, ,-33, ,
-3, ,-33, ,
-4, ,-33, ,
-2, ,-33, ,
-2, ,-33, ,
-2, ,-33, ,
-1, ,-33, ,
-2, ,-33, ,
-1, ,-33, ,
-1, ,-33, ,
-2, ,-33, ,
-2, ,-33, ,
-3, ,-33, ,
-2, ,-33, ,
-2, ,-33, ,
-2, ,-33, ,
-2, ,-33, ,
-1, ,-33, ,
-2, ,-33, ,
-1, ,-33, ,
-2, ,-33, ,
-2, ,-33, ,
0, ,-33, ,
-1, ,-33, ,
0, ,-33, ,
0, ,-33, ,
-1, ,-33, ,
1, ,-33, ,
0, ,-33, ,
0, ,-33, ,
0, ,-33, ,
0, ,-33, ,
0, ,-33, ,
0, ,-33, ,
0, ,-33, ,
0, ,-33, ,
0, ,-33, ,
0, ,-33, ,
0, ,-33, ,
0, ,-33, ,
0, ,-33, ,
0, ,-33, ,
0, ,-33, ,
0, ,-33, ,
0, ,-33, ,
0, ,-33, ,
0, ,-33, ,
0, ,-33, ,
1, ,-33, ,
1, ,-33, ,
1, ,-33, ,
1, ,-33, ,
0, ,-33, ,
0, ,-33, ,
1, ,-33, ,
1, ,-33, ,
1, ,-33, ,
1, ,-33, ,
0, ,-33, ,
0, ,-33, ,
0, ,-33, ,
1, ,-33, ,
2, ,-33, ,
1, ,-33, ,
1, ,-33, ,
0, ,-33, ,
0, ,-33, ,
1, ,-33, ,
1, ,-33, ,
1, ,-33, ,
1, ,-33, ,
0, ,-33, ,
0, ,-33, ,
1, ,-33, ,
0, ,-33, ,
0, ,-33, ,
1, ,-33, ,
0, ,-33, ,
1, ,-33, ,
0, ,-33, ,
2, ,-33, ,
1, ,-33, ,
1, ,-33, ,
1, ,-33, ,
1, ,-33, ,
1, ,-33, ,
1, ,-33, ,
1, ,-33, ,
2, ,-33, ,
1, ,-33, ,
2, ,-33, ,
1, ,-33, ,
1, ,-33, ,
1, ,-33, ,
2, ,-33, ,
1, ,-33, ,
1, ,-33, ,
2, ,-33, ,
1, ,-33, ,
2, ,-33, ,
1, ,-33, ,
2, ,-33, ,
2, ,-33, ,
1, ,-33, ,
2, ,-33, ,
2, ,-33, ,
2, ,-33, ,
2, ,-33, ,
2, ,-33, ,
1, ,-33, ,
2, ,-33, ,
1, ,-33, ,
2, ,-33, ,
1, ,-33, ,
1, ,-33, ,
2, ,-33, ,
2, ,-33, ,
1, ,-33, ,
2, ,-33, ,
1, ,-33, ,
1, ,-33, ,
2, ,-33, ,
1, ,-33, ,
2, ,-33, ,
0, ,-33, ,
0, ,-33, ,
0, ,-33, ,
0, ,-33, ,
1, ,-33, ,
1, ,-33, ,
0, ,-33, ,
1, ,-33, ,
0, ,-33, ,
0, ,-33, ,
2, ,-33, ,
1, ,-33, ,
2, ,-33, ,
1, ,-33, ,
0, ,-33, ,
0, ,-33, ,
-1, ,-33, ,
-1, ,-33, ,
0, ,-33, ,
-1, ,-33, ,
-1, ,-33, ,
-1, ,-33, ,
-2, ,-33, ,
0, ,-33, ,
0, ,-33, ,
0, ,-33, ,
0, ,-33, ,
0, ,-33, ,
0, ,-33, ,
0, ,-33, ,
1, ,-33, ,
2, ,-33, ,
1, ,-33, ,
1, ,-33, ,
2, ,-33, ,
1, ,-33, ,
2, ,-33, ,
2, ,-33, ,
2, ,-33, ,
2, ,-33, ,
2, ,-33, ,
1, ,-33, ,
2, ,-33, ,
1, ,-33, ,
1, ,-33, ,
2, ,-33, ,
1, ,-33, ,
2, ,-33, ,
1, ,-33, ,
2, ,-33, ,
2, ,-33, ,
2, ,-33, ,
3, ,-33, ,
3, ,-33, ,
1, ,-33, ,
2, ,-33, ,
2, ,-33, ,
1, ,-33, ,
0, ,-33, ,
0, ,-33, ,
-1, ,-33, ,
0, ,-33, ,
-1, ,-33, ,
-1, ,-33, ,
-2, ,-33, ,
0, ,-33, ,
1, ,-33, ,
1, ,-33, ,
2, ,-33, ,
2, ,-33, ,
0, ,-33, ,
2, ,-33, ,
1, ,-33, ,
1, ,-33, ,
2, ,-33, ,
1, ,-33, ,
1, ,-33, ,
1, ,-33, ,
0, ,-33, ,
0, ,-33, ,
0, ,-33, ,
0, ,-33, ,
0, ,-33, ,
0, ,-33, ,
0, ,-33, ,
1, ,-33, ,
1, ,-33, ,
2, ,-33, ,
1, ,-33, ,
0, ,-33, ,
2, ,-33, ,
0, ,-33, ,
0, ,-33, ,
0, ,-33, ,
-1, ,-33, ,
-1, ,-33, ,
-2, ,-33, ,
-4, ,-33, ,
-3, ,-33, ,
-5, ,-33, ,
-5, ,-33, ,
-6, ,-33, ,
-6, ,-33, ,
-6, ,-33, ,
-6, ,-33, ,
-6, ,-33, ,
-6, ,-33, ,
-7, ,-33, ,
-7, ,-33, ,
-8, ,-33, ,
-10, ,-33, ,
-9, ,-33, ,
-12, ,-33, ,
-14, ,-33, ,
-16, ,-33, ,
-19, ,-33, ,
-20, ,-33, ,
-23, ,-33, ,
-26, ,-33, ,
-28, ,-33, ,
-30, ,-33, ,
-30, ,-33, ,
-30, ,-33, ,
-31, ,-33, ,
-30, ,-33, ,
-28, ,-33, ,
-29, ,-33, ,
-27, ,-33, ,
-27, ,-33, ,
-25, ,-33, ,
-25, ,-33, ,
-25, ,-33, ,
-25, ,-33, ,
-26, ,-33, ,
-27, ,-33, ,
-28, ,-33, ,
-28, ,-33, ,
-30, ,-33, ,
-30, ,-33, ,
-29, ,-33, ,
-27, ,-33, ,
-26, ,-33, ,
-24, ,-33, ,
-22, ,-33, ,
-20, ,-33, ,
-15, ,-33, ,
-14, ,-33, ,
-12, ,-33, ,
-10, ,-33, ,
-8, ,-33, ,
-8, ,-33, ,
-8, ,-33, ,
-9, ,-33, ,
-10, ,-33, ,
-10, ,-33, ,
-10, ,-33, ,
-11, ,-33, ,
-10, ,-33, ,
-9, ,-33, ,
-9, ,-33, ,
-9, ,-33, ,
-6, ,-33, ,
-4, ,-33, ,
-4, ,-33, ,
-2, ,-33, ,
1, ,-33, ,
1, ,-33, ,
2, ,-33, ,
2, ,-33, ,
0, ,-33, ,
0, ,-33, ,
-1, ,-33, ,
-1, ,-33, ,
-5, ,-33, ,
-6, ,-33, ,
-8, ,-33, ,
-9, ,-33, ,
-10, ,-33, ,
-11, ,-33, ,
-11, ,-33, ,
-11, ,-33, ,
-10, ,-33, ,
-10, ,-33, ,
-9, ,-33, ,
-10, ,-33, ,
-10, ,-33, ,
-9, ,-33, ,
-11, ,-33, ,
-11, ,-33, ,
-12, ,-33, ,
-15, ,-33, ,
-16, ,-33, ,
-20, ,-33, ,
-22, ,-33, ,
-23, ,-33, ,
-24, ,-33, ,
-23, ,-33, ,
-25, ,-33, ,
-25, ,-33, ,
-25, ,-33, ,
-26, ,-33, ,
-25, ,-33, ,
-24, ,-33, ,
-25, ,-33, ,
-25, ,-33, ,
-28, ,-33, ,
-28, ,-33, ,
-29, ,-33, ,
-31, ,-33, ,
-32, ,-33, ,
-31, ,-33, ,
-34, ,-33, ,
-33, ,-33, ,
-35, ,-33, ,
-35, ,-33, ,
-34, ,-33, ,
-35, ,-33, ,
-35, ,-33, ,
-34, ,-33, ,
-34, ,-33, ,
-33, ,-33, ,
-33, ,-33, ,
-32, ,-33, ,
-31, ,-33, ,
-32, ,-33, ,
-29, ,-33, ,
-28, ,-33, ,
-29, ,-33, ,
-28, ,-33, ,
-30, ,-33, ,
-30, ,-33, ,
-30, ,-33, ,
-31, ,-33, ,
-35, ,-33, ,
-35, ,-33, ,
-35, ,-33, ,
-36, ,-33, ,
-38, ,-33, ,
-38, ,-33, ,
-36, ,-33, ,
-36, ,-33, ,
-35, ,-33, ,
-35, ,-33, ,
-34, ,-33, ,
-32, ,-33, ,
-33, ,-33, ,
-34, ,-33, ,
-33, ,-33, ,
-33, ,-33, ,
-35, ,-33, ,
-35, ,-33, ,
-35, ,-33, ,
-35, ,-33, ,
-33, ,-33, ,
-34, ,-33, ,
-34, ,-33, ,
-33, ,-33, ,
-29, ,-33, ,
-27, ,-33, ,
-28, ,-33, ,
-25, ,-33, ,
-24, ,-33, ,
-24, ,-33, ,
-23, ,-33, ,
-23, ,-33, ,
-24, ,-33, ,
-24, ,-33, ,
-24, ,-33, ,
-24, ,-33, ,
-24, ,-33, ,
-23, ,-33, ,
-23, ,-33, ,
-24, ,-33, ,
-20, ,-33, ,
-20, ,-33, ,
-20, ,-33, ,
-20, ,-33, ,
-20, ,-33, ,
-20, ,-33, ,
-20, ,-33, ,
-19, ,-33, ,
-19, ,-33, ,
-16, ,-33, ,
-17, ,-33, ,
-15, ,-33, ,
-12, ,-33, ,
-10, ,-33, ,
-8, ,-33, ,
-8, ,-33, ,
-4, ,-33, ,
-1, ,-33, ,
-2, ,-33, ,
0, ,-33, ,
4, ,-33, ,
5, ,-33, ,
8, ,-33, ,
8, ,-33, ,
12, ,-33, ,
14, ,-33, ,
15, ,-33, ,
17, ,-33, ,
21, ,-33, ,
21, ,-33, ,
21, ,-33, ,
21, ,-33, ,
20, ,-33, ,
20, ,-33, ,
19, ,-33, ,
19, ,-33, ,
16, ,-33, ,
14, ,-33, ,
14, ,-33, ,
12, ,-33, ,
10, ,-33, ,
9, ,-33, ,
8, ,-33, ,
9, ,-33, ,
4, ,-33, ,
4, ,-33, ,
3, ,-33, ,
1, ,-33, ,
0, ,-33, ,
0, ,-33, ,
-2, ,-33, ,
-2, ,-33, ,
-3, ,-33, ,
-5, ,-33, ,
-5, ,-33, ,
-6, ,-33, ,
-7, ,-33, ,
-6, ,-33, ,
-8, ,-33, ,
-9, ,-33, ,
-11, ,-33, ,
-13, ,-33, ,
-12, ,-33, ,
-16, ,-33, ,
-17, ,-33, ,
-16, ,-33, ,
-18, ,-33, ,
-18, ,-33, ,
-20, ,-33, ,
-20, ,-33, ,
-20, ,-33, ,
-21, ,-33, ,
-23, ,-33, ,
-23, ,-33, ,
-24, ,-33, ,
-25, ,-33, ,
-25, ,-33, ,
-26, ,-33, ,
-26, ,-33, ,
-28, ,-33, ,
-28, ,-33, ,
-28, ,-33, ,
-28, ,-33, ,
-28, ,-33, ,
-28, ,-33, ,
-28, ,-33, ,
-26, ,-33, ,
-26, ,-33, ,
-26, ,-33, ,
-25, ,-33, ,
-26, ,-33, ,
-25, ,-33, ,
-25, ,-33, ,
-26, ,-33, ,
-26, ,-33, ,
-26, ,-33, ,
-26, ,-33, ,
-26, ,-33, ,
-27, ,-33, ,
-26, ,-33, ,
-25, ,-33, ,
-25, ,-33, ,
-24, ,-33, ,
-23, ,-33, ,
-22, ,-33, ,
-20, ,-33, ,
-20, ,-33, ,
-20, ,-33, ,
-19, ,-33, ,
-19, ,-33, ,
-17, ,-33, ,
-18, ,-33, ,
-16, ,-33, ,
-15, ,-33, ,
-16, ,-33, ,
-13, ,-33, ,
-10, ,-33, ,
-9, ,-33, ,
-7, ,-33, ,
-7, ,-33, ,
-5, ,-33, ,
0, ,-33, ,
-1, ,-33, ,
1, ,-33, ,
3, ,-33, ,
3, ,-33, ,
6, ,-33, ,
6, ,-33, ,
8, ,-33, ,
10, ,-33, ,
10, ,-33, ,
11, ,-33, ,
13, ,-33, ,
13, ,-33, ,
14, ,-33, ,
14, ,-33, ,
15, ,-33, ,
15, ,-33, ,
14, ,-33, ,
13, ,-33, ,
11, ,-33, ,
11, ,-33, ,
10, ,-33, ,
8, ,-33, ,
8, ,-33, ,
8, ,-33, ,
6, ,-33, ,
6, ,-33, ,
5, ,-33, ,
3, ,-33, ,
3, ,-33, ,
2, ,-33, ,
-1, ,-33, ,
-1, ,-33, ,
-2, ,-33, ,
-3, ,-33, ,
-5, ,-33, ,
-6, ,-33, ,
-6, ,-33, ,
-7, ,-33, ,
-8, ,-33, ,
-9, ,-33, ,
-9, ,-33, ,
-9, ,-33, ,
-10, ,-33, ,
-11, ,-33, ,
-11, ,-33, ,
-13, ,-33, ,
-15, ,-33, ,
-15, ,-33, ,
-16, ,-33, ,
-15, ,-33, ,
-18, ,-33, ,
-19, ,-33, ,
-19, ,-33, ,
-21, ,-33, ,
-22, ,-33, ,
-22, ,-33, ,
-23, ,-33, ,
-22, ,-33, ,
-24, ,-33, ,
-26, ,-33, ,
-25, ,-33, ,
-27, ,-33, ,
-25, ,-33, ,
-25, ,-33, ,
-25, ,-33, ,
-25, ,-33, ,
-25, ,-33, ,
-26, ,-33, ,
-26, ,-33, ,
-27, ,-33, ,
-25, ,-33, ,
-24, ,-33, ,
-25, ,-33, ,
-24, ,-33, ,
-23, ,-33, ,
-23, ,-33, ,
-23, ,-33, ,
-22, ,-33, ,
-22, ,-33, ,
-20, ,-33, ,
-21, ,-33, ,
-20, ,-33, ,
-20, ,-33, ,
-20, ,-33, ,
-20, ,-33, ,
-19, ,-33, ,
-20, ,-33, ,
-19, ,-33, ,
-20, ,-33, ,
-18, ,-33, ,
-18, ,-33, ,
-19, ,-33, ,
-18, ,-33, ,
-19, ,-33, ,
-17, ,-33, ,
-16, ,-33, ,
-17, ,-33, ,
-16, ,-33, ,
-17, ,-33, ,
-17, ,-33, ,
-17, ,-33, ,
-18, ,-33, ,
-18, ,-33, ,
-18, ,-33, ,
-18, ,-33, ,
-17, ,-33, ,
-18, ,-33, ,
-19, ,-33, ,
-18, ,-33, ,
-18, ,-33, ,
-19, ,-33, ,
-19, ,-33, ,
-18, ,-33, ,
-18, ,-33, ,
-19, ,-33, ,
-20, ,-33, ,
-20, ,-33, ,
-20, ,-33, ,
-19, ,-33, ,
-19, ,-33, ,
-19, ,-33, ,
-19, ,-33, ,
-17, ,-33, ,
-18, ,-33, ,
-16, ,-33, ,
-16, ,-33, ,
-16, ,-33, ,
-14, ,-33, ,
-14, ,-33, ,
-13, ,-33, ,
-12, ,-33, ,
-11, ,-33, ,
-10, ,-33, ,
-10, ,-33, ,
-9, ,-33, ,
-7, ,-33, ,
-7, ,-33, ,
-6, ,-33, ,
-5, ,-33, ,
-5, ,-33, ,
-3, ,-33, ,
-4, ,-33, ,
-2, ,-33, ,
-1, ,-33, ,
-2, ,-33, ,
-1, ,-33, ,
0, ,-33, ,
0, ,-33, ,
0, ,-33, ,
0, ,-33, ,
0, ,-33, ,
2, ,-33, ,
1, ,-33, ,
1, ,-33, ,
2, ,-33, ,
1, ,-33, ,
3, ,-33, ,
3, ,-33, ,
3, ,-33, ,
4, ,-33, ,
3, ,-33, ,
4, ,-33, ,
4, ,-33, ,
5, ,-33, ,
4, ,-33, ,
4, ,-33, ,
3, ,-33, ,
4, ,-33, ,
4, ,-33, ,
4, ,-33, ,
3, ,-33, ,
2, ,-33, ,
2, ,-33, ,
1, ,-33, ,
0, ,-33, ,
0, ,-33, ,
-1, ,-33, ,
-1, ,-33, ,
-2, ,-33, ,
-4, ,-33, ,
-5, ,-33, ,
-5, ,-33, ,
-6, ,-33, ,
-6, ,-33, ,
-7, ,-33, ,
-7, ,-33, ,
-7, ,-33, ,
-8, ,-33, ,
-7, ,-33, ,
-9, ,-33, ,
-10, ,-33, ,
-10, ,-33, ,
-10, ,-33, ,
-10, ,-33, ,
-10, ,-33, ,
-12, ,-33, ,
-12, ,-33, ,
-13, ,-33, ,
-12, ,-33, ,
-12, ,-33, ,
-12, ,-33, ,
-12, ,-33, ,
-12, ,-33, ,
-14, ,-33, ,
-11, ,-33, ,
-11, ,-33, ,
-12, ,-33, ,
-11, ,-33, ,
-12, ,-33, ,
-12, ,-33, ,
-11, ,-33, ,
-10, ,-33, ,
-10, ,-33, ,
-11, ,-33, ,
-10, ,-33, ,
-10, ,-33, ,
-9, ,-33, ,
-8, ,-33, ,
-6, ,-33, ,
-7, ,-33, ,
-7, ,-33, ,
-5, ,-33, ,
-5, ,-33, ,
-5, ,-33, ,
-6, ,-33, ,
-6, ,-33, ,
-5, ,-33, ,
-5, ,-33, ,
-5, ,-33, ,
-6, ,-33, ,
-6, ,-33, ,
-5, ,-33, ,
-5, ,-33, ,
-5, ,-33, ,
-5, ,-33, ,
-6, ,-33, ,
-5, ,-33, ,
-7, ,-33, ,
-6, ,-33, ,
-6, ,-33, ,
-7, ,-33, ,
-7, ,-33, ,
-7, ,-33, ,
-6, ,-33, ,
-7, ,-33, ,
-6, ,-33, ,
-5, ,-33, ,
-4, ,-33, ,
-4, ,-33, ,
-4, ,-33, ,
-2, ,-33, ,
-2, ,-33, ,
-1, ,-33, ,
-2, ,-33, ,
0, ,-33, ,
0, ,-33, ,
0, ,-33, ,
1, ,-33, ,
1, ,-33, ,
0, ,-33, ,
1, ,-33, ,
-1, ,-33, ,
1, ,-33, ,
1, ,-33, ,
1, ,-33, ,
2, ,-33, ,
2, ,-33, ,
0, ,-33, ,
0, ,-33, ,
0, ,-33, ,
-2, ,-33, ,
-2, ,-33, ,
-2, ,-33, ,
-3, ,-33, ,
-4, ,-33, ,
-4, ,-33, ,
-4, ,-33, ,
-4, ,-33, ,
-3, ,-33, ,
-2, ,-33, ,
-2, ,-33, ,
-2, ,-33, ,
0, ,-33, ,
-1, ,-33, ,
0, ,-33, ,
-2, ,-33, ,
1, ,-33, ,
2, ,-33, ,
3, ,-33, ,
4, ,-33, ,
5, ,-33, ,
5, ,-33, ,
5, ,-33, ,
5, ,-33, ,
5, ,-33, ,
7, ,-33, ,
6, ,-33, ,
6, ,-33, ,
6, ,-33, ,
4, ,-33, ,
5, ,-33, ,
4, ,-33, ,
3, ,-33, ,
2, ,-33, ,
2, ,-33, ,
1, ,-33, ,
0, ,-33, ,
-1, ,-33, ,
-1, ,-33, ,
-2, ,-33, ,
-4, ,-33, ,
-3, ,-33, ,
-4, ,-33, ,
-3, ,-33, ,
-3, ,-33, ,
-4, ,-33, ,
-4, ,-33, ,
-4, ,-33, ,
-4, ,-33, ,
-4, ,-33, ,
-4, ,-33, ,
-3, ,-33, ,
-2, ,-33, ,
-3, ,-33, ,
-1, ,-33, ,
-2, ,-33, ,
-2, ,-33, ,
0, ,-33, ,
-1, ,-33, ,
1, ,-33, ,
3, ,-33, ,
2, ,-33, ,
4, ,-33, ,
3, ,-33, ,
5, ,-33, ,
5, ,-33, ,
5, ,-33, ,
5, ,-33, ,
5, ,-33, ,
5, ,-33, ,
6, ,-33, ,
5, ,-33, ,
5, ,-33, ,
5, ,-33, ,
4, ,-33, ,
5, ,-33, ,
4, ,-33, ,
2, ,-33, ,
4, ,-33, ,
4, ,-33, ,
3, ,-33, ,
2, ,-33, ,
2, ,-33, ,
2, ,-33, ,
1, ,-33, ,
1, ,-33, ,
2, ,-33, ,
1, ,-33, ,
1, ,-33, ,
2, ,-33, ,
1, ,-33, ,
2, ,-33, ,
3, ,-33, ,
3, ,-33, ,
3, ,-33, ,
3, ,-33, ,
3, ,-33, ,
4, ,-33, ,
4, ,-33, ,
3, ,-33, ,
4, ,-33, ,
3, ,-33, ,
4, ,-33, ,
3, ,-33, ,
4, ,-33, ,
4, ,-33, ,
3, ,-33, ,
4, ,-33, ,
4, ,-33, ,
3, ,-33, ,
4, ,-33, ,
2, ,-33, ,
2, ,-33, ,
2, ,-33, ,
1, ,-33, ,
2, ,-33, ,
2, ,-33, ,
1, ,-33, ,
2, ,-33, ,
0, ,-33, ,
0, ,-33, ,
0, ,-33, ,
0, ,-33, ,
0, ,-33, ,
0, ,-33, ,
-1, ,-33, ,
0, ,-33, ,
0, ,-33, ,
-1, ,-33, ,
-1, ,-33, ,
-1, ,-33, ,
-1, ,-33, ,
-1, ,-33, ,
-2, ,-33, ,
-1, ,-33, ,
-3, ,-33, ,
-3, ,-33, ,
-3, ,-33, ,
-3, ,-33, ,
-3, ,-33, ,
-4, ,-33, ,
-4, ,-33, ,
-4, ,-33, ,
-4, ,-33, ,
-4, ,-33, ,
-4, ,-33, ,
-5, ,-33, ,
-4, ,-33, ,
-4, ,-33, ,
-5, ,-33, ,
-5, ,-33, ,
-6, ,-33, ,
-6, ,-33, ,
-6, ,-33, ,
-7, ,-33, ,
-6, ,-33, ,
-7, ,-33, ,
-8, ,-33, ,
-8, ,-33, ,
-9, ,-33, ,
-8, ,-33, ,
-8, ,-33, ,
-8, ,-33, ,
-9, ,-33, ,
-9, ,-33, ,
-9, ,-33, ,
-9, ,-33, ,
-10, ,-33, ,
-10, ,-33, ,
-10, ,-33, ,
-10, ,-33, ,
-10, ,-33, ,
-10, ,-33, ,
-12, ,-33, ,
-11, ,-33, ,
-11, ,-33, ,
-10, ,-33, ,
-9, ,-33, ,
-10, ,-33, ,
-10, ,-33, ,
-9, ,-33, ,
-8, ,-33, ,
-8, ,-33, ,
-9, ,-33, ,
-7, ,-33, ,
-6, ,-33, ,
-7, ,-33, ,
-5, ,-33, ,
-4, ,-33, ,
-4, ,-33, ,
-4, ,-33, ,
-2, ,-33, ,
-2, ,-33, ,
0, ,-33, ,
0, ,-33, ,
0, ,-33, ,
3, ,-33, ,
3, ,-33, ,
3, ,-33, ,
3, ,-33, ,
3, ,-33, ,
4, ,-33, ,
3, ,-33, ,
3, ,-33, ,
2, ,-33, ,
2, ,-33, ,
2, ,-33, ,
2, ,-33, ,
0, ,-33, ,
0, ,-33, ,
-1, ,-33, ,
-1, ,-33, ,
-2, ,-33, ,
-3, ,-33, ,
-3, ,-33, ,
-4, ,-33, ,
-5, ,-33, ,
-5, ,-33, ,
-6, ,-33, ,
-6, ,-33, ,
-5, ,-33, ,
-7, ,-33, ,
-7, ,-33, ,
-8, ,-33, ,
-8, ,-33, ,
-8, ,-33, ,
-9, ,-33, ,
-9, ,-33, ,
-8, ,-33, ,
-8, ,-33, ,
-8, ,-33, ,
-9, ,-33, ,
-8, ,-33, ,
-8, ,-33, ,
-9, ,-33, ,
-6, ,-33, ,
-5, ,-33, ,
-7, ,-33, ,
-6, ,-33, ,
-5, ,-33, ,
-5, ,-33, ,
-3, ,-33, ,
-4, ,-33, ,
-2, ,-33, ,
-1, ,-33, ,
-1, ,-33, ,
0, ,-33, ,
0, ,-33, ,
1, ,-33, ,
2, ,-33, ,
2, ,-33, ,
3, ,-33, ,
3, ,-33, ,
3, ,-33, ,
4, ,-33, ,
3, ,-33, ,
3, ,-33, ,
5, ,-33, ,
4, ,-33, ,
4, ,-33, ,
4, ,-33, ,
3, ,-33, ,
3, ,-33, ,
2, ,-33, ,
1, ,-33, ,
2, ,-33, ,
0, ,-33, ,
0, ,-33, ,
0, ,-33, ,
0, ,-33, ,
1, ,-33, ,
1, ,-33, ,
0, ,-33, ,
0, ,-33, ,
0, ,-33, ,
0, ,-33, ,
1, ,-33, ,
0, ,-33, ,
0, ,-33, ,
-1, ,-33, ,
2, ,-33, ,
2, ,-33, ,
1, ,-33, ,
1, ,-33, ,
2, ,-33, ,
2, ,-33, ,
2, ,-33, ,
2, ,-33, ,
1, ,-33, ,
3, ,-33, ,
2, ,-33, ,
2, ,-33, ,
2, ,-33, ,
1, ,-33, ,
1, ,-33, ,
0, ,-33, ,
-1, ,-33, ,
-1, ,-33, ,
-2, ,-33, ,
-1, ,-33, ,
-3, ,-33, ,
-4, ,-33, ,
-4, ,-33, ,
-5, ,-33, ,
-5, ,-33, ,
-5, ,-33, ,
-6, ,-33, ,
-5, ,-33, ,
-5, ,-33, ,
-5, ,-33, ,
-5, ,-33, ,
-6, ,-33, ,
-4, ,-33, ,
-3, ,-33, ,
-4, ,-33, ,
-3, ,-33, ,
-2, ,-33, ,
-2, ,-33, ,
-1, ,-33, ,
-1, ,-33, ,
-2, ,-33, ,
0, ,-33, ,
0, ,-33, ,
0, ,-33, ,
1, ,-33, ,
0, ,-33, ,
2, ,-33, ,
1, ,-33, ,
1, ,-33, ,
1, ,-33, ,
1, ,-33, ,
1, ,-33, ,
1, ,-33, ,
1, ,-33, ,
1, ,-33, ,
1, ,-33, ,
0, ,-33, ,
0, ,-33, ,
-1, ,-33, ,
0, ,-33, ,
1, ,-33, ,
0, ,-33, ,
1, ,-33, ,
0, ,-33, ,
0, ,-33, ,
0, ,-33, ,
-1, ,-33, ,
0, ,-33, ,
0, ,-33, ,
0, ,-33, ,
0, ,-33, ,
0, ,-33, ,
0, ,-33, ,
1, ,-33, ,
0, ,-33, ,
0, ,-33, ,
0, ,-33, ,
0, ,-33, ,
0, ,-33, ,
0, ,-33, ,
0, ,-33, ,
0, ,-33, ,
-1, ,-33, ,
-1, ,-33, ,
-2, ,-33, ,
-3, ,-33, ,
-1, ,-33, ,
-1, ,-33, ,
-2, ,-33, ,
-2, ,-33, ,
-3, ,-33, ,
-3, ,-33, ,
-3, ,-33, ,
-4, ,-33, ,
-3, ,-33, ,
-5, ,-33, ,
-4, ,-33, ,
-4, ,-33, ,
-4, ,-33, ,
-4, ,-33, ,
-4, ,-33, ,
-5, ,-33, ,
-4, ,-33, ,
-5, ,-33, ,
-5, ,-33, ,
-3, ,-33, ,
-5, ,-33, ,
-4, ,-33, ,
-4, ,-33, ,
-4, ,-33, ,
-4, ,-33, ,
-4, ,-33, ,
-3, ,-33, ,
-3, ,-33, ,
-4, ,-33, ,
-3, ,-33, ,
-3, ,-33, ,
-3, ,-33, ,
-3, ,-33, ,
-3, ,-33, ,
-3, ,-33, ,
-2, ,-33, ,
-2, ,-33, ,
-2, ,-33, ,
-1, ,-33, ,
-1, ,-33, ,
0, ,-33, ,
-1, ,-33, ,
0, ,-33, ,
0, ,-33, ,
0, ,-33, ,
0, ,-33, ,
1, ,-33, ,
1, ,-33, ,
2, ,-33, ,
1, ,-33, ,
3, ,-33, ,
3, ,-33, ,
2, ,-33, ,
3, ,-33, ,
4, ,-33, ,
4, ,-33, ,
4, ,-33, ,
4, ,-33, ,
3, ,-33, ,
3, ,-33, ,
4, ,-33, ,
5, ,-33, ,
5, ,-33, ,
5, ,-33, ,
5, ,-33, ,
4, ,-33, ,
4, ,-33, ,
4, ,-33, ,
4, ,-33, ,
4, ,-33, ,
5, ,-33, ,
5, ,-33, ,
4, ,-33, ,
4, ,-33, ,
4, ,-33, ,
4, ,-33, ,
3, ,-33, ,
4, ,-33, ,
4, ,-33, ,
4, ,-33, ,
3, ,-33, ,
3, ,-33, ,
3, ,-33, ,
3, ,-33, ,
3, ,-33, ,
3, ,-33, ,
3, ,-33, ,
3, ,-33, ,
3, ,-33, ,
3, ,-33, ,
3, ,-33, ,
4, ,-33, ,
2, ,-33, ,
2, ,-33, ,
2, ,-33, ,
1, ,-33, ,
2, ,-33, ,
2, ,-33, ,
0, ,-33, ,
0, ,-33, ,
1, ,-33, ,
1, ,-33, ,
1, ,-33, ,
0, ,-33, ,
0, ,-33, ,
0, ,-33, ,
0, ,-33, ,
0, ,-33, ,
-1, ,-33, ,
0, ,-33, ,
0, ,-33, ,
0, ,-33, ,
0, ,-33, ,
1, ,-33, ,
1, ,-33, ,
1, ,-33, ,
1, ,-33, ,
2, ,-33, ,
3, ,-33, ,
2, ,-33, ,
4, ,-33, ,
3, ,-33, ,
4, ,-33, ,
4, ,-33, ,
4, ,-33, ,
5, ,-33, ,
5, ,-33, ,
5, ,-33, ,
5, ,-33, ,
5, ,-33, ,
6, ,-33, ,
6, ,-33, ,
6, ,-33, ,
6, ,-33, ,
5, ,-33, ,
5, ,-33, ,
5, ,-33, ,
5, ,-33, ,
4, ,-33, ,
4, ,-33, ,
3, ,-33, ,
3, ,-33, ,
2, ,-33, ,
2, ,-33, ,
2, ,-33, ,
1, ,-33, ,
0, ,-33, ,
0, ,-33, ,
0, ,-33, ,
0, ,-33, ,
0, ,-33, ,
-1, ,-33, ,
0, ,-33, ,
-2, ,-33, ,
-1, ,-33, ,
-2, ,-33, ,
0, ,-33, ,
0, ,-33, ,
