raw_data/100% Glycerol, Impulsion 2Hz, Sonde 5MHz, Rampe 0.7Hz/temp0000267.CSV

Format,1.0B,
Memory Length,10000,Memory Length,10000,
IntpDistance,0,IntpDistance,0,
Trigger Address,159,Trigger Address,159,
Trigger Level,2.720E-01,Trigger Level,2.720E-01,
Source,CH1,Source,CH2,
Vertical Units,V,Vertical Units,V,
Vertical Units Div,0,Vertical Units Div,0,
Vertical Units Extend Div,16,Vertical Units Extend Div,16,
Label,,Label,,
Probe Type,0,Probe Type,0,
Probe Ratio,1.000e+00,Probe Ratio,1.000e+00,
Vertical Scale,2.000e-01,Vertical Scale,2.000e+00,
Vertical Position,0.000e+00,Vertical Position,0.000e+00,
Horizontal Units,S,Horizontal Units,S,
Horizontal Scale,5.000E-06,Horizontal Scale,5.000E-06,
Horizontal Position,2.420E-05,Horizontal Position,2.420E-05,
Horizontal Mode,Main,Horizontal Mode,Main,
SincET Mode,Real Time,SincET Mode,Real Time,
Sampling Period,5.000e-09,Sampling Period,5.000e-09,
Horizontal Old Scale,5.000E-06,Horizontal Old Scale,5.000E-06,
Horizontal Old Position,2.420E-05,Horizontal Old Position,2.420E-05,
Firmware,V1.32,Firmware,V1.32,
Mode,Fast,Mode,Fast,
Waveform Data,,Waveform Data,,
1, ,24, ,
1, ,24, ,
1, ,24, ,
2, ,24, ,
3, ,24, ,
2, ,24, ,
2, ,24, ,
1, ,24, ,
1, ,24, ,
3, ,24, ,
1, ,24, ,
2, ,24, ,
2, ,24, ,
1, ,24, ,
2, ,24, ,
2, ,24, ,
0, ,24, ,
2, ,24, ,
2, ,24, ,
2, ,23, ,
1, ,23, ,
2, ,23, ,
2, ,23, ,
1, ,24, ,
1, ,24, ,
2, ,23, ,
1, ,23, ,
2, ,24, ,
1, ,24, ,
1, ,24, ,
1, ,24, ,
1, ,24, ,
1, ,24, ,
1, ,23, ,
1, ,23, ,
1, ,23, ,
2, ,24, ,
1, ,23, ,
1, ,23, ,
1, ,24, ,
2, ,24, ,
2, ,24, ,
0, ,24, ,
2, ,23, ,
1, ,23, ,
0, ,24, ,
2, ,24, ,
1, ,24, ,
1, ,24, ,
2, ,24, ,
1, ,24, ,
2, ,23, ,
2, ,23, ,
2, ,24, ,
1, ,23, ,
2, ,23, ,
1, ,23, ,
2, ,24, ,
1, ,24, ,
2, ,23, ,
2, ,23, ,
0, ,24, ,
2, ,24, ,
1, ,24, ,
1, ,23, ,
2, ,23, ,
1, ,23, ,
2, ,23, ,
1, ,23, ,
0, ,23, ,
1, ,23, ,
0, ,23, ,
0, ,23, ,
0, ,23, ,
0, ,24, ,
1, ,24, ,
2, ,24, ,
1, ,23, ,
2, ,23, ,
2, ,24, ,
1, ,24, ,
2, ,24, ,
1, ,23, ,
2, ,23, ,
1, ,23, ,
1, ,24, ,
2, ,24, ,
0, ,24, ,
1, ,23, ,
1, ,23, ,
1, ,24, ,
1, ,24, ,
2, ,24, ,
1, ,24, ,
1, ,24, ,
1, ,24, ,
1, ,24, ,
1, ,24, ,
1, ,23, ,
2, ,23, ,
2, ,23, ,
1, ,24, ,
1, ,23, ,
1, ,23, ,
1, ,23, ,
2, ,24, ,
1, ,23, ,
2, ,23, ,
2, ,23, ,
1, ,23, ,
2, ,23, ,
1, ,23, ,
1, ,23, ,
2, ,24, ,
2, ,24, ,
2, ,24, ,
2, ,24, ,
2, ,24, ,
2, ,24, ,
1, ,24, ,
2, ,23, ,
2, ,23, ,
1, ,23, ,
2, ,23, ,
2, ,23, ,
1, ,23, ,
1, ,23, ,
1, ,24, ,
1, ,24, ,
2, ,24, ,
1, ,24, ,
1, ,24, ,
2, ,24, ,
1, ,23, ,
2, ,23, ,
1, ,24, ,
2, ,23, ,
2, ,23, ,
1, ,24, ,
2, ,24, ,
2, ,23, ,
2, ,23, ,
2, ,24, ,
1, ,24, ,
1, ,24, ,
1, ,24, ,
1, ,24, ,
1, ,24, ,
2, ,24, ,
1, ,24, ,
2, ,24, ,
1, ,24, ,
1, ,23, ,
2, ,23, ,
1, ,23, ,
2, ,23, ,
2, ,24, ,
0, ,24, ,
2, ,24, ,
1, ,24, ,
1, ,24, ,
2, ,24, ,
2, ,24, ,
2, ,24, ,
0, ,24, ,
-1, ,24, ,
-1, ,24, ,
-1, ,24, ,
81, ,24, ,
125, ,24, ,
125, ,24, ,
125, ,24, ,
121, ,24, ,
117, ,24, ,
22, ,24, ,
-15, ,24, ,
125, ,23, ,
125, ,23, ,
125, ,23, ,
125, ,23, ,
125, ,24, ,
125, ,24, ,
125, ,24, ,
125, ,24, ,
125, ,24, ,
125, ,24, ,
125, ,24, ,
125, ,23, ,
125, ,23, ,
125, ,24, ,
125, ,24, ,
125, ,24, ,
125, ,24, ,
125, ,24, ,
125, ,24, ,
125, ,24, ,
125, ,24, ,
125, ,23, ,
125, ,23, ,
125, ,23, ,
125, ,23, ,
125, ,23, ,
124, ,24, ,
124, ,24, ,
115, ,24, ,
110, ,24, ,
106, ,24, ,
103, ,24, ,
93, ,24, ,
91, ,24, ,
86, ,24, ,
82, ,24, ,
75, ,24, ,
71, ,24, ,
68, ,24, ,
64, ,24, ,
60, ,23, ,
57, ,23, ,
53, ,24, ,
51, ,23, ,
48, ,23, ,
44, ,24, ,
43, ,24, ,
40, ,24, ,
36, ,24, ,
35, ,23, ,
33, ,23, ,
32, ,23, ,
29, ,24, ,
26, ,24, ,
27, ,24, ,
24, ,24, ,
22, ,23, ,
21, ,23, ,
17, ,23, ,
17, ,24, ,
15, ,24, ,
14, ,24, ,
14, ,24, ,
12, ,24, ,
10, ,24, ,
10, ,24, ,
9, ,24, ,
9, ,23, ,
8, ,23, ,
7, ,24, ,
7, ,24, ,
5, ,24, ,
5, ,24, ,
5, ,24, ,
4, ,24, ,
4, ,24, ,
3, ,24, ,
1, ,24, ,
1, ,24, ,
1, ,24, ,
0, ,24, ,
0, ,23, ,
0, ,23, ,
-1, ,23, ,
-1, ,24, ,
-1, ,23, ,
-2, ,23, ,
-2, ,24, ,
-2, ,23, ,
-2, ,23, ,
-2, ,24, ,
-2, ,23, ,
-2, ,23, ,
-2, ,24, ,
-2, ,24, ,
-2, ,24, ,
-3, ,24, ,
-3, ,23, ,
-2, ,23, ,
-2, ,23, ,
-3, ,24, ,
-4, ,23, ,
-3, ,23, ,
-3, ,24, ,
-3, ,24, ,
-3, ,23, ,
-4, ,23, ,
-3, ,24, ,
-3, ,24, ,
-3, ,24, ,
-3, ,24, ,
-3, ,24, ,
-4, ,24, ,
-4, ,24, ,
-3, ,24, ,
-4, ,24, ,
-3, ,24, ,
-4, ,24, ,
-3, ,24, ,
-4, ,24, ,
-3, ,24, ,
-3, ,23, ,
-4, ,23, ,
-3, ,23, ,
-2, ,24, ,
-3, ,24, ,
-2, ,23, ,
-2, ,23, ,
-2, ,23, ,
-2, ,24, ,
-2, ,24, ,
-2, ,23, ,
-2, ,23, ,
-1, ,23, ,
-2, ,23, ,
-4, ,24, ,
-1, ,24, ,
-1, ,24, ,
-2, ,24, ,
-1, ,23, ,
-1, ,23, ,
-2, ,24, ,
-1, ,24, ,
-2, ,24, ,
-2, ,24, ,
-1, ,23, ,
-1, ,23, ,
-1, ,23, ,
0, ,24, ,
-1, ,24, ,
-1, ,24, ,
-2, ,24, ,
-1, ,24, ,
-1, ,23, ,
-1, ,23, ,
0, ,23, ,
-1, ,23, ,
-1, ,23, ,
0, ,24, ,
-1, ,24, ,
0, ,24, ,
-1, ,24, ,
0, ,24, ,
0, ,24, ,
0, ,24, ,
0, ,24, ,
0, ,24, ,
0, ,24, ,
0, ,23, ,
0, ,23, ,
-1, ,24, ,
0, ,24, ,
0, ,24, ,
0, ,24, ,
0, ,24, ,
0, ,24, ,
0, ,24, ,
1, ,24, ,
0, ,24, ,
0, ,24, ,
1, ,24, ,
0, ,24, ,
0, ,24, ,
-1, ,24, ,
0, ,23, ,
0, ,23, ,
0, ,24, ,
0, ,24, ,
1, ,24, ,
1, ,24, ,
0, ,24, ,
0, ,24, ,
0, ,24, ,
1, ,24, ,
0, ,24, ,
1, ,24, ,
1, ,24, ,
1, ,24, ,
1, ,24, ,
1, ,24, ,
1, ,24, ,
1, ,24, ,
0, ,24, ,
0, ,24, ,
1, ,24, ,
0, ,24, ,
1, ,24, ,
0, ,24, ,
0, ,24, ,
1, ,24, ,
1, ,24, ,
1, ,24, ,
1, ,24, ,
1, ,24, ,
2, ,24, ,
1, ,24, ,
1, ,24, ,
0, ,24, ,
0, ,24, ,
0, ,24, ,
1, ,24, ,
1, ,24, ,
1, ,24, ,
1, ,24, ,
1, ,24, ,
1, ,23, ,
1, ,23, ,
1, ,23, ,
1, ,24, ,
0, ,24, ,
1, ,24, ,
0, ,24, ,
1, ,24, ,
1, ,23, ,
1, ,23, ,
1, ,23, ,
2, ,23, ,
1, ,23, ,
2, ,23, ,
1, ,24, ,
1, ,24, ,
2, ,24, ,
2, ,24, ,
2, ,24, ,
1, ,24, ,
1, ,24, ,
1, ,24, ,
0, ,24, ,
0, ,24, ,
1, ,24, ,
0, ,24, ,
1, ,24, ,
1, ,24, ,
0, ,24, ,
1, ,23, ,
1, ,23, ,
1, ,23, ,
1, ,24, ,
0, ,23, ,
2, ,23, ,
1, ,23, ,
0, ,23, ,
0, ,23, ,
0, ,24, ,
0, ,24, ,
0, ,24, ,
-1, ,24, ,
-1, ,23, ,
-2, ,23, ,
-4, ,24, ,
-1, ,24, ,
-1, ,24, ,
-2, ,24, ,
0, ,24, ,
1, ,24, ,
1, ,24, ,
1, ,24, ,
1, ,23, ,
1, ,23, ,
1, ,24, ,
1, ,24, ,
2, ,23, ,
1, ,23, ,
2, ,24, ,
2, ,24, ,
0, ,24, ,
2, ,24, ,
1, ,24, ,
1, ,24, ,
2, ,24, ,
1, ,23, ,
2, ,23, ,
2, ,23, ,
2, ,24, ,
2, ,24, ,
2, ,24, ,
2, ,24, ,
2, ,24, ,
2, ,24, ,
2, ,24, ,
1, ,24, ,
1, ,24, ,
2, ,24, ,
1, ,24, ,
0, ,24, ,
0, ,24, ,
-1, ,24, ,
0, ,24, ,
0, ,24, ,
-1, ,23, ,
0, ,23, ,
0, ,24, ,
0, ,24, ,
1, ,24, ,
1, ,24, ,
1, ,24, ,
2, ,24, ,
1, ,24, ,
3, ,24, ,
2, ,24, ,
1, ,24, ,
1, ,24, ,
2, ,24, ,
2, ,24, ,
1, ,24, ,
0, ,23, ,
1, ,23, ,
-2, ,23, ,
0, ,24, ,
0, ,24, ,
0, ,24, ,
0, ,24, ,
1, ,24, ,
1, ,24, ,
1, ,24, ,
1, ,24, ,
1, ,23, ,
0, ,23, ,
0, ,23, ,
-1, ,23, ,
-3, ,23, ,
-3, ,23, ,
-3, ,23, ,
-5, ,24, ,
-6, ,24, ,
-5, ,24, ,
-7, ,24, ,
-7, ,23, ,
-9, ,23, ,
-9, ,24, ,
-8, ,24, ,
-8, ,24, ,
-9, ,24, ,
-9, ,24, ,
-10, ,24, ,
-10, ,24, ,
-13, ,24, ,
-14, ,24, ,
-15, ,24, ,
-18, ,24, ,
-22, ,24, ,
-22, ,24, ,
-25, ,24, ,
-26, ,24, ,
-29, ,24, ,
-31, ,24, ,
-30, ,24, ,
-30, ,24, ,
-30, ,24, ,
-27, ,24, ,
-27, ,24, ,
-24, ,24, ,
-22, ,24, ,
-21, ,24, ,
-20, ,24, ,
-21, ,24, ,
-21, ,24, ,
-21, ,24, ,
-22, ,24, ,
-21, ,24, ,
-25, ,24, ,
-27, ,24, ,
-27, ,23, ,
-30, ,23, ,
-32, ,23, ,
-31, ,24, ,
-31, ,24, ,
-30, ,24, ,
-28, ,24, ,
-27, ,23, ,
-25, ,23, ,
-25, ,24, ,
-20, ,24, ,
-17, ,24, ,
-17, ,24, ,
-14, ,23, ,
-12, ,23, ,
-13, ,24, ,
-11, ,23, ,
-12, ,23, ,
-12, ,23, ,
-12, ,24, ,
-10, ,24, ,
-10, ,24, ,
-8, ,24, ,
-6, ,23, ,
-5, ,23, ,
-2, ,23, ,
2, ,23, ,
5, ,23, ,
6, ,23, ,
6, ,24, ,
9, ,24, ,
8, ,24, ,
9, ,24, ,
8, ,24, ,
6, ,24, ,
7, ,24, ,
4, ,24, ,
4, ,24, ,
0, ,24, ,
-1, ,24, ,
-3, ,24, ,
-5, ,24, ,
-6, ,24, ,
-6, ,24, ,
-7, ,24, ,
-7, ,23, ,
-6, ,23, ,
-7, ,24, ,
-6, ,24, ,
-7, ,24, ,
-8, ,24, ,
-8, ,24, ,
-10, ,24, ,
-11, ,24, ,
-13, ,24, ,
-16, ,24, ,
-17, ,24, ,
-21, ,24, ,
-23, ,24, ,
-24, ,24, ,
-25, ,24, ,
-24, ,24, ,
-24, ,24, ,
-24, ,24, ,
-24, ,24, ,
-25, ,24, ,
-25, ,24, ,
-24, ,24, ,
-25, ,24, ,
-25, ,24, ,
-26, ,24, ,
-29, ,23, ,
-29, ,23, ,
-30, ,24, ,
-31, ,23, ,
-31, ,23, ,
-32, ,23, ,
-32, ,24, ,
-31, ,24, ,
-33, ,24, ,
-33, ,24, ,
-33, ,24, ,
-33, ,24, ,
-32, ,24, ,
-33, ,24, ,
-33, ,24, ,
-34, ,24, ,
-32, ,24, ,
-31, ,24, ,
-34, ,24, ,
-32, ,24, ,
-31, ,24, ,
-32, ,24, ,
-32, ,24, ,
-33, ,24, ,
-35, ,23, ,
-36, ,23, ,
-36, ,24, ,
-41, ,24, ,
-41, ,24, ,
-40, ,24, ,
-43, ,24, ,
-40, ,24, ,
-39, ,24, ,
-36, ,24, ,
-37, ,24, ,
-34, ,24, ,
-32, ,24, ,
-33, ,24, ,
-31, ,24, ,
-30, ,24, ,
-30, ,24, ,
-30, ,24, ,
-31, ,24, ,
-31, ,24, ,
-30, ,24, ,
-31, ,24, ,
-29, ,23, ,
-28, ,23, ,
-28, ,23, ,
-27, ,23, ,
-25, ,24, ,
-24, ,24, ,
-22, ,23, ,
-22, ,23, ,
-20, ,24, ,
-20, ,24, ,
-21, ,24, ,
-20, ,24, ,
-20, ,24, ,
-20, ,24, ,
-20, ,24, ,
-20, ,24, ,
-20, ,24, ,
-18, ,24, ,
-18, ,24, ,
-17, ,23, ,
-17, ,23, ,
-17, ,23, ,
-17, ,23, ,
-17, ,24, ,
-15, ,24, ,
-15, ,23, ,
-16, ,23, ,
-15, ,23, ,
-15, ,24, ,
-15, ,24, ,
-12, ,24, ,
-10, ,24, ,
-9, ,24, ,
-6, ,24, ,
-7, ,24, ,
-6, ,24, ,
-5, ,24, ,
-4, ,24, ,
-3, ,24, ,
-4, ,24, ,
-2, ,24, ,
-1, ,24, ,
-1, ,23, ,
1, ,23, ,
0, ,23, ,
1, ,23, ,
4, ,24, ,
4, ,24, ,
5, ,24, ,
5, ,24, ,
5, ,23, ,
5, ,23, ,
5, ,23, ,
3, ,24, ,
3, ,24, ,
1, ,24, ,
0, ,24, ,
-1, ,24, ,
-2, ,24, ,
-1, ,24, ,
-2, ,24, ,
-3, ,24, ,
-3, ,24, ,
-4, ,24, ,
-3, ,24, ,
-4, ,24, ,
-4, ,23, ,
-4, ,23, ,
-4, ,24, ,
-5, ,24, ,
-5, ,24, ,
-5, ,24, ,
-5, ,23, ,
-6, ,23, ,
-7, ,24, ,
-7, ,24, ,
-8, ,24, ,
-10, ,24, ,
-8, ,24, ,
-11, ,24, ,
-11, ,24, ,
-12, ,24, ,
-14, ,24, ,
-14, ,24, ,
-15, ,24, ,
-16, ,24, ,
-16, ,24, ,
-18, ,24, ,
-18, ,23, ,
-19, ,23, ,
-18, ,24, ,
-18, ,24, ,
-19, ,24, ,
-19, ,24, ,
-19, ,24, ,
-20, ,24, ,
-20, ,24, ,
-21, ,24, ,
-23, ,23, ,
-22, ,23, ,
-24, ,24, ,
-25, ,23, ,
-25, ,23, ,
-26, ,24, ,
-26, ,24, ,
-28, ,24, ,
-29, ,23, ,
-28, ,23, ,
-30, ,24, ,
-31, ,24, ,
-32, ,24, ,
-32, ,24, ,
-32, ,24, ,
-33, ,24, ,
-34, ,23, ,
-34, ,23, ,
-35, ,24, ,
-34, ,24, ,
-33, ,24, ,
-33, ,24, ,
-31, ,23, ,
-28, ,23, ,
-29, ,24, ,
-26, ,24, ,
-24, ,23, ,
-21, ,23, ,
-17, ,24, ,
-15, ,24, ,
-14, ,24, ,
-10, ,24, ,
-10, ,23, ,
-8, ,23, ,
-7, ,24, ,
-4, ,24, ,
-2, ,23, ,
-2, ,23, ,
1, ,23, ,
3, ,23, ,
5, ,24, ,
6, ,24, ,
8, ,24, ,
7, ,24, ,
10, ,24, ,
10, ,24, ,
10, ,24, ,
11, ,24, ,
11, ,24, ,
11, ,24, ,
11, ,24, ,
11, ,23, ,
12, ,23, ,
12, ,24, ,
12, ,24, ,
12, ,24, ,
11, ,24, ,
12, ,24, ,
11, ,24, ,
10, ,24, ,
10, ,24, ,
9, ,24, ,
10, ,24, ,
8, ,24, ,
8, ,24, ,
7, ,24, ,
6, ,24, ,
4, ,24, ,
5, ,24, ,
3, ,24, ,
3, ,24, ,
2, ,24, ,
-1, ,23, ,
-1, ,23, ,
-3, ,24, ,
-5, ,24, ,
-4, ,24, ,
-6, ,24, ,
-6, ,23, ,
-10, ,23, ,
-11, ,24, ,
-11, ,24, ,
-13, ,24, ,
-14, ,24, ,
-14, ,24, ,
-17, ,24, ,
-15, ,23, ,
-17, ,23, ,
-18, ,24, ,
-18, ,23, ,
-20, ,23, ,
-21, ,23, ,
-21, ,24, ,
-22, ,23, ,
-22, ,23, ,
-24, ,23, ,
-24, ,24, ,
-24, ,24, ,
-24, ,24, ,
-25, ,23, ,
-24, ,23, ,
-25, ,24, ,
-24, ,24, ,
-24, ,24, ,
-25, ,24, ,
-23, ,24, ,
-24, ,23, ,
-24, ,23, ,
-24, ,24, ,
-23, ,24, ,
-23, ,24, ,
-22, ,23, ,
-23, ,23, ,
-23, ,24, ,
-24, ,24, ,
-23, ,23, ,
-23, ,23, ,
-23, ,24, ,
-24, ,24, ,
-25, ,24, ,
-25, ,24, ,
-25, ,24, ,
-26, ,23, ,
-27, ,23, ,
-28, ,24, ,
-28, ,24, ,
-30, ,23, ,
-30, ,23, ,
-33, ,23, ,
-32, ,23, ,
-35, ,24, ,
-35, ,24, ,
-37, ,24, ,
-39, ,24, ,
-38, ,24, ,
-39, ,23, ,
-39, ,23, ,
-39, ,24, ,
-40, ,24, ,
-38, ,24, ,
-37, ,24, ,
-36, ,24, ,
-35, ,24, ,
-33, ,24, ,
-32, ,24, ,
-29, ,24, ,
-27, ,24, ,
-24, ,23, ,
-20, ,23, ,
-19, ,24, ,
-15, ,24, ,
-10, ,24, ,
-8, ,24, ,
-5, ,24, ,
-4, ,24, ,
0, ,24, ,
1, ,24, ,
2, ,24, ,
4, ,23, ,
4, ,23, ,
3, ,23, ,
3, ,23, ,
1, ,23, ,
0, ,24, ,
0, ,24, ,
-1, ,24, ,
-1, ,24, ,
-3, ,24, ,
-4, ,23, ,
-4, ,23, ,
-5, ,23, ,
-6, ,24, ,
-4, ,23, ,
-4, ,23, ,
-4, ,23, ,
-2, ,24, ,
-2, ,24, ,
-2, ,24, ,
-2, ,23, ,
1, ,23, ,
3, ,24, ,
2, ,24, ,
5, ,24, ,
6, ,24, ,
6, ,24, ,
9, ,24, ,
8, ,24, ,
10, ,24, ,
12, ,23, ,
12, ,23, ,
12, ,23, ,
12, ,23, ,
11, ,23, ,
12, ,23, ,
11, ,23, ,
10, ,23, ,
10, ,23, ,
9, ,23, ,
9, ,23, ,
8, ,23, ,
7, ,23, ,
7, ,23, ,
5, ,23, ,
4, ,23, ,
4, ,24, ,
3, ,24, ,
3, ,24, ,
0, ,24, ,
0, ,24, ,
-1, ,23, ,
-3, ,23, ,
-3, ,23, ,
-3, ,24, ,
-5, ,24, ,
-5, ,24, ,
-6, ,24, ,
-7, ,24, ,
-7, ,24, ,
-8, ,24, ,
-9, ,24, ,
-9, ,24, ,
-10, ,24, ,
-10, ,23, ,
-11, ,23, ,
-12, ,23, ,
-12, ,23, ,
-12, ,24, ,
-12, ,24, ,
-12, ,24, ,
-13, ,24, ,
-11, ,24, ,
-12, ,24, ,
-12, ,24, ,
-11, ,24, ,
-12, ,24, ,
-11, ,24, ,
-10, ,24, ,
-11, ,23, ,
-10, ,23, ,
-9, ,23, ,
-9, ,24, ,
-9, ,24, ,
-9, ,24, ,
-9, ,24, ,
-9, ,23, ,
-9, ,23, ,
-8, ,23, ,
-8, ,24, ,
-9, ,24, ,
-8, ,24, ,
-9, ,24, ,
-9, ,24, ,
-9, ,24, ,
-10, ,23, ,
-9, ,23, ,
-9, ,23, ,
-10, ,23, ,
-9, ,23, ,
-9, ,24, ,
-9, ,23, ,
-8, ,23, ,
-9, ,23, ,
-7, ,24, ,
-7, ,24, ,
-7, ,24, ,
-6, ,24, ,
-5, ,23, ,
-7, ,23, ,
-4, ,24, ,
-4, ,24, ,
-4, ,24, ,
-3, ,24, ,
-3, ,23, ,
-2, ,23, ,
-2, ,23, ,
-1, ,23, ,
-1, ,24, ,
-2, ,24, ,
0, ,23, ,
0, ,23, ,
0, ,24, ,
0, ,24, ,
0, ,24, ,
0, ,24, ,
0, ,24, ,
-1, ,24, ,
0, ,24, ,
-2, ,24, ,
-2, ,24, ,
-2, ,24, ,
-3, ,24, ,
-3, ,23, ,
-3, ,23, ,
-3, ,24, ,
-3, ,24, ,
-4, ,24, ,
-4, ,24, ,
-4, ,23, ,
-5, ,23, ,
-5, ,23, ,
-5, ,24, ,
-6, ,24, ,
-6, ,24, ,
-7, ,24, ,
-7, ,23, ,
-5, ,23, ,
-7, ,24, ,
-5, ,24, ,
-5, ,24, ,
-5, ,24, ,
-5, ,23, ,
-3, ,23, ,
-5, ,24, ,
-5, ,24, ,
-4, ,24, ,
-5, ,24, ,
-3, ,24, ,
-5, ,24, ,
-4, ,24, ,
-3, ,24, ,
-4, ,23, ,
-4, ,23, ,
-4, ,23, ,
-3, ,24, ,
-3, ,23, ,
-3, ,23, ,
-3, ,23, ,
-3, ,24, ,
-3, ,23, ,
-3, ,23, ,
-4, ,24, ,
-4, ,24, ,
-3, ,24, ,
-4, ,24, ,
-4, ,24, ,
-3, ,24, ,
-4, ,23, ,
-4, ,23, ,
-4, ,24, ,
-4, ,24, ,
-4, ,24, ,
-5, ,24, ,
-3, ,24, ,
-3, ,24, ,
-4, ,24, ,
-4, ,24, ,
-5, ,24, ,
-5, ,24, ,
-4, ,23, ,
-4, ,23, ,
-4, ,23, ,
-4, ,23, ,
-5, ,24, ,
-5, ,24, ,
-5, ,24, ,
-5, ,24, ,
-4, ,24, ,
-5, ,24, ,
-5, ,24, ,
-5, ,24, ,
-5, ,24, ,
-4, ,24, ,
-4, ,24, ,
-5, ,24, ,
-4, ,23, ,
-5, ,23, ,
-5, ,23, ,
-6, ,24, ,
-7, ,24, ,
-5, ,24, ,
-6, ,24, ,
-5, ,24, ,
-5, ,24, ,
-5, ,24, ,
-4, ,24, ,
-3, ,24, ,
-3, ,24, ,
-2, ,24, ,
-3, ,24, ,
-1, ,24, ,
0, ,23, ,
1, ,23, ,
1, ,23, ,
3, ,24, ,
4, ,23, ,
5, ,23, ,
5, ,23, ,
6, ,23, ,
6, ,23, ,
7, ,24, ,
9, ,24, ,
10, ,23, ,
10, ,23, ,
10, ,23, ,
10, ,23, ,
10, ,23, ,
10, ,24, ,
10, ,23, ,
9, ,23, ,
8, ,23, ,
7, ,24, ,
7, ,24, ,
5, ,24, ,
4, ,24, ,
5, ,24, ,
3, ,24, ,
3, ,24, ,
4, ,24, ,
1, ,23, ,
1, ,23, ,
0, ,23, ,
0, ,23, ,
1, ,24, ,
-1, ,24, ,
0, ,24, ,
1, ,24, ,
0, ,24, ,
1, ,24, ,
0, ,24, ,
1, ,24, ,
2, ,24, ,
1, ,24, ,
2, ,24, ,
2, ,24, ,
1, ,24, ,
2, ,24, ,
1, ,24, ,
2, ,24, ,
3, ,23, ,
2, ,23, ,
2, ,23, ,
2, ,24, ,
1, ,23, ,
2, ,23, ,
1, ,23, ,
1, ,24, ,
2, ,24, ,
0, ,24, ,
1, ,24, ,
1, ,24, ,
-2, ,24, ,
0, ,24, ,
-2, ,24, ,
-2, ,24, ,
-2, ,23, ,
-3, ,23, ,
-3, ,23, ,
-4, ,24, ,
-5, ,24, ,
-5, ,24, ,
-5, ,24, ,
-5, ,24, ,
-5, ,23, ,
-6, ,23, ,
-5, ,24, ,
-5, ,24, ,
-6, ,24, ,
-6, ,24, ,
-5, ,24, ,
-6, ,24, ,
-6, ,24, ,
-7, ,24, ,
-6, ,24, ,
-6, ,24, ,
-7, ,24, ,
-6, ,24, ,
-7, ,24, ,
-7, ,24, ,
-5, ,24, ,
-7, ,24, ,
-5, ,24, ,
-5, ,24, ,
-5, ,24, ,
-5, ,24, ,
-5, ,23, ,
-5, ,23, ,
-5, ,24, ,
-5, ,24, ,
-5, ,24, ,
-5, ,24, ,
-5, ,23, ,
-5, ,23, ,
-5, ,24, ,
-5, ,24, ,
-6, ,24, ,
-6, ,24, ,
-6, ,23, ,
-6, ,23, ,
-6, ,24, ,
-5, ,24, ,
-5, ,23, ,
-5, ,23, ,
-5, ,24, ,
-6, ,24, ,
-5, ,24, ,
-5, ,24, ,
-5, ,24, ,
-6, ,24, ,
-7, ,24, ,
-5, ,24, ,
-5, ,24, ,
-6, ,24, ,
-6, ,24, ,
-5, ,24, ,
-6, ,24, ,
-6, ,24, ,
-5, ,23, ,
-5, ,23, ,
-5, ,23, ,
-5, ,24, ,
-4, ,24, ,
-4, ,24, ,
-5, ,23, ,
-4, ,23, ,
-4, ,24, ,
-4, ,24, ,
-4, ,24, ,
-4, ,24, ,
-4, ,23, ,
-3, ,23, ,
-4, ,24, ,
-3, ,23, ,
-4, ,23, ,
-5, ,23, ,
-3, ,24, ,
-4, ,24, ,
-3, ,24, ,
-3, ,24, ,
-3, ,23, ,
-3, ,23, ,
-4, ,24, ,
-5, ,24, ,
-3, ,23, ,
-4, ,23, ,
-4, ,23, ,
-3, ,24, ,
-5, ,24, ,
-3, ,24, ,
-4, ,24, ,
-4, ,24, ,
-3, ,24, ,
-4, ,24, ,
-4, ,24, ,
-4, ,24, ,
-4, ,24, ,
-4, ,24, ,
-5, ,24, ,
-4, ,24, ,
-4, ,24, ,
-4, ,24, ,
-4, ,24, ,
-3, ,24, ,
-4, ,24, ,
-3, ,24, ,
-4, ,24, ,
-4, ,24, ,
-2, ,24, ,
-3, ,24, ,
-3, ,24, ,
-2, ,24, ,
-2, ,24, ,
-2, ,23, ,
-2, ,23, ,
-1, ,23, ,
0, ,23, ,
-1, ,23, ,
1, ,24, ,
1, ,24, ,
1, ,24, ,
2, ,24, ,
1, ,24, ,
1, ,24, ,
1, ,24, ,
2, ,24, ,
2, ,24, ,
2, ,24, ,
2, ,24, ,
2, ,24, ,
1, ,24, ,
1, ,24, ,
1, ,24, ,
0, ,24, ,
0, ,24, ,
0, ,24, ,
0, ,24, ,
0, ,24, ,
-1, ,24, ,
-2, ,24, ,
-1, ,24, ,
-2, ,24, ,
-1, ,24, ,
-3, ,24, ,
-3, ,23, ,
-3, ,23, ,
-4, ,23, ,
-4, ,23, ,
-4, ,23, ,
-6, ,24, ,
-5, ,24, ,
-5, ,24, ,
-5, ,24, ,
-5, ,24, ,
-6, ,24, ,
-7, ,24, ,
-7, ,23, ,
-6, ,23, ,
-6, ,23, ,
-5, ,24, ,
-6, ,24, ,
-6, ,24, ,
-7, ,24, ,
-5, ,24, ,
-5, ,23, ,
-5, ,23, ,
-4, ,23, ,
-4, ,23, ,
-4, ,24, ,
-1, ,24, ,
-2, ,24, ,
0, ,24, ,
1, ,24, ,
1, ,24, ,
2, ,24, ,
3, ,24, ,
4, ,23, ,
4, ,23, ,
4, ,23, ,
6, ,23, ,
7, ,23, ,
6, ,24, ,
7, ,24, ,
9, ,24, ,
8, ,24, ,
9, ,24, ,
9, ,24, ,
9, ,24, ,
9, ,24, ,
10, ,24, ,
10, ,24, ,
10, ,24, ,
10, ,24, ,
10, ,24, ,
9, ,24, ,
8, ,24, ,
8, ,23, ,
7, ,23, ,
7, ,23, ,
6, ,23, ,
5, ,23, ,
4, ,23, ,
4, ,23, ,
2, ,24, ,
2, ,24, ,
2, ,24, ,
2, ,24, ,
0, ,24, ,
-1, ,23, ,
-1, ,23, ,
-2, ,23, ,
-3, ,23, ,
-3, ,23, ,
-5, ,24, ,
-4, ,23, ,
-5, ,23, ,
-5, ,24, ,
-5, ,24, ,
-6, ,24, ,
-8, ,24, ,
-8, ,24, ,
-8, ,24, ,
-9, ,24, ,
-11, ,24, ,
-13, ,24, ,
-13, ,24, ,
-16, ,24, ,
-20, ,23, ,
-22, ,23, ,
-26, ,24, ,
-30, ,24, ,
-37, ,24, ,
-44, ,24, ,
-50, ,24, ,
-57, ,24, ,
-74, ,24, ,
-83, ,24, ,
-94, ,24, ,
-104, ,24, ,
-126, ,24, ,
-126, ,23, ,
-126, ,23, ,
-126, ,24, ,
-126, ,24, ,
-126, ,24, ,
-126, ,24, ,
-126, ,24, ,
-126, ,24, ,
-126, ,24, ,
-126, ,24, ,
-126, ,24, ,
-126, ,24, ,
-126, ,24, ,
-124, ,24, ,
-120, ,24, ,
-110, ,24, ,
-107, ,24, ,
-102, ,24, ,
-99, ,24, ,
-91, ,24, ,
-87, ,24, ,
-86, ,24, ,
-81, ,24, ,
-73, ,24, ,
-71, ,24, ,
-65, ,24, ,
-64, ,24, ,
-43, ,24, ,
-5, ,24, ,
77, ,24, ,
125, ,24, ,
125, ,24, ,
125, ,23, ,
125, ,23, ,
125, ,23, ,
125, ,24, ,
125, ,24, ,
125, ,24, ,
125, ,24, ,
125, ,24, ,
125, ,24, ,
125, ,24, ,
125, ,24, ,
125, ,24, ,
125, ,23, ,
125, ,23, ,
125, ,23, ,
125, ,24, ,
125, ,24, ,
124, ,24, ,
123, ,24, ,
90, ,24, ,
71, ,24, ,
53, ,24, ,
40, ,24, ,
20, ,24, ,
10, ,24, ,
5, ,24, ,
2, ,24, ,
-2, ,23, ,
-1, ,23, ,
-1, ,24, ,
1, ,24, ,
5, ,24, ,
7, ,23, ,
10, ,23, ,
11, ,23, ,
15, ,23, ,
16, ,23, ,
16, ,23, ,
15, ,23, ,
14, ,24, ,
12, ,24, ,
11, ,24, ,
6, ,24, ,
-1, ,24, ,
-3, ,23, ,
-6, ,23, ,
-10, ,23, ,
-16, ,23, ,
-19, ,24, ,
-21, ,24, ,
-22, ,24, ,
-21, ,24, ,
-20, ,24, ,
-19, ,24, ,
-18, ,23, ,
-12, ,23, ,
-9, ,24, ,
-4, ,23, ,
0, ,23, ,
8, ,23, ,
15, ,24, ,
18, ,24, ,
23, ,24, ,
31, ,24, ,
33, ,24, ,
37, ,24, ,
37, ,24, ,
41, ,24, ,
42, ,24, ,
41, ,24, ,
41, ,24, ,
37, ,24, ,
35, ,24, ,
32, ,24, ,
29, ,24, ,
19, ,24, ,
16, ,24, ,
10, ,23, ,
4, ,23, ,
-7, ,23, ,
-15, ,23, ,
-20, ,23, ,
-29, ,24, ,
-42, ,24, ,
-49, ,23, ,
-55, ,23, ,
-62, ,24, ,
-75, ,24, ,
-84, ,23, ,
-87, ,23, ,
-95, ,24, ,
-106, ,24, ,
-111, ,24, ,
-115, ,24, ,
-119, ,24, ,
-126, ,24, ,
-126, ,23, ,
-126, ,23, ,
-126, ,24, ,
-126, ,24, ,
-126, ,23, ,
-126, ,23, ,
-126, ,23, ,
-126, ,23, ,
-126, ,24, ,
-126, ,23, ,
-126, ,23, ,
-126, ,23, ,
-126, ,23, ,
-126, ,24, ,
-126, ,24, ,
-126, ,24, ,
-126, ,23, ,
-123, ,23, ,
-122, ,23, ,
-113, ,23, ,
-110, ,23, ,
-107, ,24, ,
-103, ,24, ,
-96, ,24, ,
-93, ,23, ,
-89, ,23, ,
-86, ,23, ,
-81, ,23, ,
-78, ,23, ,
-74, ,23, ,
-72, ,23, ,
-68, ,24, ,
-66, ,24, ,
-63, ,23, ,
-64, ,23, ,
-59, ,23, ,
-58, ,24, ,
-57, ,24, ,
-54, ,24, ,
-54, ,24, ,
-50, ,24, ,
-49, ,23, ,
-48, ,23, ,
-44, ,23, ,
-41, ,24, ,
-39, ,24, ,
-36, ,23, ,
-32, ,23, ,
-29, ,24, ,
-26, ,24, ,
-25, ,24, ,
-18, ,24, ,
-14, ,23, ,
-12, ,23, ,
-7, ,23, ,
2, ,24, ,
3, ,24, ,
7, ,23, ,
11, ,23, ,
17, ,23, ,
21, ,24, ,
24, ,24, ,
27, ,24, ,
31, ,24, ,
33, ,24, ,
35, ,24, ,
35, ,24, ,
38, ,24, ,
39, ,23, ,
39, ,23, ,
39, ,24, ,
39, ,24, ,
37, ,24, ,
38, ,24, ,
35, ,24, ,
33, ,24, ,
34, ,24, ,
31, ,24, ,
30, ,24, ,
26, ,24, ,
23, ,23, ,
23, ,23, ,
20, ,23, ,
16, ,23, ,
17, ,23, ,
13, ,24, ,
13, ,24, ,
11, ,24, ,
10, ,24, ,
10, ,23, ,
9, ,23, ,
8, ,23, ,
9, ,23, ,
8, ,23, ,
9, ,23, ,
9, ,23, ,
9, ,24, ,
10, ,24, ,
10, ,24, ,
11, ,23, ,
11, ,23, ,
11, ,24, ,
11, ,24, ,
12, ,24, ,
11, ,24, ,
13, ,24, ,
12, ,24, ,
11, ,24, ,
12, ,24, ,
11, ,24, ,
11, ,24, ,
10, ,24, ,
8, ,24, ,
9, ,23, ,
6, ,23, ,
6, ,23, ,
6, ,24, ,
5, ,24, ,
5, ,24, ,
5, ,24, ,
3, ,24, ,
4, ,24, ,
3, ,24, ,
2, ,24, ,
3, ,24, ,
2, ,24, ,
4, ,24, ,
4, ,24, ,
4, ,24, ,
5, ,23, ,
5, ,23, ,
8, ,23, ,
9, ,24, ,
8, ,24, ,
10, ,24, ,
13, ,24, ,
14, ,24, ,
16, ,24, ,
16, ,24, ,
