raw_data/100% Glycerol, Impulsion 2Hz, Sonde 5MHz, Rampe 0.7Hz/temp0000397.CSV

Format,1.0B,
Memory Length,10000,Memory Length,10000,
IntpDistance,0,IntpDistance,0,
Trigger Address,159,Trigger Address,159,
Trigger Level,2.720E-01,Trigger Level,2.720E-01,
Source,CH1,Source,CH2,
Vertical Units,V,Vertical Units,V,
Vertical Units Div,0,Vertical Units Div,0,
Vertical Units Extend Div,16,Vertical Units Extend Div,16,
Label,,Label,,
Probe Type,0,Probe Type,0,
Probe Ratio,1.000e+00,Probe Ratio,1.000e+00,
Vertical Scale,2.000e-01,Vertical Scale,2.000e+00,
Vertical Position,0.000e+00,Vertical Position,0.000e+00,
Horizontal Units,S,Horizontal Units,S,
Horizontal Scale,5.000E-06,Horizontal Scale,5.000E-06,
Horizontal Position,2.420E-05,Horizontal Position,2.420E-05,
Horizontal Mode,Main,Horizontal Mode,Main,
SincET Mode,Real Time,SincET Mode,Real Time,
Sampling Period,5.000e-09,Sampling Period,5.000e-09,
Horizontal Old Scale,5.000E-06,Horizontal Old Scale,5.000E-06,
Horizontal Old Position,2.420E-05,Horizontal Old Position,2.420E-05,
Firmware,V1.32,Firmware,V1.32,
Mode,Fast,Mode,Fast,
Waveform Data,,Waveform Data,,
2, ,-37, ,
1, ,-37, ,
1, ,-37, ,
1, ,-37, ,
1, ,-37, ,
2, ,-37, ,
0, ,-37, ,
1, ,-37, ,
2, ,-37, ,
1, ,-37, ,
2, ,-37, ,
2, ,-37, ,
2, ,-37, ,
2, ,-37, ,
2, ,-37, ,
1, ,-37, ,
2, ,-37, ,
2, ,-37, ,
1, ,-37, ,
2, ,-37, ,
2, ,-37, ,
2, ,-37, ,
1, ,-37, ,
1, ,-37, ,
2, ,-37, ,
1, ,-37, ,
2, ,-37, ,
1, ,-37, ,
1, ,-37, ,
1, ,-37, ,
2, ,-37, ,
1, ,-37, ,
2, ,-37, ,
1, ,-37, ,
1, ,-37, ,
2, ,-37, ,
1, ,-37, ,
2, ,-37, ,
1, ,-37, ,
1, ,-37, ,
3, ,-37, ,
1, ,-37, ,
1, ,-37, ,
2, ,-37, ,
1, ,-37, ,
2, ,-37, ,
2, ,-37, ,
2, ,-37, ,
2, ,-37, ,
2, ,-37, ,
2, ,-37, ,
2, ,-37, ,
1, ,-37, ,
2, ,-37, ,
1, ,-37, ,
1, ,-37, ,
3, ,-37, ,
1, ,-37, ,
2, ,-37, ,
1, ,-37, ,
0, ,-37, ,
1, ,-37, ,
1, ,-37, ,
0, ,-37, ,
2, ,-37, ,
1, ,-37, ,
2, ,-37, ,
2, ,-37, ,
1, ,-37, ,
3, ,-37, ,
1, ,-37, ,
1, ,-37, ,
2, ,-37, ,
0, ,-37, ,
2, ,-37, ,
2, ,-37, ,
2, ,-37, ,
3, ,-37, ,
2, ,-37, ,
2, ,-37, ,
2, ,-37, ,
2, ,-37, ,
1, ,-37, ,
2, ,-37, ,
2, ,-37, ,
2, ,-37, ,
1, ,-37, ,
2, ,-37, ,
2, ,-37, ,
1, ,-37, ,
1, ,-37, ,
2, ,-37, ,
1, ,-37, ,
2, ,-37, ,
2, ,-37, ,
1, ,-37, ,
2, ,-37, ,
1, ,-37, ,
3, ,-37, ,
2, ,-37, ,
1, ,-37, ,
2, ,-37, ,
0, ,-37, ,
2, ,-37, ,
2, ,-37, ,
1, ,-37, ,
1, ,-37, ,
2, ,-37, ,
2, ,-37, ,
3, ,-37, ,
2, ,-37, ,
1, ,-37, ,
1, ,-37, ,
1, ,-37, ,
2, ,-37, ,
2, ,-37, ,
1, ,-37, ,
2, ,-37, ,
0, ,-37, ,
2, ,-37, ,
2, ,-37, ,
1, ,-37, ,
2, ,-37, ,
1, ,-37, ,
1, ,-37, ,
1, ,-37, ,
0, ,-37, ,
1, ,-37, ,
2, ,-37, ,
1, ,-37, ,
2, ,-37, ,
2, ,-37, ,
1, ,-37, ,
2, ,-37, ,
0, ,-37, ,
1, ,-37, ,
3, ,-37, ,
2, ,-37, ,
2, ,-37, ,
2, ,-37, ,
1, ,-37, ,
2, ,-37, ,
1, ,-37, ,
1, ,-37, ,
1, ,-37, ,
1, ,-37, ,
2, ,-37, ,
1, ,-37, ,
2, ,-37, ,
2, ,-37, ,
0, ,-37, ,
1, ,-37, ,
1, ,-37, ,
1, ,-37, ,
1, ,-37, ,
1, ,-37, ,
1, ,-37, ,
2, ,-37, ,
2, ,-37, ,
2, ,-37, ,
2, ,-37, ,
1, ,-37, ,
2, ,-37, ,
0, ,-37, ,
0, ,-37, ,
-1, ,-37, ,
1, ,-37, ,
9, ,-37, ,
49, ,-37, ,
121, ,-37, ,
125, ,-37, ,
125, ,-37, ,
123, ,-37, ,
119, ,-37, ,
78, ,-37, ,
22, ,-37, ,
125, ,-37, ,
125, ,-37, ,
125, ,-37, ,
125, ,-37, ,
125, ,-37, ,
125, ,-37, ,
125, ,-37, ,
125, ,-37, ,
125, ,-37, ,
125, ,-37, ,
125, ,-37, ,
125, ,-37, ,
125, ,-37, ,
125, ,-37, ,
125, ,-37, ,
125, ,-37, ,
125, ,-37, ,
125, ,-37, ,
125, ,-37, ,
125, ,-37, ,
125, ,-37, ,
125, ,-37, ,
125, ,-37, ,
125, ,-37, ,
125, ,-37, ,
125, ,-37, ,
125, ,-37, ,
124, ,-37, ,
118, ,-37, ,
113, ,-37, ,
108, ,-37, ,
100, ,-37, ,
98, ,-37, ,
93, ,-37, ,
88, ,-37, ,
80, ,-37, ,
76, ,-37, ,
74, ,-37, ,
69, ,-37, ,
63, ,-37, ,
61, ,-37, ,
56, ,-37, ,
56, ,-37, ,
51, ,-37, ,
48, ,-37, ,
46, ,-37, ,
43, ,-37, ,
39, ,-37, ,
37, ,-37, ,
35, ,-37, ,
35, ,-37, ,
30, ,-37, ,
29, ,-37, ,
29, ,-37, ,
26, ,-37, ,
23, ,-37, ,
24, ,-37, ,
21, ,-37, ,
20, ,-37, ,
19, ,-37, ,
16, ,-37, ,
16, ,-37, ,
15, ,-37, ,
14, ,-37, ,
12, ,-37, ,
11, ,-37, ,
11, ,-37, ,
8, ,-37, ,
7, ,-37, ,
8, ,-37, ,
6, ,-37, ,
6, ,-37, ,
5, ,-37, ,
5, ,-37, ,
4, ,-37, ,
3, ,-37, ,
2, ,-37, ,
2, ,-37, ,
1, ,-37, ,
0, ,-37, ,
1, ,-37, ,
1, ,-37, ,
1, ,-37, ,
1, ,-37, ,
0, ,-37, ,
0, ,-37, ,
-1, ,-37, ,
-1, ,-37, ,
0, ,-37, ,
-2, ,-37, ,
-1, ,-37, ,
-1, ,-37, ,
-3, ,-37, ,
-2, ,-37, ,
-2, ,-37, ,
-3, ,-37, ,
-2, ,-37, ,
-3, ,-37, ,
-3, ,-37, ,
-2, ,-37, ,
-3, ,-37, ,
-3, ,-37, ,
-3, ,-37, ,
-2, ,-37, ,
-1, ,-37, ,
-3, ,-37, ,
-4, ,-37, ,
-3, ,-37, ,
-4, ,-37, ,
-2, ,-37, ,
-3, ,-37, ,
-4, ,-37, ,
-3, ,-37, ,
-3, ,-37, ,
-3, ,-37, ,
-3, ,-37, ,
-3, ,-37, ,
-2, ,-37, ,
-4, ,-37, ,
-3, ,-37, ,
-3, ,-37, ,
-3, ,-37, ,
-3, ,-37, ,
-2, ,-37, ,
-3, ,-37, ,
-3, ,-37, ,
-3, ,-37, ,
-3, ,-37, ,
-2, ,-37, ,
-3, ,-37, ,
-2, ,-37, ,
-2, ,-37, ,
-2, ,-37, ,
-2, ,-37, ,
-3, ,-37, ,
-2, ,-37, ,
-1, ,-37, ,
-3, ,-37, ,
-1, ,-37, ,
-1, ,-37, ,
-1, ,-37, ,
-1, ,-37, ,
-2, ,-37, ,
-2, ,-37, ,
-2, ,-37, ,
-2, ,-37, ,
-1, ,-37, ,
0, ,-37, ,
-1, ,-37, ,
-1, ,-37, ,
-1, ,-37, ,
0, ,-37, ,
0, ,-37, ,
0, ,-37, ,
0, ,-37, ,
0, ,-37, ,
-1, ,-37, ,
0, ,-37, ,
0, ,-37, ,
0, ,-37, ,
0, ,-37, ,
-1, ,-37, ,
0, ,-37, ,
0, ,-37, ,
1, ,-37, ,
2, ,-37, ,
-1, ,-37, ,
0, ,-37, ,
0, ,-37, ,
0, ,-37, ,
0, ,-37, ,
0, ,-37, ,
0, ,-37, ,
0, ,-37, ,
0, ,-37, ,
-1, ,-37, ,
1, ,-37, ,
0, ,-37, ,
0, ,-37, ,
0, ,-37, ,
0, ,-37, ,
0, ,-37, ,
0, ,-37, ,
1, ,-37, ,
1, ,-37, ,
0, ,-37, ,
1, ,-37, ,
0, ,-37, ,
0, ,-37, ,
1, ,-37, ,
1, ,-37, ,
1, ,-37, ,
1, ,-37, ,
0, ,-37, ,
2, ,-37, ,
1, ,-37, ,
1, ,-37, ,
1, ,-37, ,
1, ,-37, ,
1, ,-37, ,
1, ,-37, ,
1, ,-37, ,
1, ,-37, ,
1, ,-37, ,
1, ,-37, ,
1, ,-37, ,
0, ,-37, ,
0, ,-37, ,
1, ,-37, ,
0, ,-37, ,
2, ,-37, ,
2, ,-37, ,
1, ,-37, ,
2, ,-37, ,
0, ,-37, ,
1, ,-37, ,
1, ,-37, ,
0, ,-37, ,
1, ,-37, ,
1, ,-37, ,
1, ,-37, ,
1, ,-37, ,
0, ,-37, ,
0, ,-37, ,
1, ,-37, ,
1, ,-37, ,
1, ,-37, ,
1, ,-37, ,
1, ,-37, ,
1, ,-37, ,
1, ,-37, ,
2, ,-37, ,
2, ,-37, ,
1, ,-37, ,
1, ,-37, ,
1, ,-37, ,
1, ,-37, ,
1, ,-37, ,
1, ,-37, ,
1, ,-37, ,
2, ,-37, ,
1, ,-37, ,
1, ,-37, ,
1, ,-37, ,
1, ,-37, ,
1, ,-37, ,
0, ,-37, ,
1, ,-37, ,
2, ,-37, ,
0, ,-37, ,
0, ,-37, ,
1, ,-37, ,
0, ,-37, ,
1, ,-37, ,
0, ,-37, ,
1, ,-37, ,
1, ,-37, ,
1, ,-37, ,
1, ,-37, ,
1, ,-37, ,
0, ,-37, ,
0, ,-37, ,
0, ,-37, ,
0, ,-37, ,
0, ,-37, ,
0, ,-37, ,
0, ,-37, ,
-1, ,-37, ,
-1, ,-37, ,
-1, ,-37, ,
-1, ,-37, ,
-1, ,-37, ,
0, ,-37, ,
0, ,-37, ,
0, ,-37, ,
1, ,-37, ,
1, ,-37, ,
1, ,-37, ,
0, ,-37, ,
1, ,-37, ,
1, ,-37, ,
1, ,-37, ,
2, ,-37, ,
2, ,-37, ,
2, ,-37, ,
1, ,-37, ,
0, ,-37, ,
0, ,-37, ,
1, ,-37, ,
0, ,-37, ,
0, ,-37, ,
1, ,-37, ,
1, ,-37, ,
1, ,-37, ,
1, ,-37, ,
2, ,-37, ,
3, ,-37, ,
1, ,-37, ,
2, ,-37, ,
2, ,-37, ,
1, ,-37, ,
2, ,-37, ,
1, ,-37, ,
0, ,-37, ,
0, ,-37, ,
0, ,-37, ,
0, ,-37, ,
0, ,-37, ,
0, ,-37, ,
0, ,-37, ,
0, ,-37, ,
0, ,-37, ,
0, ,-37, ,
0, ,-37, ,
1, ,-37, ,
3, ,-37, ,
2, ,-37, ,
2, ,-37, ,
1, ,-37, ,
0, ,-37, ,
2, ,-37, ,
2, ,-37, ,
1, ,-37, ,
2, ,-37, ,
0, ,-37, ,
0, ,-37, ,
0, ,-37, ,
0, ,-37, ,
1, ,-37, ,
0, ,-37, ,
1, ,-37, ,
1, ,-37, ,
0, ,-37, ,
1, ,-37, ,
1, ,-37, ,
1, ,-37, ,
1, ,-37, ,
0, ,-37, ,
1, ,-37, ,
-1, ,-37, ,
-2, ,-37, ,
-2, ,-37, ,
-5, ,-37, ,
-6, ,-37, ,
-5, ,-37, ,
-7, ,-37, ,
-7, ,-37, ,
-7, ,-37, ,
-9, ,-37, ,
-7, ,-37, ,
-8, ,-37, ,
-8, ,-37, ,
-7, ,-37, ,
-8, ,-37, ,
-8, ,-37, ,
-8, ,-37, ,
-10, ,-37, ,
-10, ,-37, ,
-12, ,-37, ,
-14, ,-37, ,
-15, ,-37, ,
-17, ,-37, ,
-18, ,-37, ,
-21, ,-37, ,
-25, ,-37, ,
-26, ,-37, ,
-27, ,-37, ,
-30, ,-37, ,
-29, ,-37, ,
-29, ,-37, ,
-28, ,-37, ,
-27, ,-37, ,
-27, ,-37, ,
-27, ,-37, ,
-28, ,-37, ,
-28, ,-37, ,
-26, ,-37, ,
-30, ,-37, ,
-28, ,-37, ,
-31, ,-37, ,
-31, ,-37, ,
-32, ,-37, ,
-33, ,-37, ,
-34, ,-37, ,
-33, ,-37, ,
-32, ,-37, ,
-30, ,-37, ,
-28, ,-37, ,
-24, ,-37, ,
-23, ,-37, ,
-21, ,-37, ,
-17, ,-37, ,
-14, ,-37, ,
-12, ,-37, ,
-11, ,-37, ,
-8, ,-37, ,
-7, ,-37, ,
-6, ,-37, ,
-7, ,-37, ,
-9, ,-37, ,
-8, ,-37, ,
-10, ,-37, ,
-9, ,-37, ,
-9, ,-37, ,
-10, ,-37, ,
-8, ,-37, ,
-9, ,-37, ,
-6, ,-37, ,
-5, ,-37, ,
-4, ,-37, ,
-1, ,-37, ,
0, ,-37, ,
0, ,-37, ,
0, ,-37, ,
0, ,-37, ,
-1, ,-37, ,
-1, ,-37, ,
-2, ,-37, ,
-3, ,-37, ,
-6, ,-37, ,
-8, ,-37, ,
-8, ,-37, ,
-12, ,-37, ,
-14, ,-37, ,
-14, ,-37, ,
-16, ,-37, ,
-15, ,-37, ,
-16, ,-37, ,
-17, ,-37, ,
-16, ,-37, ,
-16, ,-37, ,
-18, ,-37, ,
-18, ,-37, ,
-19, ,-37, ,
-21, ,-37, ,
-23, ,-37, ,
-25, ,-37, ,
-26, ,-37, ,
-29, ,-37, ,
-31, ,-37, ,
-31, ,-37, ,
-32, ,-37, ,
-32, ,-37, ,
-30, ,-37, ,
-29, ,-37, ,
-27, ,-37, ,
-25, ,-37, ,
-24, ,-37, ,
-20, ,-37, ,
-19, ,-37, ,
-20, ,-37, ,
-20, ,-37, ,
-18, ,-37, ,
-18, ,-37, ,
-20, ,-37, ,
-20, ,-37, ,
-20, ,-37, ,
-21, ,-37, ,
-21, ,-37, ,
-21, ,-37, ,
-23, ,-37, ,
-24, ,-37, ,
-24, ,-37, ,
-25, ,-37, ,
-25, ,-37, ,
-25, ,-37, ,
-25, ,-37, ,
-26, ,-37, ,
-27, ,-37, ,
-26, ,-37, ,
-26, ,-37, ,
-24, ,-37, ,
-24, ,-37, ,
-24, ,-37, ,
-24, ,-37, ,
-24, ,-37, ,
-24, ,-37, ,
-24, ,-37, ,
-26, ,-37, ,
-28, ,-37, ,
-27, ,-37, ,
-28, ,-37, ,
-28, ,-37, ,
-28, ,-37, ,
-27, ,-37, ,
-26, ,-37, ,
-27, ,-37, ,
-24, ,-37, ,
-22, ,-37, ,
-23, ,-37, ,
-23, ,-37, ,
-23, ,-37, ,
-24, ,-37, ,
-25, ,-37, ,
-26, ,-37, ,
-30, ,-37, ,
-30, ,-37, ,
-33, ,-37, ,
-33, ,-37, ,
-34, ,-37, ,
-34, ,-37, ,
-33, ,-37, ,
-35, ,-37, ,
-32, ,-37, ,
-31, ,-37, ,
-30, ,-37, ,
-30, ,-37, ,
-29, ,-37, ,
-29, ,-37, ,
-28, ,-37, ,
-28, ,-37, ,
-28, ,-37, ,
-27, ,-37, ,
-27, ,-37, ,
-25, ,-37, ,
-22, ,-37, ,
-22, ,-37, ,
-22, ,-37, ,
-21, ,-37, ,
-18, ,-37, ,
-16, ,-37, ,
-15, ,-37, ,
-15, ,-37, ,
-14, ,-37, ,
-14, ,-37, ,
-12, ,-37, ,
-12, ,-37, ,
-10, ,-37, ,
-8, ,-37, ,
-8, ,-37, ,
-5, ,-37, ,
-3, ,-37, ,
-2, ,-37, ,
-1, ,-37, ,
-2, ,-37, ,
0, ,-37, ,
1, ,-37, ,
1, ,-37, ,
2, ,-37, ,
2, ,-37, ,
1, ,-37, ,
3, ,-37, ,
1, ,-37, ,
3, ,-37, ,
4, ,-37, ,
3, ,-37, ,
5, ,-37, ,
5, ,-37, ,
6, ,-37, ,
7, ,-37, ,
5, ,-37, ,
5, ,-37, ,
5, ,-37, ,
4, ,-37, ,
4, ,-37, ,
3, ,-37, ,
2, ,-37, ,
2, ,-37, ,
2, ,-37, ,
0, ,-37, ,
2, ,-37, ,
2, ,-37, ,
1, ,-37, ,
1, ,-37, ,
1, ,-37, ,
1, ,-37, ,
0, ,-37, ,
-1, ,-37, ,
0, ,-37, ,
-2, ,-37, ,
-1, ,-37, ,
-3, ,-37, ,
-5, ,-37, ,
-5, ,-37, ,
-7, ,-37, ,
-9, ,-37, ,
-9, ,-37, ,
-10, ,-37, ,
-11, ,-37, ,
-14, ,-37, ,
-16, ,-37, ,
-17, ,-37, ,
-19, ,-37, ,
-22, ,-37, ,
-21, ,-37, ,
-23, ,-37, ,
-26, ,-37, ,
-28, ,-37, ,
-30, ,-37, ,
-30, ,-37, ,
-31, ,-37, ,
-33, ,-37, ,
-32, ,-37, ,
-34, ,-37, ,
-33, ,-37, ,
-35, ,-37, ,
-36, ,-37, ,
-35, ,-37, ,
-37, ,-37, ,
-35, ,-37, ,
-35, ,-37, ,
-35, ,-37, ,
-34, ,-37, ,
-32, ,-37, ,
-32, ,-37, ,
-31, ,-37, ,
-29, ,-37, ,
-25, ,-37, ,
-25, ,-37, ,
-24, ,-37, ,
-23, ,-37, ,
-21, ,-37, ,
-22, ,-37, ,
-21, ,-37, ,
-22, ,-37, ,
-21, ,-37, ,
-21, ,-37, ,
-23, ,-37, ,
-23, ,-37, ,
-23, ,-37, ,
-22, ,-37, ,
-22, ,-37, ,
-22, ,-37, ,
-22, ,-37, ,
-21, ,-37, ,
-20, ,-37, ,
-20, ,-37, ,
-18, ,-37, ,
-17, ,-37, ,
-17, ,-37, ,
-16, ,-37, ,
-13, ,-37, ,
-12, ,-37, ,
-12, ,-37, ,
-10, ,-37, ,
-4, ,-37, ,
-5, ,-37, ,
0, ,-37, ,
1, ,-37, ,
5, ,-37, ,
6, ,-37, ,
8, ,-37, ,
11, ,-37, ,
12, ,-37, ,
13, ,-37, ,
14, ,-37, ,
13, ,-37, ,
15, ,-37, ,
14, ,-37, ,
15, ,-37, ,
15, ,-37, ,
15, ,-37, ,
14, ,-37, ,
14, ,-37, ,
13, ,-37, ,
11, ,-37, ,
11, ,-37, ,
10, ,-37, ,
9, ,-37, ,
7, ,-37, ,
7, ,-37, ,
5, ,-37, ,
3, ,-37, ,
2, ,-37, ,
2, ,-37, ,
2, ,-37, ,
2, ,-37, ,
2, ,-37, ,
1, ,-37, ,
3, ,-37, ,
3, ,-37, ,
3, ,-37, ,
3, ,-37, ,
3, ,-37, ,
3, ,-37, ,
3, ,-37, ,
2, ,-37, ,
2, ,-37, ,
2, ,-37, ,
3, ,-37, ,
4, ,-37, ,
1, ,-37, ,
2, ,-37, ,
2, ,-37, ,
0, ,-37, ,
0, ,-37, ,
-1, ,-37, ,
-4, ,-37, ,
-5, ,-37, ,
-6, ,-37, ,
-8, ,-37, ,
-11, ,-37, ,
-13, ,-37, ,
-13, ,-37, ,
-18, ,-37, ,
-20, ,-37, ,
-20, ,-37, ,
-24, ,-37, ,
-24, ,-37, ,
-26, ,-37, ,
-29, ,-37, ,
-30, ,-37, ,
-32, ,-37, ,
-33, ,-37, ,
-32, ,-37, ,
-34, ,-37, ,
-35, ,-37, ,
-35, ,-37, ,
-38, ,-37, ,
-38, ,-37, ,
-39, ,-37, ,
-39, ,-37, ,
-39, ,-37, ,
-39, ,-37, ,
-39, ,-37, ,
-40, ,-37, ,
-40, ,-37, ,
-39, ,-37, ,
-40, ,-37, ,
-37, ,-37, ,
-35, ,-37, ,
-35, ,-37, ,
-34, ,-37, ,
-31, ,-37, ,
-30, ,-37, ,
-29, ,-37, ,
-26, ,-37, ,
-22, ,-37, ,
-19, ,-37, ,
-19, ,-37, ,
-17, ,-37, ,
-12, ,-37, ,
-12, ,-37, ,
-9, ,-37, ,
-7, ,-37, ,
-4, ,-37, ,
-2, ,-37, ,
-2, ,-37, ,
-1, ,-37, ,
-2, ,-37, ,
-1, ,-37, ,
0, ,-37, ,
-2, ,-37, ,
-3, ,-37, ,
-1, ,-37, ,
-6, ,-37, ,
-5, ,-37, ,
-7, ,-37, ,
-10, ,-37, ,
-10, ,-37, ,
-11, ,-37, ,
-14, ,-37, ,
-15, ,-37, ,
-15, ,-37, ,
-16, ,-37, ,
-19, ,-37, ,
-20, ,-37, ,
-20, ,-37, ,
-20, ,-37, ,
-21, ,-37, ,
-21, ,-37, ,
-23, ,-37, ,
-20, ,-37, ,
-20, ,-37, ,
-20, ,-37, ,
-19, ,-37, ,
-19, ,-37, ,
-17, ,-37, ,
-17, ,-37, ,
-15, ,-37, ,
-14, ,-37, ,
-14, ,-37, ,
-13, ,-37, ,
-14, ,-37, ,
-12, ,-37, ,
-12, ,-37, ,
-10, ,-37, ,
-12, ,-37, ,
-10, ,-37, ,
-8, ,-37, ,
-7, ,-37, ,
-7, ,-37, ,
-8, ,-37, ,
-5, ,-37, ,
-5, ,-37, ,
-4, ,-37, ,
-4, ,-37, ,
-3, ,-37, ,
-3, ,-37, ,
-2, ,-37, ,
-4, ,-37, ,
-2, ,-37, ,
-1, ,-37, ,
0, ,-37, ,
0, ,-37, ,
3, ,-37, ,
3, ,-37, ,
4, ,-37, ,
4, ,-37, ,
5, ,-37, ,
6, ,-37, ,
6, ,-37, ,
7, ,-37, ,
7, ,-37, ,
7, ,-37, ,
7, ,-37, ,
6, ,-37, ,
5, ,-37, ,
5, ,-37, ,
4, ,-37, ,
4, ,-37, ,
3, ,-37, ,
2, ,-37, ,
2, ,-37, ,
-1, ,-37, ,
-3, ,-37, ,
-3, ,-37, ,
-4, ,-37, ,
-5, ,-37, ,
-7, ,-37, ,
-10, ,-37, ,
-11, ,-37, ,
-13, ,-37, ,
-14, ,-37, ,
-14, ,-37, ,
-17, ,-37, ,
-17, ,-37, ,
-17, ,-37, ,
-17, ,-37, ,
-17, ,-37, ,
-17, ,-37, ,
-19, ,-37, ,
-16, ,-37, ,
-16, ,-37, ,
-16, ,-37, ,
-15, ,-37, ,
-15, ,-37, ,
-14, ,-37, ,
-15, ,-37, ,
-12, ,-37, ,
-10, ,-37, ,
-10, ,-37, ,
-8, ,-37, ,
-6, ,-37, ,
-7, ,-37, ,
-5, ,-37, ,
-5, ,-37, ,
-5, ,-37, ,
-4, ,-37, ,
-5, ,-37, ,
-5, ,-37, ,
-4, ,-37, ,
-5, ,-37, ,
-5, ,-37, ,
-6, ,-37, ,
-6, ,-37, ,
-6, ,-37, ,
-8, ,-37, ,
-7, ,-37, ,
-8, ,-37, ,
-9, ,-37, ,
-8, ,-37, ,
-10, ,-37, ,
-12, ,-37, ,
-11, ,-37, ,
-13, ,-37, ,
-13, ,-37, ,
-13, ,-37, ,
-13, ,-37, ,
-15, ,-37, ,
-15, ,-37, ,
-15, ,-37, ,
-14, ,-37, ,
-14, ,-37, ,
-13, ,-37, ,
-12, ,-37, ,
-12, ,-37, ,
-10, ,-37, ,
-10, ,-37, ,
-10, ,-37, ,
-9, ,-37, ,
-7, ,-37, ,
-6, ,-37, ,
-5, ,-37, ,
-3, ,-37, ,
-3, ,-37, ,
-4, ,-37, ,
0, ,-37, ,
3, ,-37, ,
3, ,-37, ,
5, ,-37, ,
6, ,-37, ,
6, ,-37, ,
8, ,-37, ,
8, ,-37, ,
8, ,-37, ,
9, ,-37, ,
9, ,-37, ,
9, ,-37, ,
9, ,-37, ,
9, ,-37, ,
9, ,-37, ,
8, ,-37, ,
9, ,-37, ,
8, ,-37, ,
8, ,-37, ,
8, ,-37, ,
7, ,-37, ,
6, ,-37, ,
6, ,-37, ,
5, ,-37, ,
5, ,-37, ,
5, ,-37, ,
4, ,-37, ,
4, ,-37, ,
3, ,-37, ,
2, ,-37, ,
2, ,-37, ,
2, ,-37, ,
1, ,-37, ,
2, ,-37, ,
1, ,-37, ,
1, ,-37, ,
1, ,-37, ,
1, ,-37, ,
1, ,-37, ,
0, ,-37, ,
0, ,-37, ,
0, ,-37, ,
-1, ,-37, ,
-1, ,-37, ,
-2, ,-37, ,
-2, ,-37, ,
-2, ,-37, ,
-2, ,-37, ,
-3, ,-37, ,
-3, ,-37, ,
-4, ,-37, ,
-4, ,-37, ,
-3, ,-37, ,
-5, ,-37, ,
-5, ,-37, ,
-5, ,-37, ,
-6, ,-37, ,
-8, ,-37, ,
-8, ,-37, ,
-9, ,-37, ,
-10, ,-37, ,
-10, ,-37, ,
-10, ,-37, ,
-12, ,-37, ,
-12, ,-37, ,
-12, ,-37, ,
-12, ,-37, ,
-11, ,-37, ,
-11, ,-37, ,
-12, ,-37, ,
-10, ,-37, ,
-10, ,-37, ,
-9, ,-37, ,
-9, ,-37, ,
-7, ,-37, ,
-7, ,-37, ,
-5, ,-37, ,
-4, ,-37, ,
-3, ,-37, ,
-2, ,-37, ,
1, ,-37, ,
3, ,-37, ,
3, ,-37, ,
5, ,-37, ,
6, ,-37, ,
8, ,-37, ,
10, ,-37, ,
10, ,-37, ,
11, ,-37, ,
12, ,-37, ,
11, ,-37, ,
12, ,-37, ,
12, ,-37, ,
12, ,-37, ,
12, ,-37, ,
11, ,-37, ,
11, ,-37, ,
10, ,-37, ,
9, ,-37, ,
10, ,-37, ,
9, ,-37, ,
9, ,-37, ,
9, ,-37, ,
9, ,-37, ,
8, ,-37, ,
9, ,-37, ,
9, ,-37, ,
9, ,-37, ,
8, ,-37, ,
7, ,-37, ,
8, ,-37, ,
7, ,-37, ,
7, ,-37, ,
7, ,-37, ,
6, ,-37, ,
6, ,-37, ,
5, ,-37, ,
5, ,-37, ,
4, ,-37, ,
4, ,-37, ,
3, ,-37, ,
2, ,-37, ,
2, ,-37, ,
1, ,-37, ,
-1, ,-37, ,
-2, ,-37, ,
-2, ,-37, ,
-4, ,-37, ,
-4, ,-37, ,
-4, ,-37, ,
-6, ,-37, ,
-6, ,-37, ,
-7, ,-37, ,
-7, ,-37, ,
-8, ,-37, ,
-8, ,-37, ,
-8, ,-37, ,
-8, ,-37, ,
-8, ,-37, ,
-7, ,-37, ,
-7, ,-37, ,
-7, ,-37, ,
-6, ,-37, ,
-8, ,-37, ,
-6, ,-37, ,
-5, ,-37, ,
-6, ,-37, ,
-4, ,-37, ,
-3, ,-37, ,
-5, ,-37, ,
-3, ,-37, ,
-3, ,-37, ,
-4, ,-37, ,
-2, ,-37, ,
-2, ,-37, ,
-2, ,-37, ,
-1, ,-37, ,
-2, ,-37, ,
-1, ,-37, ,
-1, ,-37, ,
-1, ,-37, ,
-2, ,-37, ,
-2, ,-37, ,
-2, ,-37, ,
-2, ,-37, ,
-2, ,-37, ,
-2, ,-37, ,
-2, ,-37, ,
-3, ,-37, ,
-3, ,-37, ,
-4, ,-37, ,
-4, ,-37, ,
-4, ,-37, ,
-5, ,-37, ,
-5, ,-37, ,
-5, ,-37, ,
-6, ,-37, ,
-6, ,-37, ,
-8, ,-37, ,
-8, ,-37, ,
-7, ,-37, ,
-10, ,-37, ,
-10, ,-37, ,
-11, ,-37, ,
-13, ,-37, ,
-13, ,-37, ,
-14, ,-37, ,
-13, ,-37, ,
-16, ,-37, ,
-16, ,-37, ,
-16, ,-37, ,
-17, ,-37, ,
-18, ,-37, ,
-18, ,-37, ,
-19, ,-37, ,
-19, ,-37, ,
-18, ,-37, ,
-18, ,-37, ,
-17, ,-37, ,
-17, ,-37, ,
-17, ,-37, ,
-15, ,-37, ,
-15, ,-37, ,
-14, ,-37, ,
-12, ,-37, ,
-11, ,-37, ,
-9, ,-37, ,
-10, ,-37, ,
-6, ,-37, ,
-5, ,-37, ,
-6, ,-37, ,
-3, ,-37, ,
0, ,-37, ,
0, ,-37, ,
3, ,-37, ,
3, ,-37, ,
5, ,-37, ,
7, ,-37, ,
8, ,-37, ,
9, ,-37, ,
10, ,-37, ,
10, ,-37, ,
11, ,-37, ,
12, ,-37, ,
12, ,-37, ,
13, ,-37, ,
13, ,-37, ,
13, ,-37, ,
14, ,-37, ,
13, ,-37, ,
14, ,-37, ,
13, ,-37, ,
12, ,-37, ,
13, ,-37, ,
12, ,-37, ,
12, ,-37, ,
11, ,-37, ,
10, ,-37, ,
10, ,-37, ,
9, ,-37, ,
8, ,-37, ,
9, ,-37, ,
8, ,-37, ,
8, ,-37, ,
7, ,-37, ,
6, ,-37, ,
6, ,-37, ,
6, ,-37, ,
5, ,-37, ,
5, ,-37, ,
4, ,-37, ,
4, ,-37, ,
3, ,-37, ,
2, ,-37, ,
3, ,-37, ,
1, ,-37, ,
2, ,-37, ,
0, ,-37, ,
0, ,-37, ,
0, ,-37, ,
-1, ,-37, ,
-2, ,-37, ,
-2, ,-37, ,
-3, ,-37, ,
-5, ,-37, ,
-3, ,-37, ,
-5, ,-37, ,
-5, ,-37, ,
-5, ,-37, ,
-6, ,-37, ,
-5, ,-37, ,
-8, ,-37, ,
-9, ,-37, ,
-8, ,-37, ,
-9, ,-37, ,
-9, ,-37, ,
-9, ,-37, ,
-10, ,-37, ,
-9, ,-37, ,
-9, ,-37, ,
-10, ,-37, ,
-8, ,-37, ,
-9, ,-37, ,
-8, ,-37, ,
-9, ,-37, ,
-7, ,-37, ,
-7, ,-37, ,
-7, ,-37, ,
-7, ,-37, ,
-5, ,-37, ,
-5, ,-37, ,
-4, ,-37, ,
-3, ,-37, ,
-4, ,-37, ,
-2, ,-37, ,
-2, ,-37, ,
-2, ,-37, ,
-2, ,-37, ,
0, ,-37, ,
-2, ,-37, ,
-1, ,-37, ,
-2, ,-37, ,
-2, ,-37, ,
-3, ,-37, ,
-2, ,-37, ,
-2, ,-37, ,
-3, ,-37, ,
-3, ,-37, ,
-5, ,-37, ,
-5, ,-37, ,
-5, ,-37, ,
-6, ,-37, ,
-6, ,-37, ,
-6, ,-37, ,
-8, ,-37, ,
-7, ,-37, ,
-8, ,-37, ,
-8, ,-37, ,
-8, ,-37, ,
-8, ,-37, ,
-8, ,-37, ,
-8, ,-37, ,
-9, ,-37, ,
-9, ,-37, ,
-8, ,-37, ,
-9, ,-37, ,
-9, ,-37, ,
-9, ,-37, ,
-10, ,-37, ,
-8, ,-37, ,
-9, ,-37, ,
-9, ,-37, ,
-9, ,-37, ,
-9, ,-37, ,
-9, ,-37, ,
-10, ,-37, ,
-10, ,-37, ,
-10, ,-37, ,
-10, ,-37, ,
-10, ,-37, ,
-11, ,-37, ,
-11, ,-37, ,
-11, ,-37, ,
-12, ,-37, ,
-12, ,-37, ,
-12, ,-37, ,
-13, ,-37, ,
-13, ,-37, ,
-14, ,-37, ,
-14, ,-37, ,
-15, ,-37, ,
-15, ,-37, ,
-15, ,-37, ,
-15, ,-37, ,
-15, ,-37, ,
-15, ,-37, ,
-15, ,-37, ,
-15, ,-37, ,
-14, ,-37, ,
-15, ,-37, ,
-12, ,-37, ,
-12, ,-37, ,
-10, ,-37, ,
-9, ,-37, ,
-7, ,-37, ,
-5, ,-37, ,
-4, ,-37, ,
-2, ,-37, ,
2, ,-37, ,
5, ,-37, ,
6, ,-37, ,
8, ,-37, ,
12, ,-37, ,
14, ,-37, ,
17, ,-37, ,
19, ,-37, ,
21, ,-37, ,
23, ,-37, ,
23, ,-37, ,
25, ,-37, ,
26, ,-37, ,
26, ,-37, ,
26, ,-37, ,
25, ,-37, ,
24, ,-37, ,
23, ,-37, ,
22, ,-37, ,
21, ,-37, ,
19, ,-37, ,
17, ,-37, ,
15, ,-37, ,
14, ,-37, ,
10, ,-37, ,
10, ,-37, ,
9, ,-37, ,
7, ,-37, ,
5, ,-37, ,
3, ,-37, ,
4, ,-37, ,
0, ,-37, ,
0, ,-37, ,
0, ,-37, ,
-1, ,-37, ,
-1, ,-37, ,
-1, ,-37, ,
-2, ,-37, ,
0, ,-37, ,
0, ,-37, ,
-1, ,-37, ,
1, ,-37, ,
1, ,-37, ,
1, ,-37, ,
3, ,-37, ,
3, ,-37, ,
3, ,-37, ,
3, ,-37, ,
3, ,-37, ,
5, ,-37, ,
3, ,-37, ,
5, ,-37, ,
4, ,-37, ,
4, ,-37, ,
5, ,-37, ,
4, ,-37, ,
2, ,-37, ,
4, ,-37, ,
3, ,-37, ,
4, ,-37, ,
3, ,-37, ,
2, ,-37, ,
2, ,-37, ,
1, ,-37, ,
1, ,-37, ,
2, ,-37, ,
0, ,-37, ,
1, ,-37, ,
2, ,-37, ,
1, ,-37, ,
1, ,-37, ,
1, ,-37, ,
1, ,-37, ,
3, ,-37, ,
3, ,-37, ,
3, ,-37, ,
4, ,-37, ,
3, ,-37, ,
5, ,-37, ,
4, ,-37, ,
5, ,-37, ,
6, ,-37, ,
6, ,-37, ,
6, ,-37, ,
7, ,-37, ,
6, ,-37, ,
8, ,-37, ,
6, ,-37, ,
6, ,-37, ,
8, ,-37, ,
7, ,-37, ,
7, ,-37, ,
7, ,-37, ,
6, ,-37, ,
7, ,-37, ,
5, ,-37, ,
5, ,-37, ,
4, ,-37, ,
4, ,-37, ,
4, ,-37, ,
5, ,-37, ,
3, ,-37, ,
3, ,-37, ,
3, ,-37, ,
2, ,-37, ,
1, ,-37, ,
1, ,-37, ,
1, ,-37, ,
1, ,-37, ,
0, ,-37, ,
0, ,-37, ,
-1, ,-37, ,
-2, ,-37, ,
-2, ,-37, ,
-2, ,-37, ,
-2, ,-37, ,
-2, ,-37, ,
-3, ,-37, ,
-3, ,-37, ,
-5, ,-37, ,
-7, ,-37, ,
-5, ,-37, ,
-6, ,-37, ,
-6, ,-37, ,
-8, ,-37, ,
-8, ,-37, ,
-8, ,-37, ,
-9, ,-37, ,
-11, ,-37, ,
-10, ,-37, ,
-12, ,-37, ,
-11, ,-37, ,
-11, ,-37, ,
-12, ,-37, ,
-11, ,-37, ,
-12, ,-37, ,
-13, ,-37, ,
-10, ,-37, ,
-11, ,-37, ,
-11, ,-37, ,
-9, ,-37, ,
-9, ,-37, ,
-9, ,-37, ,
-9, ,-37, ,
-6, ,-37, ,
-5, ,-37, ,
-7, ,-37, ,
-4, ,-37, ,
-1, ,-37, ,
-2, ,-37, ,
0, ,-37, ,
1, ,-37, ,
3, ,-37, ,
5, ,-37, ,
5, ,-37, ,
7, ,-37, ,
8, ,-37, ,
10, ,-37, ,
11, ,-37, ,
10, ,-37, ,
12, ,-37, ,
13, ,-37, ,
13, ,-37, ,
14, ,-37, ,
14, ,-37, ,
13, ,-37, ,
14, ,-37, ,
