raw_data/100% Glycerol, Impulsion 2Hz, Sonde 5MHz, Rampe 0.7Hz/temp0000234.CSV

Format,1.0B,
Memory Length,10000,Memory Length,10000,
IntpDistance,0,IntpDistance,0,
Trigger Address,159,Trigger Address,159,
Trigger Level,2.720E-01,Trigger Level,2.720E-01,
Source,CH1,Source,CH2,
Vertical Units,V,Vertical Units,V,
Vertical Units Div,0,Vertical Units Div,0,
Vertical Units Extend Div,16,Vertical Units Extend Div,16,
Label,,Label,,
Probe Type,0,Probe Type,0,
Probe Ratio,1.000e+00,Probe Ratio,1.000e+00,
Vertical Scale,2.000e-01,Vertical Scale,2.000e+00,
Vertical Position,0.000e+00,Vertical Position,0.000e+00,
Horizontal Units,S,Horizontal Units,S,
Horizontal Scale,5.000E-06,Horizontal Scale,5.000E-06,
Horizontal Position,2.420E-05,Horizontal Position,2.420E-05,
Horizontal Mode,Main,Horizontal Mode,Main,
SincET Mode,Real Time,SincET Mode,Real Time,
Sampling Period,5.000e-09,Sampling Period,5.000e-09,
Horizontal Old Scale,5.000E-06,Horizontal Old Scale,5.000E-06,
Horizontal Old Position,2.420E-05,Horizontal Old Position,2.420E-05,
Firmware,V1.32,Firmware,V1.32,
Mode,Fast,Mode,Fast,
Waveform Data,,Waveform Data,,
1, ,-7, ,
2, ,-7, ,
1, ,-7, ,
2, ,-7, ,
2, ,-7, ,
1, ,-7, ,
1, ,-7, ,
2, ,-7, ,
1, ,-7, ,
2, ,-7, ,
1, ,-7, ,
1, ,-7, ,
1, ,-7, ,
1, ,-7, ,
0, ,-7, ,
2, ,-8, ,
2, ,-8, ,
2, ,-8, ,
2, ,-7, ,
1, ,-7, ,
2, ,-7, ,
1, ,-7, ,
2, ,-7, ,
2, ,-7, ,
1, ,-7, ,
2, ,-7, ,
3, ,-7, ,
2, ,-7, ,
2, ,-7, ,
1, ,-7, ,
2, ,-7, ,
2, ,-7, ,
2, ,-7, ,
2, ,-7, ,
2, ,-7, ,
1, ,-7, ,
2, ,-7, ,
1, ,-7, ,
1, ,-7, ,
3, ,-7, ,
1, ,-7, ,
2, ,-7, ,
2, ,-7, ,
1, ,-7, ,
2, ,-7, ,
1, ,-7, ,
1, ,-7, ,
2, ,-7, ,
1, ,-7, ,
1, ,-7, ,
2, ,-7, ,
1, ,-7, ,
1, ,-7, ,
1, ,-7, ,
1, ,-7, ,
2, ,-7, ,
1, ,-7, ,
2, ,-7, ,
2, ,-7, ,
1, ,-7, ,
1, ,-7, ,
1, ,-7, ,
1, ,-7, ,
2, ,-7, ,
2, ,-7, ,
2, ,-7, ,
2, ,-7, ,
1, ,-7, ,
2, ,-7, ,
0, ,-7, ,
2, ,-7, ,
2, ,-7, ,
1, ,-7, ,
2, ,-7, ,
2, ,-7, ,
2, ,-7, ,
2, ,-7, ,
1, ,-7, ,
1, ,-7, ,
2, ,-7, ,
1, ,-7, ,
1, ,-7, ,
1, ,-7, ,
1, ,-7, ,
2, ,-7, ,
1, ,-7, ,
1, ,-7, ,
2, ,-7, ,
1, ,-7, ,
2, ,-7, ,
2, ,-7, ,
1, ,-7, ,
3, ,-7, ,
2, ,-7, ,
1, ,-7, ,
2, ,-7, ,
1, ,-7, ,
1, ,-7, ,
2, ,-7, ,
2, ,-7, ,
2, ,-7, ,
0, ,-7, ,
2, ,-7, ,
2, ,-7, ,
2, ,-7, ,
2, ,-7, ,
1, ,-7, ,
1, ,-7, ,
2, ,-7, ,
2, ,-7, ,
1, ,-7, ,
2, ,-7, ,
1, ,-7, ,
2, ,-7, ,
2, ,-7, ,
1, ,-7, ,
2, ,-7, ,
1, ,-7, ,
2, ,-7, ,
2, ,-7, ,
1, ,-7, ,
2, ,-7, ,
2, ,-7, ,
1, ,-7, ,
2, ,-7, ,
1, ,-7, ,
1, ,-7, ,
2, ,-7, ,
2, ,-7, ,
2, ,-7, ,
3, ,-7, ,
1, ,-7, ,
2, ,-7, ,
1, ,-7, ,
3, ,-7, ,
2, ,-7, ,
2, ,-7, ,
2, ,-7, ,
2, ,-7, ,
1, ,-7, ,
2, ,-7, ,
2, ,-7, ,
1, ,-7, ,
1, ,-7, ,
2, ,-7, ,
2, ,-7, ,
2, ,-7, ,
1, ,-7, ,
2, ,-7, ,
2, ,-7, ,
2, ,-7, ,
2, ,-7, ,
1, ,-7, ,
3, ,-7, ,
2, ,-7, ,
1, ,-7, ,
2, ,-7, ,
2, ,-7, ,
1, ,-7, ,
2, ,-8, ,
2, ,-8, ,
1, ,-8, ,
3, ,-7, ,
1, ,-7, ,
4, ,-7, ,
-2, ,-7, ,
-1, ,-7, ,
-2, ,-7, ,
19, ,-7, ,
70, ,-7, ,
125, ,-7, ,
125, ,-7, ,
125, ,-7, ,
122, ,-7, ,
35, ,-7, ,
-19, ,-7, ,
55, ,-7, ,
125, ,-7, ,
125, ,-7, ,
125, ,-7, ,
125, ,-7, ,
125, ,-7, ,
125, ,-7, ,
125, ,-7, ,
125, ,-7, ,
125, ,-7, ,
125, ,-7, ,
125, ,-7, ,
125, ,-7, ,
125, ,-7, ,
125, ,-7, ,
125, ,-7, ,
125, ,-7, ,
125, ,-7, ,
125, ,-7, ,
125, ,-7, ,
125, ,-7, ,
125, ,-7, ,
125, ,-7, ,
125, ,-7, ,
125, ,-7, ,
125, ,-7, ,
124, ,-7, ,
124, ,-7, ,
122, ,-7, ,
117, ,-7, ,
107, ,-7, ,
103, ,-7, ,
98, ,-7, ,
96, ,-7, ,
88, ,-7, ,
82, ,-7, ,
80, ,-7, ,
76, ,-7, ,
68, ,-7, ,
65, ,-7, ,
61, ,-7, ,
60, ,-7, ,
54, ,-7, ,
52, ,-7, ,
50, ,-7, ,
48, ,-7, ,
42, ,-7, ,
41, ,-7, ,
39, ,-7, ,
37, ,-7, ,
34, ,-7, ,
33, ,-7, ,
30, ,-7, ,
28, ,-7, ,
25, ,-7, ,
24, ,-7, ,
24, ,-7, ,
21, ,-7, ,
20, ,-7, ,
18, ,-7, ,
17, ,-7, ,
16, ,-7, ,
14, ,-7, ,
14, ,-7, ,
11, ,-7, ,
11, ,-8, ,
10, ,-8, ,
10, ,-7, ,
10, ,-7, ,
8, ,-7, ,
7, ,-7, ,
7, ,-7, ,
7, ,-7, ,
5, ,-7, ,
4, ,-7, ,
3, ,-7, ,
3, ,-7, ,
2, ,-7, ,
1, ,-7, ,
2, ,-7, ,
1, ,-7, ,
1, ,-7, ,
0, ,-7, ,
0, ,-7, ,
0, ,-7, ,
0, ,-7, ,
-1, ,-7, ,
-1, ,-7, ,
-2, ,-7, ,
-1, ,-7, ,
-1, ,-7, ,
-2, ,-7, ,
-1, ,-7, ,
-2, ,-7, ,
-2, ,-7, ,
-2, ,-7, ,
-3, ,-7, ,
-3, ,-7, ,
-2, ,-7, ,
-3, ,-7, ,
-3, ,-7, ,
-3, ,-7, ,
-4, ,-7, ,
-2, ,-7, ,
-3, ,-7, ,
-4, ,-7, ,
-3, ,-7, ,
-4, ,-7, ,
-3, ,-7, ,
-4, ,-7, ,
-2, ,-7, ,
-2, ,-7, ,
-2, ,-7, ,
-2, ,-7, ,
-2, ,-7, ,
-3, ,-7, ,
-3, ,-7, ,
-4, ,-7, ,
-2, ,-7, ,
-2, ,-8, ,
-2, ,-8, ,
-2, ,-7, ,
-1, ,-7, ,
-2, ,-7, ,
-2, ,-7, ,
-2, ,-7, ,
-2, ,-7, ,
-2, ,-7, ,
-2, ,-7, ,
-2, ,-7, ,
-2, ,-7, ,
-2, ,-7, ,
-1, ,-7, ,
-1, ,-7, ,
-2, ,-7, ,
-1, ,-7, ,
-2, ,-7, ,
0, ,-7, ,
-1, ,-7, ,
-2, ,-7, ,
-1, ,-7, ,
-3, ,-7, ,
-2, ,-7, ,
-2, ,-7, ,
-1, ,-7, ,
-1, ,-7, ,
-1, ,-7, ,
-1, ,-7, ,
-1, ,-7, ,
-1, ,-7, ,
-1, ,-7, ,
0, ,-7, ,
-1, ,-7, ,
-1, ,-7, ,
0, ,-7, ,
-1, ,-7, ,
-1, ,-7, ,
-1, ,-7, ,
0, ,-7, ,
0, ,-7, ,
0, ,-7, ,
0, ,-7, ,
0, ,-7, ,
0, ,-8, ,
1, ,-8, ,
0, ,-7, ,
0, ,-7, ,
0, ,-7, ,
0, ,-7, ,
1, ,-7, ,
1, ,-7, ,
0, ,-7, ,
0, ,-7, ,
-1, ,-7, ,
0, ,-7, ,
1, ,-7, ,
1, ,-7, ,
1, ,-7, ,
0, ,-7, ,
0, ,-7, ,
0, ,-7, ,
0, ,-7, ,
1, ,-7, ,
1, ,-7, ,
1, ,-7, ,
1, ,-7, ,
0, ,-7, ,
0, ,-8, ,
1, ,-8, ,
0, ,-7, ,
0, ,-7, ,
1, ,-7, ,
0, ,-7, ,
2, ,-7, ,
1, ,-7, ,
1, ,-7, ,
1, ,-7, ,
1, ,-7, ,
1, ,-7, ,
1, ,-7, ,
1, ,-7, ,
1, ,-7, ,
0, ,-7, ,
0, ,-7, ,
0, ,-7, ,
1, ,-7, ,
1, ,-7, ,
1, ,-7, ,
1, ,-7, ,
1, ,-7, ,
1, ,-7, ,
1, ,-7, ,
1, ,-7, ,
0, ,-7, ,
1, ,-7, ,
1, ,-7, ,
1, ,-7, ,
2, ,-7, ,
2, ,-7, ,
1, ,-7, ,
1, ,-7, ,
1, ,-7, ,
0, ,-7, ,
1, ,-7, ,
2, ,-7, ,
2, ,-7, ,
1, ,-7, ,
1, ,-7, ,
1, ,-7, ,
1, ,-7, ,
1, ,-7, ,
2, ,-7, ,
1, ,-7, ,
2, ,-7, ,
1, ,-7, ,
0, ,-7, ,
1, ,-7, ,
0, ,-7, ,
1, ,-7, ,
2, ,-7, ,
1, ,-7, ,
2, ,-7, ,
2, ,-7, ,
2, ,-7, ,
2, ,-7, ,
1, ,-7, ,
0, ,-8, ,
1, ,-8, ,
-1, ,-7, ,
1, ,-7, ,
1, ,-7, ,
0, ,-7, ,
1, ,-7, ,
1, ,-7, ,
1, ,-7, ,
1, ,-7, ,
1, ,-7, ,
1, ,-7, ,
1, ,-7, ,
0, ,-7, ,
1, ,-7, ,
1, ,-7, ,
1, ,-7, ,
1, ,-7, ,
0, ,-7, ,
1, ,-7, ,
1, ,-7, ,
-1, ,-7, ,
-1, ,-7, ,
-2, ,-7, ,
0, ,-7, ,
0, ,-7, ,
0, ,-7, ,
1, ,-7, ,
2, ,-7, ,
1, ,-7, ,
2, ,-7, ,
1, ,-7, ,
1, ,-7, ,
2, ,-7, ,
1, ,-7, ,
1, ,-7, ,
3, ,-7, ,
1, ,-7, ,
1, ,-7, ,
1, ,-7, ,
1, ,-7, ,
1, ,-8, ,
0, ,-8, ,
1, ,-8, ,
2, ,-7, ,
1, ,-7, ,
1, ,-7, ,
0, ,-7, ,
1, ,-7, ,
2, ,-7, ,
1, ,-7, ,
2, ,-7, ,
2, ,-7, ,
1, ,-7, ,
2, ,-7, ,
2, ,-7, ,
0, ,-7, ,
0, ,-7, ,
0, ,-7, ,
0, ,-7, ,
0, ,-7, ,
0, ,-7, ,
0, ,-7, ,
-1, ,-7, ,
0, ,-7, ,
0, ,-7, ,
0, ,-7, ,
0, ,-7, ,
1, ,-7, ,
1, ,-7, ,
2, ,-7, ,
1, ,-7, ,
2, ,-7, ,
2, ,-7, ,
1, ,-7, ,
2, ,-7, ,
1, ,-7, ,
0, ,-7, ,
0, ,-7, ,
0, ,-7, ,
-1, ,-7, ,
0, ,-7, ,
-2, ,-7, ,
0, ,-7, ,
1, ,-7, ,
0, ,-7, ,
1, ,-7, ,
1, ,-7, ,
0, ,-7, ,
0, ,-7, ,
1, ,-7, ,
1, ,-7, ,
0, ,-7, ,
0, ,-7, ,
-1, ,-7, ,
-3, ,-7, ,
-4, ,-7, ,
-4, ,-7, ,
-6, ,-7, ,
-6, ,-7, ,
-6, ,-7, ,
-8, ,-7, ,
-6, ,-7, ,
-8, ,-7, ,
-8, ,-7, ,
-7, ,-7, ,
-8, ,-7, ,
-8, ,-7, ,
-7, ,-7, ,
-8, ,-7, ,
-8, ,-7, ,
-10, ,-7, ,
-11, ,-7, ,
-11, ,-7, ,
-14, ,-7, ,
-15, ,-7, ,
-18, ,-7, ,
-21, ,-7, ,
-21, ,-7, ,
-25, ,-7, ,
-28, ,-7, ,
-27, ,-7, ,
-30, ,-7, ,
-30, ,-7, ,
-29, ,-7, ,
-30, ,-7, ,
-28, ,-7, ,
-28, ,-7, ,
-27, ,-7, ,
-26, ,-7, ,
-28, ,-7, ,
-28, ,-7, ,
-30, ,-7, ,
-31, ,-7, ,
-31, ,-7, ,
-34, ,-7, ,
-34, ,-7, ,
-34, ,-7, ,
-34, ,-7, ,
-33, ,-7, ,
-32, ,-7, ,
-31, ,-7, ,
-28, ,-7, ,
-26, ,-7, ,
-21, ,-7, ,
-17, ,-7, ,
-15, ,-7, ,
-14, ,-7, ,
-9, ,-7, ,
-9, ,-7, ,
-5, ,-7, ,
-5, ,-7, ,
-6, ,-7, ,
-7, ,-7, ,
-8, ,-7, ,
-8, ,-7, ,
-9, ,-7, ,
-10, ,-7, ,
-9, ,-7, ,
-10, ,-7, ,
-9, ,-7, ,
-7, ,-7, ,
-6, ,-7, ,
-4, ,-7, ,
-3, ,-7, ,
-3, ,-7, ,
-2, ,-7, ,
-2, ,-7, ,
-2, ,-7, ,
-1, ,-8, ,
-3, ,-8, ,
-3, ,-8, ,
-4, ,-7, ,
-5, ,-7, ,
-5, ,-7, ,
-7, ,-7, ,
-8, ,-7, ,
-9, ,-7, ,
-9, ,-7, ,
-8, ,-7, ,
-9, ,-7, ,
-9, ,-7, ,
-7, ,-7, ,
-7, ,-7, ,
-5, ,-7, ,
-5, ,-7, ,
-6, ,-7, ,
-5, ,-7, ,
-8, ,-7, ,
-11, ,-7, ,
-13, ,-7, ,
-15, ,-7, ,
-19, ,-7, ,
-21, ,-7, ,
-25, ,-7, ,
-26, ,-7, ,
-29, ,-7, ,
-30, ,-7, ,
-30, ,-7, ,
-30, ,-7, ,
-29, ,-7, ,
-29, ,-7, ,
-29, ,-7, ,
-29, ,-7, ,
-29, ,-7, ,
-30, ,-7, ,
-30, ,-7, ,
-30, ,-7, ,
-30, ,-7, ,
-30, ,-7, ,
-31, ,-7, ,
-30, ,-7, ,
-30, ,-7, ,
-30, ,-7, ,
-30, ,-7, ,
-29, ,-7, ,
-29, ,-7, ,
-29, ,-7, ,
-28, ,-7, ,
-29, ,-7, ,
-28, ,-7, ,
-29, ,-7, ,
-28, ,-7, ,
-28, ,-7, ,
-27, ,-7, ,
-27, ,-7, ,
-27, ,-7, ,
-27, ,-7, ,
-27, ,-7, ,
-28, ,-7, ,
-28, ,-7, ,
-30, ,-7, ,
-31, ,-7, ,
-34, ,-7, ,
-35, ,-7, ,
-35, ,-7, ,
-37, ,-7, ,
-39, ,-7, ,
-38, ,-7, ,
-39, ,-7, ,
-37, ,-7, ,
-37, ,-7, ,
-38, ,-7, ,
-36, ,-7, ,
-35, ,-7, ,
-35, ,-7, ,
-35, ,-8, ,
-37, ,-8, ,
-38, ,-8, ,
-39, ,-7, ,
-40, ,-7, ,
-41, ,-7, ,
-41, ,-7, ,
-41, ,-7, ,
-40, ,-7, ,
-41, ,-7, ,
-38, ,-7, ,
-37, ,-7, ,
-35, ,-7, ,
-34, ,-7, ,
-32, ,-7, ,
-31, ,-7, ,
-31, ,-7, ,
-30, ,-7, ,
-31, ,-7, ,
-30, ,-7, ,
-28, ,-7, ,
-28, ,-7, ,
-26, ,-7, ,
-25, ,-7, ,
-24, ,-7, ,
-23, ,-7, ,
-19, ,-7, ,
-15, ,-7, ,
-15, ,-7, ,
-13, ,-7, ,
-9, ,-7, ,
-7, ,-7, ,
-4, ,-7, ,
-5, ,-7, ,
-1, ,-7, ,
1, ,-7, ,
3, ,-7, ,
5, ,-7, ,
9, ,-7, ,
10, ,-7, ,
12, ,-7, ,
11, ,-7, ,
14, ,-7, ,
14, ,-7, ,
13, ,-7, ,
15, ,-7, ,
14, ,-7, ,
13, ,-7, ,
14, ,-7, ,
12, ,-7, ,
11, ,-7, ,
12, ,-7, ,
11, ,-7, ,
12, ,-7, ,
10, ,-7, ,
10, ,-7, ,
10, ,-7, ,
10, ,-7, ,
9, ,-7, ,
9, ,-7, ,
7, ,-7, ,
6, ,-7, ,
6, ,-7, ,
4, ,-7, ,
4, ,-7, ,
3, ,-7, ,
2, ,-7, ,
2, ,-7, ,
2, ,-7, ,
1, ,-7, ,
1, ,-7, ,
0, ,-7, ,
0, ,-7, ,
0, ,-7, ,
0, ,-7, ,
0, ,-7, ,
-2, ,-7, ,
-2, ,-7, ,
-3, ,-7, ,
-4, ,-7, ,
-4, ,-7, ,
-4, ,-7, ,
-6, ,-7, ,
-6, ,-7, ,
-8, ,-7, ,
-7, ,-7, ,
-10, ,-7, ,
-11, ,-7, ,
-11, ,-7, ,
-14, ,-7, ,
-16, ,-7, ,
-16, ,-7, ,
-18, ,-7, ,
-18, ,-7, ,
-19, ,-7, ,
-21, ,-7, ,
-21, ,-7, ,
-22, ,-7, ,
-24, ,-7, ,
-23, ,-7, ,
-25, ,-7, ,
-25, ,-7, ,
-26, ,-7, ,
-28, ,-7, ,
-28, ,-7, ,
-30, ,-7, ,
-30, ,-7, ,
-30, ,-7, ,
-31, ,-7, ,
-31, ,-7, ,
-32, ,-7, ,
-32, ,-7, ,
-31, ,-7, ,
-33, ,-7, ,
-32, ,-7, ,
-31, ,-7, ,
-31, ,-7, ,
-30, ,-7, ,
-30, ,-7, ,
-31, ,-7, ,
-30, ,-7, ,
-31, ,-7, ,
-31, ,-7, ,
-31, ,-7, ,
-32, ,-7, ,
-30, ,-7, ,
-29, ,-7, ,
-30, ,-7, ,
-28, ,-7, ,
-28, ,-7, ,
-25, ,-7, ,
-25, ,-7, ,
-22, ,-7, ,
-20, ,-7, ,
-19, ,-7, ,
-17, ,-7, ,
-17, ,-7, ,
-15, ,-7, ,
-14, ,-7, ,
-12, ,-7, ,
-12, ,-7, ,
-10, ,-7, ,
-7, ,-7, ,
-7, ,-7, ,
-5, ,-8, ,
-3, ,-8, ,
0, ,-8, ,
1, ,-7, ,
2, ,-7, ,
5, ,-7, ,
7, ,-7, ,
7, ,-7, ,
9, ,-7, ,
9, ,-7, ,
11, ,-7, ,
12, ,-7, ,
11, ,-7, ,
13, ,-8, ,
14, ,-8, ,
14, ,-7, ,
14, ,-7, ,
15, ,-7, ,
15, ,-7, ,
15, ,-7, ,
14, ,-7, ,
13, ,-7, ,
12, ,-7, ,
11, ,-7, ,
10, ,-7, ,
9, ,-7, ,
7, ,-7, ,
8, ,-7, ,
5, ,-7, ,
5, ,-7, ,
4, ,-7, ,
4, ,-7, ,
4, ,-7, ,
2, ,-7, ,
0, ,-7, ,
-1, ,-7, ,
-2, ,-7, ,
-3, ,-7, ,
-4, ,-7, ,
-5, ,-7, ,
-6, ,-7, ,
-8, ,-7, ,
-8, ,-7, ,
-8, ,-7, ,
-10, ,-7, ,
-11, ,-7, ,
-11, ,-7, ,
-12, ,-7, ,
-13, ,-8, ,
-13, ,-8, ,
-15, ,-8, ,
-16, ,-7, ,
-17, ,-7, ,
-18, ,-7, ,
-20, ,-7, ,
-21, ,-7, ,
-21, ,-7, ,
-23, ,-7, ,
-24, ,-7, ,
-25, ,-7, ,
-26, ,-7, ,
-26, ,-7, ,
-27, ,-7, ,
-27, ,-7, ,
-28, ,-7, ,
-29, ,-7, ,
-27, ,-7, ,
-27, ,-7, ,
-27, ,-7, ,
-27, ,-7, ,
-25, ,-7, ,
-26, ,-7, ,
-24, ,-7, ,
-25, ,-7, ,
-24, ,-7, ,
-22, ,-7, ,
-22, ,-7, ,
-22, ,-7, ,
-21, ,-7, ,
-20, ,-7, ,
-20, ,-7, ,
-19, ,-7, ,
-20, ,-7, ,
-17, ,-7, ,
-16, ,-7, ,
-16, ,-7, ,
-15, ,-7, ,
-16, ,-7, ,
-16, ,-7, ,
-17, ,-7, ,
-17, ,-7, ,
-16, ,-7, ,
-16, ,-7, ,
-17, ,-7, ,
-16, ,-7, ,
-17, ,-7, ,
-17, ,-7, ,
-17, ,-7, ,
-16, ,-7, ,
-15, ,-7, ,
-15, ,-7, ,
-15, ,-7, ,
-15, ,-7, ,
-15, ,-7, ,
-15, ,-7, ,
-15, ,-7, ,
-15, ,-7, ,
-15, ,-7, ,
-15, ,-7, ,
-14, ,-7, ,
-14, ,-7, ,
-14, ,-7, ,
-14, ,-7, ,
-14, ,-7, ,
-15, ,-7, ,
-14, ,-7, ,
-14, ,-7, ,
-14, ,-7, ,
-14, ,-7, ,
-15, ,-7, ,
-15, ,-7, ,
-17, ,-7, ,
-18, ,-7, ,
-18, ,-7, ,
-19, ,-7, ,
-19, ,-7, ,
-19, ,-7, ,
-19, ,-7, ,
-19, ,-7, ,
-19, ,-7, ,
-19, ,-7, ,
-17, ,-7, ,
-17, ,-7, ,
-17, ,-7, ,
-15, ,-7, ,
-16, ,-7, ,
-13, ,-7, ,
-14, ,-7, ,
-12, ,-7, ,
-10, ,-7, ,
-10, ,-7, ,
-10, ,-7, ,
-7, ,-7, ,
-7, ,-7, ,
-6, ,-7, ,
-4, ,-7, ,
-3, ,-7, ,
-2, ,-7, ,
-2, ,-7, ,
-1, ,-7, ,
-1, ,-7, ,
-1, ,-7, ,
-1, ,-7, ,
-2, ,-7, ,
-2, ,-7, ,
-3, ,-7, ,
-3, ,-7, ,
-3, ,-7, ,
-3, ,-7, ,
-4, ,-7, ,
-3, ,-7, ,
-4, ,-7, ,
-4, ,-7, ,
-3, ,-7, ,
-4, ,-7, ,
-3, ,-7, ,
-2, ,-7, ,
-3, ,-7, ,
-3, ,-7, ,
-4, ,-7, ,
-3, ,-7, ,
-3, ,-7, ,
-3, ,-7, ,
-2, ,-7, ,
-2, ,-7, ,
-2, ,-7, ,
-2, ,-7, ,
-2, ,-7, ,
-3, ,-7, ,
-4, ,-7, ,
-4, ,-7, ,
-4, ,-7, ,
-6, ,-7, ,
-7, ,-7, ,
-7, ,-7, ,
-8, ,-7, ,
-10, ,-8, ,
-9, ,-8, ,
-11, ,-7, ,
-12, ,-7, ,
-10, ,-7, ,
-12, ,-7, ,
-11, ,-7, ,
-11, ,-7, ,
-12, ,-7, ,
-11, ,-7, ,
-12, ,-7, ,
-12, ,-7, ,
-12, ,-7, ,
-12, ,-7, ,
-11, ,-7, ,
-12, ,-7, ,
-11, ,-7, ,
-9, ,-7, ,
-9, ,-7, ,
-9, ,-7, ,
-7, ,-7, ,
-7, ,-7, ,
-7, ,-7, ,
-6, ,-7, ,
-7, ,-7, ,
-5, ,-7, ,
-5, ,-7, ,
-5, ,-7, ,
-4, ,-7, ,
-5, ,-7, ,
-4, ,-7, ,
-4, ,-7, ,
-4, ,-7, ,
-4, ,-7, ,
-5, ,-7, ,
-5, ,-7, ,
-5, ,-7, ,
-4, ,-7, ,
-3, ,-7, ,
-4, ,-7, ,
-4, ,-7, ,
-4, ,-7, ,
-4, ,-7, ,
-3, ,-7, ,
-3, ,-7, ,
-4, ,-8, ,
-4, ,-8, ,
-4, ,-8, ,
-4, ,-7, ,
-4, ,-7, ,
-3, ,-7, ,
-4, ,-7, ,
-3, ,-7, ,
-4, ,-7, ,
-2, ,-7, ,
-3, ,-7, ,
-4, ,-7, ,
-2, ,-7, ,
-3, ,-7, ,
-3, ,-7, ,
-4, ,-7, ,
-2, ,-8, ,
-2, ,-8, ,
-2, ,-7, ,
-3, ,-7, ,
-3, ,-7, ,
-3, ,-7, ,
-2, ,-7, ,
-1, ,-7, ,
-2, ,-7, ,
-1, ,-7, ,
-1, ,-7, ,
-1, ,-7, ,
-1, ,-7, ,
-1, ,-7, ,
-1, ,-7, ,
-1, ,-7, ,
-2, ,-8, ,
-1, ,-8, ,
-3, ,-7, ,
-2, ,-7, ,
-2, ,-7, ,
-2, ,-7, ,
-1, ,-7, ,
-2, ,-7, ,
-3, ,-7, ,
-2, ,-7, ,
-4, ,-7, ,
-3, ,-7, ,
-3, ,-7, ,
-3, ,-7, ,
-3, ,-7, ,
-4, ,-7, ,
-4, ,-7, ,
-4, ,-7, ,
-5, ,-7, ,
-5, ,-8, ,
-5, ,-8, ,
-5, ,-7, ,
-4, ,-7, ,
-4, ,-7, ,
-4, ,-7, ,
-4, ,-7, ,
-4, ,-7, ,
-3, ,-7, ,
-4, ,-7, ,
-4, ,-7, ,
-4, ,-7, ,
-4, ,-7, ,
-4, ,-7, ,
-4, ,-7, ,
-3, ,-7, ,
-3, ,-7, ,
-3, ,-7, ,
-2, ,-7, ,
-2, ,-7, ,
-2, ,-7, ,
-2, ,-7, ,
-1, ,-7, ,
-1, ,-7, ,
-2, ,-7, ,
-1, ,-7, ,
-1, ,-7, ,
-2, ,-7, ,
-1, ,-7, ,
-2, ,-7, ,
-2, ,-7, ,
-2, ,-7, ,
-3, ,-8, ,
-2, ,-8, ,
-4, ,-7, ,
-2, ,-7, ,
-2, ,-7, ,
-2, ,-7, ,
-2, ,-7, ,
-2, ,-7, ,
-2, ,-7, ,
-2, ,-7, ,
-1, ,-7, ,
0, ,-7, ,
0, ,-7, ,
0, ,-7, ,
0, ,-7, ,
0, ,-7, ,
1, ,-7, ,
3, ,-7, ,
3, ,-7, ,
4, ,-7, ,
5, ,-7, ,
5, ,-7, ,
6, ,-7, ,
6, ,-7, ,
7, ,-7, ,
7, ,-7, ,
7, ,-7, ,
7, ,-7, ,
7, ,-7, ,
6, ,-7, ,
7, ,-7, ,
5, ,-7, ,
5, ,-7, ,
5, ,-7, ,
4, ,-7, ,
4, ,-7, ,
5, ,-7, ,
2, ,-7, ,
2, ,-7, ,
2, ,-7, ,
0, ,-7, ,
1, ,-7, ,
0, ,-7, ,
1, ,-7, ,
1, ,-7, ,
0, ,-7, ,
1, ,-7, ,
1, ,-7, ,
0, ,-7, ,
1, ,-7, ,
1, ,-7, ,
1, ,-7, ,
2, ,-7, ,
2, ,-7, ,
3, ,-7, ,
3, ,-7, ,
4, ,-7, ,
5, ,-7, ,
5, ,-7, ,
5, ,-7, ,
5, ,-7, ,
4, ,-7, ,
4, ,-7, ,
4, ,-7, ,
3, ,-7, ,
3, ,-7, ,
1, ,-7, ,
1, ,-7, ,
1, ,-7, ,
0, ,-7, ,
-1, ,-7, ,
-1, ,-7, ,
-3, ,-7, ,
-3, ,-7, ,
-4, ,-7, ,
-3, ,-7, ,
-5, ,-7, ,
-6, ,-7, ,
-5, ,-7, ,
-7, ,-7, ,
-8, ,-7, ,
-7, ,-7, ,
-8, ,-7, ,
-7, ,-7, ,
-6, ,-7, ,
-7, ,-7, ,
-7, ,-7, ,
-6, ,-7, ,
-5, ,-7, ,
-4, ,-7, ,
-4, ,-7, ,
-3, ,-7, ,
0, ,-7, ,
-1, ,-7, ,
1, ,-7, ,
1, ,-7, ,
2, ,-7, ,
4, ,-7, ,
4, ,-7, ,
5, ,-7, ,
7, ,-7, ,
6, ,-7, ,
7, ,-7, ,
8, ,-7, ,
8, ,-7, ,
8, ,-7, ,
9, ,-7, ,
9, ,-7, ,
8, ,-7, ,
7, ,-7, ,
7, ,-7, ,
5, ,-7, ,
4, ,-7, ,
5, ,-7, ,
2, ,-7, ,
2, ,-7, ,
1, ,-7, ,
0, ,-7, ,
-1, ,-7, ,
-2, ,-7, ,
-3, ,-7, ,
-3, ,-7, ,
-4, ,-7, ,
-4, ,-7, ,
-5, ,-7, ,
-6, ,-7, ,
-5, ,-7, ,
-7, ,-7, ,
-8, ,-7, ,
-8, ,-7, ,
-9, ,-7, ,
-7, ,-7, ,
-6, ,-7, ,
-9, ,-7, ,
-9, ,-7, ,
-9, ,-7, ,
-8, ,-7, ,
-7, ,-7, ,
-7, ,-7, ,
-7, ,-7, ,
-7, ,-7, ,
-8, ,-7, ,
-7, ,-7, ,
-7, ,-7, ,
-8, ,-7, ,
-7, ,-7, ,
-9, ,-7, ,
-8, ,-7, ,
-7, ,-7, ,
-8, ,-7, ,
-8, ,-7, ,
-8, ,-7, ,
-7, ,-7, ,
-7, ,-7, ,
-7, ,-7, ,
-7, ,-7, ,
-7, ,-7, ,
-7, ,-7, ,
-7, ,-7, ,
-6, ,-7, ,
-8, ,-7, ,
-7, ,-7, ,
-7, ,-7, ,
-7, ,-7, ,
-7, ,-7, ,
-7, ,-7, ,
-6, ,-7, ,
-7, ,-7, ,
-7, ,-7, ,
-5, ,-7, ,
-6, ,-7, ,
-5, ,-7, ,
-5, ,-7, ,
-5, ,-7, ,
-5, ,-7, ,
-5, ,-7, ,
-5, ,-7, ,
-5, ,-7, ,
-5, ,-7, ,
-4, ,-7, ,
-3, ,-7, ,
-5, ,-7, ,
-3, ,-7, ,
-4, ,-7, ,
-5, ,-7, ,
-3, ,-7, ,
-2, ,-7, ,
-2, ,-7, ,
-3, ,-7, ,
-4, ,-7, ,
-2, ,-7, ,
-2, ,-7, ,
-2, ,-7, ,
-2, ,-7, ,
-2, ,-7, ,
-2, ,-7, ,
-2, ,-7, ,
-1, ,-7, ,
-1, ,-7, ,
-2, ,-7, ,
-2, ,-7, ,
-1, ,-7, ,
-1, ,-7, ,
-1, ,-7, ,
-1, ,-7, ,
-1, ,-7, ,
-1, ,-7, ,
-2, ,-7, ,
-1, ,-7, ,
0, ,-7, ,
-2, ,-7, ,
-1, ,-7, ,
-1, ,-7, ,
-2, ,-7, ,
-1, ,-7, ,
-2, ,-7, ,
-2, ,-7, ,
-2, ,-7, ,
-2, ,-7, ,
-1, ,-7, ,
-1, ,-7, ,
-1, ,-8, ,
-1, ,-8, ,
-2, ,-7, ,
-2, ,-7, ,
-2, ,-7, ,
-1, ,-7, ,
-2, ,-7, ,
-1, ,-7, ,
-2, ,-7, ,
-1, ,-7, ,
-2, ,-7, ,
-3, ,-7, ,
-1, ,-7, ,
-2, ,-7, ,
-2, ,-7, ,
-1, ,-7, ,
-2, ,-7, ,
-1, ,-7, ,
-2, ,-7, ,
-2, ,-7, ,
-1, ,-7, ,
-2, ,-7, ,
-1, ,-7, ,
-1, ,-7, ,
-2, ,-7, ,
-1, ,-7, ,
-2, ,-7, ,
-2, ,-7, ,
-2, ,-7, ,
-3, ,-7, ,
-2, ,-7, ,
-1, ,-7, ,
-2, ,-7, ,
-2, ,-7, ,
-2, ,-7, ,
-2, ,-7, ,
-1, ,-7, ,
-2, ,-7, ,
-1, ,-7, ,
0, ,-7, ,
0, ,-7, ,
0, ,-8, ,
-1, ,-8, ,
-2, ,-8, ,
1, ,-7, ,
0, ,-7, ,
1, ,-7, ,
0, ,-7, ,
0, ,-7, ,
0, ,-7, ,
0, ,-7, ,
0, ,-7, ,
0, ,-7, ,
0, ,-7, ,
1, ,-7, ,
0, ,-7, ,
-2, ,-7, ,
0, ,-7, ,
0, ,-7, ,
-1, ,-7, ,
-1, ,-7, ,
-2, ,-7, ,
0, ,-7, ,
-1, ,-7, ,
-1, ,-7, ,
-1, ,-7, ,
-2, ,-7, ,
-2, ,-7, ,
-1, ,-7, ,
-2, ,-7, ,
-1, ,-7, ,
-2, ,-7, ,
-2, ,-7, ,
-2, ,-7, ,
-2, ,-7, ,
-2, ,-7, ,
-2, ,-7, ,
-2, ,-7, ,
-1, ,-7, ,
-1, ,-7, ,
-2, ,-7, ,
-2, ,-7, ,
-2, ,-7, ,
-3, ,-7, ,
-1, ,-7, ,
-2, ,-7, ,
-2, ,-7, ,
-1, ,-7, ,
-2, ,-7, ,
-1, ,-7, ,
-2, ,-7, ,
-2, ,-7, ,
-1, ,-7, ,
-2, ,-7, ,
-1, ,-7, ,
-1, ,-7, ,
-2, ,-7, ,
-2, ,-7, ,
-2, ,-7, ,
-2, ,-7, ,
-1, ,-7, ,
-2, ,-7, ,
-2, ,-7, ,
-2, ,-7, ,
-3, ,-7, ,
-3, ,-7, ,
-4, ,-7, ,
-3, ,-7, ,
-2, ,-8, ,
-2, ,-8, ,
-2, ,-8, ,
-2, ,-7, ,
-4, ,-7, ,
-1, ,-7, ,
-1, ,-7, ,
-1, ,-7, ,
-1, ,-7, ,
-1, ,-7, ,
0, ,-7, ,
0, ,-7, ,
0, ,-7, ,
0, ,-7, ,
0, ,-7, ,
1, ,-7, ,
1, ,-7, ,
2, ,-7, ,
1, ,-7, ,
2, ,-7, ,
2, ,-7, ,
3, ,-7, ,
2, ,-7, ,
2, ,-8, ,
3, ,-8, ,
2, ,-7, ,
2, ,-7, ,
3, ,-7, ,
2, ,-7, ,
2, ,-7, ,
1, ,-7, ,
1, ,-7, ,
1, ,-7, ,
0, ,-7, ,
2, ,-7, ,
0, ,-7, ,
0, ,-7, ,
0, ,-7, ,
0, ,-7, ,
-1, ,-7, ,
-1, ,-7, ,
-2, ,-7, ,
-1, ,-7, ,
0, ,-7, ,
-1, ,-7, ,
-1, ,-7, ,
-1, ,-7, ,
-2, ,-7, ,
-1, ,-7, ,
0, ,-7, ,
0, ,-7, ,
0, ,-7, ,
0, ,-7, ,
0, ,-7, ,
0, ,-7, ,
1, ,-7, ,
1, ,-7, ,
1, ,-7, ,
1, ,-7, ,
2, ,-7, ,
1, ,-7, ,
2, ,-7, ,
2, ,-7, ,
2, ,-7, ,
2, ,-7, ,
3, ,-7, ,
4, ,-7, ,
5, ,-7, ,
3, ,-7, ,
3, ,-7, ,
3, ,-7, ,
4, ,-7, ,
4, ,-7, ,
3, ,-7, ,
3, ,-7, ,
3, ,-7, ,
3, ,-7, ,
3, ,-7, ,
2, ,-7, ,
1, ,-7, ,
2, ,-7, ,
1, ,-7, ,
2, ,-7, ,
3, ,-7, ,
2, ,-7, ,
3, ,-7, ,
1, ,-7, ,
2, ,-7, ,
2, ,-7, ,
1, ,-7, ,
2, ,-7, ,
2, ,-7, ,
1, ,-7, ,
2, ,-7, ,
2, ,-7, ,
1, ,-7, ,
2, ,-7, ,
1, ,-7, ,
2, ,-7, ,
2, ,-7, ,
1, ,-7, ,
1, ,-7, ,
1, ,-7, ,
1, ,-7, ,
2, ,-7, ,
1, ,-7, ,
2, ,-7, ,
2, ,-7, ,
1, ,-7, ,
1, ,-7, ,
1, ,-7, ,
0, ,-7, ,
1, ,-7, ,
2, ,-7, ,
0, ,-7, ,
0, ,-7, ,
0, ,-7, ,
1, ,-7, ,
0, ,-7, ,
0, ,-7, ,
1, ,-7, ,
1, ,-7, ,
0, ,-7, ,
2, ,-7, ,
1, ,-7, ,
2, ,-7, ,
1, ,-7, ,
1, ,-7, ,
2, ,-7, ,
1, ,-7, ,
2, ,-7, ,
2, ,-7, ,
1, ,-7, ,
3, ,-7, ,
2, ,-7, ,
2, ,-7, ,
4, ,-7, ,
3, ,-7, ,
4, ,-7, ,
3, ,-7, ,
3, ,-7, ,
4, ,-7, ,
4, ,-7, ,
3, ,-7, ,
3, ,-7, ,
3, ,-7, ,
3, ,-7, ,
3, ,-7, ,
3, ,-7, ,
3, ,-7, ,
2, ,-7, ,
2, ,-7, ,
3, ,-7, ,
2, ,-7, ,
2, ,-7, ,
3, ,-7, ,
1, ,-7, ,
3, ,-7, ,
1, ,-7, ,
1, ,-7, ,
1, ,-7, ,
1, ,-7, ,
2, ,-7, ,
1, ,-7, ,
1, ,-7, ,
1, ,-7, ,
1, ,-7, ,
1, ,-7, ,
1, ,-7, ,
0, ,-7, ,
1, ,-7, ,
2, ,-7, ,
2, ,-7, ,
1, ,-7, ,
1, ,-7, ,
1, ,-7, ,
1, ,-7, ,
1, ,-7, ,
1, ,-7, ,
0, ,-7, ,
0, ,-7, ,
0, ,-7, ,
0, ,-7, ,
-1, ,-7, ,
-1, ,-7, ,
-1, ,-7, ,
-1, ,-7, ,
-2, ,-7, ,
-2, ,-7, ,
-2, ,-7, ,
-2, ,-7, ,
-2, ,-7, ,
-2, ,-7, ,
-2, ,-7, ,
-2, ,-7, ,
-2, ,-7, ,
-3, ,-7, ,
-1, ,-7, ,
-3, ,-7, ,
-3, ,-7, ,
-3, ,-7, ,
-3, ,-7, ,
-2, ,-7, ,
-2, ,-7, ,
-2, ,-7, ,
-2, ,-7, ,
-2, ,-7, ,
-2, ,-7, ,
-2, ,-7, ,
-2, ,-7, ,
-1, ,-7, ,
-1, ,-7, ,
-2, ,-7, ,
-1, ,-7, ,
-2, ,-7, ,
-1, ,-7, ,
-2, ,-7, ,
-2, ,-7, ,
-2, ,-7, ,
0, ,-7, ,
-2, ,-7, ,
0, ,-7, ,
0, ,-7, ,
0, ,-7, ,
1, ,-7, ,
0, ,-7, ,
1, ,-7, ,
1, ,-7, ,
1, ,-7, ,
2, ,-7, ,
1, ,-7, ,
2, ,-7, ,
2, ,-7, ,
1, ,-7, ,
3, ,-7, ,
3, ,-7, ,
3, ,-7, ,
3, ,-7, ,
3, ,-7, ,
1, ,-7, ,
4, ,-7, ,
2, ,-7, ,
2, ,-7, ,
2, ,-7, ,
2, ,-7, ,
2, ,-7, ,
2, ,-7, ,
1, ,-7, ,
1, ,-7, ,
1, ,-7, ,
1, ,-7, ,
0, ,-7, ,
0, ,-7, ,
0, ,-7, ,
-1, ,-7, ,
0, ,-7, ,
0, ,-7, ,
-1, ,-7, ,
0, ,-7, ,
0, ,-7, ,
-1, ,-7, ,
-1, ,-7, ,
-1, ,-7, ,
-1, ,-7, ,
0, ,-8, ,
-1, ,-8, ,
-1, ,-8, ,
-1, ,-8, ,
-2, ,-7, ,
-1, ,-7, ,
-2, ,-7, ,
-2, ,-7, ,
-2, ,-7, ,
-2, ,-7, ,
0, ,-7, ,
-1, ,-7, ,
-1, ,-7, ,
-1, ,-7, ,
-2, ,-7, ,
-2, ,-7, ,
-1, ,-7, ,
-1, ,-7, ,
-2, ,-7, ,
-2, ,-7, ,
-2, ,-7, ,
-2, ,-7, ,
-2, ,-7, ,
-2, ,-7, ,
-2, ,-7, ,
-3, ,-7, ,
-3, ,-7, ,
-2, ,-7, ,
-3, ,-7, ,
-2, ,-7, ,
-2, ,-7, ,
-2, ,-7, ,
-2, ,-8, ,
-2, ,-8, ,
-1, ,-8, ,
-1, ,-8, ,
-1, ,-8, ,
-1, ,-7, ,
