raw_data/100% Glycerol, Impulsion 2Hz, Sonde 5MHz, Rampe 0.7Hz/temp0000027.CSV

Format,1.0B,
Memory Length,10000,Memory Length,10000,
IntpDistance,0,IntpDistance,0,
Trigger Address,159,Trigger Address,159,
Trigger Level,2.720E-01,Trigger Level,2.720E-01,
Source,CH1,Source,CH2,
Vertical Units,V,Vertical Units,V,
Vertical Units Div,0,Vertical Units Div,0,
Vertical Units Extend Div,16,Vertical Units Extend Div,16,
Label,,Label,,
Probe Type,0,Probe Type,0,
Probe Ratio,1.000e+00,Probe Ratio,1.000e+00,
Vertical Scale,2.000e-01,Vertical Scale,2.000e+00,
Vertical Position,0.000e+00,Vertical Position,0.000e+00,
Horizontal Units,S,Horizontal Units,S,
Horizontal Scale,5.000E-06,Horizontal Scale,5.000E-06,
Horizontal Position,2.420E-05,Horizontal Position,2.420E-05,
Horizontal Mode,Main,Horizontal Mode,Main,
SincET Mode,Real Time,SincET Mode,Real Time,
Sampling Period,5.000e-09,Sampling Period,5.000e-09,
Horizontal Old Scale,5.000E-06,Horizontal Old Scale,5.000E-06,
Horizontal Old Position,2.420E-05,Horizontal Old Position,2.420E-05,
Firmware,V1.32,Firmware,V1.32,
Mode,Fast,Mode,Fast,
Waveform Data,,Waveform Data,,
3, ,-4, ,
2, ,-4, ,
3, ,-4, ,
1, ,-4, ,
2, ,-4, ,
2, ,-4, ,
1, ,-4, ,
2, ,-4, ,
3, ,-4, ,
1, ,-4, ,
3, ,-4, ,
3, ,-4, ,
3, ,-4, ,
2, ,-4, ,
2, ,-4, ,
1, ,-4, ,
1, ,-4, ,
2, ,-4, ,
2, ,-4, ,
2, ,-4, ,
2, ,-4, ,
2, ,-4, ,
1, ,-4, ,
2, ,-4, ,
2, ,-4, ,
1, ,-4, ,
2, ,-4, ,
2, ,-4, ,
1, ,-4, ,
2, ,-4, ,
2, ,-4, ,
3, ,-4, ,
3, ,-4, ,
2, ,-4, ,
2, ,-4, ,
2, ,-4, ,
2, ,-4, ,
2, ,-4, ,
2, ,-4, ,
2, ,-4, ,
2, ,-4, ,
1, ,-4, ,
2, ,-4, ,
2, ,-4, ,
1, ,-4, ,
2, ,-4, ,
1, ,-4, ,
2, ,-4, ,
2, ,-4, ,
1, ,-4, ,
2, ,-4, ,
3, ,-4, ,
2, ,-4, ,
2, ,-4, ,
2, ,-4, ,
2, ,-4, ,
3, ,-4, ,
2, ,-4, ,
2, ,-4, ,
2, ,-4, ,
1, ,-4, ,
2, ,-4, ,
2, ,-4, ,
1, ,-4, ,
2, ,-4, ,
2, ,-4, ,
2, ,-4, ,
2, ,-4, ,
2, ,-4, ,
2, ,-4, ,
1, ,-4, ,
1, ,-4, ,
2, ,-4, ,
2, ,-4, ,
1, ,-4, ,
3, ,-4, ,
1, ,-4, ,
2, ,-4, ,
2, ,-4, ,
1, ,-4, ,
2, ,-4, ,
1, ,-4, ,
2, ,-4, ,
2, ,-4, ,
2, ,-4, ,
2, ,-4, ,
2, ,-4, ,
2, ,-4, ,
2, ,-4, ,
2, ,-4, ,
2, ,-4, ,
2, ,-4, ,
1, ,-4, ,
3, ,-4, ,
2, ,-4, ,
1, ,-4, ,
1, ,-4, ,
2, ,-4, ,
1, ,-4, ,
3, ,-4, ,
2, ,-4, ,
2, ,-4, ,
1, ,-4, ,
2, ,-4, ,
2, ,-4, ,
1, ,-4, ,
2, ,-4, ,
2, ,-4, ,
1, ,-4, ,
2, ,-4, ,
3, ,-4, ,
1, ,-4, ,
2, ,-4, ,
2, ,-4, ,
2, ,-4, ,
2, ,-4, ,
3, ,-4, ,
2, ,-4, ,
1, ,-4, ,
2, ,-4, ,
2, ,-4, ,
3, ,-4, ,
3, ,-4, ,
2, ,-4, ,
2, ,-4, ,
1, ,-4, ,
2, ,-4, ,
1, ,-4, ,
3, ,-4, ,
1, ,-4, ,
2, ,-4, ,
2, ,-4, ,
1, ,-4, ,
2, ,-4, ,
1, ,-4, ,
2, ,-4, ,
2, ,-4, ,
1, ,-4, ,
3, ,-4, ,
2, ,-4, ,
1, ,-4, ,
3, ,-4, ,
2, ,-4, ,
2, ,-4, ,
2, ,-4, ,
2, ,-4, ,
2, ,-4, ,
2, ,-4, ,
1, ,-4, ,
1, ,-4, ,
1, ,-4, ,
0, ,-4, ,
2, ,-4, ,
2, ,-4, ,
1, ,-4, ,
2, ,-4, ,
1, ,-4, ,
2, ,-4, ,
2, ,-4, ,
2, ,-4, ,
2, ,-4, ,
2, ,-4, ,
1, ,-4, ,
1, ,-4, ,
5, ,-4, ,
1, ,-4, ,
-1, ,-4, ,
1, ,-4, ,
26, ,-4, ,
77, ,-4, ,
125, ,-4, ,
125, ,-4, ,
125, ,-4, ,
121, ,-4, ,
117, ,-4, ,
-18, ,-4, ,
69, ,-4, ,
125, ,-4, ,
125, ,-4, ,
125, ,-4, ,
125, ,-4, ,
125, ,-4, ,
125, ,-4, ,
125, ,-4, ,
125, ,-4, ,
125, ,-4, ,
125, ,-4, ,
125, ,-4, ,
125, ,-4, ,
125, ,-4, ,
125, ,-4, ,
125, ,-4, ,
125, ,-4, ,
125, ,-4, ,
125, ,-4, ,
125, ,-4, ,
125, ,-4, ,
125, ,-4, ,
125, ,-4, ,
125, ,-4, ,
125, ,-4, ,
125, ,-4, ,
125, ,-4, ,
124, ,-4, ,
121, ,-4, ,
117, ,-4, ,
112, ,-4, ,
103, ,-4, ,
98, ,-4, ,
94, ,-4, ,
93, ,-4, ,
83, ,-4, ,
79, ,-4, ,
75, ,-4, ,
71, ,-4, ,
64, ,-4, ,
63, ,-4, ,
58, ,-4, ,
58, ,-4, ,
53, ,-4, ,
49, ,-4, ,
48, ,-4, ,
45, ,-4, ,
39, ,-4, ,
39, ,-4, ,
36, ,-4, ,
36, ,-4, ,
32, ,-4, ,
30, ,-4, ,
30, ,-4, ,
26, ,-4, ,
25, ,-4, ,
25, ,-4, ,
21, ,-4, ,
21, ,-4, ,
19, ,-4, ,
17, ,-4, ,
17, ,-4, ,
15, ,-4, ,
13, ,-4, ,
13, ,-4, ,
12, ,-4, ,
11, ,-4, ,
9, ,-4, ,
8, ,-4, ,
8, ,-4, ,
6, ,-4, ,
6, ,-4, ,
5, ,-4, ,
4, ,-4, ,
4, ,-4, ,
4, ,-4, ,
3, ,-4, ,
3, ,-4, ,
2, ,-4, ,
2, ,-4, ,
2, ,-4, ,
1, ,-4, ,
1, ,-4, ,
0, ,-4, ,
0, ,-4, ,
-1, ,-4, ,
-1, ,-4, ,
-1, ,-4, ,
-1, ,-4, ,
-1, ,-4, ,
-1, ,-4, ,
-1, ,-4, ,
-3, ,-4, ,
-3, ,-4, ,
-3, ,-4, ,
-2, ,-4, ,
-1, ,-4, ,
-2, ,-4, ,
-2, ,-4, ,
-2, ,-4, ,
-3, ,-4, ,
-3, ,-4, ,
-3, ,-4, ,
-3, ,-4, ,
-2, ,-4, ,
-4, ,-4, ,
-2, ,-4, ,
-3, ,-4, ,
-3, ,-4, ,
-2, ,-4, ,
-2, ,-4, ,
-3, ,-4, ,
-3, ,-4, ,
-3, ,-4, ,
-3, ,-4, ,
-2, ,-4, ,
-2, ,-4, ,
-2, ,-4, ,
-3, ,-4, ,
-2, ,-4, ,
-2, ,-4, ,
-2, ,-4, ,
-2, ,-4, ,
-2, ,-4, ,
-3, ,-4, ,
-2, ,-4, ,
-2, ,-4, ,
-2, ,-4, ,
-2, ,-4, ,
-2, ,-4, ,
-2, ,-4, ,
-2, ,-4, ,
-3, ,-4, ,
-2, ,-4, ,
-3, ,-4, ,
-2, ,-4, ,
-1, ,-4, ,
-2, ,-4, ,
-1, ,-4, ,
0, ,-4, ,
-1, ,-4, ,
-2, ,-4, ,
-1, ,-4, ,
-2, ,-4, ,
0, ,-4, ,
0, ,-4, ,
-1, ,-4, ,
0, ,-4, ,
-1, ,-4, ,
0, ,-4, ,
-2, ,-4, ,
-1, ,-4, ,
-1, ,-4, ,
-2, ,-4, ,
0, ,-4, ,
-1, ,-4, ,
-1, ,-4, ,
0, ,-4, ,
0, ,-4, ,
0, ,-4, ,
0, ,-4, ,
-1, ,-4, ,
-1, ,-4, ,
0, ,-4, ,
0, ,-4, ,
0, ,-4, ,
0, ,-4, ,
1, ,-4, ,
1, ,-4, ,
1, ,-4, ,
1, ,-4, ,
1, ,-4, ,
0, ,-4, ,
1, ,-4, ,
1, ,-4, ,
0, ,-4, ,
1, ,-4, ,
1, ,-4, ,
1, ,-4, ,
1, ,-4, ,
1, ,-4, ,
1, ,-4, ,
0, ,-4, ,
0, ,-4, ,
0, ,-4, ,
1, ,-4, ,
1, ,-4, ,
1, ,-4, ,
0, ,-4, ,
1, ,-4, ,
1, ,-4, ,
0, ,-4, ,
1, ,-4, ,
1, ,-4, ,
1, ,-4, ,
1, ,-4, ,
1, ,-4, ,
1, ,-4, ,
0, ,-4, ,
1, ,-4, ,
2, ,-4, ,
0, ,-4, ,
1, ,-4, ,
2, ,-4, ,
1, ,-4, ,
2, ,-4, ,
1, ,-4, ,
1, ,-4, ,
1, ,-4, ,
1, ,-4, ,
1, ,-4, ,
1, ,-4, ,
1, ,-4, ,
1, ,-4, ,
1, ,-4, ,
1, ,-4, ,
2, ,-4, ,
0, ,-4, ,
1, ,-4, ,
1, ,-4, ,
1, ,-4, ,
2, ,-4, ,
1, ,-4, ,
1, ,-4, ,
2, ,-4, ,
1, ,-4, ,
2, ,-4, ,
1, ,-4, ,
1, ,-4, ,
1, ,-4, ,
1, ,-4, ,
1, ,-4, ,
2, ,-4, ,
1, ,-4, ,
1, ,-4, ,
2, ,-4, ,
1, ,-4, ,
1, ,-4, ,
2, ,-4, ,
1, ,-4, ,
2, ,-4, ,
1, ,-4, ,
1, ,-4, ,
1, ,-4, ,
2, ,-4, ,
2, ,-4, ,
1, ,-4, ,
2, ,-4, ,
2, ,-4, ,
0, ,-4, ,
1, ,-4, ,
1, ,-4, ,
1, ,-4, ,
1, ,-4, ,
0, ,-4, ,
2, ,-4, ,
1, ,-4, ,
1, ,-4, ,
2, ,-4, ,
1, ,-4, ,
1, ,-4, ,
1, ,-4, ,
1, ,-4, ,
1, ,-4, ,
1, ,-4, ,
0, ,-4, ,
1, ,-4, ,
0, ,-4, ,
-1, ,-4, ,
0, ,-4, ,
0, ,-4, ,
0, ,-4, ,
0, ,-4, ,
0, ,-4, ,
1, ,-4, ,
1, ,-4, ,
1, ,-4, ,
2, ,-4, ,
0, ,-4, ,
2, ,-4, ,
2, ,-4, ,
1, ,-4, ,
1, ,-4, ,
2, ,-4, ,
2, ,-4, ,
2, ,-4, ,
1, ,-4, ,
1, ,-4, ,
2, ,-4, ,
2, ,-4, ,
2, ,-4, ,
2, ,-4, ,
1, ,-4, ,
2, ,-4, ,
1, ,-4, ,
2, ,-4, ,
3, ,-4, ,
2, ,-4, ,
3, ,-4, ,
2, ,-4, ,
1, ,-4, ,
2, ,-4, ,
1, ,-4, ,
0, ,-4, ,
0, ,-4, ,
-1, ,-4, ,
0, ,-4, ,
0, ,-4, ,
-1, ,-4, ,
0, ,-4, ,
-1, ,-4, ,
0, ,-4, ,
0, ,-4, ,
0, ,-4, ,
1, ,-4, ,
2, ,-4, ,
1, ,-4, ,
3, ,-4, ,
2, ,-4, ,
1, ,-4, ,
3, ,-4, ,
2, ,-4, ,
2, ,-4, ,
1, ,-4, ,
1, ,-4, ,
2, ,-4, ,
1, ,-4, ,
1, ,-4, ,
1, ,-4, ,
0, ,-4, ,
1, ,-4, ,
2, ,-4, ,
1, ,-4, ,
2, ,-4, ,
1, ,-4, ,
1, ,-4, ,
2, ,-4, ,
1, ,-4, ,
1, ,-4, ,
0, ,-4, ,
-1, ,-4, ,
0, ,-4, ,
-2, ,-4, ,
-3, ,-4, ,
-4, ,-4, ,
-5, ,-4, ,
-6, ,-4, ,
-7, ,-4, ,
-8, ,-4, ,
-6, ,-4, ,
-7, ,-4, ,
-8, ,-4, ,
-8, ,-4, ,
-8, ,-4, ,
-7, ,-4, ,
-8, ,-4, ,
-10, ,-4, ,
-10, ,-4, ,
-13, ,-4, ,
-15, ,-4, ,
-15, ,-4, ,
-18, ,-4, ,
-19, ,-4, ,
-23, ,-4, ,
-27, ,-4, ,
-26, ,-4, ,
-30, ,-4, ,
-31, ,-4, ,
-32, ,-4, ,
-32, ,-4, ,
-32, ,-4, ,
-30, ,-4, ,
-29, ,-4, ,
-28, ,-4, ,
-27, ,-4, ,
-25, ,-4, ,
-25, ,-4, ,
-25, ,-4, ,
-25, ,-4, ,
-25, ,-4, ,
-27, ,-4, ,
-27, ,-4, ,
-28, ,-4, ,
-28, ,-4, ,
-28, ,-4, ,
-27, ,-4, ,
-28, ,-4, ,
-24, ,-4, ,
-23, ,-4, ,
-21, ,-4, ,
-19, ,-4, ,
-14, ,-4, ,
-12, ,-4, ,
-11, ,-4, ,
-8, ,-4, ,
-6, ,-4, ,
-7, ,-4, ,
-5, ,-4, ,
-6, ,-4, ,
-7, ,-4, ,
-8, ,-4, ,
-9, ,-4, ,
-9, ,-4, ,
-10, ,-4, ,
-10, ,-4, ,
-10, ,-4, ,
-10, ,-4, ,
-9, ,-4, ,
-5, ,-4, ,
-5, ,-4, ,
-4, ,-4, ,
-1, ,-4, ,
-2, ,-4, ,
1, ,-4, ,
0, ,-4, ,
0, ,-4, ,
0, ,-4, ,
-1, ,-4, ,
-2, ,-4, ,
-4, ,-4, ,
-5, ,-4, ,
-6, ,-4, ,
-9, ,-4, ,
-10, ,-4, ,
-11, ,-4, ,
-12, ,-4, ,
-11, ,-4, ,
-11, ,-4, ,
-11, ,-4, ,
-11, ,-4, ,
-10, ,-4, ,
-10, ,-4, ,
-10, ,-4, ,
-10, ,-4, ,
-11, ,-4, ,
-11, ,-4, ,
-15, ,-4, ,
-17, ,-4, ,
-19, ,-4, ,
-21, ,-4, ,
-22, ,-4, ,
-24, ,-4, ,
-24, ,-4, ,
-25, ,-4, ,
-25, ,-4, ,
-24, ,-4, ,
-24, ,-4, ,
-23, ,-4, ,
-22, ,-4, ,
-23, ,-4, ,
-23, ,-4, ,
-25, ,-4, ,
-26, ,-4, ,
-26, ,-4, ,
-29, ,-4, ,
-30, ,-4, ,
-30, ,-4, ,
-32, ,-4, ,
-32, ,-4, ,
-33, ,-4, ,
-33, ,-4, ,
-33, ,-4, ,
-33, ,-4, ,
-35, ,-4, ,
-34, ,-4, ,
-35, ,-4, ,
-33, ,-4, ,
-34, ,-4, ,
-34, ,-4, ,
-33, ,-4, ,
-34, ,-4, ,
-31, ,-4, ,
-30, ,-4, ,
-30, ,-4, ,
-29, ,-4, ,
-29, ,-4, ,
-30, ,-4, ,
-31, ,-4, ,
-33, ,-4, ,
-34, ,-4, ,
-34, ,-4, ,
-35, ,-4, ,
-37, ,-4, ,
-36, ,-4, ,
-36, ,-4, ,
-36, ,-4, ,
-36, ,-4, ,
-34, ,-4, ,
-32, ,-4, ,
-31, ,-4, ,
-30, ,-4, ,
-30, ,-4, ,
-30, ,-4, ,
-30, ,-4, ,
-31, ,-4, ,
-32, ,-4, ,
-32, ,-4, ,
-33, ,-4, ,
-33, ,-4, ,
-33, ,-4, ,
-33, ,-4, ,
-32, ,-4, ,
-32, ,-4, ,
-29, ,-4, ,
-28, ,-4, ,
-27, ,-4, ,
-25, ,-4, ,
-24, ,-4, ,
-25, ,-4, ,
-23, ,-4, ,
-23, ,-4, ,
-23, ,-4, ,
-23, ,-4, ,
-22, ,-4, ,
-21, ,-4, ,
-20, ,-4, ,
-19, ,-4, ,
-18, ,-4, ,
-17, ,-4, ,
-15, ,-4, ,
-14, ,-4, ,
-13, ,-4, ,
-12, ,-4, ,
-11, ,-4, ,
-12, ,-4, ,
-10, ,-4, ,
-10, ,-4, ,
-8, ,-4, ,
-6, ,-4, ,
-7, ,-4, ,
-5, ,-4, ,
-3, ,-4, ,
-2, ,-4, ,
-1, ,-4, ,
-2, ,-4, ,
0, ,-4, ,
2, ,-4, ,
0, ,-4, ,
1, ,-4, ,
1, ,-4, ,
1, ,-4, ,
1, ,-4, ,
2, ,-4, ,
3, ,-4, ,
3, ,-4, ,
5, ,-4, ,
6, ,-4, ,
8, ,-4, ,
6, ,-4, ,
9, ,-4, ,
8, ,-4, ,
9, ,-4, ,
10, ,-4, ,
9, ,-4, ,
9, ,-4, ,
9, ,-4, ,
9, ,-4, ,
10, ,-4, ,
9, ,-4, ,
9, ,-4, ,
9, ,-4, ,
9, ,-4, ,
9, ,-4, ,
9, ,-4, ,
7, ,-4, ,
7, ,-4, ,
5, ,-4, ,
4, ,-4, ,
4, ,-4, ,
3, ,-4, ,
4, ,-4, ,
1, ,-4, ,
-1, ,-4, ,
-1, ,-4, ,
-3, ,-4, ,
-6, ,-4, ,
-5, ,-4, ,
-8, ,-4, ,
-8, ,-4, ,
-9, ,-4, ,
-13, ,-4, ,
-11, ,-4, ,
-15, ,-4, ,
-15, ,-4, ,
-16, ,-4, ,
-18, ,-4, ,
-17, ,-4, ,
-20, ,-4, ,
-21, ,-4, ,
-20, ,-4, ,
-22, ,-4, ,
-22, ,-4, ,
-23, ,-4, ,
-25, ,-4, ,
-24, ,-4, ,
-26, ,-4, ,
-28, ,-4, ,
-27, ,-4, ,
-30, ,-4, ,
-31, ,-4, ,
-31, ,-4, ,
-33, ,-4, ,
-33, ,-4, ,
-35, ,-4, ,
-35, ,-4, ,
-35, ,-4, ,
-35, ,-4, ,
-35, ,-4, ,
-35, ,-4, ,
-35, ,-4, ,
-35, ,-4, ,
-35, ,-4, ,
-35, ,-4, ,
-35, ,-4, ,
-36, ,-4, ,
-35, ,-4, ,
-35, ,-4, ,
-35, ,-4, ,
-34, ,-4, ,
-31, ,-4, ,
-31, ,-4, ,
-29, ,-4, ,
-27, ,-4, ,
-25, ,-4, ,
-20, ,-4, ,
-20, ,-4, ,
-17, ,-4, ,
-14, ,-4, ,
-12, ,-4, ,
-9, ,-4, ,
-9, ,-4, ,
-4, ,-4, ,
-2, ,-4, ,
-2, ,-4, ,
1, ,-4, ,
4, ,-4, ,
5, ,-4, ,
8, ,-4, ,
6, ,-4, ,
10, ,-4, ,
12, ,-4, ,
11, ,-4, ,
12, ,-4, ,
13, ,-4, ,
13, ,-4, ,
14, ,-4, ,
11, ,-4, ,
11, ,-4, ,
13, ,-4, ,
12, ,-4, ,
11, ,-4, ,
12, ,-4, ,
10, ,-4, ,
12, ,-4, ,
11, ,-4, ,
11, ,-4, ,
11, ,-4, ,
10, ,-4, ,
10, ,-4, ,
8, ,-4, ,
7, ,-4, ,
8, ,-4, ,
6, ,-4, ,
5, ,-4, ,
5, ,-4, ,
5, ,-4, ,
5, ,-4, ,
4, ,-4, ,
2, ,-4, ,
2, ,-4, ,
2, ,-4, ,
0, ,-4, ,
-1, ,-4, ,
-2, ,-4, ,
-2, ,-4, ,
-4, ,-4, ,
-5, ,-4, ,
-5, ,-4, ,
-6, ,-4, ,
-8, ,-4, ,
-7, ,-4, ,
-9, ,-4, ,
-8, ,-4, ,
-8, ,-4, ,
-10, ,-4, ,
-10, ,-4, ,
-10, ,-4, ,
-11, ,-4, ,
-12, ,-4, ,
-11, ,-4, ,
-13, ,-4, ,
-13, ,-4, ,
-16, ,-4, ,
-17, ,-4, ,
-18, ,-4, ,
-20, ,-4, ,
-20, ,-4, ,
-21, ,-4, ,
-21, ,-4, ,
-24, ,-4, ,
-24, ,-4, ,
-24, ,-4, ,
-26, ,-4, ,
-27, ,-4, ,
-27, ,-4, ,
-27, ,-4, ,
-27, ,-4, ,
-27, ,-4, ,
-27, ,-4, ,
-27, ,-4, ,
-28, ,-4, ,
-25, ,-4, ,
-25, ,-4, ,
-25, ,-4, ,
-24, ,-4, ,
-22, ,-4, ,
-22, ,-4, ,
-22, ,-4, ,
-20, ,-4, ,
-20, ,-4, ,
-19, ,-4, ,
-19, ,-4, ,
-19, ,-4, ,
-18, ,-4, ,
-19, ,-4, ,
-19, ,-4, ,
-20, ,-4, ,
-20, ,-4, ,
-20, ,-4, ,
-21, ,-4, ,
-21, ,-4, ,
-20, ,-4, ,
-21, ,-4, ,
-21, ,-4, ,
-21, ,-4, ,
-20, ,-4, ,
-20, ,-4, ,
-20, ,-4, ,
-20, ,-4, ,
-20, ,-4, ,
-20, ,-4, ,
-19, ,-4, ,
-20, ,-4, ,
-19, ,-4, ,
-19, ,-4, ,
-18, ,-4, ,
-18, ,-4, ,
-17, ,-4, ,
-18, ,-4, ,
-16, ,-4, ,
-17, ,-4, ,
-17, ,-4, ,
-16, ,-4, ,
-16, ,-4, ,
-16, ,-4, ,
-16, ,-4, ,
-15, ,-4, ,
-16, ,-4, ,
-17, ,-4, ,
-16, ,-4, ,
-15, ,-4, ,
-16, ,-4, ,
-15, ,-4, ,
-15, ,-4, ,
-15, ,-4, ,
-14, ,-4, ,
-14, ,-4, ,
-14, ,-4, ,
-12, ,-4, ,
-12, ,-4, ,
-11, ,-4, ,
-11, ,-4, ,
-12, ,-4, ,
-12, ,-4, ,
-12, ,-4, ,
-11, ,-4, ,
-11, ,-4, ,
-11, ,-4, ,
-9, ,-4, ,
-8, ,-4, ,
-10, ,-4, ,
-9, ,-4, ,
-10, ,-4, ,
-10, ,-4, ,
-9, ,-4, ,
-8, ,-4, ,
-9, ,-4, ,
-8, ,-4, ,
-7, ,-4, ,
-7, ,-4, ,
-7, ,-4, ,
-7, ,-4, ,
-6, ,-4, ,
-5, ,-4, ,
-6, ,-4, ,
-3, ,-4, ,
-4, ,-4, ,
-2, ,-4, ,
-1, ,-4, ,
0, ,-4, ,
0, ,-4, ,
0, ,-4, ,
0, ,-4, ,
1, ,-4, ,
1, ,-4, ,
2, ,-4, ,
1, ,-4, ,
0, ,-4, ,
0, ,-4, ,
0, ,-4, ,
1, ,-4, ,
0, ,-4, ,
0, ,-4, ,
0, ,-4, ,
0, ,-4, ,
-2, ,-4, ,
0, ,-4, ,
-2, ,-4, ,
-2, ,-4, ,
-2, ,-4, ,
-3, ,-4, ,
-3, ,-4, ,
-4, ,-4, ,
-5, ,-4, ,
-5, ,-4, ,
-4, ,-4, ,
-3, ,-4, ,
-4, ,-4, ,
-4, ,-4, ,
-3, ,-4, ,
-4, ,-4, ,
-4, ,-4, ,
-4, ,-4, ,
-5, ,-4, ,
-5, ,-4, ,
-5, ,-4, ,
-6, ,-4, ,
-6, ,-4, ,
-6, ,-4, ,
-6, ,-4, ,
-6, ,-4, ,
-8, ,-4, ,
-6, ,-4, ,
-6, ,-4, ,
-9, ,-4, ,
-8, ,-4, ,
-9, ,-4, ,
-10, ,-4, ,
-10, ,-4, ,
-11, ,-4, ,
-11, ,-4, ,
-13, ,-4, ,
-13, ,-4, ,
-14, ,-4, ,
-14, ,-4, ,
-15, ,-4, ,
-15, ,-4, ,
-15, ,-4, ,
-15, ,-4, ,
-15, ,-4, ,
-15, ,-4, ,
-15, ,-4, ,
-15, ,-4, ,
-15, ,-4, ,
-13, ,-4, ,
-14, ,-4, ,
-13, ,-4, ,
-12, ,-4, ,
-12, ,-4, ,
-10, ,-4, ,
-10, ,-4, ,
-7, ,-4, ,
-5, ,-4, ,
-5, ,-4, ,
-4, ,-4, ,
0, ,-4, ,
0, ,-4, ,
4, ,-4, ,
3, ,-4, ,
6, ,-4, ,
8, ,-4, ,
8, ,-4, ,
10, ,-4, ,
11, ,-4, ,
12, ,-4, ,
13, ,-4, ,
12, ,-4, ,
14, ,-4, ,
14, ,-4, ,
14, ,-4, ,
14, ,-4, ,
14, ,-4, ,
14, ,-4, ,
14, ,-4, ,
13, ,-4, ,
11, ,-4, ,
12, ,-4, ,
10, ,-4, ,
10, ,-4, ,
8, ,-4, ,
5, ,-4, ,
6, ,-4, ,
4, ,-4, ,
3, ,-4, ,
2, ,-4, ,
2, ,-4, ,
2, ,-4, ,
2, ,-4, ,
-1, ,-4, ,
-1, ,-4, ,
-2, ,-4, ,
-4, ,-4, ,
-3, ,-4, ,
-3, ,-4, ,
-3, ,-4, ,
-3, ,-4, ,
-6, ,-4, ,
-6, ,-4, ,
-7, ,-4, ,
-6, ,-4, ,
-6, ,-4, ,
-7, ,-4, ,
-4, ,-4, ,
-4, ,-4, ,
-5, ,-4, ,
-3, ,-4, ,
-5, ,-4, ,
-4, ,-4, ,
-4, ,-4, ,
-5, ,-4, ,
-5, ,-4, ,
-4, ,-4, ,
-5, ,-4, ,
-5, ,-4, ,
-5, ,-4, ,
-4, ,-4, ,
-3, ,-4, ,
-3, ,-4, ,
-4, ,-4, ,
-2, ,-4, ,
-2, ,-4, ,
-2, ,-4, ,
-2, ,-4, ,
-2, ,-4, ,
-2, ,-4, ,
-2, ,-4, ,
-1, ,-4, ,
-2, ,-4, ,
-3, ,-4, ,
-3, ,-4, ,
-4, ,-4, ,
-2, ,-4, ,
-3, ,-4, ,
-3, ,-4, ,
-3, ,-4, ,
-3, ,-4, ,
-3, ,-4, ,
-3, ,-4, ,
-3, ,-4, ,
-4, ,-4, ,
-4, ,-4, ,
-3, ,-4, ,
-3, ,-4, ,
-4, ,-4, ,
-4, ,-4, ,
-5, ,-4, ,
-5, ,-4, ,
-5, ,-4, ,
-4, ,-4, ,
-5, ,-4, ,
-5, ,-4, ,
-4, ,-4, ,
-4, ,-4, ,
-4, ,-4, ,
-4, ,-4, ,
-4, ,-4, ,
-4, ,-4, ,
-4, ,-4, ,
-3, ,-4, ,
-2, ,-4, ,
-2, ,-4, ,
-2, ,-4, ,
-3, ,-4, ,
-3, ,-4, ,
-1, ,-4, ,
-2, ,-4, ,
-2, ,-4, ,
-1, ,-4, ,
-3, ,-4, ,
-1, ,-4, ,
-1, ,-4, ,
0, ,-4, ,
1, ,-4, ,
1, ,-4, ,
2, ,-4, ,
2, ,-4, ,
2, ,-4, ,
1, ,-4, ,
0, ,-4, ,
3, ,-4, ,
4, ,-4, ,
3, ,-4, ,
4, ,-4, ,
4, ,-4, ,
4, ,-4, ,
5, ,-4, ,
5, ,-4, ,
5, ,-4, ,
6, ,-4, ,
6, ,-4, ,
6, ,-4, ,
6, ,-4, ,
7, ,-4, ,
7, ,-4, ,
7, ,-4, ,
7, ,-4, ,
7, ,-4, ,
6, ,-4, ,
7, ,-4, ,
7, ,-4, ,
7, ,-4, ,
7, ,-4, ,
6, ,-4, ,
5, ,-4, ,
5, ,-4, ,
5, ,-4, ,
5, ,-4, ,
3, ,-4, ,
3, ,-4, ,
3, ,-4, ,
2, ,-4, ,
1, ,-4, ,
2, ,-4, ,
2, ,-4, ,
1, ,-4, ,
1, ,-4, ,
0, ,-4, ,
0, ,-4, ,
-1, ,-4, ,
-2, ,-4, ,
-1, ,-4, ,
-2, ,-4, ,
-1, ,-4, ,
-2, ,-4, ,
-3, ,-4, ,
-3, ,-4, ,
-4, ,-4, ,
-4, ,-4, ,
-4, ,-4, ,
-4, ,-4, ,
-4, ,-4, ,
-3, ,-4, ,
-5, ,-4, ,
-5, ,-4, ,
-6, ,-4, ,
-7, ,-4, ,
-5, ,-4, ,
-6, ,-4, ,
-6, ,-4, ,
-6, ,-4, ,
-7, ,-4, ,
-7, ,-4, ,
-7, ,-4, ,
-8, ,-4, ,
-8, ,-4, ,
-9, ,-4, ,
-8, ,-4, ,
-9, ,-4, ,
-10, ,-4, ,
-10, ,-4, ,
-10, ,-4, ,
-10, ,-4, ,
-9, ,-4, ,
-10, ,-4, ,
-10, ,-4, ,
-10, ,-4, ,
-10, ,-4, ,
-10, ,-4, ,
-10, ,-4, ,
-10, ,-4, ,
-10, ,-4, ,
-10, ,-4, ,
-10, ,-4, ,
-10, ,-4, ,
-10, ,-4, ,
-8, ,-4, ,
-8, ,-4, ,
-8, ,-4, ,
-7, ,-4, ,
-7, ,-4, ,
-5, ,-4, ,
-5, ,-4, ,
-4, ,-4, ,
-2, ,-4, ,
-2, ,-4, ,
-2, ,-4, ,
1, ,-4, ,
1, ,-4, ,
1, ,-4, ,
4, ,-4, ,
3, ,-4, ,
5, ,-4, ,
6, ,-4, ,
7, ,-4, ,
9, ,-4, ,
9, ,-4, ,
9, ,-4, ,
10, ,-4, ,
10, ,-4, ,
10, ,-4, ,
10, ,-4, ,
10, ,-4, ,
11, ,-4, ,
9, ,-4, ,
10, ,-4, ,
9, ,-4, ,
7, ,-4, ,
7, ,-4, ,
7, ,-4, ,
5, ,-4, ,
4, ,-4, ,
4, ,-4, ,
2, ,-4, ,
0, ,-4, ,
-1, ,-4, ,
-2, ,-4, ,
-3, ,-4, ,
-5, ,-4, ,
-5, ,-4, ,
-6, ,-4, ,
-6, ,-4, ,
-7, ,-4, ,
-9, ,-4, ,
-7, ,-4, ,
-8, ,-4, ,
-8, ,-4, ,
-8, ,-4, ,
-8, ,-4, ,
-8, ,-4, ,
-7, ,-4, ,
-7, ,-4, ,
-5, ,-4, ,
-6, ,-4, ,
-4, ,-4, ,
-3, ,-4, ,
-3, ,-4, ,
-1, ,-4, ,
1, ,-4, ,
0, ,-4, ,
2, ,-4, ,
1, ,-4, ,
3, ,-4, ,
5, ,-4, ,
5, ,-4, ,
5, ,-4, ,
6, ,-4, ,
6, ,-4, ,
8, ,-4, ,
8, ,-4, ,
8, ,-4, ,
8, ,-4, ,
7, ,-4, ,
8, ,-4, ,
8, ,-4, ,
8, ,-4, ,
8, ,-4, ,
6, ,-4, ,
6, ,-4, ,
6, ,-4, ,
5, ,-4, ,
5, ,-4, ,
3, ,-4, ,
2, ,-4, ,
2, ,-4, ,
0, ,-4, ,
-1, ,-4, ,
0, ,-4, ,
-2, ,-4, ,
-3, ,-4, ,
-4, ,-4, ,
-5, ,-4, ,
-5, ,-4, ,
-5, ,-4, ,
-7, ,-4, ,
-7, ,-4, ,
-7, ,-4, ,
-7, ,-4, ,
-7, ,-4, ,
-8, ,-4, ,
-8, ,-4, ,
-9, ,-4, ,
-9, ,-4, ,
-8, ,-4, ,
-9, ,-4, ,
-9, ,-4, ,
-8, ,-4, ,
-8, ,-4, ,
-8, ,-4, ,
-9, ,-4, ,
-8, ,-4, ,
-8, ,-4, ,
-8, ,-4, ,
-8, ,-4, ,
-7, ,-4, ,
-7, ,-4, ,
-6, ,-4, ,
-8, ,-4, ,
-6, ,-4, ,
-6, ,-4, ,
-6, ,-4, ,
-5, ,-4, ,
-5, ,-4, ,
-5, ,-4, ,
-4, ,-4, ,
-4, ,-4, ,
-4, ,-4, ,
-4, ,-4, ,
-4, ,-4, ,
-4, ,-4, ,
-2, ,-4, ,
-2, ,-4, ,
-3, ,-4, ,
-4, ,-4, ,
-2, ,-4, ,
-1, ,-4, ,
-2, ,-4, ,
-2, ,-4, ,
-2, ,-4, ,
-2, ,-4, ,
-2, ,-4, ,
-2, ,-4, ,
-2, ,-4, ,
0, ,-4, ,
-1, ,-4, ,
-2, ,-4, ,
-2, ,-4, ,
-2, ,-4, ,
-2, ,-4, ,
-2, ,-4, ,
-2, ,-4, ,
-1, ,-4, ,
-2, ,-4, ,
-1, ,-4, ,
-2, ,-4, ,
-2, ,-4, ,
-2, ,-4, ,
-2, ,-4, ,
-2, ,-4, ,
-2, ,-4, ,
-2, ,-4, ,
-2, ,-4, ,
-2, ,-4, ,
-2, ,-4, ,
-2, ,-4, ,
-2, ,-4, ,
-1, ,-4, ,
-2, ,-4, ,
-3, ,-4, ,
-2, ,-4, ,
-2, ,-4, ,
-2, ,-4, ,
-1, ,-4, ,
-3, ,-4, ,
-2, ,-4, ,
-1, ,-4, ,
-2, ,-4, ,
-1, ,-4, ,
-2, ,-4, ,
-2, ,-4, ,
-2, ,-4, ,
-2, ,-4, ,
-2, ,-4, ,
-1, ,-4, ,
-2, ,-4, ,
-4, ,-4, ,
-2, ,-4, ,
-4, ,-4, ,
-3, ,-4, ,
-2, ,-4, ,
-2, ,-4, ,
-2, ,-4, ,
-2, ,-4, ,
-3, ,-4, ,
-3, ,-4, ,
-3, ,-4, ,
-2, ,-4, ,
-3, ,-4, ,
-2, ,-4, ,
-2, ,-4, ,
-2, ,-4, ,
-1, ,-4, ,
-1, ,-4, ,
-2, ,-4, ,
0, ,-4, ,
0, ,-4, ,
-1, ,-4, ,
2, ,-4, ,
1, ,-4, ,
2, ,-4, ,
2, ,-4, ,
2, ,-4, ,
4, ,-4, ,
2, ,-4, ,
3, ,-4, ,
4, ,-4, ,
3, ,-4, ,
5, ,-4, ,
4, ,-4, ,
4, ,-4, ,
4, ,-4, ,
4, ,-4, ,
4, ,-4, ,
3, ,-4, ,
4, ,-4, ,
3, ,-4, ,
4, ,-4, ,
4, ,-4, ,
4, ,-4, ,
4, ,-4, ,
2, ,-4, ,
1, ,-4, ,
2, ,-4, ,
1, ,-4, ,
2, ,-4, ,
0, ,-4, ,
0, ,-4, ,
0, ,-4, ,
0, ,-4, ,
0, ,-4, ,
0, ,-4, ,
0, ,-4, ,
1, ,-4, ,
0, ,-4, ,
1, ,-4, ,
0, ,-4, ,
1, ,-4, ,
1, ,-4, ,
1, ,-4, ,
1, ,-4, ,
3, ,-4, ,
3, ,-4, ,
4, ,-4, ,
3, ,-4, ,
2, ,-4, ,
4, ,-4, ,
3, ,-4, ,
4, ,-4, ,
5, ,-4, ,
5, ,-4, ,
5, ,-4, ,
5, ,-4, ,
5, ,-4, ,
5, ,-4, ,
4, ,-4, ,
5, ,-4, ,
5, ,-4, ,
4, ,-4, ,
4, ,-4, ,
4, ,-4, ,
3, ,-4, ,
3, ,-4, ,
3, ,-4, ,
3, ,-4, ,
3, ,-4, ,
1, ,-4, ,
2, ,-4, ,
1, ,-4, ,
1, ,-4, ,
2, ,-4, ,
0, ,-4, ,
0, ,-4, ,
0, ,-4, ,
-1, ,-4, ,
0, ,-4, ,
-1, ,-4, ,
-2, ,-4, ,
-1, ,-4, ,
-3, ,-4, ,
-1, ,-4, ,
-2, ,-4, ,
-2, ,-4, ,
-3, ,-4, ,
-4, ,-4, ,
-2, ,-4, ,
-2, ,-4, ,
-3, ,-4, ,
-3, ,-4, ,
-2, ,-4, ,
-2, ,-4, ,
-1, ,-4, ,
-2, ,-4, ,
-2, ,-4, ,
1, ,-4, ,
0, ,-4, ,
2, ,-4, ,
4, ,-4, ,
3, ,-4, ,
5, ,-4, ,
5, ,-4, ,
6, ,-4, ,
8, ,-4, ,
7, ,-4, ,
10, ,-4, ,
11, ,-4, ,
10, ,-4, ,
11, ,-4, ,
11, ,-4, ,
11, ,-4, ,
13, ,-4, ,
13, ,-4, ,
13, ,-4, ,
14, ,-4, ,
13, ,-4, ,
13, ,-4, ,
12, ,-4, ,
11, ,-4, ,
12, ,-4, ,
11, ,-4, ,
11, ,-4, ,
11, ,-4, ,
9, ,-4, ,
10, ,-4, ,
9, ,-4, ,
8, ,-4, ,
9, ,-4, ,
8, ,-4, ,
9, ,-4, ,
7, ,-4, ,
6, ,-4, ,
7, ,-4, ,
6, ,-4, ,
6, ,-4, ,
7, ,-4, ,
6, ,-4, ,
7, ,-4, ,
5, ,-4, ,
5, ,-4, ,
6, ,-4, ,
5, ,-4, ,
5, ,-4, ,
4, ,-4, ,
4, ,-4, ,
3, ,-4, ,
3, ,-4, ,
3, ,-4, ,
2, ,-4, ,
2, ,-4, ,
0, ,-4, ,
0, ,-4, ,
-1, ,-4, ,
-2, ,-4, ,
-3, ,-4, ,
-3, ,-4, ,
-4, ,-4, ,
-4, ,-4, ,
-5, ,-4, ,
-5, ,-4, ,
-6, ,-4, ,
-6, ,-4, ,
-5, ,-4, ,
-7, ,-4, ,
-7, ,-4, ,
-7, ,-4, ,
-7, ,-4, ,
-8, ,-4, ,
-8, ,-4, ,
-9, ,-4, ,
-8, ,-4, ,
-9, ,-4, ,
-8, ,-4, ,
-8, ,-4, ,
-8, ,-4, ,
-7, ,-4, ,
-8, ,-4, ,
-8, ,-4, ,
-7, ,-4, ,
-8, ,-4, ,
-8, ,-4, ,
-9, ,-4, ,
-9, ,-4, ,
-9, ,-4, ,
-9, ,-4, ,
-9, ,-4, ,
-10, ,-4, ,
-10, ,-4, ,
-10, ,-4, ,
-9, ,-4, ,
-9, ,-4, ,
-9, ,-4, ,
-9, ,-4, ,
-8, ,-4, ,
-8, ,-4, ,
-9, ,-4, ,
-7, ,-4, ,
-7, ,-4, ,
-6, ,-4, ,
-6, ,-4, ,
-7, ,-4, ,
-4, ,-4, ,
-2, ,-4, ,
-2, ,-4, ,
-2, ,-4, ,
0, ,-4, ,
0, ,-4, ,
1, ,-4, ,
4, ,-4, ,
3, ,-4, ,
6, ,-4, ,
6, ,-4, ,
8, ,-4, ,
8, ,-4, ,
9, ,-4, ,
10, ,-4, ,
9, ,-4, ,
11, ,-4, ,
12, ,-4, ,
11, ,-4, ,
13, ,-4, ,
12, ,-4, ,
13, ,-4, ,
14, ,-4, ,
14, ,-4, ,
14, ,-4, ,
15, ,-4, ,
15, ,-4, ,
15, ,-4, ,
15, ,-4, ,
15, ,-4, ,
15, ,-4, ,
14, ,-4, ,
15, ,-4, ,
15, ,-4, ,
14, ,-4, ,
14, ,-4, ,
14, ,-4, ,
13, ,-4, ,
14, ,-4, ,
14, ,-4, ,
14, ,-4, ,
12, ,-4, ,
11, ,-4, ,
11, ,-4, ,
10, ,-4, ,
10, ,-4, ,
9, ,-4, ,
7, ,-4, ,
8, ,-4, ,
7, ,-4, ,
4, ,-4, ,
4, ,-4, ,
2, ,-4, ,
0, ,-4, ,
0, ,-4, ,
-1, ,-4, ,
-2, ,-4, ,
-3, ,-4, ,
-3, ,-4, ,
-4, ,-4, ,
-6, ,-4, ,
-7, ,-4, ,
-8, ,-4, ,
-9, ,-4, ,
-9, ,-4, ,
-10, ,-4, ,
-11, ,-4, ,
-10, ,-4, ,
-11, ,-4, ,
-12, ,-4, ,
-12, ,-4, ,
-13, ,-4, ,
-13, ,-4, ,
-13, ,-4, ,
-13, ,-4, ,
-13, ,-4, ,
-13, ,-4, ,
