raw_data/100% Glycerol, Impulsion 2Hz, Sonde 5MHz, Rampe 0.7Hz/temp0000166.CSV

Format,1.0B,
Memory Length,10000,Memory Length,10000,
IntpDistance,0,IntpDistance,0,
Trigger Address,159,Trigger Address,159,
Trigger Level,2.720E-01,Trigger Level,2.720E-01,
Source,CH1,Source,CH2,
Vertical Units,V,Vertical Units,V,
Vertical Units Div,0,Vertical Units Div,0,
Vertical Units Extend Div,16,Vertical Units Extend Div,16,
Label,,Label,,
Probe Type,0,Probe Type,0,
Probe Ratio,1.000e+00,Probe Ratio,1.000e+00,
Vertical Scale,2.000e-01,Vertical Scale,2.000e+00,
Vertical Position,0.000e+00,Vertical Position,0.000e+00,
Horizontal Units,S,Horizontal Units,S,
Horizontal Scale,5.000E-06,Horizontal Scale,5.000E-06,
Horizontal Position,2.420E-05,Horizontal Position,2.420E-05,
Horizontal Mode,Main,Horizontal Mode,Main,
SincET Mode,Real Time,SincET Mode,Real Time,
Sampling Period,5.000e-09,Sampling Period,5.000e-09,
Horizontal Old Scale,5.000E-06,Horizontal Old Scale,5.000E-06,
Horizontal Old Position,2.420E-05,Horizontal Old Position,2.420E-05,
Firmware,V1.32,Firmware,V1.32,
Mode,Fast,Mode,Fast,
Waveform Data,,Waveform Data,,
2, ,17, ,
2, ,17, ,
1, ,17, ,
1, ,17, ,
2, ,17, ,
1, ,17, ,
2, ,17, ,
2, ,17, ,
2, ,17, ,
2, ,17, ,
2, ,17, ,
1, ,17, ,
2, ,17, ,
2, ,17, ,
2, ,17, ,
2, ,17, ,
2, ,17, ,
2, ,17, ,
2, ,17, ,
1, ,17, ,
3, ,17, ,
2, ,17, ,
2, ,17, ,
3, ,17, ,
3, ,17, ,
3, ,17, ,
3, ,17, ,
2, ,17, ,
2, ,17, ,
1, ,17, ,
2, ,17, ,
2, ,17, ,
1, ,17, ,
2, ,17, ,
1, ,17, ,
2, ,17, ,
2, ,17, ,
1, ,17, ,
2, ,17, ,
3, ,17, ,
2, ,17, ,
2, ,17, ,
1, ,17, ,
1, ,17, ,
2, ,17, ,
1, ,17, ,
2, ,17, ,
4, ,17, ,
1, ,17, ,
3, ,17, ,
2, ,17, ,
1, ,17, ,
2, ,17, ,
2, ,17, ,
3, ,17, ,
3, ,17, ,
2, ,17, ,
2, ,17, ,
1, ,17, ,
1, ,17, ,
1, ,17, ,
1, ,17, ,
1, ,17, ,
2, ,17, ,
1, ,17, ,
2, ,17, ,
2, ,17, ,
1, ,17, ,
2, ,17, ,
2, ,17, ,
2, ,17, ,
2, ,17, ,
2, ,17, ,
2, ,17, ,
2, ,17, ,
1, ,17, ,
2, ,17, ,
0, ,17, ,
3, ,17, ,
2, ,17, ,
1, ,17, ,
2, ,17, ,
2, ,17, ,
1, ,17, ,
1, ,17, ,
3, ,17, ,
3, ,17, ,
2, ,17, ,
2, ,17, ,
1, ,17, ,
1, ,17, ,
2, ,17, ,
2, ,17, ,
1, ,17, ,
3, ,17, ,
2, ,17, ,
1, ,17, ,
2, ,17, ,
1, ,17, ,
2, ,17, ,
3, ,17, ,
2, ,17, ,
2, ,17, ,
2, ,17, ,
2, ,17, ,
2, ,17, ,
2, ,17, ,
2, ,17, ,
2, ,17, ,
2, ,17, ,
3, ,17, ,
2, ,17, ,
2, ,17, ,
2, ,17, ,
2, ,17, ,
1, ,17, ,
3, ,17, ,
2, ,17, ,
1, ,17, ,
3, ,17, ,
1, ,17, ,
2, ,17, ,
0, ,17, ,
2, ,17, ,
2, ,17, ,
1, ,17, ,
3, ,17, ,
2, ,17, ,
2, ,17, ,
2, ,17, ,
1, ,17, ,
2, ,17, ,
2, ,17, ,
2, ,17, ,
2, ,17, ,
3, ,17, ,
2, ,17, ,
2, ,17, ,
1, ,17, ,
1, ,17, ,
2, ,17, ,
2, ,17, ,
2, ,17, ,
1, ,17, ,
2, ,17, ,
2, ,17, ,
2, ,17, ,
1, ,17, ,
2, ,17, ,
1, ,17, ,
3, ,17, ,
2, ,17, ,
2, ,17, ,
2, ,17, ,
2, ,17, ,
2, ,17, ,
2, ,17, ,
2, ,17, ,
3, ,17, ,
2, ,17, ,
1, ,17, ,
3, ,17, ,
2, ,17, ,
1, ,17, ,
1, ,17, ,
3, ,17, ,
-2, ,17, ,
-1, ,17, ,
4, ,17, ,
45, ,17, ,
115, ,17, ,
125, ,17, ,
125, ,17, ,
124, ,17, ,
119, ,17, ,
-11, ,17, ,
11, ,17, ,
125, ,17, ,
125, ,17, ,
125, ,17, ,
125, ,17, ,
125, ,17, ,
125, ,17, ,
125, ,17, ,
125, ,17, ,
125, ,17, ,
125, ,17, ,
125, ,17, ,
125, ,17, ,
125, ,17, ,
125, ,17, ,
125, ,17, ,
125, ,17, ,
125, ,17, ,
125, ,17, ,
125, ,17, ,
125, ,17, ,
125, ,17, ,
125, ,17, ,
125, ,17, ,
125, ,17, ,
125, ,17, ,
125, ,17, ,
124, ,17, ,
124, ,17, ,
118, ,17, ,
113, ,17, ,
106, ,17, ,
101, ,17, ,
98, ,17, ,
93, ,17, ,
85, ,17, ,
82, ,17, ,
78, ,17, ,
74, ,17, ,
67, ,17, ,
64, ,17, ,
63, ,17, ,
58, ,17, ,
53, ,17, ,
51, ,17, ,
48, ,17, ,
48, ,17, ,
42, ,17, ,
39, ,17, ,
38, ,17, ,
36, ,17, ,
33, ,17, ,
32, ,17, ,
31, ,17, ,
29, ,17, ,
26, ,17, ,
23, ,17, ,
23, ,17, ,
20, ,17, ,
19, ,17, ,
17, ,17, ,
16, ,17, ,
16, ,17, ,
15, ,17, ,
12, ,17, ,
12, ,17, ,
11, ,17, ,
10, ,17, ,
10, ,17, ,
9, ,17, ,
9, ,17, ,
6, ,17, ,
6, ,17, ,
6, ,17, ,
5, ,17, ,
4, ,17, ,
4, ,17, ,
3, ,17, ,
3, ,17, ,
3, ,17, ,
1, ,17, ,
2, ,17, ,
1, ,17, ,
0, ,17, ,
0, ,17, ,
0, ,17, ,
0, ,17, ,
-1, ,17, ,
-1, ,17, ,
-1, ,17, ,
-2, ,17, ,
-2, ,17, ,
-1, ,17, ,
-3, ,17, ,
-2, ,17, ,
-2, ,17, ,
-2, ,17, ,
-2, ,17, ,
-3, ,17, ,
-2, ,17, ,
-2, ,17, ,
-2, ,17, ,
-2, ,17, ,
-1, ,17, ,
-3, ,17, ,
-3, ,17, ,
-3, ,17, ,
-3, ,17, ,
-1, ,17, ,
-3, ,17, ,
-2, ,17, ,
-2, ,17, ,
-3, ,17, ,
-2, ,17, ,
-2, ,17, ,
-2, ,17, ,
-2, ,17, ,
-2, ,17, ,
-2, ,17, ,
-2, ,17, ,
-2, ,17, ,
-2, ,17, ,
-2, ,17, ,
-1, ,17, ,
-1, ,17, ,
-2, ,17, ,
-2, ,17, ,
-2, ,17, ,
-2, ,17, ,
-1, ,17, ,
-2, ,17, ,
-2, ,17, ,
-1, ,17, ,
-2, ,17, ,
-2, ,17, ,
-2, ,17, ,
-2, ,17, ,
-1, ,17, ,
-2, ,17, ,
-1, ,17, ,
-1, ,17, ,
-2, ,17, ,
-1, ,17, ,
-1, ,17, ,
-1, ,17, ,
-1, ,17, ,
-1, ,17, ,
0, ,17, ,
0, ,17, ,
0, ,17, ,
1, ,17, ,
1, ,17, ,
0, ,17, ,
0, ,17, ,
-1, ,17, ,
0, ,17, ,
1, ,17, ,
0, ,17, ,
0, ,17, ,
1, ,17, ,
0, ,17, ,
1, ,17, ,
0, ,17, ,
0, ,17, ,
1, ,17, ,
0, ,17, ,
1, ,17, ,
1, ,17, ,
0, ,17, ,
0, ,17, ,
0, ,17, ,
0, ,17, ,
1, ,17, ,
0, ,17, ,
1, ,17, ,
1, ,17, ,
1, ,17, ,
1, ,17, ,
0, ,17, ,
0, ,17, ,
0, ,17, ,
0, ,17, ,
0, ,17, ,
1, ,17, ,
1, ,17, ,
1, ,17, ,
1, ,17, ,
1, ,17, ,
1, ,17, ,
1, ,17, ,
1, ,17, ,
2, ,17, ,
0, ,17, ,
0, ,17, ,
1, ,17, ,
1, ,17, ,
1, ,17, ,
0, ,17, ,
1, ,17, ,
2, ,17, ,
1, ,17, ,
1, ,17, ,
1, ,17, ,
0, ,17, ,
2, ,17, ,
1, ,17, ,
2, ,17, ,
2, ,17, ,
0, ,17, ,
1, ,17, ,
1, ,17, ,
1, ,17, ,
2, ,17, ,
2, ,17, ,
2, ,17, ,
1, ,17, ,
1, ,17, ,
2, ,17, ,
1, ,17, ,
1, ,17, ,
2, ,17, ,
1, ,17, ,
2, ,17, ,
2, ,17, ,
1, ,17, ,
1, ,17, ,
1, ,17, ,
0, ,17, ,
2, ,17, ,
1, ,17, ,
2, ,17, ,
2, ,17, ,
1, ,17, ,
3, ,17, ,
2, ,17, ,
2, ,17, ,
2, ,17, ,
2, ,17, ,
2, ,17, ,
2, ,17, ,
2, ,17, ,
2, ,17, ,
1, ,17, ,
1, ,17, ,
2, ,17, ,
1, ,17, ,
2, ,17, ,
1, ,17, ,
1, ,17, ,
1, ,17, ,
1, ,17, ,
1, ,17, ,
2, ,17, ,
0, ,17, ,
1, ,17, ,
2, ,17, ,
1, ,17, ,
2, ,17, ,
1, ,17, ,
1, ,17, ,
2, ,17, ,
1, ,17, ,
1, ,17, ,
1, ,17, ,
0, ,17, ,
0, ,17, ,
0, ,17, ,
-1, ,17, ,
-1, ,17, ,
-2, ,17, ,
-1, ,17, ,
0, ,17, ,
0, ,17, ,
1, ,17, ,
1, ,17, ,
1, ,17, ,
1, ,17, ,
1, ,17, ,
2, ,17, ,
3, ,17, ,
2, ,17, ,
3, ,17, ,
1, ,17, ,
1, ,17, ,
2, ,17, ,
1, ,17, ,
2, ,17, ,
1, ,17, ,
0, ,17, ,
2, ,17, ,
1, ,17, ,
1, ,17, ,
1, ,17, ,
1, ,17, ,
2, ,17, ,
2, ,17, ,
1, ,17, ,
2, ,17, ,
2, ,17, ,
2, ,17, ,
2, ,17, ,
1, ,17, ,
1, ,17, ,
1, ,17, ,
0, ,17, ,
0, ,17, ,
0, ,17, ,
0, ,17, ,
0, ,17, ,
-1, ,17, ,
0, ,17, ,
0, ,17, ,
1, ,17, ,
1, ,17, ,
1, ,17, ,
1, ,17, ,
2, ,17, ,
1, ,17, ,
2, ,17, ,
2, ,17, ,
2, ,17, ,
3, ,17, ,
2, ,17, ,
1, ,17, ,
1, ,17, ,
0, ,17, ,
0, ,17, ,
0, ,17, ,
0, ,17, ,
0, ,17, ,
0, ,17, ,
0, ,17, ,
1, ,17, ,
0, ,17, ,
2, ,17, ,
2, ,17, ,
1, ,17, ,
2, ,17, ,
1, ,17, ,
0, ,17, ,
0, ,17, ,
-1, ,17, ,
-1, ,17, ,
-3, ,17, ,
-5, ,17, ,
-5, ,17, ,
-6, ,17, ,
-7, ,17, ,
-6, ,17, ,
-7, ,17, ,
-6, ,17, ,
-6, ,17, ,
-8, ,17, ,
-6, ,17, ,
-7, ,17, ,
-8, ,17, ,
-9, ,17, ,
-10, ,17, ,
-10, ,17, ,
-12, ,17, ,
-13, ,17, ,
-14, ,17, ,
-18, ,17, ,
-21, ,17, ,
-22, ,17, ,
-25, ,17, ,
-26, ,17, ,
-28, ,17, ,
-30, ,17, ,
-30, ,17, ,
-30, ,17, ,
-30, ,17, ,
-28, ,17, ,
-28, ,17, ,
-28, ,17, ,
-28, ,17, ,
-29, ,17, ,
-27, ,17, ,
-29, ,17, ,
-30, ,17, ,
-33, ,17, ,
-33, ,17, ,
-34, ,17, ,
-35, ,17, ,
-35, ,17, ,
-34, ,17, ,
-34, ,17, ,
-32, ,17, ,
-27, ,17, ,
-25, ,17, ,
-23, ,17, ,
-17, ,17, ,
-16, ,17, ,
-11, ,17, ,
-10, ,17, ,
-6, ,17, ,
-4, ,17, ,
-4, ,17, ,
-3, ,17, ,
-4, ,17, ,
-5, ,17, ,
-5, ,17, ,
-7, ,17, ,
-9, ,17, ,
-9, ,17, ,
-9, ,17, ,
-9, ,17, ,
-7, ,17, ,
-7, ,17, ,
-7, ,17, ,
-8, ,17, ,
-5, ,17, ,
-4, ,17, ,
-4, ,17, ,
-4, ,17, ,
-5, ,17, ,
-6, ,17, ,
-7, ,17, ,
-8, ,17, ,
-10, ,17, ,
-10, ,17, ,
-11, ,17, ,
-12, ,17, ,
-12, ,17, ,
-13, ,17, ,
-11, ,17, ,
-11, ,17, ,
-8, ,17, ,
-5, ,17, ,
-4, ,17, ,
-4, ,17, ,
0, ,17, ,
1, ,17, ,
1, ,17, ,
0, ,17, ,
-1, ,17, ,
-1, ,17, ,
-2, ,17, ,
-4, ,17, ,
-8, ,17, ,
-10, ,17, ,
-11, ,17, ,
-15, ,17, ,
-16, ,17, ,
-16, ,17, ,
-17, ,17, ,
-18, ,17, ,
-19, ,17, ,
-20, ,17, ,
-20, ,17, ,
-21, ,17, ,
-23, ,17, ,
-23, ,17, ,
-25, ,17, ,
-25, ,17, ,
-27, ,17, ,
-28, ,17, ,
-30, ,17, ,
-30, ,17, ,
-31, ,17, ,
-31, ,17, ,
-32, ,17, ,
-31, ,17, ,
-31, ,17, ,
-31, ,17, ,
-31, ,17, ,
-31, ,17, ,
-31, ,17, ,
-31, ,17, ,
-30, ,17, ,
-30, ,17, ,
-27, ,17, ,
-27, ,17, ,
-26, ,17, ,
-27, ,17, ,
-28, ,17, ,
-28, ,17, ,
-30, ,17, ,
-28, ,17, ,
-32, ,17, ,
-35, ,17, ,
-35, ,17, ,
-36, ,17, ,
-38, ,17, ,
-39, ,17, ,
-39, ,17, ,
-38, ,17, ,
-36, ,17, ,
-36, ,17, ,
-35, ,17, ,
-35, ,17, ,
-35, ,17, ,
-35, ,17, ,
-36, ,17, ,
-36, ,17, ,
-37, ,17, ,
-41, ,17, ,
-40, ,17, ,
-41, ,17, ,
-41, ,17, ,
-41, ,17, ,
-41, ,17, ,
-38, ,17, ,
-36, ,17, ,
-35, ,17, ,
-32, ,17, ,
-32, ,17, ,
-27, ,17, ,
-25, ,17, ,
-25, ,17, ,
-22, ,17, ,
-20, ,17, ,
-20, ,17, ,
-19, ,17, ,
-17, ,17, ,
-15, ,17, ,
-12, ,17, ,
-12, ,17, ,
-11, ,17, ,
-9, ,17, ,
-9, ,17, ,
-7, ,17, ,
-7, ,17, ,
-7, ,17, ,
-7, ,17, ,
-8, ,17, ,
-8, ,17, ,
-8, ,17, ,
-8, ,17, ,
-7, ,17, ,
-7, ,17, ,
-7, ,17, ,
-5, ,17, ,
-5, ,17, ,
-4, ,17, ,
-3, ,17, ,
-3, ,17, ,
-3, ,17, ,
-3, ,17, ,
-2, ,17, ,
0, ,17, ,
0, ,17, ,
2, ,17, ,
4, ,17, ,
3, ,17, ,
6, ,17, ,
6, ,17, ,
8, ,17, ,
11, ,17, ,
10, ,17, ,
12, ,17, ,
11, ,17, ,
12, ,17, ,
12, ,17, ,
11, ,17, ,
11, ,17, ,
10, ,17, ,
10, ,17, ,
10, ,17, ,
9, ,17, ,
7, ,17, ,
7, ,17, ,
6, ,17, ,
5, ,17, ,
5, ,17, ,
4, ,17, ,
3, ,17, ,
0, ,17, ,
-1, ,17, ,
0, ,17, ,
-2, ,17, ,
-3, ,17, ,
-3, ,17, ,
-5, ,17, ,
-5, ,17, ,
-5, ,17, ,
-8, ,17, ,
-9, ,17, ,
-10, ,17, ,
-11, ,17, ,
-13, ,17, ,
-14, ,17, ,
-13, ,17, ,
-16, ,17, ,
-17, ,17, ,
-18, ,17, ,
-18, ,17, ,
-21, ,17, ,
-21, ,17, ,
-23, ,17, ,
-23, ,17, ,
-24, ,17, ,
-28, ,17, ,
-28, ,17, ,
-29, ,17, ,
-31, ,17, ,
-31, ,17, ,
-32, ,17, ,
-32, ,17, ,
-34, ,17, ,
-35, ,17, ,
-35, ,17, ,
-35, ,17, ,
-35, ,17, ,
-35, ,17, ,
-35, ,17, ,
-35, ,17, ,
-34, ,17, ,
-34, ,17, ,
-34, ,17, ,
-33, ,17, ,
-32, ,17, ,
-30, ,17, ,
-30, ,17, ,
-29, ,17, ,
-28, ,17, ,
-29, ,17, ,
-27, ,17, ,
-27, ,17, ,
-24, ,17, ,
-24, ,17, ,
-24, ,17, ,
-21, ,17, ,
-19, ,17, ,
-19, ,17, ,
-15, ,17, ,
-16, ,17, ,
-12, ,17, ,
-12, ,17, ,
-10, ,17, ,
-10, ,17, ,
-9, ,17, ,
-9, ,17, ,
-7, ,17, ,
-7, ,17, ,
-5, ,17, ,
-2, ,17, ,
-2, ,17, ,
0, ,17, ,
3, ,17, ,
3, ,17, ,
5, ,17, ,
5, ,17, ,
6, ,17, ,
6, ,17, ,
6, ,17, ,
8, ,17, ,
9, ,17, ,
9, ,17, ,
9, ,17, ,
8, ,17, ,
10, ,17, ,
10, ,17, ,
10, ,17, ,
10, ,17, ,
10, ,17, ,
10, ,17, ,
10, ,17, ,
9, ,17, ,
7, ,17, ,
7, ,17, ,
5, ,17, ,
5, ,17, ,
5, ,17, ,
3, ,17, ,
3, ,17, ,
3, ,17, ,
2, ,17, ,
3, ,17, ,
2, ,17, ,
3, ,17, ,
2, ,17, ,
1, ,17, ,
1, ,17, ,
0, ,17, ,
-1, ,17, ,
-1, ,17, ,
-2, ,17, ,
-2, ,17, ,
-3, ,17, ,
-3, ,17, ,
-5, ,17, ,
-5, ,17, ,
-6, ,17, ,
-6, ,17, ,
-8, ,17, ,
-8, ,17, ,
-10, ,17, ,
-13, ,17, ,
-12, ,17, ,
-15, ,17, ,
-18, ,17, ,
-18, ,17, ,
-20, ,17, ,
-20, ,17, ,
-22, ,17, ,
-23, ,17, ,
-23, ,17, ,
-25, ,17, ,
-25, ,17, ,
-24, ,17, ,
-26, ,17, ,
-25, ,17, ,
-25, ,17, ,
-26, ,17, ,
-24, ,17, ,
-25, ,17, ,
-25, ,17, ,
-22, ,17, ,
-23, ,17, ,
-22, ,17, ,
-22, ,17, ,
-20, ,17, ,
-20, ,17, ,
-20, ,17, ,
-18, ,17, ,
-17, ,17, ,
-17, ,17, ,
-16, ,17, ,
-15, ,17, ,
-15, ,17, ,
-14, ,17, ,
-14, ,17, ,
-15, ,17, ,
-15, ,17, ,
-15, ,17, ,
-15, ,17, ,
-16, ,17, ,
-17, ,17, ,
-17, ,17, ,
-17, ,17, ,
-17, ,17, ,
-17, ,17, ,
-18, ,17, ,
-18, ,17, ,
-18, ,17, ,
-21, ,17, ,
-19, ,17, ,
-20, ,17, ,
-20, ,17, ,
-20, ,17, ,
-21, ,17, ,
-21, ,17, ,
-21, ,17, ,
-22, ,17, ,
-21, ,17, ,
-24, ,17, ,
-21, ,17, ,
-21, ,17, ,
-22, ,17, ,
-20, ,17, ,
-19, ,17, ,
-19, ,17, ,
-19, ,17, ,
-19, ,17, ,
-19, ,17, ,
-17, ,17, ,
-17, ,17, ,
-17, ,17, ,
-16, ,17, ,
-17, ,17, ,
-16, ,17, ,
-17, ,17, ,
-15, ,17, ,
-14, ,17, ,
-15, ,17, ,
-12, ,17, ,
-12, ,17, ,
-12, ,17, ,
-10, ,17, ,
-9, ,17, ,
-9, ,17, ,
-9, ,17, ,
-8, ,17, ,
-8, ,17, ,
-7, ,17, ,
-6, ,17, ,
-6, ,17, ,
-6, ,17, ,
-5, ,17, ,
-4, ,17, ,
-4, ,17, ,
-3, ,17, ,
-2, ,17, ,
-3, ,17, ,
-2, ,17, ,
-2, ,17, ,
-2, ,17, ,
0, ,17, ,
0, ,17, ,
0, ,17, ,
0, ,17, ,
0, ,17, ,
0, ,17, ,
0, ,17, ,
1, ,17, ,
1, ,17, ,
1, ,17, ,
1, ,17, ,
2, ,17, ,
1, ,17, ,
3, ,17, ,
2, ,17, ,
1, ,17, ,
2, ,17, ,
1, ,17, ,
1, ,17, ,
1, ,17, ,
0, ,17, ,
0, ,17, ,
-1, ,17, ,
-1, ,17, ,
-2, ,17, ,
-2, ,17, ,
-2, ,17, ,
-3, ,17, ,
-5, ,17, ,
-5, ,17, ,
-5, ,17, ,
-7, ,17, ,
-7, ,17, ,
-8, ,17, ,
-8, ,17, ,
-9, ,17, ,
-9, ,17, ,
-9, ,17, ,
-11, ,17, ,
-11, ,17, ,
-10, ,17, ,
-10, ,17, ,
-11, ,17, ,
-11, ,17, ,
-11, ,17, ,
-10, ,17, ,
-11, ,17, ,
-12, ,17, ,
-11, ,17, ,
-11, ,17, ,
-11, ,17, ,
-12, ,17, ,
-10, ,17, ,
-9, ,17, ,
-10, ,17, ,
-9, ,17, ,
-9, ,17, ,
-9, ,17, ,
-9, ,17, ,
-9, ,17, ,
-9, ,17, ,
-9, ,17, ,
-10, ,17, ,
-10, ,17, ,
-9, ,17, ,
-9, ,17, ,
-9, ,17, ,
-9, ,17, ,
-10, ,17, ,
-8, ,17, ,
-9, ,17, ,
-8, ,17, ,
-8, ,17, ,
-9, ,17, ,
-7, ,17, ,
-7, ,17, ,
-7, ,17, ,
-6, ,17, ,
-6, ,17, ,
-7, ,17, ,
-6, ,17, ,
-6, ,17, ,
-6, ,17, ,
-5, ,17, ,
-5, ,17, ,
-5, ,17, ,
-5, ,17, ,
-4, ,17, ,
-3, ,17, ,
-3, ,17, ,
-3, ,17, ,
-2, ,17, ,
-2, ,17, ,
-2, ,17, ,
-2, ,17, ,
-3, ,17, ,
-1, ,17, ,
-2, ,17, ,
-2, ,17, ,
-1, ,17, ,
-1, ,17, ,
0, ,17, ,
-1, ,17, ,
0, ,17, ,
0, ,17, ,
0, ,17, ,
1, ,17, ,
2, ,17, ,
1, ,17, ,
1, ,17, ,
1, ,17, ,
1, ,17, ,
1, ,17, ,
0, ,17, ,
0, ,17, ,
1, ,17, ,
0, ,17, ,
2, ,17, ,
0, ,17, ,
2, ,17, ,
2, ,17, ,
1, ,17, ,
1, ,17, ,
1, ,17, ,
0, ,17, ,
0, ,17, ,
0, ,17, ,
0, ,17, ,
0, ,17, ,
-1, ,17, ,
0, ,17, ,
0, ,17, ,
0, ,17, ,
0, ,17, ,
0, ,17, ,
0, ,17, ,
1, ,17, ,
0, ,17, ,
1, ,17, ,
1, ,17, ,
0, ,17, ,
0, ,17, ,
0, ,17, ,
0, ,17, ,
0, ,17, ,
0, ,17, ,
1, ,17, ,
0, ,17, ,
0, ,17, ,
0, ,17, ,
-1, ,17, ,
0, ,17, ,
0, ,17, ,
0, ,17, ,
0, ,17, ,
0, ,17, ,
-1, ,17, ,
-1, ,17, ,
-1, ,17, ,
-2, ,17, ,
-1, ,17, ,
-1, ,17, ,
-1, ,17, ,
-1, ,17, ,
-2, ,17, ,
-1, ,17, ,
-2, ,17, ,
-2, ,17, ,
-1, ,17, ,
-1, ,17, ,
-1, ,17, ,
0, ,17, ,
0, ,17, ,
0, ,17, ,
-1, ,17, ,
0, ,17, ,
0, ,17, ,
0, ,17, ,
0, ,17, ,
1, ,17, ,
0, ,17, ,
1, ,17, ,
0, ,17, ,
0, ,17, ,
2, ,17, ,
1, ,17, ,
3, ,17, ,
2, ,17, ,
2, ,17, ,
3, ,17, ,
3, ,17, ,
3, ,17, ,
3, ,17, ,
3, ,17, ,
4, ,17, ,
4, ,17, ,
3, ,17, ,
4, ,17, ,
3, ,17, ,
3, ,17, ,
3, ,17, ,
3, ,17, ,
4, ,17, ,
4, ,17, ,
3, ,17, ,
3, ,17, ,
3, ,17, ,
2, ,17, ,
3, ,17, ,
2, ,17, ,
2, ,17, ,
2, ,17, ,
1, ,17, ,
2, ,17, ,
0, ,17, ,
1, ,17, ,
1, ,17, ,
1, ,17, ,
2, ,17, ,
3, ,17, ,
2, ,17, ,
3, ,17, ,
2, ,17, ,
1, ,17, ,
4, ,17, ,
3, ,17, ,
4, ,17, ,
4, ,17, ,
4, ,17, ,
4, ,17, ,
3, ,17, ,
4, ,17, ,
5, ,17, ,
5, ,17, ,
5, ,17, ,
7, ,17, ,
5, ,17, ,
5, ,17, ,
5, ,17, ,
5, ,17, ,
5, ,17, ,
4, ,17, ,
5, ,17, ,
5, ,17, ,
4, ,17, ,
5, ,17, ,
2, ,17, ,
3, ,17, ,
3, ,17, ,
2, ,17, ,
3, ,17, ,
3, ,17, ,
2, ,17, ,
3, ,17, ,
1, ,17, ,
1, ,17, ,
2, ,17, ,
0, ,17, ,
0, ,17, ,
0, ,17, ,
-1, ,17, ,
0, ,17, ,
-2, ,17, ,
-1, ,17, ,
-1, ,17, ,
-2, ,17, ,
-1, ,17, ,
-3, ,17, ,
-4, ,17, ,
-3, ,17, ,
-4, ,17, ,
-4, ,17, ,
-5, ,17, ,
-5, ,17, ,
-6, ,17, ,
-7, ,17, ,
-8, ,17, ,
-9, ,17, ,
-9, ,17, ,
-9, ,17, ,
-9, ,17, ,
-10, ,17, ,
-10, ,17, ,
-10, ,17, ,
-12, ,17, ,
-9, ,17, ,
-10, ,17, ,
-10, ,17, ,
-9, ,17, ,
-10, ,17, ,
-10, ,17, ,
-10, ,17, ,
-9, ,17, ,
-8, ,17, ,
-9, ,17, ,
-7, ,17, ,
-7, ,17, ,
-7, ,17, ,
-6, ,17, ,
-5, ,17, ,
-5, ,17, ,
-4, ,17, ,
-3, ,17, ,
-4, ,17, ,
-2, ,17, ,
-2, ,17, ,
-1, ,17, ,
0, ,17, ,
-1, ,17, ,
0, ,17, ,
-1, ,17, ,
0, ,17, ,
0, ,17, ,
-1, ,17, ,
1, ,17, ,
1, ,17, ,
1, ,17, ,
2, ,17, ,
0, ,17, ,
0, ,17, ,
1, ,17, ,
0, ,17, ,
0, ,17, ,
0, ,17, ,
0, ,17, ,
-1, ,17, ,
-2, ,17, ,
-2, ,17, ,
-1, ,17, ,
-2, ,17, ,
-2, ,17, ,
-3, ,17, ,
-4, ,17, ,
-3, ,17, ,
-3, ,17, ,
-4, ,17, ,
-4, ,17, ,
-4, ,17, ,
-4, ,17, ,
-4, ,17, ,
-4, ,17, ,
-4, ,17, ,
-5, ,17, ,
-5, ,17, ,
-5, ,17, ,
-5, ,17, ,
-5, ,17, ,
-5, ,17, ,
-5, ,17, ,
-5, ,17, ,
-6, ,17, ,
-7, ,17, ,
-5, ,17, ,
-6, ,17, ,
-6, ,17, ,
-5, ,17, ,
-5, ,17, ,
-5, ,17, ,
-5, ,17, ,
-4, ,17, ,
-4, ,17, ,
-5, ,17, ,
-3, ,17, ,
-3, ,17, ,
-4, ,17, ,
-2, ,17, ,
-3, ,17, ,
-3, ,17, ,
-1, ,17, ,
-2, ,17, ,
-1, ,17, ,
-1, ,17, ,
-1, ,17, ,
-1, ,17, ,
-2, ,17, ,
-2, ,17, ,
0, ,17, ,
0, ,17, ,
0, ,17, ,
0, ,17, ,
-1, ,17, ,
0, ,17, ,
-1, ,17, ,
-2, ,17, ,
-1, ,17, ,
-2, ,17, ,
-1, ,17, ,
-2, ,17, ,
-2, ,17, ,
-1, ,17, ,
-4, ,17, ,
-3, ,17, ,
-3, ,17, ,
-4, ,17, ,
-2, ,17, ,
-2, ,17, ,
-4, ,17, ,
-3, ,17, ,
-3, ,17, ,
-3, ,17, ,
-2, ,17, ,
-3, ,17, ,
-2, ,17, ,
-3, ,17, ,
-3, ,17, ,
-3, ,17, ,
-4, ,17, ,
-3, ,17, ,
-2, ,17, ,
-5, ,17, ,
-3, ,17, ,
-3, ,17, ,
-3, ,17, ,
-3, ,17, ,
-3, ,17, ,
-3, ,17, ,
-2, ,17, ,
-3, ,17, ,
-2, ,17, ,
-2, ,17, ,
-4, ,17, ,
-2, ,17, ,
-2, ,17, ,
-3, ,17, ,
-1, ,17, ,
-2, ,17, ,
-2, ,17, ,
-1, ,17, ,
-2, ,17, ,
-1, ,17, ,
-1, ,17, ,
-2, ,17, ,
0, ,17, ,
-1, ,17, ,
-1, ,17, ,
0, ,17, ,
-1, ,17, ,
0, ,17, ,
-1, ,17, ,
0, ,17, ,
0, ,17, ,
-1, ,17, ,
-1, ,17, ,
-1, ,17, ,
-1, ,17, ,
-1, ,17, ,
-1, ,17, ,
-1, ,17, ,
0, ,17, ,
-1, ,17, ,
-1, ,17, ,
0, ,17, ,
-1, ,17, ,
-1, ,17, ,
-1, ,17, ,
0, ,17, ,
0, ,17, ,
0, ,17, ,
1, ,17, ,
0, ,17, ,
0, ,17, ,
1, ,17, ,
0, ,17, ,
0, ,17, ,
2, ,17, ,
2, ,17, ,
3, ,17, ,
4, ,17, ,
4, ,17, ,
5, ,17, ,
4, ,17, ,
5, ,17, ,
6, ,17, ,
5, ,17, ,
6, ,17, ,
7, ,17, ,
6, ,17, ,
8, ,17, ,
7, ,17, ,
6, ,17, ,
8, ,17, ,
8, ,17, ,
8, ,17, ,
8, ,17, ,
7, ,17, ,
8, ,17, ,
5, ,17, ,
6, ,17, ,
6, ,17, ,
5, ,17, ,
5, ,17, ,
4, ,17, ,
3, ,17, ,
4, ,17, ,
2, ,17, ,
1, ,17, ,
2, ,17, ,
2, ,17, ,
0, ,17, ,
0, ,17, ,
-1, ,17, ,
-1, ,17, ,
-2, ,17, ,
-2, ,17, ,
-2, ,17, ,
-3, ,17, ,
-3, ,17, ,
-2, ,17, ,
-5, ,17, ,
-3, ,17, ,
-5, ,17, ,
-5, ,17, ,
-4, ,17, ,
-5, ,17, ,
-3, ,17, ,
-5, ,17, ,
-5, ,17, ,
-4, ,17, ,
-5, ,17, ,
-5, ,17, ,
-2, ,17, ,
-2, ,17, ,
-2, ,17, ,
-1, ,17, ,
-2, ,17, ,
0, ,17, ,
0, ,17, ,
0, ,17, ,
2, ,17, ,
2, ,17, ,
2, ,17, ,
3, ,17, ,
2, ,17, ,
2, ,17, ,
1, ,17, ,
3, ,17, ,
4, ,17, ,
2, ,17, ,
2, ,17, ,
2, ,17, ,
1, ,17, ,
1, ,17, ,
0, ,17, ,
-1, ,17, ,
0, ,17, ,
0, ,17, ,
-2, ,17, ,
-1, ,17, ,
-2, ,17, ,
0, ,17, ,
-4, ,17, ,
-2, ,17, ,
-1, ,17, ,
-3, ,17, ,
-2, ,17, ,
-2, ,17, ,
-1, ,17, ,
-1, ,17, ,
-1, ,17, ,
-1, ,17, ,
0, ,17, ,
0, ,17, ,
0, ,17, ,
1, ,17, ,
1, ,17, ,
1, ,17, ,
1, ,17, ,
1, ,17, ,
2, ,17, ,
1, ,17, ,
2, ,17, ,
2, ,17, ,
0, ,17, ,
3, ,17, ,
1, ,17, ,
0, ,17, ,
1, ,17, ,
0, ,17, ,
1, ,17, ,
0, ,17, ,
0, ,17, ,
-1, ,17, ,
-2, ,17, ,
-2, ,17, ,
-2, ,17, ,
-1, ,17, ,
-1, ,17, ,
-1, ,17, ,
-2, ,17, ,
0, ,17, ,
0, ,17, ,
0, ,17, ,
1, ,17, ,
1, ,17, ,
2, ,17, ,
3, ,17, ,
4, ,17, ,
5, ,17, ,
4, ,17, ,
6, ,17, ,
7, ,17, ,
8, ,17, ,
10, ,17, ,
10, ,17, ,
10, ,17, ,
11, ,17, ,
11, ,17, ,
10, ,17, ,
11, ,17, ,
11, ,17, ,
12, ,17, ,
13, ,17, ,
11, ,17, ,
11, ,17, ,
10, ,17, ,
10, ,17, ,
11, ,17, ,
9, ,17, ,
10, ,17, ,
8, ,17, ,
6, ,17, ,
6, ,17, ,
5, ,17, ,
4, ,17, ,
4, ,17, ,
2, ,17, ,
2, ,17, ,
2, ,17, ,
1, ,17, ,
1, ,17, ,
0, ,17, ,
0, ,17, ,
0, ,17, ,
0, ,17, ,
0, ,17, ,
-1, ,17, ,
-2, ,17, ,
-1, ,17, ,
-2, ,17, ,
-2, ,17, ,
0, ,17, ,
0, ,17, ,
-1, ,17, ,
0, ,17, ,
-1, ,17, ,
-1, ,17, ,
-1, ,17, ,
0, ,17, ,
-1, ,17, ,
-1, ,17, ,
0, ,17, ,
0, ,17, ,
-1, ,17, ,
-1, ,17, ,
-1, ,17, ,
-1, ,17, ,
0, ,17, ,
-1, ,17, ,
0, ,17, ,
0, ,17, ,
-1, ,17, ,
-1, ,17, ,
-2, ,17, ,
-1, ,17, ,
-1, ,17, ,
-2, ,17, ,
-1, ,17, ,
-1, ,17, ,
-2, ,17, ,
-1, ,17, ,
-2, ,17, ,
-2, ,17, ,
-2, ,17, ,
-3, ,17, ,
-3, ,17, ,
-3, ,17, ,
-3, ,17, ,
-2, ,17, ,
-3, ,17, ,
-2, ,17, ,
-1, ,17, ,
-2, ,17, ,
-1, ,17, ,
0, ,17, ,
0, ,17, ,
0, ,17, ,
0, ,17, ,
0, ,17, ,
1, ,17, ,
1, ,17, ,
1, ,17, ,
2, ,17, ,
1, ,17, ,
2, ,17, ,
1, ,17, ,
2, ,17, ,
2, ,17, ,
1, ,17, ,
3, ,17, ,
2, ,17, ,
1, ,17, ,
2, ,17, ,
1, ,17, ,
1, ,17, ,
1, ,17, ,
1, ,17, ,
2, ,17, ,
1, ,17, ,
0, ,17, ,
0, ,17, ,
-1, ,17, ,
-1, ,17, ,
-1, ,17, ,
-3, ,17, ,
-3, ,17, ,
-4, ,17, ,
-5, ,17, ,
-5, ,17, ,
-5, ,17, ,
-5, ,17, ,
-3, ,17, ,
-5, ,17, ,
-5, ,17, ,
-5, ,17, ,
-6, ,17, ,
-6, ,17, ,
-7, ,17, ,
-7, ,17, ,
-6, ,17, ,
-7, ,17, ,
-7, ,17, ,
-7, ,17, ,
-7, ,17, ,
-6, ,17, ,
-7, ,17, ,
-5, ,17, ,
-4, ,17, ,
-5, ,17, ,
-3, ,17, ,
-3, ,17, ,
-4, ,17, ,
-1, ,17, ,
-2, ,17, ,
0, ,17, ,
1, ,17, ,
0, ,17, ,
1, ,17, ,
1, ,17, ,
3, ,17, ,
3, ,17, ,
3, ,17, ,
4, ,17, ,
4, ,17, ,
4, ,17, ,
5, ,17, ,
5, ,17, ,
5, ,17, ,
5, ,17, ,
5, ,17, ,
6, ,17, ,
6, ,17, ,
6, ,17, ,
6, ,17, ,
7, ,17, ,
6, ,17, ,
7, ,17, ,
7, ,17, ,
7, ,17, ,
7, ,17, ,
6, ,17, ,
7, ,17, ,
9, ,17, ,
8, ,17, ,
9, ,17, ,
8, ,17, ,
8, ,17, ,
8, ,17, ,
6, ,17, ,
8, ,17, ,
7, ,17, ,
6, ,17, ,
6, ,17, ,
5, ,17, ,
4, ,17, ,
7, ,17, ,
5, ,17, ,
5, ,17, ,
4, ,17, ,
4, ,17, ,
4, ,17, ,
4, ,17, ,
5, ,17, ,
4, ,17, ,
2, ,17, ,
3, ,17, ,
3, ,17, ,
1, ,17, ,
2, ,17, ,
1, ,17, ,
1, ,17, ,
2, ,17, ,
1, ,17, ,
2, ,17, ,
1, ,17, ,
0, ,17, ,
