raw_data/100% Glycerol, Impulsion 2Hz, Sonde 5MHz, Rampe 0.7Hz/temp0000170.CSV

Format,1.0B,
Memory Length,10000,Memory Length,10000,
IntpDistance,0,IntpDistance,0,
Trigger Address,159,Trigger Address,159,
Trigger Level,2.720E-01,Trigger Level,2.720E-01,
Source,CH1,Source,CH2,
Vertical Units,V,Vertical Units,V,
Vertical Units Div,0,Vertical Units Div,0,
Vertical Units Extend Div,16,Vertical Units Extend Div,16,
Label,,Label,,
Probe Type,0,Probe Type,0,
Probe Ratio,1.000e+00,Probe Ratio,1.000e+00,
Vertical Scale,2.000e-01,Vertical Scale,2.000e+00,
Vertical Position,0.000e+00,Vertical Position,0.000e+00,
Horizontal Units,S,Horizontal Units,S,
Horizontal Scale,5.000E-06,Horizontal Scale,5.000E-06,
Horizontal Position,2.420E-05,Horizontal Position,2.420E-05,
Horizontal Mode,Main,Horizontal Mode,Main,
SincET Mode,Real Time,SincET Mode,Real Time,
Sampling Period,5.000e-09,Sampling Period,5.000e-09,
Horizontal Old Scale,5.000E-06,Horizontal Old Scale,5.000E-06,
Horizontal Old Position,2.420E-05,Horizontal Old Position,2.420E-05,
Firmware,V1.32,Firmware,V1.32,
Mode,Fast,Mode,Fast,
Waveform Data,,Waveform Data,,
1, ,-29, ,
2, ,-29, ,
3, ,-29, ,
2, ,-29, ,
3, ,-29, ,
2, ,-29, ,
1, ,-29, ,
2, ,-29, ,
2, ,-29, ,
1, ,-29, ,
1, ,-28, ,
1, ,-28, ,
2, ,-28, ,
3, ,-29, ,
1, ,-29, ,
4, ,-29, ,
1, ,-29, ,
1, ,-29, ,
2, ,-29, ,
2, ,-29, ,
2, ,-28, ,
2, ,-29, ,
1, ,-29, ,
2, ,-28, ,
2, ,-28, ,
1, ,-28, ,
2, ,-28, ,
2, ,-28, ,
2, ,-28, ,
2, ,-28, ,
1, ,-29, ,
2, ,-29, ,
1, ,-29, ,
2, ,-29, ,
2, ,-29, ,
1, ,-29, ,
1, ,-29, ,
2, ,-28, ,
1, ,-28, ,
2, ,-28, ,
1, ,-28, ,
1, ,-28, ,
1, ,-28, ,
2, ,-28, ,
2, ,-28, ,
3, ,-28, ,
2, ,-28, ,
3, ,-28, ,
1, ,-28, ,
1, ,-29, ,
2, ,-29, ,
3, ,-29, ,
3, ,-29, ,
2, ,-28, ,
1, ,-28, ,
2, ,-28, ,
2, ,-29, ,
1, ,-29, ,
2, ,-29, ,
1, ,-29, ,
2, ,-29, ,
2, ,-29, ,
2, ,-29, ,
2, ,-29, ,
2, ,-29, ,
2, ,-29, ,
2, ,-29, ,
1, ,-29, ,
1, ,-28, ,
2, ,-29, ,
2, ,-29, ,
2, ,-28, ,
1, ,-28, ,
1, ,-28, ,
2, ,-28, ,
2, ,-29, ,
2, ,-29, ,
2, ,-29, ,
2, ,-28, ,
2, ,-28, ,
2, ,-28, ,
2, ,-28, ,
2, ,-28, ,
1, ,-29, ,
2, ,-29, ,
1, ,-29, ,
1, ,-29, ,
1, ,-28, ,
1, ,-29, ,
2, ,-29, ,
2, ,-28, ,
1, ,-28, ,
1, ,-28, ,
1, ,-29, ,
1, ,-29, ,
1, ,-28, ,
1, ,-28, ,
1, ,-29, ,
2, ,-29, ,
1, ,-29, ,
2, ,-29, ,
2, ,-29, ,
1, ,-29, ,
3, ,-29, ,
1, ,-29, ,
0, ,-29, ,
2, ,-29, ,
2, ,-29, ,
2, ,-29, ,
2, ,-28, ,
1, ,-28, ,
2, ,-28, ,
1, ,-28, ,
2, ,-29, ,
2, ,-29, ,
1, ,-29, ,
2, ,-28, ,
2, ,-28, ,
1, ,-28, ,
3, ,-28, ,
2, ,-28, ,
1, ,-29, ,
2, ,-29, ,
1, ,-29, ,
2, ,-29, ,
2, ,-28, ,
1, ,-29, ,
2, ,-29, ,
1, ,-29, ,
1, ,-29, ,
2, ,-28, ,
1, ,-28, ,
1, ,-28, ,
2, ,-29, ,
1, ,-29, ,
2, ,-28, ,
1, ,-29, ,
1, ,-29, ,
2, ,-28, ,
1, ,-28, ,
1, ,-28, ,
1, ,-28, ,
1, ,-28, ,
1, ,-28, ,
1, ,-28, ,
1, ,-28, ,
2, ,-28, ,
1, ,-28, ,
2, ,-28, ,
1, ,-28, ,
1, ,-28, ,
2, ,-28, ,
1, ,-29, ,
1, ,-29, ,
2, ,-28, ,
1, ,-29, ,
2, ,-29, ,
2, ,-29, ,
1, ,-29, ,
2, ,-29, ,
1, ,-29, ,
2, ,-29, ,
3, ,-29, ,
2, ,-29, ,
5, ,-28, ,
-1, ,-28, ,
-2, ,-28, ,
0, ,-28, ,
24, ,-29, ,
125, ,-29, ,
125, ,-28, ,
125, ,-29, ,
125, ,-29, ,
117, ,-28, ,
31, ,-29, ,
-18, ,-29, ,
63, ,-29, ,
125, ,-29, ,
125, ,-29, ,
125, ,-29, ,
125, ,-29, ,
125, ,-28, ,
125, ,-28, ,
125, ,-28, ,
125, ,-28, ,
125, ,-28, ,
125, ,-28, ,
125, ,-29, ,
125, ,-29, ,
125, ,-29, ,
125, ,-28, ,
125, ,-28, ,
125, ,-29, ,
125, ,-29, ,
125, ,-28, ,
125, ,-29, ,
125, ,-29, ,
125, ,-28, ,
125, ,-28, ,
125, ,-28, ,
125, ,-29, ,
125, ,-29, ,
124, ,-29, ,
124, ,-28, ,
122, ,-28, ,
112, ,-29, ,
106, ,-29, ,
104, ,-29, ,
98, ,-29, ,
91, ,-28, ,
87, ,-28, ,
83, ,-28, ,
79, ,-28, ,
72, ,-28, ,
69, ,-28, ,
66, ,-28, ,
62, ,-29, ,
55, ,-29, ,
54, ,-29, ,
52, ,-29, ,
49, ,-29, ,
45, ,-28, ,
42, ,-29, ,
41, ,-29, ,
38, ,-29, ,
35, ,-29, ,
34, ,-28, ,
32, ,-28, ,
30, ,-28, ,
28, ,-29, ,
25, ,-29, ,
24, ,-29, ,
22, ,-29, ,
20, ,-29, ,
19, ,-29, ,
18, ,-29, ,
19, ,-29, ,
16, ,-29, ,
15, ,-29, ,
14, ,-29, ,
12, ,-28, ,
10, ,-28, ,
10, ,-28, ,
9, ,-28, ,
9, ,-28, ,
7, ,-29, ,
6, ,-29, ,
6, ,-29, ,
5, ,-29, ,
5, ,-29, ,
4, ,-28, ,
4, ,-29, ,
3, ,-29, ,
2, ,-28, ,
1, ,-29, ,
2, ,-29, ,
0, ,-29, ,
1, ,-29, ,
0, ,-29, ,
0, ,-29, ,
0, ,-28, ,
0, ,-28, ,
-2, ,-28, ,
-1, ,-28, ,
-1, ,-28, ,
-2, ,-29, ,
-2, ,-29, ,
-2, ,-29, ,
-2, ,-29, ,
-2, ,-29, ,
-2, ,-29, ,
-2, ,-29, ,
-3, ,-29, ,
-3, ,-29, ,
-3, ,-29, ,
-4, ,-29, ,
-2, ,-28, ,
-3, ,-28, ,
-3, ,-29, ,
-3, ,-29, ,
-3, ,-29, ,
-4, ,-29, ,
-3, ,-29, ,
-2, ,-29, ,
-2, ,-28, ,
-4, ,-28, ,
-3, ,-29, ,
-3, ,-29, ,
-3, ,-29, ,
-4, ,-28, ,
-1, ,-28, ,
-3, ,-28, ,
-3, ,-28, ,
-3, ,-29, ,
-4, ,-29, ,
-3, ,-28, ,
-3, ,-29, ,
-3, ,-29, ,
-3, ,-29, ,
-4, ,-29, ,
-2, ,-29, ,
-4, ,-28, ,
-3, ,-28, ,
-3, ,-28, ,
-4, ,-28, ,
-2, ,-28, ,
-2, ,-29, ,
-2, ,-29, ,
-2, ,-29, ,
-2, ,-29, ,
-4, ,-29, ,
-2, ,-28, ,
-2, ,-29, ,
-2, ,-29, ,
-2, ,-29, ,
-1, ,-29, ,
-1, ,-29, ,
-2, ,-28, ,
-2, ,-29, ,
-1, ,-29, ,
-1, ,-29, ,
-1, ,-29, ,
-1, ,-29, ,
-1, ,-29, ,
0, ,-28, ,
-1, ,-29, ,
-2, ,-29, ,
0, ,-28, ,
-1, ,-28, ,
-2, ,-29, ,
0, ,-29, ,
0, ,-29, ,
0, ,-28, ,
0, ,-28, ,
0, ,-29, ,
0, ,-29, ,
0, ,-29, ,
0, ,-29, ,
0, ,-28, ,
0, ,-28, ,
0, ,-28, ,
0, ,-29, ,
-1, ,-29, ,
0, ,-29, ,
0, ,-29, ,
0, ,-28, ,
0, ,-28, ,
0, ,-28, ,
0, ,-29, ,
1, ,-29, ,
1, ,-29, ,
1, ,-29, ,
0, ,-29, ,
0, ,-29, ,
0, ,-29, ,
0, ,-29, ,
1, ,-28, ,
1, ,-28, ,
0, ,-28, ,
1, ,-28, ,
0, ,-28, ,
0, ,-29, ,
1, ,-29, ,
1, ,-29, ,
1, ,-29, ,
1, ,-28, ,
1, ,-28, ,
1, ,-28, ,
1, ,-28, ,
1, ,-28, ,
1, ,-28, ,
0, ,-29, ,
1, ,-29, ,
1, ,-29, ,
1, ,-29, ,
1, ,-29, ,
1, ,-28, ,
0, ,-28, ,
1, ,-28, ,
1, ,-29, ,
2, ,-29, ,
1, ,-28, ,
0, ,-28, ,
0, ,-28, ,
0, ,-28, ,
0, ,-28, ,
0, ,-28, ,
0, ,-29, ,
1, ,-29, ,
1, ,-28, ,
0, ,-28, ,
1, ,-29, ,
1, ,-29, ,
1, ,-29, ,
2, ,-28, ,
1, ,-28, ,
1, ,-28, ,
2, ,-28, ,
1, ,-28, ,
2, ,-28, ,
0, ,-28, ,
1, ,-28, ,
1, ,-28, ,
1, ,-28, ,
1, ,-28, ,
1, ,-29, ,
1, ,-29, ,
2, ,-29, ,
1, ,-29, ,
1, ,-29, ,
1, ,-28, ,
1, ,-29, ,
1, ,-29, ,
1, ,-29, ,
2, ,-29, ,
2, ,-28, ,
1, ,-28, ,
1, ,-28, ,
3, ,-28, ,
0, ,-28, ,
1, ,-28, ,
1, ,-28, ,
0, ,-29, ,
0, ,-29, ,
0, ,-29, ,
0, ,-29, ,
1, ,-29, ,
0, ,-29, ,
1, ,-29, ,
2, ,-28, ,
2, ,-29, ,
2, ,-29, ,
1, ,-29, ,
1, ,-28, ,
1, ,-28, ,
1, ,-28, ,
1, ,-28, ,
1, ,-29, ,
0, ,-29, ,
1, ,-29, ,
0, ,-29, ,
-1, ,-29, ,
-1, ,-28, ,
-1, ,-28, ,
0, ,-28, ,
-1, ,-28, ,
-2, ,-29, ,
0, ,-29, ,
0, ,-29, ,
0, ,-28, ,
0, ,-28, ,
1, ,-28, ,
1, ,-28, ,
3, ,-28, ,
2, ,-28, ,
2, ,-28, ,
1, ,-29, ,
1, ,-29, ,
1, ,-28, ,
1, ,-28, ,
1, ,-28, ,
2, ,-28, ,
1, ,-28, ,
2, ,-28, ,
1, ,-28, ,
2, ,-28, ,
2, ,-28, ,
1, ,-29, ,
1, ,-29, ,
2, ,-29, ,
1, ,-29, ,
2, ,-29, ,
2, ,-29, ,
1, ,-29, ,
2, ,-29, ,
2, ,-29, ,
2, ,-28, ,
2, ,-29, ,
1, ,-29, ,
1, ,-29, ,
0, ,-29, ,
0, ,-28, ,
0, ,-28, ,
0, ,-29, ,
0, ,-29, ,
1, ,-29, ,
0, ,-29, ,
1, ,-28, ,
0, ,-29, ,
0, ,-29, ,
1, ,-28, ,
1, ,-28, ,
3, ,-29, ,
1, ,-29, ,
1, ,-28, ,
2, ,-28, ,
1, ,-28, ,
1, ,-29, ,
0, ,-29, ,
0, ,-29, ,
0, ,-29, ,
0, ,-28, ,
-1, ,-28, ,
0, ,-28, ,
0, ,-28, ,
-1, ,-28, ,
0, ,-28, ,
0, ,-29, ,
0, ,-29, ,
1, ,-28, ,
0, ,-29, ,
0, ,-29, ,
0, ,-29, ,
0, ,-28, ,
0, ,-28, ,
0, ,-28, ,
0, ,-28, ,
-2, ,-29, ,
-3, ,-29, ,
-3, ,-28, ,
-5, ,-29, ,
-6, ,-29, ,
-6, ,-29, ,
-6, ,-29, ,
-7, ,-28, ,
-7, ,-28, ,
-7, ,-29, ,
-7, ,-29, ,
-7, ,-29, ,
-8, ,-28, ,
-8, ,-28, ,
-9, ,-28, ,
-9, ,-28, ,
-10, ,-28, ,
-12, ,-29, ,
-11, ,-29, ,
-15, ,-29, ,
-19, ,-28, ,
-20, ,-28, ,
-23, ,-28, ,
-25, ,-28, ,
-28, ,-28, ,
-29, ,-28, ,
-30, ,-28, ,
-32, ,-28, ,
-32, ,-29, ,
-30, ,-29, ,
-30, ,-29, ,
-29, ,-28, ,
-29, ,-28, ,
-29, ,-29, ,
-29, ,-29, ,
-29, ,-29, ,
-30, ,-29, ,
-30, ,-28, ,
-31, ,-29, ,
-31, ,-29, ,
-34, ,-29, ,
-35, ,-29, ,
-34, ,-28, ,
-35, ,-29, ,
-33, ,-29, ,
-31, ,-28, ,
-30, ,-28, ,
-27, ,-28, ,
-21, ,-29, ,
-21, ,-29, ,
-17, ,-29, ,
-13, ,-28, ,
-9, ,-28, ,
-8, ,-28, ,
-5, ,-28, ,
-5, ,-28, ,
-5, ,-28, ,
-5, ,-28, ,
-6, ,-28, ,
-7, ,-28, ,
-9, ,-29, ,
-9, ,-29, ,
-11, ,-29, ,
-12, ,-28, ,
-11, ,-28, ,
-11, ,-28, ,
-10, ,-28, ,
-10, ,-29, ,
-10, ,-29, ,
-7, ,-28, ,
-7, ,-28, ,
-5, ,-28, ,
-4, ,-29, ,
-5, ,-29, ,
-5, ,-29, ,
-7, ,-29, ,
-7, ,-29, ,
-7, ,-29, ,
-9, ,-29, ,
-8, ,-29, ,
-8, ,-29, ,
-10, ,-29, ,
-7, ,-29, ,
-8, ,-29, ,
-7, ,-28, ,
-4, ,-28, ,
-4, ,-28, ,
-1, ,-28, ,
1, ,-28, ,
2, ,-28, ,
3, ,-28, ,
3, ,-29, ,
3, ,-29, ,
1, ,-28, ,
0, ,-28, ,
-3, ,-28, ,
-6, ,-28, ,
-9, ,-28, ,
-11, ,-28, ,
-14, ,-28, ,
-18, ,-28, ,
-19, ,-28, ,
-19, ,-29, ,
-19, ,-29, ,
-20, ,-28, ,
-21, ,-29, ,
-21, ,-29, ,
-22, ,-29, ,
-23, ,-28, ,
-23, ,-29, ,
-25, ,-29, ,
-25, ,-29, ,
-26, ,-28, ,
-28, ,-28, ,
-29, ,-28, ,
-29, ,-28, ,
-30, ,-28, ,
-30, ,-28, ,
-31, ,-28, ,
-30, ,-28, ,
-31, ,-28, ,
-32, ,-29, ,
-32, ,-29, ,
-32, ,-29, ,
-33, ,-28, ,
-31, ,-28, ,
-32, ,-29, ,
-30, ,-29, ,
-30, ,-29, ,
-31, ,-29, ,
-29, ,-29, ,
-29, ,-29, ,
-30, ,-29, ,
-28, ,-28, ,
-29, ,-28, ,
-30, ,-28, ,
-33, ,-28, ,
-35, ,-28, ,
-35, ,-28, ,
-37, ,-28, ,
-39, ,-29, ,
-40, ,-29, ,
-41, ,-29, ,
-40, ,-28, ,
-39, ,-29, ,
-40, ,-29, ,
-38, ,-29, ,
-38, ,-29, ,
-37, ,-29, ,
-37, ,-29, ,
-37, ,-29, ,
-36, ,-29, ,
-37, ,-29, ,
-38, ,-29, ,
-38, ,-29, ,
-39, ,-29, ,
-39, ,-28, ,
-38, ,-28, ,
-39, ,-28, ,
-37, ,-28, ,
-34, ,-28, ,
-34, ,-28, ,
-31, ,-29, ,
-29, ,-29, ,
-25, ,-29, ,
-22, ,-29, ,
-21, ,-29, ,
-19, ,-29, ,
-17, ,-29, ,
-17, ,-28, ,
-16, ,-28, ,
-17, ,-28, ,
-15, ,-28, ,
-15, ,-28, ,
-15, ,-28, ,
-14, ,-28, ,
-13, ,-29, ,
-14, ,-29, ,
-12, ,-28, ,
-13, ,-28, ,
-14, ,-28, ,
-13, ,-28, ,
-13, ,-28, ,
-14, ,-28, ,
-14, ,-29, ,
-14, ,-29, ,
-13, ,-28, ,
-13, ,-28, ,
-10, ,-28, ,
-9, ,-28, ,
-10, ,-28, ,
-7, ,-28, ,
-4, ,-28, ,
-5, ,-29, ,
-3, ,-29, ,
-2, ,-29, ,
0, ,-28, ,
0, ,-28, ,
1, ,-29, ,
3, ,-29, ,
5, ,-28, ,
6, ,-29, ,
6, ,-29, ,
7, ,-29, ,
10, ,-29, ,
10, ,-29, ,
10, ,-29, ,
13, ,-28, ,
13, ,-29, ,
12, ,-29, ,
12, ,-29, ,
12, ,-28, ,
10, ,-28, ,
10, ,-28, ,
10, ,-29, ,
8, ,-29, ,
6, ,-28, ,
6, ,-28, ,
7, ,-28, ,
5, ,-28, ,
4, ,-29, ,
4, ,-29, ,
1, ,-29, ,
2, ,-29, ,
2, ,-29, ,
0, ,-29, ,
0, ,-29, ,
0, ,-29, ,
-2, ,-29, ,
-2, ,-29, ,
-3, ,-29, ,
-5, ,-29, ,
-5, ,-28, ,
-6, ,-29, ,
-5, ,-29, ,
-9, ,-29, ,
-10, ,-28, ,
-10, ,-28, ,
-13, ,-28, ,
-13, ,-28, ,
-14, ,-28, ,
-18, ,-28, ,
-18, ,-28, ,
-19, ,-29, ,
-22, ,-29, ,
-21, ,-28, ,
-22, ,-28, ,
-23, ,-28, ,
-25, ,-28, ,
-26, ,-28, ,
-26, ,-28, ,
-28, ,-28, ,
-29, ,-28, ,
-29, ,-28, ,
-31, ,-28, ,
-31, ,-28, ,
-33, ,-28, ,
-34, ,-29, ,
-34, ,-29, ,
-35, ,-29, ,
-35, ,-29, ,
-35, ,-28, ,
-35, ,-28, ,
-35, ,-28, ,
-35, ,-28, ,
-33, ,-28, ,
-33, ,-28, ,
-32, ,-28, ,
-31, ,-29, ,
-30, ,-29, ,
-30, ,-29, ,
-30, ,-28, ,
-29, ,-28, ,
-29, ,-29, ,
-30, ,-29, ,
-28, ,-29, ,
-28, ,-29, ,
-25, ,-29, ,
-26, ,-29, ,
-24, ,-29, ,
-20, ,-29, ,
-22, ,-29, ,
-18, ,-28, ,
-19, ,-28, ,
-15, ,-28, ,
-14, ,-29, ,
-14, ,-29, ,
-12, ,-29, ,
-10, ,-29, ,
-10, ,-29, ,
-9, ,-28, ,
-8, ,-29, ,
-6, ,-29, ,
-5, ,-29, ,
-2, ,-29, ,
-1, ,-28, ,
0, ,-28, ,
2, ,-29, ,
2, ,-29, ,
3, ,-29, ,
5, ,-28, ,
5, ,-28, ,
5, ,-28, ,
5, ,-28, ,
7, ,-28, ,
5, ,-29, ,
6, ,-29, ,
6, ,-29, ,
6, ,-29, ,
6, ,-29, ,
6, ,-29, ,
6, ,-29, ,
7, ,-29, ,
7, ,-29, ,
7, ,-29, ,
7, ,-29, ,
7, ,-29, ,
7, ,-29, ,
6, ,-29, ,
7, ,-28, ,
7, ,-28, ,
5, ,-28, ,
5, ,-28, ,
6, ,-29, ,
5, ,-29, ,
7, ,-29, ,
6, ,-29, ,
7, ,-29, ,
7, ,-28, ,
6, ,-28, ,
6, ,-28, ,
5, ,-28, ,
4, ,-28, ,
2, ,-28, ,
1, ,-29, ,
1, ,-29, ,
-1, ,-28, ,
-4, ,-28, ,
-3, ,-28, ,
-5, ,-29, ,
-9, ,-29, ,
-10, ,-29, ,
-10, ,-29, ,
-11, ,-29, ,
-13, ,-28, ,
-15, ,-29, ,
-14, ,-29, ,
-16, ,-29, ,
-18, ,-29, ,
-18, ,-29, ,
-20, ,-29, ,
-20, ,-28, ,
-21, ,-28, ,
-23, ,-28, ,
-21, ,-28, ,
-22, ,-29, ,
-22, ,-29, ,
-21, ,-28, ,
-22, ,-28, ,
-21, ,-28, ,
-20, ,-28, ,
-21, ,-28, ,
-20, ,-29, ,
-22, ,-29, ,
-20, ,-29, ,
-20, ,-29, ,
-20, ,-29, ,
-19, ,-28, ,
-19, ,-29, ,
-19, ,-29, ,
-19, ,-28, ,
-20, ,-29, ,
-20, ,-29, ,
-19, ,-29, ,
-20, ,-28, ,
-20, ,-28, ,
-20, ,-28, ,
-21, ,-29, ,
-20, ,-29, ,
-21, ,-29, ,
-21, ,-29, ,
-20, ,-29, ,
-22, ,-29, ,
-21, ,-28, ,
-23, ,-29, ,
-24, ,-29, ,
-23, ,-28, ,
-25, ,-28, ,
-25, ,-28, ,
-24, ,-28, ,
-25, ,-29, ,
-24, ,-29, ,
-23, ,-28, ,
-24, ,-28, ,
-23, ,-28, ,
-24, ,-28, ,
-22, ,-28, ,
-22, ,-28, ,
-23, ,-28, ,
-22, ,-28, ,
-21, ,-28, ,
-22, ,-28, ,
-21, ,-28, ,
-21, ,-29, ,
-19, ,-29, ,
-19, ,-28, ,
-19, ,-29, ,
-18, ,-29, ,
-18, ,-29, ,
-15, ,-29, ,
-15, ,-28, ,
-15, ,-28, ,
-14, ,-29, ,
-13, ,-29, ,
-14, ,-29, ,
-13, ,-29, ,
-12, ,-28, ,
-13, ,-28, ,
-13, ,-28, ,
-12, ,-28, ,
-12, ,-28, ,
-11, ,-28, ,
-10, ,-28, ,
-10, ,-28, ,
-9, ,-28, ,
-10, ,-29, ,
-9, ,-29, ,
-9, ,-29, ,
-8, ,-28, ,
-7, ,-28, ,
-9, ,-28, ,
-8, ,-28, ,
-8, ,-29, ,
-8, ,-29, ,
-7, ,-28, ,
-7, ,-29, ,
-8, ,-29, ,
-6, ,-28, ,
-5, ,-28, ,
-5, ,-29, ,
-4, ,-29, ,
-4, ,-29, ,
-3, ,-29, ,
-4, ,-29, ,
-3, ,-29, ,
-2, ,-29, ,
-3, ,-29, ,
0, ,-29, ,
0, ,-29, ,
0, ,-29, ,
0, ,-29, ,
0, ,-29, ,
0, ,-29, ,
1, ,-29, ,
0, ,-29, ,
0, ,-29, ,
0, ,-28, ,
1, ,-28, ,
2, ,-28, ,
0, ,-28, ,
0, ,-28, ,
0, ,-28, ,
-2, ,-29, ,
-1, ,-29, ,
-1, ,-28, ,
-4, ,-28, ,
-3, ,-28, ,
-4, ,-29, ,
-5, ,-29, ,
-5, ,-28, ,
-6, ,-28, ,
-6, ,-28, ,
-6, ,-29, ,
-6, ,-29, ,
-6, ,-28, ,
-7, ,-28, ,
-8, ,-28, ,
-8, ,-29, ,
-9, ,-29, ,
-8, ,-29, ,
-8, ,-29, ,
-10, ,-29, ,
-9, ,-28, ,
-10, ,-29, ,
-10, ,-29, ,
-9, ,-28, ,
-9, ,-29, ,
-9, ,-29, ,
-9, ,-28, ,
-9, ,-29, ,
-10, ,-29, ,
-10, ,-29, ,
-10, ,-29, ,
-9, ,-29, ,
-11, ,-29, ,
-10, ,-28, ,
-10, ,-28, ,
-12, ,-29, ,
-10, ,-29, ,
-11, ,-29, ,
-11, ,-28, ,
-10, ,-28, ,
-10, ,-29, ,
-10, ,-29, ,
-10, ,-28, ,
-11, ,-29, ,
-10, ,-29, ,
-12, ,-29, ,
-11, ,-29, ,
-10, ,-29, ,
-12, ,-29, ,
-11, ,-28, ,
-10, ,-29, ,
-10, ,-29, ,
-10, ,-28, ,
-9, ,-28, ,
-9, ,-28, ,
-9, ,-28, ,
-9, ,-28, ,
-8, ,-28, ,
-7, ,-28, ,
-8, ,-28, ,
-6, ,-29, ,
-7, ,-29, ,
-6, ,-29, ,
-6, ,-29, ,
-7, ,-29, ,
-5, ,-28, ,
-5, ,-28, ,
-5, ,-28, ,
-4, ,-28, ,
-5, ,-28, ,
-2, ,-28, ,
-2, ,-28, ,
-2, ,-28, ,
-1, ,-28, ,
0, ,-28, ,
0, ,-28, ,
0, ,-28, ,
0, ,-28, ,
0, ,-29, ,
1, ,-29, ,
1, ,-29, ,
1, ,-29, ,
2, ,-29, ,
0, ,-29, ,
1, ,-29, ,
1, ,-28, ,
1, ,-28, ,
1, ,-28, ,
1, ,-29, ,
2, ,-29, ,
1, ,-29, ,
1, ,-29, ,
1, ,-28, ,
-1, ,-28, ,
-1, ,-29, ,
-1, ,-29, ,
-2, ,-29, ,
-1, ,-29, ,
-1, ,-28, ,
-1, ,-29, ,
-1, ,-29, ,
-2, ,-29, ,
-2, ,-28, ,
0, ,-28, ,
-1, ,-29, ,
-1, ,-29, ,
-2, ,-28, ,
-1, ,-28, ,
-1, ,-28, ,
-2, ,-28, ,
-1, ,-28, ,
-1, ,-29, ,
-2, ,-29, ,
-1, ,-29, ,
-1, ,-29, ,
-4, ,-29, ,
-1, ,-29, ,
-1, ,-29, ,
0, ,-28, ,
0, ,-28, ,
-1, ,-29, ,
0, ,-29, ,
0, ,-28, ,
-1, ,-29, ,
0, ,-29, ,
-2, ,-29, ,
-2, ,-29, ,
-1, ,-29, ,
-2, ,-29, ,
-2, ,-28, ,
-1, ,-28, ,
-4, ,-28, ,
-2, ,-28, ,
-2, ,-28, ,
-2, ,-28, ,
-2, ,-28, ,
-2, ,-29, ,
-1, ,-29, ,
-2, ,-29, ,
-2, ,-29, ,
-1, ,-29, ,
-3, ,-29, ,
-2, ,-29, ,
-2, ,-29, ,
-2, ,-29, ,
-1, ,-28, ,
0, ,-28, ,
-2, ,-28, ,
0, ,-28, ,
-1, ,-28, ,
-2, ,-28, ,
0, ,-28, ,
1, ,-28, ,
1, ,-29, ,
1, ,-29, ,
1, ,-29, ,
3, ,-29, ,
1, ,-29, ,
2, ,-28, ,
2, ,-28, ,
1, ,-28, ,
3, ,-28, ,
1, ,-29, ,
0, ,-29, ,
2, ,-29, ,
1, ,-29, ,
1, ,-29, ,
2, ,-29, ,
2, ,-29, ,
2, ,-28, ,
1, ,-29, ,
1, ,-29, ,
0, ,-29, ,
0, ,-29, ,
0, ,-28, ,
0, ,-28, ,
0, ,-28, ,
0, ,-28, ,
-1, ,-29, ,
-2, ,-29, ,
0, ,-29, ,
-1, ,-28, ,
-1, ,-28, ,
0, ,-28, ,
-1, ,-28, ,
0, ,-28, ,
1, ,-28, ,
1, ,-29, ,
1, ,-29, ,
1, ,-29, ,
2, ,-28, ,
3, ,-29, ,
3, ,-29, ,
4, ,-29, ,
4, ,-28, ,
3, ,-29, ,
5, ,-29, ,
4, ,-29, ,
2, ,-29, ,
5, ,-28, ,
5, ,-29, ,
5, ,-29, ,
7, ,-28, ,
6, ,-28, ,
7, ,-29, ,
5, ,-29, ,
6, ,-28, ,
6, ,-28, ,
5, ,-28, ,
6, ,-28, ,
6, ,-28, ,
5, ,-28, ,
5, ,-28, ,
5, ,-28, ,
5, ,-29, ,
5, ,-29, ,
5, ,-29, ,
5, ,-29, ,
5, ,-28, ,
5, ,-29, ,
5, ,-29, ,
5, ,-29, ,
5, ,-28, ,
5, ,-29, ,
5, ,-29, ,
5, ,-29, ,
4, ,-28, ,
4, ,-28, ,
4, ,-28, ,
4, ,-29, ,
2, ,-29, ,
2, ,-28, ,
2, ,-29, ,
2, ,-29, ,
1, ,-29, ,
0, ,-29, ,
0, ,-29, ,
-1, ,-29, ,
-2, ,-28, ,
-2, ,-29, ,
-3, ,-29, ,
-3, ,-29, ,
-3, ,-29, ,
-5, ,-29, ,
-5, ,-28, ,
-6, ,-28, ,
-7, ,-29, ,
-7, ,-29, ,
-8, ,-29, ,
-8, ,-29, ,
-7, ,-28, ,
-7, ,-29, ,
-7, ,-29, ,
-7, ,-29, ,
-7, ,-29, ,
-7, ,-29, ,
-7, ,-29, ,
-7, ,-29, ,
-7, ,-29, ,
-7, ,-29, ,
-5, ,-28, ,
-5, ,-29, ,
-5, ,-29, ,
-4, ,-29, ,
-4, ,-29, ,
-3, ,-28, ,
-2, ,-29, ,
-2, ,-29, ,
-2, ,-29, ,
0, ,-29, ,
0, ,-28, ,
0, ,-28, ,
0, ,-28, ,
0, ,-28, ,
0, ,-28, ,
0, ,-28, ,
1, ,-28, ,
0, ,-29, ,
0, ,-29, ,
1, ,-28, ,
0, ,-28, ,
0, ,-28, ,
0, ,-28, ,
-1, ,-29, ,
-1, ,-29, ,
-2, ,-29, ,
-1, ,-29, ,
-2, ,-28, ,
-3, ,-28, ,
-3, ,-28, ,
-3, ,-29, ,
-5, ,-29, ,
-5, ,-28, ,
-5, ,-29, ,
-6, ,-29, ,
-6, ,-28, ,
-7, ,-28, ,
-7, ,-29, ,
-8, ,-29, ,
-8, ,-28, ,
-8, ,-28, ,
-9, ,-28, ,
-9, ,-28, ,
-8, ,-28, ,
-10, ,-28, ,
-8, ,-28, ,
-9, ,-28, ,
-10, ,-28, ,
-9, ,-28, ,
-10, ,-28, ,
-10, ,-28, ,
-9, ,-28, ,
-9, ,-29, ,
-9, ,-29, ,
-8, ,-28, ,
-9, ,-29, ,
-8, ,-29, ,
-9, ,-29, ,
-8, ,-28, ,
-7, ,-28, ,
-7, ,-28, ,
-7, ,-28, ,
-6, ,-28, ,
-7, ,-28, ,
-5, ,-28, ,
-5, ,-28, ,
-6, ,-28, ,
-4, ,-28, ,
-4, ,-29, ,
-3, ,-29, ,
-4, ,-29, ,
-4, ,-29, ,
-3, ,-28, ,
-4, ,-28, ,
-1, ,-29, ,
-1, ,-29, ,
-2, ,-29, ,
-1, ,-28, ,
-2, ,-28, ,
-2, ,-28, ,
-2, ,-28, ,
-2, ,-28, ,
-2, ,-29, ,
-1, ,-29, ,
-1, ,-29, ,
-2, ,-29, ,
-2, ,-28, ,
-2, ,-28, ,
-3, ,-28, ,
-3, ,-29, ,
-3, ,-29, ,
-2, ,-29, ,
-4, ,-29, ,
-2, ,-29, ,
-3, ,-28, ,
-4, ,-28, ,
-3, ,-28, ,
-4, ,-28, ,
-3, ,-28, ,
-2, ,-28, ,
-3, ,-28, ,
-3, ,-28, ,
-4, ,-28, ,
-4, ,-29, ,
-3, ,-29, ,
-4, ,-29, ,
-4, ,-28, ,
-4, ,-28, ,
-5, ,-28, ,
-4, ,-28, ,
-4, ,-29, ,
-5, ,-29, ,
-4, ,-29, ,
-5, ,-29, ,
-5, ,-29, ,
-4, ,-28, ,
-4, ,-29, ,
-4, ,-29, ,
-3, ,-29, ,
-4, ,-29, ,
-4, ,-28, ,
-4, ,-28, ,
-4, ,-29, ,
-3, ,-29, ,
-5, ,-29, ,
-3, ,-28, ,
-3, ,-28, ,
-3, ,-28, ,
-4, ,-28, ,
-3, ,-28, ,
-4, ,-28, ,
-3, ,-28, ,
-3, ,-29, ,
-3, ,-29, ,
-2, ,-28, ,
-2, ,-29, ,
-2, ,-29, ,
-3, ,-29, ,
-3, ,-28, ,
-3, ,-28, ,
-3, ,-28, ,
-2, ,-28, ,
-2, ,-28, ,
-2, ,-29, ,
-3, ,-29, ,
-3, ,-29, ,
-2, ,-29, ,
-2, ,-29, ,
-3, ,-29, ,
-2, ,-29, ,
-2, ,-29, ,
-2, ,-28, ,
-1, ,-28, ,
-1, ,-28, ,
-2, ,-28, ,
0, ,-28, ,
0, ,-28, ,
0, ,-28, ,
1, ,-29, ,
1, ,-29, ,
2, ,-29, ,
2, ,-29, ,
3, ,-29, ,
3, ,-28, ,
3, ,-28, ,
4, ,-28, ,
5, ,-28, ,
6, ,-29, ,
6, ,-29, ,
5, ,-29, ,
7, ,-29, ,
7, ,-29, ,
7, ,-29, ,
8, ,-29, ,
8, ,-28, ,
8, ,-28, ,
8, ,-28, ,
9, ,-29, ,
8, ,-29, ,
9, ,-28, ,
8, ,-29, ,
8, ,-29, ,
7, ,-29, ,
6, ,-29, ,
5, ,-29, ,
5, ,-29, ,
5, ,-28, ,
5, ,-28, ,
3, ,-28, ,
4, ,-28, ,
2, ,-29, ,
1, ,-29, ,
1, ,-28, ,
1, ,-28, ,
0, ,-29, ,
0, ,-29, ,
-1, ,-29, ,
-1, ,-28, ,
-2, ,-28, ,
-3, ,-28, ,
-3, ,-28, ,
-4, ,-28, ,
-4, ,-28, ,
-4, ,-28, ,
-4, ,-29, ,
-4, ,-29, ,
-5, ,-29, ,
-6, ,-29, ,
-5, ,-28, ,
-5, ,-29, ,
-6, ,-29, ,
-5, ,-28, ,
-5, ,-28, ,
-4, ,-28, ,
-3, ,-28, ,
-3, ,-28, ,
-3, ,-28, ,
-4, ,-28, ,
-1, ,-29, ,
0, ,-29, ,
-1, ,-29, ,
1, ,-28, ,
2, ,-28, ,
0, ,-28, ,
2, ,-28, ,
1, ,-28, ,
1, ,-29, ,
2, ,-29, ,
2, ,-29, ,
2, ,-28, ,
2, ,-28, ,
1, ,-28, ,
1, ,-28, ,
1, ,-28, ,
0, ,-28, ,
0, ,-28, ,
0, ,-29, ,
0, ,-29, ,
-2, ,-28, ,
-2, ,-28, ,
-2, ,-28, ,
-3, ,-29, ,
-3, ,-29, ,
-3, ,-28, ,
-3, ,-28, ,
-3, ,-29, ,
-3, ,-29, ,
-3, ,-28, ,
-3, ,-28, ,
-4, ,-28, ,
-4, ,-28, ,
-3, ,-28, ,
-4, ,-28, ,
-2, ,-28, ,
-1, ,-29, ,
-2, ,-29, ,
-1, ,-29, ,
-1, ,-29, ,
-2, ,-29, ,
-2, ,-28, ,
-2, ,-28, ,
0, ,-28, ,
-1, ,-28, ,
-2, ,-29, ,
-2, ,-29, ,
-2, ,-29, ,
-2, ,-29, ,
-2, ,-29, ,
-3, ,-29, ,
-3, ,-28, ,
-3, ,-28, ,
-4, ,-29, ,
-3, ,-29, ,
-3, ,-29, ,
-5, ,-28, ,
-4, ,-28, ,
-4, ,-29, ,
-3, ,-29, ,
-2, ,-29, ,
-3, ,-28, ,
-1, ,-29, ,
-4, ,-29, ,
-2, ,-29, ,
-1, ,-29, ,
-1, ,-29, ,
0, ,-29, ,
1, ,-28, ,
1, ,-28, ,
3, ,-28, ,
2, ,-28, ,
5, ,-28, ,
5, ,-28, ,
6, ,-28, ,
7, ,-28, ,
8, ,-28, ,
8, ,-28, ,
9, ,-29, ,
8, ,-29, ,
10, ,-29, ,
10, ,-28, ,
10, ,-28, ,
10, ,-28, ,
10, ,-28, ,
9, ,-28, ,
10, ,-28, ,
9, ,-29, ,
8, ,-29, ,
7, ,-28, ,
7, ,-28, ,
6, ,-28, ,
6, ,-28, ,
5, ,-29, ,
5, ,-29, ,
3, ,-29, ,
2, ,-29, ,
2, ,-29, ,
2, ,-29, ,
2, ,-28, ,
1, ,-28, ,
0, ,-29, ,
0, ,-29, ,
0, ,-29, ,
-1, ,-28, ,
0, ,-28, ,
0, ,-29, ,
0, ,-29, ,
-1, ,-29, ,
-1, ,-29, ,
0, ,-29, ,
-1, ,-29, ,
-1, ,-28, ,
0, ,-28, ,
-2, ,-28, ,
0, ,-28, ,
0, ,-28, ,
0, ,-28, ,
0, ,-28, ,
0, ,-28, ,
0, ,-28, ,
0, ,-28, ,
0, ,-29, ,
0, ,-29, ,
0, ,-28, ,
0, ,-29, ,
0, ,-29, ,
0, ,-29, ,
0, ,-29, ,
0, ,-28, ,
0, ,-29, ,
0, ,-29, ,
1, ,-28, ,
-1, ,-29, ,
0, ,-29, ,
0, ,-29, ,
-1, ,-29, ,
2, ,-28, ,
0, ,-29, ,
1, ,-29, ,
0, ,-28, ,
0, ,-29, ,
0, ,-29, ,
0, ,-29, ,
0, ,-29, ,
0, ,-29, ,
1, ,-29, ,
2, ,-29, ,
2, ,-28, ,
1, ,-28, ,
1, ,-28, ,
1, ,-29, ,
0, ,-29, ,
