raw_data/100% Glycerol, Impulsion 2Hz, Sonde 5MHz, Rampe 0.7Hz/temp0000280.CSV

Format,1.0B,
Memory Length,10000,Memory Length,10000,
IntpDistance,0,IntpDistance,0,
Trigger Address,159,Trigger Address,159,
Trigger Level,2.720E-01,Trigger Level,2.720E-01,
Source,CH1,Source,CH2,
Vertical Units,V,Vertical Units,V,
Vertical Units Div,0,Vertical Units Div,0,
Vertical Units Extend Div,16,Vertical Units Extend Div,16,
Label,,Label,,
Probe Type,0,Probe Type,0,
Probe Ratio,1.000e+00,Probe Ratio,1.000e+00,
Vertical Scale,2.000e-01,Vertical Scale,2.000e+00,
Vertical Position,0.000e+00,Vertical Position,0.000e+00,
Horizontal Units,S,Horizontal Units,S,
Horizontal Scale,5.000E-06,Horizontal Scale,5.000E-06,
Horizontal Position,2.420E-05,Horizontal Position,2.420E-05,
Horizontal Mode,Main,Horizontal Mode,Main,
SincET Mode,Real Time,SincET Mode,Real Time,
Sampling Period,5.000e-09,Sampling Period,5.000e-09,
Horizontal Old Scale,5.000E-06,Horizontal Old Scale,5.000E-06,
Horizontal Old Position,2.420E-05,Horizontal Old Position,2.420E-05,
Firmware,V1.32,Firmware,V1.32,
Mode,Fast,Mode,Fast,
Waveform Data,,Waveform Data,,
2, ,-5, ,
2, ,-5, ,
3, ,-5, ,
0, ,-5, ,
3, ,-5, ,
2, ,-5, ,
1, ,-5, ,
2, ,-5, ,
2, ,-5, ,
2, ,-5, ,
2, ,-5, ,
2, ,-5, ,
2, ,-5, ,
3, ,-5, ,
2, ,-5, ,
2, ,-4, ,
1, ,-4, ,
2, ,-4, ,
1, ,-4, ,
2, ,-5, ,
2, ,-5, ,
2, ,-5, ,
1, ,-5, ,
3, ,-5, ,
2, ,-5, ,
1, ,-5, ,
3, ,-5, ,
2, ,-5, ,
2, ,-5, ,
3, ,-4, ,
3, ,-5, ,
2, ,-5, ,
2, ,-4, ,
2, ,-5, ,
2, ,-5, ,
2, ,-5, ,
2, ,-5, ,
2, ,-5, ,
1, ,-5, ,
2, ,-5, ,
2, ,-5, ,
1, ,-5, ,
1, ,-5, ,
1, ,-5, ,
2, ,-5, ,
2, ,-5, ,
1, ,-5, ,
1, ,-5, ,
1, ,-4, ,
2, ,-5, ,
2, ,-5, ,
1, ,-5, ,
2, ,-5, ,
2, ,-4, ,
1, ,-4, ,
2, ,-5, ,
1, ,-5, ,
2, ,-5, ,
2, ,-5, ,
1, ,-5, ,
1, ,-5, ,
2, ,-5, ,
2, ,-5, ,
3, ,-4, ,
1, ,-5, ,
2, ,-5, ,
2, ,-4, ,
2, ,-5, ,
2, ,-5, ,
2, ,-5, ,
1, ,-5, ,
2, ,-5, ,
2, ,-5, ,
0, ,-5, ,
2, ,-5, ,
2, ,-5, ,
1, ,-5, ,
1, ,-4, ,
2, ,-5, ,
1, ,-5, ,
1, ,-5, ,
2, ,-5, ,
2, ,-5, ,
2, ,-5, ,
2, ,-4, ,
2, ,-4, ,
2, ,-5, ,
1, ,-5, ,
2, ,-5, ,
2, ,-5, ,
2, ,-5, ,
2, ,-5, ,
2, ,-5, ,
2, ,-5, ,
1, ,-4, ,
2, ,-5, ,
1, ,-5, ,
2, ,-5, ,
2, ,-5, ,
2, ,-5, ,
2, ,-5, ,
3, ,-5, ,
1, ,-5, ,
2, ,-4, ,
2, ,-4, ,
2, ,-4, ,
3, ,-4, ,
1, ,-4, ,
2, ,-5, ,
3, ,-5, ,
2, ,-5, ,
3, ,-5, ,
1, ,-4, ,
3, ,-5, ,
2, ,-5, ,
2, ,-5, ,
2, ,-4, ,
2, ,-4, ,
1, ,-5, ,
1, ,-5, ,
1, ,-5, ,
1, ,-5, ,
2, ,-5, ,
1, ,-5, ,
2, ,-5, ,
2, ,-5, ,
1, ,-5, ,
2, ,-4, ,
1, ,-4, ,
2, ,-5, ,
2, ,-5, ,
1, ,-5, ,
2, ,-5, ,
2, ,-5, ,
2, ,-5, ,
2, ,-5, ,
2, ,-5, ,
2, ,-5, ,
2, ,-5, ,
2, ,-5, ,
3, ,-5, ,
2, ,-5, ,
1, ,-5, ,
1, ,-5, ,
1, ,-5, ,
1, ,-5, ,
2, ,-4, ,
2, ,-4, ,
2, ,-5, ,
3, ,-5, ,
1, ,-5, ,
2, ,-5, ,
1, ,-5, ,
2, ,-5, ,
2, ,-5, ,
1, ,-5, ,
2, ,-5, ,
2, ,-5, ,
1, ,-5, ,
2, ,-5, ,
1, ,-4, ,
1, ,-5, ,
2, ,-5, ,
1, ,-5, ,
7, ,-5, ,
3, ,-5, ,
-1, ,-5, ,
4, ,-5, ,
35, ,-5, ,
125, ,-5, ,
125, ,-5, ,
125, ,-5, ,
125, ,-5, ,
116, ,-4, ,
-1, ,-4, ,
-1, ,-5, ,
105, ,-5, ,
125, ,-5, ,
125, ,-5, ,
125, ,-5, ,
125, ,-5, ,
125, ,-5, ,
125, ,-5, ,
125, ,-4, ,
125, ,-5, ,
125, ,-5, ,
125, ,-4, ,
125, ,-4, ,
125, ,-5, ,
125, ,-5, ,
125, ,-5, ,
125, ,-5, ,
125, ,-4, ,
125, ,-4, ,
125, ,-5, ,
125, ,-5, ,
125, ,-4, ,
125, ,-5, ,
125, ,-5, ,
125, ,-5, ,
125, ,-5, ,
125, ,-5, ,
124, ,-4, ,
124, ,-5, ,
121, ,-5, ,
110, ,-5, ,
105, ,-4, ,
102, ,-5, ,
97, ,-5, ,
89, ,-5, ,
86, ,-5, ,
81, ,-5, ,
78, ,-5, ,
70, ,-5, ,
66, ,-5, ,
64, ,-5, ,
61, ,-5, ,
55, ,-5, ,
55, ,-5, ,
51, ,-5, ,
49, ,-4, ,
46, ,-4, ,
42, ,-5, ,
41, ,-5, ,
38, ,-5, ,
36, ,-5, ,
35, ,-5, ,
31, ,-5, ,
31, ,-5, ,
27, ,-5, ,
26, ,-5, ,
24, ,-5, ,
22, ,-5, ,
20, ,-5, ,
19, ,-4, ,
17, ,-4, ,
17, ,-4, ,
17, ,-4, ,
14, ,-5, ,
13, ,-5, ,
12, ,-4, ,
10, ,-5, ,
10, ,-5, ,
9, ,-5, ,
8, ,-5, ,
7, ,-5, ,
5, ,-5, ,
7, ,-5, ,
5, ,-5, ,
4, ,-5, ,
4, ,-5, ,
3, ,-4, ,
4, ,-5, ,
2, ,-5, ,
1, ,-5, ,
3, ,-5, ,
0, ,-5, ,
0, ,-5, ,
0, ,-5, ,
0, ,-5, ,
0, ,-4, ,
0, ,-4, ,
-1, ,-5, ,
0, ,-5, ,
-1, ,-4, ,
-2, ,-5, ,
-1, ,-5, ,
-2, ,-5, ,
-2, ,-5, ,
-2, ,-4, ,
-1, ,-5, ,
-1, ,-5, ,
-2, ,-4, ,
-2, ,-5, ,
-2, ,-5, ,
-2, ,-5, ,
-2, ,-5, ,
-2, ,-5, ,
-3, ,-5, ,
-2, ,-4, ,
-3, ,-5, ,
-3, ,-5, ,
-2, ,-5, ,
-4, ,-5, ,
-3, ,-5, ,
-2, ,-5, ,
-3, ,-5, ,
-2, ,-5, ,
-3, ,-4, ,
-2, ,-5, ,
-2, ,-5, ,
-3, ,-5, ,
-3, ,-5, ,
-1, ,-5, ,
-3, ,-5, ,
-3, ,-5, ,
-3, ,-5, ,
-2, ,-5, ,
-2, ,-4, ,
-2, ,-5, ,
-2, ,-5, ,
-2, ,-5, ,
-2, ,-5, ,
-1, ,-5, ,
-2, ,-5, ,
-2, ,-5, ,
-2, ,-4, ,
-3, ,-5, ,
-1, ,-5, ,
-2, ,-5, ,
-2, ,-5, ,
-1, ,-4, ,
-2, ,-4, ,
-2, ,-5, ,
-1, ,-5, ,
-1, ,-5, ,
-1, ,-5, ,
0, ,-5, ,
0, ,-5, ,
-1, ,-5, ,
-1, ,-5, ,
0, ,-5, ,
0, ,-5, ,
-1, ,-5, ,
0, ,-4, ,
0, ,-5, ,
0, ,-5, ,
0, ,-5, ,
-1, ,-5, ,
0, ,-5, ,
0, ,-5, ,
0, ,-5, ,
0, ,-5, ,
0, ,-5, ,
0, ,-5, ,
0, ,-5, ,
0, ,-5, ,
0, ,-4, ,
0, ,-5, ,
0, ,-5, ,
0, ,-5, ,
0, ,-5, ,
0, ,-5, ,
1, ,-4, ,
1, ,-5, ,
0, ,-5, ,
0, ,-4, ,
0, ,-5, ,
1, ,-5, ,
1, ,-5, ,
1, ,-5, ,
1, ,-5, ,
0, ,-5, ,
0, ,-5, ,
1, ,-5, ,
0, ,-5, ,
0, ,-5, ,
1, ,-5, ,
1, ,-5, ,
1, ,-5, ,
0, ,-4, ,
0, ,-5, ,
1, ,-5, ,
1, ,-5, ,
1, ,-5, ,
1, ,-5, ,
1, ,-5, ,
2, ,-5, ,
0, ,-5, ,
1, ,-5, ,
1, ,-5, ,
1, ,-5, ,
2, ,-5, ,
2, ,-5, ,
1, ,-5, ,
1, ,-5, ,
0, ,-5, ,
0, ,-5, ,
2, ,-4, ,
1, ,-5, ,
2, ,-5, ,
2, ,-4, ,
1, ,-5, ,
2, ,-5, ,
1, ,-5, ,
0, ,-5, ,
2, ,-5, ,
1, ,-5, ,
1, ,-5, ,
2, ,-5, ,
0, ,-5, ,
2, ,-5, ,
1, ,-5, ,
1, ,-5, ,
2, ,-5, ,
1, ,-5, ,
2, ,-5, ,
1, ,-5, ,
2, ,-4, ,
2, ,-4, ,
1, ,-5, ,
2, ,-5, ,
2, ,-5, ,
2, ,-5, ,
2, ,-5, ,
2, ,-5, ,
1, ,-5, ,
3, ,-5, ,
2, ,-5, ,
2, ,-5, ,
2, ,-5, ,
1, ,-5, ,
3, ,-5, ,
2, ,-5, ,
2, ,-5, ,
2, ,-5, ,
1, ,-5, ,
2, ,-5, ,
3, ,-4, ,
1, ,-4, ,
2, ,-5, ,
2, ,-5, ,
0, ,-5, ,
1, ,-4, ,
1, ,-5, ,
1, ,-5, ,
1, ,-5, ,
1, ,-5, ,
2, ,-5, ,
2, ,-4, ,
2, ,-5, ,
1, ,-5, ,
1, ,-5, ,
2, ,-4, ,
4, ,-5, ,
1, ,-5, ,
1, ,-5, ,
2, ,-5, ,
1, ,-5, ,
1, ,-5, ,
1, ,-5, ,
0, ,-5, ,
0, ,-5, ,
0, ,-5, ,
0, ,-5, ,
-2, ,-5, ,
-1, ,-5, ,
0, ,-4, ,
-2, ,-4, ,
0, ,-5, ,
1, ,-5, ,
0, ,-5, ,
1, ,-5, ,
2, ,-5, ,
1, ,-5, ,
1, ,-5, ,
2, ,-5, ,
0, ,-5, ,
2, ,-5, ,
1, ,-5, ,
2, ,-5, ,
2, ,-5, ,
1, ,-5, ,
1, ,-5, ,
1, ,-5, ,
1, ,-5, ,
2, ,-5, ,
1, ,-5, ,
2, ,-5, ,
2, ,-5, ,
2, ,-5, ,
2, ,-5, ,
1, ,-5, ,
2, ,-5, ,
3, ,-5, ,
2, ,-5, ,
2, ,-5, ,
2, ,-4, ,
1, ,-5, ,
2, ,-5, ,
0, ,-5, ,
-1, ,-5, ,
1, ,-5, ,
0, ,-5, ,
0, ,-5, ,
0, ,-5, ,
0, ,-5, ,
1, ,-5, ,
1, ,-5, ,
1, ,-5, ,
2, ,-5, ,
1, ,-5, ,
2, ,-5, ,
3, ,-5, ,
2, ,-5, ,
2, ,-4, ,
2, ,-5, ,
2, ,-5, ,
1, ,-5, ,
0, ,-5, ,
1, ,-5, ,
1, ,-5, ,
0, ,-5, ,
0, ,-5, ,
0, ,-5, ,
0, ,-5, ,
1, ,-5, ,
1, ,-5, ,
1, ,-5, ,
1, ,-5, ,
0, ,-5, ,
2, ,-5, ,
0, ,-5, ,
0, ,-5, ,
1, ,-5, ,
-1, ,-5, ,
-1, ,-5, ,
-3, ,-5, ,
-4, ,-5, ,
-5, ,-5, ,
-6, ,-5, ,
-7, ,-5, ,
-7, ,-5, ,
-7, ,-5, ,
-7, ,-5, ,
-6, ,-4, ,
-7, ,-5, ,
-6, ,-5, ,
-7, ,-5, ,
-6, ,-5, ,
-6, ,-5, ,
-6, ,-5, ,
-7, ,-5, ,
-7, ,-5, ,
-10, ,-5, ,
-8, ,-4, ,
-12, ,-5, ,
-15, ,-5, ,
-15, ,-5, ,
-18, ,-5, ,
-17, ,-5, ,
-22, ,-4, ,
-23, ,-5, ,
-23, ,-5, ,
-25, ,-5, ,
-23, ,-5, ,
-23, ,-5, ,
-24, ,-5, ,
-24, ,-5, ,
-22, ,-5, ,
-24, ,-5, ,
-24, ,-4, ,
-24, ,-5, ,
-26, ,-5, ,
-26, ,-5, ,
-28, ,-5, ,
-30, ,-5, ,
-32, ,-5, ,
-32, ,-5, ,
-32, ,-5, ,
-33, ,-5, ,
-31, ,-5, ,
-29, ,-5, ,
-30, ,-5, ,
-27, ,-5, ,
-22, ,-5, ,
-20, ,-5, ,
-17, ,-5, ,
-14, ,-5, ,
-12, ,-5, ,
-9, ,-5, ,
-8, ,-5, ,
-6, ,-5, ,
-6, ,-5, ,
-7, ,-5, ,
-7, ,-5, ,
-8, ,-5, ,
-9, ,-5, ,
-8, ,-5, ,
-10, ,-5, ,
-10, ,-5, ,
-8, ,-5, ,
-9, ,-5, ,
-5, ,-5, ,
-5, ,-4, ,
-4, ,-5, ,
-2, ,-5, ,
-2, ,-5, ,
0, ,-5, ,
0, ,-4, ,
0, ,-5, ,
-1, ,-5, ,
-3, ,-5, ,
-4, ,-5, ,
-4, ,-5, ,
-7, ,-5, ,
-8, ,-5, ,
-10, ,-4, ,
-13, ,-5, ,
-14, ,-5, ,
-15, ,-5, ,
-17, ,-5, ,
-15, ,-5, ,
-16, ,-5, ,
-16, ,-5, ,
-15, ,-5, ,
-16, ,-5, ,
-16, ,-4, ,
-17, ,-5, ,
-18, ,-5, ,
-19, ,-5, ,
-21, ,-5, ,
-21, ,-5, ,
-25, ,-5, ,
-26, ,-5, ,
-26, ,-5, ,
-27, ,-5, ,
-27, ,-5, ,
-25, ,-5, ,
-24, ,-5, ,
-24, ,-5, ,
-21, ,-5, ,
-20, ,-5, ,
-18, ,-5, ,
-18, ,-5, ,
-19, ,-5, ,
-16, ,-5, ,
-18, ,-5, ,
-19, ,-5, ,
-20, ,-5, ,
-22, ,-5, ,
-23, ,-5, ,
-25, ,-5, ,
-26, ,-5, ,
-27, ,-5, ,
-28, ,-5, ,
-29, ,-5, ,
-31, ,-5, ,
-32, ,-5, ,
-32, ,-5, ,
-34, ,-5, ,
-34, ,-5, ,
-34, ,-5, ,
-34, ,-4, ,
-34, ,-5, ,
-31, ,-5, ,
-31, ,-5, ,
-30, ,-5, ,
-29, ,-5, ,
-28, ,-5, ,
-27, ,-5, ,
-27, ,-5, ,
-27, ,-5, ,
-27, ,-5, ,
-29, ,-5, ,
-29, ,-5, ,
-30, ,-5, ,
-30, ,-5, ,
-30, ,-5, ,
-30, ,-5, ,
-30, ,-5, ,
-29, ,-5, ,
-29, ,-5, ,
-28, ,-5, ,
-29, ,-5, ,
-28, ,-5, ,
-28, ,-5, ,
-29, ,-5, ,
-29, ,-5, ,
-32, ,-4, ,
-33, ,-5, ,
-33, ,-5, ,
-35, ,-4, ,
-36, ,-5, ,
-37, ,-5, ,
-37, ,-5, ,
-37, ,-5, ,
-36, ,-5, ,
-37, ,-5, ,
-34, ,-5, ,
-34, ,-5, ,
-33, ,-5, ,
-30, ,-5, ,
-32, ,-5, ,
-30, ,-5, ,
-30, ,-5, ,
-29, ,-5, ,
-29, ,-5, ,
-29, ,-5, ,
-28, ,-5, ,
-27, ,-5, ,
-27, ,-5, ,
-26, ,-5, ,
-22, ,-5, ,
-22, ,-5, ,
-20, ,-5, ,
-19, ,-5, ,
-17, ,-5, ,
-15, ,-5, ,
-15, ,-5, ,
-14, ,-5, ,
-10, ,-5, ,
-11, ,-5, ,
-8, ,-5, ,
-8, ,-5, ,
-4, ,-5, ,
-2, ,-4, ,
-2, ,-4, ,
0, ,-5, ,
2, ,-5, ,
2, ,-5, ,
2, ,-5, ,
3, ,-5, ,
3, ,-5, ,
4, ,-5, ,
4, ,-5, ,
4, ,-5, ,
4, ,-5, ,
4, ,-5, ,
5, ,-5, ,
5, ,-5, ,
5, ,-5, ,
7, ,-5, ,
6, ,-5, ,
6, ,-5, ,
9, ,-5, ,
6, ,-5, ,
7, ,-5, ,
4, ,-5, ,
3, ,-5, ,
4, ,-5, ,
2, ,-5, ,
2, ,-5, ,
0, ,-5, ,
0, ,-5, ,
2, ,-4, ,
-2, ,-4, ,
0, ,-5, ,
0, ,-5, ,
0, ,-5, ,
1, ,-5, ,
1, ,-5, ,
1, ,-5, ,
1, ,-5, ,
1, ,-5, ,
1, ,-5, ,
2, ,-5, ,
2, ,-5, ,
2, ,-5, ,
2, ,-5, ,
1, ,-5, ,
2, ,-5, ,
1, ,-5, ,
0, ,-5, ,
0, ,-4, ,
-2, ,-4, ,
-1, ,-5, ,
-3, ,-5, ,
-5, ,-5, ,
-5, ,-5, ,
-6, ,-5, ,
-8, ,-5, ,
-8, ,-5, ,
-10, ,-5, ,
-10, ,-5, ,
-11, ,-5, ,
-13, ,-5, ,
-14, ,-5, ,
-16, ,-4, ,
-18, ,-5, ,
-18, ,-5, ,
-20, ,-5, ,
-21, ,-5, ,
-23, ,-5, ,
-26, ,-5, ,
-26, ,-5, ,
-28, ,-5, ,
-31, ,-5, ,
-31, ,-4, ,
-32, ,-5, ,
-31, ,-5, ,
-34, ,-5, ,
-34, ,-5, ,
-33, ,-5, ,
-35, ,-5, ,
-34, ,-5, ,
-35, ,-5, ,
-34, ,-5, ,
-34, ,-5, ,
-34, ,-5, ,
-34, ,-5, ,
-34, ,-4, ,
-33, ,-5, ,
-33, ,-5, ,
-32, ,-4, ,
-29, ,-5, ,
-29, ,-5, ,
-26, ,-5, ,
-25, ,-5, ,
-24, ,-5, ,
-24, ,-5, ,
-18, ,-5, ,
-17, ,-5, ,
-17, ,-5, ,
-15, ,-5, ,
-12, ,-5, ,
-12, ,-5, ,
-11, ,-4, ,
-9, ,-5, ,
-7, ,-5, ,
-4, ,-5, ,
-3, ,-5, ,
1, ,-5, ,
3, ,-4, ,
4, ,-5, ,
6, ,-5, ,
7, ,-5, ,
10, ,-5, ,
11, ,-5, ,
10, ,-5, ,
11, ,-5, ,
13, ,-5, ,
13, ,-5, ,
14, ,-5, ,
14, ,-5, ,
14, ,-5, ,
15, ,-5, ,
15, ,-5, ,
15, ,-5, ,
14, ,-5, ,
13, ,-5, ,
13, ,-5, ,
10, ,-5, ,
9, ,-5, ,
8, ,-5, ,
7, ,-5, ,
5, ,-5, ,
4, ,-5, ,
2, ,-5, ,
3, ,-5, ,
1, ,-5, ,
0, ,-5, ,
0, ,-5, ,
0, ,-5, ,
-1, ,-5, ,
-2, ,-5, ,
-3, ,-5, ,
-3, ,-5, ,
-4, ,-5, ,
-5, ,-5, ,
-4, ,-5, ,
-7, ,-5, ,
-6, ,-5, ,
-8, ,-5, ,
-9, ,-5, ,
-9, ,-5, ,
-10, ,-5, ,
-11, ,-5, ,
-11, ,-5, ,
-12, ,-5, ,
-11, ,-5, ,
-13, ,-4, ,
-15, ,-5, ,
-16, ,-5, ,
-17, ,-5, ,
-20, ,-5, ,
-20, ,-5, ,
-22, ,-5, ,
-22, ,-5, ,
-23, ,-5, ,
-27, ,-5, ,
-27, ,-4, ,
-28, ,-5, ,
-30, ,-5, ,
-29, ,-5, ,
-31, ,-5, ,
-30, ,-5, ,
-32, ,-5, ,
-32, ,-5, ,
-32, ,-5, ,
-33, ,-5, ,
-32, ,-5, ,
-31, ,-5, ,
-32, ,-5, ,
-31, ,-5, ,
-30, ,-5, ,
-31, ,-5, ,
-29, ,-5, ,
-29, ,-5, ,
-28, ,-5, ,
-25, ,-5, ,
-24, ,-5, ,
-24, ,-5, ,
-21, ,-5, ,
-22, ,-5, ,
-19, ,-5, ,
-19, ,-5, ,
-17, ,-5, ,
-15, ,-5, ,
-15, ,-5, ,
-14, ,-5, ,
-12, ,-5, ,
-12, ,-5, ,
-12, ,-5, ,
-12, ,-5, ,
-10, ,-5, ,
-10, ,-5, ,
-9, ,-5, ,
-8, ,-5, ,
-7, ,-5, ,
-6, ,-5, ,
-6, ,-5, ,
-5, ,-4, ,
-5, ,-5, ,
-5, ,-5, ,
-6, ,-5, ,
-5, ,-5, ,
-5, ,-5, ,
-6, ,-5, ,
-4, ,-5, ,
-5, ,-5, ,
-6, ,-5, ,
-6, ,-5, ,
-7, ,-5, ,
-6, ,-5, ,
-6, ,-5, ,
-7, ,-5, ,
-6, ,-5, ,
-8, ,-5, ,
-9, ,-5, ,
-9, ,-5, ,
-10, ,-4, ,
-10, ,-5, ,
-10, ,-5, ,
-11, ,-5, ,
-11, ,-5, ,
-12, ,-5, ,
-13, ,-5, ,
-13, ,-5, ,
-13, ,-5, ,
-14, ,-5, ,
-12, ,-5, ,
-13, ,-5, ,
-12, ,-5, ,
-14, ,-5, ,
-15, ,-5, ,
-15, ,-5, ,
-15, ,-5, ,
-14, ,-5, ,
-14, ,-5, ,
-14, ,-5, ,
-14, ,-4, ,
-14, ,-5, ,
-13, ,-5, ,
-14, ,-5, ,
-11, ,-5, ,
-11, ,-5, ,
-9, ,-5, ,
-9, ,-5, ,
-7, ,-5, ,
-8, ,-5, ,
-7, ,-5, ,
-4, ,-5, ,
-4, ,-5, ,
-3, ,-5, ,
-2, ,-5, ,
-4, ,-5, ,
0, ,-4, ,
0, ,-5, ,
0, ,-5, ,
1, ,-5, ,
1, ,-5, ,
3, ,-5, ,
3, ,-5, ,
2, ,-5, ,
3, ,-5, ,
1, ,-4, ,
3, ,-5, ,
2, ,-5, ,
2, ,-5, ,
0, ,-5, ,
-1, ,-5, ,
-3, ,-5, ,
-3, ,-4, ,
-5, ,-5, ,
-6, ,-5, ,
-7, ,-5, ,
-8, ,-5, ,
-9, ,-5, ,
-10, ,-5, ,
-12, ,-5, ,
-11, ,-5, ,
-13, ,-4, ,
-15, ,-5, ,
-16, ,-5, ,
-16, ,-5, ,
-15, ,-5, ,
-15, ,-5, ,
-19, ,-5, ,
-16, ,-4, ,
-18, ,-5, ,
-16, ,-5, ,
-15, ,-5, ,
-14, ,-5, ,
-12, ,-5, ,
-11, ,-5, ,
-10, ,-5, ,
-7, ,-4, ,
-7, ,-5, ,
-7, ,-5, ,
-4, ,-5, ,
-4, ,-5, ,
-4, ,-5, ,
-1, ,-5, ,
-2, ,-5, ,
-1, ,-5, ,
0, ,-5, ,
1, ,-5, ,
2, ,-4, ,
1, ,-5, ,
2, ,-5, ,
1, ,-4, ,
1, ,-5, ,
1, ,-5, ,
0, ,-4, ,
-2, ,-5, ,
-1, ,-5, ,
-4, ,-5, ,
-4, ,-5, ,
-5, ,-5, ,
-6, ,-5, ,
-7, ,-4, ,
-8, ,-5, ,
-9, ,-5, ,
-8, ,-5, ,
-8, ,-5, ,
-8, ,-5, ,
-9, ,-5, ,
-9, ,-5, ,
-9, ,-5, ,
-10, ,-5, ,
-10, ,-5, ,
-10, ,-5, ,
-11, ,-5, ,
-10, ,-5, ,
-10, ,-5, ,
-10, ,-5, ,
-8, ,-5, ,
-9, ,-5, ,
-9, ,-5, ,
-8, ,-5, ,
-7, ,-5, ,
-7, ,-5, ,
-6, ,-5, ,
-6, ,-5, ,
-6, ,-5, ,
-7, ,-5, ,
-7, ,-5, ,
-6, ,-5, ,
-7, ,-5, ,
-7, ,-5, ,
-6, ,-5, ,
-7, ,-5, ,
-5, ,-4, ,
-5, ,-5, ,
-5, ,-5, ,
-5, ,-5, ,
-5, ,-5, ,
-5, ,-5, ,
-4, ,-5, ,
-4, ,-5, ,
-4, ,-5, ,
-4, ,-4, ,
-4, ,-5, ,
-3, ,-5, ,
-4, ,-5, ,
-3, ,-5, ,
-2, ,-5, ,
-3, ,-5, ,
-2, ,-5, ,
-2, ,-5, ,
-2, ,-5, ,
-1, ,-5, ,
0, ,-5, ,
1, ,-5, ,
1, ,-5, ,
0, ,-5, ,
0, ,-5, ,
-1, ,-5, ,
-1, ,-5, ,
-1, ,-5, ,
-2, ,-5, ,
-1, ,-5, ,
-1, ,-5, ,
-1, ,-5, ,
-1, ,-4, ,
-2, ,-5, ,
-2, ,-5, ,
0, ,-5, ,
-1, ,-5, ,
0, ,-5, ,
-2, ,-5, ,
-2, ,-5, ,
-2, ,-5, ,
-2, ,-5, ,
-2, ,-5, ,
-2, ,-5, ,
-3, ,-5, ,
-2, ,-4, ,
-1, ,-4, ,
-2, ,-5, ,
-1, ,-5, ,
-2, ,-5, ,
-1, ,-5, ,
-1, ,-5, ,
-1, ,-5, ,
-1, ,-5, ,
0, ,-5, ,
0, ,-5, ,
0, ,-5, ,
-1, ,-4, ,
0, ,-5, ,
0, ,-5, ,
-1, ,-5, ,
1, ,-5, ,
1, ,-5, ,
0, ,-5, ,
1, ,-5, ,
1, ,-5, ,
0, ,-5, ,
2, ,-5, ,
2, ,-5, ,
1, ,-5, ,
1, ,-5, ,
2, ,-5, ,
2, ,-5, ,
1, ,-4, ,
1, ,-5, ,
2, ,-5, ,
0, ,-5, ,
1, ,-5, ,
2, ,-5, ,
1, ,-5, ,
2, ,-5, ,
2, ,-5, ,
1, ,-5, ,
2, ,-5, ,
2, ,-5, ,
2, ,-5, ,
2, ,-5, ,
2, ,-5, ,
2, ,-5, ,
2, ,-4, ,
2, ,-5, ,
2, ,-5, ,
1, ,-5, ,
2, ,-5, ,
2, ,-5, ,
1, ,-5, ,
2, ,-4, ,
1, ,-5, ,
2, ,-5, ,
2, ,-5, ,
2, ,-5, ,
2, ,-5, ,
2, ,-5, ,
2, ,-5, ,
3, ,-5, ,
2, ,-5, ,
3, ,-5, ,
4, ,-4, ,
4, ,-5, ,
4, ,-5, ,
5, ,-5, ,
4, ,-5, ,
6, ,-5, ,
5, ,-5, ,
5, ,-5, ,
6, ,-5, ,
6, ,-5, ,
6, ,-5, ,
6, ,-4, ,
6, ,-5, ,
8, ,-5, ,
7, ,-4, ,
6, ,-5, ,
8, ,-5, ,
5, ,-5, ,
6, ,-5, ,
6, ,-5, ,
6, ,-5, ,
6, ,-5, ,
6, ,-5, ,
5, ,-5, ,
5, ,-5, ,
5, ,-5, ,
5, ,-5, ,
4, ,-5, ,
3, ,-5, ,
3, ,-5, ,
3, ,-5, ,
3, ,-5, ,
3, ,-5, ,
2, ,-5, ,
1, ,-5, ,
4, ,-5, ,
1, ,-5, ,
2, ,-5, ,
2, ,-5, ,
2, ,-5, ,
2, ,-5, ,
1, ,-5, ,
4, ,-5, ,
1, ,-4, ,
2, ,-5, ,
1, ,-5, ,
0, ,-5, ,
1, ,-5, ,
1, ,-5, ,
0, ,-5, ,
1, ,-5, ,
0, ,-5, ,
0, ,-5, ,
0, ,-5, ,
0, ,-5, ,
-1, ,-5, ,
-1, ,-5, ,
-3, ,-5, ,
-3, ,-5, ,
-3, ,-5, ,
-3, ,-5, ,
-3, ,-5, ,
-4, ,-5, ,
-4, ,-5, ,
-4, ,-5, ,
-5, ,-5, ,
-5, ,-5, ,
-6, ,-5, ,
-6, ,-5, ,
-6, ,-5, ,
-7, ,-5, ,
-7, ,-5, ,
-7, ,-4, ,
-6, ,-5, ,
-6, ,-5, ,
-5, ,-5, ,
-5, ,-5, ,
-5, ,-5, ,
-6, ,-4, ,
-5, ,-5, ,
-5, ,-5, ,
-6, ,-5, ,
-6, ,-4, ,
-5, ,-5, ,
-7, ,-5, ,
-6, ,-5, ,
-7, ,-5, ,
-7, ,-5, ,
-7, ,-5, ,
-8, ,-5, ,
-6, ,-5, ,
-7, ,-5, ,
-8, ,-5, ,
-7, ,-5, ,
-8, ,-4, ,
-8, ,-5, ,
-8, ,-5, ,
-8, ,-5, ,
-8, ,-5, ,
-8, ,-5, ,
-8, ,-5, ,
-9, ,-5, ,
-8, ,-5, ,
-8, ,-5, ,
-7, ,-5, ,
-7, ,-5, ,
-7, ,-5, ,
-6, ,-5, ,
-5, ,-5, ,
-5, ,-5, ,
-5, ,-4, ,
-4, ,-4, ,
-4, ,-5, ,
-4, ,-5, ,
-3, ,-5, ,
-2, ,-5, ,
-2, ,-5, ,
-1, ,-4, ,
-2, ,-5, ,
-2, ,-5, ,
0, ,-5, ,
-1, ,-5, ,
-1, ,-5, ,
0, ,-5, ,
0, ,-5, ,
0, ,-5, ,
-1, ,-5, ,
-1, ,-5, ,
0, ,-5, ,
-1, ,-5, ,
-1, ,-5, ,
-1, ,-5, ,
-1, ,-5, ,
-1, ,-5, ,
-1, ,-5, ,
-2, ,-5, ,
0, ,-5, ,
-2, ,-5, ,
-1, ,-5, ,
-1, ,-4, ,
-2, ,-5, ,
-2, ,-5, ,
-2, ,-4, ,
-2, ,-5, ,
-1, ,-5, ,
-2, ,-5, ,
-1, ,-5, ,
-1, ,-5, ,
-2, ,-5, ,
-2, ,-4, ,
-1, ,-5, ,
-3, ,-5, ,
0, ,-5, ,
0, ,-4, ,
0, ,-4, ,
0, ,-5, ,
0, ,-5, ,
2, ,-5, ,
2, ,-5, ,
2, ,-5, ,
3, ,-5, ,
1, ,-5, ,
2, ,-4, ,
1, ,-4, ,
1, ,-4, ,
2, ,-4, ,
1, ,-4, ,
0, ,-5, ,
1, ,-5, ,
1, ,-5, ,
1, ,-5, ,
1, ,-5, ,
0, ,-5, ,
-1, ,-5, ,
-1, ,-5, ,
-1, ,-5, ,
-1, ,-5, ,
-2, ,-5, ,
-2, ,-5, ,
-2, ,-5, ,
-4, ,-5, ,
-2, ,-4, ,
-2, ,-5, ,
-3, ,-5, ,
-3, ,-5, ,
-3, ,-5, ,
-2, ,-5, ,
-1, ,-5, ,
-1, ,-5, ,
-1, ,-5, ,
-2, ,-5, ,
-2, ,-5, ,
-1, ,-5, ,
-2, ,-5, ,
-1, ,-5, ,
-2, ,-5, ,
-3, ,-5, ,
-1, ,-5, ,
-1, ,-5, ,
-2, ,-5, ,
-2, ,-5, ,
-2, ,-5, ,
-2, ,-5, ,
-2, ,-5, ,
-3, ,-5, ,
-2, ,-5, ,
-4, ,-5, ,
-3, ,-5, ,
-4, ,-5, ,
-4, ,-5, ,
-3, ,-5, ,
-3, ,-5, ,
-4, ,-5, ,
-3, ,-4, ,
-4, ,-5, ,
-5, ,-5, ,
-4, ,-5, ,
-4, ,-5, ,
-5, ,-5, ,
-5, ,-5, ,
-4, ,-5, ,
-5, ,-5, ,
-5, ,-5, ,
-4, ,-5, ,
-3, ,-5, ,
-4, ,-5, ,
-4, ,-5, ,
-4, ,-5, ,
-4, ,-5, ,
-4, ,-4, ,
-4, ,-5, ,
-4, ,-5, ,
-3, ,-5, ,
-4, ,-4, ,
-2, ,-5, ,
-3, ,-5, ,
-2, ,-5, ,
-2, ,-5, ,
-2, ,-5, ,
-1, ,-5, ,
-1, ,-5, ,
-2, ,-5, ,
-2, ,-5, ,
0, ,-5, ,
0, ,-5, ,
0, ,-4, ,
0, ,-5, ,
0, ,-5, ,
2, ,-5, ,
1, ,-5, ,
2, ,-5, ,
1, ,-5, ,
1, ,-5, ,
2, ,-5, ,
1, ,-5, ,
1, ,-5, ,
1, ,-5, ,
0, ,-5, ,
1, ,-5, ,
0, ,-5, ,
0, ,-5, ,
1, ,-5, ,
0, ,-5, ,
0, ,-5, ,
0, ,-5, ,
0, ,-5, ,
0, ,-5, ,
0, ,-5, ,
1, ,-5, ,
0, ,-5, ,
0, ,-5, ,
1, ,-5, ,
2, ,-5, ,
0, ,-5, ,
1, ,-5, ,
0, ,-5, ,
0, ,-5, ,
0, ,-5, ,
-1, ,-5, ,
-1, ,-5, ,
0, ,-5, ,
1, ,-5, ,
1, ,-5, ,
0, ,-5, ,
0, ,-4, ,
0, ,-5, ,
0, ,-5, ,
0, ,-5, ,
0, ,-5, ,
0, ,-5, ,
0, ,-5, ,
-1, ,-5, ,
-1, ,-5, ,
-1, ,-5, ,
-1, ,-5, ,
-2, ,-5, ,
-1, ,-5, ,
-1, ,-5, ,
-1, ,-5, ,
-1, ,-5, ,
-1, ,-5, ,
0, ,-5, ,
-1, ,-5, ,
-2, ,-5, ,
-1, ,-5, ,
-2, ,-5, ,
-2, ,-5, ,
-1, ,-5, ,
-2, ,-5, ,
-1, ,-5, ,
-2, ,-5, ,
-2, ,-5, ,
-1, ,-5, ,
-2, ,-5, ,
-1, ,-5, ,
-2, ,-5, ,
-3, ,-5, ,
-2, ,-5, ,
-4, ,-5, ,
-2, ,-5, ,
-2, ,-5, ,
-3, ,-5, ,
-3, ,-5, ,
-3, ,-5, ,
-3, ,-5, ,
-2, ,-5, ,
-3, ,-5, ,
-4, ,-5, ,
-1, ,-4, ,
-2, ,-5, ,
-1, ,-5, ,
-1, ,-5, ,
-1, ,-5, ,
-1, ,-5, ,
-2, ,-5, ,
0, ,-5, ,
0, ,-5, ,
0, ,-5, ,
1, ,-5, ,
0, ,-5, ,
0, ,-5, ,
1, ,-5, ,
1, ,-5, ,
1, ,-5, ,
2, ,-5, ,
1, ,-5, ,
1, ,-5, ,
3, ,-4, ,
3, ,-5, ,
2, ,-5, ,
2, ,-5, ,
3, ,-5, ,
3, ,-5, ,
3, ,-5, ,
4, ,-5, ,
5, ,-4, ,
4, ,-5, ,
5, ,-5, ,
5, ,-4, ,
6, ,-4, ,
6, ,-4, ,
7, ,-5, ,
7, ,-5, ,
8, ,-4, ,
8, ,-4, ,
8, ,-4, ,
8, ,-4, ,
8, ,-5, ,
10, ,-5, ,
10, ,-5, ,
10, ,-5, ,
10, ,-5, ,
9, ,-5, ,
10, ,-5, ,
9, ,-5, ,
8, ,-5, ,
8, ,-5, ,
7, ,-5, ,
7, ,-5, ,
6, ,-5, ,
6, ,-4, ,
6, ,-5, ,
4, ,-5, ,
4, ,-4, ,
4, ,-4, ,
3, ,-5, ,
4, ,-5, ,
4, ,-4, ,
3, ,-5, ,
3, ,-5, ,
2, ,-5, ,
2, ,-5, ,
2, ,-5, ,
2, ,-5, ,
2, ,-5, ,
3, ,-5, ,
4, ,-5, ,
4, ,-4, ,
3, ,-5, ,
3, ,-5, ,
4, ,-5, ,
2, ,-5, ,
3, ,-5, ,
3, ,-5, ,
3, ,-5, ,
3, ,-5, ,
2, ,-5, ,
0, ,-5, ,
1, ,-5, ,
0, ,-5, ,
1, ,-5, ,
0, ,-5, ,
-1, ,-5, ,
-1, ,-5, ,
-2, ,-5, ,
-2, ,-5, ,
-2, ,-5, ,
-2, ,-5, ,
-2, ,-5, ,
-1, ,-5, ,
-4, ,-5, ,
-2, ,-5, ,
-2, ,-5, ,
-3, ,-5, ,
-2, ,-5, ,
-1, ,-5, ,
-1, ,-5, ,
-1, ,-5, ,
-1, ,-5, ,
-1, ,-5, ,
-2, ,-5, ,
0, ,-5, ,
2, ,-5, ,
1, ,-5, ,
3, ,-5, ,
3, ,-5, ,
3, ,-5, ,
4, ,-5, ,
4, ,-5, ,
3, ,-5, ,
4, ,-5, ,
4, ,-5, ,
5, ,-5, ,
4, ,-5, ,
3, ,-5, ,
4, ,-5, ,
4, ,-5, ,
4, ,-5, ,
4, ,-5, ,
2, ,-5, ,
3, ,-5, ,
2, ,-5, ,
1, ,-5, ,
1, ,-5, ,
1, ,-4, ,
0, ,-5, ,
0, ,-5, ,
0, ,-5, ,
0, ,-5, ,
-1, ,-4, ,
-1, ,-5, ,
-2, ,-5, ,
-2, ,-5, ,
-1, ,-5, ,
-1, ,-5, ,
-2, ,-5, ,
-2, ,-5, ,
-2, ,-4, ,
-3, ,-4, ,
-1, ,-4, ,
-1, ,-5, ,
-2, ,-5, ,
0, ,-5, ,
-1, ,-5, ,
0, ,-5, ,
0, ,-5, ,
0, ,-5, ,
0, ,-5, ,
-1, ,-4, ,
0, ,-5, ,
1, ,-5, ,
0, ,-5, ,
1, ,-5, ,
1, ,-5, ,
0, ,-5, ,
1, ,-5, ,
1, ,-5, ,
0, ,-5, ,
0, ,-5, ,
0, ,-5, ,
0, ,-5, ,
0, ,-5, ,
0, ,-5, ,
0, ,-5, ,
0, ,-5, ,
0, ,-5, ,
0, ,-5, ,
0, ,-5, ,
1, ,-5, ,
1, ,-5, ,
1, ,-5, ,
1, ,-5, ,
1, ,-5, ,
1, ,-5, ,
2, ,-5, ,
3, ,-5, ,
3, ,-5, ,
3, ,-5, ,
2, ,-5, ,
4, ,-5, ,
3, ,-5, ,
3, ,-5, ,
4, ,-5, ,
3, ,-5, ,
4, ,-5, ,
4, ,-5, ,
3, ,-5, ,
4, ,-4, ,
4, ,-5, ,
3, ,-5, ,
4, ,-5, ,
3, ,-5, ,
4, ,-5, ,
3, ,-5, ,
2, ,-5, ,
2, ,-5, ,
1, ,-5, ,
0, ,-5, ,
1, ,-4, ,
-1, ,-5, ,
0, ,-5, ,
-1, ,-5, ,
-2, ,-5, ,
-2, ,-4, ,
-2, ,-5, ,
-2, ,-5, ,
-2, ,-5, ,
-3, ,-5, ,
-3, ,-5, ,
-4, ,-5, ,
-4, ,-5, ,
-4, ,-5, ,
-4, ,-5, ,
-4, ,-5, ,
-4, ,-5, ,
-4, ,-5, ,
-4, ,-5, ,
-3, ,-5, ,
-4, ,-5, ,
-3, ,-5, ,
-4, ,-5, ,
-2, ,-5, ,
-2, ,-5, ,
-2, ,-5, ,
-2, ,-5, ,
-2, ,-5, ,
-1, ,-5, ,
-1, ,-5, ,
-2, ,-5, ,
-1, ,-5, ,
-1, ,-5, ,
-2, ,-5, ,
0, ,-5, ,
-1, ,-5, ,
0, ,-5, ,
-1, ,-5, ,
0, ,-5, ,
-1, ,-5, ,
-1, ,-5, ,
0, ,-5, ,
0, ,-5, ,
0, ,-5, ,
0, ,-5, ,
0, ,-5, ,
-1, ,-5, ,
-2, ,-5, ,
0, ,-5, ,
-1, ,-5, ,
-1, ,-5, ,
-1, ,-5, ,
-1, ,-5, ,
0, ,-5, ,
-1, ,-5, ,
-1, ,-5, ,
0, ,-5, ,
0, ,-5, ,
0, ,-5, ,
0, ,-5, ,
0, ,-5, ,
0, ,-5, ,
0, ,-5, ,
0, ,-5, ,
-1, ,-5, ,
-2, ,-5, ,
0, ,-5, ,
0, ,-5, ,
0, ,-5, ,
0, ,-5, ,
0, ,-5, ,
