raw_data/100% Glycerol, Impulsion 2Hz, Sonde 5MHz, Rampe 0.7Hz/temp0000378.CSV

Format,1.0B,
Memory Length,10000,Memory Length,10000,
IntpDistance,0,IntpDistance,0,
Trigger Address,159,Trigger Address,159,
Trigger Level,2.720E-01,Trigger Level,2.720E-01,
Source,CH1,Source,CH2,
Vertical Units,V,Vertical Units,V,
Vertical Units Div,0,Vertical Units Div,0,
Vertical Units Extend Div,16,Vertical Units Extend Div,16,
Label,,Label,,
Probe Type,0,Probe Type,0,
Probe Ratio,1.000e+00,Probe Ratio,1.000e+00,
Vertical Scale,2.000e-01,Vertical Scale,2.000e+00,
Vertical Position,0.000e+00,Vertical Position,0.000e+00,
Horizontal Units,S,Horizontal Units,S,
Horizontal Scale,5.000E-06,Horizontal Scale,5.000E-06,
Horizontal Position,2.420E-05,Horizontal Position,2.420E-05,
Horizontal Mode,Main,Horizontal Mode,Main,
SincET Mode,Real Time,SincET Mode,Real Time,
Sampling Period,5.000e-09,Sampling Period,5.000e-09,
Horizontal Old Scale,5.000E-06,Horizontal Old Scale,5.000E-06,
Horizontal Old Position,2.420E-05,Horizontal Old Position,2.420E-05,
Firmware,V1.32,Firmware,V1.32,
Mode,Fast,Mode,Fast,
Waveform Data,,Waveform Data,,
1, ,7, ,
3, ,6, ,
2, ,6, ,
2, ,6, ,
2, ,7, ,
2, ,6, ,
2, ,6, ,
3, ,7, ,
3, ,7, ,
3, ,7, ,
3, ,6, ,
2, ,6, ,
3, ,6, ,
2, ,6, ,
3, ,7, ,
3, ,7, ,
2, ,7, ,
3, ,6, ,
3, ,6, ,
1, ,7, ,
2, ,6, ,
2, ,6, ,
2, ,7, ,
3, ,7, ,
2, ,7, ,
2, ,7, ,
2, ,7, ,
2, ,7, ,
2, ,7, ,
2, ,7, ,
2, ,7, ,
3, ,6, ,
2, ,6, ,
2, ,6, ,
3, ,6, ,
2, ,6, ,
2, ,6, ,
2, ,7, ,
1, ,7, ,
3, ,7, ,
3, ,7, ,
3, ,6, ,
2, ,6, ,
1, ,6, ,
3, ,6, ,
3, ,7, ,
2, ,7, ,
2, ,7, ,
1, ,7, ,
3, ,6, ,
2, ,6, ,
1, ,6, ,
2, ,7, ,
2, ,7, ,
2, ,7, ,
2, ,7, ,
2, ,7, ,
2, ,7, ,
3, ,7, ,
2, ,7, ,
2, ,7, ,
2, ,7, ,
1, ,7, ,
2, ,6, ,
2, ,6, ,
1, ,6, ,
2, ,7, ,
2, ,7, ,
1, ,7, ,
2, ,6, ,
2, ,6, ,
2, ,7, ,
2, ,7, ,
2, ,6, ,
2, ,6, ,
1, ,6, ,
2, ,6, ,
2, ,6, ,
2, ,7, ,
2, ,7, ,
1, ,7, ,
2, ,7, ,
2, ,7, ,
2, ,7, ,
3, ,7, ,
2, ,7, ,
2, ,7, ,
3, ,6, ,
3, ,6, ,
2, ,6, ,
2, ,6, ,
2, ,6, ,
1, ,6, ,
1, ,7, ,
2, ,7, ,
2, ,6, ,
1, ,6, ,
3, ,6, ,
3, ,6, ,
2, ,6, ,
2, ,6, ,
2, ,7, ,
2, ,6, ,
2, ,6, ,
2, ,7, ,
2, ,6, ,
3, ,6, ,
1, ,7, ,
2, ,7, ,
2, ,7, ,
1, ,6, ,
2, ,6, ,
1, ,6, ,
1, ,7, ,
2, ,7, ,
1, ,7, ,
2, ,7, ,
1, ,7, ,
2, ,7, ,
2, ,6, ,
2, ,6, ,
2, ,6, ,
2, ,7, ,
1, ,7, ,
2, ,7, ,
1, ,7, ,
1, ,6, ,
2, ,6, ,
1, ,7, ,
2, ,6, ,
2, ,6, ,
2, ,7, ,
2, ,7, ,
3, ,7, ,
3, ,7, ,
3, ,7, ,
2, ,7, ,
2, ,7, ,
2, ,6, ,
1, ,6, ,
1, ,6, ,
0, ,7, ,
2, ,7, ,
2, ,7, ,
1, ,7, ,
3, ,7, ,
2, ,7, ,
1, ,7, ,
2, ,7, ,
1, ,7, ,
1, ,7, ,
2, ,7, ,
1, ,7, ,
2, ,6, ,
2, ,6, ,
1, ,6, ,
2, ,6, ,
1, ,6, ,
2, ,7, ,
2, ,7, ,
2, ,7, ,
2, ,7, ,
3, ,7, ,
1, ,7, ,
4, ,6, ,
-1, ,6, ,
-2, ,6, ,
0, ,6, ,
20, ,7, ,
70, ,6, ,
125, ,6, ,
125, ,7, ,
125, ,7, ,
122, ,7, ,
38, ,6, ,
-18, ,6, ,
53, ,7, ,
125, ,6, ,
125, ,6, ,
125, ,7, ,
125, ,7, ,
125, ,7, ,
125, ,7, ,
125, ,6, ,
125, ,6, ,
125, ,6, ,
125, ,6, ,
125, ,7, ,
125, ,7, ,
125, ,7, ,
125, ,7, ,
125, ,7, ,
125, ,7, ,
125, ,6, ,
125, ,6, ,
125, ,7, ,
125, ,6, ,
125, ,6, ,
125, ,7, ,
125, ,7, ,
125, ,7, ,
125, ,7, ,
124, ,7, ,
124, ,7, ,
123, ,7, ,
117, ,7, ,
107, ,6, ,
104, ,6, ,
99, ,7, ,
95, ,7, ,
87, ,7, ,
82, ,7, ,
80, ,7, ,
77, ,7, ,
68, ,7, ,
66, ,6, ,
63, ,6, ,
61, ,6, ,
55, ,7, ,
53, ,7, ,
49, ,6, ,
47, ,6, ,
43, ,6, ,
42, ,6, ,
38, ,7, ,
37, ,7, ,
34, ,7, ,
32, ,7, ,
30, ,7, ,
29, ,7, ,
25, ,7, ,
25, ,6, ,
23, ,6, ,
22, ,6, ,
20, ,6, ,
18, ,7, ,
18, ,7, ,
16, ,7, ,
15, ,7, ,
14, ,7, ,
12, ,7, ,
12, ,6, ,
11, ,6, ,
10, ,6, ,
9, ,6, ,
7, ,6, ,
6, ,7, ,
6, ,7, ,
5, ,6, ,
5, ,6, ,
5, ,6, ,
4, ,6, ,
4, ,6, ,
2, ,7, ,
2, ,6, ,
2, ,6, ,
1, ,6, ,
1, ,6, ,
1, ,7, ,
1, ,7, ,
1, ,7, ,
0, ,7, ,
-1, ,7, ,
0, ,6, ,
0, ,6, ,
-1, ,6, ,
-1, ,6, ,
-1, ,6, ,
-1, ,6, ,
-2, ,7, ,
-2, ,7, ,
-2, ,7, ,
-3, ,7, ,
-2, ,7, ,
-3, ,6, ,
-4, ,6, ,
-2, ,6, ,
-3, ,6, ,
-4, ,6, ,
-2, ,6, ,
-3, ,6, ,
-3, ,6, ,
-2, ,6, ,
-3, ,6, ,
-2, ,6, ,
-3, ,6, ,
-3, ,6, ,
-3, ,6, ,
-4, ,6, ,
-3, ,6, ,
-3, ,6, ,
-3, ,7, ,
-2, ,7, ,
-2, ,7, ,
-3, ,7, ,
-3, ,6, ,
-2, ,6, ,
-2, ,6, ,
-2, ,6, ,
-2, ,6, ,
-2, ,6, ,
-2, ,7, ,
-2, ,7, ,
-1, ,7, ,
-2, ,7, ,
-1, ,6, ,
-1, ,6, ,
-2, ,7, ,
-1, ,7, ,
-1, ,6, ,
-2, ,6, ,
-1, ,7, ,
-2, ,7, ,
0, ,6, ,
-1, ,6, ,
0, ,6, ,
-1, ,6, ,
-2, ,7, ,
0, ,7, ,
0, ,7, ,
0, ,7, ,
0, ,7, ,
0, ,6, ,
-2, ,6, ,
0, ,7, ,
0, ,7, ,
0, ,6, ,
0, ,6, ,
0, ,6, ,
0, ,6, ,
0, ,6, ,
1, ,6, ,
0, ,6, ,
1, ,6, ,
1, ,7, ,
0, ,6, ,
0, ,6, ,
1, ,6, ,
0, ,6, ,
0, ,7, ,
1, ,7, ,
0, ,7, ,
0, ,7, ,
0, ,7, ,
0, ,7, ,
0, ,7, ,
1, ,7, ,
1, ,7, ,
1, ,7, ,
0, ,7, ,
0, ,7, ,
0, ,7, ,
0, ,7, ,
0, ,7, ,
1, ,6, ,
1, ,6, ,
1, ,6, ,
1, ,7, ,
1, ,6, ,
2, ,6, ,
1, ,6, ,
2, ,6, ,
1, ,7, ,
1, ,7, ,
1, ,7, ,
0, ,7, ,
1, ,7, ,
1, ,7, ,
0, ,7, ,
1, ,7, ,
2, ,7, ,
1, ,7, ,
1, ,7, ,
1, ,7, ,
0, ,7, ,
1, ,7, ,
1, ,7, ,
1, ,7, ,
1, ,7, ,
1, ,7, ,
1, ,7, ,
1, ,7, ,
1, ,6, ,
2, ,6, ,
2, ,7, ,
1, ,6, ,
1, ,6, ,
1, ,7, ,
1, ,7, ,
1, ,7, ,
1, ,7, ,
2, ,6, ,
1, ,6, ,
2, ,6, ,
2, ,6, ,
2, ,6, ,
2, ,6, ,
1, ,6, ,
1, ,6, ,
2, ,6, ,
1, ,6, ,
1, ,6, ,
1, ,6, ,
1, ,6, ,
1, ,6, ,
1, ,6, ,
1, ,7, ,
1, ,7, ,
2, ,7, ,
1, ,7, ,
2, ,6, ,
1, ,6, ,
2, ,6, ,
1, ,6, ,
2, ,6, ,
2, ,6, ,
2, ,6, ,
2, ,7, ,
2, ,6, ,
1, ,6, ,
2, ,7, ,
1, ,7, ,
1, ,7, ,
1, ,7, ,
1, ,7, ,
1, ,7, ,
1, ,6, ,
1, ,6, ,
2, ,6, ,
1, ,7, ,
1, ,7, ,
2, ,7, ,
0, ,7, ,
2, ,6, ,
2, ,6, ,
1, ,6, ,
2, ,6, ,
1, ,6, ,
0, ,6, ,
1, ,7, ,
1, ,7, ,
1, ,6, ,
1, ,6, ,
-1, ,6, ,
-1, ,6, ,
-1, ,7, ,
-1, ,7, ,
-1, ,7, ,
-1, ,7, ,
0, ,7, ,
2, ,7, ,
1, ,7, ,
2, ,6, ,
1, ,6, ,
1, ,7, ,
2, ,7, ,
2, ,7, ,
2, ,7, ,
1, ,7, ,
2, ,7, ,
1, ,7, ,
1, ,7, ,
1, ,6, ,
2, ,6, ,
1, ,7, ,
2, ,7, ,
2, ,7, ,
1, ,7, ,
2, ,7, ,
1, ,6, ,
0, ,6, ,
2, ,6, ,
2, ,6, ,
2, ,6, ,
2, ,6, ,
2, ,6, ,
1, ,6, ,
1, ,6, ,
1, ,6, ,
2, ,6, ,
0, ,7, ,
1, ,6, ,
0, ,6, ,
0, ,7, ,
0, ,6, ,
0, ,6, ,
0, ,7, ,
0, ,6, ,
1, ,6, ,
1, ,6, ,
2, ,6, ,
2, ,6, ,
1, ,6, ,
1, ,6, ,
3, ,6, ,
2, ,6, ,
2, ,6, ,
1, ,6, ,
1, ,7, ,
0, ,7, ,
1, ,6, ,
0, ,6, ,
0, ,6, ,
1, ,6, ,
0, ,6, ,
0, ,6, ,
0, ,6, ,
0, ,6, ,
1, ,6, ,
0, ,6, ,
1, ,6, ,
2, ,6, ,
1, ,6, ,
0, ,7, ,
2, ,7, ,
0, ,7, ,
0, ,7, ,
-1, ,6, ,
-3, ,6, ,
-3, ,7, ,
-5, ,7, ,
-5, ,7, ,
-5, ,7, ,
-6, ,7, ,
-6, ,7, ,
-7, ,7, ,
-6, ,7, ,
-7, ,6, ,
-7, ,6, ,
-7, ,6, ,
-7, ,6, ,
-8, ,7, ,
-8, ,6, ,
-11, ,6, ,
-13, ,6, ,
-14, ,7, ,
-15, ,7, ,
-16, ,7, ,
-20, ,7, ,
-23, ,7, ,
-25, ,7, ,
-25, ,7, ,
-29, ,7, ,
-28, ,7, ,
-29, ,7, ,
-29, ,7, ,
-28, ,7, ,
-29, ,7, ,
-27, ,7, ,
-26, ,7, ,
-25, ,7, ,
-24, ,6, ,
-25, ,6, ,
-25, ,6, ,
-26, ,6, ,
-28, ,6, ,
-29, ,6, ,
-30, ,7, ,
-32, ,7, ,
-32, ,6, ,
-32, ,6, ,
-32, ,6, ,
-30, ,6, ,
-31, ,7, ,
-27, ,7, ,
-25, ,7, ,
-21, ,7, ,
-17, ,6, ,
-15, ,6, ,
-13, ,6, ,
-9, ,7, ,
-8, ,7, ,
-7, ,6, ,
-6, ,6, ,
-6, ,6, ,
-6, ,6, ,
-7, ,6, ,
-8, ,6, ,
-8, ,6, ,
-8, ,7, ,
-8, ,6, ,
-8, ,6, ,
-7, ,7, ,
-5, ,6, ,
-3, ,6, ,
-2, ,6, ,
0, ,7, ,
1, ,7, ,
1, ,7, ,
1, ,7, ,
1, ,6, ,
1, ,6, ,
-1, ,6, ,
-3, ,6, ,
-5, ,6, ,
-7, ,7, ,
-8, ,6, ,
-10, ,6, ,
-13, ,7, ,
-13, ,6, ,
-15, ,6, ,
-15, ,6, ,
-14, ,7, ,
-13, ,7, ,
-13, ,7, ,
-14, ,7, ,
-10, ,6, ,
-10, ,6, ,
-10, ,6, ,
-9, ,6, ,
-10, ,7, ,
-11, ,7, ,
-12, ,6, ,
-12, ,6, ,
-16, ,6, ,
-16, ,6, ,
-18, ,7, ,
-19, ,7, ,
-20, ,6, ,
-21, ,6, ,
-20, ,6, ,
-21, ,7, ,
-22, ,6, ,
-22, ,6, ,
-23, ,7, ,
-23, ,6, ,
-25, ,6, ,
-27, ,6, ,
-30, ,7, ,
-31, ,7, ,
-35, ,6, ,
-37, ,6, ,
-39, ,6, ,
-40, ,6, ,
-44, ,6, ,
-44, ,6, ,
-45, ,6, ,
-45, ,7, ,
-48, ,6, ,
-47, ,6, ,
-48, ,7, ,
-47, ,6, ,
-44, ,6, ,
-44, ,7, ,
-42, ,6, ,
-41, ,6, ,
-38, ,7, ,
-35, ,7, ,
-34, ,7, ,
-31, ,6, ,
-27, ,6, ,
-26, ,6, ,
-25, ,6, ,
-27, ,7, ,
-25, ,7, ,
-25, ,6, ,
-26, ,6, ,
-26, ,6, ,
-27, ,6, ,
-27, ,7, ,
-27, ,6, ,
-25, ,6, ,
-25, ,7, ,
-24, ,7, ,
-24, ,7, ,
-24, ,7, ,
-22, ,6, ,
-25, ,6, ,
-25, ,6, ,
-26, ,7, ,
-27, ,7, ,
-28, ,7, ,
-31, ,7, ,
-31, ,7, ,
-31, ,7, ,
-31, ,7, ,
-30, ,6, ,
-30, ,6, ,
-27, ,7, ,
-25, ,7, ,
-23, ,7, ,
-21, ,7, ,
-17, ,6, ,
-17, ,6, ,
-15, ,6, ,
-15, ,7, ,
-12, ,6, ,
-11, ,6, ,
-14, ,6, ,
-12, ,7, ,
-11, ,7, ,
-10, ,7, ,
-8, ,6, ,
-9, ,6, ,
-7, ,7, ,
-6, ,6, ,
-5, ,6, ,
-5, ,6, ,
-5, ,6, ,
-4, ,6, ,
-5, ,6, ,
-5, ,6, ,
-4, ,6, ,
-3, ,6, ,
-4, ,7, ,
-3, ,7, ,
-1, ,7, ,
-1, ,7, ,
0, ,6, ,
0, ,6, ,
0, ,6, ,
1, ,7, ,
1, ,7, ,
1, ,7, ,
1, ,7, ,
1, ,7, ,
2, ,7, ,
1, ,7, ,
3, ,6, ,
4, ,6, ,
3, ,7, ,
6, ,6, ,
6, ,6, ,
5, ,6, ,
8, ,6, ,
8, ,6, ,
8, ,6, ,
8, ,6, ,
8, ,7, ,
8, ,7, ,
7, ,7, ,
6, ,7, ,
6, ,7, ,
5, ,7, ,
5, ,6, ,
6, ,6, ,
5, ,7, ,
5, ,7, ,
5, ,6, ,
5, ,6, ,
5, ,6, ,
4, ,7, ,
2, ,7, ,
2, ,7, ,
0, ,7, ,
0, ,6, ,
-2, ,6, ,
-3, ,7, ,
-2, ,6, ,
-6, ,6, ,
-8, ,6, ,
-8, ,6, ,
-11, ,7, ,
-10, ,7, ,
-12, ,7, ,
-15, ,7, ,
-16, ,7, ,
-18, ,7, ,
-21, ,6, ,
-21, ,6, ,
-23, ,7, ,
-23, ,7, ,
-25, ,7, ,
-26, ,7, ,
-26, ,7, ,
-27, ,7, ,
-28, ,6, ,
-27, ,6, ,
-29, ,7, ,
-27, ,6, ,
-29, ,6, ,
-30, ,7, ,
-30, ,6, ,
-31, ,6, ,
-32, ,7, ,
-32, ,7, ,
-33, ,7, ,
-33, ,6, ,
-33, ,6, ,
-33, ,7, ,
-34, ,6, ,
-34, ,6, ,
-34, ,7, ,
-34, ,7, ,
-35, ,7, ,
-33, ,7, ,
-33, ,7, ,
-35, ,7, ,
-33, ,6, ,
-34, ,6, ,
-34, ,7, ,
-33, ,6, ,
-33, ,6, ,
-31, ,6, ,
-31, ,6, ,
-30, ,6, ,
-27, ,6, ,
-27, ,6, ,
-24, ,7, ,
-24, ,7, ,
-22, ,7, ,
-20, ,7, ,
-18, ,7, ,
-17, ,7, ,
-17, ,6, ,
-15, ,6, ,
-15, ,6, ,
-15, ,6, ,
-14, ,6, ,
-13, ,6, ,
-12, ,7, ,
-11, ,7, ,
-11, ,6, ,
-10, ,6, ,
-7, ,7, ,
-7, ,7, ,
-7, ,7, ,
-5, ,6, ,
-4, ,6, ,
-3, ,7, ,
-2, ,7, ,
-2, ,6, ,
1, ,6, ,
3, ,6, ,
5, ,6, ,
6, ,6, ,
10, ,7, ,
13, ,6, ,
13, ,6, ,
14, ,6, ,
16, ,7, ,
20, ,7, ,
20, ,7, ,
21, ,7, ,
24, ,6, ,
23, ,6, ,
25, ,7, ,
25, ,6, ,
24, ,6, ,
24, ,7, ,
23, ,7, ,
23, ,7, ,
20, ,7, ,
19, ,6, ,
19, ,6, ,
16, ,6, ,
12, ,7, ,
11, ,7, ,
7, ,7, ,
6, ,7, ,
0, ,7, ,
-2, ,7, ,
-3, ,6, ,
-8, ,6, ,
-13, ,6, ,
-13, ,6, ,
-15, ,6, ,
-17, ,6, ,
-20, ,6, ,
-21, ,7, ,
-22, ,7, ,
-24, ,7, ,
-25, ,6, ,
-24, ,6, ,
-25, ,6, ,
-24, ,7, ,
-24, ,7, ,
-24, ,7, ,
-24, ,7, ,
-24, ,7, ,
-22, ,7, ,
-21, ,6, ,
-20, ,6, ,
-20, ,6, ,
-19, ,7, ,
-18, ,7, ,
-18, ,6, ,
-19, ,6, ,
-19, ,7, ,
-17, ,7, ,
-17, ,7, ,
-17, ,7, ,
-17, ,7, ,
-17, ,7, ,
-17, ,7, ,
-18, ,6, ,
-18, ,6, ,
-17, ,7, ,
-18, ,7, ,
-17, ,6, ,
-17, ,6, ,
-17, ,7, ,
-17, ,7, ,
-17, ,7, ,
-17, ,6, ,
-16, ,6, ,
-16, ,6, ,
-15, ,6, ,
-16, ,6, ,
-17, ,7, ,
-17, ,6, ,
-17, ,6, ,
-18, ,7, ,
-18, ,7, ,
-19, ,6, ,
-19, ,6, ,
-20, ,6, ,
-21, ,6, ,
-21, ,6, ,
-22, ,6, ,
-22, ,7, ,
-22, ,7, ,
-23, ,7, ,
-23, ,7, ,
-24, ,6, ,
-25, ,6, ,
-24, ,6, ,
-24, ,6, ,
-24, ,7, ,
-22, ,7, ,
-22, ,7, ,
-22, ,7, ,
-19, ,6, ,
-19, ,6, ,
-17, ,6, ,
-17, ,7, ,
-15, ,7, ,
-12, ,6, ,
-11, ,6, ,
-10, ,6, ,
-9, ,6, ,
-9, ,6, ,
-8, ,6, ,
-9, ,7, ,
-8, ,7, ,
-8, ,6, ,
-9, ,6, ,
-9, ,6, ,
-10, ,7, ,
-10, ,7, ,
-10, ,7, ,
-11, ,7, ,
-12, ,7, ,
-11, ,6, ,
-11, ,6, ,
-11, ,6, ,
-12, ,6, ,
-13, ,7, ,
-12, ,6, ,
-12, ,6, ,
-12, ,7, ,
-12, ,7, ,
-12, ,7, ,
-12, ,7, ,
-10, ,7, ,
-10, ,7, ,
-10, ,7, ,
-10, ,7, ,
-9, ,7, ,
-9, ,7, ,
-9, ,7, ,
-8, ,7, ,
-9, ,7, ,
-9, ,7, ,
-9, ,7, ,
-10, ,7, ,
-11, ,7, ,
-11, ,7, ,
-13, ,7, ,
-13, ,7, ,
-15, ,6, ,
-16, ,6, ,
-16, ,6, ,
-17, ,7, ,
-17, ,7, ,
-17, ,7, ,
-18, ,7, ,
-19, ,7, ,
-18, ,7, ,
-18, ,7, ,
-17, ,7, ,
-17, ,7, ,
-16, ,6, ,
-14, ,6, ,
-14, ,6, ,
-11, ,6, ,
-8, ,6, ,
-7, ,7, ,
-4, ,6, ,
-2, ,6, ,
1, ,7, ,
3, ,7, ,
5, ,7, ,
9, ,7, ,
11, ,7, ,
11, ,7, ,
13, ,7, ,
13, ,7, ,
13, ,7, ,
13, ,6, ,
13, ,6, ,
12, ,6, ,
11, ,7, ,
10, ,7, ,
9, ,7, ,
8, ,7, ,
5, ,7, ,
5, ,7, ,
2, ,7, ,
1, ,7, ,
-3, ,7, ,
-5, ,7, ,
-7, ,7, ,
-8, ,7, ,
-11, ,6, ,
-11, ,6, ,
-12, ,6, ,
-13, ,6, ,
-13, ,6, ,
-14, ,6, ,
-13, ,6, ,
-14, ,6, ,
-13, ,7, ,
-13, ,6, ,
-13, ,6, ,
-12, ,6, ,
-11, ,7, ,
-12, ,7, ,
-10, ,6, ,
-10, ,6, ,
-10, ,7, ,
-8, ,6, ,
-8, ,6, ,
-6, ,6, ,
-5, ,7, ,
-5, ,6, ,
-4, ,6, ,
-4, ,6, ,
-2, ,7, ,
-2, ,7, ,
-2, ,7, ,
-1, ,7, ,
-1, ,7, ,
-1, ,7, ,
-1, ,7, ,
-2, ,7, ,
-2, ,7, ,
0, ,6, ,
0, ,6, ,
0, ,6, ,
2, ,7, ,
1, ,7, ,
3, ,6, ,
3, ,6, ,
4, ,6, ,
4, ,6, ,
3, ,7, ,
4, ,7, ,
4, ,7, ,
5, ,7, ,
5, ,7, ,
5, ,7, ,
5, ,7, ,
5, ,7, ,
6, ,7, ,
5, ,7, ,
6, ,7, ,
6, ,7, ,
7, ,7, ,
5, ,7, ,
4, ,7, ,
4, ,6, ,
3, ,6, ,
3, ,6, ,
3, ,7, ,
0, ,7, ,
0, ,7, ,
0, ,6, ,
-1, ,6, ,
-1, ,6, ,
-1, ,6, ,
-1, ,6, ,
-2, ,7, ,
-2, ,7, ,
-2, ,6, ,
-3, ,6, ,
-4, ,7, ,
-4, ,7, ,
-5, ,7, ,
-5, ,7, ,
-6, ,7, ,
-7, ,7, ,
-6, ,7, ,
-7, ,6, ,
-9, ,6, ,
-9, ,6, ,
-9, ,6, ,
-8, ,6, ,
-8, ,6, ,
-10, ,6, ,
-10, ,6, ,
-10, ,6, ,
-11, ,7, ,
-11, ,7, ,
-12, ,7, ,
-10, ,6, ,
-10, ,6, ,
-10, ,7, ,
-10, ,7, ,
-10, ,6, ,
-8, ,6, ,
-7, ,6, ,
-6, ,6, ,
-5, ,6, ,
-4, ,6, ,
-4, ,6, ,
-3, ,6, ,
-2, ,6, ,
-1, ,7, ,
1, ,7, ,
1, ,7, ,
2, ,7, ,
2, ,7, ,
1, ,7, ,
3, ,6, ,
3, ,6, ,
3, ,7, ,
3, ,6, ,
2, ,6, ,
3, ,6, ,
4, ,7, ,
3, ,7, ,
4, ,7, ,
1, ,7, ,
2, ,6, ,
2, ,6, ,
1, ,7, ,
1, ,7, ,
2, ,6, ,
-1, ,6, ,
-2, ,6, ,
-2, ,6, ,
-4, ,6, ,
-4, ,6, ,
-4, ,6, ,
-4, ,6, ,
-5, ,7, ,
-6, ,7, ,
-5, ,7, ,
-7, ,7, ,
-8, ,6, ,
-8, ,6, ,
-9, ,6, ,
-9, ,6, ,
-10, ,7, ,
-10, ,7, ,
-10, ,7, ,
-11, ,6, ,
-10, ,6, ,
-9, ,6, ,
-9, ,6, ,
-8, ,6, ,
-7, ,6, ,
-6, ,7, ,
-5, ,7, ,
-4, ,7, ,
-3, ,7, ,
0, ,7, ,
1, ,7, ,
1, ,7, ,
5, ,6, ,
5, ,6, ,
6, ,6, ,
8, ,7, ,
10, ,6, ,
11, ,6, ,
11, ,6, ,
13, ,6, ,
14, ,6, ,
15, ,6, ,
15, ,6, ,
15, ,7, ,
15, ,7, ,
15, ,7, ,
15, ,7, ,
16, ,6, ,
17, ,6, ,
15, ,7, ,
14, ,7, ,
14, ,7, ,
12, ,7, ,
12, ,7, ,
11, ,7, ,
10, ,7, ,
9, ,7, ,
9, ,7, ,
9, ,7, ,
7, ,7, ,
6, ,7, ,
6, ,7, ,
6, ,7, ,
5, ,7, ,
5, ,6, ,
4, ,6, ,
4, ,7, ,
3, ,7, ,
2, ,7, ,
2, ,7, ,
1, ,7, ,
2, ,7, ,
0, ,7, ,
0, ,6, ,
0, ,6, ,
0, ,6, ,
-1, ,6, ,
-1, ,6, ,
-1, ,6, ,
0, ,7, ,
-1, ,7, ,
-2, ,7, ,
-1, ,7, ,
-2, ,7, ,
-1, ,6, ,
-1, ,6, ,
-2, ,6, ,
-1, ,6, ,
-2, ,6, ,
-2, ,6, ,
-2, ,6, ,
-3, ,7, ,
-4, ,6, ,
-3, ,6, ,
-5, ,7, ,
-4, ,7, ,
-4, ,6, ,
-6, ,6, ,
-6, ,6, ,
-7, ,6, ,
-9, ,6, ,
-10, ,6, ,
-10, ,6, ,
-11, ,6, ,
-12, ,6, ,
-14, ,6, ,
-13, ,6, ,
-15, ,7, ,
-16, ,6, ,
-16, ,6, ,
-17, ,6, ,
-17, ,7, ,
-16, ,7, ,
-17, ,7, ,
-16, ,6, ,
-17, ,6, ,
-15, ,6, ,
-15, ,6, ,
-15, ,6, ,
-15, ,6, ,
-14, ,6, ,
-13, ,6, ,
-10, ,6, ,
-11, ,7, ,
-9, ,6, ,
-6, ,6, ,
-7, ,6, ,
-4, ,6, ,
-1, ,6, ,
-2, ,6, ,
1, ,7, ,
1, ,7, ,
3, ,7, ,
5, ,7, ,
6, ,7, ,
7, ,6, ,
8, ,6, ,
8, ,7, ,
9, ,7, ,
9, ,7, ,
9, ,7, ,
10, ,7, ,
10, ,7, ,
11, ,7, ,
11, ,7, ,
10, ,7, ,
10, ,7, ,
10, ,6, ,
9, ,6, ,
9, ,7, ,
8, ,7, ,
7, ,7, ,
6, ,7, ,
6, ,7, ,
6, ,7, ,
5, ,7, ,
4, ,7, ,
4, ,7, ,
2, ,7, ,
1, ,6, ,
-1, ,6, ,
-3, ,6, ,
-3, ,6, ,
-4, ,6, ,
-5, ,7, ,
-6, ,7, ,
-7, ,7, ,
-8, ,7, ,
-9, ,7, ,
-9, ,7, ,
-10, ,7, ,
-10, ,7, ,
-11, ,6, ,
-11, ,6, ,
-12, ,6, ,
-12, ,7, ,
-13, ,7, ,
-13, ,7, ,
-12, ,7, ,
-12, ,7, ,
-12, ,7, ,
-12, ,6, ,
-13, ,6, ,
-11, ,6, ,
-10, ,7, ,
-10, ,6, ,
-9, ,6, ,
-10, ,6, ,
-9, ,6, ,
-7, ,6, ,
-8, ,6, ,
-8, ,7, ,
-7, ,7, ,
-7, ,7, ,
-6, ,6, ,
-6, ,6, ,
-5, ,6, ,
-5, ,6, ,
-5, ,6, ,
-5, ,6, ,
-4, ,6, ,
-4, ,6, ,
-4, ,6, ,
-4, ,6, ,
-4, ,7, ,
-3, ,7, ,
-4, ,7, ,
-2, ,7, ,
-2, ,7, ,
-2, ,7, ,
-2, ,6, ,
-3, ,6, ,
-2, ,7, ,
-2, ,7, ,
-2, ,7, ,
-1, ,7, ,
0, ,7, ,
-1, ,7, ,
0, ,7, ,
0, ,7, ,
0, ,7, ,
0, ,7, ,
0, ,7, ,
0, ,7, ,
0, ,6, ,
-1, ,6, ,
1, ,7, ,
0, ,7, ,
0, ,7, ,
1, ,6, ,
0, ,6, ,
0, ,6, ,
0, ,6, ,
0, ,7, ,
-1, ,7, ,
-1, ,7, ,
-1, ,6, ,
-1, ,6, ,
-3, ,7, ,
-3, ,7, ,
-3, ,7, ,
-5, ,7, ,
-4, ,7, ,
-5, ,7, ,
-6, ,6, ,
-6, ,6, ,
-7, ,7, ,
-8, ,6, ,
-8, ,6, ,
-8, ,6, ,
-8, ,6, ,
-9, ,7, ,
-9, ,7, ,
-8, ,7, ,
-10, ,7, ,
-9, ,7, ,
-8, ,7, ,
-9, ,7, ,
-8, ,7, ,
-8, ,7, ,
-8, ,6, ,
-6, ,6, ,
-6, ,7, ,
-5, ,7, ,
-4, ,7, ,
-4, ,7, ,
-3, ,7, ,
-2, ,7, ,
-1, ,6, ,
0, ,6, ,
1, ,6, ,
1, ,6, ,
5, ,6, ,
4, ,6, ,
6, ,7, ,
6, ,7, ,
8, ,7, ,
8, ,6, ,
8, ,6, ,
11, ,6, ,
11, ,7, ,
13, ,6, ,
14, ,6, ,
13, ,6, ,
16, ,6, ,
17, ,6, ,
16, ,7, ,
18, ,6, ,
19, ,6, ,
19, ,7, ,
19, ,7, ,
20, ,7, ,
20, ,7, ,
20, ,6, ,
20, ,6, ,
19, ,6, ,
19, ,7, ,
19, ,6, ,
19, ,6, ,
17, ,6, ,
16, ,7, ,
16, ,7, ,
14, ,7, ,
14, ,7, ,
13, ,6, ,
11, ,6, ,
10, ,6, ,
9, ,7, ,
6, ,6, ,
6, ,6, ,
4, ,7, ,
4, ,7, ,
1, ,6, ,
0, ,6, ,
-1, ,6, ,
-3, ,6, ,
-4, ,7, ,
-3, ,7, ,
-4, ,7, ,
-5, ,7, ,
-5, ,7, ,
-6, ,7, ,
-5, ,7, ,
-6, ,7, ,
-6, ,7, ,
-6, ,7, ,
-6, ,7, ,
-5, ,7, ,
-5, ,6, ,
-5, ,6, ,
-5, ,6, ,
-5, ,7, ,
-4, ,7, ,
-4, ,6, ,
-5, ,6, ,
-4, ,6, ,
-3, ,7, ,
-5, ,7, ,
-4, ,6, ,
-5, ,6, ,
-7, ,7, ,
-6, ,7, ,
-6, ,7, ,
-7, ,7, ,
-8, ,6, ,
-9, ,6, ,
-8, ,6, ,
-9, ,7, ,
-9, ,6, ,
-10, ,6, ,
-11, ,7, ,
-11, ,6, ,
-11, ,6, ,
-11, ,7, ,
-12, ,6, ,
-12, ,6, ,
-11, ,6, ,
-11, ,6, ,
-11, ,6, ,
-11, ,6, ,
-10, ,6, ,
-10, ,6, ,
-10, ,6, ,
-10, ,7, ,
-9, ,6, ,
-8, ,6, ,
-8, ,6, ,
-8, ,6, ,
-6, ,7, ,
-7, ,7, ,
-6, ,6, ,
-6, ,6, ,
-6, ,7, ,
-6, ,7, ,
-5, ,7, ,
-5, ,6, ,
-4, ,6, ,
-3, ,6, ,
-3, ,6, ,
-4, ,7, ,
-4, ,6, ,
-3, ,6, ,
-4, ,7, ,
-2, ,7, ,
-3, ,7, ,
-3, ,7, ,
-2, ,6, ,
-3, ,6, ,
-3, ,7, ,
-1, ,7, ,
-2, ,7, ,
-2, ,6, ,
-1, ,6, ,
-2, ,7, ,
0, ,7, ,
-2, ,7, ,
-1, ,7, ,
-1, ,7, ,
-1, ,7, ,
0, ,7, ,
0, ,7, ,
0, ,7, ,
1, ,7, ,
0, ,7, ,
-1, ,7, ,
1, ,6, ,
0, ,6, ,
0, ,6, ,
0, ,7, ,
0, ,7, ,
0, ,7, ,
0, ,7, ,
0, ,7, ,
0, ,7, ,
0, ,7, ,
0, ,6, ,
0, ,6, ,
0, ,6, ,
0, ,7, ,
0, ,7, ,
2, ,7, ,
3, ,7, ,
2, ,7, ,
3, ,7, ,
4, ,6, ,
3, ,6, ,
4, ,6, ,
3, ,7, ,
6, ,7, ,
7, ,7, ,
6, ,7, ,
8, ,7, ,
9, ,7, ,
10, ,7, ,
10, ,7, ,
10, ,6, ,
10, ,6, ,
12, ,6, ,
11, ,6, ,
13, ,6, ,
12, ,6, ,
12, ,6, ,
12, ,6, ,
12, ,7, ,
12, ,7, ,
12, ,7, ,
11, ,7, ,
11, ,7, ,
10, ,6, ,
9, ,6, ,
10, ,7, ,
8, ,6, ,
9, ,6, ,
9, ,6, ,
8, ,6, ,
9, ,6, ,
7, ,6, ,
7, ,7, ,
5, ,6, ,
5, ,6, ,
4, ,7, ,
5, ,7, ,
3, ,7, ,
4, ,7, ,
4, ,6, ,
3, ,6, ,
3, ,6, ,
2, ,6, ,
0, ,7, ,
0, ,7, ,
0, ,7, ,
0, ,7, ,
-3, ,7, ,
-4, ,7, ,
-4, ,7, ,
-6, ,7, ,
-8, ,7, ,
-8, ,7, ,
-10, ,7, ,
-10, ,6, ,
-12, ,6, ,
-14, ,6, ,
-14, ,7, ,
-16, ,7, ,
-18, ,7, ,
-18, ,7, ,
-19, ,7, ,
-19, ,6, ,
-19, ,6, ,
-19, ,7, ,
-19, ,6, ,
-20, ,6, ,
-18, ,6, ,
-17, ,6, ,
-18, ,6, ,
-15, ,6, ,
-13, ,7, ,
-12, ,7, ,
-9, ,7, ,
-9, ,7, ,
-5, ,6, ,
-1, ,6, ,
-1, ,6, ,
4, ,6, ,
7, ,6, ,
10, ,6, ,
12, ,6, ,
13, ,7, ,
16, ,7, ,
19, ,7, ,
21, ,7, ,
22, ,7, ,
25, ,7, ,
24, ,7, ,
26, ,7, ,
25, ,7, ,
25, ,7, ,
25, ,7, ,
24, ,7, ,
24, ,6, ,
21, ,6, ,
20, ,6, ,
20, ,6, ,
16, ,6, ,
14, ,6, ,
13, ,6, ,
10, ,6, ,
11, ,7, ,
8, ,6, ,
7, ,6, ,
5, ,6, ,
4, ,7, ,
3, ,6, ,
2, ,6, ,
2, ,7, ,
2, ,7, ,
3, ,7, ,
3, ,7, ,
4, ,7, ,
1, ,7, ,
3, ,6, ,
5, ,6, ,
5, ,7, ,
6, ,7, ,
7, ,6, ,
6, ,6, ,
9, ,7, ,
8, ,6, ,
9, ,6, ,
10, ,7, ,
10, ,6, ,
10, ,6, ,
11, ,7, ,
10, ,7, ,
10, ,6, ,
9, ,6, ,
9, ,7, ,
10, ,7, ,
8, ,7, ,
8, ,7, ,
7, ,7, ,
6, ,7, ,
6, ,6, ,
5, ,6, ,
4, ,7, ,
4, ,7, ,
3, ,6, ,
3, ,6, ,
2, ,6, ,
2, ,7, ,
1, ,6, ,
0, ,6, ,
0, ,7, ,
0, ,7, ,
-1, ,7, ,
0, ,7, ,
0, ,7, ,
-1, ,7, ,
0, ,7, ,
0, ,7, ,
0, ,7, ,
1, ,6, ,
-2, ,6, ,
-2, ,6, ,
-1, ,6, ,
-3, ,7, ,
-3, ,7, ,
-4, ,7, ,
-4, ,7, ,
-4, ,7, ,
-4, ,7, ,
-5, ,7, ,
-6, ,7, ,
-7, ,7, ,
-7, ,7, ,
-7, ,7, ,
-8, ,7, ,
-10, ,7, ,
-10, ,7, ,
-10, ,7, ,
-11, ,6, ,
-12, ,6, ,
-12, ,6, ,
-13, ,7, ,
-15, ,7, ,
-13, ,7, ,
-14, ,7, ,
-14, ,7, ,
-14, ,7, ,
-15, ,7, ,
-13, ,7, ,
-14, ,7, ,
-13, ,7, ,
-12, ,7, ,
-12, ,7, ,
-12, ,7, ,
-9, ,7, ,
-9, ,7, ,
-7, ,6, ,
-7, ,6, ,
-4, ,6, ,
-4, ,6, ,
-3, ,7, ,
-1, ,7, ,
1, ,6, ,
3, ,6, ,
3, ,7, ,
5, ,7, ,
6, ,7, ,
8, ,7, ,
8, ,7, ,
9, ,7, ,
11, ,7, ,
11, ,7, ,
11, ,7, ,
12, ,7, ,
13, ,6, ,
13, ,6, ,
12, ,6, ,
13, ,6, ,
13, ,7, ,
12, ,7, ,
12, ,7, ,
10, ,6, ,
10, ,6, ,
10, ,7, ,
9, ,7, ,
9, ,7, ,
7, ,7, ,
5, ,7, ,
5, ,7, ,
3, ,7, ,
1, ,7, ,
2, ,7, ,
-1, ,7, ,
-1, ,6, ,
-3, ,6, ,
-5, ,7, ,
-5, ,6, ,
-6, ,6, ,
-8, ,7, ,
-9, ,7, ,
-10, ,6, ,
-10, ,6, ,
-12, ,6, ,
-13, ,6, ,
-12, ,6, ,
-14, ,7, ,
-15, ,7, ,
-15, ,7, ,
-15, ,7, ,
-15, ,7, ,
-15, ,6, ,
-17, ,6, ,
-16, ,6, ,
-16, ,6, ,
-17, ,7, ,
-15, ,7, ,
-15, ,7, ,
-15, ,7, ,
-15, ,7, ,
-16, ,7, ,
-13, ,7, ,
-14, ,7, ,
-13, ,7, ,
-12, ,7, ,
-12, ,7, ,
-11, ,7, ,
-10, ,7, ,
-9, ,7, ,
-8, ,6, ,
-9, ,6, ,
-7, ,7, ,
-5, ,7, ,
-5, ,7, ,
-4, ,7, ,
-2, ,7, ,
-2, ,7, ,
-2, ,7, ,
-1, ,7, ,
0, ,7, ,
1, ,7, ,
0, ,7, ,
1, ,6, ,
4, ,6, ,
3, ,6, ,
5, ,7, ,
5, ,7, ,
6, ,7, ,
7, ,6, ,
7, ,6, ,
8, ,6, ,
7, ,7, ,
9, ,7, ,
9, ,7, ,
8, ,7, ,
9, ,6, ,
10, ,6, ,
10, ,6, ,
11, ,7, ,
12, ,7, ,
10, ,7, ,
12, ,7, ,
11, ,7, ,
10, ,7, ,
11, ,7, ,
10, ,7, ,
10, ,7, ,
10, ,7, ,
10, ,7, ,
11, ,7, ,
11, ,7, ,
10, ,6, ,
10, ,6, ,
10, ,6, ,
10, ,7, ,
10, ,7, ,
9, ,7, ,
10, ,7, ,
9, ,7, ,
9, ,7, ,
8, ,6, ,
9, ,6, ,
9, ,6, ,
9, ,7, ,
8, ,6, ,
8, ,6, ,
7, ,6, ,
6, ,7, ,
8, ,7, ,
8, ,7, ,
8, ,7, ,
7, ,7, ,
6, ,7, ,
7, ,7, ,
7, ,7, ,
6, ,7, ,
6, ,7, ,
5, ,7, ,
5, ,7, ,
4, ,6, ,
4, ,6, ,
4, ,6, ,
3, ,6, ,
3, ,6, ,
3, ,6, ,
2, ,6, ,
2, ,6, ,
0, ,6, ,
0, ,6, ,
-1, ,6, ,
-1, ,6, ,
-3, ,6, ,
-3, ,6, ,
-5, ,7, ,
-5, ,7, ,
-5, ,7, ,
-5, ,7, ,
-5, ,7, ,
-7, ,7, ,
-7, ,7, ,
-7, ,7, ,
