raw_data/100% Glycerol, Impulsion 2Hz, Sonde 5MHz, Rampe 0.7Hz/temp0000380.CSV

Format,1.0B,
Memory Length,10000,Memory Length,10000,
IntpDistance,0,IntpDistance,0,
Trigger Address,159,Trigger Address,159,
Trigger Level,2.720E-01,Trigger Level,2.720E-01,
Source,CH1,Source,CH2,
Vertical Units,V,Vertical Units,V,
Vertical Units Div,0,Vertical Units Div,0,
Vertical Units Extend Div,16,Vertical Units Extend Div,16,
Label,,Label,,
Probe Type,0,Probe Type,0,
Probe Ratio,1.000e+00,Probe Ratio,1.000e+00,
Vertical Scale,2.000e-01,Vertical Scale,2.000e+00,
Vertical Position,0.000e+00,Vertical Position,0.000e+00,
Horizontal Units,S,Horizontal Units,S,
Horizontal Scale,5.000E-06,Horizontal Scale,5.000E-06,
Horizontal Position,2.420E-05,Horizontal Position,2.420E-05,
Horizontal Mode,Main,Horizontal Mode,Main,
SincET Mode,Real Time,SincET Mode,Real Time,
Sampling Period,5.000e-09,Sampling Period,5.000e-09,
Horizontal Old Scale,5.000E-06,Horizontal Old Scale,5.000E-06,
Horizontal Old Position,2.420E-05,Horizontal Old Position,2.420E-05,
Firmware,V1.32,Firmware,V1.32,
Mode,Fast,Mode,Fast,
Waveform Data,,Waveform Data,,
3, ,-15, ,
2, ,-15, ,
2, ,-15, ,
2, ,-15, ,
2, ,-15, ,
1, ,-15, ,
2, ,-15, ,
2, ,-15, ,
2, ,-15, ,
2, ,-15, ,
2, ,-15, ,
2, ,-15, ,
2, ,-15, ,
1, ,-15, ,
2, ,-15, ,
2, ,-15, ,
1, ,-15, ,
1, ,-15, ,
1, ,-15, ,
1, ,-15, ,
1, ,-15, ,
1, ,-15, ,
1, ,-15, ,
1, ,-15, ,
1, ,-15, ,
2, ,-15, ,
2, ,-15, ,
1, ,-15, ,
2, ,-15, ,
1, ,-15, ,
2, ,-15, ,
2, ,-15, ,
1, ,-15, ,
1, ,-15, ,
1, ,-15, ,
1, ,-15, ,
2, ,-15, ,
1, ,-15, ,
0, ,-15, ,
2, ,-15, ,
1, ,-15, ,
2, ,-15, ,
3, ,-15, ,
2, ,-15, ,
2, ,-15, ,
1, ,-15, ,
2, ,-15, ,
2, ,-15, ,
1, ,-15, ,
2, ,-15, ,
2, ,-15, ,
2, ,-15, ,
2, ,-15, ,
1, ,-15, ,
1, ,-15, ,
2, ,-15, ,
2, ,-15, ,
2, ,-15, ,
2, ,-15, ,
1, ,-15, ,
2, ,-15, ,
2, ,-15, ,
1, ,-15, ,
1, ,-15, ,
0, ,-15, ,
2, ,-15, ,
2, ,-15, ,
1, ,-15, ,
2, ,-15, ,
1, ,-15, ,
1, ,-15, ,
1, ,-15, ,
1, ,-15, ,
2, ,-15, ,
2, ,-15, ,
2, ,-15, ,
2, ,-15, ,
1, ,-15, ,
1, ,-15, ,
3, ,-15, ,
1, ,-15, ,
1, ,-15, ,
3, ,-15, ,
1, ,-15, ,
2, ,-15, ,
2, ,-15, ,
2, ,-15, ,
2, ,-15, ,
1, ,-15, ,
2, ,-15, ,
1, ,-15, ,
1, ,-15, ,
2, ,-15, ,
1, ,-15, ,
2, ,-15, ,
2, ,-15, ,
1, ,-15, ,
2, ,-15, ,
2, ,-15, ,
2, ,-15, ,
3, ,-15, ,
2, ,-15, ,
2, ,-15, ,
3, ,-15, ,
2, ,-15, ,
2, ,-15, ,
1, ,-15, ,
2, ,-15, ,
2, ,-15, ,
2, ,-15, ,
1, ,-15, ,
2, ,-15, ,
1, ,-15, ,
1, ,-15, ,
1, ,-15, ,
1, ,-15, ,
1, ,-15, ,
1, ,-15, ,
1, ,-15, ,
2, ,-15, ,
2, ,-15, ,
2, ,-15, ,
2, ,-15, ,
2, ,-15, ,
1, ,-15, ,
1, ,-15, ,
1, ,-15, ,
2, ,-15, ,
1, ,-15, ,
2, ,-15, ,
2, ,-15, ,
1, ,-15, ,
2, ,-15, ,
2, ,-15, ,
1, ,-15, ,
2, ,-15, ,
2, ,-15, ,
2, ,-15, ,
2, ,-15, ,
1, ,-15, ,
2, ,-15, ,
2, ,-15, ,
2, ,-15, ,
2, ,-15, ,
1, ,-15, ,
2, ,-15, ,
3, ,-15, ,
1, ,-15, ,
3, ,-15, ,
2, ,-15, ,
1, ,-15, ,
2, ,-15, ,
1, ,-15, ,
2, ,-15, ,
1, ,-15, ,
1, ,-15, ,
2, ,-15, ,
1, ,-15, ,
1, ,-15, ,
2, ,-15, ,
0, ,-15, ,
1, ,-15, ,
2, ,-15, ,
2, ,-15, ,
7, ,-15, ,
-1, ,-15, ,
-1, ,-15, ,
3, ,-15, ,
33, ,-15, ,
94, ,-15, ,
125, ,-15, ,
125, ,-15, ,
125, ,-15, ,
121, ,-15, ,
7, ,-15, ,
-8, ,-15, ,
95, ,-15, ,
125, ,-15, ,
125, ,-15, ,
125, ,-15, ,
125, ,-15, ,
125, ,-15, ,
125, ,-15, ,
125, ,-15, ,
125, ,-15, ,
125, ,-15, ,
125, ,-15, ,
125, ,-15, ,
125, ,-15, ,
125, ,-15, ,
125, ,-15, ,
125, ,-15, ,
125, ,-15, ,
125, ,-15, ,
125, ,-15, ,
125, ,-15, ,
125, ,-15, ,
125, ,-15, ,
125, ,-15, ,
125, ,-15, ,
125, ,-15, ,
125, ,-15, ,
124, ,-15, ,
124, ,-15, ,
122, ,-15, ,
114, ,-15, ,
105, ,-15, ,
103, ,-15, ,
98, ,-15, ,
94, ,-15, ,
87, ,-15, ,
81, ,-15, ,
78, ,-15, ,
74, ,-15, ,
67, ,-15, ,
65, ,-15, ,
61, ,-15, ,
59, ,-15, ,
54, ,-15, ,
50, ,-15, ,
49, ,-15, ,
46, ,-15, ,
41, ,-15, ,
41, ,-15, ,
36, ,-15, ,
36, ,-15, ,
34, ,-15, ,
31, ,-15, ,
32, ,-15, ,
29, ,-15, ,
25, ,-15, ,
24, ,-15, ,
23, ,-15, ,
21, ,-15, ,
19, ,-15, ,
17, ,-15, ,
17, ,-15, ,
15, ,-15, ,
14, ,-15, ,
13, ,-15, ,
12, ,-15, ,
11, ,-15, ,
10, ,-15, ,
8, ,-15, ,
8, ,-15, ,
8, ,-15, ,
7, ,-15, ,
7, ,-15, ,
5, ,-15, ,
5, ,-15, ,
4, ,-15, ,
4, ,-15, ,
4, ,-15, ,
2, ,-15, ,
2, ,-15, ,
2, ,-15, ,
1, ,-15, ,
2, ,-15, ,
1, ,-15, ,
1, ,-15, ,
0, ,-15, ,
0, ,-15, ,
-1, ,-15, ,
-1, ,-15, ,
-1, ,-15, ,
-1, ,-15, ,
-1, ,-15, ,
-1, ,-15, ,
-2, ,-15, ,
-2, ,-15, ,
-2, ,-15, ,
-3, ,-15, ,
-2, ,-15, ,
-4, ,-15, ,
-2, ,-15, ,
-3, ,-15, ,
-2, ,-15, ,
-3, ,-15, ,
-3, ,-15, ,
-2, ,-15, ,
-2, ,-15, ,
-3, ,-15, ,
-3, ,-15, ,
-3, ,-15, ,
-3, ,-15, ,
-3, ,-15, ,
-3, ,-15, ,
-3, ,-15, ,
-3, ,-15, ,
-2, ,-15, ,
-2, ,-15, ,
-3, ,-15, ,
-3, ,-15, ,
-3, ,-15, ,
-4, ,-15, ,
-2, ,-15, ,
-2, ,-15, ,
-2, ,-15, ,
-3, ,-15, ,
-4, ,-15, ,
-2, ,-15, ,
-2, ,-15, ,
-2, ,-15, ,
-2, ,-15, ,
-2, ,-15, ,
-2, ,-15, ,
-1, ,-15, ,
-2, ,-15, ,
-1, ,-15, ,
-2, ,-15, ,
-2, ,-15, ,
-2, ,-15, ,
-1, ,-15, ,
-1, ,-15, ,
-1, ,-15, ,
-2, ,-15, ,
-1, ,-15, ,
-2, ,-15, ,
-1, ,-15, ,
-1, ,-15, ,
-1, ,-15, ,
-1, ,-15, ,
0, ,-15, ,
0, ,-15, ,
0, ,-15, ,
-1, ,-15, ,
-1, ,-15, ,
-1, ,-15, ,
-2, ,-15, ,
-1, ,-15, ,
0, ,-15, ,
-1, ,-15, ,
-1, ,-15, ,
-2, ,-15, ,
-1, ,-15, ,
0, ,-15, ,
-1, ,-15, ,
0, ,-15, ,
0, ,-15, ,
0, ,-15, ,
0, ,-15, ,
0, ,-15, ,
0, ,-15, ,
0, ,-15, ,
0, ,-15, ,
0, ,-15, ,
1, ,-15, ,
0, ,-15, ,
1, ,-15, ,
0, ,-15, ,
0, ,-15, ,
0, ,-15, ,
-2, ,-15, ,
0, ,-15, ,
0, ,-15, ,
0, ,-15, ,
0, ,-15, ,
0, ,-15, ,
0, ,-15, ,
1, ,-15, ,
1, ,-15, ,
0, ,-15, ,
1, ,-15, ,
0, ,-15, ,
1, ,-15, ,
0, ,-15, ,
1, ,-15, ,
2, ,-15, ,
0, ,-15, ,
1, ,-15, ,
1, ,-15, ,
0, ,-15, ,
0, ,-15, ,
0, ,-15, ,
1, ,-15, ,
1, ,-15, ,
1, ,-15, ,
1, ,-15, ,
1, ,-15, ,
1, ,-15, ,
1, ,-15, ,
0, ,-15, ,
2, ,-15, ,
1, ,-15, ,
1, ,-15, ,
2, ,-15, ,
2, ,-15, ,
1, ,-15, ,
1, ,-15, ,
1, ,-15, ,
0, ,-15, ,
1, ,-15, ,
1, ,-15, ,
1, ,-15, ,
1, ,-15, ,
1, ,-15, ,
1, ,-15, ,
1, ,-15, ,
1, ,-15, ,
2, ,-15, ,
2, ,-15, ,
2, ,-15, ,
2, ,-15, ,
1, ,-15, ,
2, ,-15, ,
1, ,-15, ,
1, ,-15, ,
1, ,-15, ,
2, ,-15, ,
2, ,-15, ,
1, ,-15, ,
2, ,-15, ,
2, ,-15, ,
2, ,-15, ,
1, ,-15, ,
2, ,-15, ,
1, ,-15, ,
2, ,-15, ,
2, ,-15, ,
0, ,-15, ,
2, ,-15, ,
1, ,-15, ,
1, ,-15, ,
2, ,-15, ,
0, ,-15, ,
0, ,-15, ,
0, ,-15, ,
1, ,-15, ,
1, ,-15, ,
0, ,-15, ,
0, ,-15, ,
1, ,-15, ,
1, ,-15, ,
2, ,-15, ,
2, ,-15, ,
1, ,-15, ,
1, ,-15, ,
1, ,-15, ,
0, ,-15, ,
0, ,-15, ,
0, ,-15, ,
0, ,-15, ,
0, ,-15, ,
-1, ,-15, ,
-1, ,-15, ,
-2, ,-15, ,
-1, ,-15, ,
0, ,-15, ,
0, ,-15, ,
1, ,-15, ,
1, ,-15, ,
1, ,-15, ,
2, ,-15, ,
1, ,-15, ,
1, ,-15, ,
2, ,-15, ,
2, ,-15, ,
2, ,-15, ,
2, ,-15, ,
1, ,-15, ,
2, ,-15, ,
1, ,-15, ,
1, ,-15, ,
1, ,-15, ,
0, ,-15, ,
1, ,-15, ,
2, ,-15, ,
1, ,-15, ,
1, ,-15, ,
1, ,-15, ,
1, ,-15, ,
1, ,-15, ,
0, ,-15, ,
2, ,-15, ,
3, ,-15, ,
2, ,-15, ,
3, ,-15, ,
1, ,-15, ,
1, ,-15, ,
1, ,-15, ,
0, ,-15, ,
0, ,-15, ,
0, ,-15, ,
-1, ,-15, ,
-1, ,-15, ,
0, ,-15, ,
0, ,-15, ,
1, ,-15, ,
1, ,-15, ,
1, ,-15, ,
2, ,-15, ,
1, ,-15, ,
3, ,-15, ,
1, ,-15, ,
1, ,-15, ,
2, ,-15, ,
1, ,-15, ,
1, ,-15, ,
1, ,-15, ,
0, ,-15, ,
0, ,-15, ,
0, ,-15, ,
-1, ,-15, ,
0, ,-15, ,
0, ,-15, ,
0, ,-15, ,
1, ,-15, ,
0, ,-15, ,
1, ,-15, ,
0, ,-15, ,
1, ,-15, ,
1, ,-15, ,
1, ,-15, ,
1, ,-15, ,
1, ,-15, ,
0, ,-15, ,
0, ,-15, ,
-2, ,-15, ,
-3, ,-15, ,
-3, ,-15, ,
-5, ,-15, ,
-5, ,-15, ,
-6, ,-15, ,
-6, ,-15, ,
-5, ,-15, ,
-8, ,-15, ,
-7, ,-15, ,
-7, ,-15, ,
-7, ,-15, ,
-7, ,-15, ,
-7, ,-15, ,
-9, ,-15, ,
-9, ,-15, ,
-10, ,-15, ,
-13, ,-15, ,
-14, ,-15, ,
-17, ,-15, ,
-16, ,-15, ,
-21, ,-15, ,
-23, ,-15, ,
-23, ,-15, ,
-26, ,-15, ,
-28, ,-15, ,
-28, ,-15, ,
-29, ,-15, ,
-29, ,-15, ,
-29, ,-15, ,
-27, ,-15, ,
-27, ,-15, ,
-27, ,-15, ,
-25, ,-15, ,
-25, ,-15, ,
-25, ,-15, ,
-25, ,-15, ,
-26, ,-15, ,
-28, ,-15, ,
-29, ,-15, ,
-31, ,-15, ,
-33, ,-15, ,
-32, ,-15, ,
-33, ,-15, ,
-31, ,-15, ,
-29, ,-15, ,
-29, ,-15, ,
-26, ,-15, ,
-24, ,-15, ,
-20, ,-15, ,
-17, ,-15, ,
-16, ,-15, ,
-12, ,-15, ,
-10, ,-15, ,
-8, ,-15, ,
-6, ,-15, ,
-7, ,-15, ,
-6, ,-15, ,
-6, ,-15, ,
-8, ,-15, ,
-8, ,-15, ,
-8, ,-15, ,
-9, ,-15, ,
-9, ,-15, ,
-7, ,-15, ,
-7, ,-15, ,
-5, ,-15, ,
-4, ,-15, ,
-2, ,-15, ,
0, ,-15, ,
0, ,-15, ,
1, ,-15, ,
0, ,-15, ,
-1, ,-15, ,
0, ,-15, ,
-2, ,-15, ,
-3, ,-15, ,
-5, ,-15, ,
-8, ,-15, ,
-8, ,-15, ,
-11, ,-15, ,
-14, ,-15, ,
-15, ,-15, ,
-15, ,-15, ,
-15, ,-15, ,
-14, ,-15, ,
-13, ,-15, ,
-13, ,-15, ,
-13, ,-15, ,
-10, ,-15, ,
-10, ,-15, ,
-10, ,-15, ,
-10, ,-15, ,
-10, ,-15, ,
-12, ,-15, ,
-11, ,-15, ,
-14, ,-15, ,
-17, ,-15, ,
-18, ,-15, ,
-20, ,-15, ,
-20, ,-15, ,
-20, ,-15, ,
-20, ,-15, ,
-21, ,-15, ,
-22, ,-15, ,
-22, ,-15, ,
-23, ,-15, ,
-23, ,-15, ,
-25, ,-15, ,
-26, ,-15, ,
-29, ,-15, ,
-30, ,-15, ,
-33, ,-15, ,
-36, ,-15, ,
-37, ,-15, ,
-40, ,-15, ,
-42, ,-15, ,
-45, ,-15, ,
-46, ,-15, ,
-45, ,-15, ,
-47, ,-15, ,
-47, ,-15, ,
-46, ,-15, ,
-47, ,-15, ,
-45, ,-15, ,
-44, ,-15, ,
-44, ,-15, ,
-42, ,-15, ,
-41, ,-15, ,
-35, ,-15, ,
-35, ,-15, ,
-32, ,-15, ,
-30, ,-15, ,
-26, ,-15, ,
-25, ,-15, ,
-25, ,-15, ,
-25, ,-15, ,
-25, ,-15, ,
-25, ,-15, ,
-26, ,-15, ,
-25, ,-15, ,
-26, ,-15, ,
-28, ,-15, ,
-26, ,-15, ,
-26, ,-15, ,
-25, ,-15, ,
-23, ,-15, ,
-24, ,-15, ,
-24, ,-15, ,
-25, ,-15, ,
-25, ,-15, ,
-26, ,-15, ,
-26, ,-15, ,
-28, ,-15, ,
-29, ,-15, ,
-30, ,-15, ,
-30, ,-15, ,
-31, ,-15, ,
-31, ,-15, ,
-30, ,-15, ,
-30, ,-15, ,
-27, ,-15, ,
-25, ,-15, ,
-23, ,-15, ,
-21, ,-15, ,
-17, ,-15, ,
-16, ,-15, ,
-15, ,-15, ,
-15, ,-15, ,
-14, ,-15, ,
-12, ,-15, ,
-14, ,-15, ,
-11, ,-15, ,
-10, ,-15, ,
-11, ,-15, ,
-9, ,-15, ,
-9, ,-15, ,
-7, ,-15, ,
-6, ,-15, ,
-6, ,-15, ,
-5, ,-15, ,
-5, ,-15, ,
-5, ,-15, ,
-5, ,-15, ,
-5, ,-15, ,
-5, ,-15, ,
-4, ,-15, ,
-5, ,-15, ,
-5, ,-15, ,
-1, ,-15, ,
-3, ,-15, ,
-1, ,-15, ,
-1, ,-15, ,
0, ,-15, ,
0, ,-15, ,
0, ,-15, ,
0, ,-15, ,
0, ,-15, ,
1, ,-15, ,
1, ,-15, ,
0, ,-15, ,
2, ,-15, ,
4, ,-15, ,
3, ,-15, ,
5, ,-15, ,
6, ,-15, ,
6, ,-15, ,
7, ,-15, ,
8, ,-15, ,
7, ,-15, ,
9, ,-15, ,
8, ,-15, ,
8, ,-15, ,
8, ,-15, ,
6, ,-15, ,
7, ,-15, ,
5, ,-15, ,
5, ,-15, ,
7, ,-15, ,
5, ,-15, ,
5, ,-15, ,
5, ,-15, ,
4, ,-15, ,
3, ,-15, ,
3, ,-15, ,
2, ,-15, ,
1, ,-15, ,
0, ,-15, ,
0, ,-15, ,
-2, ,-15, ,
-4, ,-15, ,
-3, ,-15, ,
-6, ,-15, ,
-8, ,-15, ,
-9, ,-15, ,
-12, ,-15, ,
-11, ,-15, ,
-15, ,-15, ,
-16, ,-15, ,
-18, ,-15, ,
-19, ,-15, ,
-21, ,-15, ,
-21, ,-15, ,
-24, ,-15, ,
-23, ,-15, ,
-25, ,-15, ,
-26, ,-15, ,
-26, ,-15, ,
-28, ,-15, ,
-28, ,-15, ,
-28, ,-15, ,
-29, ,-15, ,
-28, ,-15, ,
-29, ,-15, ,
-30, ,-15, ,
-30, ,-15, ,
-31, ,-15, ,
-33, ,-15, ,
-32, ,-15, ,
-33, ,-15, ,
-33, ,-15, ,
-33, ,-15, ,
-34, ,-15, ,
-34, ,-15, ,
-34, ,-15, ,
-35, ,-15, ,
-34, ,-15, ,
-35, ,-15, ,
-34, ,-15, ,
-34, ,-15, ,
-35, ,-15, ,
-34, ,-15, ,
-34, ,-15, ,
-34, ,-15, ,
-33, ,-15, ,
-34, ,-15, ,
-32, ,-15, ,
-30, ,-15, ,
-30, ,-15, ,
-27, ,-15, ,
-29, ,-15, ,
-25, ,-15, ,
-22, ,-15, ,
-22, ,-15, ,
-20, ,-15, ,
-18, ,-15, ,
-17, ,-15, ,
-15, ,-15, ,
-15, ,-15, ,
-15, ,-15, ,
-14, ,-15, ,
-15, ,-15, ,
-13, ,-15, ,
-12, ,-15, ,
-12, ,-15, ,
-10, ,-15, ,
-11, ,-15, ,
-9, ,-15, ,
-9, ,-15, ,
-8, ,-15, ,
-5, ,-15, ,
-4, ,-15, ,
-3, ,-15, ,
-2, ,-15, ,
-1, ,-15, ,
0, ,-15, ,
2, ,-15, ,
3, ,-15, ,
5, ,-15, ,
10, ,-15, ,
9, ,-15, ,
15, ,-15, ,
14, ,-15, ,
18, ,-15, ,
20, ,-15, ,
20, ,-15, ,
24, ,-15, ,
25, ,-15, ,
25, ,-15, ,
25, ,-15, ,
25, ,-15, ,
25, ,-15, ,
25, ,-15, ,
24, ,-15, ,
25, ,-15, ,
22, ,-15, ,
20, ,-15, ,
19, ,-15, ,
17, ,-15, ,
12, ,-15, ,
10, ,-15, ,
9, ,-15, ,
6, ,-15, ,
0, ,-15, ,
-4, ,-15, ,
-5, ,-15, ,
-9, ,-15, ,
-15, ,-15, ,
-15, ,-15, ,
-18, ,-15, ,
-16, ,-15, ,
-21, ,-15, ,
-22, ,-15, ,
-20, ,-15, ,
-24, ,-15, ,
-24, ,-15, ,
-24, ,-15, ,
-24, ,-15, ,
-23, ,-15, ,
-23, ,-15, ,
-24, ,-15, ,
-22, ,-15, ,
-22, ,-15, ,
-22, ,-15, ,
-19, ,-15, ,
-20, ,-15, ,
-19, ,-15, ,
-18, ,-15, ,
-18, ,-15, ,
-17, ,-15, ,
-17, ,-15, ,
-17, ,-15, ,
-16, ,-15, ,
-17, ,-15, ,
-16, ,-15, ,
-16, ,-15, ,
-17, ,-15, ,
-17, ,-15, ,
-17, ,-15, ,
-18, ,-15, ,
-18, ,-15, ,
-19, ,-15, ,
-19, ,-15, ,
-19, ,-15, ,
-19, ,-15, ,
-19, ,-15, ,
-18, ,-15, ,
-19, ,-15, ,
-18, ,-15, ,
-19, ,-15, ,
-20, ,-15, ,
-18, ,-15, ,
-19, ,-15, ,
-19, ,-15, ,
-19, ,-15, ,
-20, ,-15, ,
-19, ,-15, ,
-21, ,-15, ,
-20, ,-15, ,
-21, ,-15, ,
-22, ,-15, ,
-21, ,-15, ,
-24, ,-15, ,
-23, ,-15, ,
-24, ,-15, ,
-24, ,-15, ,
-24, ,-15, ,
-23, ,-15, ,
-23, ,-15, ,
-22, ,-15, ,
-23, ,-15, ,
-22, ,-15, ,
-20, ,-15, ,
-21, ,-15, ,
-19, ,-15, ,
-19, ,-15, ,
-19, ,-15, ,
-15, ,-15, ,
-14, ,-15, ,
-12, ,-15, ,
-10, ,-15, ,
-10, ,-15, ,
-9, ,-15, ,
-8, ,-15, ,
-9, ,-15, ,
-9, ,-15, ,
-9, ,-15, ,
-9, ,-15, ,
-9, ,-15, ,
-10, ,-15, ,
-10, ,-15, ,
-10, ,-15, ,
-11, ,-15, ,
-10, ,-15, ,
-12, ,-15, ,
-12, ,-15, ,
-12, ,-15, ,
-13, ,-15, ,
-13, ,-15, ,
-12, ,-15, ,
-12, ,-15, ,
-13, ,-15, ,
-13, ,-15, ,
-13, ,-15, ,
-12, ,-15, ,
-13, ,-15, ,
-12, ,-15, ,
-12, ,-15, ,
-11, ,-15, ,
-10, ,-15, ,
-11, ,-15, ,
-12, ,-15, ,
-10, ,-15, ,
-11, ,-15, ,
-10, ,-15, ,
-10, ,-15, ,
-11, ,-15, ,
-12, ,-15, ,
-12, ,-15, ,
-15, ,-15, ,
-15, ,-15, ,
-15, ,-15, ,
-15, ,-15, ,
-18, ,-15, ,
-18, ,-15, ,
-18, ,-15, ,
-19, ,-15, ,
-19, ,-15, ,
-18, ,-15, ,
-19, ,-15, ,
-19, ,-15, ,
-17, ,-15, ,
-17, ,-15, ,
-15, ,-15, ,
-15, ,-15, ,
-12, ,-15, ,
-10, ,-15, ,
-10, ,-15, ,
-7, ,-15, ,
-4, ,-15, ,
-2, ,-15, ,
1, ,-15, ,
2, ,-15, ,
5, ,-15, ,
9, ,-15, ,
8, ,-15, ,
11, ,-15, ,
14, ,-15, ,
13, ,-15, ,
15, ,-15, ,
15, ,-15, ,
14, ,-15, ,
13, ,-15, ,
12, ,-15, ,
12, ,-15, ,
10, ,-15, ,
9, ,-15, ,
7, ,-15, ,
4, ,-15, ,
2, ,-15, ,
1, ,-15, ,
-1, ,-15, ,
-3, ,-15, ,
-6, ,-15, ,
-8, ,-15, ,
-10, ,-15, ,
-10, ,-15, ,
-13, ,-15, ,
-13, ,-15, ,
-13, ,-15, ,
-14, ,-15, ,
-13, ,-15, ,
-15, ,-15, ,
-13, ,-15, ,
-14, ,-15, ,
-13, ,-15, ,
-13, ,-15, ,
-14, ,-15, ,
-11, ,-15, ,
-10, ,-15, ,
-10, ,-15, ,
-9, ,-15, ,
-10, ,-15, ,
-8, ,-15, ,
-9, ,-15, ,
-7, ,-15, ,
-6, ,-15, ,
-5, ,-15, ,
-5, ,-15, ,
-4, ,-15, ,
-4, ,-15, ,
-4, ,-15, ,
-3, ,-15, ,
-3, ,-15, ,
-3, ,-15, ,
-3, ,-15, ,
-4, ,-15, ,
-2, ,-15, ,
-3, ,-15, ,
-1, ,-15, ,
-2, ,-15, ,
0, ,-15, ,
0, ,-15, ,
1, ,-15, ,
2, ,-15, ,
3, ,-15, ,
2, ,-15, ,
4, ,-15, ,
4, ,-15, ,
4, ,-15, ,
5, ,-15, ,
5, ,-15, ,
5, ,-15, ,
5, ,-15, ,
5, ,-15, ,
6, ,-15, ,
6, ,-15, ,
6, ,-15, ,
6, ,-15, ,
6, ,-15, ,
5, ,-15, ,
5, ,-15, ,
5, ,-15, ,
4, ,-15, ,
5, ,-15, ,
3, ,-15, ,
4, ,-15, ,
2, ,-15, ,
1, ,-15, ,
1, ,-15, ,
0, ,-15, ,
0, ,-15, ,
0, ,-15, ,
0, ,-15, ,
-1, ,-15, ,
-1, ,-15, ,
-2, ,-15, ,
-3, ,-15, ,
-3, ,-15, ,
-4, ,-15, ,
-5, ,-15, ,
-5, ,-15, ,
-6, ,-15, ,
-7, ,-15, ,
-8, ,-15, ,
-8, ,-15, ,
-9, ,-15, ,
-9, ,-15, ,
-9, ,-15, ,
-10, ,-15, ,
-10, ,-15, ,
-11, ,-15, ,
-11, ,-15, ,
-11, ,-15, ,
-12, ,-15, ,
-11, ,-15, ,
-11, ,-15, ,
-12, ,-15, ,
-11, ,-15, ,
-10, ,-15, ,
-11, ,-15, ,
-9, ,-15, ,
-9, ,-15, ,
-9, ,-15, ,
-6, ,-15, ,
-7, ,-15, ,
-5, ,-15, ,
-4, ,-15, ,
-3, ,-15, ,
-1, ,-15, ,
-3, ,-15, ,
1, ,-15, ,
1, ,-15, ,
1, ,-15, ,
2, ,-15, ,
2, ,-15, ,
1, ,-15, ,
3, ,-15, ,
2, ,-15, ,
1, ,-15, ,
3, ,-15, ,
3, ,-15, ,
4, ,-15, ,
2, ,-15, ,
2, ,-15, ,
2, ,-15, ,
2, ,-15, ,
1, ,-15, ,
1, ,-15, ,
1, ,-15, ,
0, ,-15, ,
0, ,-15, ,
-2, ,-15, ,
-1, ,-15, ,
-3, ,-15, ,
-4, ,-15, ,
-4, ,-15, ,
-4, ,-15, ,
-4, ,-15, ,
-6, ,-15, ,
-6, ,-15, ,
-6, ,-15, ,
-8, ,-15, ,
-8, ,-15, ,
-8, ,-15, ,
-10, ,-15, ,
-9, ,-15, ,
-9, ,-15, ,
-12, ,-15, ,
-11, ,-15, ,
-12, ,-15, ,
-10, ,-15, ,
-10, ,-15, ,
-9, ,-15, ,
-8, ,-15, ,
-7, ,-15, ,
-7, ,-15, ,
-5, ,-15, ,
-5, ,-15, ,
-2, ,-15, ,
0, ,-15, ,
0, ,-15, ,
1, ,-15, ,
4, ,-15, ,
6, ,-15, ,
7, ,-15, ,
7, ,-15, ,
10, ,-15, ,
11, ,-15, ,
12, ,-15, ,
13, ,-15, ,
15, ,-15, ,
15, ,-15, ,
15, ,-15, ,
15, ,-15, ,
16, ,-15, ,
16, ,-15, ,
17, ,-15, ,
15, ,-15, ,
15, ,-15, ,
14, ,-15, ,
14, ,-15, ,
13, ,-15, ,
11, ,-15, ,
11, ,-15, ,
10, ,-15, ,
10, ,-15, ,
8, ,-15, ,
8, ,-15, ,
8, ,-15, ,
7, ,-15, ,
6, ,-15, ,
6, ,-15, ,
5, ,-15, ,
6, ,-15, ,
5, ,-15, ,
4, ,-15, ,
4, ,-15, ,
3, ,-15, ,
2, ,-15, ,
4, ,-15, ,
1, ,-15, ,
1, ,-15, ,
1, ,-15, ,
0, ,-15, ,
2, ,-15, ,
0, ,-15, ,
0, ,-15, ,
2, ,-15, ,
0, ,-15, ,
0, ,-15, ,
0, ,-15, ,
-2, ,-15, ,
0, ,-15, ,
0, ,-15, ,
-1, ,-15, ,
-2, ,-15, ,
-1, ,-15, ,
-1, ,-15, ,
-2, ,-15, ,
-3, ,-15, ,
-2, ,-15, ,
-3, ,-15, ,
-4, ,-15, ,
-3, ,-15, ,
-4, ,-15, ,
-5, ,-15, ,
-6, ,-15, ,
-7, ,-15, ,
-6, ,-15, ,
-8, ,-15, ,
-10, ,-15, ,
-10, ,-15, ,
-10, ,-15, ,
-11, ,-15, ,
-13, ,-15, ,
-15, ,-15, ,
-15, ,-15, ,
-15, ,-15, ,
-16, ,-15, ,
-15, ,-15, ,
-16, ,-15, ,
-16, ,-15, ,
-16, ,-15, ,
-16, ,-15, ,
-16, ,-15, ,
-16, ,-15, ,
-17, ,-15, ,
-14, ,-15, ,
-14, ,-15, ,
-12, ,-15, ,
-11, ,-15, ,
-10, ,-15, ,
-9, ,-15, ,
-10, ,-15, ,
-5, ,-15, ,
-3, ,-15, ,
-3, ,-15, ,
-2, ,-15, ,
1, ,-15, ,
1, ,-15, ,
2, ,-15, ,
2, ,-15, ,
5, ,-15, ,
6, ,-15, ,
7, ,-15, ,
7, ,-15, ,
8, ,-15, ,
8, ,-15, ,
8, ,-15, ,
8, ,-15, ,
8, ,-15, ,
9, ,-15, ,
8, ,-15, ,
8, ,-15, ,
9, ,-15, ,
7, ,-15, ,
8, ,-15, ,
7, ,-15, ,
5, ,-15, ,
5, ,-15, ,
5, ,-15, ,
5, ,-15, ,
4, ,-15, ,
3, ,-15, ,
4, ,-15, ,
2, ,-15, ,
1, ,-15, ,
0, ,-15, ,
-1, ,-15, ,
-1, ,-15, ,
-1, ,-15, ,
-4, ,-15, ,
-4, ,-15, ,
-6, ,-15, ,
-7, ,-15, ,
-6, ,-15, ,
-8, ,-15, ,
-8, ,-15, ,
-9, ,-15, ,
-10, ,-15, ,
-10, ,-15, ,
-11, ,-15, ,
-12, ,-15, ,
-11, ,-15, ,
-13, ,-15, ,
-12, ,-15, ,
-12, ,-15, ,
-13, ,-15, ,
-12, ,-15, ,
-14, ,-15, ,
-12, ,-15, ,
-12, ,-15, ,
-12, ,-15, ,
-10, ,-15, ,
-11, ,-15, ,
-11, ,-15, ,
-10, ,-15, ,
-9, ,-15, ,
-8, ,-15, ,
-8, ,-15, ,
-8, ,-15, ,
-7, ,-15, ,
-6, ,-15, ,
-7, ,-15, ,
-6, ,-15, ,
-5, ,-15, ,
-5, ,-15, ,
-5, ,-15, ,
-5, ,-15, ,
-5, ,-15, ,
-4, ,-15, ,
-4, ,-15, ,
-3, ,-15, ,
-4, ,-15, ,
-4, ,-15, ,
-4, ,-15, ,
-4, ,-15, ,
-4, ,-15, ,
-3, ,-15, ,
-4, ,-15, ,
-3, ,-15, ,
-4, ,-15, ,
-4, ,-15, ,
-2, ,-15, ,
-2, ,-15, ,
-1, ,-15, ,
-1, ,-15, ,
-2, ,-15, ,
-2, ,-15, ,
-2, ,-15, ,
-1, ,-15, ,
0, ,-15, ,
-2, ,-15, ,
0, ,-15, ,
1, ,-15, ,
0, ,-15, ,
1, ,-15, ,
0, ,-15, ,
0, ,-15, ,
1, ,-15, ,
0, ,-15, ,
0, ,-15, ,
0, ,-15, ,
0, ,-15, ,
0, ,-15, ,
-1, ,-15, ,
-2, ,-15, ,
0, ,-15, ,
-2, ,-15, ,
-2, ,-15, ,
-3, ,-15, ,
-4, ,-15, ,
-3, ,-15, ,
-4, ,-15, ,
-5, ,-15, ,
-5, ,-15, ,
-6, ,-15, ,
-5, ,-15, ,
-7, ,-15, ,
-8, ,-15, ,
-7, ,-15, ,
-9, ,-15, ,
-9, ,-15, ,
-8, ,-15, ,
-9, ,-15, ,
-9, ,-15, ,
-8, ,-15, ,
-8, ,-15, ,
-8, ,-15, ,
-9, ,-15, ,
-9, ,-15, ,
-6, ,-15, ,
-7, ,-15, ,
-6, ,-15, ,
-5, ,-15, ,
-5, ,-15, ,
-4, ,-15, ,
-4, ,-15, ,
-1, ,-15, ,
-1, ,-15, ,
-2, ,-15, ,
1, ,-15, ,
3, ,-15, ,
3, ,-15, ,
5, ,-15, ,
4, ,-15, ,
6, ,-15, ,
7, ,-15, ,
8, ,-15, ,
10, ,-15, ,
11, ,-15, ,
11, ,-15, ,
13, ,-15, ,
11, ,-15, ,
14, ,-15, ,
16, ,-15, ,
17, ,-15, ,
18, ,-15, ,
19, ,-15, ,
19, ,-15, ,
19, ,-15, ,
19, ,-15, ,
20, ,-15, ,
21, ,-15, ,
20, ,-15, ,
22, ,-15, ,
20, ,-15, ,
19, ,-15, ,
19, ,-15, ,
18, ,-15, ,
17, ,-15, ,
17, ,-15, ,
16, ,-15, ,
17, ,-15, ,
14, ,-15, ,
12, ,-15, ,
11, ,-15, ,
9, ,-15, ,
7, ,-15, ,
6, ,-15, ,
4, ,-15, ,
4, ,-15, ,
2, ,-15, ,
0, ,-15, ,
0, ,-15, ,
-1, ,-15, ,
-2, ,-15, ,
-2, ,-15, ,
-4, ,-15, ,
-3, ,-15, ,
-3, ,-15, ,
-5, ,-15, ,
-4, ,-15, ,
-5, ,-15, ,
-5, ,-15, ,
-5, ,-15, ,
-5, ,-15, ,
-4, ,-15, ,
-4, ,-15, ,
-4, ,-15, ,
-4, ,-15, ,
-4, ,-15, ,
-5, ,-15, ,
-2, ,-15, ,
-3, ,-15, ,
-3, ,-15, ,
-3, ,-15, ,
-5, ,-15, ,
-5, ,-15, ,
-6, ,-15, ,
-7, ,-15, ,
-6, ,-15, ,
-7, ,-15, ,
-7, ,-15, ,
-9, ,-15, ,
-9, ,-15, ,
-9, ,-15, ,
-11, ,-15, ,
-12, ,-15, ,
-12, ,-15, ,
-12, ,-15, ,
-12, ,-15, ,
-12, ,-15, ,
-13, ,-15, ,
-13, ,-15, ,
-13, ,-15, ,
-14, ,-15, ,
-13, ,-15, ,
-13, ,-15, ,
-13, ,-15, ,
-12, ,-15, ,
-12, ,-15, ,
-11, ,-15, ,
-11, ,-15, ,
-10, ,-15, ,
-9, ,-15, ,
-9, ,-15, ,
-9, ,-15, ,
-7, ,-15, ,
-7, ,-15, ,
-7, ,-15, ,
-7, ,-15, ,
-5, ,-15, ,
-5, ,-15, ,
-5, ,-15, ,
-4, ,-15, ,
-5, ,-15, ,
-4, ,-15, ,
-4, ,-15, ,
-4, ,-15, ,
-4, ,-15, ,
-3, ,-15, ,
-3, ,-15, ,
-4, ,-15, ,
-3, ,-15, ,
-3, ,-15, ,
-2, ,-15, ,
-2, ,-15, ,
-2, ,-15, ,
-2, ,-15, ,
-2, ,-15, ,
-1, ,-15, ,
-1, ,-15, ,
-1, ,-15, ,
-1, ,-15, ,
-1, ,-15, ,
-2, ,-15, ,
0, ,-15, ,
0, ,-15, ,
0, ,-15, ,
0, ,-15, ,
-2, ,-15, ,
0, ,-15, ,
-1, ,-15, ,
-2, ,-15, ,
0, ,-15, ,
0, ,-15, ,
0, ,-15, ,
1, ,-15, ,
0, ,-15, ,
0, ,-15, ,
-1, ,-15, ,
-1, ,-15, ,
-1, ,-15, ,
-1, ,-15, ,
0, ,-15, ,
0, ,-15, ,
0, ,-15, ,
0, ,-15, ,
0, ,-15, ,
0, ,-15, ,
1, ,-15, ,
1, ,-15, ,
2, ,-15, ,
4, ,-15, ,
3, ,-15, ,
4, ,-15, ,
3, ,-15, ,
5, ,-15, ,
7, ,-15, ,
6, ,-15, ,
7, ,-15, ,
9, ,-15, ,
9, ,-15, ,
10, ,-15, ,
10, ,-15, ,
10, ,-15, ,
10, ,-15, ,
11, ,-15, ,
12, ,-15, ,
12, ,-15, ,
12, ,-15, ,
13, ,-15, ,
11, ,-15, ,
11, ,-15, ,
11, ,-15, ,
10, ,-15, ,
11, ,-15, ,
12, ,-15, ,
10, ,-15, ,
11, ,-15, ,
10, ,-15, ,
8, ,-15, ,
9, ,-15, ,
