raw_data/100% Glycerol, Impulsion 2Hz, Sonde 5MHz, Rampe 0.7Hz/temp0000325.CSV

Format,1.0B,
Memory Length,10000,Memory Length,10000,
IntpDistance,0,IntpDistance,0,
Trigger Address,159,Trigger Address,159,
Trigger Level,2.720E-01,Trigger Level,2.720E-01,
Source,CH1,Source,CH2,
Vertical Units,V,Vertical Units,V,
Vertical Units Div,0,Vertical Units Div,0,
Vertical Units Extend Div,16,Vertical Units Extend Div,16,
Label,,Label,,
Probe Type,0,Probe Type,0,
Probe Ratio,1.000e+00,Probe Ratio,1.000e+00,
Vertical Scale,2.000e-01,Vertical Scale,2.000e+00,
Vertical Position,0.000e+00,Vertical Position,0.000e+00,
Horizontal Units,S,Horizontal Units,S,
Horizontal Scale,5.000E-06,Horizontal Scale,5.000E-06,
Horizontal Position,2.420E-05,Horizontal Position,2.420E-05,
Horizontal Mode,Main,Horizontal Mode,Main,
SincET Mode,Real Time,SincET Mode,Real Time,
Sampling Period,5.000e-09,Sampling Period,5.000e-09,
Horizontal Old Scale,5.000E-06,Horizontal Old Scale,5.000E-06,
Horizontal Old Position,2.420E-05,Horizontal Old Position,2.420E-05,
Firmware,V1.32,Firmware,V1.32,
Mode,Fast,Mode,Fast,
Waveform Data,,Waveform Data,,
1, ,-8, ,
2, ,-8, ,
2, ,-8, ,
1, ,-8, ,
1, ,-8, ,
1, ,-8, ,
2, ,-8, ,
1, ,-8, ,
2, ,-8, ,
2, ,-8, ,
1, ,-8, ,
2, ,-8, ,
1, ,-8, ,
1, ,-8, ,
1, ,-8, ,
2, ,-8, ,
1, ,-8, ,
2, ,-8, ,
0, ,-8, ,
3, ,-8, ,
2, ,-8, ,
1, ,-8, ,
2, ,-8, ,
1, ,-8, ,
1, ,-8, ,
1, ,-8, ,
1, ,-8, ,
1, ,-8, ,
1, ,-8, ,
2, ,-8, ,
1, ,-8, ,
1, ,-8, ,
1, ,-8, ,
2, ,-8, ,
1, ,-8, ,
1, ,-8, ,
1, ,-8, ,
1, ,-8, ,
1, ,-8, ,
1, ,-8, ,
2, ,-8, ,
2, ,-8, ,
1, ,-8, ,
2, ,-8, ,
1, ,-8, ,
1, ,-8, ,
2, ,-8, ,
2, ,-8, ,
2, ,-8, ,
2, ,-8, ,
2, ,-8, ,
1, ,-8, ,
1, ,-8, ,
1, ,-8, ,
1, ,-8, ,
1, ,-8, ,
1, ,-8, ,
2, ,-8, ,
2, ,-8, ,
2, ,-8, ,
2, ,-8, ,
2, ,-8, ,
1, ,-8, ,
2, ,-8, ,
1, ,-8, ,
1, ,-8, ,
1, ,-8, ,
2, ,-8, ,
1, ,-8, ,
1, ,-8, ,
2, ,-8, ,
1, ,-8, ,
2, ,-8, ,
2, ,-8, ,
1, ,-8, ,
2, ,-8, ,
0, ,-8, ,
1, ,-8, ,
1, ,-8, ,
1, ,-8, ,
1, ,-8, ,
1, ,-8, ,
1, ,-8, ,
1, ,-8, ,
1, ,-8, ,
0, ,-8, ,
2, ,-8, ,
1, ,-8, ,
1, ,-8, ,
1, ,-8, ,
1, ,-8, ,
2, ,-8, ,
1, ,-8, ,
2, ,-8, ,
2, ,-8, ,
1, ,-8, ,
1, ,-8, ,
1, ,-8, ,
1, ,-8, ,
2, ,-8, ,
0, ,-8, ,
0, ,-8, ,
2, ,-8, ,
1, ,-8, ,
1, ,-8, ,
2, ,-8, ,
1, ,-8, ,
1, ,-8, ,
2, ,-8, ,
1, ,-8, ,
1, ,-8, ,
1, ,-8, ,
1, ,-8, ,
1, ,-8, ,
1, ,-8, ,
1, ,-8, ,
1, ,-8, ,
1, ,-8, ,
1, ,-8, ,
1, ,-8, ,
2, ,-8, ,
2, ,-8, ,
2, ,-8, ,
1, ,-8, ,
1, ,-8, ,
1, ,-8, ,
1, ,-8, ,
1, ,-8, ,
2, ,-8, ,
2, ,-8, ,
2, ,-8, ,
1, ,-8, ,
1, ,-8, ,
1, ,-8, ,
1, ,-8, ,
2, ,-8, ,
2, ,-8, ,
2, ,-8, ,
1, ,-8, ,
2, ,-8, ,
1, ,-8, ,
1, ,-8, ,
1, ,-8, ,
1, ,-8, ,
2, ,-8, ,
1, ,-8, ,
1, ,-8, ,
1, ,-8, ,
1, ,-8, ,
2, ,-8, ,
2, ,-8, ,
1, ,-8, ,
1, ,-8, ,
2, ,-8, ,
1, ,-8, ,
2, ,-8, ,
2, ,-8, ,
1, ,-8, ,
1, ,-8, ,
1, ,-8, ,
1, ,-8, ,
1, ,-8, ,
1, ,-8, ,
1, ,-8, ,
6, ,-8, ,
2, ,-8, ,
-1, ,-8, ,
1, ,-8, ,
34, ,-8, ,
125, ,-8, ,
125, ,-8, ,
125, ,-8, ,
125, ,-8, ,
116, ,-8, ,
5, ,-8, ,
-7, ,-8, ,
98, ,-8, ,
125, ,-8, ,
125, ,-8, ,
125, ,-8, ,
125, ,-8, ,
125, ,-8, ,
125, ,-8, ,
125, ,-8, ,
125, ,-8, ,
125, ,-8, ,
125, ,-8, ,
125, ,-8, ,
125, ,-8, ,
125, ,-8, ,
125, ,-8, ,
125, ,-8, ,
125, ,-8, ,
125, ,-8, ,
125, ,-8, ,
125, ,-8, ,
125, ,-8, ,
125, ,-8, ,
125, ,-8, ,
125, ,-8, ,
125, ,-8, ,
125, ,-8, ,
124, ,-8, ,
124, ,-8, ,
119, ,-8, ,
108, ,-8, ,
105, ,-8, ,
101, ,-8, ,
96, ,-8, ,
91, ,-8, ,
84, ,-8, ,
83, ,-8, ,
78, ,-8, ,
70, ,-8, ,
68, ,-8, ,
63, ,-8, ,
61, ,-8, ,
56, ,-8, ,
53, ,-8, ,
52, ,-8, ,
48, ,-8, ,
44, ,-8, ,
43, ,-8, ,
39, ,-8, ,
38, ,-8, ,
35, ,-8, ,
31, ,-8, ,
31, ,-8, ,
29, ,-8, ,
26, ,-8, ,
26, ,-8, ,
24, ,-8, ,
23, ,-8, ,
20, ,-8, ,
19, ,-8, ,
19, ,-8, ,
17, ,-8, ,
15, ,-8, ,
14, ,-8, ,
12, ,-8, ,
12, ,-8, ,
10, ,-8, ,
9, ,-8, ,
9, ,-8, ,
8, ,-8, ,
6, ,-8, ,
6, ,-8, ,
5, ,-8, ,
6, ,-8, ,
4, ,-8, ,
4, ,-8, ,
3, ,-8, ,
2, ,-8, ,
2, ,-8, ,
2, ,-8, ,
2, ,-8, ,
1, ,-8, ,
0, ,-8, ,
0, ,-8, ,
0, ,-8, ,
0, ,-8, ,
-1, ,-8, ,
-1, ,-8, ,
-2, ,-8, ,
-1, ,-8, ,
-1, ,-8, ,
-2, ,-8, ,
-2, ,-8, ,
-3, ,-8, ,
-2, ,-8, ,
-2, ,-8, ,
-2, ,-8, ,
-2, ,-8, ,
-2, ,-8, ,
-4, ,-8, ,
-2, ,-8, ,
-3, ,-8, ,
-3, ,-8, ,
-3, ,-8, ,
-4, ,-8, ,
-3, ,-8, ,
-3, ,-8, ,
-3, ,-8, ,
-3, ,-8, ,
-4, ,-8, ,
-3, ,-8, ,
-3, ,-8, ,
-4, ,-8, ,
-2, ,-8, ,
-3, ,-8, ,
-4, ,-8, ,
-3, ,-8, ,
-4, ,-8, ,
-2, ,-8, ,
-2, ,-8, ,
-3, ,-8, ,
-3, ,-8, ,
-2, ,-8, ,
-3, ,-8, ,
-3, ,-8, ,
-3, ,-8, ,
-4, ,-8, ,
-3, ,-8, ,
-4, ,-8, ,
-2, ,-8, ,
-1, ,-8, ,
-4, ,-8, ,
-2, ,-8, ,
-2, ,-8, ,
-1, ,-8, ,
-1, ,-8, ,
-1, ,-8, ,
-1, ,-8, ,
-2, ,-8, ,
-1, ,-8, ,
-2, ,-8, ,
-2, ,-8, ,
-1, ,-8, ,
-2, ,-8, ,
-2, ,-8, ,
-1, ,-8, ,
0, ,-8, ,
-1, ,-8, ,
-1, ,-8, ,
-2, ,-8, ,
-2, ,-8, ,
-1, ,-8, ,
-1, ,-8, ,
-1, ,-8, ,
0, ,-8, ,
0, ,-8, ,
0, ,-8, ,
0, ,-8, ,
0, ,-8, ,
0, ,-8, ,
-1, ,-8, ,
0, ,-8, ,
-1, ,-8, ,
0, ,-8, ,
0, ,-8, ,
0, ,-8, ,
-1, ,-8, ,
0, ,-8, ,
0, ,-8, ,
0, ,-8, ,
0, ,-8, ,
1, ,-8, ,
1, ,-8, ,
0, ,-8, ,
0, ,-8, ,
0, ,-8, ,
0, ,-8, ,
1, ,-8, ,
0, ,-8, ,
0, ,-8, ,
1, ,-8, ,
0, ,-8, ,
0, ,-8, ,
1, ,-8, ,
0, ,-8, ,
0, ,-8, ,
0, ,-8, ,
0, ,-8, ,
0, ,-8, ,
1, ,-8, ,
0, ,-8, ,
1, ,-8, ,
0, ,-8, ,
1, ,-8, ,
2, ,-8, ,
1, ,-8, ,
1, ,-8, ,
0, ,-8, ,
0, ,-8, ,
1, ,-8, ,
0, ,-8, ,
0, ,-8, ,
1, ,-8, ,
1, ,-8, ,
1, ,-8, ,
0, ,-8, ,
0, ,-8, ,
0, ,-8, ,
0, ,-8, ,
1, ,-8, ,
0, ,-8, ,
0, ,-8, ,
0, ,-8, ,
1, ,-8, ,
1, ,-8, ,
1, ,-8, ,
1, ,-8, ,
1, ,-8, ,
1, ,-8, ,
0, ,-8, ,
1, ,-8, ,
0, ,-8, ,
1, ,-8, ,
1, ,-8, ,
1, ,-8, ,
1, ,-8, ,
1, ,-8, ,
0, ,-8, ,
1, ,-8, ,
1, ,-8, ,
1, ,-8, ,
1, ,-8, ,
1, ,-8, ,
1, ,-8, ,
1, ,-8, ,
1, ,-8, ,
1, ,-8, ,
1, ,-8, ,
1, ,-8, ,
1, ,-8, ,
1, ,-8, ,
2, ,-8, ,
2, ,-8, ,
1, ,-8, ,
2, ,-8, ,
1, ,-8, ,
1, ,-8, ,
2, ,-8, ,
2, ,-8, ,
0, ,-8, ,
1, ,-8, ,
1, ,-8, ,
0, ,-8, ,
0, ,-8, ,
1, ,-8, ,
1, ,-8, ,
0, ,-8, ,
0, ,-8, ,
1, ,-8, ,
1, ,-8, ,
1, ,-8, ,
0, ,-8, ,
1, ,-8, ,
1, ,-8, ,
0, ,-8, ,
0, ,-8, ,
-1, ,-8, ,
-1, ,-8, ,
-2, ,-8, ,
-2, ,-8, ,
-2, ,-8, ,
-2, ,-8, ,
-2, ,-8, ,
-2, ,-8, ,
0, ,-8, ,
-1, ,-8, ,
0, ,-8, ,
0, ,-8, ,
0, ,-8, ,
-1, ,-8, ,
-1, ,-8, ,
-2, ,-8, ,
-5, ,-8, ,
-7, ,-8, ,
-7, ,-8, ,
-13, ,-8, ,
-21, ,-8, ,
-28, ,-8, ,
-34, ,-8, ,
-42, ,-8, ,
-60, ,-8, ,
-69, ,-8, ,
-77, ,-8, ,
-84, ,-8, ,
-97, ,-8, ,
-100, ,-8, ,
-105, ,-8, ,
-110, ,-8, ,
-125, ,-8, ,
-126, ,-8, ,
-126, ,-8, ,
-126, ,-8, ,
-126, ,-8, ,
-126, ,-8, ,
-126, ,-8, ,
-126, ,-8, ,
-126, ,-8, ,
-126, ,-8, ,
-126, ,-8, ,
-123, ,-8, ,
-81, ,-8, ,
-58, ,-8, ,
-36, ,-8, ,
-16, ,-8, ,
19, ,-8, ,
32, ,-8, ,
42, ,-8, ,
50, ,-8, ,
58, ,-8, ,
59, ,-8, ,
56, ,-8, ,
54, ,-8, ,
44, ,-8, ,
35, ,-8, ,
29, ,-8, ,
20, ,-8, ,
4, ,-8, ,
-2, ,-8, ,
-7, ,-8, ,
-11, ,-8, ,
-21, ,-8, ,
-26, ,-8, ,
-31, ,-8, ,
-39, ,-8, ,
-55, ,-8, ,
-63, ,-8, ,
-73, ,-8, ,
-81, ,-8, ,
-95, ,-8, ,
-99, ,-8, ,
-100, ,-8, ,
-98, ,-8, ,
-85, ,-8, ,
-73, ,-8, ,
-60, ,-8, ,
-43, ,-8, ,
-8, ,-8, ,
9, ,-8, ,
29, ,-8, ,
43, ,-8, ,
72, ,-8, ,
84, ,-8, ,
90, ,-8, ,
99, ,-8, ,
105, ,-8, ,
105, ,-8, ,
107, ,-8, ,
107, ,-8, ,
105, ,-8, ,
104, ,-8, ,
101, ,-8, ,
100, ,-8, ,
94, ,-8, ,
91, ,-8, ,
88, ,-8, ,
85, ,-8, ,
78, ,-8, ,
76, ,-8, ,
73, ,-8, ,
71, ,-8, ,
68, ,-8, ,
68, ,-8, ,
67, ,-8, ,
67, ,-8, ,
66, ,-8, ,
65, ,-8, ,
65, ,-8, ,
66, ,-8, ,
62, ,-8, ,
61, ,-8, ,
59, ,-8, ,
58, ,-8, ,
54, ,-8, ,
54, ,-8, ,
51, ,-8, ,
51, ,-8, ,
47, ,-8, ,
45, ,-8, ,
43, ,-8, ,
41, ,-8, ,
38, ,-8, ,
38, ,-8, ,
36, ,-8, ,
35, ,-8, ,
33, ,-8, ,
32, ,-8, ,
31, ,-8, ,
30, ,-8, ,
27, ,-8, ,
28, ,-8, ,
25, ,-8, ,
25, ,-8, ,
24, ,-8, ,
21, ,-8, ,
22, ,-8, ,
20, ,-8, ,
19, ,-8, ,
18, ,-8, ,
17, ,-8, ,
16, ,-8, ,
-30, ,-8, ,
-103, ,-8, ,
-126, ,-8, ,
-126, ,-8, ,
-126, ,-8, ,
-126, ,-8, ,
-126, ,-8, ,
-126, ,-8, ,
-126, ,-8, ,
-126, ,-8, ,
-126, ,-8, ,
-126, ,-8, ,
-126, ,-8, ,
-126, ,-8, ,
-126, ,-8, ,
-126, ,-8, ,
-126, ,-8, ,
-126, ,-8, ,
-126, ,-8, ,
-126, ,-8, ,
-126, ,-8, ,
-126, ,-8, ,
-126, ,-8, ,
-126, ,-8, ,
-126, ,-8, ,
-126, ,-8, ,
-126, ,-8, ,
-126, ,-8, ,
-126, ,-8, ,
-126, ,-8, ,
-124, ,-8, ,
-118, ,-8, ,
-13, ,-8, ,
-8, ,-8, ,
-15, ,-8, ,
-25, ,-8, ,
-30, ,-8, ,
-26, ,-8, ,
-25, ,-8, ,
-22, ,-8, ,
-5, ,-8, ,
9, ,-8, ,
23, ,-8, ,
39, ,-8, ,
71, ,-8, ,
84, ,-8, ,
95, ,-8, ,
100, ,-8, ,
99, ,-8, ,
93, ,-8, ,
83, ,-8, ,
70, ,-8, ,
34, ,-8, ,
14, ,-8, ,
-7, ,-8, ,
-29, ,-8, ,
-66, ,-8, ,
-86, ,-8, ,
-99, ,-8, ,
-111, ,-8, ,
-126, ,-8, ,
-126, ,-8, ,
-126, ,-8, ,
-126, ,-8, ,
-126, ,-8, ,
-122, ,-8, ,
-119, ,-8, ,
-115, ,-8, ,
-104, ,-8, ,
-98, ,-8, ,
-87, ,-8, ,
-71, ,-8, ,
-28, ,-8, ,
-9, ,-8, ,
11, ,-8, ,
27, ,-8, ,
51, ,-8, ,
63, ,-8, ,
70, ,-8, ,
77, ,-8, ,
79, ,-8, ,
77, ,-8, ,
71, ,-8, ,
64, ,-8, ,
45, ,-8, ,
35, ,-8, ,
24, ,-8, ,
13, ,-8, ,
-8, ,-8, ,
-16, ,-8, ,
-25, ,-8, ,
-31, ,-8, ,
-39, ,-8, ,
-38, ,-8, ,
-39, ,-8, ,
-36, ,-8, ,
-32, ,-8, ,
-29, ,-8, ,
-22, ,-8, ,
-17, ,-8, ,
-3, ,-8, ,
6, ,-8, ,
15, ,-8, ,
26, ,-8, ,
48, ,-8, ,
58, ,-8, ,
71, ,-8, ,
81, ,-8, ,
104, ,-8, ,
114, ,-8, ,
123, ,-8, ,
125, ,-8, ,
125, ,-8, ,
125, ,-8, ,
125, ,-8, ,
125, ,-8, ,
125, ,-8, ,
125, ,-8, ,
125, ,-8, ,
125, ,-8, ,
125, ,-8, ,
125, ,-8, ,
125, ,-8, ,
124, ,-8, ,
117, ,-8, ,
112, ,-8, ,
105, ,-8, ,
101, ,-8, ,
92, ,-8, ,
88, ,-8, ,
86, ,-8, ,
84, ,-8, ,
85, ,-8, ,
87, ,-8, ,
88, ,-8, ,
94, ,-8, ,
102, ,-8, ,
106, ,-8, ,
112, ,-8, ,
117, ,-8, ,
125, ,-8, ,
125, ,-8, ,
125, ,-8, ,
125, ,-8, ,
125, ,-8, ,
125, ,-8, ,
125, ,-8, ,
125, ,-8, ,
125, ,-8, ,
125, ,-8, ,
125, ,-8, ,
125, ,-8, ,
125, ,-8, ,
125, ,-8, ,
124, ,-8, ,
124, ,-8, ,
112, ,-8, ,
104, ,-8, ,
92, ,-8, ,
82, ,-8, ,
56, ,-8, ,
43, ,-8, ,
31, ,-8, ,
16, ,-8, ,
-10, ,-8, ,
-21, ,-8, ,
-32, ,-8, ,
-42, ,-8, ,
-61, ,-8, ,
-69, ,-8, ,
-77, ,-8, ,
-83, ,-8, ,
-94, ,-8, ,
-96, ,-8, ,
-99, ,-8, ,
-103, ,-8, ,
-104, ,-8, ,
-105, ,-8, ,
-104, ,-8, ,
-104, ,-8, ,
-103, ,-8, ,
-99, ,-8, ,
-98, ,-8, ,
-95, ,-8, ,
-89, ,-8, ,
-86, ,-8, ,
-82, ,-8, ,
-80, ,-8, ,
-70, ,-8, ,
-68, ,-8, ,
-63, ,-8, ,
-58, ,-8, ,
-49, ,-8, ,
-44, ,-8, ,
-39, ,-8, ,
-36, ,-8, ,
-27, ,-8, ,
-21, ,-8, ,
-18, ,-8, ,
-13, ,-8, ,
-3, ,-8, ,
-2, ,-8, ,
5, ,-8, ,
8, ,-8, ,
15, ,-8, ,
19, ,-8, ,
23, ,-8, ,
26, ,-8, ,
33, ,-8, ,
35, ,-8, ,
40, ,-8, ,
42, ,-8, ,
47, ,-8, ,
48, ,-8, ,
50, ,-8, ,
52, ,-8, ,
53, ,-8, ,
52, ,-8, ,
52, ,-8, ,
52, ,-8, ,
48, ,-8, ,
48, ,-8, ,
45, ,-8, ,
44, ,-8, ,
43, ,-8, ,
43, ,-8, ,
43, ,-8, ,
42, ,-8, ,
42, ,-8, ,
44, ,-8, ,
42, ,-8, ,
44, ,-8, ,
45, ,-8, ,
45, ,-8, ,
47, ,-8, ,
46, ,-8, ,
49, ,-8, ,
50, ,-8, ,
54, ,-8, ,
55, ,-8, ,
59, ,-8, ,
60, ,-8, ,
64, ,-8, ,
65, ,-8, ,
70, ,-8, ,
72, ,-8, ,
74, ,-8, ,
75, ,-8, ,
78, ,-8, ,
78, ,-8, ,
81, ,-8, ,
79, ,-8, ,
78, ,-8, ,
79, ,-8, ,
76, ,-8, ,
76, ,-8, ,
69, ,-8, ,
67, ,-8, ,
65, ,-8, ,
59, ,-8, ,
53, ,-8, ,
48, ,-8, ,
44, ,-8, ,
38, ,-8, ,
30, ,-8, ,
25, ,-8, ,
20, ,-8, ,
16, ,-8, ,
7, ,-8, ,
5, ,-8, ,
-1, ,-8, ,
-2, ,-8, ,
-9, ,-8, ,
-11, ,-8, ,
-14, ,-8, ,
-16, ,-8, ,
-20, ,-8, ,
-20, ,-8, ,
-24, ,-8, ,
-25, ,-8, ,
-27, ,-8, ,
-30, ,-8, ,
-30, ,-8, ,
-31, ,-8, ,
-33, ,-8, ,
-33, ,-8, ,
-32, ,-8, ,
-32, ,-8, ,
-32, ,-8, ,
-31, ,-8, ,
-30, ,-8, ,
-29, ,-8, ,
-29, ,-8, ,
-27, ,-8, ,
-27, ,-8, ,
-25, ,-8, ,
-22, ,-8, ,
-23, ,-8, ,
-21, ,-8, ,
-23, ,-8, ,
-22, ,-8, ,
-21, ,-8, ,
-23, ,-8, ,
-24, ,-8, ,
-26, ,-8, ,
-28, ,-8, ,
-30, ,-8, ,
-33, ,-8, ,
-37, ,-8, ,
-40, ,-8, ,
-45, ,-8, ,
-50, ,-8, ,
-59, ,-8, ,
-64, ,-8, ,
-69, ,-8, ,
-74, ,-8, ,
-87, ,-8, ,
-92, ,-8, ,
-97, ,-8, ,
-103, ,-8, ,
-113, ,-8, ,
-119, ,-8, ,
-123, ,-8, ,
-126, ,-8, ,
-126, ,-8, ,
-126, ,-8, ,
-126, ,-8, ,
-126, ,-8, ,
-126, ,-8, ,
-126, ,-8, ,
-126, ,-8, ,
-126, ,-8, ,
-126, ,-8, ,
-126, ,-8, ,
-126, ,-8, ,
-126, ,-8, ,
-126, ,-8, ,
-126, ,-8, ,
-126, ,-8, ,
-126, ,-8, ,
-126, ,-8, ,
-126, ,-8, ,
-126, ,-8, ,
-126, ,-8, ,
-126, ,-8, ,
-126, ,-8, ,
-126, ,-8, ,
-126, ,-8, ,
-126, ,-8, ,
-126, ,-8, ,
-126, ,-8, ,
-126, ,-8, ,
-126, ,-8, ,
-126, ,-8, ,
-120, ,-8, ,
-117, ,-8, ,
-107, ,-8, ,
-103, ,-8, ,
-99, ,-8, ,
-94, ,-8, ,
-86, ,-8, ,
-84, ,-8, ,
-79, ,-8, ,
-76, ,-8, ,
-72, ,-8, ,
-64, ,-8, ,
-64, ,-8, ,
-59, ,-8, ,
-55, ,-8, ,
-54, ,-8, ,
-49, ,-8, ,
-48, ,-8, ,
-42, ,-8, ,
-40, ,-8, ,
-39, ,-8, ,
-36, ,-8, ,
-17, ,-8, ,
23, ,-8, ,
110, ,-8, ,
125, ,-8, ,
125, ,-8, ,
125, ,-8, ,
125, ,-8, ,
125, ,-8, ,
125, ,-8, ,
125, ,-8, ,
125, ,-8, ,
125, ,-8, ,
125, ,-8, ,
125, ,-8, ,
125, ,-8, ,
125, ,-8, ,
125, ,-8, ,
125, ,-8, ,
125, ,-8, ,
125, ,-8, ,
125, ,-8, ,
125, ,-8, ,
125, ,-8, ,
125, ,-8, ,
125, ,-8, ,
125, ,-8, ,
125, ,-8, ,
125, ,-8, ,
125, ,-8, ,
125, ,-8, ,
125, ,-8, ,
125, ,-8, ,
125, ,-8, ,
124, ,-8, ,
124, ,-8, ,
117, ,-8, ,
82, ,-8, ,
64, ,-8, ,
47, ,-8, ,
31, ,-8, ,
-2, ,-8, ,
-16, ,-8, ,
-28, ,-8, ,
-39, ,-8, ,
-55, ,-8, ,
-60, ,-8, ,
-67, ,-8, ,
-71, ,-8, ,
-71, ,-8, ,
-71, ,-8, ,
-67, ,-8, ,
-65, ,-8, ,
-54, ,-8, ,
-48, ,-8, ,
-41, ,-8, ,
-34, ,-8, ,
-19, ,-8, ,
-11, ,-8, ,
-5, ,-8, ,
1, ,-8, ,
13, ,-8, ,
20, ,-8, ,
23, ,-8, ,
25, ,-8, ,
29, ,-8, ,
26, ,-8, ,
26, ,-8, ,
24, ,-8, ,
18, ,-8, ,
15, ,-8, ,
10, ,-8, ,
6, ,-8, ,
-5, ,-8, ,
-8, ,-8, ,
-15, ,-8, ,
-21, ,-8, ,
-31, ,-8, ,
-35, ,-8, ,
-41, ,-8, ,
-45, ,-8, ,
-54, ,-8, ,
-59, ,-8, ,
-64, ,-8, ,
-65, ,-8, ,
-75, ,-8, ,
-77, ,-8, ,
-78, ,-8, ,
-81, ,-8, ,
-84, ,-8, ,
-85, ,-8, ,
-85, ,-8, ,
-86, ,-8, ,
-85, ,-8, ,
-83, ,-8, ,
-84, ,-8, ,
-81, ,-8, ,
-79, ,-8, ,
-76, ,-8, ,
-74, ,-8, ,
-71, ,-8, ,
-64, ,-8, ,
-59, ,-8, ,
-56, ,-8, ,
-53, ,-8, ,
-44, ,-8, ,
-41, ,-8, ,
-38, ,-8, ,
-35, ,-8, ,
-29, ,-8, ,
-27, ,-8, ,
-25, ,-8, ,
-24, ,-8, ,
-20, ,-8, ,
-21, ,-8, ,
-20, ,-8, ,
-20, ,-8, ,
-21, ,-8, ,
-22, ,-8, ,
-23, ,-8, ,
-23, ,-8, ,
-27, ,-8, ,
-30, ,-8, ,
-31, ,-8, ,
-35, ,-8, ,
-39, ,-8, ,
-40, ,-8, ,
-44, ,-8, ,
-45, ,-8, ,
-49, ,-8, ,
-52, ,-8, ,
-52, ,-8, ,
-53, ,-8, ,
-53, ,-8, ,
-51, ,-8, ,
-51, ,-8, ,
-49, ,-8, ,
-46, ,-8, ,
-44, ,-8, ,
-39, ,-8, ,
-38, ,-8, ,
-31, ,-8, ,
-28, ,-8, ,
-25, ,-8, ,
-20, ,-8, ,
-13, ,-8, ,
-11, ,-8, ,
-7, ,-8, ,
-4, ,-8, ,
-2, ,-8, ,
0, ,-8, ,
0, ,-8, ,
0, ,-8, ,
-3, ,-8, ,
-3, ,-8, ,
-6, ,-8, ,
-11, ,-8, ,
-18, ,-8, ,
-23, ,-8, ,
-26, ,-8, ,
-32, ,-8, ,
-42, ,-8, ,
-50, ,-8, ,
-55, ,-8, ,
-60, ,-8, ,
-72, ,-8, ,
-78, ,-8, ,
-83, ,-8, ,
-89, ,-8, ,
-96, ,-8, ,
-100, ,-8, ,
-102, ,-8, ,
-105, ,-8, ,
-107, ,-8, ,
-107, ,-8, ,
-108, ,-8, ,
-107, ,-8, ,
-105, ,-8, ,
-105, ,-8, ,
-102, ,-8, ,
-99, ,-8, ,
-94, ,-8, ,
-89, ,-8, ,
-84, ,-8, ,
-82, ,-8, ,
-73, ,-8, ,
-69, ,-8, ,
-62, ,-8, ,
-59, ,-8, ,
-50, ,-8, ,
-44, ,-8, ,
-43, ,-8, ,
-39, ,-8, ,
-32, ,-8, ,
-29, ,-8, ,
-25, ,-8, ,
-22, ,-8, ,
-15, ,-8, ,
-12, ,-8, ,
-9, ,-8, ,
-5, ,-8, ,
1, ,-8, ,
4, ,-8, ,
9, ,-8, ,
11, ,-8, ,
16, ,-8, ,
20, ,-8, ,
23, ,-8, ,
25, ,-8, ,
32, ,-8, ,
32, ,-8, ,
35, ,-8, ,
36, ,-8, ,
39, ,-8, ,
40, ,-8, ,
40, ,-8, ,
41, ,-8, ,
41, ,-8, ,
41, ,-8, ,
40, ,-8, ,
39, ,-8, ,
39, ,-8, ,
38, ,-8, ,
38, ,-8, ,
36, ,-8, ,
34, ,-8, ,
32, ,-8, ,
32, ,-8, ,
31, ,-8, ,
27, ,-8, ,
27, ,-8, ,
25, ,-8, ,
24, ,-8, ,
21, ,-8, ,
21, ,-8, ,
21, ,-8, ,
19, ,-8, ,
16, ,-8, ,
16, ,-8, ,
14, ,-8, ,
14, ,-8, ,
12, ,-8, ,
9, ,-8, ,
7, ,-8, ,
5, ,-8, ,
3, ,-8, ,
3, ,-8, ,
0, ,-8, ,
0, ,-8, ,
-5, ,-8, ,
-6, ,-8, ,
-7, ,-8, ,
-8, ,-8, ,
-10, ,-8, ,
-10, ,-8, ,
-12, ,-8, ,
-13, ,-8, ,
-13, ,-8, ,
-15, ,-8, ,
-15, ,-8, ,
-15, ,-8, ,
-15, ,-8, ,
-15, ,-8, ,
-15, ,-8, ,
-14, ,-8, ,
-13, ,-8, ,
-13, ,-8, ,
-12, ,-8, ,
-12, ,-8, ,
-11, ,-8, ,
-9, ,-8, ,
-9, ,-8, ,
-8, ,-8, ,
-7, ,-8, ,
-6, ,-8, ,
-6, ,-8, ,
-6, ,-8, ,
-5, ,-8, ,
-2, ,-8, ,
-3, ,-8, ,
-1, ,-8, ,
-1, ,-8, ,
-1, ,-8, ,
1, ,-8, ,
0, ,-8, ,
-1, ,-8, ,
0, ,-8, ,
-1, ,-8, ,
0, ,-8, ,
-1, ,-8, ,
-3, ,-8, ,
-3, ,-8, ,
-4, ,-8, ,
-5, ,-8, ,
-5, ,-8, ,
-6, ,-8, ,
-6, ,-8, ,
-9, ,-8, ,
-9, ,-8, ,
-8, ,-8, ,
-9, ,-8, ,
-8, ,-8, ,
-6, ,-8, ,
-7, ,-8, ,
-5, ,-8, ,
0, ,-8, ,
2, ,-8, ,
5, ,-8, ,
7, ,-8, ,
14, ,-8, ,
19, ,-8, ,
24, ,-8, ,
28, ,-8, ,
37, ,-8, ,
44, ,-8, ,
51, ,-8, ,
54, ,-8, ,
68, ,-8, ,
75, ,-8, ,
82, ,-8, ,
89, ,-8, ,
103, ,-8, ,
108, ,-8, ,
116, ,-8, ,
123, ,-8, ,
125, ,-8, ,
125, ,-8, ,
125, ,-8, ,
125, ,-8, ,
125, ,-8, ,
125, ,-8, ,
125, ,-8, ,
125, ,-8, ,
125, ,-8, ,
125, ,-8, ,
125, ,-8, ,
125, ,-8, ,
125, ,-8, ,
125, ,-8, ,
125, ,-8, ,
125, ,-8, ,
125, ,-8, ,
125, ,-8, ,
125, ,-8, ,
125, ,-8, ,
125, ,-8, ,
125, ,-8, ,
125, ,-8, ,
125, ,-8, ,
125, ,-8, ,
125, ,-8, ,
125, ,-8, ,
125, ,-8, ,
125, ,-8, ,
124, ,-8, ,
124, ,-8, ,
114, ,-8, ,
92, ,-8, ,
78, ,-8, ,
58, ,-8, ,
41, ,-8, ,
-8, ,-8, ,
-36, ,-8, ,
-66, ,-8, ,
-97, ,-8, ,
-126, ,-8, ,
-126, ,-8, ,
-126, ,-8, ,
-126, ,-8, ,
-126, ,-8, ,
-126, ,-8, ,
-126, ,-8, ,
-126, ,-8, ,
-126, ,-8, ,
-126, ,-8, ,
-126, ,-8, ,
-126, ,-8, ,
-126, ,-8, ,
-126, ,-8, ,
-126, ,-8, ,
-126, ,-8, ,
-126, ,-8, ,
-126, ,-8, ,
-126, ,-8, ,
-126, ,-8, ,
-126, ,-8, ,
-126, ,-8, ,
-126, ,-8, ,
-126, ,-8, ,
-126, ,-8, ,
-126, ,-8, ,
-126, ,-8, ,
-126, ,-8, ,
-126, ,-8, ,
-126, ,-8, ,
-126, ,-8, ,
-126, ,-8, ,
-126, ,-8, ,
-126, ,-8, ,
-126, ,-8, ,
-125, ,-8, ,
-114, ,-8, ,
-111, ,-8, ,
-105, ,-8, ,
-101, ,-8, ,
-93, ,-8, ,
-89, ,-8, ,
-86, ,-8, ,
-81, ,-8, ,
-74, ,-8, ,
-72, ,-8, ,
-66, ,-8, ,
-65, ,-8, ,
-33, ,-8, ,
32, ,-8, ,
125, ,-8, ,
125, ,-8, ,
125, ,-8, ,
125, ,-8, ,
125, ,-8, ,
125, ,-8, ,
125, ,-8, ,
125, ,-8, ,
125, ,-8, ,
125, ,-8, ,
125, ,-8, ,
125, ,-8, ,
125, ,-8, ,
125, ,-8, ,
125, ,-8, ,
125, ,-8, ,
125, ,-8, ,
125, ,-8, ,
124, ,-8, ,
123, ,-8, ,
120, ,-8, ,
89, ,-8, ,
33, ,-8, ,
7, ,-8, ,
-20, ,-8, ,
-41, ,-8, ,
-83, ,-8, ,
-101, ,-8, ,
-113, ,-8, ,
-126, ,-8, ,
-126, ,-8, ,
-126, ,-8, ,
-126, ,-8, ,
-126, ,-8, ,
-126, ,-8, ,
-126, ,-8, ,
-126, ,-8, ,
-126, ,-8, ,
-126, ,-8, ,
-126, ,-8, ,
-123, ,-8, ,
-111, ,-8, ,
-88, ,-8, ,
-76, ,-8, ,
-61, ,-8, ,
-50, ,-8, ,
-24, ,-8, ,
-12, ,-8, ,
1, ,-8, ,
12, ,-8, ,
33, ,-8, ,
40, ,-8, ,
50, ,-8, ,
59, ,-8, ,
74, ,-8, ,
80, ,-8, ,
86, ,-8, ,
90, ,-8, ,
95, ,-8, ,
96, ,-8, ,
96, ,-8, ,
94, ,-8, ,
92, ,-8, ,
91, ,-8, ,
87, ,-8, ,
86, ,-8, ,
78, ,-8, ,
73, ,-8, ,
69, ,-8, ,
64, ,-8, ,
56, ,-8, ,
53, ,-8, ,
48, ,-8, ,
44, ,-8, ,
36, ,-8, ,
32, ,-8, ,
30, ,-8, ,
24, ,-8, ,
17, ,-8, ,
14, ,-8, ,
9, ,-8, ,
4, ,-8, ,
-2, ,-8, ,
-8, ,-8, ,
-11, ,-8, ,
-16, ,-8, ,
-23, ,-8, ,
-26, ,-8, ,
-31, ,-8, ,
-35, ,-8, ,
-42, ,-8, ,
-45, ,-8, ,
-49, ,-8, ,
-53, ,-8, ,
-57, ,-8, ,
-62, ,-8, ,
-65, ,-8, ,
-68, ,-8, ,
-73, ,-8, ,
-76, ,-8, ,
-78, ,-8, ,
-82, ,-8, ,
-85, ,-8, ,
-86, ,-8, ,
-89, ,-8, ,
-89, ,-8, ,
-93, ,-8, ,
-94, ,-8, ,
-94, ,-8, ,
-94, ,-8, ,
-92, ,-8, ,
-91, ,-8, ,
-91, ,-8, ,
-88, ,-8, ,
-84, ,-8, ,
-83, ,-8, ,
-79, ,-8, ,
-76, ,-8, ,
-69, ,-8, ,
-65, ,-8, ,
-61, ,-8, ,
-58, ,-8, ,
-49, ,-8, ,
-46, ,-8, ,
-42, ,-8, ,
-39, ,-8, ,
-34, ,-8, ,
-31, ,-8, ,
-29, ,-8, ,
-27, ,-8, ,
-23, ,-8, ,
-22, ,-8, ,
-19, ,-8, ,
-20, ,-8, ,
-18, ,-8, ,
-17, ,-8, ,
-17, ,-8, ,
-17, ,-8, ,
-15, ,-8, ,
-15, ,-8, ,
-15, ,-8, ,
-16, ,-8, ,
-14, ,-8, ,
-14, ,-8, ,
-14, ,-8, ,
-12, ,-8, ,
-11, ,-8, ,
-11, ,-8, ,
-9, ,-8, ,
-9, ,-8, ,
-7, ,-8, ,
-5, ,-8, ,
-4, ,-8, ,
-2, ,-8, ,
-1, ,-8, ,
1, ,-8, ,
1, ,-8, ,
2, ,-8, ,
6, ,-8, ,
7, ,-8, ,
6, ,-8, ,
8, ,-8, ,
11, ,-8, ,
13, ,-8, ,
15, ,-8, ,
15, ,-8, ,
18, ,-8, ,
19, ,-8, ,
21, ,-8, ,
22, ,-8, ,
25, ,-8, ,
26, ,-8, ,
27, ,-8, ,
29, ,-8, ,
31, ,-8, ,
34, ,-8, ,
33, ,-8, ,
35, ,-8, ,
36, ,-8, ,
35, ,-8, ,
37, ,-8, ,
37, ,-8, ,
37, ,-8, ,
37, ,-8, ,
36, ,-8, ,
36, ,-8, ,
34, ,-8, ,
33, ,-8, ,
32, ,-8, ,
29, ,-8, ,
27, ,-8, ,
25, ,-8, ,
22, ,-8, ,
22, ,-8, ,
17, ,-8, ,
15, ,-8, ,
13, ,-8, ,
11, ,-8, ,
7, ,-8, ,
5, ,-8, ,
3, ,-8, ,
2, ,-8, ,
-1, ,-8, ,
-3, ,-8, ,
-3, ,-8, ,
-8, ,-8, ,
-9, ,-8, ,
-10, ,-8, ,
-11, ,-8, ,
-13, ,-8, ,
-15, ,-8, ,
-18, ,-8, ,
-18, ,-8, ,
-21, ,-8, ,
-23, ,-8, ,
-25, ,-8, ,
-26, ,-8, ,
-28, ,-8, ,
-30, ,-8, ,
-33, ,-8, ,
-34, ,-8, ,
-35, ,-8, ,
-37, ,-8, ,
-38, ,-8, ,
-40, ,-8, ,
-42, ,-8, ,
-45, ,-8, ,
-47, ,-8, ,
-48, ,-8, ,
-50, ,-8, ,
-53, ,-8, ,
-54, ,-8, ,
-57, ,-8, ,
-57, ,-8, ,
-60, ,-8, ,
-60, ,-8, ,
-63, ,-8, ,
-65, ,-8, ,
-67, ,-8, ,
-67, ,-8, ,
-69, ,-8, ,
-71, ,-8, ,
-74, ,-8, ,
-75, ,-8, ,
-75, ,-8, ,
-77, ,-8, ,
-78, ,-8, ,
-78, ,-8, ,
-78, ,-8, ,
-78, ,-8, ,
-78, ,-8, ,
-77, ,-8, ,
-76, ,-8, ,
-76, ,-8, ,
-74, ,-8, ,
-73, ,-8, ,
-72, ,-8, ,
-70, ,-8, ,
-67, ,-8, ,
-65, ,-8, ,
-63, ,-8, ,
-63, ,-8, ,
-58, ,-8, ,
-54, ,-8, ,
-52, ,-8, ,
-49, ,-8, ,
-44, ,-8, ,
-41, ,-8, ,
-39, ,-8, ,
-37, ,-8, ,
-31, ,-8, ,
-26, ,-8, ,
-25, ,-8, ,
-21, ,-8, ,
-14, ,-8, ,
-11, ,-8, ,
-5, ,-8, ,
-2, ,-8, ,
8, ,-8, ,
13, ,-8, ,
17, ,-8, ,
23, ,-8, ,
34, ,-8, ,
39, ,-8, ,
47, ,-8, ,
50, ,-8, ,
65, ,-8, ,
73, ,-8, ,
80, ,-8, ,
88, ,-8, ,
105, ,-8, ,
112, ,-8, ,
