raw_data/100% Glycerol, Impulsion 2Hz, Sonde 5MHz, Rampe 0.7Hz/temp0000172.CSV

Format,1.0B,
Memory Length,10000,Memory Length,10000,
IntpDistance,0,IntpDistance,0,
Trigger Address,159,Trigger Address,159,
Trigger Level,2.720E-01,Trigger Level,2.720E-01,
Source,CH1,Source,CH2,
Vertical Units,V,Vertical Units,V,
Vertical Units Div,0,Vertical Units Div,0,
Vertical Units Extend Div,16,Vertical Units Extend Div,16,
Label,,Label,,
Probe Type,0,Probe Type,0,
Probe Ratio,1.000e+00,Probe Ratio,1.000e+00,
Vertical Scale,2.000e-01,Vertical Scale,2.000e+00,
Vertical Position,0.000e+00,Vertical Position,0.000e+00,
Horizontal Units,S,Horizontal Units,S,
Horizontal Scale,5.000E-06,Horizontal Scale,5.000E-06,
Horizontal Position,2.420E-05,Horizontal Position,2.420E-05,
Horizontal Mode,Main,Horizontal Mode,Main,
SincET Mode,Real Time,SincET Mode,Real Time,
Sampling Period,5.000e-09,Sampling Period,5.000e-09,
Horizontal Old Scale,5.000E-06,Horizontal Old Scale,5.000E-06,
Horizontal Old Position,2.420E-05,Horizontal Old Position,2.420E-05,
Firmware,V1.32,Firmware,V1.32,
Mode,Fast,Mode,Fast,
Waveform Data,,Waveform Data,,
1, ,-34, ,
1, ,-34, ,
1, ,-34, ,
1, ,-34, ,
2, ,-34, ,
2, ,-34, ,
1, ,-34, ,
2, ,-34, ,
1, ,-34, ,
1, ,-34, ,
2, ,-34, ,
2, ,-34, ,
1, ,-34, ,
1, ,-34, ,
2, ,-34, ,
2, ,-34, ,
1, ,-34, ,
2, ,-34, ,
2, ,-34, ,
1, ,-34, ,
2, ,-34, ,
2, ,-34, ,
1, ,-34, ,
2, ,-34, ,
1, ,-34, ,
1, ,-34, ,
2, ,-34, ,
1, ,-34, ,
1, ,-34, ,
2, ,-34, ,
1, ,-34, ,
2, ,-34, ,
1, ,-34, ,
1, ,-34, ,
2, ,-34, ,
1, ,-34, ,
2, ,-34, ,
1, ,-34, ,
1, ,-34, ,
2, ,-34, ,
1, ,-34, ,
1, ,-34, ,
2, ,-34, ,
1, ,-34, ,
2, ,-34, ,
2, ,-34, ,
1, ,-34, ,
1, ,-34, ,
1, ,-34, ,
1, ,-34, ,
2, ,-34, ,
1, ,-34, ,
1, ,-34, ,
1, ,-34, ,
1, ,-34, ,
2, ,-34, ,
1, ,-34, ,
1, ,-34, ,
1, ,-34, ,
1, ,-34, ,
2, ,-34, ,
2, ,-34, ,
2, ,-34, ,
2, ,-34, ,
1, ,-34, ,
1, ,-34, ,
2, ,-34, ,
1, ,-34, ,
2, ,-34, ,
2, ,-34, ,
1, ,-34, ,
1, ,-34, ,
2, ,-34, ,
1, ,-34, ,
1, ,-34, ,
1, ,-34, ,
2, ,-34, ,
2, ,-34, ,
1, ,-34, ,
2, ,-34, ,
1, ,-34, ,
1, ,-34, ,
2, ,-34, ,
1, ,-34, ,
2, ,-34, ,
1, ,-34, ,
2, ,-34, ,
1, ,-34, ,
1, ,-34, ,
1, ,-34, ,
2, ,-34, ,
1, ,-34, ,
2, ,-34, ,
2, ,-34, ,
1, ,-34, ,
1, ,-34, ,
1, ,-34, ,
1, ,-34, ,
2, ,-34, ,
1, ,-34, ,
1, ,-34, ,
2, ,-34, ,
1, ,-34, ,
3, ,-34, ,
2, ,-34, ,
1, ,-34, ,
2, ,-34, ,
1, ,-34, ,
2, ,-34, ,
3, ,-34, ,
2, ,-34, ,
2, ,-34, ,
1, ,-34, ,
1, ,-34, ,
1, ,-34, ,
1, ,-34, ,
2, ,-34, ,
2, ,-34, ,
1, ,-34, ,
1, ,-34, ,
2, ,-34, ,
2, ,-34, ,
2, ,-34, ,
1, ,-34, ,
1, ,-34, ,
1, ,-34, ,
1, ,-34, ,
1, ,-34, ,
1, ,-34, ,
2, ,-34, ,
2, ,-34, ,
1, ,-34, ,
1, ,-34, ,
1, ,-34, ,
1, ,-34, ,
2, ,-34, ,
2, ,-34, ,
2, ,-34, ,
2, ,-34, ,
2, ,-34, ,
2, ,-34, ,
1, ,-34, ,
1, ,-34, ,
1, ,-34, ,
1, ,-34, ,
1, ,-34, ,
2, ,-34, ,
1, ,-34, ,
1, ,-34, ,
2, ,-34, ,
1, ,-34, ,
3, ,-34, ,
3, ,-34, ,
2, ,-34, ,
1, ,-34, ,
1, ,-34, ,
1, ,-34, ,
1, ,-34, ,
1, ,-34, ,
1, ,-34, ,
1, ,-34, ,
1, ,-34, ,
1, ,-34, ,
0, ,-34, ,
0, ,-34, ,
1, ,-34, ,
-4, ,-34, ,
16, ,-34, ,
59, ,-34, ,
125, ,-34, ,
125, ,-34, ,
125, ,-34, ,
122, ,-34, ,
51, ,-34, ,
-21, ,-34, ,
40, ,-34, ,
125, ,-34, ,
125, ,-34, ,
125, ,-34, ,
125, ,-34, ,
125, ,-34, ,
125, ,-34, ,
125, ,-34, ,
125, ,-34, ,
125, ,-34, ,
125, ,-34, ,
125, ,-34, ,
125, ,-34, ,
125, ,-34, ,
125, ,-34, ,
125, ,-34, ,
125, ,-34, ,
125, ,-34, ,
125, ,-34, ,
125, ,-34, ,
125, ,-34, ,
125, ,-34, ,
125, ,-34, ,
125, ,-34, ,
125, ,-34, ,
125, ,-34, ,
124, ,-34, ,
124, ,-34, ,
123, ,-34, ,
118, ,-34, ,
107, ,-34, ,
105, ,-34, ,
101, ,-34, ,
95, ,-34, ,
89, ,-34, ,
84, ,-34, ,
80, ,-34, ,
76, ,-34, ,
70, ,-34, ,
64, ,-34, ,
63, ,-34, ,
59, ,-34, ,
54, ,-34, ,
53, ,-34, ,
50, ,-34, ,
49, ,-34, ,
44, ,-34, ,
41, ,-34, ,
38, ,-34, ,
36, ,-34, ,
34, ,-34, ,
32, ,-34, ,
29, ,-34, ,
30, ,-34, ,
26, ,-34, ,
24, ,-34, ,
24, ,-34, ,
21, ,-34, ,
19, ,-34, ,
19, ,-34, ,
17, ,-34, ,
16, ,-34, ,
14, ,-34, ,
13, ,-34, ,
12, ,-34, ,
11, ,-34, ,
10, ,-34, ,
11, ,-34, ,
8, ,-34, ,
8, ,-34, ,
7, ,-34, ,
5, ,-34, ,
5, ,-34, ,
4, ,-34, ,
3, ,-34, ,
3, ,-34, ,
3, ,-34, ,
3, ,-34, ,
3, ,-34, ,
1, ,-34, ,
2, ,-34, ,
1, ,-34, ,
0, ,-34, ,
0, ,-34, ,
0, ,-34, ,
0, ,-34, ,
-1, ,-34, ,
-1, ,-34, ,
-1, ,-34, ,
-1, ,-34, ,
-2, ,-34, ,
-1, ,-34, ,
-2, ,-34, ,
-1, ,-34, ,
-2, ,-34, ,
-3, ,-34, ,
-3, ,-34, ,
-4, ,-34, ,
-3, ,-34, ,
-3, ,-34, ,
-3, ,-34, ,
-3, ,-34, ,
-2, ,-34, ,
-3, ,-34, ,
-2, ,-34, ,
-3, ,-34, ,
-4, ,-34, ,
-2, ,-34, ,
-3, ,-34, ,
-1, ,-34, ,
-2, ,-34, ,
-3, ,-34, ,
-3, ,-34, ,
-3, ,-34, ,
-3, ,-34, ,
-3, ,-34, ,
-3, ,-34, ,
-2, ,-34, ,
-2, ,-34, ,
-2, ,-34, ,
-2, ,-34, ,
-2, ,-34, ,
-4, ,-34, ,
-2, ,-34, ,
-2, ,-34, ,
-2, ,-34, ,
-2, ,-34, ,
-2, ,-34, ,
-2, ,-34, ,
-3, ,-34, ,
-2, ,-34, ,
-2, ,-34, ,
-2, ,-34, ,
-2, ,-34, ,
-2, ,-34, ,
-1, ,-34, ,
-2, ,-34, ,
-1, ,-34, ,
-2, ,-34, ,
-1, ,-34, ,
-2, ,-34, ,
-1, ,-34, ,
-2, ,-34, ,
-1, ,-34, ,
-1, ,-34, ,
-2, ,-34, ,
-1, ,-34, ,
-1, ,-34, ,
-2, ,-34, ,
-1, ,-34, ,
-1, ,-34, ,
-1, ,-34, ,
0, ,-34, ,
0, ,-34, ,
0, ,-34, ,
0, ,-34, ,
0, ,-34, ,
0, ,-34, ,
0, ,-34, ,
-1, ,-34, ,
-1, ,-34, ,
-1, ,-34, ,
0, ,-34, ,
0, ,-34, ,
-2, ,-34, ,
0, ,-34, ,
1, ,-34, ,
-1, ,-34, ,
1, ,-34, ,
0, ,-34, ,
0, ,-34, ,
0, ,-34, ,
0, ,-34, ,
1, ,-34, ,
1, ,-34, ,
0, ,-34, ,
0, ,-34, ,
0, ,-34, ,
0, ,-34, ,
0, ,-34, ,
1, ,-34, ,
1, ,-34, ,
1, ,-34, ,
1, ,-34, ,
1, ,-34, ,
0, ,-34, ,
-1, ,-34, ,
1, ,-34, ,
1, ,-34, ,
0, ,-34, ,
2, ,-34, ,
1, ,-34, ,
2, ,-34, ,
0, ,-34, ,
0, ,-34, ,
0, ,-34, ,
0, ,-34, ,
1, ,-34, ,
1, ,-34, ,
1, ,-34, ,
1, ,-34, ,
1, ,-34, ,
1, ,-34, ,
0, ,-34, ,
1, ,-34, ,
1, ,-34, ,
2, ,-34, ,
1, ,-34, ,
1, ,-34, ,
0, ,-34, ,
0, ,-34, ,
2, ,-34, ,
1, ,-34, ,
2, ,-34, ,
2, ,-34, ,
1, ,-34, ,
1, ,-34, ,
1, ,-34, ,
1, ,-34, ,
1, ,-34, ,
1, ,-34, ,
2, ,-34, ,
2, ,-34, ,
1, ,-34, ,
2, ,-34, ,
0, ,-34, ,
2, ,-34, ,
2, ,-34, ,
0, ,-34, ,
1, ,-34, ,
1, ,-34, ,
1, ,-34, ,
1, ,-34, ,
2, ,-34, ,
1, ,-34, ,
2, ,-34, ,
1, ,-34, ,
1, ,-34, ,
2, ,-34, ,
1, ,-34, ,
2, ,-34, ,
2, ,-34, ,
2, ,-34, ,
2, ,-34, ,
1, ,-34, ,
1, ,-34, ,
1, ,-34, ,
0, ,-34, ,
1, ,-34, ,
0, ,-34, ,
0, ,-34, ,
1, ,-34, ,
0, ,-34, ,
1, ,-34, ,
2, ,-34, ,
1, ,-34, ,
2, ,-34, ,
1, ,-34, ,
1, ,-34, ,
2, ,-34, ,
1, ,-34, ,
1, ,-34, ,
2, ,-34, ,
0, ,-34, ,
1, ,-34, ,
0, ,-34, ,
0, ,-34, ,
0, ,-34, ,
-1, ,-34, ,
-1, ,-34, ,
0, ,-34, ,
0, ,-34, ,
0, ,-34, ,
-1, ,-34, ,
1, ,-34, ,
1, ,-34, ,
1, ,-34, ,
1, ,-34, ,
1, ,-34, ,
0, ,-34, ,
2, ,-34, ,
2, ,-34, ,
1, ,-34, ,
1, ,-34, ,
1, ,-34, ,
1, ,-34, ,
1, ,-34, ,
0, ,-34, ,
0, ,-34, ,
0, ,-34, ,
1, ,-34, ,
1, ,-34, ,
0, ,-34, ,
1, ,-34, ,
1, ,-34, ,
2, ,-34, ,
2, ,-34, ,
1, ,-34, ,
1, ,-34, ,
2, ,-34, ,
1, ,-34, ,
2, ,-34, ,
1, ,-34, ,
0, ,-34, ,
0, ,-34, ,
0, ,-34, ,
0, ,-34, ,
0, ,-34, ,
-1, ,-34, ,
0, ,-34, ,
0, ,-34, ,
0, ,-34, ,
0, ,-34, ,
-1, ,-34, ,
-1, ,-34, ,
1, ,-34, ,
1, ,-34, ,
2, ,-34, ,
2, ,-34, ,
1, ,-34, ,
2, ,-34, ,
1, ,-34, ,
2, ,-34, ,
1, ,-34, ,
0, ,-34, ,
0, ,-34, ,
0, ,-34, ,
0, ,-34, ,
0, ,-34, ,
0, ,-34, ,
0, ,-34, ,
0, ,-34, ,
0, ,-34, ,
1, ,-34, ,
2, ,-34, ,
1, ,-34, ,
2, ,-34, ,
0, ,-34, ,
0, ,-34, ,
-1, ,-34, ,
-1, ,-34, ,
-1, ,-34, ,
-3, ,-34, ,
-3, ,-34, ,
-4, ,-34, ,
-5, ,-34, ,
-6, ,-34, ,
-5, ,-34, ,
-6, ,-34, ,
-7, ,-34, ,
-7, ,-34, ,
-7, ,-34, ,
-7, ,-34, ,
-8, ,-34, ,
-9, ,-34, ,
-8, ,-34, ,
-10, ,-34, ,
-10, ,-34, ,
-12, ,-34, ,
-15, ,-34, ,
-15, ,-34, ,
-18, ,-34, ,
-23, ,-34, ,
-25, ,-34, ,
-26, ,-34, ,
-28, ,-34, ,
-34, ,-34, ,
-35, ,-34, ,
-36, ,-34, ,
-41, ,-34, ,
-44, ,-34, ,
-45, ,-34, ,
-48, ,-34, ,
-52, ,-34, ,
-60, ,-34, ,
-70, ,-34, ,
-81, ,-34, ,
-93, ,-34, ,
-126, ,-34, ,
-126, ,-34, ,
-126, ,-34, ,
-126, ,-34, ,
-126, ,-34, ,
-126, ,-34, ,
-126, ,-34, ,
-126, ,-34, ,
-126, ,-34, ,
-126, ,-34, ,
-126, ,-34, ,
-126, ,-34, ,
-126, ,-34, ,
-126, ,-34, ,
-126, ,-34, ,
-126, ,-34, ,
-126, ,-34, ,
-126, ,-34, ,
-126, ,-34, ,
-126, ,-34, ,
-126, ,-34, ,
-126, ,-34, ,
-126, ,-34, ,
-126, ,-34, ,
-126, ,-34, ,
-126, ,-34, ,
-126, ,-34, ,
-126, ,-34, ,
-126, ,-34, ,
-126, ,-34, ,
-126, ,-34, ,
-126, ,-34, ,
-126, ,-34, ,
-126, ,-34, ,
-126, ,-34, ,
-126, ,-34, ,
-120, ,-34, ,
-61, ,-34, ,
32, ,-34, ,
125, ,-34, ,
125, ,-34, ,
125, ,-34, ,
125, ,-34, ,
125, ,-34, ,
125, ,-34, ,
125, ,-34, ,
125, ,-34, ,
125, ,-34, ,
125, ,-34, ,
125, ,-34, ,
125, ,-34, ,
125, ,-34, ,
125, ,-34, ,
125, ,-34, ,
125, ,-34, ,
125, ,-34, ,
125, ,-34, ,
125, ,-34, ,
125, ,-34, ,
125, ,-34, ,
125, ,-34, ,
125, ,-34, ,
125, ,-34, ,
125, ,-34, ,
125, ,-34, ,
125, ,-34, ,
125, ,-34, ,
125, ,-34, ,
125, ,-34, ,
125, ,-34, ,
125, ,-34, ,
125, ,-34, ,
125, ,-34, ,
125, ,-34, ,
125, ,-34, ,
125, ,-34, ,
125, ,-34, ,
125, ,-34, ,
125, ,-34, ,
125, ,-34, ,
124, ,-34, ,
122, ,-34, ,
118, ,-34, ,
114, ,-34, ,
105, ,-34, ,
103, ,-34, ,
98, ,-34, ,
93, ,-34, ,
87, ,-34, ,
83, ,-34, ,
78, ,-34, ,
76, ,-34, ,
69, ,-34, ,
67, ,-34, ,
64, ,-34, ,
60, ,-34, ,
54, ,-34, ,
54, ,-34, ,
51, ,-34, ,
49, ,-34, ,
45, ,-34, ,
43, ,-34, ,
43, ,-34, ,
38, ,-34, ,
36, ,-34, ,
35, ,-34, ,
32, ,-34, ,
32, ,-34, ,
30, ,-34, ,
27, ,-34, ,
27, ,-34, ,
25, ,-34, ,
23, ,-34, ,
22, ,-34, ,
22, ,-34, ,
21, ,-34, ,
19, ,-34, ,
17, ,-34, ,
17, ,-34, ,
14, ,-34, ,
13, ,-34, ,
14, ,-34, ,
11, ,-34, ,
10, ,-34, ,
8, ,-34, ,
1, ,-34, ,
-7, ,-34, ,
-26, ,-34, ,
-94, ,-34, ,
-126, ,-34, ,
-126, ,-34, ,
-126, ,-34, ,
-126, ,-34, ,
-126, ,-34, ,
-126, ,-34, ,
-126, ,-34, ,
-126, ,-34, ,
-126, ,-34, ,
-126, ,-34, ,
-126, ,-34, ,
-126, ,-34, ,
-126, ,-34, ,
-126, ,-34, ,
-126, ,-34, ,
-126, ,-34, ,
-126, ,-34, ,
-126, ,-34, ,
-126, ,-34, ,
-125, ,-34, ,
-120, ,-34, ,
-76, ,-34, ,
25, ,-34, ,
97, ,-34, ,
107, ,-34, ,
116, ,-34, ,
125, ,-34, ,
125, ,-34, ,
124, ,-34, ,
123, ,-34, ,
107, ,-34, ,
67, ,-34, ,
44, ,-34, ,
20, ,-34, ,
-7, ,-34, ,
-64, ,-34, ,
-91, ,-34, ,
-115, ,-34, ,
-126, ,-34, ,
-126, ,-34, ,
-126, ,-34, ,
-126, ,-34, ,
-126, ,-34, ,
-126, ,-34, ,
-126, ,-34, ,
-126, ,-34, ,
-126, ,-34, ,
-126, ,-34, ,
-126, ,-34, ,
-126, ,-34, ,
-126, ,-34, ,
-126, ,-34, ,
-126, ,-34, ,
-126, ,-34, ,
-126, ,-34, ,
-126, ,-34, ,
-126, ,-34, ,
-126, ,-34, ,
-125, ,-34, ,
-98, ,-34, ,
-86, ,-34, ,
-73, ,-34, ,
-64, ,-34, ,
-42, ,-34, ,
-32, ,-34, ,
-25, ,-34, ,
-15, ,-34, ,
-2, ,-34, ,
4, ,-34, ,
13, ,-34, ,
18, ,-34, ,
30, ,-34, ,
35, ,-34, ,
38, ,-34, ,
44, ,-34, ,
52, ,-34, ,
55, ,-34, ,
59, ,-34, ,
61, ,-34, ,
65, ,-34, ,
69, ,-34, ,
71, ,-34, ,
74, ,-34, ,
76, ,-34, ,
76, ,-34, ,
78, ,-34, ,
79, ,-34, ,
80, ,-34, ,
83, ,-34, ,
82, ,-34, ,
84, ,-34, ,
84, ,-34, ,
82, ,-34, ,
83, ,-34, ,
80, ,-34, ,
78, ,-34, ,
78, ,-34, ,
76, ,-34, ,
76, ,-34, ,
73, ,-34, ,
71, ,-34, ,
68, ,-34, ,
64, ,-34, ,
59, ,-34, ,
56, ,-34, ,
50, ,-34, ,
47, ,-34, ,
39, ,-34, ,
32, ,-34, ,
26, ,-34, ,
20, ,-34, ,
7, ,-34, ,
3, ,-34, ,
-5, ,-34, ,
-11, ,-34, ,
-25, ,-34, ,
-32, ,-34, ,
-35, ,-34, ,
-44, ,-34, ,
-53, ,-34, ,
-57, ,-34, ,
-62, ,-34, ,
-64, ,-34, ,
-69, ,-34, ,
-70, ,-34, ,
-70, ,-34, ,
-71, ,-34, ,
-66, ,-34, ,
-63, ,-34, ,
-59, ,-34, ,
-54, ,-34, ,
-45, ,-34, ,
-39, ,-34, ,
-34, ,-34, ,
-30, ,-34, ,
-17, ,-34, ,
-10, ,-34, ,
-5, ,-34, ,
0, ,-34, ,
13, ,-34, ,
16, ,-34, ,
23, ,-34, ,
26, ,-34, ,
36, ,-34, ,
41, ,-34, ,
45, ,-34, ,
50, ,-34, ,
57, ,-34, ,
61, ,-34, ,
65, ,-34, ,
67, ,-34, ,
70, ,-34, ,
73, ,-34, ,
74, ,-34, ,
77, ,-34, ,
78, ,-34, ,
77, ,-34, ,
79, ,-34, ,
79, ,-34, ,
78, ,-34, ,
78, ,-34, ,
77, ,-34, ,
77, ,-34, ,
76, ,-34, ,
73, ,-34, ,
71, ,-34, ,
69, ,-34, ,
64, ,-34, ,
65, ,-34, ,
61, ,-34, ,
61, ,-34, ,
56, ,-34, ,
52, ,-34, ,
52, ,-34, ,
50, ,-34, ,
45, ,-34, ,
46, ,-34, ,
43, ,-34, ,
44, ,-34, ,
40, ,-34, ,
37, ,-34, ,
38, ,-34, ,
35, ,-34, ,
32, ,-34, ,
32, ,-34, ,
30, ,-34, ,
28, ,-34, ,
27, ,-34, ,
25, ,-34, ,
25, ,-34, ,
23, ,-34, ,
22, ,-34, ,
22, ,-34, ,
20, ,-34, ,
20, ,-34, ,
19, ,-34, ,
17, ,-34, ,
17, ,-34, ,
16, ,-34, ,
14, ,-34, ,
15, ,-34, ,
13, ,-34, ,
14, ,-34, ,
13, ,-34, ,
11, ,-34, ,
11, ,-34, ,
11, ,-34, ,
10, ,-34, ,
10, ,-34, ,
10, ,-34, ,
9, ,-34, ,
10, ,-34, ,
8, ,-34, ,
10, ,-34, ,
10, ,-34, ,
10, ,-34, ,
10, ,-34, ,
10, ,-34, ,
11, ,-34, ,
11, ,-34, ,
11, ,-34, ,
12, ,-34, ,
13, ,-34, ,
15, ,-34, ,
16, ,-34, ,
16, ,-34, ,
20, ,-34, ,
21, ,-34, ,
23, ,-34, ,
25, ,-34, ,
25, ,-34, ,
28, ,-34, ,
31, ,-34, ,
30, ,-34, ,
32, ,-34, ,
35, ,-34, ,
35, ,-34, ,
35, ,-34, ,
36, ,-34, ,
36, ,-34, ,
38, ,-34, ,
38, ,-34, ,
39, ,-34, ,
41, ,-34, ,
41, ,-34, ,
41, ,-34, ,
41, ,-34, ,
40, ,-34, ,
40, ,-34, ,
39, ,-34, ,
39, ,-34, ,
38, ,-34, ,
38, ,-34, ,
38, ,-34, ,
37, ,-34, ,
37, ,-34, ,
38, ,-34, ,
36, ,-34, ,
37, ,-34, ,
36, ,-34, ,
34, ,-34, ,
34, ,-34, ,
33, ,-34, ,
32, ,-34, ,
32, ,-34, ,
27, ,-34, ,
27, ,-34, ,
24, ,-34, ,
21, ,-34, ,
20, ,-34, ,
15, ,-34, ,
10, ,-34, ,
8, ,-34, ,
4, ,-34, ,
1, ,-34, ,
-5, ,-34, ,
-10, ,-34, ,
-12, ,-34, ,
-16, ,-34, ,
-25, ,-34, ,
-26, ,-34, ,
-31, ,-34, ,
-35, ,-34, ,
-39, ,-34, ,
-43, ,-34, ,
-45, ,-34, ,
-48, ,-34, ,
-52, ,-34, ,
-53, ,-34, ,
-56, ,-34, ,
-55, ,-34, ,
-57, ,-34, ,
-58, ,-34, ,
-57, ,-34, ,
-59, ,-34, ,
-56, ,-34, ,
-56, ,-34, ,
-55, ,-34, ,
-54, ,-34, ,
-51, ,-34, ,
-52, ,-34, ,
-49, ,-34, ,
-49, ,-34, ,
-44, ,-34, ,
-41, ,-34, ,
-39, ,-34, ,
-36, ,-34, ,
-29, ,-34, ,
-29, ,-34, ,
-24, ,-34, ,
-22, ,-34, ,
-17, ,-34, ,
-14, ,-34, ,
-12, ,-34, ,
-8, ,-34, ,
-5, ,-34, ,
-4, ,-34, ,
-3, ,-34, ,
-4, ,-34, ,
-6, ,-34, ,
-7, ,-34, ,
-10, ,-34, ,
-13, ,-34, ,
-20, ,-34, ,
-26, ,-34, ,
-30, ,-34, ,
-37, ,-34, ,
-49, ,-34, ,
-53, ,-34, ,
-61, ,-34, ,
-65, ,-34, ,
-78, ,-34, ,
-84, ,-34, ,
-87, ,-34, ,
-92, ,-34, ,
-99, ,-34, ,
-100, ,-34, ,
-102, ,-34, ,
-104, ,-34, ,
-104, ,-34, ,
-103, ,-34, ,
-103, ,-34, ,
-103, ,-34, ,
-98, ,-34, ,
-96, ,-34, ,
-92, ,-34, ,
-90, ,-34, ,
-83, ,-34, ,
-79, ,-34, ,
-74, ,-34, ,
-71, ,-34, ,
-64, ,-34, ,
-58, ,-34, ,
-54, ,-34, ,
-50, ,-34, ,
-41, ,-34, ,
-38, ,-34, ,
-35, ,-34, ,
-31, ,-34, ,
-22, ,-34, ,
-17, ,-34, ,
-15, ,-34, ,
-10, ,-34, ,
-2, ,-34, ,
0, ,-34, ,
4, ,-34, ,
5, ,-34, ,
9, ,-34, ,
12, ,-34, ,
13, ,-34, ,
14, ,-34, ,
14, ,-34, ,
10, ,-34, ,
11, ,-34, ,
8, ,-34, ,
5, ,-34, ,
2, ,-34, ,
-2, ,-34, ,
-4, ,-34, ,
-8, ,-34, ,
-13, ,-34, ,
-13, ,-34, ,
-16, ,-34, ,
-20, ,-34, ,
-21, ,-34, ,
-23, ,-34, ,
-23, ,-34, ,
-23, ,-34, ,
-23, ,-34, ,
-23, ,-34, ,
-23, ,-34, ,
-20, ,-34, ,
-20, ,-34, ,
-18, ,-34, ,
-17, ,-34, ,
-13, ,-34, ,
-14, ,-34, ,
-11, ,-34, ,
-11, ,-34, ,
-9, ,-34, ,
-8, ,-34, ,
-9, ,-34, ,
-8, ,-34, ,
-9, ,-34, ,
-8, ,-34, ,
-7, ,-34, ,
-10, ,-34, ,
-11, ,-34, ,
-11, ,-34, ,
-11, ,-34, ,
-10, ,-34, ,
-9, ,-34, ,
-9, ,-34, ,
-7, ,-34, ,
-7, ,-34, ,
-2, ,-34, ,
-1, ,-34, ,
2, ,-34, ,
6, ,-34, ,
11, ,-34, ,
13, ,-34, ,
17, ,-34, ,
19, ,-34, ,
24, ,-34, ,
28, ,-34, ,
30, ,-34, ,
32, ,-34, ,
35, ,-34, ,
35, ,-34, ,
37, ,-34, ,
37, ,-34, ,
38, ,-34, ,
38, ,-34, ,
37, ,-34, ,
37, ,-34, ,
36, ,-34, ,
34, ,-34, ,
35, ,-34, ,
32, ,-34, ,
31, ,-34, ,
31, ,-34, ,
30, ,-34, ,
31, ,-34, ,
33, ,-34, ,
34, ,-34, ,
35, ,-34, ,
39, ,-34, ,
45, ,-34, ,
50, ,-34, ,
54, ,-34, ,
62, ,-34, ,
71, ,-34, ,
77, ,-34, ,
84, ,-34, ,
89, ,-34, ,
101, ,-34, ,
109, ,-34, ,
111, ,-34, ,
118, ,-34, ,
125, ,-34, ,
125, ,-34, ,
125, ,-34, ,
125, ,-34, ,
125, ,-34, ,
125, ,-34, ,
125, ,-34, ,
125, ,-34, ,
125, ,-34, ,
125, ,-34, ,
125, ,-34, ,
125, ,-34, ,
124, ,-34, ,
122, ,-34, ,
115, ,-34, ,
109, ,-34, ,
97, ,-34, ,
87, ,-34, ,
81, ,-34, ,
72, ,-34, ,
55, ,-34, ,
48, ,-34, ,
38, ,-34, ,
30, ,-34, ,
14, ,-34, ,
6, ,-34, ,
0, ,-34, ,
-9, ,-34, ,
-19, ,-34, ,
-23, ,-34, ,
-26, ,-34, ,
-27, ,-34, ,
-27, ,-34, ,
-27, ,-34, ,
-25, ,-34, ,
-23, ,-34, ,
-15, ,-34, ,
-8, ,-34, ,
-2, ,-34, ,
5, ,-34, ,
20, ,-34, ,
25, ,-34, ,
35, ,-34, ,
39, ,-34, ,
54, ,-34, ,
60, ,-34, ,
64, ,-34, ,
70, ,-34, ,
75, ,-34, ,
74, ,-34, ,
75, ,-34, ,
72, ,-34, ,
69, ,-34, ,
66, ,-34, ,
60, ,-34, ,
54, ,-34, ,
41, ,-34, ,
33, ,-34, ,
24, ,-34, ,
12, ,-34, ,
-6, ,-34, ,
-16, ,-34, ,
-26, ,-34, ,
-35, ,-34, ,
-52, ,-34, ,
-62, ,-34, ,
-68, ,-34, ,
-75, ,-34, ,
-84, ,-34, ,
-85, ,-34, ,
-88, ,-34, ,
-86, ,-34, ,
-83, ,-34, ,
-81, ,-34, ,
-78, ,-34, ,
-75, ,-34, ,
-63, ,-34, ,
-56, ,-34, ,
-50, ,-34, ,
-44, ,-34, ,
-33, ,-34, ,
-29, ,-34, ,
-22, ,-34, ,
-19, ,-34, ,
-12, ,-34, ,
-9, ,-34, ,
-10, ,-34, ,
-9, ,-34, ,
-11, ,-34, ,
-15, ,-34, ,
-17, ,-34, ,
-21, ,-34, ,
-30, ,-34, ,
-35, ,-34, ,
-43, ,-34, ,
-48, ,-34, ,
-62, ,-34, ,
-69, ,-34, ,
-75, ,-34, ,
-84, ,-34, ,
-94, ,-34, ,
-99, ,-34, ,
-102, ,-34, ,
-104, ,-34, ,
-105, ,-34, ,
-107, ,-34, ,
-107, ,-34, ,
-105, ,-34, ,
-101, ,-34, ,
-96, ,-34, ,
-93, ,-34, ,
-89, ,-34, ,
-78, ,-34, ,
-73, ,-34, ,
-66, ,-34, ,
-61, ,-34, ,
-49, ,-34, ,
-45, ,-34, ,
-39, ,-34, ,
-35, ,-34, ,
-26, ,-34, ,
-25, ,-34, ,
-22, ,-34, ,
-20, ,-34, ,
-17, ,-34, ,
-16, ,-34, ,
-17, ,-34, ,
-16, ,-34, ,
-17, ,-34, ,
-19, ,-34, ,
-20, ,-34, ,
-21, ,-34, ,
-26, ,-34, ,
-26, ,-34, ,
-28, ,-34, ,
-29, ,-34, ,
-31, ,-34, ,
-31, ,-34, ,
-31, ,-34, ,
-34, ,-34, ,
-33, ,-34, ,
-31, ,-34, ,
-35, ,-34, ,
-32, ,-34, ,
-30, ,-34, ,
-30, ,-34, ,
-29, ,-34, ,
-28, ,-34, ,
-25, ,-34, ,
-23, ,-34, ,
-21, ,-34, ,
-19, ,-34, ,
-17, ,-34, ,
-16, ,-34, ,
-14, ,-34, ,
-14, ,-34, ,
-10, ,-34, ,
-9, ,-34, ,
-9, ,-34, ,
-8, ,-34, ,
-5, ,-34, ,
-6, ,-34, ,
-3, ,-34, ,
-3, ,-34, ,
-2, ,-34, ,
0, ,-34, ,
2, ,-34, ,
3, ,-34, ,
4, ,-34, ,
4, ,-34, ,
6, ,-34, ,
6, ,-34, ,
8, ,-34, ,
10, ,-34, ,
9, ,-34, ,
11, ,-34, ,
11, ,-34, ,
10, ,-34, ,
10, ,-34, ,
10, ,-34, ,
9, ,-34, ,
9, ,-34, ,
8, ,-34, ,
6, ,-34, ,
5, ,-34, ,
3, ,-34, ,
2, ,-34, ,
-1, ,-34, ,
-3, ,-34, ,
-6, ,-34, ,
-9, ,-34, ,
-10, ,-34, ,
-13, ,-34, ,
-16, ,-34, ,
-17, ,-34, ,
-17, ,-34, ,
-20, ,-34, ,
-20, ,-34, ,
-21, ,-34, ,
-21, ,-34, ,
-21, ,-34, ,
-22, ,-34, ,
-21, ,-34, ,
-20, ,-34, ,
-18, ,-34, ,
-17, ,-34, ,
-18, ,-34, ,
-14, ,-34, ,
-12, ,-34, ,
-13, ,-34, ,
-10, ,-34, ,
-9, ,-34, ,
-8, ,-34, ,
-5, ,-34, ,
-5, ,-34, ,
-2, ,-34, ,
-1, ,-34, ,
0, ,-34, ,
1, ,-34, ,
0, ,-34, ,
2, ,-34, ,
3, ,-34, ,
3, ,-34, ,
4, ,-34, ,
4, ,-34, ,
3, ,-34, ,
4, ,-34, ,
5, ,-34, ,
5, ,-34, ,
5, ,-34, ,
5, ,-34, ,
4, ,-34, ,
4, ,-34, ,
4, ,-34, ,
4, ,-34, ,
3, ,-34, ,
4, ,-34, ,
4, ,-34, ,
2, ,-34, ,
4, ,-34, ,
4, ,-34, ,
3, ,-34, ,
6, ,-34, ,
5, ,-34, ,
6, ,-34, ,
9, ,-34, ,
8, ,-34, ,
10, ,-34, ,
12, ,-34, ,
12, ,-34, ,
15, ,-34, ,
15, ,-34, ,
18, ,-34, ,
20, ,-34, ,
21, ,-34, ,
23, ,-34, ,
26, ,-34, ,
25, ,-34, ,
28, ,-34, ,
28, ,-34, ,
29, ,-34, ,
30, ,-34, ,
28, ,-34, ,
30, ,-34, ,
30, ,-34, ,
29, ,-34, ,
30, ,-34, ,
28, ,-34, ,
27, ,-34, ,
28, ,-34, ,
25, ,-34, ,
25, ,-34, ,
25, ,-34, ,
23, ,-34, ,
22, ,-34, ,
21, ,-34, ,
19, ,-34, ,
19, ,-34, ,
18, ,-34, ,
19, ,-34, ,
17, ,-34, ,
15, ,-34, ,
15, ,-34, ,
15, ,-34, ,
14, ,-34, ,
14, ,-34, ,
13, ,-34, ,
14, ,-34, ,
13, ,-34, ,
11, ,-34, ,
13, ,-34, ,
11, ,-34, ,
10, ,-34, ,
10, ,-34, ,
10, ,-34, ,
10, ,-34, ,
10, ,-34, ,
10, ,-34, ,
10, ,-34, ,
10, ,-34, ,
10, ,-34, ,
11, ,-34, ,
10, ,-34, ,
12, ,-34, ,
12, ,-34, ,
11, ,-34, ,
12, ,-34, ,
12, ,-34, ,
12, ,-34, ,
13, ,-34, ,
13, ,-34, ,
14, ,-34, ,
14, ,-34, ,
12, ,-34, ,
14, ,-34, ,
13, ,-34, ,
13, ,-34, ,
13, ,-34, ,
12, ,-34, ,
12, ,-34, ,
10, ,-34, ,
9, ,-34, ,
7, ,-34, ,
7, ,-34, ,
4, ,-34, ,
4, ,-34, ,
1, ,-34, ,
0, ,-34, ,
-1, ,-34, ,
-2, ,-34, ,
-3, ,-34, ,
-5, ,-34, ,
-6, ,-34, ,
-6, ,-34, ,
-7, ,-34, ,
-7, ,-34, ,
-7, ,-34, ,
-7, ,-34, ,
-7, ,-34, ,
-7, ,-34, ,
-6, ,-34, ,
-5, ,-34, ,
-5, ,-34, ,
-3, ,-34, ,
-1, ,-34, ,
-1, ,-34, ,
1, ,-34, ,
2, ,-34, ,
3, ,-34, ,
6, ,-34, ,
5, ,-34, ,
6, ,-34, ,
8, ,-34, ,
8, ,-34, ,
9, ,-34, ,
10, ,-34, ,
10, ,-34, ,
12, ,-34, ,
11, ,-34, ,
12, ,-34, ,
12, ,-34, ,
12, ,-34, ,
12, ,-34, ,
11, ,-34, ,
11, ,-34, ,
11, ,-34, ,
11, ,-34, ,
11, ,-34, ,
11, ,-34, ,
10, ,-34, ,
11, ,-34, ,
10, ,-34, ,
10, ,-34, ,
11, ,-34, ,
9, ,-34, ,
9, ,-34, ,
8, ,-34, ,
7, ,-34, ,
8, ,-34, ,
5, ,-34, ,
4, ,-34, ,
4, ,-34, ,
0, ,-34, ,
0, ,-34, ,
-2, ,-34, ,
-5, ,-34, ,
-5, ,-34, ,
-9, ,-34, ,
-13, ,-34, ,
-13, ,-34, ,
-16, ,-34, ,
-17, ,-34, ,
-21, ,-34, ,
-23, ,-34, ,
-25, ,-34, ,
-30, ,-34, ,
-33, ,-34, ,
-33, ,-34, ,
-35, ,-34, ,
-36, ,-34, ,
-39, ,-34, ,
-43, ,-34, ,
-42, ,-34, ,
-45, ,-34, ,
-49, ,-34, ,
-49, ,-34, ,
-52, ,-34, ,
-52, ,-34, ,
-54, ,-34, ,
-55, ,-34, ,
-56, ,-34, ,
-59, ,-34, ,
-60, ,-34, ,
-60, ,-34, ,
-62, ,-34, ,
-63, ,-34, ,
-63, ,-34, ,
-63, ,-34, ,
-63, ,-34, ,
-63, ,-34, ,
-63, ,-34, ,
-61, ,-34, ,
-61, ,-34, ,
-59, ,-34, ,
-58, ,-34, ,
-56, ,-34, ,
