raw_data/100% Glycerol, Impulsion 2Hz, Sonde 5MHz, Rampe 0.7Hz/temp0000066.CSV

Format,1.0B,
Memory Length,10000,Memory Length,10000,
IntpDistance,0,IntpDistance,0,
Trigger Address,159,Trigger Address,159,
Trigger Level,2.720E-01,Trigger Level,2.720E-01,
Source,CH1,Source,CH2,
Vertical Units,V,Vertical Units,V,
Vertical Units Div,0,Vertical Units Div,0,
Vertical Units Extend Div,16,Vertical Units Extend Div,16,
Label,,Label,,
Probe Type,0,Probe Type,0,
Probe Ratio,1.000e+00,Probe Ratio,1.000e+00,
Vertical Scale,2.000e-01,Vertical Scale,2.000e+00,
Vertical Position,0.000e+00,Vertical Position,0.000e+00,
Horizontal Units,S,Horizontal Units,S,
Horizontal Scale,5.000E-06,Horizontal Scale,5.000E-06,
Horizontal Position,2.420E-05,Horizontal Position,2.420E-05,
Horizontal Mode,Main,Horizontal Mode,Main,
SincET Mode,Real Time,SincET Mode,Real Time,
Sampling Period,5.000e-09,Sampling Period,5.000e-09,
Horizontal Old Scale,5.000E-06,Horizontal Old Scale,5.000E-06,
Horizontal Old Position,2.420E-05,Horizontal Old Position,2.420E-05,
Firmware,V1.32,Firmware,V1.32,
Mode,Fast,Mode,Fast,
Waveform Data,,Waveform Data,,
2, ,-23, ,
1, ,-23, ,
2, ,-23, ,
3, ,-23, ,
2, ,-23, ,
2, ,-23, ,
1, ,-23, ,
0, ,-23, ,
2, ,-23, ,
2, ,-23, ,
2, ,-23, ,
2, ,-24, ,
2, ,-24, ,
2, ,-23, ,
1, ,-23, ,
2, ,-23, ,
1, ,-23, ,
1, ,-23, ,
2, ,-23, ,
2, ,-23, ,
2, ,-23, ,
2, ,-23, ,
2, ,-23, ,
1, ,-23, ,
1, ,-23, ,
1, ,-23, ,
1, ,-23, ,
1, ,-23, ,
2, ,-23, ,
2, ,-23, ,
1, ,-23, ,
2, ,-23, ,
2, ,-23, ,
1, ,-24, ,
2, ,-24, ,
2, ,-24, ,
1, ,-23, ,
2, ,-23, ,
2, ,-23, ,
2, ,-23, ,
2, ,-23, ,
1, ,-23, ,
2, ,-23, ,
2, ,-23, ,
2, ,-23, ,
2, ,-23, ,
2, ,-23, ,
2, ,-23, ,
2, ,-23, ,
1, ,-23, ,
2, ,-23, ,
2, ,-23, ,
1, ,-23, ,
2, ,-23, ,
2, ,-23, ,
1, ,-23, ,
2, ,-23, ,
2, ,-23, ,
2, ,-23, ,
2, ,-23, ,
1, ,-23, ,
2, ,-23, ,
1, ,-23, ,
2, ,-23, ,
2, ,-23, ,
1, ,-24, ,
2, ,-24, ,
2, ,-24, ,
2, ,-23, ,
2, ,-23, ,
2, ,-23, ,
2, ,-23, ,
2, ,-23, ,
2, ,-23, ,
2, ,-23, ,
1, ,-23, ,
2, ,-23, ,
2, ,-23, ,
2, ,-24, ,
1, ,-24, ,
3, ,-23, ,
1, ,-23, ,
1, ,-23, ,
2, ,-23, ,
1, ,-24, ,
2, ,-24, ,
2, ,-24, ,
2, ,-23, ,
2, ,-23, ,
2, ,-23, ,
2, ,-23, ,
2, ,-23, ,
2, ,-23, ,
2, ,-23, ,
1, ,-23, ,
2, ,-23, ,
3, ,-23, ,
1, ,-23, ,
2, ,-23, ,
2, ,-23, ,
1, ,-24, ,
2, ,-24, ,
2, ,-24, ,
1, ,-23, ,
2, ,-23, ,
2, ,-23, ,
2, ,-23, ,
3, ,-23, ,
2, ,-23, ,
3, ,-23, ,
2, ,-24, ,
2, ,-24, ,
2, ,-23, ,
1, ,-23, ,
2, ,-23, ,
2, ,-23, ,
1, ,-23, ,
2, ,-23, ,
2, ,-23, ,
1, ,-23, ,
2, ,-23, ,
2, ,-23, ,
2, ,-23, ,
2, ,-23, ,
2, ,-23, ,
2, ,-23, ,
1, ,-23, ,
2, ,-23, ,
2, ,-23, ,
1, ,-23, ,
1, ,-23, ,
2, ,-23, ,
1, ,-23, ,
3, ,-23, ,
2, ,-23, ,
2, ,-23, ,
2, ,-23, ,
2, ,-23, ,
2, ,-23, ,
2, ,-24, ,
2, ,-24, ,
2, ,-23, ,
1, ,-23, ,
2, ,-23, ,
2, ,-23, ,
2, ,-23, ,
2, ,-23, ,
2, ,-23, ,
2, ,-23, ,
1, ,-23, ,
2, ,-23, ,
1, ,-23, ,
3, ,-23, ,
2, ,-23, ,
2, ,-23, ,
2, ,-23, ,
1, ,-23, ,
2, ,-23, ,
2, ,-23, ,
2, ,-23, ,
2, ,-23, ,
1, ,-23, ,
2, ,-23, ,
2, ,-23, ,
3, ,-23, ,
0, ,-23, ,
2, ,-23, ,
4, ,-23, ,
44, ,-23, ,
112, ,-23, ,
125, ,-23, ,
125, ,-23, ,
124, ,-23, ,
119, ,-23, ,
95, ,-23, ,
11, ,-23, ,
125, ,-23, ,
125, ,-23, ,
125, ,-23, ,
125, ,-23, ,
125, ,-23, ,
125, ,-23, ,
125, ,-23, ,
125, ,-23, ,
125, ,-23, ,
125, ,-23, ,
125, ,-23, ,
125, ,-23, ,
125, ,-23, ,
125, ,-23, ,
125, ,-23, ,
125, ,-23, ,
125, ,-23, ,
125, ,-23, ,
125, ,-23, ,
125, ,-23, ,
125, ,-23, ,
125, ,-23, ,
125, ,-23, ,
125, ,-23, ,
125, ,-23, ,
125, ,-23, ,
125, ,-23, ,
124, ,-23, ,
118, ,-23, ,
115, ,-23, ,
107, ,-23, ,
102, ,-23, ,
98, ,-23, ,
93, ,-23, ,
89, ,-23, ,
81, ,-23, ,
76, ,-23, ,
74, ,-23, ,
71, ,-23, ,
64, ,-23, ,
61, ,-23, ,
58, ,-23, ,
57, ,-23, ,
51, ,-23, ,
49, ,-23, ,
47, ,-23, ,
43, ,-24, ,
40, ,-24, ,
38, ,-23, ,
36, ,-23, ,
35, ,-23, ,
32, ,-23, ,
29, ,-24, ,
29, ,-24, ,
27, ,-24, ,
24, ,-23, ,
24, ,-23, ,
21, ,-23, ,
20, ,-23, ,
18, ,-23, ,
17, ,-23, ,
17, ,-23, ,
14, ,-23, ,
12, ,-23, ,
12, ,-23, ,
12, ,-23, ,
12, ,-23, ,
9, ,-24, ,
9, ,-24, ,
8, ,-23, ,
7, ,-23, ,
5, ,-23, ,
6, ,-23, ,
5, ,-23, ,
5, ,-23, ,
4, ,-23, ,
3, ,-23, ,
2, ,-23, ,
2, ,-23, ,
2, ,-23, ,
2, ,-23, ,
1, ,-23, ,
1, ,-23, ,
0, ,-23, ,
-1, ,-23, ,
0, ,-23, ,
-1, ,-23, ,
-1, ,-23, ,
-1, ,-24, ,
-1, ,-24, ,
-1, ,-24, ,
-1, ,-23, ,
-2, ,-23, ,
-2, ,-23, ,
-2, ,-23, ,
-2, ,-23, ,
-2, ,-23, ,
-2, ,-23, ,
-2, ,-23, ,
-2, ,-23, ,
-4, ,-23, ,
-3, ,-23, ,
-4, ,-23, ,
-3, ,-23, ,
-2, ,-23, ,
-3, ,-23, ,
-3, ,-23, ,
-2, ,-23, ,
-3, ,-23, ,
-3, ,-23, ,
-3, ,-24, ,
-3, ,-24, ,
-3, ,-23, ,
-4, ,-23, ,
-3, ,-23, ,
-3, ,-23, ,
-4, ,-23, ,
-2, ,-23, ,
-2, ,-23, ,
-3, ,-23, ,
-4, ,-23, ,
-3, ,-23, ,
-3, ,-23, ,
-2, ,-23, ,
-2, ,-23, ,
-2, ,-23, ,
-3, ,-23, ,
-2, ,-23, ,
-2, ,-23, ,
-3, ,-23, ,
-2, ,-23, ,
-1, ,-23, ,
-2, ,-24, ,
-1, ,-24, ,
-2, ,-24, ,
-2, ,-23, ,
-2, ,-24, ,
-1, ,-24, ,
0, ,-23, ,
-1, ,-23, ,
-2, ,-23, ,
-1, ,-23, ,
-1, ,-24, ,
-1, ,-24, ,
-1, ,-23, ,
-2, ,-23, ,
-1, ,-23, ,
0, ,-23, ,
-1, ,-23, ,
0, ,-23, ,
-1, ,-23, ,
-2, ,-23, ,
0, ,-23, ,
0, ,-23, ,
0, ,-23, ,
0, ,-23, ,
0, ,-23, ,
0, ,-23, ,
0, ,-24, ,
0, ,-24, ,
0, ,-23, ,
0, ,-23, ,
0, ,-23, ,
0, ,-23, ,
0, ,-23, ,
0, ,-23, ,
0, ,-23, ,
-1, ,-23, ,
1, ,-23, ,
0, ,-23, ,
0, ,-23, ,
0, ,-23, ,
0, ,-23, ,
0, ,-23, ,
0, ,-23, ,
1, ,-23, ,
1, ,-23, ,
0, ,-24, ,
1, ,-24, ,
1, ,-24, ,
0, ,-24, ,
0, ,-24, ,
0, ,-24, ,
1, ,-23, ,
1, ,-23, ,
1, ,-23, ,
1, ,-23, ,
1, ,-23, ,
1, ,-23, ,
1, ,-23, ,
1, ,-23, ,
1, ,-23, ,
2, ,-23, ,
1, ,-23, ,
0, ,-23, ,
0, ,-23, ,
0, ,-23, ,
1, ,-23, ,
2, ,-23, ,
1, ,-23, ,
1, ,-23, ,
1, ,-23, ,
1, ,-23, ,
2, ,-23, ,
2, ,-23, ,
1, ,-23, ,
0, ,-23, ,
1, ,-23, ,
1, ,-23, ,
0, ,-23, ,
1, ,-23, ,
1, ,-23, ,
1, ,-23, ,
2, ,-23, ,
1, ,-23, ,
1, ,-23, ,
1, ,-23, ,
1, ,-23, ,
1, ,-23, ,
1, ,-23, ,
1, ,-23, ,
1, ,-23, ,
1, ,-23, ,
1, ,-23, ,
2, ,-23, ,
0, ,-23, ,
1, ,-23, ,
1, ,-23, ,
1, ,-23, ,
1, ,-23, ,
1, ,-23, ,
0, ,-23, ,
2, ,-23, ,
1, ,-23, ,
2, ,-23, ,
2, ,-23, ,
1, ,-23, ,
2, ,-23, ,
1, ,-23, ,
2, ,-23, ,
2, ,-23, ,
2, ,-23, ,
2, ,-23, ,
2, ,-23, ,
0, ,-23, ,
1, ,-23, ,
1, ,-23, ,
1, ,-23, ,
1, ,-23, ,
0, ,-23, ,
1, ,-23, ,
1, ,-23, ,
1, ,-23, ,
1, ,-23, ,
0, ,-23, ,
1, ,-23, ,
2, ,-23, ,
1, ,-23, ,
1, ,-23, ,
2, ,-23, ,
1, ,-23, ,
2, ,-23, ,
2, ,-23, ,
-1, ,-23, ,
-1, ,-23, ,
-2, ,-23, ,
-2, ,-23, ,
-6, ,-24, ,
-6, ,-24, ,
-9, ,-23, ,
-11, ,-23, ,
-12, ,-23, ,
-12, ,-23, ,
-14, ,-23, ,
-14, ,-23, ,
-17, ,-23, ,
-20, ,-23, ,
-23, ,-23, ,
-33, ,-23, ,
-56, ,-23, ,
-73, ,-23, ,
-91, ,-23, ,
-111, ,-23, ,
-126, ,-23, ,
-126, ,-23, ,
-126, ,-23, ,
-126, ,-24, ,
-126, ,-24, ,
-126, ,-23, ,
-126, ,-23, ,
-126, ,-23, ,
-126, ,-23, ,
-126, ,-23, ,
-126, ,-23, ,
-120, ,-23, ,
-85, ,-23, ,
-68, ,-24, ,
-54, ,-24, ,
-42, ,-23, ,
-25, ,-23, ,
-17, ,-23, ,
-9, ,-23, ,
-5, ,-23, ,
11, ,-23, ,
18, ,-23, ,
24, ,-23, ,
34, ,-23, ,
49, ,-23, ,
54, ,-23, ,
60, ,-23, ,
66, ,-23, ,
71, ,-23, ,
75, ,-23, ,
75, ,-23, ,
75, ,-23, ,
74, ,-23, ,
72, ,-23, ,
71, ,-23, ,
66, ,-23, ,
59, ,-23, ,
57, ,-23, ,
50, ,-23, ,
48, ,-23, ,
44, ,-23, ,
42, ,-23, ,
45, ,-23, ,
46, ,-23, ,
50, ,-23, ,
53, ,-23, ,
55, ,-23, ,
57, ,-23, ,
58, ,-23, ,
57, ,-23, ,
57, ,-23, ,
55, ,-23, ,
50, ,-23, ,
46, ,-23, ,
35, ,-23, ,
23, ,-23, ,
-38, ,-23, ,
-89, ,-23, ,
-126, ,-23, ,
-126, ,-23, ,
-126, ,-23, ,
-126, ,-23, ,
-126, ,-23, ,
-126, ,-23, ,
-126, ,-23, ,
-126, ,-23, ,
-126, ,-23, ,
-126, ,-23, ,
-126, ,-23, ,
-126, ,-23, ,
-126, ,-23, ,
-126, ,-23, ,
-126, ,-23, ,
-126, ,-23, ,
-126, ,-23, ,
-126, ,-23, ,
-118, ,-23, ,
-88, ,-23, ,
125, ,-23, ,
125, ,-23, ,
125, ,-23, ,
125, ,-23, ,
125, ,-23, ,
125, ,-23, ,
125, ,-23, ,
125, ,-23, ,
125, ,-23, ,
125, ,-23, ,
125, ,-23, ,
125, ,-23, ,
125, ,-23, ,
125, ,-23, ,
125, ,-23, ,
125, ,-23, ,
125, ,-23, ,
125, ,-23, ,
125, ,-23, ,
125, ,-23, ,
125, ,-23, ,
125, ,-23, ,
119, ,-23, ,
85, ,-23, ,
-24, ,-23, ,
-126, ,-23, ,
-126, ,-23, ,
-126, ,-23, ,
-126, ,-23, ,
-126, ,-23, ,
-126, ,-23, ,
-126, ,-23, ,
-126, ,-23, ,
-126, ,-23, ,
-126, ,-23, ,
-126, ,-23, ,
-126, ,-23, ,
-126, ,-23, ,
-126, ,-23, ,
-126, ,-23, ,
-126, ,-23, ,
-126, ,-23, ,
-126, ,-23, ,
-126, ,-23, ,
-126, ,-23, ,
-126, ,-23, ,
-126, ,-23, ,
-126, ,-23, ,
-126, ,-23, ,
-126, ,-23, ,
-126, ,-23, ,
-126, ,-23, ,
-126, ,-23, ,
-126, ,-23, ,
-121, ,-23, ,
-73, ,-23, ,
-12, ,-23, ,
52, ,-23, ,
98, ,-23, ,
87, ,-23, ,
74, ,-23, ,
69, ,-23, ,
86, ,-23, ,
99, ,-23, ,
110, ,-23, ,
123, ,-23, ,
125, ,-23, ,
125, ,-23, ,
125, ,-23, ,
125, ,-23, ,
125, ,-23, ,
125, ,-23, ,
124, ,-23, ,
124, ,-23, ,
98, ,-23, ,
71, ,-24, ,
42, ,-24, ,
15, ,-24, ,
-43, ,-23, ,
-69, ,-23, ,
-93, ,-23, ,
-111, ,-23, ,
-126, ,-23, ,
-126, ,-23, ,
-126, ,-23, ,
-126, ,-23, ,
-126, ,-23, ,
-126, ,-23, ,
-126, ,-23, ,
-126, ,-23, ,
-126, ,-23, ,
-126, ,-23, ,
-126, ,-23, ,
-121, ,-23, ,
-105, ,-23, ,
-92, ,-23, ,
-77, ,-23, ,
-61, ,-23, ,
-35, ,-24, ,
-26, ,-24, ,
-15, ,-23, ,
-9, ,-23, ,
5, ,-23, ,
12, ,-23, ,
16, ,-23, ,
20, ,-23, ,
26, ,-23, ,
26, ,-23, ,
29, ,-23, ,
31, ,-23, ,
35, ,-23, ,
37, ,-23, ,
40, ,-23, ,
44, ,-23, ,
50, ,-23, ,
52, ,-23, ,
55, ,-23, ,
57, ,-24, ,
62, ,-24, ,
65, ,-23, ,
65, ,-23, ,
67, ,-23, ,
70, ,-23, ,
71, ,-23, ,
75, ,-23, ,
77, ,-23, ,
79, ,-23, ,
81, ,-23, ,
81, ,-23, ,
81, ,-23, ,
81, ,-23, ,
80, ,-23, ,
81, ,-23, ,
78, ,-23, ,
74, ,-23, ,
72, ,-23, ,
70, ,-23, ,
66, ,-23, ,
64, ,-23, ,
58, ,-23, ,
57, ,-23, ,
53, ,-23, ,
47, ,-23, ,
46, ,-23, ,
42, ,-23, ,
41, ,-23, ,
36, ,-23, ,
34, ,-23, ,
34, ,-23, ,
33, ,-23, ,
35, ,-23, ,
37, ,-23, ,
39, ,-23, ,
43, ,-23, ,
51, ,-23, ,
56, ,-24, ,
60, ,-24, ,
65, ,-24, ,
74, ,-23, ,
79, ,-23, ,
85, ,-23, ,
89, ,-23, ,
97, ,-23, ,
100, ,-23, ,
105, ,-23, ,
108, ,-23, ,
118, ,-23, ,
124, ,-23, ,
125, ,-23, ,
125, ,-23, ,
125, ,-23, ,
125, ,-24, ,
125, ,-24, ,
125, ,-24, ,
125, ,-23, ,
125, ,-23, ,
125, ,-23, ,
125, ,-23, ,
125, ,-23, ,
125, ,-23, ,
125, ,-23, ,
125, ,-23, ,
124, ,-23, ,
114, ,-23, ,
104, ,-23, ,
96, ,-23, ,
75, ,-23, ,
62, ,-23, ,
51, ,-23, ,
41, ,-23, ,
20, ,-23, ,
12, ,-23, ,
2, ,-23, ,
-6, ,-23, ,
-23, ,-23, ,
-32, ,-23, ,
-38, ,-23, ,
-47, ,-23, ,
-57, ,-23, ,
-62, ,-23, ,
-68, ,-23, ,
-72, ,-23, ,
-78, ,-23, ,
-81, ,-23, ,
-82, ,-23, ,
-83, ,-23, ,
-82, ,-23, ,
-80, ,-23, ,
-77, ,-23, ,
-76, ,-23, ,
-69, ,-23, ,
-66, ,-23, ,
-60, ,-23, ,
-58, ,-23, ,
-48, ,-23, ,
-43, ,-23, ,
-39, ,-23, ,
-36, ,-23, ,
-28, ,-23, ,
-25, ,-23, ,
-20, ,-23, ,
-18, ,-23, ,
-12, ,-23, ,
-7, ,-23, ,
-4, ,-23, ,
1, ,-23, ,
7, ,-23, ,
10, ,-23, ,
14, ,-23, ,
15, ,-23, ,
20, ,-23, ,
23, ,-23, ,
26, ,-23, ,
28, ,-23, ,
29, ,-23, ,
29, ,-23, ,
29, ,-23, ,
28, ,-23, ,
24, ,-23, ,
24, ,-23, ,
21, ,-23, ,
19, ,-23, ,
14, ,-23, ,
12, ,-23, ,
10, ,-23, ,
7, ,-23, ,
5, ,-23, ,
4, ,-23, ,
1, ,-23, ,
0, ,-23, ,
-1, ,-23, ,
-2, ,-23, ,
-2, ,-23, ,
-2, ,-23, ,
-2, ,-23, ,
1, ,-23, ,
3, ,-23, ,
5, ,-23, ,
13, ,-23, ,
18, ,-23, ,
23, ,-23, ,
28, ,-23, ,
38, ,-23, ,
45, ,-23, ,
50, ,-23, ,
56, ,-23, ,
69, ,-23, ,
72, ,-23, ,
79, ,-23, ,
82, ,-23, ,
89, ,-23, ,
94, ,-24, ,
95, ,-24, ,
97, ,-24, ,
97, ,-23, ,
95, ,-23, ,
96, ,-23, ,
91, ,-23, ,
89, ,-23, ,
85, ,-23, ,
80, ,-23, ,
79, ,-23, ,
70, ,-23, ,
64, ,-23, ,
63, ,-23, ,
59, ,-23, ,
51, ,-23, ,
51, ,-23, ,
48, ,-23, ,
46, ,-23, ,
45, ,-23, ,
43, ,-23, ,
44, ,-23, ,
42, ,-23, ,
43, ,-23, ,
46, ,-23, ,
45, ,-24, ,
47, ,-24, ,
49, ,-24, ,
50, ,-24, ,
53, ,-24, ,
53, ,-24, ,
60, ,-23, ,
64, ,-23, ,
67, ,-23, ,
72, ,-23, ,
79, ,-23, ,
83, ,-23, ,
86, ,-23, ,
89, ,-23, ,
94, ,-23, ,
98, ,-23, ,
98, ,-23, ,
99, ,-23, ,
100, ,-23, ,
96, ,-23, ,
97, ,-23, ,
92, ,-23, ,
83, ,-23, ,
79, ,-23, ,
69, ,-23, ,
61, ,-23, ,
38, ,-23, ,
24, ,-23, ,
9, ,-23, ,
-11, ,-23, ,
-49, ,-23, ,
-71, ,-23, ,
-93, ,-24, ,
-114, ,-24, ,
-126, ,-24, ,
-126, ,-23, ,
-126, ,-23, ,
-126, ,-23, ,
-126, ,-23, ,
-126, ,-23, ,
-126, ,-23, ,
-126, ,-23, ,
-126, ,-23, ,
-126, ,-23, ,
-126, ,-23, ,
-126, ,-23, ,
-126, ,-23, ,
-126, ,-23, ,
-126, ,-23, ,
-126, ,-23, ,
-126, ,-23, ,
-126, ,-23, ,
-126, ,-23, ,
-126, ,-23, ,
-126, ,-23, ,
-126, ,-23, ,
-126, ,-23, ,
-126, ,-23, ,
-126, ,-24, ,
-126, ,-24, ,
-126, ,-23, ,
-126, ,-23, ,
-126, ,-23, ,
-126, ,-23, ,
-126, ,-23, ,
-126, ,-23, ,
-126, ,-23, ,
-126, ,-23, ,
-126, ,-23, ,
-126, ,-24, ,
-118, ,-24, ,
-115, ,-23, ,
-108, ,-23, ,
-104, ,-23, ,
-96, ,-23, ,
-90, ,-23, ,
-84, ,-23, ,
-68, ,-23, ,
78, ,-23, ,
125, ,-23, ,
125, ,-23, ,
125, ,-23, ,
125, ,-23, ,
125, ,-23, ,
125, ,-23, ,
125, ,-23, ,
125, ,-23, ,
125, ,-23, ,
125, ,-23, ,
125, ,-23, ,
125, ,-23, ,
125, ,-23, ,
125, ,-23, ,
125, ,-23, ,
125, ,-23, ,
125, ,-23, ,
125, ,-23, ,
125, ,-23, ,
125, ,-23, ,
125, ,-23, ,
125, ,-23, ,
125, ,-23, ,
125, ,-23, ,
125, ,-23, ,
125, ,-23, ,
125, ,-23, ,
125, ,-23, ,
125, ,-23, ,
125, ,-23, ,
124, ,-23, ,
95, ,-23, ,
62, ,-23, ,
24, ,-23, ,
-10, ,-23, ,
-66, ,-23, ,
-90, ,-23, ,
-105, ,-23, ,
-119, ,-23, ,
-126, ,-23, ,
-126, ,-23, ,
-126, ,-23, ,
-122, ,-23, ,
-103, ,-23, ,
-90, ,-23, ,
-77, ,-23, ,
-65, ,-23, ,
-34, ,-23, ,
-21, ,-23, ,
-7, ,-23, ,
5, ,-23, ,
32, ,-23, ,
41, ,-23, ,
51, ,-23, ,
62, ,-23, ,
77, ,-23, ,
83, ,-23, ,
89, ,-23, ,
94, ,-23, ,
96, ,-23, ,
94, ,-23, ,
94, ,-23, ,
89, ,-23, ,
83, ,-23, ,
78, ,-23, ,
71, ,-23, ,
66, ,-23, ,
54, ,-23, ,
48, ,-23, ,
44, ,-23, ,
39, ,-23, ,
31, ,-23, ,
28, ,-23, ,
24, ,-23, ,
22, ,-23, ,
13, ,-23, ,
8, ,-23, ,
2, ,-23, ,
-6, ,-24, ,
-18, ,-24, ,
-25, ,-23, ,
-35, ,-23, ,
-42, ,-23, ,
-59, ,-23, ,
-70, ,-23, ,
-77, ,-23, ,
-85, ,-23, ,
-99, ,-23, ,
-104, ,-23, ,
-106, ,-23, ,
-109, ,-23, ,
-113, ,-23, ,
-113, ,-23, ,
-113, ,-23, ,
-113, ,-23, ,
-108, ,-23, ,
-106, ,-23, ,
-103, ,-24, ,
-99, ,-24, ,
-93, ,-24, ,
-89, ,-23, ,
-85, ,-23, ,
-81, ,-23, ,
-75, ,-23, ,
-71, ,-23, ,
-69, ,-23, ,
-67, ,-23, ,
-66, ,-23, ,
-65, ,-23, ,
-66, ,-23, ,
-66, ,-23, ,
-69, ,-23, ,
-70, ,-23, ,
-73, ,-23, ,
-75, ,-23, ,
-80, ,-23, ,
-83, ,-23, ,
-83, ,-23, ,
-85, ,-23, ,
-85, ,-23, ,
-84, ,-23, ,
-84, ,-23, ,
-83, ,-23, ,
-77, ,-23, ,
-75, ,-23, ,
-71, ,-23, ,
-68, ,-23, ,
-58, ,-23, ,
-51, ,-23, ,
-46, ,-23, ,
-41, ,-23, ,
-26, ,-23, ,
-22, ,-23, ,
-13, ,-23, ,
-7, ,-23, ,
5, ,-23, ,
11, ,-24, ,
16, ,-24, ,
23, ,-23, ,
30, ,-23, ,
31, ,-23, ,
33, ,-23, ,
33, ,-23, ,
31, ,-23, ,
32, ,-23, ,
27, ,-23, ,
24, ,-23, ,
17, ,-23, ,
11, ,-23, ,
6, ,-23, ,
1, ,-24, ,
-8, ,-24, ,
-11, ,-23, ,
-15, ,-23, ,
-19, ,-23, ,
-25, ,-23, ,
-28, ,-23, ,
-28, ,-23, ,
-32, ,-23, ,
-31, ,-23, ,
-30, ,-23, ,
-31, ,-23, ,
-29, ,-23, ,
-25, ,-23, ,
-25, ,-23, ,
-23, ,-23, ,
-22, ,-23, ,
-17, ,-23, ,
-14, ,-23, ,
-12, ,-23, ,
-9, ,-23, ,
-7, ,-23, ,
-7, ,-23, ,
-7, ,-23, ,
-7, ,-23, ,
-8, ,-23, ,
-7, ,-23, ,
-10, ,-23, ,
-11, ,-23, ,
-15, ,-23, ,
-20, ,-23, ,
-21, ,-23, ,
-23, ,-23, ,
-30, ,-23, ,
-33, ,-24, ,
-35, ,-24, ,
-37, ,-23, ,
-44, ,-23, ,
-45, ,-23, ,
-47, ,-23, ,
-50, ,-23, ,
-52, ,-23, ,
-54, ,-23, ,
-55, ,-23, ,
-55, ,-23, ,
-56, ,-23, ,
-56, ,-23, ,
-56, ,-23, ,
-55, ,-23, ,
-54, ,-23, ,
-53, ,-23, ,
-54, ,-23, ,
-52, ,-23, ,
-50, ,-24, ,
-50, ,-24, ,
-49, ,-23, ,
-49, ,-23, ,
-48, ,-23, ,
-45, ,-23, ,
-45, ,-23, ,
-42, ,-23, ,
-39, ,-23, ,
-39, ,-23, ,
-35, ,-23, ,
-35, ,-23, ,
-31, ,-23, ,
-28, ,-23, ,
-26, ,-23, ,
-21, ,-23, ,
-17, ,-24, ,
-14, ,-24, ,
-11, ,-23, ,
-9, ,-23, ,
-2, ,-23, ,
1, ,-23, ,
3, ,-23, ,
4, ,-23, ,
10, ,-23, ,
11, ,-23, ,
15, ,-23, ,
15, ,-23, ,
19, ,-23, ,
21, ,-23, ,
22, ,-23, ,
24, ,-23, ,
25, ,-23, ,
25, ,-23, ,
25, ,-23, ,
25, ,-23, ,
24, ,-23, ,
25, ,-23, ,
22, ,-23, ,
21, ,-23, ,
19, ,-23, ,
17, ,-23, ,
16, ,-23, ,
14, ,-23, ,
10, ,-23, ,
9, ,-23, ,
8, ,-23, ,
5, ,-23, ,
1, ,-23, ,
0, ,-23, ,
0, ,-23, ,
-3, ,-23, ,
-5, ,-23, ,
-6, ,-23, ,
-10, ,-23, ,
-10, ,-23, ,
-13, ,-23, ,
-16, ,-24, ,
-16, ,-24, ,
-17, ,-24, ,
-21, ,-23, ,
-21, ,-23, ,
-23, ,-23, ,
-23, ,-23, ,
-23, ,-23, ,
-25, ,-23, ,
-25, ,-23, ,
-25, ,-23, ,
-25, ,-23, ,
-24, ,-23, ,
-24, ,-24, ,
-24, ,-24, ,
-20, ,-24, ,
-22, ,-23, ,
-17, ,-23, ,
-15, ,-23, ,
-10, ,-23, ,
-5, ,-23, ,
-2, ,-23, ,
2, ,-23, ,
11, ,-23, ,
15, ,-23, ,
23, ,-23, ,
28, ,-23, ,
42, ,-23, ,
50, ,-23, ,
57, ,-24, ,
66, ,-24, ,
85, ,-24, ,
93, ,-23, ,
105, ,-23, ,
113, ,-23, ,
125, ,-23, ,
125, ,-23, ,
125, ,-23, ,
125, ,-23, ,
125, ,-23, ,
125, ,-23, ,
125, ,-23, ,
125, ,-23, ,
125, ,-23, ,
125, ,-23, ,
125, ,-23, ,
125, ,-23, ,
125, ,-23, ,
125, ,-23, ,
125, ,-23, ,
125, ,-23, ,
125, ,-23, ,
125, ,-23, ,
125, ,-23, ,
125, ,-23, ,
125, ,-23, ,
125, ,-23, ,
125, ,-23, ,
125, ,-23, ,
125, ,-23, ,
125, ,-23, ,
125, ,-23, ,
125, ,-23, ,
125, ,-23, ,
124, ,-23, ,
124, ,-24, ,
117, ,-24, ,
86, ,-24, ,
68, ,-23, ,
45, ,-23, ,
21, ,-23, ,
-36, ,-23, ,
-66, ,-23, ,
-97, ,-23, ,
-126, ,-23, ,
-126, ,-23, ,
-126, ,-23, ,
-126, ,-23, ,
-126, ,-23, ,
-126, ,-23, ,
-126, ,-23, ,
-126, ,-23, ,
-126, ,-23, ,
-126, ,-23, ,
-126, ,-23, ,
-126, ,-23, ,
-126, ,-23, ,
-126, ,-23, ,
-126, ,-23, ,
-126, ,-23, ,
-126, ,-23, ,
-126, ,-23, ,
-126, ,-23, ,
-126, ,-24, ,
-126, ,-24, ,
-126, ,-24, ,
-126, ,-24, ,
-126, ,-24, ,
-126, ,-24, ,
-126, ,-23, ,
-126, ,-24, ,
-126, ,-24, ,
-126, ,-23, ,
-126, ,-23, ,
-126, ,-23, ,
-126, ,-23, ,
-126, ,-23, ,
-126, ,-23, ,
-126, ,-23, ,
-125, ,-23, ,
-119, ,-23, ,
-107, ,-23, ,
-105, ,-23, ,
-99, ,-23, ,
-97, ,-23, ,
-87, ,-23, ,
-83, ,-23, ,
-80, ,-23, ,
-74, ,-23, ,
-68, ,-23, ,
-63, ,-23, ,
-55, ,-23, ,
-41, ,-23, ,
43, ,-23, ,
90, ,-23, ,
118, ,-23, ,
125, ,-23, ,
125, ,-23, ,
125, ,-23, ,
125, ,-23, ,
125, ,-23, ,
125, ,-23, ,
125, ,-23, ,
125, ,-23, ,
125, ,-23, ,
125, ,-24, ,
125, ,-24, ,
125, ,-23, ,
125, ,-23, ,
125, ,-23, ,
125, ,-23, ,
125, ,-23, ,
125, ,-23, ,
125, ,-23, ,
125, ,-23, ,
125, ,-23, ,
125, ,-23, ,
124, ,-23, ,
120, ,-23, ,
113, ,-23, ,
108, ,-23, ,
94, ,-23, ,
84, ,-23, ,
77, ,-23, ,
67, ,-23, ,
50, ,-23, ,
43, ,-23, ,
33, ,-23, ,
27, ,-23, ,
12, ,-23, ,
4, ,-23, ,
-1, ,-23, ,
-6, ,-23, ,
-15, ,-23, ,
-18, ,-23, ,
-20, ,-23, ,
-20, ,-23, ,
-20, ,-23, ,
-20, ,-23, ,
-19, ,-23, ,
-19, ,-23, ,
-12, ,-23, ,
-8, ,-23, ,
-6, ,-23, ,
-2, ,-23, ,
6, ,-23, ,
9, ,-23, ,
13, ,-23, ,
18, ,-23, ,
24, ,-23, ,
30, ,-23, ,
34, ,-23, ,
35, ,-23, ,
43, ,-23, ,
47, ,-23, ,
50, ,-23, ,
52, ,-23, ,
59, ,-23, ,
62, ,-23, ,
63, ,-23, ,
66, ,-23, ,
71, ,-23, ,
72, ,-23, ,
76, ,-23, ,
76, ,-23, ,
78, ,-23, ,
80, ,-23, ,
81, ,-23, ,
81, ,-23, ,
81, ,-23, ,
79, ,-23, ,
79, ,-23, ,
76, ,-23, ,
73, ,-23, ,
73, ,-23, ,
68, ,-23, ,
66, ,-23, ,
61, ,-23, ,
58, ,-23, ,
56, ,-23, ,
53, ,-23, ,
47, ,-23, ,
44, ,-23, ,
41, ,-23, ,
39, ,-23, ,
34, ,-23, ,
30, ,-23, ,
30, ,-23, ,
25, ,-24, ,
22, ,-24, ,
20, ,-23, ,
17, ,-23, ,
15, ,-23, ,
11, ,-23, ,
7, ,-23, ,
5, ,-23, ,
2, ,-23, ,
-5, ,-23, ,
-6, ,-23, ,
-10, ,-23, ,
-13, ,-23, ,
-20, ,-23, ,
-24, ,-23, ,
-25, ,-23, ,
-31, ,-23, ,
-36, ,-23, ,
-39, ,-23, ,
-44, ,-23, ,
-47, ,-23, ,
-52, ,-23, ,
-56, ,-23, ,
-59, ,-23, ,
-63, ,-23, ,
-68, ,-23, ,
-70, ,-23, ,
-72, ,-23, ,
-74, ,-23, ,
-77, ,-23, ,
-78, ,-23, ,
-80, ,-23, ,
-81, ,-23, ,
-82, ,-23, ,
-82, ,-23, ,
-82, ,-23, ,
-82, ,-23, ,
-79, ,-23, ,
-79, ,-23, ,
-76, ,-23, ,
-76, ,-23, ,
-74, ,-23, ,
-70, ,-23, ,
-71, ,-23, ,
-66, ,-23, ,
-63, ,-23, ,
-61, ,-23, ,
-59, ,-23, ,
-57, ,-23, ,
-51, ,-23, ,
-48, ,-23, ,
-44, ,-23, ,
-41, ,-23, ,
-35, ,-23, ,
-33, ,-23, ,
-32, ,-23, ,
-27, ,-23, ,
-22, ,-23, ,
-18, ,-23, ,
-14, ,-23, ,
-11, ,-23, ,
-5, ,-24, ,
-2, ,-24, ,
1, ,-23, ,
3, ,-23, ,
10, ,-23, ,
13, ,-23, ,
15, ,-23, ,
18, ,-23, ,
23, ,-23, ,
26, ,-23, ,
28, ,-23, ,
31, ,-23, ,
33, ,-23, ,
35, ,-23, ,
38, ,-23, ,
40, ,-23, ,
44, ,-23, ,
44, ,-23, ,
45, ,-23, ,
46, ,-23, ,
47, ,-23, ,
48, ,-23, ,
48, ,-23, ,
49, ,-23, ,
49, ,-23, ,
48, ,-23, ,
49, ,-23, ,
48, ,-23, ,
46, ,-23, ,
46, ,-24, ,
45, ,-24, ,
45, ,-23, ,
42, ,-23, ,
40, ,-23, ,
39, ,-23, ,
36, ,-23, ,
35, ,-23, ,
34, ,-23, ,
31, ,-23, ,
30, ,-23, ,
27, ,-23, ,
24, ,-23, ,
23, ,-23, ,
19, ,-23, ,
15, ,-23, ,
16, ,-23, ,
13, ,-23, ,
12, ,-23, ,
8, ,-23, ,
5, ,-23, ,
4, ,-23, ,
2, ,-24, ,
0, ,-24, ,
0, ,-23, ,
-2, ,-23, ,
-2, ,-23, ,
-3, ,-23, ,
-5, ,-23, ,
-5, ,-23, ,
-6, ,-23, ,
-7, ,-23, ,
-7, ,-23, ,
-8, ,-23, ,
-8, ,-23, ,
-10, ,-23, ,
-11, ,-23, ,
-11, ,-23, ,
-15, ,-23, ,
-17, ,-23, ,
-18, ,-23, ,
-20, ,-23, ,
-23, ,-23, ,
-25, ,-23, ,
-31, ,-23, ,
-31, ,-23, ,
-35, ,-23, ,
-42, ,-23, ,
-45, ,-23, ,
-50, ,-23, ,
-53, ,-23, ,
-62, ,-23, ,
-66, ,-23, ,
-70, ,-23, ,
-77, ,-23, ,
-87, ,-23, ,
-92, ,-23, ,
-97, ,-23, ,
