raw_data/100% Glycerol, Impulsion 2Hz, Sonde 5MHz, Rampe 0.7Hz/temp0000186.CSV

Format,1.0B,
Memory Length,10000,Memory Length,10000,
IntpDistance,0,IntpDistance,0,
Trigger Address,159,Trigger Address,159,
Trigger Level,2.720E-01,Trigger Level,2.720E-01,
Source,CH1,Source,CH2,
Vertical Units,V,Vertical Units,V,
Vertical Units Div,0,Vertical Units Div,0,
Vertical Units Extend Div,16,Vertical Units Extend Div,16,
Label,,Label,,
Probe Type,0,Probe Type,0,
Probe Ratio,1.000e+00,Probe Ratio,1.000e+00,
Vertical Scale,2.000e-01,Vertical Scale,2.000e+00,
Vertical Position,0.000e+00,Vertical Position,0.000e+00,
Horizontal Units,S,Horizontal Units,S,
Horizontal Scale,5.000E-06,Horizontal Scale,5.000E-06,
Horizontal Position,2.420E-05,Horizontal Position,2.420E-05,
Horizontal Mode,Main,Horizontal Mode,Main,
SincET Mode,Real Time,SincET Mode,Real Time,
Sampling Period,5.000e-09,Sampling Period,5.000e-09,
Horizontal Old Scale,5.000E-06,Horizontal Old Scale,5.000E-06,
Horizontal Old Position,2.420E-05,Horizontal Old Position,2.420E-05,
Firmware,V1.32,Firmware,V1.32,
Mode,Fast,Mode,Fast,
Waveform Data,,Waveform Data,,
1, ,-43, ,
2, ,-43, ,
1, ,-43, ,
1, ,-43, ,
1, ,-43, ,
2, ,-43, ,
2, ,-43, ,
1, ,-43, ,
2, ,-43, ,
2, ,-43, ,
1, ,-43, ,
2, ,-43, ,
2, ,-43, ,
1, ,-43, ,
1, ,-43, ,
1, ,-43, ,
1, ,-43, ,
2, ,-43, ,
1, ,-43, ,
2, ,-43, ,
2, ,-43, ,
1, ,-43, ,
2, ,-43, ,
2, ,-43, ,
1, ,-43, ,
2, ,-43, ,
0, ,-43, ,
1, ,-43, ,
2, ,-43, ,
1, ,-43, ,
2, ,-43, ,
1, ,-43, ,
1, ,-43, ,
2, ,-43, ,
1, ,-43, ,
2, ,-43, ,
1, ,-43, ,
2, ,-43, ,
1, ,-43, ,
1, ,-43, ,
1, ,-43, ,
2, ,-43, ,
1, ,-43, ,
2, ,-43, ,
2, ,-43, ,
1, ,-43, ,
2, ,-43, ,
2, ,-43, ,
1, ,-43, ,
2, ,-43, ,
0, ,-43, ,
2, ,-43, ,
1, ,-43, ,
2, ,-43, ,
2, ,-43, ,
1, ,-43, ,
1, ,-43, ,
2, ,-43, ,
1, ,-43, ,
1, ,-43, ,
1, ,-43, ,
1, ,-43, ,
1, ,-43, ,
1, ,-43, ,
1, ,-43, ,
2, ,-43, ,
1, ,-43, ,
2, ,-43, ,
2, ,-43, ,
2, ,-43, ,
3, ,-43, ,
2, ,-43, ,
1, ,-43, ,
2, ,-43, ,
2, ,-43, ,
2, ,-43, ,
2, ,-43, ,
2, ,-43, ,
2, ,-43, ,
1, ,-43, ,
1, ,-43, ,
1, ,-43, ,
1, ,-43, ,
2, ,-43, ,
2, ,-43, ,
1, ,-43, ,
2, ,-43, ,
1, ,-43, ,
0, ,-43, ,
2, ,-43, ,
0, ,-43, ,
2, ,-43, ,
1, ,-43, ,
0, ,-43, ,
2, ,-43, ,
1, ,-43, ,
1, ,-43, ,
2, ,-43, ,
1, ,-43, ,
2, ,-43, ,
2, ,-43, ,
1, ,-43, ,
1, ,-43, ,
0, ,-43, ,
1, ,-43, ,
1, ,-43, ,
1, ,-43, ,
1, ,-43, ,
2, ,-43, ,
1, ,-43, ,
2, ,-43, ,
1, ,-43, ,
1, ,-43, ,
2, ,-43, ,
1, ,-43, ,
2, ,-43, ,
2, ,-43, ,
0, ,-43, ,
2, ,-43, ,
1, ,-43, ,
1, ,-43, ,
1, ,-43, ,
0, ,-43, ,
2, ,-43, ,
2, ,-43, ,
1, ,-43, ,
2, ,-43, ,
1, ,-43, ,
1, ,-43, ,
2, ,-43, ,
1, ,-43, ,
2, ,-43, ,
1, ,-43, ,
2, ,-43, ,
2, ,-43, ,
1, ,-43, ,
2, ,-43, ,
2, ,-43, ,
1, ,-43, ,
1, ,-43, ,
2, ,-43, ,
1, ,-43, ,
3, ,-43, ,
2, ,-43, ,
1, ,-43, ,
2, ,-43, ,
1, ,-43, ,
2, ,-43, ,
1, ,-43, ,
2, ,-43, ,
3, ,-43, ,
1, ,-43, ,
1, ,-43, ,
1, ,-43, ,
1, ,-43, ,
1, ,-43, ,
2, ,-43, ,
2, ,-43, ,
1, ,-43, ,
2, ,-43, ,
1, ,-43, ,
2, ,-43, ,
1, ,-43, ,
2, ,-43, ,
0, ,-43, ,
2, ,-43, ,
-1, ,-43, ,
3, ,-43, ,
100, ,-43, ,
125, ,-43, ,
125, ,-43, ,
125, ,-43, ,
120, ,-43, ,
116, ,-43, ,
-1, ,-43, ,
-2, ,-43, ,
125, ,-43, ,
125, ,-43, ,
125, ,-43, ,
125, ,-43, ,
125, ,-43, ,
125, ,-43, ,
125, ,-43, ,
125, ,-43, ,
125, ,-43, ,
125, ,-43, ,
125, ,-43, ,
125, ,-43, ,
125, ,-43, ,
125, ,-43, ,
125, ,-43, ,
125, ,-43, ,
125, ,-43, ,
125, ,-43, ,
125, ,-43, ,
125, ,-43, ,
125, ,-43, ,
125, ,-43, ,
125, ,-43, ,
125, ,-43, ,
125, ,-43, ,
125, ,-43, ,
124, ,-43, ,
124, ,-43, ,
116, ,-43, ,
109, ,-43, ,
105, ,-43, ,
101, ,-43, ,
93, ,-43, ,
91, ,-43, ,
85, ,-43, ,
81, ,-43, ,
75, ,-43, ,
70, ,-43, ,
68, ,-43, ,
63, ,-43, ,
58, ,-43, ,
56, ,-43, ,
52, ,-43, ,
52, ,-43, ,
47, ,-43, ,
43, ,-43, ,
43, ,-43, ,
39, ,-43, ,
35, ,-43, ,
35, ,-43, ,
34, ,-43, ,
32, ,-43, ,
27, ,-43, ,
27, ,-43, ,
26, ,-43, ,
24, ,-43, ,
21, ,-43, ,
20, ,-43, ,
18, ,-43, ,
17, ,-43, ,
17, ,-43, ,
14, ,-43, ,
14, ,-43, ,
12, ,-43, ,
11, ,-43, ,
10, ,-43, ,
10, ,-43, ,
10, ,-43, ,
8, ,-43, ,
7, ,-43, ,
7, ,-43, ,
5, ,-43, ,
4, ,-43, ,
4, ,-43, ,
3, ,-43, ,
4, ,-43, ,
2, ,-43, ,
1, ,-43, ,
2, ,-43, ,
1, ,-43, ,
0, ,-43, ,
2, ,-43, ,
0, ,-43, ,
0, ,-43, ,
0, ,-43, ,
-1, ,-43, ,
0, ,-43, ,
-1, ,-43, ,
-1, ,-43, ,
-1, ,-43, ,
-2, ,-43, ,
-1, ,-43, ,
-2, ,-43, ,
-3, ,-43, ,
-3, ,-43, ,
-3, ,-43, ,
-3, ,-43, ,
-3, ,-43, ,
-3, ,-43, ,
-3, ,-43, ,
-3, ,-43, ,
-3, ,-43, ,
-3, ,-43, ,
-3, ,-43, ,
-3, ,-43, ,
-3, ,-43, ,
-4, ,-43, ,
-4, ,-43, ,
-2, ,-43, ,
-4, ,-43, ,
-3, ,-43, ,
-4, ,-43, ,
-3, ,-43, ,
-2, ,-43, ,
-3, ,-43, ,
-3, ,-43, ,
-2, ,-43, ,
-3, ,-43, ,
-3, ,-43, ,
-3, ,-43, ,
-3, ,-43, ,
-2, ,-43, ,
-3, ,-43, ,
-3, ,-43, ,
-2, ,-43, ,
-3, ,-43, ,
-2, ,-43, ,
-3, ,-43, ,
-3, ,-43, ,
-2, ,-43, ,
-2, ,-43, ,
-2, ,-43, ,
-2, ,-43, ,
-2, ,-43, ,
-2, ,-43, ,
-2, ,-43, ,
-2, ,-43, ,
-2, ,-43, ,
-2, ,-43, ,
-2, ,-43, ,
-1, ,-43, ,
-1, ,-43, ,
-1, ,-43, ,
-2, ,-43, ,
-2, ,-43, ,
-2, ,-43, ,
-2, ,-43, ,
-1, ,-43, ,
0, ,-43, ,
-1, ,-43, ,
-1, ,-43, ,
-1, ,-43, ,
-1, ,-43, ,
-1, ,-43, ,
-1, ,-43, ,
-1, ,-43, ,
0, ,-43, ,
-2, ,-43, ,
0, ,-43, ,
-1, ,-43, ,
-1, ,-43, ,
0, ,-43, ,
0, ,-43, ,
0, ,-43, ,
0, ,-43, ,
0, ,-43, ,
0, ,-43, ,
0, ,-43, ,
0, ,-43, ,
0, ,-43, ,
0, ,-43, ,
0, ,-43, ,
0, ,-43, ,
0, ,-43, ,
0, ,-43, ,
0, ,-43, ,
-1, ,-43, ,
1, ,-43, ,
0, ,-43, ,
0, ,-43, ,
0, ,-43, ,
0, ,-43, ,
1, ,-43, ,
1, ,-43, ,
0, ,-43, ,
0, ,-43, ,
0, ,-43, ,
1, ,-43, ,
1, ,-43, ,
0, ,-43, ,
0, ,-43, ,
0, ,-43, ,
1, ,-43, ,
1, ,-43, ,
1, ,-43, ,
1, ,-43, ,
1, ,-43, ,
1, ,-43, ,
1, ,-43, ,
1, ,-43, ,
0, ,-43, ,
1, ,-43, ,
0, ,-43, ,
1, ,-43, ,
0, ,-43, ,
0, ,-43, ,
1, ,-43, ,
0, ,-43, ,
0, ,-43, ,
1, ,-43, ,
1, ,-43, ,
1, ,-43, ,
1, ,-43, ,
1, ,-43, ,
2, ,-43, ,
0, ,-43, ,
1, ,-43, ,
1, ,-43, ,
2, ,-43, ,
2, ,-43, ,
2, ,-43, ,
0, ,-43, ,
1, ,-43, ,
1, ,-43, ,
0, ,-43, ,
2, ,-43, ,
1, ,-43, ,
1, ,-43, ,
1, ,-43, ,
1, ,-43, ,
1, ,-43, ,
0, ,-43, ,
1, ,-43, ,
2, ,-43, ,
0, ,-43, ,
2, ,-43, ,
1, ,-43, ,
1, ,-43, ,
2, ,-43, ,
1, ,-43, ,
1, ,-43, ,
1, ,-43, ,
1, ,-43, ,
1, ,-43, ,
1, ,-43, ,
1, ,-43, ,
0, ,-43, ,
0, ,-43, ,
0, ,-43, ,
0, ,-43, ,
0, ,-43, ,
0, ,-43, ,
1, ,-43, ,
0, ,-43, ,
3, ,-43, ,
2, ,-43, ,
1, ,-43, ,
1, ,-43, ,
1, ,-43, ,
1, ,-43, ,
1, ,-43, ,
1, ,-43, ,
1, ,-43, ,
0, ,-43, ,
-1, ,-43, ,
-1, ,-43, ,
-1, ,-43, ,
0, ,-43, ,
-1, ,-43, ,
-1, ,-43, ,
-2, ,-43, ,
0, ,-43, ,
0, ,-43, ,
0, ,-43, ,
1, ,-43, ,
2, ,-43, ,
1, ,-43, ,
0, ,-43, ,
2, ,-43, ,
0, ,-43, ,
1, ,-43, ,
1, ,-43, ,
0, ,-43, ,
1, ,-43, ,
1, ,-43, ,
1, ,-43, ,
1, ,-43, ,
1, ,-43, ,
1, ,-43, ,
1, ,-43, ,
1, ,-43, ,
2, ,-43, ,
2, ,-43, ,
1, ,-43, ,
2, ,-43, ,
1, ,-43, ,
2, ,-43, ,
2, ,-43, ,
1, ,-43, ,
2, ,-43, ,
4, ,-43, ,
0, ,-43, ,
2, ,-43, ,
0, ,-43, ,
0, ,-43, ,
0, ,-43, ,
-1, ,-43, ,
0, ,-43, ,
0, ,-43, ,
-1, ,-43, ,
0, ,-43, ,
-2, ,-43, ,
0, ,-43, ,
1, ,-43, ,
1, ,-43, ,
1, ,-43, ,
0, ,-43, ,
0, ,-43, ,
1, ,-43, ,
1, ,-43, ,
0, ,-43, ,
2, ,-43, ,
0, ,-43, ,
0, ,-43, ,
0, ,-43, ,
0, ,-43, ,
0, ,-43, ,
-1, ,-43, ,
0, ,-43, ,
0, ,-43, ,
-2, ,-43, ,
1, ,-43, ,
1, ,-43, ,
1, ,-43, ,
2, ,-43, ,
0, ,-43, ,
0, ,-43, ,
0, ,-43, ,
-1, ,-43, ,
0, ,-43, ,
-2, ,-43, ,
-3, ,-43, ,
-2, ,-43, ,
-5, ,-43, ,
-5, ,-43, ,
-5, ,-43, ,
-6, ,-43, ,
-5, ,-43, ,
-6, ,-43, ,
-7, ,-43, ,
-6, ,-43, ,
-6, ,-43, ,
-6, ,-43, ,
-6, ,-43, ,
-6, ,-43, ,
-7, ,-43, ,
-9, ,-43, ,
-10, ,-43, ,
-10, ,-43, ,
-14, ,-43, ,
-16, ,-43, ,
-18, ,-43, ,
-21, ,-43, ,
-22, ,-43, ,
-25, ,-43, ,
-28, ,-43, ,
-29, ,-43, ,
-30, ,-43, ,
-32, ,-43, ,
-30, ,-43, ,
-30, ,-43, ,
-30, ,-43, ,
-28, ,-43, ,
-27, ,-43, ,
-26, ,-43, ,
-26, ,-43, ,
-26, ,-43, ,
-26, ,-43, ,
-27, ,-43, ,
-27, ,-43, ,
-29, ,-43, ,
-30, ,-43, ,
-31, ,-43, ,
-31, ,-43, ,
-30, ,-43, ,
-29, ,-43, ,
-30, ,-43, ,
-26, ,-43, ,
-23, ,-43, ,
-21, ,-43, ,
-19, ,-43, ,
-17, ,-43, ,
-12, ,-43, ,
-11, ,-43, ,
-11, ,-43, ,
-10, ,-43, ,
-8, ,-43, ,
-10, ,-43, ,
-9, ,-43, ,
-11, ,-43, ,
-14, ,-43, ,
-14, ,-43, ,
-14, ,-43, ,
-14, ,-43, ,
-14, ,-43, ,
-12, ,-43, ,
-11, ,-43, ,
-12, ,-43, ,
-9, ,-43, ,
-6, ,-43, ,
-5, ,-43, ,
-4, ,-43, ,
-3, ,-43, ,
-4, ,-43, ,
-2, ,-43, ,
-3, ,-43, ,
-4, ,-43, ,
-4, ,-43, ,
-5, ,-43, ,
-6, ,-43, ,
-6, ,-43, ,
-8, ,-43, ,
-8, ,-43, ,
-9, ,-43, ,
-9, ,-43, ,
-8, ,-43, ,
-9, ,-43, ,
-7, ,-43, ,
-6, ,-43, ,
-5, ,-43, ,
-4, ,-43, ,
-4, ,-43, ,
-6, ,-43, ,
-6, ,-43, ,
-7, ,-43, ,
-8, ,-43, ,
-11, ,-43, ,
-13, ,-43, ,
-15, ,-43, ,
-19, ,-43, ,
-22, ,-43, ,
-23, ,-43, ,
-24, ,-43, ,
-26, ,-43, ,
-27, ,-43, ,
-30, ,-43, ,
-31, ,-43, ,
-34, ,-43, ,
-42, ,-43, ,
-45, ,-43, ,
-54, ,-43, ,
-64, ,-43, ,
-88, ,-43, ,
-103, ,-43, ,
-119, ,-43, ,
-126, ,-43, ,
-126, ,-43, ,
-126, ,-43, ,
-126, ,-43, ,
-126, ,-43, ,
-126, ,-43, ,
-126, ,-43, ,
-126, ,-43, ,
-126, ,-43, ,
-126, ,-43, ,
-126, ,-43, ,
-126, ,-43, ,
-126, ,-43, ,
-126, ,-43, ,
-126, ,-43, ,
-126, ,-43, ,
-126, ,-43, ,
-126, ,-43, ,
-126, ,-43, ,
-126, ,-43, ,
-126, ,-43, ,
-126, ,-43, ,
-126, ,-43, ,
-126, ,-43, ,
-126, ,-43, ,
-126, ,-43, ,
-126, ,-43, ,
-126, ,-43, ,
-125, ,-43, ,
-56, ,-43, ,
70, ,-43, ,
125, ,-43, ,
125, ,-43, ,
125, ,-43, ,
125, ,-43, ,
125, ,-43, ,
125, ,-43, ,
125, ,-43, ,
125, ,-43, ,
125, ,-43, ,
125, ,-43, ,
125, ,-43, ,
125, ,-43, ,
125, ,-43, ,
125, ,-43, ,
125, ,-43, ,
125, ,-43, ,
125, ,-43, ,
125, ,-43, ,
124, ,-43, ,
123, ,-43, ,
109, ,-43, ,
72, ,-43, ,
15, ,-43, ,
1, ,-43, ,
0, ,-43, ,
7, ,-43, ,
31, ,-43, ,
46, ,-43, ,
61, ,-43, ,
75, ,-43, ,
96, ,-43, ,
105, ,-43, ,
109, ,-43, ,
111, ,-43, ,
114, ,-43, ,
114, ,-43, ,
113, ,-43, ,
114, ,-43, ,
114, ,-43, ,
113, ,-43, ,
115, ,-43, ,
114, ,-43, ,
114, ,-43, ,
114, ,-43, ,
113, ,-43, ,
113, ,-43, ,
109, ,-43, ,
105, ,-43, ,
103, ,-43, ,
101, ,-43, ,
92, ,-43, ,
91, ,-43, ,
86, ,-43, ,
84, ,-43, ,
76, ,-43, ,
71, ,-43, ,
69, ,-43, ,
66, ,-43, ,
59, ,-43, ,
58, ,-43, ,
55, ,-43, ,
51, ,-43, ,
46, ,-43, ,
43, ,-43, ,
38, ,-43, ,
35, ,-43, ,
28, ,-43, ,
22, ,-43, ,
17, ,-43, ,
12, ,-43, ,
0, ,-43, ,
-6, ,-43, ,
-11, ,-43, ,
-16, ,-43, ,
-25, ,-43, ,
-26, ,-43, ,
-27, ,-43, ,
-29, ,-43, ,
-29, ,-43, ,
-29, ,-43, ,
-27, ,-43, ,
-25, ,-43, ,
-21, ,-43, ,
-18, ,-43, ,
-17, ,-43, ,
-12, ,-43, ,
-7, ,-43, ,
-6, ,-43, ,
-2, ,-43, ,
-1, ,-43, ,
1, ,-43, ,
4, ,-43, ,
5, ,-43, ,
6, ,-43, ,
6, ,-43, ,
5, ,-43, ,
5, ,-43, ,
2, ,-43, ,
1, ,-43, ,
0, ,-43, ,
-4, ,-43, ,
-5, ,-43, ,
-6, ,-43, ,
-9, ,-43, ,
-9, ,-43, ,
-10, ,-43, ,
-10, ,-43, ,
-10, ,-43, ,
-10, ,-43, ,
-9, ,-43, ,
-7, ,-43, ,
-6, ,-43, ,
-4, ,-43, ,
-5, ,-43, ,
0, ,-43, ,
1, ,-43, ,
2, ,-43, ,
6, ,-43, ,
9, ,-43, ,
11, ,-43, ,
12, ,-43, ,
15, ,-43, ,
15, ,-43, ,
19, ,-43, ,
20, ,-43, ,
20, ,-43, ,
20, ,-43, ,
18, ,-43, ,
19, ,-43, ,
16, ,-43, ,
13, ,-43, ,
12, ,-43, ,
9, ,-43, ,
4, ,-43, ,
-4, ,-43, ,
-10, ,-43, ,
-15, ,-43, ,
-23, ,-43, ,
-38, ,-43, ,
-47, ,-43, ,
-57, ,-43, ,
-67, ,-43, ,
-86, ,-43, ,
-95, ,-43, ,
-103, ,-43, ,
-111, ,-43, ,
-124, ,-43, ,
-126, ,-43, ,
-126, ,-43, ,
-126, ,-43, ,
-126, ,-43, ,
-126, ,-43, ,
-126, ,-43, ,
-126, ,-43, ,
-126, ,-43, ,
-126, ,-43, ,
-122, ,-43, ,
-117, ,-43, ,
-108, ,-43, ,
-103, ,-43, ,
-98, ,-43, ,
-93, ,-43, ,
-84, ,-43, ,
-80, ,-43, ,
-77, ,-43, ,
-74, ,-43, ,
-69, ,-43, ,
-68, ,-43, ,
-68, ,-43, ,
-68, ,-43, ,
-70, ,-43, ,
-72, ,-43, ,
-74, ,-43, ,
-74, ,-43, ,
-79, ,-43, ,
-81, ,-43, ,
-82, ,-43, ,
-85, ,-43, ,
-86, ,-43, ,
-87, ,-43, ,
-88, ,-43, ,
-89, ,-43, ,
-89, ,-43, ,
-89, ,-43, ,
-89, ,-43, ,
-90, ,-43, ,
-90, ,-43, ,
-90, ,-43, ,
-92, ,-43, ,
-92, ,-43, ,
-92, ,-43, ,
-94, ,-43, ,
-95, ,-43, ,
-95, ,-43, ,
-98, ,-43, ,
-97, ,-43, ,
-102, ,-43, ,
-104, ,-43, ,
-105, ,-43, ,
-110, ,-43, ,
-110, ,-43, ,
-114, ,-43, ,
-121, ,-43, ,
-125, ,-43, ,
-126, ,-43, ,
-126, ,-43, ,
-126, ,-43, ,
-126, ,-43, ,
-126, ,-43, ,
-126, ,-43, ,
-126, ,-43, ,
-126, ,-43, ,
-126, ,-43, ,
-126, ,-43, ,
-126, ,-43, ,
-126, ,-43, ,
-126, ,-43, ,
-126, ,-43, ,
-126, ,-43, ,
-126, ,-43, ,
-126, ,-43, ,
-126, ,-43, ,
-126, ,-43, ,
-126, ,-43, ,
-120, ,-43, ,
-116, ,-43, ,
-101, ,-43, ,
-96, ,-43, ,
-91, ,-43, ,
-81, ,-43, ,
-66, ,-43, ,
-60, ,-43, ,
-51, ,-43, ,
-44, ,-43, ,
-29, ,-43, ,
-21, ,-43, ,
-15, ,-43, ,
-6, ,-43, ,
6, ,-43, ,
11, ,-43, ,
18, ,-43, ,
23, ,-43, ,
33, ,-43, ,
37, ,-43, ,
40, ,-43, ,
44, ,-43, ,
54, ,-43, ,
54, ,-43, ,
56, ,-43, ,
59, ,-43, ,
61, ,-43, ,
63, ,-43, ,
62, ,-43, ,
64, ,-43, ,
63, ,-43, ,
62, ,-43, ,
62, ,-43, ,
61, ,-43, ,
59, ,-43, ,
57, ,-43, ,
56, ,-43, ,
56, ,-43, ,
51, ,-43, ,
49, ,-43, ,
48, ,-43, ,
46, ,-43, ,
41, ,-43, ,
39, ,-43, ,
36, ,-43, ,
35, ,-43, ,
33, ,-43, ,
29, ,-43, ,
29, ,-43, ,
26, ,-43, ,
24, ,-43, ,
23, ,-43, ,
21, ,-43, ,
23, ,-43, ,
21, ,-43, ,
20, ,-43, ,
21, ,-43, ,
21, ,-43, ,
21, ,-43, ,
23, ,-43, ,
23, ,-43, ,
24, ,-43, ,
26, ,-43, ,
27, ,-43, ,
28, ,-43, ,
27, ,-43, ,
30, ,-43, ,
31, ,-43, ,
33, ,-43, ,
35, ,-43, ,
37, ,-43, ,
36, ,-43, ,
39, ,-43, ,
39, ,-43, ,
42, ,-43, ,
43, ,-43, ,
43, ,-43, ,
45, ,-43, ,
46, ,-43, ,
46, ,-43, ,
46, ,-43, ,
45, ,-43, ,
44, ,-43, ,
44, ,-43, ,
44, ,-43, ,
44, ,-43, ,
43, ,-43, ,
43, ,-43, ,
41, ,-43, ,
41, ,-43, ,
36, ,-43, ,
36, ,-43, ,
35, ,-43, ,
33, ,-43, ,
30, ,-43, ,
26, ,-43, ,
25, ,-43, ,
21, ,-43, ,
17, ,-43, ,
14, ,-43, ,
12, ,-43, ,
10, ,-43, ,
4, ,-43, ,
1, ,-43, ,
0, ,-43, ,
-3, ,-43, ,
-8, ,-43, ,
-10, ,-43, ,
-11, ,-43, ,
-13, ,-43, ,
-15, ,-43, ,
-16, ,-43, ,
-18, ,-43, ,
-18, ,-43, ,
-17, ,-43, ,
-16, ,-43, ,
-16, ,-43, ,
-15, ,-43, ,
-11, ,-43, ,
-12, ,-43, ,
-7, ,-43, ,
-7, ,-43, ,
-3, ,-43, ,
0, ,-43, ,
2, ,-43, ,
5, ,-43, ,
10, ,-43, ,
11, ,-43, ,
16, ,-43, ,
18, ,-43, ,
23, ,-43, ,
28, ,-43, ,
26, ,-43, ,
31, ,-43, ,
35, ,-43, ,
35, ,-43, ,
37, ,-43, ,
38, ,-43, ,
38, ,-43, ,
39, ,-43, ,
38, ,-43, ,
38, ,-43, ,
37, ,-43, ,
36, ,-43, ,
36, ,-43, ,
34, ,-43, ,
33, ,-43, ,
34, ,-43, ,
30, ,-43, ,
30, ,-43, ,
27, ,-43, ,
25, ,-43, ,
24, ,-43, ,
23, ,-43, ,
19, ,-43, ,
19, ,-43, ,
18, ,-43, ,
17, ,-43, ,
14, ,-43, ,
13, ,-43, ,
12, ,-43, ,
12, ,-43, ,
11, ,-43, ,
11, ,-43, ,
12, ,-43, ,
11, ,-43, ,
13, ,-43, ,
13, ,-43, ,
14, ,-43, ,
13, ,-43, ,
13, ,-43, ,
15, ,-43, ,
15, ,-43, ,
16, ,-43, ,
17, ,-43, ,
18, ,-43, ,
19, ,-43, ,
19, ,-43, ,
21, ,-43, ,
22, ,-43, ,
21, ,-43, ,
22, ,-43, ,
24, ,-43, ,
22, ,-43, ,
23, ,-43, ,
22, ,-43, ,
22, ,-43, ,
22, ,-43, ,
22, ,-43, ,
21, ,-43, ,
20, ,-43, ,
20, ,-43, ,
20, ,-43, ,
19, ,-43, ,
19, ,-43, ,
20, ,-43, ,
19, ,-43, ,
19, ,-43, ,
19, ,-43, ,
18, ,-43, ,
19, ,-43, ,
18, ,-43, ,
18, ,-43, ,
19, ,-43, ,
19, ,-43, ,
19, ,-43, ,
19, ,-43, ,
18, ,-43, ,
17, ,-43, ,
17, ,-43, ,
15, ,-43, ,
15, ,-43, ,
11, ,-43, ,
9, ,-43, ,
5, ,-43, ,
-1, ,-43, ,
-3, ,-43, ,
-9, ,-43, ,
-18, ,-43, ,
-22, ,-43, ,
-28, ,-43, ,
-32, ,-43, ,
-45, ,-43, ,
-52, ,-43, ,
-55, ,-43, ,
-62, ,-43, ,
-72, ,-43, ,
-76, ,-43, ,
-80, ,-43, ,
-83, ,-43, ,
-86, ,-43, ,
-90, ,-43, ,
-90, ,-43, ,
-91, ,-43, ,
-89, ,-43, ,
-88, ,-43, ,
-86, ,-43, ,
-83, ,-43, ,
-79, ,-43, ,
-77, ,-43, ,
-73, ,-43, ,
-71, ,-43, ,
-64, ,-43, ,
-61, ,-43, ,
-59, ,-43, ,
-53, ,-43, ,
-48, ,-43, ,
-44, ,-43, ,
-40, ,-43, ,
-38, ,-43, ,
-30, ,-43, ,
-28, ,-43, ,
-23, ,-43, ,
-19, ,-43, ,
-9, ,-43, ,
-5, ,-43, ,
0, ,-43, ,
5, ,-43, ,
14, ,-43, ,
19, ,-43, ,
23, ,-43, ,
30, ,-43, ,
37, ,-43, ,
38, ,-43, ,
44, ,-43, ,
46, ,-43, ,
50, ,-43, ,
52, ,-43, ,
52, ,-43, ,
51, ,-43, ,
50, ,-43, ,
48, ,-43, ,
47, ,-43, ,
44, ,-43, ,
39, ,-43, ,
38, ,-43, ,
34, ,-43, ,
30, ,-43, ,
27, ,-43, ,
23, ,-43, ,
20, ,-43, ,
17, ,-43, ,
12, ,-43, ,
12, ,-43, ,
10, ,-43, ,
9, ,-43, ,
9, ,-43, ,
8, ,-43, ,
9, ,-43, ,
8, ,-43, ,
10, ,-43, ,
10, ,-43, ,
11, ,-43, ,
13, ,-43, ,
14, ,-43, ,
14, ,-43, ,
14, ,-43, ,
14, ,-43, ,
12, ,-43, ,
11, ,-43, ,
10, ,-43, ,
10, ,-43, ,
7, ,-43, ,
4, ,-43, ,
4, ,-43, ,
-1, ,-43, ,
-6, ,-43, ,
-7, ,-43, ,
-11, ,-43, ,
-13, ,-43, ,
-18, ,-43, ,
-21, ,-43, ,
-22, ,-43, ,
-25, ,-43, ,
-27, ,-43, ,
-27, ,-43, ,
-29, ,-43, ,
-29, ,-43, ,
-28, ,-43, ,
-29, ,-43, ,
-27, ,-43, ,
-29, ,-43, ,
-27, ,-43, ,
-25, ,-43, ,
-25, ,-43, ,
-25, ,-43, ,
-23, ,-43, ,
-23, ,-43, ,
-22, ,-43, ,
-22, ,-43, ,
-24, ,-43, ,
-23, ,-43, ,
-25, ,-43, ,
-25, ,-43, ,
-27, ,-43, ,
-28, ,-43, ,
-30, ,-43, ,
-33, ,-43, ,
-35, ,-43, ,
-35, ,-43, ,
-37, ,-43, ,
-36, ,-43, ,
-39, ,-43, ,
-40, ,-43, ,
-40, ,-43, ,
-41, ,-43, ,
-41, ,-43, ,
-39, ,-43, ,
-38, ,-43, ,
-37, ,-43, ,
-35, ,-43, ,
-35, ,-43, ,
-33, ,-43, ,
-32, ,-43, ,
-27, ,-43, ,
-24, ,-43, ,
-24, ,-43, ,
-19, ,-43, ,
-14, ,-43, ,
-12, ,-43, ,
-8, ,-43, ,
-7, ,-43, ,
-1, ,-43, ,
3, ,-43, ,
3, ,-43, ,
6, ,-43, ,
9, ,-43, ,
11, ,-43, ,
13, ,-43, ,
12, ,-43, ,
15, ,-43, ,
15, ,-43, ,
15, ,-43, ,
16, ,-43, ,
17, ,-43, ,
15, ,-43, ,
16, ,-43, ,
15, ,-43, ,
13, ,-43, ,
13, ,-43, ,
12, ,-43, ,
11, ,-43, ,
9, ,-43, ,
7, ,-43, ,
7, ,-43, ,
5, ,-43, ,
2, ,-43, ,
3, ,-43, ,
0, ,-43, ,
0, ,-43, ,
-4, ,-43, ,
-5, ,-43, ,
-5, ,-43, ,
-6, ,-43, ,
-7, ,-43, ,
-7, ,-43, ,
-7, ,-43, ,
-6, ,-43, ,
-7, ,-43, ,
-7, ,-43, ,
-6, ,-43, ,
-5, ,-43, ,
-4, ,-43, ,
-1, ,-43, ,
-2, ,-43, ,
0, ,-43, ,
4, ,-43, ,
3, ,-43, ,
6, ,-43, ,
8, ,-43, ,
10, ,-43, ,
11, ,-43, ,
12, ,-43, ,
16, ,-43, ,
17, ,-43, ,
16, ,-43, ,
18, ,-43, ,
18, ,-43, ,
19, ,-43, ,
19, ,-43, ,
19, ,-43, ,
19, ,-43, ,
17, ,-43, ,
17, ,-43, ,
17, ,-43, ,
15, ,-43, ,
14, ,-43, ,
14, ,-43, ,
12, ,-43, ,
11, ,-43, ,
9, ,-43, ,
9, ,-43, ,
7, ,-43, ,
5, ,-43, ,
5, ,-43, ,
3, ,-43, ,
0, ,-43, ,
0, ,-43, ,
-1, ,-43, ,
-2, ,-43, ,
-2, ,-43, ,
-3, ,-43, ,
-4, ,-43, ,
-3, ,-43, ,
-4, ,-43, ,
-4, ,-43, ,
-3, ,-43, ,
-2, ,-43, ,
-1, ,-43, ,
-2, ,-43, ,
0, ,-43, ,
3, ,-43, ,
3, ,-43, ,
5, ,-43, ,
8, ,-43, ,
8, ,-43, ,
11, ,-43, ,
12, ,-43, ,
14, ,-43, ,
18, ,-43, ,
18, ,-43, ,
20, ,-43, ,
20, ,-43, ,
21, ,-43, ,
24, ,-43, ,
22, ,-43, ,
23, ,-43, ,
23, ,-43, ,
22, ,-43, ,
21, ,-43, ,
20, ,-43, ,
18, ,-43, ,
19, ,-43, ,
17, ,-43, ,
13, ,-43, ,
13, ,-43, ,
11, ,-43, ,
10, ,-43, ,
5, ,-43, ,
4, ,-43, ,
3, ,-43, ,
-1, ,-43, ,
-2, ,-43, ,
-1, ,-43, ,
-4, ,-43, ,
-4, ,-43, ,
-5, ,-43, ,
-6, ,-43, ,
-6, ,-43, ,
-6, ,-43, ,
-5, ,-43, ,
-5, ,-43, ,
-4, ,-43, ,
-3, ,-43, ,
-1, ,-43, ,
-2, ,-43, ,
1, ,-43, ,
1, ,-43, ,
5, ,-43, ,
8, ,-43, ,
7, ,-43, ,
10, ,-43, ,
11, ,-43, ,
10, ,-43, ,
13, ,-43, ,
13, ,-43, ,
13, ,-43, ,
14, ,-43, ,
13, ,-43, ,
14, ,-43, ,
14, ,-43, ,
10, ,-43, ,
10, ,-43, ,
9, ,-43, ,
7, ,-43, ,
7, ,-43, ,
4, ,-43, ,
2, ,-43, ,
0, ,-43, ,
-2, ,-43, ,
-4, ,-43, ,
-5, ,-43, ,
-8, ,-43, ,
-8, ,-43, ,
-10, ,-43, ,
-11, ,-43, ,
-13, ,-43, ,
-15, ,-43, ,
-16, ,-43, ,
-18, ,-43, ,
-19, ,-43, ,
-20, ,-43, ,
-21, ,-43, ,
-21, ,-43, ,
-23, ,-43, ,
-24, ,-43, ,
-24, ,-43, ,
-25, ,-43, ,
-25, ,-43, ,
-24, ,-43, ,
-25, ,-43, ,
-25, ,-43, ,
-25, ,-43, ,
-25, ,-43, ,
-24, ,-43, ,
-24, ,-43, ,
-22, ,-43, ,
-19, ,-43, ,
-20, ,-43, ,
-17, ,-43, ,
-14, ,-43, ,
-13, ,-43, ,
-10, ,-43, ,
-9, ,-43, ,
-5, ,-43, ,
-4, ,-43, ,
-2, ,-43, ,
2, ,-43, ,
3, ,-43, ,
5, ,-43, ,
6, ,-43, ,
8, ,-43, ,
9, ,-43, ,
10, ,-43, ,
10, ,-43, ,
11, ,-43, ,
12, ,-43, ,
10, ,-43, ,
11, ,-43, ,
9, ,-43, ,
8, ,-43, ,
8, ,-43, ,
6, ,-43, ,
7, ,-43, ,
5, ,-43, ,
2, ,-43, ,
2, ,-43, ,
1, ,-43, ,
0, ,-43, ,
-1, ,-43, ,
-2, ,-43, ,
-2, ,-43, ,
-3, ,-43, ,
-4, ,-43, ,
-4, ,-43, ,
-4, ,-43, ,
-5, ,-43, ,
-5, ,-43, ,
-5, ,-43, ,
-4, ,-43, ,
-4, ,-43, ,
-3, ,-43, ,
-3, ,-43, ,
-2, ,-43, ,
-2, ,-43, ,
-1, ,-43, ,
-2, ,-43, ,
1, ,-43, ,
0, ,-43, ,
0, ,-43, ,
1, ,-43, ,
1, ,-43, ,
1, ,-43, ,
2, ,-43, ,
2, ,-43, ,
2, ,-43, ,
3, ,-43, ,
2, ,-43, ,
2, ,-43, ,
1, ,-43, ,
1, ,-43, ,
2, ,-43, ,
0, ,-43, ,
2, ,-43, ,
0, ,-43, ,
-2, ,-43, ,
-1, ,-43, ,
-2, ,-43, ,
-4, ,-43, ,
-3, ,-43, ,
-4, ,-43, ,
-4, ,-43, ,
-7, ,-43, ,
-7, ,-43, ,
-8, ,-43, ,
-10, ,-43, ,
-11, ,-43, ,
-11, ,-43, ,
-14, ,-43, ,
-14, ,-43, ,
-15, ,-43, ,
-16, ,-43, ,
-16, ,-43, ,
-18, ,-43, ,
-19, ,-43, ,
-19, ,-43, ,
-19, ,-43, ,
-19, ,-43, ,
-18, ,-43, ,
-18, ,-43, ,
-17, ,-43, ,
-17, ,-43, ,
-15, ,-43, ,
-12, ,-43, ,
-12, ,-43, ,
-12, ,-43, ,
-5, ,-43, ,
-5, ,-43, ,
-2, ,-43, ,
0, ,-43, ,
4, ,-43, ,
7, ,-43, ,
9, ,-43, ,
11, ,-43, ,
16, ,-43, ,
18, ,-43, ,
20, ,-43, ,
20, ,-43, ,
21, ,-43, ,
22, ,-43, ,
22, ,-43, ,
20, ,-43, ,
19, ,-43, ,
17, ,-43, ,
15, ,-43, ,
13, ,-43, ,
7, ,-43, ,
4, ,-43, ,
0, ,-43, ,
-3, ,-43, ,
-10, ,-43, ,
-15, ,-43, ,
-18, ,-43, ,
-24, ,-43, ,
-30, ,-43, ,
-33, ,-43, ,
-37, ,-43, ,
-39, ,-43, ,
-40, ,-43, ,
-42, ,-43, ,
-41, ,-43, ,
-43, ,-43, ,
-39, ,-43, ,
-37, ,-43, ,
-35, ,-43, ,
-30, ,-43, ,
-24, ,-43, ,
-19, ,-43, ,
