raw_data/100% Glycerol, Impulsion 2Hz, Sonde 5MHz, Rampe 0.7Hz/temp0000290.CSV

Format,1.0B,
Memory Length,10000,Memory Length,10000,
IntpDistance,0,IntpDistance,0,
Trigger Address,159,Trigger Address,159,
Trigger Level,2.720E-01,Trigger Level,2.720E-01,
Source,CH1,Source,CH2,
Vertical Units,V,Vertical Units,V,
Vertical Units Div,0,Vertical Units Div,0,
Vertical Units Extend Div,16,Vertical Units Extend Div,16,
Label,,Label,,
Probe Type,0,Probe Type,0,
Probe Ratio,1.000e+00,Probe Ratio,1.000e+00,
Vertical Scale,2.000e-01,Vertical Scale,2.000e+00,
Vertical Position,0.000e+00,Vertical Position,0.000e+00,
Horizontal Units,S,Horizontal Units,S,
Horizontal Scale,5.000E-06,Horizontal Scale,5.000E-06,
Horizontal Position,2.420E-05,Horizontal Position,2.420E-05,
Horizontal Mode,Main,Horizontal Mode,Main,
SincET Mode,Real Time,SincET Mode,Real Time,
Sampling Period,5.000e-09,Sampling Period,5.000e-09,
Horizontal Old Scale,5.000E-06,Horizontal Old Scale,5.000E-06,
Horizontal Old Position,2.420E-05,Horizontal Old Position,2.420E-05,
Firmware,V1.32,Firmware,V1.32,
Mode,Fast,Mode,Fast,
Waveform Data,,Waveform Data,,
1, ,-24, ,
3, ,-24, ,
3, ,-24, ,
3, ,-24, ,
3, ,-24, ,
3, ,-24, ,
1, ,-24, ,
3, ,-24, ,
3, ,-24, ,
2, ,-24, ,
2, ,-24, ,
2, ,-24, ,
3, ,-24, ,
3, ,-24, ,
3, ,-24, ,
4, ,-24, ,
2, ,-24, ,
3, ,-24, ,
2, ,-24, ,
2, ,-24, ,
2, ,-24, ,
1, ,-24, ,
3, ,-24, ,
3, ,-24, ,
2, ,-24, ,
3, ,-24, ,
3, ,-24, ,
3, ,-24, ,
3, ,-24, ,
2, ,-24, ,
3, ,-24, ,
3, ,-24, ,
2, ,-24, ,
2, ,-24, ,
2, ,-24, ,
1, ,-24, ,
2, ,-24, ,
2, ,-24, ,
2, ,-24, ,
3, ,-24, ,
2, ,-24, ,
2, ,-24, ,
3, ,-24, ,
3, ,-24, ,
3, ,-24, ,
3, ,-24, ,
2, ,-24, ,
2, ,-24, ,
2, ,-24, ,
2, ,-24, ,
2, ,-24, ,
2, ,-24, ,
2, ,-24, ,
2, ,-24, ,
1, ,-24, ,
3, ,-24, ,
3, ,-24, ,
3, ,-24, ,
3, ,-24, ,
1, ,-24, ,
4, ,-24, ,
3, ,-24, ,
3, ,-24, ,
3, ,-24, ,
3, ,-24, ,
3, ,-24, ,
3, ,-24, ,
3, ,-24, ,
3, ,-24, ,
2, ,-24, ,
2, ,-24, ,
3, ,-24, ,
2, ,-24, ,
3, ,-24, ,
3, ,-24, ,
3, ,-24, ,
3, ,-24, ,
3, ,-24, ,
3, ,-24, ,
4, ,-24, ,
3, ,-24, ,
3, ,-24, ,
2, ,-24, ,
1, ,-24, ,
3, ,-24, ,
2, ,-24, ,
2, ,-24, ,
2, ,-24, ,
2, ,-24, ,
3, ,-24, ,
4, ,-24, ,
3, ,-24, ,
4, ,-24, ,
3, ,-24, ,
3, ,-24, ,
3, ,-24, ,
2, ,-24, ,
3, ,-24, ,
3, ,-24, ,
2, ,-24, ,
3, ,-24, ,
2, ,-24, ,
2, ,-24, ,
2, ,-24, ,
2, ,-24, ,
2, ,-24, ,
2, ,-24, ,
1, ,-24, ,
2, ,-24, ,
1, ,-24, ,
2, ,-24, ,
3, ,-24, ,
1, ,-24, ,
3, ,-24, ,
3, ,-24, ,
2, ,-24, ,
3, ,-24, ,
1, ,-24, ,
1, ,-24, ,
3, ,-24, ,
2, ,-24, ,
2, ,-24, ,
3, ,-24, ,
2, ,-24, ,
3, ,-24, ,
2, ,-24, ,
2, ,-24, ,
3, ,-24, ,
1, ,-24, ,
2, ,-24, ,
3, ,-24, ,
2, ,-24, ,
2, ,-24, ,
2, ,-24, ,
2, ,-24, ,
2, ,-24, ,
2, ,-24, ,
2, ,-24, ,
3, ,-24, ,
2, ,-24, ,
2, ,-24, ,
1, ,-24, ,
3, ,-24, ,
3, ,-24, ,
2, ,-24, ,
2, ,-24, ,
3, ,-24, ,
3, ,-24, ,
3, ,-24, ,
2, ,-24, ,
1, ,-24, ,
2, ,-24, ,
2, ,-24, ,
2, ,-24, ,
2, ,-24, ,
1, ,-24, ,
2, ,-24, ,
2, ,-24, ,
3, ,-24, ,
3, ,-24, ,
2, ,-24, ,
2, ,-24, ,
3, ,-24, ,
2, ,-24, ,
8, ,-24, ,
1, ,-24, ,
-1, ,-24, ,
1, ,-24, ,
30, ,-24, ,
87, ,-24, ,
125, ,-24, ,
125, ,-24, ,
125, ,-24, ,
121, ,-24, ,
12, ,-24, ,
-12, ,-24, ,
85, ,-24, ,
125, ,-24, ,
125, ,-24, ,
125, ,-24, ,
125, ,-24, ,
125, ,-24, ,
125, ,-24, ,
125, ,-24, ,
125, ,-24, ,
125, ,-24, ,
125, ,-24, ,
125, ,-24, ,
125, ,-24, ,
125, ,-24, ,
125, ,-24, ,
125, ,-24, ,
125, ,-24, ,
125, ,-24, ,
125, ,-24, ,
125, ,-24, ,
125, ,-24, ,
125, ,-24, ,
125, ,-24, ,
125, ,-24, ,
125, ,-24, ,
125, ,-24, ,
124, ,-24, ,
124, ,-24, ,
122, ,-24, ,
116, ,-24, ,
107, ,-24, ,
104, ,-24, ,
99, ,-24, ,
96, ,-24, ,
88, ,-24, ,
84, ,-24, ,
79, ,-24, ,
75, ,-24, ,
68, ,-24, ,
65, ,-24, ,
62, ,-24, ,
60, ,-24, ,
54, ,-24, ,
52, ,-24, ,
50, ,-24, ,
46, ,-24, ,
43, ,-24, ,
42, ,-24, ,
38, ,-24, ,
37, ,-24, ,
34, ,-24, ,
32, ,-24, ,
32, ,-24, ,
29, ,-24, ,
26, ,-24, ,
25, ,-24, ,
23, ,-24, ,
22, ,-24, ,
20, ,-24, ,
18, ,-24, ,
19, ,-24, ,
17, ,-24, ,
15, ,-24, ,
15, ,-24, ,
13, ,-24, ,
12, ,-24, ,
12, ,-24, ,
9, ,-24, ,
9, ,-24, ,
8, ,-24, ,
7, ,-24, ,
7, ,-24, ,
7, ,-24, ,
7, ,-24, ,
5, ,-24, ,
3, ,-24, ,
4, ,-24, ,
3, ,-24, ,
2, ,-24, ,
2, ,-24, ,
1, ,-24, ,
2, ,-24, ,
2, ,-24, ,
0, ,-24, ,
1, ,-24, ,
0, ,-24, ,
0, ,-24, ,
0, ,-24, ,
0, ,-24, ,
0, ,-24, ,
-1, ,-24, ,
-1, ,-24, ,
-1, ,-24, ,
-1, ,-24, ,
-2, ,-24, ,
-1, ,-24, ,
-2, ,-24, ,
-2, ,-24, ,
-1, ,-24, ,
-3, ,-24, ,
-2, ,-24, ,
-2, ,-24, ,
-2, ,-24, ,
-2, ,-24, ,
-2, ,-24, ,
-2, ,-24, ,
-2, ,-24, ,
-2, ,-24, ,
-1, ,-24, ,
-3, ,-24, ,
-2, ,-24, ,
-2, ,-24, ,
-2, ,-24, ,
-2, ,-24, ,
0, ,-24, ,
-3, ,-24, ,
-2, ,-24, ,
-3, ,-24, ,
-4, ,-24, ,
-2, ,-24, ,
-2, ,-24, ,
-2, ,-24, ,
-2, ,-24, ,
-2, ,-24, ,
-2, ,-24, ,
-2, ,-24, ,
-1, ,-24, ,
-2, ,-24, ,
-2, ,-24, ,
-1, ,-24, ,
-1, ,-24, ,
-2, ,-24, ,
-1, ,-24, ,
-1, ,-24, ,
-1, ,-24, ,
0, ,-24, ,
-1, ,-24, ,
0, ,-24, ,
-1, ,-24, ,
-1, ,-24, ,
-2, ,-24, ,
-1, ,-24, ,
-1, ,-24, ,
0, ,-24, ,
-1, ,-24, ,
-1, ,-24, ,
0, ,-24, ,
0, ,-24, ,
0, ,-24, ,
0, ,-24, ,
0, ,-24, ,
0, ,-24, ,
0, ,-24, ,
1, ,-24, ,
0, ,-24, ,
0, ,-24, ,
0, ,-24, ,
0, ,-24, ,
0, ,-24, ,
1, ,-24, ,
0, ,-24, ,
1, ,-24, ,
1, ,-24, ,
1, ,-24, ,
1, ,-24, ,
1, ,-24, ,
0, ,-24, ,
0, ,-24, ,
1, ,-24, ,
2, ,-24, ,
2, ,-24, ,
0, ,-24, ,
1, ,-24, ,
1, ,-24, ,
2, ,-24, ,
2, ,-24, ,
1, ,-24, ,
1, ,-24, ,
1, ,-24, ,
1, ,-24, ,
1, ,-24, ,
1, ,-24, ,
1, ,-24, ,
2, ,-24, ,
2, ,-24, ,
0, ,-24, ,
-1, ,-24, ,
-7, ,-24, ,
-24, ,-24, ,
-55, ,-24, ,
-126, ,-24, ,
-125, ,-24, ,
-120, ,-24, ,
-74, ,-24, ,
3, ,-24, ,
10, ,-24, ,
9, ,-24, ,
3, ,-24, ,
7, ,-24, ,
16, ,-24, ,
18, ,-24, ,
21, ,-24, ,
20, ,-24, ,
19, ,-24, ,
20, ,-24, ,
20, ,-24, ,
20, ,-24, ,
19, ,-24, ,
19, ,-24, ,
18, ,-24, ,
18, ,-24, ,
17, ,-24, ,
17, ,-24, ,
16, ,-24, ,
15, ,-24, ,
15, ,-24, ,
15, ,-24, ,
15, ,-24, ,
14, ,-24, ,
12, ,-24, ,
12, ,-24, ,
12, ,-24, ,
11, ,-24, ,
12, ,-24, ,
10, ,-24, ,
11, ,-24, ,
10, ,-24, ,
10, ,-24, ,
10, ,-24, ,
9, ,-24, ,
8, ,-24, ,
9, ,-24, ,
8, ,-24, ,
9, ,-24, ,
7, ,-24, ,
7, ,-24, ,
7, ,-24, ,
6, ,-24, ,
6, ,-24, ,
6, ,-24, ,
6, ,-24, ,
6, ,-24, ,
6, ,-24, ,
5, ,-24, ,
6, ,-24, ,
5, ,-24, ,
5, ,-24, ,
5, ,-24, ,
5, ,-24, ,
5, ,-24, ,
5, ,-24, ,
4, ,-24, ,
5, ,-24, ,
3, ,-24, ,
5, ,-24, ,
5, ,-24, ,
4, ,-24, ,
5, ,-24, ,
5, ,-24, ,
5, ,-24, ,
5, ,-24, ,
4, ,-24, ,
4, ,-24, ,
5, ,-24, ,
4, ,-24, ,
4, ,-24, ,
5, ,-24, ,
3, ,-24, ,
4, ,-24, ,
3, ,-24, ,
3, ,-24, ,
4, ,-24, ,
4, ,-24, ,
4, ,-24, ,
4, ,-24, ,
4, ,-24, ,
4, ,-24, ,
3, ,-24, ,
3, ,-24, ,
4, ,-24, ,
3, ,-24, ,
4, ,-24, ,
3, ,-24, ,
3, ,-24, ,
3, ,-24, ,
3, ,-24, ,
4, ,-24, ,
4, ,-24, ,
3, ,-24, ,
3, ,-24, ,
-16, ,-24, ,
-59, ,-24, ,
-126, ,-24, ,
-126, ,-24, ,
-126, ,-24, ,
-126, ,-24, ,
-126, ,-24, ,
-126, ,-24, ,
-126, ,-24, ,
-126, ,-24, ,
-126, ,-24, ,
-126, ,-24, ,
-126, ,-24, ,
-126, ,-24, ,
-126, ,-24, ,
-126, ,-24, ,
-126, ,-24, ,
-126, ,-24, ,
-126, ,-24, ,
-126, ,-24, ,
-126, ,-24, ,
-126, ,-24, ,
-126, ,-24, ,
-126, ,-24, ,
-126, ,-24, ,
-126, ,-24, ,
-126, ,-24, ,
-119, ,-24, ,
125, ,-24, ,
125, ,-24, ,
125, ,-24, ,
125, ,-24, ,
125, ,-24, ,
125, ,-24, ,
125, ,-24, ,
125, ,-24, ,
125, ,-24, ,
125, ,-24, ,
125, ,-24, ,
125, ,-24, ,
125, ,-24, ,
125, ,-24, ,
125, ,-24, ,
125, ,-24, ,
125, ,-24, ,
125, ,-24, ,
125, ,-24, ,
125, ,-24, ,
125, ,-24, ,
125, ,-24, ,
125, ,-24, ,
125, ,-24, ,
125, ,-24, ,
125, ,-24, ,
125, ,-24, ,
125, ,-24, ,
125, ,-24, ,
124, ,-24, ,
122, ,-24, ,
100, ,-24, ,
-2, ,-24, ,
-74, ,-24, ,
-126, ,-24, ,
-126, ,-24, ,
-126, ,-24, ,
-126, ,-24, ,
-126, ,-24, ,
-126, ,-24, ,
-126, ,-24, ,
-125, ,-24, ,
-123, ,-24, ,
-88, ,-24, ,
-7, ,-24, ,
25, ,-24, ,
53, ,-24, ,
71, ,-24, ,
92, ,-24, ,
95, ,-24, ,
94, ,-24, ,
94, ,-24, ,
86, ,-24, ,
77, ,-24, ,
69, ,-24, ,
58, ,-24, ,
33, ,-24, ,
14, ,-24, ,
-7, ,-24, ,
-32, ,-24, ,
-94, ,-24, ,
-126, ,-24, ,
-126, ,-24, ,
-126, ,-24, ,
-126, ,-24, ,
-126, ,-24, ,
-126, ,-24, ,
-126, ,-24, ,
-126, ,-24, ,
-126, ,-24, ,
-126, ,-24, ,
-126, ,-24, ,
-126, ,-24, ,
-126, ,-24, ,
-126, ,-24, ,
-124, ,-24, ,
-79, ,-24, ,
-59, ,-24, ,
-42, ,-24, ,
-29, ,-24, ,
-10, ,-24, ,
-4, ,-24, ,
-2, ,-24, ,
1, ,-24, ,
10, ,-24, ,
16, ,-24, ,
29, ,-24, ,
40, ,-24, ,
68, ,-24, ,
85, ,-24, ,
100, ,-24, ,
116, ,-24, ,
125, ,-24, ,
125, ,-24, ,
125, ,-24, ,
125, ,-24, ,
125, ,-24, ,
125, ,-24, ,
125, ,-24, ,
125, ,-24, ,
125, ,-24, ,
125, ,-24, ,
125, ,-24, ,
125, ,-24, ,
125, ,-24, ,
125, ,-24, ,
125, ,-24, ,
125, ,-24, ,
125, ,-24, ,
125, ,-24, ,
125, ,-24, ,
125, ,-24, ,
125, ,-24, ,
125, ,-24, ,
125, ,-24, ,
125, ,-24, ,
125, ,-24, ,
125, ,-24, ,
125, ,-24, ,
125, ,-24, ,
124, ,-24, ,
121, ,-24, ,
115, ,-24, ,
112, ,-24, ,
104, ,-24, ,
99, ,-24, ,
96, ,-24, ,
89, ,-24, ,
72, ,-24, ,
53, ,-24, ,
24, ,-24, ,
-18, ,-24, ,
-126, ,-24, ,
-126, ,-24, ,
-126, ,-24, ,
-126, ,-24, ,
-126, ,-24, ,
-126, ,-24, ,
-126, ,-24, ,
-126, ,-24, ,
-126, ,-24, ,
-126, ,-24, ,
-126, ,-24, ,
-126, ,-24, ,
-126, ,-24, ,
-126, ,-24, ,
-126, ,-24, ,
-126, ,-24, ,
-126, ,-24, ,
-126, ,-24, ,
-126, ,-24, ,
-126, ,-24, ,
-126, ,-24, ,
-126, ,-24, ,
-126, ,-24, ,
-126, ,-24, ,
-126, ,-24, ,
-126, ,-24, ,
-126, ,-24, ,
-126, ,-24, ,
-126, ,-24, ,
-126, ,-24, ,
-122, ,-24, ,
-90, ,-24, ,
59, ,-24, ,
84, ,-24, ,
105, ,-24, ,
125, ,-24, ,
125, ,-24, ,
125, ,-24, ,
125, ,-24, ,
125, ,-24, ,
125, ,-24, ,
125, ,-24, ,
125, ,-24, ,
125, ,-24, ,
124, ,-24, ,
119, ,-24, ,
99, ,-24, ,
82, ,-24, ,
50, ,-24, ,
37, ,-24, ,
28, ,-24, ,
21, ,-24, ,
18, ,-24, ,
23, ,-24, ,
25, ,-24, ,
35, ,-24, ,
53, ,-24, ,
63, ,-24, ,
74, ,-24, ,
82, ,-24, ,
101, ,-24, ,
109, ,-24, ,
116, ,-24, ,
123, ,-24, ,
125, ,-24, ,
125, ,-24, ,
125, ,-24, ,
125, ,-24, ,
125, ,-24, ,
125, ,-24, ,
125, ,-24, ,
125, ,-24, ,
124, ,-24, ,
117, ,-24, ,
112, ,-24, ,
105, ,-24, ,
90, ,-24, ,
84, ,-24, ,
77, ,-24, ,
69, ,-24, ,
59, ,-24, ,
51, ,-24, ,
46, ,-24, ,
41, ,-24, ,
32, ,-24, ,
28, ,-24, ,
21, ,-24, ,
16, ,-24, ,
4, ,-24, ,
-6, ,-24, ,
-13, ,-24, ,
-23, ,-24, ,
-42, ,-24, ,
-52, ,-24, ,
-66, ,-24, ,
-78, ,-24, ,
-103, ,-24, ,
-116, ,-24, ,
-126, ,-24, ,
-126, ,-24, ,
-126, ,-24, ,
-126, ,-24, ,
-126, ,-24, ,
-126, ,-24, ,
-126, ,-24, ,
-126, ,-24, ,
-126, ,-24, ,
-126, ,-24, ,
-126, ,-24, ,
-126, ,-24, ,
-126, ,-24, ,
-126, ,-24, ,
-126, ,-24, ,
-126, ,-24, ,
-126, ,-24, ,
-126, ,-24, ,
-126, ,-24, ,
-126, ,-24, ,
-126, ,-24, ,
-124, ,-24, ,
-87, ,-24, ,
-67, ,-24, ,
-46, ,-24, ,
-27, ,-24, ,
11, ,-24, ,
30, ,-24, ,
45, ,-24, ,
61, ,-24, ,
95, ,-24, ,
107, ,-24, ,
122, ,-24, ,
125, ,-24, ,
125, ,-24, ,
125, ,-24, ,
125, ,-24, ,
125, ,-24, ,
125, ,-24, ,
125, ,-24, ,
125, ,-24, ,
125, ,-24, ,
125, ,-24, ,
125, ,-24, ,
125, ,-24, ,
125, ,-24, ,
125, ,-24, ,
125, ,-24, ,
125, ,-24, ,
125, ,-24, ,
125, ,-24, ,
125, ,-24, ,
125, ,-24, ,
125, ,-24, ,
125, ,-24, ,
125, ,-24, ,
125, ,-24, ,
124, ,-24, ,
122, ,-24, ,
111, ,-24, ,
101, ,-24, ,
91, ,-24, ,
71, ,-24, ,
60, ,-24, ,
51, ,-24, ,
38, ,-24, ,
19, ,-24, ,
9, ,-24, ,
-4, ,-24, ,
-15, ,-24, ,
-36, ,-24, ,
-47, ,-24, ,
-57, ,-24, ,
-68, ,-24, ,
-89, ,-24, ,
-97, ,-24, ,
-105, ,-24, ,
-110, ,-24, ,
-121, ,-24, ,
-126, ,-24, ,
-126, ,-24, ,
-126, ,-24, ,
-126, ,-24, ,
-122, ,-24, ,
-120, ,-24, ,
-114, ,-24, ,
-103, ,-24, ,
-99, ,-24, ,
-91, ,-24, ,
-86, ,-24, ,
-73, ,-24, ,
-68, ,-24, ,
-63, ,-24, ,
-59, ,-24, ,
-55, ,-24, ,
-54, ,-24, ,
-53, ,-24, ,
-53, ,-24, ,
-54, ,-24, ,
-50, ,-24, ,
-50, ,-24, ,
-50, ,-24, ,
-44, ,-24, ,
-43, ,-24, ,
-39, ,-24, ,
-36, ,-24, ,
-27, ,-24, ,
-20, ,-24, ,
-17, ,-24, ,
-10, ,-24, ,
0, ,-24, ,
6, ,-24, ,
11, ,-24, ,
15, ,-24, ,
23, ,-24, ,
28, ,-24, ,
32, ,-24, ,
36, ,-24, ,
42, ,-24, ,
47, ,-24, ,
49, ,-24, ,
52, ,-24, ,
57, ,-24, ,
62, ,-24, ,
64, ,-24, ,
67, ,-24, ,
74, ,-24, ,
75, ,-24, ,
80, ,-24, ,
82, ,-24, ,
85, ,-24, ,
88, ,-24, ,
90, ,-24, ,
93, ,-24, ,
94, ,-24, ,
95, ,-24, ,
95, ,-24, ,
94, ,-24, ,
94, ,-24, ,
93, ,-24, ,
91, ,-24, ,
92, ,-24, ,
86, ,-24, ,
84, ,-24, ,
82, ,-24, ,
78, ,-24, ,
69, ,-24, ,
66, ,-24, ,
59, ,-24, ,
55, ,-24, ,
39, ,-24, ,
32, ,-24, ,
22, ,-24, ,
12, ,-24, ,
-10, ,-24, ,
-21, ,-24, ,
-33, ,-24, ,
-42, ,-24, ,
-66, ,-24, ,
-77, ,-24, ,
-87, ,-24, ,
-97, ,-24, ,
-113, ,-24, ,
-121, ,-24, ,
-126, ,-24, ,
-126, ,-24, ,
-126, ,-24, ,
-126, ,-24, ,
-126, ,-24, ,
-126, ,-24, ,
-126, ,-24, ,
-126, ,-24, ,
-126, ,-24, ,
-126, ,-24, ,
-126, ,-24, ,
-126, ,-24, ,
-126, ,-24, ,
-126, ,-24, ,
-126, ,-24, ,
-126, ,-24, ,
-126, ,-24, ,
-126, ,-24, ,
-126, ,-24, ,
-126, ,-24, ,
-126, ,-24, ,
-126, ,-24, ,
-126, ,-24, ,
-125, ,-24, ,
-116, ,-24, ,
-100, ,-24, ,
-68, ,-24, ,
-54, ,-24, ,
-38, ,-24, ,
-26, ,-24, ,
-4, ,-24, ,
7, ,-24, ,
14, ,-24, ,
23, ,-24, ,
34, ,-24, ,
35, ,-24, ,
40, ,-24, ,
42, ,-24, ,
45, ,-24, ,
49, ,-24, ,
49, ,-24, ,
53, ,-24, ,
57, ,-24, ,
60, ,-24, ,
66, ,-24, ,
70, ,-24, ,
81, ,-24, ,
89, ,-24, ,
93, ,-24, ,
99, ,-24, ,
108, ,-24, ,
110, ,-24, ,
115, ,-24, ,
114, ,-24, ,
115, ,-24, ,
115, ,-24, ,
110, ,-24, ,
107, ,-24, ,
98, ,-24, ,
90, ,-24, ,
85, ,-24, ,
76, ,-24, ,
60, ,-24, ,
54, ,-24, ,
46, ,-24, ,
40, ,-24, ,
29, ,-24, ,
25, ,-24, ,
21, ,-24, ,
17, ,-24, ,
12, ,-24, ,
12, ,-24, ,
10, ,-24, ,
9, ,-24, ,
7, ,-24, ,
5, ,-24, ,
5, ,-24, ,
4, ,-24, ,
-2, ,-24, ,
-3, ,-24, ,
-7, ,-24, ,
-10, ,-24, ,
-18, ,-24, ,
-22, ,-24, ,
-25, ,-24, ,
-31, ,-24, ,
-39, ,-24, ,
-42, ,-24, ,
-48, ,-24, ,
-51, ,-24, ,
-59, ,-24, ,
-62, ,-24, ,
-64, ,-24, ,
-68, ,-24, ,
-72, ,-24, ,
-73, ,-24, ,
-74, ,-24, ,
-75, ,-24, ,
-74, ,-24, ,
-75, ,-24, ,
-74, ,-24, ,
-73, ,-24, ,
-72, ,-24, ,
-70, ,-24, ,
-69, ,-24, ,
-67, ,-24, ,
-62, ,-24, ,
-62, ,-24, ,
-59, ,-24, ,
-58, ,-24, ,
-53, ,-24, ,
-51, ,-24, ,
-48, ,-24, ,
-46, ,-24, ,
-41, ,-24, ,
-38, ,-24, ,
-35, ,-24, ,
-35, ,-24, ,
-28, ,-24, ,
-24, ,-24, ,
-20, ,-24, ,
-16, ,-24, ,
-6, ,-24, ,
-3, ,-24, ,
2, ,-24, ,
8, ,-24, ,
18, ,-24, ,
26, ,-24, ,
31, ,-24, ,
38, ,-24, ,
50, ,-24, ,
54, ,-24, ,
60, ,-24, ,
64, ,-24, ,
73, ,-24, ,
76, ,-24, ,
79, ,-24, ,
82, ,-24, ,
85, ,-24, ,
84, ,-24, ,
85, ,-24, ,
85, ,-24, ,
84, ,-24, ,
84, ,-24, ,
83, ,-24, ,
83, ,-24, ,
81, ,-24, ,
79, ,-24, ,
79, ,-24, ,
75, ,-24, ,
70, ,-24, ,
71, ,-24, ,
66, ,-24, ,
63, ,-24, ,
53, ,-24, ,
46, ,-24, ,
42, ,-24, ,
35, ,-24, ,
21, ,-24, ,
13, ,-24, ,
4, ,-24, ,
-3, ,-24, ,
-20, ,-24, ,
-28, ,-24, ,
-35, ,-24, ,
-43, ,-24, ,
-55, ,-24, ,
-60, ,-24, ,
-66, ,-24, ,
-70, ,-24, ,
-77, ,-24, ,
-79, ,-24, ,
-79, ,-24, ,
-82, ,-24, ,
-83, ,-24, ,
-82, ,-24, ,
-83, ,-24, ,
-84, ,-24, ,
-85, ,-24, ,
-87, ,-24, ,
-86, ,-24, ,
-89, ,-24, ,
-92, ,-24, ,
-93, ,-24, ,
-96, ,-24, ,
-95, ,-24, ,
-97, ,-24, ,
-98, ,-24, ,
-96, ,-24, ,
-96, ,-24, ,
-90, ,-24, ,
-86, ,-24, ,
-80, ,-24, ,
-74, ,-24, ,
-62, ,-24, ,
-54, ,-24, ,
-46, ,-24, ,
-39, ,-24, ,
-25, ,-24, ,
-15, ,-24, ,
-10, ,-24, ,
-4, ,-24, ,
8, ,-24, ,
11, ,-24, ,
16, ,-24, ,
18, ,-24, ,
22, ,-24, ,
26, ,-24, ,
26, ,-24, ,
26, ,-24, ,
27, ,-24, ,
27, ,-24, ,
28, ,-24, ,
26, ,-24, ,
29, ,-24, ,
31, ,-24, ,
31, ,-24, ,
34, ,-24, ,
37, ,-24, ,
38, ,-24, ,
42, ,-24, ,
45, ,-24, ,
49, ,-24, ,
53, ,-24, ,
54, ,-24, ,
59, ,-24, ,
62, ,-24, ,
61, ,-24, ,
62, ,-24, ,
61, ,-24, ,
60, ,-24, ,
59, ,-24, ,
57, ,-24, ,
56, ,-24, ,
51, ,-24, ,
49, ,-24, ,
45, ,-24, ,
41, ,-24, ,
36, ,-24, ,
35, ,-24, ,
30, ,-24, ,
32, ,-24, ,
25, ,-24, ,
24, ,-24, ,
22, ,-24, ,
19, ,-24, ,
16, ,-24, ,
15, ,-24, ,
13, ,-24, ,
12, ,-24, ,
10, ,-24, ,
6, ,-24, ,
7, ,-24, ,
4, ,-24, ,
0, ,-24, ,
-1, ,-24, ,
-5, ,-24, ,
-5, ,-24, ,
-11, ,-24, ,
-13, ,-24, ,
-15, ,-24, ,
-20, ,-24, ,
-25, ,-24, ,
-27, ,-24, ,
-33, ,-24, ,
-33, ,-24, ,
-37, ,-24, ,
-42, ,-24, ,
-42, ,-24, ,
-44, ,-24, ,
-46, ,-24, ,
-44, ,-24, ,
-45, ,-24, ,
-43, ,-24, ,
-42, ,-24, ,
-41, ,-24, ,
-38, ,-24, ,
-38, ,-24, ,
-32, ,-24, ,
-29, ,-24, ,
-29, ,-24, ,
-25, ,-24, ,
-17, ,-24, ,
-17, ,-24, ,
-13, ,-24, ,
-12, ,-24, ,
-7, ,-24, ,
-3, ,-24, ,
0, ,-24, ,
3, ,-24, ,
8, ,-24, ,
11, ,-24, ,
16, ,-24, ,
17, ,-24, ,
25, ,-24, ,
28, ,-24, ,
30, ,-24, ,
35, ,-24, ,
42, ,-24, ,
42, ,-24, ,
47, ,-24, ,
50, ,-24, ,
55, ,-24, ,
58, ,-24, ,
59, ,-24, ,
62, ,-24, ,
64, ,-24, ,
64, ,-24, ,
64, ,-24, ,
64, ,-24, ,
63, ,-24, ,
63, ,-24, ,
61, ,-24, ,
61, ,-24, ,
58, ,-24, ,
56, ,-24, ,
56, ,-24, ,
53, ,-24, ,
51, ,-24, ,
51, ,-24, ,
48, ,-24, ,
47, ,-24, ,
43, ,-24, ,
41, ,-24, ,
39, ,-24, ,
35, ,-24, ,
32, ,-24, ,
30, ,-24, ,
25, ,-24, ,
23, ,-24, ,
15, ,-24, ,
9, ,-24, ,
6, ,-24, ,
2, ,-24, ,
-6, ,-24, ,
-10, ,-24, ,
-13, ,-24, ,
-17, ,-24, ,
-24, ,-24, ,
-27, ,-24, ,
-29, ,-24, ,
-32, ,-24, ,
-34, ,-24, ,
-33, ,-24, ,
-35, ,-24, ,
-35, ,-24, ,
-35, ,-24, ,
-37, ,-24, ,
-35, ,-24, ,
-37, ,-24, ,
-38, ,-24, ,
-37, ,-24, ,
-39, ,-24, ,
-40, ,-24, ,
-42, ,-24, ,
-44, ,-24, ,
-43, ,-24, ,
-45, ,-24, ,
-47, ,-24, ,
-47, ,-24, ,
-48, ,-24, ,
-46, ,-24, ,
-45, ,-24, ,
-47, ,-24, ,
-44, ,-24, ,
-45, ,-24, ,
-43, ,-24, ,
-40, ,-24, ,
-39, ,-24, ,
-35, ,-24, ,
-33, ,-24, ,
-31, ,-24, ,
-26, ,-24, ,
-25, ,-24, ,
-20, ,-24, ,
-17, ,-24, ,
-15, ,-24, ,
-13, ,-24, ,
-9, ,-24, ,
-8, ,-24, ,
-5, ,-24, ,
-5, ,-24, ,
-2, ,-24, ,
-1, ,-24, ,
0, ,-24, ,
1, ,-24, ,
2, ,-24, ,
2, ,-24, ,
3, ,-24, ,
4, ,-24, ,
5, ,-24, ,
8, ,-24, ,
8, ,-24, ,
9, ,-24, ,
12, ,-24, ,
13, ,-24, ,
14, ,-24, ,
15, ,-24, ,
16, ,-24, ,
18, ,-24, ,
18, ,-24, ,
18, ,-24, ,
19, ,-24, ,
19, ,-24, ,
19, ,-24, ,
18, ,-24, ,
17, ,-24, ,
17, ,-24, ,
15, ,-24, ,
14, ,-24, ,
11, ,-24, ,
9, ,-24, ,
9, ,-24, ,
5, ,-24, ,
-1, ,-24, ,
-1, ,-24, ,
-5, ,-24, ,
-4, ,-24, ,
-7, ,-24, ,
-11, ,-24, ,
-11, ,-24, ,
-13, ,-24, ,
-16, ,-24, ,
-18, ,-24, ,
-21, ,-24, ,
-20, ,-24, ,
-23, ,-24, ,
-25, ,-24, ,
-25, ,-24, ,
-27, ,-24, ,
-29, ,-24, ,
-30, ,-24, ,
-30, ,-24, ,
-32, ,-24, ,
-33, ,-24, ,
-35, ,-24, ,
-35, ,-24, ,
-38, ,-24, ,
-39, ,-24, ,
-39, ,-24, ,
-41, ,-24, ,
-41, ,-24, ,
-40, ,-24, ,
-42, ,-24, ,
-41, ,-24, ,
-41, ,-24, ,
-41, ,-24, ,
-38, ,-24, ,
-37, ,-24, ,
-35, ,-24, ,
-33, ,-24, ,
-31, ,-24, ,
-29, ,-24, ,
-30, ,-24, ,
-25, ,-24, ,
-22, ,-24, ,
-20, ,-24, ,
-18, ,-24, ,
-14, ,-24, ,
-13, ,-24, ,
-10, ,-24, ,
-9, ,-24, ,
-5, ,-24, ,
-4, ,-24, ,
0, ,-24, ,
3, ,-24, ,
6, ,-24, ,
7, ,-24, ,
11, ,-24, ,
10, ,-24, ,
15, ,-24, ,
18, ,-24, ,
18, ,-24, ,
20, ,-24, ,
25, ,-24, ,
25, ,-24, ,
26, ,-24, ,
26, ,-24, ,
28, ,-24, ,
29, ,-24, ,
30, ,-24, ,
30, ,-24, ,
30, ,-24, ,
29, ,-24, ,
29, ,-24, ,
28, ,-24, ,
28, ,-24, ,
27, ,-24, ,
27, ,-24, ,
26, ,-24, ,
25, ,-24, ,
24, ,-24, ,
25, ,-24, ,
24, ,-24, ,
21, ,-24, ,
23, ,-24, ,
21, ,-24, ,
21, ,-24, ,
20, ,-24, ,
19, ,-24, ,
19, ,-24, ,
15, ,-24, ,
14, ,-24, ,
14, ,-24, ,
11, ,-24, ,
12, ,-24, ,
7, ,-24, ,
5, ,-24, ,
5, ,-24, ,
2, ,-24, ,
-1, ,-24, ,
-1, ,-24, ,
-2, ,-24, ,
-3, ,-24, ,
-5, ,-24, ,
-6, ,-24, ,
-7, ,-24, ,
-8, ,-24, ,
-7, ,-24, ,
-7, ,-24, ,
-7, ,-24, ,
-6, ,-24, ,
-6, ,-24, ,
-6, ,-24, ,
-6, ,-24, ,
-7, ,-24, ,
-7, ,-24, ,
-6, ,-24, ,
-6, ,-24, ,
-5, ,-24, ,
-5, ,-24, ,
-6, ,-24, ,
-5, ,-24, ,
-6, ,-24, ,
-4, ,-24, ,
-3, ,-24, ,
-4, ,-24, ,
-2, ,-24, ,
-1, ,-24, ,
-1, ,-24, ,
1, ,-24, ,
1, ,-24, ,
1, ,-24, ,
3, ,-24, ,
4, ,-24, ,
7, ,-24, ,
8, ,-24, ,
10, ,-24, ,
11, ,-24, ,
11, ,-24, ,
15, ,-24, ,
16, ,-24, ,
17, ,-24, ,
17, ,-24, ,
20, ,-24, ,
20, ,-24, ,
21, ,-24, ,
21, ,-24, ,
22, ,-24, ,
24, ,-24, ,
24, ,-24, ,
24, ,-24, ,
25, ,-24, ,
24, ,-24, ,
25, ,-24, ,
24, ,-24, ,
24, ,-24, ,
24, ,-24, ,
23, ,-24, ,
25, ,-24, ,
24, ,-24, ,
23, ,-24, ,
23, ,-24, ,
23, ,-24, ,
23, ,-24, ,
23, ,-24, ,
22, ,-24, ,
23, ,-24, ,
21, ,-24, ,
19, ,-24, ,
20, ,-24, ,
17, ,-24, ,
15, ,-24, ,
16, ,-24, ,
13, ,-24, ,
12, ,-24, ,
10, ,-24, ,
6, ,-24, ,
5, ,-24, ,
2, ,-24, ,
-1, ,-24, ,
-1, ,-24, ,
-3, ,-24, ,
-3, ,-24, ,
-8, ,-24, ,
-9, ,-24, ,
-8, ,-24, ,
-11, ,-24, ,
-13, ,-24, ,
-14, ,-24, ,
-15, ,-24, ,
-15, ,-24, ,
-16, ,-24, ,
-18, ,-24, ,
-19, ,-24, ,
-20, ,-24, ,
-20, ,-24, ,
-20, ,-24, ,
-21, ,-24, ,
-21, ,-24, ,
-23, ,-24, ,
-24, ,-24, ,
-23, ,-24, ,
-24, ,-24, ,
-24, ,-24, ,
-24, ,-24, ,
-24, ,-24, ,
-23, ,-24, ,
-22, ,-24, ,
-22, ,-24, ,
-21, ,-24, ,
-22, ,-24, ,
-21, ,-24, ,
-19, ,-24, ,
-17, ,-24, ,
-16, ,-24, ,
-15, ,-24, ,
-13, ,-24, ,
-12, ,-24, ,
-13, ,-24, ,
-10, ,-24, ,
-9, ,-24, ,
-9, ,-24, ,
-7, ,-24, ,
-5, ,-24, ,
-5, ,-24, ,
-4, ,-24, ,
-4, ,-24, ,
-2, ,-24, ,
-1, ,-24, ,
0, ,-24, ,
1, ,-24, ,
3, ,-24, ,
4, ,-24, ,
5, ,-24, ,
3, ,-24, ,
6, ,-24, ,
6, ,-24, ,
7, ,-24, ,
8, ,-24, ,
10, ,-24, ,
10, ,-24, ,
10, ,-24, ,
10, ,-24, ,
10, ,-24, ,
10, ,-24, ,
9, ,-24, ,
9, ,-24, ,
10, ,-24, ,
