raw_data/100% Glycerol, Impulsion 2Hz, Sonde 5MHz, Rampe 0.7Hz/temp0000331.CSV

Format,1.0B,
Memory Length,10000,Memory Length,10000,
IntpDistance,0,IntpDistance,0,
Trigger Address,159,Trigger Address,159,
Trigger Level,2.720E-01,Trigger Level,2.720E-01,
Source,CH1,Source,CH2,
Vertical Units,V,Vertical Units,V,
Vertical Units Div,0,Vertical Units Div,0,
Vertical Units Extend Div,16,Vertical Units Extend Div,16,
Label,,Label,,
Probe Type,0,Probe Type,0,
Probe Ratio,1.000e+00,Probe Ratio,1.000e+00,
Vertical Scale,2.000e-01,Vertical Scale,2.000e+00,
Vertical Position,0.000e+00,Vertical Position,0.000e+00,
Horizontal Units,S,Horizontal Units,S,
Horizontal Scale,5.000E-06,Horizontal Scale,5.000E-06,
Horizontal Position,2.420E-05,Horizontal Position,2.420E-05,
Horizontal Mode,Main,Horizontal Mode,Main,
SincET Mode,Real Time,SincET Mode,Real Time,
Sampling Period,5.000e-09,Sampling Period,5.000e-09,
Horizontal Old Scale,5.000E-06,Horizontal Old Scale,5.000E-06,
Horizontal Old Position,2.420E-05,Horizontal Old Position,2.420E-05,
Firmware,V1.32,Firmware,V1.32,
Mode,Fast,Mode,Fast,
Waveform Data,,Waveform Data,,
2, ,27, ,
2, ,27, ,
1, ,27, ,
3, ,27, ,
3, ,27, ,
3, ,27, ,
3, ,27, ,
2, ,27, ,
0, ,27, ,
3, ,27, ,
3, ,27, ,
3, ,27, ,
3, ,27, ,
2, ,27, ,
2, ,27, ,
2, ,27, ,
2, ,27, ,
2, ,27, ,
1, ,27, ,
1, ,27, ,
2, ,27, ,
1, ,27, ,
2, ,27, ,
2, ,27, ,
3, ,27, ,
3, ,27, ,
2, ,27, ,
3, ,27, ,
3, ,27, ,
2, ,27, ,
2, ,27, ,
1, ,27, ,
2, ,27, ,
2, ,27, ,
1, ,27, ,
2, ,27, ,
2, ,27, ,
2, ,27, ,
2, ,27, ,
2, ,27, ,
2, ,27, ,
3, ,27, ,
2, ,27, ,
3, ,27, ,
2, ,27, ,
1, ,27, ,
2, ,27, ,
2, ,27, ,
2, ,27, ,
1, ,27, ,
1, ,27, ,
2, ,27, ,
2, ,27, ,
2, ,27, ,
2, ,27, ,
1, ,27, ,
2, ,27, ,
2, ,27, ,
2, ,27, ,
1, ,27, ,
2, ,27, ,
2, ,27, ,
2, ,27, ,
1, ,27, ,
1, ,27, ,
2, ,27, ,
2, ,27, ,
2, ,27, ,
2, ,27, ,
1, ,27, ,
3, ,27, ,
1, ,27, ,
1, ,27, ,
2, ,27, ,
2, ,27, ,
2, ,27, ,
2, ,27, ,
2, ,27, ,
2, ,27, ,
1, ,27, ,
2, ,27, ,
2, ,27, ,
2, ,27, ,
2, ,27, ,
2, ,27, ,
1, ,27, ,
3, ,27, ,
2, ,26, ,
1, ,26, ,
3, ,27, ,
2, ,27, ,
2, ,27, ,
2, ,27, ,
1, ,27, ,
2, ,27, ,
1, ,27, ,
1, ,27, ,
2, ,27, ,
2, ,27, ,
2, ,27, ,
3, ,27, ,
2, ,27, ,
3, ,27, ,
2, ,27, ,
1, ,27, ,
3, ,27, ,
2, ,27, ,
2, ,27, ,
2, ,27, ,
1, ,27, ,
2, ,27, ,
1, ,27, ,
2, ,27, ,
2, ,27, ,
2, ,27, ,
2, ,27, ,
2, ,27, ,
2, ,27, ,
2, ,27, ,
2, ,27, ,
2, ,27, ,
2, ,27, ,
2, ,27, ,
2, ,27, ,
2, ,27, ,
2, ,27, ,
2, ,27, ,
1, ,27, ,
1, ,27, ,
2, ,27, ,
1, ,27, ,
2, ,27, ,
2, ,27, ,
1, ,27, ,
2, ,27, ,
1, ,27, ,
1, ,27, ,
2, ,27, ,
1, ,27, ,
2, ,27, ,
1, ,27, ,
1, ,27, ,
2, ,27, ,
1, ,27, ,
2, ,27, ,
2, ,27, ,
2, ,27, ,
2, ,27, ,
2, ,27, ,
1, ,27, ,
3, ,27, ,
2, ,27, ,
1, ,27, ,
3, ,27, ,
2, ,27, ,
2, ,27, ,
2, ,27, ,
2, ,27, ,
2, ,27, ,
1, ,27, ,
1, ,27, ,
2, ,27, ,
1, ,27, ,
1, ,27, ,
1, ,27, ,
-1, ,27, ,
-1, ,27, ,
0, ,27, ,
77, ,27, ,
125, ,27, ,
125, ,27, ,
125, ,27, ,
121, ,27, ,
117, ,27, ,
27, ,27, ,
-18, ,27, ,
125, ,27, ,
125, ,27, ,
125, ,27, ,
125, ,27, ,
125, ,27, ,
125, ,27, ,
125, ,27, ,
125, ,27, ,
125, ,27, ,
125, ,27, ,
125, ,27, ,
125, ,27, ,
125, ,27, ,
125, ,27, ,
125, ,27, ,
125, ,27, ,
125, ,27, ,
125, ,27, ,
125, ,27, ,
125, ,27, ,
125, ,27, ,
125, ,27, ,
125, ,27, ,
125, ,27, ,
125, ,27, ,
125, ,27, ,
124, ,27, ,
124, ,27, ,
115, ,27, ,
111, ,27, ,
108, ,27, ,
103, ,27, ,
94, ,27, ,
91, ,27, ,
86, ,27, ,
82, ,27, ,
77, ,27, ,
71, ,27, ,
68, ,27, ,
65, ,27, ,
59, ,27, ,
56, ,27, ,
54, ,27, ,
53, ,27, ,
47, ,27, ,
46, ,27, ,
43, ,27, ,
39, ,27, ,
37, ,27, ,
36, ,27, ,
35, ,27, ,
32, ,27, ,
30, ,27, ,
27, ,27, ,
27, ,27, ,
25, ,27, ,
21, ,27, ,
20, ,27, ,
20, ,27, ,
18, ,27, ,
17, ,27, ,
15, ,27, ,
15, ,27, ,
13, ,27, ,
12, ,27, ,
12, ,27, ,
10, ,27, ,
10, ,27, ,
8, ,27, ,
7, ,27, ,
6, ,27, ,
5, ,27, ,
5, ,27, ,
6, ,27, ,
5, ,27, ,
5, ,27, ,
3, ,27, ,
3, ,27, ,
3, ,27, ,
2, ,27, ,
1, ,27, ,
2, ,27, ,
1, ,27, ,
0, ,27, ,
0, ,27, ,
-1, ,27, ,
0, ,27, ,
-2, ,27, ,
-1, ,27, ,
-1, ,27, ,
-2, ,27, ,
0, ,27, ,
-1, ,27, ,
-1, ,27, ,
-1, ,27, ,
-1, ,27, ,
-2, ,27, ,
-2, ,27, ,
-2, ,27, ,
-2, ,27, ,
-1, ,27, ,
-3, ,27, ,
-1, ,27, ,
-2, ,27, ,
-3, ,27, ,
-2, ,27, ,
-2, ,27, ,
-2, ,27, ,
-3, ,27, ,
-4, ,27, ,
-2, ,27, ,
-2, ,27, ,
-3, ,27, ,
-2, ,27, ,
-3, ,27, ,
-2, ,27, ,
-2, ,27, ,
-3, ,27, ,
-2, ,27, ,
-3, ,27, ,
-3, ,27, ,
-2, ,27, ,
-1, ,27, ,
-1, ,27, ,
-2, ,27, ,
-2, ,27, ,
-2, ,27, ,
-3, ,27, ,
-2, ,27, ,
-1, ,27, ,
-2, ,27, ,
-1, ,27, ,
-1, ,27, ,
-1, ,27, ,
-1, ,27, ,
-2, ,27, ,
-2, ,27, ,
-1, ,27, ,
-1, ,27, ,
0, ,27, ,
-1, ,27, ,
-2, ,27, ,
-1, ,27, ,
-2, ,27, ,
0, ,27, ,
0, ,27, ,
-1, ,27, ,
0, ,27, ,
0, ,27, ,
0, ,27, ,
0, ,27, ,
-1, ,27, ,
-2, ,27, ,
0, ,27, ,
0, ,27, ,
0, ,27, ,
0, ,27, ,
0, ,27, ,
0, ,27, ,
0, ,27, ,
0, ,27, ,
1, ,27, ,
0, ,27, ,
1, ,27, ,
0, ,27, ,
0, ,27, ,
0, ,27, ,
0, ,27, ,
0, ,27, ,
0, ,27, ,
1, ,27, ,
1, ,27, ,
1, ,27, ,
1, ,27, ,
1, ,27, ,
0, ,27, ,
0, ,27, ,
1, ,27, ,
1, ,27, ,
1, ,27, ,
1, ,27, ,
1, ,27, ,
1, ,27, ,
0, ,27, ,
0, ,27, ,
1, ,27, ,
1, ,27, ,
1, ,27, ,
0, ,27, ,
1, ,27, ,
2, ,27, ,
0, ,27, ,
1, ,27, ,
1, ,27, ,
1, ,27, ,
1, ,27, ,
1, ,27, ,
1, ,27, ,
1, ,27, ,
1, ,27, ,
0, ,27, ,
1, ,27, ,
0, ,27, ,
0, ,27, ,
1, ,27, ,
1, ,27, ,
2, ,27, ,
1, ,27, ,
2, ,27, ,
2, ,27, ,
1, ,27, ,
1, ,27, ,
2, ,27, ,
2, ,27, ,
2, ,27, ,
2, ,27, ,
1, ,27, ,
2, ,27, ,
1, ,27, ,
2, ,27, ,
2, ,27, ,
1, ,27, ,
2, ,27, ,
2, ,27, ,
1, ,27, ,
2, ,27, ,
1, ,27, ,
2, ,27, ,
3, ,27, ,
1, ,27, ,
2, ,27, ,
2, ,27, ,
2, ,27, ,
2, ,27, ,
2, ,27, ,
3, ,27, ,
2, ,27, ,
2, ,27, ,
2, ,27, ,
2, ,27, ,
1, ,27, ,
2, ,27, ,
2, ,27, ,
2, ,27, ,
2, ,27, ,
1, ,27, ,
1, ,27, ,
1, ,27, ,
0, ,27, ,
1, ,27, ,
1, ,27, ,
1, ,27, ,
1, ,27, ,
1, ,27, ,
2, ,27, ,
1, ,27, ,
1, ,27, ,
2, ,27, ,
0, ,27, ,
2, ,27, ,
1, ,27, ,
1, ,27, ,
1, ,27, ,
1, ,27, ,
0, ,27, ,
0, ,27, ,
-1, ,27, ,
0, ,27, ,
0, ,27, ,
-1, ,27, ,
0, ,27, ,
-2, ,27, ,
1, ,27, ,
1, ,27, ,
1, ,27, ,
1, ,27, ,
2, ,27, ,
1, ,27, ,
3, ,27, ,
2, ,27, ,
2, ,27, ,
2, ,27, ,
2, ,27, ,
2, ,27, ,
2, ,27, ,
1, ,27, ,
2, ,27, ,
0, ,27, ,
1, ,27, ,
1, ,27, ,
1, ,27, ,
1, ,27, ,
2, ,27, ,
2, ,27, ,
2, ,27, ,
2, ,27, ,
1, ,27, ,
2, ,27, ,
2, ,27, ,
2, ,27, ,
2, ,27, ,
1, ,27, ,
2, ,27, ,
1, ,27, ,
1, ,27, ,
0, ,27, ,
0, ,27, ,
0, ,27, ,
1, ,27, ,
0, ,27, ,
1, ,27, ,
0, ,27, ,
1, ,27, ,
1, ,27, ,
1, ,27, ,
2, ,27, ,
2, ,27, ,
1, ,27, ,
2, ,27, ,
1, ,27, ,
1, ,27, ,
2, ,27, ,
0, ,27, ,
1, ,27, ,
1, ,27, ,
1, ,27, ,
1, ,27, ,
0, ,27, ,
0, ,27, ,
0, ,27, ,
0, ,27, ,
1, ,27, ,
1, ,27, ,
2, ,27, ,
2, ,27, ,
1, ,27, ,
2, ,27, ,
2, ,27, ,
1, ,27, ,
1, ,27, ,
0, ,27, ,
-2, ,27, ,
-2, ,27, ,
-3, ,27, ,
-6, ,27, ,
-6, ,27, ,
-6, ,27, ,
-6, ,27, ,
-7, ,27, ,
-8, ,27, ,
-7, ,27, ,
-8, ,27, ,
-8, ,27, ,
-7, ,27, ,
-9, ,27, ,
-8, ,27, ,
-9, ,27, ,
-10, ,27, ,
-11, ,27, ,
-15, ,27, ,
-16, ,27, ,
-18, ,27, ,
-19, ,27, ,
-21, ,27, ,
-25, ,27, ,
-26, ,27, ,
-26, ,27, ,
-30, ,27, ,
-30, ,27, ,
-28, ,27, ,
-29, ,27, ,
-28, ,27, ,
-27, ,27, ,
-28, ,27, ,
-27, ,27, ,
-26, ,27, ,
-28, ,27, ,
-28, ,27, ,
-29, ,27, ,
-29, ,27, ,
-32, ,27, ,
-31, ,27, ,
-33, ,27, ,
-34, ,27, ,
-32, ,27, ,
-30, ,27, ,
-31, ,27, ,
-28, ,27, ,
-23, ,27, ,
-22, ,27, ,
-20, ,27, ,
-18, ,27, ,
-13, ,27, ,
-11, ,27, ,
-9, ,27, ,
-9, ,27, ,
-8, ,27, ,
-10, ,27, ,
-11, ,27, ,
-12, ,27, ,
-16, ,27, ,
-16, ,27, ,
-19, ,27, ,
-19, ,27, ,
-19, ,27, ,
-19, ,27, ,
-17, ,27, ,
-17, ,27, ,
-12, ,27, ,
-12, ,27, ,
-8, ,27, ,
-5, ,27, ,
-2, ,27, ,
-2, ,27, ,
0, ,27, ,
0, ,27, ,
2, ,27, ,
2, ,27, ,
2, ,27, ,
3, ,27, ,
3, ,27, ,
3, ,27, ,
3, ,27, ,
3, ,27, ,
3, ,27, ,
4, ,27, ,
3, ,27, ,
5, ,27, ,
5, ,27, ,
4, ,27, ,
4, ,27, ,
4, ,27, ,
2, ,27, ,
2, ,27, ,
-1, ,27, ,
-3, ,27, ,
-5, ,27, ,
-9, ,27, ,
-12, ,27, ,
-15, ,27, ,
-18, ,27, ,
-19, ,27, ,
-20, ,27, ,
-20, ,27, ,
-20, ,27, ,
-20, ,27, ,
-19, ,27, ,
-20, ,27, ,
-20, ,27, ,
-19, ,27, ,
-21, ,27, ,
-20, ,27, ,
-24, ,27, ,
-24, ,27, ,
-25, ,27, ,
-26, ,27, ,
-28, ,27, ,
-28, ,27, ,
-29, ,27, ,
-29, ,27, ,
-31, ,27, ,
-33, ,27, ,
-34, ,27, ,
-35, ,27, ,
-35, ,27, ,
-35, ,27, ,
-36, ,27, ,
-36, ,27, ,
-35, ,27, ,
-35, ,27, ,
-35, ,27, ,
-35, ,27, ,
-35, ,27, ,
-33, ,27, ,
-34, ,27, ,
-34, ,27, ,
-34, ,27, ,
-35, ,27, ,
-35, ,27, ,
-36, ,27, ,
-38, ,27, ,
-38, ,27, ,
-38, ,27, ,
-38, ,27, ,
-35, ,27, ,
-35, ,27, ,
-34, ,27, ,
-35, ,27, ,
-33, ,27, ,
-31, ,27, ,
-31, ,27, ,
-31, ,27, ,
-33, ,27, ,
-34, ,27, ,
-34, ,27, ,
-35, ,27, ,
-37, ,27, ,
-38, ,27, ,
-40, ,27, ,
-40, ,27, ,
-39, ,27, ,
-39, ,27, ,
-38, ,27, ,
-39, ,27, ,
-38, ,27, ,
-36, ,27, ,
-35, ,27, ,
-35, ,27, ,
-35, ,27, ,
-35, ,27, ,
-35, ,27, ,
-35, ,27, ,
-32, ,27, ,
-30, ,27, ,
-30, ,27, ,
-29, ,27, ,
-25, ,27, ,
-24, ,27, ,
-21, ,27, ,
-19, ,27, ,
-15, ,27, ,
-13, ,27, ,
-12, ,27, ,
-10, ,27, ,
-8, ,27, ,
-7, ,27, ,
-5, ,27, ,
-5, ,27, ,
-1, ,27, ,
0, ,27, ,
1, ,27, ,
2, ,27, ,
3, ,27, ,
3, ,27, ,
3, ,27, ,
3, ,27, ,
1, ,27, ,
1, ,27, ,
1, ,27, ,
0, ,27, ,
0, ,27, ,
0, ,27, ,
-1, ,27, ,
-1, ,27, ,
0, ,27, ,
2, ,27, ,
1, ,27, ,
3, ,27, ,
4, ,27, ,
5, ,27, ,
5, ,27, ,
5, ,27, ,
7, ,27, ,
7, ,27, ,
8, ,27, ,
9, ,27, ,
10, ,27, ,
11, ,27, ,
11, ,27, ,
12, ,27, ,
13, ,27, ,
15, ,27, ,
15, ,27, ,
15, ,27, ,
15, ,27, ,
14, ,27, ,
15, ,27, ,
13, ,27, ,
11, ,27, ,
12, ,27, ,
9, ,27, ,
9, ,27, ,
5, ,27, ,
2, ,27, ,
2, ,27, ,
-1, ,27, ,
-4, ,27, ,
-3, ,27, ,
-8, ,27, ,
-9, ,27, ,
-12, ,27, ,
-14, ,27, ,
-15, ,27, ,
-17, ,27, ,
-19, ,27, ,
-19, ,27, ,
-21, ,27, ,
-21, ,27, ,
-23, ,27, ,
-24, ,27, ,
-22, ,27, ,
-24, ,27, ,
-23, ,27, ,
-22, ,27, ,
-24, ,27, ,
-23, ,27, ,
-25, ,27, ,
-25, ,27, ,
-25, ,27, ,
-26, ,27, ,
-27, ,27, ,
-26, ,27, ,
-27, ,27, ,
-27, ,27, ,
-27, ,27, ,
-27, ,27, ,
-27, ,27, ,
-27, ,27, ,
-27, ,27, ,
-27, ,27, ,
-28, ,27, ,
-29, ,27, ,
-29, ,27, ,
-30, ,27, ,
-29, ,27, ,
-30, ,27, ,
-29, ,27, ,
-29, ,27, ,
-28, ,27, ,
-27, ,27, ,
-26, ,27, ,
-24, ,27, ,
-21, ,27, ,
-22, ,27, ,
-19, ,27, ,
-17, ,27, ,
-17, ,27, ,
-15, ,27, ,
-14, ,27, ,
-14, ,27, ,
-12, ,27, ,
-11, ,27, ,
-11, ,27, ,
-10, ,27, ,
-9, ,27, ,
-7, ,27, ,
-5, ,27, ,
-4, ,27, ,
-3, ,27, ,
-3, ,27, ,
0, ,27, ,
0, ,27, ,
0, ,27, ,
1, ,27, ,
1, ,27, ,
2, ,27, ,
3, ,27, ,
3, ,27, ,
5, ,27, ,
5, ,27, ,
6, ,27, ,
7, ,27, ,
8, ,27, ,
8, ,27, ,
8, ,27, ,
8, ,27, ,
9, ,27, ,
9, ,27, ,
7, ,27, ,
7, ,27, ,
7, ,27, ,
6, ,27, ,
5, ,27, ,
5, ,27, ,
3, ,27, ,
3, ,27, ,
2, ,27, ,
2, ,27, ,
0, ,27, ,
0, ,27, ,
-1, ,27, ,
-3, ,27, ,
-4, ,27, ,
-4, ,27, ,
-6, ,27, ,
-7, ,27, ,
-7, ,27, ,
-9, ,27, ,
-9, ,27, ,
-10, ,27, ,
-10, ,27, ,
-10, ,27, ,
-10, ,27, ,
-10, ,27, ,
-11, ,27, ,
-11, ,27, ,
-11, ,27, ,
-12, ,27, ,
-13, ,27, ,
-13, ,27, ,
-14, ,27, ,
-14, ,27, ,
-14, ,27, ,
-15, ,27, ,
-15, ,27, ,
-16, ,27, ,
-17, ,27, ,
-17, ,27, ,
-17, ,26, ,
-17, ,26, ,
-18, ,27, ,
-19, ,27, ,
-19, ,27, ,
-19, ,27, ,
-20, ,27, ,
-20, ,27, ,
-20, ,27, ,
-20, ,27, ,
-21, ,27, ,
-23, ,27, ,
-23, ,27, ,
-24, ,27, ,
-26, ,27, ,
-26, ,27, ,
-26, ,27, ,
-26, ,27, ,
-26, ,27, ,
-26, ,27, ,
-26, ,27, ,
-27, ,27, ,
-27, ,27, ,
-27, ,27, ,
-27, ,27, ,
-27, ,27, ,
-26, ,27, ,
-26, ,27, ,
-26, ,27, ,
-25, ,27, ,
-25, ,27, ,
-22, ,27, ,
-23, ,27, ,
-21, ,27, ,
-19, ,27, ,
-19, ,27, ,
-15, ,27, ,
-15, ,27, ,
-12, ,27, ,
-11, ,27, ,
-11, ,27, ,
-9, ,27, ,
-7, ,27, ,
-8, ,27, ,
-6, ,27, ,
-6, ,27, ,
-6, ,27, ,
-6, ,27, ,
-6, ,27, ,
-6, ,27, ,
-7, ,27, ,
-7, ,27, ,
-7, ,27, ,
-8, ,27, ,
-9, ,27, ,
-9, ,27, ,
-11, ,27, ,
-11, ,27, ,
-12, ,27, ,
-14, ,27, ,
-13, ,27, ,
-14, ,27, ,
-15, ,27, ,
-14, ,27, ,
-15, ,27, ,
-14, ,27, ,
-14, ,27, ,
-14, ,27, ,
-13, ,27, ,
-15, ,27, ,
-12, ,27, ,
-11, ,27, ,
-12, ,27, ,
-11, ,27, ,
-11, ,27, ,
-11, ,27, ,
-11, ,27, ,
-10, ,27, ,
-10, ,27, ,
-10, ,27, ,
-10, ,27, ,
-9, ,27, ,
-9, ,27, ,
-9, ,27, ,
-8, ,27, ,
-9, ,27, ,
-7, ,27, ,
-6, ,27, ,
-7, ,27, ,
-6, ,27, ,
-6, ,27, ,
-6, ,27, ,
-6, ,27, ,
-6, ,27, ,
-5, ,27, ,
-5, ,27, ,
-4, ,27, ,
-4, ,27, ,
-4, ,27, ,
-2, ,27, ,
-2, ,27, ,
-2, ,27, ,
-2, ,27, ,
-1, ,27, ,
-1, ,27, ,
-1, ,27, ,
-1, ,27, ,
-4, ,27, ,
-1, ,27, ,
-3, ,27, ,
-2, ,27, ,
-2, ,27, ,
-3, ,27, ,
-2, ,27, ,
-3, ,27, ,
-3, ,27, ,
-3, ,27, ,
-4, ,27, ,
-3, ,27, ,
-3, ,27, ,
-5, ,27, ,
-5, ,27, ,
-5, ,27, ,
-5, ,27, ,
-6, ,27, ,
-5, ,27, ,
-5, ,27, ,
-5, ,27, ,
-5, ,27, ,
-4, ,27, ,
-4, ,27, ,
-6, ,27, ,
-5, ,27, ,
-7, ,27, ,
-6, ,27, ,
-6, ,27, ,
-7, ,27, ,
-6, ,27, ,
-6, ,27, ,
-9, ,27, ,
-8, ,27, ,
-9, ,27, ,
-9, ,27, ,
-8, ,27, ,
-9, ,27, ,
-9, ,27, ,
-8, ,27, ,
-8, ,27, ,
-8, ,27, ,
-8, ,27, ,
-9, ,27, ,
-9, ,27, ,
-10, ,27, ,
-9, ,27, ,
-9, ,27, ,
-9, ,27, ,
-9, ,27, ,
-9, ,27, ,
-8, ,27, ,
-7, ,27, ,
-7, ,27, ,
-6, ,27, ,
-5, ,27, ,
-5, ,27, ,
-5, ,27, ,
-5, ,27, ,
-5, ,27, ,
-5, ,27, ,
-5, ,27, ,
-4, ,27, ,
-4, ,27, ,
-4, ,27, ,
-3, ,27, ,
-3, ,27, ,
-3, ,27, ,
-2, ,27, ,
-2, ,27, ,
-2, ,27, ,
-1, ,27, ,
-2, ,27, ,
-1, ,27, ,
-2, ,27, ,
-1, ,27, ,
-1, ,27, ,
-2, ,27, ,
-1, ,27, ,
-1, ,27, ,
-2, ,27, ,
-1, ,27, ,
-2, ,27, ,
-2, ,27, ,
0, ,27, ,
0, ,27, ,
0, ,27, ,
0, ,27, ,
0, ,27, ,
0, ,27, ,
0, ,27, ,
0, ,27, ,
0, ,27, ,
-1, ,27, ,
-1, ,27, ,
-1, ,27, ,
-2, ,27, ,
-1, ,27, ,
0, ,27, ,
0, ,27, ,
0, ,27, ,
0, ,27, ,
0, ,27, ,
0, ,27, ,
0, ,26, ,
0, ,26, ,
-2, ,27, ,
-2, ,27, ,
-1, ,27, ,
-2, ,27, ,
-2, ,27, ,
-3, ,27, ,
-4, ,27, ,
-4, ,27, ,
-4, ,27, ,
-4, ,27, ,
-3, ,27, ,
-4, ,27, ,
-3, ,27, ,
-3, ,27, ,
-3, ,27, ,
-3, ,27, ,
-4, ,27, ,
-4, ,27, ,
-3, ,27, ,
-5, ,27, ,
-2, ,27, ,
-3, ,27, ,
-3, ,27, ,
-2, ,27, ,
-2, ,27, ,
-3, ,27, ,
-1, ,27, ,
-1, ,27, ,
-1, ,27, ,
-1, ,27, ,
-2, ,27, ,
-2, ,27, ,
-2, ,27, ,
-2, ,27, ,
-2, ,27, ,
-3, ,27, ,
-3, ,27, ,
-3, ,27, ,
-3, ,27, ,
-3, ,27, ,
-4, ,27, ,
-4, ,27, ,
-4, ,27, ,
-4, ,27, ,
-5, ,27, ,
-5, ,27, ,
-5, ,27, ,
-5, ,27, ,
-6, ,27, ,
-6, ,27, ,
-6, ,27, ,
-6, ,27, ,
-6, ,27, ,
-6, ,27, ,
-7, ,27, ,
-7, ,27, ,
-7, ,27, ,
-7, ,27, ,
-7, ,27, ,
-7, ,27, ,
-6, ,27, ,
-6, ,27, ,
-6, ,27, ,
-5, ,27, ,
-4, ,27, ,
-4, ,27, ,
-1, ,27, ,
-1, ,27, ,
0, ,27, ,
3, ,27, ,
1, ,27, ,
5, ,27, ,
5, ,27, ,
8, ,27, ,
10, ,27, ,
10, ,27, ,
12, ,27, ,
14, ,27, ,
16, ,27, ,
16, ,27, ,
16, ,27, ,
18, ,27, ,
19, ,27, ,
19, ,27, ,
19, ,27, ,
20, ,27, ,
19, ,27, ,
20, ,27, ,
19, ,27, ,
19, ,27, ,
19, ,27, ,
18, ,27, ,
18, ,27, ,
17, ,27, ,
16, ,27, ,
15, ,27, ,
14, ,27, ,
14, ,27, ,
14, ,27, ,
13, ,27, ,
14, ,27, ,
12, ,27, ,
10, ,27, ,
10, ,27, ,
9, ,27, ,
7, ,27, ,
7, ,27, ,
6, ,27, ,
5, ,27, ,
4, ,27, ,
4, ,27, ,
4, ,27, ,
2, ,27, ,
1, ,27, ,
2, ,27, ,
-1, ,27, ,
-1, ,27, ,
-2, ,27, ,
-3, ,27, ,
-3, ,27, ,
-4, ,27, ,
-5, ,27, ,
-6, ,27, ,
-6, ,27, ,
-6, ,27, ,
-6, ,27, ,
-6, ,27, ,
-6, ,27, ,
-7, ,27, ,
-7, ,27, ,
-5, ,27, ,
-8, ,27, ,
-7, ,27, ,
-7, ,27, ,
-7, ,27, ,
-6, ,27, ,
-7, ,27, ,
-7, ,27, ,
-6, ,27, ,
-7, ,27, ,
-5, ,27, ,
-5, ,27, ,
-6, ,27, ,
-5, ,27, ,
-7, ,27, ,
-4, ,27, ,
-4, ,27, ,
-4, ,27, ,
-3, ,27, ,
-3, ,27, ,
-4, ,27, ,
-3, ,27, ,
-4, ,27, ,
-2, ,27, ,
-3, ,27, ,
-3, ,27, ,
-4, ,27, ,
-3, ,27, ,
-4, ,27, ,
-3, ,27, ,
-3, ,27, ,
-4, ,27, ,
-3, ,27, ,
-4, ,27, ,
-3, ,27, ,
-4, ,27, ,
-5, ,27, ,
-5, ,27, ,
-6, ,27, ,
-7, ,27, ,
-7, ,27, ,
-7, ,27, ,
-6, ,27, ,
-7, ,27, ,
-8, ,27, ,
-8, ,27, ,
-9, ,27, ,
-9, ,27, ,
-8, ,27, ,
-9, ,27, ,
-8, ,27, ,
-8, ,27, ,
-10, ,27, ,
-9, ,27, ,
-9, ,27, ,
-9, ,27, ,
-9, ,27, ,
-9, ,27, ,
-9, ,27, ,
-8, ,27, ,
-9, ,27, ,
-8, ,27, ,
-9, ,27, ,
-7, ,27, ,
-7, ,27, ,
-7, ,27, ,
-7, ,27, ,
-6, ,27, ,
-7, ,27, ,
-7, ,27, ,
-7, ,27, ,
-7, ,27, ,
-5, ,27, ,
-5, ,27, ,
-5, ,27, ,
-6, ,27, ,
-7, ,27, ,
-5, ,27, ,
-6, ,27, ,
-6, ,27, ,
-5, ,27, ,
-5, ,27, ,
-5, ,27, ,
-6, ,27, ,
-6, ,27, ,
-5, ,27, ,
-6, ,27, ,
-6, ,27, ,
-5, ,27, ,
-5, ,27, ,
-5, ,27, ,
-5, ,27, ,
-5, ,27, ,
-5, ,27, ,
-5, ,27, ,
-6, ,27, ,
-6, ,27, ,
-6, ,27, ,
-6, ,27, ,
-6, ,27, ,
-6, ,27, ,
-6, ,27, ,
-7, ,27, ,
-7, ,27, ,
-6, ,27, ,
-7, ,27, ,
-6, ,27, ,
-6, ,27, ,
-6, ,27, ,
-6, ,27, ,
-6, ,27, ,
-5, ,27, ,
-5, ,27, ,
-5, ,27, ,
-5, ,27, ,
-4, ,27, ,
-4, ,27, ,
-3, ,27, ,
-3, ,27, ,
-4, ,27, ,
-1, ,27, ,
-2, ,27, ,
-1, ,27, ,
0, ,27, ,
0, ,27, ,
0, ,27, ,
1, ,27, ,
2, ,27, ,
1, ,27, ,
2, ,27, ,
3, ,27, ,
3, ,27, ,
3, ,27, ,
4, ,27, ,
4, ,27, ,
5, ,27, ,
5, ,27, ,
5, ,27, ,
6, ,27, ,
7, ,27, ,
6, ,27, ,
8, ,27, ,
8, ,27, ,
8, ,27, ,
9, ,27, ,
8, ,27, ,
9, ,27, ,
9, ,27, ,
9, ,27, ,
9, ,27, ,
8, ,27, ,
8, ,27, ,
8, ,27, ,
8, ,27, ,
8, ,27, ,
8, ,27, ,
6, ,27, ,
7, ,27, ,
7, ,27, ,
6, ,27, ,
6, ,27, ,
5, ,27, ,
5, ,27, ,
4, ,27, ,
3, ,27, ,
4, ,27, ,
1, ,27, ,
1, ,27, ,
2, ,27, ,
0, ,27, ,
0, ,27, ,
0, ,27, ,
-2, ,27, ,
-2, ,27, ,
-2, ,27, ,
-3, ,27, ,
-2, ,27, ,
-4, ,27, ,
-4, ,27, ,
-4, ,27, ,
-5, ,27, ,
-5, ,27, ,
-5, ,27, ,
-4, ,27, ,
-4, ,27, ,
-4, ,27, ,
-5, ,27, ,
-5, ,27, ,
-4, ,27, ,
-4, ,27, ,
-4, ,27, ,
-4, ,27, ,
-3, ,27, ,
-3, ,27, ,
-3, ,27, ,
-3, ,27, ,
-4, ,27, ,
-2, ,27, ,
-3, ,27, ,
-2, ,27, ,
-2, ,27, ,
-2, ,27, ,
-1, ,27, ,
-2, ,27, ,
-1, ,27, ,
-1, ,27, ,
-2, ,27, ,
-1, ,27, ,
-1, ,27, ,
-1, ,27, ,
-1, ,27, ,
-1, ,27, ,
-1, ,27, ,
-2, ,27, ,
-2, ,27, ,
-2, ,27, ,
-2, ,27, ,
-2, ,27, ,
-2, ,27, ,
-2, ,27, ,
-3, ,27, ,
-3, ,27, ,
-4, ,27, ,
-3, ,27, ,
-3, ,27, ,
-4, ,27, ,
-3, ,27, ,
-3, ,27, ,
-4, ,27, ,
-3, ,27, ,
-4, ,27, ,
-4, ,27, ,
-4, ,27, ,
-3, ,27, ,
-3, ,27, ,
-3, ,27, ,
-3, ,27, ,
-2, ,27, ,
-2, ,27, ,
-2, ,27, ,
-2, ,27, ,
-2, ,27, ,
-1, ,27, ,
-1, ,27, ,
-2, ,27, ,
-1, ,27, ,
-1, ,27, ,
-1, ,27, ,
0, ,27, ,
0, ,27, ,
-1, ,27, ,
-1, ,27, ,
-1, ,27, ,
-1, ,27, ,
-3, ,27, ,
-1, ,27, ,
-2, ,27, ,
-3, ,27, ,
-3, ,27, ,
-3, ,27, ,
-4, ,27, ,
-4, ,27, ,
-5, ,27, ,
-5, ,27, ,
-5, ,27, ,
-5, ,27, ,
-5, ,27, ,
-4, ,27, ,
-4, ,27, ,
-4, ,27, ,
-5, ,27, ,
-5, ,27, ,
-5, ,27, ,
-6, ,27, ,
-3, ,27, ,
-2, ,27, ,
-2, ,27, ,
-1, ,27, ,
-2, ,27, ,
0, ,27, ,
0, ,27, ,
1, ,27, ,
3, ,27, ,
4, ,27, ,
5, ,27, ,
6, ,27, ,
6, ,27, ,
7, ,27, ,
9, ,27, ,
8, ,27, ,
9, ,27, ,
11, ,27, ,
11, ,27, ,
12, ,27, ,
13, ,27, ,
13, ,27, ,
14, ,27, ,
14, ,27, ,
13, ,27, ,
13, ,27, ,
14, ,27, ,
14, ,27, ,
13, ,27, ,
12, ,27, ,
12, ,27, ,
12, ,27, ,
12, ,27, ,
10, ,27, ,
10, ,27, ,
9, ,27, ,
8, ,27, ,
7, ,27, ,
7, ,27, ,
6, ,27, ,
6, ,27, ,
5, ,27, ,
4, ,27, ,
4, ,27, ,
3, ,27, ,
2, ,27, ,
2, ,27, ,
1, ,27, ,
2, ,27, ,
1, ,27, ,
0, ,27, ,
0, ,27, ,
0, ,27, ,
0, ,27, ,
0, ,27, ,
-1, ,27, ,
-1, ,27, ,
-1, ,27, ,
-2, ,27, ,
-1, ,27, ,
-4, ,27, ,
-4, ,27, ,
-3, ,27, ,
-5, ,27, ,
-5, ,27, ,
-5, ,27, ,
-6, ,27, ,
-5, ,27, ,
-7, ,27, ,
-6, ,27, ,
-6, ,27, ,
-8, ,27, ,
-7, ,27, ,
-7, ,27, ,
-8, ,27, ,
-7, ,27, ,
-8, ,27, ,
-7, ,27, ,
-7, ,27, ,
-7, ,27, ,
-7, ,27, ,
-5, ,27, ,
-6, ,27, ,
-5, ,27, ,
-6, ,27, ,
-4, ,27, ,
-2, ,27, ,
-2, ,27, ,
-1, ,27, ,
0, ,27, ,
1, ,27, ,
2, ,27, ,
3, ,27, ,
4, ,27, ,
5, ,27, ,
5, ,27, ,
6, ,27, ,
6, ,27, ,
7, ,27, ,
7, ,27, ,
8, ,27, ,
8, ,27, ,
10, ,27, ,
10, ,27, ,
10, ,27, ,
10, ,27, ,
10, ,26, ,
10, ,26, ,
10, ,27, ,
10, ,27, ,
11, ,27, ,
11, ,27, ,
11, ,27, ,
11, ,27, ,
11, ,27, ,
11, ,27, ,
11, ,27, ,
10, ,27, ,
10, ,27, ,
10, ,27, ,
10, ,27, ,
10, ,27, ,
9, ,27, ,
9, ,27, ,
7, ,27, ,
7, ,27, ,
6, ,27, ,
5, ,27, ,
5, ,27, ,
4, ,27, ,
4, ,27, ,
4, ,27, ,
2, ,27, ,
1, ,27, ,
2, ,27, ,
0, ,27, ,
0, ,27, ,
-1, ,27, ,
-2, ,27, ,
-1, ,27, ,
-2, ,27, ,
-3, ,27, ,
-3, ,27, ,
-4, ,27, ,
-3, ,27, ,
-4, ,27, ,
-4, ,27, ,
-3, ,27, ,
-4, ,27, ,
-3, ,27, ,
-3, ,27, ,
-3, ,27, ,
-3, ,27, ,
-3, ,27, ,
-3, ,27, ,
-2, ,27, ,
-2, ,27, ,
-2, ,27, ,
-1, ,27, ,
-2, ,27, ,
-2, ,27, ,
-1, ,27, ,
-3, ,27, ,
-2, ,27, ,
-4, ,27, ,
-3, ,27, ,
-3, ,27, ,
-4, ,27, ,
-3, ,27, ,
-5, ,27, ,
-5, ,27, ,
-5, ,27, ,
-5, ,27, ,
-6, ,27, ,
-6, ,27, ,
-6, ,27, ,
-6, ,27, ,
-6, ,27, ,
-7, ,27, ,
-7, ,27, ,
-7, ,27, ,
-7, ,27, ,
-7, ,27, ,
-6, ,27, ,
-6, ,27, ,
-6, ,27, ,
-8, ,27, ,
-7, ,27, ,
-7, ,27, ,
-7, ,27, ,
-7, ,27, ,
-8, ,27, ,
-6, ,27, ,
-7, ,27, ,
-7, ,27, ,
-6, ,27, ,
-7, ,27, ,
-7, ,27, ,
-6, ,27, ,
-6, ,27, ,
-5, ,27, ,
-6, ,27, ,
-6, ,27, ,
-5, ,27, ,
-5, ,27, ,
-5, ,27, ,
-4, ,27, ,
-4, ,27, ,
-4, ,27, ,
-3, ,27, ,
-4, ,27, ,
-2, ,27, ,
-2, ,27, ,
0, ,27, ,
0, ,27, ,
1, ,27, ,
1, ,27, ,
1, ,27, ,
2, ,27, ,
2, ,27, ,
1, ,27, ,
3, ,27, ,
4, ,27, ,
3, ,27, ,
4, ,27, ,
4, ,27, ,
3, ,27, ,
3, ,27, ,
3, ,27, ,
3, ,27, ,
2, ,27, ,
2, ,27, ,
0, ,27, ,
0, ,27, ,
-1, ,27, ,
0, ,27, ,
-2, ,27, ,
-3, ,27, ,
-4, ,27, ,
-4, ,27, ,
-4, ,27, ,
-5, ,27, ,
-6, ,27, ,
-5, ,27, ,
-6, ,27, ,
-5, ,27, ,
-5, ,27, ,
-5, ,27, ,
-3, ,27, ,
-3, ,27, ,
-4, ,27, ,
-1, ,27, ,
-1, ,27, ,
1, ,27, ,
3, ,27, ,
3, ,27, ,
5, ,27, ,
8, ,27, ,
8, ,27, ,
10, ,27, ,
10, ,27, ,
