raw_data/100% Glycerol, Impulsion 2Hz, Sonde 5MHz, Rampe 0.7Hz/temp0000019.CSV

Format,1.0B,
Memory Length,10000,Memory Length,10000,
IntpDistance,0,IntpDistance,0,
Trigger Address,159,Trigger Address,159,
Trigger Level,2.720E-01,Trigger Level,2.720E-01,
Source,CH1,Source,CH2,
Vertical Units,V,Vertical Units,V,
Vertical Units Div,0,Vertical Units Div,0,
Vertical Units Extend Div,16,Vertical Units Extend Div,16,
Label,,Label,,
Probe Type,0,Probe Type,0,
Probe Ratio,1.000e+00,Probe Ratio,1.000e+00,
Vertical Scale,2.000e-01,Vertical Scale,2.000e+00,
Vertical Position,0.000e+00,Vertical Position,0.000e+00,
Horizontal Units,S,Horizontal Units,S,
Horizontal Scale,5.000E-06,Horizontal Scale,5.000E-06,
Horizontal Position,2.420E-05,Horizontal Position,2.420E-05,
Horizontal Mode,Main,Horizontal Mode,Main,
SincET Mode,Real Time,SincET Mode,Real Time,
Sampling Period,5.000e-09,Sampling Period,5.000e-09,
Horizontal Old Scale,5.000E-06,Horizontal Old Scale,5.000E-06,
Horizontal Old Position,2.420E-05,Horizontal Old Position,2.420E-05,
Firmware,V1.32,Firmware,V1.32,
Mode,Fast,Mode,Fast,
Waveform Data,,Waveform Data,,
2, ,13, ,
0, ,13, ,
1, ,12, ,
2, ,12, ,
1, ,12, ,
2, ,13, ,
2, ,12, ,
1, ,12, ,
2, ,13, ,
0, ,12, ,
1, ,12, ,
1, ,12, ,
1, ,12, ,
2, ,12, ,
2, ,12, ,
1, ,12, ,
1, ,12, ,
1, ,12, ,
1, ,13, ,
2, ,13, ,
1, ,13, ,
2, ,13, ,
1, ,12, ,
1, ,12, ,
1, ,12, ,
1, ,13, ,
2, ,13, ,
2, ,13, ,
1, ,13, ,
1, ,12, ,
1, ,12, ,
0, ,12, ,
2, ,13, ,
2, ,13, ,
1, ,13, ,
0, ,13, ,
1, ,12, ,
2, ,12, ,
2, ,13, ,
2, ,13, ,
2, ,13, ,
1, ,13, ,
1, ,13, ,
2, ,13, ,
1, ,13, ,
2, ,13, ,
1, ,13, ,
1, ,13, ,
2, ,13, ,
1, ,13, ,
1, ,13, ,
2, ,13, ,
1, ,13, ,
2, ,13, ,
1, ,13, ,
1, ,13, ,
2, ,13, ,
0, ,12, ,
2, ,12, ,
2, ,13, ,
1, ,13, ,
1, ,13, ,
1, ,13, ,
1, ,13, ,
1, ,13, ,
1, ,13, ,
1, ,13, ,
2, ,13, ,
1, ,13, ,
2, ,13, ,
2, ,13, ,
0, ,12, ,
2, ,12, ,
1, ,12, ,
0, ,13, ,
0, ,13, ,
0, ,13, ,
1, ,13, ,
2, ,13, ,
1, ,13, ,
2, ,13, ,
1, ,13, ,
2, ,13, ,
2, ,13, ,
1, ,12, ,
3, ,12, ,
1, ,13, ,
1, ,12, ,
1, ,12, ,
0, ,12, ,
1, ,12, ,
2, ,13, ,
1, ,13, ,
2, ,13, ,
1, ,12, ,
1, ,12, ,
1, ,12, ,
1, ,12, ,
0, ,13, ,
0, ,13, ,
1, ,13, ,
1, ,13, ,
1, ,13, ,
2, ,13, ,
1, ,13, ,
1, ,13, ,
1, ,13, ,
1, ,13, ,
0, ,13, ,
2, ,13, ,
2, ,12, ,
1, ,12, ,
2, ,12, ,
1, ,12, ,
0, ,13, ,
2, ,13, ,
1, ,13, ,
2, ,13, ,
2, ,12, ,
1, ,12, ,
1, ,13, ,
0, ,13, ,
2, ,13, ,
2, ,13, ,
1, ,12, ,
2, ,12, ,
2, ,12, ,
1, ,12, ,
1, ,12, ,
1, ,12, ,
1, ,12, ,
2, ,13, ,
1, ,13, ,
2, ,13, ,
2, ,12, ,
2, ,12, ,
1, ,13, ,
0, ,13, ,
1, ,13, ,
3, ,13, ,
0, ,13, ,
1, ,12, ,
1, ,12, ,
1, ,12, ,
1, ,12, ,
1, ,12, ,
1, ,12, ,
1, ,12, ,
0, ,12, ,
2, ,13, ,
1, ,13, ,
1, ,13, ,
1, ,13, ,
1, ,12, ,
1, ,12, ,
2, ,13, ,
1, ,13, ,
2, ,13, ,
2, ,12, ,
1, ,12, ,
1, ,12, ,
1, ,12, ,
0, ,12, ,
2, ,12, ,
1, ,12, ,
2, ,13, ,
4, ,13, ,
-4, ,13, ,
7, ,13, ,
41, ,13, ,
125, ,13, ,
125, ,13, ,
125, ,12, ,
124, ,12, ,
96, ,13, ,
-10, ,13, ,
10, ,13, ,
125, ,13, ,
125, ,13, ,
125, ,13, ,
125, ,12, ,
125, ,12, ,
125, ,13, ,
125, ,12, ,
125, ,12, ,
125, ,12, ,
125, ,12, ,
125, ,12, ,
125, ,12, ,
125, ,13, ,
125, ,13, ,
125, ,13, ,
125, ,13, ,
125, ,13, ,
125, ,13, ,
125, ,13, ,
125, ,13, ,
125, ,13, ,
125, ,13, ,
125, ,13, ,
125, ,13, ,
125, ,13, ,
124, ,13, ,
124, ,13, ,
123, ,13, ,
118, ,13, ,
109, ,12, ,
103, ,12, ,
101, ,13, ,
96, ,13, ,
87, ,13, ,
84, ,13, ,
81, ,13, ,
78, ,13, ,
71, ,12, ,
65, ,12, ,
63, ,12, ,
59, ,13, ,
54, ,13, ,
53, ,13, ,
50, ,12, ,
48, ,12, ,
44, ,13, ,
41, ,12, ,
39, ,12, ,
37, ,12, ,
34, ,13, ,
32, ,13, ,
31, ,13, ,
30, ,13, ,
27, ,13, ,
25, ,13, ,
24, ,13, ,
21, ,12, ,
20, ,12, ,
19, ,13, ,
17, ,13, ,
16, ,13, ,
15, ,13, ,
12, ,12, ,
12, ,12, ,
12, ,12, ,
9, ,13, ,
10, ,13, ,
7, ,13, ,
7, ,13, ,
6, ,13, ,
5, ,13, ,
5, ,13, ,
4, ,13, ,
3, ,12, ,
3, ,12, ,
2, ,12, ,
2, ,13, ,
3, ,13, ,
1, ,12, ,
1, ,12, ,
0, ,12, ,
-1, ,13, ,
0, ,13, ,
0, ,13, ,
0, ,13, ,
-1, ,12, ,
-1, ,12, ,
-1, ,12, ,
-1, ,12, ,
-2, ,13, ,
-2, ,13, ,
-3, ,13, ,
-1, ,13, ,
-2, ,13, ,
-4, ,12, ,
-2, ,12, ,
-3, ,12, ,
-3, ,13, ,
-2, ,13, ,
-3, ,13, ,
-3, ,13, ,
-3, ,13, ,
-4, ,13, ,
-3, ,13, ,
-4, ,13, ,
-4, ,13, ,
-2, ,13, ,
-4, ,13, ,
-3, ,13, ,
-3, ,13, ,
-5, ,13, ,
-4, ,13, ,
-4, ,13, ,
-4, ,13, ,
-3, ,13, ,
-4, ,13, ,
-2, ,13, ,
-3, ,13, ,
-3, ,13, ,
-3, ,13, ,
-4, ,13, ,
-4, ,12, ,
-3, ,12, ,
-3, ,12, ,
-2, ,13, ,
-2, ,12, ,
-4, ,12, ,
-2, ,13, ,
-2, ,12, ,
-3, ,12, ,
-2, ,12, ,
-3, ,12, ,
-3, ,12, ,
-3, ,13, ,
-3, ,13, ,
-2, ,13, ,
-2, ,13, ,
-2, ,12, ,
-1, ,12, ,
-2, ,12, ,
-1, ,12, ,
-2, ,13, ,
-2, ,12, ,
-1, ,12, ,
-2, ,12, ,
-3, ,13, ,
-1, ,13, ,
-1, ,13, ,
0, ,13, ,
0, ,13, ,
-1, ,13, ,
-1, ,13, ,
-2, ,13, ,
-1, ,13, ,
-1, ,13, ,
-1, ,12, ,
-1, ,12, ,
-1, ,13, ,
-2, ,12, ,
-1, ,12, ,
-1, ,12, ,
-1, ,13, ,
0, ,13, ,
-2, ,12, ,
-1, ,12, ,
-2, ,13, ,
0, ,13, ,
-1, ,13, ,
-2, ,12, ,
0, ,12, ,
0, ,13, ,
0, ,13, ,
0, ,13, ,
0, ,12, ,
-1, ,12, ,
1, ,13, ,
1, ,13, ,
0, ,13, ,
1, ,13, ,
0, ,13, ,
0, ,13, ,
0, ,13, ,
0, ,13, ,
0, ,13, ,
0, ,12, ,
0, ,12, ,
0, ,13, ,
0, ,13, ,
0, ,13, ,
0, ,13, ,
0, ,13, ,
0, ,13, ,
0, ,12, ,
0, ,12, ,
1, ,13, ,
1, ,13, ,
0, ,13, ,
0, ,12, ,
1, ,12, ,
1, ,12, ,
1, ,12, ,
0, ,12, ,
1, ,12, ,
1, ,12, ,
1, ,12, ,
0, ,13, ,
0, ,13, ,
1, ,13, ,
1, ,13, ,
0, ,12, ,
1, ,12, ,
1, ,12, ,
1, ,13, ,
1, ,13, ,
1, ,13, ,
1, ,13, ,
1, ,12, ,
1, ,12, ,
1, ,12, ,
0, ,12, ,
1, ,13, ,
1, ,13, ,
1, ,12, ,
1, ,12, ,
1, ,12, ,
0, ,13, ,
0, ,13, ,
0, ,13, ,
0, ,13, ,
1, ,12, ,
1, ,12, ,
1, ,13, ,
0, ,13, ,
0, ,12, ,
2, ,12, ,
1, ,13, ,
2, ,13, ,
1, ,13, ,
1, ,12, ,
2, ,12, ,
1, ,12, ,
1, ,12, ,
1, ,12, ,
1, ,12, ,
2, ,13, ,
1, ,13, ,
0, ,13, ,
0, ,13, ,
0, ,13, ,
0, ,13, ,
0, ,13, ,
-1, ,13, ,
0, ,13, ,
0, ,13, ,
0, ,13, ,
2, ,13, ,
0, ,13, ,
0, ,13, ,
2, ,13, ,
0, ,13, ,
0, ,13, ,
1, ,12, ,
0, ,12, ,
1, ,13, ,
-1, ,12, ,
0, ,12, ,
0, ,13, ,
-2, ,13, ,
-1, ,13, ,
-1, ,13, ,
-1, ,13, ,
-1, ,13, ,
-1, ,13, ,
0, ,12, ,
1, ,12, ,
0, ,12, ,
0, ,12, ,
1, ,13, ,
1, ,13, ,
1, ,13, ,
1, ,13, ,
0, ,13, ,
0, ,13, ,
0, ,12, ,
1, ,12, ,
0, ,13, ,
0, ,13, ,
0, ,13, ,
0, ,13, ,
0, ,12, ,
1, ,12, ,
0, ,12, ,
1, ,13, ,
1, ,13, ,
0, ,13, ,
1, ,13, ,
0, ,13, ,
0, ,12, ,
1, ,12, ,
1, ,12, ,
1, ,12, ,
0, ,13, ,
-1, ,13, ,
1, ,13, ,
-1, ,13, ,
-1, ,13, ,
-1, ,13, ,
-2, ,13, ,
-1, ,13, ,
-1, ,12, ,
-2, ,12, ,
0, ,13, ,
-1, ,13, ,
0, ,12, ,
1, ,12, ,
1, ,12, ,
1, ,13, ,
2, ,13, ,
1, ,12, ,
2, ,12, ,
1, ,12, ,
0, ,12, ,
2, ,12, ,
0, ,12, ,
0, ,13, ,
1, ,12, ,
1, ,12, ,
1, ,12, ,
0, ,12, ,
0, ,12, ,
1, ,13, ,
0, ,13, ,
1, ,13, ,
1, ,13, ,
1, ,12, ,
1, ,12, ,
1, ,12, ,
0, ,12, ,
0, ,12, ,
0, ,12, ,
-1, ,13, ,
-2, ,13, ,
-4, ,13, ,
-3, ,13, ,
-6, ,13, ,
-7, ,13, ,
-7, ,13, ,
-8, ,13, ,
-7, ,13, ,
-8, ,13, ,
-9, ,13, ,
-8, ,13, ,
-8, ,12, ,
-9, ,12, ,
-9, ,13, ,
-10, ,13, ,
-10, ,13, ,
-13, ,12, ,
-15, ,12, ,
-14, ,12, ,
-17, ,13, ,
-19, ,13, ,
-23, ,13, ,
-26, ,13, ,
-26, ,13, ,
-30, ,12, ,
-31, ,12, ,
-31, ,13, ,
-32, ,13, ,
-32, ,13, ,
-30, ,13, ,
-29, ,12, ,
-29, ,12, ,
-27, ,12, ,
-26, ,12, ,
-25, ,13, ,
-25, ,13, ,
-26, ,12, ,
-25, ,12, ,
-27, ,13, ,
-27, ,13, ,
-29, ,13, ,
-29, ,13, ,
-29, ,13, ,
-30, ,13, ,
-28, ,13, ,
-25, ,13, ,
-25, ,13, ,
-22, ,13, ,
-18, ,13, ,
-17, ,13, ,
-15, ,13, ,
-13, ,12, ,
-10, ,12, ,
-7, ,13, ,
-7, ,13, ,
-7, ,13, ,
-6, ,13, ,
-9, ,13, ,
-8, ,13, ,
-9, ,13, ,
-11, ,13, ,
-10, ,13, ,
-12, ,13, ,
-11, ,13, ,
-10, ,13, ,
-9, ,13, ,
-8, ,13, ,
-7, ,12, ,
-4, ,12, ,
-2, ,13, ,
-2, ,12, ,
0, ,12, ,
1, ,13, ,
0, ,13, ,
0, ,13, ,
0, ,13, ,
-3, ,13, ,
-3, ,13, ,
-5, ,12, ,
-6, ,12, ,
-10, ,13, ,
-10, ,12, ,
-11, ,12, ,
-12, ,12, ,
-13, ,13, ,
-12, ,13, ,
-14, ,13, ,
-11, ,13, ,
-10, ,13, ,
-11, ,13, ,
-11, ,13, ,
-11, ,13, ,
-13, ,13, ,
-12, ,13, ,
-15, ,13, ,
-15, ,13, ,
-19, ,13, ,
-22, ,13, ,
-23, ,13, ,
-23, ,13, ,
-25, ,12, ,
-24, ,12, ,
-25, ,12, ,
-24, ,12, ,
-24, ,13, ,
-25, ,13, ,
-23, ,13, ,
-24, ,13, ,
-25, ,13, ,
-25, ,13, ,
-26, ,13, ,
-26, ,13, ,
-29, ,13, ,
-29, ,13, ,
-31, ,13, ,
-32, ,12, ,
-33, ,12, ,
-33, ,13, ,
-35, ,13, ,
-34, ,13, ,
-34, ,12, ,
-35, ,12, ,
-35, ,12, ,
-35, ,12, ,
-35, ,13, ,
-34, ,13, ,
-34, ,13, ,
-34, ,13, ,
-32, ,12, ,
-32, ,12, ,
-30, ,12, ,
-30, ,12, ,
-29, ,12, ,
-29, ,13, ,
-30, ,13, ,
-30, ,13, ,
-31, ,13, ,
-33, ,13, ,
-35, ,13, ,
-35, ,13, ,
-38, ,13, ,
-37, ,13, ,
-37, ,13, ,
-37, ,13, ,
-36, ,12, ,
-35, ,12, ,
-34, ,13, ,
-35, ,13, ,
-33, ,13, ,
-32, ,13, ,
-32, ,12, ,
-32, ,12, ,
-33, ,13, ,
-34, ,13, ,
-34, ,13, ,
-35, ,13, ,
-35, ,12, ,
-35, ,12, ,
-35, ,12, ,
-34, ,12, ,
-33, ,12, ,
-31, ,12, ,
-30, ,13, ,
-30, ,13, ,
-26, ,12, ,
-25, ,12, ,
-25, ,12, ,
-24, ,13, ,
-23, ,13, ,
-24, ,13, ,
-23, ,13, ,
-24, ,12, ,
-22, ,12, ,
-21, ,13, ,
-21, ,13, ,
-19, ,13, ,
-17, ,12, ,
-17, ,12, ,
-15, ,13, ,
-15, ,13, ,
-12, ,13, ,
-12, ,13, ,
-12, ,13, ,
-10, ,13, ,
-10, ,13, ,
-10, ,13, ,
-8, ,13, ,
-8, ,13, ,
-5, ,12, ,
-4, ,12, ,
-4, ,12, ,
-3, ,13, ,
-1, ,13, ,
0, ,13, ,
0, ,13, ,
-1, ,12, ,
0, ,12, ,
0, ,12, ,
0, ,12, ,
1, ,13, ,
2, ,13, ,
1, ,13, ,
3, ,13, ,
4, ,12, ,
5, ,12, ,
7, ,12, ,
6, ,12, ,
8, ,12, ,
10, ,12, ,
10, ,12, ,
10, ,13, ,
10, ,12, ,
10, ,12, ,
10, ,13, ,
9, ,13, ,
10, ,13, ,
10, ,13, ,
9, ,13, ,
9, ,13, ,
8, ,13, ,
6, ,13, ,
8, ,13, ,
6, ,13, ,
7, ,13, ,
6, ,13, ,
5, ,13, ,
4, ,13, ,
2, ,12, ,
1, ,12, ,
2, ,12, ,
-2, ,13, ,
-1, ,13, ,
-4, ,12, ,
-6, ,12, ,
-6, ,13, ,
-9, ,12, ,
-11, ,12, ,
-11, ,12, ,
-12, ,12, ,
-13, ,12, ,
-15, ,13, ,
-16, ,13, ,
-17, ,13, ,
-19, ,13, ,
-19, ,12, ,
-19, ,12, ,
-21, ,12, ,
-21, ,13, ,
-22, ,12, ,
-24, ,12, ,
-23, ,12, ,
-23, ,12, ,
-26, ,13, ,
-26, ,13, ,
-28, ,13, ,
-28, ,13, ,
-30, ,13, ,
-31, ,13, ,
-31, ,13, ,
-35, ,12, ,
-35, ,12, ,
-35, ,13, ,
-35, ,13, ,
-35, ,12, ,
-35, ,12, ,
-36, ,13, ,
-36, ,13, ,
-37, ,12, ,
-38, ,12, ,
-37, ,13, ,
-37, ,13, ,
-36, ,13, ,
-36, ,12, ,
-37, ,12, ,
-35, ,13, ,
-35, ,13, ,
-34, ,13, ,
-32, ,13, ,
-32, ,13, ,
-30, ,13, ,
-26, ,13, ,
-25, ,13, ,
-21, ,13, ,
-20, ,13, ,
-17, ,12, ,
-14, ,12, ,
-12, ,12, ,
-8, ,13, ,
-5, ,13, ,
-5, ,13, ,
-3, ,13, ,
-4, ,13, ,
1, ,13, ,
4, ,13, ,
5, ,13, ,
5, ,13, ,
8, ,13, ,
9, ,12, ,
10, ,12, ,
10, ,12, ,
10, ,12, ,
11, ,13, ,
11, ,13, ,
12, ,13, ,
11, ,13, ,
10, ,13, ,
10, ,13, ,
9, ,12, ,
9, ,12, ,
10, ,13, ,
9, ,13, ,
10, ,13, ,
10, ,13, ,
10, ,12, ,
10, ,12, ,
9, ,12, ,
7, ,12, ,
8, ,12, ,
8, ,12, ,
6, ,12, ,
6, ,12, ,
5, ,12, ,
5, ,12, ,
4, ,12, ,
3, ,12, ,
4, ,12, ,
2, ,12, ,
2, ,13, ,
-1, ,13, ,
-1, ,13, ,
-2, ,13, ,
-3, ,13, ,
-5, ,13, ,
-5, ,13, ,
-6, ,12, ,
-6, ,12, ,
-7, ,13, ,
-8, ,13, ,
-8, ,13, ,
-9, ,13, ,
-9, ,13, ,
-9, ,13, ,
-10, ,13, ,
-10, ,12, ,
-10, ,12, ,
-12, ,13, ,
-12, ,13, ,
-13, ,13, ,
-15, ,13, ,
-15, ,13, ,
-17, ,13, ,
-16, ,13, ,
-18, ,13, ,
-20, ,13, ,
-20, ,13, ,
-23, ,13, ,
-24, ,13, ,
-25, ,13, ,
-25, ,12, ,
-25, ,12, ,
-26, ,13, ,
-27, ,13, ,
-27, ,12, ,
-27, ,12, ,
-28, ,13, ,
-27, ,13, ,
-27, ,13, ,
-27, ,13, ,
-26, ,13, ,
-25, ,13, ,
-25, ,13, ,
-25, ,12, ,
-24, ,12, ,
-23, ,13, ,
-24, ,13, ,
-22, ,13, ,
-22, ,13, ,
-21, ,13, ,
-20, ,12, ,
-20, ,12, ,
-20, ,13, ,
-20, ,13, ,
-21, ,13, ,
-20, ,13, ,
-21, ,13, ,
-21, ,13, ,
-21, ,13, ,
-23, ,12, ,
-23, ,12, ,
-22, ,13, ,
-22, ,13, ,
-22, ,12, ,
-21, ,12, ,
-23, ,12, ,
-20, ,12, ,
-20, ,12, ,
-20, ,12, ,
-19, ,12, ,
-20, ,12, ,
-19, ,13, ,
-19, ,13, ,
-19, ,13, ,
-19, ,13, ,
-19, ,13, ,
-19, ,13, ,
-19, ,13, ,
-19, ,13, ,
-18, ,13, ,
-18, ,13, ,
-19, ,13, ,
-17, ,13, ,
-17, ,13, ,
-17, ,13, ,
-17, ,13, ,
-17, ,13, ,
-17, ,13, ,
-17, ,13, ,
-17, ,12, ,
-17, ,12, ,
-17, ,12, ,
-15, ,13, ,
-15, ,13, ,
-15, ,13, ,
-14, ,13, ,
-14, ,13, ,
-14, ,13, ,
-14, ,13, ,
-13, ,13, ,
-12, ,13, ,
-12, ,12, ,
-12, ,12, ,
-12, ,12, ,
-11, ,12, ,
-12, ,12, ,
-11, ,13, ,
-12, ,13, ,
-12, ,12, ,
-11, ,12, ,
-11, ,13, ,
-11, ,13, ,
-10, ,13, ,
-10, ,13, ,
-10, ,13, ,
-10, ,13, ,
-10, ,13, ,
-9, ,13, ,
-9, ,13, ,
-8, ,13, ,
-7, ,13, ,
-7, ,13, ,
-6, ,13, ,
-7, ,13, ,
-5, ,13, ,
-4, ,13, ,
-3, ,13, ,
-2, ,13, ,
-1, ,13, ,
-1, ,13, ,
0, ,13, ,
0, ,13, ,
0, ,13, ,
1, ,13, ,
1, ,13, ,
2, ,13, ,
2, ,13, ,
0, ,13, ,
0, ,13, ,
0, ,13, ,
0, ,12, ,
0, ,12, ,
0, ,12, ,
0, ,12, ,
-1, ,13, ,
-1, ,12, ,
-1, ,12, ,
-1, ,12, ,
-3, ,13, ,
-3, ,13, ,
-4, ,13, ,
-3, ,13, ,
-3, ,13, ,
-5, ,13, ,
-5, ,13, ,
-5, ,13, ,
-5, ,13, ,
-4, ,13, ,
-5, ,13, ,
-4, ,12, ,
-4, ,12, ,
-4, ,13, ,
-4, ,13, ,
-5, ,13, ,
-5, ,13, ,
-5, ,13, ,
-6, ,13, ,
-6, ,13, ,
-6, ,13, ,
-7, ,13, ,
-6, ,13, ,
-8, ,13, ,
-10, ,12, ,
-10, ,12, ,
-10, ,13, ,
-10, ,13, ,
-10, ,13, ,
-12, ,12, ,
-12, ,12, ,
-13, ,12, ,
-15, ,13, ,
-16, ,13, ,
-16, ,13, ,
-16, ,13, ,
-17, ,13, ,
-17, ,12, ,
-17, ,12, ,
-18, ,12, ,
-17, ,13, ,
-15, ,13, ,
-17, ,12, ,
-15, ,12, ,
-15, ,13, ,
-15, ,12, ,
-14, ,12, ,
-14, ,12, ,
-13, ,12, ,
-10, ,12, ,
-10, ,12, ,
-9, ,12, ,
-5, ,12, ,
-6, ,12, ,
-3, ,12, ,
-4, ,12, ,
0, ,12, ,
3, ,12, ,
4, ,13, ,
5, ,13, ,
8, ,13, ,
7, ,13, ,
10, ,12, ,
11, ,12, ,
11, ,13, ,
12, ,13, ,
11, ,13, ,
13, ,13, ,
13, ,12, ,
13, ,12, ,
13, ,13, ,
13, ,13, ,
13, ,12, ,
13, ,12, ,
12, ,13, ,
12, ,13, ,
11, ,13, ,
9, ,13, ,
9, ,13, ,
8, ,13, ,
6, ,13, ,
5, ,12, ,
4, ,12, ,
4, ,12, ,
2, ,13, ,
1, ,13, ,
2, ,13, ,
0, ,13, ,
-1, ,12, ,
-1, ,12, ,
-2, ,12, ,
-2, ,12, ,
-3, ,13, ,
-4, ,13, ,
-4, ,13, ,
-5, ,13, ,
-5, ,13, ,
-5, ,13, ,
-6, ,13, ,
-6, ,13, ,
-6, ,13, ,
-6, ,12, ,
-7, ,12, ,
-7, ,12, ,
-6, ,12, ,
-5, ,12, ,
-6, ,12, ,
-6, ,13, ,
-5, ,13, ,
-5, ,13, ,
-5, ,13, ,
-6, ,13, ,
-6, ,13, ,
-5, ,13, ,
-5, ,13, ,
-5, ,13, ,
-4, ,13, ,
-5, ,13, ,
-4, ,13, ,
-4, ,13, ,
-4, ,13, ,
-4, ,13, ,
-4, ,12, ,
-2, ,12, ,
-3, ,13, ,
-4, ,13, ,
-2, ,13, ,
-3, ,13, ,
-4, ,12, ,
-3, ,12, ,
-4, ,12, ,
-4, ,13, ,
-4, ,13, ,
-4, ,13, ,
-4, ,13, ,
-4, ,13, ,
-4, ,13, ,
-4, ,13, ,
-4, ,12, ,
-4, ,12, ,
-4, ,13, ,
-4, ,13, ,
-4, ,13, ,
-5, ,13, ,
-6, ,13, ,
-5, ,12, ,
-6, ,12, ,
-6, ,12, ,
-5, ,12, ,
-6, ,12, ,
-5, ,13, ,
-7, ,13, ,
-6, ,12, ,
-5, ,12, ,
-5, ,12, ,
-5, ,12, ,
-4, ,12, ,
-4, ,13, ,
-3, ,13, ,
-4, ,13, ,
-4, ,13, ,
-3, ,13, ,
-4, ,13, ,
-2, ,13, ,
-2, ,13, ,
-3, ,12, ,
-2, ,12, ,
-3, ,12, ,
-1, ,12, ,
-1, ,12, ,
-2, ,12, ,
0, ,13, ,
1, ,13, ,
1, ,12, ,
1, ,12, ,
0, ,12, ,
0, ,12, ,
2, ,12, ,
2, ,12, ,
3, ,13, ,
3, ,13, ,
2, ,12, ,
3, ,12, ,
3, ,12, ,
3, ,12, ,
4, ,12, ,
4, ,12, ,
4, ,13, ,
5, ,12, ,
4, ,12, ,
6, ,13, ,
5, ,13, ,
5, ,13, ,
6, ,12, ,
6, ,12, ,
6, ,12, ,
6, ,13, ,
5, ,13, ,
6, ,13, ,
5, ,13, ,
5, ,12, ,
5, ,12, ,
5, ,12, ,
5, ,12, ,
5, ,13, ,
2, ,13, ,
4, ,13, ,
2, ,12, ,
1, ,12, ,
2, ,13, ,
1, ,13, ,
2, ,13, ,
1, ,12, ,
0, ,12, ,
0, ,13, ,
0, ,13, ,
-1, ,12, ,
-1, ,12, ,
-2, ,12, ,
-2, ,13, ,
-2, ,13, ,
-3, ,13, ,
-3, ,12, ,
-4, ,12, ,
-4, ,12, ,
-3, ,13, ,
-4, ,13, ,
-4, ,13, ,
-4, ,12, ,
-6, ,12, ,
-5, ,13, ,
-7, ,13, ,
-5, ,13, ,
-6, ,13, ,
-7, ,13, ,
-6, ,13, ,
-7, ,13, ,
-7, ,13, ,
-7, ,13, ,
-7, ,13, ,
-8, ,13, ,
-8, ,13, ,
-9, ,13, ,
-8, ,13, ,
-8, ,13, ,
-9, ,13, ,
-9, ,13, ,
-10, ,13, ,
-10, ,13, ,
-10, ,13, ,
-10, ,12, ,
-10, ,12, ,
-10, ,12, ,
-10, ,12, ,
-10, ,13, ,
-10, ,12, ,
-10, ,12, ,
-10, ,13, ,
-10, ,12, ,
-10, ,12, ,
-10, ,12, ,
-11, ,12, ,
-10, ,13, ,
-12, ,12, ,
-10, ,12, ,
-9, ,13, ,
-10, ,13, ,
-7, ,13, ,
-7, ,12, ,
-7, ,12, ,
-6, ,12, ,
-5, ,12, ,
-5, ,13, ,
-3, ,13, ,
-4, ,13, ,
-2, ,13, ,
1, ,13, ,
1, ,13, ,
2, ,13, ,
1, ,12, ,
4, ,12, ,
5, ,13, ,
3, ,12, ,
6, ,12, ,
7, ,13, ,
6, ,12, ,
8, ,12, ,
9, ,12, ,
8, ,13, ,
10, ,13, ,
10, ,13, ,
9, ,13, ,
10, ,13, ,
8, ,13, ,
7, ,13, ,
6, ,13, ,
5, ,13, ,
7, ,13, ,
4, ,13, ,
4, ,13, ,
2, ,13, ,
1, ,13, ,
0, ,13, ,
0, ,12, ,
-3, ,12, ,
-5, ,13, ,
-5, ,13, ,
-6, ,13, ,
-7, ,13, ,
-8, ,13, ,
-7, ,13, ,
-10, ,13, ,
-10, ,13, ,
-10, ,13, ,
-10, ,13, ,
-10, ,13, ,
-9, ,13, ,
-9, ,13, ,
-9, ,13, ,
-9, ,13, ,
-10, ,13, ,
-6, ,13, ,
-5, ,13, ,
-5, ,13, ,
-2, ,13, ,
-3, ,13, ,
-1, ,13, ,
-2, ,13, ,
0, ,13, ,
2, ,13, ,
2, ,13, ,
3, ,13, ,
6, ,13, ,
5, ,12, ,
7, ,12, ,
7, ,12, ,
8, ,13, ,
8, ,13, ,
9, ,13, ,
9, ,13, ,
8, ,12, ,
8, ,12, ,
7, ,13, ,
7, ,13, ,
6, ,12, ,
5, ,12, ,
5, ,12, ,
4, ,12, ,
3, ,13, ,
3, ,13, ,
3, ,13, ,
1, ,12, ,
0, ,12, ,
-1, ,13, ,
-2, ,13, ,
-1, ,13, ,
-4, ,13, ,
-4, ,13, ,
-5, ,13, ,
-6, ,13, ,
-7, ,13, ,
-6, ,13, ,
-8, ,13, ,
-8, ,13, ,
-8, ,13, ,
-9, ,12, ,
-9, ,12, ,
-9, ,12, ,
-10, ,12, ,
-9, ,12, ,
-10, ,12, ,
-9, ,13, ,
-8, ,13, ,
-10, ,13, ,
-8, ,13, ,
-10, ,13, ,
-9, ,13, ,
-9, ,13, ,
-9, ,13, ,
-8, ,13, ,
-8, ,13, ,
-8, ,13, ,
-7, ,13, ,
-8, ,13, ,
-7, ,12, ,
-7, ,12, ,
-6, ,12, ,
-6, ,13, ,
-6, ,13, ,
-6, ,13, ,
-5, ,13, ,
-5, ,13, ,
-5, ,13, ,
-5, ,13, ,
-5, ,13, ,
-5, ,12, ,
-4, ,12, ,
-5, ,13, ,
-3, ,13, ,
-5, ,12, ,
-4, ,12, ,
-4, ,13, ,
-3, ,13, ,
-3, ,13, ,
-2, ,12, ,
-2, ,12, ,
-2, ,12, ,
-3, ,13, ,
-3, ,13, ,
-3, ,13, ,
-2, ,13, ,
-2, ,13, ,
-2, ,12, ,
-4, ,12, ,
-3, ,12, ,
-3, ,12, ,
-4, ,12, ,
-3, ,12, ,
-3, ,12, ,
-2, ,12, ,
-3, ,13, ,
-4, ,13, ,
-3, ,13, ,
-3, ,13, ,
-3, ,13, ,
-3, ,13, ,
-3, ,13, ,
-3, ,13, ,
-2, ,12, ,
-3, ,12, ,
-2, ,13, ,
-4, ,13, ,
-3, ,13, ,
-2, ,13, ,
-3, ,13, ,
-1, ,13, ,
-2, ,12, ,
-2, ,12, ,
-1, ,13, ,
-2, ,13, ,
-2, ,13, ,
-2, ,13, ,
-3, ,13, ,
-2, ,13, ,
-2, ,13, ,
-4, ,13, ,
-3, ,13, ,
-3, ,13, ,
-3, ,13, ,
-3, ,13, ,
-3, ,13, ,
-2, ,13, ,
-2, ,13, ,
-2, ,13, ,
-1, ,13, ,
-4, ,13, ,
-3, ,13, ,
-3, ,13, ,
-3, ,13, ,
-3, ,13, ,
-3, ,12, ,
-4, ,12, ,
-4, ,13, ,
-3, ,13, ,
-4, ,13, ,
-4, ,13, ,
-3, ,13, ,
-4, ,13, ,
-2, ,13, ,
-3, ,13, ,
-1, ,13, ,
-3, ,13, ,
-2, ,13, ,
-1, ,13, ,
-3, ,13, ,
0, ,13, ,
0, ,13, ,
0, ,13, ,
1, ,13, ,
1, ,13, ,
1, ,12, ,
1, ,12, ,
2, ,12, ,
3, ,12, ,
3, ,13, ,
3, ,13, ,
3, ,13, ,
3, ,13, ,
3, ,13, ,
3, ,13, ,
3, ,13, ,
3, ,13, ,
3, ,13, ,
3, ,13, ,
3, ,13, ,
3, ,13, ,
1, ,13, ,
2, ,13, ,
2, ,13, ,
1, ,13, ,
1, ,13, ,
0, ,13, ,
0, ,13, ,
-1, ,13, ,
0, ,13, ,
0, ,13, ,
-1, ,13, ,
0, ,13, ,
-1, ,13, ,
-2, ,13, ,
-1, ,13, ,
-2, ,13, ,
-2, ,13, ,
-1, ,13, ,
-1, ,12, ,
-1, ,12, ,
-1, ,13, ,
-2, ,12, ,
0, ,12, ,
-2, ,12, ,
1, ,13, ,
2, ,13, ,
2, ,13, ,
2, ,13, ,
1, ,13, ,
2, ,12, ,
3, ,12, ,
3, ,12, ,
3, ,13, ,
4, ,13, ,
4, ,13, ,
5, ,13, ,
4, ,13, ,
3, ,12, ,
3, ,12, ,
2, ,12, ,
3, ,12, ,
5, ,12, ,
2, ,12, ,
3, ,13, ,
2, ,12, ,
2, ,12, ,
2, ,12, ,
1, ,12, ,
1, ,13, ,
1, ,13, ,
0, ,13, ,
1, ,13, ,
0, ,12, ,
-1, ,12, ,
-1, ,13, ,
-2, ,12, ,
-1, ,12, ,
-1, ,13, ,
-2, ,12, ,
-2, ,12, ,
-2, ,13, ,
-3, ,12, ,
-2, ,12, ,
-2, ,12, ,
-3, ,13, ,
-3, ,13, ,
-3, ,12, ,
-3, ,12, ,
-4, ,13, ,
-5, ,13, ,
-3, ,13, ,
-4, ,12, ,
-3, ,12, ,
-3, ,13, ,
-4, ,13, ,
-2, ,13, ,
-1, ,13, ,
-2, ,13, ,
1, ,13, ,
1, ,13, ,
1, ,13, ,
2, ,13, ,
3, ,13, ,
5, ,13, ,
6, ,13, ,
6, ,13, ,
8, ,13, ,
8, ,13, ,
9, ,13, ,
11, ,13, ,
10, ,13, ,
12, ,13, ,
12, ,13, ,
10, ,12, ,
12, ,12, ,
12, ,12, ,
13, ,13, ,
13, ,12, ,
12, ,12, ,
12, ,12, ,
11, ,13, ,
11, ,13, ,
11, ,13, ,
10, ,13, ,
9, ,13, ,
9, ,13, ,
9, ,12, ,
9, ,12, ,
8, ,13, ,
7, ,13, ,
7, ,13, ,
7, ,13, ,
6, ,13, ,
7, ,13, ,
5, ,13, ,
5, ,13, ,
5, ,13, ,
5, ,13, ,
5, ,13, ,
5, ,13, ,
4, ,13, ,
4, ,13, ,
3, ,13, ,
3, ,13, ,
2, ,13, ,
2, ,13, ,
2, ,13, ,
1, ,13, ,
1, ,13, ,
1, ,12, ,
0, ,12, ,
0, ,12, ,
-1, ,13, ,
-3, ,13, ,
-3, ,13, ,
-4, ,13, ,
-4, ,12, ,
-4, ,12, ,
-5, ,12, ,
-5, ,12, ,
-5, ,12, ,
-7, ,12, ,
-6, ,12, ,
-7, ,12, ,
-8, ,12, ,
-7, ,12, ,
-8, ,12, ,
-7, ,13, ,
-8, ,13, ,
-8, ,12, ,
-8, ,12, ,
-9, ,12, ,
-9, ,13, ,
-8, ,13, ,
-10, ,13, ,
-9, ,13, ,
-8, ,13, ,
-9, ,13, ,
-9, ,13, ,
-10, ,13, ,
-11, ,13, ,
-9, ,13, ,
-10, ,13, ,
-10, ,13, ,
-9, ,13, ,
-10, ,13, ,
-9, ,13, ,
-10, ,13, ,
-10, ,12, ,
-10, ,12, ,
-11, ,12, ,
-10, ,13, ,
-10, ,13, ,
-10, ,12, ,
-9, ,12, ,
-10, ,12, ,
-9, ,12, ,
-8, ,13, ,
-7, ,12, ,
-6, ,12, ,
-5, ,13, ,
-5, ,13, ,
-4, ,13, ,
-4, ,13, ,
-2, ,13, ,
-1, ,13, ,
-2, ,13, ,
1, ,13, ,
3, ,13, ,
1, ,12, ,
5, ,12, ,
5, ,12, ,
5, ,13, ,
6, ,13, ,
7, ,13, ,
8, ,13, ,
9, ,13, ,
10, ,12, ,
10, ,12, ,
10, ,12, ,
11, ,13, ,
11, ,13, ,
11, ,13, ,
12, ,12, ,
14, ,12, ,
13, ,13, ,
13, ,13, ,
14, ,13, ,
13, ,13, ,
14, ,13, ,
13, ,13, ,
14, ,13, ,
14, ,12, ,
13, ,12, ,
14, ,12, ,
13, ,13, ,
14, ,13, ,
14, ,13, ,
13, ,13, ,
13, ,13, ,
13, ,12, ,
12, ,12, ,
13, ,13, ,
11, ,13, ,
11, ,13, ,
10, ,13, ,
10, ,13, ,
9, ,13, ,
8, ,12, ,
6, ,12, ,
5, ,12, ,
4, ,12, ,
3, ,13, ,
4, ,13, ,
0, ,13, ,
0, ,13, ,
-1, ,12, ,
-3, ,12, ,
-2, ,13, ,
-5, ,13, ,
-6, ,13, ,
-6, ,13, ,
-7, ,12, ,
-7, ,12, ,
-9, ,12, ,
-10, ,12, ,
-10, ,12, ,
-11, ,13, ,
-11, ,13, ,
-11, ,13, ,
-13, ,13, ,
-12, ,13, ,
-12, ,13, ,
