raw_data/100% Glycerol, Impulsion 2Hz, Sonde 5MHz, Rampe 0.7Hz/temp0000146.CSV

Format,1.0B,
Memory Length,10000,Memory Length,10000,
IntpDistance,0,IntpDistance,0,
Trigger Address,159,Trigger Address,159,
Trigger Level,2.720E-01,Trigger Level,2.720E-01,
Source,CH1,Source,CH2,
Vertical Units,V,Vertical Units,V,
Vertical Units Div,0,Vertical Units Div,0,
Vertical Units Extend Div,16,Vertical Units Extend Div,16,
Label,,Label,,
Probe Type,0,Probe Type,0,
Probe Ratio,1.000e+00,Probe Ratio,1.000e+00,
Vertical Scale,2.000e-01,Vertical Scale,2.000e+00,
Vertical Position,0.000e+00,Vertical Position,0.000e+00,
Horizontal Units,S,Horizontal Units,S,
Horizontal Scale,5.000E-06,Horizontal Scale,5.000E-06,
Horizontal Position,2.420E-05,Horizontal Position,2.420E-05,
Horizontal Mode,Main,Horizontal Mode,Main,
SincET Mode,Real Time,SincET Mode,Real Time,
Sampling Period,5.000e-09,Sampling Period,5.000e-09,
Horizontal Old Scale,5.000E-06,Horizontal Old Scale,5.000E-06,
Horizontal Old Position,2.420E-05,Horizontal Old Position,2.420E-05,
Firmware,V1.32,Firmware,V1.32,
Mode,Fast,Mode,Fast,
Waveform Data,,Waveform Data,,
2, ,9, ,
2, ,9, ,
3, ,9, ,
3, ,9, ,
1, ,9, ,
3, ,9, ,
2, ,9, ,
3, ,9, ,
3, ,9, ,
2, ,9, ,
3, ,9, ,
2, ,9, ,
2, ,9, ,
3, ,9, ,
2, ,9, ,
2, ,9, ,
3, ,9, ,
2, ,9, ,
3, ,9, ,
2, ,9, ,
2, ,9, ,
3, ,9, ,
3, ,9, ,
3, ,9, ,
2, ,9, ,
2, ,9, ,
2, ,9, ,
2, ,9, ,
1, ,9, ,
3, ,9, ,
2, ,9, ,
2, ,9, ,
3, ,9, ,
2, ,9, ,
3, ,9, ,
2, ,9, ,
3, ,9, ,
3, ,9, ,
2, ,9, ,
3, ,9, ,
2, ,9, ,
2, ,9, ,
2, ,9, ,
2, ,9, ,
2, ,9, ,
3, ,9, ,
2, ,9, ,
3, ,9, ,
2, ,9, ,
2, ,9, ,
3, ,9, ,
2, ,9, ,
2, ,9, ,
3, ,9, ,
3, ,9, ,
3, ,9, ,
3, ,9, ,
3, ,9, ,
4, ,9, ,
2, ,9, ,
3, ,9, ,
3, ,9, ,
2, ,9, ,
2, ,9, ,
3, ,9, ,
3, ,9, ,
3, ,9, ,
3, ,9, ,
3, ,9, ,
3, ,9, ,
3, ,9, ,
3, ,9, ,
3, ,9, ,
3, ,9, ,
3, ,9, ,
2, ,9, ,
1, ,9, ,
2, ,9, ,
2, ,9, ,
2, ,9, ,
3, ,9, ,
3, ,9, ,
3, ,9, ,
2, ,9, ,
1, ,9, ,
3, ,9, ,
2, ,9, ,
2, ,9, ,
3, ,9, ,
3, ,9, ,
3, ,9, ,
2, ,9, ,
3, ,9, ,
2, ,9, ,
2, ,9, ,
1, ,9, ,
2, ,9, ,
2, ,9, ,
3, ,9, ,
2, ,9, ,
2, ,9, ,
2, ,9, ,
2, ,9, ,
2, ,9, ,
3, ,9, ,
2, ,9, ,
2, ,9, ,
1, ,9, ,
2, ,9, ,
2, ,9, ,
1, ,9, ,
2, ,9, ,
3, ,9, ,
3, ,9, ,
3, ,9, ,
3, ,9, ,
3, ,9, ,
3, ,9, ,
2, ,9, ,
2, ,9, ,
3, ,9, ,
2, ,9, ,
2, ,9, ,
2, ,9, ,
2, ,9, ,
2, ,9, ,
2, ,9, ,
1, ,9, ,
3, ,9, ,
2, ,9, ,
3, ,9, ,
3, ,9, ,
2, ,9, ,
3, ,9, ,
2, ,9, ,
2, ,9, ,
3, ,9, ,
2, ,9, ,
2, ,9, ,
1, ,9, ,
3, ,9, ,
4, ,9, ,
2, ,9, ,
2, ,9, ,
2, ,9, ,
1, ,9, ,
2, ,9, ,
2, ,9, ,
3, ,9, ,
3, ,9, ,
3, ,9, ,
3, ,9, ,
3, ,9, ,
2, ,9, ,
2, ,9, ,
1, ,9, ,
2, ,9, ,
3, ,9, ,
1, ,9, ,
3, ,9, ,
3, ,9, ,
3, ,9, ,
4, ,9, ,
2, ,9, ,
0, ,9, ,
0, ,9, ,
0, ,9, ,
2, ,9, ,
79, ,9, ,
125, ,9, ,
125, ,9, ,
125, ,9, ,
121, ,9, ,
117, ,9, ,
22, ,9, ,
-17, ,9, ,
125, ,9, ,
125, ,9, ,
125, ,9, ,
125, ,9, ,
125, ,9, ,
125, ,9, ,
125, ,9, ,
125, ,9, ,
125, ,9, ,
125, ,9, ,
125, ,9, ,
125, ,9, ,
125, ,9, ,
125, ,9, ,
125, ,9, ,
125, ,9, ,
125, ,9, ,
125, ,9, ,
125, ,9, ,
125, ,9, ,
125, ,9, ,
125, ,9, ,
125, ,9, ,
125, ,9, ,
125, ,9, ,
125, ,9, ,
124, ,9, ,
124, ,9, ,
116, ,9, ,
114, ,9, ,
107, ,9, ,
103, ,9, ,
95, ,9, ,
91, ,9, ,
88, ,9, ,
83, ,9, ,
76, ,9, ,
74, ,9, ,
69, ,9, ,
66, ,9, ,
61, ,9, ,
58, ,9, ,
55, ,9, ,
51, ,9, ,
48, ,9, ,
47, ,9, ,
43, ,9, ,
41, ,9, ,
38, ,9, ,
36, ,9, ,
34, ,9, ,
32, ,9, ,
29, ,9, ,
28, ,9, ,
26, ,9, ,
26, ,9, ,
24, ,9, ,
22, ,9, ,
20, ,9, ,
18, ,9, ,
16, ,9, ,
15, ,9, ,
14, ,9, ,
14, ,9, ,
12, ,9, ,
10, ,9, ,
10, ,9, ,
9, ,9, ,
8, ,9, ,
7, ,9, ,
7, ,9, ,
6, ,9, ,
5, ,9, ,
5, ,9, ,
5, ,9, ,
4, ,9, ,
3, ,9, ,
3, ,9, ,
3, ,9, ,
3, ,9, ,
2, ,9, ,
1, ,9, ,
1, ,9, ,
1, ,9, ,
0, ,9, ,
0, ,9, ,
0, ,9, ,
0, ,9, ,
-1, ,9, ,
-1, ,9, ,
-1, ,9, ,
-2, ,9, ,
-1, ,9, ,
-1, ,9, ,
-2, ,9, ,
-2, ,9, ,
-2, ,9, ,
-2, ,9, ,
-1, ,9, ,
-2, ,9, ,
-3, ,9, ,
-1, ,9, ,
-3, ,9, ,
-3, ,9, ,
-2, ,9, ,
-2, ,9, ,
-2, ,9, ,
-3, ,9, ,
-2, ,9, ,
-2, ,9, ,
-2, ,10, ,
-2, ,9, ,
-2, ,9, ,
-2, ,9, ,
-2, ,9, ,
-2, ,9, ,
-3, ,9, ,
-2, ,9, ,
-2, ,9, ,
-2, ,9, ,
-2, ,9, ,
-3, ,9, ,
-2, ,9, ,
-2, ,9, ,
-2, ,9, ,
-2, ,9, ,
-2, ,9, ,
-1, ,9, ,
-1, ,9, ,
-2, ,9, ,
-1, ,9, ,
-2, ,9, ,
0, ,9, ,
0, ,9, ,
-1, ,9, ,
-1, ,9, ,
-1, ,9, ,
-1, ,9, ,
-2, ,9, ,
-1, ,9, ,
0, ,9, ,
0, ,9, ,
-1, ,9, ,
0, ,9, ,
0, ,9, ,
0, ,9, ,
0, ,9, ,
-1, ,9, ,
-1, ,9, ,
0, ,9, ,
-1, ,9, ,
0, ,9, ,
0, ,9, ,
0, ,9, ,
0, ,9, ,
0, ,9, ,
0, ,9, ,
0, ,9, ,
1, ,9, ,
1, ,9, ,
1, ,9, ,
0, ,9, ,
1, ,9, ,
0, ,9, ,
0, ,9, ,
0, ,9, ,
1, ,9, ,
1, ,9, ,
1, ,9, ,
0, ,9, ,
1, ,9, ,
1, ,9, ,
1, ,9, ,
1, ,9, ,
1, ,9, ,
1, ,9, ,
2, ,9, ,
1, ,9, ,
1, ,9, ,
1, ,9, ,
1, ,9, ,
1, ,9, ,
2, ,9, ,
1, ,10, ,
2, ,9, ,
1, ,9, ,
1, ,9, ,
1, ,9, ,
2, ,9, ,
3, ,9, ,
2, ,9, ,
1, ,9, ,
-2, ,9, ,
-14, ,9, ,
-47, ,9, ,
-122, ,9, ,
-126, ,9, ,
-126, ,9, ,
-126, ,9, ,
-126, ,9, ,
-126, ,9, ,
-126, ,9, ,
-126, ,9, ,
-126, ,9, ,
-126, ,9, ,
-126, ,9, ,
-126, ,9, ,
-126, ,9, ,
-126, ,9, ,
-126, ,9, ,
-126, ,9, ,
-126, ,9, ,
-126, ,9, ,
-126, ,9, ,
-126, ,9, ,
-126, ,9, ,
-126, ,9, ,
-126, ,9, ,
-124, ,9, ,
-116, ,9, ,
125, ,9, ,
125, ,9, ,
125, ,9, ,
125, ,9, ,
125, ,9, ,
125, ,9, ,
125, ,9, ,
125, ,9, ,
125, ,9, ,
125, ,9, ,
125, ,9, ,
125, ,9, ,
125, ,9, ,
125, ,9, ,
123, ,9, ,
116, ,9, ,
-100, ,9, ,
-126, ,9, ,
-126, ,9, ,
-126, ,9, ,
-126, ,9, ,
-126, ,9, ,
-126, ,9, ,
-126, ,9, ,
-126, ,9, ,
-126, ,9, ,
-126, ,9, ,
-126, ,9, ,
-126, ,9, ,
-126, ,9, ,
-126, ,9, ,
-126, ,9, ,
-126, ,9, ,
-126, ,9, ,
-121, ,9, ,
-113, ,9, ,
125, ,9, ,
125, ,9, ,
125, ,9, ,
125, ,9, ,
125, ,9, ,
125, ,9, ,
125, ,9, ,
125, ,9, ,
124, ,9, ,
119, ,9, ,
112, ,9, ,
116, ,9, ,
125, ,9, ,
125, ,9, ,
125, ,9, ,
125, ,9, ,
125, ,9, ,
125, ,9, ,
125, ,9, ,
125, ,9, ,
125, ,9, ,
125, ,9, ,
125, ,9, ,
125, ,9, ,
125, ,9, ,
125, ,9, ,
125, ,9, ,
125, ,9, ,
125, ,9, ,
125, ,9, ,
125, ,10, ,
125, ,9, ,
125, ,9, ,
125, ,9, ,
125, ,9, ,
125, ,9, ,
124, ,9, ,
124, ,9, ,
119, ,9, ,
112, ,9, ,
95, ,9, ,
87, ,9, ,
82, ,9, ,
75, ,9, ,
71, ,9, ,
69, ,9, ,
68, ,9, ,
67, ,9, ,
64, ,9, ,
59, ,9, ,
59, ,9, ,
57, ,9, ,
47, ,9, ,
44, ,9, ,
39, ,9, ,
35, ,9, ,
24, ,9, ,
19, ,9, ,
14, ,9, ,
9, ,9, ,
1, ,9, ,
-3, ,9, ,
-10, ,9, ,
-16, ,9, ,
-32, ,9, ,
-42, ,9, ,
-51, ,9, ,
-60, ,9, ,
-71, ,9, ,
-72, ,9, ,
-69, ,9, ,
-62, ,9, ,
-41, ,9, ,
-31, ,9, ,
-20, ,9, ,
-10, ,9, ,
6, ,9, ,
15, ,9, ,
18, ,9, ,
21, ,9, ,
22, ,9, ,
17, ,9, ,
17, ,9, ,
11, ,9, ,
1, ,9, ,
-2, ,9, ,
-6, ,9, ,
-8, ,9, ,
-7, ,9, ,
-2, ,9, ,
1, ,9, ,
5, ,9, ,
15, ,9, ,
20, ,9, ,
21, ,9, ,
22, ,9, ,
21, ,9, ,
16, ,9, ,
15, ,9, ,
11, ,9, ,
0, ,9, ,
-1, ,9, ,
-2, ,9, ,
-3, ,9, ,
6, ,9, ,
10, ,9, ,
19, ,9, ,
25, ,9, ,
36, ,9, ,
40, ,9, ,
42, ,9, ,
45, ,9, ,
49, ,9, ,
48, ,9, ,
49, ,9, ,
49, ,9, ,
47, ,9, ,
47, ,9, ,
45, ,9, ,
46, ,9, ,
43, ,9, ,
41, ,9, ,
42, ,9, ,
38, ,9, ,
36, ,9, ,
36, ,9, ,
34, ,9, ,
34, ,9, ,
32, ,9, ,
30, ,9, ,
30, ,9, ,
28, ,9, ,
25, ,9, ,
24, ,9, ,
23, ,9, ,
23, ,9, ,
21, ,9, ,
20, ,9, ,
20, ,9, ,
18, ,9, ,
15, ,9, ,
15, ,9, ,
11, ,9, ,
3, ,9, ,
-36, ,9, ,
-81, ,9, ,
-126, ,9, ,
-126, ,9, ,
-126, ,9, ,
-126, ,9, ,
-126, ,9, ,
-126, ,9, ,
-126, ,9, ,
-126, ,9, ,
-126, ,9, ,
-126, ,9, ,
-126, ,9, ,
-126, ,9, ,
-126, ,9, ,
-126, ,9, ,
-126, ,9, ,
-126, ,9, ,
-126, ,9, ,
-126, ,9, ,
-126, ,9, ,
-126, ,9, ,
-126, ,9, ,
-126, ,9, ,
-126, ,9, ,
-126, ,9, ,
-126, ,9, ,
-126, ,9, ,
-126, ,9, ,
-126, ,9, ,
-126, ,9, ,
-126, ,9, ,
-118, ,9, ,
-52, ,9, ,
85, ,9, ,
125, ,9, ,
125, ,9, ,
125, ,9, ,
125, ,9, ,
125, ,9, ,
125, ,9, ,
125, ,9, ,
125, ,9, ,
125, ,9, ,
125, ,9, ,
125, ,9, ,
125, ,9, ,
125, ,9, ,
125, ,9, ,
125, ,9, ,
125, ,9, ,
125, ,9, ,
125, ,9, ,
125, ,9, ,
125, ,9, ,
125, ,9, ,
125, ,9, ,
125, ,9, ,
125, ,9, ,
125, ,9, ,
125, ,9, ,
125, ,9, ,
125, ,9, ,
125, ,9, ,
122, ,9, ,
101, ,9, ,
59, ,9, ,
8, ,9, ,
-109, ,9, ,
-126, ,9, ,
-126, ,9, ,
-126, ,9, ,
-126, ,9, ,
-126, ,9, ,
-126, ,9, ,
-126, ,9, ,
-93, ,9, ,
-55, ,9, ,
-24, ,9, ,
8, ,9, ,
55, ,9, ,
71, ,9, ,
83, ,9, ,
94, ,9, ,
102, ,9, ,
105, ,9, ,
103, ,9, ,
102, ,9, ,
96, ,9, ,
91, ,9, ,
85, ,9, ,
76, ,9, ,
53, ,9, ,
40, ,9, ,
21, ,9, ,
2, ,9, ,
-44, ,9, ,
-69, ,9, ,
-91, ,9, ,
-111, ,9, ,
-126, ,9, ,
-126, ,9, ,
-126, ,9, ,
-126, ,9, ,
-125, ,9, ,
-112, ,9, ,
-89, ,9, ,
-66, ,9, ,
-13, ,9, ,
16, ,9, ,
35, ,9, ,
58, ,9, ,
87, ,9, ,
97, ,9, ,
105, ,9, ,
106, ,9, ,
107, ,9, ,
105, ,9, ,
99, ,9, ,
92, ,9, ,
71, ,9, ,
60, ,9, ,
46, ,9, ,
33, ,9, ,
4, ,9, ,
-7, ,9, ,
-23, ,9, ,
-34, ,9, ,
-54, ,9, ,
-65, ,9, ,
-74, ,9, ,
-82, ,9, ,
-93, ,9, ,
-95, ,9, ,
-98, ,9, ,
-97, ,9, ,
-96, ,9, ,
-92, ,9, ,
-89, ,9, ,
-86, ,9, ,
-73, ,9, ,
-69, ,9, ,
-64, ,9, ,
-60, ,9, ,
-55, ,9, ,
-57, ,9, ,
-56, ,9, ,
-59, ,9, ,
-69, ,9, ,
-75, ,9, ,
-84, ,9, ,
-94, ,9, ,
-114, ,9, ,
-126, ,9, ,
-126, ,9, ,
-126, ,9, ,
-126, ,9, ,
-126, ,9, ,
-126, ,9, ,
-126, ,9, ,
-126, ,9, ,
-126, ,9, ,
-126, ,9, ,
-126, ,9, ,
-126, ,9, ,
-126, ,9, ,
-126, ,9, ,
-126, ,9, ,
-126, ,9, ,
-126, ,9, ,
-126, ,9, ,
-126, ,9, ,
-107, ,9, ,
-85, ,9, ,
-64, ,9, ,
-40, ,9, ,
9, ,9, ,
32, ,9, ,
59, ,9, ,
82, ,9, ,
125, ,9, ,
125, ,9, ,
125, ,9, ,
125, ,9, ,
125, ,9, ,
125, ,9, ,
125, ,9, ,
125, ,9, ,
125, ,9, ,
125, ,9, ,
125, ,9, ,
125, ,9, ,
125, ,9, ,
125, ,9, ,
125, ,9, ,
125, ,9, ,
125, ,9, ,
125, ,9, ,
125, ,9, ,
125, ,9, ,
125, ,9, ,
125, ,9, ,
125, ,9, ,
125, ,9, ,
125, ,9, ,
125, ,9, ,
125, ,9, ,
125, ,9, ,
125, ,9, ,
125, ,9, ,
125, ,9, ,
125, ,9, ,
124, ,9, ,
122, ,9, ,
117, ,9, ,
113, ,9, ,
105, ,9, ,
99, ,9, ,
96, ,9, ,
89, ,9, ,
62, ,9, ,
34, ,9, ,
-16, ,9, ,
-81, ,9, ,
-126, ,9, ,
-126, ,9, ,
-126, ,9, ,
-126, ,9, ,
-126, ,9, ,
-126, ,9, ,
-126, ,9, ,
-126, ,9, ,
-126, ,9, ,
-126, ,9, ,
-126, ,9, ,
-126, ,9, ,
-126, ,9, ,
-126, ,9, ,
-126, ,9, ,
-126, ,9, ,
-126, ,9, ,
-126, ,9, ,
-126, ,9, ,
-126, ,9, ,
-126, ,9, ,
-126, ,9, ,
-126, ,9, ,
-126, ,9, ,
-126, ,9, ,
-126, ,9, ,
-126, ,9, ,
-126, ,9, ,
-126, ,9, ,
-126, ,9, ,
-126, ,9, ,
-124, ,9, ,
-65, ,9, ,
-20, ,9, ,
24, ,9, ,
61, ,9, ,
125, ,9, ,
125, ,9, ,
125, ,9, ,
125, ,9, ,
125, ,9, ,
125, ,9, ,
125, ,9, ,
125, ,9, ,
125, ,9, ,
125, ,9, ,
125, ,9, ,
124, ,9, ,
120, ,9, ,
96, ,9, ,
75, ,9, ,
53, ,9, ,
18, ,9, ,
8, ,9, ,
-3, ,9, ,
-7, ,9, ,
-9, ,9, ,
-6, ,9, ,
0, ,9, ,
6, ,9, ,
24, ,9, ,
34, ,9, ,
42, ,9, ,
52, ,9, ,
70, ,9, ,
76, ,9, ,
81, ,9, ,
86, ,9, ,
89, ,9, ,
91, ,9, ,
88, ,9, ,
86, ,9, ,
74, ,9, ,
67, ,9, ,
57, ,9, ,
45, ,9, ,
23, ,9, ,
12, ,9, ,
-3, ,9, ,
-12, ,9, ,
-34, ,9, ,
-44, ,9, ,
-50, ,9, ,
-59, ,9, ,
-66, ,9, ,
-64, ,9, ,
-63, ,9, ,
-60, ,9, ,
-48, ,9, ,
-41, ,9, ,
-32, ,9, ,
-23, ,9, ,
-4, ,9, ,
8, ,9, ,
15, ,9, ,
25, ,9, ,
39, ,9, ,
44, ,9, ,
52, ,9, ,
54, ,9, ,
57, ,9, ,
58, ,9, ,
56, ,9, ,
56, ,9, ,
52, ,9, ,
50, ,9, ,
47, ,9, ,
43, ,9, ,
39, ,9, ,
39, ,9, ,
36, ,9, ,
36, ,9, ,
36, ,9, ,
37, ,9, ,
38, ,9, ,
39, ,9, ,
42, ,9, ,
45, ,9, ,
47, ,9, ,
49, ,9, ,
54, ,9, ,
55, ,9, ,
57, ,9, ,
56, ,9, ,
57, ,9, ,
57, ,9, ,
54, ,9, ,
54, ,9, ,
49, ,9, ,
46, ,9, ,
43, ,9, ,
38, ,9, ,
30, ,9, ,
26, ,9, ,
21, ,9, ,
15, ,9, ,
2, ,9, ,
-5, ,9, ,
-13, ,9, ,
-21, ,9, ,
-37, ,9, ,
-43, ,9, ,
-55, ,9, ,
-62, ,9, ,
-81, ,9, ,
-92, ,9, ,
-99, ,9, ,
-108, ,9, ,
-126, ,9, ,
-126, ,9, ,
-126, ,9, ,
-126, ,9, ,
-126, ,9, ,
-126, ,9, ,
-126, ,9, ,
-126, ,9, ,
-126, ,9, ,
-126, ,9, ,
-126, ,9, ,
-126, ,9, ,
-126, ,9, ,
-126, ,9, ,
-126, ,9, ,
-126, ,9, ,
-126, ,9, ,
-126, ,9, ,
-126, ,9, ,
-126, ,9, ,
-126, ,9, ,
-126, ,9, ,
-126, ,9, ,
-126, ,9, ,
-126, ,9, ,
-126, ,9, ,
-126, ,9, ,
-126, ,9, ,
-126, ,9, ,
-126, ,9, ,
-118, ,9, ,
-112, ,9, ,
-93, ,9, ,
-78, ,9, ,
-58, ,9, ,
-36, ,9, ,
2, ,9, ,
22, ,9, ,
43, ,9, ,
63, ,9, ,
106, ,9, ,
125, ,9, ,
125, ,9, ,
125, ,9, ,
125, ,9, ,
125, ,9, ,
125, ,9, ,
125, ,9, ,
125, ,9, ,
125, ,9, ,
125, ,9, ,
125, ,9, ,
125, ,9, ,
125, ,9, ,
125, ,9, ,
125, ,9, ,
125, ,9, ,
125, ,9, ,
125, ,9, ,
125, ,9, ,
125, ,9, ,
125, ,9, ,
125, ,9, ,
125, ,9, ,
125, ,9, ,
125, ,9, ,
125, ,9, ,
125, ,9, ,
125, ,9, ,
125, ,9, ,
124, ,9, ,
124, ,9, ,
113, ,9, ,
106, ,9, ,
95, ,9, ,
82, ,9, ,
54, ,9, ,
35, ,9, ,
18, ,9, ,
-1, ,9, ,
-42, ,9, ,
-62, ,9, ,
-81, ,9, ,
-100, ,9, ,
-126, ,9, ,
-126, ,9, ,
-126, ,9, ,
-126, ,9, ,
-126, ,9, ,
-126, ,9, ,
-126, ,9, ,
-126, ,9, ,
-126, ,9, ,
-126, ,9, ,
-126, ,9, ,
-126, ,9, ,
-108, ,9, ,
-99, ,9, ,
-89, ,9, ,
-80, ,9, ,
-66, ,9, ,
-62, ,9, ,
-57, ,9, ,
-57, ,9, ,
-55, ,9, ,
-55, ,9, ,
-57, ,9, ,
-58, ,9, ,
-60, ,9, ,
-65, ,9, ,
-65, ,9, ,
-65, ,9, ,
-65, ,9, ,
-61, ,9, ,
-60, ,9, ,
-54, ,9, ,
-45, ,9, ,
-40, ,9, ,
-33, ,9, ,
-27, ,9, ,
-12, ,9, ,
-5, ,9, ,
0, ,9, ,
8, ,9, ,
16, ,9, ,
19, ,9, ,
23, ,9, ,
25, ,9, ,
25, ,9, ,
24, ,9, ,
22, ,9, ,
22, ,9, ,
14, ,9, ,
9, ,9, ,
5, ,9, ,
0, ,9, ,
-11, ,9, ,
-15, ,9, ,
-21, ,9, ,
-25, ,9, ,
-31, ,9, ,
-35, ,9, ,
-35, ,9, ,
-37, ,9, ,
-38, ,9, ,
-37, ,9, ,
-35, ,9, ,
-35, ,9, ,
-30, ,9, ,
-28, ,9, ,
-24, ,9, ,
-22, ,9, ,
-15, ,9, ,
-12, ,9, ,
-10, ,9, ,
-6, ,9, ,
-3, ,9, ,
-4, ,9, ,
-2, ,9, ,
-2, ,9, ,
-2, ,9, ,
-2, ,9, ,
-3, ,9, ,
-3, ,9, ,
-5, ,9, ,
-6, ,9, ,
-6, ,9, ,
-8, ,9, ,
-7, ,9, ,
-6, ,9, ,
-7, ,9, ,
-5, ,9, ,
-4, ,9, ,
-1, ,9, ,
3, ,9, ,
4, ,9, ,
10, ,9, ,
15, ,9, ,
20, ,9, ,
25, ,9, ,
35, ,9, ,
36, ,9, ,
42, ,9, ,
45, ,9, ,
54, ,9, ,
60, ,9, ,
61, ,9, ,
66, ,9, ,
74, ,9, ,
75, ,9, ,
79, ,9, ,
82, ,9, ,
87, ,9, ,
89, ,9, ,
91, ,9, ,
93, ,9, ,
98, ,9, ,
99, ,9, ,
102, ,9, ,
100, ,9, ,
104, ,9, ,
106, ,9, ,
105, ,9, ,
107, ,9, ,
108, ,9, ,
107, ,9, ,
107, ,9, ,
105, ,9, ,
104, ,9, ,
103, ,9, ,
99, ,9, ,
98, ,9, ,
92, ,9, ,
88, ,9, ,
84, ,9, ,
78, ,9, ,
66, ,9, ,
63, ,9, ,
54, ,9, ,
48, ,9, ,
35, ,9, ,
27, ,9, ,
19, ,9, ,
11, ,9, ,
-5, ,9, ,
-15, ,9, ,
-23, ,9, ,
-30, ,9, ,
-48, ,9, ,
-55, ,9, ,
-64, ,9, ,
-72, ,9, ,
-90, ,9, ,
-97, ,9, ,
-105, ,9, ,
-111, ,9, ,
-125, ,9, ,
-126, ,9, ,
-126, ,9, ,
-126, ,9, ,
-126, ,9, ,
-126, ,9, ,
-126, ,9, ,
-126, ,9, ,
-126, ,9, ,
-126, ,9, ,
-126, ,9, ,
-126, ,9, ,
-126, ,9, ,
-126, ,9, ,
-126, ,9, ,
-126, ,9, ,
-126, ,9, ,
-126, ,9, ,
-117, ,9, ,
-108, ,9, ,
-92, ,9, ,
-81, ,9, ,
-73, ,9, ,
-63, ,9, ,
-45, ,9, ,
-38, ,9, ,
-30, ,9, ,
-25, ,9, ,
-10, ,9, ,
-3, ,9, ,
2, ,9, ,
11, ,9, ,
23, ,9, ,
28, ,9, ,
35, ,9, ,
40, ,9, ,
54, ,9, ,
63, ,9, ,
70, ,9, ,
79, ,9, ,
90, ,9, ,
97, ,9, ,
104, ,9, ,
106, ,9, ,
114, ,9, ,
118, ,9, ,
119, ,9, ,
120, ,9, ,
118, ,9, ,
116, ,9, ,
114, ,9, ,
109, ,9, ,
101, ,9, ,
96, ,9, ,
88, ,9, ,
83, ,9, ,
69, ,9, ,
63, ,9, ,
56, ,9, ,
51, ,9, ,
41, ,9, ,
38, ,9, ,
32, ,9, ,
29, ,9, ,
25, ,9, ,
22, ,9, ,
19, ,9, ,
20, ,9, ,
15, ,9, ,
15, ,9, ,
14, ,9, ,
11, ,9, ,
9, ,9, ,
4, ,9, ,
1, ,9, ,
-1, ,9, ,
-9, ,9, ,
-10, ,9, ,
-16, ,9, ,
-19, ,9, ,
-25, ,9, ,
-30, ,9, ,
-31, ,9, ,
-35, ,9, ,
-37, ,9, ,
-37, ,9, ,
-37, ,9, ,
-36, ,9, ,
-35, ,9, ,
-35, ,9, ,
-34, ,9, ,
-33, ,9, ,
-29, ,9, ,
-24, ,9, ,
-24, ,9, ,
-20, ,9, ,
-15, ,9, ,
-12, ,9, ,
-10, ,9, ,
-9, ,9, ,
-6, ,9, ,
-5, ,9, ,
-5, ,9, ,
-5, ,9, ,
-4, ,9, ,
-4, ,9, ,
-5, ,9, ,
-5, ,9, ,
-6, ,9, ,
-6, ,9, ,
-7, ,9, ,
-7, ,9, ,
-8, ,9, ,
-8, ,9, ,
-9, ,9, ,
-8, ,9, ,
-7, ,9, ,
-6, ,9, ,
-7, ,9, ,
-6, ,9, ,
-5, ,9, ,
-5, ,9, ,
-4, ,9, ,
-3, ,9, ,
-2, ,9, ,
-2, ,9, ,
-2, ,9, ,
-2, ,9, ,
-3, ,9, ,
-3, ,9, ,
-5, ,9, ,
-6, ,9, ,
-8, ,9, ,
-11, ,9, ,
-13, ,9, ,
-15, ,9, ,
-18, ,9, ,
-21, ,9, ,
-24, ,9, ,
-27, ,9, ,
-32, ,9, ,
-35, ,9, ,
-35, ,9, ,
-39, ,9, ,
-41, ,9, ,
-44, ,9, ,
-46, ,9, ,
-47, ,9, ,
-51, ,9, ,
-51, ,9, ,
-52, ,9, ,
-52, ,9, ,
-53, ,9, ,
-54, ,9, ,
-54, ,9, ,
-54, ,9, ,
-54, ,9, ,
-54, ,9, ,
-54, ,9, ,
-53, ,9, ,
-51, ,9, ,
-51, ,9, ,
-49, ,9, ,
-46, ,9, ,
-45, ,9, ,
-43, ,9, ,
-40, ,9, ,
-37, ,9, ,
-32, ,9, ,
-29, ,9, ,
-25, ,9, ,
-23, ,9, ,
-14, ,9, ,
-9, ,9, ,
-5, ,9, ,
1, ,9, ,
10, ,9, ,
15, ,9, ,
20, ,9, ,
24, ,9, ,
35, ,9, ,
39, ,9, ,
42, ,9, ,
48, ,9, ,
56, ,9, ,
59, ,9, ,
63, ,9, ,
65, ,9, ,
71, ,9, ,
76, ,9, ,
77, ,9, ,
80, ,9, ,
84, ,9, ,
84, ,9, ,
88, ,9, ,
89, ,9, ,
90, ,9, ,
91, ,9, ,
90, ,9, ,
90, ,9, ,
87, ,9, ,
87, ,9, ,
86, ,9, ,
83, ,9, ,
79, ,9, ,
76, ,9, ,
73, ,9, ,
70, ,9, ,
62, ,9, ,
56, ,9, ,
52, ,9, ,
45, ,9, ,
34, ,9, ,
30, ,9, ,
22, ,9, ,
18, ,9, ,
5, ,9, ,
0, ,9, ,
-5, ,9, ,
-13, ,9, ,
-21, ,9, ,
-25, ,9, ,
-33, ,9, ,
-35, ,9, ,
-42, ,9, ,
-45, ,9, ,
-48, ,9, ,
-52, ,9, ,
-57, ,9, ,
-60, ,9, ,
-63, ,9, ,
-65, ,9, ,
-68, ,9, ,
-72, ,9, ,
-74, ,9, ,
-75, ,9, ,
-80, ,9, ,
-81, ,9, ,
-82, ,9, ,
-82, ,9, ,
-82, ,9, ,
-84, ,9, ,
-81, ,9, ,
-81, ,9, ,
-77, ,9, ,
-74, ,9, ,
-71, ,9, ,
-67, ,9, ,
-60, ,9, ,
-56, ,9, ,
-51, ,9, ,
-46, ,9, ,
-37, ,9, ,
-33, ,9, ,
-30, ,9, ,
-25, ,9, ,
-17, ,9, ,
-14, ,9, ,
-10, ,9, ,
-7, ,9, ,
-4, ,9, ,
1, ,9, ,
0, ,9, ,
2, ,9, ,
6, ,9, ,
5, ,9, ,
8, ,9, ,
8, ,9, ,
13, ,9, ,
15, ,9, ,
15, ,9, ,
18, ,9, ,
20, ,9, ,
21, ,9, ,
26, ,9, ,
25, ,9, ,
28, ,9, ,
31, ,9, ,
31, ,9, ,
32, ,9, ,
33, ,9, ,
33, ,9, ,
33, ,9, ,
32, ,9, ,
30, ,9, ,
29, ,9, ,
27, ,9, ,
26, ,9, ,
23, ,9, ,
19, ,9, ,
19, ,9, ,
16, ,9, ,
12, ,9, ,
12, ,9, ,
9, ,9, ,
9, ,9, ,
7, ,9, ,
6, ,9, ,
6, ,9, ,
5, ,9, ,
7, ,9, ,
7, ,9, ,
6, ,9, ,
7, ,9, ,
7, ,9, ,
6, ,9, ,
8, ,9, ,
9, ,9, ,
9, ,9, ,
10, ,9, ,
8, ,9, ,
10, ,9, ,
10, ,9, ,
9, ,9, ,
9, ,9, ,
8, ,9, ,
10, ,9, ,
10, ,9, ,
10, ,9, ,
10, ,9, ,
10, ,9, ,
10, ,9, ,
11, ,9, ,
10, ,9, ,
10, ,9, ,
14, ,9, ,
12, ,9, ,
15, ,9, ,
17, ,9, ,
17, ,9, ,
18, ,9, ,
19, ,9, ,
23, ,9, ,
24, ,9, ,
24, ,9, ,
25, ,9, ,
28, ,9, ,
28, ,9, ,
30, ,9, ,
30, ,9, ,
31, ,9, ,
31, ,9, ,
30, ,9, ,
30, ,9, ,
29, ,9, ,
29, ,9, ,
28, ,9, ,
26, ,9, ,
25, ,9, ,
25, ,9, ,
22, ,9, ,
23, ,9, ,
21, ,9, ,
19, ,9, ,
17, ,9, ,
18, ,9, ,
13, ,9, ,
12, ,9, ,
12, ,9, ,
10, ,9, ,
7, ,9, ,
5, ,9, ,
4, ,9, ,
1, ,9, ,
-3, ,9, ,
-4, ,9, ,
-5, ,9, ,
-8, ,9, ,
-13, ,9, ,
-15, ,9, ,
-16, ,9, ,
-19, ,9, ,
-23, ,9, ,
-25, ,9, ,
-27, ,9, ,
-30, ,9, ,
-33, ,9, ,
-34, ,9, ,
-35, ,9, ,
-37, ,9, ,
-38, ,9, ,
-38, ,9, ,
-39, ,9, ,
-39, ,9, ,
-39, ,9, ,
-39, ,9, ,
-39, ,9, ,
-38, ,9, ,
-37, ,9, ,
-36, ,9, ,
-36, ,9, ,
-35, ,9, ,
-32, ,9, ,
-31, ,9, ,
-29, ,9, ,
-29, ,9, ,
-24, ,9, ,
-21, ,9, ,
-21, ,9, ,
-19, ,9, ,
-13, ,9, ,
-12, ,9, ,
-9, ,9, ,
-7, ,9, ,
-2, ,9, ,
3, ,9, ,
6, ,9, ,
8, ,9, ,
14, ,9, ,
16, ,9, ,
20, ,9, ,
23, ,9, ,
28, ,9, ,
31, ,9, ,
30, ,9, ,
35, ,9, ,
37, ,9, ,
37, ,9, ,
40, ,9, ,
41, ,9, ,
43, ,9, ,
45, ,9, ,
45, ,9, ,
45, ,9, ,
45, ,9, ,
46, ,9, ,
46, ,9, ,
45, ,9, ,
45, ,9, ,
45, ,9, ,
44, ,9, ,
44, ,9, ,
42, ,9, ,
40, ,9, ,
41, ,9, ,
39, ,9, ,
35, ,9, ,
35, ,9, ,
34, ,9, ,
32, ,9, ,
27, ,9, ,
25, ,9, ,
23, ,9, ,
17, ,9, ,
13, ,9, ,
12, ,9, ,
8, ,9, ,
6, ,9, ,
2, ,9, ,
-3, ,9, ,
-5, ,9, ,
-7, ,9, ,
-11, ,9, ,
-11, ,9, ,
-14, ,9, ,
-15, ,9, ,
-17, ,9, ,
-18, ,9, ,
-18, ,9, ,
-18, ,9, ,
-19, ,9, ,
-19, ,9, ,
-19, ,9, ,
-19, ,9, ,
-20, ,9, ,
-20, ,9, ,
-20, ,9, ,
-20, ,9, ,
-20, ,9, ,
-20, ,9, ,
-21, ,9, ,
-20, ,9, ,
-21, ,9, ,
-20, ,9, ,
-20, ,9, ,
-20, ,9, ,
-19, ,9, ,
-17, ,9, ,
-17, ,9, ,
-16, ,9, ,
-12, ,9, ,
-12, ,9, ,
-11, ,9, ,
-9, ,9, ,
-7, ,9, ,
-5, ,9, ,
-2, ,9, ,
-1, ,9, ,
0, ,9, ,
1, ,9, ,
2, ,9, ,
3, ,9, ,
4, ,9, ,
4, ,9, ,
4, ,9, ,
4, ,9, ,
4, ,9, ,
2, ,9, ,
3, ,9, ,
2, ,9, ,
1, ,9, ,
1, ,9, ,
1, ,9, ,
0, ,9, ,
-1, ,9, ,
-1, ,9, ,
-1, ,9, ,
-1, ,9, ,
-1, ,9, ,
-1, ,9, ,
-2, ,9, ,
-1, ,9, ,
-1, ,9, ,
-3, ,9, ,
-2, ,9, ,
-3, ,9, ,
-3, ,9, ,
-3, ,9, ,
-3, ,9, ,
-3, ,9, ,
-4, ,9, ,
-5, ,9, ,
-5, ,9, ,
-7, ,9, ,
-7, ,9, ,
-8, ,9, ,
-8, ,9, ,
-9, ,9, ,
-8, ,9, ,
-9, ,9, ,
-9, ,9, ,
-10, ,9, ,
-10, ,9, ,
-9, ,9, ,
-9, ,9, ,
-8, ,9, ,
-9, ,9, ,
-7, ,9, ,
-5, ,9, ,
-6, ,9, ,
-4, ,9, ,
-4, ,9, ,
-3, ,9, ,
-1, ,9, ,
1, ,9, ,
2, ,9, ,
3, ,9, ,
2, ,9, ,
5, ,9, ,
6, ,9, ,
6, ,9, ,
7, ,9, ,
9, ,9, ,
8, ,9, ,
10, ,9, ,
10, ,9, ,
11, ,9, ,
12, ,9, ,
12, ,9, ,
13, ,9, ,
16, ,9, ,
16, ,9, ,
18, ,9, ,
17, ,9, ,
18, ,9, ,
20, ,9, ,
20, ,9, ,
22, ,9, ,
24, ,9, ,
24, ,9, ,
24, ,9, ,
24, ,9, ,
25, ,9, ,
25, ,9, ,
25, ,9, ,
25, ,9, ,
24, ,9, ,
23, ,9, ,
24, ,9, ,
22, ,9, ,
20, ,9, ,
20, ,9, ,
19, ,9, ,
18, ,9, ,
15, ,9, ,
13, ,9, ,
14, ,9, ,
10, ,9, ,
9, ,9, ,
8, ,9, ,
5, ,9, ,
4, ,9, ,
3, ,9, ,
0, ,9, ,
-1, ,9, ,
-2, ,9, ,
-6, ,9, ,
-6, ,9, ,
-8, ,9, ,
-10, ,9, ,
-13, ,9, ,
-14, ,9, ,
-13, ,9, ,
-16, ,9, ,
-18, ,9, ,
-19, ,9, ,
-22, ,9, ,
-21, ,9, ,
-24, ,9, ,
-25, ,9, ,
-25, ,9, ,
-26, ,9, ,
-27, ,9, ,
-27, ,9, ,
-27, ,9, ,
-27, ,9, ,
-27, ,9, ,
-26, ,9, ,
-27, ,9, ,
-24, ,9, ,
-24, ,9, ,
-22, ,9, ,
-22, ,9, ,
-21, ,9, ,
-19, ,9, ,
-19, ,9, ,
-17, ,9, ,
-15, ,9, ,
-14, ,9, ,
-11, ,9, ,
-11, ,9, ,
-9, ,9, ,
-7, ,9, ,
-6, ,9, ,
-4, ,9, ,
-4, ,9, ,
-1, ,9, ,
1, ,9, ,
2, ,9, ,
5, ,9, ,
8, ,9, ,
6, ,9, ,
10, ,9, ,
11, ,9, ,
