raw_data/100% Glycerol, Impulsion 2Hz, Sonde 5MHz, Rampe 0.7Hz/temp0000225.CSV

Format,1.0B,
Memory Length,10000,Memory Length,10000,
IntpDistance,0,IntpDistance,0,
Trigger Address,159,Trigger Address,159,
Trigger Level,2.720E-01,Trigger Level,2.720E-01,
Source,CH1,Source,CH2,
Vertical Units,V,Vertical Units,V,
Vertical Units Div,0,Vertical Units Div,0,
Vertical Units Extend Div,16,Vertical Units Extend Div,16,
Label,,Label,,
Probe Type,0,Probe Type,0,
Probe Ratio,1.000e+00,Probe Ratio,1.000e+00,
Vertical Scale,2.000e-01,Vertical Scale,2.000e+00,
Vertical Position,0.000e+00,Vertical Position,0.000e+00,
Horizontal Units,S,Horizontal Units,S,
Horizontal Scale,5.000E-06,Horizontal Scale,5.000E-06,
Horizontal Position,2.420E-05,Horizontal Position,2.420E-05,
Horizontal Mode,Main,Horizontal Mode,Main,
SincET Mode,Real Time,SincET Mode,Real Time,
Sampling Period,5.000e-09,Sampling Period,5.000e-09,
Horizontal Old Scale,5.000E-06,Horizontal Old Scale,5.000E-06,
Horizontal Old Position,2.420E-05,Horizontal Old Position,2.420E-05,
Firmware,V1.32,Firmware,V1.32,
Mode,Fast,Mode,Fast,
Waveform Data,,Waveform Data,,
1, ,28, ,
0, ,28, ,
2, ,28, ,
1, ,28, ,
1, ,28, ,
1, ,28, ,
1, ,28, ,
2, ,28, ,
1, ,28, ,
1, ,28, ,
2, ,28, ,
1, ,28, ,
2, ,28, ,
1, ,28, ,
1, ,27, ,
2, ,27, ,
0, ,27, ,
2, ,27, ,
2, ,28, ,
2, ,28, ,
2, ,28, ,
1, ,28, ,
3, ,28, ,
2, ,28, ,
1, ,28, ,
1, ,28, ,
2, ,28, ,
1, ,28, ,
1, ,28, ,
2, ,28, ,
1, ,28, ,
2, ,28, ,
2, ,28, ,
2, ,28, ,
2, ,28, ,
1, ,28, ,
2, ,27, ,
2, ,27, ,
1, ,28, ,
2, ,28, ,
1, ,28, ,
2, ,28, ,
1, ,28, ,
1, ,28, ,
1, ,28, ,
2, ,28, ,
1, ,28, ,
1, ,28, ,
1, ,28, ,
1, ,28, ,
2, ,28, ,
2, ,28, ,
2, ,28, ,
1, ,28, ,
0, ,28, ,
2, ,28, ,
1, ,28, ,
2, ,27, ,
2, ,27, ,
0, ,28, ,
3, ,28, ,
2, ,28, ,
1, ,28, ,
2, ,28, ,
1, ,28, ,
2, ,28, ,
2, ,28, ,
2, ,28, ,
2, ,28, ,
2, ,28, ,
1, ,28, ,
2, ,28, ,
2, ,28, ,
1, ,28, ,
2, ,28, ,
1, ,28, ,
2, ,28, ,
1, ,28, ,
1, ,28, ,
2, ,27, ,
1, ,27, ,
1, ,27, ,
2, ,28, ,
1, ,28, ,
2, ,28, ,
2, ,28, ,
2, ,28, ,
2, ,28, ,
1, ,28, ,
1, ,28, ,
2, ,28, ,
1, ,28, ,
2, ,28, ,
2, ,28, ,
2, ,28, ,
2, ,28, ,
2, ,28, ,
1, ,28, ,
1, ,28, ,
2, ,28, ,
2, ,28, ,
1, ,28, ,
0, ,28, ,
2, ,28, ,
2, ,28, ,
1, ,27, ,
2, ,27, ,
1, ,28, ,
2, ,28, ,
2, ,28, ,
1, ,28, ,
2, ,28, ,
1, ,28, ,
1, ,28, ,
2, ,27, ,
2, ,27, ,
2, ,27, ,
2, ,28, ,
2, ,28, ,
3, ,28, ,
2, ,28, ,
1, ,28, ,
2, ,28, ,
1, ,28, ,
2, ,28, ,
2, ,28, ,
0, ,28, ,
2, ,28, ,
2, ,28, ,
1, ,28, ,
1, ,28, ,
1, ,28, ,
1, ,28, ,
2, ,28, ,
1, ,28, ,
2, ,28, ,
1, ,28, ,
2, ,27, ,
2, ,27, ,
2, ,28, ,
2, ,28, ,
2, ,28, ,
2, ,28, ,
2, ,28, ,
1, ,28, ,
1, ,28, ,
2, ,28, ,
2, ,28, ,
1, ,28, ,
2, ,28, ,
2, ,28, ,
3, ,28, ,
1, ,28, ,
2, ,27, ,
2, ,27, ,
2, ,27, ,
2, ,28, ,
2, ,28, ,
1, ,28, ,
3, ,27, ,
2, ,27, ,
2, ,27, ,
3, ,27, ,
1, ,27, ,
4, ,27, ,
-1, ,28, ,
0, ,28, ,
-2, ,28, ,
17, ,28, ,
125, ,28, ,
125, ,27, ,
125, ,27, ,
125, ,27, ,
117, ,28, ,
44, ,27, ,
-20, ,27, ,
47, ,28, ,
125, ,28, ,
125, ,28, ,
125, ,28, ,
125, ,28, ,
125, ,28, ,
125, ,28, ,
125, ,28, ,
125, ,28, ,
125, ,28, ,
125, ,28, ,
125, ,28, ,
125, ,28, ,
125, ,28, ,
125, ,28, ,
125, ,27, ,
125, ,27, ,
125, ,27, ,
125, ,28, ,
125, ,28, ,
125, ,28, ,
125, ,28, ,
125, ,28, ,
125, ,28, ,
125, ,28, ,
125, ,27, ,
124, ,27, ,
124, ,28, ,
123, ,28, ,
113, ,28, ,
107, ,28, ,
103, ,28, ,
99, ,28, ,
90, ,28, ,
88, ,28, ,
83, ,28, ,
80, ,28, ,
73, ,28, ,
67, ,28, ,
66, ,28, ,
62, ,28, ,
56, ,28, ,
56, ,28, ,
51, ,28, ,
49, ,28, ,
45, ,28, ,
43, ,28, ,
41, ,28, ,
38, ,28, ,
35, ,28, ,
35, ,28, ,
33, ,28, ,
32, ,28, ,
28, ,28, ,
25, ,28, ,
25, ,28, ,
22, ,28, ,
20, ,28, ,
20, ,28, ,
17, ,28, ,
17, ,28, ,
15, ,27, ,
14, ,27, ,
14, ,28, ,
12, ,28, ,
9, ,28, ,
11, ,28, ,
9, ,28, ,
9, ,28, ,
8, ,28, ,
7, ,28, ,
7, ,28, ,
5, ,28, ,
4, ,28, ,
4, ,28, ,
4, ,28, ,
4, ,28, ,
3, ,28, ,
1, ,28, ,
3, ,28, ,
1, ,28, ,
1, ,28, ,
1, ,28, ,
0, ,27, ,
0, ,27, ,
0, ,27, ,
-1, ,28, ,
-1, ,28, ,
-1, ,28, ,
-2, ,28, ,
-2, ,28, ,
-2, ,28, ,
-1, ,27, ,
-1, ,27, ,
-3, ,28, ,
-2, ,28, ,
-4, ,28, ,
-3, ,28, ,
-3, ,28, ,
-4, ,28, ,
-4, ,28, ,
-3, ,28, ,
-4, ,28, ,
-3, ,28, ,
-4, ,28, ,
-3, ,28, ,
-3, ,28, ,
-3, ,28, ,
-3, ,28, ,
-3, ,28, ,
-4, ,28, ,
-2, ,28, ,
-2, ,28, ,
-3, ,28, ,
-2, ,27, ,
-4, ,27, ,
-3, ,27, ,
-3, ,28, ,
-4, ,28, ,
-4, ,28, ,
-4, ,28, ,
-3, ,28, ,
-2, ,28, ,
-4, ,28, ,
-3, ,28, ,
-3, ,28, ,
-2, ,28, ,
-2, ,28, ,
-3, ,28, ,
-3, ,28, ,
-2, ,28, ,
-2, ,28, ,
-2, ,28, ,
-1, ,28, ,
-2, ,28, ,
-2, ,28, ,
-3, ,28, ,
-2, ,28, ,
-1, ,28, ,
-2, ,28, ,
-2, ,28, ,
-2, ,28, ,
-3, ,28, ,
-1, ,28, ,
-2, ,28, ,
-2, ,28, ,
-1, ,28, ,
-1, ,28, ,
-1, ,28, ,
0, ,28, ,
-1, ,28, ,
-1, ,28, ,
-2, ,28, ,
0, ,28, ,
0, ,28, ,
0, ,28, ,
0, ,28, ,
0, ,28, ,
0, ,28, ,
0, ,28, ,
0, ,28, ,
-1, ,28, ,
0, ,28, ,
0, ,28, ,
0, ,28, ,
0, ,28, ,
-1, ,28, ,
1, ,28, ,
0, ,28, ,
0, ,28, ,
0, ,28, ,
0, ,28, ,
0, ,28, ,
-1, ,28, ,
-1, ,28, ,
-1, ,28, ,
-1, ,28, ,
0, ,28, ,
0, ,28, ,
0, ,28, ,
0, ,28, ,
1, ,28, ,
0, ,28, ,
0, ,28, ,
0, ,28, ,
1, ,28, ,
1, ,27, ,
0, ,27, ,
0, ,27, ,
1, ,28, ,
0, ,28, ,
2, ,27, ,
1, ,27, ,
1, ,27, ,
1, ,27, ,
1, ,28, ,
1, ,28, ,
1, ,28, ,
0, ,28, ,
2, ,28, ,
-2, ,28, ,
1, ,28, ,
1, ,28, ,
1, ,28, ,
1, ,28, ,
1, ,28, ,
0, ,28, ,
1, ,28, ,
0, ,28, ,
0, ,28, ,
1, ,28, ,
1, ,28, ,
1, ,28, ,
1, ,28, ,
0, ,28, ,
1, ,28, ,
1, ,28, ,
1, ,28, ,
1, ,28, ,
1, ,28, ,
2, ,28, ,
1, ,28, ,
1, ,28, ,
2, ,28, ,
1, ,28, ,
1, ,28, ,
1, ,28, ,
1, ,28, ,
1, ,28, ,
2, ,28, ,
1, ,28, ,
2, ,28, ,
0, ,28, ,
1, ,28, ,
2, ,28, ,
1, ,28, ,
1, ,28, ,
1, ,28, ,
1, ,28, ,
1, ,28, ,
1, ,28, ,
1, ,28, ,
2, ,28, ,
1, ,27, ,
1, ,27, ,
1, ,27, ,
1, ,28, ,
2, ,28, ,
0, ,28, ,
0, ,28, ,
1, ,28, ,
1, ,28, ,
1, ,28, ,
1, ,28, ,
1, ,28, ,
1, ,28, ,
1, ,28, ,
0, ,28, ,
2, ,28, ,
1, ,28, ,
3, ,27, ,
2, ,27, ,
1, ,28, ,
1, ,28, ,
1, ,28, ,
0, ,28, ,
0, ,28, ,
-1, ,28, ,
0, ,28, ,
0, ,28, ,
-1, ,28, ,
0, ,28, ,
-1, ,28, ,
0, ,28, ,
1, ,28, ,
1, ,28, ,
2, ,28, ,
2, ,28, ,
1, ,28, ,
2, ,28, ,
1, ,28, ,
1, ,28, ,
3, ,28, ,
0, ,28, ,
1, ,28, ,
1, ,28, ,
-1, ,28, ,
1, ,28, ,
0, ,28, ,
0, ,28, ,
2, ,28, ,
1, ,27, ,
2, ,27, ,
1, ,27, ,
1, ,28, ,
3, ,28, ,
0, ,28, ,
1, ,28, ,
2, ,28, ,
1, ,28, ,
2, ,28, ,
3, ,28, ,
1, ,28, ,
1, ,28, ,
0, ,28, ,
-1, ,28, ,
-1, ,28, ,
-1, ,28, ,
0, ,28, ,
0, ,28, ,
-1, ,28, ,
0, ,28, ,
-1, ,28, ,
1, ,28, ,
2, ,28, ,
0, ,28, ,
1, ,28, ,
1, ,28, ,
1, ,28, ,
2, ,28, ,
1, ,28, ,
1, ,28, ,
1, ,28, ,
0, ,27, ,
0, ,27, ,
0, ,27, ,
0, ,28, ,
0, ,28, ,
0, ,28, ,
-1, ,28, ,
0, ,28, ,
-1, ,28, ,
1, ,28, ,
1, ,28, ,
0, ,28, ,
2, ,28, ,
0, ,28, ,
0, ,28, ,
0, ,28, ,
-1, ,28, ,
0, ,28, ,
-2, ,28, ,
-3, ,28, ,
-4, ,28, ,
-5, ,28, ,
-6, ,28, ,
-6, ,28, ,
-8, ,28, ,
-8, ,28, ,
-8, ,28, ,
-8, ,28, ,
-7, ,28, ,
-8, ,28, ,
-9, ,28, ,
-8, ,28, ,
-10, ,28, ,
-10, ,28, ,
-10, ,28, ,
-14, ,27, ,
-13, ,27, ,
-16, ,27, ,
-18, ,28, ,
-20, ,28, ,
-24, ,28, ,
-23, ,28, ,
-26, ,28, ,
-28, ,28, ,
-28, ,28, ,
-29, ,28, ,
-29, ,28, ,
-29, ,27, ,
-29, ,27, ,
-26, ,27, ,
-25, ,28, ,
-25, ,28, ,
-25, ,27, ,
-26, ,27, ,
-28, ,27, ,
-28, ,28, ,
-29, ,28, ,
-30, ,28, ,
-31, ,28, ,
-32, ,28, ,
-31, ,28, ,
-34, ,28, ,
-32, ,28, ,
-30, ,28, ,
-30, ,28, ,
-28, ,28, ,
-23, ,28, ,
-21, ,28, ,
-17, ,28, ,
-16, ,28, ,
-12, ,28, ,
-8, ,28, ,
-7, ,28, ,
-5, ,28, ,
-5, ,28, ,
-5, ,28, ,
-5, ,28, ,
-6, ,28, ,
-7, ,28, ,
-7, ,28, ,
-7, ,28, ,
-7, ,28, ,
-6, ,28, ,
-5, ,28, ,
-3, ,28, ,
-4, ,28, ,
-1, ,28, ,
1, ,28, ,
0, ,28, ,
2, ,28, ,
1, ,28, ,
1, ,28, ,
1, ,28, ,
-1, ,28, ,
-3, ,28, ,
-3, ,28, ,
-5, ,28, ,
-6, ,28, ,
-10, ,28, ,
-11, ,28, ,
-12, ,28, ,
-13, ,28, ,
-14, ,28, ,
-14, ,27, ,
-15, ,27, ,
-13, ,28, ,
-12, ,28, ,
-13, ,28, ,
-12, ,28, ,
-13, ,28, ,
-15, ,28, ,
-14, ,27, ,
-17, ,27, ,
-18, ,27, ,
-21, ,28, ,
-23, ,28, ,
-23, ,28, ,
-26, ,28, ,
-28, ,27, ,
-26, ,27, ,
-27, ,28, ,
-25, ,28, ,
-23, ,28, ,
-23, ,28, ,
-22, ,28, ,
-21, ,28, ,
-22, ,28, ,
-20, ,28, ,
-21, ,28, ,
-21, ,28, ,
-23, ,28, ,
-24, ,28, ,
-24, ,28, ,
-26, ,28, ,
-28, ,28, ,
-29, ,27, ,
-32, ,27, ,
-31, ,28, ,
-33, ,28, ,
-35, ,28, ,
-36, ,28, ,
-35, ,28, ,
-38, ,28, ,
-38, ,28, ,
-38, ,28, ,
-38, ,28, ,
-37, ,28, ,
-38, ,27, ,
-36, ,27, ,
-37, ,28, ,
-35, ,28, ,
-32, ,28, ,
-33, ,28, ,
-31, ,27, ,
-33, ,27, ,
-34, ,28, ,
-33, ,28, ,
-34, ,28, ,
-34, ,28, ,
-34, ,28, ,
-34, ,28, ,
-32, ,28, ,
-30, ,28, ,
-30, ,28, ,
-29, ,28, ,
-27, ,28, ,
-25, ,28, ,
-25, ,28, ,
-25, ,28, ,
-25, ,28, ,
-27, ,27, ,
-28, ,27, ,
-29, ,28, ,
-30, ,28, ,
-33, ,28, ,
-33, ,28, ,
-34, ,28, ,
-33, ,28, ,
-32, ,28, ,
-32, ,28, ,
-30, ,28, ,
-30, ,28, ,
-27, ,28, ,
-27, ,28, ,
-27, ,28, ,
-25, ,28, ,
-25, ,28, ,
-24, ,28, ,
-24, ,28, ,
-24, ,28, ,
-23, ,28, ,
-23, ,28, ,
-23, ,28, ,
-21, ,28, ,
-21, ,28, ,
-20, ,28, ,
-19, ,28, ,
-19, ,28, ,
-20, ,28, ,
-18, ,28, ,
-18, ,28, ,
-17, ,28, ,
-17, ,28, ,
-19, ,28, ,
-16, ,28, ,
-17, ,28, ,
-17, ,28, ,
-15, ,28, ,
-14, ,28, ,
-13, ,28, ,
-12, ,28, ,
-12, ,28, ,
-10, ,28, ,
-10, ,28, ,
-9, ,28, ,
-9, ,28, ,
-9, ,28, ,
-6, ,28, ,
-3, ,28, ,
-5, ,28, ,
-1, ,27, ,
1, ,27, ,
3, ,27, ,
6, ,28, ,
8, ,28, ,
11, ,28, ,
15, ,28, ,
15, ,28, ,
18, ,28, ,
18, ,28, ,
20, ,28, ,
22, ,28, ,
21, ,28, ,
22, ,28, ,
22, ,28, ,
21, ,28, ,
23, ,27, ,
22, ,27, ,
22, ,27, ,
22, ,27, ,
22, ,27, ,
20, ,27, ,
18, ,28, ,
15, ,28, ,
15, ,28, ,
13, ,28, ,
10, ,28, ,
10, ,28, ,
7, ,28, ,
7, ,28, ,
2, ,28, ,
-1, ,28, ,
0, ,28, ,
-3, ,28, ,
-5, ,28, ,
-7, ,28, ,
-10, ,28, ,
-10, ,27, ,
-12, ,27, ,
-14, ,28, ,
-15, ,28, ,
-16, ,28, ,
-17, ,28, ,
-18, ,28, ,
-20, ,28, ,
-20, ,27, ,
-20, ,27, ,
-23, ,28, ,
-23, ,28, ,
-24, ,28, ,
-25, ,28, ,
-25, ,28, ,
-27, ,28, ,
-27, ,28, ,
-30, ,28, ,
-31, ,28, ,
-30, ,28, ,
-33, ,28, ,
-35, ,28, ,
-35, ,28, ,
-36, ,28, ,
-35, ,28, ,
-35, ,28, ,
-35, ,27, ,
-34, ,27, ,
-36, ,28, ,
-35, ,28, ,
-35, ,28, ,
-35, ,28, ,
-34, ,28, ,
-33, ,28, ,
-33, ,28, ,
-33, ,28, ,
-33, ,28, ,
-32, ,28, ,
-29, ,28, ,
-30, ,28, ,
-29, ,28, ,
-25, ,28, ,
-25, ,28, ,
-22, ,28, ,
-22, ,28, ,
-20, ,28, ,
-17, ,28, ,
-18, ,28, ,
-16, ,28, ,
-14, ,28, ,
-13, ,28, ,
-12, ,28, ,
-13, ,28, ,
-11, ,28, ,
-10, ,28, ,
-10, ,28, ,
-7, ,28, ,
-5, ,27, ,
-5, ,27, ,
-3, ,28, ,
-3, ,28, ,
-3, ,28, ,
0, ,27, ,
0, ,27, ,
0, ,27, ,
1, ,28, ,
0, ,28, ,
2, ,28, ,
2, ,28, ,
4, ,28, ,
6, ,28, ,
6, ,28, ,
7, ,28, ,
8, ,28, ,
8, ,28, ,
9, ,27, ,
8, ,27, ,
9, ,27, ,
10, ,28, ,
10, ,27, ,
10, ,27, ,
10, ,27, ,
8, ,28, ,
9, ,28, ,
9, ,28, ,
8, ,28, ,
9, ,27, ,
7, ,27, ,
7, ,28, ,
5, ,28, ,
4, ,28, ,
3, ,28, ,
2, ,28, ,
0, ,27, ,
1, ,27, ,
-4, ,28, ,
-4, ,28, ,
-6, ,28, ,
-8, ,27, ,
-8, ,27, ,
-10, ,27, ,
-11, ,28, ,
-12, ,28, ,
-13, ,28, ,
-15, ,28, ,
-16, ,28, ,
-19, ,28, ,
-18, ,27, ,
-21, ,27, ,
-22, ,27, ,
-21, ,28, ,
-24, ,28, ,
-24, ,28, ,
-25, ,28, ,
-26, ,28, ,
-26, ,28, ,
-26, ,28, ,
-26, ,28, ,
-25, ,28, ,
-26, ,28, ,
-25, ,28, ,
-24, ,28, ,
-23, ,28, ,
-22, ,28, ,
-24, ,28, ,
-22, ,28, ,
-20, ,28, ,
-19, ,28, ,
-19, ,28, ,
-18, ,28, ,
-17, ,27, ,
-17, ,27, ,
-17, ,28, ,
-15, ,28, ,
-15, ,28, ,
-15, ,28, ,
-15, ,27, ,
-15, ,27, ,
-15, ,28, ,
-15, ,28, ,
-15, ,28, ,
-14, ,28, ,
-14, ,27, ,
-15, ,27, ,
-15, ,27, ,
-15, ,28, ,
-16, ,27, ,
-16, ,27, ,
-17, ,28, ,
-16, ,27, ,
-16, ,27, ,
-17, ,28, ,
-16, ,28, ,
-15, ,28, ,
-17, ,28, ,
-16, ,28, ,
-16, ,28, ,
-17, ,27, ,
-15, ,27, ,
-16, ,28, ,
-15, ,28, ,
-15, ,28, ,
-16, ,28, ,
-15, ,28, ,
-17, ,28, ,
-16, ,27, ,
-16, ,27, ,
-16, ,28, ,
-16, ,28, ,
-15, ,28, ,
-16, ,28, ,
-15, ,28, ,
-16, ,28, ,
-17, ,28, ,
-16, ,27, ,
-17, ,27, ,
-16, ,27, ,
-16, ,28, ,
-19, ,28, ,
-17, ,28, ,
-17, ,28, ,
-17, ,28, ,
-17, ,28, ,
-17, ,28, ,
-17, ,28, ,
-15, ,28, ,
-16, ,28, ,
-15, ,28, ,
-15, ,28, ,
-15, ,27, ,
-13, ,27, ,
-13, ,28, ,
-13, ,28, ,
-12, ,28, ,
-12, ,27, ,
-11, ,27, ,
-11, ,27, ,
-9, ,28, ,
-8, ,28, ,
-7, ,28, ,
-5, ,28, ,
-5, ,28, ,
-5, ,28, ,
-4, ,28, ,
-4, ,28, ,
-3, ,28, ,
-1, ,28, ,
-2, ,28, ,
0, ,28, ,
0, ,28, ,
0, ,28, ,
0, ,28, ,
0, ,28, ,
0, ,28, ,
1, ,28, ,
0, ,28, ,
1, ,28, ,
2, ,28, ,
1, ,28, ,
2, ,28, ,
1, ,28, ,
2, ,28, ,
1, ,28, ,
1, ,28, ,
1, ,28, ,
1, ,28, ,
0, ,27, ,
0, ,27, ,
-1, ,28, ,
-1, ,28, ,
-1, ,28, ,
-2, ,28, ,
-1, ,27, ,
-3, ,27, ,
-3, ,28, ,
-3, ,28, ,
-5, ,28, ,
-6, ,28, ,
-5, ,28, ,
-7, ,28, ,
-7, ,28, ,
-8, ,28, ,
-10, ,28, ,
-9, ,28, ,
-12, ,28, ,
-13, ,28, ,
-13, ,28, ,
-14, ,28, ,
-14, ,28, ,
-14, ,28, ,
-15, ,28, ,
-15, ,27, ,
-16, ,27, ,
-16, ,27, ,
-15, ,27, ,
-16, ,27, ,
-15, ,27, ,
-14, ,27, ,
-15, ,27, ,
-13, ,27, ,
-13, ,27, ,
-10, ,28, ,
-9, ,28, ,
-10, ,28, ,
-8, ,28, ,
-7, ,28, ,
-6, ,28, ,
-6, ,28, ,
-6, ,27, ,
-6, ,27, ,
-5, ,28, ,
-5, ,28, ,
-5, ,28, ,
-5, ,28, ,
-5, ,27, ,
-5, ,27, ,
-6, ,28, ,
-7, ,27, ,
-5, ,27, ,
-5, ,27, ,
-5, ,27, ,
-6, ,28, ,
-7, ,28, ,
-7, ,28, ,
-8, ,28, ,
-7, ,28, ,
-6, ,28, ,
-7, ,28, ,
-6, ,28, ,
-7, ,28, ,
-7, ,28, ,
-6, ,28, ,
-6, ,28, ,
-5, ,28, ,
-4, ,28, ,
-4, ,28, ,
-3, ,28, ,
-4, ,28, ,
-3, ,28, ,
-3, ,27, ,
-3, ,27, ,
-3, ,27, ,
-2, ,27, ,
-3, ,28, ,
-3, ,28, ,
-3, ,28, ,
-4, ,28, ,
-2, ,28, ,
-5, ,28, ,
-3, ,28, ,
-3, ,28, ,
-4, ,28, ,
-2, ,28, ,
-3, ,28, ,
-5, ,28, ,
-4, ,28, ,
-4, ,28, ,
-5, ,28, ,
-5, ,28, ,
-5, ,28, ,
-6, ,28, ,
-5, ,28, ,
-6, ,28, ,
-6, ,28, ,
-7, ,28, ,
-6, ,28, ,
-4, ,27, ,
-5, ,27, ,
-4, ,27, ,
-4, ,28, ,
-5, ,28, ,
-3, ,28, ,
-3, ,28, ,
-3, ,28, ,
-2, ,28, ,
-2, ,28, ,
-1, ,28, ,
-1, ,28, ,
0, ,28, ,
0, ,28, ,
0, ,28, ,
2, ,27, ,
2, ,27, ,
2, ,28, ,
4, ,28, ,
4, ,28, ,
3, ,28, ,
4, ,28, ,
3, ,28, ,
2, ,28, ,
4, ,28, ,
2, ,28, ,
2, ,27, ,
2, ,27, ,
1, ,28, ,
2, ,28, ,
1, ,28, ,
1, ,27, ,
1, ,27, ,
0, ,28, ,
0, ,28, ,
-1, ,28, ,
-2, ,28, ,
-1, ,28, ,
-2, ,28, ,
-3, ,28, ,
-3, ,28, ,
-3, ,28, ,
-3, ,28, ,
-2, ,28, ,
-4, ,28, ,
-3, ,28, ,
-5, ,28, ,
-3, ,28, ,
-3, ,28, ,
-4, ,28, ,
-2, ,28, ,
-2, ,28, ,
-3, ,28, ,
-1, ,28, ,
-2, ,28, ,
-2, ,28, ,
-1, ,28, ,
-1, ,28, ,
0, ,28, ,
0, ,28, ,
0, ,28, ,
0, ,28, ,
0, ,28, ,
2, ,28, ,
2, ,28, ,
3, ,28, ,
4, ,28, ,
4, ,28, ,
3, ,28, ,
4, ,28, ,
4, ,28, ,
4, ,28, ,
4, ,27, ,
3, ,27, ,
3, ,27, ,
3, ,28, ,
3, ,28, ,
3, ,28, ,
2, ,28, ,
3, ,27, ,
3, ,27, ,
2, ,28, ,
3, ,28, ,
3, ,28, ,
2, ,27, ,
2, ,27, ,
2, ,28, ,
1, ,28, ,
3, ,28, ,
2, ,28, ,
2, ,28, ,
3, ,28, ,
3, ,28, ,
3, ,28, ,
2, ,28, ,
1, ,28, ,
3, ,28, ,
3, ,28, ,
3, ,28, ,
4, ,28, ,
3, ,28, ,
5, ,28, ,
4, ,28, ,
3, ,28, ,
4, ,28, ,
3, ,28, ,
4, ,28, ,
4, ,28, ,
3, ,27, ,
4, ,27, ,
3, ,27, ,
2, ,28, ,
2, ,28, ,
2, ,28, ,
2, ,28, ,
3, ,28, ,
1, ,28, ,
2, ,28, ,
1, ,28, ,
1, ,28, ,
2, ,28, ,
1, ,28, ,
2, ,28, ,
0, ,28, ,
0, ,28, ,
0, ,28, ,
0, ,28, ,
0, ,28, ,
0, ,27, ,
-1, ,27, ,
0, ,27, ,
0, ,27, ,
0, ,28, ,
0, ,28, ,
-1, ,28, ,
-2, ,28, ,
0, ,28, ,
-1, ,28, ,
-1, ,28, ,
-1, ,28, ,
-1, ,28, ,
-1, ,28, ,
-2, ,28, ,
-4, ,28, ,
-1, ,28, ,
-2, ,28, ,
-1, ,28, ,
-1, ,28, ,
-2, ,28, ,
-1, ,28, ,
-2, ,28, ,
-1, ,28, ,
-1, ,28, ,
-2, ,28, ,
-2, ,28, ,
-1, ,28, ,
-2, ,28, ,
-1, ,28, ,
-2, ,28, ,
-3, ,28, ,
-3, ,28, ,
-4, ,28, ,
-3, ,28, ,
-3, ,28, ,
-4, ,28, ,
-4, ,28, ,
-5, ,28, ,
-5, ,28, ,
-5, ,28, ,
-5, ,28, ,
-6, ,28, ,
-6, ,28, ,
-8, ,28, ,
-7, ,28, ,
-9, ,28, ,
-9, ,28, ,
-8, ,28, ,
-11, ,28, ,
-10, ,28, ,
-10, ,28, ,
-10, ,28, ,
-10, ,28, ,
-10, ,28, ,
-11, ,28, ,
-10, ,28, ,
-10, ,28, ,
-10, ,28, ,
-10, ,28, ,
-10, ,28, ,
-9, ,28, ,
-9, ,28, ,
-8, ,28, ,
-6, ,28, ,
-7, ,28, ,
-5, ,27, ,
-4, ,27, ,
-5, ,28, ,
-3, ,28, ,
-3, ,28, ,
-2, ,28, ,
0, ,28, ,
0, ,28, ,
0, ,28, ,
0, ,28, ,
0, ,28, ,
0, ,28, ,
-1, ,28, ,
-1, ,28, ,
0, ,28, ,
-1, ,28, ,
0, ,28, ,
-2, ,28, ,
-2, ,28, ,
-2, ,28, ,
-3, ,28, ,
-3, ,28, ,
-2, ,28, ,
-4, ,28, ,
-4, ,28, ,
-4, ,28, ,
-4, ,27, ,
-4, ,27, ,
-5, ,27, ,
-5, ,28, ,
-6, ,28, ,
-7, ,28, ,
-6, ,28, ,
-6, ,28, ,
-6, ,28, ,
-5, ,28, ,
-7, ,28, ,
-7, ,28, ,
-6, ,28, ,
-6, ,28, ,
-7, ,28, ,
-7, ,28, ,
-7, ,28, ,
-7, ,28, ,
-7, ,28, ,
-8, ,28, ,
-7, ,28, ,
-9, ,28, ,
-7, ,27, ,
-7, ,27, ,
-9, ,28, ,
-5, ,28, ,
-8, ,28, ,
-8, ,28, ,
-8, ,28, ,
-8, ,28, ,
-6, ,28, ,
-5, ,28, ,
-5, ,28, ,
-4, ,28, ,
-4, ,28, ,
-2, ,28, ,
-1, ,28, ,
-1, ,28, ,
0, ,28, ,
3, ,28, ,
2, ,28, ,
4, ,28, ,
4, ,28, ,
4, ,28, ,
6, ,28, ,
6, ,28, ,
7, ,28, ,
8, ,28, ,
8, ,28, ,
9, ,28, ,
7, ,28, ,
7, ,28, ,
7, ,28, ,
6, ,28, ,
7, ,28, ,
5, ,28, ,
4, ,28, ,
4, ,28, ,
3, ,28, ,
3, ,28, ,
2, ,28, ,
2, ,28, ,
1, ,28, ,
0, ,28, ,
-1, ,28, ,
-1, ,28, ,
-1, ,28, ,
-2, ,28, ,
-3, ,28, ,
-3, ,28, ,
-4, ,28, ,
-2, ,28, ,
-3, ,28, ,
-2, ,28, ,
-2, ,28, ,
-2, ,28, ,
-1, ,28, ,
-1, ,28, ,
-1, ,28, ,
0, ,28, ,
0, ,28, ,
0, ,28, ,
0, ,28, ,
0, ,28, ,
1, ,27, ,
0, ,27, ,
1, ,28, ,
1, ,28, ,
0, ,28, ,
1, ,28, ,
1, ,28, ,
0, ,28, ,
2, ,28, ,
0, ,28, ,
0, ,28, ,
0, ,28, ,
-1, ,28, ,
0, ,28, ,
-1, ,28, ,
-1, ,28, ,
-1, ,28, ,
-2, ,28, ,
-1, ,28, ,
-2, ,28, ,
-2, ,28, ,
-2, ,28, ,
-2, ,28, ,
-2, ,28, ,
-1, ,28, ,
-1, ,28, ,
-1, ,28, ,
-1, ,28, ,
-2, ,28, ,
-1, ,28, ,
-2, ,28, ,
-2, ,28, ,
-2, ,28, ,
-2, ,28, ,
-1, ,28, ,
-1, ,28, ,
-2, ,28, ,
0, ,28, ,
0, ,28, ,
-1, ,28, ,
0, ,28, ,
-1, ,28, ,
0, ,28, ,
-1, ,28, ,
-1, ,28, ,
-1, ,28, ,
-1, ,28, ,
-1, ,28, ,
-1, ,28, ,
-1, ,28, ,
-1, ,28, ,
-1, ,28, ,
-2, ,28, ,
-2, ,28, ,
-2, ,28, ,
-2, ,28, ,
-1, ,28, ,
-2, ,28, ,
-1, ,28, ,
-1, ,28, ,
-2, ,28, ,
-1, ,28, ,
-2, ,28, ,
-2, ,28, ,
-1, ,28, ,
-2, ,28, ,
-1, ,27, ,
-1, ,27, ,
-2, ,28, ,
-1, ,27, ,
-2, ,27, ,
-2, ,27, ,
-1, ,28, ,
-1, ,28, ,
-1, ,28, ,
0, ,28, ,
-1, ,27, ,
0, ,27, ,
-1, ,28, ,
-2, ,28, ,
-1, ,28, ,
-1, ,28, ,
-1, ,28, ,
-1, ,28, ,
-2, ,28, ,
0, ,28, ,
-1, ,28, ,
-2, ,28, ,
-1, ,27, ,
-1, ,27, ,
-1, ,27, ,
-2, ,28, ,
-1, ,27, ,
-1, ,27, ,
-2, ,27, ,
-2, ,27, ,
-1, ,28, ,
-3, ,28, ,
-1, ,28, ,
-1, ,28, ,
-2, ,28, ,
-1, ,28, ,
-2, ,28, ,
-2, ,28, ,
-1, ,28, ,
-1, ,28, ,
-1, ,28, ,
-1, ,28, ,
-2, ,28, ,
-1, ,28, ,
-2, ,28, ,
-1, ,27, ,
0, ,27, ,
-2, ,28, ,
0, ,28, ,
0, ,28, ,
-1, ,28, ,
0, ,28, ,
-1, ,28, ,
1, ,28, ,
1, ,28, ,
0, ,28, ,
1, ,28, ,
1, ,28, ,
1, ,28, ,
1, ,28, ,
1, ,28, ,
1, ,28, ,
1, ,28, ,
1, ,28, ,
1, ,28, ,
1, ,28, ,
0, ,28, ,
2, ,28, ,
0, ,28, ,
0, ,27, ,
1, ,27, ,
0, ,28, ,
0, ,28, ,
-1, ,28, ,
-2, ,28, ,
-1, ,28, ,
-1, ,28, ,
-1, ,28, ,
-2, ,28, ,
-2, ,28, ,
-1, ,28, ,
-1, ,28, ,
-2, ,28, ,
-1, ,27, ,
-1, ,27, ,
-1, ,27, ,
-1, ,28, ,
-1, ,28, ,
0, ,28, ,
1, ,28, ,
0, ,28, ,
1, ,28, ,
0, ,28, ,
1, ,28, ,
1, ,28, ,
0, ,28, ,
1, ,28, ,
1, ,28, ,
0, ,28, ,
1, ,28, ,
0, ,28, ,
1, ,28, ,
2, ,28, ,
1, ,28, ,
2, ,28, ,
2, ,28, ,
1, ,28, ,
2, ,28, ,
2, ,28, ,
2, ,28, ,
2, ,27, ,
2, ,27, ,
2, ,28, ,
2, ,28, ,
2, ,28, ,
1, ,28, ,
2, ,28, ,
1, ,28, ,
1, ,28, ,
0, ,28, ,
2, ,28, ,
2, ,28, ,
1, ,28, ,
2, ,28, ,
1, ,28, ,
1, ,28, ,
2, ,28, ,
0, ,28, ,
2, ,28, ,
2, ,28, ,
0, ,28, ,
1, ,28, ,
2, ,28, ,
1, ,28, ,
3, ,28, ,
2, ,28, ,
2, ,28, ,
2, ,28, ,
2, ,28, ,
4, ,28, ,
2, ,28, ,
3, ,28, ,
4, ,28, ,
2, ,28, ,
5, ,28, ,
5, ,28, ,
5, ,28, ,
5, ,28, ,
4, ,28, ,
4, ,28, ,
4, ,28, ,
4, ,28, ,
4, ,28, ,
4, ,28, ,
4, ,28, ,
4, ,28, ,
3, ,28, ,
4, ,28, ,
4, ,28, ,
3, ,28, ,
4, ,28, ,
5, ,28, ,
3, ,28, ,
5, ,28, ,
4, ,28, ,
2, ,28, ,
4, ,28, ,
2, ,28, ,
3, ,28, ,
3, ,28, ,
1, ,28, ,
2, ,28, ,
0, ,28, ,
1, ,28, ,
2, ,28, ,
0, ,28, ,
1, ,28, ,
1, ,28, ,
0, ,28, ,
0, ,28, ,
0, ,28, ,
0, ,28, ,
0, ,28, ,
-1, ,28, ,
-1, ,28, ,
0, ,28, ,
-1, ,28, ,
0, ,28, ,
-2, ,28, ,
-1, ,28, ,
0, ,28, ,
-1, ,28, ,
0, ,28, ,
-1, ,28, ,
-1, ,28, ,
0, ,28, ,
-1, ,27, ,
0, ,27, ,
0, ,28, ,
0, ,28, ,
0, ,28, ,
0, ,28, ,
0, ,28, ,
0, ,28, ,
0, ,28, ,
0, ,28, ,
0, ,28, ,
0, ,28, ,
1, ,28, ,
1, ,28, ,
0, ,28, ,
1, ,28, ,
1, ,28, ,
1, ,28, ,
2, ,28, ,
1, ,28, ,
2, ,28, ,
1, ,28, ,
1, ,28, ,
1, ,28, ,
0, ,28, ,
1, ,28, ,
1, ,27, ,
1, ,27, ,
1, ,27, ,
2, ,28, ,
1, ,28, ,
1, ,28, ,
0, ,28, ,
0, ,28, ,
1, ,28, ,
0, ,28, ,
0, ,28, ,
1, ,28, ,
0, ,28, ,
1, ,28, ,
-2, ,28, ,
1, ,28, ,
1, ,28, ,
0, ,28, ,
1, ,28, ,
1, ,28, ,
0, ,28, ,
2, ,28, ,
0, ,28, ,
0, ,28, ,
1, ,28, ,
0, ,28, ,
0, ,28, ,
0, ,28, ,
0, ,28, ,
0, ,28, ,
0, ,28, ,
-1, ,28, ,
-1, ,28, ,
-2, ,28, ,
-1, ,28, ,
-1, ,27, ,
-2, ,27, ,
-2, ,28, ,
-3, ,28, ,
-3, ,28, ,
-2, ,28, ,
-3, ,27, ,
-2, ,27, ,
-3, ,27, ,
-3, ,28, ,
-3, ,28, ,
-3, ,28, ,
-3, ,28, ,
-3, ,28, ,
-3, ,28, ,
-3, ,28, ,
-2, ,28, ,
-3, ,28, ,
-1, ,28, ,
-3, ,28, ,
-3, ,28, ,
-2, ,28, ,
-3, ,28, ,
-2, ,28, ,
-1, ,28, ,
-2, ,28, ,
-1, ,28, ,
-2, ,28, ,
-2, ,28, ,
0, ,27, ,
-2, ,27, ,
0, ,28, ,
-1, ,28, ,
-2, ,28, ,
0, ,28, ,
-1, ,28, ,
0, ,28, ,
0, ,27, ,
0, ,27, ,
0, ,27, ,
1, ,28, ,
1, ,28, ,
1, ,28, ,
0, ,28, ,
0, ,28, ,
1, ,28, ,
0, ,28, ,
0, ,28, ,
0, ,28, ,
-1, ,28, ,
