raw_data/100% Glycerol, Impulsion 2Hz, Sonde 5MHz, Rampe 0.7Hz/temp0000297.CSV

Format,1.0B,
Memory Length,10000,Memory Length,10000,
IntpDistance,0,IntpDistance,0,
Trigger Address,159,Trigger Address,159,
Trigger Level,2.720E-01,Trigger Level,2.720E-01,
Source,CH1,Source,CH2,
Vertical Units,V,Vertical Units,V,
Vertical Units Div,0,Vertical Units Div,0,
Vertical Units Extend Div,16,Vertical Units Extend Div,16,
Label,,Label,,
Probe Type,0,Probe Type,0,
Probe Ratio,1.000e+00,Probe Ratio,1.000e+00,
Vertical Scale,2.000e-01,Vertical Scale,2.000e+00,
Vertical Position,0.000e+00,Vertical Position,0.000e+00,
Horizontal Units,S,Horizontal Units,S,
Horizontal Scale,5.000E-06,Horizontal Scale,5.000E-06,
Horizontal Position,2.420E-05,Horizontal Position,2.420E-05,
Horizontal Mode,Main,Horizontal Mode,Main,
SincET Mode,Real Time,SincET Mode,Real Time,
Sampling Period,5.000e-09,Sampling Period,5.000e-09,
Horizontal Old Scale,5.000E-06,Horizontal Old Scale,5.000E-06,
Horizontal Old Position,2.420E-05,Horizontal Old Position,2.420E-05,
Firmware,V1.32,Firmware,V1.32,
Mode,Fast,Mode,Fast,
Waveform Data,,Waveform Data,,
1, ,18, ,
1, ,18, ,
0, ,18, ,
2, ,18, ,
1, ,17, ,
2, ,17, ,
2, ,18, ,
1, ,18, ,
2, ,18, ,
1, ,17, ,
0, ,17, ,
1, ,18, ,
0, ,18, ,
2, ,18, ,
1, ,18, ,
2, ,18, ,
2, ,18, ,
1, ,18, ,
2, ,18, ,
1, ,18, ,
1, ,18, ,
2, ,18, ,
2, ,18, ,
1, ,18, ,
1, ,18, ,
1, ,18, ,
1, ,18, ,
2, ,18, ,
0, ,18, ,
1, ,18, ,
1, ,18, ,
1, ,18, ,
1, ,18, ,
0, ,18, ,
0, ,18, ,
1, ,18, ,
1, ,18, ,
2, ,18, ,
2, ,18, ,
2, ,18, ,
2, ,18, ,
1, ,18, ,
1, ,18, ,
1, ,18, ,
1, ,18, ,
2, ,18, ,
2, ,18, ,
2, ,18, ,
2, ,18, ,
2, ,18, ,
0, ,18, ,
1, ,18, ,
1, ,18, ,
1, ,18, ,
1, ,18, ,
1, ,18, ,
1, ,18, ,
1, ,18, ,
1, ,18, ,
1, ,18, ,
1, ,18, ,
1, ,18, ,
1, ,18, ,
1, ,18, ,
2, ,18, ,
1, ,18, ,
2, ,17, ,
2, ,17, ,
1, ,17, ,
2, ,18, ,
2, ,18, ,
1, ,17, ,
2, ,17, ,
1, ,18, ,
1, ,18, ,
1, ,18, ,
1, ,18, ,
1, ,18, ,
1, ,18, ,
0, ,18, ,
1, ,18, ,
1, ,18, ,
1, ,18, ,
2, ,18, ,
1, ,17, ,
1, ,17, ,
1, ,18, ,
1, ,18, ,
1, ,18, ,
1, ,18, ,
1, ,18, ,
1, ,18, ,
1, ,18, ,
2, ,18, ,
1, ,18, ,
1, ,18, ,
1, ,18, ,
1, ,18, ,
0, ,18, ,
1, ,18, ,
1, ,18, ,
2, ,18, ,
2, ,18, ,
1, ,18, ,
2, ,18, ,
0, ,18, ,
2, ,18, ,
1, ,18, ,
1, ,18, ,
2, ,17, ,
2, ,17, ,
1, ,17, ,
2, ,18, ,
1, ,18, ,
1, ,18, ,
2, ,18, ,
1, ,18, ,
2, ,18, ,
1, ,18, ,
1, ,18, ,
1, ,18, ,
1, ,18, ,
1, ,18, ,
2, ,18, ,
1, ,18, ,
1, ,18, ,
1, ,18, ,
1, ,18, ,
2, ,18, ,
1, ,18, ,
0, ,18, ,
1, ,18, ,
1, ,18, ,
2, ,18, ,
2, ,18, ,
1, ,17, ,
1, ,17, ,
0, ,18, ,
2, ,18, ,
2, ,18, ,
2, ,18, ,
2, ,17, ,
1, ,17, ,
1, ,17, ,
1, ,18, ,
1, ,17, ,
1, ,17, ,
0, ,18, ,
0, ,17, ,
0, ,17, ,
1, ,18, ,
1, ,17, ,
1, ,17, ,
1, ,18, ,
1, ,18, ,
2, ,18, ,
2, ,17, ,
2, ,17, ,
2, ,18, ,
1, ,18, ,
2, ,18, ,
1, ,18, ,
0, ,18, ,
0, ,18, ,
-1, ,18, ,
-3, ,18, ,
-3, ,18, ,
10, ,18, ,
52, ,18, ,
125, ,18, ,
125, ,18, ,
125, ,18, ,
123, ,18, ,
118, ,18, ,
-18, ,18, ,
25, ,18, ,
125, ,18, ,
125, ,18, ,
125, ,18, ,
125, ,18, ,
125, ,18, ,
125, ,18, ,
125, ,18, ,
125, ,18, ,
125, ,18, ,
125, ,18, ,
125, ,18, ,
125, ,18, ,
125, ,17, ,
125, ,17, ,
125, ,18, ,
125, ,18, ,
125, ,18, ,
125, ,18, ,
125, ,18, ,
125, ,18, ,
125, ,18, ,
125, ,18, ,
125, ,18, ,
125, ,18, ,
125, ,18, ,
125, ,17, ,
124, ,17, ,
123, ,18, ,
117, ,18, ,
113, ,18, ,
104, ,18, ,
99, ,18, ,
98, ,18, ,
91, ,17, ,
84, ,17, ,
79, ,18, ,
75, ,18, ,
74, ,18, ,
66, ,18, ,
63, ,18, ,
60, ,18, ,
56, ,18, ,
52, ,18, ,
51, ,18, ,
47, ,18, ,
44, ,18, ,
41, ,18, ,
38, ,18, ,
38, ,18, ,
35, ,17, ,
32, ,17, ,
31, ,18, ,
29, ,18, ,
29, ,18, ,
25, ,18, ,
23, ,18, ,
22, ,18, ,
20, ,18, ,
19, ,18, ,
17, ,18, ,
16, ,18, ,
15, ,17, ,
14, ,17, ,
12, ,17, ,
10, ,18, ,
10, ,17, ,
8, ,17, ,
9, ,18, ,
6, ,18, ,
7, ,18, ,
6, ,18, ,
5, ,18, ,
6, ,18, ,
4, ,18, ,
3, ,18, ,
3, ,18, ,
2, ,18, ,
2, ,17, ,
1, ,17, ,
0, ,17, ,
2, ,17, ,
0, ,18, ,
0, ,18, ,
0, ,18, ,
-1, ,18, ,
-1, ,18, ,
-1, ,18, ,
-1, ,18, ,
-1, ,18, ,
-3, ,18, ,
-3, ,18, ,
-2, ,18, ,
-3, ,18, ,
-3, ,18, ,
-3, ,18, ,
-3, ,18, ,
-3, ,18, ,
-4, ,17, ,
-3, ,17, ,
-3, ,17, ,
-4, ,18, ,
-3, ,18, ,
-3, ,18, ,
-3, ,18, ,
-3, ,18, ,
-4, ,18, ,
-4, ,18, ,
-4, ,18, ,
-4, ,18, ,
-3, ,18, ,
-3, ,18, ,
-4, ,17, ,
-4, ,17, ,
-3, ,18, ,
-4, ,18, ,
-3, ,18, ,
-3, ,18, ,
-3, ,18, ,
-2, ,18, ,
-3, ,18, ,
-3, ,18, ,
-4, ,18, ,
-4, ,18, ,
-3, ,18, ,
-4, ,18, ,
-3, ,18, ,
-4, ,18, ,
-4, ,18, ,
-3, ,18, ,
-2, ,18, ,
-3, ,18, ,
-3, ,18, ,
-3, ,18, ,
-2, ,18, ,
-2, ,18, ,
-2, ,18, ,
-2, ,18, ,
-2, ,18, ,
-1, ,18, ,
-1, ,18, ,
-2, ,18, ,
-2, ,18, ,
-1, ,18, ,
-2, ,18, ,
-1, ,18, ,
-1, ,18, ,
-2, ,18, ,
-1, ,18, ,
-2, ,18, ,
-1, ,18, ,
-1, ,18, ,
-1, ,18, ,
-1, ,18, ,
-2, ,18, ,
-1, ,18, ,
-2, ,18, ,
0, ,18, ,
0, ,17, ,
0, ,17, ,
0, ,17, ,
0, ,17, ,
0, ,18, ,
-1, ,18, ,
0, ,18, ,
0, ,18, ,
0, ,18, ,
0, ,18, ,
0, ,18, ,
0, ,18, ,
-1, ,18, ,
-1, ,17, ,
0, ,17, ,
-1, ,17, ,
1, ,17, ,
0, ,18, ,
0, ,18, ,
0, ,18, ,
0, ,18, ,
0, ,18, ,
1, ,18, ,
1, ,18, ,
1, ,18, ,
0, ,18, ,
0, ,17, ,
0, ,17, ,
0, ,17, ,
0, ,17, ,
1, ,18, ,
1, ,18, ,
1, ,18, ,
1, ,18, ,
0, ,18, ,
0, ,18, ,
0, ,17, ,
0, ,17, ,
1, ,17, ,
0, ,17, ,
0, ,18, ,
1, ,18, ,
0, ,17, ,
0, ,17, ,
0, ,18, ,
0, ,18, ,
1, ,18, ,
0, ,18, ,
1, ,17, ,
1, ,17, ,
1, ,17, ,
1, ,18, ,
0, ,18, ,
0, ,17, ,
1, ,17, ,
0, ,17, ,
0, ,18, ,
1, ,18, ,
0, ,17, ,
2, ,17, ,
0, ,18, ,
2, ,18, ,
2, ,18, ,
0, ,18, ,
0, ,18, ,
1, ,18, ,
0, ,18, ,
1, ,18, ,
0, ,18, ,
0, ,18, ,
1, ,18, ,
0, ,18, ,
0, ,18, ,
1, ,18, ,
1, ,18, ,
1, ,18, ,
1, ,18, ,
1, ,18, ,
1, ,18, ,
0, ,18, ,
1, ,18, ,
1, ,18, ,
1, ,18, ,
2, ,18, ,
0, ,18, ,
1, ,18, ,
1, ,18, ,
1, ,18, ,
1, ,18, ,
0, ,18, ,
0, ,18, ,
0, ,18, ,
-1, ,18, ,
0, ,18, ,
1, ,18, ,
0, ,18, ,
1, ,17, ,
1, ,17, ,
1, ,17, ,
1, ,18, ,
0, ,18, ,
0, ,17, ,
0, ,17, ,
0, ,17, ,
1, ,18, ,
0, ,18, ,
0, ,18, ,
0, ,18, ,
0, ,18, ,
-1, ,18, ,
-1, ,18, ,
-2, ,17, ,
-1, ,17, ,
-1, ,18, ,
-2, ,18, ,
0, ,18, ,
0, ,17, ,
0, ,17, ,
0, ,18, ,
0, ,18, ,
1, ,18, ,
1, ,18, ,
1, ,18, ,
1, ,18, ,
2, ,18, ,
2, ,18, ,
1, ,18, ,
0, ,18, ,
1, ,18, ,
1, ,18, ,
-2, ,18, ,
2, ,18, ,
1, ,17, ,
1, ,17, ,
1, ,18, ,
0, ,18, ,
0, ,18, ,
1, ,18, ,
1, ,18, ,
3, ,18, ,
1, ,18, ,
1, ,18, ,
1, ,18, ,
1, ,18, ,
1, ,18, ,
1, ,18, ,
0, ,18, ,
0, ,18, ,
-1, ,18, ,
-1, ,18, ,
-1, ,18, ,
-1, ,18, ,
-1, ,18, ,
0, ,18, ,
-1, ,18, ,
0, ,18, ,
0, ,18, ,
0, ,18, ,
1, ,18, ,
0, ,17, ,
2, ,17, ,
2, ,17, ,
1, ,17, ,
2, ,18, ,
1, ,18, ,
0, ,18, ,
1, ,18, ,
0, ,18, ,
1, ,18, ,
0, ,18, ,
0, ,17, ,
0, ,17, ,
0, ,18, ,
1, ,17, ,
1, ,17, ,
1, ,17, ,
1, ,18, ,
1, ,18, ,
0, ,18, ,
2, ,18, ,
0, ,18, ,
0, ,18, ,
0, ,18, ,
-1, ,18, ,
-3, ,18, ,
-3, ,18, ,
-6, ,17, ,
-5, ,17, ,
-7, ,17, ,
-8, ,17, ,
-9, ,18, ,
-10, ,18, ,
-9, ,18, ,
-8, ,18, ,
-10, ,18, ,
-10, ,18, ,
-10, ,17, ,
-11, ,17, ,
-11, ,18, ,
-13, ,18, ,
-14, ,18, ,
-15, ,18, ,
-18, ,18, ,
-18, ,17, ,
-21, ,17, ,
-25, ,17, ,
-25, ,17, ,
-27, ,17, ,
-28, ,17, ,
-28, ,18, ,
-27, ,18, ,
-27, ,18, ,
-27, ,17, ,
-27, ,17, ,
-25, ,18, ,
-23, ,18, ,
-22, ,18, ,
-21, ,18, ,
-22, ,18, ,
-22, ,18, ,
-23, ,18, ,
-25, ,18, ,
-25, ,18, ,
-28, ,18, ,
-29, ,18, ,
-30, ,17, ,
-32, ,17, ,
-32, ,17, ,
-31, ,18, ,
-30, ,18, ,
-29, ,18, ,
-28, ,18, ,
-25, ,18, ,
-20, ,18, ,
-18, ,18, ,
-14, ,18, ,
-15, ,18, ,
-9, ,17, ,
-9, ,17, ,
-9, ,17, ,
-8, ,18, ,
-8, ,18, ,
-10, ,18, ,
-10, ,18, ,
-11, ,18, ,
-12, ,18, ,
-10, ,18, ,
-10, ,18, ,
-10, ,18, ,
-9, ,18, ,
-7, ,18, ,
-6, ,18, ,
-5, ,18, ,
-2, ,18, ,
-2, ,18, ,
-2, ,18, ,
-1, ,18, ,
-2, ,18, ,
-3, ,18, ,
-3, ,18, ,
-5, ,18, ,
-8, ,18, ,
-10, ,18, ,
-10, ,18, ,
-11, ,18, ,
-14, ,18, ,
-14, ,18, ,
-14, ,18, ,
-14, ,18, ,
-13, ,18, ,
-11, ,18, ,
-10, ,18, ,
-9, ,18, ,
-6, ,18, ,
-7, ,18, ,
-7, ,18, ,
-8, ,18, ,
-9, ,18, ,
-10, ,18, ,
-12, ,18, ,
-13, ,18, ,
-16, ,18, ,
-19, ,18, ,
-19, ,18, ,
-21, ,18, ,
-22, ,18, ,
-21, ,18, ,
-23, ,18, ,
-22, ,17, ,
-22, ,17, ,
-24, ,17, ,
-24, ,18, ,
-25, ,18, ,
-28, ,18, ,
-28, ,18, ,
-31, ,18, ,
-31, ,18, ,
-35, ,18, ,
-36, ,18, ,
-36, ,18, ,
-39, ,18, ,
-40, ,18, ,
-39, ,18, ,
-41, ,18, ,
-40, ,18, ,
-40, ,18, ,
-40, ,18, ,
-38, ,18, ,
-38, ,18, ,
-36, ,18, ,
-36, ,18, ,
-34, ,18, ,
-33, ,18, ,
-29, ,18, ,
-28, ,18, ,
-25, ,18, ,
-24, ,18, ,
-24, ,18, ,
-21, ,18, ,
-21, ,18, ,
-21, ,18, ,
-23, ,18, ,
-26, ,18, ,
-26, ,18, ,
-27, ,17, ,
-30, ,17, ,
-30, ,17, ,
-30, ,17, ,
-30, ,17, ,
-30, ,18, ,
-31, ,18, ,
-31, ,18, ,
-32, ,18, ,
-32, ,17, ,
-32, ,17, ,
-33, ,17, ,
-33, ,18, ,
-35, ,18, ,
-37, ,18, ,
-37, ,18, ,
-38, ,17, ,
-39, ,17, ,
-37, ,18, ,
-38, ,17, ,
-35, ,17, ,
-35, ,18, ,
-33, ,18, ,
-30, ,18, ,
-30, ,18, ,
-25, ,18, ,
-25, ,18, ,
-25, ,18, ,
-23, ,18, ,
-23, ,18, ,
-22, ,18, ,
-22, ,18, ,
-21, ,18, ,
-20, ,18, ,
-20, ,18, ,
-18, ,18, ,
-17, ,18, ,
-14, ,18, ,
-14, ,18, ,
-13, ,18, ,
-14, ,18, ,
-14, ,18, ,
-11, ,18, ,
-10, ,18, ,
-10, ,18, ,
-9, ,18, ,
-10, ,18, ,
-8, ,18, ,
-8, ,18, ,
-7, ,18, ,
-5, ,18, ,
-5, ,18, ,
-3, ,18, ,
-3, ,18, ,
-3, ,18, ,
-3, ,18, ,
-3, ,18, ,
-1, ,17, ,
-1, ,17, ,
-1, ,17, ,
0, ,18, ,
1, ,18, ,
1, ,18, ,
1, ,18, ,
3, ,17, ,
3, ,17, ,
6, ,18, ,
6, ,18, ,
6, ,18, ,
7, ,18, ,
7, ,18, ,
6, ,18, ,
5, ,18, ,
5, ,18, ,
5, ,18, ,
5, ,18, ,
4, ,17, ,
3, ,17, ,
2, ,17, ,
3, ,18, ,
3, ,17, ,
3, ,17, ,
3, ,18, ,
1, ,18, ,
1, ,18, ,
1, ,18, ,
0, ,18, ,
0, ,18, ,
-2, ,18, ,
-3, ,18, ,
-2, ,17, ,
-5, ,17, ,
-5, ,18, ,
-6, ,18, ,
-8, ,18, ,
-7, ,18, ,
-10, ,18, ,
-11, ,18, ,
-11, ,18, ,
-15, ,18, ,
-15, ,17, ,
-17, ,17, ,
-18, ,18, ,
-18, ,18, ,
-21, ,18, ,
-23, ,17, ,
-22, ,17, ,
-25, ,17, ,
-25, ,17, ,
-26, ,17, ,
-27, ,17, ,
-28, ,18, ,
-29, ,18, ,
-31, ,18, ,
-31, ,18, ,
-33, ,18, ,
-32, ,18, ,
-34, ,18, ,
-35, ,18, ,
-35, ,18, ,
-35, ,18, ,
-34, ,17, ,
-34, ,17, ,
-34, ,17, ,
-34, ,18, ,
-32, ,18, ,
-31, ,18, ,
-30, ,18, ,
-30, ,18, ,
-29, ,18, ,
-27, ,18, ,
-27, ,18, ,
-25, ,18, ,
-24, ,18, ,
-24, ,18, ,
-23, ,18, ,
-22, ,18, ,
-20, ,18, ,
-17, ,18, ,
-15, ,18, ,
-14, ,18, ,
-11, ,18, ,
-10, ,18, ,
-8, ,18, ,
-8, ,18, ,
-5, ,18, ,
-4, ,18, ,
-4, ,18, ,
-4, ,18, ,
-4, ,18, ,
-3, ,18, ,
-2, ,18, ,
-3, ,18, ,
-1, ,18, ,
0, ,18, ,
0, ,18, ,
2, ,18, ,
3, ,18, ,
3, ,18, ,
3, ,18, ,
4, ,18, ,
5, ,18, ,
6, ,18, ,
5, ,18, ,
6, ,18, ,
7, ,18, ,
6, ,18, ,
7, ,18, ,
6, ,18, ,
9, ,17, ,
9, ,17, ,
9, ,17, ,
10, ,17, ,
9, ,17, ,
9, ,17, ,
9, ,18, ,
8, ,18, ,
7, ,18, ,
7, ,18, ,
6, ,18, ,
6, ,18, ,
5, ,18, ,
4, ,18, ,
3, ,18, ,
2, ,18, ,
0, ,18, ,
0, ,18, ,
-1, ,18, ,
-2, ,17, ,
-3, ,17, ,
-6, ,17, ,
-6, ,18, ,
-8, ,18, ,
-10, ,18, ,
-10, ,18, ,
-12, ,18, ,
-11, ,18, ,
-14, ,18, ,
-14, ,18, ,
-14, ,18, ,
-16, ,18, ,
-16, ,18, ,
-15, ,18, ,
-15, ,18, ,
-15, ,18, ,
-14, ,18, ,
-15, ,18, ,
-14, ,18, ,
-15, ,18, ,
-15, ,18, ,
-13, ,17, ,
-14, ,17, ,
-13, ,18, ,
-13, ,18, ,
-14, ,17, ,
-13, ,17, ,
-14, ,18, ,
-14, ,18, ,
-14, ,18, ,
-15, ,18, ,
-15, ,18, ,
-16, ,18, ,
-16, ,18, ,
-18, ,18, ,
-18, ,18, ,
-20, ,18, ,
-21, ,18, ,
-23, ,17, ,
-23, ,17, ,
-27, ,18, ,
-28, ,18, ,
-29, ,18, ,
-30, ,18, ,
-31, ,18, ,
-31, ,18, ,
-32, ,18, ,
-32, ,17, ,
-32, ,17, ,
-32, ,17, ,
-30, ,17, ,
-30, ,17, ,
-30, ,17, ,
-29, ,17, ,
-29, ,18, ,
-26, ,17, ,
-25, ,17, ,
-23, ,17, ,
-22, ,17, ,
-21, ,18, ,
-17, ,18, ,
-15, ,18, ,
-14, ,18, ,
-11, ,18, ,
-9, ,18, ,
-7, ,17, ,
-7, ,17, ,
-6, ,18, ,
-6, ,18, ,
-5, ,18, ,
-5, ,17, ,
-5, ,17, ,
-6, ,17, ,
-6, ,17, ,
-7, ,17, ,
-8, ,17, ,
-10, ,17, ,
-10, ,17, ,
-11, ,17, ,
-11, ,17, ,
-13, ,17, ,
-13, ,17, ,
-13, ,18, ,
-14, ,17, ,
-15, ,17, ,
-15, ,18, ,
-16, ,18, ,
-16, ,18, ,
-15, ,18, ,
-15, ,17, ,
-15, ,17, ,
-15, ,18, ,
-14, ,18, ,
-14, ,18, ,
-14, ,18, ,
-13, ,18, ,
-12, ,18, ,
-13, ,18, ,
-12, ,18, ,
-12, ,17, ,
-11, ,17, ,
-11, ,18, ,
-11, ,18, ,
-11, ,18, ,
-12, ,18, ,
-13, ,18, ,
-11, ,18, ,
-12, ,18, ,
-13, ,18, ,
-13, ,18, ,
-12, ,18, ,
-12, ,17, ,
-12, ,17, ,
-12, ,17, ,
-11, ,18, ,
-12, ,17, ,
-12, ,17, ,
-11, ,17, ,
-11, ,17, ,
-10, ,17, ,
-10, ,18, ,
-10, ,18, ,
-8, ,18, ,
-10, ,18, ,
-8, ,18, ,
-7, ,18, ,
-7, ,18, ,
-6, ,17, ,
-5, ,17, ,
-6, ,17, ,
-4, ,18, ,
-4, ,18, ,
-5, ,17, ,
-4, ,17, ,
-4, ,17, ,
-3, ,18, ,
-3, ,18, ,
-4, ,18, ,
-3, ,18, ,
-5, ,18, ,
-5, ,18, ,
-3, ,18, ,
-6, ,18, ,
-6, ,17, ,
-6, ,17, ,
-9, ,17, ,
-7, ,18, ,
-9, ,18, ,
-10, ,18, ,
-10, ,18, ,
-11, ,18, ,
-11, ,18, ,
-11, ,18, ,
-11, ,17, ,
-10, ,17, ,
-11, ,18, ,
-9, ,18, ,
-8, ,18, ,
-9, ,18, ,
-6, ,17, ,
-4, ,17, ,
-4, ,17, ,
-4, ,18, ,
-3, ,18, ,
-2, ,18, ,
0, ,18, ,
0, ,18, ,
1, ,18, ,
2, ,18, ,
1, ,18, ,
2, ,18, ,
2, ,18, ,
2, ,18, ,
1, ,18, ,
1, ,18, ,
0, ,18, ,
-1, ,18, ,
-3, ,18, ,
-3, ,18, ,
-5, ,18, ,
-7, ,18, ,
-7, ,18, ,
-8, ,17, ,
-9, ,17, ,
-10, ,18, ,
-10, ,18, ,
-10, ,18, ,
-11, ,17, ,
-11, ,17, ,
-10, ,18, ,
-11, ,18, ,
-11, ,18, ,
-10, ,18, ,
-10, ,18, ,
-9, ,18, ,
-9, ,18, ,
-9, ,18, ,
-8, ,18, ,
-9, ,18, ,
-7, ,18, ,
-6, ,18, ,
-7, ,18, ,
-5, ,18, ,
-5, ,18, ,
-5, ,18, ,
-5, ,18, ,
-4, ,18, ,
-3, ,18, ,
-3, ,18, ,
-4, ,18, ,
-4, ,18, ,
-4, ,18, ,
-5, ,18, ,
-3, ,18, ,
-5, ,18, ,
-5, ,18, ,
-4, ,18, ,
-5, ,17, ,
-3, ,17, ,
-4, ,18, ,
-3, ,18, ,
-3, ,18, ,
-4, ,18, ,
-3, ,18, ,
-3, ,18, ,
-3, ,18, ,
-3, ,18, ,
-4, ,18, ,
-3, ,18, ,
-3, ,18, ,
-3, ,18, ,
-3, ,18, ,
-3, ,18, ,
-3, ,18, ,
-2, ,18, ,
-2, ,18, ,
-1, ,18, ,
-2, ,18, ,
-2, ,18, ,
-2, ,17, ,
-2, ,17, ,
-3, ,17, ,
-3, ,18, ,
-3, ,18, ,
-3, ,18, ,
-2, ,18, ,
-3, ,18, ,
-3, ,18, ,
-2, ,18, ,
-2, ,18, ,
-1, ,18, ,
-3, ,18, ,
0, ,18, ,
0, ,18, ,
-1, ,17, ,
1, ,17, ,
0, ,18, ,
0, ,18, ,
0, ,18, ,
0, ,18, ,
0, ,18, ,
1, ,18, ,
0, ,18, ,
0, ,18, ,
0, ,18, ,
-1, ,18, ,
0, ,17, ,
-2, ,17, ,
-2, ,18, ,
-1, ,18, ,
-2, ,18, ,
-1, ,17, ,
-3, ,17, ,
-4, ,17, ,
-3, ,18, ,
-5, ,18, ,
-6, ,18, ,
-6, ,18, ,
-7, ,18, ,
-6, ,18, ,
-6, ,18, ,
-6, ,17, ,
-7, ,17, ,
-6, ,17, ,
-7, ,17, ,
-6, ,18, ,
-7, ,18, ,
-7, ,18, ,
-6, ,18, ,
-8, ,18, ,
-6, ,18, ,
-8, ,18, ,
-6, ,18, ,
-6, ,18, ,
-7, ,18, ,
-6, ,18, ,
-6, ,18, ,
-6, ,18, ,
-6, ,18, ,
-7, ,18, ,
-5, ,17, ,
-6, ,17, ,
-6, ,17, ,
-6, ,18, ,
-5, ,18, ,
-5, ,18, ,
-5, ,18, ,
-5, ,18, ,
-5, ,18, ,
-4, ,18, ,
-3, ,18, ,
-2, ,18, ,
-1, ,18, ,
-2, ,18, ,
0, ,18, ,
0, ,18, ,
1, ,18, ,
4, ,18, ,
3, ,18, ,
5, ,18, ,
8, ,18, ,
9, ,18, ,
10, ,18, ,
11, ,18, ,
12, ,18, ,
13, ,18, ,
15, ,17, ,
15, ,17, ,
16, ,18, ,
16, ,18, ,
17, ,18, ,
17, ,18, ,
17, ,18, ,
18, ,18, ,
17, ,18, ,
17, ,17, ,
17, ,17, ,
15, ,17, ,
16, ,18, ,
15, ,18, ,
12, ,18, ,
12, ,18, ,
12, ,18, ,
11, ,18, ,
10, ,18, ,
9, ,18, ,
10, ,18, ,
7, ,18, ,
6, ,18, ,
6, ,18, ,
5, ,18, ,
5, ,18, ,
4, ,18, ,
4, ,18, ,
4, ,18, ,
4, ,18, ,
3, ,18, ,
3, ,18, ,
3, ,18, ,
3, ,18, ,
3, ,18, ,
1, ,18, ,
1, ,18, ,
1, ,18, ,
0, ,17, ,
0, ,17, ,
0, ,17, ,
0, ,17, ,
0, ,17, ,
0, ,17, ,
0, ,18, ,
0, ,18, ,
-1, ,18, ,
-1, ,18, ,
-1, ,18, ,
-3, ,18, ,
-2, ,18, ,
-3, ,18, ,
-1, ,18, ,
-4, ,18, ,
-5, ,18, ,
-5, ,18, ,
-5, ,18, ,
-5, ,18, ,
-5, ,18, ,
-5, ,17, ,
-5, ,17, ,
-6, ,17, ,
-6, ,17, ,
-6, ,17, ,
-6, ,18, ,
-6, ,18, ,
-7, ,18, ,
-7, ,18, ,
-7, ,18, ,
-8, ,18, ,
-8, ,18, ,
-8, ,18, ,
-9, ,18, ,
-8, ,18, ,
-8, ,18, ,
-10, ,18, ,
-9, ,18, ,
-10, ,18, ,
-10, ,18, ,
-9, ,18, ,
-9, ,18, ,
-9, ,18, ,
-9, ,18, ,
-10, ,18, ,
-9, ,18, ,
-9, ,18, ,
-9, ,18, ,
-9, ,18, ,
-9, ,18, ,
-9, ,17, ,
-9, ,17, ,
-10, ,17, ,
-9, ,18, ,
-10, ,18, ,
-9, ,18, ,
-9, ,18, ,
-9, ,18, ,
-9, ,18, ,
-8, ,18, ,
-9, ,18, ,
-8, ,18, ,
-10, ,17, ,
-10, ,17, ,
-9, ,18, ,
-9, ,18, ,
-9, ,18, ,
-9, ,18, ,
-9, ,18, ,
-9, ,18, ,
-9, ,18, ,
-8, ,18, ,
-8, ,18, ,
-9, ,18, ,
-7, ,18, ,
-7, ,18, ,
-8, ,18, ,
-6, ,17, ,
-7, ,17, ,
-6, ,18, ,
-5, ,18, ,
-6, ,18, ,
-5, ,18, ,
-5, ,17, ,
-5, ,17, ,
-5, ,17, ,
-4, ,18, ,
-4, ,18, ,
-3, ,18, ,
-3, ,18, ,
-3, ,17, ,
-4, ,17, ,
-3, ,17, ,
-3, ,18, ,
-3, ,18, ,
-3, ,18, ,
-3, ,18, ,
-4, ,17, ,
-3, ,17, ,
-4, ,18, ,
-4, ,18, ,
-3, ,18, ,
-4, ,18, ,
-4, ,18, ,
-4, ,18, ,
-4, ,18, ,
-4, ,18, ,
-3, ,18, ,
-3, ,18, ,
-3, ,18, ,
-2, ,18, ,
-3, ,18, ,
-4, ,18, ,
-4, ,18, ,
-4, ,18, ,
-2, ,18, ,
-4, ,18, ,
-2, ,18, ,
-3, ,17, ,
-3, ,17, ,
-3, ,18, ,
-3, ,17, ,
-3, ,17, ,
-4, ,18, ,
-4, ,18, ,
-2, ,18, ,
-3, ,18, ,
-3, ,18, ,
-2, ,18, ,
-2, ,18, ,
-2, ,18, ,
-2, ,18, ,
-2, ,17, ,
-3, ,17, ,
-3, ,18, ,
-4, ,18, ,
-2, ,18, ,
-3, ,18, ,
-3, ,18, ,
-2, ,18, ,
-2, ,18, ,
-2, ,18, ,
-2, ,18, ,
-3, ,18, ,
-3, ,18, ,
-3, ,18, ,
-2, ,18, ,
-1, ,18, ,
-1, ,18, ,
0, ,18, ,
0, ,18, ,
0, ,18, ,
1, ,18, ,
1, ,18, ,
1, ,18, ,
1, ,18, ,
1, ,18, ,
4, ,18, ,
2, ,18, ,
3, ,18, ,
3, ,18, ,
3, ,18, ,
3, ,18, ,
4, ,18, ,
3, ,18, ,
3, ,18, ,
3, ,17, ,
2, ,17, ,
3, ,18, ,
2, ,18, ,
3, ,18, ,
2, ,18, ,
2, ,18, ,
2, ,18, ,
1, ,18, ,
0, ,18, ,
0, ,18, ,
0, ,18, ,
0, ,18, ,
0, ,18, ,
-1, ,18, ,
0, ,18, ,
-2, ,17, ,
-4, ,17, ,
-1, ,18, ,
-2, ,18, ,
-2, ,18, ,
-2, ,18, ,
-3, ,18, ,
-2, ,18, ,
-4, ,18, ,
-1, ,17, ,
-1, ,17, ,
-3, ,17, ,
-2, ,18, ,
-2, ,18, ,
-2, ,18, ,
-2, ,18, ,
-2, ,18, ,
-3, ,18, ,
-2, ,18, ,
-2, ,17, ,
-2, ,17, ,
-1, ,18, ,
-2, ,17, ,
0, ,17, ,
-2, ,18, ,
-3, ,18, ,
-1, ,18, ,
-2, ,18, ,
-1, ,17, ,
-1, ,17, ,
-1, ,17, ,
-1, ,18, ,
-2, ,18, ,
-2, ,18, ,
-2, ,18, ,
-3, ,18, ,
-1, ,18, ,
-3, ,18, ,
-3, ,18, ,
-3, ,18, ,
-4, ,18, ,
-4, ,17, ,
-4, ,17, ,
-4, ,17, ,
-3, ,18, ,
-3, ,17, ,
-5, ,17, ,
-4, ,17, ,
-5, ,18, ,
-6, ,18, ,
-5, ,18, ,
-4, ,18, ,
-4, ,18, ,
-3, ,18, ,
-4, ,18, ,
-3, ,18, ,
-4, ,18, ,
-1, ,18, ,
-1, ,18, ,
-2, ,18, ,
-1, ,18, ,
0, ,18, ,
0, ,18, ,
0, ,18, ,
0, ,18, ,
1, ,18, ,
2, ,18, ,
1, ,18, ,
2, ,18, ,
3, ,18, ,
3, ,18, ,
3, ,18, ,
3, ,18, ,
1, ,18, ,
3, ,18, ,
3, ,18, ,
3, ,18, ,
2, ,18, ,
2, ,18, ,
3, ,18, ,
2, ,18, ,
2, ,18, ,
3, ,18, ,
2, ,17, ,
3, ,17, ,
3, ,17, ,
2, ,17, ,
2, ,18, ,
1, ,18, ,
2, ,18, ,
2, ,18, ,
1, ,18, ,
2, ,17, ,
2, ,17, ,
1, ,17, ,
1, ,18, ,
1, ,18, ,
1, ,18, ,
2, ,18, ,
1, ,17, ,
2, ,17, ,
1, ,18, ,
1, ,18, ,
1, ,18, ,
0, ,18, ,
0, ,18, ,
0, ,18, ,
0, ,18, ,
0, ,17, ,
-1, ,17, ,
-1, ,17, ,
0, ,17, ,
0, ,18, ,
-1, ,17, ,
-1, ,17, ,
-1, ,17, ,
-1, ,18, ,
-1, ,18, ,
-2, ,18, ,
-1, ,18, ,
-1, ,17, ,
-1, ,17, ,
0, ,18, ,
-1, ,18, ,
0, ,18, ,
0, ,18, ,
0, ,18, ,
0, ,18, ,
-1, ,18, ,
-1, ,18, ,
-1, ,18, ,
-1, ,18, ,
-1, ,18, ,
-1, ,18, ,
-1, ,18, ,
-1, ,18, ,
-2, ,18, ,
-1, ,18, ,
0, ,18, ,
-1, ,18, ,
0, ,17, ,
0, ,17, ,
0, ,17, ,
0, ,18, ,
0, ,17, ,
-1, ,17, ,
0, ,18, ,
0, ,18, ,
0, ,18, ,
0, ,18, ,
0, ,18, ,
1, ,18, ,
0, ,18, ,
0, ,17, ,
0, ,17, ,
0, ,17, ,
1, ,18, ,
1, ,18, ,
1, ,18, ,
2, ,18, ,
1, ,17, ,
1, ,17, ,
3, ,18, ,
2, ,18, ,
2, ,18, ,
3, ,18, ,
2, ,18, ,
2, ,18, ,
2, ,18, ,
3, ,18, ,
4, ,18, ,
3, ,17, ,
3, ,17, ,
2, ,18, ,
1, ,18, ,
2, ,18, ,
2, ,18, ,
2, ,18, ,
2, ,18, ,
2, ,18, ,
1, ,18, ,
2, ,18, ,
1, ,18, ,
2, ,18, ,
1, ,18, ,
0, ,18, ,
0, ,18, ,
0, ,17, ,
0, ,17, ,
-1, ,18, ,
-1, ,17, ,
0, ,17, ,
0, ,17, ,
-1, ,17, ,
0, ,18, ,
-1, ,18, ,
-1, ,18, ,
-2, ,18, ,
-2, ,18, ,
-1, ,18, ,
-4, ,18, ,
-3, ,18, ,
-2, ,18, ,
-4, ,18, ,
-2, ,18, ,
-3, ,18, ,
-3, ,18, ,
-3, ,18, ,
-4, ,18, ,
-2, ,18, ,
-1, ,18, ,
-1, ,18, ,
-1, ,18, ,
1, ,18, ,
1, ,18, ,
1, ,18, ,
0, ,18, ,
2, ,18, ,
3, ,18, ,
2, ,17, ,
2, ,17, ,
3, ,18, ,
1, ,17, ,
5, ,17, ,
5, ,18, ,
5, ,18, ,
5, ,18, ,
5, ,18, ,
5, ,18, ,
4, ,18, ,
4, ,18, ,
4, ,18, ,
4, ,18, ,
4, ,18, ,
4, ,18, ,
3, ,17, ,
4, ,17, ,
4, ,18, ,
3, ,18, ,
3, ,18, ,
3, ,18, ,
-1, ,18, ,
1, ,18, ,
1, ,18, ,
0, ,18, ,
0, ,18, ,
0, ,18, ,
-1, ,18, ,
-1, ,18, ,
0, ,18, ,
0, ,18, ,
-1, ,18, ,
0, ,18, ,
-1, ,18, ,
-1, ,18, ,
0, ,18, ,
-1, ,18, ,
0, ,18, ,
0, ,18, ,
0, ,18, ,
0, ,18, ,
1, ,18, ,
1, ,18, ,
2, ,18, ,
1, ,18, ,
3, ,18, ,
3, ,18, ,
3, ,18, ,
3, ,17, ,
5, ,17, ,
4, ,17, ,
5, ,18, ,
5, ,17, ,
5, ,17, ,
5, ,18, ,
5, ,18, ,
5, ,18, ,
6, ,18, ,
5, ,18, ,
7, ,18, ,
5, ,18, ,
5, ,18, ,
5, ,18, ,
4, ,18, ,
4, ,18, ,
4, ,18, ,
4, ,17, ,
3, ,17, ,
2, ,18, ,
1, ,18, ,
3, ,18, ,
2, ,18, ,
2, ,18, ,
0, ,18, ,
0, ,18, ,
0, ,18, ,
-1, ,18, ,
0, ,18, ,
0, ,18, ,
-1, ,18, ,
-1, ,18, ,
-3, ,18, ,
-3, ,18, ,
-2, ,18, ,
-3, ,18, ,
-3, ,18, ,
-3, ,18, ,
-3, ,17, ,
-3, ,17, ,
-4, ,18, ,
-4, ,18, ,
-3, ,18, ,
-4, ,18, ,
-4, ,18, ,
-3, ,18, ,
-3, ,18, ,
-3, ,18, ,
-3, ,18, ,
-4, ,18, ,
-3, ,18, ,
-3, ,17, ,
-3, ,17, ,
-3, ,18, ,
-3, ,18, ,
-3, ,18, ,
-3, ,18, ,
-4, ,17, ,
-3, ,17, ,
-4, ,18, ,
-3, ,17, ,
-3, ,17, ,
-4, ,17, ,
-3, ,18, ,
-5, ,18, ,
-5, ,18, ,
-4, ,18, ,
-4, ,18, ,
-5, ,18, ,
-4, ,18, ,
-5, ,18, ,
-3, ,18, ,
-3, ,18, ,
-5, ,18, ,
-4, ,18, ,
-5, ,18, ,
-5, ,18, ,
-4, ,18, ,
-5, ,18, ,
-4, ,18, ,
-4, ,18, ,
-5, ,17, ,
-4, ,17, ,
-5, ,17, ,
-3, ,17, ,
-4, ,18, ,
-3, ,18, ,
-3, ,18, ,
-2, ,18, ,
-2, ,18, ,
