raw_data/100% Glycerol, Impulsion 2Hz, Sonde 5MHz, Rampe 0.7Hz/temp0000324.CSV

Format,1.0B,
Memory Length,10000,Memory Length,10000,
IntpDistance,0,IntpDistance,0,
Trigger Address,159,Trigger Address,159,
Trigger Level,2.720E-01,Trigger Level,2.720E-01,
Source,CH1,Source,CH2,
Vertical Units,V,Vertical Units,V,
Vertical Units Div,0,Vertical Units Div,0,
Vertical Units Extend Div,16,Vertical Units Extend Div,16,
Label,,Label,,
Probe Type,0,Probe Type,0,
Probe Ratio,1.000e+00,Probe Ratio,1.000e+00,
Vertical Scale,2.000e-01,Vertical Scale,2.000e+00,
Vertical Position,0.000e+00,Vertical Position,0.000e+00,
Horizontal Units,S,Horizontal Units,S,
Horizontal Scale,5.000E-06,Horizontal Scale,5.000E-06,
Horizontal Position,2.420E-05,Horizontal Position,2.420E-05,
Horizontal Mode,Main,Horizontal Mode,Main,
SincET Mode,Real Time,SincET Mode,Real Time,
Sampling Period,5.000e-09,Sampling Period,5.000e-09,
Horizontal Old Scale,5.000E-06,Horizontal Old Scale,5.000E-06,
Horizontal Old Position,2.420E-05,Horizontal Old Position,2.420E-05,
Firmware,V1.32,Firmware,V1.32,
Mode,Fast,Mode,Fast,
Waveform Data,,Waveform Data,,
2, ,-19, ,
2, ,-19, ,
1, ,-19, ,
1, ,-19, ,
2, ,-19, ,
1, ,-19, ,
2, ,-19, ,
2, ,-19, ,
1, ,-19, ,
2, ,-19, ,
1, ,-19, ,
1, ,-19, ,
3, ,-19, ,
1, ,-19, ,
1, ,-19, ,
1, ,-19, ,
2, ,-19, ,
3, ,-19, ,
1, ,-19, ,
2, ,-19, ,
2, ,-19, ,
2, ,-19, ,
2, ,-19, ,
2, ,-19, ,
1, ,-19, ,
2, ,-19, ,
2, ,-19, ,
1, ,-19, ,
1, ,-19, ,
1, ,-19, ,
2, ,-19, ,
1, ,-19, ,
1, ,-19, ,
2, ,-19, ,
0, ,-19, ,
2, ,-19, ,
2, ,-19, ,
2, ,-19, ,
2, ,-19, ,
1, ,-19, ,
1, ,-19, ,
2, ,-19, ,
1, ,-19, ,
2, ,-19, ,
2, ,-19, ,
2, ,-19, ,
2, ,-19, ,
3, ,-19, ,
2, ,-19, ,
2, ,-19, ,
1, ,-19, ,
1, ,-19, ,
2, ,-19, ,
2, ,-19, ,
2, ,-19, ,
2, ,-19, ,
2, ,-19, ,
2, ,-19, ,
1, ,-19, ,
2, ,-19, ,
1, ,-19, ,
2, ,-19, ,
2, ,-19, ,
2, ,-19, ,
2, ,-19, ,
2, ,-19, ,
1, ,-19, ,
2, ,-19, ,
2, ,-19, ,
1, ,-19, ,
2, ,-19, ,
2, ,-19, ,
1, ,-19, ,
2, ,-19, ,
2, ,-19, ,
2, ,-19, ,
2, ,-19, ,
2, ,-19, ,
2, ,-19, ,
2, ,-19, ,
1, ,-19, ,
2, ,-19, ,
1, ,-19, ,
1, ,-19, ,
2, ,-19, ,
1, ,-19, ,
2, ,-19, ,
2, ,-19, ,
2, ,-19, ,
2, ,-19, ,
1, ,-19, ,
1, ,-19, ,
2, ,-19, ,
1, ,-19, ,
2, ,-19, ,
3, ,-19, ,
2, ,-19, ,
3, ,-19, ,
2, ,-19, ,
0, ,-19, ,
2, ,-19, ,
1, ,-19, ,
1, ,-19, ,
2, ,-19, ,
2, ,-19, ,
3, ,-19, ,
2, ,-19, ,
1, ,-19, ,
2, ,-19, ,
1, ,-19, ,
2, ,-19, ,
2, ,-19, ,
2, ,-19, ,
2, ,-19, ,
1, ,-19, ,
2, ,-19, ,
2, ,-19, ,
2, ,-19, ,
2, ,-19, ,
2, ,-19, ,
1, ,-19, ,
1, ,-19, ,
1, ,-19, ,
1, ,-19, ,
3, ,-19, ,
2, ,-19, ,
2, ,-19, ,
2, ,-19, ,
1, ,-19, ,
2, ,-19, ,
1, ,-19, ,
2, ,-19, ,
3, ,-19, ,
1, ,-19, ,
2, ,-19, ,
2, ,-19, ,
1, ,-19, ,
2, ,-19, ,
1, ,-19, ,
1, ,-19, ,
2, ,-19, ,
1, ,-19, ,
3, ,-19, ,
2, ,-19, ,
1, ,-19, ,
3, ,-19, ,
2, ,-19, ,
1, ,-19, ,
2, ,-19, ,
1, ,-19, ,
2, ,-19, ,
2, ,-19, ,
1, ,-19, ,
2, ,-19, ,
1, ,-19, ,
1, ,-19, ,
2, ,-19, ,
2, ,-19, ,
2, ,-19, ,
2, ,-19, ,
2, ,-19, ,
3, ,-19, ,
2, ,-19, ,
1, ,-19, ,
4, ,-19, ,
0, ,-19, ,
3, ,-19, ,
4, ,-19, ,
37, ,-19, ,
107, ,-19, ,
125, ,-19, ,
125, ,-19, ,
124, ,-19, ,
120, ,-19, ,
108, ,-19, ,
3, ,-19, ,
118, ,-19, ,
125, ,-19, ,
125, ,-19, ,
125, ,-19, ,
125, ,-19, ,
125, ,-19, ,
125, ,-19, ,
125, ,-19, ,
125, ,-19, ,
125, ,-19, ,
125, ,-19, ,
125, ,-19, ,
125, ,-19, ,
125, ,-19, ,
125, ,-19, ,
125, ,-19, ,
125, ,-19, ,
125, ,-19, ,
125, ,-19, ,
125, ,-19, ,
125, ,-19, ,
125, ,-19, ,
125, ,-19, ,
125, ,-19, ,
125, ,-19, ,
125, ,-19, ,
124, ,-19, ,
123, ,-19, ,
119, ,-19, ,
113, ,-19, ,
111, ,-19, ,
101, ,-19, ,
97, ,-19, ,
94, ,-19, ,
88, ,-19, ,
81, ,-19, ,
78, ,-19, ,
74, ,-19, ,
71, ,-19, ,
64, ,-19, ,
60, ,-19, ,
59, ,-19, ,
55, ,-19, ,
50, ,-19, ,
49, ,-19, ,
46, ,-19, ,
44, ,-19, ,
40, ,-19, ,
37, ,-19, ,
36, ,-19, ,
35, ,-19, ,
32, ,-19, ,
31, ,-19, ,
27, ,-19, ,
27, ,-19, ,
24, ,-19, ,
22, ,-19, ,
21, ,-19, ,
19, ,-19, ,
17, ,-19, ,
17, ,-19, ,
15, ,-19, ,
15, ,-19, ,
12, ,-19, ,
12, ,-19, ,
11, ,-19, ,
9, ,-19, ,
8, ,-19, ,
9, ,-19, ,
7, ,-19, ,
7, ,-19, ,
5, ,-19, ,
5, ,-19, ,
5, ,-19, ,
4, ,-19, ,
4, ,-19, ,
4, ,-19, ,
3, ,-19, ,
4, ,-19, ,
1, ,-19, ,
1, ,-19, ,
2, ,-19, ,
0, ,-19, ,
0, ,-19, ,
0, ,-19, ,
0, ,-19, ,
0, ,-19, ,
0, ,-19, ,
-2, ,-19, ,
-1, ,-19, ,
-1, ,-19, ,
-2, ,-19, ,
-1, ,-19, ,
-2, ,-19, ,
-2, ,-19, ,
-2, ,-19, ,
-2, ,-19, ,
-2, ,-19, ,
-3, ,-19, ,
-3, ,-19, ,
-3, ,-19, ,
-4, ,-19, ,
-2, ,-19, ,
-3, ,-19, ,
-3, ,-19, ,
-3, ,-19, ,
-3, ,-19, ,
-3, ,-19, ,
-2, ,-19, ,
-3, ,-19, ,
-3, ,-19, ,
-2, ,-19, ,
-3, ,-19, ,
-3, ,-19, ,
-3, ,-19, ,
-3, ,-19, ,
-2, ,-19, ,
-3, ,-19, ,
-3, ,-19, ,
-2, ,-19, ,
-3, ,-19, ,
-2, ,-19, ,
-2, ,-19, ,
-2, ,-19, ,
-2, ,-19, ,
-2, ,-19, ,
-2, ,-19, ,
-3, ,-19, ,
-3, ,-19, ,
-1, ,-19, ,
-2, ,-19, ,
-2, ,-19, ,
-1, ,-19, ,
-2, ,-19, ,
-2, ,-19, ,
-2, ,-19, ,
-2, ,-19, ,
-2, ,-19, ,
-2, ,-19, ,
-2, ,-19, ,
-2, ,-19, ,
-2, ,-19, ,
-1, ,-19, ,
0, ,-19, ,
-1, ,-19, ,
0, ,-19, ,
-1, ,-19, ,
-1, ,-19, ,
0, ,-19, ,
-1, ,-19, ,
0, ,-19, ,
0, ,-19, ,
-1, ,-19, ,
0, ,-19, ,
-1, ,-19, ,
-2, ,-19, ,
0, ,-19, ,
0, ,-19, ,
0, ,-19, ,
0, ,-19, ,
0, ,-19, ,
0, ,-19, ,
0, ,-19, ,
0, ,-19, ,
0, ,-19, ,
0, ,-19, ,
1, ,-19, ,
0, ,-19, ,
0, ,-19, ,
1, ,-19, ,
0, ,-19, ,
0, ,-19, ,
2, ,-19, ,
0, ,-19, ,
0, ,-19, ,
0, ,-19, ,
0, ,-19, ,
0, ,-19, ,
0, ,-19, ,
1, ,-19, ,
1, ,-19, ,
1, ,-19, ,
1, ,-19, ,
1, ,-19, ,
1, ,-19, ,
1, ,-19, ,
0, ,-19, ,
-1, ,-19, ,
1, ,-19, ,
1, ,-19, ,
1, ,-19, ,
1, ,-19, ,
1, ,-19, ,
2, ,-19, ,
1, ,-19, ,
0, ,-19, ,
0, ,-19, ,
1, ,-19, ,
1, ,-19, ,
1, ,-19, ,
1, ,-19, ,
1, ,-19, ,
0, ,-19, ,
0, ,-19, ,
1, ,-19, ,
0, ,-19, ,
1, ,-19, ,
1, ,-19, ,
0, ,-19, ,
1, ,-19, ,
0, ,-19, ,
0, ,-19, ,
1, ,-19, ,
1, ,-19, ,
1, ,-19, ,
1, ,-19, ,
0, ,-19, ,
2, ,-19, ,
1, ,-19, ,
1, ,-19, ,
2, ,-19, ,
1, ,-19, ,
2, ,-19, ,
1, ,-19, ,
1, ,-19, ,
2, ,-19, ,
0, ,-19, ,
1, ,-19, ,
2, ,-19, ,
0, ,-19, ,
1, ,-19, ,
1, ,-19, ,
1, ,-19, ,
1, ,-19, ,
1, ,-19, ,
1, ,-19, ,
1, ,-19, ,
1, ,-19, ,
1, ,-19, ,
2, ,-19, ,
1, ,-19, ,
2, ,-19, ,
1, ,-19, ,
1, ,-19, ,
1, ,-19, ,
1, ,-19, ,
1, ,-19, ,
0, ,-19, ,
0, ,-19, ,
0, ,-19, ,
0, ,-19, ,
1, ,-19, ,
1, ,-19, ,
1, ,-19, ,
1, ,-19, ,
1, ,-19, ,
1, ,-19, ,
1, ,-19, ,
1, ,-19, ,
1, ,-19, ,
1, ,-19, ,
1, ,-19, ,
1, ,-19, ,
1, ,-19, ,
1, ,-19, ,
1, ,-19, ,
0, ,-19, ,
-1, ,-19, ,
-1, ,-19, ,
-2, ,-19, ,
0, ,-19, ,
-1, ,-19, ,
0, ,-19, ,
0, ,-19, ,
0, ,-19, ,
1, ,-19, ,
2, ,-19, ,
1, ,-19, ,
2, ,-19, ,
2, ,-19, ,
1, ,-19, ,
1, ,-19, ,
0, ,-19, ,
-1, ,-19, ,
-1, ,-19, ,
-3, ,-19, ,
-4, ,-19, ,
-6, ,-19, ,
-10, ,-19, ,
-10, ,-19, ,
-15, ,-19, ,
-25, ,-19, ,
-32, ,-19, ,
-41, ,-19, ,
-51, ,-19, ,
-86, ,-19, ,
-109, ,-19, ,
-126, ,-19, ,
-126, ,-19, ,
-126, ,-19, ,
-126, ,-19, ,
-126, ,-19, ,
-126, ,-19, ,
-126, ,-19, ,
-126, ,-19, ,
-126, ,-19, ,
-126, ,-19, ,
-126, ,-19, ,
-126, ,-19, ,
-126, ,-19, ,
-126, ,-19, ,
-126, ,-19, ,
-126, ,-19, ,
-126, ,-19, ,
-126, ,-19, ,
-126, ,-19, ,
-126, ,-19, ,
-126, ,-19, ,
-126, ,-19, ,
-126, ,-19, ,
-125, ,-19, ,
-123, ,-19, ,
-84, ,-19, ,
-48, ,-19, ,
-45, ,-19, ,
-38, ,-19, ,
-30, ,-19, ,
-16, ,-19, ,
-16, ,-19, ,
-18, ,-19, ,
-23, ,-19, ,
-44, ,-19, ,
-57, ,-19, ,
-76, ,-19, ,
-97, ,-19, ,
-126, ,-19, ,
-126, ,-19, ,
-126, ,-19, ,
-126, ,-19, ,
-126, ,-19, ,
-126, ,-19, ,
-126, ,-19, ,
-126, ,-19, ,
-126, ,-19, ,
-126, ,-19, ,
-126, ,-19, ,
-126, ,-19, ,
-126, ,-19, ,
-126, ,-19, ,
-126, ,-19, ,
-126, ,-19, ,
-126, ,-19, ,
-126, ,-19, ,
-121, ,-19, ,
-112, ,-19, ,
-35, ,-19, ,
68, ,-19, ,
125, ,-19, ,
125, ,-19, ,
125, ,-19, ,
125, ,-19, ,
125, ,-19, ,
125, ,-19, ,
125, ,-19, ,
125, ,-19, ,
125, ,-19, ,
125, ,-19, ,
125, ,-19, ,
125, ,-19, ,
125, ,-19, ,
125, ,-19, ,
125, ,-19, ,
125, ,-19, ,
125, ,-19, ,
125, ,-19, ,
125, ,-19, ,
125, ,-19, ,
125, ,-19, ,
125, ,-19, ,
125, ,-19, ,
125, ,-19, ,
125, ,-19, ,
125, ,-19, ,
125, ,-19, ,
125, ,-19, ,
124, ,-19, ,
120, ,-19, ,
-12, ,-19, ,
-126, ,-19, ,
-126, ,-19, ,
-126, ,-19, ,
-126, ,-19, ,
-126, ,-19, ,
-126, ,-19, ,
-126, ,-19, ,
-126, ,-19, ,
-126, ,-19, ,
-126, ,-19, ,
-126, ,-19, ,
-126, ,-19, ,
-126, ,-19, ,
-126, ,-19, ,
-126, ,-19, ,
-126, ,-19, ,
-126, ,-19, ,
-126, ,-19, ,
-126, ,-19, ,
-126, ,-19, ,
-126, ,-19, ,
-126, ,-19, ,
-126, ,-19, ,
-126, ,-19, ,
-126, ,-19, ,
-126, ,-19, ,
-126, ,-19, ,
-126, ,-19, ,
-126, ,-19, ,
-126, ,-19, ,
-125, ,-19, ,
-106, ,-19, ,
-100, ,-19, ,
-95, ,-19, ,
-87, ,-19, ,
-48, ,-19, ,
-22, ,-19, ,
10, ,-19, ,
39, ,-19, ,
87, ,-19, ,
108, ,-19, ,
124, ,-19, ,
125, ,-19, ,
125, ,-19, ,
125, ,-19, ,
125, ,-19, ,
125, ,-19, ,
125, ,-19, ,
125, ,-19, ,
125, ,-19, ,
125, ,-19, ,
124, ,-19, ,
116, ,-19, ,
97, ,-19, ,
71, ,-19, ,
12, ,-19, ,
-21, ,-19, ,
-55, ,-19, ,
-88, ,-19, ,
-126, ,-19, ,
-126, ,-19, ,
-126, ,-19, ,
-126, ,-19, ,
-126, ,-19, ,
-126, ,-19, ,
-126, ,-19, ,
-126, ,-19, ,
-126, ,-19, ,
-126, ,-19, ,
-123, ,-19, ,
-118, ,-19, ,
-108, ,-19, ,
-105, ,-19, ,
-102, ,-19, ,
-96, ,-19, ,
-89, ,-19, ,
-85, ,-19, ,
-80, ,-19, ,
-77, ,-19, ,
-65, ,-19, ,
-54, ,-19, ,
-32, ,-19, ,
4, ,-19, ,
65, ,-19, ,
78, ,-19, ,
82, ,-19, ,
79, ,-19, ,
79, ,-19, ,
79, ,-19, ,
78, ,-19, ,
74, ,-19, ,
63, ,-19, ,
56, ,-19, ,
53, ,-19, ,
47, ,-19, ,
42, ,-19, ,
42, ,-19, ,
39, ,-19, ,
40, ,-19, ,
42, ,-19, ,
42, ,-19, ,
42, ,-19, ,
41, ,-19, ,
38, ,-19, ,
37, ,-19, ,
35, ,-19, ,
34, ,-19, ,
30, ,-19, ,
25, ,-19, ,
25, ,-19, ,
23, ,-19, ,
26, ,-19, ,
30, ,-19, ,
30, ,-19, ,
35, ,-19, ,
40, ,-19, ,
43, ,-19, ,
47, ,-19, ,
50, ,-19, ,
54, ,-19, ,
56, ,-19, ,
55, ,-19, ,
58, ,-19, ,
60, ,-19, ,
61, ,-19, ,
64, ,-19, ,
66, ,-19, ,
75, ,-19, ,
80, ,-19, ,
84, ,-19, ,
90, ,-19, ,
101, ,-19, ,
105, ,-19, ,
108, ,-19, ,
111, ,-19, ,
116, ,-19, ,
119, ,-19, ,
118, ,-19, ,
118, ,-19, ,
118, ,-19, ,
117, ,-19, ,
118, ,-19, ,
118, ,-19, ,
118, ,-19, ,
121, ,-19, ,
120, ,-19, ,
123, ,-19, ,
125, ,-19, ,
125, ,-19, ,
125, ,-19, ,
125, ,-19, ,
125, ,-19, ,
125, ,-19, ,
125, ,-19, ,
125, ,-19, ,
125, ,-19, ,
125, ,-19, ,
125, ,-19, ,
125, ,-19, ,
125, ,-19, ,
124, ,-19, ,
124, ,-19, ,
120, ,-19, ,
110, ,-19, ,
102, ,-19, ,
96, ,-19, ,
86, ,-19, ,
69, ,-19, ,
60, ,-19, ,
49, ,-19, ,
41, ,-19, ,
21, ,-19, ,
9, ,-19, ,
1, ,-19, ,
-10, ,-19, ,
-28, ,-19, ,
-35, ,-19, ,
-42, ,-19, ,
-49, ,-19, ,
-60, ,-19, ,
-63, ,-19, ,
-66, ,-19, ,
-66, ,-19, ,
-65, ,-19, ,
-64, ,-19, ,
-61, ,-19, ,
-57, ,-19, ,
-46, ,-19, ,
-42, ,-19, ,
-35, ,-19, ,
-30, ,-19, ,
-17, ,-19, ,
-11, ,-19, ,
-7, ,-19, ,
0, ,-19, ,
10, ,-19, ,
13, ,-19, ,
16, ,-19, ,
20, ,-19, ,
25, ,-19, ,
28, ,-19, ,
29, ,-19, ,
33, ,-19, ,
33, ,-19, ,
35, ,-19, ,
35, ,-19, ,
35, ,-19, ,
35, ,-19, ,
35, ,-19, ,
33, ,-19, ,
33, ,-19, ,
32, ,-19, ,
29, ,-19, ,
29, ,-19, ,
27, ,-19, ,
24, ,-19, ,
24, ,-19, ,
23, ,-19, ,
23, ,-19, ,
24, ,-19, ,
24, ,-19, ,
25, ,-19, ,
26, ,-19, ,
29, ,-19, ,
31, ,-19, ,
32, ,-19, ,
35, ,-19, ,
39, ,-19, ,
39, ,-19, ,
42, ,-19, ,
43, ,-19, ,
46, ,-19, ,
48, ,-19, ,
50, ,-19, ,
50, ,-19, ,
51, ,-19, ,
50, ,-19, ,
51, ,-19, ,
48, ,-19, ,
46, ,-19, ,
45, ,-19, ,
40, ,-19, ,
39, ,-19, ,
35, ,-19, ,
34, ,-19, ,
32, ,-19, ,
29, ,-19, ,
25, ,-19, ,
25, ,-19, ,
22, ,-19, ,
22, ,-19, ,
21, ,-19, ,
21, ,-19, ,
21, ,-19, ,
20, ,-19, ,
20, ,-19, ,
23, ,-19, ,
23, ,-19, ,
25, ,-19, ,
30, ,-19, ,
29, ,-19, ,
33, ,-19, ,
35, ,-19, ,
40, ,-19, ,
44, ,-19, ,
48, ,-19, ,
52, ,-19, ,
57, ,-19, ,
58, ,-19, ,
60, ,-19, ,
60, ,-19, ,
61, ,-19, ,
61, ,-19, ,
60, ,-19, ,
61, ,-19, ,
58, ,-19, ,
54, ,-19, ,
53, ,-19, ,
51, ,-19, ,
46, ,-19, ,
44, ,-19, ,
41, ,-19, ,
39, ,-19, ,
36, ,-19, ,
33, ,-19, ,
33, ,-19, ,
30, ,-19, ,
28, ,-19, ,
27, ,-19, ,
26, ,-19, ,
26, ,-19, ,
25, ,-19, ,
23, ,-19, ,
23, ,-19, ,
21, ,-19, ,
18, ,-19, ,
18, ,-19, ,
14, ,-19, ,
10, ,-19, ,
0, ,-19, ,
-7, ,-19, ,
-16, ,-19, ,
-27, ,-19, ,
-51, ,-19, ,
-62, ,-19, ,
-78, ,-19, ,
-95, ,-19, ,
-126, ,-19, ,
-126, ,-19, ,
-126, ,-19, ,
-126, ,-19, ,
-126, ,-19, ,
-126, ,-19, ,
-126, ,-19, ,
-126, ,-19, ,
-126, ,-19, ,
-126, ,-19, ,
-126, ,-19, ,
-126, ,-19, ,
-126, ,-19, ,
-126, ,-19, ,
-126, ,-19, ,
-126, ,-19, ,
-126, ,-19, ,
-126, ,-19, ,
-126, ,-19, ,
-126, ,-19, ,
-126, ,-19, ,
-126, ,-19, ,
-126, ,-19, ,
-126, ,-19, ,
-126, ,-19, ,
-126, ,-19, ,
-126, ,-19, ,
-126, ,-19, ,
-126, ,-19, ,
-126, ,-19, ,
-126, ,-19, ,
-126, ,-19, ,
-126, ,-19, ,
-126, ,-19, ,
-126, ,-19, ,
-122, ,-19, ,
-112, ,-19, ,
-107, ,-19, ,
-103, ,-19, ,
-98, ,-19, ,
-91, ,-19, ,
-87, ,-19, ,
-83, ,-19, ,
-80, ,-19, ,
-73, ,-19, ,
-69, ,-19, ,
-64, ,-19, ,
-48, ,-19, ,
96, ,-19, ,
125, ,-19, ,
125, ,-19, ,
125, ,-19, ,
125, ,-19, ,
125, ,-19, ,
125, ,-19, ,
125, ,-19, ,
125, ,-19, ,
125, ,-19, ,
125, ,-19, ,
125, ,-19, ,
125, ,-19, ,
125, ,-19, ,
125, ,-19, ,
125, ,-19, ,
125, ,-19, ,
125, ,-19, ,
125, ,-19, ,
125, ,-19, ,
125, ,-19, ,
125, ,-19, ,
125, ,-19, ,
125, ,-19, ,
125, ,-19, ,
125, ,-19, ,
125, ,-19, ,
125, ,-19, ,
125, ,-19, ,
125, ,-19, ,
125, ,-19, ,
125, ,-19, ,
124, ,-19, ,
120, ,-19, ,
97, ,-19, ,
70, ,-19, ,
19, ,-19, ,
-4, ,-19, ,
-22, ,-19, ,
-37, ,-19, ,
-56, ,-19, ,
-65, ,-19, ,
-65, ,-19, ,
-67, ,-19, ,
-61, ,-19, ,
-54, ,-19, ,
-49, ,-19, ,
-44, ,-19, ,
-31, ,-19, ,
-25, ,-19, ,
-18, ,-19, ,
-13, ,-19, ,
-2, ,-19, ,
4, ,-19, ,
7, ,-19, ,
14, ,-19, ,
20, ,-19, ,
23, ,-19, ,
25, ,-19, ,
25, ,-19, ,
25, ,-19, ,
25, ,-19, ,
21, ,-19, ,
19, ,-19, ,
12, ,-19, ,
8, ,-19, ,
5, ,-19, ,
1, ,-19, ,
-6, ,-19, ,
-7, ,-19, ,
-10, ,-19, ,
-10, ,-19, ,
-10, ,-19, ,
-10, ,-19, ,
-9, ,-19, ,
-9, ,-19, ,
-6, ,-19, ,
-4, ,-19, ,
-4, ,-19, ,
-5, ,-19, ,
-6, ,-19, ,
-10, ,-19, ,
-11, ,-19, ,
-15, ,-19, ,
-25, ,-19, ,
-30, ,-19, ,
-35, ,-19, ,
-39, ,-19, ,
-54, ,-19, ,
-61, ,-19, ,
-69, ,-19, ,
-76, ,-19, ,
-90, ,-19, ,
-95, ,-19, ,
-102, ,-19, ,
-105, ,-19, ,
-112, ,-19, ,
-116, ,-19, ,
-118, ,-19, ,
-118, ,-19, ,
-117, ,-19, ,
-115, ,-19, ,
-114, ,-19, ,
-110, ,-19, ,
-106, ,-19, ,
-103, ,-19, ,
-98, ,-19, ,
-96, ,-19, ,
-88, ,-19, ,
-84, ,-19, ,
-83, ,-19, ,
-79, ,-19, ,
-72, ,-19, ,
-72, ,-19, ,
-71, ,-19, ,
-70, ,-19, ,
-68, ,-19, ,
-68, ,-19, ,
-69, ,-19, ,
-69, ,-19, ,
-69, ,-19, ,
-70, ,-19, ,
-69, ,-19, ,
-71, ,-19, ,
-70, ,-19, ,
-69, ,-19, ,
-71, ,-19, ,
-67, ,-19, ,
-63, ,-19, ,
-63, ,-19, ,
-58, ,-19, ,
-57, ,-19, ,
-49, ,-19, ,
-44, ,-19, ,
-39, ,-19, ,
-35, ,-19, ,
-24, ,-19, ,
-20, ,-19, ,
-14, ,-19, ,
-10, ,-19, ,
2, ,-19, ,
7, ,-19, ,
10, ,-19, ,
16, ,-19, ,
24, ,-19, ,
25, ,-19, ,
30, ,-19, ,
30, ,-19, ,
32, ,-19, ,
32, ,-19, ,
31, ,-19, ,
30, ,-19, ,
29, ,-19, ,
25, ,-19, ,
24, ,-19, ,
19, ,-19, ,
14, ,-19, ,
12, ,-19, ,
7, ,-19, ,
5, ,-19, ,
1, ,-19, ,
-6, ,-19, ,
-6, ,-19, ,
-9, ,-19, ,
-13, ,-19, ,
-15, ,-19, ,
-16, ,-19, ,
-18, ,-19, ,
-21, ,-19, ,
-21, ,-19, ,
-22, ,-19, ,
-23, ,-19, ,
-23, ,-19, ,
-23, ,-19, ,
-23, ,-19, ,
-22, ,-19, ,
-20, ,-19, ,
-20, ,-19, ,
-18, ,-19, ,
-19, ,-19, ,
-19, ,-19, ,
-17, ,-19, ,
-18, ,-19, ,
-18, ,-19, ,
-18, ,-19, ,
-21, ,-19, ,
-23, ,-19, ,
-26, ,-19, ,
-30, ,-19, ,
-31, ,-19, ,
-35, ,-19, ,
-38, ,-19, ,
-45, ,-19, ,
-49, ,-19, ,
-52, ,-19, ,
-57, ,-19, ,
-64, ,-19, ,
-65, ,-19, ,
-70, ,-19, ,
-72, ,-19, ,
-76, ,-19, ,
-77, ,-19, ,
-79, ,-19, ,
-79, ,-19, ,
-78, ,-19, ,
-77, ,-19, ,
-74, ,-19, ,
-73, ,-19, ,
-68, ,-19, ,
-64, ,-19, ,
-61, ,-19, ,
-58, ,-19, ,
-51, ,-19, ,
-46, ,-19, ,
-43, ,-19, ,
-38, ,-19, ,
-32, ,-19, ,
-29, ,-19, ,
-24, ,-19, ,
-24, ,-19, ,
-18, ,-19, ,
-14, ,-19, ,
-14, ,-19, ,
-11, ,-19, ,
-7, ,-19, ,
-7, ,-19, ,
-5, ,-19, ,
-6, ,-19, ,
-4, ,-19, ,
-3, ,-19, ,
-3, ,-19, ,
-2, ,-19, ,
-2, ,-19, ,
-2, ,-19, ,
-1, ,-19, ,
-1, ,-19, ,
-2, ,-19, ,
-1, ,-19, ,
-2, ,-19, ,
-2, ,-19, ,
-2, ,-19, ,
-3, ,-19, ,
-1, ,-19, ,
-2, ,-19, ,
-1, ,-19, ,
-1, ,-19, ,
-1, ,-19, ,
-1, ,-19, ,
-1, ,-19, ,
-2, ,-19, ,
-1, ,-19, ,
-4, ,-19, ,
-4, ,-19, ,
-5, ,-19, ,
-6, ,-19, ,
-6, ,-19, ,
-8, ,-19, ,
-8, ,-19, ,
-9, ,-19, ,
-10, ,-19, ,
-12, ,-19, ,
-12, ,-19, ,
-12, ,-19, ,
-12, ,-19, ,
-12, ,-19, ,
-12, ,-19, ,
-12, ,-19, ,
-12, ,-19, ,
-10, ,-19, ,
-9, ,-19, ,
-9, ,-19, ,
-7, ,-19, ,
-5, ,-19, ,
-4, ,-19, ,
-1, ,-19, ,
1, ,-19, ,
6, ,-19, ,
10, ,-19, ,
13, ,-19, ,
17, ,-19, ,
24, ,-19, ,
28, ,-19, ,
33, ,-19, ,
35, ,-19, ,
43, ,-19, ,
49, ,-19, ,
51, ,-19, ,
57, ,-19, ,
67, ,-19, ,
72, ,-19, ,
77, ,-19, ,
84, ,-19, ,
92, ,-19, ,
99, ,-19, ,
104, ,-19, ,
109, ,-19, ,
121, ,-19, ,
125, ,-19, ,
125, ,-19, ,
125, ,-19, ,
125, ,-19, ,
125, ,-19, ,
125, ,-19, ,
125, ,-19, ,
125, ,-19, ,
125, ,-19, ,
125, ,-19, ,
125, ,-19, ,
125, ,-19, ,
125, ,-19, ,
125, ,-19, ,
125, ,-19, ,
125, ,-19, ,
125, ,-19, ,
125, ,-19, ,
125, ,-19, ,
125, ,-19, ,
125, ,-19, ,
125, ,-19, ,
125, ,-19, ,
125, ,-19, ,
125, ,-19, ,
125, ,-19, ,
125, ,-19, ,
125, ,-19, ,
125, ,-19, ,
125, ,-19, ,
125, ,-19, ,
124, ,-19, ,
124, ,-19, ,
121, ,-19, ,
112, ,-19, ,
93, ,-19, ,
82, ,-19, ,
69, ,-19, ,
56, ,-19, ,
26, ,-19, ,
6, ,-19, ,
-14, ,-19, ,
-35, ,-19, ,
-80, ,-19, ,
-105, ,-19, ,
-126, ,-19, ,
-126, ,-19, ,
-126, ,-19, ,
-126, ,-19, ,
-126, ,-19, ,
-126, ,-19, ,
-126, ,-19, ,
-126, ,-19, ,
-126, ,-19, ,
-126, ,-19, ,
-126, ,-19, ,
-126, ,-19, ,
-126, ,-19, ,
-126, ,-19, ,
-126, ,-19, ,
-126, ,-19, ,
-126, ,-19, ,
-126, ,-19, ,
-126, ,-19, ,
-126, ,-19, ,
-126, ,-19, ,
-126, ,-19, ,
-126, ,-19, ,
-126, ,-19, ,
-126, ,-19, ,
-126, ,-19, ,
-126, ,-19, ,
-126, ,-19, ,
-126, ,-19, ,
-126, ,-19, ,
-126, ,-19, ,
-126, ,-19, ,
-126, ,-19, ,
-126, ,-19, ,
-126, ,-19, ,
-126, ,-19, ,
-126, ,-19, ,
-120, ,-19, ,
-110, ,-19, ,
-105, ,-19, ,
-101, ,-19, ,
-97, ,-19, ,
-88, ,-19, ,
-85, ,-19, ,
-80, ,-19, ,
-77, ,-19, ,
-69, ,-19, ,
-66, ,-19, ,
-63, ,-19, ,
-58, ,-19, ,
-49, ,-19, ,
-45, ,-19, ,
-35, ,-19, ,
-12, ,-19, ,
50, ,-19, ,
68, ,-19, ,
74, ,-19, ,
73, ,-19, ,
66, ,-19, ,
65, ,-19, ,
67, ,-19, ,
66, ,-19, ,
65, ,-19, ,
65, ,-19, ,
65, ,-19, ,
65, ,-19, ,
67, ,-19, ,
69, ,-19, ,
72, ,-19, ,
71, ,-19, ,
79, ,-19, ,
83, ,-19, ,
85, ,-19, ,
90, ,-19, ,
99, ,-19, ,
101, ,-19, ,
106, ,-19, ,
111, ,-19, ,
118, ,-19, ,
122, ,-19, ,
125, ,-19, ,
125, ,-19, ,
125, ,-19, ,
125, ,-19, ,
125, ,-19, ,
125, ,-19, ,
125, ,-19, ,
125, ,-19, ,
125, ,-19, ,
125, ,-19, ,
124, ,-19, ,
121, ,-19, ,
120, ,-19, ,
116, ,-19, ,
110, ,-19, ,
106, ,-19, ,
103, ,-19, ,
101, ,-19, ,
91, ,-19, ,
87, ,-19, ,
83, ,-19, ,
76, ,-19, ,
69, ,-19, ,
65, ,-19, ,
61, ,-19, ,
57, ,-19, ,
47, ,-19, ,
43, ,-19, ,
39, ,-19, ,
36, ,-19, ,
30, ,-19, ,
28, ,-19, ,
26, ,-19, ,
24, ,-19, ,
20, ,-19, ,
19, ,-19, ,
20, ,-19, ,
18, ,-19, ,
20, ,-19, ,
21, ,-19, ,
22, ,-19, ,
25, ,-19, ,
30, ,-19, ,
31, ,-19, ,
35, ,-19, ,
35, ,-19, ,
41, ,-19, ,
44, ,-19, ,
47, ,-19, ,
50, ,-19, ,
54, ,-19, ,
55, ,-19, ,
56, ,-19, ,
55, ,-19, ,
55, ,-19, ,
57, ,-19, ,
54, ,-19, ,
53, ,-19, ,
51, ,-19, ,
47, ,-19, ,
44, ,-19, ,
42, ,-19, ,
35, ,-19, ,
34, ,-19, ,
30, ,-19, ,
29, ,-19, ,
20, ,-19, ,
17, ,-19, ,
15, ,-19, ,
10, ,-19, ,
5, ,-19, ,
4, ,-19, ,
1, ,-19, ,
-1, ,-19, ,
-4, ,-19, ,
-6, ,-19, ,
-8, ,-19, ,
-8, ,-19, ,
-10, ,-19, ,
-10, ,-19, ,
-12, ,-19, ,
-12, ,-19, ,
-13, ,-19, ,
-14, ,-19, ,
-14, ,-19, ,
-15, ,-19, ,
-16, ,-19, ,
-16, ,-19, ,
-19, ,-19, ,
-20, ,-19, ,
-22, ,-19, ,
-24, ,-19, ,
-26, ,-19, ,
-29, ,-19, ,
-33, ,-19, ,
-35, ,-19, ,
-35, ,-19, ,
-37, ,-19, ,
-42, ,-19, ,
-45, ,-19, ,
-46, ,-19, ,
-49, ,-19, ,
-53, ,-19, ,
-52, ,-19, ,
-55, ,-19, ,
-56, ,-19, ,
-57, ,-19, ,
-58, ,-19, ,
-57, ,-19, ,
-59, ,-19, ,
-56, ,-19, ,
-56, ,-19, ,
-56, ,-19, ,
-53, ,-19, ,
-51, ,-19, ,
-49, ,-19, ,
-48, ,-19, ,
-48, ,-19, ,
-41, ,-19, ,
-40, ,-19, ,
-38, ,-19, ,
-35, ,-19, ,
-31, ,-19, ,
-30, ,-19, ,
-28, ,-19, ,
-25, ,-19, ,
-22, ,-19, ,
-20, ,-19, ,
-19, ,-19, ,
-16, ,-19, ,
-13, ,-19, ,
-12, ,-19, ,
-10, ,-19, ,
-9, ,-19, ,
-5, ,-19, ,
-4, ,-19, ,
-5, ,-19, ,
-2, ,-19, ,
0, ,-19, ,
0, ,-19, ,
1, ,-19, ,
2, ,-19, ,
4, ,-19, ,
6, ,-19, ,
5, ,-19, ,
7, ,-19, ,
8, ,-19, ,
8, ,-19, ,
10, ,-19, ,
9, ,-19, ,
10, ,-19, ,
12, ,-19, ,
11, ,-19, ,
14, ,-19, ,
15, ,-19, ,
13, ,-19, ,
15, ,-19, ,
16, ,-19, ,
19, ,-19, ,
19, ,-19, ,
20, ,-19, ,
22, ,-19, ,
23, ,-19, ,
23, ,-19, ,
25, ,-19, ,
25, ,-19, ,
28, ,-19, ,
28, ,-19, ,
28, ,-19, ,
28, ,-19, ,
28, ,-19, ,
28, ,-19, ,
28, ,-19, ,
26, ,-19, ,
24, ,-19, ,
24, ,-19, ,
22, ,-19, ,
21, ,-19, ,
17, ,-19, ,
15, ,-19, ,
15, ,-19, ,
10, ,-19, ,
7, ,-19, ,
5, ,-19, ,
2, ,-19, ,
0, ,-19, ,
-5, ,-19, ,
-8, ,-19, ,
-12, ,-19, ,
-14, ,-19, ,
-18, ,-19, ,
-20, ,-19, ,
-23, ,-19, ,
-24, ,-19, ,
-27, ,-19, ,
-31, ,-19, ,
