raw_data/100% Glycerol, Impulsion 2Hz, Sonde 5MHz, Rampe 0.7Hz/temp0000211.CSV

Format,1.0B,
Memory Length,10000,Memory Length,10000,
IntpDistance,0,IntpDistance,0,
Trigger Address,159,Trigger Address,159,
Trigger Level,2.720E-01,Trigger Level,2.720E-01,
Source,CH1,Source,CH2,
Vertical Units,V,Vertical Units,V,
Vertical Units Div,0,Vertical Units Div,0,
Vertical Units Extend Div,16,Vertical Units Extend Div,16,
Label,,Label,,
Probe Type,0,Probe Type,0,
Probe Ratio,1.000e+00,Probe Ratio,1.000e+00,
Vertical Scale,2.000e-01,Vertical Scale,2.000e+00,
Vertical Position,0.000e+00,Vertical Position,0.000e+00,
Horizontal Units,S,Horizontal Units,S,
Horizontal Scale,5.000E-06,Horizontal Scale,5.000E-06,
Horizontal Position,2.420E-05,Horizontal Position,2.420E-05,
Horizontal Mode,Main,Horizontal Mode,Main,
SincET Mode,Real Time,SincET Mode,Real Time,
Sampling Period,5.000e-09,Sampling Period,5.000e-09,
Horizontal Old Scale,5.000E-06,Horizontal Old Scale,5.000E-06,
Horizontal Old Position,2.420E-05,Horizontal Old Position,2.420E-05,
Firmware,V1.32,Firmware,V1.32,
Mode,Fast,Mode,Fast,
Waveform Data,,Waveform Data,,
2, ,15, ,
2, ,16, ,
2, ,16, ,
2, ,16, ,
1, ,16, ,
2, ,16, ,
2, ,16, ,
2, ,16, ,
2, ,16, ,
1, ,15, ,
2, ,15, ,
2, ,15, ,
2, ,15, ,
2, ,15, ,
1, ,15, ,
2, ,15, ,
2, ,15, ,
1, ,15, ,
1, ,15, ,
1, ,15, ,
2, ,16, ,
2, ,16, ,
2, ,16, ,
2, ,16, ,
2, ,16, ,
1, ,16, ,
2, ,16, ,
1, ,15, ,
1, ,15, ,
2, ,15, ,
2, ,15, ,
2, ,15, ,
2, ,15, ,
1, ,15, ,
2, ,15, ,
1, ,15, ,
1, ,16, ,
1, ,16, ,
1, ,16, ,
2, ,16, ,
2, ,16, ,
2, ,16, ,
1, ,16, ,
1, ,16, ,
1, ,16, ,
2, ,16, ,
1, ,16, ,
3, ,15, ,
2, ,15, ,
1, ,15, ,
2, ,15, ,
1, ,15, ,
1, ,15, ,
2, ,15, ,
1, ,15, ,
2, ,15, ,
2, ,15, ,
0, ,16, ,
2, ,16, ,
1, ,16, ,
1, ,15, ,
1, ,15, ,
2, ,16, ,
2, ,16, ,
1, ,16, ,
2, ,15, ,
2, ,15, ,
1, ,15, ,
1, ,16, ,
1, ,16, ,
1, ,16, ,
2, ,15, ,
2, ,15, ,
1, ,15, ,
1, ,15, ,
1, ,16, ,
1, ,15, ,
2, ,15, ,
1, ,15, ,
1, ,16, ,
2, ,16, ,
0, ,16, ,
2, ,16, ,
0, ,15, ,
2, ,15, ,
2, ,16, ,
1, ,16, ,
2, ,16, ,
1, ,15, ,
1, ,15, ,
2, ,15, ,
1, ,15, ,
0, ,16, ,
1, ,15, ,
1, ,15, ,
1, ,15, ,
1, ,15, ,
1, ,15, ,
2, ,15, ,
0, ,15, ,
1, ,15, ,
2, ,15, ,
1, ,15, ,
2, ,15, ,
2, ,16, ,
1, ,16, ,
2, ,16, ,
1, ,15, ,
2, ,15, ,
2, ,15, ,
1, ,15, ,
2, ,15, ,
3, ,16, ,
2, ,16, ,
2, ,15, ,
1, ,15, ,
1, ,16, ,
2, ,16, ,
1, ,16, ,
2, ,16, ,
1, ,15, ,
1, ,15, ,
1, ,15, ,
1, ,15, ,
1, ,15, ,
1, ,15, ,
1, ,16, ,
1, ,15, ,
2, ,15, ,
1, ,16, ,
2, ,16, ,
1, ,16, ,
1, ,15, ,
2, ,15, ,
1, ,15, ,
1, ,15, ,
1, ,15, ,
2, ,15, ,
2, ,15, ,
0, ,15, ,
1, ,15, ,
2, ,15, ,
1, ,15, ,
2, ,15, ,
2, ,15, ,
2, ,15, ,
2, ,15, ,
2, ,16, ,
1, ,15, ,
2, ,15, ,
2, ,15, ,
2, ,16, ,
2, ,15, ,
1, ,15, ,
2, ,15, ,
1, ,15, ,
1, ,16, ,
2, ,15, ,
1, ,15, ,
2, ,15, ,
2, ,15, ,
1, ,15, ,
2, ,15, ,
0, ,15, ,
-1, ,15, ,
2, ,15, ,
-3, ,15, ,
4, ,15, ,
111, ,16, ,
125, ,16, ,
125, ,15, ,
125, ,15, ,
120, ,15, ,
100, ,15, ,
-11, ,15, ,
7, ,15, ,
125, ,15, ,
125, ,15, ,
125, ,15, ,
125, ,15, ,
125, ,15, ,
125, ,15, ,
125, ,15, ,
125, ,15, ,
125, ,15, ,
125, ,16, ,
125, ,15, ,
125, ,15, ,
125, ,15, ,
125, ,15, ,
125, ,15, ,
125, ,15, ,
125, ,15, ,
125, ,15, ,
125, ,15, ,
125, ,15, ,
125, ,15, ,
125, ,15, ,
125, ,15, ,
125, ,15, ,
125, ,15, ,
125, ,15, ,
124, ,15, ,
124, ,15, ,
113, ,15, ,
108, ,15, ,
105, ,16, ,
101, ,16, ,
93, ,15, ,
89, ,15, ,
85, ,15, ,
81, ,15, ,
73, ,15, ,
71, ,15, ,
66, ,15, ,
64, ,15, ,
60, ,15, ,
55, ,15, ,
53, ,15, ,
49, ,16, ,
45, ,16, ,
45, ,16, ,
41, ,16, ,
40, ,16, ,
36, ,16, ,
33, ,15, ,
34, ,15, ,
31, ,15, ,
28, ,16, ,
27, ,15, ,
25, ,15, ,
24, ,15, ,
21, ,15, ,
20, ,15, ,
19, ,15, ,
17, ,15, ,
15, ,15, ,
15, ,16, ,
14, ,16, ,
12, ,16, ,
10, ,15, ,
9, ,15, ,
9, ,15, ,
8, ,16, ,
7, ,15, ,
8, ,15, ,
6, ,15, ,
6, ,16, ,
5, ,16, ,
4, ,16, ,
4, ,16, ,
3, ,16, ,
2, ,16, ,
2, ,16, ,
2, ,16, ,
2, ,16, ,
1, ,16, ,
0, ,16, ,
0, ,16, ,
0, ,16, ,
-1, ,16, ,
-1, ,16, ,
-1, ,16, ,
-1, ,16, ,
0, ,16, ,
-2, ,16, ,
-2, ,16, ,
-2, ,15, ,
-2, ,15, ,
-2, ,16, ,
-2, ,15, ,
-3, ,15, ,
-3, ,15, ,
-3, ,16, ,
-3, ,15, ,
-4, ,15, ,
-3, ,15, ,
-3, ,15, ,
-3, ,15, ,
-4, ,15, ,
-3, ,15, ,
-3, ,15, ,
-3, ,15, ,
-4, ,15, ,
-3, ,15, ,
-3, ,16, ,
-4, ,15, ,
-3, ,15, ,
-3, ,15, ,
-3, ,15, ,
-2, ,15, ,
-4, ,15, ,
-3, ,16, ,
-3, ,15, ,
-3, ,15, ,
-3, ,15, ,
-3, ,16, ,
-4, ,16, ,
-3, ,16, ,
-4, ,16, ,
-2, ,16, ,
-2, ,15, ,
-2, ,15, ,
-2, ,15, ,
-3, ,15, ,
-3, ,16, ,
-3, ,16, ,
-3, ,16, ,
-2, ,15, ,
-1, ,15, ,
-2, ,15, ,
-1, ,15, ,
-1, ,15, ,
-2, ,15, ,
-2, ,15, ,
-2, ,15, ,
-2, ,15, ,
-1, ,15, ,
-2, ,15, ,
-1, ,15, ,
-1, ,16, ,
-1, ,16, ,
-1, ,16, ,
-1, ,16, ,
-1, ,16, ,
0, ,16, ,
-2, ,16, ,
0, ,16, ,
0, ,16, ,
-1, ,16, ,
0, ,15, ,
-1, ,15, ,
-1, ,16, ,
-1, ,15, ,
-2, ,15, ,
0, ,15, ,
0, ,15, ,
0, ,16, ,
0, ,16, ,
-1, ,16, ,
-2, ,16, ,
2, ,16, ,
0, ,16, ,
0, ,15, ,
0, ,15, ,
0, ,16, ,
0, ,16, ,
0, ,15, ,
0, ,15, ,
1, ,16, ,
0, ,16, ,
0, ,16, ,
1, ,16, ,
1, ,16, ,
2, ,16, ,
0, ,16, ,
0, ,16, ,
1, ,16, ,
1, ,16, ,
1, ,16, ,
1, ,15, ,
0, ,15, ,
1, ,15, ,
0, ,15, ,
1, ,16, ,
1, ,15, ,
0, ,15, ,
1, ,15, ,
2, ,16, ,
0, ,16, ,
1, ,15, ,
1, ,15, ,
1, ,15, ,
1, ,15, ,
1, ,16, ,
1, ,16, ,
1, ,16, ,
0, ,16, ,
1, ,16, ,
0, ,16, ,
0, ,16, ,
0, ,16, ,
1, ,16, ,
1, ,16, ,
1, ,16, ,
0, ,16, ,
0, ,15, ,
0, ,15, ,
0, ,16, ,
0, ,16, ,
0, ,16, ,
1, ,16, ,
1, ,16, ,
1, ,16, ,
1, ,16, ,
1, ,16, ,
1, ,16, ,
2, ,15, ,
1, ,15, ,
2, ,15, ,
1, ,16, ,
1, ,16, ,
2, ,16, ,
0, ,16, ,
1, ,15, ,
1, ,15, ,
1, ,16, ,
2, ,15, ,
2, ,15, ,
0, ,15, ,
1, ,15, ,
1, ,15, ,
1, ,15, ,
1, ,15, ,
1, ,15, ,
1, ,15, ,
2, ,16, ,
1, ,15, ,
2, ,15, ,
1, ,15, ,
0, ,16, ,
0, ,16, ,
0, ,16, ,
1, ,16, ,
0, ,16, ,
-1, ,16, ,
1, ,15, ,
0, ,15, ,
-1, ,15, ,
1, ,15, ,
1, ,15, ,
1, ,15, ,
1, ,15, ,
1, ,15, ,
1, ,15, ,
0, ,16, ,
1, ,16, ,
2, ,15, ,
0, ,15, ,
0, ,15, ,
0, ,15, ,
0, ,15, ,
0, ,16, ,
0, ,15, ,
-1, ,15, ,
-1, ,15, ,
-1, ,15, ,
0, ,15, ,
1, ,16, ,
0, ,15, ,
1, ,15, ,
0, ,15, ,
1, ,16, ,
1, ,15, ,
1, ,15, ,
2, ,15, ,
2, ,15, ,
0, ,15, ,
1, ,15, ,
0, ,15, ,
-2, ,16, ,
1, ,15, ,
0, ,15, ,
0, ,15, ,
2, ,15, ,
1, ,16, ,
2, ,16, ,
1, ,16, ,
1, ,16, ,
2, ,15, ,
0, ,15, ,
2, ,15, ,
2, ,16, ,
1, ,16, ,
2, ,16, ,
1, ,15, ,
1, ,15, ,
1, ,15, ,
1, ,15, ,
1, ,15, ,
0, ,16, ,
0, ,15, ,
0, ,15, ,
0, ,15, ,
0, ,15, ,
0, ,15, ,
0, ,15, ,
1, ,16, ,
1, ,15, ,
0, ,15, ,
1, ,16, ,
1, ,16, ,
1, ,16, ,
2, ,16, ,
1, ,15, ,
1, ,15, ,
1, ,16, ,
1, ,15, ,
2, ,15, ,
0, ,15, ,
-1, ,15, ,
0, ,15, ,
-2, ,16, ,
-1, ,16, ,
0, ,15, ,
0, ,15, ,
1, ,16, ,
1, ,15, ,
1, ,15, ,
1, ,15, ,
1, ,15, ,
1, ,15, ,
1, ,15, ,
0, ,16, ,
0, ,16, ,
-2, ,16, ,
-3, ,15, ,
-3, ,15, ,
-4, ,15, ,
-4, ,16, ,
-7, ,15, ,
-7, ,15, ,
-7, ,16, ,
-8, ,15, ,
-8, ,15, ,
-8, ,16, ,
-8, ,16, ,
-8, ,16, ,
-8, ,15, ,
-9, ,15, ,
-8, ,15, ,
-10, ,16, ,
-11, ,15, ,
-11, ,15, ,
-15, ,15, ,
-15, ,16, ,
-19, ,15, ,
-21, ,15, ,
-21, ,16, ,
-25, ,15, ,
-26, ,15, ,
-29, ,16, ,
-29, ,15, ,
-29, ,15, ,
-29, ,15, ,
-29, ,15, ,
-27, ,15, ,
-29, ,15, ,
-27, ,16, ,
-26, ,16, ,
-26, ,16, ,
-26, ,16, ,
-26, ,16, ,
-26, ,16, ,
-27, ,15, ,
-29, ,15, ,
-31, ,15, ,
-31, ,16, ,
-32, ,15, ,
-32, ,15, ,
-32, ,15, ,
-33, ,15, ,
-29, ,15, ,
-30, ,15, ,
-24, ,15, ,
-21, ,15, ,
-20, ,15, ,
-16, ,16, ,
-11, ,15, ,
-9, ,15, ,
-6, ,15, ,
-6, ,15, ,
-5, ,15, ,
-4, ,16, ,
-5, ,16, ,
-5, ,16, ,
-5, ,16, ,
-6, ,15, ,
-6, ,15, ,
-7, ,15, ,
-6, ,15, ,
-5, ,15, ,
-5, ,15, ,
-2, ,15, ,
0, ,15, ,
0, ,16, ,
0, ,15, ,
0, ,15, ,
1, ,16, ,
2, ,16, ,
0, ,15, ,
0, ,15, ,
-1, ,16, ,
-2, ,16, ,
-3, ,16, ,
-6, ,16, ,
-8, ,15, ,
-10, ,15, ,
-12, ,15, ,
-12, ,16, ,
-13, ,15, ,
-13, ,15, ,
-12, ,15, ,
-12, ,15, ,
-13, ,15, ,
-10, ,16, ,
-10, ,16, ,
-11, ,15, ,
-12, ,15, ,
-13, ,15, ,
-14, ,15, ,
-16, ,15, ,
-20, ,16, ,
-21, ,16, ,
-24, ,16, ,
-25, ,16, ,
-28, ,15, ,
-30, ,15, ,
-29, ,15, ,
-30, ,15, ,
-29, ,15, ,
-28, ,15, ,
-27, ,15, ,
-26, ,15, ,
-25, ,16, ,
-25, ,16, ,
-25, ,16, ,
-26, ,16, ,
-27, ,16, ,
-26, ,16, ,
-27, ,16, ,
-27, ,15, ,
-28, ,15, ,
-29, ,15, ,
-29, ,15, ,
-28, ,15, ,
-30, ,16, ,
-30, ,16, ,
-32, ,16, ,
-31, ,16, ,
-33, ,15, ,
-33, ,15, ,
-33, ,15, ,
-35, ,15, ,
-34, ,15, ,
-34, ,15, ,
-34, ,15, ,
-34, ,15, ,
-33, ,15, ,
-33, ,15, ,
-33, ,16, ,
-34, ,16, ,
-35, ,16, ,
-35, ,16, ,
-36, ,16, ,
-36, ,16, ,
-36, ,16, ,
-36, ,16, ,
-36, ,15, ,
-36, ,15, ,
-35, ,16, ,
-34, ,16, ,
-33, ,16, ,
-29, ,16, ,
-28, ,16, ,
-27, ,16, ,
-26, ,16, ,
-26, ,16, ,
-26, ,16, ,
-28, ,16, ,
-29, ,16, ,
-30, ,15, ,
-31, ,15, ,
-32, ,16, ,
-32, ,16, ,
-32, ,16, ,
-31, ,16, ,
-30, ,16, ,
-31, ,16, ,
-29, ,16, ,
-26, ,15, ,
-25, ,15, ,
-24, ,15, ,
-24, ,16, ,
-25, ,16, ,
-25, ,16, ,
-24, ,16, ,
-24, ,15, ,
-23, ,15, ,
-23, ,15, ,
-22, ,15, ,
-22, ,15, ,
-20, ,15, ,
-19, ,15, ,
-17, ,15, ,
-17, ,16, ,
-15, ,15, ,
-16, ,15, ,
-14, ,15, ,
-15, ,15, ,
-15, ,15, ,
-14, ,15, ,
-13, ,15, ,
-13, ,15, ,
-13, ,16, ,
-11, ,16, ,
-9, ,16, ,
-10, ,16, ,
-9, ,15, ,
-8, ,15, ,
-9, ,16, ,
-8, ,15, ,
-8, ,15, ,
-9, ,16, ,
-9, ,16, ,
-9, ,16, ,
-9, ,15, ,
-8, ,15, ,
-8, ,15, ,
-7, ,15, ,
-5, ,15, ,
-2, ,15, ,
-1, ,15, ,
-1, ,15, ,
2, ,15, ,
5, ,15, ,
5, ,15, ,
7, ,15, ,
9, ,15, ,
10, ,15, ,
13, ,15, ,
12, ,16, ,
15, ,15, ,
16, ,15, ,
16, ,16, ,
19, ,16, ,
20, ,16, ,
21, ,16, ,
22, ,16, ,
21, ,16, ,
22, ,15, ,
21, ,15, ,
21, ,16, ,
20, ,15, ,
19, ,15, ,
16, ,16, ,
15, ,16, ,
14, ,15, ,
10, ,15, ,
9, ,16, ,
7, ,16, ,
5, ,16, ,
1, ,16, ,
-3, ,16, ,
-2, ,16, ,
-6, ,16, ,
-10, ,15, ,
-11, ,15, ,
-13, ,15, ,
-14, ,16, ,
-17, ,16, ,
-18, ,16, ,
-20, ,16, ,
-20, ,16, ,
-21, ,16, ,
-23, ,16, ,
-24, ,15, ,
-24, ,15, ,
-25, ,16, ,
-26, ,15, ,
-25, ,15, ,
-28, ,15, ,
-29, ,15, ,
-29, ,15, ,
-30, ,15, ,
-32, ,15, ,
-32, ,16, ,
-33, ,16, ,
-32, ,16, ,
-35, ,16, ,
-35, ,15, ,
-34, ,15, ,
-34, ,15, ,
-34, ,16, ,
-34, ,15, ,
-33, ,15, ,
-33, ,15, ,
-34, ,15, ,
-33, ,15, ,
-33, ,15, ,
-34, ,15, ,
-33, ,15, ,
-30, ,15, ,
-30, ,15, ,
-29, ,15, ,
-30, ,15, ,
-28, ,15, ,
-24, ,16, ,
-24, ,16, ,
-23, ,16, ,
-19, ,16, ,
-19, ,15, ,
-15, ,15, ,
-15, ,15, ,
-14, ,15, ,
-11, ,15, ,
-13, ,15, ,
-10, ,15, ,
-9, ,15, ,
-9, ,16, ,
-7, ,16, ,
-7, ,15, ,
-4, ,15, ,
-3, ,15, ,
-2, ,15, ,
0, ,15, ,
1, ,16, ,
0, ,16, ,
1, ,15, ,
3, ,15, ,
1, ,16, ,
4, ,16, ,
3, ,16, ,
5, ,15, ,
5, ,15, ,
5, ,15, ,
6, ,16, ,
6, ,16, ,
8, ,16, ,
9, ,16, ,
8, ,16, ,
8, ,15, ,
9, ,15, ,
8, ,16, ,
8, ,16, ,
7, ,16, ,
5, ,15, ,
5, ,15, ,
4, ,15, ,
4, ,15, ,
3, ,15, ,
2, ,15, ,
0, ,15, ,
-1, ,16, ,
-2, ,15, ,
-3, ,15, ,
-3, ,16, ,
-7, ,16, ,
-8, ,15, ,
-10, ,15, ,
-9, ,15, ,
-12, ,15, ,
-14, ,15, ,
-14, ,15, ,
-15, ,15, ,
-15, ,15, ,
-16, ,15, ,
-17, ,15, ,
-17, ,15, ,
-18, ,16, ,
-19, ,16, ,
-17, ,16, ,
-18, ,16, ,
-17, ,16, ,
-18, ,16, ,
-19, ,15, ,
-18, ,15, ,
-19, ,15, ,
-20, ,16, ,
-19, ,16, ,
-21, ,16, ,
-21, ,16, ,
-21, ,15, ,
-23, ,15, ,
-23, ,15, ,
-24, ,16, ,
-24, ,16, ,
-24, ,16, ,
-24, ,16, ,
-24, ,16, ,
-25, ,16, ,
-25, ,16, ,
-25, ,16, ,
-26, ,16, ,
-25, ,15, ,
-25, ,15, ,
-25, ,15, ,
-25, ,15, ,
-24, ,15, ,
-24, ,15, ,
-23, ,15, ,
-22, ,15, ,
-22, ,15, ,
-20, ,15, ,
-19, ,15, ,
-17, ,15, ,
-15, ,16, ,
-15, ,15, ,
-14, ,15, ,
-15, ,15, ,
-12, ,16, ,
-11, ,16, ,
-12, ,16, ,
-11, ,16, ,
-11, ,15, ,
-12, ,15, ,
-10, ,16, ,
-10, ,15, ,
-10, ,15, ,
-10, ,16, ,
-10, ,15, ,
-9, ,15, ,
-10, ,15, ,
-11, ,16, ,
-11, ,15, ,
-12, ,15, ,
-12, ,16, ,
-12, ,16, ,
-13, ,16, ,
-14, ,16, ,
-13, ,16, ,
-15, ,16, ,
-14, ,16, ,
-15, ,15, ,
-14, ,15, ,
-14, ,15, ,
-14, ,15, ,
-14, ,15, ,
-14, ,15, ,
-14, ,15, ,
-14, ,15, ,
-15, ,15, ,
-15, ,16, ,
-15, ,16, ,
-15, ,16, ,
-15, ,16, ,
-15, ,15, ,
-15, ,15, ,
-15, ,15, ,
-15, ,15, ,
-15, ,16, ,
-15, ,16, ,
-15, ,16, ,
-15, ,16, ,
-15, ,16, ,
-15, ,16, ,
-14, ,16, ,
-16, ,16, ,
-15, ,15, ,
-14, ,15, ,
-15, ,15, ,
-13, ,15, ,
-13, ,15, ,
-13, ,15, ,
-14, ,15, ,
-12, ,15, ,
-9, ,15, ,
-10, ,16, ,
-8, ,15, ,
-7, ,15, ,
-5, ,16, ,
-5, ,16, ,
-4, ,16, ,
-5, ,16, ,
-4, ,16, ,
-1, ,16, ,
0, ,16, ,
0, ,16, ,
2, ,16, ,
1, ,16, ,
3, ,16, ,
2, ,15, ,
2, ,15, ,
5, ,16, ,
3, ,15, ,
4, ,15, ,
5, ,15, ,
4, ,15, ,
4, ,15, ,
3, ,16, ,
3, ,15, ,
3, ,15, ,
2, ,15, ,
2, ,16, ,
0, ,16, ,
0, ,16, ,
0, ,16, ,
0, ,15, ,
-2, ,15, ,
-1, ,16, ,
-4, ,15, ,
-2, ,15, ,
-2, ,15, ,
-4, ,15, ,
-4, ,15, ,
-5, ,15, ,
-6, ,16, ,
-6, ,16, ,
-8, ,16, ,
-7, ,15, ,
-8, ,15, ,
-8, ,15, ,
-8, ,15, ,
-8, ,15, ,
-9, ,15, ,
-9, ,15, ,
-10, ,15, ,
-9, ,15, ,
-10, ,15, ,
-11, ,16, ,
-11, ,16, ,
-12, ,16, ,
-13, ,15, ,
-13, ,15, ,
-14, ,15, ,
-14, ,16, ,
-14, ,15, ,
-14, ,15, ,
-14, ,16, ,
-14, ,15, ,
-14, ,15, ,
-14, ,16, ,
-14, ,15, ,
-13, ,15, ,
-14, ,15, ,
-14, ,15, ,
-13, ,15, ,
-14, ,16, ,
-11, ,15, ,
-10, ,15, ,
-10, ,15, ,
-8, ,16, ,
-7, ,16, ,
-7, ,16, ,
-5, ,15, ,
-5, ,15, ,
-4, ,16, ,
-2, ,16, ,
-2, ,16, ,
-1, ,15, ,
0, ,15, ,
-1, ,16, ,
0, ,16, ,
-2, ,16, ,
-2, ,16, ,
-1, ,16, ,
-2, ,16, ,
-2, ,16, ,
-2, ,16, ,
-2, ,16, ,
-2, ,16, ,
-2, ,15, ,
-3, ,15, ,
-3, ,16, ,
-4, ,16, ,
-3, ,16, ,
-5, ,16, ,
-5, ,15, ,
-5, ,15, ,
-5, ,15, ,
-6, ,15, ,
-5, ,15, ,
-5, ,15, ,
-5, ,15, ,
-4, ,15, ,
-5, ,16, ,
-4, ,15, ,
-4, ,15, ,
-3, ,16, ,
-3, ,15, ,
-3, ,15, ,
-3, ,15, ,
-4, ,15, ,
-3, ,15, ,
-3, ,15, ,
-4, ,15, ,
-4, ,16, ,
-3, ,15, ,
-4, ,15, ,
-3, ,15, ,
-3, ,15, ,
-4, ,15, ,
-3, ,16, ,
-3, ,15, ,
-4, ,15, ,
-3, ,15, ,
-4, ,15, ,
-5, ,15, ,
-5, ,16, ,
-6, ,16, ,
-6, ,16, ,
-7, ,16, ,
-6, ,16, ,
-6, ,16, ,
-7, ,16, ,
-6, ,15, ,
-7, ,15, ,
-5, ,16, ,
-5, ,16, ,
-6, ,15, ,
-6, ,15, ,
-5, ,16, ,
-5, ,15, ,
-4, ,15, ,
-4, ,16, ,
-4, ,16, ,
-4, ,16, ,
-4, ,16, ,
-2, ,15, ,
-1, ,15, ,
-1, ,15, ,
-1, ,15, ,
0, ,15, ,
-1, ,16, ,
2, ,16, ,
3, ,16, ,
2, ,16, ,
2, ,15, ,
3, ,15, ,
4, ,15, ,
3, ,15, ,
3, ,15, ,
4, ,15, ,
3, ,16, ,
3, ,16, ,
3, ,16, ,
3, ,16, ,
2, ,16, ,
1, ,16, ,
1, ,16, ,
2, ,16, ,
2, ,16, ,
1, ,16, ,
2, ,16, ,
1, ,16, ,
1, ,16, ,
1, ,16, ,
1, ,15, ,
1, ,15, ,
0, ,15, ,
-1, ,16, ,
0, ,16, ,
-2, ,16, ,
0, ,16, ,
0, ,16, ,
0, ,16, ,
1, ,15, ,
0, ,15, ,
0, ,15, ,
0, ,15, ,
0, ,16, ,
0, ,16, ,
1, ,16, ,
1, ,16, ,
1, ,16, ,
1, ,16, ,
0, ,16, ,
1, ,16, ,
0, ,16, ,
1, ,15, ,
1, ,15, ,
0, ,15, ,
2, ,15, ,
1, ,16, ,
2, ,16, ,
3, ,16, ,
3, ,16, ,
4, ,16, ,
5, ,16, ,
4, ,16, ,
5, ,16, ,
3, ,15, ,
5, ,15, ,
5, ,15, ,
5, ,15, ,
5, ,15, ,
5, ,15, ,
5, ,15, ,
5, ,16, ,
5, ,16, ,
5, ,16, ,
5, ,16, ,
5, ,16, ,
5, ,15, ,
5, ,15, ,
3, ,15, ,
4, ,16, ,
2, ,16, ,
2, ,15, ,
2, ,15, ,
1, ,15, ,
1, ,15, ,
1, ,15, ,
0, ,15, ,
1, ,15, ,
0, ,16, ,
0, ,16, ,
1, ,16, ,
1, ,16, ,
2, ,15, ,
1, ,15, ,
1, ,15, ,
1, ,15, ,
1, ,15, ,
1, ,16, ,
1, ,16, ,
1, ,16, ,
1, ,15, ,
2, ,15, ,
0, ,16, ,
0, ,16, ,
0, ,15, ,
0, ,15, ,
0, ,15, ,
0, ,15, ,
0, ,15, ,
-1, ,15, ,
-2, ,16, ,
0, ,16, ,
-2, ,16, ,
-1, ,16, ,
-2, ,15, ,
-2, ,15, ,
-2, ,15, ,
-3, ,15, ,
-4, ,15, ,
-4, ,16, ,
-5, ,16, ,
-5, ,16, ,
-4, ,16, ,
-5, ,16, ,
-5, ,15, ,
-4, ,15, ,
-4, ,16, ,
-3, ,16, ,
-5, ,16, ,
-4, ,16, ,
-3, ,15, ,
-5, ,15, ,
-5, ,15, ,
-5, ,15, ,
-5, ,16, ,
-5, ,16, ,
-6, ,16, ,
-7, ,16, ,
-5, ,16, ,
-5, ,15, ,
-5, ,15, ,
-5, ,16, ,
-5, ,16, ,
-5, ,15, ,
-6, ,15, ,
-7, ,15, ,
-5, ,15, ,
-6, ,15, ,
-5, ,15, ,
-5, ,15, ,
-7, ,16, ,
-5, ,15, ,
-5, ,15, ,
-5, ,15, ,
-4, ,16, ,
-5, ,16, ,
-5, ,16, ,
-4, ,16, ,
-5, ,16, ,
-5, ,15, ,
-5, ,15, ,
-5, ,15, ,
-5, ,15, ,
-5, ,16, ,
-4, ,16, ,
-4, ,16, ,
-4, ,16, ,
-4, ,16, ,
-4, ,15, ,
-5, ,15, ,
-5, ,15, ,
-6, ,15, ,
-6, ,15, ,
-7, ,15, ,
-7, ,16, ,
-8, ,16, ,
-8, ,16, ,
-8, ,16, ,
-8, ,16, ,
-8, ,16, ,
-9, ,15, ,
-9, ,15, ,
-9, ,15, ,
-9, ,15, ,
-9, ,15, ,
-9, ,16, ,
-10, ,16, ,
-9, ,15, ,
-9, ,15, ,
-8, ,16, ,
-7, ,16, ,
-7, ,16, ,
-7, ,16, ,
-7, ,15, ,
-5, ,15, ,
-5, ,15, ,
-5, ,16, ,
-3, ,15, ,
-4, ,15, ,
-2, ,15, ,
-2, ,15, ,
-1, ,16, ,
0, ,16, ,
-1, ,15, ,
1, ,15, ,
1, ,15, ,
1, ,15, ,
1, ,15, ,
1, ,15, ,
1, ,15, ,
1, ,15, ,
1, ,16, ,
1, ,16, ,
0, ,15, ,
-1, ,15, ,
0, ,16, ,
0, ,15, ,
0, ,15, ,
0, ,16, ,
-1, ,16, ,
-1, ,15, ,
-2, ,15, ,
-2, ,15, ,
-2, ,15, ,
-3, ,15, ,
-3, ,16, ,
-2, ,16, ,
-4, ,16, ,
-3, ,15, ,
-3, ,15, ,
-3, ,15, ,
-3, ,16, ,
-4, ,16, ,
-4, ,16, ,
-4, ,16, ,
-4, ,16, ,
-3, ,16, ,
-4, ,16, ,
-4, ,15, ,
-4, ,15, ,
-5, ,15, ,
-6, ,15, ,
-5, ,15, ,
-6, ,15, ,
-6, ,16, ,
-6, ,15, ,
-7, ,15, ,
-6, ,16, ,
-7, ,16, ,
-7, ,16, ,
-6, ,16, ,
-7, ,16, ,
-5, ,16, ,
-4, ,16, ,
-4, ,15, ,
-4, ,15, ,
-4, ,15, ,
-2, ,16, ,
0, ,16, ,
-1, ,16, ,
0, ,16, ,
2, ,15, ,
3, ,15, ,
3, ,16, ,
4, ,16, ,
5, ,16, ,
6, ,16, ,
6, ,16, ,
7, ,16, ,
8, ,16, ,
7, ,16, ,
8, ,16, ,
8, ,16, ,
8, ,15, ,
9, ,15, ,
7, ,15, ,
7, ,15, ,
6, ,15, ,
5, ,15, ,
5, ,16, ,
4, ,16, ,
3, ,16, ,
3, ,16, ,
2, ,16, ,
2, ,16, ,
0, ,16, ,
0, ,15, ,
0, ,15, ,
0, ,15, ,
-1, ,16, ,
-1, ,15, ,
-2, ,15, ,
-2, ,15, ,
-3, ,15, ,
-3, ,15, ,
-2, ,15, ,
-3, ,15, ,
-3, ,15, ,
-1, ,15, ,
-2, ,16, ,
-1, ,16, ,
0, ,15, ,
0, ,15, ,
0, ,15, ,
0, ,15, ,
0, ,15, ,
0, ,15, ,
0, ,15, ,
0, ,15, ,
1, ,15, ,
1, ,15, ,
1, ,15, ,
0, ,15, ,
0, ,15, ,
1, ,15, ,
0, ,15, ,
0, ,16, ,
0, ,15, ,
-1, ,15, ,
-1, ,15, ,
-2, ,16, ,
0, ,16, ,
0, ,16, ,
-2, ,16, ,
-2, ,16, ,
-2, ,15, ,
-3, ,15, ,
-3, ,15, ,
-3, ,16, ,
-4, ,16, ,
-3, ,16, ,
-3, ,16, ,
-3, ,16, ,
-3, ,16, ,
-3, ,16, ,
-3, ,16, ,
-3, ,16, ,
-2, ,15, ,
-2, ,15, ,
-2, ,15, ,
-2, ,15, ,
-1, ,15, ,
-2, ,15, ,
-2, ,15, ,
-1, ,15, ,
-2, ,15, ,
-1, ,15, ,
-2, ,16, ,
-1, ,16, ,
-2, ,16, ,
-1, ,15, ,
-1, ,15, ,
-2, ,15, ,
-1, ,15, ,
-1, ,15, ,
-2, ,16, ,
-1, ,15, ,
-2, ,15, ,
-2, ,16, ,
-2, ,15, ,
-2, ,15, ,
-3, ,16, ,
-2, ,16, ,
-1, ,16, ,
-1, ,15, ,
0, ,15, ,
-1, ,16, ,
0, ,15, ,
-2, ,15, ,
-1, ,15, ,
0, ,15, ,
-1, ,15, ,
0, ,16, ,
0, ,16, ,
-1, ,16, ,
0, ,16, ,
-1, ,16, ,
-1, ,15, ,
-1, ,15, ,
0, ,15, ,
0, ,15, ,
0, ,15, ,
-1, ,15, ,
-1, ,15, ,
-2, ,15, ,
-1, ,15, ,
0, ,15, ,
0, ,15, ,
0, ,16, ,
-1, ,15, ,
-2, ,15, ,
-1, ,15, ,
-1, ,16, ,
-1, ,16, ,
0, ,15, ,
0, ,15, ,
0, ,15, ,
-1, ,16, ,
-1, ,16, ,
-1, ,16, ,
-1, ,16, ,
-1, ,16, ,
0, ,15, ,
-2, ,15, ,
0, ,15, ,
0, ,15, ,
-1, ,15, ,
-1, ,15, ,
-1, ,16, ,
0, ,16, ,
0, ,16, ,
0, ,16, ,
0, ,15, ,
0, ,15, ,
-1, ,15, ,
0, ,15, ,
0, ,16, ,
1, ,16, ,
2, ,15, ,
0, ,15, ,
0, ,15, ,
1, ,16, ,
0, ,16, ,
2, ,15, ,
0, ,15, ,
1, ,15, ,
1, ,15, ,
1, ,16, ,
2, ,16, ,
2, ,16, ,
2, ,15, ,
3, ,15, ,
1, ,15, ,
1, ,15, ,
3, ,15, ,
1, ,15, ,
1, ,16, ,
0, ,15, ,
0, ,15, ,
1, ,15, ,
1, ,16, ,
0, ,16, ,
0, ,15, ,
-1, ,15, ,
0, ,15, ,
1, ,15, ,
1, ,15, ,
1, ,15, ,
0, ,16, ,
0, ,15, ,
0, ,15, ,
0, ,15, ,
0, ,15, ,
0, ,16, ,
0, ,16, ,
0, ,16, ,
1, ,16, ,
1, ,15, ,
1, ,15, ,
1, ,15, ,
1, ,15, ,
1, ,15, ,
1, ,15, ,
2, ,15, ,
2, ,16, ,
2, ,15, ,
2, ,15, ,
1, ,15, ,
2, ,16, ,
3, ,16, ,
2, ,16, ,
2, ,15, ,
0, ,15, ,
2, ,15, ,
2, ,16, ,
2, ,15, ,
2, ,15, ,
2, ,15, ,
1, ,15, ,
2, ,15, ,
0, ,16, ,
1, ,15, ,
0, ,15, ,
0, ,15, ,
0, ,16, ,
1, ,15, ,
1, ,15, ,
1, ,15, ,
0, ,16, ,
0, ,16, ,
1, ,16, ,
1, ,15, ,
1, ,15, ,
0, ,15, ,
1, ,16, ,
1, ,16, ,
1, ,16, ,
1, ,16, ,
2, ,16, ,
1, ,16, ,
1, ,16, ,
1, ,15, ,
1, ,15, ,
2, ,16, ,
1, ,16, ,
1, ,16, ,
1, ,15, ,
1, ,15, ,
3, ,15, ,
1, ,15, ,
0, ,16, ,
1, ,15, ,
1, ,15, ,
1, ,15, ,
2, ,15, ,
0, ,15, ,
1, ,15, ,
2, ,15, ,
1, ,15, ,
2, ,15, ,
1, ,16, ,
1, ,15, ,
1, ,15, ,
1, ,16, ,
1, ,16, ,
1, ,16, ,
1, ,16, ,
1, ,15, ,
1, ,15, ,
1, ,15, ,
2, ,15, ,
2, ,15, ,
2, ,15, ,
2, ,15, ,
1, ,15, ,
2, ,15, ,
2, ,15, ,
2, ,15, ,
3, ,15, ,
2, ,16, ,
3, ,16, ,
3, ,16, ,
2, ,16, ,
3, ,16, ,
1, ,16, ,
2, ,15, ,
2, ,15, ,
1, ,15, ,
2, ,15, ,
2, ,16, ,
1, ,16, ,
1, ,15, ,
1, ,15, ,
0, ,16, ,
0, ,16, ,
0, ,16, ,
0, ,16, ,
0, ,16, ,
0, ,15, ,
0, ,15, ,
-1, ,15, ,
-1, ,15, ,
0, ,15, ,
-1, ,15, ,
0, ,15, ,
-1, ,15, ,
-1, ,15, ,
-1, ,15, ,
-1, ,16, ,
-2, ,16, ,
-1, ,16, ,
-1, ,16, ,
-1, ,16, ,
-2, ,16, ,
-2, ,16, ,
-2, ,16, ,
-2, ,16, ,
-1, ,16, ,
-1, ,16, ,
-2, ,16, ,
-2, ,16, ,
-1, ,16, ,
-2, ,16, ,
-1, ,15, ,
-2, ,15, ,
-2, ,15, ,
-1, ,15, ,
-1, ,15, ,
-1, ,15, ,
-1, ,15, ,
-1, ,15, ,
-1, ,15, ,
-2, ,16, ,
0, ,15, ,
0, ,15, ,
0, ,15, ,
0, ,15, ,
0, ,16, ,
0, ,16, ,
1, ,16, ,
0, ,16, ,
-2, ,16, ,
1, ,16, ,
0, ,16, ,
1, ,16, ,
1, ,16, ,
1, ,16, ,
1, ,15, ,
0, ,15, ,
0, ,16, ,
1, ,16, ,
0, ,16, ,
2, ,15, ,
1, ,15, ,
1, ,16, ,
1, ,16, ,
1, ,16, ,
0, ,16, ,
1, ,15, ,
0, ,15, ,
0, ,15, ,
0, ,16, ,
0, ,15, ,
0, ,15, ,
-1, ,15, ,
-1, ,16, ,
0, ,16, ,
-1, ,16, ,
0, ,16, ,
0, ,16, ,
-2, ,16, ,
-1, ,16, ,
-1, ,15, ,
-2, ,15, ,
-2, ,15, ,
-3, ,15, ,
-1, ,15, ,
-2, ,16, ,
-3, ,16, ,
-1, ,16, ,
-4, ,16, ,
-2, ,15, ,
-2, ,15, ,
-2, ,15, ,
-2, ,15, ,
-1, ,16, ,
-1, ,16, ,
-2, ,16, ,
-3, ,16, ,
-4, ,16, ,
-2, ,15, ,
-2, ,15, ,
-1, ,15, ,
-1, ,16, ,
-2, ,16, ,
