raw_data/100% Glycerol, Impulsion 2Hz, Sonde 5MHz, Rampe 0.7Hz/temp0000278.CSV

Format,1.0B,
Memory Length,10000,Memory Length,10000,
IntpDistance,0,IntpDistance,0,
Trigger Address,159,Trigger Address,159,
Trigger Level,2.720E-01,Trigger Level,2.720E-01,
Source,CH1,Source,CH2,
Vertical Units,V,Vertical Units,V,
Vertical Units Div,0,Vertical Units Div,0,
Vertical Units Extend Div,16,Vertical Units Extend Div,16,
Label,,Label,,
Probe Type,0,Probe Type,0,
Probe Ratio,1.000e+00,Probe Ratio,1.000e+00,
Vertical Scale,2.000e-01,Vertical Scale,2.000e+00,
Vertical Position,0.000e+00,Vertical Position,0.000e+00,
Horizontal Units,S,Horizontal Units,S,
Horizontal Scale,5.000E-06,Horizontal Scale,5.000E-06,
Horizontal Position,2.420E-05,Horizontal Position,2.420E-05,
Horizontal Mode,Main,Horizontal Mode,Main,
SincET Mode,Real Time,SincET Mode,Real Time,
Sampling Period,5.000e-09,Sampling Period,5.000e-09,
Horizontal Old Scale,5.000E-06,Horizontal Old Scale,5.000E-06,
Horizontal Old Position,2.420E-05,Horizontal Old Position,2.420E-05,
Firmware,V1.32,Firmware,V1.32,
Mode,Fast,Mode,Fast,
Waveform Data,,Waveform Data,,
1, ,-28, ,
3, ,-28, ,
2, ,-28, ,
2, ,-28, ,
2, ,-28, ,
2, ,-28, ,
2, ,-28, ,
2, ,-28, ,
2, ,-28, ,
3, ,-28, ,
2, ,-28, ,
3, ,-28, ,
2, ,-28, ,
2, ,-28, ,
3, ,-28, ,
2, ,-28, ,
1, ,-28, ,
1, ,-28, ,
1, ,-28, ,
2, ,-28, ,
2, ,-28, ,
1, ,-28, ,
2, ,-28, ,
2, ,-28, ,
3, ,-28, ,
3, ,-28, ,
2, ,-28, ,
2, ,-28, ,
2, ,-28, ,
2, ,-28, ,
2, ,-28, ,
1, ,-28, ,
1, ,-28, ,
3, ,-28, ,
2, ,-28, ,
2, ,-28, ,
1, ,-28, ,
2, ,-28, ,
2, ,-28, ,
1, ,-28, ,
2, ,-28, ,
3, ,-28, ,
2, ,-28, ,
3, ,-28, ,
2, ,-28, ,
1, ,-28, ,
2, ,-28, ,
2, ,-28, ,
2, ,-28, ,
2, ,-28, ,
3, ,-28, ,
3, ,-28, ,
2, ,-28, ,
2, ,-28, ,
2, ,-28, ,
2, ,-28, ,
2, ,-28, ,
3, ,-28, ,
1, ,-28, ,
2, ,-28, ,
2, ,-28, ,
2, ,-28, ,
2, ,-28, ,
2, ,-28, ,
1, ,-28, ,
2, ,-28, ,
2, ,-28, ,
2, ,-28, ,
2, ,-28, ,
2, ,-28, ,
2, ,-28, ,
2, ,-28, ,
1, ,-28, ,
3, ,-28, ,
3, ,-28, ,
3, ,-28, ,
2, ,-28, ,
1, ,-28, ,
2, ,-28, ,
2, ,-28, ,
1, ,-28, ,
2, ,-28, ,
1, ,-28, ,
2, ,-28, ,
2, ,-28, ,
2, ,-28, ,
2, ,-28, ,
2, ,-28, ,
1, ,-28, ,
2, ,-28, ,
2, ,-28, ,
2, ,-28, ,
3, ,-28, ,
2, ,-28, ,
2, ,-28, ,
1, ,-28, ,
1, ,-28, ,
3, ,-28, ,
2, ,-28, ,
2, ,-28, ,
3, ,-28, ,
2, ,-28, ,
2, ,-28, ,
1, ,-28, ,
2, ,-28, ,
3, ,-28, ,
1, ,-28, ,
4, ,-28, ,
2, ,-28, ,
1, ,-28, ,
2, ,-28, ,
1, ,-28, ,
2, ,-28, ,
2, ,-28, ,
2, ,-28, ,
2, ,-28, ,
2, ,-28, ,
2, ,-28, ,
2, ,-28, ,
1, ,-28, ,
2, ,-28, ,
2, ,-28, ,
2, ,-28, ,
2, ,-28, ,
2, ,-28, ,
1, ,-28, ,
3, ,-28, ,
2, ,-28, ,
2, ,-28, ,
3, ,-28, ,
2, ,-28, ,
3, ,-28, ,
2, ,-28, ,
2, ,-28, ,
2, ,-28, ,
1, ,-28, ,
1, ,-28, ,
1, ,-28, ,
2, ,-28, ,
2, ,-28, ,
3, ,-28, ,
2, ,-28, ,
2, ,-28, ,
2, ,-28, ,
2, ,-28, ,
4, ,-28, ,
2, ,-28, ,
1, ,-28, ,
2, ,-28, ,
2, ,-28, ,
2, ,-28, ,
2, ,-28, ,
2, ,-28, ,
2, ,-28, ,
1, ,-28, ,
2, ,-28, ,
2, ,-28, ,
1, ,-28, ,
2, ,-28, ,
1, ,-28, ,
2, ,-28, ,
2, ,-28, ,
2, ,-28, ,
2, ,-28, ,
1, ,-28, ,
2, ,-28, ,
-1, ,-28, ,
2, ,-28, ,
98, ,-28, ,
125, ,-28, ,
125, ,-28, ,
125, ,-28, ,
120, ,-28, ,
116, ,-28, ,
1, ,-28, ,
-3, ,-28, ,
125, ,-28, ,
125, ,-28, ,
125, ,-28, ,
125, ,-28, ,
125, ,-28, ,
125, ,-28, ,
125, ,-28, ,
125, ,-28, ,
125, ,-28, ,
125, ,-28, ,
125, ,-28, ,
125, ,-28, ,
125, ,-28, ,
125, ,-28, ,
125, ,-28, ,
125, ,-28, ,
125, ,-28, ,
125, ,-28, ,
125, ,-28, ,
125, ,-28, ,
125, ,-28, ,
125, ,-28, ,
125, ,-28, ,
125, ,-28, ,
125, ,-28, ,
125, ,-28, ,
124, ,-28, ,
124, ,-28, ,
115, ,-28, ,
108, ,-28, ,
106, ,-28, ,
101, ,-28, ,
93, ,-28, ,
91, ,-28, ,
86, ,-28, ,
83, ,-28, ,
74, ,-28, ,
71, ,-28, ,
68, ,-28, ,
64, ,-28, ,
57, ,-28, ,
57, ,-28, ,
53, ,-28, ,
51, ,-28, ,
47, ,-28, ,
44, ,-28, ,
44, ,-28, ,
41, ,-28, ,
36, ,-28, ,
35, ,-28, ,
32, ,-28, ,
33, ,-28, ,
29, ,-28, ,
27, ,-28, ,
25, ,-28, ,
24, ,-28, ,
22, ,-28, ,
21, ,-28, ,
19, ,-28, ,
19, ,-28, ,
17, ,-28, ,
15, ,-28, ,
15, ,-28, ,
13, ,-28, ,
11, ,-28, ,
11, ,-28, ,
9, ,-28, ,
9, ,-28, ,
8, ,-28, ,
7, ,-28, ,
7, ,-28, ,
5, ,-28, ,
4, ,-28, ,
5, ,-28, ,
3, ,-28, ,
4, ,-28, ,
4, ,-28, ,
2, ,-28, ,
2, ,-28, ,
1, ,-28, ,
1, ,-28, ,
1, ,-28, ,
0, ,-28, ,
1, ,-28, ,
2, ,-28, ,
-1, ,-28, ,
-1, ,-28, ,
-1, ,-28, ,
0, ,-28, ,
0, ,-28, ,
-1, ,-28, ,
-1, ,-28, ,
-1, ,-28, ,
-3, ,-28, ,
-1, ,-28, ,
-2, ,-28, ,
-2, ,-28, ,
-2, ,-28, ,
-3, ,-28, ,
-3, ,-28, ,
-2, ,-28, ,
-2, ,-28, ,
-2, ,-28, ,
-3, ,-28, ,
-2, ,-28, ,
-2, ,-28, ,
-3, ,-28, ,
-2, ,-28, ,
-2, ,-28, ,
-3, ,-28, ,
-2, ,-28, ,
-3, ,-28, ,
-3, ,-28, ,
-2, ,-28, ,
-3, ,-28, ,
-2, ,-28, ,
-2, ,-28, ,
-2, ,-28, ,
-2, ,-28, ,
-3, ,-28, ,
-2, ,-28, ,
-2, ,-28, ,
-3, ,-28, ,
-2, ,-28, ,
-2, ,-28, ,
-2, ,-28, ,
-1, ,-28, ,
-2, ,-28, ,
-2, ,-28, ,
-1, ,-28, ,
-1, ,-28, ,
-1, ,-28, ,
-2, ,-28, ,
-1, ,-28, ,
-1, ,-28, ,
-2, ,-28, ,
-2, ,-28, ,
-1, ,-28, ,
-1, ,-28, ,
-1, ,-28, ,
-1, ,-28, ,
-2, ,-28, ,
-1, ,-28, ,
-1, ,-28, ,
-1, ,-28, ,
0, ,-28, ,
0, ,-28, ,
0, ,-28, ,
0, ,-28, ,
-1, ,-28, ,
0, ,-28, ,
-2, ,-28, ,
0, ,-28, ,
0, ,-28, ,
0, ,-28, ,
0, ,-28, ,
0, ,-28, ,
0, ,-28, ,
0, ,-28, ,
0, ,-28, ,
0, ,-28, ,
1, ,-28, ,
0, ,-28, ,
1, ,-28, ,
1, ,-28, ,
0, ,-28, ,
0, ,-28, ,
0, ,-28, ,
0, ,-28, ,
0, ,-28, ,
0, ,-28, ,
1, ,-28, ,
0, ,-28, ,
1, ,-28, ,
1, ,-28, ,
1, ,-28, ,
1, ,-28, ,
0, ,-28, ,
0, ,-28, ,
0, ,-28, ,
1, ,-28, ,
0, ,-28, ,
0, ,-28, ,
0, ,-28, ,
1, ,-28, ,
2, ,-28, ,
1, ,-28, ,
1, ,-28, ,
1, ,-28, ,
0, ,-28, ,
1, ,-28, ,
1, ,-28, ,
0, ,-28, ,
1, ,-28, ,
1, ,-28, ,
1, ,-28, ,
2, ,-28, ,
1, ,-28, ,
1, ,-28, ,
0, ,-28, ,
0, ,-28, ,
1, ,-28, ,
1, ,-28, ,
1, ,-28, ,
2, ,-28, ,
2, ,-28, ,
1, ,-28, ,
1, ,-28, ,
1, ,-28, ,
2, ,-28, ,
1, ,-28, ,
2, ,-28, ,
2, ,-28, ,
1, ,-28, ,
2, ,-28, ,
1, ,-28, ,
2, ,-28, ,
1, ,-28, ,
0, ,-28, ,
2, ,-28, ,
2, ,-28, ,
1, ,-28, ,
2, ,-28, ,
1, ,-28, ,
2, ,-28, ,
2, ,-28, ,
2, ,-28, ,
2, ,-28, ,
2, ,-28, ,
2, ,-28, ,
2, ,-28, ,
2, ,-28, ,
2, ,-28, ,
2, ,-28, ,
1, ,-28, ,
2, ,-28, ,
2, ,-28, ,
1, ,-28, ,
2, ,-28, ,
2, ,-28, ,
1, ,-28, ,
2, ,-28, ,
1, ,-28, ,
1, ,-28, ,
2, ,-28, ,
1, ,-28, ,
2, ,-28, ,
0, ,-28, ,
0, ,-28, ,
0, ,-28, ,
0, ,-28, ,
1, ,-28, ,
2, ,-28, ,
1, ,-28, ,
2, ,-28, ,
2, ,-28, ,
1, ,-28, ,
2, ,-28, ,
1, ,-28, ,
2, ,-28, ,
2, ,-28, ,
1, ,-28, ,
2, ,-28, ,
1, ,-28, ,
0, ,-28, ,
0, ,-28, ,
0, ,-28, ,
0, ,-28, ,
0, ,-28, ,
0, ,-28, ,
0, ,-28, ,
0, ,-28, ,
0, ,-28, ,
1, ,-28, ,
1, ,-28, ,
2, ,-28, ,
2, ,-28, ,
2, ,-28, ,
2, ,-28, ,
1, ,-28, ,
1, ,-28, ,
2, ,-28, ,
1, ,-28, ,
2, ,-28, ,
2, ,-28, ,
0, ,-28, ,
1, ,-28, ,
0, ,-28, ,
1, ,-28, ,
2, ,-28, ,
1, ,-28, ,
1, ,-28, ,
2, ,-28, ,
1, ,-28, ,
2, ,-28, ,
0, ,-28, ,
1, ,-28, ,
2, ,-28, ,
2, ,-28, ,
2, ,-28, ,
2, ,-28, ,
0, ,-28, ,
1, ,-28, ,
0, ,-28, ,
0, ,-28, ,
0, ,-28, ,
0, ,-28, ,
0, ,-28, ,
1, ,-28, ,
0, ,-28, ,
1, ,-28, ,
0, ,-28, ,
1, ,-28, ,
2, ,-28, ,
1, ,-28, ,
2, ,-28, ,
3, ,-28, ,
2, ,-28, ,
2, ,-28, ,
2, ,-28, ,
2, ,-28, ,
2, ,-28, ,
1, ,-28, ,
1, ,-28, ,
0, ,-28, ,
0, ,-28, ,
0, ,-28, ,
0, ,-28, ,
0, ,-28, ,
1, ,-28, ,
1, ,-28, ,
1, ,-28, ,
1, ,-28, ,
0, ,-28, ,
1, ,-28, ,
1, ,-28, ,
0, ,-28, ,
0, ,-28, ,
-1, ,-28, ,
0, ,-28, ,
-2, ,-28, ,
-3, ,-28, ,
-3, ,-28, ,
-5, ,-28, ,
-5, ,-28, ,
-6, ,-28, ,
-8, ,-28, ,
-8, ,-28, ,
-6, ,-28, ,
-7, ,-28, ,
-6, ,-28, ,
-7, ,-28, ,
-7, ,-28, ,
-6, ,-28, ,
-7, ,-28, ,
-6, ,-28, ,
-6, ,-28, ,
-8, ,-28, ,
-8, ,-28, ,
-11, ,-28, ,
-11, ,-28, ,
-14, ,-28, ,
-16, ,-28, ,
-18, ,-28, ,
-20, ,-28, ,
-21, ,-28, ,
-21, ,-28, ,
-23, ,-28, ,
-24, ,-28, ,
-24, ,-28, ,
-24, ,-28, ,
-24, ,-28, ,
-24, ,-28, ,
-24, ,-28, ,
-23, ,-28, ,
-24, ,-28, ,
-25, ,-28, ,
-25, ,-28, ,
-26, ,-28, ,
-28, ,-28, ,
-30, ,-28, ,
-32, ,-28, ,
-31, ,-28, ,
-32, ,-28, ,
-32, ,-28, ,
-31, ,-28, ,
-32, ,-28, ,
-28, ,-28, ,
-24, ,-28, ,
-23, ,-28, ,
-20, ,-28, ,
-18, ,-28, ,
-12, ,-28, ,
-10, ,-28, ,
-9, ,-28, ,
-8, ,-28, ,
-6, ,-28, ,
-7, ,-28, ,
-7, ,-28, ,
-7, ,-28, ,
-9, ,-28, ,
-8, ,-28, ,
-10, ,-28, ,
-10, ,-28, ,
-10, ,-28, ,
-9, ,-28, ,
-7, ,-28, ,
-7, ,-28, ,
-4, ,-28, ,
-3, ,-28, ,
-2, ,-28, ,
0, ,-28, ,
0, ,-28, ,
0, ,-28, ,
0, ,-28, ,
-1, ,-28, ,
-4, ,-28, ,
-5, ,-28, ,
-5, ,-28, ,
-7, ,-28, ,
-8, ,-28, ,
-11, ,-28, ,
-12, ,-28, ,
-13, ,-28, ,
-15, ,-28, ,
-15, ,-28, ,
-15, ,-28, ,
-15, ,-28, ,
-14, ,-28, ,
-14, ,-28, ,
-14, ,-28, ,
-16, ,-28, ,
-17, ,-28, ,
-18, ,-28, ,
-19, ,-28, ,
-20, ,-28, ,
-25, ,-28, ,
-26, ,-28, ,
-27, ,-28, ,
-29, ,-28, ,
-29, ,-28, ,
-28, ,-28, ,
-28, ,-28, ,
-27, ,-28, ,
-24, ,-28, ,
-24, ,-28, ,
-22, ,-28, ,
-20, ,-28, ,
-19, ,-28, ,
-19, ,-28, ,
-19, ,-28, ,
-18, ,-28, ,
-19, ,-28, ,
-20, ,-28, ,
-20, ,-28, ,
-22, ,-28, ,
-24, ,-28, ,
-25, ,-28, ,
-26, ,-28, ,
-26, ,-28, ,
-28, ,-28, ,
-30, ,-28, ,
-30, ,-28, ,
-31, ,-28, ,
-32, ,-28, ,
-32, ,-28, ,
-33, ,-28, ,
-32, ,-28, ,
-32, ,-28, ,
-32, ,-28, ,
-30, ,-28, ,
-30, ,-28, ,
-29, ,-28, ,
-28, ,-28, ,
-28, ,-28, ,
-28, ,-28, ,
-27, ,-28, ,
-28, ,-28, ,
-28, ,-28, ,
-30, ,-28, ,
-31, ,-28, ,
-31, ,-28, ,
-31, ,-28, ,
-31, ,-28, ,
-30, ,-28, ,
-29, ,-28, ,
-28, ,-28, ,
-29, ,-28, ,
-27, ,-28, ,
-26, ,-28, ,
-27, ,-28, ,
-27, ,-28, ,
-28, ,-28, ,
-31, ,-28, ,
-32, ,-28, ,
-33, ,-28, ,
-35, ,-28, ,
-36, ,-28, ,
-37, ,-28, ,
-37, ,-28, ,
-36, ,-28, ,
-36, ,-28, ,
-35, ,-28, ,
-35, ,-28, ,
-33, ,-28, ,
-32, ,-28, ,
-32, ,-28, ,
-30, ,-28, ,
-30, ,-28, ,
-30, ,-28, ,
-29, ,-28, ,
-29, ,-28, ,
-28, ,-28, ,
-29, ,-28, ,
-27, ,-28, ,
-26, ,-28, ,
-24, ,-28, ,
-23, ,-28, ,
-22, ,-28, ,
-20, ,-28, ,
-19, ,-28, ,
-16, ,-28, ,
-16, ,-28, ,
-14, ,-28, ,
-12, ,-28, ,
-12, ,-28, ,
-9, ,-28, ,
-9, ,-28, ,
-7, ,-28, ,
-5, ,-28, ,
-4, ,-28, ,
-2, ,-28, ,
-1, ,-28, ,
1, ,-28, ,
2, ,-28, ,
1, ,-28, ,
3, ,-28, ,
3, ,-28, ,
2, ,-28, ,
3, ,-28, ,
4, ,-28, ,
3, ,-28, ,
5, ,-28, ,
5, ,-28, ,
5, ,-28, ,
7, ,-28, ,
7, ,-28, ,
8, ,-28, ,
8, ,-28, ,
7, ,-28, ,
7, ,-28, ,
6, ,-28, ,
5, ,-28, ,
4, ,-28, ,
3, ,-28, ,
4, ,-28, ,
2, ,-28, ,
1, ,-28, ,
1, ,-28, ,
0, ,-28, ,
0, ,-28, ,
0, ,-28, ,
0, ,-28, ,
0, ,-28, ,
1, ,-28, ,
1, ,-28, ,
1, ,-28, ,
1, ,-28, ,
1, ,-28, ,
3, ,-28, ,
2, ,-28, ,
2, ,-28, ,
2, ,-28, ,
1, ,-28, ,
2, ,-28, ,
1, ,-28, ,
0, ,-28, ,
1, ,-28, ,
0, ,-28, ,
-1, ,-28, ,
-2, ,-28, ,
-4, ,-28, ,
-5, ,-28, ,
-6, ,-28, ,
-8, ,-28, ,
-10, ,-28, ,
-11, ,-28, ,
-11, ,-28, ,
-12, ,-28, ,
-14, ,-28, ,
-15, ,-28, ,
-16, ,-28, ,
-18, ,-28, ,
-18, ,-28, ,
-20, ,-28, ,
-21, ,-28, ,
-23, ,-28, ,
-26, ,-28, ,
-25, ,-28, ,
-28, ,-28, ,
-30, ,-28, ,
-31, ,-28, ,
-32, ,-28, ,
-31, ,-28, ,
-32, ,-28, ,
-33, ,-28, ,
-32, ,-28, ,
-34, ,-28, ,
-34, ,-28, ,
-33, ,-28, ,
-33, ,-28, ,
-32, ,-28, ,
-32, ,-28, ,
-32, ,-28, ,
-32, ,-28, ,
-32, ,-28, ,
-32, ,-28, ,
-30, ,-28, ,
-30, ,-28, ,
-30, ,-28, ,
-26, ,-28, ,
-27, ,-28, ,
-24, ,-28, ,
-25, ,-28, ,
-22, ,-28, ,
-19, ,-28, ,
-17, ,-28, ,
-15, ,-28, ,
-14, ,-28, ,
-14, ,-28, ,
-12, ,-28, ,
-12, ,-28, ,
-10, ,-28, ,
-7, ,-28, ,
-7, ,-28, ,
-4, ,-28, ,
1, ,-28, ,
0, ,-28, ,
2, ,-28, ,
5, ,-28, ,
7, ,-28, ,
10, ,-28, ,
11, ,-28, ,
11, ,-28, ,
13, ,-28, ,
12, ,-28, ,
14, ,-28, ,
14, ,-28, ,
15, ,-28, ,
16, ,-28, ,
15, ,-28, ,
16, ,-28, ,
16, ,-28, ,
15, ,-28, ,
15, ,-28, ,
14, ,-28, ,
12, ,-28, ,
11, ,-28, ,
10, ,-28, ,
10, ,-28, ,
6, ,-28, ,
5, ,-28, ,
5, ,-28, ,
2, ,-28, ,
1, ,-28, ,
2, ,-28, ,
0, ,-28, ,
0, ,-28, ,
0, ,-28, ,
-3, ,-28, ,
-2, ,-28, ,
-4, ,-28, ,
-5, ,-28, ,
-5, ,-28, ,
-7, ,-28, ,
-6, ,-28, ,
-8, ,-28, ,
-9, ,-28, ,
-8, ,-28, ,
-10, ,-28, ,
-10, ,-28, ,
-10, ,-28, ,
-11, ,-28, ,
-11, ,-28, ,
-13, ,-28, ,
-13, ,-28, ,
-15, ,-28, ,
-16, ,-28, ,
-18, ,-28, ,
-18, ,-28, ,
-21, ,-28, ,
-20, ,-28, ,
-21, ,-28, ,
-24, ,-28, ,
-23, ,-28, ,
-26, ,-28, ,
-28, ,-28, ,
-28, ,-28, ,
-29, ,-28, ,
-29, ,-28, ,
-30, ,-28, ,
-31, ,-28, ,
-30, ,-28, ,
-31, ,-28, ,
-32, ,-28, ,
-32, ,-28, ,
-31, ,-28, ,
-30, ,-28, ,
-30, ,-28, ,
-31, ,-28, ,
-30, ,-28, ,
-30, ,-28, ,
-29, ,-28, ,
-27, ,-28, ,
-27, ,-28, ,
-25, ,-28, ,
-24, ,-28, ,
-25, ,-28, ,
-22, ,-28, ,
-22, ,-28, ,
-22, ,-28, ,
-19, ,-28, ,
-19, ,-28, ,
-18, ,-28, ,
-17, ,-28, ,
-18, ,-28, ,
-16, ,-28, ,
-18, ,-28, ,
-15, ,-28, ,
-15, ,-28, ,
-14, ,-28, ,
-12, ,-28, ,
-10, ,-28, ,
-10, ,-28, ,
-8, ,-28, ,
-8, ,-28, ,
-7, ,-28, ,
-4, ,-28, ,
-4, ,-28, ,
-4, ,-28, ,
-3, ,-28, ,
-3, ,-28, ,
-3, ,-28, ,
-4, ,-28, ,
-3, ,-28, ,
-1, ,-28, ,
-5, ,-28, ,
-3, ,-28, ,
-4, ,-28, ,
-4, ,-28, ,
-4, ,-28, ,
-5, ,-28, ,
-6, ,-28, ,
-7, ,-28, ,
-8, ,-28, ,
-8, ,-28, ,
-8, ,-28, ,
-10, ,-28, ,
-10, ,-28, ,
-11, ,-28, ,
-12, ,-28, ,
-11, ,-28, ,
-13, ,-28, ,
-13, ,-28, ,
-12, ,-28, ,
-14, ,-28, ,
-13, ,-28, ,
-13, ,-28, ,
-14, ,-28, ,
-13, ,-28, ,
-15, ,-28, ,
-13, ,-28, ,
-12, ,-28, ,
-13, ,-28, ,
-13, ,-28, ,
-14, ,-28, ,
-12, ,-28, ,
-12, ,-28, ,
-12, ,-28, ,
-12, ,-28, ,
-10, ,-28, ,
-10, ,-28, ,
-9, ,-28, ,
-9, ,-28, ,
-9, ,-28, ,
-7, ,-28, ,
-8, ,-28, ,
-6, ,-28, ,
-5, ,-28, ,
-6, ,-28, ,
-4, ,-28, ,
-4, ,-28, ,
-2, ,-28, ,
-1, ,-28, ,
0, ,-28, ,
1, ,-28, ,
2, ,-28, ,
1, ,-28, ,
4, ,-28, ,
3, ,-28, ,
4, ,-28, ,
4, ,-28, ,
4, ,-28, ,
4, ,-28, ,
3, ,-28, ,
2, ,-28, ,
1, ,-28, ,
1, ,-28, ,
0, ,-28, ,
0, ,-28, ,
-2, ,-28, ,
-2, ,-28, ,
-4, ,-28, ,
-6, ,-28, ,
-5, ,-28, ,
-7, ,-28, ,
-8, ,-28, ,
-10, ,-28, ,
-12, ,-28, ,
-11, ,-28, ,
-15, ,-28, ,
-15, ,-28, ,
-16, ,-28, ,
-17, ,-28, ,
-19, ,-28, ,
-18, ,-28, ,
-20, ,-28, ,
-19, ,-28, ,
-18, ,-28, ,
-18, ,-28, ,
-18, ,-28, ,
-19, ,-28, ,
-17, ,-28, ,
-15, ,-28, ,
-15, ,-28, ,
-14, ,-28, ,
-13, ,-28, ,
-12, ,-28, ,
-9, ,-28, ,
-9, ,-28, ,
-8, ,-28, ,
-5, ,-28, ,
-5, ,-28, ,
-4, ,-28, ,
0, ,-28, ,
0, ,-28, ,
1, ,-28, ,
1, ,-28, ,
3, ,-28, ,
3, ,-28, ,
2, ,-28, ,
3, ,-28, ,
3, ,-28, ,
1, ,-28, ,
2, ,-28, ,
1, ,-28, ,
0, ,-28, ,
1, ,-28, ,
-1, ,-28, ,
-1, ,-28, ,
-1, ,-28, ,
-3, ,-28, ,
-3, ,-28, ,
-5, ,-28, ,
-6, ,-28, ,
-5, ,-28, ,
-7, ,-28, ,
-7, ,-28, ,
-7, ,-28, ,
-8, ,-28, ,
-8, ,-28, ,
-8, ,-28, ,
-7, ,-28, ,
-7, ,-28, ,
-7, ,-28, ,
-7, ,-28, ,
-6, ,-28, ,
-7, ,-28, ,
-7, ,-28, ,
-7, ,-28, ,
-7, ,-28, ,
-6, ,-28, ,
-7, ,-28, ,
-7, ,-28, ,
-6, ,-28, ,
-7, ,-28, ,
-6, ,-28, ,
-7, ,-28, ,
-7, ,-28, ,
-6, ,-28, ,
-6, ,-28, ,
-6, ,-28, ,
-5, ,-28, ,
-6, ,-28, ,
-6, ,-28, ,
-7, ,-28, ,
-7, ,-28, ,
-7, ,-28, ,
-7, ,-28, ,
-6, ,-28, ,
-5, ,-28, ,
-5, ,-28, ,
-5, ,-28, ,
-5, ,-28, ,
-4, ,-28, ,
-3, ,-28, ,
-2, ,-28, ,
-2, ,-28, ,
-1, ,-28, ,
-2, ,-28, ,
0, ,-28, ,
-1, ,-28, ,
-2, ,-28, ,
0, ,-28, ,
-1, ,-28, ,
2, ,-28, ,
-2, ,-28, ,
0, ,-28, ,
0, ,-28, ,
-1, ,-28, ,
0, ,-28, ,
0, ,-28, ,
0, ,-28, ,
0, ,-28, ,
0, ,-28, ,
-1, ,-28, ,
-1, ,-28, ,
-2, ,-28, ,
-2, ,-28, ,
0, ,-28, ,
-2, ,-28, ,
-2, ,-28, ,
-2, ,-28, ,
-3, ,-28, ,
-3, ,-28, ,
-3, ,-28, ,
-2, ,-28, ,
-1, ,-28, ,
-3, ,-28, ,
-1, ,-28, ,
0, ,-28, ,
-1, ,-28, ,
0, ,-28, ,
0, ,-28, ,
-1, ,-28, ,
1, ,-28, ,
0, ,-28, ,
0, ,-28, ,
0, ,-28, ,
0, ,-28, ,
0, ,-28, ,
0, ,-28, ,
0, ,-28, ,
0, ,-28, ,
0, ,-28, ,
1, ,-28, ,
0, ,-28, ,
0, ,-28, ,
1, ,-28, ,
1, ,-28, ,
1, ,-28, ,
1, ,-28, ,
1, ,-28, ,
1, ,-28, ,
2, ,-28, ,
1, ,-28, ,
1, ,-28, ,
0, ,-28, ,
1, ,-28, ,
1, ,-28, ,
1, ,-28, ,
2, ,-28, ,
3, ,-28, ,
3, ,-28, ,
3, ,-28, ,
2, ,-28, ,
2, ,-28, ,
2, ,-28, ,
2, ,-28, ,
1, ,-28, ,
2, ,-28, ,
2, ,-28, ,
2, ,-28, ,
1, ,-28, ,
2, ,-28, ,
2, ,-28, ,
1, ,-28, ,
3, ,-28, ,
3, ,-28, ,
3, ,-28, ,
4, ,-28, ,
3, ,-28, ,
3, ,-28, ,
4, ,-28, ,
4, ,-28, ,
3, ,-28, ,
4, ,-28, ,
4, ,-28, ,
4, ,-28, ,
4, ,-28, ,
3, ,-28, ,
5, ,-28, ,
5, ,-28, ,
6, ,-28, ,
7, ,-28, ,
6, ,-28, ,
7, ,-28, ,
6, ,-28, ,
6, ,-28, ,
7, ,-28, ,
6, ,-28, ,
8, ,-28, ,
7, ,-28, ,
7, ,-28, ,
8, ,-28, ,
7, ,-28, ,
7, ,-28, ,
7, ,-28, ,
6, ,-28, ,
6, ,-28, ,
6, ,-28, ,
5, ,-28, ,
6, ,-28, ,
5, ,-28, ,
4, ,-28, ,
4, ,-28, ,
3, ,-28, ,
3, ,-28, ,
2, ,-28, ,
2, ,-28, ,
2, ,-28, ,
1, ,-28, ,
1, ,-28, ,
2, ,-28, ,
0, ,-28, ,
1, ,-28, ,
1, ,-28, ,
0, ,-28, ,
1, ,-28, ,
0, ,-28, ,
0, ,-28, ,
1, ,-28, ,
0, ,-28, ,
0, ,-28, ,
0, ,-28, ,
0, ,-28, ,
0, ,-28, ,
-1, ,-28, ,
-1, ,-28, ,
-1, ,-28, ,
-2, ,-28, ,
-1, ,-28, ,
-1, ,-28, ,
-2, ,-28, ,
-2, ,-28, ,
-3, ,-28, ,
-4, ,-28, ,
-3, ,-28, ,
-4, ,-28, ,
-3, ,-28, ,
-5, ,-28, ,
-5, ,-28, ,
-6, ,-28, ,
-7, ,-28, ,
-6, ,-28, ,
-6, ,-28, ,
-7, ,-28, ,
-6, ,-28, ,
-6, ,-28, ,
-7, ,-28, ,
-7, ,-28, ,
-7, ,-28, ,
-6, ,-28, ,
-5, ,-28, ,
-5, ,-28, ,
-5, ,-28, ,
-5, ,-28, ,
-6, ,-28, ,
-5, ,-28, ,
-7, ,-28, ,
-6, ,-28, ,
-6, ,-28, ,
-7, ,-28, ,
-7, ,-28, ,
-6, ,-28, ,
-7, ,-28, ,
-7, ,-28, ,
-7, ,-28, ,
-7, ,-28, ,
-7, ,-28, ,
-7, ,-28, ,
-6, ,-28, ,
-8, ,-28, ,
-9, ,-28, ,
-7, ,-28, ,
-7, ,-28, ,
-7, ,-28, ,
-6, ,-28, ,
-6, ,-28, ,
-6, ,-28, ,
-5, ,-28, ,
-6, ,-28, ,
-4, ,-28, ,
-4, ,-28, ,
-4, ,-28, ,
-3, ,-28, ,
-3, ,-28, ,
-2, ,-28, ,
-2, ,-28, ,
-2, ,-28, ,
-2, ,-28, ,
-2, ,-28, ,
-3, ,-28, ,
-2, ,-28, ,
-3, ,-28, ,
-3, ,-28, ,
-3, ,-28, ,
-4, ,-28, ,
-4, ,-28, ,
-5, ,-28, ,
-5, ,-28, ,
-5, ,-28, ,
-6, ,-28, ,
-6, ,-28, ,
-6, ,-28, ,
-7, ,-28, ,
-5, ,-28, ,
-5, ,-28, ,
-4, ,-28, ,
-4, ,-28, ,
-5, ,-28, ,
-4, ,-28, ,
-4, ,-28, ,
-3, ,-28, ,
-2, ,-28, ,
-1, ,-28, ,
-1, ,-28, ,
0, ,-28, ,
0, ,-28, ,
1, ,-28, ,
1, ,-28, ,
1, ,-28, ,
2, ,-28, ,
2, ,-28, ,
3, ,-28, ,
4, ,-28, ,
2, ,-28, ,
3, ,-28, ,
3, ,-28, ,
3, ,-28, ,
4, ,-28, ,
4, ,-28, ,
3, ,-28, ,
3, ,-28, ,
2, ,-28, ,
2, ,-28, ,
1, ,-28, ,
2, ,-28, ,
2, ,-28, ,
1, ,-28, ,
1, ,-28, ,
1, ,-28, ,
1, ,-28, ,
2, ,-28, ,
2, ,-28, ,
0, ,-28, ,
0, ,-28, ,
0, ,-28, ,
0, ,-28, ,
0, ,-28, ,
-2, ,-28, ,
-2, ,-28, ,
-1, ,-28, ,
-2, ,-28, ,
-1, ,-28, ,
-4, ,-28, ,
-3, ,-28, ,
-2, ,-28, ,
-4, ,-28, ,
-2, ,-28, ,
-2, ,-28, ,
-3, ,-28, ,
-2, ,-28, ,
-2, ,-28, ,
-2, ,-28, ,
-2, ,-28, ,
-2, ,-28, ,
-2, ,-28, ,
-1, ,-28, ,
-1, ,-28, ,
-1, ,-28, ,
-1, ,-28, ,
-1, ,-28, ,
0, ,-28, ,
-1, ,-28, ,
0, ,-28, ,
0, ,-28, ,
-1, ,-28, ,
0, ,-28, ,
-2, ,-28, ,
-2, ,-28, ,
-1, ,-28, ,
-1, ,-28, ,
-1, ,-28, ,
-2, ,-28, ,
-2, ,-28, ,
-3, ,-28, ,
-3, ,-28, ,
-5, ,-28, ,
-5, ,-28, ,
-5, ,-28, ,
-4, ,-28, ,
-4, ,-28, ,
-4, ,-28, ,
-4, ,-28, ,
-5, ,-28, ,
-5, ,-28, ,
-5, ,-28, ,
-5, ,-28, ,
-5, ,-28, ,
-5, ,-28, ,
-5, ,-28, ,
-5, ,-28, ,
-6, ,-28, ,
-5, ,-28, ,
-4, ,-28, ,
-5, ,-28, ,
-4, ,-28, ,
-4, ,-28, ,
-5, ,-28, ,
-3, ,-28, ,
-4, ,-28, ,
-4, ,-28, ,
-2, ,-28, ,
-3, ,-28, ,
-3, ,-28, ,
-1, ,-28, ,
-1, ,-28, ,
-1, ,-28, ,
-1, ,-28, ,
-2, ,-28, ,
-1, ,-28, ,
-1, ,-28, ,
-1, ,-28, ,
0, ,-28, ,
-1, ,-28, ,
1, ,-28, ,
1, ,-28, ,
1, ,-28, ,
1, ,-28, ,
2, ,-28, ,
1, ,-28, ,
1, ,-28, ,
1, ,-28, ,
2, ,-28, ,
1, ,-28, ,
2, ,-28, ,
2, ,-28, ,
1, ,-28, ,
1, ,-28, ,
1, ,-28, ,
1, ,-28, ,
1, ,-28, ,
1, ,-28, ,
0, ,-28, ,
1, ,-28, ,
1, ,-28, ,
1, ,-28, ,
0, ,-28, ,
0, ,-28, ,
1, ,-28, ,
0, ,-28, ,
0, ,-28, ,
0, ,-28, ,
0, ,-28, ,
0, ,-28, ,
0, ,-28, ,
0, ,-28, ,
1, ,-28, ,
0, ,-28, ,
0, ,-28, ,
1, ,-28, ,
0, ,-28, ,
1, ,-28, ,
1, ,-28, ,
0, ,-28, ,
0, ,-28, ,
-1, ,-28, ,
0, ,-28, ,
0, ,-28, ,
-1, ,-28, ,
0, ,-28, ,
-1, ,-28, ,
-2, ,-28, ,
-1, ,-28, ,
-1, ,-28, ,
-1, ,-28, ,
-1, ,-28, ,
-2, ,-28, ,
0, ,-28, ,
-1, ,-28, ,
-2, ,-28, ,
-1, ,-28, ,
-2, ,-28, ,
-2, ,-28, ,
-3, ,-28, ,
-3, ,-28, ,
-3, ,-28, ,
-2, ,-28, ,
-2, ,-28, ,
-2, ,-28, ,
-2, ,-28, ,
-3, ,-28, ,
-3, ,-28, ,
-3, ,-28, ,
-3, ,-28, ,
-4, ,-28, ,
-4, ,-28, ,
-3, ,-28, ,
-3, ,-28, ,
-3, ,-28, ,
-3, ,-28, ,
-3, ,-28, ,
-2, ,-28, ,
-2, ,-28, ,
-2, ,-28, ,
-2, ,-28, ,
-2, ,-28, ,
-2, ,-28, ,
0, ,-28, ,
-1, ,-28, ,
-1, ,-28, ,
0, ,-28, ,
0, ,-28, ,
0, ,-28, ,
0, ,-28, ,
1, ,-28, ,
2, ,-28, ,
1, ,-28, ,
2, ,-28, ,
3, ,-28, ,
2, ,-28, ,
4, ,-28, ,
3, ,-28, ,
3, ,-28, ,
4, ,-28, ,
3, ,-28, ,
4, ,-28, ,
5, ,-28, ,
4, ,-28, ,
5, ,-28, ,
4, ,-28, ,
4, ,-28, ,
4, ,-28, ,
3, ,-28, ,
5, ,-28, ,
5, ,-28, ,
5, ,-28, ,
5, ,-28, ,
4, ,-28, ,
3, ,-28, ,
6, ,-28, ,
5, ,-28, ,
6, ,-28, ,
7, ,-28, ,
6, ,-28, ,
6, ,-28, ,
5, ,-28, ,
6, ,-28, ,
6, ,-28, ,
6, ,-28, ,
6, ,-28, ,
5, ,-28, ,
5, ,-28, ,
5, ,-28, ,
5, ,-28, ,
4, ,-28, ,
5, ,-28, ,
4, ,-28, ,
4, ,-28, ,
4, ,-28, ,
2, ,-28, ,
2, ,-28, ,
1, ,-28, ,
1, ,-28, ,
2, ,-28, ,
2, ,-28, ,
2, ,-28, ,
2, ,-28, ,
1, ,-28, ,
1, ,-28, ,
1, ,-28, ,
3, ,-28, ,
4, ,-28, ,
3, ,-28, ,
4, ,-28, ,
3, ,-28, ,
3, ,-28, ,
3, ,-28, ,
3, ,-28, ,
4, ,-28, ,
4, ,-28, ,
4, ,-28, ,
4, ,-28, ,
5, ,-28, ,
3, ,-28, ,
3, ,-28, ,
2, ,-28, ,
1, ,-28, ,
2, ,-28, ,
2, ,-28, ,
1, ,-28, ,
1, ,-28, ,
1, ,-28, ,
1, ,-28, ,
1, ,-28, ,
0, ,-28, ,
0, ,-28, ,
-1, ,-28, ,
-1, ,-28, ,
-1, ,-28, ,
-1, ,-28, ,
-1, ,-28, ,
-2, ,-28, ,
-2, ,-28, ,
-1, ,-28, ,
-1, ,-28, ,
0, ,-28, ,
1, ,-28, ,
-1, ,-28, ,
1, ,-28, ,
0, ,-28, ,
1, ,-28, ,
2, ,-28, ,
1, ,-28, ,
3, ,-28, ,
4, ,-28, ,
3, ,-28, ,
4, ,-28, ,
5, ,-28, ,
4, ,-28, ,
