raw_data/100% Glycerol, Impulsion 2Hz, Sonde 5MHz, Rampe 0.7Hz/temp0000188.CSV

Format,1.0B,
Memory Length,10000,Memory Length,10000,
IntpDistance,0,IntpDistance,0,
Trigger Address,159,Trigger Address,159,
Trigger Level,2.720E-01,Trigger Level,2.720E-01,
Source,CH1,Source,CH2,
Vertical Units,V,Vertical Units,V,
Vertical Units Div,0,Vertical Units Div,0,
Vertical Units Extend Div,16,Vertical Units Extend Div,16,
Label,,Label,,
Probe Type,0,Probe Type,0,
Probe Ratio,1.000e+00,Probe Ratio,1.000e+00,
Vertical Scale,2.000e-01,Vertical Scale,2.000e+00,
Vertical Position,0.000e+00,Vertical Position,0.000e+00,
Horizontal Units,S,Horizontal Units,S,
Horizontal Scale,5.000E-06,Horizontal Scale,5.000E-06,
Horizontal Position,2.420E-05,Horizontal Position,2.420E-05,
Horizontal Mode,Main,Horizontal Mode,Main,
SincET Mode,Real Time,SincET Mode,Real Time,
Sampling Period,5.000e-09,Sampling Period,5.000e-09,
Horizontal Old Scale,5.000E-06,Horizontal Old Scale,5.000E-06,
Horizontal Old Position,2.420E-05,Horizontal Old Position,2.420E-05,
Firmware,V1.32,Firmware,V1.32,
Mode,Fast,Mode,Fast,
Waveform Data,,Waveform Data,,
2, ,-21, ,
2, ,-20, ,
2, ,-20, ,
2, ,-20, ,
1, ,-20, ,
2, ,-20, ,
2, ,-20, ,
2, ,-20, ,
2, ,-20, ,
2, ,-20, ,
2, ,-20, ,
1, ,-20, ,
2, ,-20, ,
2, ,-20, ,
1, ,-21, ,
3, ,-21, ,
3, ,-21, ,
2, ,-21, ,
3, ,-21, ,
1, ,-20, ,
1, ,-21, ,
2, ,-21, ,
2, ,-21, ,
2, ,-20, ,
2, ,-21, ,
1, ,-21, ,
2, ,-21, ,
1, ,-20, ,
2, ,-20, ,
2, ,-20, ,
2, ,-20, ,
1, ,-20, ,
2, ,-20, ,
2, ,-21, ,
2, ,-21, ,
2, ,-21, ,
3, ,-20, ,
3, ,-20, ,
2, ,-20, ,
2, ,-21, ,
2, ,-21, ,
2, ,-20, ,
2, ,-20, ,
2, ,-20, ,
1, ,-20, ,
3, ,-20, ,
2, ,-20, ,
2, ,-20, ,
2, ,-21, ,
1, ,-21, ,
2, ,-21, ,
2, ,-21, ,
1, ,-20, ,
1, ,-20, ,
1, ,-20, ,
1, ,-20, ,
3, ,-21, ,
1, ,-21, ,
4, ,-21, ,
2, ,-21, ,
2, ,-20, ,
2, ,-20, ,
2, ,-20, ,
2, ,-20, ,
3, ,-20, ,
3, ,-20, ,
3, ,-21, ,
2, ,-21, ,
2, ,-20, ,
2, ,-21, ,
2, ,-21, ,
2, ,-21, ,
2, ,-20, ,
0, ,-20, ,
3, ,-20, ,
2, ,-20, ,
1, ,-20, ,
3, ,-21, ,
3, ,-21, ,
3, ,-21, ,
3, ,-21, ,
2, ,-21, ,
2, ,-21, ,
1, ,-20, ,
2, ,-20, ,
2, ,-20, ,
2, ,-20, ,
2, ,-21, ,
2, ,-21, ,
1, ,-20, ,
2, ,-20, ,
2, ,-20, ,
1, ,-20, ,
3, ,-20, ,
2, ,-20, ,
2, ,-20, ,
2, ,-20, ,
2, ,-20, ,
2, ,-20, ,
2, ,-20, ,
2, ,-20, ,
2, ,-20, ,
1, ,-20, ,
2, ,-20, ,
1, ,-20, ,
2, ,-20, ,
2, ,-20, ,
1, ,-20, ,
2, ,-20, ,
2, ,-20, ,
2, ,-20, ,
2, ,-20, ,
3, ,-20, ,
2, ,-20, ,
2, ,-20, ,
2, ,-20, ,
2, ,-20, ,
2, ,-20, ,
1, ,-20, ,
3, ,-20, ,
3, ,-20, ,
2, ,-20, ,
2, ,-20, ,
2, ,-20, ,
1, ,-20, ,
2, ,-20, ,
3, ,-20, ,
2, ,-20, ,
1, ,-20, ,
3, ,-20, ,
2, ,-20, ,
2, ,-20, ,
2, ,-20, ,
2, ,-20, ,
1, ,-20, ,
3, ,-20, ,
3, ,-20, ,
2, ,-20, ,
3, ,-20, ,
3, ,-20, ,
2, ,-21, ,
2, ,-21, ,
2, ,-21, ,
2, ,-21, ,
3, ,-21, ,
2, ,-20, ,
2, ,-20, ,
1, ,-20, ,
1, ,-20, ,
2, ,-20, ,
2, ,-20, ,
3, ,-20, ,
3, ,-20, ,
1, ,-20, ,
3, ,-21, ,
2, ,-21, ,
2, ,-20, ,
3, ,-20, ,
2, ,-20, ,
2, ,-20, ,
2, ,-21, ,
2, ,-21, ,
2, ,-21, ,
1, ,-21, ,
-1, ,-20, ,
-1, ,-20, ,
0, ,-20, ,
0, ,-20, ,
70, ,-20, ,
125, ,-20, ,
125, ,-20, ,
125, ,-20, ,
122, ,-20, ,
117, ,-21, ,
35, ,-21, ,
-20, ,-21, ,
125, ,-20, ,
125, ,-20, ,
125, ,-20, ,
125, ,-20, ,
125, ,-21, ,
125, ,-21, ,
125, ,-20, ,
125, ,-20, ,
125, ,-20, ,
125, ,-20, ,
125, ,-20, ,
125, ,-20, ,
125, ,-20, ,
125, ,-20, ,
125, ,-20, ,
125, ,-20, ,
125, ,-21, ,
125, ,-21, ,
125, ,-21, ,
125, ,-20, ,
125, ,-20, ,
125, ,-20, ,
125, ,-20, ,
125, ,-20, ,
125, ,-20, ,
125, ,-20, ,
124, ,-21, ,
124, ,-21, ,
115, ,-20, ,
113, ,-20, ,
105, ,-20, ,
103, ,-20, ,
96, ,-21, ,
92, ,-21, ,
88, ,-21, ,
83, ,-20, ,
76, ,-21, ,
73, ,-21, ,
69, ,-20, ,
66, ,-20, ,
60, ,-20, ,
58, ,-20, ,
56, ,-20, ,
53, ,-20, ,
46, ,-20, ,
46, ,-21, ,
44, ,-21, ,
41, ,-21, ,
36, ,-20, ,
35, ,-20, ,
35, ,-20, ,
33, ,-20, ,
30, ,-20, ,
27, ,-20, ,
25, ,-20, ,
25, ,-20, ,
23, ,-21, ,
20, ,-21, ,
20, ,-21, ,
19, ,-20, ,
16, ,-20, ,
17, ,-20, ,
13, ,-20, ,
14, ,-20, ,
12, ,-20, ,
10, ,-20, ,
10, ,-20, ,
9, ,-20, ,
9, ,-20, ,
9, ,-20, ,
7, ,-20, ,
6, ,-20, ,
5, ,-20, ,
5, ,-20, ,
5, ,-20, ,
4, ,-20, ,
4, ,-20, ,
4, ,-20, ,
2, ,-20, ,
2, ,-20, ,
2, ,-21, ,
1, ,-21, ,
1, ,-21, ,
0, ,-20, ,
0, ,-20, ,
0, ,-20, ,
-1, ,-20, ,
-1, ,-20, ,
-1, ,-20, ,
-2, ,-20, ,
-1, ,-21, ,
-2, ,-21, ,
-2, ,-21, ,
-1, ,-20, ,
-1, ,-20, ,
-2, ,-20, ,
-2, ,-20, ,
-2, ,-21, ,
-2, ,-21, ,
-2, ,-21, ,
-2, ,-20, ,
-1, ,-20, ,
-3, ,-20, ,
-3, ,-20, ,
-3, ,-20, ,
-3, ,-20, ,
-3, ,-20, ,
-3, ,-20, ,
-3, ,-20, ,
-2, ,-20, ,
-2, ,-20, ,
-2, ,-20, ,
-2, ,-20, ,
-2, ,-20, ,
-1, ,-20, ,
-3, ,-20, ,
-2, ,-20, ,
-2, ,-20, ,
-3, ,-20, ,
-2, ,-20, ,
-2, ,-20, ,
-2, ,-20, ,
-2, ,-20, ,
-2, ,-20, ,
-2, ,-20, ,
-2, ,-20, ,
-3, ,-20, ,
-3, ,-20, ,
-2, ,-20, ,
-2, ,-20, ,
-1, ,-20, ,
-3, ,-20, ,
-2, ,-21, ,
-1, ,-21, ,
-2, ,-20, ,
-1, ,-20, ,
-1, ,-20, ,
-2, ,-20, ,
-1, ,-20, ,
-1, ,-20, ,
-1, ,-20, ,
-1, ,-20, ,
-1, ,-20, ,
-1, ,-20, ,
0, ,-21, ,
-1, ,-21, ,
-1, ,-21, ,
-1, ,-20, ,
0, ,-20, ,
0, ,-20, ,
-1, ,-20, ,
-1, ,-20, ,
0, ,-20, ,
-1, ,-20, ,
-1, ,-20, ,
-1, ,-20, ,
0, ,-20, ,
0, ,-20, ,
0, ,-20, ,
0, ,-20, ,
0, ,-20, ,
0, ,-20, ,
0, ,-20, ,
0, ,-20, ,
0, ,-20, ,
0, ,-20, ,
0, ,-20, ,
0, ,-20, ,
1, ,-20, ,
0, ,-20, ,
0, ,-21, ,
0, ,-21, ,
1, ,-20, ,
1, ,-20, ,
1, ,-20, ,
1, ,-20, ,
0, ,-21, ,
0, ,-21, ,
0, ,-21, ,
1, ,-21, ,
1, ,-21, ,
2, ,-21, ,
0, ,-20, ,
0, ,-20, ,
1, ,-20, ,
1, ,-20, ,
1, ,-20, ,
1, ,-20, ,
0, ,-20, ,
1, ,-21, ,
1, ,-21, ,
1, ,-21, ,
1, ,-20, ,
1, ,-20, ,
1, ,-20, ,
1, ,-20, ,
1, ,-21, ,
1, ,-21, ,
1, ,-21, ,
1, ,-21, ,
1, ,-21, ,
1, ,-21, ,
1, ,-21, ,
0, ,-20, ,
1, ,-20, ,
2, ,-20, ,
0, ,-20, ,
2, ,-20, ,
2, ,-20, ,
2, ,-21, ,
2, ,-21, ,
1, ,-21, ,
0, ,-20, ,
1, ,-20, ,
1, ,-20, ,
1, ,-20, ,
1, ,-21, ,
1, ,-21, ,
1, ,-21, ,
2, ,-21, ,
1, ,-20, ,
1, ,-20, ,
-1, ,-20, ,
-8, ,-20, ,
-76, ,-20, ,
-126, ,-20, ,
-126, ,-20, ,
-126, ,-20, ,
-126, ,-20, ,
-126, ,-20, ,
-126, ,-20, ,
-126, ,-20, ,
-126, ,-20, ,
-126, ,-20, ,
-126, ,-20, ,
-126, ,-20, ,
-126, ,-20, ,
-126, ,-20, ,
-126, ,-20, ,
-126, ,-20, ,
-126, ,-20, ,
-126, ,-20, ,
-126, ,-20, ,
-126, ,-20, ,
-126, ,-21, ,
-126, ,-21, ,
-126, ,-20, ,
-126, ,-20, ,
-126, ,-20, ,
-126, ,-20, ,
-126, ,-21, ,
-126, ,-21, ,
-126, ,-20, ,
-126, ,-20, ,
-126, ,-21, ,
-126, ,-21, ,
-123, ,-21, ,
-106, ,-21, ,
-7, ,-21, ,
125, ,-20, ,
125, ,-20, ,
125, ,-20, ,
125, ,-20, ,
125, ,-20, ,
125, ,-20, ,
125, ,-20, ,
125, ,-20, ,
125, ,-20, ,
125, ,-20, ,
125, ,-20, ,
125, ,-20, ,
125, ,-20, ,
125, ,-20, ,
125, ,-20, ,
125, ,-20, ,
125, ,-20, ,
124, ,-21, ,
118, ,-21, ,
96, ,-21, ,
-75, ,-20, ,
-126, ,-20, ,
-126, ,-20, ,
-126, ,-20, ,
-126, ,-20, ,
-126, ,-21, ,
-126, ,-21, ,
-126, ,-20, ,
-126, ,-20, ,
-126, ,-20, ,
-126, ,-20, ,
-126, ,-20, ,
-126, ,-20, ,
-126, ,-20, ,
-126, ,-21, ,
-126, ,-21, ,
-126, ,-21, ,
-123, ,-20, ,
-115, ,-20, ,
-18, ,-21, ,
125, ,-21, ,
125, ,-20, ,
125, ,-20, ,
125, ,-21, ,
125, ,-21, ,
125, ,-20, ,
125, ,-20, ,
125, ,-20, ,
125, ,-20, ,
125, ,-20, ,
125, ,-20, ,
125, ,-20, ,
125, ,-20, ,
125, ,-20, ,
125, ,-20, ,
125, ,-21, ,
125, ,-21, ,
125, ,-20, ,
125, ,-20, ,
125, ,-20, ,
125, ,-21, ,
125, ,-21, ,
125, ,-20, ,
125, ,-20, ,
125, ,-20, ,
125, ,-20, ,
125, ,-20, ,
125, ,-20, ,
125, ,-21, ,
125, ,-21, ,
125, ,-21, ,
125, ,-21, ,
124, ,-21, ,
122, ,-21, ,
109, ,-20, ,
92, ,-20, ,
67, ,-20, ,
14, ,-20, ,
-13, ,-20, ,
-34, ,-20, ,
-47, ,-20, ,
-53, ,-20, ,
-44, ,-20, ,
-38, ,-20, ,
-29, ,-20, ,
-9, ,-20, ,
-1, ,-20, ,
6, ,-20, ,
10, ,-20, ,
12, ,-20, ,
9, ,-20, ,
5, ,-20, ,
-4, ,-20, ,
-24, ,-21, ,
-35, ,-21, ,
-45, ,-21, ,
-58, ,-20, ,
-81, ,-20, ,
-91, ,-20, ,
-104, ,-20, ,
-113, ,-20, ,
-126, ,-21, ,
-126, ,-21, ,
-126, ,-20, ,
-126, ,-20, ,
-126, ,-20, ,
-126, ,-20, ,
-126, ,-20, ,
-126, ,-20, ,
-126, ,-20, ,
-126, ,-20, ,
-126, ,-20, ,
-126, ,-20, ,
-126, ,-20, ,
-126, ,-20, ,
-126, ,-20, ,
-126, ,-20, ,
-126, ,-20, ,
-126, ,-20, ,
-126, ,-20, ,
-126, ,-20, ,
-122, ,-20, ,
-110, ,-20, ,
-101, ,-20, ,
-88, ,-20, ,
-57, ,-20, ,
-40, ,-21, ,
-19, ,-21, ,
0, ,-21, ,
42, ,-21, ,
64, ,-21, ,
83, ,-20, ,
100, ,-20, ,
122, ,-20, ,
125, ,-20, ,
125, ,-20, ,
124, ,-20, ,
118, ,-20, ,
107, ,-20, ,
97, ,-20, ,
83, ,-20, ,
55, ,-20, ,
44, ,-20, ,
35, ,-21, ,
27, ,-21, ,
22, ,-20, ,
24, ,-20, ,
23, ,-20, ,
29, ,-20, ,
37, ,-20, ,
41, ,-20, ,
45, ,-20, ,
47, ,-20, ,
45, ,-20, ,
43, ,-20, ,
38, ,-20, ,
36, ,-20, ,
21, ,-21, ,
14, ,-21, ,
9, ,-21, ,
2, ,-20, ,
1, ,-20, ,
4, ,-20, ,
7, ,-20, ,
15, ,-20, ,
36, ,-20, ,
48, ,-20, ,
63, ,-21, ,
76, ,-21, ,
101, ,-20, ,
113, ,-20, ,
124, ,-20, ,
125, ,-20, ,
125, ,-20, ,
125, ,-20, ,
125, ,-20, ,
125, ,-20, ,
125, ,-20, ,
125, ,-21, ,
125, ,-21, ,
125, ,-21, ,
125, ,-20, ,
125, ,-20, ,
125, ,-21, ,
125, ,-21, ,
125, ,-20, ,
125, ,-20, ,
125, ,-20, ,
125, ,-20, ,
125, ,-20, ,
125, ,-20, ,
124, ,-20, ,
124, ,-20, ,
118, ,-21, ,
114, ,-21, ,
109, ,-20, ,
105, ,-20, ,
101, ,-20, ,
94, ,-20, ,
93, ,-20, ,
89, ,-20, ,
81, ,-21, ,
80, ,-21, ,
75, ,-20, ,
73, ,-20, ,
66, ,-20, ,
63, ,-20, ,
61, ,-20, ,
58, ,-20, ,
53, ,-20, ,
50, ,-20, ,
46, ,-20, ,
44, ,-21, ,
35, ,-21, ,
29, ,-20, ,
22, ,-20, ,
13, ,-20, ,
-16, ,-20, ,
-35, ,-21, ,
-59, ,-21, ,
-87, ,-21, ,
-126, ,-20, ,
-126, ,-20, ,
-126, ,-20, ,
-126, ,-20, ,
-126, ,-20, ,
-126, ,-20, ,
-126, ,-20, ,
-126, ,-20, ,
-126, ,-20, ,
-126, ,-20, ,
-126, ,-20, ,
-126, ,-20, ,
-126, ,-21, ,
-126, ,-21, ,
-126, ,-20, ,
-126, ,-20, ,
-126, ,-20, ,
-126, ,-20, ,
-126, ,-20, ,
-126, ,-20, ,
-126, ,-20, ,
-126, ,-20, ,
-126, ,-20, ,
-126, ,-20, ,
-126, ,-20, ,
-126, ,-20, ,
-126, ,-21, ,
-126, ,-21, ,
-126, ,-20, ,
-126, ,-20, ,
-126, ,-20, ,
-126, ,-21, ,
-126, ,-21, ,
-126, ,-21, ,
-126, ,-21, ,
-126, ,-20, ,
-126, ,-20, ,
-126, ,-20, ,
-122, ,-20, ,
-88, ,-20, ,
125, ,-20, ,
125, ,-20, ,
125, ,-20, ,
125, ,-20, ,
125, ,-20, ,
125, ,-21, ,
125, ,-21, ,
125, ,-21, ,
125, ,-21, ,
125, ,-21, ,
125, ,-21, ,
125, ,-21, ,
125, ,-21, ,
125, ,-21, ,
125, ,-20, ,
125, ,-20, ,
125, ,-20, ,
125, ,-20, ,
125, ,-20, ,
125, ,-20, ,
125, ,-20, ,
125, ,-20, ,
125, ,-20, ,
125, ,-20, ,
125, ,-20, ,
125, ,-20, ,
125, ,-20, ,
125, ,-20, ,
125, ,-20, ,
125, ,-20, ,
125, ,-20, ,
125, ,-20, ,
124, ,-20, ,
122, ,-20, ,
98, ,-20, ,
59, ,-20, ,
-32, ,-20, ,
-75, ,-20, ,
-111, ,-20, ,
-126, ,-20, ,
-126, ,-20, ,
-126, ,-20, ,
-126, ,-20, ,
-125, ,-20, ,
-94, ,-20, ,
-73, ,-20, ,
-51, ,-20, ,
-33, ,-20, ,
5, ,-20, ,
15, ,-20, ,
26, ,-20, ,
35, ,-20, ,
45, ,-20, ,
52, ,-20, ,
55, ,-20, ,
58, ,-20, ,
64, ,-20, ,
64, ,-20, ,
68, ,-20, ,
67, ,-20, ,
66, ,-20, ,
64, ,-20, ,
60, ,-20, ,
54, ,-20, ,
42, ,-20, ,
34, ,-20, ,
25, ,-20, ,
14, ,-20, ,
-4, ,-20, ,
-9, ,-20, ,
-14, ,-20, ,
-14, ,-20, ,
-13, ,-20, ,
-7, ,-20, ,
-2, ,-21, ,
4, ,-21, ,
17, ,-21, ,
26, ,-21, ,
31, ,-20, ,
36, ,-21, ,
43, ,-21, ,
43, ,-20, ,
44, ,-20, ,
41, ,-20, ,
35, ,-20, ,
32, ,-20, ,
27, ,-20, ,
21, ,-20, ,
6, ,-20, ,
0, ,-21, ,
-5, ,-21, ,
-12, ,-21, ,
-25, ,-21, ,
-30, ,-21, ,
-35, ,-21, ,
-39, ,-21, ,
-48, ,-20, ,
-55, ,-20, ,
-59, ,-20, ,
-62, ,-21, ,
-70, ,-21, ,
-70, ,-20, ,
-75, ,-20, ,
-76, ,-20, ,
-79, ,-20, ,
-79, ,-20, ,
-79, ,-20, ,
-79, ,-20, ,
-79, ,-21, ,
-78, ,-21, ,
-79, ,-20, ,
-77, ,-20, ,
-77, ,-20, ,
-75, ,-20, ,
-74, ,-20, ,
-73, ,-20, ,
-70, ,-20, ,
-66, ,-21, ,
-64, ,-21, ,
-61, ,-21, ,
-54, ,-21, ,
-51, ,-21, ,
-49, ,-21, ,
-44, ,-20, ,
-38, ,-20, ,
-34, ,-20, ,
-32, ,-20, ,
-29, ,-21, ,
-23, ,-21, ,
-22, ,-20, ,
-19, ,-20, ,
-16, ,-20, ,
-14, ,-20, ,
-12, ,-20, ,
-12, ,-21, ,
-11, ,-21, ,
-13, ,-21, ,
-13, ,-21, ,
-15, ,-21, ,
-17, ,-20, ,
-20, ,-20, ,
-22, ,-20, ,
-26, ,-20, ,
-28, ,-20, ,
-35, ,-20, ,
-41, ,-20, ,
-45, ,-20, ,
-50, ,-20, ,
-60, ,-20, ,
-63, ,-21, ,
-68, ,-21, ,
-74, ,-21, ,
-80, ,-20, ,
-85, ,-20, ,
-86, ,-20, ,
-91, ,-20, ,
-94, ,-20, ,
-93, ,-20, ,
-96, ,-20, ,
-94, ,-21, ,
-94, ,-21, ,
-95, ,-20, ,
-94, ,-20, ,
-94, ,-20, ,
-93, ,-20, ,
-92, ,-20, ,
-93, ,-20, ,
-93, ,-20, ,
-94, ,-20, ,
-94, ,-20, ,
-94, ,-20, ,
-94, ,-20, ,
-94, ,-20, ,
-90, ,-20, ,
-91, ,-20, ,
-88, ,-20, ,
-81, ,-20, ,
-78, ,-20, ,
-71, ,-21, ,
-66, ,-21, ,
-53, ,-20, ,
-44, ,-20, ,
-38, ,-21, ,
-28, ,-21, ,
-6, ,-20, ,
6, ,-20, ,
19, ,-20, ,
29, ,-20, ,
57, ,-21, ,
72, ,-21, ,
86, ,-20, ,
103, ,-20, ,
125, ,-20, ,
125, ,-20, ,
125, ,-20, ,
125, ,-20, ,
125, ,-20, ,
125, ,-20, ,
125, ,-20, ,
125, ,-20, ,
125, ,-20, ,
125, ,-20, ,
125, ,-20, ,
125, ,-20, ,
125, ,-20, ,
125, ,-20, ,
125, ,-20, ,
125, ,-20, ,
125, ,-20, ,
125, ,-20, ,
125, ,-21, ,
125, ,-21, ,
125, ,-20, ,
125, ,-20, ,
125, ,-20, ,
125, ,-20, ,
125, ,-21, ,
125, ,-21, ,
125, ,-21, ,
125, ,-20, ,
125, ,-20, ,
124, ,-20, ,
124, ,-20, ,
122, ,-20, ,
112, ,-20, ,
105, ,-20, ,
102, ,-21, ,
95, ,-21, ,
73, ,-20, ,
54, ,-20, ,
25, ,-20, ,
-15, ,-20, ,
-118, ,-20, ,
-126, ,-20, ,
-126, ,-20, ,
-126, ,-20, ,
-126, ,-21, ,
-126, ,-21, ,
-126, ,-20, ,
-126, ,-20, ,
-126, ,-21, ,
-126, ,-21, ,
-126, ,-21, ,
-126, ,-20, ,
-126, ,-20, ,
-126, ,-20, ,
-126, ,-20, ,
-126, ,-20, ,
-126, ,-20, ,
-126, ,-20, ,
-126, ,-20, ,
-126, ,-20, ,
-126, ,-21, ,
-126, ,-21, ,
-126, ,-20, ,
-126, ,-20, ,
-126, ,-20, ,
-126, ,-20, ,
-126, ,-21, ,
-126, ,-21, ,
-126, ,-21, ,
-126, ,-21, ,
-126, ,-20, ,
-126, ,-20, ,
-126, ,-20, ,
-126, ,-20, ,
-124, ,-20, ,
-102, ,-20, ,
-18, ,-20, ,
20, ,-20, ,
49, ,-20, ,
72, ,-20, ,
113, ,-20, ,
125, ,-20, ,
125, ,-20, ,
125, ,-21, ,
125, ,-21, ,
125, ,-21, ,
125, ,-21, ,
125, ,-21, ,
125, ,-21, ,
125, ,-21, ,
124, ,-21, ,
123, ,-20, ,
97, ,-20, ,
86, ,-20, ,
73, ,-20, ,
63, ,-21, ,
42, ,-21, ,
34, ,-20, ,
29, ,-20, ,
20, ,-20, ,
12, ,-20, ,
10, ,-20, ,
8, ,-20, ,
8, ,-21, ,
8, ,-21, ,
9, ,-20, ,
11, ,-20, ,
10, ,-20, ,
11, ,-20, ,
12, ,-20, ,
10, ,-20, ,
10, ,-20, ,
9, ,-20, ,
5, ,-20, ,
2, ,-20, ,
-1, ,-20, ,
-9, ,-20, ,
-13, ,-21, ,
-17, ,-21, ,
-22, ,-21, ,
-30, ,-20, ,
-35, ,-20, ,
-38, ,-20, ,
-41, ,-20, ,
-43, ,-20, ,
-41, ,-20, ,
-41, ,-20, ,
-38, ,-20, ,
-30, ,-20, ,
-26, ,-20, ,
-17, ,-20, ,
-10, ,-20, ,
3, ,-20, ,
13, ,-20, ,
19, ,-21, ,
28, ,-21, ,
40, ,-21, ,
48, ,-20, ,
54, ,-20, ,
57, ,-20, ,
63, ,-21, ,
65, ,-21, ,
65, ,-20, ,
65, ,-20, ,
63, ,-21, ,
58, ,-21, ,
56, ,-21, ,
52, ,-20, ,
44, ,-20, ,
41, ,-20, ,
36, ,-20, ,
34, ,-20, ,
27, ,-21, ,
24, ,-21, ,
24, ,-21, ,
21, ,-21, ,
21, ,-20, ,
23, ,-20, ,
23, ,-20, ,
27, ,-20, ,
31, ,-20, ,
35, ,-20, ,
38, ,-20, ,
40, ,-20, ,
47, ,-20, ,
49, ,-21, ,
52, ,-21, ,
55, ,-21, ,
56, ,-20, ,
56, ,-20, ,
55, ,-20, ,
54, ,-20, ,
52, ,-20, ,
51, ,-20, ,
47, ,-20, ,
45, ,-20, ,
41, ,-20, ,
36, ,-20, ,
35, ,-20, ,
33, ,-20, ,
25, ,-21, ,
22, ,-21, ,
18, ,-20, ,
15, ,-20, ,
9, ,-20, ,
7, ,-20, ,
4, ,-20, ,
2, ,-20, ,
0, ,-20, ,
0, ,-21, ,
-1, ,-21, ,
-1, ,-21, ,
0, ,-20, ,
0, ,-20, ,
1, ,-20, ,
2, ,-20, ,
3, ,-20, ,
8, ,-20, ,
8, ,-20, ,
10, ,-20, ,
13, ,-20, ,
11, ,-20, ,
14, ,-20, ,
13, ,-20, ,
14, ,-20, ,
15, ,-20, ,
13, ,-20, ,
12, ,-21, ,
11, ,-21, ,
8, ,-20, ,
8, ,-20, ,
5, ,-20, ,
0, ,-20, ,
-3, ,-20, ,
-6, ,-20, ,
-8, ,-21, ,
-15, ,-21, ,
-19, ,-20, ,
-23, ,-20, ,
-28, ,-20, ,
-35, ,-21, ,
-39, ,-21, ,
-44, ,-21, ,
-47, ,-20, ,
-56, ,-20, ,
-62, ,-20, ,
-65, ,-20, ,
-70, ,-20, ,
-80, ,-20, ,
-84, ,-20, ,
-90, ,-20, ,
-94, ,-20, ,
-105, ,-21, ,
-108, ,-21, ,
-113, ,-21, ,
-119, ,-20, ,
-126, ,-20, ,
-126, ,-20, ,
-126, ,-20, ,
-126, ,-20, ,
-126, ,-20, ,
-126, ,-20, ,
-126, ,-20, ,
-126, ,-20, ,
-126, ,-20, ,
-126, ,-20, ,
-126, ,-20, ,
-126, ,-21, ,
-126, ,-21, ,
-126, ,-21, ,
-126, ,-21, ,
-126, ,-21, ,
-126, ,-20, ,
-126, ,-20, ,
-124, ,-20, ,
-118, ,-20, ,
-110, ,-20, ,
-106, ,-20, ,
-99, ,-20, ,
-98, ,-20, ,
-86, ,-20, ,
-75, ,-20, ,
-65, ,-20, ,
-52, ,-20, ,
-25, ,-21, ,
-13, ,-21, ,
-2, ,-21, ,
8, ,-20, ,
32, ,-20, ,
49, ,-20, ,
62, ,-20, ,
78, ,-20, ,
109, ,-20, ,
123, ,-20, ,
125, ,-20, ,
125, ,-20, ,
125, ,-20, ,
125, ,-20, ,
125, ,-20, ,
125, ,-20, ,
125, ,-20, ,
125, ,-20, ,
125, ,-20, ,
125, ,-20, ,
125, ,-20, ,
125, ,-20, ,
125, ,-20, ,
125, ,-21, ,
125, ,-21, ,
125, ,-20, ,
125, ,-20, ,
125, ,-20, ,
125, ,-20, ,
125, ,-20, ,
125, ,-20, ,
125, ,-20, ,
125, ,-20, ,
125, ,-20, ,
125, ,-21, ,
125, ,-21, ,
125, ,-20, ,
125, ,-20, ,
124, ,-20, ,
124, ,-20, ,
113, ,-20, ,
105, ,-20, ,
99, ,-21, ,
88, ,-21, ,
68, ,-20, ,
58, ,-20, ,
45, ,-20, ,
33, ,-20, ,
5, ,-20, ,
-9, ,-20, ,
-26, ,-20, ,
-40, ,-20, ,
-70, ,-21, ,
-83, ,-21, ,
-97, ,-20, ,
-108, ,-20, ,
-126, ,-20, ,
-126, ,-20, ,
-126, ,-20, ,
-126, ,-20, ,
-126, ,-20, ,
-126, ,-20, ,
-126, ,-20, ,
-126, ,-20, ,
-126, ,-20, ,
-126, ,-20, ,
-122, ,-20, ,
-116, ,-20, ,
-103, ,-21, ,
-96, ,-21, ,
-91, ,-20, ,
-85, ,-21, ,
-76, ,-21, ,
-72, ,-20, ,
-69, ,-20, ,
-66, ,-21, ,
-63, ,-21, ,
-61, ,-20, ,
-60, ,-20, ,
-59, ,-20, ,
-58, ,-20, ,
-57, ,-20, ,
-54, ,-20, ,
-54, ,-20, ,
-48, ,-20, ,
-43, ,-20, ,
-41, ,-20, ,
-36, ,-21, ,
-27, ,-21, ,
-23, ,-20, ,
-17, ,-20, ,
-12, ,-20, ,
-1, ,-20, ,
4, ,-20, ,
9, ,-20, ,
15, ,-20, ,
23, ,-20, ,
24, ,-20, ,
29, ,-20, ,
28, ,-20, ,
29, ,-20, ,
30, ,-20, ,
27, ,-20, ,
27, ,-21, ,
24, ,-21, ,
17, ,-20, ,
17, ,-20, ,
12, ,-20, ,
4, ,-20, ,
2, ,-21, ,
-2, ,-21, ,
-6, ,-21, ,
-12, ,-20, ,
-15, ,-20, ,
-16, ,-20, ,
-21, ,-20, ,
-22, ,-20, ,
-25, ,-20, ,
-26, ,-20, ,
-26, ,-20, ,
-26, ,-20, ,
-26, ,-20, ,
-25, ,-21, ,
-25, ,-21, ,
-25, ,-20, ,
-24, ,-20, ,
-24, ,-20, ,
-25, ,-20, ,
-26, ,-20, ,
-27, ,-20, ,
-26, ,-20, ,
-27, ,-20, ,
-28, ,-20, ,
-29, ,-20, ,
-31, ,-20, ,
-32, ,-20, ,
-33, ,-21, ,
-35, ,-21, ,
-35, ,-21, ,
-35, ,-21, ,
-36, ,-20, ,
-35, ,-20, ,
-35, ,-20, ,
-33, ,-20, ,
-31, ,-20, ,
-30, ,-20, ,
-27, ,-21, ,
-27, ,-21, ,
-24, ,-21, ,
-19, ,-21, ,
-19, ,-20, ,
-15, ,-20, ,
-10, ,-20, ,
-7, ,-20, ,
-4, ,-21, ,
-2, ,-21, ,
3, ,-20, ,
6, ,-20, ,
7, ,-20, ,
10, ,-20, ,
13, ,-20, ,
13, ,-20, ,
17, ,-20, ,
16, ,-20, ,
17, ,-20, ,
19, ,-20, ,
18, ,-20, ,
19, ,-20, ,
19, ,-20, ,
18, ,-20, ,
18, ,-20, ,
17, ,-20, ,
16, ,-20, ,
15, ,-21, ,
15, ,-21, ,
14, ,-21, ,
14, ,-20, ,
13, ,-20, ,
12, ,-21, ,
11, ,-21, ,
11, ,-20, ,
11, ,-20, ,
10, ,-20, ,
11, ,-20, ,
13, ,-20, ,
15, ,-20, ,
15, ,-20, ,
15, ,-20, ,
20, ,-20, ,
21, ,-20, ,
23, ,-20, ,
26, ,-20, ,
31, ,-20, ,
32, ,-20, ,
35, ,-21, ,
35, ,-21, ,
40, ,-21, ,
44, ,-21, ,
47, ,-21, ,
50, ,-21, ,
55, ,-21, ,
56, ,-20, ,
60, ,-21, ,
62, ,-21, ,
65, ,-20, ,
67, ,-20, ,
68, ,-20, ,
70, ,-20, ,
72, ,-20, ,
71, ,-20, ,
72, ,-21, ,
70, ,-21, ,
71, ,-20, ,
71, ,-20, ,
69, ,-20, ,
69, ,-20, ,
66, ,-20, ,
63, ,-20, ,
62, ,-20, ,
61, ,-20, ,
55, ,-20, ,
53, ,-21, ,
50, ,-21, ,
48, ,-21, ,
39, ,-20, ,
35, ,-20, ,
34, ,-20, ,
25, ,-20, ,
16, ,-21, ,
12, ,-21, ,
4, ,-21, ,
0, ,-21, ,
-11, ,-20, ,
-20, ,-20, ,
-26, ,-21, ,
-34, ,-21, ,
-47, ,-20, ,
-53, ,-20, ,
-60, ,-20, ,
-65, ,-21, ,
-79, ,-21, ,
-85, ,-20, ,
-92, ,-20, ,
-100, ,-20, ,
-112, ,-20, ,
-117, ,-20, ,
-125, ,-20, ,
-126, ,-20, ,
-126, ,-20, ,
-126, ,-20, ,
-126, ,-21, ,
-126, ,-21, ,
-126, ,-20, ,
-126, ,-20, ,
-126, ,-20, ,
-126, ,-21, ,
-126, ,-21, ,
-126, ,-20, ,
-126, ,-20, ,
-126, ,-20, ,
-126, ,-20, ,
-126, ,-20, ,
-126, ,-20, ,
-126, ,-20, ,
-126, ,-21, ,
-124, ,-21, ,
-114, ,-21, ,
-108, ,-20, ,
-91, ,-20, ,
-80, ,-21, ,
-72, ,-21, ,
-63, ,-21, ,
-46, ,-20, ,
-38, ,-20, ,
-30, ,-20, ,
-23, ,-20, ,
-10, ,-20, ,
-3, ,-20, ,
3, ,-20, ,
10, ,-20, ,
21, ,-20, ,
27, ,-20, ,
35, ,-20, ,
39, ,-20, ,
53, ,-20, ,
59, ,-20, ,
65, ,-20, ,
72, ,-20, ,
87, ,-21, ,
90, ,-21, ,
97, ,-21, ,
102, ,-20, ,
109, ,-21, ,
116, ,-21, ,
115, ,-20, ,
119, ,-20, ,
120, ,-20, ,
118, ,-20, ,
118, ,-20, ,
115, ,-20, ,
110, ,-20, ,
107, ,-20, ,
103, ,-20, ,
99, ,-20, ,
88, ,-20, ,
83, ,-20, ,
76, ,-20, ,
70, ,-20, ,
60, ,-20, ,
56, ,-20, ,
49, ,-20, ,
46, ,-21, ,
39, ,-21, ,
35, ,-20, ,
33, ,-20, ,
30, ,-20, ,
25, ,-20, ,
24, ,-20, ,
22, ,-20, ,
19, ,-21, ,
15, ,-21, ,
12, ,-20, ,
9, ,-20, ,
4, ,-20, ,
0, ,-20, ,
-3, ,-20, ,
-8, ,-20, ,
-11, ,-21, ,
-18, ,-21, ,
-23, ,-20, ,
-25, ,-20, ,
-28, ,-20, ,
-33, ,-20, ,
-35, ,-20, ,
-35, ,-20, ,
-37, ,-20, ,
-37, ,-20, ,
-38, ,-20, ,
-36, ,-20, ,
-37, ,-20, ,
-36, ,-21, ,
-32, ,-21, ,
-32, ,-20, ,
-28, ,-21, ,
-24, ,-21, ,
-23, ,-20, ,
-19, ,-20, ,
-17, ,-20, ,
-14, ,-20, ,
-10, ,-20, ,
-9, ,-21, ,
-7, ,-21, ,
-4, ,-20, ,
-4, ,-20, ,
-1, ,-20, ,
-2, ,-20, ,
0, ,-20, ,
0, ,-20, ,
0, ,-20, ,
0, ,-20, ,
2, ,-20, ,
2, ,-20, ,
3, ,-20, ,
3, ,-20, ,
3, ,-20, ,
6, ,-20, ,
6, ,-20, ,
7, ,-20, ,
9, ,-20, ,
11, ,-20, ,
11, ,-20, ,
11, ,-20, ,
14, ,-21, ,
