raw_data/0% Glycerol, Impulsion 0.5Hz, Sonde 5MHz, Rampe 0.7Hz/temp0000307.CSV

Format,1.0B,
Memory Length,10000,Memory Length,10000,
IntpDistance,0,IntpDistance,0,
Trigger Address,2029,Trigger Address,2029,
Trigger Level,2.720E-01,Trigger Level,2.720E-01,
Source,CH1,Source,CH2,
Vertical Units,V,Vertical Units,V,
Vertical Units Div,0,Vertical Units Div,0,
Vertical Units Extend Div,16,Vertical Units Extend Div,16,
Label,,Label,,
Probe Type,0,Probe Type,0,
Probe Ratio,1.000e+00,Probe Ratio,1.000e+00,
Vertical Scale,1.000e-01,Vertical Scale,2.000e+00,
Vertical Position,0.000e+00,Vertical Position,0.000e+00,
Horizontal Units,S,Horizontal Units,S,
Horizontal Scale,5.000E-05,Horizontal Scale,5.000E-05,
Horizontal Position,1.485E-04,Horizontal Position,1.485E-04,
Horizontal Mode,Main,Horizontal Mode,Main,
SincET Mode,Real Time,SincET Mode,Real Time,
Sampling Period,5.000e-08,Sampling Period,5.000e-08,
Horizontal Old Scale,5.000E-05,Horizontal Old Scale,5.000E-05,
Horizontal Old Position,1.485E-04,Horizontal Old Position,1.485E-04,
Firmware,V1.32,Firmware,V1.32,
Mode,Fast,Mode,Fast,
Waveform Data,,Waveform Data,,
0, ,8, ,
0, ,8, ,
0, ,8, ,
0, ,8, ,
0, ,8, ,
0, ,7, ,
0, ,7, ,
0, ,8, ,
-1, ,8, ,
0, ,8, ,
0, ,8, ,
0, ,8, ,
0, ,8, ,
0, ,8, ,
0, ,8, ,
0, ,8, ,
0, ,8, ,
0, ,8, ,
0, ,8, ,
-1, ,8, ,
0, ,8, ,
0, ,7, ,
0, ,8, ,
0, ,8, ,
-1, ,8, ,
0, ,8, ,
0, ,8, ,
0, ,8, ,
0, ,7, ,
-1, ,8, ,
-1, ,7, ,
0, ,8, ,
0, ,8, ,
0, ,8, ,
-1, ,8, ,
0, ,8, ,
0, ,7, ,
-1, ,7, ,
0, ,8, ,
0, ,8, ,
0, ,8, ,
0, ,8, ,
-1, ,7, ,
0, ,8, ,
0, ,8, ,
-1, ,7, ,
-1, ,8, ,
0, ,8, ,
0, ,8, ,
0, ,8, ,
0, ,8, ,
0, ,8, ,
0, ,8, ,
0, ,7, ,
0, ,8, ,
0, ,8, ,
-1, ,8, ,
-1, ,8, ,
0, ,7, ,
0, ,8, ,
-1, ,8, ,
0, ,8, ,
0, ,8, ,
-1, ,8, ,
0, ,8, ,
0, ,8, ,
-1, ,8, ,
0, ,8, ,
0, ,8, ,
0, ,7, ,
-1, ,8, ,
0, ,7, ,
0, ,8, ,
0, ,8, ,
0, ,8, ,
0, ,8, ,
0, ,8, ,
0, ,8, ,
-1, ,7, ,
0, ,8, ,
-1, ,8, ,
0, ,8, ,
-1, ,8, ,
0, ,7, ,
0, ,7, ,
0, ,7, ,
0, ,8, ,
0, ,8, ,
0, ,8, ,
0, ,8, ,
0, ,8, ,
-1, ,8, ,
0, ,8, ,
0, ,7, ,
0, ,8, ,
0, ,8, ,
-1, ,8, ,
0, ,7, ,
0, ,7, ,
0, ,8, ,
-1, ,8, ,
0, ,7, ,
0, ,7, ,
0, ,8, ,
-1, ,8, ,
-1, ,8, ,
0, ,7, ,
-1, ,8, ,
0, ,8, ,
0, ,7, ,
-1, ,7, ,
0, ,8, ,
-1, ,8, ,
0, ,7, ,
0, ,8, ,
0, ,7, ,
-1, ,8, ,
-1, ,8, ,
0, ,7, ,
0, ,8, ,
0, ,8, ,
-1, ,7, ,
0, ,8, ,
0, ,7, ,
0, ,7, ,
-1, ,8, ,
0, ,8, ,
0, ,8, ,
0, ,8, ,
-1, ,8, ,
-1, ,8, ,
0, ,7, ,
0, ,8, ,
0, ,8, ,
0, ,8, ,
0, ,8, ,
0, ,8, ,
0, ,8, ,
0, ,8, ,
0, ,8, ,
0, ,7, ,
-1, ,7, ,
0, ,8, ,
0, ,8, ,
0, ,7, ,
-1, ,8, ,
-1, ,8, ,
0, ,7, ,
0, ,7, ,
0, ,8, ,
0, ,8, ,
0, ,8, ,
0, ,8, ,
0, ,8, ,
0, ,8, ,
0, ,8, ,
-1, ,8, ,
0, ,7, ,
0, ,8, ,
0, ,7, ,
0, ,8, ,
0, ,8, ,
0, ,8, ,
0, ,8, ,
0, ,8, ,
0, ,7, ,
0, ,8, ,
0, ,8, ,
0, ,8, ,
0, ,8, ,
0, ,8, ,
0, ,8, ,
0, ,7, ,
0, ,7, ,
0, ,7, ,
0, ,8, ,
0, ,8, ,
0, ,8, ,
0, ,8, ,
0, ,8, ,
0, ,7, ,
0, ,7, ,
0, ,7, ,
0, ,8, ,
0, ,8, ,
0, ,7, ,
0, ,7, ,
-1, ,8, ,
-1, ,8, ,
0, ,7, ,
0, ,8, ,
0, ,8, ,
0, ,8, ,
0, ,7, ,
-1, ,8, ,
0, ,8, ,
0, ,8, ,
0, ,8, ,
0, ,8, ,
0, ,8, ,
0, ,8, ,
-1, ,8, ,
0, ,7, ,
0, ,8, ,
0, ,7, ,
0, ,8, ,
0, ,7, ,
0, ,8, ,
0, ,7, ,
0, ,8, ,
0, ,8, ,
0, ,8, ,
0, ,8, ,
-1, ,8, ,
0, ,8, ,
0, ,8, ,
0, ,8, ,
0, ,7, ,
0, ,8, ,
0, ,8, ,
0, ,7, ,
0, ,7, ,
0, ,8, ,
0, ,8, ,
0, ,8, ,
0, ,7, ,
-1, ,8, ,
0, ,8, ,
0, ,8, ,
0, ,7, ,
0, ,8, ,
0, ,8, ,
0, ,8, ,
0, ,8, ,
0, ,8, ,
-1, ,8, ,
0, ,8, ,
0, ,7, ,
0, ,8, ,
0, ,8, ,
0, ,8, ,
0, ,7, ,
0, ,8, ,
0, ,8, ,
-1, ,8, ,
0, ,8, ,
0, ,8, ,
0, ,8, ,
-1, ,7, ,
0, ,8, ,
0, ,8, ,
0, ,7, ,
0, ,8, ,
0, ,8, ,
-1, ,8, ,
-1, ,8, ,
-1, ,8, ,
0, ,8, ,
0, ,8, ,
-1, ,8, ,
-1, ,8, ,
0, ,8, ,
0, ,8, ,
0, ,8, ,
0, ,8, ,
-1, ,8, ,
0, ,8, ,
0, ,8, ,
0, ,8, ,
0, ,8, ,
0, ,8, ,
0, ,8, ,
0, ,8, ,
0, ,8, ,
0, ,7, ,
-1, ,8, ,
0, ,7, ,
0, ,7, ,
0, ,8, ,
0, ,8, ,
-1, ,8, ,
0, ,8, ,
-1, ,8, ,
0, ,8, ,
0, ,8, ,
-1, ,8, ,
0, ,7, ,
0, ,8, ,
0, ,8, ,
0, ,8, ,
0, ,8, ,
-1, ,7, ,
0, ,8, ,
0, ,7, ,
-1, ,8, ,
0, ,8, ,
0, ,8, ,
0, ,8, ,
0, ,8, ,
0, ,7, ,
0, ,8, ,
-1, ,8, ,
0, ,8, ,
0, ,8, ,
0, ,8, ,
0, ,8, ,
0, ,8, ,
0, ,8, ,
0, ,8, ,
-1, ,8, ,
0, ,7, ,
0, ,8, ,
0, ,8, ,
0, ,8, ,
0, ,8, ,
0, ,8, ,
0, ,8, ,
-1, ,8, ,
-1, ,8, ,
-1, ,8, ,
0, ,8, ,
0, ,8, ,
0, ,7, ,
0, ,8, ,
0, ,8, ,
0, ,8, ,
0, ,7, ,
0, ,8, ,
0, ,8, ,
0, ,8, ,
0, ,8, ,
0, ,8, ,
0, ,8, ,
0, ,7, ,
0, ,8, ,
0, ,8, ,
0, ,8, ,
-1, ,8, ,
0, ,8, ,
0, ,8, ,
-1, ,8, ,
-1, ,8, ,
0, ,8, ,
0, ,7, ,
0, ,8, ,
0, ,8, ,
0, ,8, ,
0, ,8, ,
0, ,7, ,
0, ,8, ,
0, ,7, ,
0, ,8, ,
0, ,8, ,
0, ,8, ,
0, ,8, ,
0, ,8, ,
-1, ,8, ,
0, ,7, ,
0, ,8, ,
0, ,8, ,
0, ,8, ,
0, ,8, ,
0, ,8, ,
0, ,8, ,
-1, ,8, ,
0, ,7, ,
0, ,8, ,
0, ,8, ,
0, ,7, ,
-1, ,8, ,
0, ,8, ,
0, ,7, ,
0, ,8, ,
0, ,7, ,
0, ,8, ,
0, ,8, ,
-1, ,8, ,
0, ,8, ,
0, ,8, ,
-1, ,8, ,
0, ,8, ,
0, ,7, ,
0, ,7, ,
-1, ,8, ,
-1, ,8, ,
0, ,8, ,
0, ,8, ,
0, ,8, ,
0, ,7, ,
0, ,8, ,
0, ,8, ,
0, ,8, ,
0, ,7, ,
-1, ,8, ,
0, ,8, ,
0, ,8, ,
0, ,8, ,
0, ,8, ,
0, ,8, ,
0, ,8, ,
-1, ,8, ,
0, ,8, ,
0, ,7, ,
0, ,8, ,
0, ,8, ,
0, ,8, ,
0, ,8, ,
0, ,8, ,
0, ,8, ,
0, ,7, ,
0, ,8, ,
0, ,8, ,
-1, ,8, ,
0, ,7, ,
0, ,8, ,
0, ,8, ,
-1, ,8, ,
0, ,8, ,
0, ,8, ,
-1, ,8, ,
-1, ,8, ,
0, ,8, ,
-1, ,7, ,
0, ,8, ,
-1, ,8, ,
-1, ,8, ,
0, ,8, ,
0, ,8, ,
0, ,8, ,
0, ,7, ,
0, ,7, ,
-1, ,8, ,
0, ,8, ,
0, ,7, ,
-1, ,8, ,
0, ,7, ,
0, ,8, ,
0, ,8, ,
-1, ,7, ,
0, ,8, ,
-1, ,8, ,
-1, ,8, ,
0, ,8, ,
0, ,8, ,
-1, ,8, ,
0, ,8, ,
0, ,7, ,
0, ,8, ,
0, ,8, ,
-1, ,7, ,
-1, ,8, ,
0, ,8, ,
0, ,8, ,
0, ,7, ,
0, ,8, ,
0, ,8, ,
0, ,8, ,
-1, ,8, ,
0, ,8, ,
0, ,8, ,
0, ,8, ,
0, ,8, ,
0, ,8, ,
0, ,8, ,
-1, ,8, ,
0, ,8, ,
0, ,8, ,
0, ,8, ,
0, ,8, ,
-1, ,7, ,
0, ,8, ,
0, ,8, ,
0, ,8, ,
0, ,7, ,
0, ,8, ,
0, ,7, ,
0, ,8, ,
-1, ,8, ,
0, ,8, ,
0, ,8, ,
0, ,8, ,
0, ,7, ,
0, ,8, ,
0, ,8, ,
0, ,8, ,
0, ,8, ,
0, ,7, ,
0, ,8, ,
-1, ,8, ,
0, ,7, ,
0, ,8, ,
-1, ,8, ,
0, ,8, ,
0, ,8, ,
0, ,8, ,
0, ,8, ,
-1, ,8, ,
0, ,8, ,
0, ,8, ,
-1, ,8, ,
0, ,8, ,
0, ,8, ,
0, ,8, ,
0, ,8, ,
0, ,8, ,
0, ,8, ,
-1, ,7, ,
0, ,8, ,
-1, ,8, ,
0, ,8, ,
0, ,8, ,
0, ,8, ,
0, ,8, ,
0, ,8, ,
0, ,8, ,
-1, ,8, ,
0, ,8, ,
0, ,7, ,
0, ,8, ,
-1, ,7, ,
0, ,8, ,
0, ,7, ,
0, ,7, ,
0, ,7, ,
0, ,8, ,
0, ,7, ,
0, ,8, ,
0, ,8, ,
0, ,8, ,
0, ,8, ,
0, ,8, ,
0, ,8, ,
0, ,8, ,
-1, ,8, ,
0, ,8, ,
0, ,8, ,
0, ,8, ,
0, ,8, ,
0, ,8, ,
0, ,8, ,
0, ,8, ,
0, ,8, ,
0, ,7, ,
0, ,7, ,
0, ,8, ,
0, ,8, ,
0, ,8, ,
0, ,7, ,
0, ,7, ,
0, ,8, ,
0, ,8, ,
0, ,8, ,
-1, ,8, ,
0, ,8, ,
-1, ,8, ,
0, ,8, ,
0, ,8, ,
0, ,8, ,
-1, ,7, ,
0, ,8, ,
-1, ,8, ,
0, ,8, ,
0, ,8, ,
0, ,8, ,
-1, ,8, ,
0, ,8, ,
0, ,8, ,
0, ,8, ,
0, ,8, ,
-1, ,8, ,
-1, ,7, ,
0, ,8, ,
-1, ,8, ,
-1, ,8, ,
0, ,8, ,
0, ,8, ,
0, ,8, ,
0, ,8, ,
0, ,7, ,
0, ,8, ,
0, ,8, ,
0, ,7, ,
0, ,8, ,
0, ,8, ,
-1, ,8, ,
0, ,8, ,
0, ,8, ,
0, ,8, ,
0, ,8, ,
0, ,8, ,
-1, ,8, ,
0, ,8, ,
0, ,8, ,
0, ,7, ,
-1, ,8, ,
0, ,8, ,
0, ,8, ,
-1, ,8, ,
0, ,8, ,
0, ,8, ,
0, ,8, ,
0, ,7, ,
0, ,8, ,
-1, ,8, ,
0, ,8, ,
-1, ,8, ,
0, ,8, ,
0, ,8, ,
0, ,8, ,
0, ,8, ,
0, ,8, ,
-1, ,8, ,
0, ,7, ,
0, ,8, ,
0, ,8, ,
0, ,8, ,
0, ,8, ,
0, ,8, ,
0, ,8, ,
0, ,8, ,
0, ,8, ,
0, ,8, ,
0, ,8, ,
0, ,8, ,
-1, ,7, ,
0, ,8, ,
0, ,8, ,
0, ,8, ,
0, ,8, ,
0, ,8, ,
0, ,8, ,
0, ,8, ,
0, ,8, ,
-1, ,8, ,
0, ,8, ,
0, ,7, ,
0, ,8, ,
-1, ,8, ,
0, ,8, ,
0, ,8, ,
0, ,8, ,
0, ,8, ,
0, ,8, ,
-1, ,8, ,
0, ,8, ,
-1, ,8, ,
0, ,8, ,
0, ,8, ,
0, ,8, ,
0, ,8, ,
0, ,8, ,
0, ,8, ,
0, ,8, ,
0, ,8, ,
0, ,8, ,
0, ,8, ,
0, ,8, ,
0, ,7, ,
0, ,8, ,
0, ,8, ,
0, ,8, ,
0, ,8, ,
0, ,8, ,
0, ,8, ,
0, ,8, ,
-1, ,8, ,
0, ,7, ,
-1, ,7, ,
0, ,8, ,
0, ,8, ,
0, ,8, ,
0, ,8, ,
0, ,8, ,
-1, ,8, ,
0, ,8, ,
0, ,8, ,
-1, ,8, ,
-1, ,8, ,
0, ,8, ,
0, ,8, ,
-1, ,8, ,
0, ,8, ,
0, ,7, ,
0, ,8, ,
0, ,8, ,
0, ,8, ,
0, ,8, ,
0, ,8, ,
-1, ,8, ,
0, ,8, ,
0, ,8, ,
0, ,8, ,
0, ,7, ,
0, ,8, ,
-1, ,7, ,
0, ,8, ,
0, ,8, ,
0, ,8, ,
0, ,7, ,
0, ,8, ,
0, ,8, ,
0, ,8, ,
0, ,8, ,
0, ,8, ,
0, ,8, ,
0, ,8, ,
0, ,8, ,
0, ,7, ,
0, ,8, ,
0, ,8, ,
0, ,7, ,
0, ,8, ,
0, ,8, ,
0, ,8, ,
0, ,8, ,
0, ,8, ,
0, ,7, ,
0, ,8, ,
0, ,7, ,
0, ,8, ,
-1, ,8, ,
0, ,8, ,
0, ,8, ,
0, ,8, ,
0, ,8, ,
-1, ,7, ,
0, ,8, ,
0, ,8, ,
-1, ,8, ,
0, ,8, ,
-1, ,8, ,
0, ,8, ,
0, ,8, ,
0, ,8, ,
0, ,8, ,
-1, ,8, ,
0, ,8, ,
0, ,8, ,
0, ,8, ,
0, ,8, ,
-1, ,8, ,
0, ,8, ,
0, ,8, ,
0, ,8, ,
0, ,8, ,
0, ,8, ,
0, ,8, ,
-1, ,8, ,
0, ,8, ,
-1, ,8, ,
-1, ,8, ,
0, ,8, ,
0, ,8, ,
0, ,8, ,
0, ,8, ,
-1, ,8, ,
0, ,8, ,
0, ,8, ,
0, ,7, ,
0, ,8, ,
0, ,8, ,
0, ,8, ,
0, ,8, ,
0, ,8, ,
0, ,8, ,
-1, ,8, ,
0, ,8, ,
0, ,8, ,
-1, ,8, ,
0, ,8, ,
0, ,8, ,
-1, ,8, ,
0, ,8, ,
0, ,8, ,
0, ,8, ,
0, ,8, ,
0, ,8, ,
0, ,8, ,
0, ,8, ,
0, ,8, ,
-1, ,8, ,
0, ,8, ,
0, ,8, ,
-1, ,8, ,
0, ,8, ,
0, ,8, ,
0, ,8, ,
0, ,8, ,
-1, ,8, ,
0, ,8, ,
0, ,8, ,
0, ,8, ,
0, ,8, ,
0, ,8, ,
0, ,8, ,
0, ,8, ,
0, ,8, ,
0, ,8, ,
-1, ,8, ,
0, ,8, ,
0, ,8, ,
0, ,8, ,
0, ,8, ,
0, ,8, ,
0, ,8, ,
0, ,8, ,
0, ,8, ,
0, ,8, ,
-1, ,8, ,
0, ,8, ,
0, ,8, ,
0, ,7, ,
0, ,8, ,
0, ,8, ,
0, ,8, ,
-1, ,8, ,
0, ,8, ,
-1, ,8, ,
0, ,8, ,
0, ,8, ,
0, ,8, ,
0, ,8, ,
0, ,8, ,
0, ,8, ,
-1, ,8, ,
0, ,8, ,
-1, ,8, ,
-1, ,8, ,
0, ,8, ,
0, ,8, ,
0, ,8, ,
0, ,8, ,
0, ,8, ,
0, ,8, ,
0, ,8, ,
0, ,8, ,
0, ,8, ,
0, ,7, ,
0, ,8, ,
0, ,8, ,
-1, ,8, ,
0, ,8, ,
0, ,8, ,
0, ,8, ,
0, ,8, ,
0, ,8, ,
0, ,8, ,
0, ,8, ,
-1, ,8, ,
-1, ,8, ,
-1, ,8, ,
0, ,8, ,
-1, ,8, ,
0, ,8, ,
0, ,8, ,
0, ,8, ,
0, ,8, ,
0, ,8, ,
0, ,7, ,
0, ,8, ,
-1, ,8, ,
0, ,8, ,
0, ,8, ,
0, ,8, ,
0, ,8, ,
0, ,8, ,
0, ,8, ,
-1, ,8, ,
0, ,8, ,
-1, ,8, ,
0, ,8, ,
-1, ,8, ,
0, ,8, ,
0, ,8, ,
-1, ,8, ,
0, ,8, ,
0, ,8, ,
0, ,8, ,
0, ,8, ,
0, ,8, ,
0, ,8, ,
0, ,7, ,
0, ,8, ,
0, ,8, ,
0, ,8, ,
0, ,8, ,
0, ,8, ,
0, ,8, ,
0, ,8, ,
0, ,8, ,
0, ,7, ,
0, ,8, ,
-1, ,8, ,
-1, ,8, ,
0, ,8, ,
0, ,8, ,
0, ,8, ,
-1, ,8, ,
0, ,8, ,
0, ,8, ,
0, ,8, ,
0, ,8, ,
-1, ,8, ,
0, ,8, ,
-1, ,8, ,
0, ,8, ,
0, ,8, ,
0, ,8, ,
0, ,8, ,
0, ,7, ,
0, ,8, ,
0, ,8, ,
0, ,8, ,
0, ,8, ,
0, ,7, ,
0, ,8, ,
-1, ,8, ,
0, ,7, ,
0, ,8, ,
0, ,8, ,
-1, ,8, ,
0, ,8, ,
0, ,8, ,
-1, ,7, ,
0, ,8, ,
0, ,8, ,
0, ,8, ,
0, ,8, ,
0, ,8, ,
-1, ,8, ,
0, ,8, ,
0, ,8, ,
0, ,8, ,
0, ,8, ,
0, ,8, ,
0, ,8, ,
0, ,7, ,
0, ,8, ,
0, ,8, ,
0, ,8, ,
0, ,8, ,
-1, ,7, ,
0, ,8, ,
-1, ,8, ,
0, ,8, ,
0, ,8, ,
0, ,8, ,
0, ,8, ,
0, ,8, ,
0, ,8, ,
0, ,8, ,
-1, ,8, ,
0, ,8, ,
0, ,8, ,
-1, ,8, ,
0, ,8, ,
-1, ,8, ,
0, ,8, ,
0, ,8, ,
0, ,8, ,
0, ,8, ,
0, ,8, ,
-1, ,8, ,
0, ,8, ,
0, ,8, ,
0, ,8, ,
0, ,7, ,
0, ,8, ,
0, ,8, ,
0, ,8, ,
-1, ,8, ,
0, ,8, ,
-1, ,8, ,
0, ,8, ,
-1, ,8, ,
-1, ,8, ,
0, ,8, ,
0, ,8, ,
0, ,8, ,
-1, ,8, ,
0, ,8, ,
-1, ,8, ,
0, ,8, ,
0, ,8, ,
-1, ,8, ,
0, ,8, ,
0, ,7, ,
0, ,8, ,
0, ,8, ,
0, ,8, ,
0, ,8, ,
0, ,8, ,
0, ,8, ,
-1, ,8, ,
-1, ,8, ,
0, ,8, ,
0, ,8, ,
0, ,8, ,
0, ,8, ,
0, ,8, ,
0, ,8, ,
0, ,8, ,
-1, ,8, ,
0, ,8, ,
-1, ,8, ,
0, ,7, ,
0, ,8, ,
0, ,8, ,
0, ,8, ,
0, ,8, ,
0, ,8, ,
-1, ,8, ,
0, ,8, ,
0, ,8, ,
0, ,8, ,
0, ,8, ,
0, ,8, ,
-1, ,8, ,
0, ,8, ,
0, ,8, ,
0, ,8, ,
0, ,8, ,
0, ,8, ,
0, ,8, ,
-1, ,8, ,
0, ,8, ,
0, ,8, ,
0, ,8, ,
0, ,8, ,
0, ,8, ,
0, ,8, ,
0, ,8, ,
0, ,8, ,
0, ,8, ,
0, ,8, ,
0, ,8, ,
0, ,8, ,
0, ,8, ,
0, ,8, ,
0, ,8, ,
0, ,8, ,
0, ,8, ,
0, ,8, ,
0, ,8, ,
0, ,8, ,
0, ,8, ,
0, ,8, ,
0, ,8, ,
0, ,8, ,
0, ,8, ,
0, ,8, ,
0, ,8, ,
0, ,7, ,
-1, ,7, ,
0, ,8, ,
0, ,8, ,
0, ,8, ,
-1, ,8, ,
0, ,8, ,
0, ,8, ,
0, ,8, ,
0, ,8, ,
0, ,8, ,
0, ,8, ,
0, ,8, ,
0, ,8, ,
0, ,8, ,
-1, ,8, ,
0, ,8, ,
0, ,8, ,
0, ,8, ,
0, ,8, ,
0, ,8, ,
0, ,8, ,
0, ,8, ,
0, ,8, ,
0, ,8, ,
-1, ,8, ,
0, ,8, ,
0, ,8, ,
0, ,8, ,
-1, ,7, ,
0, ,8, ,
-1, ,7, ,
-1, ,7, ,
0, ,8, ,
0, ,8, ,
0, ,8, ,
-1, ,8, ,
0, ,8, ,
-1, ,8, ,
0, ,8, ,
0, ,8, ,
0, ,8, ,
0, ,8, ,
0, ,7, ,
0, ,8, ,
-1, ,7, ,
0, ,7, ,
0, ,8, ,
-1, ,7, ,
0, ,7, ,
0, ,8, ,
0, ,8, ,
0, ,8, ,
0, ,8, ,
0, ,7, ,
-1, ,8, ,
-1, ,8, ,
0, ,8, ,
0, ,8, ,
0, ,8, ,
0, ,8, ,
0, ,8, ,
0, ,8, ,
-1, ,8, ,
-1, ,8, ,
0, ,8, ,
0, ,8, ,
0, ,8, ,
0, ,8, ,
-1, ,8, ,
-1, ,8, ,
0, ,8, ,
0, ,7, ,
-1, ,7, ,
0, ,8, ,
0, ,8, ,
0, ,8, ,
0, ,8, ,
0, ,8, ,
0, ,8, ,
0, ,8, ,
0, ,8, ,
0, ,8, ,
0, ,8, ,
0, ,8, ,
-1, ,8, ,
0, ,7, ,
0, ,8, ,
-1, ,7, ,
0, ,7, ,
0, ,8, ,
0, ,8, ,
0, ,8, ,
0, ,8, ,
0, ,8, ,
0, ,8, ,
0, ,8, ,
0, ,8, ,
0, ,8, ,
0, ,8, ,
0, ,8, ,
0, ,8, ,
0, ,8, ,
0, ,8, ,
0, ,7, ,
0, ,8, ,
0, ,8, ,
0, ,8, ,
0, ,8, ,
-1, ,8, ,
0, ,8, ,
0, ,7, ,
0, ,8, ,
0, ,8, ,
0, ,8, ,
0, ,8, ,
0, ,8, ,
-1, ,8, ,
0, ,7, ,
0, ,8, ,
-1, ,8, ,
0, ,8, ,
0, ,8, ,
0, ,8, ,
0, ,8, ,
0, ,8, ,
0, ,7, ,
0, ,8, ,
-1, ,8, ,
0, ,7, ,
0, ,8, ,
0, ,8, ,
0, ,8, ,
0, ,7, ,
0, ,7, ,
0, ,8, ,
0, ,8, ,
-1, ,8, ,
0, ,7, ,
0, ,8, ,
0, ,8, ,
0, ,7, ,
0, ,8, ,
0, ,7, ,
-1, ,8, ,
0, ,8, ,
0, ,8, ,
0, ,8, ,
0, ,8, ,
0, ,7, ,
-1, ,8, ,
0, ,8, ,
0, ,8, ,
-1, ,8, ,
0, ,8, ,
0, ,8, ,
-1, ,8, ,
0, ,7, ,
0, ,7, ,
0, ,7, ,
0, ,8, ,
0, ,8, ,
0, ,8, ,
0, ,8, ,
0, ,8, ,
0, ,8, ,
0, ,8, ,
0, ,8, ,
0, ,8, ,
0, ,8, ,
0, ,7, ,
0, ,8, ,
-1, ,8, ,
0, ,7, ,
0, ,8, ,
0, ,8, ,
0, ,8, ,
0, ,7, ,
0, ,8, ,
0, ,8, ,
0, ,8, ,
0, ,8, ,
0, ,7, ,
0, ,7, ,
0, ,7, ,
0, ,8, ,
-1, ,8, ,
0, ,8, ,
-1, ,8, ,
0, ,8, ,
0, ,8, ,
0, ,8, ,
0, ,8, ,
0, ,8, ,
0, ,8, ,
0, ,8, ,
0, ,8, ,
0, ,8, ,
0, ,7, ,
0, ,8, ,
0, ,8, ,
0, ,8, ,
0, ,8, ,
0, ,8, ,
0, ,8, ,
0, ,7, ,
0, ,8, ,
-1, ,8, ,
0, ,8, ,
0, ,7, ,
0, ,8, ,
0, ,8, ,
0, ,8, ,
0, ,8, ,
0, ,8, ,
0, ,8, ,
0, ,8, ,
-1, ,7, ,
0, ,8, ,
0, ,8, ,
0, ,8, ,
0, ,8, ,
-1, ,8, ,
0, ,8, ,
0, ,8, ,
-1, ,8, ,
0, ,8, ,
-1, ,8, ,
0, ,8, ,
0, ,7, ,
0, ,8, ,
0, ,8, ,
0, ,8, ,
0, ,8, ,
0, ,8, ,
0, ,7, ,
-1, ,8, ,
0, ,7, ,
0, ,8, ,
0, ,8, ,
0, ,8, ,
-1, ,8, ,
0, ,8, ,
0, ,8, ,
0, ,8, ,
0, ,8, ,
0, ,8, ,
0, ,7, ,
0, ,8, ,
0, ,8, ,
0, ,8, ,
0, ,8, ,
-1, ,8, ,
0, ,8, ,
0, ,8, ,
0, ,8, ,
0, ,7, ,
0, ,8, ,
0, ,8, ,
0, ,8, ,
0, ,8, ,
0, ,8, ,
0, ,8, ,
0, ,8, ,
0, ,7, ,
0, ,8, ,
-1, ,7, ,
0, ,8, ,
0, ,8, ,
0, ,8, ,
0, ,8, ,
0, ,8, ,
-1, ,7, ,
0, ,8, ,
0, ,8, ,
0, ,8, ,
0, ,8, ,
0, ,8, ,
0, ,8, ,
0, ,8, ,
0, ,8, ,
0, ,8, ,
0, ,8, ,
0, ,8, ,
0, ,8, ,
0, ,7, ,
0, ,8, ,
0, ,8, ,
0, ,8, ,
0, ,8, ,
0, ,7, ,
0, ,8, ,
0, ,8, ,
0, ,8, ,
0, ,8, ,
0, ,8, ,
0, ,8, ,
0, ,8, ,
-1, ,8, ,
0, ,8, ,
0, ,8, ,
0, ,8, ,
-1, ,8, ,
0, ,8, ,
0, ,8, ,
-1, ,8, ,
-1, ,7, ,
0, ,8, ,
-1, ,8, ,
0, ,7, ,
0, ,7, ,
0, ,8, ,
0, ,8, ,
0, ,8, ,
0, ,8, ,
0, ,8, ,
-1, ,8, ,
0, ,7, ,
0, ,8, ,
0, ,8, ,
0, ,8, ,
0, ,8, ,
0, ,8, ,
0, ,8, ,
-1, ,8, ,
0, ,8, ,
0, ,7, ,
-1, ,7, ,
-1, ,8, ,
0, ,8, ,
0, ,8, ,
0, ,8, ,
0, ,8, ,
0, ,8, ,
0, ,7, ,
0, ,8, ,
-1, ,8, ,
-1, ,7, ,
0, ,8, ,
0, ,8, ,
0, ,8, ,
0, ,8, ,
0, ,8, ,
-1, ,8, ,
0, ,7, ,
0, ,7, ,
-1, ,8, ,
0, ,8, ,
0, ,8, ,
0, ,8, ,
0, ,8, ,
0, ,7, ,
-1, ,8, ,
0, ,7, ,
0, ,7, ,
0, ,8, ,
0, ,8, ,
-1, ,8, ,
-1, ,8, ,
-1, ,8, ,
0, ,8, ,
0, ,8, ,
0, ,8, ,
0, ,8, ,
0, ,8, ,
0, ,8, ,
-1, ,7, ,
0, ,7, ,
0, ,8, ,
0, ,8, ,
0, ,8, ,
0, ,7, ,
0, ,8, ,
0, ,7, ,
0, ,8, ,
-1, ,8, ,
0, ,7, ,
0, ,8, ,
0, ,8, ,
0, ,8, ,
0, ,8, ,
0, ,8, ,
0, ,8, ,
-1, ,8, ,
-1, ,8, ,
0, ,8, ,
0, ,8, ,
0, ,8, ,
0, ,8, ,
-1, ,7, ,
0, ,7, ,
0, ,8, ,
-1, ,7, ,
0, ,8, ,
0, ,8, ,
0, ,8, ,
0, ,8, ,
0, ,8, ,
0, ,8, ,
0, ,7, ,
0, ,8, ,
0, ,7, ,
0, ,8, ,
0, ,8, ,
0, ,8, ,
0, ,8, ,
-1, ,8, ,
-1, ,8, ,
0, ,7, ,
0, ,7, ,
0, ,8, ,
0, ,8, ,
0, ,8, ,
0, ,7, ,
0, ,7, ,
0, ,8, ,
0, ,8, ,
0, ,8, ,
0, ,8, ,
0, ,8, ,
0, ,8, ,
0, ,7, ,
0, ,8, ,
0, ,7, ,
0, ,8, ,
0, ,8, ,
0, ,8, ,
0, ,8, ,
0, ,8, ,
0, ,8, ,
0, ,8, ,
0, ,8, ,
-1, ,8, ,
0, ,8, ,
0, ,8, ,
0, ,8, ,
0, ,8, ,
0, ,7, ,
0, ,7, ,
-1, ,7, ,
0, ,7, ,
0, ,7, ,
0, ,7, ,
-1, ,8, ,
0, ,8, ,
0, ,8, ,
0, ,8, ,
0, ,8, ,
0, ,8, ,
0, ,7, ,
0, ,8, ,
0, ,8, ,
-1, ,8, ,
0, ,7, ,
0, ,8, ,
-1, ,8, ,
0, ,8, ,
0, ,8, ,
0, ,8, ,
0, ,8, ,
0, ,8, ,
0, ,7, ,
-1, ,8, ,
0, ,7, ,
0, ,8, ,
0, ,8, ,
0, ,8, ,
0, ,8, ,
0, ,7, ,
0, ,8, ,
0, ,8, ,
0, ,8, ,
0, ,8, ,
0, ,8, ,
0, ,8, ,
0, ,8, ,
0, ,8, ,
0, ,8, ,
0, ,8, ,
0, ,8, ,
-1, ,8, ,
0, ,8, ,
0, ,8, ,
0, ,8, ,
0, ,8, ,
-1, ,8, ,
0, ,8, ,
0, ,7, ,
0, ,8, ,
0, ,7, ,
0, ,7, ,
0, ,8, ,
0, ,8, ,
0, ,8, ,
0, ,8, ,
0, ,7, ,
0, ,7, ,
0, ,7, ,
0, ,7, ,
0, ,8, ,
0, ,8, ,
-1, ,8, ,
-1, ,8, ,
-1, ,7, ,
0, ,8, ,
0, ,7, ,
0, ,8, ,
0, ,8, ,
0, ,8, ,
0, ,8, ,
0, ,8, ,
0, ,8, ,
-1, ,8, ,
0, ,7, ,
0, ,8, ,
-1, ,8, ,
0, ,8, ,
0, ,7, ,
0, ,7, ,
0, ,7, ,
0, ,7, ,
0, ,8, ,
0, ,8, ,
0, ,8, ,
0, ,8, ,
0, ,8, ,
0, ,8, ,
0, ,8, ,
0, ,8, ,
-1, ,7, ,
0, ,8, ,
0, ,8, ,
0, ,8, ,
0, ,7, ,
0, ,8, ,
0, ,8, ,
0, ,8, ,
0, ,8, ,
-1, ,8, ,
0, ,8, ,
-1, ,8, ,
-1, ,8, ,
0, ,8, ,
-1, ,8, ,
0, ,8, ,
0, ,8, ,
0, ,7, ,
0, ,7, ,
0, ,7, ,
0, ,8, ,
-1, ,7, ,
0, ,8, ,
-1, ,8, ,
0, ,8, ,
0, ,8, ,
0, ,8, ,
0, ,8, ,
0, ,8, ,
0, ,8, ,
0, ,8, ,
0, ,8, ,
0, ,7, ,
0, ,7, ,
0, ,7, ,
0, ,8, ,
0, ,7, ,
0, ,7, ,
-1, ,8, ,
0, ,7, ,
0, ,8, ,
-1, ,8, ,
-1, ,8, ,
0, ,8, ,
0, ,7, ,
0, ,8, ,
0, ,8, ,
-1, ,7, ,
-1, ,8, ,
0, ,8, ,
-1, ,8, ,
0, ,8, ,
0, ,8, ,
-1, ,8, ,
-1, ,8, ,
0, ,8, ,
-1, ,7, ,
0, ,8, ,
0, ,8, ,
0, ,7, ,
0, ,7, ,
0, ,8, ,
0, ,8, ,
0, ,8, ,
0, ,7, ,
0, ,8, ,
-1, ,7, ,
-1, ,8, ,
0, ,7, ,
-1, ,8, ,
0, ,8, ,
0, ,8, ,
0, ,8, ,
0, ,7, ,
0, ,8, ,
0, ,8, ,
-1, ,8, ,
0, ,8, ,
0, ,8, ,
-1, ,8, ,
0, ,8, ,
0, ,8, ,
0, ,8, ,
0, ,7, ,
0, ,8, ,
-1, ,8, ,
0, ,7, ,
-1, ,8, ,
0, ,8, ,
0, ,7, ,
0, ,8, ,
0, ,8, ,
0, ,8, ,
0, ,8, ,
0, ,7, ,
0, ,8, ,
-1, ,8, ,
0, ,7, ,
0, ,8, ,
0, ,8, ,
0, ,8, ,
0, ,8, ,
0, ,7, ,
0, ,7, ,
0, ,7, ,
0, ,7, ,
0, ,8, ,
0, ,8, ,
0, ,8, ,
0, ,7, ,
0, ,8, ,
0, ,8, ,
0, ,8, ,
0, ,8, ,
0, ,8, ,
-1, ,8, ,
0, ,8, ,
0, ,8, ,
-1, ,7, ,
0, ,8, ,
0, ,8, ,
0, ,8, ,
0, ,7, ,
0, ,8, ,
-1, ,8, ,
0, ,8, ,
0, ,7, ,
0, ,8, ,
-1, ,8, ,
0, ,8, ,
0, ,8, ,
0, ,8, ,
0, ,7, ,
0, ,8, ,
0, ,8, ,
0, ,7, ,
-1, ,8, ,
0, ,8, ,
0, ,8, ,
0, ,8, ,
0, ,7, ,
0, ,7, ,
0, ,7, ,
0, ,8, ,
0, ,7, ,
0, ,7, ,
-1, ,7, ,
0, ,7, ,
0, ,8, ,
0, ,8, ,
0, ,8, ,
0, ,8, ,
-1, ,7, ,
-1, ,8, ,
0, ,8, ,
0, ,8, ,
0, ,8, ,
0, ,7, ,
0, ,7, ,
0, ,7, ,
0, ,8, ,
0, ,8, ,
0, ,8, ,
0, ,8, ,
0, ,8, ,
-1, ,8, ,
0, ,8, ,
0, ,7, ,
0, ,7, ,
0, ,8, ,
0, ,8, ,
0, ,8, ,
0, ,8, ,
0, ,8, ,
0, ,8, ,
0, ,8, ,
-1, ,8, ,
-1, ,7, ,
0, ,8, ,
0, ,8, ,
0, ,8, ,
0, ,7, ,
0, ,8, ,
0, ,8, ,
0, ,7, ,
0, ,8, ,
0, ,8, ,
-1, ,7, ,
0, ,8, ,
0, ,8, ,
0, ,8, ,
0, ,8, ,
0, ,7, ,
-1, ,7, ,
0, ,8, ,
-1, ,8, ,
0, ,8, ,
0, ,8, ,
0, ,8, ,
-1, ,8, ,
0, ,7, ,
0, ,7, ,
0, ,8, ,
-1, ,7, ,
0, ,7, ,
0, ,7, ,
0, ,8, ,
-1, ,8, ,
0, ,8, ,
0, ,8, ,
0, ,8, ,
0, ,8, ,
0, ,7, ,
0, ,8, ,
0, ,8, ,
0, ,8, ,
0, ,7, ,
0, ,7, ,
0, ,7, ,
0, ,8, ,
0, ,8, ,
0, ,8, ,
0, ,7, ,
0, ,8, ,
0, ,8, ,
0, ,8, ,
0, ,8, ,
0, ,7, ,
0, ,7, ,
0, ,8, ,
0, ,8, ,
0, ,8, ,
0, ,8, ,
0, ,7, ,
-1, ,8, ,
-1, ,8, ,
0, ,8, ,
0, ,7, ,
-1, ,8, ,
0, ,8, ,
0, ,8, ,
0, ,8, ,
0, ,8, ,
0, ,8, ,
0, ,8, ,
0, ,8, ,
-1, ,8, ,
0, ,8, ,
0, ,8, ,
0, ,8, ,
0, ,8, ,
0, ,8, ,
0, ,8, ,
0, ,7, ,
0, ,7, ,
0, ,7, ,
-1, ,8, ,
0, ,8, ,
0, ,8, ,
0, ,8, ,
0, ,8, ,
0, ,7, ,
0, ,8, ,
0, ,7, ,
0, ,8, ,
0, ,7, ,
0, ,8, ,
-1, ,8, ,
0, ,7, ,
0, ,8, ,
0, ,8, ,
-1, ,8, ,
0, ,8, ,
0, ,8, ,
0, ,8, ,
-1, ,7, ,
-1, ,8, ,
0, ,7, ,
0, ,7, ,
0, ,7, ,
0, ,8, ,
0, ,8, ,
0, ,8, ,
0, ,8, ,
0, ,8, ,
0, ,8, ,
0, ,8, ,
0, ,8, ,
0, ,7, ,
0, ,8, ,
0, ,7, ,
-1, ,8, ,
-1, ,8, ,
0, ,8, ,
0, ,7, ,
0, ,7, ,
0, ,8, ,
-1, ,7, ,
0, ,8, ,
-1, ,8, ,
0, ,7, ,
-1, ,8, ,
0, ,8, ,
0, ,8, ,
0, ,8, ,
0, ,7, ,
0, ,7, ,
0, ,8, ,
0, ,8, ,
0, ,8, ,
-1, ,8, ,
0, ,7, ,
-1, ,7, ,
-1, ,7, ,
0, ,8, ,
-1, ,8, ,
0, ,7, ,
-1, ,8, ,
0, ,8, ,
0, ,8, ,
0, ,7, ,
0, ,8, ,
0, ,7, ,
0, ,8, ,
0, ,7, ,
0, ,7, ,
0, ,7, ,
0, ,7, ,
0, ,8, ,
0, ,7, ,
0, ,8, ,
0, ,8, ,
-1, ,8, ,
0, ,8, ,
0, ,7, ,
0, ,8, ,
0, ,8, ,
0, ,7, ,
0, ,8, ,
0, ,7, ,
0, ,8, ,
0, ,8, ,
0, ,8, ,
-1, ,8, ,
0, ,8, ,
0, ,7, ,
0, ,8, ,
0, ,8, ,
-1, ,8, ,
-1, ,8, ,
0, ,8, ,
0, ,8, ,
0, ,8, ,
0, ,7, ,
0, ,8, ,
0, ,8, ,
0, ,7, ,
0, ,7, ,
0, ,7, ,
0, ,7, ,
0, ,7, ,
0, ,7, ,
0, ,7, ,
0, ,7, ,
0, ,8, ,
-1, ,7, ,
0, ,8, ,
-1, ,8, ,
0, ,7, ,
-1, ,8, ,
0, ,8, ,
0, ,8, ,
0, ,8, ,
0, ,8, ,
0, ,7, ,
0, ,8, ,
-1, ,7, ,
0, ,7, ,
0, ,8, ,
0, ,8, ,
0, ,8, ,
-1, ,8, ,
0, ,8, ,
-1, ,7, ,
0, ,8, ,
0, ,8, ,
0, ,8, ,
-1, ,8, ,
0, ,8, ,
0, ,8, ,
0, ,7, ,
0, ,8, ,
0, ,8, ,
0, ,8, ,
0, ,8, ,
0, ,8, ,
0, ,7, ,
0, ,7, ,
0, ,8, ,
0, ,7, ,
0, ,7, ,
0, ,7, ,
0, ,8, ,
-1, ,8, ,
-1, ,8, ,
0, ,8, ,
0, ,8, ,
0, ,8, ,
0, ,7, ,
0, ,8, ,
0, ,8, ,
0, ,8, ,
0, ,7, ,
0, ,8, ,
0, ,7, ,
0, ,8, ,
-1, ,8, ,
0, ,7, ,
0, ,7, ,
0, ,8, ,
0, ,8, ,
0, ,7, ,
0, ,7, ,
0, ,8, ,
0, ,8, ,
-1, ,8, ,
0, ,8, ,
-1, ,7, ,
0, ,7, ,
-1, ,8, ,
0, ,7, ,
0, ,8, ,
-1, ,8, ,
0, ,8, ,
0, ,8, ,
0, ,7, ,
0, ,7, ,
0, ,8, ,
-1, ,8, ,
0, ,8, ,
0, ,7, ,
0, ,8, ,
0, ,8, ,
0, ,8, ,
0, ,7, ,
0, ,8, ,
-1, ,7, ,
0, ,7, ,
-1, ,7, ,
127, ,7, ,
127, ,7, ,
127, ,7, ,
127, ,7, ,
127, ,7, ,
90, ,8, ,
44, ,7, ,
18, ,7, ,
2, ,7, ,
-5, ,8, ,
-9, ,8, ,
-10, ,8, ,
-10, ,8, ,
-9, ,8, ,
-7, ,7, ,
-6, ,7, ,
-5, ,8, ,
-4, ,8, ,
-4, ,7, ,
-2, ,7, ,
-2, ,8, ,
-2, ,7, ,
-1, ,7, ,
-1, ,8, ,
-1, ,8, ,
-4, ,8, ,
-1, ,8, ,
-7, ,7, ,
0, ,8, ,
-1, ,8, ,
1, ,8, ,
-2, ,8, ,
