raw_data/0% Glycerol, Impulsion 0.5Hz, Sonde 5MHz, Rampe 0.7Hz/temp0000385.CSV

Format,1.0B,
Memory Length,10000,Memory Length,10000,
IntpDistance,0,IntpDistance,0,
Trigger Address,2029,Trigger Address,2029,
Trigger Level,2.720E-01,Trigger Level,2.720E-01,
Source,CH1,Source,CH2,
Vertical Units,V,Vertical Units,V,
Vertical Units Div,0,Vertical Units Div,0,
Vertical Units Extend Div,16,Vertical Units Extend Div,16,
Label,,Label,,
Probe Type,0,Probe Type,0,
Probe Ratio,1.000e+00,Probe Ratio,1.000e+00,
Vertical Scale,1.000e-01,Vertical Scale,2.000e+00,
Vertical Position,0.000e+00,Vertical Position,0.000e+00,
Horizontal Units,S,Horizontal Units,S,
Horizontal Scale,5.000E-05,Horizontal Scale,5.000E-05,
Horizontal Position,1.485E-04,Horizontal Position,1.485E-04,
Horizontal Mode,Main,Horizontal Mode,Main,
SincET Mode,Real Time,SincET Mode,Real Time,
Sampling Period,5.000e-08,Sampling Period,5.000e-08,
Horizontal Old Scale,5.000E-05,Horizontal Old Scale,5.000E-05,
Horizontal Old Position,1.485E-04,Horizontal Old Position,1.485E-04,
Firmware,V1.32,Firmware,V1.32,
Mode,Fast,Mode,Fast,
Waveform Data,,Waveform Data,,
0, ,9, ,
0, ,9, ,
0, ,9, ,
0, ,9, ,
0, ,9, ,
0, ,9, ,
0, ,9, ,
0, ,9, ,
0, ,9, ,
0, ,9, ,
0, ,9, ,
0, ,9, ,
0, ,9, ,
0, ,9, ,
0, ,9, ,
0, ,9, ,
0, ,9, ,
0, ,9, ,
0, ,9, ,
0, ,9, ,
0, ,9, ,
0, ,9, ,
0, ,9, ,
0, ,9, ,
0, ,9, ,
0, ,9, ,
0, ,9, ,
0, ,9, ,
0, ,9, ,
0, ,9, ,
0, ,9, ,
0, ,9, ,
0, ,9, ,
0, ,9, ,
0, ,9, ,
0, ,9, ,
0, ,9, ,
0, ,9, ,
0, ,9, ,
0, ,9, ,
0, ,9, ,
0, ,9, ,
0, ,9, ,
0, ,9, ,
0, ,9, ,
0, ,9, ,
0, ,9, ,
0, ,9, ,
0, ,9, ,
0, ,9, ,
0, ,9, ,
0, ,9, ,
0, ,9, ,
0, ,9, ,
0, ,9, ,
0, ,9, ,
0, ,9, ,
0, ,9, ,
0, ,9, ,
0, ,9, ,
0, ,9, ,
0, ,9, ,
0, ,9, ,
0, ,9, ,
0, ,9, ,
0, ,9, ,
0, ,9, ,
0, ,9, ,
0, ,9, ,
0, ,9, ,
0, ,9, ,
0, ,9, ,
0, ,9, ,
0, ,9, ,
0, ,9, ,
0, ,9, ,
0, ,9, ,
0, ,9, ,
0, ,9, ,
0, ,9, ,
0, ,9, ,
0, ,9, ,
0, ,9, ,
0, ,9, ,
0, ,9, ,
0, ,9, ,
0, ,9, ,
0, ,9, ,
0, ,9, ,
0, ,9, ,
0, ,9, ,
0, ,9, ,
0, ,9, ,
0, ,9, ,
0, ,9, ,
0, ,9, ,
0, ,9, ,
0, ,9, ,
0, ,9, ,
-1, ,9, ,
0, ,9, ,
0, ,9, ,
0, ,9, ,
0, ,9, ,
0, ,9, ,
0, ,9, ,
0, ,9, ,
0, ,9, ,
0, ,9, ,
0, ,9, ,
0, ,9, ,
0, ,9, ,
0, ,9, ,
0, ,9, ,
0, ,9, ,
0, ,9, ,
0, ,9, ,
0, ,9, ,
0, ,9, ,
0, ,9, ,
0, ,9, ,
0, ,9, ,
0, ,9, ,
0, ,9, ,
0, ,9, ,
0, ,9, ,
0, ,9, ,
0, ,9, ,
0, ,9, ,
0, ,9, ,
0, ,9, ,
0, ,9, ,
0, ,9, ,
0, ,9, ,
0, ,9, ,
0, ,9, ,
0, ,9, ,
0, ,9, ,
0, ,9, ,
0, ,9, ,
0, ,9, ,
0, ,9, ,
0, ,9, ,
0, ,9, ,
0, ,9, ,
0, ,9, ,
0, ,9, ,
-1, ,9, ,
0, ,9, ,
0, ,9, ,
0, ,9, ,
0, ,9, ,
0, ,9, ,
0, ,9, ,
0, ,9, ,
0, ,9, ,
0, ,9, ,
0, ,9, ,
0, ,9, ,
0, ,9, ,
0, ,9, ,
0, ,9, ,
0, ,9, ,
0, ,9, ,
0, ,9, ,
0, ,9, ,
0, ,9, ,
0, ,9, ,
0, ,9, ,
0, ,9, ,
0, ,9, ,
0, ,9, ,
0, ,9, ,
0, ,9, ,
0, ,9, ,
0, ,9, ,
0, ,9, ,
0, ,9, ,
0, ,9, ,
0, ,9, ,
0, ,9, ,
0, ,9, ,
0, ,9, ,
0, ,9, ,
0, ,9, ,
0, ,9, ,
0, ,9, ,
0, ,9, ,
0, ,9, ,
0, ,9, ,
0, ,9, ,
0, ,9, ,
0, ,9, ,
0, ,9, ,
0, ,9, ,
0, ,9, ,
0, ,9, ,
0, ,9, ,
0, ,9, ,
0, ,9, ,
0, ,9, ,
0, ,9, ,
0, ,9, ,
0, ,9, ,
0, ,9, ,
0, ,9, ,
0, ,9, ,
0, ,9, ,
0, ,9, ,
0, ,9, ,
0, ,9, ,
0, ,9, ,
0, ,9, ,
0, ,9, ,
0, ,9, ,
0, ,9, ,
0, ,9, ,
0, ,9, ,
0, ,9, ,
0, ,9, ,
0, ,9, ,
0, ,9, ,
0, ,9, ,
0, ,9, ,
0, ,9, ,
0, ,9, ,
0, ,9, ,
0, ,9, ,
0, ,9, ,
-1, ,9, ,
0, ,9, ,
0, ,9, ,
0, ,9, ,
0, ,9, ,
0, ,9, ,
0, ,9, ,
0, ,9, ,
0, ,9, ,
0, ,9, ,
0, ,9, ,
0, ,9, ,
0, ,9, ,
0, ,9, ,
0, ,9, ,
0, ,9, ,
0, ,9, ,
0, ,9, ,
0, ,9, ,
0, ,9, ,
0, ,9, ,
0, ,9, ,
0, ,9, ,
0, ,9, ,
0, ,9, ,
0, ,9, ,
0, ,9, ,
0, ,9, ,
0, ,9, ,
0, ,9, ,
0, ,9, ,
0, ,9, ,
0, ,9, ,
0, ,9, ,
0, ,9, ,
0, ,9, ,
0, ,9, ,
0, ,9, ,
0, ,9, ,
0, ,9, ,
0, ,9, ,
0, ,9, ,
0, ,9, ,
0, ,9, ,
0, ,9, ,
0, ,9, ,
0, ,9, ,
0, ,9, ,
0, ,9, ,
0, ,9, ,
0, ,9, ,
0, ,9, ,
0, ,9, ,
0, ,9, ,
0, ,9, ,
0, ,9, ,
0, ,9, ,
-1, ,9, ,
0, ,9, ,
0, ,9, ,
0, ,9, ,
0, ,9, ,
0, ,9, ,
0, ,9, ,
0, ,9, ,
0, ,9, ,
0, ,9, ,
0, ,9, ,
0, ,9, ,
0, ,9, ,
0, ,9, ,
0, ,9, ,
0, ,9, ,
0, ,9, ,
0, ,9, ,
0, ,9, ,
0, ,9, ,
0, ,9, ,
0, ,9, ,
0, ,9, ,
0, ,9, ,
0, ,9, ,
0, ,9, ,
0, ,9, ,
0, ,9, ,
0, ,9, ,
0, ,9, ,
0, ,9, ,
0, ,9, ,
0, ,9, ,
0, ,9, ,
0, ,9, ,
0, ,9, ,
0, ,9, ,
0, ,9, ,
0, ,9, ,
0, ,9, ,
0, ,9, ,
0, ,9, ,
0, ,9, ,
0, ,9, ,
0, ,9, ,
0, ,9, ,
0, ,9, ,
0, ,9, ,
0, ,9, ,
0, ,9, ,
0, ,9, ,
0, ,9, ,
0, ,9, ,
0, ,9, ,
0, ,9, ,
0, ,9, ,
0, ,9, ,
0, ,9, ,
0, ,9, ,
0, ,9, ,
0, ,9, ,
0, ,9, ,
0, ,9, ,
0, ,9, ,
0, ,9, ,
0, ,9, ,
0, ,9, ,
0, ,9, ,
0, ,9, ,
0, ,9, ,
0, ,9, ,
0, ,9, ,
0, ,9, ,
0, ,9, ,
0, ,9, ,
0, ,9, ,
0, ,9, ,
0, ,9, ,
-1, ,9, ,
0, ,9, ,
0, ,9, ,
0, ,9, ,
0, ,9, ,
0, ,9, ,
0, ,9, ,
0, ,9, ,
0, ,9, ,
0, ,9, ,
0, ,9, ,
0, ,9, ,
0, ,9, ,
0, ,9, ,
0, ,9, ,
0, ,9, ,
0, ,9, ,
0, ,9, ,
0, ,9, ,
0, ,9, ,
0, ,9, ,
0, ,9, ,
0, ,9, ,
0, ,9, ,
0, ,9, ,
0, ,9, ,
0, ,9, ,
0, ,9, ,
0, ,9, ,
0, ,9, ,
0, ,9, ,
0, ,9, ,
0, ,9, ,
0, ,9, ,
0, ,9, ,
0, ,9, ,
0, ,9, ,
0, ,9, ,
0, ,9, ,
0, ,9, ,
0, ,9, ,
0, ,9, ,
0, ,9, ,
0, ,9, ,
0, ,9, ,
0, ,9, ,
0, ,9, ,
0, ,9, ,
0, ,9, ,
0, ,9, ,
0, ,9, ,
0, ,9, ,
0, ,9, ,
0, ,9, ,
0, ,9, ,
0, ,9, ,
0, ,9, ,
0, ,9, ,
0, ,9, ,
0, ,9, ,
0, ,9, ,
0, ,9, ,
0, ,9, ,
0, ,9, ,
0, ,9, ,
0, ,9, ,
0, ,9, ,
0, ,9, ,
0, ,9, ,
0, ,9, ,
0, ,9, ,
0, ,9, ,
0, ,9, ,
0, ,9, ,
0, ,9, ,
0, ,9, ,
0, ,9, ,
0, ,9, ,
0, ,9, ,
0, ,9, ,
0, ,9, ,
0, ,9, ,
0, ,9, ,
0, ,9, ,
0, ,9, ,
0, ,9, ,
0, ,9, ,
0, ,9, ,
0, ,9, ,
0, ,9, ,
0, ,9, ,
0, ,9, ,
0, ,9, ,
0, ,9, ,
0, ,9, ,
0, ,9, ,
0, ,9, ,
0, ,9, ,
0, ,9, ,
0, ,9, ,
0, ,9, ,
0, ,9, ,
0, ,9, ,
0, ,9, ,
0, ,9, ,
0, ,9, ,
0, ,9, ,
0, ,9, ,
0, ,9, ,
0, ,9, ,
0, ,9, ,
0, ,9, ,
0, ,9, ,
0, ,9, ,
0, ,9, ,
0, ,9, ,
0, ,9, ,
0, ,9, ,
0, ,9, ,
0, ,9, ,
0, ,9, ,
0, ,9, ,
0, ,9, ,
0, ,9, ,
0, ,9, ,
0, ,9, ,
0, ,9, ,
0, ,9, ,
0, ,9, ,
0, ,9, ,
0, ,9, ,
0, ,9, ,
0, ,9, ,
0, ,9, ,
0, ,9, ,
0, ,9, ,
0, ,9, ,
0, ,9, ,
0, ,9, ,
0, ,9, ,
0, ,9, ,
0, ,9, ,
0, ,9, ,
0, ,9, ,
0, ,9, ,
0, ,9, ,
0, ,9, ,
0, ,9, ,
0, ,9, ,
0, ,9, ,
0, ,9, ,
0, ,9, ,
0, ,9, ,
0, ,9, ,
0, ,9, ,
0, ,9, ,
0, ,9, ,
0, ,9, ,
0, ,9, ,
0, ,9, ,
0, ,9, ,
0, ,9, ,
0, ,9, ,
0, ,9, ,
0, ,9, ,
0, ,9, ,
0, ,9, ,
0, ,9, ,
0, ,9, ,
0, ,9, ,
0, ,9, ,
0, ,9, ,
0, ,9, ,
0, ,9, ,
0, ,9, ,
0, ,9, ,
-1, ,9, ,
-1, ,9, ,
0, ,9, ,
0, ,9, ,
0, ,9, ,
0, ,9, ,
0, ,9, ,
0, ,9, ,
0, ,9, ,
0, ,9, ,
0, ,9, ,
0, ,9, ,
0, ,9, ,
0, ,9, ,
0, ,9, ,
0, ,9, ,
0, ,9, ,
0, ,9, ,
0, ,9, ,
0, ,9, ,
0, ,9, ,
0, ,9, ,
0, ,9, ,
0, ,9, ,
0, ,9, ,
0, ,9, ,
0, ,9, ,
0, ,9, ,
0, ,9, ,
0, ,9, ,
0, ,9, ,
0, ,9, ,
0, ,9, ,
0, ,9, ,
0, ,9, ,
0, ,9, ,
0, ,9, ,
0, ,9, ,
0, ,9, ,
0, ,9, ,
0, ,9, ,
0, ,9, ,
0, ,9, ,
0, ,9, ,
0, ,9, ,
0, ,9, ,
0, ,9, ,
0, ,9, ,
0, ,9, ,
0, ,9, ,
0, ,9, ,
0, ,9, ,
0, ,9, ,
0, ,9, ,
0, ,9, ,
0, ,9, ,
0, ,9, ,
0, ,9, ,
0, ,9, ,
0, ,9, ,
0, ,9, ,
0, ,9, ,
0, ,9, ,
0, ,9, ,
0, ,9, ,
0, ,9, ,
0, ,9, ,
0, ,9, ,
0, ,9, ,
0, ,9, ,
0, ,9, ,
0, ,9, ,
0, ,9, ,
0, ,9, ,
0, ,9, ,
0, ,9, ,
0, ,9, ,
0, ,9, ,
0, ,9, ,
0, ,9, ,
0, ,9, ,
0, ,9, ,
0, ,9, ,
0, ,9, ,
0, ,9, ,
0, ,9, ,
0, ,9, ,
0, ,9, ,
0, ,9, ,
0, ,9, ,
0, ,9, ,
0, ,9, ,
0, ,9, ,
0, ,9, ,
0, ,9, ,
0, ,9, ,
0, ,9, ,
0, ,9, ,
0, ,9, ,
0, ,9, ,
0, ,9, ,
0, ,9, ,
0, ,9, ,
0, ,9, ,
0, ,9, ,
0, ,9, ,
0, ,9, ,
0, ,9, ,
0, ,9, ,
0, ,9, ,
0, ,9, ,
0, ,9, ,
0, ,9, ,
0, ,9, ,
0, ,9, ,
0, ,9, ,
0, ,9, ,
0, ,9, ,
0, ,9, ,
0, ,9, ,
0, ,9, ,
0, ,9, ,
0, ,9, ,
0, ,9, ,
0, ,9, ,
0, ,9, ,
0, ,9, ,
0, ,9, ,
0, ,9, ,
0, ,9, ,
0, ,9, ,
0, ,9, ,
0, ,9, ,
0, ,9, ,
0, ,9, ,
0, ,9, ,
0, ,9, ,
0, ,9, ,
0, ,9, ,
0, ,9, ,
0, ,9, ,
0, ,9, ,
0, ,9, ,
0, ,9, ,
0, ,9, ,
0, ,9, ,
0, ,9, ,
0, ,9, ,
0, ,9, ,
0, ,9, ,
0, ,9, ,
0, ,9, ,
0, ,9, ,
0, ,9, ,
0, ,9, ,
0, ,9, ,
0, ,9, ,
0, ,9, ,
0, ,9, ,
0, ,9, ,
0, ,9, ,
0, ,9, ,
0, ,9, ,
0, ,9, ,
0, ,9, ,
0, ,9, ,
0, ,9, ,
0, ,9, ,
0, ,9, ,
0, ,9, ,
0, ,9, ,
0, ,9, ,
0, ,9, ,
0, ,9, ,
0, ,9, ,
0, ,9, ,
0, ,9, ,
0, ,9, ,
0, ,9, ,
0, ,9, ,
0, ,9, ,
0, ,9, ,
0, ,9, ,
0, ,9, ,
0, ,9, ,
0, ,9, ,
0, ,9, ,
0, ,9, ,
-1, ,9, ,
0, ,9, ,
0, ,9, ,
0, ,9, ,
0, ,9, ,
0, ,9, ,
0, ,9, ,
0, ,9, ,
0, ,9, ,
0, ,9, ,
0, ,9, ,
0, ,9, ,
0, ,9, ,
0, ,9, ,
0, ,9, ,
0, ,9, ,
0, ,9, ,
0, ,9, ,
0, ,9, ,
0, ,9, ,
0, ,9, ,
0, ,9, ,
0, ,9, ,
-1, ,9, ,
0, ,9, ,
0, ,9, ,
0, ,9, ,
0, ,9, ,
0, ,9, ,
0, ,9, ,
0, ,9, ,
0, ,9, ,
0, ,9, ,
0, ,9, ,
0, ,9, ,
0, ,9, ,
0, ,9, ,
0, ,9, ,
0, ,9, ,
0, ,9, ,
0, ,9, ,
0, ,9, ,
0, ,9, ,
0, ,9, ,
0, ,9, ,
0, ,9, ,
0, ,9, ,
0, ,9, ,
0, ,9, ,
0, ,9, ,
0, ,9, ,
0, ,9, ,
0, ,9, ,
0, ,9, ,
0, ,9, ,
0, ,9, ,
0, ,9, ,
0, ,9, ,
0, ,9, ,
0, ,9, ,
0, ,9, ,
0, ,9, ,
0, ,9, ,
0, ,9, ,
0, ,9, ,
0, ,9, ,
0, ,9, ,
0, ,9, ,
0, ,9, ,
0, ,9, ,
0, ,9, ,
0, ,9, ,
0, ,9, ,
0, ,9, ,
0, ,9, ,
0, ,9, ,
0, ,9, ,
0, ,9, ,
0, ,9, ,
0, ,9, ,
0, ,9, ,
0, ,9, ,
0, ,9, ,
0, ,9, ,
0, ,9, ,
0, ,9, ,
0, ,9, ,
0, ,9, ,
0, ,9, ,
0, ,9, ,
0, ,9, ,
0, ,9, ,
0, ,9, ,
0, ,9, ,
0, ,9, ,
0, ,9, ,
0, ,9, ,
0, ,9, ,
0, ,9, ,
0, ,9, ,
0, ,9, ,
0, ,9, ,
0, ,9, ,
-1, ,9, ,
0, ,9, ,
0, ,9, ,
0, ,9, ,
0, ,9, ,
0, ,9, ,
0, ,9, ,
0, ,9, ,
0, ,9, ,
0, ,9, ,
0, ,9, ,
0, ,9, ,
0, ,9, ,
0, ,9, ,
0, ,9, ,
0, ,9, ,
0, ,9, ,
0, ,9, ,
0, ,9, ,
0, ,9, ,
0, ,9, ,
0, ,9, ,
0, ,9, ,
0, ,9, ,
0, ,9, ,
0, ,9, ,
0, ,9, ,
0, ,9, ,
0, ,9, ,
0, ,9, ,
0, ,9, ,
0, ,9, ,
0, ,9, ,
0, ,9, ,
0, ,9, ,
0, ,9, ,
0, ,9, ,
0, ,9, ,
0, ,9, ,
0, ,9, ,
0, ,9, ,
0, ,9, ,
0, ,9, ,
0, ,9, ,
0, ,9, ,
0, ,9, ,
0, ,9, ,
0, ,9, ,
0, ,9, ,
0, ,9, ,
0, ,9, ,
0, ,9, ,
0, ,9, ,
0, ,9, ,
0, ,9, ,
0, ,9, ,
0, ,9, ,
0, ,9, ,
0, ,9, ,
0, ,9, ,
0, ,9, ,
0, ,9, ,
0, ,9, ,
0, ,9, ,
0, ,9, ,
0, ,9, ,
0, ,9, ,
0, ,9, ,
0, ,9, ,
0, ,9, ,
0, ,9, ,
0, ,9, ,
0, ,9, ,
0, ,9, ,
0, ,9, ,
0, ,9, ,
0, ,9, ,
0, ,9, ,
0, ,9, ,
0, ,9, ,
0, ,9, ,
0, ,9, ,
0, ,9, ,
0, ,9, ,
0, ,9, ,
0, ,9, ,
0, ,9, ,
0, ,9, ,
0, ,9, ,
0, ,9, ,
0, ,9, ,
0, ,9, ,
0, ,9, ,
0, ,9, ,
0, ,9, ,
0, ,9, ,
0, ,9, ,
0, ,9, ,
0, ,9, ,
0, ,9, ,
0, ,9, ,
0, ,9, ,
0, ,9, ,
0, ,9, ,
0, ,9, ,
0, ,9, ,
0, ,9, ,
0, ,9, ,
0, ,9, ,
0, ,9, ,
0, ,9, ,
0, ,9, ,
0, ,9, ,
0, ,9, ,
0, ,9, ,
0, ,9, ,
0, ,9, ,
0, ,9, ,
0, ,9, ,
0, ,9, ,
0, ,9, ,
0, ,9, ,
0, ,9, ,
0, ,9, ,
0, ,9, ,
0, ,9, ,
0, ,9, ,
0, ,9, ,
0, ,9, ,
0, ,9, ,
0, ,9, ,
0, ,9, ,
0, ,9, ,
0, ,9, ,
-1, ,9, ,
0, ,9, ,
0, ,9, ,
0, ,9, ,
0, ,9, ,
0, ,9, ,
0, ,9, ,
0, ,9, ,
0, ,9, ,
0, ,9, ,
0, ,9, ,
0, ,9, ,
0, ,9, ,
0, ,9, ,
0, ,9, ,
0, ,9, ,
0, ,9, ,
0, ,9, ,
0, ,9, ,
0, ,9, ,
0, ,9, ,
-1, ,9, ,
0, ,9, ,
0, ,9, ,
0, ,9, ,
0, ,9, ,
0, ,9, ,
0, ,9, ,
0, ,9, ,
0, ,9, ,
0, ,9, ,
0, ,9, ,
0, ,9, ,
0, ,9, ,
0, ,9, ,
0, ,9, ,
0, ,9, ,
0, ,9, ,
0, ,9, ,
0, ,9, ,
0, ,9, ,
0, ,9, ,
0, ,9, ,
0, ,9, ,
0, ,9, ,
0, ,9, ,
0, ,9, ,
0, ,9, ,
0, ,9, ,
0, ,9, ,
0, ,9, ,
0, ,9, ,
0, ,9, ,
0, ,9, ,
0, ,9, ,
0, ,9, ,
0, ,9, ,
0, ,9, ,
0, ,9, ,
0, ,9, ,
0, ,9, ,
0, ,9, ,
0, ,9, ,
0, ,9, ,
0, ,9, ,
0, ,9, ,
0, ,9, ,
0, ,9, ,
0, ,9, ,
0, ,9, ,
0, ,9, ,
0, ,9, ,
0, ,9, ,
0, ,9, ,
0, ,9, ,
0, ,9, ,
0, ,9, ,
0, ,9, ,
0, ,9, ,
0, ,9, ,
0, ,9, ,
0, ,9, ,
0, ,9, ,
0, ,9, ,
0, ,9, ,
0, ,9, ,
0, ,9, ,
0, ,9, ,
0, ,9, ,
0, ,9, ,
0, ,9, ,
0, ,9, ,
0, ,9, ,
0, ,9, ,
0, ,9, ,
0, ,9, ,
0, ,9, ,
0, ,9, ,
0, ,9, ,
0, ,9, ,
0, ,9, ,
0, ,9, ,
0, ,9, ,
0, ,9, ,
0, ,9, ,
0, ,9, ,
0, ,9, ,
0, ,9, ,
0, ,9, ,
0, ,9, ,
0, ,9, ,
0, ,9, ,
0, ,9, ,
0, ,9, ,
0, ,9, ,
0, ,9, ,
0, ,9, ,
0, ,9, ,
0, ,9, ,
0, ,9, ,
0, ,9, ,
0, ,9, ,
0, ,9, ,
0, ,9, ,
0, ,9, ,
0, ,9, ,
0, ,9, ,
0, ,9, ,
0, ,9, ,
0, ,9, ,
0, ,9, ,
0, ,9, ,
0, ,9, ,
0, ,9, ,
0, ,9, ,
0, ,9, ,
0, ,9, ,
0, ,9, ,
0, ,9, ,
0, ,9, ,
0, ,9, ,
0, ,9, ,
0, ,9, ,
0, ,9, ,
0, ,9, ,
0, ,9, ,
0, ,9, ,
0, ,9, ,
0, ,9, ,
0, ,9, ,
0, ,9, ,
0, ,9, ,
0, ,9, ,
0, ,9, ,
0, ,9, ,
0, ,9, ,
0, ,9, ,
0, ,9, ,
0, ,9, ,
0, ,9, ,
0, ,9, ,
0, ,9, ,
0, ,9, ,
0, ,9, ,
0, ,9, ,
0, ,9, ,
0, ,9, ,
0, ,9, ,
0, ,9, ,
0, ,9, ,
0, ,9, ,
0, ,9, ,
0, ,9, ,
0, ,9, ,
0, ,9, ,
0, ,9, ,
0, ,9, ,
0, ,9, ,
0, ,9, ,
0, ,9, ,
0, ,9, ,
0, ,9, ,
0, ,9, ,
0, ,9, ,
0, ,9, ,
0, ,9, ,
0, ,9, ,
0, ,9, ,
0, ,9, ,
0, ,9, ,
0, ,9, ,
0, ,9, ,
0, ,9, ,
0, ,9, ,
0, ,9, ,
0, ,9, ,
0, ,9, ,
0, ,9, ,
0, ,9, ,
0, ,9, ,
0, ,9, ,
0, ,9, ,
0, ,9, ,
0, ,9, ,
0, ,9, ,
0, ,9, ,
0, ,9, ,
0, ,9, ,
0, ,9, ,
0, ,9, ,
0, ,9, ,
0, ,9, ,
0, ,9, ,
0, ,9, ,
0, ,9, ,
0, ,9, ,
0, ,9, ,
0, ,9, ,
0, ,9, ,
0, ,9, ,
0, ,9, ,
0, ,9, ,
0, ,9, ,
0, ,9, ,
0, ,9, ,
0, ,9, ,
0, ,9, ,
0, ,9, ,
0, ,9, ,
0, ,9, ,
0, ,9, ,
0, ,9, ,
0, ,9, ,
0, ,9, ,
0, ,9, ,
0, ,9, ,
0, ,9, ,
0, ,9, ,
0, ,9, ,
0, ,9, ,
0, ,9, ,
0, ,9, ,
0, ,9, ,
0, ,9, ,
0, ,9, ,
0, ,9, ,
0, ,9, ,
0, ,9, ,
0, ,9, ,
0, ,9, ,
0, ,9, ,
0, ,9, ,
0, ,9, ,
0, ,9, ,
0, ,9, ,
0, ,9, ,
0, ,9, ,
0, ,9, ,
0, ,9, ,
0, ,9, ,
0, ,9, ,
0, ,9, ,
0, ,9, ,
0, ,9, ,
0, ,9, ,
0, ,9, ,
0, ,9, ,
0, ,9, ,
0, ,9, ,
0, ,9, ,
0, ,9, ,
0, ,9, ,
0, ,9, ,
0, ,9, ,
0, ,9, ,
0, ,9, ,
0, ,9, ,
0, ,9, ,
0, ,9, ,
0, ,9, ,
0, ,9, ,
0, ,9, ,
0, ,9, ,
0, ,9, ,
0, ,9, ,
0, ,9, ,
0, ,9, ,
0, ,9, ,
0, ,9, ,
0, ,9, ,
0, ,9, ,
0, ,9, ,
0, ,9, ,
0, ,9, ,
0, ,9, ,
0, ,9, ,
0, ,9, ,
0, ,9, ,
0, ,9, ,
0, ,9, ,
0, ,9, ,
0, ,9, ,
0, ,9, ,
0, ,9, ,
0, ,9, ,
0, ,9, ,
0, ,9, ,
-1, ,9, ,
0, ,9, ,
0, ,9, ,
0, ,9, ,
0, ,9, ,
0, ,9, ,
0, ,9, ,
0, ,9, ,
0, ,9, ,
0, ,9, ,
0, ,9, ,
0, ,9, ,
0, ,9, ,
0, ,9, ,
0, ,9, ,
0, ,9, ,
0, ,9, ,
0, ,9, ,
0, ,9, ,
0, ,9, ,
0, ,9, ,
0, ,9, ,
0, ,9, ,
0, ,9, ,
0, ,9, ,
0, ,9, ,
0, ,9, ,
0, ,9, ,
0, ,9, ,
0, ,9, ,
0, ,9, ,
0, ,9, ,
0, ,9, ,
0, ,9, ,
0, ,9, ,
0, ,9, ,
0, ,9, ,
0, ,9, ,
0, ,9, ,
0, ,9, ,
0, ,9, ,
0, ,9, ,
0, ,9, ,
0, ,9, ,
-1, ,9, ,
0, ,9, ,
0, ,9, ,
0, ,9, ,
0, ,9, ,
0, ,9, ,
0, ,9, ,
0, ,9, ,
0, ,9, ,
0, ,9, ,
-1, ,9, ,
0, ,9, ,
0, ,9, ,
0, ,9, ,
0, ,9, ,
0, ,9, ,
0, ,9, ,
0, ,9, ,
0, ,9, ,
0, ,9, ,
0, ,9, ,
0, ,9, ,
0, ,9, ,
0, ,9, ,
0, ,9, ,
0, ,9, ,
0, ,9, ,
0, ,9, ,
0, ,9, ,
0, ,9, ,
0, ,9, ,
0, ,9, ,
0, ,9, ,
0, ,9, ,
0, ,9, ,
0, ,9, ,
0, ,9, ,
0, ,9, ,
0, ,9, ,
0, ,9, ,
0, ,9, ,
0, ,9, ,
0, ,9, ,
0, ,9, ,
0, ,9, ,
0, ,9, ,
0, ,9, ,
0, ,9, ,
0, ,9, ,
0, ,9, ,
0, ,9, ,
0, ,9, ,
0, ,9, ,
0, ,9, ,
0, ,9, ,
0, ,9, ,
0, ,9, ,
0, ,9, ,
0, ,9, ,
0, ,9, ,
0, ,9, ,
0, ,9, ,
0, ,9, ,
0, ,9, ,
0, ,9, ,
0, ,9, ,
0, ,9, ,
0, ,9, ,
0, ,9, ,
0, ,9, ,
0, ,9, ,
0, ,9, ,
0, ,9, ,
0, ,9, ,
0, ,9, ,
0, ,9, ,
0, ,9, ,
0, ,9, ,
0, ,9, ,
0, ,9, ,
0, ,9, ,
0, ,9, ,
0, ,9, ,
0, ,9, ,
0, ,9, ,
0, ,9, ,
0, ,9, ,
0, ,9, ,
0, ,9, ,
0, ,9, ,
0, ,9, ,
0, ,9, ,
0, ,9, ,
0, ,9, ,
0, ,9, ,
0, ,9, ,
0, ,9, ,
0, ,9, ,
0, ,9, ,
0, ,9, ,
0, ,9, ,
0, ,9, ,
0, ,9, ,
0, ,9, ,
0, ,9, ,
0, ,9, ,
0, ,9, ,
0, ,9, ,
0, ,9, ,
0, ,9, ,
0, ,9, ,
0, ,9, ,
0, ,9, ,
0, ,9, ,
0, ,9, ,
0, ,9, ,
0, ,9, ,
0, ,9, ,
0, ,9, ,
0, ,9, ,
0, ,9, ,
0, ,9, ,
0, ,9, ,
0, ,9, ,
0, ,9, ,
0, ,9, ,
0, ,9, ,
0, ,9, ,
0, ,9, ,
0, ,9, ,
0, ,9, ,
0, ,9, ,
0, ,9, ,
0, ,9, ,
0, ,9, ,
0, ,9, ,
0, ,9, ,
0, ,9, ,
0, ,9, ,
0, ,9, ,
0, ,9, ,
0, ,9, ,
0, ,9, ,
0, ,9, ,
0, ,9, ,
0, ,9, ,
0, ,9, ,
0, ,9, ,
0, ,9, ,
0, ,9, ,
0, ,9, ,
0, ,9, ,
0, ,9, ,
0, ,9, ,
0, ,9, ,
0, ,9, ,
0, ,9, ,
0, ,9, ,
0, ,9, ,
0, ,9, ,
0, ,9, ,
0, ,9, ,
0, ,9, ,
0, ,9, ,
0, ,9, ,
0, ,9, ,
0, ,9, ,
0, ,9, ,
0, ,9, ,
0, ,9, ,
0, ,9, ,
0, ,9, ,
0, ,9, ,
0, ,9, ,
0, ,9, ,
0, ,9, ,
0, ,9, ,
0, ,9, ,
0, ,9, ,
0, ,9, ,
0, ,9, ,
0, ,9, ,
0, ,9, ,
0, ,9, ,
0, ,9, ,
0, ,9, ,
0, ,9, ,
0, ,9, ,
0, ,9, ,
0, ,9, ,
0, ,9, ,
0, ,9, ,
0, ,9, ,
0, ,9, ,
0, ,9, ,
0, ,9, ,
0, ,9, ,
0, ,9, ,
0, ,9, ,
0, ,9, ,
0, ,9, ,
0, ,9, ,
0, ,9, ,
0, ,9, ,
0, ,9, ,
0, ,9, ,
0, ,9, ,
0, ,9, ,
0, ,9, ,
0, ,9, ,
0, ,9, ,
0, ,9, ,
0, ,9, ,
0, ,9, ,
0, ,9, ,
0, ,9, ,
0, ,9, ,
0, ,9, ,
0, ,9, ,
0, ,9, ,
0, ,9, ,
0, ,9, ,
0, ,9, ,
0, ,9, ,
0, ,9, ,
0, ,9, ,
0, ,9, ,
0, ,9, ,
0, ,9, ,
0, ,9, ,
0, ,9, ,
0, ,9, ,
0, ,9, ,
0, ,9, ,
0, ,9, ,
0, ,9, ,
0, ,9, ,
-1, ,9, ,
0, ,9, ,
0, ,9, ,
0, ,9, ,
0, ,9, ,
0, ,9, ,
0, ,9, ,
0, ,9, ,
0, ,9, ,
0, ,9, ,
0, ,9, ,
0, ,9, ,
0, ,9, ,
0, ,9, ,
0, ,9, ,
0, ,9, ,
0, ,9, ,
0, ,9, ,
0, ,9, ,
0, ,9, ,
0, ,9, ,
0, ,9, ,
0, ,9, ,
0, ,9, ,
0, ,9, ,
0, ,9, ,
0, ,9, ,
0, ,9, ,
0, ,9, ,
0, ,9, ,
0, ,9, ,
0, ,9, ,
0, ,9, ,
0, ,9, ,
0, ,9, ,
0, ,9, ,
0, ,9, ,
0, ,9, ,
0, ,9, ,
0, ,9, ,
0, ,9, ,
0, ,9, ,
0, ,9, ,
0, ,9, ,
0, ,9, ,
0, ,9, ,
0, ,9, ,
0, ,9, ,
0, ,9, ,
0, ,9, ,
0, ,9, ,
0, ,9, ,
0, ,9, ,
0, ,9, ,
0, ,9, ,
0, ,9, ,
0, ,9, ,
0, ,9, ,
-1, ,9, ,
0, ,9, ,
0, ,9, ,
0, ,9, ,
0, ,9, ,
0, ,9, ,
0, ,9, ,
0, ,9, ,
0, ,9, ,
0, ,9, ,
0, ,9, ,
0, ,9, ,
0, ,9, ,
0, ,9, ,
0, ,9, ,
0, ,9, ,
0, ,9, ,
0, ,9, ,
0, ,9, ,
0, ,9, ,
0, ,9, ,
-1, ,9, ,
0, ,9, ,
0, ,9, ,
0, ,9, ,
0, ,9, ,
0, ,9, ,
0, ,9, ,
0, ,9, ,
0, ,9, ,
0, ,9, ,
0, ,9, ,
0, ,9, ,
0, ,9, ,
0, ,9, ,
0, ,9, ,
0, ,9, ,
0, ,9, ,
0, ,9, ,
0, ,9, ,
0, ,9, ,
0, ,9, ,
0, ,9, ,
0, ,9, ,
0, ,9, ,
0, ,9, ,
0, ,9, ,
0, ,9, ,
0, ,9, ,
0, ,9, ,
0, ,9, ,
0, ,9, ,
0, ,9, ,
0, ,9, ,
0, ,9, ,
0, ,9, ,
0, ,9, ,
0, ,9, ,
0, ,9, ,
0, ,9, ,
0, ,9, ,
0, ,9, ,
0, ,9, ,
0, ,9, ,
0, ,9, ,
0, ,9, ,
0, ,9, ,
0, ,9, ,
0, ,9, ,
0, ,9, ,
0, ,9, ,
0, ,9, ,
0, ,9, ,
0, ,9, ,
0, ,9, ,
0, ,9, ,
0, ,9, ,
0, ,9, ,
0, ,9, ,
0, ,9, ,
0, ,9, ,
0, ,9, ,
0, ,9, ,
0, ,9, ,
0, ,9, ,
0, ,9, ,
0, ,9, ,
0, ,9, ,
0, ,9, ,
0, ,9, ,
0, ,9, ,
0, ,9, ,
0, ,9, ,
0, ,9, ,
0, ,9, ,
0, ,9, ,
0, ,9, ,
0, ,9, ,
0, ,9, ,
0, ,9, ,
0, ,9, ,
0, ,9, ,
0, ,9, ,
0, ,9, ,
0, ,9, ,
0, ,9, ,
0, ,9, ,
0, ,9, ,
0, ,9, ,
0, ,9, ,
0, ,9, ,
0, ,9, ,
0, ,9, ,
0, ,9, ,
0, ,9, ,
0, ,9, ,
0, ,9, ,
0, ,9, ,
0, ,9, ,
0, ,9, ,
0, ,9, ,
0, ,9, ,
0, ,9, ,
0, ,9, ,
0, ,9, ,
0, ,9, ,
0, ,9, ,
0, ,9, ,
0, ,9, ,
0, ,9, ,
0, ,9, ,
0, ,9, ,
0, ,9, ,
0, ,9, ,
0, ,9, ,
0, ,9, ,
0, ,9, ,
0, ,9, ,
0, ,9, ,
0, ,9, ,
0, ,9, ,
0, ,9, ,
0, ,9, ,
0, ,9, ,
0, ,9, ,
0, ,9, ,
0, ,9, ,
0, ,9, ,
0, ,9, ,
0, ,9, ,
0, ,9, ,
0, ,9, ,
0, ,9, ,
0, ,9, ,
0, ,9, ,
0, ,9, ,
0, ,9, ,
0, ,9, ,
0, ,9, ,
0, ,9, ,
0, ,9, ,
0, ,9, ,
0, ,9, ,
0, ,9, ,
0, ,9, ,
0, ,9, ,
0, ,9, ,
0, ,9, ,
0, ,9, ,
0, ,9, ,
0, ,9, ,
0, ,9, ,
0, ,9, ,
0, ,9, ,
0, ,9, ,
-1, ,9, ,
0, ,9, ,
0, ,9, ,
0, ,9, ,
0, ,9, ,
0, ,9, ,
0, ,9, ,
0, ,9, ,
0, ,9, ,
0, ,9, ,
0, ,9, ,
0, ,9, ,
0, ,9, ,
0, ,9, ,
0, ,9, ,
0, ,9, ,
0, ,9, ,
0, ,9, ,
0, ,9, ,
-1, ,9, ,
0, ,9, ,
0, ,9, ,
0, ,9, ,
0, ,9, ,
0, ,9, ,
0, ,9, ,
0, ,9, ,
0, ,9, ,
0, ,9, ,
0, ,9, ,
0, ,9, ,
0, ,9, ,
0, ,9, ,
0, ,9, ,
0, ,9, ,
0, ,9, ,
0, ,9, ,
0, ,9, ,
0, ,9, ,
-1, ,9, ,
0, ,9, ,
0, ,9, ,
0, ,9, ,
0, ,9, ,
0, ,9, ,
0, ,9, ,
0, ,9, ,
0, ,9, ,
0, ,9, ,
0, ,9, ,
0, ,9, ,
-1, ,9, ,
0, ,9, ,
0, ,9, ,
0, ,9, ,
0, ,9, ,
0, ,9, ,
0, ,9, ,
0, ,9, ,
0, ,9, ,
0, ,9, ,
0, ,9, ,
0, ,9, ,
0, ,9, ,
0, ,9, ,
0, ,9, ,
0, ,9, ,
0, ,9, ,
0, ,9, ,
0, ,9, ,
0, ,9, ,
0, ,9, ,
0, ,9, ,
0, ,9, ,
0, ,9, ,
0, ,9, ,
0, ,9, ,
0, ,9, ,
0, ,9, ,
0, ,9, ,
0, ,9, ,
0, ,9, ,
0, ,9, ,
0, ,9, ,
0, ,9, ,
0, ,9, ,
0, ,9, ,
0, ,9, ,
0, ,9, ,
0, ,9, ,
0, ,9, ,
0, ,9, ,
0, ,9, ,
0, ,9, ,
0, ,9, ,
0, ,9, ,
0, ,9, ,
0, ,9, ,
0, ,9, ,
0, ,9, ,
0, ,9, ,
0, ,9, ,
0, ,9, ,
0, ,9, ,
0, ,9, ,
0, ,9, ,
0, ,9, ,
0, ,9, ,
0, ,9, ,
0, ,9, ,
0, ,9, ,
0, ,9, ,
0, ,9, ,
0, ,9, ,
0, ,9, ,
0, ,9, ,
0, ,9, ,
0, ,9, ,
0, ,9, ,
0, ,9, ,
0, ,9, ,
0, ,9, ,
0, ,9, ,
0, ,9, ,
0, ,9, ,
0, ,9, ,
0, ,9, ,
0, ,9, ,
0, ,9, ,
0, ,9, ,
0, ,9, ,
0, ,9, ,
0, ,9, ,
0, ,9, ,
0, ,9, ,
0, ,9, ,
0, ,9, ,
0, ,9, ,
0, ,9, ,
0, ,9, ,
0, ,9, ,
0, ,9, ,
0, ,9, ,
0, ,9, ,
0, ,9, ,
0, ,9, ,
0, ,9, ,
0, ,9, ,
0, ,9, ,
0, ,9, ,
0, ,9, ,
0, ,9, ,
0, ,9, ,
0, ,9, ,
0, ,9, ,
0, ,9, ,
0, ,9, ,
0, ,9, ,
0, ,9, ,
0, ,9, ,
0, ,9, ,
0, ,9, ,
0, ,9, ,
0, ,9, ,
0, ,9, ,
0, ,9, ,
0, ,9, ,
0, ,9, ,
0, ,9, ,
-1, ,9, ,
0, ,9, ,
0, ,9, ,
0, ,9, ,
0, ,9, ,
0, ,9, ,
0, ,9, ,
0, ,9, ,
0, ,9, ,
0, ,9, ,
0, ,9, ,
0, ,9, ,
0, ,9, ,
0, ,9, ,
0, ,9, ,
0, ,9, ,
0, ,9, ,
0, ,9, ,
0, ,9, ,
0, ,9, ,
0, ,9, ,
0, ,9, ,
0, ,9, ,
0, ,9, ,
0, ,9, ,
0, ,9, ,
0, ,9, ,
0, ,9, ,
0, ,9, ,
0, ,9, ,
0, ,9, ,
-1, ,9, ,
0, ,9, ,
0, ,9, ,
0, ,9, ,
0, ,9, ,
0, ,9, ,
0, ,9, ,
0, ,9, ,
0, ,9, ,
0, ,9, ,
0, ,9, ,
0, ,9, ,
0, ,9, ,
0, ,9, ,
0, ,9, ,
0, ,9, ,
0, ,9, ,
0, ,9, ,
0, ,9, ,
0, ,9, ,
0, ,9, ,
0, ,9, ,
0, ,9, ,
0, ,9, ,
0, ,9, ,
0, ,9, ,
-1, ,9, ,
0, ,9, ,
0, ,9, ,
0, ,9, ,
0, ,9, ,
0, ,9, ,
0, ,9, ,
0, ,9, ,
0, ,9, ,
0, ,9, ,
0, ,9, ,
0, ,9, ,
0, ,9, ,
0, ,9, ,
0, ,9, ,
0, ,9, ,
0, ,9, ,
45, ,9, ,
127, ,9, ,
127, ,9, ,
127, ,9, ,
127, ,9, ,
111, ,9, ,
57, ,9, ,
27, ,9, ,
7, ,9, ,
-2, ,9, ,
-7, ,9, ,
-9, ,9, ,
-10, ,9, ,
-9, ,9, ,
-7, ,9, ,
-6, ,9, ,
-5, ,9, ,
-4, ,9, ,
-4, ,9, ,
-2, ,9, ,
-2, ,9, ,
-2, ,9, ,
-1, ,9, ,
-1, ,9, ,
-1, ,9, ,
-1, ,9, ,
-2, ,9, ,
-4, ,9, ,
-2, ,9, ,
-1, ,9, ,
0, ,9, ,
-1, ,9, ,
-1, ,9, ,
-4, ,9, ,
-2, ,9, ,
-17, ,9, ,
-20, ,9, ,
-90, ,9, ,
-62, ,9, ,
-98, ,9, ,
-23, ,9, ,
-21, ,9, ,
0, ,9, ,
-28, ,9, ,
-32, ,9, ,
-63, ,9, ,
-63, ,9, ,
-66, ,9, ,
-71, ,9, ,
-74, ,9, ,
-56, ,9, ,
-55, ,9, ,
-22, ,9, ,
-16, ,9, ,
13, ,9, ,
11, ,9, ,
15, ,9, ,
6, ,9, ,
-22, ,9, ,
-41, ,9, ,
-77, ,9, ,
-78, ,9, ,
-68, ,9, ,
-40, ,9, ,
