raw_data/0% Glycerol, Impulsion 0.5Hz, Sonde 5MHz, Rampe 0.7Hz/temp0000046.CSV

Format,1.0B,
Memory Length,10000,Memory Length,10000,
IntpDistance,0,IntpDistance,0,
Trigger Address,2029,Trigger Address,2029,
Trigger Level,2.720E-01,Trigger Level,2.720E-01,
Source,CH1,Source,CH2,
Vertical Units,V,Vertical Units,V,
Vertical Units Div,0,Vertical Units Div,0,
Vertical Units Extend Div,16,Vertical Units Extend Div,16,
Label,,Label,,
Probe Type,0,Probe Type,0,
Probe Ratio,1.000e+00,Probe Ratio,1.000e+00,
Vertical Scale,1.000e-01,Vertical Scale,2.000e+00,
Vertical Position,0.000e+00,Vertical Position,0.000e+00,
Horizontal Units,S,Horizontal Units,S,
Horizontal Scale,5.000E-05,Horizontal Scale,5.000E-05,
Horizontal Position,1.485E-04,Horizontal Position,1.485E-04,
Horizontal Mode,Main,Horizontal Mode,Main,
SincET Mode,Real Time,SincET Mode,Real Time,
Sampling Period,5.000e-08,Sampling Period,5.000e-08,
Horizontal Old Scale,5.000E-05,Horizontal Old Scale,5.000E-05,
Horizontal Old Position,1.485E-04,Horizontal Old Position,1.485E-04,
Firmware,V1.32,Firmware,V1.32,
Mode,Fast,Mode,Fast,
Waveform Data,,Waveform Data,,
0, ,2, ,
0, ,2, ,
0, ,2, ,
0, ,2, ,
0, ,2, ,
0, ,2, ,
0, ,2, ,
0, ,2, ,
0, ,2, ,
0, ,2, ,
0, ,2, ,
0, ,2, ,
0, ,2, ,
0, ,2, ,
0, ,2, ,
0, ,2, ,
0, ,2, ,
0, ,2, ,
0, ,2, ,
0, ,2, ,
0, ,2, ,
0, ,2, ,
0, ,2, ,
0, ,2, ,
0, ,2, ,
0, ,2, ,
0, ,2, ,
0, ,2, ,
0, ,2, ,
0, ,2, ,
0, ,2, ,
0, ,2, ,
0, ,2, ,
0, ,2, ,
0, ,2, ,
0, ,2, ,
0, ,2, ,
0, ,2, ,
0, ,2, ,
0, ,2, ,
0, ,2, ,
0, ,2, ,
0, ,2, ,
0, ,2, ,
0, ,2, ,
0, ,2, ,
0, ,2, ,
0, ,2, ,
0, ,2, ,
0, ,2, ,
0, ,2, ,
0, ,2, ,
0, ,2, ,
0, ,2, ,
0, ,2, ,
0, ,2, ,
0, ,2, ,
0, ,2, ,
0, ,2, ,
0, ,2, ,
0, ,2, ,
0, ,2, ,
0, ,2, ,
0, ,2, ,
0, ,2, ,
0, ,2, ,
0, ,2, ,
0, ,2, ,
0, ,2, ,
0, ,2, ,
0, ,2, ,
0, ,2, ,
0, ,2, ,
0, ,2, ,
0, ,2, ,
0, ,2, ,
0, ,2, ,
0, ,2, ,
0, ,2, ,
0, ,2, ,
0, ,2, ,
0, ,2, ,
0, ,2, ,
0, ,2, ,
0, ,2, ,
0, ,2, ,
0, ,2, ,
0, ,2, ,
0, ,2, ,
0, ,2, ,
0, ,2, ,
0, ,2, ,
0, ,2, ,
0, ,2, ,
0, ,2, ,
0, ,2, ,
0, ,2, ,
0, ,2, ,
0, ,2, ,
0, ,2, ,
0, ,2, ,
0, ,2, ,
0, ,2, ,
0, ,2, ,
0, ,2, ,
0, ,2, ,
0, ,2, ,
0, ,2, ,
0, ,2, ,
0, ,2, ,
0, ,2, ,
0, ,2, ,
0, ,2, ,
0, ,2, ,
0, ,2, ,
0, ,2, ,
0, ,2, ,
0, ,2, ,
0, ,2, ,
0, ,2, ,
0, ,2, ,
0, ,2, ,
0, ,2, ,
0, ,2, ,
0, ,2, ,
0, ,2, ,
0, ,2, ,
0, ,2, ,
0, ,2, ,
0, ,2, ,
0, ,2, ,
0, ,2, ,
0, ,2, ,
0, ,2, ,
0, ,2, ,
0, ,2, ,
0, ,2, ,
0, ,2, ,
0, ,2, ,
0, ,2, ,
0, ,2, ,
0, ,2, ,
0, ,2, ,
0, ,2, ,
0, ,2, ,
0, ,2, ,
0, ,2, ,
0, ,2, ,
0, ,2, ,
0, ,2, ,
0, ,2, ,
0, ,2, ,
0, ,2, ,
0, ,2, ,
0, ,2, ,
0, ,2, ,
0, ,2, ,
0, ,2, ,
0, ,2, ,
0, ,2, ,
0, ,2, ,
0, ,2, ,
0, ,2, ,
0, ,2, ,
0, ,2, ,
0, ,2, ,
0, ,2, ,
0, ,2, ,
0, ,2, ,
0, ,2, ,
0, ,2, ,
0, ,2, ,
0, ,2, ,
0, ,2, ,
0, ,2, ,
0, ,2, ,
0, ,2, ,
0, ,2, ,
0, ,2, ,
0, ,2, ,
0, ,2, ,
0, ,2, ,
0, ,2, ,
0, ,2, ,
0, ,2, ,
0, ,2, ,
0, ,2, ,
0, ,2, ,
0, ,2, ,
0, ,2, ,
0, ,2, ,
0, ,2, ,
0, ,2, ,
0, ,2, ,
0, ,2, ,
0, ,2, ,
0, ,2, ,
0, ,2, ,
0, ,2, ,
0, ,2, ,
0, ,2, ,
0, ,2, ,
0, ,2, ,
0, ,2, ,
0, ,2, ,
0, ,2, ,
0, ,2, ,
0, ,2, ,
0, ,2, ,
0, ,2, ,
0, ,2, ,
0, ,2, ,
0, ,2, ,
0, ,2, ,
0, ,2, ,
0, ,2, ,
0, ,2, ,
0, ,2, ,
0, ,2, ,
0, ,2, ,
0, ,2, ,
0, ,2, ,
0, ,2, ,
0, ,2, ,
0, ,2, ,
0, ,2, ,
0, ,2, ,
0, ,2, ,
0, ,2, ,
0, ,2, ,
0, ,2, ,
0, ,2, ,
0, ,2, ,
0, ,2, ,
0, ,2, ,
0, ,2, ,
0, ,2, ,
0, ,2, ,
0, ,2, ,
0, ,2, ,
0, ,2, ,
0, ,2, ,
0, ,2, ,
0, ,2, ,
0, ,2, ,
0, ,2, ,
0, ,2, ,
0, ,2, ,
0, ,2, ,
0, ,2, ,
0, ,2, ,
0, ,2, ,
0, ,2, ,
0, ,2, ,
0, ,2, ,
0, ,2, ,
0, ,2, ,
0, ,2, ,
0, ,2, ,
0, ,2, ,
0, ,2, ,
0, ,2, ,
0, ,2, ,
0, ,2, ,
0, ,2, ,
0, ,2, ,
0, ,2, ,
0, ,2, ,
0, ,2, ,
0, ,2, ,
0, ,2, ,
0, ,2, ,
-1, ,2, ,
0, ,2, ,
0, ,2, ,
0, ,2, ,
0, ,2, ,
0, ,2, ,
0, ,2, ,
0, ,2, ,
0, ,2, ,
0, ,2, ,
0, ,2, ,
0, ,2, ,
0, ,2, ,
0, ,2, ,
0, ,2, ,
0, ,2, ,
0, ,2, ,
0, ,2, ,
0, ,2, ,
0, ,2, ,
0, ,2, ,
0, ,2, ,
0, ,2, ,
0, ,2, ,
0, ,2, ,
0, ,2, ,
0, ,2, ,
0, ,2, ,
0, ,2, ,
0, ,2, ,
0, ,2, ,
0, ,2, ,
0, ,2, ,
0, ,2, ,
0, ,2, ,
0, ,2, ,
0, ,2, ,
0, ,2, ,
0, ,2, ,
0, ,2, ,
0, ,2, ,
0, ,2, ,
0, ,2, ,
0, ,2, ,
0, ,2, ,
0, ,2, ,
0, ,2, ,
0, ,2, ,
0, ,2, ,
0, ,2, ,
0, ,2, ,
0, ,2, ,
0, ,2, ,
0, ,2, ,
0, ,2, ,
0, ,2, ,
0, ,2, ,
0, ,2, ,
0, ,2, ,
0, ,2, ,
0, ,2, ,
0, ,2, ,
0, ,2, ,
0, ,2, ,
0, ,2, ,
0, ,2, ,
0, ,2, ,
0, ,2, ,
0, ,2, ,
0, ,2, ,
0, ,2, ,
0, ,2, ,
0, ,2, ,
0, ,2, ,
0, ,2, ,
0, ,2, ,
0, ,2, ,
0, ,2, ,
0, ,2, ,
0, ,2, ,
0, ,2, ,
0, ,2, ,
0, ,2, ,
0, ,2, ,
0, ,2, ,
0, ,2, ,
0, ,2, ,
0, ,2, ,
0, ,2, ,
0, ,2, ,
0, ,2, ,
0, ,2, ,
0, ,2, ,
0, ,2, ,
0, ,2, ,
0, ,2, ,
0, ,2, ,
0, ,2, ,
0, ,2, ,
0, ,2, ,
0, ,2, ,
0, ,2, ,
0, ,2, ,
0, ,2, ,
0, ,2, ,
0, ,2, ,
0, ,2, ,
0, ,2, ,
0, ,2, ,
0, ,2, ,
0, ,2, ,
0, ,2, ,
0, ,2, ,
0, ,2, ,
0, ,2, ,
0, ,2, ,
0, ,2, ,
0, ,2, ,
0, ,2, ,
0, ,2, ,
0, ,2, ,
0, ,2, ,
0, ,2, ,
0, ,2, ,
0, ,2, ,
0, ,2, ,
0, ,2, ,
0, ,2, ,
0, ,2, ,
0, ,2, ,
0, ,2, ,
0, ,2, ,
0, ,2, ,
0, ,2, ,
0, ,2, ,
0, ,2, ,
0, ,2, ,
0, ,2, ,
0, ,2, ,
0, ,2, ,
0, ,2, ,
0, ,2, ,
0, ,2, ,
0, ,2, ,
0, ,2, ,
0, ,2, ,
0, ,2, ,
0, ,2, ,
0, ,2, ,
0, ,2, ,
0, ,2, ,
0, ,2, ,
0, ,2, ,
0, ,2, ,
0, ,2, ,
0, ,2, ,
0, ,2, ,
0, ,2, ,
0, ,2, ,
0, ,2, ,
0, ,2, ,
0, ,2, ,
0, ,2, ,
0, ,2, ,
0, ,2, ,
0, ,2, ,
0, ,2, ,
0, ,2, ,
0, ,2, ,
0, ,2, ,
0, ,2, ,
0, ,2, ,
0, ,2, ,
0, ,2, ,
0, ,2, ,
0, ,2, ,
0, ,2, ,
0, ,2, ,
0, ,2, ,
0, ,2, ,
0, ,2, ,
0, ,2, ,
0, ,2, ,
0, ,2, ,
0, ,2, ,
0, ,2, ,
0, ,2, ,
0, ,2, ,
0, ,2, ,
0, ,2, ,
0, ,2, ,
0, ,2, ,
0, ,2, ,
0, ,2, ,
0, ,2, ,
0, ,2, ,
0, ,2, ,
0, ,2, ,
0, ,2, ,
0, ,2, ,
0, ,2, ,
0, ,2, ,
0, ,2, ,
0, ,2, ,
0, ,2, ,
0, ,2, ,
0, ,2, ,
0, ,2, ,
0, ,2, ,
0, ,2, ,
0, ,2, ,
0, ,2, ,
0, ,2, ,
0, ,2, ,
0, ,2, ,
0, ,2, ,
0, ,2, ,
0, ,2, ,
0, ,2, ,
0, ,2, ,
0, ,2, ,
0, ,2, ,
0, ,2, ,
0, ,2, ,
0, ,2, ,
0, ,2, ,
0, ,2, ,
0, ,2, ,
0, ,2, ,
0, ,2, ,
0, ,2, ,
0, ,2, ,
0, ,2, ,
0, ,2, ,
0, ,2, ,
0, ,2, ,
0, ,2, ,
0, ,2, ,
0, ,2, ,
0, ,2, ,
0, ,2, ,
0, ,2, ,
0, ,2, ,
0, ,2, ,
0, ,2, ,
0, ,2, ,
0, ,2, ,
0, ,2, ,
0, ,2, ,
0, ,2, ,
0, ,2, ,
0, ,2, ,
0, ,2, ,
0, ,2, ,
0, ,2, ,
0, ,2, ,
0, ,2, ,
0, ,2, ,
0, ,2, ,
0, ,2, ,
0, ,2, ,
0, ,2, ,
0, ,2, ,
0, ,2, ,
0, ,2, ,
0, ,2, ,
0, ,2, ,
0, ,2, ,
0, ,2, ,
0, ,2, ,
0, ,2, ,
0, ,2, ,
0, ,2, ,
0, ,2, ,
0, ,2, ,
0, ,2, ,
0, ,2, ,
0, ,2, ,
0, ,2, ,
0, ,2, ,
0, ,2, ,
0, ,2, ,
0, ,2, ,
0, ,2, ,
0, ,2, ,
0, ,2, ,
0, ,2, ,
0, ,2, ,
0, ,2, ,
0, ,2, ,
0, ,2, ,
0, ,2, ,
0, ,2, ,
0, ,2, ,
0, ,2, ,
0, ,2, ,
0, ,2, ,
0, ,2, ,
0, ,2, ,
0, ,2, ,
0, ,2, ,
0, ,2, ,
0, ,2, ,
0, ,2, ,
0, ,2, ,
0, ,2, ,
0, ,2, ,
0, ,2, ,
0, ,2, ,
0, ,2, ,
0, ,2, ,
0, ,2, ,
0, ,2, ,
0, ,2, ,
0, ,2, ,
0, ,2, ,
0, ,2, ,
0, ,2, ,
0, ,2, ,
0, ,2, ,
0, ,2, ,
0, ,2, ,
0, ,2, ,
0, ,2, ,
0, ,2, ,
0, ,2, ,
0, ,2, ,
0, ,2, ,
0, ,2, ,
0, ,2, ,
0, ,2, ,
0, ,2, ,
0, ,2, ,
0, ,2, ,
0, ,2, ,
0, ,2, ,
0, ,2, ,
0, ,2, ,
0, ,2, ,
0, ,2, ,
0, ,2, ,
0, ,2, ,
0, ,2, ,
0, ,2, ,
0, ,2, ,
0, ,2, ,
0, ,2, ,
0, ,2, ,
0, ,2, ,
0, ,2, ,
0, ,2, ,
0, ,2, ,
0, ,2, ,
0, ,2, ,
0, ,2, ,
0, ,2, ,
0, ,2, ,
0, ,2, ,
0, ,2, ,
0, ,2, ,
0, ,2, ,
0, ,2, ,
0, ,2, ,
0, ,2, ,
0, ,2, ,
0, ,2, ,
0, ,2, ,
0, ,2, ,
0, ,2, ,
0, ,2, ,
0, ,2, ,
0, ,2, ,
0, ,2, ,
0, ,2, ,
0, ,2, ,
0, ,2, ,
0, ,2, ,
0, ,2, ,
0, ,2, ,
0, ,2, ,
0, ,2, ,
0, ,2, ,
0, ,2, ,
0, ,2, ,
0, ,2, ,
0, ,2, ,
0, ,2, ,
0, ,2, ,
0, ,2, ,
0, ,2, ,
0, ,2, ,
0, ,2, ,
0, ,2, ,
0, ,2, ,
0, ,2, ,
0, ,2, ,
0, ,2, ,
0, ,2, ,
0, ,2, ,
0, ,2, ,
0, ,2, ,
0, ,2, ,
0, ,2, ,
0, ,2, ,
0, ,2, ,
0, ,2, ,
0, ,2, ,
0, ,2, ,
0, ,2, ,
0, ,2, ,
0, ,2, ,
0, ,2, ,
0, ,2, ,
0, ,2, ,
0, ,2, ,
0, ,2, ,
0, ,2, ,
0, ,2, ,
0, ,2, ,
0, ,2, ,
0, ,2, ,
0, ,2, ,
0, ,2, ,
0, ,2, ,
0, ,2, ,
0, ,2, ,
0, ,2, ,
0, ,2, ,
0, ,2, ,
0, ,2, ,
0, ,2, ,
0, ,2, ,
0, ,2, ,
0, ,2, ,
0, ,2, ,
0, ,2, ,
0, ,2, ,
0, ,2, ,
0, ,2, ,
0, ,2, ,
0, ,2, ,
0, ,2, ,
0, ,2, ,
0, ,2, ,
0, ,2, ,
0, ,2, ,
0, ,2, ,
0, ,2, ,
0, ,2, ,
0, ,2, ,
0, ,2, ,
0, ,2, ,
0, ,2, ,
0, ,2, ,
0, ,2, ,
0, ,2, ,
0, ,2, ,
0, ,2, ,
0, ,2, ,
0, ,2, ,
0, ,2, ,
0, ,2, ,
0, ,2, ,
0, ,2, ,
0, ,2, ,
0, ,2, ,
0, ,2, ,
0, ,2, ,
0, ,2, ,
0, ,2, ,
0, ,2, ,
0, ,2, ,
0, ,2, ,
0, ,2, ,
0, ,2, ,
0, ,2, ,
0, ,2, ,
0, ,2, ,
0, ,2, ,
0, ,2, ,
0, ,2, ,
0, ,2, ,
0, ,2, ,
0, ,2, ,
0, ,2, ,
0, ,2, ,
0, ,2, ,
0, ,2, ,
0, ,2, ,
0, ,2, ,
0, ,2, ,
0, ,2, ,
0, ,2, ,
0, ,2, ,
0, ,2, ,
0, ,2, ,
0, ,2, ,
0, ,2, ,
0, ,2, ,
0, ,2, ,
0, ,2, ,
0, ,2, ,
0, ,2, ,
0, ,2, ,
0, ,2, ,
0, ,2, ,
0, ,2, ,
0, ,2, ,
0, ,2, ,
0, ,2, ,
0, ,2, ,
0, ,2, ,
0, ,2, ,
0, ,2, ,
0, ,2, ,
0, ,2, ,
0, ,2, ,
0, ,2, ,
0, ,2, ,
0, ,2, ,
0, ,2, ,
0, ,2, ,
0, ,2, ,
0, ,2, ,
0, ,2, ,
0, ,2, ,
0, ,2, ,
0, ,2, ,
0, ,2, ,
0, ,2, ,
0, ,2, ,
0, ,2, ,
0, ,2, ,
0, ,2, ,
0, ,2, ,
0, ,2, ,
0, ,2, ,
0, ,2, ,
0, ,2, ,
0, ,2, ,
0, ,2, ,
0, ,2, ,
0, ,2, ,
0, ,2, ,
0, ,2, ,
0, ,2, ,
0, ,2, ,
0, ,2, ,
0, ,2, ,
0, ,2, ,
0, ,2, ,
0, ,2, ,
0, ,2, ,
0, ,2, ,
0, ,2, ,
0, ,2, ,
0, ,2, ,
0, ,2, ,
0, ,2, ,
0, ,2, ,
0, ,2, ,
0, ,2, ,
0, ,2, ,
0, ,2, ,
0, ,2, ,
0, ,2, ,
0, ,2, ,
0, ,2, ,
0, ,2, ,
0, ,2, ,
0, ,2, ,
0, ,2, ,
0, ,2, ,
0, ,2, ,
0, ,2, ,
0, ,2, ,
0, ,2, ,
0, ,2, ,
0, ,2, ,
0, ,2, ,
0, ,2, ,
0, ,2, ,
0, ,2, ,
0, ,2, ,
0, ,2, ,
0, ,2, ,
0, ,2, ,
0, ,2, ,
0, ,2, ,
0, ,2, ,
0, ,2, ,
0, ,2, ,
0, ,2, ,
0, ,2, ,
0, ,2, ,
0, ,2, ,
0, ,2, ,
0, ,2, ,
0, ,2, ,
0, ,2, ,
0, ,2, ,
0, ,2, ,
0, ,2, ,
0, ,2, ,
0, ,2, ,
0, ,2, ,
0, ,2, ,
0, ,2, ,
0, ,2, ,
0, ,2, ,
0, ,2, ,
0, ,2, ,
0, ,2, ,
0, ,2, ,
0, ,2, ,
0, ,2, ,
0, ,2, ,
0, ,2, ,
0, ,2, ,
0, ,2, ,
0, ,2, ,
0, ,2, ,
0, ,2, ,
0, ,2, ,
0, ,2, ,
0, ,2, ,
0, ,2, ,
0, ,2, ,
0, ,2, ,
0, ,2, ,
0, ,2, ,
0, ,2, ,
0, ,2, ,
0, ,2, ,
0, ,2, ,
0, ,2, ,
0, ,2, ,
0, ,2, ,
0, ,2, ,
0, ,2, ,
0, ,2, ,
0, ,2, ,
0, ,2, ,
0, ,2, ,
0, ,2, ,
0, ,2, ,
0, ,2, ,
0, ,2, ,
0, ,2, ,
0, ,2, ,
0, ,2, ,
0, ,2, ,
0, ,2, ,
0, ,2, ,
0, ,2, ,
0, ,2, ,
0, ,2, ,
0, ,2, ,
0, ,2, ,
0, ,2, ,
0, ,2, ,
0, ,2, ,
0, ,2, ,
0, ,2, ,
0, ,2, ,
0, ,2, ,
0, ,2, ,
0, ,2, ,
0, ,2, ,
0, ,2, ,
0, ,2, ,
0, ,2, ,
0, ,2, ,
0, ,2, ,
0, ,2, ,
0, ,2, ,
0, ,2, ,
0, ,2, ,
0, ,2, ,
0, ,2, ,
0, ,2, ,
0, ,2, ,
0, ,2, ,
0, ,2, ,
0, ,2, ,
0, ,2, ,
0, ,2, ,
0, ,2, ,
0, ,2, ,
0, ,2, ,
0, ,2, ,
0, ,2, ,
0, ,2, ,
0, ,2, ,
0, ,2, ,
0, ,2, ,
0, ,2, ,
0, ,2, ,
0, ,2, ,
0, ,2, ,
0, ,2, ,
0, ,2, ,
0, ,2, ,
0, ,2, ,
0, ,2, ,
0, ,2, ,
0, ,2, ,
0, ,2, ,
0, ,2, ,
0, ,2, ,
0, ,2, ,
0, ,2, ,
0, ,2, ,
0, ,2, ,
0, ,2, ,
0, ,2, ,
0, ,2, ,
0, ,2, ,
0, ,2, ,
0, ,2, ,
0, ,2, ,
0, ,2, ,
0, ,2, ,
0, ,2, ,
0, ,2, ,
0, ,2, ,
0, ,2, ,
0, ,2, ,
0, ,2, ,
0, ,2, ,
0, ,2, ,
0, ,2, ,
0, ,2, ,
0, ,2, ,
0, ,2, ,
0, ,2, ,
0, ,2, ,
0, ,2, ,
0, ,2, ,
0, ,2, ,
0, ,2, ,
0, ,2, ,
0, ,2, ,
0, ,2, ,
0, ,2, ,
0, ,2, ,
0, ,2, ,
0, ,2, ,
0, ,2, ,
0, ,2, ,
0, ,2, ,
0, ,2, ,
0, ,2, ,
0, ,2, ,
0, ,2, ,
0, ,2, ,
0, ,2, ,
0, ,2, ,
0, ,2, ,
0, ,2, ,
0, ,2, ,
0, ,2, ,
0, ,2, ,
0, ,2, ,
0, ,2, ,
0, ,2, ,
0, ,2, ,
0, ,2, ,
0, ,2, ,
0, ,2, ,
0, ,2, ,
0, ,2, ,
0, ,2, ,
0, ,2, ,
0, ,2, ,
0, ,2, ,
0, ,2, ,
0, ,2, ,
0, ,2, ,
0, ,2, ,
0, ,2, ,
0, ,2, ,
0, ,2, ,
0, ,2, ,
0, ,2, ,
0, ,2, ,
0, ,2, ,
0, ,2, ,
0, ,2, ,
0, ,2, ,
0, ,2, ,
0, ,2, ,
0, ,2, ,
0, ,2, ,
0, ,2, ,
0, ,2, ,
0, ,2, ,
0, ,2, ,
0, ,2, ,
0, ,2, ,
0, ,2, ,
0, ,2, ,
0, ,2, ,
0, ,2, ,
0, ,2, ,
0, ,2, ,
0, ,2, ,
0, ,2, ,
0, ,2, ,
0, ,2, ,
0, ,2, ,
0, ,2, ,
0, ,2, ,
0, ,2, ,
0, ,2, ,
0, ,2, ,
0, ,2, ,
0, ,2, ,
0, ,2, ,
0, ,2, ,
0, ,2, ,
0, ,2, ,
0, ,2, ,
0, ,2, ,
0, ,2, ,
0, ,2, ,
0, ,2, ,
0, ,2, ,
0, ,2, ,
0, ,2, ,
0, ,2, ,
0, ,2, ,
0, ,2, ,
0, ,2, ,
0, ,2, ,
0, ,2, ,
0, ,2, ,
0, ,2, ,
0, ,2, ,
0, ,2, ,
0, ,2, ,
0, ,2, ,
0, ,2, ,
0, ,2, ,
0, ,2, ,
0, ,2, ,
0, ,2, ,
0, ,2, ,
0, ,2, ,
0, ,2, ,
0, ,2, ,
0, ,2, ,
0, ,2, ,
0, ,2, ,
0, ,2, ,
0, ,2, ,
0, ,2, ,
0, ,2, ,
0, ,2, ,
0, ,2, ,
0, ,2, ,
0, ,2, ,
0, ,2, ,
0, ,2, ,
0, ,2, ,
0, ,2, ,
0, ,2, ,
0, ,2, ,
0, ,2, ,
0, ,2, ,
0, ,2, ,
0, ,2, ,
0, ,2, ,
0, ,2, ,
0, ,2, ,
0, ,2, ,
0, ,2, ,
0, ,2, ,
0, ,2, ,
0, ,2, ,
0, ,2, ,
0, ,2, ,
0, ,2, ,
0, ,2, ,
0, ,2, ,
0, ,2, ,
0, ,2, ,
0, ,2, ,
0, ,2, ,
0, ,2, ,
0, ,2, ,
0, ,2, ,
0, ,2, ,
0, ,2, ,
0, ,2, ,
0, ,2, ,
0, ,2, ,
0, ,2, ,
0, ,2, ,
0, ,2, ,
0, ,2, ,
0, ,2, ,
0, ,2, ,
0, ,2, ,
0, ,2, ,
0, ,2, ,
0, ,2, ,
0, ,2, ,
0, ,2, ,
0, ,2, ,
0, ,2, ,
0, ,2, ,
0, ,2, ,
0, ,2, ,
0, ,2, ,
0, ,2, ,
0, ,2, ,
0, ,2, ,
0, ,2, ,
0, ,2, ,
0, ,2, ,
0, ,2, ,
0, ,2, ,
0, ,2, ,
0, ,2, ,
0, ,2, ,
0, ,2, ,
-1, ,2, ,
0, ,2, ,
0, ,2, ,
0, ,2, ,
0, ,2, ,
0, ,2, ,
0, ,2, ,
0, ,2, ,
0, ,2, ,
0, ,2, ,
0, ,2, ,
0, ,2, ,
0, ,2, ,
0, ,2, ,
0, ,2, ,
0, ,2, ,
0, ,2, ,
0, ,2, ,
0, ,2, ,
0, ,2, ,
0, ,2, ,
0, ,2, ,
0, ,2, ,
0, ,2, ,
0, ,2, ,
0, ,2, ,
0, ,2, ,
0, ,2, ,
0, ,2, ,
0, ,2, ,
0, ,2, ,
0, ,2, ,
0, ,2, ,
0, ,2, ,
0, ,2, ,
0, ,2, ,
0, ,2, ,
0, ,2, ,
0, ,2, ,
0, ,2, ,
0, ,2, ,
0, ,2, ,
0, ,2, ,
0, ,2, ,
0, ,2, ,
0, ,2, ,
0, ,2, ,
0, ,2, ,
0, ,2, ,
0, ,2, ,
0, ,2, ,
0, ,2, ,
0, ,2, ,
0, ,2, ,
0, ,2, ,
0, ,2, ,
0, ,2, ,
0, ,2, ,
0, ,2, ,
0, ,2, ,
0, ,2, ,
0, ,2, ,
0, ,2, ,
0, ,2, ,
0, ,2, ,
0, ,2, ,
0, ,2, ,
0, ,2, ,
0, ,2, ,
0, ,2, ,
0, ,2, ,
0, ,2, ,
0, ,2, ,
0, ,2, ,
0, ,2, ,
0, ,2, ,
0, ,2, ,
0, ,2, ,
0, ,2, ,
0, ,2, ,
0, ,2, ,
0, ,2, ,
0, ,2, ,
0, ,2, ,
0, ,2, ,
0, ,2, ,
0, ,2, ,
0, ,2, ,
0, ,2, ,
0, ,2, ,
0, ,2, ,
0, ,2, ,
0, ,2, ,
0, ,2, ,
0, ,2, ,
0, ,2, ,
0, ,2, ,
0, ,2, ,
0, ,2, ,
0, ,2, ,
0, ,2, ,
0, ,2, ,
0, ,2, ,
0, ,2, ,
0, ,2, ,
0, ,2, ,
0, ,2, ,
0, ,2, ,
0, ,2, ,
0, ,2, ,
0, ,2, ,
0, ,2, ,
0, ,2, ,
0, ,2, ,
0, ,2, ,
0, ,2, ,
0, ,2, ,
0, ,2, ,
0, ,2, ,
0, ,2, ,
0, ,2, ,
0, ,2, ,
0, ,2, ,
0, ,2, ,
0, ,2, ,
0, ,2, ,
0, ,2, ,
0, ,2, ,
0, ,2, ,
0, ,2, ,
0, ,2, ,
0, ,2, ,
0, ,2, ,
0, ,2, ,
0, ,2, ,
0, ,2, ,
0, ,2, ,
0, ,2, ,
0, ,2, ,
0, ,2, ,
0, ,2, ,
0, ,2, ,
0, ,2, ,
0, ,2, ,
0, ,2, ,
0, ,2, ,
0, ,2, ,
0, ,2, ,
0, ,2, ,
0, ,2, ,
0, ,2, ,
0, ,2, ,
0, ,2, ,
0, ,2, ,
0, ,2, ,
0, ,2, ,
0, ,2, ,
0, ,2, ,
0, ,2, ,
0, ,2, ,
0, ,2, ,
0, ,2, ,
0, ,2, ,
0, ,2, ,
0, ,2, ,
0, ,2, ,
0, ,2, ,
0, ,2, ,
0, ,2, ,
0, ,2, ,
0, ,2, ,
0, ,2, ,
0, ,2, ,
0, ,2, ,
0, ,2, ,
0, ,2, ,
0, ,2, ,
0, ,2, ,
0, ,2, ,
0, ,2, ,
0, ,2, ,
0, ,2, ,
0, ,2, ,
0, ,2, ,
0, ,2, ,
0, ,2, ,
0, ,2, ,
0, ,2, ,
0, ,2, ,
0, ,2, ,
0, ,2, ,
0, ,2, ,
0, ,2, ,
0, ,2, ,
0, ,2, ,
0, ,2, ,
0, ,2, ,
0, ,2, ,
0, ,2, ,
0, ,2, ,
0, ,2, ,
0, ,2, ,
0, ,2, ,
0, ,2, ,
0, ,2, ,
0, ,2, ,
0, ,2, ,
0, ,2, ,
0, ,2, ,
0, ,2, ,
0, ,2, ,
0, ,2, ,
0, ,2, ,
0, ,2, ,
0, ,2, ,
0, ,2, ,
0, ,2, ,
0, ,2, ,
0, ,2, ,
0, ,2, ,
0, ,2, ,
0, ,2, ,
0, ,2, ,
0, ,2, ,
0, ,2, ,
0, ,2, ,
0, ,2, ,
0, ,2, ,
0, ,2, ,
0, ,2, ,
0, ,2, ,
0, ,2, ,
0, ,2, ,
0, ,2, ,
0, ,2, ,
0, ,2, ,
0, ,2, ,
0, ,2, ,
0, ,2, ,
0, ,2, ,
0, ,2, ,
0, ,2, ,
0, ,2, ,
0, ,2, ,
0, ,2, ,
0, ,2, ,
0, ,2, ,
0, ,2, ,
0, ,2, ,
0, ,2, ,
0, ,2, ,
0, ,2, ,
0, ,2, ,
0, ,2, ,
0, ,2, ,
0, ,2, ,
0, ,2, ,
0, ,2, ,
0, ,2, ,
0, ,2, ,
0, ,2, ,
0, ,2, ,
0, ,2, ,
0, ,2, ,
0, ,2, ,
0, ,2, ,
0, ,2, ,
0, ,2, ,
0, ,2, ,
0, ,2, ,
0, ,2, ,
0, ,2, ,
0, ,2, ,
0, ,2, ,
0, ,2, ,
0, ,2, ,
0, ,2, ,
0, ,2, ,
0, ,2, ,
0, ,2, ,
0, ,2, ,
-1, ,2, ,
0, ,2, ,
0, ,2, ,
0, ,2, ,
0, ,2, ,
0, ,2, ,
0, ,2, ,
0, ,2, ,
0, ,2, ,
0, ,2, ,
0, ,2, ,
0, ,2, ,
0, ,2, ,
0, ,2, ,
0, ,2, ,
0, ,2, ,
0, ,2, ,
0, ,2, ,
0, ,2, ,
0, ,2, ,
0, ,2, ,
0, ,2, ,
0, ,2, ,
0, ,2, ,
0, ,2, ,
0, ,2, ,
0, ,2, ,
0, ,2, ,
0, ,2, ,
0, ,2, ,
0, ,2, ,
0, ,2, ,
0, ,2, ,
0, ,2, ,
0, ,2, ,
0, ,2, ,
0, ,2, ,
0, ,2, ,
0, ,2, ,
0, ,2, ,
0, ,2, ,
0, ,2, ,
0, ,2, ,
0, ,2, ,
0, ,2, ,
0, ,2, ,
0, ,2, ,
0, ,2, ,
0, ,2, ,
0, ,2, ,
0, ,2, ,
0, ,2, ,
0, ,2, ,
0, ,2, ,
0, ,2, ,
0, ,2, ,
0, ,2, ,
0, ,2, ,
0, ,2, ,
0, ,2, ,
0, ,2, ,
0, ,2, ,
0, ,2, ,
0, ,2, ,
0, ,2, ,
0, ,2, ,
0, ,2, ,
0, ,2, ,
0, ,2, ,
0, ,2, ,
0, ,2, ,
0, ,2, ,
0, ,2, ,
0, ,2, ,
0, ,2, ,
0, ,2, ,
0, ,2, ,
0, ,2, ,
0, ,2, ,
0, ,2, ,
0, ,2, ,
0, ,2, ,
0, ,2, ,
0, ,2, ,
0, ,2, ,
0, ,2, ,
0, ,2, ,
0, ,2, ,
0, ,2, ,
0, ,2, ,
0, ,2, ,
0, ,2, ,
0, ,2, ,
0, ,2, ,
0, ,2, ,
0, ,2, ,
0, ,2, ,
0, ,2, ,
0, ,2, ,
0, ,2, ,
0, ,2, ,
0, ,2, ,
0, ,2, ,
0, ,2, ,
0, ,2, ,
0, ,2, ,
-1, ,2, ,
0, ,2, ,
0, ,2, ,
0, ,2, ,
0, ,2, ,
0, ,2, ,
0, ,2, ,
0, ,2, ,
0, ,2, ,
0, ,2, ,
0, ,2, ,
0, ,2, ,
0, ,2, ,
0, ,2, ,
0, ,2, ,
0, ,2, ,
0, ,2, ,
0, ,2, ,
0, ,2, ,
0, ,2, ,
0, ,2, ,
0, ,2, ,
0, ,2, ,
0, ,2, ,
0, ,2, ,
0, ,2, ,
0, ,2, ,
0, ,2, ,
0, ,2, ,
0, ,2, ,
0, ,2, ,
0, ,2, ,
0, ,2, ,
0, ,2, ,
0, ,2, ,
0, ,2, ,
0, ,2, ,
0, ,2, ,
0, ,2, ,
0, ,2, ,
0, ,2, ,
0, ,2, ,
0, ,2, ,
0, ,2, ,
0, ,2, ,
0, ,2, ,
0, ,2, ,
0, ,2, ,
0, ,2, ,
0, ,2, ,
0, ,2, ,
0, ,2, ,
0, ,2, ,
0, ,2, ,
0, ,2, ,
0, ,2, ,
0, ,2, ,
0, ,2, ,
0, ,2, ,
0, ,2, ,
0, ,2, ,
0, ,2, ,
0, ,2, ,
0, ,2, ,
0, ,2, ,
0, ,2, ,
0, ,2, ,
0, ,2, ,
0, ,2, ,
0, ,2, ,
0, ,2, ,
0, ,2, ,
0, ,2, ,
0, ,2, ,
0, ,2, ,
0, ,2, ,
0, ,2, ,
0, ,2, ,
0, ,2, ,
0, ,2, ,
0, ,2, ,
0, ,2, ,
0, ,2, ,
0, ,2, ,
0, ,2, ,
0, ,2, ,
0, ,2, ,
0, ,2, ,
0, ,2, ,
0, ,2, ,
0, ,2, ,
0, ,2, ,
0, ,2, ,
0, ,2, ,
0, ,2, ,
0, ,2, ,
0, ,2, ,
0, ,2, ,
0, ,2, ,
0, ,2, ,
0, ,2, ,
0, ,2, ,
0, ,2, ,
0, ,2, ,
0, ,2, ,
0, ,2, ,
0, ,2, ,
0, ,2, ,
0, ,2, ,
0, ,2, ,
0, ,2, ,
0, ,2, ,
0, ,2, ,
0, ,2, ,
0, ,2, ,
0, ,2, ,
0, ,2, ,
0, ,2, ,
0, ,2, ,
0, ,2, ,
0, ,2, ,
0, ,2, ,
0, ,2, ,
0, ,2, ,
0, ,2, ,
0, ,2, ,
0, ,2, ,
0, ,2, ,
0, ,2, ,
0, ,2, ,
0, ,2, ,
0, ,2, ,
0, ,2, ,
0, ,2, ,
0, ,2, ,
0, ,2, ,
0, ,2, ,
0, ,2, ,
0, ,2, ,
0, ,2, ,
0, ,2, ,
0, ,2, ,
0, ,2, ,
0, ,2, ,
0, ,2, ,
0, ,2, ,
0, ,2, ,
0, ,2, ,
0, ,2, ,
0, ,2, ,
0, ,2, ,
0, ,2, ,
0, ,2, ,
0, ,2, ,
0, ,2, ,
0, ,2, ,
0, ,2, ,
0, ,2, ,
0, ,2, ,
0, ,2, ,
0, ,2, ,
0, ,2, ,
0, ,2, ,
0, ,2, ,
0, ,2, ,
0, ,2, ,
0, ,2, ,
0, ,2, ,
0, ,2, ,
0, ,2, ,
0, ,2, ,
0, ,2, ,
0, ,2, ,
0, ,2, ,
0, ,2, ,
0, ,2, ,
0, ,2, ,
0, ,2, ,
0, ,2, ,
0, ,2, ,
0, ,2, ,
0, ,2, ,
0, ,2, ,
0, ,2, ,
0, ,2, ,
0, ,2, ,
0, ,2, ,
0, ,2, ,
0, ,2, ,
0, ,2, ,
0, ,2, ,
0, ,2, ,
0, ,2, ,
0, ,2, ,
0, ,2, ,
0, ,2, ,
0, ,2, ,
0, ,2, ,
0, ,2, ,
0, ,2, ,
0, ,2, ,
0, ,2, ,
0, ,2, ,
0, ,2, ,
0, ,2, ,
0, ,2, ,
0, ,2, ,
0, ,2, ,
0, ,2, ,
0, ,2, ,
0, ,2, ,
0, ,2, ,
0, ,2, ,
0, ,2, ,
0, ,2, ,
0, ,2, ,
0, ,2, ,
0, ,2, ,
0, ,2, ,
0, ,2, ,
0, ,2, ,
0, ,2, ,
0, ,2, ,
0, ,2, ,
0, ,2, ,
0, ,2, ,
0, ,2, ,
0, ,2, ,
0, ,2, ,
0, ,2, ,
0, ,2, ,
0, ,2, ,
0, ,2, ,
0, ,2, ,
0, ,2, ,
0, ,2, ,
0, ,2, ,
0, ,2, ,
0, ,2, ,
0, ,2, ,
0, ,2, ,
0, ,2, ,
0, ,2, ,
0, ,2, ,
0, ,2, ,
0, ,2, ,
0, ,2, ,
0, ,2, ,
0, ,2, ,
0, ,2, ,
0, ,2, ,
0, ,2, ,
0, ,2, ,
0, ,2, ,
0, ,2, ,
0, ,2, ,
0, ,2, ,
0, ,2, ,
0, ,2, ,
0, ,2, ,
0, ,2, ,
0, ,2, ,
0, ,2, ,
0, ,2, ,
0, ,2, ,
0, ,2, ,
0, ,2, ,
0, ,2, ,
0, ,2, ,
0, ,2, ,
0, ,2, ,
0, ,2, ,
0, ,2, ,
0, ,2, ,
0, ,2, ,
0, ,2, ,
0, ,2, ,
0, ,2, ,
0, ,2, ,
0, ,2, ,
0, ,2, ,
0, ,2, ,
0, ,2, ,
0, ,2, ,
0, ,2, ,
0, ,2, ,
0, ,2, ,
0, ,2, ,
0, ,2, ,
0, ,2, ,
0, ,2, ,
0, ,2, ,
0, ,2, ,
0, ,2, ,
0, ,2, ,
0, ,2, ,
0, ,2, ,
0, ,2, ,
0, ,2, ,
0, ,2, ,
0, ,2, ,
0, ,2, ,
0, ,2, ,
0, ,2, ,
0, ,2, ,
0, ,2, ,
0, ,2, ,
0, ,2, ,
0, ,2, ,
0, ,2, ,
0, ,2, ,
0, ,2, ,
0, ,2, ,
0, ,2, ,
0, ,2, ,
0, ,2, ,
0, ,2, ,
0, ,2, ,
0, ,2, ,
0, ,2, ,
0, ,2, ,
0, ,2, ,
0, ,2, ,
0, ,2, ,
0, ,2, ,
0, ,2, ,
0, ,2, ,
0, ,2, ,
0, ,2, ,
0, ,2, ,
0, ,2, ,
0, ,2, ,
0, ,2, ,
0, ,2, ,
0, ,2, ,
0, ,2, ,
0, ,2, ,
0, ,2, ,
0, ,2, ,
0, ,2, ,
0, ,2, ,
0, ,2, ,
0, ,2, ,
0, ,2, ,
0, ,2, ,
0, ,2, ,
0, ,2, ,
0, ,2, ,
0, ,2, ,
0, ,2, ,
0, ,2, ,
0, ,2, ,
0, ,2, ,
0, ,2, ,
0, ,2, ,
0, ,2, ,
0, ,2, ,
0, ,2, ,
0, ,2, ,
0, ,2, ,
0, ,2, ,
0, ,2, ,
0, ,2, ,
0, ,2, ,
0, ,2, ,
0, ,2, ,
0, ,2, ,
0, ,2, ,
0, ,2, ,
0, ,2, ,
0, ,2, ,
0, ,2, ,
0, ,2, ,
0, ,2, ,
0, ,2, ,
0, ,2, ,
0, ,2, ,
0, ,2, ,
0, ,2, ,
0, ,2, ,
0, ,2, ,
0, ,2, ,
0, ,2, ,
0, ,2, ,
0, ,2, ,
0, ,2, ,
0, ,2, ,
0, ,2, ,
0, ,2, ,
0, ,2, ,
0, ,2, ,
0, ,2, ,
0, ,2, ,
0, ,2, ,
0, ,2, ,
0, ,2, ,
0, ,2, ,
0, ,2, ,
0, ,2, ,
0, ,2, ,
0, ,2, ,
0, ,2, ,
0, ,2, ,
0, ,2, ,
0, ,2, ,
0, ,2, ,
0, ,2, ,
0, ,2, ,
0, ,2, ,
0, ,2, ,
0, ,2, ,
0, ,2, ,
0, ,2, ,
0, ,2, ,
0, ,2, ,
0, ,2, ,
0, ,2, ,
0, ,2, ,
0, ,2, ,
0, ,2, ,
0, ,2, ,
0, ,2, ,
0, ,2, ,
0, ,2, ,
0, ,2, ,
0, ,2, ,
0, ,2, ,
0, ,2, ,
0, ,2, ,
0, ,2, ,
0, ,2, ,
0, ,2, ,
0, ,2, ,
0, ,2, ,
0, ,2, ,
0, ,2, ,
0, ,2, ,
0, ,2, ,
0, ,2, ,
0, ,2, ,
0, ,2, ,
0, ,2, ,
0, ,2, ,
0, ,2, ,
127, ,2, ,
127, ,2, ,
127, ,2, ,
127, ,2, ,
127, ,2, ,
96, ,2, ,
48, ,2, ,
21, ,2, ,
4, ,2, ,
-5, ,2, ,
-9, ,2, ,
-10, ,2, ,
-10, ,2, ,
-9, ,2, ,
-7, ,2, ,
-6, ,2, ,
-5, ,2, ,
-4, ,2, ,
-4, ,2, ,
-2, ,2, ,
-2, ,2, ,
-2, ,2, ,
-1, ,2, ,
-1, ,2, ,
-1, ,2, ,
-2, ,2, ,
-1, ,2, ,
-6, ,2, ,
0, ,2, ,
-1, ,2, ,
1, ,2, ,
-1, ,2, ,
0, ,2, ,
-5, ,2, ,
-4, ,2, ,
-26, ,2, ,
-27, ,2, ,
-99, ,2, ,
-73, ,2, ,
-78, ,2, ,
-13, ,2, ,
-21, ,2, ,
-1, ,2, ,
-39, ,2, ,
-41, ,2, ,
-52, ,2, ,
-73, ,2, ,
-51, ,2, ,
-74, ,2, ,
-63, ,2, ,
-61, ,2, ,
-44, ,2, ,
-26, ,2, ,
-10, ,2, ,
13, ,2, ,
15, ,2, ,
15, ,2, ,
4, ,2, ,
-24, ,2, ,
-50, ,2, ,
-79, ,2, ,
-78, ,2, ,
-70, ,2, ,
-32, ,2, ,
-10, ,2, ,
