raw_data/0% Glycerol, Impulsion 0.5Hz, Sonde 5MHz, Rampe 0.7Hz/temp0000292.CSV

Format,1.0B,
Memory Length,10000,Memory Length,10000,
IntpDistance,0,IntpDistance,0,
Trigger Address,2029,Trigger Address,2029,
Trigger Level,2.720E-01,Trigger Level,2.720E-01,
Source,CH1,Source,CH2,
Vertical Units,V,Vertical Units,V,
Vertical Units Div,0,Vertical Units Div,0,
Vertical Units Extend Div,16,Vertical Units Extend Div,16,
Label,,Label,,
Probe Type,0,Probe Type,0,
Probe Ratio,1.000e+00,Probe Ratio,1.000e+00,
Vertical Scale,1.000e-01,Vertical Scale,2.000e+00,
Vertical Position,0.000e+00,Vertical Position,0.000e+00,
Horizontal Units,S,Horizontal Units,S,
Horizontal Scale,5.000E-05,Horizontal Scale,5.000E-05,
Horizontal Position,1.485E-04,Horizontal Position,1.485E-04,
Horizontal Mode,Main,Horizontal Mode,Main,
SincET Mode,Real Time,SincET Mode,Real Time,
Sampling Period,5.000e-08,Sampling Period,5.000e-08,
Horizontal Old Scale,5.000E-05,Horizontal Old Scale,5.000E-05,
Horizontal Old Position,1.485E-04,Horizontal Old Position,1.485E-04,
Firmware,V1.32,Firmware,V1.32,
Mode,Fast,Mode,Fast,
Waveform Data,,Waveform Data,,
0, ,1, ,
0, ,1, ,
0, ,1, ,
0, ,1, ,
0, ,1, ,
0, ,1, ,
0, ,1, ,
0, ,1, ,
0, ,1, ,
0, ,1, ,
0, ,1, ,
0, ,1, ,
0, ,1, ,
0, ,1, ,
0, ,1, ,
0, ,1, ,
0, ,1, ,
0, ,1, ,
0, ,1, ,
0, ,1, ,
0, ,1, ,
0, ,1, ,
0, ,1, ,
0, ,1, ,
0, ,1, ,
0, ,1, ,
0, ,1, ,
0, ,1, ,
0, ,1, ,
0, ,1, ,
0, ,1, ,
0, ,1, ,
0, ,1, ,
0, ,1, ,
0, ,1, ,
0, ,1, ,
0, ,1, ,
0, ,1, ,
0, ,1, ,
0, ,1, ,
0, ,1, ,
0, ,1, ,
0, ,1, ,
0, ,1, ,
0, ,1, ,
0, ,1, ,
0, ,1, ,
0, ,1, ,
0, ,1, ,
0, ,1, ,
0, ,1, ,
0, ,1, ,
0, ,1, ,
0, ,1, ,
0, ,1, ,
0, ,1, ,
0, ,1, ,
0, ,1, ,
0, ,1, ,
0, ,1, ,
0, ,1, ,
0, ,1, ,
0, ,1, ,
0, ,1, ,
0, ,1, ,
0, ,1, ,
0, ,1, ,
0, ,1, ,
0, ,1, ,
0, ,1, ,
0, ,1, ,
-1, ,1, ,
0, ,1, ,
0, ,1, ,
0, ,1, ,
0, ,1, ,
0, ,1, ,
0, ,1, ,
0, ,1, ,
0, ,1, ,
0, ,1, ,
0, ,1, ,
0, ,1, ,
0, ,1, ,
0, ,1, ,
0, ,1, ,
0, ,1, ,
0, ,1, ,
0, ,1, ,
0, ,1, ,
0, ,1, ,
0, ,1, ,
0, ,1, ,
0, ,1, ,
0, ,1, ,
0, ,1, ,
0, ,1, ,
0, ,1, ,
0, ,1, ,
0, ,1, ,
0, ,1, ,
0, ,1, ,
0, ,1, ,
0, ,1, ,
0, ,1, ,
0, ,1, ,
0, ,1, ,
0, ,1, ,
0, ,1, ,
0, ,1, ,
0, ,1, ,
0, ,1, ,
0, ,1, ,
0, ,1, ,
0, ,1, ,
0, ,1, ,
0, ,1, ,
0, ,1, ,
0, ,1, ,
0, ,1, ,
0, ,1, ,
0, ,1, ,
0, ,1, ,
0, ,1, ,
0, ,1, ,
0, ,1, ,
0, ,1, ,
0, ,1, ,
0, ,1, ,
0, ,1, ,
0, ,1, ,
0, ,1, ,
0, ,1, ,
0, ,1, ,
0, ,1, ,
0, ,1, ,
0, ,1, ,
0, ,1, ,
0, ,1, ,
0, ,1, ,
0, ,1, ,
0, ,1, ,
0, ,1, ,
0, ,1, ,
0, ,1, ,
0, ,1, ,
0, ,1, ,
0, ,1, ,
0, ,1, ,
0, ,1, ,
0, ,1, ,
0, ,1, ,
0, ,1, ,
0, ,1, ,
0, ,1, ,
0, ,1, ,
0, ,1, ,
0, ,1, ,
0, ,1, ,
0, ,1, ,
0, ,1, ,
0, ,1, ,
0, ,1, ,
0, ,1, ,
0, ,1, ,
0, ,1, ,
0, ,1, ,
0, ,1, ,
0, ,1, ,
0, ,1, ,
0, ,1, ,
0, ,1, ,
0, ,1, ,
0, ,1, ,
0, ,1, ,
0, ,1, ,
0, ,1, ,
0, ,1, ,
0, ,1, ,
0, ,1, ,
0, ,1, ,
0, ,1, ,
0, ,1, ,
0, ,1, ,
0, ,1, ,
0, ,1, ,
0, ,1, ,
0, ,1, ,
0, ,1, ,
0, ,1, ,
0, ,1, ,
0, ,1, ,
0, ,1, ,
0, ,1, ,
0, ,1, ,
0, ,1, ,
0, ,1, ,
0, ,1, ,
0, ,1, ,
0, ,1, ,
0, ,1, ,
0, ,1, ,
0, ,1, ,
0, ,1, ,
0, ,1, ,
0, ,1, ,
0, ,1, ,
0, ,1, ,
0, ,1, ,
0, ,1, ,
0, ,1, ,
0, ,1, ,
0, ,1, ,
0, ,1, ,
0, ,1, ,
0, ,1, ,
0, ,1, ,
0, ,1, ,
0, ,1, ,
0, ,1, ,
0, ,1, ,
0, ,1, ,
0, ,1, ,
0, ,1, ,
0, ,1, ,
0, ,1, ,
0, ,1, ,
0, ,1, ,
0, ,1, ,
0, ,1, ,
0, ,1, ,
0, ,1, ,
0, ,1, ,
0, ,1, ,
0, ,1, ,
0, ,1, ,
0, ,1, ,
0, ,1, ,
0, ,1, ,
0, ,1, ,
0, ,1, ,
0, ,1, ,
0, ,1, ,
0, ,1, ,
0, ,1, ,
0, ,1, ,
0, ,1, ,
0, ,1, ,
0, ,1, ,
0, ,1, ,
0, ,1, ,
0, ,1, ,
0, ,1, ,
0, ,1, ,
0, ,1, ,
0, ,1, ,
0, ,1, ,
0, ,1, ,
0, ,1, ,
0, ,1, ,
0, ,1, ,
0, ,1, ,
0, ,1, ,
0, ,1, ,
0, ,1, ,
0, ,1, ,
0, ,1, ,
0, ,1, ,
0, ,1, ,
0, ,1, ,
0, ,1, ,
0, ,1, ,
0, ,1, ,
0, ,1, ,
0, ,1, ,
0, ,1, ,
0, ,1, ,
0, ,1, ,
0, ,1, ,
0, ,1, ,
0, ,1, ,
0, ,1, ,
0, ,1, ,
0, ,1, ,
0, ,1, ,
0, ,1, ,
0, ,1, ,
0, ,1, ,
0, ,1, ,
0, ,1, ,
0, ,1, ,
0, ,1, ,
0, ,1, ,
0, ,1, ,
0, ,1, ,
0, ,1, ,
0, ,1, ,
0, ,1, ,
0, ,1, ,
0, ,1, ,
0, ,1, ,
0, ,1, ,
0, ,1, ,
0, ,1, ,
0, ,1, ,
0, ,1, ,
0, ,1, ,
0, ,1, ,
0, ,1, ,
0, ,1, ,
0, ,1, ,
0, ,1, ,
0, ,1, ,
0, ,1, ,
0, ,1, ,
0, ,1, ,
0, ,1, ,
0, ,1, ,
0, ,1, ,
0, ,1, ,
0, ,1, ,
0, ,1, ,
0, ,1, ,
0, ,1, ,
0, ,1, ,
0, ,1, ,
0, ,1, ,
0, ,1, ,
0, ,1, ,
0, ,1, ,
0, ,1, ,
0, ,1, ,
0, ,1, ,
0, ,1, ,
0, ,1, ,
0, ,1, ,
0, ,1, ,
0, ,1, ,
0, ,1, ,
0, ,1, ,
0, ,1, ,
0, ,1, ,
0, ,1, ,
0, ,1, ,
0, ,1, ,
0, ,1, ,
0, ,1, ,
0, ,1, ,
0, ,1, ,
0, ,1, ,
0, ,1, ,
0, ,1, ,
0, ,1, ,
0, ,1, ,
0, ,1, ,
0, ,1, ,
0, ,1, ,
0, ,1, ,
0, ,1, ,
0, ,1, ,
0, ,1, ,
0, ,1, ,
0, ,1, ,
0, ,1, ,
0, ,1, ,
0, ,1, ,
0, ,1, ,
0, ,1, ,
0, ,1, ,
0, ,1, ,
0, ,1, ,
0, ,1, ,
0, ,1, ,
0, ,1, ,
0, ,1, ,
0, ,1, ,
0, ,1, ,
0, ,1, ,
0, ,1, ,
0, ,1, ,
0, ,1, ,
0, ,1, ,
0, ,1, ,
0, ,1, ,
0, ,1, ,
0, ,1, ,
0, ,1, ,
0, ,1, ,
0, ,1, ,
0, ,1, ,
0, ,1, ,
0, ,1, ,
0, ,1, ,
0, ,1, ,
0, ,1, ,
0, ,1, ,
0, ,1, ,
0, ,1, ,
0, ,1, ,
0, ,1, ,
0, ,1, ,
0, ,1, ,
0, ,1, ,
0, ,1, ,
0, ,1, ,
0, ,1, ,
0, ,1, ,
0, ,1, ,
0, ,1, ,
0, ,1, ,
0, ,1, ,
0, ,1, ,
0, ,1, ,
0, ,1, ,
0, ,1, ,
0, ,1, ,
0, ,1, ,
0, ,1, ,
0, ,1, ,
0, ,1, ,
0, ,1, ,
0, ,1, ,
0, ,1, ,
0, ,1, ,
0, ,1, ,
0, ,1, ,
0, ,1, ,
0, ,1, ,
0, ,1, ,
0, ,1, ,
0, ,1, ,
0, ,1, ,
0, ,1, ,
0, ,1, ,
0, ,1, ,
0, ,1, ,
0, ,1, ,
0, ,1, ,
0, ,1, ,
0, ,1, ,
0, ,1, ,
0, ,1, ,
0, ,1, ,
0, ,1, ,
0, ,1, ,
0, ,1, ,
0, ,1, ,
0, ,1, ,
0, ,1, ,
0, ,1, ,
0, ,1, ,
0, ,1, ,
0, ,1, ,
0, ,1, ,
0, ,1, ,
0, ,1, ,
0, ,1, ,
0, ,1, ,
0, ,1, ,
0, ,1, ,
0, ,1, ,
0, ,1, ,
0, ,1, ,
0, ,1, ,
0, ,1, ,
0, ,1, ,
0, ,1, ,
0, ,1, ,
0, ,1, ,
0, ,1, ,
0, ,1, ,
0, ,1, ,
0, ,1, ,
0, ,1, ,
0, ,1, ,
0, ,1, ,
0, ,1, ,
0, ,1, ,
-1, ,1, ,
0, ,1, ,
0, ,1, ,
0, ,1, ,
0, ,1, ,
0, ,1, ,
0, ,1, ,
0, ,1, ,
0, ,1, ,
0, ,1, ,
0, ,1, ,
0, ,1, ,
0, ,1, ,
0, ,1, ,
0, ,1, ,
0, ,1, ,
0, ,1, ,
0, ,1, ,
0, ,1, ,
0, ,1, ,
0, ,1, ,
0, ,1, ,
0, ,1, ,
0, ,1, ,
0, ,1, ,
0, ,1, ,
0, ,1, ,
0, ,1, ,
0, ,1, ,
0, ,1, ,
0, ,1, ,
0, ,1, ,
0, ,1, ,
0, ,1, ,
0, ,1, ,
0, ,1, ,
0, ,1, ,
0, ,1, ,
0, ,1, ,
0, ,1, ,
0, ,1, ,
0, ,1, ,
0, ,1, ,
0, ,1, ,
0, ,1, ,
0, ,1, ,
0, ,1, ,
0, ,1, ,
0, ,1, ,
0, ,1, ,
0, ,1, ,
0, ,1, ,
0, ,1, ,
0, ,1, ,
0, ,1, ,
0, ,1, ,
0, ,1, ,
0, ,1, ,
0, ,1, ,
0, ,1, ,
0, ,1, ,
0, ,1, ,
0, ,1, ,
0, ,1, ,
0, ,1, ,
0, ,1, ,
0, ,1, ,
0, ,1, ,
0, ,1, ,
0, ,1, ,
0, ,1, ,
0, ,1, ,
0, ,1, ,
-1, ,1, ,
0, ,1, ,
0, ,1, ,
0, ,1, ,
0, ,1, ,
0, ,1, ,
0, ,1, ,
0, ,1, ,
0, ,1, ,
0, ,1, ,
0, ,1, ,
0, ,1, ,
0, ,1, ,
0, ,1, ,
0, ,1, ,
0, ,1, ,
0, ,1, ,
0, ,1, ,
0, ,1, ,
0, ,1, ,
0, ,1, ,
0, ,1, ,
0, ,1, ,
0, ,1, ,
0, ,1, ,
0, ,1, ,
0, ,1, ,
0, ,1, ,
0, ,1, ,
0, ,1, ,
0, ,1, ,
0, ,1, ,
0, ,1, ,
0, ,1, ,
0, ,1, ,
0, ,1, ,
0, ,1, ,
0, ,1, ,
0, ,1, ,
0, ,1, ,
0, ,1, ,
0, ,1, ,
0, ,1, ,
0, ,1, ,
0, ,1, ,
0, ,1, ,
0, ,1, ,
0, ,1, ,
0, ,1, ,
0, ,1, ,
0, ,1, ,
0, ,1, ,
0, ,1, ,
0, ,1, ,
0, ,1, ,
0, ,1, ,
0, ,1, ,
0, ,1, ,
0, ,1, ,
0, ,1, ,
0, ,1, ,
0, ,1, ,
0, ,1, ,
0, ,1, ,
0, ,1, ,
0, ,1, ,
0, ,1, ,
0, ,1, ,
0, ,1, ,
0, ,1, ,
0, ,1, ,
0, ,1, ,
0, ,1, ,
0, ,1, ,
0, ,1, ,
0, ,1, ,
0, ,1, ,
0, ,1, ,
0, ,1, ,
0, ,1, ,
0, ,1, ,
0, ,1, ,
0, ,1, ,
0, ,1, ,
0, ,1, ,
0, ,1, ,
0, ,1, ,
0, ,1, ,
-1, ,1, ,
0, ,1, ,
0, ,1, ,
0, ,1, ,
0, ,1, ,
0, ,1, ,
0, ,1, ,
0, ,1, ,
0, ,1, ,
0, ,1, ,
0, ,1, ,
0, ,1, ,
0, ,1, ,
0, ,1, ,
0, ,1, ,
0, ,1, ,
0, ,1, ,
0, ,1, ,
0, ,1, ,
0, ,1, ,
0, ,1, ,
0, ,1, ,
0, ,1, ,
0, ,1, ,
0, ,1, ,
0, ,1, ,
0, ,1, ,
0, ,1, ,
0, ,1, ,
0, ,1, ,
0, ,1, ,
0, ,1, ,
0, ,1, ,
0, ,1, ,
0, ,1, ,
0, ,1, ,
0, ,1, ,
0, ,1, ,
0, ,1, ,
0, ,1, ,
0, ,1, ,
0, ,1, ,
0, ,1, ,
0, ,1, ,
0, ,1, ,
0, ,1, ,
0, ,1, ,
0, ,1, ,
0, ,1, ,
0, ,1, ,
0, ,1, ,
0, ,1, ,
0, ,1, ,
0, ,1, ,
0, ,1, ,
0, ,1, ,
0, ,1, ,
0, ,1, ,
0, ,1, ,
0, ,1, ,
0, ,1, ,
0, ,1, ,
0, ,1, ,
0, ,1, ,
0, ,1, ,
0, ,1, ,
0, ,1, ,
0, ,1, ,
0, ,1, ,
0, ,1, ,
0, ,1, ,
0, ,1, ,
0, ,1, ,
0, ,1, ,
0, ,1, ,
0, ,1, ,
0, ,1, ,
0, ,1, ,
0, ,1, ,
0, ,1, ,
0, ,1, ,
0, ,1, ,
0, ,1, ,
0, ,1, ,
0, ,1, ,
0, ,1, ,
0, ,1, ,
0, ,1, ,
0, ,1, ,
0, ,1, ,
0, ,1, ,
0, ,1, ,
0, ,1, ,
0, ,1, ,
0, ,1, ,
0, ,1, ,
0, ,1, ,
0, ,1, ,
0, ,1, ,
0, ,1, ,
0, ,1, ,
0, ,1, ,
0, ,1, ,
0, ,1, ,
0, ,1, ,
0, ,1, ,
0, ,1, ,
0, ,1, ,
0, ,1, ,
0, ,1, ,
0, ,1, ,
0, ,1, ,
0, ,1, ,
0, ,1, ,
0, ,1, ,
0, ,1, ,
0, ,1, ,
0, ,1, ,
0, ,1, ,
0, ,1, ,
0, ,1, ,
0, ,1, ,
0, ,1, ,
0, ,1, ,
0, ,1, ,
0, ,1, ,
0, ,1, ,
0, ,1, ,
0, ,1, ,
0, ,1, ,
0, ,1, ,
0, ,1, ,
0, ,1, ,
0, ,1, ,
0, ,1, ,
0, ,1, ,
0, ,1, ,
0, ,1, ,
0, ,1, ,
0, ,1, ,
0, ,1, ,
0, ,1, ,
0, ,1, ,
0, ,1, ,
0, ,1, ,
0, ,1, ,
0, ,1, ,
0, ,1, ,
0, ,1, ,
0, ,1, ,
0, ,1, ,
0, ,1, ,
0, ,1, ,
0, ,1, ,
0, ,1, ,
0, ,1, ,
0, ,1, ,
0, ,1, ,
0, ,1, ,
0, ,1, ,
0, ,1, ,
0, ,1, ,
0, ,1, ,
0, ,1, ,
0, ,1, ,
0, ,1, ,
0, ,1, ,
0, ,1, ,
0, ,1, ,
0, ,1, ,
0, ,1, ,
0, ,1, ,
0, ,1, ,
0, ,1, ,
0, ,1, ,
0, ,1, ,
0, ,1, ,
0, ,1, ,
0, ,1, ,
0, ,1, ,
0, ,1, ,
0, ,1, ,
0, ,1, ,
0, ,1, ,
0, ,1, ,
0, ,1, ,
0, ,1, ,
0, ,1, ,
0, ,1, ,
0, ,1, ,
0, ,1, ,
0, ,1, ,
0, ,1, ,
0, ,1, ,
0, ,1, ,
0, ,1, ,
0, ,1, ,
0, ,1, ,
0, ,1, ,
0, ,1, ,
0, ,1, ,
0, ,1, ,
0, ,1, ,
0, ,1, ,
0, ,1, ,
0, ,1, ,
0, ,1, ,
0, ,1, ,
0, ,1, ,
0, ,1, ,
0, ,1, ,
-1, ,1, ,
0, ,1, ,
0, ,1, ,
0, ,1, ,
0, ,1, ,
0, ,1, ,
0, ,1, ,
0, ,1, ,
0, ,1, ,
0, ,1, ,
0, ,1, ,
0, ,1, ,
0, ,1, ,
0, ,1, ,
0, ,1, ,
0, ,1, ,
0, ,1, ,
0, ,1, ,
0, ,1, ,
0, ,1, ,
0, ,1, ,
0, ,1, ,
0, ,1, ,
0, ,1, ,
0, ,1, ,
0, ,1, ,
0, ,1, ,
0, ,1, ,
0, ,1, ,
0, ,1, ,
0, ,1, ,
0, ,1, ,
0, ,1, ,
0, ,1, ,
0, ,1, ,
0, ,1, ,
0, ,1, ,
0, ,1, ,
0, ,1, ,
0, ,1, ,
0, ,1, ,
0, ,1, ,
0, ,1, ,
0, ,1, ,
0, ,1, ,
0, ,1, ,
0, ,1, ,
0, ,1, ,
0, ,1, ,
0, ,1, ,
0, ,1, ,
0, ,1, ,
0, ,1, ,
0, ,1, ,
0, ,1, ,
0, ,1, ,
0, ,1, ,
0, ,1, ,
0, ,1, ,
0, ,1, ,
0, ,1, ,
0, ,1, ,
0, ,1, ,
0, ,1, ,
0, ,1, ,
0, ,1, ,
0, ,1, ,
0, ,1, ,
0, ,1, ,
0, ,1, ,
0, ,1, ,
0, ,1, ,
0, ,1, ,
0, ,1, ,
0, ,1, ,
0, ,1, ,
0, ,1, ,
0, ,1, ,
0, ,1, ,
0, ,1, ,
0, ,1, ,
0, ,1, ,
0, ,1, ,
0, ,1, ,
0, ,1, ,
0, ,1, ,
0, ,1, ,
0, ,1, ,
0, ,1, ,
0, ,1, ,
0, ,1, ,
0, ,1, ,
0, ,1, ,
0, ,1, ,
0, ,1, ,
0, ,1, ,
0, ,1, ,
0, ,1, ,
0, ,1, ,
0, ,1, ,
0, ,1, ,
0, ,1, ,
0, ,1, ,
0, ,1, ,
0, ,1, ,
0, ,1, ,
0, ,1, ,
0, ,1, ,
0, ,1, ,
0, ,1, ,
0, ,1, ,
0, ,1, ,
0, ,1, ,
0, ,1, ,
0, ,1, ,
0, ,1, ,
0, ,1, ,
0, ,1, ,
0, ,1, ,
0, ,1, ,
0, ,1, ,
0, ,1, ,
0, ,1, ,
0, ,1, ,
0, ,1, ,
0, ,1, ,
0, ,1, ,
0, ,1, ,
0, ,1, ,
0, ,1, ,
0, ,1, ,
0, ,1, ,
0, ,1, ,
0, ,1, ,
0, ,1, ,
0, ,1, ,
0, ,1, ,
0, ,1, ,
0, ,1, ,
0, ,1, ,
0, ,1, ,
0, ,1, ,
0, ,1, ,
0, ,1, ,
0, ,1, ,
0, ,1, ,
0, ,1, ,
0, ,1, ,
0, ,1, ,
0, ,1, ,
0, ,1, ,
0, ,1, ,
0, ,1, ,
0, ,1, ,
0, ,1, ,
0, ,1, ,
0, ,1, ,
0, ,1, ,
0, ,1, ,
0, ,1, ,
0, ,1, ,
0, ,1, ,
0, ,1, ,
0, ,1, ,
0, ,1, ,
0, ,1, ,
0, ,1, ,
0, ,1, ,
0, ,1, ,
0, ,1, ,
0, ,1, ,
0, ,1, ,
0, ,1, ,
0, ,1, ,
0, ,1, ,
0, ,1, ,
0, ,1, ,
0, ,1, ,
0, ,1, ,
0, ,1, ,
0, ,1, ,
0, ,1, ,
0, ,1, ,
0, ,1, ,
0, ,1, ,
0, ,1, ,
0, ,1, ,
0, ,1, ,
0, ,1, ,
0, ,1, ,
0, ,1, ,
0, ,1, ,
0, ,1, ,
0, ,1, ,
0, ,1, ,
0, ,1, ,
0, ,1, ,
0, ,1, ,
0, ,1, ,
0, ,1, ,
0, ,1, ,
0, ,1, ,
0, ,1, ,
0, ,1, ,
0, ,1, ,
0, ,1, ,
0, ,1, ,
0, ,1, ,
0, ,1, ,
0, ,1, ,
0, ,1, ,
0, ,1, ,
0, ,1, ,
0, ,1, ,
0, ,1, ,
0, ,1, ,
0, ,1, ,
0, ,1, ,
0, ,1, ,
0, ,1, ,
0, ,1, ,
0, ,1, ,
0, ,1, ,
0, ,1, ,
0, ,1, ,
0, ,1, ,
0, ,1, ,
0, ,1, ,
0, ,1, ,
0, ,1, ,
0, ,1, ,
0, ,1, ,
0, ,1, ,
0, ,1, ,
0, ,1, ,
0, ,1, ,
0, ,1, ,
0, ,1, ,
0, ,1, ,
0, ,1, ,
0, ,1, ,
0, ,1, ,
0, ,1, ,
0, ,1, ,
0, ,1, ,
0, ,1, ,
0, ,1, ,
0, ,1, ,
0, ,1, ,
0, ,1, ,
0, ,1, ,
0, ,1, ,
0, ,1, ,
0, ,1, ,
0, ,1, ,
0, ,1, ,
0, ,1, ,
0, ,1, ,
0, ,1, ,
0, ,1, ,
0, ,1, ,
0, ,1, ,
0, ,1, ,
0, ,1, ,
0, ,1, ,
0, ,1, ,
0, ,1, ,
0, ,1, ,
0, ,1, ,
0, ,1, ,
0, ,1, ,
0, ,1, ,
0, ,1, ,
0, ,1, ,
0, ,1, ,
0, ,1, ,
0, ,1, ,
0, ,1, ,
0, ,1, ,
0, ,1, ,
0, ,1, ,
0, ,1, ,
0, ,1, ,
0, ,1, ,
0, ,1, ,
0, ,1, ,
0, ,1, ,
0, ,1, ,
0, ,1, ,
0, ,1, ,
0, ,1, ,
0, ,1, ,
0, ,1, ,
0, ,1, ,
0, ,1, ,
0, ,1, ,
0, ,1, ,
0, ,1, ,
0, ,1, ,
0, ,1, ,
0, ,1, ,
0, ,1, ,
0, ,1, ,
0, ,1, ,
0, ,1, ,
0, ,1, ,
0, ,1, ,
0, ,1, ,
0, ,1, ,
0, ,1, ,
0, ,1, ,
0, ,1, ,
0, ,1, ,
0, ,1, ,
0, ,1, ,
0, ,1, ,
0, ,1, ,
0, ,1, ,
0, ,1, ,
0, ,1, ,
0, ,1, ,
0, ,1, ,
0, ,1, ,
0, ,1, ,
0, ,1, ,
0, ,1, ,
0, ,1, ,
0, ,1, ,
0, ,1, ,
0, ,1, ,
0, ,1, ,
0, ,1, ,
0, ,1, ,
0, ,1, ,
0, ,1, ,
0, ,1, ,
0, ,1, ,
0, ,1, ,
0, ,1, ,
0, ,1, ,
0, ,1, ,
0, ,1, ,
0, ,1, ,
0, ,1, ,
0, ,1, ,
0, ,1, ,
0, ,1, ,
0, ,1, ,
0, ,1, ,
0, ,1, ,
0, ,1, ,
0, ,1, ,
0, ,1, ,
0, ,1, ,
0, ,1, ,
0, ,1, ,
0, ,1, ,
0, ,1, ,
0, ,1, ,
0, ,1, ,
0, ,1, ,
0, ,1, ,
0, ,1, ,
0, ,1, ,
0, ,1, ,
0, ,1, ,
0, ,1, ,
0, ,1, ,
0, ,1, ,
0, ,1, ,
0, ,1, ,
0, ,1, ,
0, ,1, ,
0, ,1, ,
0, ,1, ,
0, ,1, ,
0, ,1, ,
0, ,1, ,
0, ,1, ,
0, ,1, ,
0, ,1, ,
0, ,1, ,
0, ,1, ,
0, ,1, ,
0, ,1, ,
0, ,1, ,
0, ,1, ,
0, ,1, ,
0, ,1, ,
0, ,1, ,
0, ,1, ,
0, ,1, ,
0, ,1, ,
0, ,1, ,
0, ,1, ,
0, ,1, ,
0, ,1, ,
0, ,1, ,
0, ,1, ,
0, ,1, ,
0, ,1, ,
0, ,1, ,
0, ,1, ,
0, ,1, ,
0, ,1, ,
0, ,1, ,
0, ,1, ,
0, ,1, ,
0, ,1, ,
0, ,1, ,
0, ,1, ,
0, ,1, ,
0, ,1, ,
0, ,1, ,
0, ,1, ,
0, ,1, ,
0, ,1, ,
0, ,1, ,
0, ,1, ,
0, ,1, ,
0, ,1, ,
0, ,1, ,
0, ,1, ,
0, ,1, ,
0, ,1, ,
0, ,1, ,
0, ,1, ,
0, ,1, ,
0, ,1, ,
0, ,1, ,
0, ,1, ,
0, ,1, ,
0, ,1, ,
0, ,1, ,
0, ,1, ,
0, ,1, ,
0, ,1, ,
0, ,1, ,
0, ,1, ,
0, ,1, ,
0, ,1, ,
0, ,1, ,
0, ,1, ,
-1, ,1, ,
0, ,1, ,
0, ,1, ,
0, ,1, ,
0, ,1, ,
0, ,1, ,
0, ,1, ,
0, ,1, ,
0, ,1, ,
0, ,1, ,
0, ,1, ,
0, ,1, ,
0, ,1, ,
0, ,1, ,
0, ,1, ,
0, ,1, ,
0, ,1, ,
0, ,1, ,
0, ,1, ,
0, ,1, ,
0, ,1, ,
0, ,1, ,
0, ,1, ,
0, ,1, ,
0, ,1, ,
0, ,1, ,
0, ,1, ,
0, ,1, ,
0, ,1, ,
0, ,1, ,
0, ,1, ,
0, ,1, ,
0, ,1, ,
0, ,1, ,
0, ,1, ,
0, ,1, ,
0, ,1, ,
-1, ,1, ,
0, ,1, ,
0, ,1, ,
0, ,1, ,
0, ,1, ,
0, ,1, ,
0, ,1, ,
0, ,1, ,
0, ,1, ,
0, ,1, ,
0, ,1, ,
0, ,1, ,
0, ,1, ,
0, ,1, ,
0, ,1, ,
0, ,1, ,
0, ,1, ,
0, ,1, ,
0, ,1, ,
0, ,1, ,
0, ,1, ,
0, ,1, ,
0, ,1, ,
0, ,1, ,
0, ,1, ,
0, ,1, ,
0, ,1, ,
0, ,1, ,
0, ,1, ,
0, ,1, ,
0, ,1, ,
0, ,1, ,
0, ,1, ,
0, ,1, ,
0, ,1, ,
-1, ,1, ,
0, ,1, ,
0, ,1, ,
0, ,1, ,
0, ,1, ,
0, ,1, ,
0, ,1, ,
0, ,1, ,
0, ,1, ,
0, ,1, ,
0, ,1, ,
0, ,1, ,
0, ,1, ,
0, ,1, ,
0, ,1, ,
0, ,1, ,
0, ,1, ,
0, ,1, ,
0, ,1, ,
0, ,1, ,
0, ,1, ,
0, ,1, ,
0, ,1, ,
0, ,1, ,
0, ,1, ,
0, ,1, ,
0, ,1, ,
0, ,1, ,
0, ,1, ,
0, ,1, ,
0, ,1, ,
0, ,1, ,
0, ,1, ,
0, ,1, ,
0, ,1, ,
0, ,1, ,
0, ,1, ,
0, ,1, ,
0, ,1, ,
0, ,1, ,
0, ,1, ,
0, ,1, ,
0, ,1, ,
0, ,1, ,
0, ,1, ,
0, ,1, ,
0, ,1, ,
0, ,1, ,
0, ,1, ,
0, ,1, ,
0, ,1, ,
0, ,1, ,
0, ,1, ,
0, ,1, ,
0, ,1, ,
0, ,1, ,
0, ,1, ,
0, ,1, ,
0, ,1, ,
0, ,1, ,
0, ,1, ,
0, ,1, ,
0, ,1, ,
0, ,1, ,
0, ,1, ,
0, ,1, ,
0, ,1, ,
0, ,1, ,
0, ,1, ,
0, ,1, ,
0, ,1, ,
0, ,1, ,
0, ,1, ,
0, ,1, ,
0, ,1, ,
0, ,1, ,
0, ,1, ,
0, ,1, ,
0, ,1, ,
0, ,1, ,
0, ,1, ,
0, ,1, ,
0, ,1, ,
0, ,1, ,
0, ,1, ,
0, ,1, ,
0, ,1, ,
0, ,1, ,
0, ,1, ,
0, ,1, ,
0, ,1, ,
0, ,1, ,
0, ,1, ,
0, ,1, ,
0, ,1, ,
0, ,1, ,
0, ,1, ,
0, ,1, ,
0, ,1, ,
0, ,1, ,
0, ,1, ,
0, ,1, ,
0, ,1, ,
0, ,1, ,
0, ,1, ,
0, ,1, ,
0, ,1, ,
0, ,1, ,
0, ,1, ,
0, ,1, ,
0, ,1, ,
0, ,1, ,
0, ,1, ,
0, ,1, ,
0, ,1, ,
0, ,1, ,
0, ,1, ,
0, ,1, ,
0, ,1, ,
0, ,1, ,
0, ,1, ,
0, ,1, ,
0, ,1, ,
0, ,1, ,
0, ,1, ,
0, ,1, ,
0, ,1, ,
0, ,1, ,
0, ,1, ,
0, ,1, ,
0, ,1, ,
0, ,1, ,
0, ,1, ,
0, ,1, ,
0, ,1, ,
0, ,1, ,
0, ,1, ,
0, ,1, ,
0, ,1, ,
0, ,1, ,
0, ,1, ,
0, ,1, ,
0, ,1, ,
0, ,1, ,
0, ,1, ,
0, ,1, ,
0, ,1, ,
0, ,1, ,
0, ,1, ,
0, ,1, ,
0, ,1, ,
0, ,1, ,
0, ,1, ,
0, ,1, ,
0, ,1, ,
0, ,1, ,
0, ,1, ,
0, ,1, ,
0, ,1, ,
0, ,1, ,
0, ,1, ,
0, ,1, ,
0, ,1, ,
0, ,1, ,
0, ,1, ,
0, ,1, ,
0, ,1, ,
0, ,1, ,
0, ,1, ,
0, ,1, ,
0, ,1, ,
0, ,1, ,
0, ,1, ,
0, ,1, ,
0, ,1, ,
0, ,1, ,
0, ,1, ,
0, ,1, ,
0, ,1, ,
0, ,1, ,
0, ,1, ,
0, ,1, ,
0, ,1, ,
0, ,1, ,
0, ,1, ,
0, ,1, ,
0, ,1, ,
0, ,1, ,
0, ,1, ,
0, ,1, ,
0, ,1, ,
0, ,1, ,
0, ,1, ,
0, ,1, ,
0, ,1, ,
0, ,1, ,
0, ,1, ,
0, ,1, ,
0, ,1, ,
0, ,1, ,
0, ,1, ,
0, ,1, ,
0, ,1, ,
0, ,1, ,
0, ,1, ,
0, ,1, ,
0, ,1, ,
0, ,1, ,
0, ,1, ,
0, ,1, ,
0, ,1, ,
0, ,1, ,
0, ,1, ,
0, ,1, ,
0, ,1, ,
0, ,1, ,
0, ,1, ,
0, ,1, ,
0, ,1, ,
0, ,1, ,
0, ,1, ,
0, ,1, ,
0, ,1, ,
0, ,1, ,
0, ,1, ,
0, ,1, ,
0, ,1, ,
0, ,1, ,
0, ,1, ,
0, ,1, ,
0, ,1, ,
0, ,1, ,
0, ,1, ,
0, ,1, ,
0, ,1, ,
0, ,1, ,
0, ,1, ,
0, ,1, ,
0, ,1, ,
0, ,1, ,
0, ,1, ,
0, ,1, ,
0, ,1, ,
0, ,1, ,
0, ,1, ,
0, ,1, ,
0, ,1, ,
0, ,1, ,
0, ,1, ,
0, ,1, ,
0, ,1, ,
0, ,1, ,
0, ,1, ,
0, ,1, ,
0, ,1, ,
0, ,1, ,
0, ,1, ,
0, ,1, ,
0, ,1, ,
0, ,1, ,
0, ,1, ,
0, ,1, ,
0, ,1, ,
0, ,1, ,
0, ,1, ,
0, ,1, ,
0, ,1, ,
0, ,1, ,
0, ,1, ,
0, ,1, ,
0, ,1, ,
0, ,1, ,
0, ,1, ,
0, ,1, ,
0, ,1, ,
0, ,1, ,
0, ,1, ,
0, ,1, ,
0, ,1, ,
0, ,1, ,
-1, ,1, ,
0, ,1, ,
0, ,1, ,
0, ,1, ,
0, ,1, ,
0, ,1, ,
0, ,1, ,
0, ,1, ,
0, ,1, ,
0, ,1, ,
0, ,1, ,
0, ,1, ,
0, ,1, ,
0, ,1, ,
0, ,1, ,
0, ,1, ,
0, ,1, ,
0, ,1, ,
0, ,1, ,
0, ,1, ,
0, ,1, ,
0, ,1, ,
0, ,1, ,
0, ,1, ,
0, ,1, ,
0, ,1, ,
0, ,1, ,
0, ,1, ,
0, ,1, ,
0, ,1, ,
0, ,1, ,
0, ,1, ,
0, ,1, ,
0, ,1, ,
0, ,1, ,
0, ,1, ,
0, ,1, ,
0, ,1, ,
0, ,1, ,
0, ,1, ,
0, ,1, ,
0, ,1, ,
0, ,1, ,
0, ,1, ,
0, ,1, ,
0, ,1, ,
0, ,1, ,
0, ,1, ,
0, ,1, ,
0, ,1, ,
0, ,1, ,
0, ,1, ,
0, ,1, ,
0, ,1, ,
0, ,1, ,
0, ,1, ,
0, ,1, ,
0, ,1, ,
0, ,1, ,
0, ,1, ,
0, ,1, ,
0, ,1, ,
0, ,1, ,
0, ,1, ,
0, ,1, ,
0, ,1, ,
0, ,1, ,
0, ,1, ,
0, ,1, ,
0, ,1, ,
0, ,1, ,
0, ,1, ,
0, ,1, ,
0, ,1, ,
0, ,1, ,
0, ,1, ,
0, ,1, ,
0, ,1, ,
0, ,1, ,
0, ,1, ,
0, ,1, ,
0, ,1, ,
0, ,1, ,
0, ,1, ,
0, ,1, ,
0, ,1, ,
0, ,1, ,
0, ,1, ,
0, ,1, ,
0, ,1, ,
0, ,1, ,
0, ,1, ,
0, ,1, ,
0, ,1, ,
0, ,1, ,
0, ,1, ,
0, ,1, ,
0, ,1, ,
0, ,1, ,
0, ,1, ,
0, ,1, ,
0, ,1, ,
0, ,1, ,
0, ,1, ,
0, ,1, ,
0, ,1, ,
0, ,1, ,
0, ,1, ,
0, ,1, ,
0, ,1, ,
0, ,1, ,
0, ,1, ,
0, ,1, ,
0, ,1, ,
0, ,1, ,
0, ,1, ,
0, ,1, ,
0, ,1, ,
0, ,1, ,
0, ,1, ,
0, ,1, ,
0, ,1, ,
0, ,1, ,
0, ,1, ,
0, ,1, ,
0, ,1, ,
0, ,1, ,
0, ,1, ,
0, ,1, ,
0, ,1, ,
0, ,1, ,
0, ,1, ,
0, ,1, ,
0, ,1, ,
0, ,1, ,
0, ,1, ,
0, ,1, ,
0, ,1, ,
0, ,1, ,
0, ,1, ,
0, ,1, ,
0, ,1, ,
0, ,1, ,
0, ,1, ,
0, ,1, ,
0, ,1, ,
0, ,1, ,
0, ,1, ,
0, ,1, ,
0, ,1, ,
0, ,1, ,
0, ,1, ,
0, ,1, ,
0, ,1, ,
0, ,1, ,
0, ,1, ,
0, ,1, ,
0, ,1, ,
0, ,1, ,
0, ,1, ,
0, ,1, ,
0, ,1, ,
0, ,1, ,
0, ,1, ,
0, ,1, ,
0, ,1, ,
0, ,1, ,
0, ,1, ,
0, ,1, ,
0, ,1, ,
0, ,1, ,
0, ,1, ,
0, ,1, ,
0, ,1, ,
0, ,1, ,
0, ,1, ,
0, ,1, ,
0, ,1, ,
0, ,1, ,
0, ,1, ,
0, ,1, ,
0, ,1, ,
0, ,1, ,
0, ,1, ,
0, ,1, ,
0, ,1, ,
0, ,1, ,
0, ,1, ,
0, ,1, ,
0, ,1, ,
0, ,1, ,
0, ,1, ,
0, ,1, ,
0, ,1, ,
0, ,1, ,
0, ,1, ,
0, ,1, ,
0, ,1, ,
0, ,1, ,
0, ,1, ,
0, ,1, ,
0, ,1, ,
0, ,1, ,
0, ,1, ,
0, ,1, ,
0, ,1, ,
0, ,1, ,
0, ,1, ,
0, ,1, ,
0, ,1, ,
0, ,1, ,
0, ,1, ,
0, ,1, ,
0, ,1, ,
0, ,1, ,
0, ,1, ,
0, ,1, ,
0, ,1, ,
0, ,1, ,
0, ,1, ,
0, ,1, ,
0, ,1, ,
0, ,1, ,
0, ,1, ,
0, ,1, ,
0, ,1, ,
0, ,1, ,
0, ,1, ,
0, ,1, ,
0, ,1, ,
0, ,1, ,
0, ,1, ,
0, ,1, ,
0, ,1, ,
0, ,1, ,
0, ,1, ,
0, ,1, ,
0, ,1, ,
0, ,1, ,
0, ,1, ,
0, ,1, ,
0, ,1, ,
0, ,1, ,
0, ,1, ,
0, ,1, ,
0, ,1, ,
0, ,1, ,
0, ,1, ,
0, ,1, ,
0, ,1, ,
0, ,1, ,
0, ,1, ,
0, ,1, ,
0, ,1, ,
0, ,1, ,
0, ,1, ,
0, ,1, ,
0, ,1, ,
0, ,1, ,
0, ,1, ,
0, ,1, ,
0, ,1, ,
0, ,1, ,
0, ,1, ,
0, ,1, ,
0, ,1, ,
0, ,1, ,
0, ,1, ,
0, ,1, ,
0, ,1, ,
0, ,1, ,
0, ,1, ,
0, ,1, ,
0, ,1, ,
0, ,1, ,
0, ,1, ,
0, ,1, ,
0, ,1, ,
0, ,1, ,
0, ,1, ,
0, ,1, ,
0, ,1, ,
0, ,1, ,
0, ,1, ,
0, ,1, ,
0, ,1, ,
0, ,1, ,
0, ,1, ,
0, ,1, ,
0, ,1, ,
0, ,1, ,
0, ,1, ,
0, ,1, ,
0, ,1, ,
0, ,1, ,
0, ,1, ,
0, ,1, ,
0, ,1, ,
0, ,1, ,
0, ,1, ,
0, ,1, ,
0, ,1, ,
0, ,1, ,
0, ,1, ,
0, ,1, ,
0, ,1, ,
0, ,1, ,
0, ,1, ,
0, ,1, ,
0, ,1, ,
0, ,1, ,
0, ,1, ,
0, ,1, ,
0, ,1, ,
0, ,1, ,
0, ,1, ,
0, ,1, ,
0, ,1, ,
0, ,1, ,
0, ,1, ,
0, ,1, ,
0, ,1, ,
0, ,1, ,
0, ,1, ,
0, ,1, ,
0, ,1, ,
0, ,1, ,
0, ,1, ,
0, ,1, ,
0, ,1, ,
0, ,1, ,
0, ,1, ,
0, ,1, ,
0, ,1, ,
0, ,1, ,
0, ,1, ,
0, ,1, ,
0, ,1, ,
0, ,1, ,
0, ,1, ,
0, ,1, ,
0, ,1, ,
0, ,1, ,
0, ,1, ,
0, ,1, ,
0, ,1, ,
0, ,1, ,
0, ,1, ,
0, ,1, ,
0, ,1, ,
0, ,1, ,
0, ,1, ,
0, ,1, ,
0, ,1, ,
0, ,1, ,
0, ,1, ,
0, ,1, ,
0, ,1, ,
0, ,1, ,
0, ,1, ,
0, ,1, ,
0, ,1, ,
0, ,1, ,
0, ,1, ,
0, ,1, ,
0, ,1, ,
0, ,1, ,
0, ,1, ,
0, ,1, ,
0, ,1, ,
0, ,1, ,
0, ,1, ,
0, ,1, ,
0, ,1, ,
0, ,1, ,
0, ,1, ,
0, ,1, ,
0, ,1, ,
0, ,1, ,
0, ,1, ,
0, ,1, ,
0, ,1, ,
0, ,1, ,
0, ,1, ,
7, ,1, ,
101, ,1, ,
127, ,1, ,
127, ,1, ,
127, ,1, ,
127, ,1, ,
76, ,1, ,
35, ,1, ,
13, ,1, ,
0, ,1, ,
-6, ,1, ,
-9, ,1, ,
-10, ,1, ,
-9, ,1, ,
-9, ,1, ,
-7, ,1, ,
-6, ,1, ,
-5, ,1, ,
-4, ,1, ,
-2, ,1, ,
-2, ,1, ,
-2, ,1, ,
-2, ,1, ,
-1, ,1, ,
-1, ,1, ,
0, ,1, ,
-4, ,1, ,
0, ,1, ,
-6, ,1, ,
0, ,1, ,
-1, ,1, ,
0, ,1, ,
-1, ,1, ,
-1, ,1, ,
-5, ,1, ,
-7, ,1, ,
-24, ,1, ,
-60, ,1, ,
-78, ,1, ,
-99, ,1, ,
-44, ,1, ,
-12, ,1, ,
-9, ,1, ,
-11, ,1, ,
-37, ,1, ,
-66, ,1, ,
-50, ,1, ,
-80, ,1, ,
-51, ,1, ,
-77, ,1, ,
-54, ,1, ,
-65, ,1, ,
-28, ,1, ,
-24, ,1, ,
1, ,1, ,
10, ,1, ,
17, ,1, ,
11, ,1, ,
-10, ,1, ,
-33, ,1, ,
-67, ,1, ,
-82, ,1, ,
-73, ,1, ,
-55, ,1, ,
-13, ,1, ,
5, ,1, ,
