raw_data/0% Glycerol, Impulsion 0.5Hz, Sonde 5MHz, Rampe 0.7Hz/temp0000316.CSV

Format,1.0B,
Memory Length,10000,Memory Length,10000,
IntpDistance,0,IntpDistance,0,
Trigger Address,2029,Trigger Address,2029,
Trigger Level,2.720E-01,Trigger Level,2.720E-01,
Source,CH1,Source,CH2,
Vertical Units,V,Vertical Units,V,
Vertical Units Div,0,Vertical Units Div,0,
Vertical Units Extend Div,16,Vertical Units Extend Div,16,
Label,,Label,,
Probe Type,0,Probe Type,0,
Probe Ratio,1.000e+00,Probe Ratio,1.000e+00,
Vertical Scale,1.000e-01,Vertical Scale,2.000e+00,
Vertical Position,0.000e+00,Vertical Position,0.000e+00,
Horizontal Units,S,Horizontal Units,S,
Horizontal Scale,5.000E-05,Horizontal Scale,5.000E-05,
Horizontal Position,1.485E-04,Horizontal Position,1.485E-04,
Horizontal Mode,Main,Horizontal Mode,Main,
SincET Mode,Real Time,SincET Mode,Real Time,
Sampling Period,5.000e-08,Sampling Period,5.000e-08,
Horizontal Old Scale,5.000E-05,Horizontal Old Scale,5.000E-05,
Horizontal Old Position,1.485E-04,Horizontal Old Position,1.485E-04,
Firmware,V1.32,Firmware,V1.32,
Mode,Fast,Mode,Fast,
Waveform Data,,Waveform Data,,
0, ,6, ,
0, ,6, ,
0, ,6, ,
0, ,6, ,
0, ,6, ,
0, ,6, ,
0, ,6, ,
0, ,6, ,
0, ,6, ,
0, ,6, ,
0, ,6, ,
0, ,6, ,
0, ,6, ,
0, ,6, ,
0, ,6, ,
0, ,6, ,
0, ,6, ,
0, ,6, ,
0, ,7, ,
0, ,6, ,
0, ,6, ,
0, ,6, ,
0, ,6, ,
0, ,6, ,
0, ,6, ,
0, ,6, ,
0, ,6, ,
0, ,6, ,
0, ,6, ,
0, ,6, ,
0, ,6, ,
0, ,6, ,
0, ,6, ,
0, ,6, ,
0, ,6, ,
0, ,6, ,
0, ,6, ,
0, ,6, ,
0, ,6, ,
0, ,6, ,
0, ,6, ,
0, ,6, ,
0, ,6, ,
0, ,6, ,
0, ,7, ,
0, ,6, ,
0, ,6, ,
0, ,6, ,
0, ,6, ,
0, ,6, ,
0, ,6, ,
0, ,6, ,
0, ,6, ,
0, ,6, ,
0, ,6, ,
0, ,6, ,
0, ,6, ,
0, ,6, ,
0, ,6, ,
0, ,6, ,
0, ,6, ,
0, ,6, ,
0, ,6, ,
0, ,6, ,
0, ,6, ,
0, ,7, ,
0, ,6, ,
0, ,6, ,
0, ,6, ,
0, ,6, ,
0, ,6, ,
0, ,6, ,
0, ,6, ,
0, ,6, ,
0, ,6, ,
0, ,6, ,
0, ,7, ,
0, ,6, ,
0, ,6, ,
0, ,6, ,
0, ,6, ,
0, ,6, ,
0, ,6, ,
0, ,6, ,
0, ,6, ,
0, ,6, ,
0, ,6, ,
0, ,6, ,
0, ,6, ,
0, ,6, ,
0, ,6, ,
0, ,6, ,
0, ,6, ,
0, ,6, ,
0, ,6, ,
0, ,6, ,
0, ,6, ,
0, ,6, ,
0, ,6, ,
0, ,6, ,
0, ,6, ,
0, ,6, ,
0, ,6, ,
0, ,6, ,
0, ,6, ,
0, ,6, ,
0, ,6, ,
0, ,6, ,
0, ,6, ,
0, ,6, ,
-1, ,6, ,
0, ,6, ,
0, ,6, ,
0, ,6, ,
0, ,6, ,
0, ,6, ,
0, ,6, ,
0, ,6, ,
0, ,6, ,
0, ,6, ,
0, ,6, ,
0, ,6, ,
0, ,6, ,
0, ,6, ,
-1, ,6, ,
0, ,6, ,
0, ,6, ,
0, ,6, ,
0, ,6, ,
0, ,6, ,
0, ,6, ,
0, ,6, ,
0, ,6, ,
0, ,6, ,
0, ,6, ,
0, ,6, ,
0, ,6, ,
0, ,6, ,
0, ,6, ,
0, ,6, ,
0, ,6, ,
0, ,6, ,
0, ,6, ,
0, ,6, ,
0, ,6, ,
0, ,6, ,
0, ,6, ,
0, ,6, ,
0, ,6, ,
0, ,6, ,
0, ,6, ,
0, ,6, ,
0, ,6, ,
0, ,6, ,
0, ,6, ,
0, ,6, ,
0, ,6, ,
0, ,6, ,
0, ,6, ,
0, ,6, ,
0, ,6, ,
0, ,6, ,
0, ,6, ,
0, ,6, ,
0, ,6, ,
0, ,6, ,
0, ,6, ,
0, ,6, ,
0, ,6, ,
0, ,6, ,
0, ,6, ,
0, ,6, ,
0, ,6, ,
0, ,6, ,
0, ,6, ,
0, ,6, ,
0, ,6, ,
0, ,6, ,
0, ,6, ,
0, ,7, ,
0, ,6, ,
0, ,6, ,
0, ,6, ,
0, ,6, ,
0, ,6, ,
0, ,6, ,
0, ,6, ,
0, ,6, ,
0, ,6, ,
0, ,6, ,
0, ,6, ,
0, ,6, ,
0, ,6, ,
0, ,6, ,
0, ,6, ,
0, ,6, ,
0, ,6, ,
0, ,6, ,
0, ,6, ,
0, ,6, ,
0, ,6, ,
0, ,6, ,
0, ,6, ,
0, ,6, ,
0, ,6, ,
0, ,6, ,
0, ,6, ,
0, ,6, ,
0, ,6, ,
0, ,6, ,
0, ,7, ,
0, ,6, ,
0, ,6, ,
0, ,6, ,
0, ,6, ,
0, ,6, ,
0, ,6, ,
0, ,6, ,
0, ,6, ,
0, ,6, ,
0, ,6, ,
0, ,6, ,
0, ,6, ,
0, ,6, ,
0, ,6, ,
0, ,6, ,
0, ,6, ,
0, ,6, ,
0, ,6, ,
0, ,6, ,
0, ,7, ,
0, ,6, ,
0, ,6, ,
0, ,6, ,
0, ,6, ,
0, ,6, ,
0, ,6, ,
0, ,6, ,
0, ,6, ,
0, ,6, ,
0, ,6, ,
0, ,6, ,
0, ,6, ,
0, ,6, ,
0, ,6, ,
0, ,6, ,
0, ,6, ,
0, ,6, ,
0, ,6, ,
0, ,6, ,
0, ,6, ,
0, ,6, ,
0, ,7, ,
0, ,6, ,
0, ,6, ,
0, ,6, ,
0, ,6, ,
0, ,6, ,
0, ,6, ,
0, ,6, ,
0, ,6, ,
0, ,6, ,
0, ,6, ,
0, ,6, ,
0, ,6, ,
0, ,6, ,
0, ,6, ,
0, ,6, ,
0, ,6, ,
0, ,6, ,
0, ,6, ,
0, ,6, ,
0, ,6, ,
0, ,6, ,
0, ,7, ,
0, ,6, ,
0, ,6, ,
0, ,6, ,
0, ,6, ,
0, ,6, ,
0, ,6, ,
0, ,6, ,
0, ,6, ,
0, ,6, ,
0, ,6, ,
0, ,6, ,
0, ,6, ,
0, ,6, ,
0, ,6, ,
0, ,6, ,
0, ,6, ,
0, ,6, ,
0, ,6, ,
0, ,6, ,
0, ,6, ,
0, ,6, ,
0, ,6, ,
0, ,6, ,
0, ,6, ,
0, ,6, ,
-1, ,6, ,
0, ,7, ,
0, ,6, ,
0, ,6, ,
0, ,6, ,
0, ,6, ,
0, ,6, ,
0, ,6, ,
0, ,6, ,
0, ,6, ,
0, ,6, ,
0, ,6, ,
0, ,6, ,
0, ,6, ,
0, ,6, ,
0, ,6, ,
0, ,7, ,
0, ,6, ,
0, ,6, ,
0, ,6, ,
0, ,6, ,
0, ,6, ,
0, ,7, ,
0, ,6, ,
0, ,6, ,
0, ,6, ,
0, ,6, ,
0, ,6, ,
0, ,6, ,
0, ,6, ,
0, ,6, ,
0, ,7, ,
0, ,6, ,
0, ,6, ,
0, ,6, ,
0, ,6, ,
0, ,6, ,
0, ,6, ,
0, ,6, ,
0, ,6, ,
0, ,6, ,
0, ,6, ,
0, ,6, ,
0, ,6, ,
0, ,6, ,
0, ,6, ,
0, ,6, ,
0, ,6, ,
0, ,6, ,
0, ,6, ,
0, ,6, ,
0, ,6, ,
0, ,6, ,
0, ,6, ,
0, ,6, ,
0, ,6, ,
0, ,6, ,
0, ,6, ,
0, ,6, ,
-1, ,6, ,
0, ,7, ,
0, ,6, ,
0, ,6, ,
0, ,6, ,
0, ,6, ,
0, ,6, ,
0, ,6, ,
0, ,6, ,
0, ,6, ,
0, ,6, ,
0, ,6, ,
0, ,6, ,
0, ,6, ,
0, ,6, ,
0, ,6, ,
0, ,6, ,
0, ,6, ,
-1, ,6, ,
0, ,6, ,
0, ,6, ,
0, ,6, ,
0, ,6, ,
0, ,6, ,
0, ,6, ,
0, ,6, ,
0, ,6, ,
0, ,6, ,
0, ,6, ,
0, ,6, ,
0, ,6, ,
0, ,6, ,
0, ,6, ,
0, ,6, ,
0, ,6, ,
0, ,6, ,
0, ,6, ,
0, ,6, ,
0, ,6, ,
0, ,6, ,
0, ,6, ,
0, ,6, ,
0, ,6, ,
0, ,6, ,
0, ,6, ,
0, ,6, ,
0, ,6, ,
0, ,6, ,
0, ,6, ,
0, ,6, ,
0, ,6, ,
0, ,6, ,
0, ,6, ,
0, ,6, ,
0, ,6, ,
0, ,6, ,
0, ,6, ,
0, ,7, ,
0, ,6, ,
0, ,6, ,
0, ,6, ,
0, ,6, ,
0, ,6, ,
0, ,6, ,
0, ,6, ,
0, ,6, ,
0, ,6, ,
0, ,6, ,
0, ,6, ,
0, ,6, ,
0, ,6, ,
0, ,6, ,
0, ,6, ,
0, ,6, ,
0, ,6, ,
0, ,7, ,
0, ,6, ,
0, ,6, ,
0, ,6, ,
0, ,6, ,
0, ,6, ,
0, ,6, ,
0, ,6, ,
0, ,6, ,
0, ,6, ,
0, ,6, ,
0, ,6, ,
0, ,6, ,
0, ,6, ,
0, ,6, ,
0, ,6, ,
0, ,6, ,
0, ,6, ,
0, ,6, ,
0, ,6, ,
0, ,6, ,
0, ,6, ,
0, ,6, ,
0, ,6, ,
0, ,6, ,
0, ,6, ,
0, ,6, ,
0, ,6, ,
0, ,6, ,
0, ,6, ,
0, ,6, ,
0, ,6, ,
0, ,6, ,
0, ,6, ,
0, ,6, ,
0, ,6, ,
0, ,6, ,
0, ,6, ,
0, ,6, ,
0, ,6, ,
0, ,6, ,
0, ,6, ,
0, ,6, ,
0, ,6, ,
0, ,6, ,
0, ,6, ,
0, ,6, ,
0, ,7, ,
0, ,6, ,
0, ,6, ,
0, ,6, ,
0, ,6, ,
0, ,6, ,
0, ,6, ,
0, ,6, ,
0, ,6, ,
0, ,6, ,
0, ,6, ,
0, ,6, ,
0, ,6, ,
0, ,6, ,
0, ,6, ,
0, ,6, ,
0, ,6, ,
0, ,6, ,
0, ,6, ,
0, ,6, ,
0, ,6, ,
0, ,6, ,
0, ,6, ,
0, ,6, ,
0, ,6, ,
0, ,6, ,
0, ,6, ,
0, ,6, ,
0, ,6, ,
0, ,6, ,
0, ,6, ,
0, ,6, ,
0, ,6, ,
0, ,6, ,
0, ,6, ,
0, ,6, ,
0, ,6, ,
0, ,6, ,
0, ,6, ,
0, ,6, ,
0, ,6, ,
0, ,6, ,
0, ,6, ,
0, ,6, ,
0, ,6, ,
0, ,6, ,
0, ,6, ,
0, ,6, ,
0, ,6, ,
0, ,6, ,
0, ,6, ,
0, ,6, ,
0, ,6, ,
0, ,6, ,
0, ,6, ,
0, ,6, ,
0, ,6, ,
0, ,6, ,
0, ,6, ,
0, ,6, ,
0, ,6, ,
0, ,6, ,
0, ,6, ,
0, ,6, ,
0, ,6, ,
0, ,6, ,
0, ,6, ,
0, ,6, ,
0, ,6, ,
0, ,6, ,
0, ,6, ,
0, ,6, ,
0, ,6, ,
0, ,6, ,
0, ,6, ,
0, ,6, ,
0, ,6, ,
0, ,6, ,
0, ,6, ,
0, ,6, ,
0, ,6, ,
0, ,6, ,
0, ,6, ,
0, ,6, ,
0, ,6, ,
0, ,6, ,
0, ,6, ,
0, ,6, ,
0, ,6, ,
0, ,6, ,
0, ,6, ,
0, ,6, ,
0, ,6, ,
0, ,6, ,
0, ,6, ,
0, ,6, ,
0, ,6, ,
0, ,6, ,
0, ,6, ,
0, ,6, ,
0, ,6, ,
0, ,6, ,
0, ,6, ,
0, ,6, ,
0, ,6, ,
0, ,6, ,
0, ,6, ,
0, ,6, ,
0, ,6, ,
0, ,6, ,
0, ,6, ,
0, ,6, ,
0, ,6, ,
0, ,6, ,
0, ,6, ,
0, ,6, ,
0, ,6, ,
0, ,7, ,
0, ,6, ,
0, ,6, ,
0, ,6, ,
0, ,6, ,
0, ,6, ,
0, ,6, ,
0, ,6, ,
0, ,6, ,
0, ,6, ,
0, ,6, ,
0, ,6, ,
0, ,6, ,
0, ,6, ,
0, ,6, ,
0, ,6, ,
0, ,6, ,
0, ,6, ,
0, ,6, ,
0, ,6, ,
0, ,6, ,
0, ,6, ,
0, ,6, ,
0, ,6, ,
0, ,6, ,
0, ,6, ,
0, ,6, ,
0, ,6, ,
0, ,6, ,
0, ,6, ,
0, ,6, ,
0, ,6, ,
0, ,6, ,
0, ,6, ,
0, ,6, ,
0, ,6, ,
0, ,6, ,
0, ,6, ,
0, ,6, ,
0, ,6, ,
0, ,6, ,
0, ,6, ,
0, ,6, ,
0, ,6, ,
0, ,6, ,
0, ,6, ,
0, ,6, ,
0, ,6, ,
0, ,6, ,
0, ,6, ,
0, ,6, ,
0, ,6, ,
0, ,6, ,
0, ,6, ,
0, ,6, ,
0, ,6, ,
0, ,6, ,
0, ,6, ,
0, ,6, ,
0, ,6, ,
0, ,6, ,
0, ,6, ,
0, ,6, ,
0, ,6, ,
0, ,6, ,
0, ,6, ,
0, ,6, ,
0, ,6, ,
0, ,6, ,
0, ,6, ,
0, ,6, ,
0, ,6, ,
0, ,6, ,
0, ,6, ,
0, ,6, ,
0, ,6, ,
0, ,6, ,
0, ,6, ,
0, ,6, ,
0, ,6, ,
0, ,6, ,
0, ,6, ,
0, ,6, ,
0, ,6, ,
0, ,6, ,
0, ,6, ,
0, ,6, ,
0, ,6, ,
0, ,6, ,
0, ,6, ,
0, ,6, ,
0, ,6, ,
0, ,6, ,
0, ,6, ,
0, ,6, ,
0, ,6, ,
0, ,6, ,
0, ,6, ,
0, ,6, ,
0, ,6, ,
0, ,6, ,
0, ,6, ,
0, ,6, ,
0, ,6, ,
0, ,6, ,
0, ,6, ,
0, ,6, ,
0, ,6, ,
0, ,6, ,
0, ,6, ,
0, ,6, ,
0, ,6, ,
0, ,6, ,
0, ,6, ,
0, ,6, ,
0, ,7, ,
0, ,6, ,
0, ,6, ,
0, ,6, ,
0, ,6, ,
0, ,6, ,
0, ,6, ,
0, ,6, ,
0, ,6, ,
0, ,6, ,
0, ,6, ,
0, ,6, ,
0, ,6, ,
0, ,6, ,
0, ,6, ,
0, ,6, ,
0, ,6, ,
0, ,6, ,
0, ,6, ,
0, ,6, ,
0, ,6, ,
0, ,6, ,
0, ,6, ,
0, ,6, ,
0, ,6, ,
0, ,6, ,
0, ,6, ,
0, ,6, ,
0, ,6, ,
0, ,6, ,
0, ,6, ,
0, ,6, ,
0, ,6, ,
0, ,6, ,
0, ,6, ,
0, ,6, ,
0, ,6, ,
0, ,6, ,
0, ,6, ,
0, ,6, ,
0, ,6, ,
0, ,6, ,
0, ,6, ,
0, ,6, ,
0, ,6, ,
0, ,6, ,
0, ,6, ,
0, ,6, ,
0, ,6, ,
0, ,6, ,
0, ,6, ,
0, ,6, ,
0, ,6, ,
0, ,7, ,
0, ,6, ,
0, ,6, ,
0, ,6, ,
0, ,6, ,
0, ,6, ,
0, ,6, ,
0, ,6, ,
0, ,6, ,
0, ,6, ,
0, ,6, ,
0, ,6, ,
0, ,6, ,
0, ,6, ,
0, ,6, ,
0, ,6, ,
0, ,6, ,
0, ,6, ,
0, ,6, ,
0, ,6, ,
0, ,6, ,
0, ,6, ,
0, ,6, ,
0, ,6, ,
0, ,6, ,
0, ,6, ,
0, ,6, ,
0, ,6, ,
0, ,6, ,
0, ,6, ,
0, ,6, ,
0, ,6, ,
0, ,6, ,
0, ,6, ,
0, ,6, ,
0, ,6, ,
0, ,6, ,
0, ,6, ,
0, ,6, ,
0, ,6, ,
0, ,6, ,
0, ,6, ,
0, ,6, ,
0, ,6, ,
0, ,6, ,
0, ,6, ,
0, ,6, ,
0, ,6, ,
0, ,6, ,
-1, ,6, ,
0, ,6, ,
0, ,6, ,
0, ,6, ,
0, ,6, ,
0, ,6, ,
0, ,6, ,
0, ,6, ,
0, ,6, ,
0, ,6, ,
0, ,6, ,
0, ,6, ,
0, ,6, ,
0, ,6, ,
0, ,6, ,
0, ,6, ,
0, ,6, ,
0, ,6, ,
0, ,6, ,
0, ,6, ,
0, ,6, ,
0, ,6, ,
0, ,6, ,
0, ,6, ,
0, ,6, ,
0, ,6, ,
0, ,7, ,
0, ,6, ,
0, ,6, ,
0, ,6, ,
0, ,7, ,
0, ,6, ,
0, ,6, ,
0, ,6, ,
0, ,6, ,
0, ,6, ,
0, ,6, ,
0, ,6, ,
0, ,6, ,
0, ,6, ,
-1, ,6, ,
0, ,6, ,
0, ,6, ,
0, ,6, ,
0, ,6, ,
0, ,6, ,
0, ,6, ,
0, ,6, ,
0, ,6, ,
0, ,6, ,
0, ,6, ,
0, ,7, ,
0, ,6, ,
0, ,6, ,
0, ,6, ,
0, ,6, ,
0, ,6, ,
0, ,6, ,
0, ,6, ,
0, ,6, ,
0, ,6, ,
0, ,6, ,
0, ,6, ,
0, ,7, ,
0, ,6, ,
0, ,6, ,
0, ,6, ,
0, ,6, ,
0, ,6, ,
0, ,6, ,
0, ,6, ,
0, ,6, ,
0, ,6, ,
0, ,6, ,
0, ,6, ,
0, ,6, ,
0, ,6, ,
0, ,6, ,
0, ,6, ,
0, ,6, ,
0, ,6, ,
0, ,6, ,
0, ,6, ,
0, ,6, ,
0, ,6, ,
0, ,6, ,
0, ,6, ,
0, ,6, ,
0, ,6, ,
0, ,6, ,
0, ,6, ,
0, ,6, ,
0, ,6, ,
0, ,6, ,
0, ,6, ,
0, ,6, ,
0, ,6, ,
0, ,6, ,
0, ,6, ,
0, ,6, ,
0, ,6, ,
0, ,6, ,
0, ,6, ,
0, ,6, ,
0, ,6, ,
0, ,6, ,
0, ,6, ,
0, ,6, ,
0, ,6, ,
0, ,6, ,
0, ,6, ,
0, ,6, ,
0, ,6, ,
0, ,6, ,
0, ,6, ,
0, ,6, ,
0, ,6, ,
0, ,6, ,
0, ,6, ,
0, ,6, ,
0, ,6, ,
0, ,6, ,
0, ,6, ,
0, ,6, ,
0, ,6, ,
0, ,6, ,
0, ,6, ,
0, ,7, ,
0, ,6, ,
0, ,6, ,
0, ,6, ,
0, ,6, ,
0, ,6, ,
0, ,6, ,
0, ,6, ,
0, ,6, ,
-1, ,6, ,
0, ,6, ,
0, ,6, ,
0, ,6, ,
0, ,6, ,
0, ,6, ,
0, ,6, ,
0, ,6, ,
0, ,6, ,
0, ,6, ,
0, ,6, ,
0, ,6, ,
0, ,6, ,
0, ,6, ,
0, ,6, ,
0, ,6, ,
0, ,6, ,
0, ,6, ,
0, ,6, ,
0, ,6, ,
0, ,6, ,
0, ,6, ,
0, ,6, ,
0, ,6, ,
0, ,6, ,
0, ,6, ,
0, ,7, ,
0, ,6, ,
0, ,6, ,
0, ,6, ,
0, ,6, ,
0, ,6, ,
0, ,6, ,
0, ,6, ,
0, ,6, ,
0, ,6, ,
0, ,6, ,
0, ,6, ,
0, ,6, ,
0, ,6, ,
0, ,6, ,
0, ,6, ,
0, ,6, ,
0, ,6, ,
0, ,6, ,
0, ,6, ,
0, ,6, ,
0, ,6, ,
0, ,6, ,
0, ,6, ,
0, ,6, ,
0, ,6, ,
0, ,6, ,
0, ,6, ,
0, ,6, ,
0, ,6, ,
0, ,6, ,
0, ,6, ,
0, ,6, ,
0, ,6, ,
0, ,6, ,
0, ,6, ,
0, ,6, ,
0, ,6, ,
0, ,6, ,
0, ,6, ,
0, ,6, ,
0, ,6, ,
0, ,6, ,
0, ,6, ,
0, ,6, ,
0, ,6, ,
0, ,6, ,
0, ,6, ,
0, ,6, ,
0, ,6, ,
0, ,6, ,
0, ,6, ,
0, ,6, ,
0, ,6, ,
0, ,6, ,
0, ,6, ,
0, ,6, ,
0, ,6, ,
0, ,6, ,
0, ,6, ,
0, ,6, ,
0, ,6, ,
0, ,6, ,
0, ,6, ,
0, ,6, ,
0, ,6, ,
0, ,6, ,
0, ,6, ,
0, ,6, ,
0, ,6, ,
0, ,6, ,
0, ,6, ,
0, ,6, ,
0, ,6, ,
0, ,6, ,
0, ,6, ,
0, ,6, ,
0, ,6, ,
0, ,6, ,
0, ,6, ,
0, ,6, ,
0, ,6, ,
0, ,6, ,
0, ,6, ,
0, ,6, ,
0, ,6, ,
0, ,6, ,
0, ,6, ,
0, ,7, ,
0, ,6, ,
0, ,6, ,
0, ,6, ,
0, ,6, ,
0, ,6, ,
0, ,6, ,
0, ,6, ,
0, ,6, ,
0, ,6, ,
0, ,6, ,
0, ,6, ,
0, ,6, ,
0, ,6, ,
0, ,6, ,
0, ,6, ,
0, ,6, ,
0, ,6, ,
0, ,6, ,
0, ,6, ,
0, ,6, ,
0, ,6, ,
0, ,6, ,
0, ,6, ,
0, ,6, ,
0, ,6, ,
0, ,6, ,
0, ,6, ,
0, ,6, ,
0, ,6, ,
0, ,6, ,
0, ,6, ,
0, ,6, ,
0, ,6, ,
0, ,6, ,
0, ,6, ,
0, ,6, ,
0, ,6, ,
0, ,6, ,
0, ,6, ,
0, ,6, ,
0, ,6, ,
0, ,6, ,
0, ,6, ,
0, ,6, ,
0, ,6, ,
0, ,6, ,
0, ,6, ,
0, ,6, ,
0, ,6, ,
0, ,6, ,
0, ,6, ,
0, ,6, ,
0, ,6, ,
0, ,6, ,
0, ,6, ,
0, ,6, ,
0, ,6, ,
0, ,6, ,
0, ,6, ,
0, ,6, ,
0, ,6, ,
0, ,6, ,
0, ,6, ,
0, ,6, ,
0, ,6, ,
0, ,6, ,
0, ,6, ,
0, ,6, ,
0, ,6, ,
0, ,6, ,
0, ,6, ,
0, ,6, ,
0, ,6, ,
0, ,6, ,
0, ,6, ,
0, ,6, ,
0, ,6, ,
0, ,6, ,
0, ,6, ,
0, ,6, ,
0, ,6, ,
0, ,6, ,
0, ,6, ,
0, ,6, ,
0, ,6, ,
0, ,6, ,
0, ,6, ,
0, ,6, ,
0, ,6, ,
0, ,6, ,
0, ,6, ,
0, ,6, ,
0, ,6, ,
0, ,6, ,
0, ,6, ,
0, ,7, ,
0, ,6, ,
0, ,6, ,
0, ,6, ,
0, ,6, ,
0, ,6, ,
0, ,6, ,
0, ,6, ,
0, ,6, ,
0, ,6, ,
0, ,6, ,
0, ,6, ,
0, ,6, ,
0, ,6, ,
0, ,6, ,
0, ,6, ,
0, ,6, ,
0, ,6, ,
0, ,6, ,
0, ,6, ,
0, ,6, ,
0, ,6, ,
0, ,6, ,
0, ,6, ,
0, ,6, ,
0, ,6, ,
0, ,6, ,
0, ,6, ,
0, ,6, ,
0, ,6, ,
0, ,6, ,
0, ,6, ,
0, ,6, ,
0, ,6, ,
0, ,6, ,
0, ,6, ,
0, ,6, ,
0, ,6, ,
0, ,6, ,
0, ,6, ,
0, ,6, ,
0, ,6, ,
0, ,7, ,
0, ,6, ,
0, ,6, ,
0, ,6, ,
0, ,6, ,
0, ,6, ,
0, ,6, ,
0, ,6, ,
0, ,6, ,
0, ,6, ,
0, ,6, ,
0, ,6, ,
0, ,6, ,
0, ,6, ,
0, ,6, ,
0, ,6, ,
0, ,6, ,
0, ,6, ,
0, ,6, ,
0, ,6, ,
0, ,6, ,
0, ,6, ,
0, ,6, ,
0, ,6, ,
0, ,6, ,
0, ,6, ,
0, ,6, ,
0, ,6, ,
0, ,6, ,
0, ,6, ,
0, ,6, ,
0, ,6, ,
0, ,6, ,
0, ,6, ,
0, ,6, ,
0, ,6, ,
0, ,6, ,
0, ,6, ,
0, ,6, ,
0, ,6, ,
0, ,6, ,
0, ,6, ,
0, ,6, ,
0, ,6, ,
0, ,6, ,
0, ,6, ,
0, ,6, ,
0, ,6, ,
0, ,6, ,
0, ,6, ,
0, ,6, ,
0, ,6, ,
0, ,6, ,
0, ,6, ,
0, ,6, ,
0, ,6, ,
0, ,6, ,
0, ,6, ,
0, ,6, ,
0, ,6, ,
0, ,6, ,
0, ,6, ,
0, ,6, ,
0, ,6, ,
0, ,6, ,
0, ,6, ,
0, ,6, ,
0, ,6, ,
0, ,6, ,
0, ,6, ,
0, ,6, ,
0, ,6, ,
0, ,6, ,
0, ,6, ,
0, ,6, ,
0, ,6, ,
0, ,6, ,
0, ,6, ,
0, ,6, ,
0, ,6, ,
0, ,6, ,
0, ,6, ,
0, ,6, ,
0, ,6, ,
0, ,6, ,
0, ,6, ,
0, ,6, ,
0, ,6, ,
0, ,6, ,
0, ,6, ,
0, ,6, ,
0, ,6, ,
0, ,6, ,
0, ,6, ,
0, ,6, ,
0, ,7, ,
0, ,6, ,
0, ,6, ,
0, ,6, ,
0, ,6, ,
0, ,6, ,
0, ,6, ,
0, ,6, ,
0, ,6, ,
0, ,6, ,
0, ,6, ,
0, ,6, ,
0, ,6, ,
0, ,6, ,
0, ,6, ,
0, ,6, ,
0, ,6, ,
0, ,6, ,
0, ,7, ,
0, ,6, ,
0, ,6, ,
0, ,6, ,
0, ,6, ,
0, ,6, ,
0, ,6, ,
0, ,6, ,
0, ,6, ,
0, ,6, ,
0, ,6, ,
0, ,6, ,
0, ,6, ,
0, ,6, ,
0, ,6, ,
0, ,6, ,
0, ,7, ,
0, ,6, ,
0, ,6, ,
0, ,6, ,
0, ,6, ,
0, ,6, ,
0, ,6, ,
0, ,6, ,
0, ,6, ,
0, ,6, ,
0, ,7, ,
0, ,6, ,
0, ,6, ,
0, ,6, ,
0, ,6, ,
0, ,6, ,
0, ,7, ,
0, ,6, ,
0, ,6, ,
0, ,6, ,
0, ,6, ,
0, ,6, ,
0, ,6, ,
0, ,6, ,
0, ,6, ,
0, ,6, ,
0, ,6, ,
0, ,6, ,
0, ,6, ,
0, ,6, ,
0, ,6, ,
0, ,6, ,
0, ,7, ,
0, ,6, ,
0, ,6, ,
0, ,6, ,
0, ,6, ,
0, ,6, ,
0, ,6, ,
0, ,6, ,
0, ,6, ,
0, ,6, ,
0, ,6, ,
0, ,6, ,
0, ,6, ,
0, ,6, ,
0, ,6, ,
0, ,6, ,
0, ,6, ,
0, ,6, ,
0, ,6, ,
0, ,6, ,
0, ,6, ,
0, ,6, ,
0, ,6, ,
0, ,6, ,
0, ,6, ,
0, ,6, ,
0, ,6, ,
0, ,6, ,
0, ,6, ,
0, ,7, ,
0, ,6, ,
0, ,6, ,
0, ,6, ,
0, ,6, ,
0, ,6, ,
0, ,6, ,
0, ,6, ,
0, ,7, ,
0, ,6, ,
0, ,6, ,
0, ,6, ,
0, ,6, ,
0, ,6, ,
0, ,6, ,
0, ,6, ,
0, ,6, ,
0, ,6, ,
0, ,6, ,
0, ,6, ,
0, ,6, ,
0, ,6, ,
0, ,6, ,
0, ,6, ,
0, ,6, ,
0, ,6, ,
0, ,6, ,
0, ,6, ,
0, ,6, ,
0, ,7, ,
0, ,6, ,
0, ,6, ,
0, ,6, ,
0, ,6, ,
0, ,6, ,
0, ,6, ,
0, ,6, ,
0, ,6, ,
0, ,6, ,
0, ,6, ,
0, ,6, ,
0, ,6, ,
0, ,7, ,
0, ,6, ,
0, ,6, ,
0, ,6, ,
0, ,6, ,
0, ,6, ,
0, ,6, ,
0, ,6, ,
0, ,6, ,
0, ,7, ,
0, ,6, ,
0, ,6, ,
0, ,6, ,
0, ,6, ,
0, ,6, ,
0, ,6, ,
0, ,6, ,
0, ,6, ,
0, ,6, ,
0, ,6, ,
0, ,6, ,
0, ,6, ,
0, ,6, ,
0, ,6, ,
0, ,6, ,
0, ,6, ,
0, ,6, ,
0, ,6, ,
0, ,6, ,
0, ,6, ,
0, ,6, ,
0, ,6, ,
0, ,6, ,
0, ,6, ,
0, ,6, ,
0, ,6, ,
0, ,6, ,
0, ,6, ,
0, ,6, ,
0, ,6, ,
0, ,6, ,
0, ,6, ,
0, ,6, ,
0, ,6, ,
0, ,6, ,
0, ,6, ,
0, ,6, ,
0, ,6, ,
0, ,6, ,
0, ,6, ,
0, ,6, ,
0, ,6, ,
0, ,6, ,
0, ,6, ,
0, ,6, ,
0, ,6, ,
0, ,6, ,
0, ,6, ,
0, ,6, ,
0, ,6, ,
0, ,6, ,
0, ,6, ,
0, ,6, ,
0, ,6, ,
0, ,6, ,
-1, ,6, ,
0, ,6, ,
0, ,6, ,
0, ,6, ,
0, ,6, ,
0, ,6, ,
0, ,6, ,
0, ,6, ,
0, ,6, ,
0, ,6, ,
0, ,6, ,
0, ,6, ,
0, ,6, ,
0, ,6, ,
0, ,6, ,
0, ,6, ,
0, ,6, ,
0, ,6, ,
0, ,6, ,
0, ,6, ,
0, ,6, ,
0, ,6, ,
0, ,7, ,
0, ,6, ,
0, ,6, ,
0, ,6, ,
0, ,6, ,
0, ,6, ,
0, ,6, ,
0, ,6, ,
0, ,6, ,
0, ,6, ,
0, ,6, ,
0, ,6, ,
0, ,6, ,
0, ,6, ,
0, ,6, ,
0, ,6, ,
0, ,6, ,
0, ,6, ,
0, ,6, ,
0, ,6, ,
0, ,6, ,
0, ,6, ,
0, ,6, ,
0, ,6, ,
0, ,6, ,
0, ,6, ,
0, ,6, ,
0, ,6, ,
0, ,6, ,
0, ,6, ,
0, ,6, ,
0, ,6, ,
0, ,6, ,
0, ,6, ,
0, ,6, ,
0, ,6, ,
0, ,6, ,
0, ,6, ,
0, ,6, ,
0, ,6, ,
0, ,6, ,
0, ,6, ,
0, ,6, ,
0, ,6, ,
0, ,6, ,
0, ,6, ,
0, ,6, ,
0, ,6, ,
0, ,6, ,
0, ,6, ,
0, ,6, ,
0, ,6, ,
0, ,6, ,
0, ,6, ,
0, ,6, ,
0, ,6, ,
0, ,6, ,
0, ,6, ,
0, ,6, ,
0, ,6, ,
0, ,6, ,
0, ,6, ,
0, ,6, ,
0, ,6, ,
0, ,6, ,
-1, ,6, ,
0, ,6, ,
0, ,6, ,
0, ,6, ,
0, ,6, ,
0, ,6, ,
0, ,7, ,
0, ,6, ,
0, ,6, ,
0, ,6, ,
0, ,6, ,
0, ,6, ,
0, ,6, ,
0, ,6, ,
0, ,6, ,
0, ,7, ,
0, ,6, ,
0, ,6, ,
0, ,7, ,
0, ,6, ,
0, ,6, ,
0, ,6, ,
0, ,6, ,
0, ,6, ,
0, ,6, ,
0, ,6, ,
0, ,6, ,
0, ,6, ,
0, ,6, ,
0, ,6, ,
0, ,6, ,
0, ,7, ,
0, ,6, ,
0, ,6, ,
0, ,6, ,
0, ,6, ,
0, ,6, ,
-1, ,6, ,
0, ,6, ,
0, ,6, ,
0, ,6, ,
0, ,6, ,
0, ,6, ,
0, ,6, ,
0, ,6, ,
0, ,6, ,
0, ,6, ,
0, ,6, ,
0, ,6, ,
0, ,6, ,
0, ,6, ,
0, ,6, ,
0, ,6, ,
0, ,6, ,
0, ,6, ,
0, ,6, ,
0, ,6, ,
0, ,6, ,
0, ,6, ,
0, ,6, ,
0, ,6, ,
0, ,6, ,
0, ,6, ,
0, ,7, ,
0, ,6, ,
0, ,6, ,
0, ,6, ,
0, ,6, ,
0, ,6, ,
0, ,6, ,
0, ,7, ,
0, ,6, ,
0, ,6, ,
0, ,6, ,
0, ,6, ,
0, ,6, ,
0, ,6, ,
0, ,6, ,
0, ,6, ,
0, ,6, ,
0, ,6, ,
0, ,6, ,
0, ,6, ,
0, ,6, ,
0, ,6, ,
0, ,6, ,
0, ,6, ,
0, ,6, ,
0, ,6, ,
0, ,6, ,
0, ,6, ,
0, ,6, ,
0, ,6, ,
0, ,6, ,
0, ,6, ,
0, ,6, ,
0, ,6, ,
0, ,6, ,
0, ,6, ,
0, ,6, ,
0, ,6, ,
0, ,6, ,
0, ,6, ,
0, ,6, ,
0, ,6, ,
0, ,6, ,
0, ,6, ,
0, ,6, ,
0, ,6, ,
0, ,7, ,
0, ,6, ,
0, ,6, ,
0, ,6, ,
0, ,6, ,
0, ,6, ,
0, ,6, ,
0, ,6, ,
0, ,6, ,
0, ,6, ,
0, ,7, ,
0, ,6, ,
0, ,6, ,
0, ,6, ,
0, ,6, ,
0, ,6, ,
0, ,6, ,
0, ,6, ,
0, ,6, ,
0, ,6, ,
0, ,6, ,
0, ,6, ,
0, ,6, ,
0, ,6, ,
0, ,6, ,
0, ,6, ,
0, ,7, ,
0, ,6, ,
0, ,6, ,
0, ,6, ,
0, ,6, ,
0, ,6, ,
0, ,6, ,
0, ,6, ,
0, ,6, ,
0, ,6, ,
0, ,6, ,
0, ,6, ,
0, ,6, ,
0, ,6, ,
0, ,6, ,
0, ,6, ,
0, ,6, ,
0, ,6, ,
0, ,7, ,
0, ,6, ,
0, ,6, ,
0, ,6, ,
0, ,6, ,
0, ,6, ,
0, ,6, ,
0, ,6, ,
0, ,6, ,
0, ,6, ,
0, ,6, ,
0, ,6, ,
0, ,6, ,
0, ,6, ,
0, ,6, ,
0, ,6, ,
0, ,6, ,
0, ,6, ,
0, ,6, ,
0, ,6, ,
0, ,6, ,
0, ,6, ,
0, ,6, ,
0, ,6, ,
0, ,6, ,
0, ,7, ,
0, ,7, ,
0, ,6, ,
0, ,6, ,
0, ,6, ,
0, ,6, ,
0, ,7, ,
0, ,6, ,
0, ,6, ,
0, ,6, ,
0, ,6, ,
0, ,6, ,
0, ,6, ,
0, ,6, ,
0, ,6, ,
0, ,6, ,
0, ,6, ,
0, ,6, ,
0, ,6, ,
0, ,6, ,
0, ,6, ,
0, ,6, ,
0, ,6, ,
0, ,6, ,
0, ,6, ,
0, ,6, ,
0, ,6, ,
0, ,6, ,
0, ,6, ,
0, ,6, ,
0, ,7, ,
0, ,6, ,
0, ,6, ,
0, ,6, ,
0, ,6, ,
0, ,6, ,
0, ,6, ,
0, ,6, ,
0, ,6, ,
0, ,6, ,
0, ,6, ,
0, ,6, ,
0, ,6, ,
0, ,6, ,
0, ,6, ,
0, ,7, ,
0, ,6, ,
0, ,6, ,
0, ,6, ,
0, ,6, ,
0, ,6, ,
0, ,6, ,
0, ,6, ,
0, ,6, ,
0, ,6, ,
0, ,6, ,
0, ,6, ,
0, ,6, ,
0, ,6, ,
0, ,6, ,
0, ,6, ,
0, ,6, ,
0, ,6, ,
0, ,6, ,
0, ,6, ,
0, ,6, ,
0, ,6, ,
0, ,6, ,
0, ,6, ,
0, ,6, ,
0, ,6, ,
0, ,6, ,
0, ,6, ,
0, ,6, ,
0, ,6, ,
0, ,6, ,
0, ,6, ,
0, ,6, ,
0, ,6, ,
0, ,6, ,
0, ,6, ,
0, ,6, ,
0, ,6, ,
0, ,6, ,
0, ,6, ,
0, ,6, ,
0, ,6, ,
0, ,6, ,
0, ,6, ,
0, ,6, ,
0, ,6, ,
0, ,6, ,
0, ,6, ,
0, ,6, ,
0, ,6, ,
0, ,6, ,
0, ,6, ,
0, ,6, ,
0, ,6, ,
0, ,6, ,
0, ,6, ,
0, ,6, ,
0, ,6, ,
0, ,6, ,
0, ,6, ,
0, ,6, ,
0, ,6, ,
0, ,6, ,
0, ,6, ,
0, ,6, ,
0, ,6, ,
0, ,6, ,
0, ,6, ,
0, ,6, ,
0, ,6, ,
0, ,6, ,
0, ,6, ,
0, ,6, ,
0, ,6, ,
0, ,6, ,
0, ,6, ,
0, ,6, ,
0, ,6, ,
0, ,6, ,
0, ,6, ,
0, ,7, ,
0, ,6, ,
0, ,6, ,
0, ,6, ,
0, ,6, ,
0, ,6, ,
0, ,6, ,
0, ,6, ,
0, ,6, ,
0, ,6, ,
0, ,6, ,
0, ,6, ,
0, ,6, ,
0, ,6, ,
0, ,6, ,
0, ,6, ,
0, ,6, ,
0, ,7, ,
0, ,6, ,
0, ,6, ,
0, ,6, ,
0, ,6, ,
0, ,6, ,
0, ,6, ,
0, ,6, ,
0, ,6, ,
0, ,6, ,
0, ,7, ,
0, ,7, ,
0, ,6, ,
0, ,6, ,
0, ,6, ,
0, ,6, ,
0, ,6, ,
0, ,6, ,
0, ,6, ,
0, ,6, ,
0, ,6, ,
0, ,6, ,
0, ,6, ,
0, ,6, ,
0, ,6, ,
0, ,6, ,
0, ,6, ,
0, ,6, ,
0, ,6, ,
0, ,6, ,
0, ,6, ,
0, ,6, ,
0, ,6, ,
0, ,6, ,
0, ,6, ,
0, ,6, ,
0, ,6, ,
0, ,6, ,
0, ,6, ,
0, ,6, ,
0, ,6, ,
0, ,6, ,
0, ,6, ,
0, ,6, ,
0, ,6, ,
0, ,6, ,
0, ,6, ,
0, ,6, ,
0, ,6, ,
0, ,6, ,
0, ,6, ,
0, ,6, ,
0, ,6, ,
0, ,6, ,
0, ,6, ,
0, ,6, ,
0, ,6, ,
0, ,6, ,
0, ,6, ,
0, ,6, ,
0, ,6, ,
0, ,6, ,
0, ,6, ,
0, ,6, ,
0, ,6, ,
-1, ,6, ,
0, ,6, ,
0, ,6, ,
0, ,6, ,
0, ,7, ,
0, ,6, ,
0, ,6, ,
0, ,6, ,
0, ,7, ,
0, ,6, ,
0, ,6, ,
0, ,6, ,
0, ,6, ,
0, ,7, ,
0, ,6, ,
0, ,6, ,
0, ,6, ,
0, ,6, ,
0, ,6, ,
0, ,6, ,
0, ,6, ,
0, ,6, ,
0, ,6, ,
0, ,6, ,
0, ,6, ,
0, ,6, ,
0, ,6, ,
0, ,6, ,
0, ,6, ,
0, ,6, ,
0, ,6, ,
0, ,6, ,
0, ,6, ,
0, ,6, ,
0, ,6, ,
0, ,6, ,
0, ,6, ,
0, ,6, ,
0, ,7, ,
0, ,6, ,
0, ,6, ,
0, ,6, ,
0, ,6, ,
0, ,6, ,
0, ,6, ,
0, ,6, ,
0, ,6, ,
0, ,6, ,
0, ,6, ,
0, ,6, ,
0, ,6, ,
0, ,6, ,
0, ,6, ,
0, ,6, ,
0, ,6, ,
0, ,6, ,
0, ,6, ,
4, ,6, ,
127, ,6, ,
127, ,6, ,
127, ,6, ,
127, ,6, ,
121, ,6, ,
67, ,6, ,
30, ,6, ,
11, ,6, ,
-1, ,6, ,
-7, ,6, ,
-9, ,6, ,
-10, ,6, ,
-9, ,7, ,
-9, ,6, ,
-6, ,6, ,
-5, ,6, ,
-5, ,6, ,
-4, ,6, ,
-2, ,6, ,
-2, ,7, ,
-2, ,6, ,
-2, ,6, ,
-1, ,6, ,
-2, ,6, ,
-1, ,6, ,
-4, ,6, ,
-2, ,6, ,
-5, ,6, ,
0, ,6, ,
0, ,7, ,
-1, ,6, ,
-1, ,6, ,
-2, ,6, ,
-4, ,6, ,
-12, ,6, ,
-21, ,6, ,
-82, ,6, ,
-66, ,6, ,
-100, ,6, ,
-35, ,6, ,
-18, ,6, ,
-2, ,6, ,
-20, ,7, ,
-30, ,6, ,
-67, ,7, ,
-55, ,6, ,
-74, ,6, ,
-60, ,6, ,
-74, ,6, ,
-52, ,6, ,
-60, ,6, ,
-22, ,6, ,
-20, ,7, ,
7, ,6, ,
10, ,6, ,
15, ,6, ,
9, ,6, ,
-16, ,6, ,
-38, ,6, ,
-72, ,6, ,
-79, ,6, ,
-71, ,6, ,
-48, ,6, ,
-12, ,6, ,
