raw_data/0% Glycerol, Impulsion 0.5Hz, Sonde 5MHz, Rampe 0.7Hz/temp0000254.CSV

Format,1.0B,
Memory Length,10000,Memory Length,10000,
IntpDistance,0,IntpDistance,0,
Trigger Address,2029,Trigger Address,2029,
Trigger Level,2.720E-01,Trigger Level,2.720E-01,
Source,CH1,Source,CH2,
Vertical Units,V,Vertical Units,V,
Vertical Units Div,0,Vertical Units Div,0,
Vertical Units Extend Div,16,Vertical Units Extend Div,16,
Label,,Label,,
Probe Type,0,Probe Type,0,
Probe Ratio,1.000e+00,Probe Ratio,1.000e+00,
Vertical Scale,1.000e-01,Vertical Scale,2.000e+00,
Vertical Position,0.000e+00,Vertical Position,0.000e+00,
Horizontal Units,S,Horizontal Units,S,
Horizontal Scale,5.000E-05,Horizontal Scale,5.000E-05,
Horizontal Position,1.485E-04,Horizontal Position,1.485E-04,
Horizontal Mode,Main,Horizontal Mode,Main,
SincET Mode,Real Time,SincET Mode,Real Time,
Sampling Period,5.000e-08,Sampling Period,5.000e-08,
Horizontal Old Scale,5.000E-05,Horizontal Old Scale,5.000E-05,
Horizontal Old Position,1.485E-04,Horizontal Old Position,1.485E-04,
Firmware,V1.32,Firmware,V1.32,
Mode,Fast,Mode,Fast,
Waveform Data,,Waveform Data,,
0, ,5, ,
0, ,5, ,
0, ,5, ,
0, ,5, ,
0, ,5, ,
0, ,5, ,
0, ,6, ,
0, ,6, ,
0, ,5, ,
0, ,5, ,
0, ,6, ,
0, ,5, ,
0, ,5, ,
0, ,5, ,
0, ,5, ,
0, ,6, ,
0, ,5, ,
0, ,5, ,
0, ,5, ,
0, ,5, ,
0, ,5, ,
0, ,6, ,
0, ,6, ,
0, ,5, ,
0, ,5, ,
0, ,5, ,
0, ,5, ,
0, ,5, ,
0, ,5, ,
0, ,5, ,
0, ,6, ,
0, ,5, ,
0, ,6, ,
0, ,5, ,
0, ,5, ,
0, ,5, ,
0, ,5, ,
0, ,6, ,
0, ,5, ,
0, ,5, ,
0, ,5, ,
0, ,5, ,
0, ,6, ,
0, ,5, ,
0, ,5, ,
0, ,6, ,
0, ,5, ,
0, ,5, ,
0, ,5, ,
0, ,5, ,
0, ,5, ,
0, ,6, ,
0, ,6, ,
0, ,5, ,
0, ,6, ,
0, ,5, ,
0, ,5, ,
0, ,6, ,
0, ,5, ,
0, ,5, ,
0, ,5, ,
0, ,5, ,
0, ,5, ,
0, ,6, ,
0, ,5, ,
0, ,6, ,
0, ,5, ,
0, ,5, ,
0, ,5, ,
0, ,5, ,
0, ,6, ,
0, ,5, ,
0, ,5, ,
0, ,6, ,
0, ,5, ,
0, ,5, ,
0, ,5, ,
0, ,5, ,
0, ,6, ,
0, ,5, ,
0, ,5, ,
0, ,5, ,
0, ,6, ,
0, ,5, ,
0, ,5, ,
0, ,5, ,
0, ,6, ,
0, ,5, ,
0, ,6, ,
0, ,6, ,
0, ,6, ,
0, ,5, ,
0, ,6, ,
0, ,5, ,
0, ,5, ,
0, ,5, ,
0, ,5, ,
0, ,5, ,
0, ,5, ,
0, ,5, ,
0, ,5, ,
0, ,5, ,
0, ,5, ,
0, ,5, ,
0, ,5, ,
0, ,5, ,
0, ,5, ,
0, ,5, ,
0, ,5, ,
0, ,5, ,
0, ,5, ,
0, ,5, ,
0, ,6, ,
0, ,5, ,
0, ,6, ,
0, ,5, ,
0, ,5, ,
0, ,6, ,
0, ,6, ,
0, ,5, ,
0, ,5, ,
0, ,5, ,
0, ,6, ,
0, ,5, ,
0, ,6, ,
0, ,5, ,
0, ,6, ,
0, ,6, ,
0, ,5, ,
0, ,5, ,
0, ,5, ,
0, ,5, ,
0, ,5, ,
0, ,6, ,
0, ,6, ,
0, ,5, ,
0, ,5, ,
0, ,5, ,
0, ,5, ,
0, ,5, ,
0, ,5, ,
0, ,5, ,
0, ,5, ,
0, ,5, ,
0, ,5, ,
0, ,5, ,
0, ,6, ,
0, ,5, ,
0, ,6, ,
0, ,5, ,
0, ,6, ,
0, ,5, ,
0, ,5, ,
0, ,5, ,
0, ,5, ,
0, ,5, ,
0, ,5, ,
0, ,5, ,
0, ,5, ,
0, ,5, ,
0, ,6, ,
0, ,5, ,
0, ,5, ,
0, ,5, ,
0, ,5, ,
0, ,6, ,
0, ,6, ,
0, ,5, ,
0, ,5, ,
0, ,6, ,
0, ,5, ,
0, ,5, ,
0, ,5, ,
0, ,5, ,
0, ,5, ,
0, ,5, ,
0, ,5, ,
0, ,5, ,
0, ,6, ,
0, ,6, ,
0, ,5, ,
0, ,6, ,
0, ,6, ,
0, ,5, ,
0, ,5, ,
0, ,5, ,
0, ,5, ,
0, ,5, ,
0, ,5, ,
0, ,6, ,
0, ,5, ,
0, ,5, ,
0, ,5, ,
0, ,5, ,
0, ,5, ,
0, ,5, ,
0, ,5, ,
0, ,5, ,
0, ,5, ,
0, ,5, ,
0, ,5, ,
0, ,6, ,
0, ,5, ,
0, ,6, ,
0, ,6, ,
0, ,6, ,
0, ,5, ,
0, ,5, ,
0, ,6, ,
0, ,6, ,
0, ,6, ,
0, ,5, ,
0, ,5, ,
0, ,5, ,
0, ,5, ,
0, ,5, ,
0, ,5, ,
0, ,6, ,
0, ,5, ,
0, ,5, ,
0, ,6, ,
0, ,6, ,
0, ,5, ,
0, ,6, ,
0, ,5, ,
0, ,6, ,
0, ,6, ,
0, ,6, ,
0, ,6, ,
0, ,5, ,
0, ,6, ,
0, ,6, ,
0, ,6, ,
0, ,5, ,
0, ,6, ,
0, ,5, ,
0, ,5, ,
0, ,5, ,
0, ,6, ,
0, ,5, ,
0, ,5, ,
0, ,5, ,
0, ,5, ,
0, ,5, ,
0, ,5, ,
0, ,6, ,
0, ,5, ,
0, ,5, ,
0, ,6, ,
0, ,5, ,
0, ,5, ,
0, ,5, ,
0, ,6, ,
0, ,5, ,
0, ,6, ,
0, ,5, ,
0, ,5, ,
0, ,5, ,
0, ,5, ,
0, ,5, ,
0, ,5, ,
0, ,6, ,
0, ,6, ,
0, ,5, ,
0, ,5, ,
0, ,5, ,
0, ,5, ,
0, ,5, ,
0, ,5, ,
0, ,5, ,
0, ,5, ,
0, ,6, ,
0, ,5, ,
0, ,5, ,
0, ,5, ,
0, ,5, ,
0, ,6, ,
0, ,6, ,
0, ,6, ,
0, ,5, ,
0, ,6, ,
0, ,5, ,
0, ,5, ,
0, ,5, ,
0, ,5, ,
0, ,6, ,
0, ,6, ,
0, ,5, ,
0, ,5, ,
0, ,5, ,
0, ,6, ,
0, ,5, ,
0, ,5, ,
0, ,5, ,
0, ,6, ,
0, ,5, ,
0, ,5, ,
0, ,5, ,
0, ,5, ,
0, ,6, ,
0, ,6, ,
0, ,5, ,
0, ,5, ,
0, ,5, ,
0, ,5, ,
0, ,6, ,
0, ,5, ,
0, ,5, ,
0, ,6, ,
0, ,6, ,
0, ,5, ,
0, ,6, ,
0, ,5, ,
0, ,5, ,
0, ,5, ,
0, ,5, ,
0, ,5, ,
0, ,5, ,
0, ,5, ,
0, ,5, ,
0, ,5, ,
0, ,5, ,
0, ,5, ,
0, ,5, ,
0, ,6, ,
0, ,5, ,
0, ,6, ,
0, ,5, ,
0, ,5, ,
0, ,5, ,
0, ,5, ,
0, ,5, ,
0, ,5, ,
0, ,6, ,
0, ,5, ,
0, ,5, ,
0, ,5, ,
0, ,5, ,
0, ,6, ,
0, ,5, ,
0, ,5, ,
0, ,5, ,
0, ,5, ,
0, ,5, ,
0, ,5, ,
0, ,5, ,
0, ,5, ,
0, ,5, ,
0, ,5, ,
0, ,5, ,
0, ,6, ,
0, ,5, ,
0, ,5, ,
0, ,5, ,
0, ,5, ,
0, ,5, ,
0, ,5, ,
0, ,5, ,
0, ,5, ,
0, ,5, ,
0, ,5, ,
0, ,6, ,
0, ,5, ,
0, ,5, ,
0, ,5, ,
0, ,5, ,
0, ,6, ,
0, ,5, ,
0, ,6, ,
0, ,5, ,
0, ,5, ,
0, ,5, ,
0, ,5, ,
0, ,6, ,
0, ,6, ,
0, ,5, ,
0, ,5, ,
0, ,5, ,
0, ,6, ,
0, ,5, ,
0, ,5, ,
0, ,5, ,
0, ,6, ,
0, ,6, ,
0, ,6, ,
0, ,5, ,
0, ,5, ,
0, ,5, ,
0, ,5, ,
0, ,5, ,
0, ,6, ,
0, ,5, ,
0, ,5, ,
0, ,5, ,
0, ,5, ,
0, ,5, ,
0, ,5, ,
0, ,5, ,
0, ,6, ,
0, ,6, ,
0, ,6, ,
0, ,6, ,
0, ,5, ,
0, ,5, ,
0, ,5, ,
0, ,5, ,
0, ,6, ,
0, ,6, ,
0, ,5, ,
0, ,5, ,
0, ,5, ,
0, ,5, ,
0, ,6, ,
0, ,6, ,
0, ,5, ,
0, ,5, ,
0, ,5, ,
0, ,6, ,
0, ,5, ,
0, ,5, ,
0, ,5, ,
0, ,5, ,
0, ,6, ,
0, ,6, ,
0, ,5, ,
0, ,6, ,
0, ,6, ,
0, ,5, ,
0, ,6, ,
0, ,5, ,
0, ,6, ,
0, ,6, ,
0, ,5, ,
0, ,5, ,
0, ,6, ,
0, ,5, ,
0, ,5, ,
0, ,5, ,
0, ,6, ,
0, ,5, ,
0, ,6, ,
0, ,6, ,
0, ,5, ,
0, ,6, ,
0, ,5, ,
0, ,6, ,
0, ,5, ,
0, ,6, ,
0, ,5, ,
0, ,5, ,
0, ,5, ,
0, ,6, ,
0, ,5, ,
0, ,5, ,
0, ,6, ,
0, ,5, ,
0, ,5, ,
0, ,6, ,
0, ,5, ,
0, ,5, ,
0, ,6, ,
0, ,5, ,
0, ,5, ,
0, ,6, ,
0, ,5, ,
0, ,6, ,
0, ,5, ,
0, ,5, ,
0, ,6, ,
0, ,6, ,
0, ,5, ,
0, ,5, ,
0, ,5, ,
0, ,5, ,
0, ,6, ,
0, ,6, ,
0, ,5, ,
0, ,5, ,
0, ,6, ,
0, ,5, ,
0, ,6, ,
0, ,5, ,
0, ,6, ,
0, ,6, ,
0, ,5, ,
0, ,6, ,
0, ,5, ,
0, ,5, ,
0, ,5, ,
0, ,6, ,
0, ,5, ,
0, ,5, ,
0, ,5, ,
0, ,6, ,
0, ,6, ,
0, ,6, ,
0, ,6, ,
0, ,6, ,
0, ,5, ,
0, ,5, ,
0, ,6, ,
0, ,6, ,
0, ,6, ,
0, ,6, ,
0, ,6, ,
0, ,5, ,
0, ,5, ,
0, ,6, ,
0, ,5, ,
0, ,6, ,
0, ,6, ,
0, ,5, ,
0, ,5, ,
0, ,5, ,
0, ,5, ,
0, ,6, ,
0, ,5, ,
0, ,6, ,
0, ,6, ,
0, ,5, ,
0, ,5, ,
0, ,6, ,
0, ,5, ,
0, ,5, ,
0, ,6, ,
0, ,6, ,
0, ,5, ,
0, ,6, ,
0, ,5, ,
0, ,5, ,
0, ,5, ,
0, ,5, ,
0, ,5, ,
0, ,5, ,
0, ,6, ,
0, ,6, ,
0, ,5, ,
0, ,5, ,
0, ,5, ,
0, ,5, ,
0, ,5, ,
0, ,6, ,
0, ,6, ,
0, ,5, ,
0, ,6, ,
0, ,6, ,
0, ,5, ,
0, ,5, ,
0, ,5, ,
0, ,6, ,
0, ,6, ,
0, ,5, ,
0, ,6, ,
0, ,6, ,
0, ,5, ,
0, ,6, ,
0, ,6, ,
0, ,6, ,
0, ,6, ,
0, ,5, ,
0, ,5, ,
0, ,6, ,
0, ,6, ,
0, ,6, ,
0, ,5, ,
0, ,6, ,
0, ,5, ,
0, ,6, ,
0, ,6, ,
0, ,5, ,
0, ,5, ,
0, ,5, ,
0, ,5, ,
0, ,6, ,
0, ,6, ,
0, ,5, ,
0, ,6, ,
0, ,6, ,
0, ,5, ,
0, ,6, ,
0, ,6, ,
0, ,6, ,
0, ,6, ,
0, ,5, ,
0, ,5, ,
0, ,5, ,
0, ,6, ,
0, ,6, ,
0, ,6, ,
0, ,5, ,
0, ,6, ,
0, ,5, ,
0, ,6, ,
0, ,5, ,
0, ,6, ,
0, ,6, ,
0, ,6, ,
0, ,5, ,
0, ,6, ,
0, ,6, ,
0, ,5, ,
0, ,6, ,
0, ,5, ,
0, ,6, ,
0, ,5, ,
0, ,6, ,
0, ,6, ,
0, ,6, ,
0, ,6, ,
0, ,6, ,
0, ,6, ,
0, ,5, ,
0, ,5, ,
0, ,6, ,
0, ,6, ,
0, ,5, ,
0, ,5, ,
0, ,6, ,
0, ,5, ,
0, ,5, ,
0, ,5, ,
0, ,6, ,
0, ,6, ,
0, ,6, ,
0, ,5, ,
0, ,6, ,
0, ,5, ,
0, ,6, ,
0, ,5, ,
0, ,5, ,
0, ,5, ,
0, ,6, ,
0, ,6, ,
0, ,6, ,
0, ,5, ,
0, ,5, ,
0, ,6, ,
0, ,6, ,
0, ,6, ,
0, ,6, ,
0, ,5, ,
0, ,6, ,
0, ,5, ,
0, ,6, ,
0, ,5, ,
0, ,6, ,
0, ,6, ,
0, ,6, ,
0, ,6, ,
0, ,6, ,
0, ,5, ,
0, ,5, ,
0, ,5, ,
0, ,6, ,
0, ,6, ,
0, ,5, ,
0, ,5, ,
0, ,5, ,
0, ,6, ,
0, ,5, ,
0, ,5, ,
0, ,6, ,
0, ,6, ,
0, ,5, ,
0, ,5, ,
0, ,5, ,
0, ,5, ,
0, ,6, ,
0, ,5, ,
0, ,6, ,
0, ,6, ,
0, ,5, ,
0, ,6, ,
0, ,6, ,
0, ,6, ,
0, ,5, ,
0, ,5, ,
0, ,6, ,
0, ,6, ,
0, ,5, ,
0, ,6, ,
0, ,6, ,
0, ,6, ,
0, ,6, ,
0, ,6, ,
0, ,6, ,
0, ,6, ,
0, ,6, ,
0, ,5, ,
0, ,6, ,
0, ,6, ,
0, ,6, ,
0, ,6, ,
0, ,6, ,
0, ,6, ,
0, ,6, ,
0, ,6, ,
0, ,6, ,
0, ,6, ,
0, ,5, ,
0, ,6, ,
0, ,6, ,
0, ,6, ,
0, ,5, ,
0, ,6, ,
0, ,6, ,
0, ,6, ,
0, ,6, ,
0, ,6, ,
0, ,6, ,
0, ,6, ,
0, ,6, ,
0, ,6, ,
0, ,6, ,
0, ,5, ,
0, ,6, ,
0, ,5, ,
0, ,6, ,
0, ,5, ,
0, ,6, ,
0, ,6, ,
0, ,5, ,
0, ,5, ,
0, ,5, ,
0, ,6, ,
0, ,6, ,
0, ,6, ,
0, ,5, ,
0, ,6, ,
0, ,6, ,
0, ,5, ,
0, ,6, ,
0, ,5, ,
0, ,6, ,
0, ,6, ,
0, ,6, ,
0, ,6, ,
0, ,6, ,
0, ,6, ,
0, ,5, ,
0, ,6, ,
0, ,6, ,
0, ,6, ,
0, ,6, ,
0, ,6, ,
0, ,5, ,
0, ,5, ,
0, ,5, ,
0, ,5, ,
0, ,6, ,
0, ,6, ,
0, ,6, ,
0, ,5, ,
0, ,6, ,
0, ,5, ,
0, ,6, ,
0, ,6, ,
0, ,6, ,
0, ,6, ,
0, ,6, ,
0, ,5, ,
0, ,5, ,
0, ,6, ,
0, ,6, ,
0, ,5, ,
0, ,6, ,
0, ,6, ,
0, ,5, ,
0, ,6, ,
0, ,6, ,
0, ,6, ,
0, ,6, ,
0, ,5, ,
0, ,6, ,
0, ,6, ,
0, ,6, ,
0, ,6, ,
0, ,6, ,
0, ,5, ,
0, ,5, ,
0, ,5, ,
0, ,6, ,
0, ,6, ,
0, ,5, ,
0, ,5, ,
0, ,5, ,
0, ,5, ,
0, ,6, ,
0, ,5, ,
0, ,6, ,
0, ,5, ,
0, ,5, ,
0, ,5, ,
0, ,6, ,
0, ,5, ,
0, ,5, ,
0, ,5, ,
0, ,6, ,
0, ,6, ,
0, ,6, ,
0, ,5, ,
0, ,5, ,
0, ,6, ,
0, ,5, ,
0, ,5, ,
0, ,6, ,
0, ,6, ,
0, ,6, ,
0, ,6, ,
0, ,6, ,
0, ,6, ,
0, ,5, ,
0, ,6, ,
0, ,6, ,
0, ,6, ,
0, ,6, ,
0, ,5, ,
0, ,5, ,
0, ,6, ,
0, ,6, ,
0, ,5, ,
0, ,6, ,
0, ,6, ,
0, ,5, ,
0, ,6, ,
0, ,6, ,
0, ,6, ,
0, ,6, ,
0, ,6, ,
0, ,6, ,
0, ,6, ,
0, ,6, ,
0, ,5, ,
0, ,5, ,
0, ,6, ,
0, ,6, ,
0, ,6, ,
0, ,5, ,
0, ,6, ,
0, ,6, ,
0, ,5, ,
0, ,6, ,
0, ,5, ,
0, ,6, ,
0, ,5, ,
0, ,6, ,
0, ,6, ,
0, ,6, ,
0, ,5, ,
0, ,6, ,
0, ,6, ,
0, ,6, ,
0, ,5, ,
0, ,5, ,
0, ,6, ,
0, ,6, ,
0, ,5, ,
0, ,6, ,
0, ,6, ,
0, ,5, ,
0, ,6, ,
0, ,6, ,
0, ,6, ,
0, ,5, ,
0, ,5, ,
0, ,5, ,
0, ,5, ,
0, ,6, ,
0, ,6, ,
0, ,6, ,
0, ,5, ,
0, ,6, ,
0, ,5, ,
0, ,6, ,
0, ,5, ,
0, ,6, ,
0, ,5, ,
0, ,6, ,
0, ,6, ,
0, ,6, ,
0, ,6, ,
0, ,5, ,
0, ,6, ,
0, ,6, ,
0, ,6, ,
0, ,5, ,
0, ,6, ,
0, ,5, ,
0, ,5, ,
0, ,5, ,
0, ,6, ,
0, ,6, ,
0, ,5, ,
0, ,6, ,
0, ,6, ,
0, ,6, ,
0, ,6, ,
0, ,6, ,
0, ,6, ,
0, ,5, ,
0, ,5, ,
0, ,6, ,
0, ,6, ,
0, ,6, ,
0, ,6, ,
0, ,6, ,
0, ,6, ,
0, ,6, ,
0, ,6, ,
0, ,6, ,
0, ,6, ,
0, ,5, ,
0, ,6, ,
0, ,6, ,
0, ,6, ,
0, ,6, ,
0, ,5, ,
0, ,6, ,
0, ,6, ,
0, ,5, ,
0, ,6, ,
0, ,6, ,
0, ,6, ,
0, ,5, ,
0, ,6, ,
0, ,6, ,
0, ,6, ,
0, ,6, ,
0, ,5, ,
0, ,6, ,
0, ,6, ,
0, ,6, ,
0, ,5, ,
0, ,5, ,
0, ,6, ,
0, ,5, ,
0, ,6, ,
0, ,6, ,
0, ,6, ,
0, ,6, ,
0, ,6, ,
0, ,6, ,
0, ,6, ,
0, ,6, ,
0, ,6, ,
0, ,6, ,
0, ,6, ,
0, ,6, ,
0, ,6, ,
0, ,6, ,
0, ,5, ,
0, ,6, ,
0, ,6, ,
0, ,6, ,
0, ,6, ,
0, ,6, ,
0, ,6, ,
0, ,6, ,
0, ,6, ,
0, ,5, ,
0, ,6, ,
0, ,6, ,
0, ,6, ,
0, ,5, ,
0, ,6, ,
0, ,6, ,
0, ,6, ,
0, ,6, ,
0, ,6, ,
0, ,6, ,
0, ,6, ,
0, ,6, ,
0, ,6, ,
0, ,6, ,
0, ,6, ,
0, ,5, ,
0, ,6, ,
0, ,6, ,
0, ,6, ,
0, ,6, ,
0, ,5, ,
0, ,6, ,
0, ,6, ,
0, ,6, ,
0, ,6, ,
0, ,6, ,
0, ,5, ,
0, ,6, ,
0, ,5, ,
0, ,6, ,
0, ,6, ,
0, ,6, ,
0, ,6, ,
0, ,6, ,
0, ,6, ,
0, ,6, ,
-1, ,6, ,
0, ,6, ,
0, ,6, ,
0, ,6, ,
0, ,6, ,
0, ,6, ,
0, ,6, ,
0, ,6, ,
0, ,6, ,
0, ,6, ,
0, ,6, ,
0, ,6, ,
0, ,6, ,
0, ,6, ,
0, ,6, ,
0, ,5, ,
0, ,5, ,
0, ,5, ,
0, ,6, ,
0, ,6, ,
0, ,5, ,
0, ,5, ,
0, ,6, ,
0, ,5, ,
0, ,6, ,
0, ,6, ,
0, ,6, ,
0, ,6, ,
0, ,6, ,
0, ,6, ,
0, ,6, ,
0, ,6, ,
0, ,6, ,
0, ,6, ,
0, ,6, ,
0, ,6, ,
0, ,6, ,
0, ,6, ,
0, ,5, ,
0, ,6, ,
0, ,6, ,
0, ,5, ,
0, ,6, ,
0, ,5, ,
0, ,6, ,
0, ,6, ,
0, ,6, ,
0, ,6, ,
0, ,6, ,
0, ,6, ,
0, ,6, ,
0, ,6, ,
0, ,5, ,
0, ,5, ,
0, ,6, ,
0, ,6, ,
0, ,5, ,
0, ,6, ,
0, ,5, ,
0, ,5, ,
0, ,6, ,
0, ,5, ,
0, ,6, ,
0, ,6, ,
0, ,6, ,
0, ,6, ,
0, ,6, ,
0, ,5, ,
0, ,6, ,
0, ,5, ,
0, ,5, ,
0, ,5, ,
0, ,5, ,
0, ,6, ,
0, ,6, ,
0, ,6, ,
0, ,6, ,
0, ,6, ,
0, ,6, ,
0, ,6, ,
0, ,6, ,
0, ,6, ,
0, ,6, ,
0, ,6, ,
0, ,6, ,
0, ,6, ,
0, ,5, ,
0, ,6, ,
0, ,6, ,
0, ,5, ,
0, ,6, ,
0, ,6, ,
0, ,6, ,
0, ,6, ,
0, ,5, ,
0, ,6, ,
0, ,6, ,
0, ,5, ,
0, ,6, ,
0, ,5, ,
0, ,6, ,
0, ,5, ,
0, ,5, ,
0, ,6, ,
0, ,6, ,
0, ,5, ,
0, ,6, ,
0, ,6, ,
0, ,6, ,
0, ,5, ,
0, ,6, ,
0, ,6, ,
0, ,6, ,
0, ,6, ,
0, ,6, ,
0, ,6, ,
0, ,6, ,
0, ,5, ,
0, ,6, ,
0, ,6, ,
0, ,6, ,
0, ,6, ,
0, ,6, ,
0, ,6, ,
0, ,6, ,
0, ,5, ,
0, ,6, ,
0, ,6, ,
0, ,5, ,
0, ,6, ,
0, ,6, ,
0, ,6, ,
0, ,6, ,
0, ,6, ,
0, ,5, ,
0, ,5, ,
0, ,6, ,
0, ,6, ,
0, ,6, ,
0, ,6, ,
0, ,6, ,
0, ,6, ,
0, ,5, ,
0, ,6, ,
0, ,5, ,
0, ,6, ,
0, ,6, ,
0, ,6, ,
0, ,6, ,
0, ,6, ,
0, ,6, ,
0, ,6, ,
0, ,6, ,
0, ,6, ,
0, ,6, ,
0, ,6, ,
0, ,6, ,
0, ,6, ,
0, ,6, ,
0, ,6, ,
0, ,5, ,
0, ,6, ,
0, ,6, ,
0, ,6, ,
0, ,6, ,
0, ,6, ,
0, ,5, ,
0, ,5, ,
0, ,6, ,
0, ,6, ,
0, ,6, ,
0, ,6, ,
0, ,6, ,
0, ,6, ,
0, ,5, ,
0, ,6, ,
0, ,6, ,
0, ,6, ,
0, ,6, ,
0, ,6, ,
0, ,5, ,
0, ,5, ,
0, ,5, ,
0, ,6, ,
0, ,6, ,
0, ,6, ,
0, ,6, ,
0, ,5, ,
0, ,6, ,
0, ,6, ,
0, ,5, ,
0, ,5, ,
0, ,5, ,
0, ,5, ,
0, ,6, ,
0, ,6, ,
0, ,6, ,
0, ,5, ,
0, ,5, ,
0, ,5, ,
0, ,6, ,
0, ,6, ,
0, ,5, ,
0, ,6, ,
0, ,6, ,
0, ,6, ,
0, ,5, ,
0, ,5, ,
0, ,6, ,
0, ,6, ,
0, ,5, ,
0, ,5, ,
0, ,5, ,
0, ,6, ,
0, ,6, ,
0, ,6, ,
0, ,5, ,
0, ,6, ,
0, ,6, ,
0, ,5, ,
0, ,5, ,
0, ,6, ,
0, ,5, ,
0, ,5, ,
0, ,5, ,
0, ,6, ,
0, ,6, ,
0, ,6, ,
0, ,6, ,
0, ,5, ,
0, ,5, ,
0, ,5, ,
0, ,6, ,
0, ,5, ,
0, ,6, ,
0, ,5, ,
0, ,6, ,
0, ,6, ,
0, ,6, ,
0, ,5, ,
0, ,6, ,
0, ,6, ,
0, ,6, ,
0, ,6, ,
0, ,5, ,
0, ,6, ,
0, ,6, ,
0, ,6, ,
0, ,5, ,
0, ,6, ,
0, ,5, ,
0, ,6, ,
0, ,6, ,
0, ,6, ,
0, ,5, ,
0, ,5, ,
0, ,6, ,
0, ,6, ,
0, ,6, ,
0, ,5, ,
0, ,5, ,
0, ,6, ,
0, ,5, ,
0, ,5, ,
0, ,5, ,
0, ,5, ,
0, ,6, ,
0, ,6, ,
0, ,6, ,
0, ,6, ,
0, ,6, ,
0, ,6, ,
0, ,5, ,
0, ,6, ,
0, ,6, ,
0, ,6, ,
0, ,6, ,
0, ,6, ,
0, ,6, ,
0, ,6, ,
0, ,5, ,
0, ,6, ,
0, ,6, ,
0, ,5, ,
0, ,6, ,
0, ,5, ,
0, ,6, ,
0, ,6, ,
0, ,6, ,
0, ,6, ,
0, ,6, ,
0, ,5, ,
0, ,6, ,
0, ,6, ,
0, ,6, ,
0, ,6, ,
0, ,6, ,
0, ,6, ,
0, ,6, ,
0, ,6, ,
0, ,5, ,
0, ,5, ,
0, ,5, ,
0, ,6, ,
0, ,6, ,
0, ,6, ,
0, ,6, ,
0, ,6, ,
0, ,6, ,
0, ,5, ,
0, ,5, ,
0, ,6, ,
0, ,6, ,
0, ,6, ,
0, ,6, ,
0, ,6, ,
0, ,6, ,
0, ,5, ,
0, ,6, ,
0, ,5, ,
0, ,6, ,
0, ,6, ,
0, ,6, ,
0, ,5, ,
0, ,6, ,
0, ,6, ,
0, ,6, ,
0, ,5, ,
0, ,6, ,
0, ,6, ,
0, ,5, ,
0, ,6, ,
0, ,6, ,
0, ,6, ,
0, ,6, ,
0, ,6, ,
0, ,6, ,
0, ,6, ,
0, ,6, ,
0, ,6, ,
0, ,6, ,
0, ,5, ,
0, ,6, ,
0, ,6, ,
0, ,5, ,
0, ,6, ,
0, ,6, ,
0, ,6, ,
0, ,6, ,
0, ,6, ,
0, ,5, ,
0, ,5, ,
0, ,6, ,
0, ,6, ,
0, ,6, ,
0, ,5, ,
0, ,6, ,
0, ,5, ,
0, ,5, ,
0, ,6, ,
0, ,6, ,
0, ,6, ,
0, ,6, ,
0, ,5, ,
0, ,6, ,
0, ,6, ,
0, ,6, ,
0, ,5, ,
0, ,5, ,
0, ,6, ,
0, ,6, ,
0, ,5, ,
0, ,6, ,
0, ,6, ,
0, ,6, ,
0, ,6, ,
0, ,6, ,
0, ,6, ,
0, ,5, ,
0, ,5, ,
0, ,6, ,
0, ,6, ,
0, ,6, ,
0, ,6, ,
0, ,6, ,
0, ,6, ,
0, ,6, ,
0, ,6, ,
0, ,5, ,
0, ,5, ,
0, ,5, ,
0, ,6, ,
0, ,6, ,
0, ,5, ,
0, ,6, ,
0, ,6, ,
0, ,6, ,
0, ,6, ,
0, ,6, ,
0, ,5, ,
0, ,6, ,
0, ,6, ,
0, ,6, ,
0, ,6, ,
0, ,6, ,
0, ,5, ,
0, ,6, ,
0, ,5, ,
0, ,6, ,
0, ,5, ,
0, ,6, ,
0, ,6, ,
0, ,6, ,
0, ,5, ,
0, ,6, ,
0, ,6, ,
0, ,6, ,
0, ,6, ,
0, ,5, ,
0, ,5, ,
0, ,6, ,
0, ,6, ,
0, ,5, ,
0, ,6, ,
0, ,5, ,
0, ,6, ,
0, ,5, ,
0, ,6, ,
0, ,5, ,
0, ,5, ,
0, ,6, ,
0, ,5, ,
0, ,6, ,
0, ,6, ,
0, ,6, ,
0, ,6, ,
0, ,6, ,
0, ,5, ,
0, ,5, ,
0, ,5, ,
0, ,6, ,
0, ,6, ,
0, ,6, ,
0, ,5, ,
0, ,6, ,
0, ,6, ,
0, ,6, ,
0, ,5, ,
0, ,6, ,
0, ,6, ,
0, ,6, ,
0, ,6, ,
0, ,6, ,
0, ,6, ,
0, ,5, ,
0, ,5, ,
0, ,6, ,
0, ,6, ,
0, ,6, ,
0, ,6, ,
0, ,5, ,
0, ,5, ,
0, ,6, ,
0, ,5, ,
0, ,5, ,
0, ,6, ,
0, ,6, ,
0, ,6, ,
0, ,6, ,
0, ,6, ,
0, ,6, ,
0, ,6, ,
0, ,6, ,
0, ,6, ,
0, ,6, ,
0, ,5, ,
0, ,6, ,
0, ,6, ,
0, ,6, ,
0, ,6, ,
0, ,6, ,
0, ,5, ,
0, ,6, ,
0, ,5, ,
0, ,5, ,
0, ,5, ,
0, ,5, ,
0, ,6, ,
0, ,6, ,
0, ,6, ,
0, ,6, ,
0, ,6, ,
0, ,6, ,
0, ,6, ,
0, ,6, ,
0, ,6, ,
0, ,6, ,
0, ,5, ,
0, ,6, ,
0, ,5, ,
0, ,6, ,
0, ,6, ,
0, ,5, ,
0, ,5, ,
0, ,5, ,
0, ,5, ,
0, ,6, ,
0, ,6, ,
0, ,6, ,
0, ,5, ,
0, ,6, ,
0, ,6, ,
0, ,5, ,
0, ,6, ,
0, ,6, ,
0, ,6, ,
0, ,6, ,
0, ,6, ,
0, ,6, ,
0, ,6, ,
0, ,5, ,
0, ,6, ,
0, ,6, ,
0, ,6, ,
0, ,5, ,
0, ,6, ,
0, ,5, ,
0, ,6, ,
0, ,5, ,
0, ,6, ,
0, ,5, ,
0, ,5, ,
0, ,5, ,
0, ,6, ,
0, ,5, ,
0, ,5, ,
0, ,6, ,
0, ,6, ,
0, ,5, ,
0, ,6, ,
0, ,5, ,
0, ,6, ,
0, ,6, ,
0, ,5, ,
0, ,6, ,
0, ,6, ,
0, ,6, ,
0, ,6, ,
0, ,6, ,
0, ,6, ,
0, ,6, ,
0, ,6, ,
0, ,5, ,
0, ,6, ,
0, ,6, ,
0, ,6, ,
0, ,6, ,
0, ,6, ,
0, ,6, ,
0, ,6, ,
0, ,6, ,
0, ,6, ,
0, ,6, ,
0, ,5, ,
0, ,6, ,
0, ,6, ,
0, ,5, ,
0, ,6, ,
0, ,5, ,
0, ,6, ,
0, ,5, ,
0, ,6, ,
0, ,6, ,
0, ,6, ,
0, ,6, ,
0, ,6, ,
0, ,5, ,
0, ,6, ,
0, ,6, ,
0, ,5, ,
0, ,6, ,
0, ,5, ,
0, ,5, ,
0, ,6, ,
0, ,5, ,
0, ,5, ,
0, ,6, ,
0, ,5, ,
0, ,6, ,
0, ,6, ,
0, ,5, ,
0, ,6, ,
0, ,6, ,
0, ,5, ,
0, ,6, ,
0, ,6, ,
0, ,5, ,
0, ,6, ,
-1, ,5, ,
0, ,5, ,
0, ,6, ,
0, ,5, ,
0, ,6, ,
0, ,6, ,
0, ,5, ,
0, ,5, ,
0, ,5, ,
0, ,6, ,
0, ,6, ,
0, ,6, ,
0, ,6, ,
0, ,5, ,
0, ,6, ,
0, ,5, ,
0, ,6, ,
0, ,6, ,
0, ,6, ,
0, ,6, ,
0, ,6, ,
0, ,6, ,
0, ,6, ,
0, ,6, ,
0, ,6, ,
0, ,6, ,
0, ,6, ,
0, ,6, ,
0, ,6, ,
0, ,6, ,
0, ,6, ,
0, ,6, ,
0, ,6, ,
0, ,6, ,
0, ,5, ,
0, ,5, ,
0, ,6, ,
0, ,5, ,
0, ,6, ,
0, ,6, ,
0, ,6, ,
0, ,6, ,
0, ,6, ,
0, ,6, ,
0, ,5, ,
0, ,6, ,
0, ,6, ,
0, ,6, ,
0, ,5, ,
0, ,5, ,
0, ,6, ,
0, ,6, ,
0, ,6, ,
0, ,5, ,
0, ,5, ,
0, ,6, ,
0, ,6, ,
0, ,5, ,
0, ,5, ,
0, ,6, ,
0, ,6, ,
0, ,6, ,
0, ,5, ,
0, ,6, ,
0, ,6, ,
0, ,6, ,
0, ,5, ,
0, ,6, ,
0, ,5, ,
0, ,6, ,
0, ,5, ,
-1, ,6, ,
0, ,5, ,
0, ,6, ,
0, ,5, ,
0, ,6, ,
0, ,6, ,
0, ,6, ,
0, ,6, ,
0, ,6, ,
0, ,5, ,
0, ,5, ,
0, ,6, ,
0, ,5, ,
0, ,6, ,
0, ,5, ,
0, ,5, ,
0, ,5, ,
0, ,5, ,
0, ,5, ,
0, ,6, ,
0, ,5, ,
0, ,6, ,
0, ,5, ,
0, ,6, ,
0, ,6, ,
0, ,6, ,
0, ,6, ,
0, ,6, ,
0, ,6, ,
0, ,6, ,
0, ,6, ,
0, ,6, ,
0, ,5, ,
0, ,6, ,
0, ,6, ,
0, ,5, ,
0, ,5, ,
0, ,6, ,
0, ,6, ,
0, ,6, ,
0, ,5, ,
0, ,6, ,
0, ,5, ,
0, ,5, ,
0, ,6, ,
0, ,6, ,
0, ,6, ,
0, ,5, ,
0, ,5, ,
0, ,6, ,
0, ,5, ,
0, ,6, ,
0, ,6, ,
0, ,5, ,
0, ,6, ,
0, ,6, ,
0, ,6, ,
0, ,6, ,
0, ,6, ,
0, ,6, ,
0, ,6, ,
0, ,6, ,
0, ,6, ,
0, ,5, ,
0, ,5, ,
0, ,5, ,
0, ,5, ,
0, ,6, ,
0, ,6, ,
0, ,6, ,
0, ,6, ,
0, ,6, ,
0, ,6, ,
0, ,6, ,
0, ,6, ,
-1, ,6, ,
0, ,6, ,
0, ,5, ,
0, ,6, ,
0, ,6, ,
0, ,5, ,
0, ,6, ,
0, ,6, ,
0, ,6, ,
0, ,6, ,
0, ,6, ,
0, ,6, ,
0, ,6, ,
0, ,6, ,
0, ,5, ,
0, ,6, ,
0, ,6, ,
0, ,6, ,
0, ,6, ,
0, ,6, ,
0, ,6, ,
0, ,6, ,
0, ,6, ,
0, ,5, ,
0, ,6, ,
0, ,6, ,
0, ,6, ,
0, ,6, ,
0, ,5, ,
0, ,6, ,
0, ,6, ,
0, ,6, ,
0, ,6, ,
0, ,6, ,
0, ,6, ,
0, ,6, ,
0, ,5, ,
0, ,5, ,
0, ,6, ,
0, ,6, ,
0, ,5, ,
0, ,6, ,
0, ,6, ,
0, ,5, ,
0, ,6, ,
0, ,5, ,
0, ,6, ,
0, ,6, ,
0, ,6, ,
0, ,6, ,
0, ,6, ,
0, ,5, ,
0, ,6, ,
0, ,6, ,
0, ,5, ,
0, ,5, ,
0, ,5, ,
0, ,6, ,
0, ,6, ,
0, ,6, ,
0, ,5, ,
0, ,6, ,
0, ,6, ,
0, ,5, ,
0, ,5, ,
0, ,6, ,
0, ,6, ,
0, ,6, ,
0, ,6, ,
0, ,5, ,
0, ,6, ,
0, ,6, ,
0, ,6, ,
0, ,6, ,
0, ,6, ,
0, ,5, ,
0, ,5, ,
0, ,5, ,
-1, ,6, ,
0, ,6, ,
0, ,6, ,
0, ,6, ,
0, ,6, ,
0, ,6, ,
0, ,6, ,
0, ,6, ,
0, ,6, ,
0, ,6, ,
0, ,5, ,
0, ,6, ,
0, ,5, ,
0, ,6, ,
0, ,6, ,
0, ,6, ,
0, ,6, ,
0, ,6, ,
0, ,6, ,
0, ,5, ,
0, ,5, ,
0, ,6, ,
0, ,6, ,
0, ,6, ,
0, ,5, ,
0, ,6, ,
0, ,6, ,
0, ,6, ,
0, ,6, ,
0, ,5, ,
0, ,6, ,
0, ,6, ,
0, ,6, ,
0, ,6, ,
0, ,5, ,
0, ,6, ,
0, ,6, ,
0, ,6, ,
0, ,5, ,
0, ,5, ,
0, ,6, ,
0, ,6, ,
0, ,5, ,
0, ,6, ,
0, ,6, ,
0, ,5, ,
0, ,6, ,
0, ,5, ,
0, ,6, ,
0, ,6, ,
0, ,5, ,
0, ,6, ,
0, ,6, ,
0, ,6, ,
0, ,6, ,
0, ,6, ,
0, ,6, ,
0, ,6, ,
0, ,6, ,
0, ,6, ,
0, ,6, ,
0, ,6, ,
0, ,6, ,
0, ,6, ,
0, ,6, ,
0, ,5, ,
0, ,6, ,
0, ,6, ,
0, ,6, ,
0, ,5, ,
0, ,6, ,
0, ,6, ,
0, ,6, ,
0, ,5, ,
0, ,6, ,
0, ,6, ,
0, ,6, ,
0, ,6, ,
0, ,5, ,
0, ,6, ,
0, ,6, ,
0, ,6, ,
0, ,6, ,
0, ,6, ,
0, ,6, ,
0, ,6, ,
0, ,6, ,
0, ,6, ,
0, ,6, ,
0, ,6, ,
0, ,6, ,
0, ,6, ,
0, ,6, ,
0, ,5, ,
0, ,6, ,
0, ,6, ,
0, ,5, ,
0, ,6, ,
0, ,6, ,
0, ,6, ,
0, ,6, ,
0, ,5, ,
0, ,5, ,
0, ,6, ,
0, ,6, ,
0, ,6, ,
0, ,6, ,
-1, ,6, ,
0, ,6, ,
0, ,6, ,
0, ,5, ,
0, ,6, ,
0, ,5, ,
0, ,6, ,
0, ,6, ,
0, ,6, ,
0, ,6, ,
0, ,6, ,
0, ,5, ,
0, ,5, ,
0, ,5, ,
0, ,6, ,
0, ,6, ,
0, ,6, ,
0, ,5, ,
0, ,6, ,
0, ,6, ,
0, ,6, ,
0, ,6, ,
0, ,6, ,
0, ,6, ,
0, ,6, ,
0, ,6, ,
0, ,5, ,
0, ,5, ,
0, ,5, ,
0, ,6, ,
0, ,5, ,
0, ,5, ,
0, ,6, ,
0, ,6, ,
0, ,6, ,
0, ,6, ,
0, ,6, ,
0, ,5, ,
0, ,6, ,
0, ,5, ,
0, ,6, ,
0, ,6, ,
0, ,6, ,
0, ,6, ,
0, ,6, ,
0, ,5, ,
0, ,5, ,
0, ,6, ,
0, ,6, ,
0, ,6, ,
0, ,5, ,
0, ,5, ,
0, ,6, ,
0, ,6, ,
0, ,6, ,
0, ,5, ,
0, ,6, ,
0, ,6, ,
0, ,5, ,
0, ,6, ,
0, ,6, ,
0, ,5, ,
0, ,5, ,
0, ,6, ,
0, ,6, ,
0, ,5, ,
0, ,6, ,
0, ,6, ,
0, ,6, ,
0, ,6, ,
0, ,6, ,
0, ,5, ,
0, ,6, ,
0, ,6, ,
0, ,5, ,
0, ,6, ,
0, ,5, ,
0, ,6, ,
0, ,6, ,
0, ,6, ,
0, ,5, ,
0, ,6, ,
0, ,6, ,
0, ,6, ,
0, ,5, ,
0, ,6, ,
0, ,5, ,
0, ,5, ,
0, ,5, ,
0, ,6, ,
0, ,5, ,
0, ,6, ,
0, ,6, ,
0, ,6, ,
0, ,5, ,
0, ,5, ,
0, ,5, ,
0, ,6, ,
0, ,5, ,
0, ,5, ,
0, ,6, ,
0, ,6, ,
0, ,6, ,
0, ,6, ,
66, ,6, ,
127, ,5, ,
127, ,5, ,
127, ,6, ,
127, ,6, ,
110, ,5, ,
56, ,5, ,
26, ,5, ,
6, ,6, ,
-4, ,6, ,
-7, ,6, ,
-9, ,5, ,
-10, ,6, ,
-9, ,6, ,
-7, ,6, ,
-6, ,6, ,
-5, ,6, ,
-4, ,5, ,
-4, ,5, ,
-2, ,6, ,
-2, ,5, ,
-2, ,6, ,
-1, ,5, ,
-1, ,6, ,
-1, ,6, ,
-1, ,6, ,
-2, ,6, ,
-4, ,6, ,
-2, ,5, ,
-1, ,6, ,
0, ,6, ,
-1, ,6, ,
-1, ,6, ,
-4, ,6, ,
-2, ,6, ,
-18, ,5, ,
-20, ,5, ,
-91, ,6, ,
-62, ,5, ,
-95, ,6, ,
-22, ,6, ,
-21, ,6, ,
0, ,6, ,
-29, ,5, ,
-32, ,6, ,
-63, ,6, ,
-65, ,5, ,
-63, ,6, ,
-72, ,6, ,
-73, ,6, ,
-57, ,6, ,
-55, ,5, ,
-22, ,5, ,
-16, ,6, ,
13, ,6, ,
11, ,6, ,
15, ,6, ,
6, ,6, ,
-23, ,5, ,
-43, ,5, ,
-77, ,6, ,
-78, ,6, ,
-68, ,6, ,
-39, ,5, ,
-10, ,6, ,
6, ,6, ,
