raw_data/0% Glycerol, Impulsion 0.5Hz, Sonde 5MHz, Rampe 0.7Hz/temp0000146.CSV

Format,1.0B,
Memory Length,10000,Memory Length,10000,
IntpDistance,0,IntpDistance,0,
Trigger Address,2029,Trigger Address,2029,
Trigger Level,2.720E-01,Trigger Level,2.720E-01,
Source,CH1,Source,CH2,
Vertical Units,V,Vertical Units,V,
Vertical Units Div,0,Vertical Units Div,0,
Vertical Units Extend Div,16,Vertical Units Extend Div,16,
Label,,Label,,
Probe Type,0,Probe Type,0,
Probe Ratio,1.000e+00,Probe Ratio,1.000e+00,
Vertical Scale,1.000e-01,Vertical Scale,2.000e+00,
Vertical Position,0.000e+00,Vertical Position,0.000e+00,
Horizontal Units,S,Horizontal Units,S,
Horizontal Scale,5.000E-05,Horizontal Scale,5.000E-05,
Horizontal Position,1.485E-04,Horizontal Position,1.485E-04,
Horizontal Mode,Main,Horizontal Mode,Main,
SincET Mode,Real Time,SincET Mode,Real Time,
Sampling Period,5.000e-08,Sampling Period,5.000e-08,
Horizontal Old Scale,5.000E-05,Horizontal Old Scale,5.000E-05,
Horizontal Old Position,1.485E-04,Horizontal Old Position,1.485E-04,
Firmware,V1.32,Firmware,V1.32,
Mode,Fast,Mode,Fast,
Waveform Data,,Waveform Data,,
0, ,8, ,
0, ,8, ,
0, ,8, ,
0, ,8, ,
0, ,8, ,
0, ,8, ,
0, ,8, ,
0, ,8, ,
0, ,8, ,
0, ,8, ,
0, ,8, ,
0, ,8, ,
0, ,8, ,
0, ,8, ,
0, ,8, ,
0, ,8, ,
0, ,8, ,
0, ,8, ,
0, ,8, ,
0, ,8, ,
0, ,8, ,
0, ,8, ,
0, ,8, ,
0, ,8, ,
0, ,8, ,
0, ,8, ,
0, ,8, ,
0, ,8, ,
0, ,8, ,
0, ,8, ,
0, ,8, ,
0, ,8, ,
0, ,8, ,
0, ,8, ,
0, ,8, ,
0, ,8, ,
0, ,8, ,
0, ,8, ,
0, ,8, ,
0, ,8, ,
0, ,8, ,
0, ,8, ,
0, ,8, ,
0, ,8, ,
0, ,8, ,
0, ,8, ,
0, ,8, ,
0, ,8, ,
0, ,8, ,
0, ,8, ,
0, ,8, ,
0, ,8, ,
0, ,8, ,
0, ,8, ,
0, ,8, ,
0, ,8, ,
0, ,8, ,
0, ,8, ,
0, ,8, ,
0, ,8, ,
0, ,8, ,
0, ,8, ,
0, ,8, ,
0, ,8, ,
0, ,8, ,
0, ,8, ,
0, ,8, ,
0, ,8, ,
0, ,8, ,
0, ,8, ,
0, ,8, ,
0, ,8, ,
-1, ,8, ,
0, ,8, ,
0, ,8, ,
0, ,8, ,
0, ,8, ,
0, ,8, ,
0, ,8, ,
0, ,8, ,
0, ,8, ,
0, ,8, ,
0, ,8, ,
0, ,8, ,
0, ,8, ,
0, ,8, ,
0, ,8, ,
0, ,8, ,
0, ,8, ,
0, ,8, ,
0, ,8, ,
0, ,8, ,
0, ,8, ,
0, ,8, ,
0, ,8, ,
0, ,8, ,
0, ,8, ,
0, ,8, ,
0, ,8, ,
0, ,8, ,
0, ,8, ,
0, ,8, ,
0, ,8, ,
0, ,8, ,
0, ,8, ,
0, ,8, ,
0, ,8, ,
0, ,8, ,
0, ,8, ,
0, ,8, ,
0, ,8, ,
0, ,8, ,
0, ,8, ,
0, ,8, ,
0, ,8, ,
0, ,8, ,
0, ,8, ,
0, ,8, ,
0, ,8, ,
0, ,8, ,
0, ,8, ,
0, ,8, ,
0, ,8, ,
0, ,8, ,
0, ,8, ,
0, ,8, ,
0, ,8, ,
0, ,8, ,
0, ,8, ,
0, ,8, ,
0, ,8, ,
0, ,8, ,
0, ,8, ,
0, ,8, ,
0, ,8, ,
0, ,8, ,
0, ,8, ,
0, ,8, ,
0, ,8, ,
0, ,8, ,
0, ,8, ,
0, ,8, ,
0, ,8, ,
0, ,8, ,
0, ,8, ,
0, ,8, ,
0, ,8, ,
0, ,8, ,
0, ,8, ,
0, ,8, ,
0, ,8, ,
0, ,8, ,
0, ,8, ,
0, ,8, ,
0, ,8, ,
0, ,8, ,
0, ,8, ,
0, ,8, ,
0, ,8, ,
0, ,8, ,
0, ,8, ,
0, ,8, ,
0, ,8, ,
0, ,8, ,
0, ,8, ,
0, ,8, ,
0, ,8, ,
0, ,8, ,
0, ,8, ,
0, ,8, ,
0, ,8, ,
0, ,8, ,
0, ,8, ,
0, ,8, ,
0, ,8, ,
0, ,8, ,
0, ,8, ,
0, ,8, ,
0, ,8, ,
0, ,8, ,
0, ,8, ,
0, ,8, ,
0, ,8, ,
0, ,8, ,
0, ,8, ,
0, ,8, ,
0, ,8, ,
0, ,8, ,
0, ,8, ,
0, ,8, ,
0, ,8, ,
0, ,8, ,
0, ,8, ,
0, ,8, ,
0, ,8, ,
0, ,8, ,
0, ,8, ,
0, ,8, ,
0, ,8, ,
0, ,8, ,
0, ,8, ,
0, ,8, ,
0, ,8, ,
0, ,8, ,
0, ,8, ,
0, ,8, ,
0, ,8, ,
0, ,8, ,
0, ,8, ,
0, ,8, ,
0, ,8, ,
0, ,8, ,
0, ,8, ,
0, ,8, ,
0, ,8, ,
0, ,8, ,
0, ,8, ,
0, ,8, ,
0, ,8, ,
0, ,8, ,
0, ,8, ,
0, ,8, ,
0, ,8, ,
0, ,8, ,
0, ,8, ,
0, ,8, ,
0, ,8, ,
0, ,8, ,
0, ,8, ,
0, ,8, ,
0, ,8, ,
0, ,8, ,
0, ,8, ,
0, ,8, ,
0, ,8, ,
0, ,8, ,
0, ,8, ,
0, ,8, ,
0, ,8, ,
0, ,8, ,
0, ,8, ,
0, ,8, ,
0, ,8, ,
0, ,8, ,
0, ,8, ,
0, ,8, ,
0, ,8, ,
0, ,8, ,
0, ,8, ,
0, ,8, ,
0, ,8, ,
0, ,8, ,
0, ,8, ,
0, ,8, ,
0, ,8, ,
0, ,8, ,
0, ,8, ,
0, ,8, ,
0, ,8, ,
0, ,8, ,
0, ,8, ,
0, ,8, ,
0, ,8, ,
0, ,8, ,
0, ,8, ,
0, ,8, ,
0, ,8, ,
0, ,8, ,
0, ,8, ,
0, ,8, ,
0, ,8, ,
0, ,8, ,
0, ,8, ,
0, ,8, ,
0, ,8, ,
0, ,8, ,
0, ,8, ,
0, ,8, ,
0, ,8, ,
0, ,8, ,
0, ,8, ,
0, ,8, ,
0, ,8, ,
0, ,8, ,
0, ,8, ,
0, ,8, ,
0, ,8, ,
0, ,8, ,
0, ,8, ,
0, ,8, ,
0, ,8, ,
0, ,8, ,
0, ,8, ,
0, ,8, ,
0, ,8, ,
0, ,8, ,
0, ,8, ,
0, ,8, ,
0, ,8, ,
0, ,8, ,
0, ,8, ,
0, ,8, ,
0, ,8, ,
0, ,8, ,
0, ,8, ,
0, ,8, ,
0, ,8, ,
0, ,8, ,
0, ,8, ,
0, ,8, ,
0, ,8, ,
0, ,8, ,
0, ,8, ,
0, ,8, ,
0, ,8, ,
0, ,8, ,
0, ,8, ,
0, ,8, ,
0, ,8, ,
0, ,8, ,
0, ,8, ,
0, ,8, ,
0, ,8, ,
0, ,8, ,
0, ,8, ,
0, ,8, ,
0, ,8, ,
0, ,8, ,
0, ,8, ,
0, ,8, ,
0, ,8, ,
0, ,8, ,
0, ,8, ,
0, ,8, ,
0, ,8, ,
0, ,8, ,
0, ,8, ,
0, ,8, ,
0, ,8, ,
0, ,8, ,
0, ,8, ,
0, ,8, ,
0, ,8, ,
0, ,8, ,
0, ,8, ,
0, ,8, ,
0, ,8, ,
0, ,8, ,
0, ,8, ,
0, ,8, ,
0, ,8, ,
0, ,8, ,
0, ,8, ,
0, ,8, ,
0, ,8, ,
0, ,8, ,
0, ,8, ,
0, ,8, ,
0, ,8, ,
0, ,8, ,
0, ,8, ,
0, ,8, ,
0, ,8, ,
0, ,8, ,
0, ,8, ,
0, ,8, ,
0, ,8, ,
0, ,8, ,
0, ,8, ,
0, ,8, ,
0, ,8, ,
0, ,8, ,
0, ,8, ,
0, ,8, ,
0, ,8, ,
0, ,8, ,
0, ,8, ,
0, ,8, ,
0, ,8, ,
0, ,8, ,
0, ,8, ,
0, ,8, ,
0, ,8, ,
0, ,8, ,
0, ,8, ,
0, ,8, ,
0, ,8, ,
0, ,8, ,
0, ,8, ,
0, ,8, ,
0, ,8, ,
0, ,8, ,
0, ,8, ,
0, ,8, ,
0, ,8, ,
0, ,8, ,
0, ,8, ,
0, ,8, ,
0, ,8, ,
0, ,8, ,
0, ,8, ,
0, ,8, ,
0, ,8, ,
0, ,8, ,
0, ,8, ,
0, ,8, ,
0, ,8, ,
0, ,8, ,
0, ,8, ,
0, ,8, ,
0, ,8, ,
0, ,8, ,
0, ,8, ,
0, ,8, ,
0, ,8, ,
0, ,8, ,
0, ,8, ,
0, ,8, ,
0, ,8, ,
0, ,8, ,
0, ,8, ,
0, ,8, ,
0, ,8, ,
0, ,8, ,
0, ,8, ,
0, ,8, ,
0, ,8, ,
0, ,8, ,
0, ,8, ,
0, ,8, ,
0, ,8, ,
0, ,8, ,
0, ,8, ,
0, ,8, ,
0, ,8, ,
0, ,8, ,
0, ,8, ,
0, ,8, ,
0, ,8, ,
0, ,8, ,
0, ,8, ,
0, ,8, ,
0, ,8, ,
0, ,8, ,
0, ,8, ,
0, ,8, ,
0, ,8, ,
0, ,8, ,
0, ,8, ,
0, ,8, ,
0, ,8, ,
0, ,8, ,
0, ,8, ,
0, ,8, ,
0, ,8, ,
0, ,8, ,
0, ,8, ,
0, ,8, ,
0, ,8, ,
0, ,8, ,
0, ,8, ,
0, ,8, ,
0, ,8, ,
0, ,8, ,
0, ,8, ,
0, ,8, ,
0, ,8, ,
0, ,8, ,
0, ,8, ,
0, ,8, ,
0, ,8, ,
0, ,8, ,
0, ,8, ,
0, ,8, ,
0, ,8, ,
0, ,8, ,
0, ,8, ,
0, ,8, ,
0, ,8, ,
0, ,8, ,
0, ,8, ,
0, ,8, ,
0, ,8, ,
0, ,8, ,
0, ,8, ,
0, ,8, ,
0, ,8, ,
0, ,8, ,
0, ,8, ,
0, ,8, ,
0, ,8, ,
0, ,8, ,
0, ,8, ,
0, ,8, ,
0, ,8, ,
0, ,8, ,
0, ,8, ,
0, ,8, ,
0, ,8, ,
0, ,8, ,
0, ,8, ,
0, ,8, ,
0, ,8, ,
0, ,8, ,
0, ,8, ,
0, ,8, ,
0, ,8, ,
0, ,8, ,
0, ,8, ,
0, ,8, ,
0, ,8, ,
0, ,8, ,
0, ,8, ,
0, ,8, ,
0, ,8, ,
0, ,8, ,
0, ,8, ,
0, ,8, ,
0, ,8, ,
0, ,8, ,
0, ,8, ,
0, ,8, ,
0, ,8, ,
0, ,8, ,
0, ,8, ,
0, ,8, ,
0, ,8, ,
0, ,8, ,
0, ,8, ,
0, ,8, ,
0, ,8, ,
0, ,8, ,
0, ,8, ,
0, ,8, ,
0, ,8, ,
0, ,8, ,
0, ,8, ,
0, ,8, ,
0, ,8, ,
0, ,8, ,
0, ,8, ,
0, ,8, ,
0, ,8, ,
0, ,8, ,
0, ,8, ,
0, ,8, ,
0, ,8, ,
0, ,8, ,
0, ,8, ,
0, ,8, ,
0, ,8, ,
0, ,8, ,
0, ,8, ,
0, ,8, ,
0, ,8, ,
0, ,8, ,
0, ,8, ,
0, ,8, ,
0, ,8, ,
0, ,8, ,
0, ,8, ,
0, ,8, ,
0, ,8, ,
0, ,8, ,
0, ,8, ,
0, ,8, ,
0, ,8, ,
0, ,8, ,
0, ,8, ,
0, ,8, ,
0, ,8, ,
0, ,8, ,
0, ,8, ,
0, ,8, ,
0, ,8, ,
0, ,8, ,
0, ,8, ,
0, ,8, ,
0, ,8, ,
0, ,8, ,
0, ,8, ,
0, ,8, ,
0, ,8, ,
0, ,8, ,
0, ,8, ,
0, ,8, ,
0, ,8, ,
0, ,8, ,
0, ,8, ,
0, ,8, ,
0, ,8, ,
0, ,8, ,
0, ,8, ,
0, ,8, ,
0, ,8, ,
0, ,8, ,
0, ,8, ,
0, ,8, ,
0, ,8, ,
0, ,8, ,
0, ,8, ,
0, ,8, ,
0, ,8, ,
0, ,8, ,
0, ,8, ,
0, ,8, ,
0, ,8, ,
0, ,8, ,
0, ,8, ,
0, ,8, ,
0, ,8, ,
0, ,8, ,
0, ,8, ,
0, ,8, ,
0, ,8, ,
0, ,8, ,
0, ,8, ,
0, ,8, ,
0, ,8, ,
0, ,8, ,
0, ,8, ,
0, ,8, ,
0, ,8, ,
0, ,8, ,
0, ,8, ,
0, ,8, ,
0, ,8, ,
0, ,8, ,
-1, ,8, ,
0, ,8, ,
0, ,8, ,
0, ,8, ,
0, ,8, ,
0, ,8, ,
0, ,8, ,
0, ,8, ,
0, ,8, ,
0, ,8, ,
0, ,8, ,
0, ,8, ,
0, ,8, ,
0, ,8, ,
0, ,8, ,
0, ,8, ,
0, ,8, ,
0, ,8, ,
0, ,8, ,
0, ,8, ,
0, ,8, ,
0, ,8, ,
0, ,8, ,
0, ,8, ,
0, ,8, ,
0, ,8, ,
0, ,8, ,
0, ,8, ,
0, ,8, ,
0, ,8, ,
0, ,8, ,
0, ,8, ,
0, ,8, ,
0, ,8, ,
0, ,8, ,
0, ,8, ,
0, ,8, ,
0, ,8, ,
0, ,8, ,
0, ,8, ,
0, ,8, ,
0, ,8, ,
0, ,8, ,
0, ,8, ,
0, ,8, ,
0, ,8, ,
0, ,8, ,
0, ,8, ,
0, ,8, ,
0, ,8, ,
0, ,8, ,
0, ,8, ,
0, ,8, ,
0, ,8, ,
0, ,8, ,
0, ,8, ,
0, ,8, ,
0, ,8, ,
0, ,8, ,
0, ,8, ,
0, ,8, ,
0, ,8, ,
0, ,8, ,
0, ,8, ,
0, ,8, ,
0, ,8, ,
0, ,8, ,
0, ,8, ,
0, ,8, ,
0, ,8, ,
0, ,8, ,
0, ,8, ,
0, ,8, ,
0, ,8, ,
0, ,8, ,
0, ,8, ,
0, ,8, ,
0, ,8, ,
0, ,8, ,
0, ,8, ,
0, ,8, ,
0, ,8, ,
0, ,8, ,
0, ,8, ,
0, ,8, ,
0, ,8, ,
0, ,8, ,
0, ,8, ,
0, ,8, ,
0, ,8, ,
0, ,8, ,
0, ,8, ,
0, ,8, ,
0, ,8, ,
0, ,8, ,
0, ,8, ,
0, ,8, ,
0, ,8, ,
0, ,8, ,
0, ,8, ,
0, ,8, ,
0, ,8, ,
0, ,8, ,
0, ,8, ,
0, ,8, ,
0, ,8, ,
0, ,8, ,
0, ,8, ,
0, ,8, ,
0, ,8, ,
0, ,8, ,
0, ,8, ,
0, ,8, ,
0, ,8, ,
0, ,8, ,
0, ,8, ,
0, ,8, ,
0, ,8, ,
0, ,8, ,
0, ,8, ,
0, ,8, ,
0, ,8, ,
0, ,8, ,
0, ,8, ,
0, ,8, ,
0, ,8, ,
0, ,8, ,
0, ,8, ,
0, ,8, ,
0, ,8, ,
0, ,8, ,
0, ,8, ,
0, ,8, ,
-1, ,8, ,
0, ,8, ,
0, ,8, ,
0, ,8, ,
0, ,8, ,
0, ,8, ,
0, ,8, ,
0, ,8, ,
0, ,8, ,
0, ,8, ,
0, ,8, ,
0, ,8, ,
0, ,8, ,
0, ,8, ,
0, ,8, ,
0, ,8, ,
0, ,8, ,
0, ,8, ,
0, ,8, ,
0, ,8, ,
0, ,8, ,
0, ,8, ,
0, ,8, ,
0, ,8, ,
0, ,8, ,
0, ,8, ,
0, ,8, ,
0, ,8, ,
0, ,8, ,
0, ,8, ,
0, ,8, ,
0, ,8, ,
0, ,8, ,
0, ,8, ,
0, ,8, ,
0, ,8, ,
0, ,8, ,
0, ,8, ,
0, ,8, ,
0, ,8, ,
0, ,8, ,
0, ,8, ,
0, ,8, ,
0, ,8, ,
0, ,8, ,
0, ,8, ,
0, ,8, ,
0, ,8, ,
0, ,8, ,
0, ,8, ,
0, ,8, ,
0, ,8, ,
0, ,8, ,
0, ,8, ,
0, ,8, ,
0, ,8, ,
0, ,8, ,
0, ,8, ,
0, ,8, ,
0, ,8, ,
0, ,8, ,
0, ,8, ,
0, ,8, ,
0, ,8, ,
0, ,8, ,
0, ,8, ,
0, ,8, ,
0, ,8, ,
0, ,8, ,
0, ,8, ,
0, ,8, ,
0, ,8, ,
0, ,8, ,
0, ,8, ,
0, ,8, ,
0, ,8, ,
0, ,8, ,
0, ,8, ,
0, ,8, ,
0, ,8, ,
0, ,8, ,
0, ,8, ,
0, ,8, ,
0, ,8, ,
0, ,8, ,
0, ,8, ,
0, ,8, ,
0, ,8, ,
0, ,8, ,
0, ,8, ,
0, ,8, ,
0, ,8, ,
0, ,8, ,
0, ,8, ,
0, ,8, ,
0, ,8, ,
0, ,8, ,
0, ,8, ,
0, ,8, ,
0, ,8, ,
0, ,8, ,
0, ,8, ,
0, ,8, ,
0, ,8, ,
0, ,8, ,
0, ,8, ,
0, ,8, ,
0, ,8, ,
0, ,8, ,
0, ,8, ,
0, ,8, ,
0, ,8, ,
0, ,8, ,
0, ,8, ,
0, ,8, ,
0, ,8, ,
0, ,8, ,
0, ,8, ,
0, ,8, ,
0, ,8, ,
0, ,8, ,
0, ,8, ,
0, ,8, ,
0, ,8, ,
0, ,8, ,
0, ,8, ,
0, ,8, ,
0, ,8, ,
0, ,8, ,
0, ,8, ,
0, ,8, ,
0, ,8, ,
0, ,8, ,
0, ,8, ,
0, ,8, ,
0, ,8, ,
0, ,8, ,
0, ,8, ,
0, ,8, ,
0, ,8, ,
0, ,8, ,
0, ,8, ,
0, ,8, ,
0, ,8, ,
0, ,8, ,
0, ,8, ,
0, ,8, ,
0, ,8, ,
0, ,8, ,
0, ,8, ,
0, ,8, ,
0, ,8, ,
0, ,8, ,
0, ,8, ,
0, ,8, ,
0, ,8, ,
0, ,8, ,
0, ,8, ,
0, ,8, ,
0, ,8, ,
0, ,8, ,
0, ,8, ,
0, ,8, ,
0, ,8, ,
0, ,8, ,
0, ,8, ,
0, ,8, ,
0, ,8, ,
0, ,8, ,
0, ,8, ,
0, ,8, ,
0, ,8, ,
0, ,8, ,
0, ,8, ,
0, ,8, ,
0, ,8, ,
0, ,8, ,
0, ,8, ,
0, ,8, ,
0, ,8, ,
0, ,8, ,
0, ,8, ,
0, ,8, ,
0, ,8, ,
0, ,8, ,
0, ,8, ,
0, ,8, ,
0, ,8, ,
0, ,8, ,
0, ,8, ,
0, ,8, ,
0, ,8, ,
0, ,8, ,
0, ,8, ,
0, ,8, ,
0, ,8, ,
0, ,8, ,
0, ,8, ,
0, ,8, ,
0, ,8, ,
0, ,8, ,
0, ,8, ,
0, ,8, ,
0, ,8, ,
0, ,8, ,
0, ,8, ,
0, ,8, ,
0, ,8, ,
0, ,8, ,
0, ,8, ,
0, ,8, ,
0, ,8, ,
0, ,8, ,
0, ,8, ,
0, ,8, ,
0, ,8, ,
0, ,8, ,
0, ,8, ,
0, ,8, ,
0, ,8, ,
0, ,8, ,
0, ,8, ,
0, ,8, ,
0, ,8, ,
0, ,8, ,
0, ,8, ,
0, ,8, ,
0, ,8, ,
0, ,8, ,
0, ,8, ,
0, ,8, ,
0, ,8, ,
0, ,8, ,
0, ,8, ,
0, ,8, ,
0, ,8, ,
0, ,8, ,
0, ,8, ,
0, ,8, ,
0, ,8, ,
0, ,8, ,
0, ,8, ,
0, ,8, ,
0, ,8, ,
0, ,8, ,
0, ,8, ,
0, ,8, ,
0, ,8, ,
0, ,8, ,
0, ,8, ,
0, ,8, ,
0, ,8, ,
0, ,8, ,
0, ,8, ,
0, ,8, ,
0, ,8, ,
0, ,8, ,
0, ,8, ,
0, ,8, ,
0, ,8, ,
0, ,8, ,
0, ,8, ,
0, ,8, ,
0, ,8, ,
0, ,8, ,
0, ,8, ,
0, ,8, ,
0, ,8, ,
0, ,8, ,
0, ,8, ,
0, ,8, ,
0, ,8, ,
0, ,8, ,
0, ,8, ,
0, ,8, ,
0, ,8, ,
0, ,8, ,
0, ,8, ,
0, ,8, ,
0, ,8, ,
0, ,8, ,
0, ,8, ,
0, ,8, ,
0, ,8, ,
0, ,8, ,
0, ,8, ,
0, ,8, ,
0, ,8, ,
0, ,8, ,
0, ,8, ,
0, ,8, ,
0, ,8, ,
0, ,8, ,
0, ,8, ,
0, ,8, ,
0, ,8, ,
0, ,8, ,
0, ,8, ,
0, ,8, ,
0, ,8, ,
0, ,8, ,
0, ,8, ,
0, ,8, ,
0, ,8, ,
0, ,8, ,
0, ,8, ,
0, ,8, ,
0, ,8, ,
0, ,8, ,
0, ,8, ,
0, ,8, ,
0, ,8, ,
0, ,8, ,
0, ,8, ,
0, ,8, ,
0, ,8, ,
0, ,8, ,
0, ,8, ,
0, ,8, ,
0, ,8, ,
0, ,8, ,
0, ,8, ,
0, ,8, ,
0, ,8, ,
0, ,8, ,
0, ,8, ,
0, ,8, ,
0, ,8, ,
0, ,8, ,
0, ,8, ,
0, ,8, ,
0, ,8, ,
0, ,8, ,
0, ,8, ,
0, ,8, ,
0, ,8, ,
0, ,8, ,
0, ,8, ,
0, ,8, ,
0, ,8, ,
0, ,8, ,
0, ,8, ,
0, ,8, ,
0, ,8, ,
0, ,8, ,
0, ,8, ,
0, ,8, ,
0, ,8, ,
0, ,8, ,
0, ,8, ,
0, ,8, ,
0, ,8, ,
0, ,8, ,
0, ,8, ,
0, ,8, ,
0, ,8, ,
0, ,8, ,
0, ,8, ,
0, ,8, ,
0, ,8, ,
0, ,8, ,
0, ,8, ,
0, ,8, ,
0, ,8, ,
0, ,8, ,
0, ,8, ,
0, ,8, ,
0, ,8, ,
0, ,8, ,
0, ,8, ,
0, ,8, ,
0, ,8, ,
0, ,8, ,
0, ,8, ,
0, ,8, ,
0, ,8, ,
0, ,8, ,
0, ,8, ,
0, ,8, ,
0, ,8, ,
0, ,8, ,
0, ,8, ,
0, ,8, ,
0, ,8, ,
0, ,8, ,
0, ,8, ,
0, ,8, ,
0, ,8, ,
0, ,8, ,
0, ,8, ,
0, ,8, ,
0, ,8, ,
0, ,8, ,
0, ,8, ,
0, ,8, ,
0, ,8, ,
0, ,8, ,
0, ,8, ,
0, ,8, ,
0, ,8, ,
0, ,8, ,
0, ,8, ,
0, ,8, ,
0, ,8, ,
0, ,8, ,
0, ,8, ,
0, ,8, ,
0, ,8, ,
0, ,8, ,
0, ,8, ,
0, ,8, ,
0, ,8, ,
0, ,8, ,
0, ,8, ,
0, ,8, ,
0, ,8, ,
0, ,8, ,
0, ,8, ,
0, ,8, ,
0, ,8, ,
0, ,8, ,
0, ,8, ,
0, ,8, ,
0, ,8, ,
0, ,8, ,
0, ,8, ,
0, ,8, ,
0, ,8, ,
0, ,8, ,
0, ,8, ,
0, ,8, ,
0, ,8, ,
0, ,8, ,
0, ,8, ,
0, ,8, ,
0, ,8, ,
0, ,8, ,
0, ,8, ,
0, ,8, ,
0, ,8, ,
0, ,8, ,
0, ,8, ,
0, ,8, ,
0, ,8, ,
0, ,8, ,
0, ,8, ,
0, ,8, ,
0, ,8, ,
0, ,8, ,
0, ,8, ,
0, ,8, ,
0, ,8, ,
0, ,8, ,
0, ,8, ,
0, ,8, ,
0, ,8, ,
0, ,8, ,
0, ,8, ,
0, ,8, ,
0, ,8, ,
0, ,8, ,
0, ,8, ,
0, ,8, ,
0, ,8, ,
0, ,8, ,
0, ,8, ,
0, ,8, ,
0, ,8, ,
0, ,8, ,
0, ,8, ,
0, ,8, ,
0, ,8, ,
0, ,8, ,
0, ,8, ,
0, ,8, ,
0, ,8, ,
0, ,8, ,
0, ,8, ,
0, ,8, ,
0, ,8, ,
0, ,8, ,
0, ,8, ,
0, ,8, ,
0, ,8, ,
0, ,8, ,
0, ,8, ,
0, ,8, ,
0, ,8, ,
0, ,8, ,
0, ,8, ,
0, ,8, ,
0, ,8, ,
0, ,8, ,
0, ,8, ,
0, ,8, ,
0, ,8, ,
0, ,8, ,
0, ,8, ,
0, ,8, ,
0, ,8, ,
0, ,8, ,
0, ,8, ,
0, ,8, ,
0, ,8, ,
0, ,8, ,
0, ,8, ,
0, ,8, ,
0, ,8, ,
0, ,8, ,
0, ,8, ,
0, ,8, ,
0, ,8, ,
0, ,8, ,
0, ,8, ,
0, ,8, ,
0, ,8, ,
0, ,8, ,
0, ,8, ,
0, ,8, ,
0, ,8, ,
0, ,8, ,
0, ,8, ,
0, ,8, ,
0, ,8, ,
0, ,8, ,
0, ,8, ,
0, ,8, ,
0, ,8, ,
0, ,8, ,
0, ,8, ,
0, ,8, ,
0, ,8, ,
0, ,8, ,
0, ,8, ,
0, ,8, ,
0, ,8, ,
0, ,8, ,
0, ,8, ,
0, ,8, ,
0, ,8, ,
0, ,8, ,
0, ,8, ,
0, ,8, ,
0, ,8, ,
0, ,8, ,
0, ,8, ,
0, ,8, ,
0, ,8, ,
0, ,8, ,
0, ,8, ,
0, ,8, ,
0, ,8, ,
0, ,8, ,
0, ,8, ,
0, ,8, ,
0, ,8, ,
0, ,8, ,
0, ,8, ,
0, ,8, ,
0, ,8, ,
0, ,8, ,
0, ,8, ,
0, ,8, ,
0, ,8, ,
0, ,8, ,
0, ,8, ,
0, ,8, ,
0, ,8, ,
0, ,8, ,
0, ,8, ,
0, ,8, ,
0, ,8, ,
0, ,8, ,
0, ,8, ,
0, ,8, ,
0, ,8, ,
0, ,8, ,
0, ,8, ,
0, ,8, ,
0, ,8, ,
0, ,8, ,
0, ,8, ,
0, ,8, ,
0, ,8, ,
0, ,8, ,
0, ,8, ,
0, ,8, ,
0, ,8, ,
0, ,8, ,
0, ,8, ,
0, ,8, ,
0, ,8, ,
0, ,8, ,
0, ,8, ,
0, ,8, ,
0, ,8, ,
0, ,8, ,
0, ,8, ,
0, ,8, ,
0, ,8, ,
0, ,8, ,
0, ,8, ,
0, ,8, ,
0, ,8, ,
0, ,8, ,
0, ,8, ,
0, ,8, ,
0, ,8, ,
0, ,8, ,
0, ,8, ,
0, ,8, ,
0, ,8, ,
0, ,8, ,
0, ,8, ,
0, ,8, ,
0, ,8, ,
0, ,8, ,
0, ,8, ,
0, ,8, ,
0, ,8, ,
0, ,8, ,
0, ,8, ,
0, ,8, ,
0, ,8, ,
0, ,8, ,
0, ,8, ,
0, ,8, ,
0, ,8, ,
0, ,8, ,
0, ,8, ,
0, ,8, ,
0, ,8, ,
0, ,8, ,
0, ,8, ,
0, ,8, ,
0, ,8, ,
0, ,8, ,
0, ,8, ,
0, ,8, ,
0, ,8, ,
0, ,8, ,
0, ,8, ,
0, ,8, ,
0, ,8, ,
0, ,8, ,
0, ,8, ,
0, ,8, ,
0, ,8, ,
0, ,8, ,
0, ,8, ,
0, ,8, ,
0, ,8, ,
0, ,8, ,
0, ,8, ,
0, ,8, ,
0, ,8, ,
0, ,8, ,
0, ,8, ,
0, ,8, ,
0, ,8, ,
0, ,8, ,
0, ,8, ,
0, ,8, ,
0, ,8, ,
0, ,8, ,
0, ,8, ,
0, ,8, ,
0, ,8, ,
0, ,8, ,
0, ,8, ,
0, ,8, ,
0, ,8, ,
0, ,8, ,
0, ,8, ,
0, ,8, ,
0, ,8, ,
0, ,8, ,
0, ,8, ,
0, ,8, ,
0, ,8, ,
0, ,8, ,
0, ,8, ,
0, ,8, ,
0, ,8, ,
0, ,8, ,
0, ,8, ,
0, ,8, ,
0, ,8, ,
0, ,8, ,
0, ,8, ,
0, ,8, ,
0, ,8, ,
0, ,8, ,
0, ,8, ,
0, ,8, ,
0, ,8, ,
0, ,8, ,
0, ,8, ,
0, ,8, ,
0, ,8, ,
0, ,8, ,
0, ,8, ,
0, ,8, ,
0, ,8, ,
0, ,8, ,
0, ,8, ,
0, ,8, ,
0, ,8, ,
0, ,8, ,
0, ,8, ,
0, ,8, ,
0, ,8, ,
0, ,8, ,
0, ,8, ,
0, ,8, ,
0, ,8, ,
0, ,8, ,
0, ,8, ,
0, ,8, ,
0, ,8, ,
0, ,8, ,
0, ,8, ,
0, ,8, ,
0, ,8, ,
0, ,8, ,
0, ,8, ,
0, ,8, ,
0, ,8, ,
0, ,8, ,
0, ,8, ,
0, ,8, ,
0, ,8, ,
0, ,8, ,
0, ,8, ,
0, ,8, ,
0, ,8, ,
0, ,8, ,
0, ,8, ,
0, ,8, ,
0, ,8, ,
0, ,8, ,
0, ,8, ,
0, ,8, ,
0, ,8, ,
0, ,8, ,
0, ,8, ,
0, ,8, ,
0, ,8, ,
0, ,8, ,
0, ,8, ,
0, ,8, ,
0, ,8, ,
0, ,8, ,
0, ,8, ,
0, ,8, ,
0, ,8, ,
0, ,8, ,
0, ,8, ,
0, ,8, ,
0, ,8, ,
0, ,8, ,
0, ,8, ,
0, ,8, ,
0, ,8, ,
0, ,8, ,
0, ,8, ,
0, ,8, ,
0, ,8, ,
0, ,8, ,
0, ,8, ,
0, ,8, ,
0, ,8, ,
0, ,8, ,
0, ,8, ,
0, ,8, ,
0, ,8, ,
0, ,8, ,
0, ,8, ,
0, ,8, ,
0, ,8, ,
0, ,8, ,
0, ,8, ,
0, ,8, ,
0, ,8, ,
0, ,8, ,
0, ,8, ,
0, ,8, ,
0, ,8, ,
0, ,8, ,
0, ,8, ,
0, ,8, ,
0, ,8, ,
0, ,8, ,
0, ,8, ,
0, ,8, ,
0, ,8, ,
0, ,8, ,
0, ,8, ,
0, ,8, ,
0, ,8, ,
0, ,8, ,
0, ,8, ,
0, ,8, ,
0, ,8, ,
0, ,8, ,
0, ,8, ,
0, ,8, ,
0, ,8, ,
0, ,8, ,
0, ,8, ,
0, ,8, ,
0, ,8, ,
0, ,8, ,
0, ,8, ,
0, ,8, ,
0, ,8, ,
0, ,8, ,
0, ,8, ,
0, ,8, ,
0, ,8, ,
0, ,8, ,
0, ,8, ,
0, ,8, ,
0, ,8, ,
0, ,8, ,
0, ,8, ,
0, ,8, ,
0, ,8, ,
0, ,8, ,
0, ,8, ,
0, ,8, ,
0, ,8, ,
0, ,8, ,
0, ,8, ,
0, ,8, ,
0, ,8, ,
0, ,8, ,
0, ,8, ,
0, ,8, ,
0, ,8, ,
0, ,8, ,
0, ,8, ,
0, ,8, ,
0, ,8, ,
0, ,8, ,
0, ,8, ,
0, ,8, ,
0, ,8, ,
0, ,8, ,
0, ,8, ,
0, ,8, ,
0, ,8, ,
0, ,8, ,
0, ,8, ,
0, ,8, ,
0, ,8, ,
0, ,8, ,
0, ,8, ,
0, ,8, ,
0, ,8, ,
0, ,8, ,
0, ,8, ,
0, ,8, ,
0, ,8, ,
0, ,8, ,
0, ,8, ,
0, ,8, ,
0, ,8, ,
0, ,8, ,
0, ,8, ,
0, ,8, ,
0, ,8, ,
0, ,8, ,
0, ,8, ,
0, ,8, ,
0, ,8, ,
0, ,8, ,
0, ,8, ,
0, ,8, ,
0, ,8, ,
0, ,8, ,
0, ,8, ,
0, ,8, ,
0, ,8, ,
0, ,8, ,
0, ,8, ,
0, ,8, ,
0, ,8, ,
0, ,8, ,
0, ,8, ,
0, ,8, ,
0, ,8, ,
0, ,8, ,
0, ,8, ,
0, ,8, ,
0, ,8, ,
0, ,8, ,
0, ,8, ,
0, ,8, ,
0, ,8, ,
0, ,8, ,
0, ,8, ,
0, ,8, ,
0, ,8, ,
0, ,8, ,
0, ,8, ,
0, ,8, ,
0, ,8, ,
0, ,8, ,
0, ,8, ,
0, ,8, ,
0, ,8, ,
0, ,8, ,
0, ,8, ,
0, ,8, ,
0, ,8, ,
0, ,8, ,
0, ,8, ,
0, ,8, ,
0, ,8, ,
0, ,8, ,
0, ,8, ,
0, ,8, ,
0, ,8, ,
0, ,8, ,
0, ,8, ,
0, ,8, ,
0, ,8, ,
0, ,8, ,
0, ,8, ,
0, ,8, ,
0, ,8, ,
0, ,8, ,
0, ,8, ,
0, ,8, ,
0, ,8, ,
0, ,8, ,
0, ,8, ,
0, ,8, ,
0, ,8, ,
0, ,8, ,
0, ,8, ,
0, ,8, ,
0, ,8, ,
0, ,8, ,
0, ,8, ,
0, ,8, ,
0, ,8, ,
0, ,8, ,
0, ,8, ,
0, ,8, ,
0, ,8, ,
0, ,8, ,
0, ,8, ,
0, ,8, ,
0, ,8, ,
0, ,8, ,
0, ,8, ,
0, ,8, ,
0, ,8, ,
0, ,8, ,
0, ,8, ,
0, ,8, ,
0, ,8, ,
0, ,8, ,
0, ,8, ,
0, ,8, ,
0, ,8, ,
0, ,8, ,
0, ,8, ,
0, ,8, ,
0, ,8, ,
0, ,8, ,
0, ,8, ,
0, ,8, ,
0, ,8, ,
0, ,8, ,
0, ,8, ,
0, ,8, ,
0, ,8, ,
0, ,8, ,
0, ,8, ,
0, ,8, ,
0, ,8, ,
0, ,8, ,
0, ,8, ,
0, ,8, ,
0, ,8, ,
0, ,8, ,
0, ,8, ,
0, ,8, ,
0, ,8, ,
0, ,8, ,
0, ,8, ,
0, ,8, ,
0, ,8, ,
0, ,8, ,
0, ,8, ,
0, ,8, ,
0, ,8, ,
0, ,8, ,
0, ,8, ,
0, ,8, ,
0, ,8, ,
0, ,8, ,
0, ,8, ,
0, ,8, ,
0, ,8, ,
0, ,8, ,
0, ,8, ,
0, ,8, ,
0, ,8, ,
0, ,8, ,
0, ,8, ,
0, ,8, ,
0, ,8, ,
0, ,8, ,
0, ,8, ,
0, ,8, ,
0, ,8, ,
0, ,8, ,
0, ,8, ,
0, ,8, ,
0, ,8, ,
0, ,8, ,
0, ,8, ,
0, ,8, ,
0, ,8, ,
0, ,8, ,
0, ,8, ,
0, ,8, ,
0, ,8, ,
0, ,8, ,
0, ,8, ,
0, ,8, ,
0, ,8, ,
0, ,8, ,
0, ,8, ,
0, ,8, ,
0, ,8, ,
0, ,8, ,
0, ,8, ,
0, ,8, ,
0, ,8, ,
0, ,8, ,
0, ,8, ,
0, ,8, ,
0, ,8, ,
0, ,8, ,
0, ,8, ,
0, ,8, ,
0, ,8, ,
0, ,8, ,
0, ,8, ,
0, ,8, ,
0, ,8, ,
0, ,8, ,
0, ,8, ,
0, ,8, ,
0, ,8, ,
0, ,8, ,
0, ,8, ,
0, ,8, ,
0, ,8, ,
0, ,8, ,
0, ,8, ,
0, ,8, ,
0, ,8, ,
0, ,8, ,
0, ,8, ,
0, ,8, ,
0, ,8, ,
0, ,8, ,
0, ,8, ,
0, ,8, ,
0, ,8, ,
0, ,8, ,
0, ,8, ,
0, ,8, ,
0, ,8, ,
0, ,8, ,
-1, ,8, ,
0, ,8, ,
0, ,8, ,
0, ,8, ,
0, ,8, ,
0, ,8, ,
0, ,8, ,
0, ,8, ,
0, ,8, ,
0, ,8, ,
0, ,8, ,
0, ,8, ,
0, ,8, ,
0, ,8, ,
0, ,8, ,
0, ,8, ,
0, ,8, ,
0, ,8, ,
0, ,8, ,
0, ,8, ,
0, ,8, ,
0, ,8, ,
0, ,8, ,
0, ,8, ,
0, ,8, ,
0, ,8, ,
0, ,8, ,
0, ,8, ,
0, ,8, ,
0, ,8, ,
0, ,8, ,
0, ,8, ,
0, ,8, ,
0, ,8, ,
0, ,8, ,
0, ,8, ,
0, ,8, ,
0, ,8, ,
0, ,8, ,
0, ,8, ,
0, ,8, ,
0, ,8, ,
0, ,8, ,
-1, ,8, ,
0, ,8, ,
0, ,8, ,
0, ,8, ,
0, ,8, ,
0, ,8, ,
0, ,8, ,
0, ,8, ,
0, ,8, ,
0, ,8, ,
0, ,8, ,
0, ,8, ,
0, ,8, ,
0, ,8, ,
0, ,8, ,
0, ,8, ,
0, ,8, ,
0, ,8, ,
0, ,8, ,
0, ,8, ,
0, ,8, ,
0, ,8, ,
0, ,8, ,
0, ,8, ,
0, ,8, ,
0, ,8, ,
0, ,8, ,
0, ,8, ,
0, ,8, ,
0, ,8, ,
0, ,8, ,
0, ,8, ,
0, ,8, ,
0, ,8, ,
0, ,8, ,
0, ,8, ,
0, ,8, ,
0, ,8, ,
0, ,8, ,
0, ,8, ,
0, ,8, ,
0, ,8, ,
0, ,8, ,
0, ,8, ,
0, ,8, ,
0, ,8, ,
0, ,8, ,
0, ,8, ,
0, ,8, ,
0, ,8, ,
0, ,8, ,
0, ,8, ,
0, ,8, ,
0, ,8, ,
0, ,8, ,
0, ,8, ,
0, ,8, ,
0, ,8, ,
0, ,8, ,
0, ,8, ,
0, ,8, ,
0, ,8, ,
0, ,8, ,
0, ,8, ,
0, ,8, ,
0, ,8, ,
0, ,8, ,
0, ,8, ,
0, ,8, ,
0, ,8, ,
0, ,8, ,
0, ,8, ,
-1, ,8, ,
0, ,8, ,
0, ,8, ,
0, ,8, ,
0, ,8, ,
0, ,8, ,
0, ,8, ,
0, ,8, ,
0, ,8, ,
0, ,8, ,
0, ,8, ,
0, ,8, ,
0, ,8, ,
0, ,8, ,
0, ,8, ,
0, ,8, ,
0, ,8, ,
0, ,8, ,
0, ,8, ,
0, ,8, ,
0, ,8, ,
0, ,8, ,
0, ,8, ,
0, ,8, ,
0, ,8, ,
0, ,8, ,
-1, ,8, ,
0, ,8, ,
0, ,8, ,
0, ,8, ,
0, ,8, ,
0, ,8, ,
0, ,8, ,
0, ,8, ,
0, ,8, ,
0, ,8, ,
0, ,8, ,
0, ,8, ,
0, ,8, ,
0, ,8, ,
0, ,8, ,
0, ,8, ,
0, ,8, ,
0, ,8, ,
0, ,8, ,
0, ,8, ,
0, ,8, ,
0, ,8, ,
0, ,8, ,
0, ,8, ,
0, ,8, ,
0, ,8, ,
0, ,8, ,
0, ,8, ,
0, ,8, ,
0, ,8, ,
0, ,8, ,
0, ,8, ,
0, ,8, ,
0, ,8, ,
0, ,8, ,
0, ,8, ,
0, ,8, ,
0, ,8, ,
0, ,8, ,
0, ,8, ,
0, ,8, ,
0, ,8, ,
0, ,8, ,
0, ,8, ,
0, ,8, ,
0, ,8, ,
0, ,8, ,
127, ,8, ,
127, ,8, ,
127, ,8, ,
127, ,8, ,
127, ,8, ,
84, ,8, ,
43, ,8, ,
17, ,8, ,
2, ,8, ,
-5, ,8, ,
-9, ,8, ,
-10, ,8, ,
-10, ,8, ,
-9, ,8, ,
-7, ,8, ,
-6, ,8, ,
-5, ,8, ,
-4, ,8, ,
-4, ,8, ,
-2, ,8, ,
-2, ,8, ,
-2, ,8, ,
-1, ,8, ,
-1, ,8, ,
-1, ,8, ,
-4, ,8, ,
0, ,8, ,
-7, ,8, ,
0, ,8, ,
-1, ,8, ,
1, ,8, ,
-1, ,8, ,
0, ,8, ,
-5, ,8, ,
-4, ,8, ,
-28, ,8, ,
-37, ,8, ,
-90, ,8, ,
-80, ,8, ,
-54, ,8, ,
-9, ,8, ,
-13, ,8, ,
-4, ,8, ,
-40, ,8, ,
-51, ,8, ,
-46, ,8, ,
-77, ,8, ,
-46, ,8, ,
-77, ,8, ,
-57, ,8, ,
-66, ,8, ,
-38, ,8, ,
-27, ,8, ,
-5, ,8, ,
11, ,8, ,
16, ,8, ,
12, ,8, ,
-5, ,8, ,
-28, ,8, ,
-59, ,8, ,
-79, ,8, ,
-74, ,8, ,
-65, ,8, ,
-20, ,8, ,
-4, ,8, ,
