raw_data/75% Glycerol, Impulsion 2Hz, Sonde 5MHz, Rampe 0.7Hz/temp0000229.CSV

Format,1.0B,
Memory Length,10000,Memory Length,10000,
IntpDistance,0,IntpDistance,0,
Trigger Address,159,Trigger Address,159,
Trigger Level,2.720E-01,Trigger Level,2.720E-01,
Source,CH1,Source,CH2,
Vertical Units,V,Vertical Units,V,
Vertical Units Div,0,Vertical Units Div,0,
Vertical Units Extend Div,16,Vertical Units Extend Div,16,
Label,,Label,,
Probe Type,0,Probe Type,0,
Probe Ratio,1.000e+00,Probe Ratio,1.000e+00,
Vertical Scale,5.000e-01,Vertical Scale,2.000e+00,
Vertical Position,0.000e+00,Vertical Position,0.000e+00,
Horizontal Units,S,Horizontal Units,S,
Horizontal Scale,5.000E-06,Horizontal Scale,5.000E-06,
Horizontal Position,2.420E-05,Horizontal Position,2.420E-05,
Horizontal Mode,Main,Horizontal Mode,Main,
SincET Mode,Real Time,SincET Mode,Real Time,
Sampling Period,5.000e-09,Sampling Period,5.000e-09,
Horizontal Old Scale,5.000E-06,Horizontal Old Scale,5.000E-06,
Horizontal Old Position,2.420E-05,Horizontal Old Position,2.420E-05,
Firmware,V1.32,Firmware,V1.32,
Mode,Fast,Mode,Fast,
Waveform Data,,Waveform Data,,
1, ,4, ,
1, ,4, ,
1, ,4, ,
1, ,4, ,
1, ,5, ,
1, ,4, ,
1, ,4, ,
1, ,4, ,
1, ,4, ,
1, ,4, ,
1, ,5, ,
1, ,5, ,
1, ,4, ,
1, ,4, ,
1, ,4, ,
1, ,5, ,
1, ,5, ,
0, ,5, ,
0, ,5, ,
1, ,4, ,
0, ,4, ,
0, ,4, ,
0, ,4, ,
1, ,5, ,
1, ,4, ,
0, ,4, ,
0, ,5, ,
1, ,4, ,
1, ,4, ,
1, ,5, ,
1, ,4, ,
1, ,4, ,
1, ,4, ,
1, ,4, ,
1, ,4, ,
1, ,4, ,
0, ,4, ,
0, ,4, ,
1, ,4, ,
0, ,4, ,
0, ,5, ,
0, ,4, ,
1, ,4, ,
1, ,4, ,
1, ,4, ,
1, ,5, ,
1, ,4, ,
1, ,4, ,
1, ,4, ,
0, ,4, ,
0, ,4, ,
1, ,4, ,
1, ,4, ,
1, ,4, ,
1, ,4, ,
0, ,4, ,
0, ,5, ,
0, ,5, ,
1, ,5, ,
1, ,4, ,
0, ,4, ,
0, ,4, ,
0, ,4, ,
0, ,4, ,
1, ,4, ,
0, ,4, ,
0, ,5, ,
1, ,5, ,
0, ,4, ,
0, ,4, ,
0, ,4, ,
1, ,4, ,
1, ,4, ,
0, ,4, ,
0, ,4, ,
1, ,4, ,
1, ,4, ,
1, ,4, ,
1, ,4, ,
1, ,4, ,
1, ,4, ,
1, ,4, ,
1, ,4, ,
1, ,4, ,
1, ,4, ,
1, ,4, ,
1, ,4, ,
1, ,4, ,
1, ,5, ,
1, ,4, ,
1, ,4, ,
1, ,4, ,
1, ,4, ,
1, ,5, ,
1, ,4, ,
1, ,4, ,
1, ,5, ,
0, ,5, ,
0, ,5, ,
1, ,4, ,
1, ,4, ,
1, ,4, ,
1, ,4, ,
1, ,4, ,
1, ,5, ,
1, ,4, ,
1, ,4, ,
0, ,4, ,
0, ,4, ,
0, ,5, ,
0, ,4, ,
0, ,4, ,
1, ,4, ,
1, ,4, ,
1, ,4, ,
1, ,4, ,
0, ,4, ,
0, ,4, ,
0, ,4, ,
1, ,4, ,
1, ,4, ,
0, ,4, ,
0, ,4, ,
1, ,4, ,
0, ,4, ,
0, ,5, ,
0, ,4, ,
1, ,4, ,
1, ,5, ,
1, ,4, ,
1, ,4, ,
1, ,4, ,
1, ,5, ,
1, ,4, ,
1, ,4, ,
1, ,4, ,
1, ,5, ,
1, ,4, ,
1, ,4, ,
1, ,4, ,
1, ,4, ,
0, ,4, ,
0, ,4, ,
1, ,4, ,
1, ,4, ,
1, ,4, ,
1, ,4, ,
0, ,4, ,
0, ,5, ,
1, ,5, ,
1, ,5, ,
1, ,4, ,
1, ,4, ,
0, ,4, ,
0, ,4, ,
1, ,4, ,
1, ,4, ,
1, ,4, ,
1, ,4, ,
0, ,4, ,
0, ,4, ,
0, ,4, ,
1, ,4, ,
0, ,4, ,
0, ,5, ,
-1, ,5, ,
0, ,4, ,
3, ,4, ,
20, ,5, ,
51, ,4, ,
92, ,4, ,
124, ,4, ,
121, ,4, ,
92, ,4, ,
30, ,5, ,
11, ,4, ,
63, ,4, ,
113, ,4, ,
125, ,4, ,
125, ,4, ,
125, ,4, ,
125, ,4, ,
125, ,4, ,
124, ,4, ,
124, ,4, ,
120, ,4, ,
115, ,5, ,
106, ,4, ,
103, ,4, ,
100, ,4, ,
97, ,4, ,
89, ,5, ,
85, ,4, ,
82, ,4, ,
79, ,4, ,
75, ,4, ,
71, ,4, ,
69, ,4, ,
65, ,4, ,
61, ,4, ,
58, ,4, ,
55, ,4, ,
53, ,4, ,
49, ,4, ,
47, ,4, ,
45, ,4, ,
42, ,4, ,
40, ,4, ,
38, ,4, ,
36, ,4, ,
34, ,4, ,
32, ,4, ,
30, ,4, ,
29, ,4, ,
27, ,4, ,
25, ,4, ,
24, ,5, ,
23, ,5, ,
22, ,5, ,
21, ,4, ,
19, ,4, ,
18, ,5, ,
17, ,4, ,
15, ,4, ,
15, ,4, ,
14, ,4, ,
13, ,4, ,
12, ,4, ,
11, ,5, ,
11, ,5, ,
10, ,4, ,
9, ,4, ,
9, ,5, ,
8, ,4, ,
8, ,4, ,
7, ,4, ,
6, ,4, ,
6, ,4, ,
5, ,5, ,
5, ,5, ,
5, ,4, ,
4, ,4, ,
4, ,4, ,
3, ,4, ,
3, ,4, ,
3, ,5, ,
3, ,5, ,
2, ,5, ,
2, ,4, ,
2, ,4, ,
2, ,5, ,
1, ,4, ,
1, ,4, ,
1, ,5, ,
1, ,4, ,
0, ,4, ,
0, ,5, ,
0, ,4, ,
0, ,4, ,
0, ,4, ,
-1, ,4, ,
-1, ,4, ,
-1, ,4, ,
-1, ,4, ,
-1, ,5, ,
-1, ,5, ,
-1, ,5, ,
-1, ,4, ,
-1, ,4, ,
-1, ,5, ,
-1, ,5, ,
-1, ,5, ,
-1, ,5, ,
-1, ,4, ,
-1, ,4, ,
-1, ,4, ,
-1, ,4, ,
-1, ,5, ,
-1, ,4, ,
-1, ,4, ,
-1, ,4, ,
-1, ,4, ,
-1, ,5, ,
-1, ,4, ,
-1, ,4, ,
-1, ,5, ,
-1, ,4, ,
-1, ,4, ,
-1, ,4, ,
-1, ,4, ,
-1, ,4, ,
-1, ,4, ,
-1, ,4, ,
-1, ,4, ,
-1, ,4, ,
-1, ,4, ,
-1, ,4, ,
-1, ,4, ,
-1, ,4, ,
-1, ,4, ,
-1, ,4, ,
-1, ,5, ,
-1, ,5, ,
-1, ,5, ,
-1, ,4, ,
-1, ,4, ,
-1, ,4, ,
-1, ,4, ,
-1, ,4, ,
0, ,4, ,
-1, ,4, ,
-1, ,4, ,
-1, ,4, ,
0, ,4, ,
-1, ,4, ,
-1, ,4, ,
0, ,5, ,
-1, ,5, ,
-1, ,4, ,
0, ,4, ,
-1, ,5, ,
-1, ,5, ,
-1, ,5, ,
0, ,4, ,
-1, ,4, ,
-1, ,4, ,
-1, ,4, ,
0, ,4, ,
0, ,5, ,
-1, ,5, ,
-1, ,5, ,
0, ,5, ,
0, ,5, ,
0, ,5, ,
0, ,5, ,
0, ,5, ,
0, ,4, ,
0, ,4, ,
0, ,5, ,
0, ,5, ,
-1, ,4, ,
0, ,4, ,
0, ,4, ,
0, ,4, ,
0, ,5, ,
0, ,4, ,
0, ,4, ,
0, ,4, ,
0, ,4, ,
0, ,4, ,
0, ,4, ,
0, ,4, ,
0, ,4, ,
0, ,4, ,
0, ,4, ,
0, ,4, ,
0, ,4, ,
0, ,4, ,
0, ,4, ,
0, ,4, ,
0, ,4, ,
0, ,4, ,
0, ,5, ,
0, ,4, ,
0, ,4, ,
0, ,5, ,
0, ,4, ,
0, ,4, ,
0, ,4, ,
0, ,4, ,
0, ,5, ,
0, ,5, ,
0, ,4, ,
0, ,4, ,
0, ,4, ,
0, ,4, ,
0, ,4, ,
0, ,4, ,
1, ,5, ,
0, ,4, ,
0, ,4, ,
0, ,5, ,
0, ,5, ,
0, ,5, ,
0, ,4, ,
0, ,4, ,
0, ,4, ,
0, ,4, ,
0, ,4, ,
0, ,4, ,
0, ,4, ,
0, ,4, ,
0, ,4, ,
0, ,4, ,
1, ,5, ,
0, ,5, ,
0, ,5, ,
0, ,5, ,
0, ,5, ,
1, ,5, ,
1, ,5, ,
0, ,5, ,
0, ,4, ,
0, ,4, ,
0, ,5, ,
0, ,5, ,
0, ,5, ,
0, ,5, ,
0, ,4, ,
0, ,4, ,
0, ,4, ,
0, ,4, ,
0, ,4, ,
1, ,5, ,
0, ,5, ,
0, ,4, ,
1, ,4, ,
0, ,4, ,
0, ,5, ,
1, ,4, ,
1, ,4, ,
1, ,4, ,
1, ,4, ,
0, ,4, ,
0, ,5, ,
0, ,5, ,
0, ,5, ,
0, ,4, ,
0, ,4, ,
1, ,5, ,
0, ,4, ,
0, ,4, ,
0, ,5, ,
0, ,4, ,
0, ,4, ,
-1, ,4, ,
-1, ,4, ,
-2, ,4, ,
-2, ,4, ,
-5, ,5, ,
-6, ,5, ,
-7, ,5, ,
-9, ,5, ,
-14, ,4, ,
-15, ,4, ,
-15, ,5, ,
-15, ,4, ,
-11, ,4, ,
-7, ,4, ,
-5, ,4, ,
-3, ,4, ,
0, ,4, ,
1, ,5, ,
2, ,5, ,
2, ,4, ,
3, ,4, ,
4, ,4, ,
4, ,4, ,
4, ,4, ,
4, ,4, ,
4, ,4, ,
4, ,4, ,
3, ,4, ,
3, ,4, ,
3, ,5, ,
3, ,4, ,
2, ,4, ,
2, ,4, ,
2, ,4, ,
2, ,4, ,
2, ,4, ,
2, ,5, ,
2, ,4, ,
2, ,4, ,
2, ,4, ,
2, ,4, ,
2, ,4, ,
2, ,4, ,
2, ,4, ,
2, ,4, ,
2, ,4, ,
1, ,4, ,
1, ,4, ,
1, ,4, ,
1, ,4, ,
1, ,4, ,
1, ,4, ,
1, ,4, ,
1, ,4, ,
1, ,4, ,
1, ,5, ,
1, ,4, ,
2, ,4, ,
2, ,4, ,
2, ,4, ,
1, ,4, ,
1, ,5, ,
1, ,5, ,
2, ,5, ,
1, ,4, ,
1, ,4, ,
1, ,4, ,
1, ,4, ,
1, ,4, ,
1, ,4, ,
1, ,4, ,
1, ,4, ,
1, ,4, ,
1, ,4, ,
1, ,4, ,
1, ,4, ,
2, ,5, ,
2, ,5, ,
2, ,5, ,
2, ,5, ,
2, ,5, ,
1, ,4, ,
1, ,4, ,
1, ,4, ,
0, ,4, ,
-1, ,4, ,
-2, ,4, ,
-3, ,4, ,
-6, ,4, ,
-8, ,4, ,
-9, ,4, ,
-12, ,4, ,
-15, ,4, ,
-16, ,4, ,
-16, ,4, ,
-16, ,4, ,
-16, ,4, ,
-15, ,4, ,
-15, ,4, ,
-14, ,4, ,
-13, ,4, ,
-13, ,4, ,
-13, ,4, ,
-14, ,5, ,
-15, ,4, ,
-16, ,4, ,
-17, ,4, ,
-19, ,4, ,
-23, ,5, ,
-24, ,4, ,
-25, ,4, ,
-26, ,4, ,
-26, ,4, ,
-26, ,4, ,
-25, ,4, ,
-25, ,4, ,
-25, ,5, ,
-24, ,4, ,
-25, ,4, ,
-25, ,4, ,
-25, ,4, ,
-26, ,4, ,
-27, ,4, ,
-28, ,4, ,
-32, ,4, ,
-34, ,4, ,
-35, ,4, ,
-36, ,4, ,
-36, ,4, ,
-35, ,4, ,
-34, ,4, ,
-32, ,4, ,
-27, ,4, ,
-25, ,4, ,
-22, ,4, ,
-18, ,5, ,
-11, ,4, ,
-9, ,4, ,
-5, ,5, ,
-3, ,4, ,
1, ,4, ,
3, ,4, ,
4, ,4, ,
5, ,4, ,
8, ,4, ,
8, ,4, ,
8, ,4, ,
9, ,4, ,
10, ,4, ,
12, ,4, ,
12, ,4, ,
13, ,5, ,
14, ,4, ,
15, ,4, ,
15, ,4, ,
15, ,4, ,
14, ,5, ,
14, ,5, ,
14, ,4, ,
13, ,4, ,
12, ,4, ,
11, ,5, ,
9, ,5, ,
8, ,5, ,
5, ,5, ,
3, ,4, ,
2, ,4, ,
1, ,5, ,
-1, ,4, ,
-2, ,4, ,
-2, ,5, ,
-2, ,4, ,
-2, ,4, ,
-1, ,5, ,
0, ,4, ,
0, ,4, ,
1, ,4, ,
1, ,4, ,
2, ,4, ,
2, ,4, ,
3, ,4, ,
4, ,4, ,
4, ,4, ,
5, ,4, ,
5, ,5, ,
5, ,4, ,
4, ,4, ,
4, ,4, ,
3, ,4, ,
3, ,5, ,
1, ,5, ,
1, ,5, ,
-2, ,5, ,
-3, ,4, ,
-4, ,4, ,
-6, ,4, ,
-9, ,5, ,
-10, ,4, ,
-12, ,4, ,
-13, ,5, ,
-16, ,4, ,
-17, ,4, ,
-18, ,4, ,
-20, ,4, ,
-21, ,4, ,
-22, ,4, ,
-22, ,4, ,
-22, ,4, ,
-22, ,4, ,
-21, ,4, ,
-20, ,5, ,
-20, ,5, ,
-17, ,5, ,
-15, ,5, ,
-14, ,5, ,
-13, ,5, ,
-11, ,4, ,
-10, ,4, ,
-9, ,4, ,
-9, ,4, ,
-9, ,4, ,
-9, ,5, ,
-10, ,4, ,
-10, ,4, ,
-10, ,4, ,
-10, ,4, ,
-10, ,4, ,
-10, ,4, ,
-10, ,5, ,
-9, ,4, ,
-9, ,4, ,
-8, ,4, ,
-8, ,4, ,
-8, ,4, ,
-7, ,4, ,
-7, ,4, ,
-6, ,4, ,
-6, ,4, ,
-6, ,4, ,
-5, ,4, ,
-4, ,4, ,
-4, ,4, ,
-3, ,4, ,
-2, ,4, ,
-1, ,5, ,
0, ,4, ,
0, ,4, ,
1, ,5, ,
2, ,4, ,
1, ,4, ,
1, ,4, ,
1, ,4, ,
1, ,4, ,
1, ,4, ,
0, ,4, ,
0, ,4, ,
-1, ,4, ,
-2, ,4, ,
-3, ,4, ,
-4, ,4, ,
-6, ,4, ,
-8, ,4, ,
-8, ,4, ,
-9, ,4, ,
-11, ,4, ,
-13, ,5, ,
-13, ,5, ,
-14, ,4, ,
-14, ,4, ,
-13, ,5, ,
-13, ,4, ,
-13, ,4, ,
-11, ,4, ,
-10, ,4, ,
-9, ,4, ,
-9, ,4, ,
-9, ,4, ,
-9, ,4, ,
-9, ,4, ,
-10, ,4, ,
-11, ,4, ,
-12, ,4, ,
-12, ,4, ,
-14, ,4, ,
-15, ,4, ,
-16, ,5, ,
-16, ,4, ,
-17, ,4, ,
-16, ,4, ,
-16, ,5, ,
-16, ,5, ,
-15, ,4, ,
-13, ,4, ,
-11, ,4, ,
-9, ,4, ,
-6, ,5, ,
-2, ,4, ,
1, ,4, ,
4, ,4, ,
7, ,4, ,
14, ,4, ,
17, ,4, ,
19, ,5, ,
23, ,4, ,
26, ,4, ,
27, ,5, ,
29, ,4, ,
29, ,4, ,
29, ,4, ,
29, ,5, ,
28, ,4, ,
27, ,4, ,
25, ,4, ,
22, ,4, ,
20, ,4, ,
17, ,4, ,
10, ,4, ,
8, ,5, ,
4, ,5, ,
1, ,5, ,
-5, ,4, ,
-7, ,4, ,
-10, ,5, ,
-12, ,5, ,
-15, ,5, ,
-16, ,5, ,
-16, ,5, ,
-16, ,5, ,
-15, ,5, ,
-14, ,4, ,
-13, ,4, ,
-13, ,4, ,
-10, ,4, ,
-9, ,5, ,
-8, ,4, ,
-8, ,4, ,
-7, ,4, ,
-8, ,4, ,
-8, ,4, ,
-10, ,4, ,
-12, ,4, ,
-13, ,4, ,
-15, ,4, ,
-16, ,4, ,
-20, ,4, ,
-22, ,4, ,
-23, ,4, ,
-25, ,4, ,
-26, ,5, ,
-26, ,5, ,
-27, ,4, ,
-26, ,4, ,
-26, ,4, ,
-25, ,4, ,
-25, ,5, ,
-25, ,4, ,
-23, ,4, ,
-22, ,5, ,
-21, ,5, ,
-20, ,5, ,
-18, ,4, ,
-18, ,4, ,
-18, ,5, ,
-18, ,5, ,
-18, ,5, ,
-18, ,4, ,
-18, ,4, ,
-18, ,4, ,
-18, ,4, ,
-18, ,4, ,
-18, ,5, ,
-18, ,5, ,
-17, ,5, ,
-16, ,4, ,
-16, ,4, ,
-14, ,4, ,
-12, ,4, ,
-11, ,4, ,
-9, ,4, ,
-8, ,4, ,
-6, ,4, ,
-4, ,5, ,
-4, ,5, ,
-3, ,4, ,
0, ,4, ,
1, ,4, ,
2, ,4, ,
3, ,4, ,
5, ,5, ,
6, ,4, ,
7, ,4, ,
8, ,4, ,
10, ,4, ,
10, ,4, ,
12, ,4, ,
12, ,4, ,
12, ,4, ,
12, ,4, ,
11, ,4, ,
11, ,4, ,
10, ,4, ,
9, ,5, ,
8, ,5, ,
8, ,5, ,
7, ,5, ,
7, ,5, ,
7, ,4, ,
7, ,4, ,
6, ,4, ,
6, ,4, ,
7, ,5, ,
7, ,5, ,
7, ,5, ,
8, ,4, ,
8, ,4, ,
8, ,4, ,
8, ,4, ,
8, ,4, ,
9, ,4, ,
9, ,4, ,
9, ,5, ,
9, ,4, ,
9, ,4, ,
10, ,4, ,
9, ,4, ,
9, ,5, ,
9, ,5, ,
8, ,5, ,
7, ,5, ,
7, ,5, ,
5, ,5, ,
5, ,5, ,
3, ,4, ,
2, ,4, ,
0, ,4, ,
-1, ,4, ,
-3, ,4, ,
-3, ,4, ,
-5, ,4, ,
-5, ,4, ,
-7, ,4, ,
-8, ,4, ,
-8, ,5, ,
-9, ,4, ,
-9, ,4, ,
-10, ,5, ,
-10, ,5, ,
-10, ,5, ,
-11, ,4, ,
-12, ,4, ,
-12, ,4, ,
-13, ,4, ,
-14, ,5, ,
-14, ,5, ,
-15, ,4, ,
-16, ,4, ,
-19, ,4, ,
-19, ,5, ,
-21, ,5, ,
-22, ,4, ,
-25, ,4, ,
-25, ,4, ,
-26, ,4, ,
-27, ,5, ,
-29, ,4, ,
-30, ,4, ,
-30, ,5, ,
-32, ,4, ,
-32, ,4, ,
-32, ,5, ,
-32, ,5, ,
-31, ,5, ,
-30, ,4, ,
-29, ,4, ,
-27, ,4, ,
-26, ,4, ,
-22, ,4, ,
-20, ,4, ,
-18, ,4, ,
-15, ,4, ,
-10, ,4, ,
-7, ,4, ,
-5, ,4, ,
-2, ,4, ,
3, ,5, ,
5, ,4, ,
7, ,4, ,
10, ,5, ,
13, ,4, ,
15, ,4, ,
17, ,4, ,
17, ,4, ,
18, ,4, ,
19, ,5, ,
19, ,4, ,
18, ,4, ,
17, ,4, ,
16, ,4, ,
15, ,5, ,
13, ,5, ,
10, ,5, ,
9, ,4, ,
7, ,4, ,
6, ,5, ,
2, ,5, ,
0, ,4, ,
-1, ,4, ,
-3, ,4, ,
-5, ,4, ,
-5, ,4, ,
-7, ,4, ,
-8, ,4, ,
-9, ,4, ,
-10, ,4, ,
-11, ,4, ,
-11, ,4, ,
-12, ,5, ,
-12, ,5, ,
-13, ,4, ,
-13, ,4, ,
-13, ,4, ,
-13, ,5, ,
-13, ,5, ,
-13, ,4, ,
-12, ,4, ,
-12, ,5, ,
-11, ,4, ,
-11, ,4, ,
-10, ,4, ,
-9, ,4, ,
-9, ,4, ,
-8, ,4, ,
-7, ,4, ,
-6, ,4, ,
-6, ,4, ,
-5, ,4, ,
-5, ,4, ,
-5, ,4, ,
-5, ,5, ,
-5, ,4, ,
-5, ,4, ,
-4, ,5, ,
-4, ,4, ,
-4, ,4, ,
-4, ,4, ,
-3, ,5, ,
-3, ,5, ,
-2, ,5, ,
0, ,5, ,
1, ,4, ,
2, ,4, ,
4, ,4, ,
6, ,4, ,
8, ,4, ,
10, ,5, ,
12, ,4, ,
15, ,4, ,
17, ,4, ,
18, ,4, ,
19, ,5, ,
20, ,4, ,
19, ,4, ,
19, ,4, ,
18, ,4, ,
17, ,5, ,
16, ,5, ,
14, ,4, ,
13, ,4, ,
9, ,4, ,
7, ,4, ,
5, ,4, ,
3, ,4, ,
-1, ,4, ,
-2, ,4, ,
-5, ,4, ,
-7, ,4, ,
-9, ,4, ,
-11, ,4, ,
-13, ,4, ,
-14, ,4, ,
-17, ,4, ,
-17, ,4, ,
-18, ,4, ,
-19, ,5, ,
-19, ,4, ,
-19, ,4, ,
-18, ,5, ,
-18, ,5, ,
-17, ,5, ,
-15, ,4, ,
-14, ,4, ,
-12, ,4, ,
-8, ,4, ,
-7, ,4, ,
-5, ,4, ,
-4, ,4, ,
-1, ,5, ,
0, ,5, ,
1, ,5, ,
1, ,5, ,
0, ,4, ,
-1, ,4, ,
-2, ,4, ,
-4, ,4, ,
-7, ,4, ,
-9, ,4, ,
-11, ,4, ,
-12, ,4, ,
-14, ,4, ,
-15, ,4, ,
-15, ,4, ,
-15, ,4, ,
-13, ,4, ,
-12, ,4, ,
-11, ,4, ,
-9, ,4, ,
-4, ,4, ,
-2, ,5, ,
2, ,5, ,
4, ,5, ,
10, ,5, ,
12, ,4, ,
15, ,4, ,
17, ,4, ,
21, ,4, ,
22, ,5, ,
23, ,5, ,
24, ,4, ,
23, ,4, ,
23, ,4, ,
22, ,4, ,
22, ,5, ,
19, ,4, ,
17, ,4, ,
15, ,4, ,
12, ,5, ,
7, ,5, ,
5, ,5, ,
1, ,4, ,
-1, ,4, ,
-7, ,4, ,
-9, ,4, ,
-12, ,4, ,
-15, ,4, ,
-18, ,5, ,
-20, ,4, ,
-21, ,4, ,
-21, ,4, ,
-20, ,4, ,
-20, ,4, ,
-19, ,5, ,
-18, ,4, ,
-16, ,4, ,
-14, ,5, ,
-13, ,4, ,
-11, ,4, ,
-7, ,4, ,
-6, ,5, ,
-4, ,4, ,
-3, ,4, ,
0, ,4, ,
2, ,4, ,
3, ,4, ,
5, ,5, ,
6, ,5, ,
6, ,4, ,
6, ,4, ,
6, ,5, ,
5, ,5, ,
5, ,4, ,
4, ,4, ,
4, ,4, ,
3, ,4, ,
2, ,5, ,
2, ,5, ,
1, ,5, ,
1, ,5, ,
2, ,5, ,
1, ,4, ,
1, ,4, ,
2, ,4, ,
2, ,4, ,
3, ,4, ,
3, ,4, ,
3, ,4, ,
4, ,5, ,
3, ,4, ,
3, ,4, ,
2, ,4, ,
2, ,4, ,
1, ,5, ,
0, ,4, ,
-2, ,4, ,
-3, ,4, ,
-5, ,4, ,
-6, ,5, ,
-9, ,4, ,
-11, ,4, ,
-12, ,4, ,
-13, ,4, ,
-14, ,4, ,
-14, ,4, ,
-14, ,4, ,
-14, ,4, ,
-12, ,4, ,
-11, ,4, ,
-10, ,4, ,
-8, ,4, ,
-4, ,4, ,
-2, ,4, ,
0, ,4, ,
3, ,4, ,
7, ,4, ,
9, ,5, ,
11, ,5, ,
12, ,4, ,
13, ,4, ,
15, ,5, ,
14, ,4, ,
14, ,4, ,
13, ,4, ,
12, ,4, ,
10, ,4, ,
9, ,4, ,
5, ,4, ,
3, ,4, ,
1, ,4, ,
-1, ,5, ,
-5, ,4, ,
-7, ,4, ,
-9, ,5, ,
-10, ,4, ,
-13, ,4, ,
-13, ,5, ,
-14, ,5, ,
-14, ,5, ,
-14, ,5, ,
-13, ,4, ,
-12, ,4, ,
-11, ,4, ,
-8, ,4, ,
-6, ,4, ,
-5, ,4, ,
-2, ,5, ,
1, ,5, ,
3, ,5, ,
6, ,5, ,
6, ,4, ,
9, ,4, ,
9, ,4, ,
9, ,4, ,
9, ,4, ,
8, ,4, ,
6, ,4, ,
6, ,4, ,
4, ,4, ,
0, ,4, ,
-1, ,4, ,
-3, ,4, ,
-5, ,4, ,
-8, ,4, ,
-9, ,4, ,
-10, ,4, ,
-10, ,4, ,
-10, ,4, ,
-10, ,5, ,
-9, ,5, ,
-9, ,5, ,
-6, ,5, ,
-6, ,5, ,
-4, ,4, ,
-3, ,4, ,
-1, ,4, ,
1, ,4, ,
2, ,4, ,
3, ,4, ,
4, ,4, ,
3, ,4, ,
3, ,4, ,
2, ,4, ,
1, ,5, ,
1, ,5, ,
-1, ,5, ,
-2, ,4, ,
-4, ,4, ,
-5, ,4, ,
-7, ,4, ,
-7, ,4, ,
-8, ,5, ,
-8, ,4, ,
-9, ,4, ,
-9, ,5, ,
-8, ,5, ,
-7, ,5, ,
-7, ,5, ,
-5, ,5, ,
-4, ,4, ,
-2, ,4, ,
-1, ,4, ,
0, ,4, ,
3, ,4, ,
4, ,5, ,
5, ,5, ,
5, ,4, ,
4, ,4, ,
4, ,5, ,
3, ,4, ,
3, ,4, ,
1, ,4, ,
-1, ,5, ,
-1, ,5, ,
-3, ,4, ,
-7, ,4, ,
-8, ,4, ,
-9, ,4, ,
-11, ,4, ,
-13, ,4, ,
-13, ,4, ,
-14, ,4, ,
-14, ,4, ,
-13, ,5, ,
-12, ,4, ,
-11, ,4, ,
-10, ,5, ,
-7, ,4, ,
-6, ,4, ,
-4, ,5, ,
-2, ,4, ,
1, ,4, ,
4, ,5, ,
4, ,5, ,
6, ,5, ,
8, ,4, ,
8, ,4, ,
9, ,5, ,
9, ,5, ,
8, ,5, ,
7, ,4, ,
7, ,4, ,
6, ,4, ,
4, ,4, ,
3, ,4, ,
2, ,4, ,
0, ,4, ,
-2, ,4, ,
-2, ,5, ,
-4, ,5, ,
-5, ,5, ,
-6, ,5, ,
-6, ,4, ,
-6, ,4, ,
-6, ,4, ,
-6, ,4, ,
-6, ,4, ,
-5, ,4, ,
-4, ,4, ,
-3, ,4, ,
-3, ,4, ,
-2, ,4, ,
-1, ,4, ,
1, ,4, ,
1, ,4, ,
2, ,4, ,
3, ,4, ,
4, ,4, ,
3, ,5, ,
4, ,5, ,
4, ,5, ,
3, ,5, ,
3, ,4, ,
2, ,4, ,
2, ,4, ,
0, ,4, ,
-1, ,4, ,
-1, ,5, ,
-2, ,5, ,
-4, ,4, ,
-5, ,4, ,
-7, ,4, ,
-8, ,5, ,
-10, ,5, ,
-10, ,4, ,
-11, ,4, ,
-12, ,4, ,
-12, ,4, ,
-12, ,4, ,
-12, ,4, ,
-11, ,5, ,
-10, ,4, ,
-9, ,4, ,
-8, ,4, ,
-7, ,5, ,
-5, ,5, ,
-3, ,5, ,
-2, ,5, ,
0, ,5, ,
3, ,5, ,
4, ,5, ,
6, ,5, ,
6, ,4, ,
9, ,4, ,
11, ,5, ,
12, ,4, ,
13, ,4, ,
15, ,4, ,
16, ,5, ,
17, ,5, ,
18, ,4, ,
19, ,4, ,
19, ,5, ,
18, ,4, ,
18, ,4, ,
17, ,4, ,
16, ,5, ,
15, ,5, ,
14, ,5, ,
10, ,5, ,
8, ,4, ,
6, ,4, ,
4, ,5, ,
0, ,5, ,
-2, ,5, ,
-4, ,4, ,
-6, ,4, ,
-10, ,4, ,
-11, ,4, ,
-13, ,4, ,
-14, ,4, ,
-15, ,4, ,
-15, ,5, ,
-15, ,5, ,
-15, ,4, ,
-14, ,4, ,
-13, ,4, ,
-11, ,4, ,
-10, ,5, ,
-7, ,4, ,
-6, ,4, ,
-4, ,4, ,
-2, ,4, ,
0, ,4, ,
2, ,5, ,
3, ,5, ,
3, ,4, ,
5, ,4, ,
5, ,5, ,
5, ,5, ,
4, ,5, ,
2, ,5, ,
1, ,5, ,
0, ,4, ,
-1, ,4, ,
-4, ,4, ,
-5, ,4, ,
-6, ,4, ,
-7, ,4, ,
-8, ,4, ,
-8, ,5, ,
-8, ,5, ,
-8, ,5, ,
-7, ,4, ,
-6, ,4, ,
-5, ,4, ,
-4, ,4, ,
-1, ,5, ,
0, ,4, ,
2, ,4, ,
3, ,5, ,
6, ,4, ,
6, ,4, ,
8, ,5, ,
8, ,4, ,
9, ,4, ,
9, ,4, ,
9, ,4, ,
9, ,4, ,
8, ,4, ,
6, ,4, ,
6, ,4, ,
4, ,4, ,
3, ,5, ,
2, ,4, ,
1, ,4, ,
0, ,4, ,
-2, ,4, ,
-2, ,4, ,
-3, ,5, ,
-3, ,5, ,
-2, ,4, ,
-2, ,4, ,
-2, ,4, ,
-2, ,4, ,
0, ,4, ,
0, ,4, ,
1, ,5, ,
2, ,5, ,
3, ,5, ,
3, ,4, ,
3, ,4, ,
4, ,4, ,
4, ,4, ,
4, ,5, ,
4, ,5, ,
3, ,5, ,
2, ,5, ,
2, ,4, ,
1, ,4, ,
0, ,4, ,
-2, ,4, ,
-3, ,5, ,
-4, ,5, ,
-6, ,4, ,
-8, ,4, ,
-9, ,4, ,
-10, ,4, ,
-11, ,5, ,
-12, ,4, ,
-12, ,4, ,
-12, ,4, ,
-12, ,4, ,
-11, ,5, ,
-10, ,4, ,
-9, ,4, ,
-9, ,5, ,
-6, ,5, ,
-6, ,4, ,
-4, ,4, ,
-3, ,4, ,
-1, ,5, ,
-1, ,4, ,
1, ,4, ,
1, ,4, ,
2, ,4, ,
2, ,5, ,
3, ,5, ,
3, ,5, ,
4, ,5, ,
4, ,5, ,
5, ,5, ,
5, ,5, ,
6, ,4, ,
6, ,4, ,
7, ,4, ,
7, ,4, ,
9, ,4, ,
10, ,4, ,
10, ,4, ,
10, ,5, ,
10, ,4, ,
10, ,4, ,
10, ,4, ,
9, ,4, ,
8, ,4, ,
8, ,5, ,
7, ,5, ,
6, ,5, ,
5, ,5, ,
4, ,4, ,
3, ,4, ,
2, ,4, ,
-1, ,5, ,
-2, ,4, ,
-3, ,4, ,
-3, ,4, ,
-6, ,4, ,
-7, ,4, ,
-8, ,5, ,
-9, ,5, ,
-11, ,5, ,
-12, ,5, ,
-13, ,4, ,
-13, ,4, ,
-14, ,4, ,
-14, ,4, ,
-14, ,4, ,
-14, ,4, ,
-12, ,4, ,
-12, ,4, ,
-11, ,4, ,
-9, ,4, ,
-6, ,4, ,
-5, ,4, ,
-3, ,4, ,
-2, ,4, ,
2, ,5, ,
4, ,4, ,
6, ,4, ,
6, ,4, ,
10, ,4, ,
11, ,4, ,
12, ,4, ,
13, ,4, ,
15, ,4, ,
15, ,4, ,
15, ,4, ,
15, ,5, ,
15, ,4, ,
15, ,4, ,
14, ,4, ,
13, ,4, ,
12, ,4, ,
11, ,4, ,
10, ,4, ,
9, ,4, ,
6, ,4, ,
5, ,4, ,
3, ,4, ,
2, ,4, ,
-1, ,4, ,
-2, ,5, ,
-3, ,4, ,
-4, ,4, ,
-5, ,4, ,
-5, ,5, ,
-5, ,5, ,
-5, ,4, ,
-5, ,4, ,
-4, ,4, ,
-4, ,4, ,
-3, ,4, ,
-1, ,4, ,
-1, ,4, ,
0, ,5, ,
0, ,4, ,
2, ,4, ,
3, ,4, ,
3, ,4, ,
4, ,4, ,
4, ,4, ,
3, ,5, ,
3, ,5, ,
3, ,5, ,
2, ,5, ,
1, ,5, ,
1, ,5, ,
0, ,4, ,
-1, ,4, ,
-3, ,4, ,
-4, ,4, ,
-5, ,4, ,
-7, ,5, ,
-8, ,4, ,
-9, ,4, ,
-10, ,4, ,
-10, ,4, ,
-11, ,5, ,
-11, ,5, ,
-11, ,4, ,
-10, ,4, ,
-10, ,5, ,
-9, ,4, ,
-9, ,4, ,
-6, ,4, ,
-6, ,4, ,
-4, ,4, ,
-2, ,4, ,
0, ,4, ,
2, ,5, ,
2, ,5, ,
4, ,5, ,
6, ,4, ,
6, ,4, ,
7, ,4, ,
8, ,4, ,
7, ,5, ,
7, ,5, ,
6, ,4, ,
6, ,4, ,
5, ,4, ,
3, ,4, ,
3, ,4, ,
1, ,4, ,
0, ,4, ,
-1, ,4, ,
-2, ,4, ,
-2, ,4, ,
-2, ,4, ,
-2, ,4, ,
-1, ,4, ,
-1, ,4, ,
1, ,4, ,
2, ,5, ,
3, ,5, ,
4, ,5, ,
7, ,5, ,
8, ,5, ,
9, ,4, ,
10, ,4, ,
11, ,4, ,
11, ,4, ,
10, ,4, ,
10, ,5, ,
8, ,4, ,
8, ,4, ,
7, ,5, ,
5, ,4, ,
1, ,4, ,
0, ,4, ,
-2, ,4, ,
-3, ,4, ,
-7, ,4, ,
-9, ,4, ,
-11, ,4, ,
-12, ,4, ,
-13, ,5, ,
-13, ,4, ,
-14, ,4, ,
-14, ,5, ,
-13, ,4, ,
-13, ,4, ,
-12, ,4, ,
-11, ,4, ,
-9, ,4, ,
-7, ,4, ,
-6, ,4, ,
-4, ,4, ,
-2, ,4, ,
-1, ,4, ,
1, ,4, ,
2, ,4, ,
4, ,5, ,
5, ,4, ,
6, ,4, ,
6, ,4, ,
7, ,5, ,
7, ,4, ,
8, ,4, ,
7, ,5, ,
7, ,5, ,
7, ,4, ,
7, ,4, ,
7, ,4, ,
6, ,4, ,
5, ,4, ,
5, ,5, ,
4, ,4, ,
3, ,4, ,
2, ,5, ,
2, ,4, ,
1, ,4, ,
0, ,4, ,
-1, ,4, ,
-1, ,4, ,
-2, ,4, ,
-3, ,5, ,
-4, ,5, ,
-4, ,5, ,
-4, ,5, ,
-4, ,5, ,
-4, ,5, ,
-4, ,5, ,
-4, ,5, ,
-3, ,5, ,
-3, ,4, ,
-3, ,4, ,
-2, ,4, ,
0, ,4, ,
0, ,4, ,
2, ,4, ,
2, ,4, ,
3, ,4, ,
4, ,4, ,
4, ,4, ,
4, ,4, ,
4, ,4, ,
3, ,4, ,
3, ,4, ,
2, ,4, ,
1, ,5, ,
0, ,4, ,
0, ,4, ,
-1, ,5, ,
-3, ,5, ,
-4, ,4, ,
-5, ,4, ,
-6, ,4, ,
-6, ,5, ,
-6, ,5, ,
-6, ,4, ,
-6, ,4, ,
-5, ,4, ,
-5, ,5, ,
-4, ,5, ,
-3, ,4, ,
-1, ,4, ,
0, ,4, ,
0, ,4, ,
2, ,5, ,
3, ,4, ,
4, ,4, ,
4, ,5, ,
5, ,4, ,
5, ,4, ,
5, ,4, ,
5, ,5, ,
5, ,5, ,
5, ,5, ,
4, ,5, ,
4, ,5, ,
3, ,5, ,
2, ,5, ,
1, ,4, ,
0, ,4, ,
0, ,5, ,
-2, ,4, ,
-4, ,4, ,
-5, ,4, ,
-6, ,4, ,
-7, ,4, ,
-8, ,4, ,
-9, ,5, ,
-10, ,5, ,
-10, ,4, ,
-10, ,4, ,
-10, ,4, ,
-10, ,4, ,
-9, ,5, ,
-7, ,4, ,
-7, ,4, ,
-5, ,5, ,
-2, ,5, ,
0, ,5, ,
0, ,5, ,
2, ,4, ,
5, ,4, ,
6, ,4, ,
7, ,4, ,
9, ,4, ,
11, ,4, ,
11, ,4, ,
11, ,4, ,
10, ,4, ,
10, ,5, ,
10, ,5, ,
9, ,5, ,
9, ,5, ,
6, ,4, ,
6, ,4, ,
5, ,5, ,
4, ,4, ,
3, ,4, ,
2, ,4, ,
2, ,4, ,
2, ,5, ,
2, ,5, ,
2, ,4, ,
3, ,4, ,
3, ,4, ,
3, ,5, ,
4, ,5, ,
5, ,5, ,
5, ,5, ,
5, ,4, ,
5, ,4, ,
5, ,4, ,
5, ,4, ,
4, ,4, ,
3, ,5, ,
3, ,5, ,
2, ,4, ,
0, ,4, ,
-1, ,4, ,
-3, ,4, ,
-4, ,4, ,
-5, ,4, ,
-6, ,5, ,
-7, ,5, ,
-7, ,5, ,
-8, ,5, ,
-8, ,4, ,
-7, ,4, ,
-7, ,5, ,
-7, ,5, ,
-6, ,5, ,
-6, ,4, ,
-5, ,4, ,
-4, ,4, ,
-3, ,4, ,
-3, ,4, ,
-3, ,4, ,
-1, ,4, ,
-1, ,4, ,
-1, ,4, ,
-1, ,4, ,
0, ,4, ,
0, ,4, ,
0, ,4, ,
0, ,4, ,
1, ,5, ,
1, ,4, ,
1, ,4, ,
1, ,4, ,
1, ,4, ,
1, ,4, ,
2, ,4, ,
2, ,4, ,
2, ,4, ,
2, ,4, ,
2, ,4, ,
3, ,4, ,
3, ,4, ,
3, ,4, ,
4, ,4, ,
4, ,4, ,
4, ,4, ,
5, ,5, ,
5, ,4, ,
6, ,4, ,
6, ,4, ,
6, ,4, ,
6, ,4, ,
6, ,4, ,
6, ,5, ,
6, ,5, ,
6, ,5, ,
5, ,5, ,
5, ,4, ,
4, ,4, ,
4, ,4, ,
3, ,4, ,
1, ,4, ,
1, ,4, ,
0, ,5, ,
0, ,5, ,
0, ,4, ,
-1, ,4, ,
-1, ,4, ,
-1, ,4, ,
-2, ,5, ,
-2, ,5, ,
-2, ,4, ,
-2, ,4, ,
-2, ,4, ,
-2, ,5, ,
-2, ,5, ,
-2, ,4, ,
-2, ,4, ,
-1, ,5, ,
-1, ,5, ,
0, ,5, ,
1, ,5, ,
1, ,4, ,
1, ,4, ,
2, ,4, ,
3, ,5, ,
3, ,5, ,
3, ,5, ,
3, ,5, ,
3, ,5, ,
3, ,5, ,
3, ,5, ,
3, ,4, ,
2, ,4, ,
2, ,5, ,
1, ,4, ,
1, ,4, ,
1, ,4, ,
1, ,4, ,
1, ,4, ,
2, ,4, ,
2, ,5, ,
2, ,5, ,
2, ,4, ,
3, ,4, ,
3, ,4, ,
4, ,4, ,
4, ,4, ,
5, ,5, ,
5, ,5, ,
6, ,5, ,
6, ,5, ,
6, ,4, ,
6, ,4, ,
5, ,5, ,
5, ,4, ,
4, ,4, ,
3, ,4, ,
2, ,5, ,
1, ,5, ,
1, ,5, ,
-1, ,5, ,
-3, ,5, ,
-3, ,5, ,
-4, ,5, ,
-6, ,5, ,
-7, ,4, ,
-8, ,4, ,
-8, ,4, ,
-9, ,5, ,
-9, ,5, ,
-9, ,5, ,
-9, ,5, ,
-8, ,5, ,
-8, ,4, ,
-7, ,4, ,
-7, ,4, ,
-5, ,4, ,
-5, ,4, ,
-4, ,4, ,
-3, ,4, ,
-1, ,4, ,
0, ,5, ,
0, ,4, ,
1, ,4, ,
3, ,4, ,
3, ,4, ,
4, ,4, ,
4, ,4, ,
5, ,5, ,
6, ,4, ,
7, ,4, ,
7, ,4, ,
7, ,4, ,
7, ,4, ,
7, ,4, ,
7, ,4, ,
7, ,4, ,
