raw_data/75% Glycerol, Impulsion 2Hz, Sonde 5MHz, Rampe 0.7Hz/temp0000188.CSV

Format,1.0B,
Memory Length,10000,Memory Length,10000,
IntpDistance,0,IntpDistance,0,
Trigger Address,159,Trigger Address,159,
Trigger Level,2.720E-01,Trigger Level,2.720E-01,
Source,CH1,Source,CH2,
Vertical Units,V,Vertical Units,V,
Vertical Units Div,0,Vertical Units Div,0,
Vertical Units Extend Div,16,Vertical Units Extend Div,16,
Label,,Label,,
Probe Type,0,Probe Type,0,
Probe Ratio,1.000e+00,Probe Ratio,1.000e+00,
Vertical Scale,5.000e-01,Vertical Scale,2.000e+00,
Vertical Position,0.000e+00,Vertical Position,0.000e+00,
Horizontal Units,S,Horizontal Units,S,
Horizontal Scale,5.000E-06,Horizontal Scale,5.000E-06,
Horizontal Position,2.420E-05,Horizontal Position,2.420E-05,
Horizontal Mode,Main,Horizontal Mode,Main,
SincET Mode,Real Time,SincET Mode,Real Time,
Sampling Period,5.000e-09,Sampling Period,5.000e-09,
Horizontal Old Scale,5.000E-06,Horizontal Old Scale,5.000E-06,
Horizontal Old Position,2.420E-05,Horizontal Old Position,2.420E-05,
Firmware,V1.32,Firmware,V1.32,
Mode,Fast,Mode,Fast,
Waveform Data,,Waveform Data,,
1, ,-28, ,
0, ,-28, ,
0, ,-28, ,
0, ,-28, ,
0, ,-28, ,
1, ,-28, ,
1, ,-28, ,
1, ,-28, ,
1, ,-28, ,
0, ,-28, ,
0, ,-28, ,
1, ,-28, ,
0, ,-28, ,
0, ,-28, ,
1, ,-28, ,
1, ,-28, ,
1, ,-28, ,
1, ,-28, ,
1, ,-28, ,
1, ,-28, ,
1, ,-28, ,
0, ,-28, ,
0, ,-28, ,
0, ,-28, ,
1, ,-28, ,
1, ,-28, ,
1, ,-28, ,
1, ,-28, ,
0, ,-28, ,
0, ,-28, ,
1, ,-28, ,
1, ,-28, ,
1, ,-28, ,
0, ,-28, ,
0, ,-28, ,
0, ,-28, ,
0, ,-28, ,
0, ,-28, ,
0, ,-28, ,
0, ,-28, ,
1, ,-28, ,
0, ,-28, ,
0, ,-28, ,
0, ,-28, ,
0, ,-28, ,
1, ,-28, ,
1, ,-28, ,
0, ,-28, ,
0, ,-28, ,
1, ,-28, ,
1, ,-28, ,
1, ,-28, ,
1, ,-28, ,
1, ,-28, ,
1, ,-28, ,
0, ,-28, ,
0, ,-28, ,
0, ,-28, ,
0, ,-28, ,
0, ,-28, ,
0, ,-28, ,
1, ,-28, ,
1, ,-28, ,
0, ,-28, ,
0, ,-28, ,
1, ,-28, ,
1, ,-28, ,
0, ,-28, ,
0, ,-28, ,
1, ,-28, ,
1, ,-28, ,
1, ,-28, ,
1, ,-28, ,
1, ,-28, ,
0, ,-28, ,
0, ,-28, ,
0, ,-28, ,
1, ,-28, ,
1, ,-28, ,
1, ,-28, ,
1, ,-28, ,
1, ,-28, ,
1, ,-28, ,
1, ,-28, ,
0, ,-28, ,
0, ,-28, ,
0, ,-28, ,
0, ,-28, ,
1, ,-28, ,
1, ,-28, ,
0, ,-28, ,
0, ,-28, ,
0, ,-28, ,
0, ,-28, ,
0, ,-28, ,
0, ,-28, ,
0, ,-28, ,
1, ,-28, ,
0, ,-28, ,
0, ,-28, ,
0, ,-28, ,
1, ,-28, ,
1, ,-28, ,
0, ,-28, ,
0, ,-28, ,
1, ,-28, ,
1, ,-28, ,
1, ,-28, ,
1, ,-28, ,
1, ,-28, ,
1, ,-28, ,
1, ,-28, ,
1, ,-28, ,
1, ,-28, ,
1, ,-28, ,
1, ,-28, ,
1, ,-28, ,
1, ,-28, ,
1, ,-28, ,
1, ,-28, ,
1, ,-28, ,
1, ,-28, ,
1, ,-28, ,
1, ,-28, ,
1, ,-28, ,
1, ,-28, ,
1, ,-28, ,
0, ,-28, ,
0, ,-28, ,
1, ,-28, ,
1, ,-28, ,
1, ,-28, ,
1, ,-28, ,
1, ,-28, ,
1, ,-28, ,
0, ,-28, ,
0, ,-28, ,
1, ,-28, ,
0, ,-28, ,
1, ,-28, ,
1, ,-28, ,
0, ,-28, ,
0, ,-28, ,
0, ,-28, ,
1, ,-28, ,
0, ,-28, ,
0, ,-28, ,
1, ,-28, ,
1, ,-28, ,
1, ,-28, ,
1, ,-28, ,
1, ,-28, ,
1, ,-28, ,
1, ,-28, ,
1, ,-28, ,
1, ,-28, ,
0, ,-28, ,
0, ,-28, ,
1, ,-28, ,
0, ,-28, ,
0, ,-28, ,
1, ,-28, ,
1, ,-28, ,
1, ,-28, ,
2, ,-28, ,
0, ,-28, ,
-1, ,-28, ,
0, ,-28, ,
13, ,-28, ,
76, ,-28, ,
117, ,-28, ,
124, ,-28, ,
122, ,-28, ,
52, ,-28, ,
2, ,-28, ,
-1, ,-28, ,
44, ,-28, ,
125, ,-28, ,
125, ,-28, ,
125, ,-28, ,
125, ,-28, ,
125, ,-28, ,
125, ,-28, ,
124, ,-28, ,
124, ,-28, ,
117, ,-28, ,
111, ,-28, ,
107, ,-28, ,
104, ,-28, ,
97, ,-28, ,
95, ,-28, ,
90, ,-28, ,
87, ,-28, ,
80, ,-28, ,
77, ,-28, ,
75, ,-28, ,
72, ,-28, ,
66, ,-28, ,
64, ,-28, ,
61, ,-28, ,
59, ,-28, ,
54, ,-28, ,
52, ,-28, ,
50, ,-28, ,
47, ,-28, ,
43, ,-28, ,
42, ,-28, ,
40, ,-28, ,
38, ,-28, ,
35, ,-28, ,
33, ,-28, ,
32, ,-28, ,
30, ,-28, ,
27, ,-28, ,
26, ,-28, ,
25, ,-28, ,
25, ,-28, ,
22, ,-28, ,
21, ,-28, ,
21, ,-28, ,
19, ,-28, ,
18, ,-28, ,
17, ,-28, ,
16, ,-28, ,
15, ,-28, ,
14, ,-28, ,
13, ,-28, ,
12, ,-28, ,
12, ,-28, ,
10, ,-28, ,
10, ,-28, ,
9, ,-28, ,
8, ,-28, ,
8, ,-28, ,
7, ,-28, ,
7, ,-28, ,
6, ,-28, ,
5, ,-28, ,
5, ,-28, ,
5, ,-28, ,
5, ,-28, ,
4, ,-28, ,
4, ,-28, ,
4, ,-28, ,
3, ,-28, ,
3, ,-28, ,
2, ,-28, ,
2, ,-28, ,
2, ,-28, ,
2, ,-28, ,
1, ,-28, ,
1, ,-28, ,
1, ,-28, ,
1, ,-28, ,
1, ,-28, ,
1, ,-28, ,
1, ,-28, ,
0, ,-28, ,
0, ,-28, ,
0, ,-28, ,
0, ,-28, ,
0, ,-28, ,
0, ,-28, ,
0, ,-28, ,
0, ,-28, ,
-1, ,-28, ,
-1, ,-28, ,
-1, ,-28, ,
-1, ,-28, ,
-1, ,-28, ,
-1, ,-28, ,
-1, ,-28, ,
-1, ,-28, ,
-1, ,-28, ,
-1, ,-28, ,
-1, ,-28, ,
-1, ,-28, ,
-1, ,-28, ,
-1, ,-28, ,
-1, ,-28, ,
-1, ,-28, ,
-1, ,-28, ,
-1, ,-28, ,
-1, ,-28, ,
-1, ,-28, ,
-1, ,-28, ,
-1, ,-28, ,
-1, ,-28, ,
-1, ,-28, ,
-1, ,-28, ,
-2, ,-28, ,
-2, ,-28, ,
-2, ,-28, ,
-1, ,-28, ,
-1, ,-28, ,
-1, ,-28, ,
-1, ,-28, ,
-1, ,-28, ,
-1, ,-28, ,
-1, ,-28, ,
-1, ,-28, ,
-1, ,-28, ,
-1, ,-28, ,
-1, ,-28, ,
-1, ,-28, ,
-1, ,-28, ,
-1, ,-28, ,
-1, ,-28, ,
-1, ,-28, ,
-1, ,-28, ,
-1, ,-28, ,
-1, ,-28, ,
-1, ,-28, ,
-1, ,-28, ,
-1, ,-28, ,
-1, ,-28, ,
-1, ,-28, ,
-1, ,-28, ,
0, ,-28, ,
-1, ,-28, ,
-1, ,-28, ,
-1, ,-28, ,
-1, ,-28, ,
-1, ,-28, ,
-1, ,-28, ,
-1, ,-28, ,
-1, ,-28, ,
-1, ,-28, ,
-1, ,-28, ,
0, ,-28, ,
0, ,-28, ,
0, ,-28, ,
0, ,-28, ,
0, ,-28, ,
0, ,-28, ,
0, ,-28, ,
0, ,-28, ,
0, ,-28, ,
0, ,-28, ,
0, ,-28, ,
0, ,-28, ,
0, ,-28, ,
0, ,-28, ,
-1, ,-28, ,
-1, ,-28, ,
0, ,-28, ,
0, ,-28, ,
0, ,-28, ,
0, ,-28, ,
0, ,-28, ,
0, ,-28, ,
0, ,-28, ,
0, ,-28, ,
0, ,-28, ,
0, ,-28, ,
0, ,-28, ,
0, ,-28, ,
0, ,-28, ,
0, ,-28, ,
0, ,-28, ,
0, ,-28, ,
0, ,-28, ,
0, ,-28, ,
0, ,-28, ,
0, ,-28, ,
0, ,-28, ,
0, ,-28, ,
0, ,-28, ,
0, ,-28, ,
0, ,-28, ,
0, ,-28, ,
0, ,-28, ,
0, ,-28, ,
0, ,-28, ,
0, ,-28, ,
0, ,-28, ,
0, ,-28, ,
0, ,-28, ,
0, ,-28, ,
0, ,-28, ,
0, ,-28, ,
0, ,-28, ,
0, ,-28, ,
0, ,-28, ,
0, ,-28, ,
0, ,-28, ,
0, ,-28, ,
0, ,-28, ,
0, ,-28, ,
0, ,-28, ,
0, ,-28, ,
0, ,-28, ,
0, ,-28, ,
0, ,-28, ,
1, ,-28, ,
1, ,-28, ,
0, ,-28, ,
0, ,-28, ,
0, ,-28, ,
0, ,-28, ,
0, ,-28, ,
1, ,-28, ,
1, ,-28, ,
0, ,-28, ,
0, ,-28, ,
0, ,-28, ,
0, ,-28, ,
0, ,-28, ,
0, ,-28, ,
0, ,-28, ,
0, ,-28, ,
0, ,-28, ,
0, ,-28, ,
0, ,-28, ,
0, ,-28, ,
0, ,-28, ,
0, ,-28, ,
0, ,-28, ,
0, ,-28, ,
1, ,-28, ,
1, ,-28, ,
0, ,-28, ,
0, ,-28, ,
0, ,-28, ,
0, ,-28, ,
1, ,-28, ,
0, ,-28, ,
0, ,-28, ,
0, ,-28, ,
0, ,-28, ,
0, ,-28, ,
0, ,-28, ,
0, ,-28, ,
0, ,-28, ,
-1, ,-28, ,
-1, ,-28, ,
-2, ,-28, ,
-3, ,-28, ,
-3, ,-28, ,
-4, ,-28, ,
-4, ,-28, ,
-7, ,-28, ,
-8, ,-28, ,
-10, ,-28, ,
-10, ,-28, ,
-10, ,-28, ,
-8, ,-28, ,
-7, ,-28, ,
-5, ,-28, ,
-2, ,-28, ,
-1, ,-28, ,
0, ,-28, ,
1, ,-28, ,
2, ,-28, ,
2, ,-28, ,
3, ,-28, ,
3, ,-28, ,
3, ,-28, ,
3, ,-28, ,
3, ,-28, ,
2, ,-28, ,
1, ,-28, ,
1, ,-28, ,
-1, ,-28, ,
-1, ,-28, ,
-3, ,-28, ,
-3, ,-28, ,
-3, ,-28, ,
-3, ,-28, ,
-3, ,-28, ,
-1, ,-28, ,
-1, ,-28, ,
0, ,-28, ,
2, ,-28, ,
2, ,-28, ,
2, ,-28, ,
3, ,-28, ,
3, ,-28, ,
3, ,-28, ,
3, ,-28, ,
3, ,-28, ,
3, ,-28, ,
3, ,-28, ,
3, ,-28, ,
2, ,-28, ,
2, ,-28, ,
3, ,-28, ,
3, ,-28, ,
3, ,-28, ,
3, ,-28, ,
3, ,-28, ,
3, ,-28, ,
3, ,-28, ,
2, ,-28, ,
2, ,-28, ,
2, ,-28, ,
2, ,-28, ,
2, ,-28, ,
2, ,-28, ,
2, ,-28, ,
1, ,-28, ,
0, ,-28, ,
0, ,-28, ,
0, ,-28, ,
0, ,-28, ,
0, ,-28, ,
0, ,-28, ,
0, ,-28, ,
0, ,-28, ,
1, ,-28, ,
1, ,-28, ,
1, ,-28, ,
1, ,-28, ,
2, ,-28, ,
2, ,-28, ,
2, ,-28, ,
1, ,-28, ,
1, ,-28, ,
0, ,-28, ,
0, ,-28, ,
-1, ,-28, ,
-3, ,-28, ,
-5, ,-28, ,
-6, ,-28, ,
-9, ,-28, ,
-13, ,-28, ,
-16, ,-28, ,
-19, ,-28, ,
-21, ,-28, ,
-24, ,-28, ,
-24, ,-28, ,
-23, ,-28, ,
-23, ,-28, ,
-21, ,-28, ,
-20, ,-28, ,
-18, ,-28, ,
-16, ,-28, ,
-13, ,-28, ,
-12, ,-28, ,
-12, ,-28, ,
-11, ,-28, ,
-11, ,-28, ,
-11, ,-28, ,
-13, ,-28, ,
-13, ,-28, ,
-15, ,-28, ,
-16, ,-28, ,
-16, ,-28, ,
-17, ,-28, ,
-19, ,-28, ,
-19, ,-28, ,
-20, ,-28, ,
-21, ,-28, ,
-23, ,-28, ,
-24, ,-28, ,
-25, ,-28, ,
-27, ,-28, ,
-31, ,-28, ,
-33, ,-28, ,
-35, ,-28, ,
-36, ,-28, ,
-37, ,-28, ,
-37, ,-28, ,
-37, ,-28, ,
-35, ,-28, ,
-30, ,-28, ,
-27, ,-28, ,
-24, ,-28, ,
-21, ,-28, ,
-13, ,-28, ,
-9, ,-28, ,
-5, ,-28, ,
-3, ,-28, ,
3, ,-28, ,
6, ,-28, ,
7, ,-28, ,
8, ,-28, ,
10, ,-28, ,
9, ,-28, ,
9, ,-28, ,
8, ,-28, ,
7, ,-28, ,
6, ,-28, ,
5, ,-28, ,
5, ,-28, ,
4, ,-28, ,
4, ,-28, ,
4, ,-28, ,
4, ,-28, ,
4, ,-28, ,
4, ,-28, ,
4, ,-28, ,
4, ,-28, ,
3, ,-28, ,
2, ,-28, ,
2, ,-28, ,
1, ,-28, ,
-1, ,-28, ,
-2, ,-28, ,
-4, ,-28, ,
-4, ,-28, ,
-8, ,-28, ,
-10, ,-28, ,
-11, ,-28, ,
-11, ,-28, ,
-12, ,-28, ,
-12, ,-28, ,
-12, ,-28, ,
-11, ,-28, ,
-9, ,-28, ,
-8, ,-28, ,
-7, ,-28, ,
-5, ,-28, ,
-2, ,-28, ,
1, ,-28, ,
2, ,-28, ,
4, ,-28, ,
9, ,-28, ,
10, ,-28, ,
13, ,-28, ,
13, ,-28, ,
16, ,-28, ,
17, ,-28, ,
17, ,-28, ,
18, ,-28, ,
18, ,-28, ,
17, ,-28, ,
17, ,-28, ,
16, ,-28, ,
14, ,-28, ,
13, ,-28, ,
12, ,-28, ,
11, ,-28, ,
6, ,-28, ,
3, ,-28, ,
0, ,-28, ,
-3, ,-28, ,
-9, ,-28, ,
-12, ,-28, ,
-16, ,-28, ,
-20, ,-28, ,
-25, ,-28, ,
-26, ,-28, ,
-28, ,-28, ,
-30, ,-28, ,
-31, ,-28, ,
-31, ,-28, ,
-31, ,-28, ,
-30, ,-28, ,
-28, ,-28, ,
-27, ,-28, ,
-25, ,-28, ,
-25, ,-28, ,
-23, ,-28, ,
-21, ,-28, ,
-20, ,-28, ,
-18, ,-28, ,
-16, ,-28, ,
-15, ,-28, ,
-13, ,-28, ,
-11, ,-28, ,
-9, ,-28, ,
-7, ,-28, ,
-6, ,-28, ,
-4, ,-28, ,
-3, ,-28, ,
-3, ,-28, ,
-3, ,-28, ,
-3, ,-28, ,
-4, ,-28, ,
-4, ,-28, ,
-5, ,-28, ,
-6, ,-28, ,
-7, ,-28, ,
-7, ,-28, ,
-7, ,-28, ,
-7, ,-28, ,
-7, ,-28, ,
-6, ,-28, ,
-6, ,-28, ,
-5, ,-28, ,
-4, ,-28, ,
-4, ,-28, ,
-3, ,-28, ,
-3, ,-28, ,
-2, ,-28, ,
-1, ,-28, ,
-1, ,-28, ,
-1, ,-28, ,
0, ,-28, ,
0, ,-28, ,
2, ,-28, ,
2, ,-28, ,
3, ,-28, ,
4, ,-28, ,
4, ,-28, ,
5, ,-28, ,
4, ,-28, ,
2, ,-28, ,
2, ,-28, ,
0, ,-28, ,
-3, ,-28, ,
-6, ,-28, ,
-8, ,-28, ,
-10, ,-28, ,
-16, ,-28, ,
-19, ,-28, ,
-21, ,-28, ,
-23, ,-28, ,
-26, ,-28, ,
-27, ,-28, ,
-28, ,-28, ,
-28, ,-28, ,
-27, ,-28, ,
-26, ,-28, ,
-25, ,-28, ,
-23, ,-28, ,
-18, ,-28, ,
-15, ,-28, ,
-14, ,-28, ,
-10, ,-28, ,
-5, ,-28, ,
-3, ,-28, ,
-1, ,-28, ,
1, ,-28, ,
4, ,-28, ,
6, ,-28, ,
7, ,-28, ,
8, ,-28, ,
10, ,-28, ,
11, ,-28, ,
12, ,-28, ,
13, ,-28, ,
16, ,-28, ,
18, ,-28, ,
18, ,-28, ,
19, ,-28, ,
21, ,-28, ,
21, ,-28, ,
22, ,-28, ,
21, ,-28, ,
19, ,-28, ,
19, ,-28, ,
18, ,-28, ,
17, ,-28, ,
13, ,-28, ,
12, ,-28, ,
10, ,-28, ,
7, ,-28, ,
4, ,-28, ,
3, ,-28, ,
1, ,-28, ,
0, ,-28, ,
-2, ,-28, ,
-3, ,-28, ,
-3, ,-28, ,
-4, ,-28, ,
-4, ,-28, ,
-4, ,-28, ,
-4, ,-28, ,
-4, ,-28, ,
-3, ,-28, ,
-3, ,-28, ,
-3, ,-28, ,
-3, ,-28, ,
-3, ,-28, ,
-3, ,-28, ,
-3, ,-28, ,
-4, ,-28, ,
-5, ,-28, ,
-6, ,-28, ,
-6, ,-28, ,
-8, ,-28, ,
-11, ,-28, ,
-13, ,-28, ,
-15, ,-28, ,
-17, ,-28, ,
-22, ,-28, ,
-25, ,-28, ,
-26, ,-28, ,
-30, ,-28, ,
-35, ,-28, ,
-36, ,-28, ,
-39, ,-28, ,
-40, ,-28, ,
-42, ,-28, ,
-42, ,-28, ,
-42, ,-28, ,
-42, ,-28, ,
-39, ,-28, ,
-37, ,-28, ,
-36, ,-28, ,
-33, ,-28, ,
-29, ,-28, ,
-25, ,-28, ,
-24, ,-28, ,
-22, ,-28, ,
-17, ,-28, ,
-14, ,-28, ,
-12, ,-28, ,
-10, ,-28, ,
-8, ,-28, ,
-7, ,-28, ,
-6, ,-28, ,
-5, ,-28, ,
-5, ,-28, ,
-6, ,-28, ,
-6, ,-28, ,
-6, ,-28, ,
-7, ,-28, ,
-7, ,-28, ,
-7, ,-28, ,
-7, ,-28, ,
-6, ,-28, ,
-5, ,-28, ,
-5, ,-28, ,
-4, ,-28, ,
-2, ,-28, ,
-1, ,-28, ,
1, ,-28, ,
2, ,-28, ,
5, ,-28, ,
6, ,-28, ,
8, ,-28, ,
9, ,-28, ,
12, ,-28, ,
12, ,-28, ,
14, ,-28, ,
14, ,-28, ,
14, ,-28, ,
14, ,-28, ,
12, ,-28, ,
11, ,-28, ,
10, ,-28, ,
9, ,-28, ,
8, ,-28, ,
7, ,-28, ,
6, ,-28, ,
7, ,-28, ,
6, ,-28, ,
8, ,-28, ,
9, ,-28, ,
10, ,-28, ,
11, ,-28, ,
12, ,-28, ,
14, ,-28, ,
15, ,-28, ,
16, ,-28, ,
17, ,-28, ,
17, ,-28, ,
17, ,-28, ,
17, ,-28, ,
16, ,-28, ,
13, ,-28, ,
12, ,-28, ,
10, ,-28, ,
8, ,-28, ,
3, ,-28, ,
0, ,-28, ,
-1, ,-28, ,
-3, ,-28, ,
-8, ,-28, ,
-9, ,-28, ,
-12, ,-28, ,
-12, ,-28, ,
-14, ,-28, ,
-14, ,-28, ,
-13, ,-28, ,
-13, ,-28, ,
-11, ,-28, ,
-10, ,-28, ,
-9, ,-28, ,
-7, ,-28, ,
-4, ,-28, ,
-3, ,-28, ,
-1, ,-28, ,
0, ,-28, ,
2, ,-28, ,
3, ,-28, ,
2, ,-28, ,
2, ,-28, ,
1, ,-28, ,
-1, ,-28, ,
-2, ,-28, ,
-5, ,-28, ,
-10, ,-28, ,
-12, ,-28, ,
-16, ,-28, ,
-19, ,-28, ,
-25, ,-28, ,
-28, ,-28, ,
-30, ,-28, ,
-34, ,-28, ,
-38, ,-28, ,
-40, ,-28, ,
-41, ,-28, ,
-41, ,-28, ,
-40, ,-28, ,
-40, ,-28, ,
-38, ,-28, ,
-37, ,-28, ,
-31, ,-28, ,
-28, ,-28, ,
-25, ,-28, ,
-23, ,-28, ,
-15, ,-28, ,
-12, ,-28, ,
-8, ,-28, ,
-5, ,-28, ,
1, ,-28, ,
5, ,-28, ,
6, ,-28, ,
9, ,-28, ,
11, ,-28, ,
12, ,-28, ,
12, ,-28, ,
12, ,-28, ,
10, ,-28, ,
10, ,-28, ,
8, ,-28, ,
8, ,-28, ,
4, ,-28, ,
3, ,-28, ,
2, ,-28, ,
0, ,-28, ,
-3, ,-28, ,
-3, ,-28, ,
-5, ,-28, ,
-5, ,-28, ,
-6, ,-28, ,
-6, ,-28, ,
-6, ,-28, ,
-6, ,-28, ,
-6, ,-28, ,
-5, ,-28, ,
-5, ,-28, ,
-5, ,-28, ,
-4, ,-28, ,
-4, ,-28, ,
-3, ,-28, ,
-3, ,-28, ,
-2, ,-28, ,
-1, ,-28, ,
-1, ,-28, ,
-1, ,-28, ,
-1, ,-28, ,
-1, ,-28, ,
0, ,-28, ,
0, ,-28, ,
0, ,-28, ,
2, ,-28, ,
2, ,-28, ,
3, ,-28, ,
3, ,-28, ,
3, ,-28, ,
4, ,-28, ,
4, ,-28, ,
4, ,-28, ,
4, ,-28, ,
3, ,-28, ,
3, ,-28, ,
2, ,-28, ,
0, ,-28, ,
-1, ,-28, ,
-2, ,-28, ,
-5, ,-28, ,
-6, ,-28, ,
-7, ,-28, ,
-9, ,-28, ,
-12, ,-28, ,
-13, ,-28, ,
-14, ,-28, ,
-14, ,-28, ,
-14, ,-28, ,
-13, ,-28, ,
-13, ,-28, ,
-12, ,-28, ,
-10, ,-28, ,
-9, ,-28, ,
-8, ,-28, ,
-6, ,-28, ,
-4, ,-28, ,
-3, ,-28, ,
-2, ,-28, ,
-1, ,-28, ,
0, ,-28, ,
-1, ,-28, ,
-1, ,-28, ,
-1, ,-28, ,
-2, ,-28, ,
-2, ,-28, ,
-2, ,-28, ,
-2, ,-28, ,
-3, ,-28, ,
-3, ,-28, ,
-3, ,-28, ,
-2, ,-28, ,
-2, ,-28, ,
-1, ,-28, ,
0, ,-28, ,
0, ,-28, ,
2, ,-28, ,
3, ,-28, ,
4, ,-28, ,
4, ,-28, ,
6, ,-28, ,
6, ,-28, ,
6, ,-28, ,
7, ,-28, ,
8, ,-28, ,
8, ,-28, ,
8, ,-28, ,
8, ,-28, ,
8, ,-28, ,
8, ,-28, ,
8, ,-28, ,
8, ,-28, ,
8, ,-28, ,
7, ,-28, ,
7, ,-28, ,
6, ,-28, ,
5, ,-28, ,
4, ,-28, ,
3, ,-28, ,
2, ,-28, ,
-1, ,-28, ,
-3, ,-28, ,
-5, ,-28, ,
-7, ,-28, ,
-10, ,-28, ,
-11, ,-28, ,
-13, ,-28, ,
-13, ,-28, ,
-14, ,-28, ,
-15, ,-28, ,
-15, ,-28, ,
-15, ,-28, ,
-14, ,-28, ,
-14, ,-28, ,
-13, ,-28, ,
-12, ,-28, ,
-9, ,-28, ,
-8, ,-28, ,
-7, ,-28, ,
-6, ,-28, ,
-3, ,-28, ,
-1, ,-28, ,
0, ,-28, ,
2, ,-28, ,
3, ,-28, ,
4, ,-28, ,
5, ,-28, ,
5, ,-28, ,
6, ,-28, ,
6, ,-28, ,
5, ,-28, ,
5, ,-28, ,
4, ,-28, ,
3, ,-28, ,
1, ,-28, ,
1, ,-28, ,
-1, ,-28, ,
-2, ,-28, ,
-3, ,-28, ,
-4, ,-28, ,
-5, ,-28, ,
-6, ,-28, ,
-6, ,-28, ,
-6, ,-28, ,
-6, ,-28, ,
-6, ,-28, ,
-6, ,-28, ,
-6, ,-28, ,
-5, ,-28, ,
-5, ,-28, ,
-4, ,-28, ,
-4, ,-28, ,
-2, ,-28, ,
-2, ,-28, ,
-1, ,-28, ,
0, ,-28, ,
2, ,-28, ,
3, ,-28, ,
4, ,-28, ,
3, ,-28, ,
3, ,-28, ,
3, ,-28, ,
3, ,-28, ,
3, ,-28, ,
2, ,-28, ,
1, ,-28, ,
1, ,-28, ,
0, ,-28, ,
-1, ,-28, ,
-1, ,-28, ,
-1, ,-28, ,
-1, ,-28, ,
-1, ,-28, ,
-1, ,-28, ,
0, ,-28, ,
0, ,-28, ,
2, ,-28, ,
3, ,-28, ,
4, ,-28, ,
5, ,-28, ,
7, ,-28, ,
7, ,-28, ,
7, ,-28, ,
8, ,-28, ,
8, ,-28, ,
8, ,-28, ,
7, ,-28, ,
7, ,-28, ,
6, ,-28, ,
5, ,-28, ,
4, ,-28, ,
2, ,-28, ,
0, ,-28, ,
-2, ,-28, ,
-3, ,-28, ,
-5, ,-28, ,
-7, ,-28, ,
-10, ,-28, ,
-10, ,-28, ,
-11, ,-28, ,
-14, ,-28, ,
-15, ,-28, ,
-15, ,-28, ,
-15, ,-28, ,
-15, ,-28, ,
-15, ,-28, ,
-14, ,-28, ,
-14, ,-28, ,
-13, ,-28, ,
-12, ,-28, ,
-11, ,-28, ,
-10, ,-28, ,
-7, ,-28, ,
-7, ,-28, ,
-5, ,-28, ,
-4, ,-28, ,
-1, ,-28, ,
1, ,-28, ,
1, ,-28, ,
3, ,-28, ,
5, ,-28, ,
5, ,-28, ,
6, ,-28, ,
5, ,-28, ,
7, ,-28, ,
7, ,-28, ,
7, ,-28, ,
7, ,-28, ,
6, ,-28, ,
6, ,-28, ,
6, ,-28, ,
4, ,-28, ,
3, ,-28, ,
3, ,-28, ,
2, ,-28, ,
1, ,-28, ,
0, ,-28, ,
-1, ,-28, ,
-1, ,-28, ,
-2, ,-28, ,
-3, ,-28, ,
-3, ,-28, ,
-3, ,-28, ,
-3, ,-28, ,
-3, ,-28, ,
-4, ,-28, ,
-2, ,-28, ,
-2, ,-28, ,
-2, ,-28, ,
-1, ,-28, ,
-1, ,-28, ,
1, ,-28, ,
2, ,-28, ,
2, ,-28, ,
2, ,-28, ,
2, ,-28, ,
3, ,-28, ,
3, ,-28, ,
3, ,-28, ,
3, ,-28, ,
2, ,-28, ,
2, ,-28, ,
2, ,-28, ,
1, ,-28, ,
1, ,-28, ,
1, ,-28, ,
1, ,-28, ,
1, ,-28, ,
0, ,-28, ,
0, ,-28, ,
0, ,-28, ,
0, ,-28, ,
-1, ,-28, ,
-1, ,-28, ,
-3, ,-28, ,
-3, ,-28, ,
-4, ,-28, ,
-6, ,-28, ,
-7, ,-28, ,
-8, ,-28, ,
-10, ,-28, ,
-10, ,-28, ,
-11, ,-28, ,
-11, ,-28, ,
-12, ,-28, ,
-12, ,-28, ,
-11, ,-28, ,
-10, ,-28, ,
-9, ,-28, ,
-7, ,-28, ,
-6, ,-28, ,
-5, ,-28, ,
-1, ,-28, ,
-1, ,-28, ,
1, ,-28, ,
2, ,-28, ,
3, ,-28, ,
4, ,-28, ,
4, ,-28, ,
3, ,-28, ,
2, ,-28, ,
1, ,-28, ,
1, ,-28, ,
-1, ,-28, ,
-3, ,-28, ,
-4, ,-28, ,
-5, ,-28, ,
-6, ,-28, ,
-7, ,-28, ,
-9, ,-28, ,
-9, ,-28, ,
-10, ,-28, ,
-10, ,-28, ,
-9, ,-28, ,
-9, ,-28, ,
-9, ,-28, ,
-8, ,-28, ,
-8, ,-28, ,
-6, ,-28, ,
-6, ,-28, ,
-4, ,-28, ,
-2, ,-28, ,
-3, ,-28, ,
-1, ,-28, ,
2, ,-28, ,
2, ,-28, ,
4, ,-28, ,
4, ,-28, ,
6, ,-28, ,
7, ,-28, ,
7, ,-28, ,
7, ,-28, ,
7, ,-28, ,
6, ,-28, ,
5, ,-28, ,
5, ,-28, ,
2, ,-28, ,
1, ,-28, ,
-1, ,-28, ,
-3, ,-28, ,
-6, ,-28, ,
-9, ,-28, ,
-10, ,-28, ,
-12, ,-28, ,
-15, ,-28, ,
-16, ,-28, ,
-16, ,-28, ,
-16, ,-28, ,
-16, ,-28, ,
-15, ,-28, ,
-14, ,-28, ,
-14, ,-28, ,
-10, ,-28, ,
-8, ,-28, ,
-6, ,-28, ,
-4, ,-28, ,
1, ,-28, ,
3, ,-28, ,
4, ,-28, ,
6, ,-28, ,
9, ,-28, ,
11, ,-28, ,
12, ,-28, ,
13, ,-28, ,
15, ,-28, ,
15, ,-28, ,
15, ,-28, ,
15, ,-28, ,
15, ,-28, ,
14, ,-28, ,
14, ,-28, ,
13, ,-28, ,
11, ,-28, ,
9, ,-28, ,
8, ,-28, ,
6, ,-28, ,
2, ,-28, ,
1, ,-28, ,
-2, ,-28, ,
-4, ,-28, ,
-8, ,-28, ,
-10, ,-28, ,
-11, ,-28, ,
-13, ,-28, ,
-15, ,-28, ,
-15, ,-28, ,
-15, ,-28, ,
-15, ,-28, ,
-14, ,-28, ,
-14, ,-28, ,
-12, ,-28, ,
-11, ,-28, ,
-8, ,-28, ,
-5, ,-28, ,
-4, ,-28, ,
-1, ,-28, ,
2, ,-28, ,
3, ,-28, ,
6, ,-28, ,
6, ,-28, ,
8, ,-28, ,
9, ,-28, ,
8, ,-28, ,
8, ,-28, ,
7, ,-28, ,
6, ,-28, ,
4, ,-28, ,
3, ,-28, ,
0, ,-28, ,
-1, ,-28, ,
-3, ,-28, ,
-4, ,-28, ,
-6, ,-28, ,
-7, ,-28, ,
-7, ,-28, ,
-8, ,-28, ,
-7, ,-28, ,
-6, ,-28, ,
-6, ,-28, ,
-4, ,-28, ,
-2, ,-28, ,
-1, ,-28, ,
0, ,-28, ,
1, ,-28, ,
3, ,-28, ,
4, ,-28, ,
5, ,-28, ,
5, ,-28, ,
6, ,-28, ,
5, ,-28, ,
5, ,-28, ,
4, ,-28, ,
3, ,-28, ,
3, ,-28, ,
2, ,-28, ,
2, ,-28, ,
1, ,-28, ,
0, ,-28, ,
0, ,-28, ,
0, ,-28, ,
-1, ,-28, ,
-1, ,-28, ,
-1, ,-28, ,
0, ,-28, ,
0, ,-28, ,
1, ,-28, ,
1, ,-28, ,
1, ,-28, ,
2, ,-28, ,
3, ,-28, ,
3, ,-28, ,
3, ,-28, ,
4, ,-28, ,
4, ,-28, ,
5, ,-28, ,
5, ,-28, ,
5, ,-28, ,
6, ,-28, ,
5, ,-28, ,
5, ,-28, ,
5, ,-28, ,
4, ,-28, ,
4, ,-28, ,
3, ,-28, ,
2, ,-28, ,
1, ,-28, ,
-1, ,-28, ,
-2, ,-28, ,
-3, ,-28, ,
-4, ,-28, ,
-4, ,-28, ,
-5, ,-28, ,
-6, ,-28, ,
-6, ,-28, ,
-6, ,-28, ,
-6, ,-28, ,
-6, ,-28, ,
-6, ,-28, ,
-6, ,-28, ,
-6, ,-28, ,
-6, ,-28, ,
-6, ,-28, ,
-6, ,-28, ,
-5, ,-28, ,
-5, ,-28, ,
-5, ,-28, ,
-5, ,-28, ,
-5, ,-28, ,
-5, ,-28, ,
-5, ,-28, ,
-5, ,-28, ,
-5, ,-28, ,
-5, ,-28, ,
-4, ,-28, ,
-4, ,-28, ,
-4, ,-28, ,
-3, ,-28, ,
-2, ,-28, ,
-2, ,-28, ,
-1, ,-28, ,
0, ,-28, ,
1, ,-28, ,
1, ,-28, ,
1, ,-28, ,
2, ,-28, ,
3, ,-28, ,
3, ,-28, ,
3, ,-28, ,
4, ,-28, ,
4, ,-28, ,
5, ,-28, ,
5, ,-28, ,
5, ,-28, ,
5, ,-28, ,
5, ,-28, ,
6, ,-28, ,
6, ,-28, ,
5, ,-28, ,
5, ,-28, ,
5, ,-28, ,
4, ,-28, ,
4, ,-28, ,
3, ,-28, ,
3, ,-28, ,
3, ,-28, ,
3, ,-28, ,
3, ,-28, ,
3, ,-28, ,
3, ,-28, ,
3, ,-28, ,
3, ,-28, ,
3, ,-28, ,
4, ,-28, ,
4, ,-28, ,
4, ,-28, ,
4, ,-28, ,
4, ,-28, ,
4, ,-28, ,
3, ,-28, ,
3, ,-28, ,
2, ,-28, ,
1, ,-28, ,
1, ,-28, ,
0, ,-28, ,
-2, ,-28, ,
-3, ,-28, ,
-3, ,-28, ,
-4, ,-28, ,
-6, ,-28, ,
-6, ,-28, ,
-7, ,-28, ,
-8, ,-28, ,
-9, ,-28, ,
-9, ,-28, ,
-11, ,-28, ,
-11, ,-28, ,
-12, ,-28, ,
-12, ,-28, ,
-12, ,-28, ,
-12, ,-28, ,
-12, ,-28, ,
-11, ,-28, ,
-11, ,-28, ,
-11, ,-28, ,
-9, ,-28, ,
-9, ,-28, ,
-7, ,-28, ,
-6, ,-28, ,
-3, ,-28, ,
-1, ,-28, ,
0, ,-28, ,
2, ,-28, ,
5, ,-28, ,
7, ,-28, ,
9, ,-28, ,
9, ,-28, ,
12, ,-28, ,
13, ,-28, ,
13, ,-28, ,
14, ,-28, ,
13, ,-28, ,
13, ,-28, ,
12, ,-28, ,
12, ,-28, ,
10, ,-28, ,
8, ,-28, ,
7, ,-28, ,
6, ,-28, ,
3, ,-28, ,
2, ,-28, ,
1, ,-28, ,
-1, ,-28, ,
-2, ,-28, ,
-3, ,-28, ,
-3, ,-28, ,
-3, ,-28, ,
-2, ,-28, ,
-2, ,-28, ,
-1, ,-28, ,
-1, ,-28, ,
1, ,-28, ,
3, ,-28, ,
4, ,-28, ,
5, ,-28, ,
6, ,-28, ,
7, ,-28, ,
8, ,-28, ,
8, ,-28, ,
8, ,-28, ,
8, ,-28, ,
7, ,-28, ,
6, ,-28, ,
4, ,-28, ,
2, ,-28, ,
1, ,-28, ,
0, ,-28, ,
-3, ,-28, ,
-4, ,-28, ,
-6, ,-28, ,
-7, ,-28, ,
-9, ,-28, ,
-10, ,-28, ,
-10, ,-28, ,
-10, ,-28, ,
-10, ,-28, ,
-10, ,-28, ,
-10, ,-28, ,
-9, ,-28, ,
-7, ,-28, ,
-7, ,-28, ,
-6, ,-28, ,
-5, ,-28, ,
-3, ,-28, ,
-1, ,-28, ,
-1, ,-28, ,
1, ,-28, ,
3, ,-28, ,
4, ,-28, ,
5, ,-28, ,
5, ,-28, ,
6, ,-28, ,
6, ,-28, ,
6, ,-28, ,
6, ,-28, ,
5, ,-28, ,
4, ,-28, ,
3, ,-28, ,
3, ,-28, ,
2, ,-28, ,
1, ,-28, ,
1, ,-28, ,
0, ,-28, ,
0, ,-28, ,
-1, ,-28, ,
-1, ,-28, ,
-1, ,-28, ,
-1, ,-28, ,
0, ,-28, ,
0, ,-28, ,
1, ,-28, ,
2, ,-28, ,
3, ,-28, ,
4, ,-28, ,
4, ,-28, ,
5, ,-28, ,
6, ,-28, ,
6, ,-28, ,
6, ,-28, ,
6, ,-28, ,
5, ,-28, ,
5, ,-28, ,
4, ,-28, ,
3, ,-28, ,
3, ,-28, ,
2, ,-28, ,
1, ,-28, ,
0, ,-28, ,
-1, ,-28, ,
-1, ,-28, ,
-2, ,-28, ,
-3, ,-28, ,
-3, ,-28, ,
-4, ,-28, ,
-4, ,-28, ,
-3, ,-28, ,
-3, ,-28, ,
-3, ,-28, ,
-3, ,-28, ,
-3, ,-28, ,
-4, ,-28, ,
-4, ,-28, ,
-4, ,-28, ,
-4, ,-28, ,
-4, ,-28, ,
-4, ,-28, ,
-5, ,-28, ,
-6, ,-28, ,
-6, ,-28, ,
