raw_data/75% Glycerol, Impulsion 2Hz, Sonde 5MHz, Rampe 0.7Hz/temp0000120.CSV

Format,1.0B,
Memory Length,10000,Memory Length,10000,
IntpDistance,0,IntpDistance,0,
Trigger Address,159,Trigger Address,159,
Trigger Level,2.720E-01,Trigger Level,2.720E-01,
Source,CH1,Source,CH2,
Vertical Units,V,Vertical Units,V,
Vertical Units Div,0,Vertical Units Div,0,
Vertical Units Extend Div,16,Vertical Units Extend Div,16,
Label,,Label,,
Probe Type,0,Probe Type,0,
Probe Ratio,1.000e+00,Probe Ratio,1.000e+00,
Vertical Scale,5.000e-01,Vertical Scale,2.000e+00,
Vertical Position,0.000e+00,Vertical Position,0.000e+00,
Horizontal Units,S,Horizontal Units,S,
Horizontal Scale,5.000E-06,Horizontal Scale,5.000E-06,
Horizontal Position,2.420E-05,Horizontal Position,2.420E-05,
Horizontal Mode,Main,Horizontal Mode,Main,
SincET Mode,Real Time,SincET Mode,Real Time,
Sampling Period,5.000e-09,Sampling Period,5.000e-09,
Horizontal Old Scale,5.000E-06,Horizontal Old Scale,5.000E-06,
Horizontal Old Position,2.420E-05,Horizontal Old Position,2.420E-05,
Firmware,V1.32,Firmware,V1.32,
Mode,Fast,Mode,Fast,
Waveform Data,,Waveform Data,,
0, ,11, ,
0, ,11, ,
1, ,11, ,
0, ,11, ,
0, ,11, ,
0, ,11, ,
0, ,11, ,
0, ,11, ,
0, ,11, ,
0, ,11, ,
1, ,11, ,
0, ,11, ,
1, ,11, ,
0, ,11, ,
1, ,11, ,
1, ,11, ,
1, ,11, ,
1, ,11, ,
1, ,11, ,
1, ,11, ,
1, ,11, ,
1, ,11, ,
1, ,11, ,
1, ,11, ,
1, ,11, ,
1, ,11, ,
0, ,11, ,
0, ,11, ,
0, ,11, ,
0, ,11, ,
1, ,11, ,
1, ,11, ,
0, ,11, ,
0, ,11, ,
0, ,11, ,
0, ,11, ,
1, ,11, ,
0, ,11, ,
0, ,11, ,
1, ,11, ,
1, ,11, ,
1, ,11, ,
0, ,11, ,
0, ,11, ,
0, ,11, ,
1, ,11, ,
1, ,11, ,
1, ,11, ,
1, ,11, ,
1, ,11, ,
1, ,11, ,
1, ,11, ,
1, ,11, ,
1, ,11, ,
1, ,11, ,
1, ,11, ,
1, ,11, ,
1, ,11, ,
1, ,11, ,
0, ,11, ,
0, ,11, ,
0, ,11, ,
0, ,11, ,
0, ,11, ,
0, ,11, ,
1, ,11, ,
1, ,11, ,
1, ,11, ,
1, ,11, ,
1, ,11, ,
0, ,11, ,
0, ,11, ,
0, ,11, ,
1, ,11, ,
0, ,11, ,
0, ,11, ,
1, ,11, ,
1, ,11, ,
1, ,11, ,
1, ,11, ,
0, ,11, ,
0, ,11, ,
1, ,11, ,
0, ,11, ,
0, ,11, ,
0, ,11, ,
1, ,11, ,
1, ,11, ,
1, ,11, ,
1, ,11, ,
1, ,11, ,
1, ,11, ,
1, ,11, ,
1, ,11, ,
1, ,11, ,
1, ,11, ,
1, ,11, ,
1, ,11, ,
1, ,11, ,
1, ,11, ,
1, ,11, ,
1, ,11, ,
1, ,11, ,
1, ,11, ,
0, ,11, ,
0, ,11, ,
1, ,11, ,
1, ,11, ,
1, ,11, ,
0, ,11, ,
0, ,11, ,
1, ,11, ,
1, ,11, ,
1, ,11, ,
0, ,11, ,
0, ,11, ,
0, ,11, ,
0, ,11, ,
1, ,11, ,
1, ,11, ,
1, ,11, ,
1, ,11, ,
1, ,11, ,
1, ,11, ,
1, ,11, ,
1, ,11, ,
1, ,11, ,
1, ,11, ,
1, ,11, ,
1, ,11, ,
1, ,11, ,
1, ,11, ,
1, ,11, ,
0, ,11, ,
0, ,11, ,
1, ,11, ,
1, ,11, ,
1, ,11, ,
0, ,11, ,
0, ,11, ,
1, ,11, ,
1, ,11, ,
0, ,11, ,
0, ,11, ,
0, ,11, ,
0, ,11, ,
1, ,11, ,
0, ,11, ,
0, ,11, ,
0, ,11, ,
0, ,11, ,
0, ,11, ,
0, ,11, ,
0, ,11, ,
1, ,11, ,
1, ,11, ,
1, ,11, ,
1, ,11, ,
1, ,11, ,
1, ,11, ,
1, ,11, ,
1, ,11, ,
1, ,11, ,
1, ,11, ,
0, ,11, ,
1, ,11, ,
1, ,11, ,
-1, ,11, ,
1, ,11, ,
18, ,11, ,
87, ,11, ,
125, ,11, ,
124, ,11, ,
121, ,11, ,
38, ,11, ,
-4, ,11, ,
6, ,11, ,
57, ,11, ,
125, ,11, ,
125, ,11, ,
125, ,11, ,
125, ,11, ,
125, ,11, ,
125, ,11, ,
124, ,11, ,
124, ,11, ,
115, ,11, ,
110, ,11, ,
106, ,11, ,
103, ,11, ,
97, ,11, ,
93, ,11, ,
89, ,11, ,
86, ,11, ,
80, ,11, ,
76, ,11, ,
75, ,11, ,
71, ,11, ,
66, ,11, ,
64, ,11, ,
61, ,11, ,
58, ,11, ,
54, ,11, ,
51, ,11, ,
49, ,11, ,
47, ,11, ,
43, ,11, ,
41, ,11, ,
39, ,11, ,
38, ,11, ,
35, ,11, ,
33, ,11, ,
32, ,11, ,
30, ,11, ,
27, ,11, ,
26, ,11, ,
25, ,11, ,
25, ,11, ,
22, ,11, ,
21, ,11, ,
20, ,11, ,
19, ,11, ,
18, ,11, ,
17, ,11, ,
16, ,11, ,
16, ,11, ,
13, ,11, ,
12, ,11, ,
12, ,11, ,
11, ,11, ,
10, ,11, ,
10, ,11, ,
9, ,11, ,
8, ,11, ,
7, ,11, ,
7, ,11, ,
7, ,11, ,
6, ,11, ,
5, ,11, ,
5, ,11, ,
4, ,11, ,
4, ,11, ,
4, ,11, ,
4, ,11, ,
3, ,11, ,
3, ,11, ,
2, ,11, ,
2, ,11, ,
2, ,11, ,
2, ,11, ,
2, ,11, ,
1, ,11, ,
1, ,11, ,
0, ,11, ,
0, ,11, ,
1, ,11, ,
0, ,11, ,
0, ,11, ,
0, ,11, ,
0, ,11, ,
0, ,11, ,
0, ,11, ,
-1, ,11, ,
-1, ,11, ,
-1, ,11, ,
-1, ,11, ,
-1, ,11, ,
-1, ,11, ,
-1, ,11, ,
-1, ,11, ,
-1, ,11, ,
-1, ,11, ,
-2, ,11, ,
-2, ,11, ,
-1, ,11, ,
-1, ,11, ,
-1, ,11, ,
-2, ,11, ,
-2, ,11, ,
-1, ,11, ,
-1, ,11, ,
-1, ,11, ,
-1, ,11, ,
-1, ,11, ,
-1, ,11, ,
-1, ,11, ,
-1, ,11, ,
-1, ,11, ,
-1, ,11, ,
-1, ,11, ,
-1, ,11, ,
-1, ,11, ,
-1, ,11, ,
-1, ,11, ,
-1, ,11, ,
-1, ,11, ,
-1, ,11, ,
-1, ,11, ,
-1, ,11, ,
-2, ,11, ,
-2, ,11, ,
-1, ,11, ,
-1, ,11, ,
-1, ,11, ,
-1, ,11, ,
-1, ,11, ,
-1, ,11, ,
-1, ,11, ,
-1, ,11, ,
-1, ,11, ,
-1, ,11, ,
-1, ,11, ,
-1, ,11, ,
-1, ,11, ,
-1, ,11, ,
-1, ,11, ,
-1, ,11, ,
-1, ,11, ,
0, ,11, ,
0, ,11, ,
-1, ,11, ,
-1, ,11, ,
0, ,11, ,
-1, ,11, ,
-1, ,11, ,
-1, ,11, ,
0, ,11, ,
-1, ,11, ,
-1, ,11, ,
-1, ,11, ,
0, ,11, ,
0, ,11, ,
0, ,11, ,
0, ,11, ,
0, ,11, ,
0, ,11, ,
0, ,11, ,
0, ,11, ,
0, ,11, ,
0, ,11, ,
0, ,11, ,
0, ,11, ,
0, ,11, ,
0, ,11, ,
0, ,11, ,
0, ,11, ,
0, ,11, ,
0, ,11, ,
0, ,11, ,
0, ,11, ,
0, ,11, ,
0, ,11, ,
0, ,11, ,
0, ,11, ,
0, ,11, ,
0, ,11, ,
0, ,11, ,
0, ,11, ,
0, ,11, ,
0, ,11, ,
0, ,11, ,
0, ,11, ,
1, ,11, ,
0, ,11, ,
0, ,11, ,
0, ,11, ,
0, ,11, ,
0, ,11, ,
0, ,11, ,
0, ,11, ,
1, ,11, ,
0, ,11, ,
0, ,11, ,
0, ,11, ,
0, ,11, ,
1, ,11, ,
0, ,11, ,
0, ,11, ,
0, ,11, ,
0, ,11, ,
0, ,11, ,
0, ,11, ,
0, ,11, ,
1, ,11, ,
0, ,11, ,
0, ,11, ,
0, ,11, ,
0, ,11, ,
0, ,11, ,
0, ,11, ,
0, ,11, ,
0, ,11, ,
0, ,11, ,
0, ,11, ,
0, ,11, ,
0, ,11, ,
0, ,11, ,
0, ,11, ,
0, ,11, ,
0, ,11, ,
0, ,11, ,
0, ,11, ,
0, ,11, ,
0, ,11, ,
0, ,11, ,
0, ,11, ,
0, ,11, ,
0, ,11, ,
0, ,11, ,
0, ,11, ,
0, ,11, ,
0, ,11, ,
0, ,11, ,
0, ,11, ,
0, ,11, ,
1, ,11, ,
1, ,11, ,
1, ,11, ,
1, ,11, ,
1, ,11, ,
1, ,11, ,
0, ,11, ,
0, ,11, ,
1, ,11, ,
1, ,11, ,
1, ,11, ,
0, ,11, ,
0, ,11, ,
0, ,11, ,
0, ,11, ,
0, ,11, ,
0, ,11, ,
0, ,11, ,
0, ,11, ,
1, ,11, ,
0, ,11, ,
0, ,11, ,
0, ,11, ,
0, ,11, ,
0, ,11, ,
-1, ,11, ,
-1, ,11, ,
-3, ,11, ,
-5, ,11, ,
-6, ,11, ,
-7, ,11, ,
-9, ,11, ,
-8, ,11, ,
-7, ,11, ,
-6, ,11, ,
-3, ,11, ,
-3, ,11, ,
-2, ,11, ,
-1, ,11, ,
0, ,11, ,
1, ,11, ,
1, ,11, ,
2, ,11, ,
2, ,11, ,
1, ,11, ,
1, ,11, ,
1, ,11, ,
1, ,11, ,
0, ,11, ,
0, ,11, ,
0, ,11, ,
0, ,11, ,
0, ,11, ,
0, ,11, ,
0, ,11, ,
0, ,11, ,
1, ,11, ,
1, ,11, ,
2, ,11, ,
2, ,11, ,
2, ,11, ,
2, ,11, ,
2, ,11, ,
2, ,11, ,
2, ,11, ,
2, ,11, ,
2, ,11, ,
2, ,11, ,
1, ,11, ,
1, ,11, ,
0, ,11, ,
0, ,11, ,
-1, ,11, ,
-1, ,11, ,
-1, ,11, ,
-1, ,11, ,
-1, ,11, ,
-1, ,11, ,
-1, ,11, ,
-1, ,11, ,
0, ,11, ,
0, ,11, ,
0, ,11, ,
0, ,11, ,
0, ,11, ,
0, ,11, ,
-1, ,11, ,
-1, ,11, ,
0, ,11, ,
0, ,11, ,
0, ,11, ,
0, ,11, ,
1, ,11, ,
1, ,11, ,
1, ,11, ,
2, ,11, ,
2, ,11, ,
3, ,11, ,
3, ,11, ,
3, ,11, ,
3, ,11, ,
3, ,11, ,
3, ,11, ,
2, ,11, ,
2, ,11, ,
2, ,11, ,
1, ,11, ,
0, ,11, ,
-1, ,11, ,
-1, ,11, ,
-3, ,11, ,
-6, ,11, ,
-7, ,11, ,
-8, ,11, ,
-9, ,11, ,
-12, ,11, ,
-12, ,11, ,
-12, ,11, ,
-12, ,11, ,
-12, ,11, ,
-11, ,11, ,
-11, ,11, ,
-11, ,11, ,
-12, ,11, ,
-13, ,11, ,
-14, ,11, ,
-15, ,11, ,
-19, ,11, ,
-19, ,11, ,
-23, ,11, ,
-25, ,11, ,
-28, ,11, ,
-29, ,11, ,
-29, ,11, ,
-29, ,11, ,
-28, ,11, ,
-26, ,11, ,
-25, ,11, ,
-24, ,11, ,
-21, ,11, ,
-20, ,11, ,
-20, ,11, ,
-20, ,11, ,
-21, ,11, ,
-22, ,11, ,
-23, ,11, ,
-24, ,11, ,
-26, ,11, ,
-28, ,11, ,
-29, ,11, ,
-30, ,11, ,
-30, ,11, ,
-30, ,11, ,
-30, ,11, ,
-30, ,11, ,
-28, ,11, ,
-27, ,11, ,
-26, ,11, ,
-25, ,11, ,
-23, ,11, ,
-22, ,11, ,
-20, ,11, ,
-19, ,11, ,
-17, ,11, ,
-15, ,11, ,
-13, ,11, ,
-12, ,11, ,
-8, ,11, ,
-6, ,11, ,
-4, ,11, ,
-2, ,11, ,
4, ,11, ,
5, ,11, ,
8, ,11, ,
10, ,11, ,
14, ,11, ,
16, ,11, ,
18, ,11, ,
19, ,11, ,
21, ,11, ,
21, ,11, ,
22, ,11, ,
22, ,11, ,
22, ,11, ,
22, ,11, ,
22, ,11, ,
22, ,11, ,
20, ,11, ,
18, ,11, ,
17, ,11, ,
14, ,11, ,
9, ,11, ,
5, ,11, ,
1, ,11, ,
-4, ,11, ,
-18, ,11, ,
-25, ,11, ,
-33, ,11, ,
-42, ,11, ,
-59, ,11, ,
-66, ,11, ,
-74, ,11, ,
-79, ,11, ,
-85, ,11, ,
-86, ,11, ,
-83, ,11, ,
-78, ,11, ,
-59, ,11, ,
-44, ,11, ,
-27, ,11, ,
-8, ,11, ,
29, ,11, ,
44, ,11, ,
56, ,11, ,
63, ,11, ,
67, ,11, ,
67, ,11, ,
65, ,11, ,
65, ,11, ,
63, ,11, ,
61, ,11, ,
60, ,11, ,
58, ,11, ,
54, ,11, ,
53, ,11, ,
51, ,11, ,
50, ,11, ,
46, ,11, ,
44, ,11, ,
43, ,11, ,
40, ,11, ,
35, ,11, ,
27, ,11, ,
8, ,11, ,
-27, ,11, ,
-116, ,11, ,
-124, ,11, ,
-119, ,11, ,
-115, ,11, ,
-116, ,11, ,
-117, ,11, ,
-117, ,11, ,
-118, ,11, ,
-119, ,11, ,
-119, ,11, ,
-120, ,11, ,
-120, ,11, ,
-121, ,11, ,
-121, ,11, ,
-121, ,11, ,
-121, ,11, ,
-121, ,11, ,
-121, ,11, ,
-121, ,11, ,
-121, ,11, ,
-120, ,11, ,
-120, ,11, ,
-120, ,11, ,
-119, ,11, ,
-115, ,11, ,
-108, ,11, ,
-87, ,11, ,
-70, ,11, ,
0, ,11, ,
56, ,11, ,
107, ,11, ,
125, ,11, ,
125, ,11, ,
125, ,11, ,
125, ,11, ,
125, ,11, ,
125, ,11, ,
125, ,11, ,
125, ,11, ,
125, ,11, ,
125, ,11, ,
124, ,11, ,
124, ,11, ,
123, ,11, ,
115, ,11, ,
111, ,11, ,
107, ,11, ,
104, ,11, ,
96, ,11, ,
92, ,11, ,
89, ,11, ,
85, ,11, ,
79, ,11, ,
77, ,11, ,
74, ,11, ,
72, ,11, ,
67, ,11, ,
63, ,11, ,
61, ,11, ,
58, ,11, ,
51, ,11, ,
47, ,11, ,
38, ,11, ,
28, ,11, ,
-10, ,11, ,
-35, ,11, ,
-62, ,11, ,
-86, ,11, ,
-115, ,11, ,
-117, ,11, ,
-116, ,11, ,
-116, ,11, ,
-116, ,11, ,
-117, ,11, ,
-117, ,11, ,
-117, ,11, ,
-118, ,11, ,
-118, ,11, ,
-119, ,11, ,
-119, ,11, ,
-119, ,11, ,
-120, ,11, ,
-120, ,11, ,
-120, ,11, ,
-121, ,11, ,
-120, ,11, ,
-116, ,11, ,
-91, ,11, ,
2, ,11, ,
18, ,11, ,
25, ,11, ,
30, ,11, ,
42, ,11, ,
47, ,11, ,
50, ,11, ,
51, ,11, ,
53, ,11, ,
53, ,11, ,
55, ,11, ,
56, ,11, ,
61, ,11, ,
64, ,11, ,
66, ,11, ,
70, ,11, ,
75, ,11, ,
76, ,11, ,
78, ,11, ,
77, ,11, ,
76, ,11, ,
75, ,11, ,
71, ,11, ,
67, ,11, ,
56, ,11, ,
49, ,11, ,
42, ,11, ,
34, ,11, ,
21, ,11, ,
15, ,11, ,
8, ,11, ,
4, ,11, ,
-4, ,11, ,
-5, ,11, ,
-6, ,11, ,
-6, ,11, ,
-4, ,11, ,
-3, ,11, ,
-1, ,11, ,
2, ,11, ,
8, ,11, ,
11, ,11, ,
14, ,11, ,
17, ,11, ,
21, ,11, ,
24, ,11, ,
25, ,11, ,
25, ,11, ,
25, ,11, ,
25, ,11, ,
25, ,11, ,
22, ,11, ,
17, ,11, ,
15, ,11, ,
11, ,11, ,
8, ,11, ,
0, ,11, ,
-5, ,11, ,
-8, ,11, ,
-12, ,11, ,
-18, ,11, ,
-20, ,11, ,
-23, ,11, ,
-25, ,11, ,
-28, ,11, ,
-30, ,11, ,
-31, ,11, ,
-34, ,11, ,
-36, ,11, ,
-36, ,11, ,
-36, ,11, ,
-36, ,11, ,
-34, ,11, ,
-33, ,11, ,
-31, ,11, ,
-29, ,11, ,
-23, ,11, ,
-19, ,11, ,
-17, ,11, ,
-13, ,11, ,
-7, ,11, ,
-6, ,11, ,
-5, ,11, ,
-6, ,11, ,
-8, ,11, ,
-10, ,11, ,
-14, ,11, ,
-19, ,11, ,
-28, ,11, ,
-34, ,11, ,
-40, ,11, ,
-45, ,11, ,
-54, ,11, ,
-56, ,11, ,
-56, ,11, ,
-55, ,11, ,
-50, ,11, ,
-45, ,11, ,
-38, ,11, ,
-30, ,11, ,
-10, ,11, ,
1, ,11, ,
11, ,11, ,
21, ,11, ,
37, ,11, ,
45, ,11, ,
51, ,11, ,
55, ,11, ,
62, ,11, ,
64, ,11, ,
63, ,11, ,
63, ,11, ,
59, ,11, ,
57, ,11, ,
53, ,11, ,
49, ,11, ,
41, ,11, ,
37, ,11, ,
33, ,11, ,
29, ,11, ,
22, ,11, ,
18, ,11, ,
14, ,11, ,
11, ,11, ,
4, ,11, ,
1, ,11, ,
-2, ,11, ,
-4, ,11, ,
-8, ,11, ,
-9, ,11, ,
-10, ,11, ,
-10, ,11, ,
-9, ,11, ,
-8, ,11, ,
-7, ,11, ,
-5, ,11, ,
-1, ,11, ,
1, ,11, ,
3, ,11, ,
4, ,11, ,
6, ,11, ,
7, ,11, ,
7, ,11, ,
6, ,11, ,
5, ,11, ,
2, ,11, ,
0, ,11, ,
-3, ,11, ,
-8, ,11, ,
-11, ,11, ,
-15, ,11, ,
-17, ,11, ,
-22, ,11, ,
-25, ,11, ,
-25, ,11, ,
-27, ,11, ,
-28, ,11, ,
-28, ,11, ,
-29, ,11, ,
-29, ,11, ,
-30, ,11, ,
-31, ,11, ,
-31, ,11, ,
-32, ,11, ,
-35, ,11, ,
-36, ,11, ,
-38, ,11, ,
-40, ,11, ,
-42, ,11, ,
-45, ,11, ,
-46, ,11, ,
-47, ,11, ,
-47, ,11, ,
-46, ,11, ,
-46, ,11, ,
-45, ,11, ,
-41, ,11, ,
-39, ,11, ,
-35, ,11, ,
-33, ,11, ,
-26, ,11, ,
-23, ,11, ,
-19, ,11, ,
-15, ,11, ,
-8, ,11, ,
-6, ,11, ,
-2, ,11, ,
1, ,11, ,
7, ,11, ,
10, ,11, ,
12, ,11, ,
15, ,11, ,
19, ,11, ,
21, ,11, ,
24, ,11, ,
25, ,11, ,
29, ,11, ,
31, ,11, ,
32, ,11, ,
34, ,11, ,
36, ,11, ,
37, ,11, ,
37, ,11, ,
36, ,11, ,
34, ,11, ,
33, ,11, ,
31, ,11, ,
29, ,11, ,
22, ,11, ,
18, ,11, ,
14, ,11, ,
9, ,11, ,
0, ,11, ,
-3, ,11, ,
-9, ,11, ,
-12, ,11, ,
-18, ,11, ,
-21, ,11, ,
-21, ,11, ,
-22, ,11, ,
-22, ,11, ,
-22, ,11, ,
-20, ,11, ,
-18, ,11, ,
-15, ,11, ,
-14, ,11, ,
-11, ,11, ,
-10, ,11, ,
-7, ,11, ,
-6, ,11, ,
-6, ,11, ,
-5, ,11, ,
-6, ,11, ,
-6, ,11, ,
-7, ,11, ,
-8, ,11, ,
-9, ,11, ,
-10, ,11, ,
-10, ,11, ,
-10, ,11, ,
-10, ,11, ,
-10, ,11, ,
-9, ,11, ,
-8, ,11, ,
-7, ,11, ,
-5, ,11, ,
-5, ,11, ,
-3, ,11, ,
0, ,11, ,
1, ,11, ,
2, ,11, ,
3, ,11, ,
5, ,11, ,
6, ,11, ,
7, ,11, ,
8, ,11, ,
8, ,11, ,
8, ,11, ,
8, ,11, ,
7, ,11, ,
6, ,11, ,
6, ,11, ,
5, ,11, ,
5, ,11, ,
5, ,11, ,
3, ,11, ,
3, ,11, ,
3, ,11, ,
3, ,11, ,
3, ,11, ,
2, ,11, ,
2, ,11, ,
2, ,11, ,
2, ,11, ,
2, ,11, ,
2, ,11, ,
1, ,11, ,
1, ,11, ,
0, ,11, ,
0, ,11, ,
-1, ,11, ,
-2, ,11, ,
-3, ,11, ,
-5, ,11, ,
-8, ,11, ,
-9, ,11, ,
-11, ,11, ,
-13, ,11, ,
-16, ,11, ,
-18, ,11, ,
-18, ,11, ,
-19, ,11, ,
-19, ,11, ,
-18, ,11, ,
-17, ,11, ,
-15, ,11, ,
-8, ,11, ,
-4, ,11, ,
0, ,11, ,
5, ,11, ,
16, ,11, ,
23, ,11, ,
28, ,11, ,
33, ,11, ,
43, ,11, ,
46, ,11, ,
49, ,11, ,
50, ,11, ,
49, ,11, ,
48, ,11, ,
45, ,11, ,
41, ,11, ,
29, ,11, ,
22, ,11, ,
14, ,11, ,
4, ,11, ,
-17, ,11, ,
-26, ,11, ,
-37, ,11, ,
-47, ,11, ,
-65, ,11, ,
-73, ,11, ,
-79, ,11, ,
-85, ,11, ,
-93, ,11, ,
-95, ,11, ,
-96, ,11, ,
-96, ,11, ,
-94, ,11, ,
-93, ,11, ,
-90, ,11, ,
-87, ,11, ,
-81, ,11, ,
-76, ,11, ,
-73, ,11, ,
-69, ,11, ,
-56, ,11, ,
-50, ,11, ,
-42, ,11, ,
-34, ,11, ,
-15, ,11, ,
-3, ,11, ,
7, ,11, ,
19, ,11, ,
41, ,11, ,
52, ,11, ,
63, ,11, ,
72, ,11, ,
88, ,11, ,
95, ,11, ,
99, ,11, ,
104, ,11, ,
107, ,11, ,
107, ,11, ,
106, ,11, ,
103, ,11, ,
96, ,11, ,
92, ,11, ,
87, ,11, ,
82, ,11, ,
74, ,11, ,
69, ,11, ,
65, ,11, ,
62, ,11, ,
58, ,11, ,
57, ,11, ,
55, ,11, ,
54, ,11, ,
53, ,11, ,
52, ,11, ,
51, ,11, ,
49, ,11, ,
42, ,11, ,
38, ,11, ,
32, ,11, ,
25, ,11, ,
9, ,11, ,
-2, ,11, ,
-13, ,11, ,
-24, ,11, ,
-46, ,11, ,
-57, ,11, ,
-67, ,11, ,
-75, ,11, ,
-93, ,11, ,
-99, ,11, ,
-104, ,11, ,
-107, ,11, ,
-111, ,11, ,
-111, ,11, ,
-111, ,11, ,
-110, ,11, ,
-106, ,11, ,
-101, ,11, ,
-92, ,11, ,
-83, ,11, ,
-66, ,11, ,
-57, ,11, ,
-48, ,11, ,
-39, ,11, ,
-22, ,11, ,
-15, ,11, ,
-7, ,11, ,
-1, ,11, ,
8, ,11, ,
12, ,11, ,
13, ,11, ,
15, ,11, ,
15, ,11, ,
13, ,11, ,
12, ,11, ,
9, ,11, ,
4, ,11, ,
1, ,11, ,
-2, ,11, ,
-3, ,11, ,
-6, ,11, ,
-6, ,11, ,
-6, ,11, ,
-6, ,11, ,
-3, ,11, ,
0, ,11, ,
3, ,11, ,
7, ,11, ,
15, ,11, ,
18, ,11, ,
23, ,11, ,
25, ,11, ,
31, ,11, ,
34, ,11, ,
35, ,11, ,
35, ,11, ,
34, ,11, ,
32, ,11, ,
30, ,11, ,
26, ,11, ,
19, ,11, ,
15, ,11, ,
9, ,11, ,
4, ,11, ,
-7, ,11, ,
-12, ,11, ,
-16, ,11, ,
-21, ,11, ,
-25, ,11, ,
-25, ,11, ,
-25, ,11, ,
-23, ,11, ,
-15, ,11, ,
-10, ,11, ,
-3, ,11, ,
5, ,11, ,
22, ,11, ,
31, ,11, ,
39, ,11, ,
48, ,11, ,
63, ,11, ,
68, ,11, ,
73, ,11, ,
75, ,11, ,
75, ,11, ,
74, ,11, ,
70, ,11, ,
64, ,11, ,
46, ,11, ,
35, ,11, ,
24, ,11, ,
9, ,11, ,
-18, ,11, ,
-30, ,11, ,
-43, ,11, ,
-54, ,11, ,
-73, ,11, ,
-79, ,11, ,
-84, ,11, ,
-87, ,11, ,
-87, ,11, ,
-84, ,11, ,
-80, ,11, ,
-75, ,11, ,
-58, ,11, ,
-49, ,11, ,
-38, ,11, ,
-29, ,11, ,
-10, ,11, ,
0, ,11, ,
7, ,11, ,
15, ,11, ,
25, ,11, ,
27, ,11, ,
31, ,11, ,
32, ,11, ,
31, ,11, ,
30, ,11, ,
28, ,11, ,
26, ,11, ,
19, ,11, ,
14, ,11, ,
9, ,11, ,
4, ,11, ,
-7, ,11, ,
-12, ,11, ,
-17, ,11, ,
-22, ,11, ,
-28, ,11, ,
-31, ,11, ,
-32, ,11, ,
-32, ,11, ,
-30, ,11, ,
-28, ,11, ,
-25, ,11, ,
-21, ,11, ,
-12, ,11, ,
-6, ,11, ,
1, ,11, ,
5, ,11, ,
16, ,11, ,
21, ,11, ,
24, ,11, ,
27, ,11, ,
30, ,11, ,
29, ,11, ,
29, ,11, ,
27, ,11, ,
25, ,11, ,
23, ,11, ,
20, ,11, ,
17, ,11, ,
11, ,11, ,
9, ,11, ,
7, ,11, ,
4, ,11, ,
2, ,11, ,
1, ,11, ,
1, ,11, ,
2, ,11, ,
2, ,11, ,
2, ,11, ,
2, ,11, ,
2, ,11, ,
1, ,11, ,
1, ,11, ,
0, ,11, ,
-1, ,11, ,
-5, ,11, ,
-7, ,11, ,
-9, ,11, ,
-12, ,11, ,
-17, ,11, ,
-20, ,11, ,
-23, ,11, ,
-25, ,11, ,
-30, ,11, ,
-32, ,11, ,
-34, ,11, ,
-34, ,11, ,
-34, ,11, ,
-33, ,11, ,
-32, ,11, ,
-30, ,11, ,
-25, ,11, ,
-23, ,11, ,
-19, ,11, ,
-15, ,11, ,
-6, ,11, ,
-1, ,11, ,
3, ,11, ,
8, ,11, ,
16, ,11, ,
18, ,11, ,
22, ,11, ,
24, ,11, ,
26, ,11, ,
25, ,11, ,
25, ,11, ,
25, ,11, ,
23, ,11, ,
21, ,11, ,
19, ,11, ,
16, ,11, ,
11, ,11, ,
8, ,11, ,
5, ,11, ,
3, ,11, ,
-2, ,11, ,
-4, ,11, ,
-5, ,11, ,
-7, ,11, ,
-7, ,11, ,
-7, ,11, ,
-7, ,11, ,
-6, ,11, ,
-5, ,11, ,
-5, ,11, ,
-4, ,11, ,
-3, ,11, ,
-2, ,11, ,
-1, ,11, ,
-1, ,11, ,
0, ,11, ,
1, ,11, ,
1, ,11, ,
2, ,11, ,
2, ,11, ,
3, ,11, ,
4, ,11, ,
3, ,11, ,
4, ,11, ,
4, ,11, ,
3, ,11, ,
3, ,11, ,
2, ,11, ,
1, ,11, ,
0, ,11, ,
-1, ,11, ,
-2, ,11, ,
-4, ,11, ,
-5, ,11, ,
-6, ,11, ,
-8, ,11, ,
-9, ,11, ,
-10, ,11, ,
-10, ,11, ,
-10, ,11, ,
-10, ,11, ,
-9, ,11, ,
-7, ,11, ,
-7, ,11, ,
-4, ,11, ,
-1, ,11, ,
1, ,11, ,
3, ,11, ,
8, ,11, ,
10, ,11, ,
13, ,11, ,
14, ,11, ,
18, ,11, ,
20, ,11, ,
20, ,11, ,
22, ,11, ,
22, ,11, ,
21, ,11, ,
21, ,11, ,
20, ,11, ,
17, ,11, ,
16, ,11, ,
13, ,11, ,
12, ,11, ,
8, ,11, ,
4, ,11, ,
2, ,11, ,
-1, ,11, ,
-6, ,11, ,
-8, ,11, ,
-11, ,11, ,
-12, ,11, ,
-15, ,11, ,
-15, ,11, ,
-15, ,11, ,
-15, ,11, ,
-14, ,11, ,
-13, ,11, ,
-11, ,11, ,
-10, ,11, ,
-6, ,11, ,
-5, ,11, ,
-3, ,11, ,
-2, ,11, ,
-1, ,11, ,
0, ,11, ,
-1, ,11, ,
-1, ,11, ,
-2, ,11, ,
-3, ,11, ,
-4, ,11, ,
-6, ,11, ,
-8, ,11, ,
-9, ,11, ,
-10, ,11, ,
-10, ,11, ,
-10, ,11, ,
-10, ,11, ,
-10, ,11, ,
-9, ,11, ,
-7, ,11, ,
-6, ,11, ,
-5, ,11, ,
-3, ,11, ,
0, ,11, ,
1, ,11, ,
1, ,11, ,
2, ,11, ,
2, ,11, ,
3, ,11, ,
2, ,11, ,
2, ,11, ,
2, ,11, ,
2, ,11, ,
2, ,11, ,
2, ,11, ,
3, ,11, ,
3, ,11, ,
3, ,11, ,
5, ,11, ,
5, ,11, ,
6, ,11, ,
7, ,11, ,
7, ,11, ,
8, ,11, ,
7, ,11, ,
7, ,11, ,
6, ,11, ,
5, ,11, ,
3, ,11, ,
1, ,11, ,
0, ,11, ,
-4, ,11, ,
-6, ,11, ,
-8, ,11, ,
-9, ,11, ,
-13, ,11, ,
-15, ,11, ,
-15, ,11, ,
-16, ,11, ,
-16, ,11, ,
-16, ,11, ,
-16, ,11, ,
-15, ,11, ,
-13, ,11, ,
-11, ,11, ,
-10, ,11, ,
-9, ,11, ,
-5, ,11, ,
-3, ,11, ,
-2, ,11, ,
1, ,11, ,
4, ,11, ,
5, ,11, ,
6, ,11, ,
7, ,11, ,
8, ,11, ,
11, ,11, ,
11, ,11, ,
12, ,11, ,
15, ,11, ,
15, ,11, ,
15, ,11, ,
16, ,11, ,
18, ,11, ,
19, ,11, ,
19, ,11, ,
20, ,11, ,
21, ,11, ,
21, ,11, ,
21, ,11, ,
20, ,11, ,
20, ,11, ,
20, ,11, ,
19, ,11, ,
18, ,11, ,
18, ,11, ,
16, ,11, ,
16, ,11, ,
14, ,11, ,
13, ,11, ,
13, ,11, ,
13, ,11, ,
13, ,11, ,
11, ,11, ,
10, ,11, ,
9, ,11, ,
8, ,11, ,
6, ,11, ,
5, ,11, ,
3, ,11, ,
1, ,11, ,
-3, ,11, ,
-6, ,11, ,
-9, ,11, ,
-12, ,11, ,
-18, ,11, ,
-21, ,11, ,
-24, ,11, ,
-26, ,11, ,
-32, ,11, ,
-35, ,11, ,
-37, ,11, ,
-39, ,11, ,
-40, ,11, ,
-39, ,11, ,
-40, ,11, ,
-38, ,11, ,
-34, ,11, ,
-32, ,11, ,
-28, ,11, ,
-25, ,11, ,
-16, ,11, ,
-11, ,11, ,
-7, ,11, ,
-2, ,11, ,
6, ,11, ,
10, ,11, ,
14, ,11, ,
16, ,11, ,
20, ,11, ,
21, ,11, ,
20, ,11, ,
20, ,11, ,
18, ,11, ,
16, ,11, ,
14, ,11, ,
12, ,11, ,
8, ,11, ,
6, ,11, ,
3, ,11, ,
2, ,11, ,
-1, ,11, ,
-2, ,11, ,
-2, ,11, ,
-2, ,11, ,
-2, ,11, ,
-2, ,11, ,
-1, ,11, ,
0, ,11, ,
2, ,11, ,
3, ,11, ,
4, ,11, ,
5, ,11, ,
7, ,11, ,
7, ,11, ,
7, ,11, ,
7, ,11, ,
6, ,11, ,
5, ,11, ,
4, ,11, ,
2, ,11, ,
-1, ,11, ,
-3, ,11, ,
-6, ,11, ,
-8, ,11, ,
-12, ,11, ,
-15, ,11, ,
-16, ,11, ,
-18, ,11, ,
-18, ,11, ,
-18, ,11, ,
-17, ,11, ,
-15, ,11, ,
-12, ,11, ,
-9, ,11, ,
-6, ,11, ,
-4, ,11, ,
2, ,11, ,
5, ,11, ,
7, ,11, ,
9, ,11, ,
13, ,11, ,
13, ,11, ,
13, ,11, ,
13, ,11, ,
12, ,11, ,
12, ,11, ,
12, ,11, ,
12, ,11, ,
12, ,11, ,
12, ,11, ,
14, ,11, ,
14, ,11, ,
18, ,11, ,
21, ,11, ,
23, ,11, ,
25, ,11, ,
30, ,11, ,
33, ,11, ,
35, ,11, ,
36, ,11, ,
38, ,11, ,
38, ,11, ,
37, ,11, ,
36, ,11, ,
31, ,11, ,
27, ,11, ,
24, ,11, ,
19, ,11, ,
8, ,11, ,
4, ,11, ,
-3, ,11, ,
-9, ,11, ,
-18, ,11, ,
-24, ,11, ,
-26, ,11, ,
-31, ,11, ,
-34, ,11, ,
-35, ,11, ,
-35, ,11, ,
-34, ,11, ,
-32, ,11, ,
-31, ,11, ,
-28, ,11, ,
-26, ,11, ,
-21, ,11, ,
-17, ,11, ,
-15, ,11, ,
-12, ,11, ,
-8, ,11, ,
-6, ,11, ,
-4, ,11, ,
-4, ,11, ,
-3, ,11, ,
-3, ,11, ,
-4, ,11, ,
-4, ,11, ,
-6, ,11, ,
-7, ,11, ,
-7, ,11, ,
-9, ,11, ,
-11, ,11, ,
-12, ,11, ,
-13, ,11, ,
-13, ,11, ,
-14, ,11, ,
-14, ,11, ,
-13, ,11, ,
-13, ,11, ,
-12, ,11, ,
-10, ,11, ,
-9, ,11, ,
-7, ,11, ,
-4, ,11, ,
-2, ,11, ,
0, ,11, ,
2, ,11, ,
5, ,11, ,
8, ,11, ,
10, ,11, ,
12, ,11, ,
14, ,11, ,
15, ,11, ,
16, ,11, ,
15, ,11, ,
14, ,11, ,
14, ,11, ,
13, ,11, ,
12, ,11, ,
9, ,11, ,
7, ,11, ,
6, ,11, ,
4, ,11, ,
1, ,11, ,
1, ,11, ,
0, ,11, ,
-1, ,11, ,
-1, ,11, ,
-1, ,11, ,
-1, ,11, ,
-1, ,11, ,
0, ,11, ,
0, ,11, ,
0, ,11, ,
1, ,11, ,
1, ,11, ,
0, ,11, ,
0, ,11, ,
-1, ,11, ,
-2, ,11, ,
-3, ,11, ,
-4, ,11, ,
-4, ,11, ,
-3, ,11, ,
-4, ,11, ,
-2, ,11, ,
-3, ,11, ,
0, ,11, ,
2, ,11, ,
5, ,11, ,
6, ,11, ,
12, ,11, ,
13, ,11, ,
15, ,11, ,
17, ,11, ,
19, ,11, ,
19, ,11, ,
19, ,11, ,
18, ,11, ,
15, ,11, ,
11, ,11, ,
8, ,11, ,
4, ,11, ,
-5, ,11, ,
-9, ,11, ,
-14, ,11, ,
-17, ,11, ,
-24, ,11, ,
