raw_data/75% Glycerol, Impulsion 2Hz, Sonde 5MHz, Rampe 0.7Hz/temp0000044.CSV

Format,1.0B,
Memory Length,10000,Memory Length,10000,
IntpDistance,0,IntpDistance,0,
Trigger Address,159,Trigger Address,159,
Trigger Level,2.720E-01,Trigger Level,2.720E-01,
Source,CH1,Source,CH2,
Vertical Units,V,Vertical Units,V,
Vertical Units Div,0,Vertical Units Div,0,
Vertical Units Extend Div,16,Vertical Units Extend Div,16,
Label,,Label,,
Probe Type,0,Probe Type,0,
Probe Ratio,1.000e+00,Probe Ratio,1.000e+00,
Vertical Scale,5.000e-01,Vertical Scale,2.000e+00,
Vertical Position,0.000e+00,Vertical Position,0.000e+00,
Horizontal Units,S,Horizontal Units,S,
Horizontal Scale,5.000E-06,Horizontal Scale,5.000E-06,
Horizontal Position,2.420E-05,Horizontal Position,2.420E-05,
Horizontal Mode,Main,Horizontal Mode,Main,
SincET Mode,Real Time,SincET Mode,Real Time,
Sampling Period,5.000e-09,Sampling Period,5.000e-09,
Horizontal Old Scale,5.000E-06,Horizontal Old Scale,5.000E-06,
Horizontal Old Position,2.420E-05,Horizontal Old Position,2.420E-05,
Firmware,V1.32,Firmware,V1.32,
Mode,Fast,Mode,Fast,
Waveform Data,,Waveform Data,,
0, ,6, ,
0, ,6, ,
1, ,6, ,
1, ,6, ,
0, ,6, ,
0, ,6, ,
0, ,6, ,
1, ,6, ,
1, ,6, ,
0, ,6, ,
0, ,6, ,
1, ,6, ,
1, ,6, ,
1, ,6, ,
0, ,6, ,
0, ,6, ,
0, ,6, ,
0, ,6, ,
1, ,6, ,
1, ,6, ,
1, ,6, ,
1, ,6, ,
1, ,6, ,
0, ,6, ,
0, ,6, ,
0, ,6, ,
0, ,6, ,
1, ,6, ,
1, ,6, ,
1, ,6, ,
1, ,6, ,
1, ,6, ,
1, ,6, ,
0, ,6, ,
0, ,6, ,
1, ,6, ,
1, ,6, ,
1, ,6, ,
0, ,6, ,
0, ,6, ,
0, ,6, ,
0, ,6, ,
1, ,6, ,
1, ,6, ,
1, ,6, ,
1, ,6, ,
0, ,6, ,
0, ,6, ,
0, ,6, ,
0, ,6, ,
1, ,6, ,
1, ,6, ,
0, ,6, ,
0, ,6, ,
0, ,6, ,
1, ,6, ,
1, ,6, ,
0, ,6, ,
0, ,6, ,
1, ,6, ,
1, ,6, ,
1, ,6, ,
1, ,6, ,
1, ,6, ,
1, ,6, ,
0, ,6, ,
0, ,6, ,
1, ,6, ,
1, ,6, ,
1, ,6, ,
0, ,6, ,
0, ,6, ,
0, ,6, ,
0, ,6, ,
1, ,6, ,
1, ,6, ,
0, ,6, ,
0, ,6, ,
0, ,6, ,
1, ,6, ,
1, ,6, ,
0, ,6, ,
0, ,6, ,
0, ,6, ,
0, ,6, ,
0, ,6, ,
0, ,6, ,
1, ,6, ,
1, ,6, ,
1, ,6, ,
1, ,6, ,
1, ,6, ,
1, ,6, ,
1, ,6, ,
1, ,6, ,
0, ,6, ,
0, ,6, ,
0, ,6, ,
1, ,6, ,
1, ,6, ,
0, ,6, ,
0, ,6, ,
0, ,6, ,
0, ,6, ,
0, ,6, ,
0, ,6, ,
0, ,6, ,
1, ,6, ,
1, ,6, ,
1, ,6, ,
0, ,6, ,
0, ,6, ,
0, ,6, ,
0, ,6, ,
0, ,6, ,
0, ,6, ,
0, ,6, ,
0, ,6, ,
0, ,6, ,
0, ,6, ,
0, ,6, ,
0, ,6, ,
0, ,6, ,
1, ,6, ,
0, ,6, ,
0, ,6, ,
0, ,6, ,
0, ,6, ,
0, ,6, ,
1, ,6, ,
1, ,6, ,
1, ,6, ,
1, ,6, ,
1, ,6, ,
1, ,6, ,
1, ,6, ,
1, ,6, ,
1, ,6, ,
1, ,6, ,
0, ,6, ,
0, ,6, ,
0, ,6, ,
1, ,6, ,
0, ,6, ,
0, ,6, ,
0, ,6, ,
1, ,6, ,
1, ,6, ,
1, ,6, ,
1, ,6, ,
0, ,6, ,
1, ,6, ,
1, ,6, ,
1, ,6, ,
1, ,6, ,
1, ,6, ,
0, ,6, ,
0, ,6, ,
0, ,6, ,
1, ,6, ,
1, ,6, ,
1, ,6, ,
0, ,6, ,
0, ,6, ,
1, ,6, ,
-1, ,6, ,
0, ,6, ,
1, ,6, ,
18, ,6, ,
47, ,6, ,
88, ,6, ,
124, ,6, ,
121, ,6, ,
96, ,6, ,
37, ,6, ,
7, ,6, ,
57, ,6, ,
109, ,6, ,
125, ,6, ,
125, ,6, ,
125, ,6, ,
125, ,6, ,
125, ,6, ,
124, ,6, ,
124, ,6, ,
121, ,6, ,
115, ,6, ,
107, ,6, ,
102, ,6, ,
100, ,6, ,
97, ,6, ,
89, ,6, ,
86, ,6, ,
83, ,6, ,
79, ,6, ,
74, ,6, ,
71, ,6, ,
69, ,6, ,
65, ,6, ,
61, ,6, ,
58, ,6, ,
56, ,6, ,
53, ,6, ,
49, ,6, ,
47, ,6, ,
45, ,6, ,
43, ,6, ,
39, ,6, ,
38, ,6, ,
36, ,6, ,
34, ,6, ,
32, ,6, ,
29, ,6, ,
28, ,6, ,
27, ,6, ,
25, ,6, ,
24, ,6, ,
23, ,6, ,
22, ,6, ,
21, ,6, ,
19, ,6, ,
19, ,6, ,
17, ,6, ,
16, ,6, ,
15, ,6, ,
14, ,6, ,
13, ,6, ,
12, ,6, ,
11, ,6, ,
11, ,6, ,
10, ,6, ,
9, ,6, ,
9, ,6, ,
8, ,6, ,
8, ,6, ,
7, ,6, ,
6, ,6, ,
6, ,6, ,
6, ,6, ,
5, ,6, ,
4, ,6, ,
4, ,6, ,
4, ,6, ,
3, ,6, ,
3, ,6, ,
3, ,6, ,
2, ,6, ,
2, ,6, ,
2, ,6, ,
1, ,6, ,
1, ,6, ,
1, ,6, ,
1, ,6, ,
1, ,6, ,
0, ,6, ,
0, ,6, ,
0, ,6, ,
0, ,6, ,
0, ,6, ,
0, ,6, ,
0, ,6, ,
0, ,6, ,
-1, ,6, ,
-1, ,6, ,
0, ,6, ,
0, ,6, ,
-1, ,6, ,
-1, ,6, ,
-1, ,6, ,
-1, ,6, ,
-1, ,6, ,
-1, ,6, ,
-1, ,6, ,
-1, ,6, ,
-1, ,6, ,
-1, ,6, ,
-1, ,6, ,
-1, ,6, ,
-1, ,6, ,
-1, ,6, ,
-1, ,6, ,
-1, ,6, ,
-1, ,6, ,
-1, ,6, ,
-2, ,6, ,
-1, ,6, ,
-1, ,6, ,
-2, ,6, ,
-2, ,6, ,
-2, ,6, ,
-1, ,6, ,
-1, ,6, ,
-2, ,6, ,
-2, ,6, ,
-2, ,6, ,
-1, ,6, ,
-1, ,6, ,
-1, ,6, ,
-1, ,6, ,
-1, ,6, ,
-1, ,6, ,
-1, ,6, ,
-1, ,6, ,
-1, ,6, ,
-1, ,6, ,
-1, ,6, ,
-1, ,6, ,
-1, ,6, ,
-1, ,6, ,
-1, ,6, ,
-1, ,6, ,
-1, ,6, ,
-1, ,6, ,
-1, ,6, ,
-1, ,6, ,
-1, ,6, ,
0, ,6, ,
0, ,6, ,
0, ,6, ,
0, ,6, ,
0, ,6, ,
0, ,6, ,
0, ,6, ,
-1, ,6, ,
-1, ,6, ,
-1, ,6, ,
-1, ,6, ,
-1, ,6, ,
0, ,6, ,
0, ,6, ,
0, ,6, ,
0, ,6, ,
0, ,6, ,
0, ,6, ,
0, ,6, ,
0, ,6, ,
0, ,6, ,
0, ,6, ,
0, ,6, ,
0, ,6, ,
0, ,6, ,
0, ,6, ,
0, ,6, ,
0, ,6, ,
0, ,6, ,
0, ,6, ,
0, ,6, ,
0, ,6, ,
0, ,6, ,
0, ,6, ,
0, ,6, ,
0, ,6, ,
0, ,6, ,
0, ,6, ,
0, ,6, ,
0, ,6, ,
0, ,6, ,
0, ,6, ,
0, ,6, ,
0, ,6, ,
0, ,6, ,
0, ,6, ,
0, ,6, ,
0, ,6, ,
0, ,6, ,
0, ,6, ,
0, ,6, ,
0, ,6, ,
0, ,6, ,
0, ,6, ,
0, ,6, ,
0, ,6, ,
0, ,6, ,
0, ,6, ,
0, ,6, ,
0, ,6, ,
0, ,6, ,
0, ,6, ,
0, ,6, ,
0, ,6, ,
0, ,6, ,
1, ,6, ,
0, ,6, ,
0, ,6, ,
0, ,6, ,
0, ,6, ,
0, ,6, ,
0, ,6, ,
0, ,6, ,
0, ,6, ,
0, ,6, ,
0, ,6, ,
0, ,6, ,
0, ,6, ,
0, ,6, ,
0, ,6, ,
0, ,6, ,
0, ,6, ,
0, ,6, ,
0, ,6, ,
0, ,6, ,
0, ,6, ,
0, ,6, ,
0, ,6, ,
0, ,6, ,
0, ,6, ,
0, ,6, ,
0, ,6, ,
0, ,6, ,
0, ,6, ,
0, ,6, ,
0, ,6, ,
0, ,6, ,
0, ,6, ,
0, ,6, ,
0, ,6, ,
1, ,6, ,
0, ,6, ,
0, ,6, ,
1, ,6, ,
0, ,6, ,
0, ,6, ,
0, ,6, ,
0, ,6, ,
0, ,6, ,
0, ,6, ,
0, ,6, ,
0, ,6, ,
0, ,6, ,
0, ,6, ,
0, ,6, ,
0, ,6, ,
0, ,6, ,
0, ,6, ,
0, ,6, ,
-1, ,6, ,
-1, ,6, ,
-1, ,6, ,
-2, ,6, ,
-3, ,6, ,
-3, ,6, ,
-4, ,6, ,
-5, ,6, ,
-8, ,6, ,
-8, ,6, ,
-8, ,6, ,
-9, ,6, ,
-7, ,6, ,
-4, ,6, ,
-5, ,6, ,
-2, ,6, ,
-1, ,6, ,
0, ,6, ,
0, ,6, ,
1, ,6, ,
1, ,6, ,
1, ,6, ,
1, ,6, ,
2, ,6, ,
1, ,6, ,
1, ,6, ,
1, ,6, ,
0, ,6, ,
-1, ,6, ,
-1, ,6, ,
-2, ,6, ,
-2, ,6, ,
-1, ,6, ,
-1, ,6, ,
0, ,6, ,
0, ,6, ,
1, ,6, ,
2, ,6, ,
2, ,6, ,
2, ,6, ,
3, ,6, ,
3, ,6, ,
3, ,6, ,
3, ,6, ,
2, ,6, ,
2, ,6, ,
2, ,6, ,
2, ,6, ,
2, ,6, ,
1, ,6, ,
1, ,6, ,
1, ,6, ,
1, ,6, ,
1, ,6, ,
1, ,6, ,
1, ,6, ,
1, ,6, ,
1, ,6, ,
1, ,6, ,
1, ,6, ,
2, ,6, ,
1, ,6, ,
1, ,6, ,
1, ,6, ,
1, ,6, ,
0, ,6, ,
0, ,6, ,
0, ,6, ,
0, ,6, ,
0, ,6, ,
0, ,6, ,
0, ,6, ,
0, ,6, ,
0, ,6, ,
1, ,6, ,
1, ,6, ,
1, ,6, ,
1, ,6, ,
1, ,6, ,
2, ,6, ,
2, ,6, ,
2, ,6, ,
2, ,6, ,
1, ,6, ,
1, ,6, ,
1, ,6, ,
0, ,6, ,
-1, ,6, ,
-2, ,6, ,
-4, ,6, ,
-5, ,6, ,
-8, ,6, ,
-12, ,6, ,
-14, ,6, ,
-17, ,6, ,
-19, ,6, ,
-22, ,6, ,
-22, ,6, ,
-22, ,6, ,
-22, ,6, ,
-21, ,6, ,
-19, ,6, ,
-18, ,6, ,
-17, ,6, ,
-15, ,6, ,
-15, ,6, ,
-14, ,6, ,
-14, ,6, ,
-13, ,6, ,
-13, ,6, ,
-13, ,6, ,
-13, ,6, ,
-12, ,6, ,
-12, ,6, ,
-11, ,6, ,
-11, ,6, ,
-10, ,6, ,
-10, ,6, ,
-11, ,6, ,
-11, ,6, ,
-15, ,6, ,
-17, ,6, ,
-20, ,6, ,
-23, ,6, ,
-30, ,6, ,
-34, ,6, ,
-38, ,6, ,
-41, ,6, ,
-46, ,6, ,
-47, ,6, ,
-47, ,6, ,
-47, ,6, ,
-45, ,6, ,
-42, ,6, ,
-40, ,6, ,
-37, ,6, ,
-29, ,6, ,
-26, ,6, ,
-23, ,6, ,
-20, ,6, ,
-14, ,6, ,
-10, ,6, ,
-8, ,6, ,
-6, ,6, ,
-2, ,6, ,
-1, ,6, ,
1, ,6, ,
2, ,6, ,
5, ,6, ,
7, ,6, ,
8, ,6, ,
9, ,6, ,
12, ,6, ,
12, ,6, ,
12, ,6, ,
13, ,6, ,
13, ,6, ,
13, ,6, ,
13, ,6, ,
13, ,6, ,
13, ,6, ,
13, ,6, ,
14, ,6, ,
14, ,6, ,
15, ,6, ,
15, ,6, ,
15, ,6, ,
16, ,6, ,
17, ,6, ,
17, ,6, ,
18, ,6, ,
18, ,6, ,
17, ,6, ,
17, ,6, ,
16, ,6, ,
16, ,6, ,
13, ,6, ,
12, ,6, ,
11, ,6, ,
8, ,6, ,
5, ,6, ,
4, ,6, ,
1, ,6, ,
0, ,6, ,
-3, ,6, ,
-5, ,6, ,
-5, ,6, ,
-7, ,6, ,
-8, ,6, ,
-8, ,6, ,
-8, ,6, ,
-8, ,6, ,
-9, ,6, ,
-9, ,6, ,
-9, ,6, ,
-9, ,6, ,
-9, ,6, ,
-9, ,6, ,
-9, ,6, ,
-10, ,6, ,
-11, ,6, ,
-12, ,6, ,
-13, ,6, ,
-13, ,6, ,
-17, ,6, ,
-18, ,6, ,
-20, ,6, ,
-21, ,6, ,
-25, ,6, ,
-25, ,6, ,
-26, ,6, ,
-27, ,6, ,
-27, ,6, ,
-26, ,6, ,
-26, ,6, ,
-25, ,6, ,
-25, ,6, ,
-24, ,6, ,
-23, ,6, ,
-22, ,6, ,
-20, ,6, ,
-20, ,6, ,
-18, ,6, ,
-17, ,6, ,
-15, ,6, ,
-14, ,6, ,
-13, ,6, ,
-12, ,6, ,
-9, ,6, ,
-8, ,6, ,
-7, ,6, ,
-6, ,6, ,
-2, ,6, ,
-2, ,6, ,
0, ,6, ,
1, ,6, ,
4, ,6, ,
5, ,6, ,
6, ,6, ,
7, ,6, ,
9, ,6, ,
10, ,6, ,
11, ,6, ,
11, ,6, ,
12, ,6, ,
12, ,6, ,
11, ,6, ,
11, ,6, ,
10, ,6, ,
9, ,6, ,
8, ,6, ,
7, ,6, ,
4, ,6, ,
3, ,6, ,
1, ,6, ,
0, ,6, ,
-2, ,6, ,
-4, ,6, ,
-5, ,6, ,
-6, ,6, ,
-10, ,6, ,
-11, ,6, ,
-13, ,6, ,
-15, ,6, ,
-19, ,6, ,
-21, ,6, ,
-23, ,6, ,
-24, ,6, ,
-26, ,6, ,
-26, ,6, ,
-26, ,6, ,
-26, ,6, ,
-25, ,6, ,
-24, ,6, ,
-24, ,6, ,
-22, ,6, ,
-19, ,6, ,
-16, ,6, ,
-15, ,6, ,
-13, ,6, ,
-9, ,6, ,
-8, ,6, ,
-6, ,6, ,
-5, ,6, ,
-2, ,6, ,
-2, ,6, ,
-1, ,6, ,
0, ,6, ,
0, ,6, ,
-1, ,6, ,
-1, ,6, ,
-1, ,6, ,
0, ,6, ,
0, ,6, ,
0, ,6, ,
0, ,6, ,
2, ,6, ,
3, ,6, ,
4, ,6, ,
6, ,6, ,
9, ,6, ,
11, ,6, ,
13, ,6, ,
15, ,6, ,
19, ,6, ,
20, ,6, ,
22, ,6, ,
22, ,6, ,
24, ,6, ,
24, ,6, ,
24, ,6, ,
24, ,6, ,
23, ,6, ,
22, ,6, ,
21, ,6, ,
20, ,6, ,
17, ,6, ,
16, ,6, ,
14, ,6, ,
13, ,6, ,
10, ,6, ,
7, ,6, ,
5, ,6, ,
2, ,6, ,
-4, ,6, ,
-5, ,6, ,
-9, ,6, ,
-11, ,6, ,
-17, ,6, ,
-20, ,6, ,
-22, ,6, ,
-25, ,6, ,
-29, ,6, ,
-30, ,6, ,
-32, ,6, ,
-33, ,6, ,
-35, ,6, ,
-35, ,6, ,
-35, ,6, ,
-35, ,6, ,
-34, ,6, ,
-33, ,6, ,
-32, ,6, ,
-31, ,6, ,
-27, ,6, ,
-26, ,6, ,
-25, ,6, ,
-24, ,6, ,
-22, ,6, ,
-20, ,6, ,
-19, ,6, ,
-18, ,6, ,
-16, ,6, ,
-15, ,6, ,
-14, ,6, ,
-13, ,6, ,
-10, ,6, ,
-9, ,6, ,
-9, ,6, ,
-8, ,6, ,
-6, ,6, ,
-4, ,6, ,
-4, ,6, ,
-3, ,6, ,
-1, ,6, ,
0, ,6, ,
1, ,6, ,
2, ,6, ,
1, ,6, ,
1, ,6, ,
0, ,6, ,
0, ,6, ,
-3, ,6, ,
-3, ,6, ,
-6, ,6, ,
-8, ,6, ,
-12, ,6, ,
-14, ,6, ,
-16, ,6, ,
-18, ,6, ,
-22, ,6, ,
-24, ,6, ,
-25, ,6, ,
-25, ,6, ,
-25, ,6, ,
-25, ,6, ,
-23, ,6, ,
-23, ,6, ,
-18, ,6, ,
-15, ,6, ,
-13, ,6, ,
-10, ,6, ,
-3, ,6, ,
-1, ,6, ,
2, ,6, ,
4, ,6, ,
8, ,6, ,
11, ,6, ,
12, ,6, ,
12, ,6, ,
14, ,6, ,
15, ,6, ,
16, ,6, ,
16, ,6, ,
17, ,6, ,
18, ,6, ,
18, ,6, ,
19, ,6, ,
21, ,6, ,
21, ,6, ,
23, ,6, ,
23, ,6, ,
24, ,6, ,
25, ,6, ,
25, ,6, ,
25, ,6, ,
24, ,6, ,
22, ,6, ,
22, ,6, ,
20, ,6, ,
18, ,6, ,
17, ,6, ,
15, ,6, ,
14, ,6, ,
11, ,6, ,
9, ,6, ,
9, ,6, ,
6, ,6, ,
4, ,6, ,
3, ,6, ,
1, ,6, ,
0, ,6, ,
-4, ,6, ,
-6, ,6, ,
-8, ,6, ,
-10, ,6, ,
-13, ,6, ,
-15, ,6, ,
-18, ,6, ,
-20, ,6, ,
-23, ,6, ,
-25, ,6, ,
-26, ,6, ,
-27, ,6, ,
-29, ,6, ,
-29, ,6, ,
-30, ,6, ,
-30, ,6, ,
-30, ,6, ,
-30, ,6, ,
-29, ,6, ,
-29, ,6, ,
-27, ,6, ,
-26, ,6, ,
-26, ,6, ,
-25, ,6, ,
-23, ,6, ,
-23, ,6, ,
-21, ,6, ,
-20, ,6, ,
-18, ,6, ,
-16, ,6, ,
-15, ,6, ,
-14, ,6, ,
-11, ,6, ,
-10, ,6, ,
-9, ,6, ,
-8, ,6, ,
-6, ,6, ,
-5, ,6, ,
-5, ,6, ,
-4, ,6, ,
-3, ,6, ,
-2, ,6, ,
-2, ,6, ,
-2, ,6, ,
-1, ,6, ,
1, ,6, ,
1, ,6, ,
2, ,6, ,
3, ,6, ,
3, ,6, ,
4, ,6, ,
4, ,6, ,
5, ,6, ,
5, ,6, ,
5, ,6, ,
5, ,6, ,
4, ,6, ,
3, ,6, ,
2, ,6, ,
2, ,6, ,
0, ,6, ,
0, ,6, ,
-2, ,6, ,
-2, ,6, ,
-5, ,6, ,
-7, ,6, ,
-7, ,6, ,
-8, ,6, ,
-9, ,6, ,
-9, ,6, ,
-9, ,6, ,
-9, ,6, ,
-8, ,6, ,
-8, ,6, ,
-7, ,6, ,
-8, ,6, ,
-5, ,6, ,
-5, ,6, ,
-4, ,6, ,
-3, ,6, ,
-2, ,6, ,
-1, ,6, ,
0, ,6, ,
-1, ,6, ,
-2, ,6, ,
-2, ,6, ,
-3, ,6, ,
-4, ,6, ,
-5, ,6, ,
-6, ,6, ,
-7, ,6, ,
-9, ,6, ,
-11, ,6, ,
-12, ,6, ,
-12, ,6, ,
-12, ,6, ,
-12, ,6, ,
-12, ,6, ,
-11, ,6, ,
-12, ,6, ,
-9, ,6, ,
-8, ,6, ,
-8, ,6, ,
-7, ,6, ,
-4, ,6, ,
-3, ,6, ,
-1, ,6, ,
-1, ,6, ,
1, ,6, ,
3, ,6, ,
4, ,6, ,
4, ,6, ,
5, ,6, ,
5, ,6, ,
6, ,6, ,
5, ,6, ,
5, ,6, ,
5, ,6, ,
5, ,6, ,
4, ,6, ,
4, ,6, ,
3, ,6, ,
3, ,6, ,
2, ,6, ,
2, ,6, ,
2, ,6, ,
1, ,6, ,
1, ,6, ,
2, ,6, ,
2, ,6, ,
2, ,6, ,
3, ,6, ,
4, ,6, ,
5, ,6, ,
5, ,6, ,
6, ,6, ,
7, ,6, ,
7, ,6, ,
8, ,6, ,
8, ,6, ,
7, ,6, ,
7, ,6, ,
7, ,6, ,
6, ,6, ,
5, ,6, ,
4, ,6, ,
4, ,6, ,
2, ,6, ,
1, ,6, ,
0, ,6, ,
-1, ,6, ,
-1, ,6, ,
-3, ,6, ,
-4, ,6, ,
-5, ,6, ,
-6, ,6, ,
-8, ,6, ,
-8, ,6, ,
-9, ,6, ,
-10, ,6, ,
-12, ,6, ,
-14, ,6, ,
-14, ,6, ,
-16, ,6, ,
-18, ,6, ,
-18, ,6, ,
-19, ,6, ,
-19, ,6, ,
-19, ,6, ,
-19, ,6, ,
-19, ,6, ,
-19, ,6, ,
-18, ,6, ,
-17, ,6, ,
-16, ,6, ,
-14, ,6, ,
-11, ,6, ,
-10, ,6, ,
-8, ,6, ,
-7, ,6, ,
-3, ,6, ,
-1, ,6, ,
1, ,6, ,
2, ,6, ,
5, ,6, ,
6, ,6, ,
7, ,6, ,
8, ,6, ,
9, ,6, ,
9, ,6, ,
9, ,6, ,
9, ,6, ,
9, ,6, ,
8, ,6, ,
8, ,6, ,
8, ,6, ,
7, ,6, ,
7, ,6, ,
7, ,6, ,
7, ,6, ,
7, ,6, ,
7, ,6, ,
7, ,6, ,
8, ,6, ,
8, ,6, ,
8, ,6, ,
8, ,6, ,
8, ,6, ,
7, ,6, ,
6, ,6, ,
6, ,6, ,
5, ,6, ,
4, ,6, ,
4, ,6, ,
2, ,6, ,
1, ,6, ,
-2, ,6, ,
-3, ,6, ,
-4, ,6, ,
-6, ,6, ,
-9, ,6, ,
-10, ,6, ,
-10, ,6, ,
-11, ,6, ,
-11, ,6, ,
-11, ,6, ,
-10, ,6, ,
-11, ,6, ,
-8, ,6, ,
-6, ,6, ,
-5, ,6, ,
-4, ,6, ,
0, ,6, ,
1, ,6, ,
3, ,6, ,
4, ,6, ,
6, ,6, ,
6, ,6, ,
6, ,6, ,
6, ,6, ,
5, ,6, ,
4, ,6, ,
3, ,6, ,
2, ,6, ,
-1, ,6, ,
-2, ,6, ,
-3, ,6, ,
-5, ,6, ,
-6, ,6, ,
-8, ,6, ,
-8, ,6, ,
-8, ,6, ,
-8, ,6, ,
-8, ,6, ,
-8, ,6, ,
-7, ,6, ,
-6, ,6, ,
-5, ,6, ,
-3, ,6, ,
-3, ,6, ,
-1, ,6, ,
0, ,6, ,
0, ,6, ,
0, ,6, ,
0, ,6, ,
0, ,6, ,
0, ,6, ,
-1, ,6, ,
-3, ,6, ,
-4, ,6, ,
-5, ,6, ,
-5, ,6, ,
-8, ,6, ,
-9, ,6, ,
-9, ,6, ,
-10, ,6, ,
-10, ,6, ,
-9, ,6, ,
-9, ,6, ,
-9, ,6, ,
-7, ,6, ,
-6, ,6, ,
-5, ,6, ,
-4, ,6, ,
-1, ,6, ,
0, ,6, ,
2, ,6, ,
3, ,6, ,
5, ,6, ,
6, ,6, ,
7, ,6, ,
8, ,6, ,
9, ,6, ,
9, ,6, ,
9, ,6, ,
9, ,6, ,
8, ,6, ,
7, ,6, ,
6, ,6, ,
6, ,6, ,
4, ,6, ,
4, ,6, ,
3, ,6, ,
3, ,6, ,
2, ,6, ,
1, ,6, ,
1, ,6, ,
1, ,6, ,
1, ,6, ,
1, ,6, ,
1, ,6, ,
1, ,6, ,
0, ,6, ,
0, ,6, ,
0, ,6, ,
0, ,6, ,
-1, ,6, ,
-1, ,6, ,
-2, ,6, ,
-2, ,6, ,
-3, ,6, ,
-4, ,6, ,
-4, ,6, ,
-4, ,6, ,
-5, ,6, ,
-6, ,6, ,
-6, ,6, ,
-6, ,6, ,
-5, ,6, ,
-6, ,6, ,
-5, ,6, ,
-5, ,6, ,
-5, ,6, ,
-5, ,6, ,
-5, ,6, ,
-5, ,6, ,
-6, ,6, ,
-7, ,6, ,
-7, ,6, ,
-7, ,6, ,
-7, ,6, ,
-7, ,6, ,
-7, ,6, ,
-7, ,6, ,
-6, ,6, ,
-6, ,6, ,
-5, ,6, ,
-5, ,6, ,
-4, ,6, ,
-3, ,6, ,
-2, ,6, ,
-2, ,6, ,
-1, ,6, ,
-1, ,6, ,
-1, ,6, ,
-1, ,6, ,
-2, ,6, ,
-2, ,6, ,
-3, ,6, ,
-3, ,6, ,
-4, ,6, ,
-5, ,6, ,
-5, ,6, ,
-6, ,6, ,
-6, ,6, ,
-5, ,6, ,
-5, ,6, ,
-5, ,6, ,
-3, ,6, ,
-2, ,6, ,
-1, ,6, ,
0, ,6, ,
2, ,6, ,
3, ,6, ,
4, ,6, ,
5, ,6, ,
7, ,6, ,
8, ,6, ,
8, ,6, ,
8, ,6, ,
7, ,6, ,
7, ,6, ,
6, ,6, ,
6, ,6, ,
4, ,6, ,
3, ,6, ,
2, ,6, ,
0, ,6, ,
-2, ,6, ,
-3, ,6, ,
-5, ,6, ,
-7, ,6, ,
-9, ,6, ,
-10, ,6, ,
-12, ,6, ,
-13, ,6, ,
-14, ,6, ,
-14, ,6, ,
-15, ,6, ,
-15, ,6, ,
-15, ,6, ,
-15, ,6, ,
-15, ,6, ,
-15, ,6, ,
-13, ,6, ,
-11, ,6, ,
-10, ,6, ,
-9, ,6, ,
-5, ,6, ,
-4, ,6, ,
-2, ,6, ,
-1, ,6, ,
3, ,6, ,
4, ,6, ,
5, ,6, ,
6, ,6, ,
7, ,6, ,
6, ,6, ,
6, ,6, ,
5, ,6, ,
3, ,6, ,
2, ,6, ,
0, ,6, ,
-1, ,6, ,
-3, ,6, ,
-5, ,6, ,
-6, ,6, ,
-7, ,6, ,
-7, ,6, ,
-7, ,6, ,
-7, ,6, ,
-6, ,6, ,
-5, ,6, ,
-3, ,6, ,
-2, ,6, ,
-1, ,6, ,
3, ,6, ,
5, ,6, ,
6, ,6, ,
7, ,6, ,
10, ,6, ,
10, ,6, ,
11, ,6, ,
11, ,6, ,
11, ,6, ,
11, ,6, ,
10, ,6, ,
10, ,6, ,
8, ,6, ,
7, ,6, ,
6, ,6, ,
5, ,6, ,
3, ,6, ,
3, ,6, ,
2, ,6, ,
2, ,6, ,
1, ,6, ,
1, ,6, ,
1, ,6, ,
1, ,6, ,
1, ,6, ,
1, ,6, ,
0, ,6, ,
0, ,6, ,
0, ,6, ,
-1, ,6, ,
-1, ,6, ,
-2, ,6, ,
-3, ,6, ,
-3, ,6, ,
-4, ,6, ,
-5, ,6, ,
-6, ,6, ,
-7, ,6, ,
-8, ,6, ,
-9, ,6, ,
-10, ,6, ,
-10, ,6, ,
-10, ,6, ,
-10, ,6, ,
-10, ,6, ,
-9, ,6, ,
-9, ,6, ,
-8, ,6, ,
-5, ,6, ,
-3, ,6, ,
-3, ,6, ,
-1, ,6, ,
2, ,6, ,
3, ,6, ,
4, ,6, ,
5, ,6, ,
6, ,6, ,
7, ,6, ,
7, ,6, ,
7, ,6, ,
6, ,6, ,
6, ,6, ,
5, ,6, ,
5, ,6, ,
4, ,6, ,
4, ,6, ,
4, ,6, ,
4, ,6, ,
4, ,6, ,
4, ,6, ,
4, ,6, ,
4, ,6, ,
5, ,6, ,
5, ,6, ,
5, ,6, ,
5, ,6, ,
5, ,6, ,
4, ,6, ,
4, ,6, ,
3, ,6, ,
2, ,6, ,
1, ,6, ,
1, ,6, ,
-1, ,6, ,
-2, ,6, ,
-3, ,6, ,
-4, ,6, ,
-6, ,6, ,
-7, ,6, ,
-7, ,6, ,
-8, ,6, ,
-8, ,6, ,
-8, ,6, ,
-8, ,6, ,
-8, ,6, ,
-9, ,6, ,
-8, ,6, ,
-7, ,6, ,
-6, ,6, ,
-5, ,6, ,
-4, ,6, ,
-4, ,6, ,
-2, ,6, ,
-2, ,6, ,
-1, ,6, ,
0, ,6, ,
1, ,6, ,
1, ,6, ,
2, ,6, ,
2, ,6, ,
2, ,6, ,
2, ,6, ,
3, ,6, ,
3, ,6, ,
2, ,6, ,
2, ,6, ,
2, ,6, ,
2, ,6, ,
2, ,6, ,
2, ,6, ,
2, ,6, ,
2, ,6, ,
3, ,6, ,
3, ,6, ,
4, ,6, ,
4, ,6, ,
4, ,6, ,
4, ,6, ,
4, ,6, ,
4, ,6, ,
3, ,6, ,
2, ,6, ,
1, ,6, ,
1, ,6, ,
0, ,6, ,
-1, ,6, ,
-3, ,6, ,
-3, ,6, ,
-5, ,6, ,
-5, ,6, ,
-5, ,6, ,
-6, ,6, ,
-6, ,6, ,
-6, ,6, ,
-5, ,6, ,
-5, ,6, ,
-4, ,6, ,
-4, ,6, ,
-3, ,6, ,
-3, ,6, ,
-2, ,6, ,
-1, ,6, ,
0, ,6, ,
1, ,6, ,
1, ,6, ,
2, ,6, ,
4, ,6, ,
4, ,6, ,
4, ,6, ,
4, ,6, ,
4, ,6, ,
4, ,6, ,
4, ,6, ,
3, ,6, ,
2, ,6, ,
2, ,6, ,
1, ,6, ,
0, ,6, ,
-1, ,6, ,
-2, ,6, ,
-3, ,6, ,
-3, ,6, ,
-5, ,6, ,
-6, ,6, ,
-6, ,6, ,
-6, ,6, ,
-6, ,6, ,
-6, ,6, ,
-6, ,6, ,
-6, ,6, ,
-5, ,6, ,
-5, ,6, ,
-4, ,6, ,
-4, ,6, ,
-2, ,6, ,
-1, ,6, ,
0, ,6, ,
2, ,6, ,
3, ,6, ,
4, ,6, ,
6, ,6, ,
6, ,6, ,
8, ,6, ,
9, ,6, ,
10, ,6, ,
11, ,6, ,
12, ,6, ,
12, ,6, ,
12, ,6, ,
11, ,6, ,
10, ,6, ,
10, ,6, ,
9, ,6, ,
7, ,6, ,
6, ,6, ,
4, ,6, ,
2, ,6, ,
1, ,6, ,
-1, ,6, ,
-3, ,6, ,
-4, ,6, ,
-5, ,6, ,
-7, ,6, ,
-8, ,6, ,
-8, ,6, ,
-9, ,6, ,
-9, ,6, ,
-9, ,6, ,
-9, ,6, ,
-8, ,6, ,
-8, ,6, ,
-8, ,6, ,
-7, ,6, ,
-6, ,6, ,
-5, ,6, ,
-4, ,6, ,
-3, ,6, ,
-2, ,6, ,
0, ,6, ,
0, ,6, ,
1, ,6, ,
2, ,6, ,
3, ,6, ,
3, ,6, ,
3, ,6, ,
4, ,6, ,
4, ,6, ,
4, ,6, ,
4, ,6, ,
4, ,6, ,
4, ,6, ,
3, ,6, ,
3, ,6, ,
3, ,6, ,
3, ,6, ,
3, ,6, ,
3, ,6, ,
3, ,6, ,
3, ,6, ,
3, ,6, ,
3, ,6, ,
3, ,6, ,
4, ,6, ,
4, ,6, ,
4, ,6, ,
4, ,6, ,
4, ,6, ,
4, ,6, ,
4, ,6, ,
3, ,6, ,
3, ,6, ,
2, ,6, ,
2, ,6, ,
1, ,6, ,
1, ,6, ,
1, ,6, ,
0, ,6, ,
0, ,6, ,
-1, ,6, ,
-1, ,6, ,
-1, ,6, ,
-2, ,6, ,
-3, ,6, ,
-3, ,6, ,
-3, ,6, ,
-3, ,6, ,
-4, ,6, ,
-4, ,6, ,
-4, ,6, ,
-4, ,6, ,
-4, ,6, ,
-4, ,6, ,
-4, ,6, ,
-3, ,6, ,
-3, ,6, ,
-2, ,6, ,
-1, ,6, ,
0, ,6, ,
0, ,6, ,
1, ,6, ,
1, ,6, ,
2, ,6, ,
3, ,6, ,
3, ,6, ,
3, ,6, ,
3, ,6, ,
2, ,6, ,
2, ,6, ,
2, ,6, ,
2, ,6, ,
1, ,6, ,
1, ,6, ,
0, ,6, ,
0, ,6, ,
-1, ,6, ,
-1, ,6, ,
-1, ,6, ,
-1, ,6, ,
-1, ,6, ,
-1, ,6, ,
-1, ,6, ,
-1, ,6, ,
-1, ,6, ,
0, ,6, ,
0, ,6, ,
0, ,6, ,
1, ,6, ,
2, ,6, ,
2, ,6, ,
2, ,6, ,
3, ,6, ,
4, ,6, ,
4, ,6, ,
4, ,6, ,
4, ,6, ,
4, ,6, ,
3, ,6, ,
3, ,6, ,
1, ,6, ,
0, ,6, ,
-1, ,6, ,
-1, ,6, ,
-4, ,6, ,
-5, ,6, ,
-6, ,6, ,
-7, ,6, ,
-8, ,6, ,
-8, ,6, ,
-8, ,6, ,
-8, ,6, ,
-7, ,6, ,
-7, ,6, ,
-6, ,6, ,
-5, ,6, ,
-3, ,6, ,
-2, ,6, ,
-1, ,6, ,
1, ,6, ,
3, ,6, ,
3, ,6, ,
5, ,6, ,
6, ,6, ,
7, ,6, ,
8, ,6, ,
7, ,6, ,
7, ,6, ,
7, ,6, ,
6, ,6, ,
6, ,6, ,
5, ,6, ,
3, ,6, ,
2, ,6, ,
1, ,6, ,
0, ,6, ,
-2, ,6, ,
-3, ,6, ,
-4, ,6, ,
-4, ,6, ,
-5, ,6, ,
-5, ,6, ,
-5, ,6, ,
-5, ,6, ,
-5, ,6, ,
-4, ,6, ,
-4, ,6, ,
-4, ,6, ,
-2, ,6, ,
-2, ,6, ,
-2, ,6, ,
-1, ,6, ,
-1, ,6, ,
0, ,6, ,
0, ,6, ,
0, ,6, ,
0, ,6, ,
0, ,6, ,
0, ,6, ,
0, ,6, ,
0, ,6, ,
0, ,6, ,
0, ,6, ,
0, ,6, ,
0, ,6, ,
1, ,6, ,
1, ,6, ,
1, ,6, ,
2, ,6, ,
2, ,6, ,
3, ,6, ,
3, ,6, ,
3, ,6, ,
3, ,6, ,
3, ,6, ,
3, ,6, ,
3, ,6, ,
2, ,6, ,
2, ,6, ,
1, ,6, ,
0, ,6, ,
0, ,6, ,
0, ,6, ,
-1, ,6, ,
-1, ,6, ,
-1, ,6, ,
-1, ,6, ,
-2, ,6, ,
-2, ,6, ,
-1, ,6, ,
-1, ,6, ,
-1, ,6, ,
0, ,6, ,
0, ,6, ,
1, ,6, ,
1, ,6, ,
2, ,6, ,
3, ,6, ,
2, ,6, ,
3, ,6, ,
3, ,6, ,
3, ,6, ,
2, ,6, ,
2, ,6, ,
1, ,6, ,
1, ,6, ,
0, ,6, ,
0, ,6, ,
-1, ,6, ,
-1, ,6, ,
-1, ,6, ,
-2, ,6, ,
-2, ,6, ,
-2, ,6, ,
-2, ,6, ,
-2, ,6, ,
-1, ,6, ,
-1, ,6, ,
-1, ,6, ,
-1, ,6, ,
-1, ,6, ,
0, ,6, ,
0, ,6, ,
0, ,6, ,
0, ,6, ,
-1, ,6, ,
-1, ,6, ,
-1, ,6, ,
-1, ,6, ,
-1, ,6, ,
-2, ,6, ,
-2, ,6, ,
-1, ,6, ,
-1, ,6, ,
-1, ,6, ,
-1, ,6, ,
-1, ,6, ,
0, ,6, ,
0, ,6, ,
0, ,6, ,
1, ,6, ,
1, ,6, ,
2, ,6, ,
3, ,6, ,
3, ,6, ,
4, ,6, ,
3, ,6, ,
4, ,6, ,
4, ,6, ,
3, ,6, ,
3, ,6, ,
3, ,6, ,
2, ,6, ,
2, ,6, ,
1, ,6, ,
1, ,6, ,
0, ,6, ,
-1, ,6, ,
-1, ,6, ,
-2, ,6, ,
-2, ,6, ,
-1, ,6, ,
-1, ,6, ,
-1, ,6, ,
0, ,6, ,
0, ,6, ,
1, ,6, ,
1, ,6, ,
2, ,6, ,
3, ,6, ,
3, ,6, ,
4, ,6, ,
4, ,6, ,
4, ,6, ,
4, ,6, ,
4, ,6, ,
3, ,6, ,
3, ,6, ,
2, ,6, ,
2, ,6, ,
2, ,6, ,
1, ,6, ,
0, ,6, ,
0, ,6, ,
-1, ,6, ,
-1, ,6, ,
-1, ,6, ,
-1, ,6, ,
-2, ,6, ,
-2, ,6, ,
-2, ,6, ,
-3, ,6, ,
-3, ,6, ,
-3, ,6, ,
-4, ,6, ,
-4, ,6, ,
-4, ,6, ,
-4, ,6, ,
-4, ,6, ,
-4, ,6, ,
-3, ,6, ,
-3, ,6, ,
-2, ,6, ,
-2, ,6, ,
-1, ,6, ,
-1, ,6, ,
-1, ,6, ,
0, ,6, ,
0, ,6, ,
1, ,6, ,
1, ,6, ,
1, ,6, ,
1, ,6, ,
1, ,6, ,
2, ,6, ,
2, ,6, ,
2, ,6, ,
3, ,6, ,
3, ,6, ,
3, ,6, ,
4, ,6, ,
4, ,6, ,
5, ,6, ,
6, ,6, ,
8, ,6, ,
9, ,6, ,
10, ,6, ,
10, ,6, ,
12, ,6, ,
12, ,6, ,
13, ,6, ,
13, ,6, ,
13, ,6, ,
13, ,6, ,
12, ,6, ,
12, ,6, ,
10, ,6, ,
9, ,6, ,
8, ,6, ,
7, ,6, ,
4, ,6, ,
3, ,6, ,
1, ,6, ,
-1, ,6, ,
-3, ,6, ,
-5, ,6, ,
-6, ,6, ,
-7, ,6, ,
-9, ,6, ,
-9, ,6, ,
-10, ,6, ,
-10, ,6, ,
-11, ,6, ,
-11, ,6, ,
-11, ,6, ,
-11, ,6, ,
-10, ,6, ,
-10, ,6, ,
-9, ,6, ,
-9, ,6, ,
-8, ,6, ,
-8, ,6, ,
-6, ,6, ,
-6, ,6, ,
-4, ,6, ,
-2, ,6, ,
-2, ,6, ,
0, ,6, ,
3, ,6, ,
4, ,6, ,
5, ,6, ,
6, ,6, ,
8, ,6, ,
9, ,6, ,
9, ,6, ,
10, ,6, ,
10, ,6, ,
10, ,6, ,
9, ,6, ,
9, ,6, ,
8, ,6, ,
8, ,6, ,
6, ,6, ,
6, ,6, ,
4, ,6, ,
3, ,6, ,
3, ,6, ,
2, ,6, ,
1, ,6, ,
1, ,6, ,
1, ,6, ,
0, ,6, ,
0, ,6, ,
0, ,6, ,
0, ,6, ,
0, ,6, ,
0, ,6, ,
0, ,6, ,
-1, ,6, ,
-1, ,6, ,
-1, ,6, ,
-2, ,6, ,
-2, ,6, ,
-2, ,6, ,
-2, ,6, ,
-2, ,6, ,
-2, ,6, ,
-2, ,6, ,
-3, ,6, ,
-3, ,6, ,
-3, ,6, ,
-3, ,6, ,
-4, ,6, ,
-4, ,6, ,
-4, ,6, ,
-4, ,6, ,
-4, ,6, ,
-4, ,6, ,
-4, ,6, ,
-4, ,6, ,
-3, ,6, ,
-3, ,6, ,
-2, ,6, ,
-2, ,6, ,
-1, ,6, ,
-1, ,6, ,
0, ,6, ,
0, ,6, ,
2, ,6, ,
3, ,6, ,
3, ,6, ,
4, ,6, ,
4, ,6, ,
5, ,6, ,
5, ,6, ,
