raw_data/75% Glycerol, Impulsion 2Hz, Sonde 5MHz, Rampe 0.7Hz/temp0000222.CSV

Format,1.0B,
Memory Length,10000,Memory Length,10000,
IntpDistance,0,IntpDistance,0,
Trigger Address,159,Trigger Address,159,
Trigger Level,2.720E-01,Trigger Level,2.720E-01,
Source,CH1,Source,CH2,
Vertical Units,V,Vertical Units,V,
Vertical Units Div,0,Vertical Units Div,0,
Vertical Units Extend Div,16,Vertical Units Extend Div,16,
Label,,Label,,
Probe Type,0,Probe Type,0,
Probe Ratio,1.000e+00,Probe Ratio,1.000e+00,
Vertical Scale,5.000e-01,Vertical Scale,2.000e+00,
Vertical Position,0.000e+00,Vertical Position,0.000e+00,
Horizontal Units,S,Horizontal Units,S,
Horizontal Scale,5.000E-06,Horizontal Scale,5.000E-06,
Horizontal Position,2.420E-05,Horizontal Position,2.420E-05,
Horizontal Mode,Main,Horizontal Mode,Main,
SincET Mode,Real Time,SincET Mode,Real Time,
Sampling Period,5.000e-09,Sampling Period,5.000e-09,
Horizontal Old Scale,5.000E-06,Horizontal Old Scale,5.000E-06,
Horizontal Old Position,2.420E-05,Horizontal Old Position,2.420E-05,
Firmware,V1.32,Firmware,V1.32,
Mode,Fast,Mode,Fast,
Waveform Data,,Waveform Data,,
1, ,6, ,
1, ,6, ,
1, ,5, ,
1, ,5, ,
1, ,5, ,
1, ,5, ,
1, ,5, ,
1, ,5, ,
1, ,6, ,
1, ,6, ,
1, ,5, ,
1, ,5, ,
0, ,5, ,
0, ,5, ,
1, ,5, ,
1, ,5, ,
1, ,5, ,
1, ,5, ,
1, ,5, ,
1, ,6, ,
1, ,6, ,
1, ,5, ,
1, ,5, ,
1, ,5, ,
1, ,5, ,
1, ,6, ,
1, ,6, ,
1, ,5, ,
1, ,5, ,
1, ,5, ,
1, ,5, ,
0, ,5, ,
0, ,5, ,
1, ,5, ,
0, ,5, ,
0, ,6, ,
1, ,5, ,
1, ,5, ,
1, ,6, ,
1, ,5, ,
0, ,5, ,
0, ,5, ,
0, ,5, ,
1, ,6, ,
1, ,6, ,
0, ,5, ,
0, ,5, ,
0, ,5, ,
1, ,5, ,
1, ,5, ,
1, ,5, ,
1, ,6, ,
1, ,5, ,
0, ,5, ,
0, ,6, ,
0, ,6, ,
0, ,5, ,
0, ,5, ,
0, ,6, ,
1, ,6, ,
0, ,6, ,
0, ,5, ,
0, ,5, ,
0, ,5, ,
1, ,6, ,
1, ,6, ,
1, ,6, ,
1, ,6, ,
1, ,6, ,
0, ,5, ,
0, ,5, ,
0, ,5, ,
1, ,6, ,
1, ,6, ,
1, ,5, ,
1, ,5, ,
1, ,5, ,
1, ,5, ,
1, ,5, ,
1, ,5, ,
0, ,5, ,
0, ,6, ,
0, ,5, ,
1, ,5, ,
0, ,5, ,
0, ,5, ,
1, ,5, ,
1, ,5, ,
1, ,5, ,
1, ,6, ,
1, ,5, ,
1, ,5, ,
1, ,5, ,
0, ,5, ,
0, ,5, ,
0, ,5, ,
1, ,6, ,
1, ,5, ,
0, ,5, ,
0, ,5, ,
1, ,5, ,
1, ,5, ,
1, ,6, ,
1, ,5, ,
1, ,5, ,
1, ,6, ,
1, ,5, ,
1, ,5, ,
1, ,5, ,
1, ,5, ,
1, ,6, ,
0, ,6, ,
0, ,6, ,
1, ,5, ,
1, ,5, ,
1, ,5, ,
1, ,5, ,
1, ,5, ,
1, ,5, ,
1, ,5, ,
1, ,5, ,
1, ,5, ,
0, ,5, ,
0, ,5, ,
1, ,5, ,
1, ,5, ,
1, ,5, ,
0, ,5, ,
0, ,6, ,
0, ,5, ,
0, ,5, ,
1, ,5, ,
1, ,5, ,
1, ,5, ,
1, ,5, ,
1, ,5, ,
1, ,5, ,
1, ,5, ,
1, ,5, ,
1, ,5, ,
1, ,5, ,
1, ,5, ,
1, ,5, ,
1, ,5, ,
1, ,6, ,
1, ,5, ,
0, ,5, ,
0, ,5, ,
1, ,5, ,
1, ,5, ,
1, ,5, ,
1, ,5, ,
0, ,5, ,
0, ,6, ,
0, ,5, ,
1, ,5, ,
1, ,5, ,
1, ,5, ,
1, ,6, ,
1, ,6, ,
0, ,6, ,
0, ,5, ,
0, ,5, ,
1, ,6, ,
0, ,5, ,
0, ,5, ,
0, ,6, ,
0, ,5, ,
37, ,5, ,
75, ,6, ,
114, ,5, ,
124, ,5, ,
111, ,5, ,
56, ,5, ,
3, ,6, ,
-2, ,6, ,
95, ,6, ,
125, ,6, ,
125, ,6, ,
125, ,6, ,
125, ,6, ,
125, ,5, ,
125, ,5, ,
124, ,5, ,
122, ,5, ,
117, ,5, ,
111, ,5, ,
107, ,5, ,
101, ,5, ,
97, ,5, ,
94, ,5, ,
91, ,5, ,
83, ,5, ,
81, ,5, ,
77, ,5, ,
75, ,6, ,
69, ,5, ,
67, ,5, ,
64, ,6, ,
62, ,6, ,
56, ,6, ,
54, ,5, ,
52, ,5, ,
49, ,5, ,
45, ,5, ,
43, ,5, ,
42, ,5, ,
40, ,5, ,
37, ,5, ,
35, ,5, ,
33, ,5, ,
32, ,6, ,
29, ,6, ,
28, ,5, ,
27, ,5, ,
25, ,5, ,
23, ,5, ,
22, ,6, ,
21, ,6, ,
21, ,5, ,
19, ,5, ,
18, ,5, ,
17, ,5, ,
16, ,5, ,
14, ,5, ,
14, ,5, ,
13, ,5, ,
12, ,6, ,
11, ,5, ,
10, ,5, ,
10, ,6, ,
9, ,5, ,
8, ,5, ,
8, ,5, ,
7, ,5, ,
7, ,5, ,
6, ,5, ,
6, ,5, ,
6, ,5, ,
5, ,5, ,
4, ,6, ,
4, ,5, ,
4, ,5, ,
4, ,5, ,
3, ,5, ,
3, ,5, ,
3, ,5, ,
2, ,5, ,
2, ,5, ,
2, ,6, ,
1, ,5, ,
1, ,5, ,
1, ,5, ,
1, ,6, ,
1, ,6, ,
0, ,6, ,
0, ,6, ,
0, ,5, ,
0, ,5, ,
0, ,5, ,
0, ,6, ,
0, ,6, ,
0, ,6, ,
-1, ,6, ,
-1, ,6, ,
-1, ,5, ,
-1, ,5, ,
-1, ,6, ,
-1, ,5, ,
-1, ,5, ,
-1, ,5, ,
-1, ,5, ,
-1, ,6, ,
-1, ,5, ,
-1, ,5, ,
-1, ,6, ,
-1, ,5, ,
-1, ,5, ,
-1, ,6, ,
-1, ,6, ,
-1, ,6, ,
-1, ,6, ,
-1, ,6, ,
-1, ,6, ,
-1, ,6, ,
-1, ,5, ,
-1, ,5, ,
-1, ,5, ,
-1, ,6, ,
-1, ,6, ,
-1, ,6, ,
-1, ,6, ,
-1, ,5, ,
-1, ,5, ,
-1, ,5, ,
-1, ,5, ,
-1, ,5, ,
-1, ,5, ,
-1, ,5, ,
-1, ,5, ,
-1, ,5, ,
-1, ,5, ,
-1, ,5, ,
-1, ,5, ,
-1, ,5, ,
-1, ,5, ,
-1, ,5, ,
-1, ,5, ,
-1, ,5, ,
-1, ,5, ,
-1, ,5, ,
-1, ,5, ,
-1, ,6, ,
0, ,5, ,
-1, ,5, ,
-1, ,5, ,
0, ,5, ,
-1, ,5, ,
-1, ,5, ,
-1, ,5, ,
-1, ,6, ,
0, ,5, ,
0, ,5, ,
0, ,5, ,
0, ,5, ,
0, ,5, ,
0, ,6, ,
0, ,5, ,
-1, ,5, ,
0, ,5, ,
-1, ,5, ,
0, ,5, ,
0, ,5, ,
0, ,5, ,
0, ,5, ,
0, ,5, ,
0, ,6, ,
0, ,6, ,
0, ,6, ,
0, ,6, ,
0, ,6, ,
0, ,6, ,
0, ,6, ,
0, ,5, ,
0, ,5, ,
0, ,6, ,
0, ,5, ,
0, ,5, ,
0, ,5, ,
0, ,6, ,
0, ,6, ,
0, ,6, ,
0, ,6, ,
0, ,6, ,
0, ,6, ,
0, ,6, ,
0, ,6, ,
0, ,6, ,
0, ,6, ,
0, ,5, ,
1, ,5, ,
0, ,5, ,
0, ,6, ,
0, ,6, ,
0, ,6, ,
0, ,6, ,
0, ,5, ,
0, ,5, ,
0, ,5, ,
1, ,6, ,
1, ,6, ,
1, ,6, ,
0, ,5, ,
0, ,5, ,
1, ,6, ,
0, ,5, ,
0, ,5, ,
1, ,5, ,
1, ,5, ,
1, ,5, ,
0, ,5, ,
0, ,5, ,
0, ,5, ,
0, ,5, ,
0, ,5, ,
0, ,5, ,
0, ,5, ,
0, ,5, ,
1, ,5, ,
0, ,5, ,
0, ,6, ,
0, ,5, ,
0, ,5, ,
0, ,6, ,
0, ,5, ,
1, ,5, ,
1, ,5, ,
1, ,5, ,
0, ,6, ,
0, ,5, ,
1, ,5, ,
1, ,5, ,
1, ,5, ,
0, ,6, ,
0, ,5, ,
0, ,5, ,
0, ,6, ,
0, ,6, ,
0, ,5, ,
0, ,5, ,
0, ,6, ,
0, ,6, ,
1, ,6, ,
1, ,6, ,
1, ,5, ,
0, ,5, ,
0, ,5, ,
1, ,5, ,
0, ,5, ,
0, ,5, ,
1, ,5, ,
1, ,6, ,
1, ,6, ,
1, ,5, ,
0, ,5, ,
0, ,5, ,
0, ,6, ,
1, ,6, ,
0, ,6, ,
0, ,6, ,
1, ,6, ,
0, ,6, ,
0, ,6, ,
0, ,6, ,
0, ,5, ,
0, ,5, ,
0, ,5, ,
-1, ,5, ,
-1, ,5, ,
-2, ,5, ,
-4, ,6, ,
-4, ,5, ,
-6, ,5, ,
-7, ,5, ,
-10, ,5, ,
-11, ,6, ,
-10, ,5, ,
-9, ,5, ,
-6, ,5, ,
-5, ,5, ,
-4, ,5, ,
-2, ,5, ,
0, ,5, ,
1, ,5, ,
1, ,6, ,
1, ,5, ,
2, ,5, ,
2, ,5, ,
2, ,5, ,
2, ,5, ,
1, ,5, ,
1, ,5, ,
1, ,5, ,
0, ,5, ,
0, ,5, ,
0, ,5, ,
0, ,5, ,
0, ,5, ,
0, ,5, ,
1, ,6, ,
1, ,6, ,
1, ,5, ,
2, ,5, ,
3, ,5, ,
3, ,5, ,
3, ,6, ,
3, ,6, ,
3, ,6, ,
3, ,6, ,
3, ,6, ,
3, ,6, ,
2, ,5, ,
2, ,5, ,
2, ,6, ,
1, ,6, ,
1, ,5, ,
1, ,5, ,
1, ,5, ,
1, ,5, ,
1, ,5, ,
1, ,5, ,
2, ,5, ,
2, ,5, ,
2, ,5, ,
2, ,5, ,
2, ,5, ,
2, ,5, ,
2, ,6, ,
1, ,6, ,
1, ,6, ,
1, ,6, ,
0, ,5, ,
0, ,5, ,
0, ,5, ,
0, ,6, ,
1, ,6, ,
0, ,6, ,
0, ,6, ,
1, ,5, ,
1, ,5, ,
1, ,5, ,
1, ,5, ,
1, ,5, ,
1, ,5, ,
1, ,5, ,
1, ,5, ,
0, ,5, ,
0, ,5, ,
0, ,5, ,
-1, ,5, ,
-3, ,5, ,
-3, ,6, ,
-5, ,5, ,
-5, ,5, ,
-9, ,5, ,
-10, ,5, ,
-11, ,6, ,
-12, ,6, ,
-13, ,6, ,
-13, ,6, ,
-13, ,6, ,
-13, ,6, ,
-12, ,6, ,
-12, ,5, ,
-12, ,5, ,
-12, ,5, ,
-13, ,6, ,
-13, ,6, ,
-14, ,5, ,
-14, ,5, ,
-16, ,5, ,
-18, ,5, ,
-19, ,6, ,
-21, ,6, ,
-23, ,6, ,
-23, ,5, ,
-24, ,5, ,
-22, ,5, ,
-21, ,5, ,
-21, ,5, ,
-20, ,5, ,
-20, ,5, ,
-19, ,5, ,
-19, ,5, ,
-20, ,5, ,
-21, ,5, ,
-23, ,5, ,
-25, ,5, ,
-27, ,5, ,
-30, ,5, ,
-34, ,5, ,
-35, ,5, ,
-36, ,5, ,
-36, ,6, ,
-35, ,5, ,
-34, ,5, ,
-30, ,5, ,
-28, ,6, ,
-23, ,6, ,
-20, ,5, ,
-16, ,5, ,
-13, ,5, ,
-8, ,5, ,
-5, ,6, ,
-4, ,6, ,
-3, ,6, ,
-2, ,6, ,
-3, ,5, ,
-3, ,5, ,
-4, ,5, ,
-5, ,5, ,
-7, ,5, ,
-8, ,6, ,
-8, ,6, ,
-8, ,6, ,
-6, ,6, ,
-6, ,5, ,
-5, ,5, ,
-2, ,5, ,
0, ,5, ,
2, ,5, ,
5, ,5, ,
9, ,5, ,
11, ,5, ,
13, ,5, ,
15, ,6, ,
17, ,5, ,
17, ,5, ,
17, ,6, ,
17, ,6, ,
16, ,6, ,
16, ,6, ,
15, ,6, ,
15, ,6, ,
13, ,5, ,
12, ,5, ,
12, ,6, ,
11, ,6, ,
10, ,6, ,
10, ,5, ,
10, ,5, ,
9, ,5, ,
9, ,5, ,
8, ,5, ,
8, ,5, ,
7, ,5, ,
6, ,5, ,
6, ,5, ,
5, ,5, ,
4, ,6, ,
2, ,5, ,
0, ,5, ,
-1, ,6, ,
-4, ,6, ,
-7, ,6, ,
-9, ,5, ,
-11, ,5, ,
-12, ,5, ,
-15, ,5, ,
-16, ,5, ,
-17, ,5, ,
-17, ,5, ,
-17, ,5, ,
-17, ,5, ,
-17, ,5, ,
-16, ,5, ,
-15, ,5, ,
-15, ,5, ,
-14, ,5, ,
-14, ,5, ,
-14, ,5, ,
-14, ,5, ,
-13, ,5, ,
-13, ,6, ,
-13, ,5, ,
-12, ,5, ,
-11, ,5, ,
-11, ,6, ,
-10, ,6, ,
-9, ,5, ,
-9, ,5, ,
-8, ,5, ,
-9, ,5, ,
-9, ,5, ,
-10, ,5, ,
-10, ,5, ,
-10, ,6, ,
-11, ,5, ,
-11, ,5, ,
-11, ,5, ,
-10, ,5, ,
-10, ,5, ,
-9, ,5, ,
-9, ,5, ,
-7, ,5, ,
-6, ,6, ,
-5, ,5, ,
-4, ,5, ,
-4, ,5, ,
-4, ,5, ,
-4, ,5, ,
-5, ,5, ,
-5, ,5, ,
-5, ,6, ,
-6, ,6, ,
-6, ,6, ,
-8, ,5, ,
-9, ,5, ,
-9, ,5, ,
-10, ,5, ,
-12, ,6, ,
-12, ,6, ,
-13, ,5, ,
-14, ,5, ,
-14, ,5, ,
-15, ,5, ,
-15, ,5, ,
-15, ,5, ,
-14, ,6, ,
-14, ,6, ,
-13, ,5, ,
-12, ,5, ,
-11, ,5, ,
-10, ,5, ,
-10, ,5, ,
-9, ,5, ,
-8, ,5, ,
-8, ,5, ,
-8, ,5, ,
-7, ,5, ,
-7, ,5, ,
-8, ,5, ,
-7, ,6, ,
-6, ,6, ,
-5, ,6, ,
-4, ,5, ,
-3, ,5, ,
-2, ,5, ,
1, ,5, ,
2, ,5, ,
4, ,6, ,
4, ,6, ,
7, ,6, ,
8, ,5, ,
8, ,5, ,
8, ,5, ,
8, ,5, ,
7, ,5, ,
7, ,5, ,
6, ,5, ,
4, ,5, ,
3, ,5, ,
2, ,5, ,
1, ,5, ,
-3, ,5, ,
-5, ,5, ,
-6, ,5, ,
-7, ,5, ,
-8, ,5, ,
-8, ,5, ,
-8, ,5, ,
-8, ,5, ,
-7, ,5, ,
-7, ,6, ,
-5, ,5, ,
-3, ,5, ,
0, ,5, ,
2, ,5, ,
3, ,5, ,
5, ,5, ,
8, ,5, ,
9, ,5, ,
10, ,5, ,
10, ,5, ,
11, ,5, ,
11, ,5, ,
10, ,5, ,
10, ,5, ,
9, ,5, ,
7, ,5, ,
6, ,6, ,
5, ,6, ,
2, ,6, ,
1, ,5, ,
0, ,5, ,
-1, ,5, ,
-3, ,5, ,
-4, ,5, ,
-5, ,5, ,
-5, ,5, ,
-6, ,5, ,
-7, ,5, ,
-7, ,6, ,
-8, ,6, ,
-8, ,6, ,
-8, ,6, ,
-8, ,6, ,
-8, ,6, ,
-9, ,6, ,
-9, ,5, ,
-10, ,5, ,
-10, ,5, ,
-10, ,5, ,
-11, ,5, ,
-11, ,5, ,
-13, ,5, ,
-14, ,5, ,
-15, ,5, ,
-16, ,5, ,
-16, ,5, ,
-18, ,5, ,
-19, ,5, ,
-19, ,5, ,
-19, ,5, ,
-19, ,5, ,
-19, ,5, ,
-19, ,5, ,
-18, ,6, ,
-17, ,5, ,
-17, ,5, ,
-16, ,5, ,
-15, ,5, ,
-14, ,5, ,
-13, ,5, ,
-13, ,5, ,
-12, ,5, ,
-13, ,5, ,
-14, ,5, ,
-14, ,5, ,
-15, ,5, ,
-16, ,5, ,
-18, ,5, ,
-20, ,5, ,
-21, ,5, ,
-25, ,5, ,
-26, ,6, ,
-27, ,6, ,
-28, ,6, ,
-29, ,6, ,
-28, ,6, ,
-28, ,6, ,
-28, ,5, ,
-25, ,5, ,
-25, ,6, ,
-23, ,6, ,
-20, ,6, ,
-14, ,6, ,
-12, ,5, ,
-9, ,5, ,
-5, ,5, ,
1, ,5, ,
4, ,5, ,
7, ,5, ,
9, ,5, ,
15, ,5, ,
18, ,5, ,
20, ,5, ,
21, ,5, ,
25, ,5, ,
25, ,5, ,
25, ,5, ,
25, ,5, ,
25, ,5, ,
24, ,5, ,
22, ,5, ,
21, ,5, ,
17, ,5, ,
14, ,5, ,
12, ,5, ,
9, ,5, ,
4, ,5, ,
2, ,6, ,
0, ,5, ,
-1, ,5, ,
-4, ,5, ,
-4, ,5, ,
-4, ,5, ,
-4, ,5, ,
-4, ,5, ,
-2, ,5, ,
-1, ,5, ,
1, ,6, ,
4, ,6, ,
5, ,6, ,
7, ,6, ,
8, ,6, ,
10, ,6, ,
11, ,5, ,
11, ,5, ,
11, ,5, ,
10, ,5, ,
8, ,5, ,
8, ,5, ,
5, ,5, ,
1, ,5, ,
-1, ,5, ,
-3, ,5, ,
-6, ,5, ,
-10, ,5, ,
-12, ,5, ,
-13, ,5, ,
-16, ,5, ,
-17, ,5, ,
-17, ,6, ,
-17, ,5, ,
-16, ,5, ,
-15, ,5, ,
-15, ,5, ,
-13, ,5, ,
-12, ,5, ,
-9, ,6, ,
-7, ,5, ,
-7, ,5, ,
-4, ,6, ,
-3, ,5, ,
-3, ,5, ,
-3, ,6, ,
-3, ,5, ,
-4, ,5, ,
-4, ,6, ,
-5, ,5, ,
-6, ,5, ,
-8, ,5, ,
-9, ,5, ,
-10, ,5, ,
-12, ,5, ,
-14, ,5, ,
-14, ,5, ,
-15, ,5, ,
-16, ,5, ,
-16, ,5, ,
-16, ,5, ,
-16, ,5, ,
-16, ,5, ,
-15, ,5, ,
-14, ,5, ,
-14, ,5, ,
-13, ,5, ,
-12, ,5, ,
-12, ,5, ,
-10, ,6, ,
-10, ,6, ,
-9, ,6, ,
-7, ,5, ,
-7, ,5, ,
-6, ,5, ,
-5, ,5, ,
-5, ,5, ,
-4, ,5, ,
-4, ,5, ,
-4, ,5, ,
-4, ,5, ,
-5, ,5, ,
-5, ,6, ,
-6, ,5, ,
-7, ,5, ,
-8, ,5, ,
-8, ,5, ,
-11, ,6, ,
-12, ,5, ,
-14, ,5, ,
-14, ,6, ,
-15, ,6, ,
-16, ,5, ,
-16, ,5, ,
-16, ,5, ,
-15, ,5, ,
-14, ,6, ,
-13, ,5, ,
-12, ,5, ,
-9, ,5, ,
-8, ,5, ,
-6, ,5, ,
-4, ,5, ,
-1, ,6, ,
1, ,5, ,
2, ,5, ,
5, ,5, ,
6, ,6, ,
7, ,5, ,
8, ,5, ,
8, ,5, ,
8, ,5, ,
8, ,5, ,
7, ,5, ,
7, ,5, ,
5, ,5, ,
5, ,5, ,
4, ,6, ,
3, ,5, ,
2, ,5, ,
2, ,5, ,
1, ,5, ,
1, ,6, ,
1, ,5, ,
1, ,5, ,
2, ,6, ,
2, ,5, ,
2, ,5, ,
3, ,5, ,
3, ,5, ,
3, ,5, ,
3, ,5, ,
3, ,5, ,
3, ,5, ,
3, ,5, ,
2, ,5, ,
1, ,5, ,
0, ,5, ,
0, ,5, ,
-2, ,5, ,
-3, ,5, ,
-4, ,5, ,
-5, ,5, ,
-7, ,6, ,
-8, ,6, ,
-9, ,5, ,
-10, ,5, ,
-12, ,5, ,
-14, ,5, ,
-15, ,5, ,
-15, ,5, ,
-16, ,5, ,
-16, ,5, ,
-16, ,5, ,
-16, ,6, ,
-14, ,6, ,
-14, ,6, ,
-12, ,6, ,
-11, ,5, ,
-6, ,5, ,
-4, ,6, ,
-1, ,6, ,
2, ,6, ,
7, ,6, ,
9, ,6, ,
13, ,6, ,
14, ,5, ,
18, ,5, ,
19, ,5, ,
20, ,5, ,
20, ,6, ,
19, ,5, ,
18, ,5, ,
17, ,6, ,
16, ,5, ,
12, ,5, ,
11, ,6, ,
9, ,5, ,
7, ,5, ,
3, ,5, ,
1, ,5, ,
-1, ,5, ,
-3, ,5, ,
-6, ,5, ,
-7, ,5, ,
-8, ,5, ,
-9, ,5, ,
-11, ,5, ,
-11, ,5, ,
-12, ,5, ,
-12, ,5, ,
-12, ,5, ,
-12, ,6, ,
-12, ,6, ,
-12, ,6, ,
-11, ,5, ,
-11, ,5, ,
-11, ,5, ,
-11, ,5, ,
-10, ,6, ,
-9, ,6, ,
-9, ,5, ,
-8, ,5, ,
-7, ,5, ,
-7, ,5, ,
-5, ,5, ,
-5, ,6, ,
-4, ,5, ,
-4, ,5, ,
-4, ,5, ,
-3, ,5, ,
-3, ,5, ,
-3, ,5, ,
-3, ,6, ,
-4, ,5, ,
-4, ,5, ,
-4, ,5, ,
-4, ,5, ,
-4, ,5, ,
-5, ,5, ,
-5, ,5, ,
-5, ,6, ,
-4, ,5, ,
-3, ,5, ,
-2, ,5, ,
-1, ,5, ,
-1, ,5, ,
2, ,5, ,
3, ,5, ,
5, ,5, ,
5, ,5, ,
8, ,6, ,
9, ,6, ,
11, ,6, ,
12, ,6, ,
14, ,5, ,
15, ,5, ,
16, ,6, ,
16, ,5, ,
17, ,5, ,
17, ,6, ,
16, ,5, ,
16, ,5, ,
14, ,5, ,
13, ,5, ,
11, ,5, ,
10, ,5, ,
6, ,5, ,
4, ,5, ,
2, ,5, ,
-1, ,5, ,
-5, ,6, ,
-7, ,5, ,
-8, ,5, ,
-11, ,5, ,
-13, ,5, ,
-15, ,6, ,
-16, ,5, ,
-16, ,5, ,
-17, ,5, ,
-17, ,5, ,
-17, ,5, ,
-17, ,5, ,
-16, ,6, ,
-16, ,5, ,
-16, ,5, ,
-15, ,5, ,
-14, ,5, ,
-14, ,5, ,
-13, ,6, ,
-12, ,5, ,
-10, ,5, ,
-8, ,6, ,
-8, ,6, ,
-7, ,6, ,
-4, ,5, ,
-3, ,5, ,
-2, ,5, ,
-1, ,5, ,
2, ,5, ,
3, ,5, ,
4, ,5, ,
5, ,6, ,
6, ,5, ,
8, ,5, ,
8, ,5, ,
8, ,5, ,
9, ,5, ,
9, ,5, ,
9, ,5, ,
10, ,5, ,
9, ,5, ,
9, ,5, ,
9, ,6, ,
9, ,6, ,
8, ,6, ,
8, ,5, ,
7, ,5, ,
7, ,5, ,
6, ,5, ,
6, ,5, ,
5, ,5, ,
5, ,5, ,
4, ,5, ,
3, ,5, ,
3, ,5, ,
2, ,5, ,
1, ,5, ,
0, ,5, ,
-1, ,5, ,
-2, ,5, ,
-4, ,5, ,
-5, ,5, ,
-6, ,5, ,
-7, ,5, ,
-8, ,5, ,
-9, ,5, ,
-9, ,6, ,
-10, ,5, ,
-11, ,5, ,
-11, ,5, ,
-11, ,5, ,
-10, ,6, ,
-9, ,6, ,
-9, ,6, ,
-7, ,6, ,
-7, ,6, ,
-6, ,6, ,
-5, ,5, ,
-4, ,5, ,
-3, ,5, ,
-2, ,5, ,
-2, ,6, ,
-1, ,6, ,
-1, ,6, ,
-1, ,6, ,
-1, ,5, ,
-1, ,5, ,
-1, ,5, ,
-1, ,5, ,
-1, ,5, ,
-1, ,5, ,
-1, ,6, ,
-1, ,6, ,
-1, ,6, ,
-1, ,6, ,
0, ,6, ,
0, ,6, ,
0, ,5, ,
1, ,5, ,
1, ,5, ,
2, ,5, ,
3, ,5, ,
3, ,5, ,
3, ,5, ,
5, ,5, ,
5, ,5, ,
6, ,5, ,
6, ,5, ,
7, ,6, ,
8, ,6, ,
7, ,6, ,
7, ,6, ,
7, ,5, ,
6, ,5, ,
6, ,5, ,
4, ,5, ,
2, ,5, ,
1, ,5, ,
-1, ,5, ,
-2, ,5, ,
-5, ,5, ,
-7, ,5, ,
-9, ,5, ,
-10, ,5, ,
-13, ,6, ,
-14, ,5, ,
-15, ,5, ,
-15, ,6, ,
-17, ,5, ,
-17, ,5, ,
-17, ,5, ,
-17, ,5, ,
-16, ,5, ,
-14, ,6, ,
-14, ,5, ,
-12, ,5, ,
-9, ,5, ,
-8, ,5, ,
-6, ,5, ,
-5, ,5, ,
-1, ,6, ,
1, ,5, ,
3, ,5, ,
5, ,6, ,
7, ,5, ,
8, ,5, ,
9, ,6, ,
9, ,5, ,
9, ,5, ,
9, ,5, ,
8, ,5, ,
8, ,5, ,
6, ,5, ,
5, ,5, ,
4, ,5, ,
2, ,5, ,
-1, ,5, ,
-3, ,5, ,
-4, ,5, ,
-6, ,6, ,
-9, ,5, ,
-10, ,5, ,
-10, ,6, ,
-11, ,5, ,
-11, ,5, ,
-10, ,6, ,
-10, ,5, ,
-10, ,5, ,
-7, ,5, ,
-7, ,5, ,
-5, ,5, ,
-5, ,5, ,
-3, ,5, ,
-2, ,5, ,
-1, ,5, ,
-1, ,5, ,
-1, ,5, ,
-2, ,5, ,
-2, ,5, ,
-3, ,5, ,
-4, ,5, ,
-5, ,5, ,
-5, ,5, ,
-6, ,5, ,
-5, ,5, ,
-5, ,6, ,
-5, ,6, ,
-5, ,6, ,
-4, ,6, ,
-2, ,6, ,
-1, ,5, ,
1, ,5, ,
3, ,5, ,
4, ,6, ,
6, ,6, ,
6, ,5, ,
8, ,5, ,
9, ,6, ,
9, ,5, ,
10, ,5, ,
10, ,5, ,
9, ,5, ,
9, ,5, ,
8, ,5, ,
7, ,6, ,
7, ,5, ,
6, ,5, ,
6, ,6, ,
5, ,5, ,
3, ,5, ,
3, ,6, ,
2, ,6, ,
0, ,6, ,
-1, ,5, ,
-2, ,5, ,
-2, ,5, ,
-4, ,5, ,
-5, ,5, ,
-6, ,6, ,
-7, ,5, ,
-8, ,5, ,
-8, ,5, ,
-8, ,5, ,
-8, ,6, ,
-8, ,6, ,
-8, ,5, ,
-8, ,5, ,
-8, ,5, ,
-7, ,5, ,
-6, ,5, ,
-5, ,5, ,
-4, ,5, ,
-3, ,5, ,
-3, ,5, ,
-2, ,5, ,
-2, ,5, ,
-2, ,6, ,
-2, ,5, ,
-2, ,5, ,
-2, ,5, ,
-3, ,5, ,
-3, ,6, ,
-3, ,6, ,
-3, ,5, ,
-2, ,5, ,
-1, ,5, ,
-1, ,5, ,
0, ,5, ,
1, ,5, ,
2, ,5, ,
3, ,5, ,
3, ,5, ,
5, ,6, ,
6, ,6, ,
7, ,6, ,
8, ,6, ,
9, ,6, ,
10, ,6, ,
11, ,6, ,
12, ,6, ,
12, ,5, ,
13, ,5, ,
13, ,5, ,
13, ,5, ,
13, ,5, ,
12, ,5, ,
12, ,5, ,
11, ,5, ,
9, ,5, ,
8, ,6, ,
6, ,5, ,
6, ,5, ,
3, ,5, ,
1, ,5, ,
-1, ,5, ,
-3, ,5, ,
-7, ,5, ,
-8, ,5, ,
-9, ,5, ,
-11, ,5, ,
-13, ,5, ,
-14, ,5, ,
-14, ,5, ,
-15, ,5, ,
-15, ,6, ,
-14, ,5, ,
-14, ,5, ,
-13, ,5, ,
-11, ,5, ,
-9, ,5, ,
-8, ,5, ,
-7, ,5, ,
-3, ,5, ,
-1, ,5, ,
-1, ,6, ,
2, ,5, ,
5, ,5, ,
6, ,6, ,
7, ,5, ,
7, ,5, ,
9, ,5, ,
9, ,5, ,
9, ,5, ,
9, ,5, ,
8, ,6, ,
8, ,6, ,
6, ,6, ,
6, ,6, ,
3, ,6, ,
2, ,5, ,
1, ,5, ,
-1, ,5, ,
-3, ,5, ,
-5, ,5, ,
-6, ,5, ,
-7, ,5, ,
-9, ,5, ,
-9, ,5, ,
-9, ,5, ,
-9, ,5, ,
-8, ,5, ,
-8, ,5, ,
-6, ,5, ,
-6, ,5, ,
-4, ,6, ,
-2, ,6, ,
-1, ,6, ,
0, ,6, ,
3, ,6, ,
3, ,5, ,
4, ,5, ,
5, ,5, ,
6, ,5, ,
7, ,6, ,
7, ,6, ,
7, ,6, ,
7, ,5, ,
6, ,5, ,
6, ,5, ,
5, ,5, ,
3, ,5, ,
3, ,5, ,
2, ,5, ,
2, ,5, ,
0, ,5, ,
-1, ,5, ,
-1, ,6, ,
-1, ,5, ,
-1, ,5, ,
-1, ,6, ,
-1, ,5, ,
-1, ,5, ,
0, ,5, ,
0, ,5, ,
0, ,6, ,
1, ,5, ,
1, ,5, ,
2, ,6, ,
2, ,5, ,
2, ,5, ,
2, ,5, ,
1, ,5, ,
1, ,5, ,
0, ,5, ,
-1, ,5, ,
-1, ,6, ,
-2, ,6, ,
-2, ,6, ,
-3, ,6, ,
-4, ,5, ,
-4, ,5, ,
-5, ,5, ,
-5, ,5, ,
-4, ,6, ,
-5, ,5, ,
-5, ,5, ,
-4, ,5, ,
-3, ,5, ,
-3, ,5, ,
-2, ,5, ,
-1, ,5, ,
0, ,5, ,
0, ,5, ,
1, ,5, ,
2, ,6, ,
2, ,5, ,
3, ,5, ,
3, ,5, ,
2, ,5, ,
1, ,5, ,
1, ,5, ,
1, ,5, ,
-2, ,5, ,
-3, ,6, ,
-3, ,6, ,
-5, ,5, ,
-6, ,5, ,
-7, ,5, ,
-8, ,5, ,
-8, ,5, ,
-9, ,5, ,
-9, ,5, ,
-8, ,5, ,
-8, ,5, ,
-7, ,5, ,
-5, ,6, ,
-4, ,5, ,
-3, ,5, ,
0, ,5, ,
1, ,5, ,
3, ,5, ,
4, ,5, ,
6, ,5, ,
8, ,5, ,
9, ,5, ,
9, ,6, ,
11, ,6, ,
10, ,5, ,
10, ,5, ,
10, ,5, ,
10, ,5, ,
9, ,6, ,
9, ,5, ,
9, ,5, ,
8, ,5, ,
7, ,5, ,
7, ,5, ,
6, ,5, ,
6, ,5, ,
6, ,5, ,
6, ,5, ,
6, ,5, ,
6, ,5, ,
6, ,5, ,
7, ,6, ,
7, ,6, ,
7, ,5, ,
6, ,5, ,
6, ,6, ,
5, ,5, ,
5, ,5, ,
3, ,6, ,
3, ,5, ,
1, ,5, ,
0, ,5, ,
-2, ,5, ,
-3, ,5, ,
-3, ,5, ,
-5, ,5, ,
-6, ,5, ,
-6, ,5, ,
-6, ,5, ,
-6, ,5, ,
-5, ,5, ,
-5, ,5, ,
-5, ,5, ,
-3, ,5, ,
-3, ,5, ,
-2, ,5, ,
-2, ,5, ,
-1, ,5, ,
0, ,5, ,
0, ,5, ,
-1, ,6, ,
-1, ,6, ,
-2, ,5, ,
-2, ,5, ,
-3, ,5, ,
-4, ,5, ,
-4, ,5, ,
-5, ,5, ,
-5, ,5, ,
-5, ,5, ,
-5, ,5, ,
-5, ,5, ,
-5, ,5, ,
-5, ,6, ,
-4, ,5, ,
-4, ,5, ,
-3, ,6, ,
-1, ,6, ,
-1, ,6, ,
0, ,6, ,
1, ,5, ,
1, ,5, ,
2, ,6, ,
2, ,6, ,
3, ,6, ,
4, ,5, ,
3, ,5, ,
4, ,5, ,
3, ,5, ,
4, ,6, ,
4, ,6, ,
4, ,5, ,
4, ,5, ,
5, ,5, ,
4, ,5, ,
4, ,5, ,
4, ,5, ,
5, ,5, ,
4, ,5, ,
4, ,5, ,
4, ,6, ,
3, ,5, ,
3, ,5, ,
3, ,6, ,
2, ,6, ,
1, ,6, ,
0, ,6, ,
-1, ,5, ,
-1, ,5, ,
-3, ,5, ,
-3, ,5, ,
-4, ,5, ,
-4, ,5, ,
-4, ,5, ,
-4, ,6, ,
-4, ,5, ,
-4, ,5, ,
-3, ,5, ,
-3, ,5, ,
-2, ,5, ,
-2, ,5, ,
0, ,6, ,
1, ,5, ,
2, ,5, ,
2, ,5, ,
4, ,5, ,
5, ,5, ,
5, ,5, ,
5, ,5, ,
6, ,5, ,
6, ,6, ,
5, ,5, ,
5, ,5, ,
4, ,5, ,
3, ,5, ,
3, ,5, ,
2, ,5, ,
1, ,6, ,
0, ,6, ,
-1, ,6, ,
-1, ,6, ,
-1, ,5, ,
-2, ,5, ,
-2, ,6, ,
-2, ,6, ,
-1, ,6, ,
-1, ,6, ,
-1, ,6, ,
-1, ,6, ,
0, ,5, ,
0, ,5, ,
1, ,6, ,
0, ,6, ,
1, ,6, ,
1, ,6, ,
1, ,6, ,
1, ,6, ,
-1, ,5, ,
-2, ,5, ,
-2, ,6, ,
-4, ,5, ,
-6, ,5, ,
-6, ,6, ,
-8, ,5, ,
-9, ,5, ,
-11, ,5, ,
-12, ,5, ,
-12, ,6, ,
-13, ,5, ,
-13, ,5, ,
-12, ,5, ,
-11, ,5, ,
-10, ,6, ,
-7, ,6, ,
-6, ,5, ,
-3, ,5, ,
-1, ,5, ,
3, ,6, ,
6, ,6, ,
8, ,5, ,
10, ,5, ,
13, ,5, ,
14, ,5, ,
15, ,5, ,
15, ,5, ,
15, ,6, ,
15, ,6, ,
14, ,5, ,
14, ,5, ,
11, ,5, ,
10, ,6, ,
9, ,6, ,
7, ,5, ,
4, ,5, ,
3, ,6, ,
1, ,5, ,
0, ,5, ,
-2, ,5, ,
-4, ,6, ,
-4, ,6, ,
-5, ,6, ,
-6, ,6, ,
-6, ,6, ,
-6, ,6, ,
-7, ,6, ,
-7, ,5, ,
-6, ,5, ,
-5, ,5, ,
-5, ,6, ,
-3, ,5, ,
-3, ,5, ,
-2, ,6, ,
-1, ,6, ,
1, ,6, ,
2, ,6, ,
2, ,5, ,
3, ,5, ,
4, ,5, ,
4, ,5, ,
4, ,5, ,
4, ,6, ,
3, ,5, ,
1, ,5, ,
1, ,5, ,
0, ,5, ,
-1, ,5, ,
-2, ,6, ,
-3, ,5, ,
-4, ,5, ,
-6, ,5, ,
-7, ,6, ,
-8, ,5, ,
-9, ,5, ,
-9, ,5, ,
-10, ,5, ,
-10, ,5, ,
-10, ,5, ,
-9, ,6, ,
-9, ,5, ,
-8, ,5, ,
-7, ,5, ,
-5, ,5, ,
-4, ,5, ,
-3, ,5, ,
-2, ,5, ,
2, ,5, ,
3, ,5, ,
4, ,6, ,
5, ,6, ,
7, ,6, ,
8, ,5, ,
8, ,5, ,
9, ,5, ,
9, ,5, ,
9, ,6, ,
9, ,6, ,
9, ,5, ,
8, ,5, ,
8, ,6, ,
8, ,5, ,
8, ,5, ,
7, ,5, ,
6, ,5, ,
6, ,5, ,
6, ,5, ,
6, ,5, ,
6, ,5, ,
5, ,5, ,
5, ,5, ,
4, ,5, ,
4, ,5, ,
3, ,5, ,
3, ,5, ,
2, ,5, ,
1, ,5, ,
0, ,5, ,
0, ,5, ,
-2, ,5, ,
-3, ,5, ,
-3, ,5, ,
-4, ,5, ,
-5, ,5, ,
-6, ,5, ,
-6, ,5, ,
-6, ,5, ,
-6, ,5, ,
-6, ,5, ,
-6, ,6, ,
-6, ,5, ,
-6, ,5, ,
-5, ,6, ,
-4, ,6, ,
-4, ,5, ,
-2, ,5, ,
-2, ,5, ,
0, ,5, ,
0, ,5, ,
1, ,5, ,
2, ,5, ,
3, ,5, ,
4, ,5, ,
5, ,5, ,
5, ,5, ,
5, ,6, ,
5, ,5, ,
4, ,5, ,
4, ,6, ,
4, ,5, ,
4, ,5, ,
3, ,5, ,
3, ,6, ,
2, ,6, ,
2, ,6, ,
1, ,6, ,
1, ,5, ,
1, ,5, ,
1, ,6, ,
1, ,6, ,
1, ,5, ,
1, ,5, ,
0, ,5, ,
1, ,5, ,
1, ,5, ,
1, ,5, ,
1, ,5, ,
0, ,5, ,
0, ,6, ,
0, ,6, ,
-1, ,6, ,
-2, ,6, ,
-2, ,5, ,
-3, ,5, ,
-3, ,5, ,
-3, ,5, ,
-4, ,5, ,
-4, ,6, ,
-5, ,5, ,
-5, ,5, ,
-5, ,6, ,
-5, ,6, ,
-5, ,5, ,
-4, ,5, ,
-4, ,6, ,
-4, ,5, ,
-4, ,5, ,
-3, ,5, ,
-2, ,5, ,
-2, ,5, ,
-2, ,5, ,
0, ,5, ,
0, ,5, ,
0, ,5, ,
1, ,6, ,
3, ,6, ,
4, ,6, ,
5, ,6, ,
7, ,6, ,
9, ,5, ,
10, ,5, ,
12, ,6, ,
13, ,6, ,
15, ,6, ,
16, ,6, ,
16, ,6, ,
17, ,6, ,
17, ,6, ,
17, ,5, ,
16, ,5, ,
15, ,5, ,
14, ,5, ,
14, ,5, ,
12, ,5, ,
12, ,5, ,
8, ,5, ,
7, ,5, ,
5, ,5, ,
3, ,5, ,
1, ,6, ,
0, ,5, ,
-1, ,5, ,
-2, ,5, ,
-4, ,5, ,
-6, ,5, ,
-6, ,6, ,
-7, ,6, ,
-9, ,6, ,
-9, ,6, ,
-9, ,5, ,
-9, ,5, ,
-10, ,5, ,
-11, ,5, ,
-11, ,5, ,
-11, ,5, ,
-11, ,6, ,
-10, ,5, ,
-10, ,5, ,
-10, ,5, ,
-10, ,5, ,
-9, ,5, ,
-8, ,5, ,
-8, ,5, ,
-6, ,5, ,
-5, ,6, ,
-4, ,6, ,
-2, ,6, ,
0, ,5, ,
1, ,5, ,
2, ,5, ,
3, ,5, ,
5, ,5, ,
7, ,5, ,
8, ,5, ,
9, ,5, ,
10, ,5, ,
10, ,5, ,
10, ,6, ,
10, ,6, ,
9, ,6, ,
9, ,6, ,
8, ,5, ,
7, ,5, ,
6, ,5, ,
5, ,5, ,
5, ,5, ,
4, ,5, ,
3, ,6, ,
3, ,6, ,
2, ,5, ,
2, ,5, ,
1, ,5, ,
1, ,5, ,
1, ,6, ,
1, ,6, ,
1, ,6, ,
1, ,6, ,
1, ,5, ,
1, ,5, ,
0, ,5, ,
0, ,5, ,
0, ,5, ,
-1, ,5, ,
-2, ,5, ,
-2, ,5, ,
-3, ,5, ,
-3, ,6, ,
-4, ,6, ,
-4, ,5, ,
-4, ,5, ,
-5, ,6, ,
-5, ,6, ,
-4, ,5, ,
-4, ,5, ,
-4, ,6, ,
-3, ,6, ,
-3, ,5, ,
-3, ,5, ,
-2, ,5, ,
-2, ,6, ,
