raw_data/75% Glycerol, Impulsion 2Hz, Sonde 5MHz, Rampe 0.7Hz/temp0000280.CSV

Format,1.0B,
Memory Length,10000,Memory Length,10000,
IntpDistance,0,IntpDistance,0,
Trigger Address,159,Trigger Address,159,
Trigger Level,2.720E-01,Trigger Level,2.720E-01,
Source,CH1,Source,CH2,
Vertical Units,V,Vertical Units,V,
Vertical Units Div,0,Vertical Units Div,0,
Vertical Units Extend Div,16,Vertical Units Extend Div,16,
Label,,Label,,
Probe Type,0,Probe Type,0,
Probe Ratio,1.000e+00,Probe Ratio,1.000e+00,
Vertical Scale,5.000e-01,Vertical Scale,2.000e+00,
Vertical Position,0.000e+00,Vertical Position,0.000e+00,
Horizontal Units,S,Horizontal Units,S,
Horizontal Scale,5.000E-06,Horizontal Scale,5.000E-06,
Horizontal Position,2.420E-05,Horizontal Position,2.420E-05,
Horizontal Mode,Main,Horizontal Mode,Main,
SincET Mode,Real Time,SincET Mode,Real Time,
Sampling Period,5.000e-09,Sampling Period,5.000e-09,
Horizontal Old Scale,5.000E-06,Horizontal Old Scale,5.000E-06,
Horizontal Old Position,2.420E-05,Horizontal Old Position,2.420E-05,
Firmware,V1.32,Firmware,V1.32,
Mode,Fast,Mode,Fast,
Waveform Data,,Waveform Data,,
0, ,-43, ,
1, ,-42, ,
1, ,-42, ,
1, ,-42, ,
1, ,-42, ,
1, ,-42, ,
0, ,-43, ,
1, ,-43, ,
1, ,-43, ,
1, ,-43, ,
1, ,-43, ,
1, ,-43, ,
1, ,-43, ,
1, ,-43, ,
1, ,-42, ,
1, ,-42, ,
1, ,-42, ,
1, ,-42, ,
1, ,-42, ,
1, ,-43, ,
1, ,-43, ,
1, ,-43, ,
1, ,-42, ,
1, ,-42, ,
1, ,-42, ,
1, ,-42, ,
1, ,-42, ,
1, ,-43, ,
1, ,-43, ,
1, ,-43, ,
1, ,-43, ,
1, ,-42, ,
1, ,-43, ,
1, ,-43, ,
1, ,-42, ,
1, ,-43, ,
1, ,-43, ,
1, ,-43, ,
1, ,-43, ,
1, ,-43, ,
1, ,-43, ,
1, ,-43, ,
1, ,-43, ,
1, ,-43, ,
1, ,-42, ,
1, ,-42, ,
1, ,-43, ,
1, ,-43, ,
1, ,-43, ,
1, ,-43, ,
1, ,-43, ,
1, ,-43, ,
1, ,-43, ,
1, ,-43, ,
1, ,-42, ,
1, ,-42, ,
1, ,-43, ,
1, ,-43, ,
1, ,-42, ,
1, ,-42, ,
1, ,-42, ,
0, ,-42, ,
0, ,-42, ,
1, ,-42, ,
1, ,-42, ,
1, ,-42, ,
1, ,-42, ,
1, ,-43, ,
1, ,-43, ,
1, ,-43, ,
1, ,-43, ,
1, ,-43, ,
1, ,-43, ,
1, ,-42, ,
1, ,-42, ,
1, ,-42, ,
1, ,-42, ,
1, ,-43, ,
1, ,-43, ,
1, ,-42, ,
1, ,-42, ,
1, ,-42, ,
1, ,-43, ,
1, ,-43, ,
1, ,-43, ,
1, ,-43, ,
1, ,-43, ,
1, ,-43, ,
1, ,-43, ,
1, ,-42, ,
1, ,-42, ,
1, ,-42, ,
1, ,-42, ,
1, ,-43, ,
1, ,-43, ,
1, ,-43, ,
1, ,-43, ,
1, ,-42, ,
1, ,-42, ,
1, ,-42, ,
1, ,-42, ,
1, ,-42, ,
1, ,-42, ,
1, ,-42, ,
1, ,-42, ,
1, ,-42, ,
1, ,-42, ,
1, ,-43, ,
1, ,-43, ,
1, ,-43, ,
1, ,-42, ,
1, ,-42, ,
1, ,-43, ,
1, ,-43, ,
1, ,-43, ,
1, ,-43, ,
1, ,-43, ,
1, ,-43, ,
1, ,-43, ,
1, ,-43, ,
1, ,-43, ,
1, ,-42, ,
1, ,-43, ,
1, ,-43, ,
1, ,-43, ,
1, ,-43, ,
1, ,-43, ,
1, ,-42, ,
1, ,-43, ,
1, ,-43, ,
1, ,-43, ,
1, ,-43, ,
1, ,-43, ,
1, ,-43, ,
1, ,-43, ,
1, ,-43, ,
0, ,-43, ,
0, ,-42, ,
1, ,-42, ,
1, ,-42, ,
1, ,-42, ,
1, ,-42, ,
1, ,-42, ,
1, ,-42, ,
1, ,-42, ,
1, ,-42, ,
1, ,-42, ,
0, ,-42, ,
0, ,-42, ,
0, ,-43, ,
1, ,-43, ,
1, ,-43, ,
1, ,-43, ,
1, ,-42, ,
1, ,-43, ,
1, ,-43, ,
1, ,-42, ,
0, ,-43, ,
0, ,-43, ,
1, ,-42, ,
1, ,-43, ,
1, ,-43, ,
1, ,-42, ,
1, ,-43, ,
2, ,-43, ,
0, ,-43, ,
0, ,-42, ,
0, ,-42, ,
11, ,-42, ,
36, ,-42, ,
112, ,-42, ,
124, ,-42, ,
122, ,-42, ,
114, ,-42, ,
6, ,-42, ,
-4, ,-42, ,
36, ,-43, ,
92, ,-43, ,
125, ,-42, ,
125, ,-43, ,
125, ,-43, ,
125, ,-43, ,
125, ,-43, ,
124, ,-42, ,
124, ,-43, ,
123, ,-43, ,
112, ,-43, ,
107, ,-43, ,
105, ,-42, ,
101, ,-42, ,
95, ,-43, ,
92, ,-43, ,
87, ,-43, ,
84, ,-42, ,
78, ,-42, ,
75, ,-42, ,
73, ,-42, ,
70, ,-42, ,
64, ,-42, ,
62, ,-42, ,
59, ,-42, ,
57, ,-42, ,
52, ,-42, ,
51, ,-42, ,
48, ,-42, ,
45, ,-42, ,
42, ,-42, ,
41, ,-42, ,
38, ,-43, ,
37, ,-43, ,
34, ,-42, ,
32, ,-42, ,
31, ,-42, ,
29, ,-42, ,
26, ,-42, ,
25, ,-42, ,
25, ,-42, ,
25, ,-42, ,
22, ,-42, ,
21, ,-42, ,
20, ,-42, ,
18, ,-42, ,
17, ,-43, ,
16, ,-43, ,
15, ,-43, ,
15, ,-43, ,
13, ,-43, ,
12, ,-43, ,
12, ,-42, ,
11, ,-42, ,
10, ,-43, ,
10, ,-43, ,
9, ,-43, ,
8, ,-42, ,
7, ,-43, ,
7, ,-43, ,
6, ,-42, ,
6, ,-42, ,
6, ,-43, ,
6, ,-43, ,
5, ,-43, ,
5, ,-42, ,
4, ,-42, ,
4, ,-43, ,
4, ,-43, ,
3, ,-43, ,
3, ,-42, ,
3, ,-42, ,
2, ,-43, ,
2, ,-43, ,
2, ,-43, ,
2, ,-43, ,
1, ,-42, ,
1, ,-43, ,
1, ,-43, ,
1, ,-42, ,
1, ,-42, ,
1, ,-42, ,
0, ,-42, ,
0, ,-43, ,
0, ,-43, ,
0, ,-43, ,
0, ,-43, ,
0, ,-43, ,
0, ,-43, ,
0, ,-43, ,
-1, ,-43, ,
-1, ,-43, ,
-1, ,-42, ,
-1, ,-42, ,
-1, ,-43, ,
-1, ,-43, ,
-1, ,-43, ,
-1, ,-43, ,
-1, ,-42, ,
-1, ,-43, ,
-1, ,-43, ,
-1, ,-43, ,
-1, ,-43, ,
-1, ,-43, ,
-1, ,-43, ,
-1, ,-42, ,
-1, ,-43, ,
-1, ,-43, ,
-1, ,-42, ,
-1, ,-42, ,
-1, ,-43, ,
-1, ,-43, ,
-1, ,-43, ,
-1, ,-43, ,
-1, ,-43, ,
-1, ,-42, ,
-1, ,-42, ,
-1, ,-42, ,
-1, ,-43, ,
-1, ,-43, ,
-1, ,-43, ,
-1, ,-42, ,
-1, ,-43, ,
-1, ,-43, ,
-1, ,-42, ,
-1, ,-43, ,
0, ,-43, ,
-1, ,-42, ,
-1, ,-43, ,
-1, ,-43, ,
-1, ,-42, ,
-1, ,-42, ,
0, ,-42, ,
-1, ,-43, ,
-1, ,-43, ,
0, ,-43, ,
-1, ,-43, ,
-1, ,-42, ,
0, ,-43, ,
-1, ,-43, ,
-1, ,-43, ,
-1, ,-43, ,
0, ,-42, ,
0, ,-42, ,
0, ,-42, ,
0, ,-42, ,
0, ,-42, ,
0, ,-43, ,
0, ,-43, ,
0, ,-43, ,
0, ,-43, ,
0, ,-43, ,
0, ,-43, ,
0, ,-42, ,
0, ,-43, ,
0, ,-43, ,
0, ,-42, ,
0, ,-42, ,
0, ,-42, ,
0, ,-42, ,
0, ,-43, ,
0, ,-43, ,
0, ,-43, ,
0, ,-43, ,
0, ,-43, ,
0, ,-43, ,
0, ,-42, ,
0, ,-42, ,
0, ,-42, ,
0, ,-42, ,
0, ,-43, ,
0, ,-43, ,
0, ,-42, ,
0, ,-43, ,
0, ,-43, ,
1, ,-42, ,
1, ,-42, ,
1, ,-42, ,
0, ,-43, ,
0, ,-43, ,
0, ,-42, ,
0, ,-42, ,
0, ,-43, ,
0, ,-43, ,
1, ,-43, ,
1, ,-42, ,
1, ,-42, ,
1, ,-42, ,
0, ,-42, ,
0, ,-42, ,
1, ,-43, ,
0, ,-43, ,
0, ,-43, ,
0, ,-43, ,
0, ,-42, ,
0, ,-42, ,
0, ,-42, ,
0, ,-42, ,
0, ,-42, ,
1, ,-42, ,
1, ,-42, ,
1, ,-42, ,
1, ,-43, ,
0, ,-43, ,
0, ,-42, ,
0, ,-42, ,
0, ,-43, ,
1, ,-43, ,
1, ,-43, ,
1, ,-42, ,
0, ,-42, ,
0, ,-43, ,
0, ,-43, ,
0, ,-43, ,
1, ,-42, ,
1, ,-42, ,
1, ,-42, ,
1, ,-42, ,
1, ,-43, ,
1, ,-43, ,
1, ,-42, ,
1, ,-43, ,
1, ,-43, ,
1, ,-42, ,
1, ,-43, ,
1, ,-43, ,
1, ,-42, ,
1, ,-43, ,
1, ,-43, ,
0, ,-43, ,
0, ,-43, ,
1, ,-43, ,
0, ,-43, ,
0, ,-43, ,
0, ,-43, ,
0, ,-43, ,
0, ,-43, ,
0, ,-43, ,
1, ,-43, ,
1, ,-42, ,
1, ,-43, ,
1, ,-43, ,
1, ,-42, ,
1, ,-43, ,
1, ,-43, ,
1, ,-43, ,
1, ,-43, ,
1, ,-43, ,
1, ,-43, ,
1, ,-42, ,
1, ,-43, ,
1, ,-43, ,
1, ,-42, ,
1, ,-42, ,
1, ,-42, ,
1, ,-42, ,
1, ,-43, ,
1, ,-43, ,
1, ,-42, ,
0, ,-43, ,
0, ,-43, ,
0, ,-43, ,
-1, ,-43, ,
-1, ,-42, ,
-2, ,-42, ,
-3, ,-42, ,
-8, ,-42, ,
-10, ,-42, ,
-13, ,-42, ,
-17, ,-43, ,
-18, ,-43, ,
-16, ,-42, ,
-15, ,-42, ,
-11, ,-42, ,
-6, ,-42, ,
-4, ,-43, ,
-2, ,-43, ,
-1, ,-43, ,
1, ,-43, ,
2, ,-43, ,
2, ,-43, ,
3, ,-42, ,
3, ,-43, ,
3, ,-43, ,
3, ,-42, ,
3, ,-43, ,
3, ,-43, ,
3, ,-42, ,
2, ,-42, ,
2, ,-42, ,
2, ,-42, ,
2, ,-43, ,
3, ,-43, ,
3, ,-43, ,
3, ,-43, ,
4, ,-43, ,
4, ,-43, ,
4, ,-42, ,
4, ,-43, ,
4, ,-43, ,
5, ,-42, ,
4, ,-42, ,
4, ,-42, ,
4, ,-42, ,
3, ,-43, ,
4, ,-43, ,
3, ,-42, ,
2, ,-42, ,
2, ,-42, ,
2, ,-42, ,
2, ,-42, ,
2, ,-42, ,
1, ,-42, ,
1, ,-42, ,
2, ,-42, ,
2, ,-42, ,
2, ,-42, ,
2, ,-43, ,
2, ,-43, ,
2, ,-42, ,
2, ,-43, ,
2, ,-43, ,
2, ,-42, ,
2, ,-43, ,
1, ,-43, ,
1, ,-43, ,
1, ,-43, ,
1, ,-43, ,
1, ,-43, ,
1, ,-42, ,
1, ,-43, ,
1, ,-43, ,
1, ,-42, ,
1, ,-42, ,
1, ,-42, ,
2, ,-42, ,
1, ,-43, ,
1, ,-43, ,
1, ,-42, ,
1, ,-43, ,
0, ,-43, ,
0, ,-43, ,
-2, ,-42, ,
-2, ,-42, ,
-4, ,-42, ,
-5, ,-42, ,
-9, ,-43, ,
-12, ,-43, ,
-13, ,-42, ,
-15, ,-42, ,
-16, ,-42, ,
-16, ,-42, ,
-16, ,-43, ,
-15, ,-43, ,
-11, ,-43, ,
-9, ,-43, ,
-7, ,-43, ,
-6, ,-43, ,
-3, ,-42, ,
-3, ,-42, ,
-1, ,-42, ,
0, ,-42, ,
-1, ,-42, ,
-1, ,-42, ,
-2, ,-42, ,
-3, ,-43, ,
-7, ,-43, ,
-8, ,-42, ,
-10, ,-43, ,
-13, ,-43, ,
-19, ,-43, ,
-22, ,-43, ,
-24, ,-43, ,
-25, ,-43, ,
-27, ,-43, ,
-27, ,-43, ,
-28, ,-43, ,
-28, ,-42, ,
-30, ,-42, ,
-30, ,-42, ,
-31, ,-42, ,
-32, ,-43, ,
-35, ,-43, ,
-36, ,-42, ,
-37, ,-42, ,
-38, ,-42, ,
-39, ,-42, ,
-39, ,-42, ,
-38, ,-42, ,
-37, ,-42, ,
-33, ,-43, ,
-29, ,-43, ,
-26, ,-43, ,
-24, ,-42, ,
-16, ,-42, ,
-13, ,-42, ,
-10, ,-42, ,
-7, ,-42, ,
-2, ,-42, ,
0, ,-42, ,
1, ,-43, ,
3, ,-43, ,
4, ,-43, ,
4, ,-43, ,
4, ,-42, ,
4, ,-42, ,
4, ,-43, ,
4, ,-43, ,
3, ,-43, ,
3, ,-42, ,
3, ,-43, ,
3, ,-43, ,
3, ,-42, ,
2, ,-43, ,
2, ,-43, ,
2, ,-42, ,
1, ,-43, ,
1, ,-43, ,
1, ,-42, ,
1, ,-42, ,
1, ,-42, ,
1, ,-42, ,
1, ,-42, ,
1, ,-42, ,
1, ,-42, ,
1, ,-42, ,
2, ,-42, ,
2, ,-42, ,
4, ,-42, ,
4, ,-43, ,
6, ,-43, ,
7, ,-42, ,
8, ,-43, ,
8, ,-43, ,
10, ,-42, ,
10, ,-42, ,
10, ,-42, ,
10, ,-43, ,
11, ,-43, ,
11, ,-42, ,
12, ,-43, ,
12, ,-43, ,
12, ,-43, ,
12, ,-43, ,
12, ,-43, ,
12, ,-43, ,
11, ,-43, ,
10, ,-43, ,
9, ,-43, ,
9, ,-43, ,
7, ,-42, ,
5, ,-42, ,
5, ,-43, ,
3, ,-43, ,
0, ,-42, ,
-1, ,-42, ,
-3, ,-43, ,
-4, ,-43, ,
-7, ,-43, ,
-9, ,-43, ,
-11, ,-43, ,
-13, ,-43, ,
-16, ,-43, ,
-18, ,-42, ,
-20, ,-42, ,
-21, ,-42, ,
-23, ,-42, ,
-25, ,-43, ,
-25, ,-43, ,
-25, ,-43, ,
-24, ,-43, ,
-24, ,-43, ,
-23, ,-43, ,
-22, ,-43, ,
-20, ,-43, ,
-19, ,-43, ,
-17, ,-42, ,
-17, ,-42, ,
-14, ,-42, ,
-13, ,-42, ,
-13, ,-43, ,
-13, ,-43, ,
-12, ,-42, ,
-12, ,-42, ,
-12, ,-42, ,
-12, ,-42, ,
-12, ,-42, ,
-11, ,-42, ,
-12, ,-43, ,
-12, ,-43, ,
-13, ,-43, ,
-13, ,-43, ,
-14, ,-42, ,
-14, ,-42, ,
-15, ,-42, ,
-14, ,-42, ,
-14, ,-43, ,
-14, ,-43, ,
-12, ,-42, ,
-12, ,-43, ,
-11, ,-43, ,
-9, ,-43, ,
-6, ,-43, ,
-5, ,-43, ,
-3, ,-43, ,
-2, ,-42, ,
0, ,-43, ,
1, ,-43, ,
1, ,-42, ,
1, ,-43, ,
0, ,-43, ,
0, ,-42, ,
-1, ,-43, ,
-1, ,-43, ,
-1, ,-42, ,
-2, ,-43, ,
-2, ,-43, ,
-2, ,-43, ,
-2, ,-43, ,
-2, ,-43, ,
-2, ,-43, ,
-3, ,-42, ,
-3, ,-43, ,
-3, ,-43, ,
-3, ,-42, ,
-3, ,-43, ,
-4, ,-43, ,
-4, ,-42, ,
-4, ,-43, ,
-4, ,-43, ,
-5, ,-42, ,
-6, ,-43, ,
-6, ,-43, ,
-8, ,-43, ,
-9, ,-42, ,
-9, ,-42, ,
-10, ,-43, ,
-11, ,-43, ,
-12, ,-43, ,
-12, ,-43, ,
-12, ,-42, ,
-12, ,-43, ,
-11, ,-43, ,
-10, ,-42, ,
-9, ,-42, ,
-8, ,-42, ,
-4, ,-42, ,
-3, ,-43, ,
-2, ,-43, ,
0, ,-43, ,
3, ,-43, ,
4, ,-43, ,
6, ,-43, ,
6, ,-42, ,
8, ,-43, ,
8, ,-43, ,
9, ,-42, ,
9, ,-43, ,
9, ,-43, ,
10, ,-42, ,
10, ,-43, ,
10, ,-43, ,
11, ,-43, ,
11, ,-43, ,
11, ,-42, ,
11, ,-43, ,
11, ,-43, ,
11, ,-42, ,
11, ,-43, ,
12, ,-43, ,
11, ,-43, ,
10, ,-43, ,
10, ,-42, ,
9, ,-43, ,
8, ,-43, ,
7, ,-42, ,
7, ,-43, ,
5, ,-43, ,
3, ,-43, ,
1, ,-43, ,
0, ,-43, ,
-2, ,-42, ,
-5, ,-42, ,
-6, ,-42, ,
-7, ,-42, ,
-8, ,-42, ,
-9, ,-43, ,
-9, ,-43, ,
-9, ,-42, ,
-9, ,-43, ,
-8, ,-43, ,
-7, ,-42, ,
-7, ,-43, ,
-6, ,-43, ,
-4, ,-42, ,
-4, ,-43, ,
-4, ,-43, ,
-5, ,-43, ,
-7, ,-43, ,
-7, ,-43, ,
-8, ,-43, ,
-10, ,-42, ,
-15, ,-43, ,
-18, ,-43, ,
-21, ,-42, ,
-25, ,-42, ,
-29, ,-42, ,
-33, ,-42, ,
-35, ,-42, ,
-38, ,-42, ,
-42, ,-42, ,
-43, ,-42, ,
-43, ,-43, ,
-43, ,-43, ,
-42, ,-42, ,
-40, ,-42, ,
-39, ,-42, ,
-36, ,-42, ,
-30, ,-42, ,
-26, ,-42, ,
-23, ,-42, ,
-20, ,-42, ,
-13, ,-42, ,
-10, ,-42, ,
-7, ,-43, ,
-5, ,-43, ,
-1, ,-42, ,
-1, ,-43, ,
0, ,-43, ,
0, ,-43, ,
-1, ,-42, ,
-2, ,-42, ,
-3, ,-42, ,
-4, ,-42, ,
-6, ,-43, ,
-7, ,-43, ,
-7, ,-42, ,
-8, ,-42, ,
-8, ,-43, ,
-8, ,-43, ,
-8, ,-43, ,
-8, ,-43, ,
-6, ,-42, ,
-6, ,-43, ,
-4, ,-43, ,
-3, ,-43, ,
0, ,-43, ,
2, ,-43, ,
4, ,-43, ,
6, ,-42, ,
10, ,-42, ,
12, ,-42, ,
14, ,-42, ,
15, ,-42, ,
16, ,-43, ,
17, ,-43, ,
17, ,-43, ,
16, ,-43, ,
15, ,-42, ,
13, ,-42, ,
12, ,-42, ,
10, ,-42, ,
6, ,-42, ,
4, ,-42, ,
1, ,-42, ,
-1, ,-42, ,
-5, ,-42, ,
-6, ,-42, ,
-7, ,-42, ,
-7, ,-42, ,
-6, ,-42, ,
-5, ,-42, ,
-4, ,-43, ,
-2, ,-43, ,
4, ,-42, ,
6, ,-43, ,
9, ,-43, ,
13, ,-43, ,
18, ,-43, ,
22, ,-43, ,
24, ,-43, ,
25, ,-42, ,
29, ,-42, ,
29, ,-42, ,
28, ,-42, ,
28, ,-42, ,
25, ,-43, ,
25, ,-43, ,
22, ,-43, ,
20, ,-42, ,
12, ,-43, ,
8, ,-43, ,
4, ,-42, ,
0, ,-42, ,
-8, ,-43, ,
-12, ,-43, ,
-15, ,-43, ,
-18, ,-42, ,
-23, ,-43, ,
-25, ,-43, ,
-26, ,-42, ,
-27, ,-42, ,
-28, ,-42, ,
-28, ,-42, ,
-28, ,-42, ,
-27, ,-42, ,
-25, ,-42, ,
-25, ,-42, ,
-24, ,-42, ,
-23, ,-42, ,
-21, ,-43, ,
-20, ,-43, ,
-19, ,-43, ,
-18, ,-42, ,
-16, ,-43, ,
-16, ,-43, ,
-15, ,-42, ,
-16, ,-42, ,
-15, ,-42, ,
-15, ,-42, ,
-15, ,-42, ,
-15, ,-42, ,
-15, ,-42, ,
-16, ,-43, ,
-16, ,-43, ,
-16, ,-43, ,
-16, ,-43, ,
-15, ,-43, ,
-15, ,-43, ,
-15, ,-43, ,
-14, ,-43, ,
-14, ,-43, ,
-12, ,-42, ,
-11, ,-43, ,
-9, ,-43, ,
-8, ,-42, ,
-7, ,-43, ,
-5, ,-43, ,
-3, ,-42, ,
-2, ,-43, ,
0, ,-43, ,
0, ,-43, ,
1, ,-43, ,
1, ,-43, ,
2, ,-43, ,
2, ,-42, ,
2, ,-43, ,
1, ,-43, ,
1, ,-42, ,
0, ,-43, ,
0, ,-43, ,
-1, ,-42, ,
-1, ,-43, ,
-2, ,-43, ,
-3, ,-42, ,
-3, ,-43, ,
-4, ,-43, ,
-4, ,-43, ,
-5, ,-43, ,
-6, ,-43, ,
-6, ,-43, ,
-6, ,-42, ,
-6, ,-43, ,
-6, ,-43, ,
-6, ,-42, ,
-6, ,-42, ,
-4, ,-43, ,
-3, ,-43, ,
-3, ,-43, ,
-2, ,-43, ,
-1, ,-42, ,
0, ,-42, ,
0, ,-42, ,
1, ,-42, ,
1, ,-42, ,
2, ,-42, ,
1, ,-42, ,
1, ,-42, ,
0, ,-42, ,
-1, ,-42, ,
-1, ,-42, ,
-3, ,-42, ,
-4, ,-43, ,
-4, ,-43, ,
-5, ,-43, ,
-5, ,-42, ,
-5, ,-42, ,
-5, ,-43, ,
-4, ,-43, ,
-4, ,-43, ,
-2, ,-42, ,
-1, ,-42, ,
1, ,-42, ,
3, ,-42, ,
5, ,-43, ,
5, ,-43, ,
7, ,-42, ,
8, ,-43, ,
9, ,-43, ,
9, ,-42, ,
9, ,-43, ,
8, ,-43, ,
7, ,-42, ,
6, ,-42, ,
6, ,-42, ,
4, ,-42, ,
1, ,-43, ,
0, ,-43, ,
-1, ,-43, ,
-1, ,-43, ,
-3, ,-42, ,
-5, ,-42, ,
-5, ,-42, ,
-5, ,-42, ,
-6, ,-42, ,
-7, ,-42, ,
-7, ,-43, ,
-7, ,-43, ,
-8, ,-42, ,
-9, ,-42, ,
-9, ,-42, ,
-10, ,-42, ,
-11, ,-43, ,
-11, ,-43, ,
-11, ,-43, ,
-11, ,-42, ,
-11, ,-43, ,
-11, ,-43, ,
-11, ,-42, ,
-11, ,-42, ,
-10, ,-43, ,
-9, ,-43, ,
-8, ,-43, ,
-7, ,-43, ,
-4, ,-42, ,
-4, ,-43, ,
-2, ,-43, ,
-1, ,-43, ,
2, ,-43, ,
4, ,-42, ,
5, ,-42, ,
6, ,-42, ,
8, ,-42, ,
9, ,-42, ,
10, ,-42, ,
10, ,-43, ,
10, ,-43, ,
9, ,-42, ,
9, ,-42, ,
9, ,-42, ,
8, ,-42, ,
8, ,-42, ,
7, ,-42, ,
6, ,-42, ,
4, ,-43, ,
4, ,-43, ,
3, ,-43, ,
3, ,-42, ,
0, ,-42, ,
0, ,-42, ,
-1, ,-42, ,
-3, ,-43, ,
-4, ,-43, ,
-4, ,-42, ,
-6, ,-43, ,
-6, ,-43, ,
-7, ,-42, ,
-7, ,-42, ,
-7, ,-42, ,
-7, ,-43, ,
-7, ,-43, ,
-6, ,-42, ,
-6, ,-42, ,
-6, ,-42, ,
-6, ,-42, ,
-6, ,-42, ,
-6, ,-42, ,
-6, ,-43, ,
-7, ,-43, ,
-8, ,-42, ,
-9, ,-43, ,
-9, ,-43, ,
-10, ,-43, ,
-10, ,-43, ,
-10, ,-43, ,
-10, ,-43, ,
-8, ,-42, ,
-7, ,-42, ,
-6, ,-43, ,
-4, ,-43, ,
1, ,-43, ,
3, ,-43, ,
6, ,-42, ,
9, ,-43, ,
14, ,-43, ,
17, ,-42, ,
18, ,-42, ,
19, ,-42, ,
20, ,-43, ,
20, ,-43, ,
19, ,-43, ,
18, ,-43, ,
14, ,-43, ,
12, ,-43, ,
9, ,-43, ,
6, ,-42, ,
0, ,-42, ,
-3, ,-42, ,
-6, ,-42, ,
-9, ,-43, ,
-14, ,-43, ,
-16, ,-42, ,
-18, ,-42, ,
-20, ,-42, ,
-20, ,-42, ,
-20, ,-42, ,
-20, ,-42, ,
-20, ,-43, ,
-18, ,-43, ,
-16, ,-43, ,
-15, ,-43, ,
-13, ,-42, ,
-8, ,-43, ,
-7, ,-43, ,
-4, ,-42, ,
-1, ,-42, ,
3, ,-42, ,
6, ,-42, ,
7, ,-42, ,
10, ,-42, ,
12, ,-43, ,
13, ,-43, ,
15, ,-43, ,
15, ,-43, ,
15, ,-43, ,
15, ,-42, ,
14, ,-42, ,
13, ,-42, ,
11, ,-43, ,
9, ,-43, ,
8, ,-42, ,
5, ,-43, ,
1, ,-43, ,
-1, ,-42, ,
-3, ,-42, ,
-5, ,-42, ,
-8, ,-42, ,
-10, ,-43, ,
-11, ,-43, ,
-12, ,-43, ,
-12, ,-43, ,
-12, ,-43, ,
-12, ,-43, ,
-11, ,-42, ,
-10, ,-43, ,
-9, ,-43, ,
-8, ,-42, ,
-7, ,-42, ,
-5, ,-42, ,
-3, ,-42, ,
-3, ,-42, ,
-1, ,-42, ,
1, ,-42, ,
2, ,-42, ,
2, ,-42, ,
3, ,-42, ,
4, ,-43, ,
6, ,-43, ,
6, ,-43, ,
6, ,-42, ,
7, ,-43, ,
6, ,-43, ,
6, ,-42, ,
6, ,-43, ,
5, ,-43, ,
5, ,-42, ,
4, ,-42, ,
4, ,-42, ,
2, ,-42, ,
1, ,-43, ,
1, ,-43, ,
-1, ,-43, ,
-1, ,-43, ,
-2, ,-43, ,
-2, ,-43, ,
-3, ,-43, ,
-3, ,-43, ,
-3, ,-43, ,
-3, ,-42, ,
-3, ,-43, ,
-3, ,-43, ,
-3, ,-42, ,
-3, ,-42, ,
-3, ,-42, ,
-3, ,-43, ,
-3, ,-43, ,
-3, ,-43, ,
-3, ,-43, ,
-3, ,-43, ,
-3, ,-43, ,
-3, ,-43, ,
-3, ,-42, ,
-2, ,-43, ,
-2, ,-43, ,
-1, ,-43, ,
-1, ,-43, ,
1, ,-42, ,
2, ,-42, ,
2, ,-42, ,
3, ,-42, ,
4, ,-42, ,
4, ,-43, ,
4, ,-43, ,
3, ,-43, ,
1, ,-43, ,
1, ,-42, ,
0, ,-42, ,
-1, ,-42, ,
-4, ,-43, ,
-6, ,-43, ,
-7, ,-42, ,
-9, ,-43, ,
-11, ,-43, ,
-11, ,-42, ,
-11, ,-43, ,
-11, ,-43, ,
-11, ,-42, ,
-10, ,-43, ,
-9, ,-43, ,
-8, ,-43, ,
-5, ,-43, ,
-4, ,-42, ,
-2, ,-43, ,
-1, ,-43, ,
2, ,-43, ,
3, ,-43, ,
4, ,-42, ,
5, ,-43, ,
6, ,-43, ,
6, ,-43, ,
6, ,-43, ,
6, ,-43, ,
5, ,-43, ,
4, ,-43, ,
4, ,-43, ,
3, ,-43, ,
2, ,-43, ,
1, ,-43, ,
0, ,-43, ,
-1, ,-42, ,
-3, ,-43, ,
-4, ,-43, ,
-4, ,-43, ,
-5, ,-43, ,
-7, ,-42, ,
-7, ,-42, ,
-7, ,-42, ,
-7, ,-42, ,
-7, ,-42, ,
-7, ,-42, ,
-7, ,-42, ,
-7, ,-42, ,
-7, ,-43, ,
-6, ,-43, ,
-6, ,-43, ,
-6, ,-42, ,
-6, ,-43, ,
-6, ,-43, ,
-5, ,-42, ,
-5, ,-42, ,
-5, ,-43, ,
-4, ,-43, ,
-4, ,-43, ,
-4, ,-42, ,
-4, ,-42, ,
-3, ,-42, ,
-3, ,-42, ,
-3, ,-42, ,
-3, ,-42, ,
-2, ,-42, ,
-2, ,-43, ,
-1, ,-43, ,
0, ,-43, ,
0, ,-43, ,
1, ,-42, ,
1, ,-43, ,
2, ,-43, ,
3, ,-42, ,
3, ,-43, ,
4, ,-43, ,
5, ,-42, ,
5, ,-43, ,
5, ,-43, ,
5, ,-43, ,
4, ,-43, ,
4, ,-43, ,
3, ,-43, ,
2, ,-42, ,
1, ,-42, ,
-1, ,-43, ,
-1, ,-43, ,
-3, ,-43, ,
-5, ,-43, ,
-6, ,-43, ,
-7, ,-43, ,
-8, ,-43, ,
-9, ,-42, ,
-9, ,-43, ,
-9, ,-43, ,
-9, ,-43, ,
-9, ,-43, ,
-8, ,-43, ,
-8, ,-43, ,
-7, ,-43, ,
-6, ,-43, ,
-5, ,-43, ,
-4, ,-42, ,
-3, ,-43, ,
-2, ,-43, ,
-1, ,-42, ,
-1, ,-43, ,
0, ,-43, ,
2, ,-42, ,
2, ,-43, ,
2, ,-43, ,
3, ,-43, ,
4, ,-42, ,
5, ,-42, ,
6, ,-42, ,
6, ,-42, ,
7, ,-42, ,
8, ,-42, ,
8, ,-42, ,
8, ,-43, ,
8, ,-43, ,
8, ,-42, ,
7, ,-42, ,
7, ,-42, ,
6, ,-42, ,
5, ,-42, ,
4, ,-42, ,
3, ,-42, ,
1, ,-43, ,
1, ,-43, ,
-1, ,-43, ,
-1, ,-42, ,
-2, ,-43, ,
-3, ,-43, ,
-3, ,-43, ,
-3, ,-43, ,
-4, ,-42, ,
-4, ,-42, ,
-4, ,-43, ,
-3, ,-43, ,
-2, ,-42, ,
-2, ,-42, ,
-2, ,-42, ,
-2, ,-42, ,
0, ,-43, ,
0, ,-43, ,
1, ,-43, ,
1, ,-43, ,
2, ,-43, ,
3, ,-43, ,
4, ,-42, ,
4, ,-42, ,
6, ,-43, ,
7, ,-43, ,
7, ,-43, ,
7, ,-42, ,
7, ,-42, ,
7, ,-43, ,
7, ,-43, ,
6, ,-43, ,
4, ,-43, ,
4, ,-43, ,
2, ,-43, ,
2, ,-42, ,
-1, ,-42, ,
-2, ,-43, ,
-4, ,-43, ,
-5, ,-43, ,
-7, ,-43, ,
-8, ,-43, ,
-8, ,-43, ,
-8, ,-42, ,
-9, ,-42, ,
-9, ,-43, ,
-8, ,-43, ,
-8, ,-43, ,
-7, ,-43, ,
-6, ,-43, ,
-6, ,-43, ,
-5, ,-43, ,
-4, ,-43, ,
-3, ,-43, ,
-2, ,-43, ,
-2, ,-43, ,
0, ,-43, ,
1, ,-42, ,
2, ,-43, ,
3, ,-43, ,
4, ,-42, ,
4, ,-43, ,
5, ,-43, ,
5, ,-43, ,
5, ,-43, ,
5, ,-43, ,
5, ,-43, ,
5, ,-42, ,
5, ,-43, ,
4, ,-43, ,
4, ,-42, ,
4, ,-42, ,
3, ,-42, ,
3, ,-42, ,
2, ,-42, ,
2, ,-42, ,
1, ,-42, ,
1, ,-43, ,
1, ,-43, ,
0, ,-43, ,
0, ,-42, ,
0, ,-42, ,
-1, ,-42, ,
-1, ,-42, ,
-1, ,-43, ,
-1, ,-43, ,
-1, ,-42, ,
-1, ,-43, ,
0, ,-43, ,
1, ,-42, ,
1, ,-43, ,
1, ,-43, ,
2, ,-42, ,
2, ,-43, ,
2, ,-43, ,
1, ,-43, ,
0, ,-43, ,
0, ,-43, ,
-1, ,-43, ,
-1, ,-43, ,
-3, ,-43, ,
-4, ,-43, ,
-4, ,-42, ,
-6, ,-43, ,
-7, ,-43, ,
-7, ,-42, ,
-7, ,-43, ,
-7, ,-43, ,
-6, ,-42, ,
-5, ,-42, ,
-5, ,-42, ,
-4, ,-42, ,
-2, ,-43, ,
0, ,-43, ,
1, ,-43, ,
2, ,-42, ,
4, ,-43, ,
4, ,-43, ,
5, ,-42, ,
5, ,-43, ,
6, ,-43, ,
6, ,-42, ,
6, ,-42, ,
7, ,-42, ,
7, ,-42, ,
7, ,-43, ,
7, ,-43, ,
7, ,-43, ,
7, ,-43, ,
7, ,-43, ,
6, ,-43, ,
6, ,-42, ,
6, ,-43, ,
5, ,-43, ,
5, ,-42, ,
4, ,-42, ,
3, ,-42, ,
2, ,-42, ,
1, ,-43, ,
0, ,-43, ,
-2, ,-42, ,
-4, ,-42, ,
-4, ,-42, ,
-6, ,-42, ,
-8, ,-42, ,
-9, ,-42, ,
-10, ,-42, ,
-10, ,-42, ,
-11, ,-42, ,
-11, ,-43, ,
-11, ,-43, ,
-11, ,-43, ,
-10, ,-42, ,
-10, ,-42, ,
-9, ,-43, ,
-8, ,-43, ,
-6, ,-42, ,
-6, ,-43, ,
-4, ,-43, ,
-3, ,-43, ,
-2, ,-42, ,
0, ,-42, ,
1, ,-42, ,
2, ,-42, ,
4, ,-43, ,
4, ,-43, ,
5, ,-42, ,
5, ,-43, ,
5, ,-43, ,
5, ,-42, ,
5, ,-42, ,
5, ,-42, ,
5, ,-42, ,
4, ,-43, ,
4, ,-43, ,
3, ,-43, ,
3, ,-43, ,
3, ,-43, ,
2, ,-43, ,
2, ,-42, ,
2, ,-43, ,
2, ,-43, ,
3, ,-42, ,
3, ,-43, ,
3, ,-43, ,
3, ,-42, ,
3, ,-43, ,
3, ,-43, ,
2, ,-42, ,
2, ,-42, ,
2, ,-42, ,
2, ,-42, ,
1, ,-43, ,
1, ,-43, ,
0, ,-43, ,
0, ,-42, ,
0, ,-43, ,
-1, ,-43, ,
-1, ,-43, ,
-1, ,-43, ,
-1, ,-43, ,
0, ,-42, ,
0, ,-43, ,
0, ,-43, ,
1, ,-42, ,
2, ,-43, ,
3, ,-43, ,
3, ,-43, ,
4, ,-42, ,
5, ,-42, ,
6, ,-42, ,
7, ,-42, ,
7, ,-43, ,
7, ,-43, ,
8, ,-42, ,
8, ,-43, ,
8, ,-43, ,
8, ,-42, ,
7, ,-43, ,
7, ,-43, ,
6, ,-42, ,
5, ,-43, ,
5, ,-43, ,
4, ,-43, ,
2, ,-43, ,
2, ,-43, ,
1, ,-43, ,
0, ,-42, ,
-2, ,-43, ,
-3, ,-43, ,
-3, ,-43, ,
-5, ,-43, ,
-6, ,-42, ,
-6, ,-42, ,
-7, ,-42, ,
-7, ,-42, ,
-8, ,-43, ,
-8, ,-43, ,
-7, ,-43, ,
-7, ,-43, ,
-7, ,-43, ,
-6, ,-43, ,
-6, ,-43, ,
-5, ,-43, ,
-4, ,-43, ,
-4, ,-43, ,
-2, ,-42, ,
-2, ,-43, ,
-1, ,-43, ,
0, ,-42, ,
0, ,-42, ,
1, ,-42, ,
3, ,-42, ,
3, ,-43, ,
3, ,-43, ,
4, ,-43, ,
4, ,-43, ,
5, ,-43, ,
5, ,-43, ,
5, ,-42, ,
5, ,-43, ,
4, ,-43, ,
4, ,-43, ,
4, ,-43, ,
3, ,-42, ,
2, ,-42, ,
2, ,-43, ,
2, ,-43, ,
1, ,-43, ,
1, ,-43, ,
1, ,-43, ,
1, ,-43, ,
1, ,-43, ,
1, ,-43, ,
2, ,-43, ,
2, ,-42, ,
3, ,-43, ,
3, ,-43, ,
5, ,-42, ,
5, ,-42, ,
6, ,-42, ,
6, ,-42, ,
6, ,-43, ,
6, ,-43, ,
5, ,-43, ,
5, ,-43, ,
4, ,-43, ,
3, ,-43, ,
2, ,-43, ,
1, ,-43, ,
-1, ,-43, ,
-1, ,-42, ,
-4, ,-42, ,
-5, ,-43, ,
-6, ,-43, ,
-7, ,-43, ,
-8, ,-42, ,
-8, ,-42, ,
-8, ,-43, ,
-7, ,-43, ,
-6, ,-42, ,
-6, ,-42, ,
-5, ,-42, ,
-4, ,-43, ,
-2, ,-43, ,
-1, ,-42, ,
0, ,-42, ,
1, ,-42, ,
3, ,-42, ,
4, ,-42, ,
5, ,-42, ,
