raw_data/75% Glycerol, Impulsion 2Hz, Sonde 5MHz, Rampe 0.7Hz/temp0000316.CSV

Format,1.0B,
Memory Length,10000,Memory Length,10000,
IntpDistance,0,IntpDistance,0,
Trigger Address,159,Trigger Address,159,
Trigger Level,2.720E-01,Trigger Level,2.720E-01,
Source,CH1,Source,CH2,
Vertical Units,V,Vertical Units,V,
Vertical Units Div,0,Vertical Units Div,0,
Vertical Units Extend Div,16,Vertical Units Extend Div,16,
Label,,Label,,
Probe Type,0,Probe Type,0,
Probe Ratio,1.000e+00,Probe Ratio,1.000e+00,
Vertical Scale,5.000e-01,Vertical Scale,2.000e+00,
Vertical Position,0.000e+00,Vertical Position,0.000e+00,
Horizontal Units,S,Horizontal Units,S,
Horizontal Scale,5.000E-06,Horizontal Scale,5.000E-06,
Horizontal Position,2.420E-05,Horizontal Position,2.420E-05,
Horizontal Mode,Main,Horizontal Mode,Main,
SincET Mode,Real Time,SincET Mode,Real Time,
Sampling Period,5.000e-09,Sampling Period,5.000e-09,
Horizontal Old Scale,5.000E-06,Horizontal Old Scale,5.000E-06,
Horizontal Old Position,2.420E-05,Horizontal Old Position,2.420E-05,
Firmware,V1.32,Firmware,V1.32,
Mode,Fast,Mode,Fast,
Waveform Data,,Waveform Data,,
1, ,9, ,
1, ,9, ,
1, ,9, ,
1, ,9, ,
1, ,9, ,
1, ,9, ,
1, ,9, ,
1, ,9, ,
1, ,9, ,
1, ,9, ,
1, ,9, ,
1, ,9, ,
1, ,9, ,
1, ,9, ,
1, ,9, ,
1, ,9, ,
1, ,9, ,
1, ,9, ,
1, ,9, ,
1, ,9, ,
1, ,9, ,
0, ,9, ,
0, ,9, ,
1, ,9, ,
1, ,9, ,
1, ,9, ,
1, ,9, ,
1, ,9, ,
1, ,9, ,
1, ,9, ,
1, ,9, ,
1, ,9, ,
1, ,9, ,
1, ,9, ,
1, ,9, ,
1, ,9, ,
1, ,9, ,
1, ,9, ,
1, ,9, ,
1, ,9, ,
1, ,9, ,
1, ,9, ,
1, ,9, ,
1, ,9, ,
1, ,9, ,
1, ,9, ,
1, ,9, ,
1, ,9, ,
1, ,9, ,
1, ,9, ,
1, ,9, ,
1, ,9, ,
1, ,9, ,
1, ,9, ,
1, ,9, ,
1, ,9, ,
1, ,9, ,
1, ,9, ,
1, ,9, ,
1, ,9, ,
1, ,9, ,
0, ,9, ,
0, ,9, ,
0, ,9, ,
1, ,9, ,
1, ,9, ,
1, ,9, ,
1, ,9, ,
1, ,9, ,
1, ,9, ,
1, ,9, ,
1, ,9, ,
1, ,9, ,
1, ,9, ,
0, ,9, ,
0, ,9, ,
0, ,9, ,
1, ,9, ,
1, ,9, ,
1, ,9, ,
1, ,9, ,
1, ,9, ,
1, ,9, ,
1, ,9, ,
1, ,9, ,
1, ,9, ,
1, ,9, ,
1, ,9, ,
1, ,9, ,
1, ,9, ,
1, ,9, ,
1, ,9, ,
1, ,9, ,
1, ,9, ,
0, ,9, ,
0, ,9, ,
0, ,9, ,
1, ,9, ,
1, ,9, ,
1, ,9, ,
1, ,9, ,
1, ,9, ,
0, ,9, ,
0, ,9, ,
0, ,9, ,
1, ,9, ,
1, ,9, ,
1, ,9, ,
1, ,9, ,
1, ,9, ,
1, ,9, ,
1, ,9, ,
1, ,9, ,
1, ,9, ,
1, ,9, ,
1, ,9, ,
1, ,9, ,
1, ,9, ,
1, ,9, ,
1, ,9, ,
1, ,9, ,
1, ,9, ,
1, ,9, ,
1, ,9, ,
1, ,9, ,
0, ,9, ,
0, ,9, ,
1, ,9, ,
1, ,9, ,
0, ,9, ,
0, ,9, ,
0, ,9, ,
1, ,9, ,
1, ,9, ,
1, ,9, ,
1, ,9, ,
1, ,9, ,
1, ,9, ,
1, ,9, ,
1, ,9, ,
1, ,9, ,
0, ,9, ,
0, ,9, ,
1, ,9, ,
1, ,9, ,
1, ,9, ,
1, ,9, ,
1, ,9, ,
1, ,9, ,
1, ,9, ,
0, ,9, ,
0, ,9, ,
0, ,9, ,
1, ,9, ,
1, ,9, ,
1, ,9, ,
1, ,9, ,
1, ,9, ,
1, ,9, ,
1, ,9, ,
1, ,9, ,
1, ,9, ,
2, ,9, ,
1, ,9, ,
2, ,9, ,
0, ,9, ,
-1, ,9, ,
0, ,9, ,
13, ,9, ,
75, ,9, ,
116, ,9, ,
124, ,9, ,
122, ,9, ,
56, ,9, ,
3, ,9, ,
-2, ,9, ,
40, ,9, ,
125, ,9, ,
125, ,9, ,
125, ,9, ,
125, ,9, ,
125, ,9, ,
125, ,9, ,
124, ,9, ,
124, ,9, ,
116, ,9, ,
112, ,9, ,
107, ,9, ,
104, ,9, ,
98, ,9, ,
94, ,9, ,
91, ,9, ,
87, ,9, ,
80, ,9, ,
78, ,9, ,
75, ,9, ,
73, ,9, ,
67, ,9, ,
64, ,9, ,
62, ,9, ,
58, ,9, ,
54, ,9, ,
52, ,9, ,
49, ,9, ,
48, ,9, ,
44, ,9, ,
42, ,9, ,
40, ,9, ,
38, ,9, ,
35, ,9, ,
34, ,9, ,
32, ,9, ,
31, ,9, ,
27, ,9, ,
26, ,9, ,
25, ,9, ,
24, ,9, ,
22, ,9, ,
22, ,9, ,
20, ,9, ,
20, ,9, ,
18, ,9, ,
17, ,9, ,
16, ,9, ,
15, ,9, ,
14, ,9, ,
13, ,9, ,
12, ,9, ,
12, ,9, ,
10, ,9, ,
9, ,9, ,
9, ,9, ,
8, ,9, ,
8, ,9, ,
8, ,9, ,
7, ,9, ,
6, ,9, ,
6, ,9, ,
5, ,9, ,
5, ,9, ,
5, ,9, ,
4, ,9, ,
3, ,9, ,
3, ,9, ,
3, ,9, ,
3, ,9, ,
2, ,9, ,
2, ,9, ,
1, ,9, ,
1, ,9, ,
1, ,9, ,
1, ,9, ,
1, ,9, ,
1, ,9, ,
1, ,9, ,
1, ,9, ,
0, ,9, ,
0, ,9, ,
0, ,9, ,
0, ,9, ,
0, ,9, ,
-1, ,9, ,
-1, ,9, ,
-1, ,9, ,
-1, ,9, ,
-1, ,9, ,
-1, ,9, ,
-1, ,9, ,
-1, ,9, ,
-1, ,9, ,
-1, ,9, ,
-1, ,9, ,
-1, ,9, ,
-1, ,9, ,
-1, ,9, ,
-1, ,9, ,
-1, ,9, ,
-1, ,9, ,
-1, ,9, ,
-1, ,9, ,
-1, ,9, ,
-1, ,9, ,
-1, ,9, ,
-1, ,9, ,
-1, ,9, ,
-1, ,9, ,
-1, ,9, ,
-1, ,9, ,
-1, ,9, ,
-1, ,9, ,
-1, ,9, ,
-1, ,9, ,
-1, ,9, ,
-1, ,9, ,
-1, ,9, ,
-1, ,9, ,
-1, ,9, ,
-1, ,9, ,
-1, ,9, ,
-1, ,9, ,
-1, ,9, ,
-1, ,9, ,
-1, ,9, ,
-1, ,9, ,
-1, ,9, ,
-1, ,9, ,
-1, ,9, ,
-1, ,9, ,
-1, ,9, ,
-1, ,9, ,
0, ,9, ,
-1, ,9, ,
-1, ,9, ,
-1, ,9, ,
-1, ,9, ,
-1, ,9, ,
0, ,9, ,
0, ,9, ,
-1, ,9, ,
-1, ,9, ,
-1, ,9, ,
-1, ,9, ,
-1, ,9, ,
-1, ,9, ,
0, ,9, ,
0, ,9, ,
0, ,9, ,
0, ,9, ,
0, ,9, ,
0, ,9, ,
0, ,9, ,
0, ,9, ,
0, ,9, ,
0, ,9, ,
0, ,9, ,
0, ,9, ,
0, ,9, ,
0, ,9, ,
0, ,9, ,
0, ,9, ,
0, ,9, ,
0, ,9, ,
0, ,9, ,
0, ,9, ,
0, ,9, ,
0, ,9, ,
0, ,9, ,
0, ,9, ,
0, ,9, ,
0, ,9, ,
0, ,9, ,
0, ,9, ,
0, ,9, ,
0, ,9, ,
0, ,9, ,
0, ,9, ,
0, ,9, ,
0, ,9, ,
0, ,9, ,
0, ,9, ,
0, ,9, ,
0, ,9, ,
0, ,9, ,
0, ,9, ,
0, ,9, ,
0, ,9, ,
0, ,9, ,
0, ,9, ,
0, ,9, ,
0, ,9, ,
0, ,9, ,
0, ,9, ,
0, ,9, ,
0, ,9, ,
0, ,9, ,
1, ,9, ,
0, ,9, ,
0, ,9, ,
0, ,9, ,
0, ,9, ,
0, ,9, ,
0, ,9, ,
0, ,9, ,
0, ,9, ,
0, ,9, ,
0, ,9, ,
0, ,9, ,
0, ,9, ,
0, ,9, ,
0, ,9, ,
0, ,9, ,
0, ,9, ,
0, ,9, ,
0, ,9, ,
0, ,9, ,
0, ,9, ,
0, ,9, ,
0, ,9, ,
0, ,9, ,
1, ,9, ,
0, ,9, ,
0, ,9, ,
0, ,9, ,
0, ,9, ,
0, ,9, ,
0, ,9, ,
0, ,9, ,
0, ,9, ,
0, ,9, ,
0, ,9, ,
0, ,9, ,
0, ,9, ,
0, ,9, ,
0, ,9, ,
0, ,9, ,
0, ,9, ,
0, ,9, ,
0, ,9, ,
0, ,9, ,
0, ,9, ,
0, ,9, ,
1, ,9, ,
0, ,9, ,
0, ,9, ,
0, ,9, ,
0, ,9, ,
0, ,9, ,
0, ,9, ,
0, ,9, ,
0, ,9, ,
0, ,9, ,
0, ,9, ,
0, ,9, ,
1, ,9, ,
1, ,9, ,
1, ,9, ,
0, ,9, ,
0, ,9, ,
0, ,9, ,
0, ,9, ,
-1, ,9, ,
-2, ,9, ,
-2, ,9, ,
-3, ,9, ,
-3, ,9, ,
-3, ,9, ,
-3, ,9, ,
-2, ,9, ,
-2, ,9, ,
-1, ,9, ,
-1, ,9, ,
-1, ,9, ,
0, ,9, ,
1, ,9, ,
1, ,9, ,
1, ,9, ,
1, ,9, ,
1, ,9, ,
1, ,9, ,
1, ,9, ,
1, ,9, ,
0, ,9, ,
-1, ,9, ,
-1, ,9, ,
-1, ,9, ,
-2, ,9, ,
-2, ,9, ,
-2, ,9, ,
-1, ,9, ,
-1, ,9, ,
0, ,9, ,
1, ,9, ,
1, ,9, ,
1, ,9, ,
1, ,9, ,
1, ,9, ,
1, ,9, ,
2, ,9, ,
1, ,9, ,
1, ,9, ,
1, ,9, ,
1, ,9, ,
0, ,9, ,
0, ,9, ,
0, ,9, ,
-1, ,9, ,
-2, ,9, ,
-2, ,9, ,
-2, ,9, ,
-1, ,9, ,
-1, ,9, ,
-1, ,9, ,
0, ,9, ,
0, ,9, ,
0, ,9, ,
1, ,9, ,
1, ,9, ,
1, ,9, ,
1, ,9, ,
1, ,9, ,
1, ,9, ,
1, ,9, ,
1, ,9, ,
1, ,9, ,
1, ,9, ,
1, ,9, ,
1, ,9, ,
1, ,9, ,
2, ,9, ,
2, ,9, ,
2, ,9, ,
2, ,9, ,
2, ,9, ,
2, ,9, ,
2, ,9, ,
2, ,9, ,
2, ,9, ,
1, ,9, ,
1, ,9, ,
0, ,9, ,
0, ,9, ,
-1, ,9, ,
-2, ,9, ,
-4, ,9, ,
-5, ,9, ,
-7, ,9, ,
-10, ,9, ,
-11, ,9, ,
-12, ,9, ,
-14, ,9, ,
-14, ,9, ,
-14, ,9, ,
-13, ,9, ,
-13, ,9, ,
-13, ,9, ,
-13, ,9, ,
-14, ,9, ,
-16, ,9, ,
-16, ,9, ,
-18, ,9, ,
-20, ,9, ,
-25, ,9, ,
-28, ,9, ,
-31, ,9, ,
-34, ,9, ,
-38, ,9, ,
-38, ,9, ,
-38, ,9, ,
-38, ,9, ,
-35, ,9, ,
-34, ,9, ,
-31, ,9, ,
-30, ,9, ,
-26, ,9, ,
-25, ,9, ,
-24, ,9, ,
-23, ,9, ,
-23, ,9, ,
-23, ,9, ,
-23, ,9, ,
-23, ,9, ,
-22, ,9, ,
-22, ,9, ,
-21, ,9, ,
-19, ,9, ,
-16, ,9, ,
-15, ,9, ,
-12, ,9, ,
-10, ,9, ,
-6, ,9, ,
-5, ,9, ,
-3, ,9, ,
-2, ,9, ,
-1, ,9, ,
-1, ,9, ,
-2, ,9, ,
-2, ,9, ,
-4, ,9, ,
-5, ,9, ,
-6, ,9, ,
-7, ,9, ,
-9, ,9, ,
-9, ,9, ,
-9, ,9, ,
-9, ,9, ,
-9, ,9, ,
-7, ,9, ,
-6, ,9, ,
-5, ,9, ,
-2, ,9, ,
-1, ,9, ,
1, ,9, ,
3, ,9, ,
6, ,9, ,
8, ,9, ,
9, ,9, ,
11, ,9, ,
13, ,9, ,
14, ,9, ,
15, ,9, ,
16, ,9, ,
18, ,9, ,
19, ,9, ,
19, ,9, ,
20, ,9, ,
21, ,9, ,
21, ,9, ,
21, ,9, ,
21, ,9, ,
20, ,9, ,
20, ,9, ,
19, ,9, ,
18, ,9, ,
15, ,9, ,
13, ,9, ,
12, ,9, ,
9, ,9, ,
4, ,9, ,
1, ,9, ,
-3, ,9, ,
-6, ,9, ,
-11, ,9, ,
-15, ,9, ,
-17, ,9, ,
-21, ,9, ,
-24, ,9, ,
-24, ,9, ,
-24, ,9, ,
-24, ,9, ,
-22, ,9, ,
-21, ,9, ,
-18, ,9, ,
-17, ,9, ,
-12, ,9, ,
-10, ,9, ,
-7, ,9, ,
-6, ,9, ,
-2, ,9, ,
-1, ,9, ,
-1, ,9, ,
-1, ,9, ,
-1, ,9, ,
-1, ,9, ,
-2, ,9, ,
-3, ,9, ,
-5, ,9, ,
-6, ,9, ,
-6, ,9, ,
-8, ,9, ,
-10, ,9, ,
-11, ,9, ,
-13, ,9, ,
-13, ,9, ,
-17, ,9, ,
-18, ,9, ,
-20, ,9, ,
-21, ,9, ,
-24, ,9, ,
-24, ,9, ,
-25, ,9, ,
-25, ,9, ,
-25, ,9, ,
-24, ,9, ,
-23, ,9, ,
-22, ,9, ,
-20, ,9, ,
-18, ,9, ,
-17, ,9, ,
-15, ,9, ,
-13, ,9, ,
-12, ,9, ,
-10, ,9, ,
-9, ,9, ,
-6, ,9, ,
-4, ,9, ,
-3, ,9, ,
-2, ,9, ,
0, ,9, ,
1, ,9, ,
1, ,9, ,
1, ,9, ,
2, ,9, ,
1, ,9, ,
1, ,9, ,
0, ,9, ,
-1, ,9, ,
-2, ,9, ,
-3, ,9, ,
-3, ,9, ,
-5, ,9, ,
-5, ,9, ,
-6, ,9, ,
-6, ,9, ,
-6, ,9, ,
-6, ,9, ,
-6, ,9, ,
-6, ,9, ,
-6, ,9, ,
-6, ,9, ,
-6, ,9, ,
-5, ,9, ,
-4, ,9, ,
-3, ,9, ,
-2, ,9, ,
-3, ,9, ,
-1, ,9, ,
-1, ,9, ,
-1, ,9, ,
-1, ,9, ,
-2, ,9, ,
-3, ,9, ,
-3, ,9, ,
-5, ,9, ,
-7, ,9, ,
-8, ,9, ,
-10, ,9, ,
-11, ,9, ,
-13, ,9, ,
-13, ,9, ,
-13, ,9, ,
-13, ,9, ,
-12, ,9, ,
-11, ,9, ,
-10, ,9, ,
-8, ,9, ,
-5, ,9, ,
-2, ,9, ,
-1, ,9, ,
2, ,9, ,
5, ,9, ,
7, ,9, ,
9, ,9, ,
11, ,9, ,
14, ,9, ,
14, ,9, ,
15, ,9, ,
15, ,9, ,
15, ,9, ,
14, ,9, ,
14, ,9, ,
13, ,9, ,
11, ,9, ,
10, ,9, ,
9, ,9, ,
7, ,9, ,
5, ,9, ,
4, ,9, ,
3, ,9, ,
2, ,9, ,
1, ,9, ,
1, ,9, ,
0, ,9, ,
0, ,9, ,
0, ,9, ,
1, ,9, ,
1, ,9, ,
2, ,9, ,
3, ,9, ,
3, ,9, ,
4, ,9, ,
4, ,9, ,
4, ,9, ,
4, ,9, ,
3, ,9, ,
3, ,9, ,
2, ,9, ,
0, ,9, ,
-1, ,9, ,
-2, ,9, ,
-5, ,9, ,
-7, ,9, ,
-9, ,9, ,
-11, ,9, ,
-16, ,9, ,
-18, ,9, ,
-21, ,9, ,
-24, ,9, ,
-27, ,9, ,
-29, ,9, ,
-32, ,9, ,
-34, ,9, ,
-36, ,9, ,
-39, ,9, ,
-40, ,9, ,
-41, ,9, ,
-42, ,9, ,
-42, ,9, ,
-42, ,9, ,
-41, ,9, ,
-40, ,9, ,
-40, ,9, ,
-37, ,9, ,
-35, ,9, ,
-31, ,9, ,
-27, ,9, ,
-25, ,9, ,
-23, ,9, ,
-17, ,9, ,
-14, ,9, ,
-11, ,9, ,
-8, ,9, ,
-3, ,9, ,
-1, ,9, ,
1, ,9, ,
3, ,9, ,
5, ,9, ,
6, ,9, ,
7, ,9, ,
7, ,9, ,
7, ,9, ,
7, ,9, ,
7, ,9, ,
7, ,9, ,
6, ,9, ,
6, ,9, ,
6, ,9, ,
5, ,9, ,
4, ,9, ,
4, ,9, ,
3, ,9, ,
3, ,9, ,
1, ,9, ,
0, ,9, ,
0, ,9, ,
0, ,9, ,
0, ,9, ,
0, ,9, ,
0, ,9, ,
0, ,9, ,
0, ,9, ,
1, ,9, ,
1, ,9, ,
1, ,9, ,
2, ,9, ,
3, ,9, ,
4, ,9, ,
4, ,9, ,
5, ,9, ,
5, ,9, ,
6, ,9, ,
6, ,9, ,
5, ,9, ,
5, ,9, ,
5, ,9, ,
5, ,9, ,
5, ,9, ,
4, ,9, ,
4, ,9, ,
3, ,9, ,
3, ,9, ,
3, ,9, ,
3, ,9, ,
3, ,9, ,
4, ,9, ,
4, ,9, ,
5, ,9, ,
5, ,9, ,
6, ,9, ,
7, ,9, ,
7, ,9, ,
7, ,9, ,
7, ,9, ,
7, ,9, ,
7, ,9, ,
6, ,9, ,
4, ,9, ,
4, ,9, ,
2, ,9, ,
2, ,9, ,
-1, ,9, ,
-3, ,9, ,
-4, ,9, ,
-6, ,9, ,
-9, ,9, ,
-10, ,9, ,
-12, ,9, ,
-13, ,9, ,
-14, ,9, ,
-15, ,9, ,
-15, ,9, ,
-15, ,9, ,
-15, ,9, ,
-14, ,9, ,
-14, ,9, ,
-13, ,9, ,
-12, ,9, ,
-11, ,9, ,
-11, ,9, ,
-11, ,9, ,
-9, ,9, ,
-9, ,9, ,
-9, ,9, ,
-8, ,9, ,
-8, ,9, ,
-9, ,9, ,
-9, ,9, ,
-9, ,9, ,
-10, ,9, ,
-11, ,9, ,
-11, ,9, ,
-12, ,9, ,
-14, ,9, ,
-14, ,9, ,
-15, ,9, ,
-15, ,9, ,
-16, ,9, ,
-17, ,9, ,
-17, ,9, ,
-17, ,9, ,
-17, ,9, ,
-16, ,9, ,
-16, ,9, ,
-15, ,9, ,
-14, ,9, ,
-13, ,9, ,
-13, ,9, ,
-11, ,9, ,
-9, ,9, ,
-8, ,9, ,
-7, ,9, ,
-7, ,9, ,
-5, ,9, ,
-4, ,9, ,
-4, ,9, ,
-4, ,9, ,
-4, ,9, ,
-4, ,9, ,
-4, ,9, ,
-4, ,9, ,
-5, ,9, ,
-5, ,9, ,
-5, ,9, ,
-5, ,9, ,
-6, ,9, ,
-6, ,9, ,
-6, ,9, ,
-6, ,9, ,
-5, ,9, ,
-4, ,9, ,
-3, ,9, ,
-2, ,9, ,
0, ,9, ,
0, ,9, ,
1, ,9, ,
1, ,9, ,
3, ,9, ,
3, ,9, ,
4, ,9, ,
5, ,9, ,
5, ,9, ,
5, ,9, ,
5, ,9, ,
5, ,9, ,
4, ,9, ,
4, ,9, ,
3, ,9, ,
3, ,9, ,
2, ,9, ,
1, ,9, ,
1, ,9, ,
-1, ,9, ,
-2, ,9, ,
-4, ,9, ,
-4, ,9, ,
-5, ,9, ,
-8, ,9, ,
-9, ,9, ,
-9, ,9, ,
-10, ,9, ,
-11, ,9, ,
-11, ,9, ,
-11, ,9, ,
-11, ,9, ,
-10, ,9, ,
-9, ,9, ,
-9, ,9, ,
-8, ,9, ,
-6, ,9, ,
-5, ,9, ,
-4, ,9, ,
-3, ,9, ,
-1, ,9, ,
0, ,9, ,
1, ,9, ,
1, ,9, ,
3, ,9, ,
3, ,9, ,
3, ,9, ,
4, ,9, ,
4, ,9, ,
4, ,9, ,
4, ,9, ,
4, ,9, ,
4, ,9, ,
4, ,9, ,
3, ,9, ,
3, ,9, ,
3, ,9, ,
2, ,9, ,
2, ,9, ,
1, ,9, ,
0, ,9, ,
0, ,9, ,
-1, ,9, ,
-1, ,9, ,
-2, ,9, ,
-2, ,9, ,
-2, ,9, ,
-2, ,9, ,
-2, ,9, ,
-2, ,9, ,
-2, ,9, ,
-1, ,9, ,
-1, ,9, ,
-1, ,9, ,
0, ,9, ,
0, ,9, ,
0, ,9, ,
1, ,9, ,
0, ,9, ,
0, ,9, ,
1, ,9, ,
1, ,9, ,
1, ,9, ,
1, ,9, ,
2, ,9, ,
2, ,9, ,
2, ,9, ,
2, ,9, ,
3, ,9, ,
3, ,9, ,
3, ,9, ,
2, ,9, ,
1, ,9, ,
1, ,9, ,
1, ,9, ,
1, ,9, ,
-1, ,9, ,
-2, ,9, ,
-3, ,9, ,
-3, ,9, ,
-5, ,9, ,
-6, ,9, ,
-8, ,9, ,
-8, ,9, ,
-10, ,9, ,
-11, ,9, ,
-11, ,9, ,
-11, ,9, ,
-11, ,9, ,
-10, ,9, ,
-11, ,9, ,
-10, ,9, ,
-9, ,9, ,
-9, ,9, ,
-8, ,9, ,
-8, ,9, ,
-7, ,9, ,
-6, ,9, ,
-5, ,9, ,
-4, ,9, ,
-3, ,9, ,
-2, ,9, ,
0, ,9, ,
0, ,9, ,
2, ,9, ,
3, ,9, ,
3, ,9, ,
3, ,9, ,
4, ,9, ,
4, ,9, ,
4, ,9, ,
4, ,9, ,
4, ,9, ,
3, ,9, ,
3, ,9, ,
3, ,9, ,
2, ,9, ,
1, ,9, ,
1, ,9, ,
1, ,9, ,
1, ,9, ,
1, ,9, ,
1, ,9, ,
2, ,9, ,
2, ,9, ,
2, ,9, ,
2, ,9, ,
1, ,9, ,
1, ,9, ,
1, ,9, ,
1, ,9, ,
1, ,9, ,
0, ,9, ,
-1, ,9, ,
-1, ,9, ,
-2, ,9, ,
-2, ,9, ,
-2, ,9, ,
-2, ,9, ,
-2, ,9, ,
-1, ,9, ,
-1, ,9, ,
0, ,9, ,
1, ,9, ,
2, ,9, ,
3, ,9, ,
3, ,9, ,
4, ,9, ,
4, ,9, ,
3, ,9, ,
3, ,9, ,
2, ,9, ,
0, ,9, ,
0, ,9, ,
-1, ,9, ,
-3, ,9, ,
-5, ,9, ,
-8, ,9, ,
-9, ,9, ,
-10, ,9, ,
-13, ,9, ,
-13, ,9, ,
-14, ,9, ,
-14, ,9, ,
-13, ,9, ,
-13, ,9, ,
-12, ,9, ,
-11, ,9, ,
-9, ,9, ,
-7, ,9, ,
-6, ,9, ,
-5, ,9, ,
-1, ,9, ,
0, ,9, ,
1, ,9, ,
2, ,9, ,
3, ,9, ,
4, ,9, ,
4, ,9, ,
5, ,9, ,
5, ,9, ,
5, ,9, ,
5, ,9, ,
5, ,9, ,
5, ,9, ,
5, ,9, ,
4, ,9, ,
4, ,9, ,
5, ,9, ,
5, ,9, ,
5, ,9, ,
5, ,9, ,
6, ,9, ,
7, ,9, ,
7, ,9, ,
8, ,9, ,
8, ,9, ,
8, ,9, ,
8, ,9, ,
8, ,9, ,
9, ,9, ,
8, ,9, ,
8, ,9, ,
7, ,9, ,
6, ,9, ,
5, ,9, ,
4, ,9, ,
2, ,9, ,
-1, ,9, ,
-2, ,9, ,
-4, ,9, ,
-5, ,9, ,
-8, ,9, ,
-10, ,9, ,
-10, ,9, ,
-12, ,9, ,
-14, ,9, ,
-14, ,9, ,
-14, ,9, ,
-14, ,9, ,
-13, ,9, ,
-13, ,9, ,
-12, ,9, ,
-12, ,9, ,
-10, ,9, ,
-10, ,9, ,
-8, ,9, ,
-7, ,9, ,
-5, ,9, ,
-4, ,9, ,
-3, ,9, ,
-2, ,9, ,
0, ,9, ,
2, ,9, ,
2, ,9, ,
3, ,9, ,
3, ,9, ,
2, ,9, ,
2, ,9, ,
1, ,9, ,
-1, ,9, ,
-2, ,9, ,
-4, ,9, ,
-4, ,9, ,
-7, ,9, ,
-9, ,9, ,
-10, ,9, ,
-12, ,9, ,
-13, ,9, ,
-13, ,9, ,
-13, ,9, ,
-12, ,9, ,
-10, ,9, ,
-9, ,9, ,
-8, ,9, ,
-6, ,9, ,
-3, ,9, ,
0, ,9, ,
1, ,9, ,
3, ,9, ,
6, ,9, ,
7, ,9, ,
8, ,9, ,
8, ,9, ,
10, ,9, ,
10, ,9, ,
10, ,9, ,
10, ,9, ,
9, ,9, ,
9, ,9, ,
8, ,9, ,
8, ,9, ,
7, ,9, ,
6, ,9, ,
5, ,9, ,
5, ,9, ,
3, ,9, ,
2, ,9, ,
1, ,9, ,
-1, ,9, ,
-3, ,9, ,
-3, ,9, ,
-5, ,9, ,
-6, ,9, ,
-8, ,9, ,
-9, ,9, ,
-9, ,9, ,
-10, ,9, ,
-10, ,9, ,
-10, ,9, ,
-10, ,9, ,
-9, ,9, ,
-9, ,9, ,
-8, ,9, ,
-8, ,9, ,
-7, ,9, ,
-7, ,9, ,
-7, ,9, ,
-6, ,9, ,
-6, ,9, ,
-7, ,9, ,
-8, ,9, ,
-8, ,9, ,
-9, ,9, ,
-10, ,9, ,
-11, ,9, ,
-12, ,9, ,
-12, ,9, ,
-13, ,9, ,
-13, ,9, ,
-13, ,9, ,
-13, ,9, ,
-12, ,9, ,
-11, ,9, ,
-10, ,9, ,
-9, ,9, ,
-5, ,9, ,
-4, ,9, ,
-2, ,9, ,
0, ,9, ,
4, ,9, ,
6, ,9, ,
8, ,9, ,
10, ,9, ,
13, ,9, ,
14, ,9, ,
16, ,9, ,
16, ,9, ,
16, ,9, ,
16, ,9, ,
16, ,9, ,
15, ,9, ,
14, ,9, ,
13, ,9, ,
12, ,9, ,
10, ,9, ,
8, ,9, ,
7, ,9, ,
6, ,9, ,
5, ,9, ,
2, ,9, ,
1, ,9, ,
-1, ,9, ,
-2, ,9, ,
-4, ,9, ,
-5, ,9, ,
-6, ,9, ,
-7, ,9, ,
-9, ,9, ,
-11, ,9, ,
-12, ,9, ,
-12, ,9, ,
-13, ,9, ,
-13, ,9, ,
-14, ,9, ,
-14, ,9, ,
-13, ,9, ,
-13, ,9, ,
-12, ,9, ,
-12, ,9, ,
-10, ,9, ,
-8, ,9, ,
-7, ,9, ,
-5, ,9, ,
-1, ,9, ,
0, ,9, ,
2, ,9, ,
4, ,9, ,
8, ,9, ,
9, ,9, ,
11, ,9, ,
12, ,9, ,
14, ,9, ,
15, ,9, ,
16, ,9, ,
15, ,9, ,
15, ,9, ,
15, ,9, ,
14, ,9, ,
13, ,9, ,
11, ,9, ,
9, ,9, ,
8, ,9, ,
6, ,9, ,
3, ,9, ,
2, ,9, ,
-1, ,9, ,
-2, ,9, ,
-4, ,9, ,
-6, ,9, ,
-6, ,9, ,
-7, ,9, ,
-8, ,9, ,
-9, ,9, ,
-9, ,9, ,
-9, ,9, ,
-10, ,9, ,
-10, ,9, ,
-10, ,9, ,
-10, ,9, ,
-10, ,9, ,
-10, ,9, ,
-10, ,9, ,
-9, ,9, ,
-9, ,9, ,
-9, ,9, ,
-8, ,9, ,
-7, ,9, ,
-6, ,9, ,
-5, ,9, ,
-4, ,9, ,
-2, ,9, ,
1, ,9, ,
2, ,9, ,
3, ,9, ,
5, ,9, ,
8, ,9, ,
9, ,9, ,
10, ,9, ,
12, ,9, ,
14, ,9, ,
14, ,9, ,
14, ,9, ,
15, ,9, ,
14, ,9, ,
14, ,9, ,
13, ,9, ,
13, ,9, ,
11, ,9, ,
10, ,9, ,
9, ,9, ,
8, ,9, ,
5, ,9, ,
4, ,9, ,
2, ,9, ,
1, ,9, ,
-3, ,9, ,
-4, ,9, ,
-5, ,9, ,
-7, ,9, ,
-10, ,9, ,
-11, ,9, ,
-12, ,9, ,
-13, ,9, ,
-13, ,9, ,
-13, ,9, ,
-13, ,9, ,
-12, ,9, ,
-11, ,9, ,
-10, ,9, ,
-10, ,9, ,
-8, ,9, ,
-6, ,9, ,
-5, ,9, ,
-4, ,9, ,
-3, ,9, ,
-2, ,9, ,
-1, ,9, ,
-1, ,9, ,
0, ,9, ,
0, ,9, ,
0, ,9, ,
0, ,9, ,
0, ,9, ,
0, ,9, ,
0, ,9, ,
0, ,9, ,
0, ,9, ,
-1, ,9, ,
-1, ,9, ,
0, ,9, ,
0, ,9, ,
1, ,9, ,
2, ,9, ,
2, ,9, ,
2, ,9, ,
3, ,9, ,
3, ,9, ,
4, ,9, ,
4, ,9, ,
4, ,9, ,
5, ,9, ,
5, ,9, ,
5, ,9, ,
5, ,9, ,
5, ,9, ,
5, ,9, ,
4, ,9, ,
4, ,9, ,
4, ,9, ,
3, ,9, ,
3, ,9, ,
2, ,9, ,
2, ,9, ,
2, ,9, ,
1, ,9, ,
0, ,9, ,
-1, ,9, ,
-1, ,9, ,
-2, ,9, ,
-3, ,9, ,
-3, ,9, ,
-3, ,9, ,
-3, ,9, ,
-4, ,9, ,
-4, ,9, ,
-4, ,9, ,
-4, ,9, ,
-4, ,9, ,
-3, ,9, ,
-2, ,9, ,
-3, ,9, ,
-2, ,9, ,
-1, ,9, ,
0, ,9, ,
1, ,9, ,
2, ,9, ,
2, ,9, ,
3, ,9, ,
3, ,9, ,
3, ,9, ,
4, ,9, ,
4, ,9, ,
4, ,9, ,
4, ,9, ,
3, ,9, ,
3, ,9, ,
3, ,9, ,
2, ,9, ,
1, ,9, ,
0, ,9, ,
0, ,9, ,
-1, ,9, ,
-2, ,9, ,
-2, ,9, ,
-3, ,9, ,
-4, ,9, ,
-4, ,9, ,
-5, ,9, ,
-5, ,9, ,
-5, ,9, ,
-5, ,9, ,
-4, ,9, ,
-4, ,9, ,
-3, ,9, ,
-2, ,9, ,
-2, ,9, ,
-1, ,9, ,
0, ,9, ,
1, ,9, ,
2, ,9, ,
2, ,9, ,
3, ,9, ,
3, ,9, ,
3, ,9, ,
3, ,9, ,
3, ,9, ,
2, ,9, ,
2, ,9, ,
1, ,9, ,
0, ,9, ,
0, ,9, ,
0, ,9, ,
0, ,9, ,
-1, ,9, ,
-1, ,9, ,
-1, ,9, ,
-1, ,9, ,
0, ,9, ,
0, ,9, ,
0, ,9, ,
0, ,9, ,
1, ,9, ,
1, ,9, ,
1, ,9, ,
1, ,9, ,
1, ,9, ,
2, ,9, ,
2, ,9, ,
2, ,9, ,
2, ,9, ,
2, ,9, ,
2, ,9, ,
2, ,9, ,
3, ,9, ,
3, ,9, ,
3, ,9, ,
3, ,9, ,
4, ,9, ,
4, ,9, ,
5, ,9, ,
5, ,9, ,
5, ,9, ,
6, ,9, ,
6, ,9, ,
6, ,9, ,
5, ,9, ,
5, ,9, ,
5, ,9, ,
4, ,9, ,
4, ,9, ,
4, ,9, ,
2, ,9, ,
2, ,9, ,
1, ,9, ,
0, ,9, ,
0, ,9, ,
-1, ,9, ,
-3, ,9, ,
-3, ,9, ,
-4, ,9, ,
-5, ,9, ,
-6, ,9, ,
-6, ,9, ,
-7, ,9, ,
-7, ,9, ,
-8, ,9, ,
-7, ,9, ,
-7, ,9, ,
-7, ,9, ,
-6, ,9, ,
-6, ,9, ,
-5, ,9, ,
-4, ,9, ,
-3, ,9, ,
-1, ,9, ,
-1, ,9, ,
0, ,9, ,
1, ,9, ,
1, ,9, ,
2, ,9, ,
2, ,9, ,
3, ,9, ,
3, ,9, ,
2, ,9, ,
2, ,9, ,
2, ,9, ,
2, ,9, ,
2, ,9, ,
2, ,9, ,
2, ,9, ,
2, ,9, ,
2, ,9, ,
2, ,9, ,
1, ,9, ,
1, ,9, ,
1, ,9, ,
1, ,9, ,
1, ,9, ,
1, ,9, ,
0, ,9, ,
0, ,9, ,
1, ,9, ,
1, ,9, ,
1, ,9, ,
1, ,9, ,
2, ,9, ,
2, ,9, ,
2, ,9, ,
3, ,9, ,
3, ,9, ,
3, ,9, ,
3, ,9, ,
3, ,9, ,
4, ,9, ,
4, ,9, ,
4, ,9, ,
4, ,9, ,
4, ,9, ,
3, ,9, ,
3, ,9, ,
2, ,9, ,
1, ,9, ,
1, ,9, ,
0, ,9, ,
0, ,9, ,
-1, ,9, ,
-2, ,9, ,
-2, ,9, ,
-3, ,9, ,
-5, ,9, ,
-5, ,9, ,
-5, ,9, ,
-5, ,9, ,
-5, ,9, ,
-6, ,9, ,
-6, ,9, ,
-6, ,9, ,
-5, ,9, ,
-5, ,9, ,
-6, ,9, ,
-6, ,9, ,
-5, ,9, ,
-5, ,9, ,
-5, ,9, ,
-5, ,9, ,
-5, ,9, ,
-5, ,9, ,
-5, ,9, ,
-5, ,9, ,
-4, ,9, ,
-4, ,9, ,
-4, ,9, ,
-3, ,9, ,
-2, ,9, ,
-2, ,9, ,
-1, ,9, ,
0, ,9, ,
1, ,9, ,
2, ,9, ,
2, ,9, ,
2, ,9, ,
3, ,9, ,
4, ,9, ,
4, ,9, ,
4, ,9, ,
3, ,9, ,
3, ,9, ,
3, ,9, ,
3, ,9, ,
3, ,9, ,
4, ,9, ,
4, ,9, ,
4, ,9, ,
4, ,9, ,
5, ,9, ,
5, ,9, ,
5, ,9, ,
6, ,9, ,
6, ,9, ,
6, ,9, ,
6, ,9, ,
7, ,9, ,
7, ,9, ,
6, ,9, ,
6, ,9, ,
6, ,9, ,
6, ,9, ,
5, ,9, ,
4, ,9, ,
3, ,9, ,
3, ,9, ,
3, ,9, ,
2, ,9, ,
0, ,9, ,
0, ,9, ,
-1, ,9, ,
-2, ,9, ,
-3, ,9, ,
-4, ,9, ,
-5, ,9, ,
-7, ,9, ,
-8, ,9, ,
-9, ,9, ,
-9, ,9, ,
-10, ,9, ,
-11, ,9, ,
-11, ,9, ,
-11, ,9, ,
-11, ,9, ,
-11, ,9, ,
-10, ,9, ,
-10, ,9, ,
-10, ,9, ,
-7, ,9, ,
-6, ,9, ,
-5, ,9, ,
-4, ,9, ,
-1, ,9, ,
1, ,9, ,
1, ,9, ,
3, ,9, ,
5, ,9, ,
7, ,9, ,
8, ,9, ,
8, ,9, ,
9, ,9, ,
10, ,9, ,
10, ,9, ,
10, ,9, ,
9, ,9, ,
9, ,9, ,
8, ,9, ,
8, ,9, ,
7, ,9, ,
6, ,9, ,
5, ,9, ,
5, ,9, ,
3, ,9, ,
2, ,9, ,
1, ,9, ,
1, ,9, ,
-1, ,9, ,
-1, ,9, ,
-2, ,9, ,
-2, ,9, ,
-3, ,9, ,
-3, ,9, ,
-3, ,9, ,
-3, ,9, ,
-3, ,9, ,
-2, ,9, ,
-2, ,9, ,
-1, ,9, ,
-1, ,9, ,
-1, ,9, ,
0, ,9, ,
0, ,9, ,
0, ,9, ,
0, ,9, ,
0, ,9, ,
0, ,9, ,
0, ,9, ,
0, ,9, ,
0, ,9, ,
0, ,9, ,
-1, ,9, ,
-1, ,9, ,
-1, ,9, ,
0, ,9, ,
0, ,9, ,
0, ,9, ,
0, ,9, ,
0, ,9, ,
0, ,9, ,
0, ,9, ,
0, ,9, ,
0, ,9, ,
0, ,9, ,
0, ,9, ,
0, ,9, ,
0, ,9, ,
-1, ,9, ,
-1, ,9, ,
-1, ,9, ,
-2, ,9, ,
-2, ,9, ,
-3, ,9, ,
-3, ,9, ,
-4, ,9, ,
-4, ,9, ,
-4, ,9, ,
-5, ,9, ,
-5, ,9, ,
-5, ,9, ,
-4, ,9, ,
-4, ,9, ,
-4, ,9, ,
-2, ,9, ,
-1, ,9, ,
-1, ,9, ,
1, ,9, ,
3, ,9, ,
4, ,9, ,
5, ,9, ,
6, ,9, ,
7, ,9, ,
8, ,9, ,
8, ,9, ,
9, ,9, ,
9, ,9, ,
8, ,9, ,
8, ,9, ,
7, ,9, ,
6, ,9, ,
5, ,9, ,
4, ,9, ,
3, ,9, ,
2, ,9, ,
2, ,9, ,
1, ,9, ,
1, ,9, ,
1, ,9, ,
1, ,9, ,
1, ,9, ,
1, ,9, ,
2, ,9, ,
2, ,9, ,
3, ,9, ,
3, ,9, ,
3, ,9, ,
4, ,9, ,
4, ,9, ,
4, ,9, ,
4, ,9, ,
4, ,9, ,
3, ,9, ,
3, ,9, ,
2, ,9, ,
2, ,9, ,
0, ,9, ,
-1, ,9, ,
-2, ,9, ,
-2, ,9, ,
-3, ,9, ,
-4, ,9, ,
-4, ,9, ,
-4, ,9, ,
-4, ,9, ,
-4, ,9, ,
-4, ,9, ,
-4, ,9, ,
-3, ,9, ,
-3, ,9, ,
-1, ,9, ,
0, ,9, ,
1, ,9, ,
2, ,9, ,
4, ,9, ,
5, ,9, ,
6, ,9, ,
7, ,9, ,
8, ,9, ,
9, ,9, ,
9, ,9, ,
9, ,9, ,
8, ,9, ,
7, ,9, ,
7, ,9, ,
6, ,9, ,
4, ,9, ,
3, ,9, ,
2, ,9, ,
0, ,9, ,
-1, ,9, ,
-3, ,9, ,
-4, ,9, ,
-6, ,9, ,
-7, ,9, ,
-7, ,9, ,
-8, ,9, ,
-8, ,9, ,
-8, ,9, ,
-8, ,9, ,
-7, ,9, ,
-7, ,9, ,
-5, ,9, ,
-4, ,9, ,
-3, ,9, ,
-1, ,9, ,
1, ,9, ,
2, ,9, ,
4, ,9, ,
5, ,9, ,
7, ,9, ,
9, ,9, ,
10, ,9, ,
10, ,9, ,
11, ,9, ,
11, ,9, ,
10, ,9, ,
10, ,9, ,
9, ,9, ,
9, ,9, ,
7, ,9, ,
6, ,9, ,
5, ,9, ,
3, ,9, ,
2, ,9, ,
1, ,9, ,
0, ,9, ,
-1, ,9, ,
-1, ,9, ,
-2, ,9, ,
-3, ,9, ,
-4, ,9, ,
-4, ,9, ,
-4, ,9, ,
-5, ,9, ,
-5, ,9, ,
-6, ,9, ,
-6, ,9, ,
-6, ,9, ,
-7, ,9, ,
-7, ,9, ,
-8, ,9, ,
-8, ,9, ,
-8, ,9, ,
-8, ,9, ,
-8, ,9, ,
-8, ,9, ,
-7, ,9, ,
-7, ,9, ,
-7, ,9, ,
-6, ,9, ,
-4, ,9, ,
-4, ,9, ,
-3, ,9, ,
-1, ,9, ,
0, ,9, ,
2, ,9, ,
2, ,9, ,
4, ,9, ,
5, ,9, ,
5, ,9, ,
6, ,9, ,
7, ,9, ,
6, ,9, ,
6, ,9, ,
6, ,9, ,
5, ,9, ,
5, ,9, ,
4, ,9, ,
4, ,9, ,
3, ,9, ,
1, ,9, ,
1, ,9, ,
1, ,9, ,
0, ,9, ,
