raw_data/75% Glycerol, Impulsion 2Hz, Sonde 5MHz, Rampe 0.7Hz/temp0000285.CSV

Format,1.0B,
Memory Length,10000,Memory Length,10000,
IntpDistance,0,IntpDistance,0,
Trigger Address,159,Trigger Address,159,
Trigger Level,2.720E-01,Trigger Level,2.720E-01,
Source,CH1,Source,CH2,
Vertical Units,V,Vertical Units,V,
Vertical Units Div,0,Vertical Units Div,0,
Vertical Units Extend Div,16,Vertical Units Extend Div,16,
Label,,Label,,
Probe Type,0,Probe Type,0,
Probe Ratio,1.000e+00,Probe Ratio,1.000e+00,
Vertical Scale,5.000e-01,Vertical Scale,2.000e+00,
Vertical Position,0.000e+00,Vertical Position,0.000e+00,
Horizontal Units,S,Horizontal Units,S,
Horizontal Scale,5.000E-06,Horizontal Scale,5.000E-06,
Horizontal Position,2.420E-05,Horizontal Position,2.420E-05,
Horizontal Mode,Main,Horizontal Mode,Main,
SincET Mode,Real Time,SincET Mode,Real Time,
Sampling Period,5.000e-09,Sampling Period,5.000e-09,
Horizontal Old Scale,5.000E-06,Horizontal Old Scale,5.000E-06,
Horizontal Old Position,2.420E-05,Horizontal Old Position,2.420E-05,
Firmware,V1.32,Firmware,V1.32,
Mode,Fast,Mode,Fast,
Waveform Data,,Waveform Data,,
0, ,13, ,
1, ,13, ,
1, ,13, ,
1, ,13, ,
1, ,13, ,
1, ,13, ,
1, ,12, ,
1, ,12, ,
0, ,12, ,
0, ,13, ,
0, ,13, ,
0, ,13, ,
0, ,13, ,
0, ,13, ,
1, ,13, ,
1, ,13, ,
0, ,13, ,
0, ,13, ,
0, ,13, ,
0, ,13, ,
0, ,13, ,
0, ,13, ,
0, ,13, ,
1, ,13, ,
0, ,13, ,
0, ,13, ,
0, ,13, ,
0, ,13, ,
0, ,13, ,
0, ,12, ,
0, ,12, ,
0, ,13, ,
0, ,13, ,
0, ,13, ,
0, ,13, ,
1, ,13, ,
1, ,13, ,
1, ,13, ,
1, ,13, ,
1, ,13, ,
1, ,13, ,
1, ,13, ,
0, ,13, ,
0, ,13, ,
1, ,13, ,
1, ,12, ,
1, ,12, ,
0, ,13, ,
0, ,13, ,
0, ,13, ,
0, ,13, ,
0, ,13, ,
0, ,13, ,
0, ,13, ,
1, ,13, ,
0, ,13, ,
0, ,13, ,
0, ,13, ,
0, ,13, ,
0, ,13, ,
0, ,13, ,
0, ,13, ,
0, ,13, ,
0, ,13, ,
0, ,13, ,
0, ,13, ,
0, ,13, ,
0, ,12, ,
0, ,12, ,
0, ,12, ,
0, ,13, ,
0, ,13, ,
1, ,13, ,
1, ,13, ,
1, ,13, ,
1, ,13, ,
1, ,13, ,
0, ,13, ,
0, ,13, ,
0, ,13, ,
1, ,12, ,
0, ,12, ,
0, ,13, ,
0, ,13, ,
0, ,13, ,
0, ,13, ,
0, ,13, ,
1, ,13, ,
0, ,13, ,
0, ,13, ,
0, ,13, ,
0, ,13, ,
0, ,13, ,
0, ,12, ,
1, ,12, ,
1, ,13, ,
0, ,13, ,
0, ,13, ,
0, ,13, ,
0, ,13, ,
0, ,13, ,
0, ,13, ,
0, ,13, ,
0, ,13, ,
0, ,13, ,
0, ,13, ,
0, ,13, ,
0, ,13, ,
1, ,13, ,
1, ,13, ,
1, ,13, ,
1, ,13, ,
1, ,13, ,
1, ,13, ,
0, ,13, ,
0, ,13, ,
1, ,13, ,
1, ,12, ,
0, ,12, ,
0, ,12, ,
0, ,12, ,
1, ,13, ,
1, ,13, ,
1, ,13, ,
0, ,13, ,
0, ,12, ,
0, ,12, ,
1, ,13, ,
1, ,13, ,
1, ,13, ,
1, ,13, ,
1, ,13, ,
1, ,13, ,
0, ,13, ,
0, ,12, ,
1, ,12, ,
0, ,12, ,
0, ,13, ,
0, ,12, ,
1, ,12, ,
1, ,13, ,
1, ,12, ,
1, ,12, ,
0, ,13, ,
0, ,12, ,
0, ,12, ,
0, ,13, ,
0, ,13, ,
0, ,13, ,
0, ,13, ,
0, ,13, ,
1, ,13, ,
1, ,13, ,
0, ,13, ,
0, ,13, ,
0, ,13, ,
0, ,13, ,
0, ,13, ,
0, ,13, ,
0, ,13, ,
1, ,12, ,
1, ,12, ,
1, ,13, ,
1, ,13, ,
1, ,13, ,
1, ,13, ,
-1, ,13, ,
-2, ,13, ,
1, ,13, ,
17, ,13, ,
44, ,13, ,
124, ,13, ,
124, ,13, ,
121, ,13, ,
100, ,13, ,
-3, ,13, ,
4, ,13, ,
54, ,13, ,
107, ,13, ,
125, ,13, ,
125, ,13, ,
125, ,13, ,
125, ,13, ,
125, ,13, ,
124, ,12, ,
124, ,12, ,
121, ,13, ,
110, ,13, ,
106, ,13, ,
102, ,13, ,
100, ,13, ,
93, ,13, ,
90, ,12, ,
86, ,12, ,
83, ,13, ,
76, ,13, ,
75, ,13, ,
71, ,13, ,
68, ,13, ,
63, ,13, ,
60, ,13, ,
58, ,13, ,
55, ,13, ,
51, ,13, ,
49, ,13, ,
47, ,12, ,
45, ,12, ,
41, ,13, ,
39, ,13, ,
38, ,13, ,
36, ,13, ,
33, ,13, ,
31, ,13, ,
30, ,13, ,
28, ,13, ,
26, ,13, ,
25, ,13, ,
24, ,13, ,
23, ,13, ,
21, ,13, ,
21, ,13, ,
19, ,12, ,
18, ,12, ,
17, ,13, ,
15, ,13, ,
15, ,13, ,
14, ,13, ,
13, ,13, ,
12, ,13, ,
11, ,13, ,
11, ,12, ,
10, ,12, ,
9, ,12, ,
9, ,13, ,
8, ,13, ,
7, ,13, ,
6, ,13, ,
6, ,13, ,
6, ,13, ,
5, ,13, ,
4, ,12, ,
4, ,12, ,
4, ,13, ,
3, ,13, ,
3, ,13, ,
3, ,13, ,
3, ,12, ,
2, ,12, ,
2, ,12, ,
2, ,13, ,
2, ,13, ,
2, ,13, ,
1, ,13, ,
1, ,13, ,
1, ,13, ,
1, ,13, ,
0, ,13, ,
0, ,13, ,
0, ,13, ,
0, ,13, ,
0, ,13, ,
-1, ,13, ,
-1, ,13, ,
-1, ,13, ,
-1, ,13, ,
-1, ,13, ,
-1, ,13, ,
-1, ,13, ,
-1, ,13, ,
-1, ,13, ,
-1, ,13, ,
-1, ,13, ,
-1, ,13, ,
-1, ,13, ,
-1, ,13, ,
-1, ,13, ,
-1, ,13, ,
-1, ,13, ,
-1, ,12, ,
-1, ,12, ,
-2, ,12, ,
-2, ,13, ,
-2, ,13, ,
-1, ,13, ,
-2, ,13, ,
-2, ,13, ,
-2, ,13, ,
-1, ,13, ,
-1, ,13, ,
-1, ,13, ,
-1, ,13, ,
-2, ,12, ,
-2, ,12, ,
-2, ,12, ,
-1, ,13, ,
-1, ,13, ,
-1, ,13, ,
-2, ,13, ,
-2, ,13, ,
-1, ,13, ,
-1, ,13, ,
-1, ,13, ,
-1, ,13, ,
-1, ,13, ,
-1, ,13, ,
-1, ,13, ,
-1, ,13, ,
-1, ,13, ,
-1, ,13, ,
-1, ,13, ,
-1, ,13, ,
-1, ,12, ,
-1, ,12, ,
-1, ,12, ,
-1, ,13, ,
-1, ,13, ,
-1, ,13, ,
-1, ,13, ,
-1, ,13, ,
-1, ,13, ,
-1, ,13, ,
0, ,13, ,
0, ,13, ,
-1, ,12, ,
-1, ,12, ,
-1, ,12, ,
0, ,13, ,
0, ,13, ,
0, ,12, ,
0, ,12, ,
0, ,13, ,
-1, ,13, ,
-1, ,13, ,
0, ,13, ,
0, ,13, ,
0, ,13, ,
0, ,13, ,
0, ,13, ,
-1, ,13, ,
-1, ,13, ,
0, ,12, ,
0, ,12, ,
0, ,13, ,
-1, ,13, ,
-1, ,13, ,
0, ,13, ,
0, ,13, ,
0, ,13, ,
0, ,13, ,
0, ,13, ,
1, ,13, ,
0, ,13, ,
0, ,13, ,
0, ,13, ,
0, ,13, ,
0, ,13, ,
0, ,13, ,
0, ,13, ,
0, ,13, ,
0, ,13, ,
0, ,13, ,
0, ,13, ,
0, ,13, ,
0, ,13, ,
0, ,13, ,
0, ,13, ,
0, ,13, ,
0, ,13, ,
0, ,13, ,
0, ,13, ,
0, ,13, ,
0, ,13, ,
0, ,13, ,
0, ,13, ,
0, ,13, ,
0, ,13, ,
0, ,13, ,
0, ,13, ,
0, ,12, ,
0, ,12, ,
0, ,13, ,
0, ,13, ,
0, ,13, ,
0, ,13, ,
0, ,13, ,
0, ,13, ,
0, ,13, ,
0, ,13, ,
0, ,13, ,
0, ,13, ,
0, ,13, ,
0, ,13, ,
0, ,13, ,
0, ,13, ,
0, ,13, ,
0, ,13, ,
0, ,13, ,
0, ,13, ,
1, ,13, ,
1, ,13, ,
0, ,13, ,
0, ,13, ,
0, ,13, ,
0, ,13, ,
0, ,13, ,
0, ,13, ,
0, ,13, ,
0, ,13, ,
0, ,13, ,
0, ,13, ,
0, ,13, ,
0, ,13, ,
0, ,13, ,
0, ,13, ,
0, ,13, ,
0, ,13, ,
0, ,13, ,
1, ,13, ,
0, ,13, ,
0, ,13, ,
0, ,13, ,
0, ,13, ,
1, ,13, ,
0, ,13, ,
0, ,13, ,
0, ,13, ,
0, ,12, ,
1, ,12, ,
1, ,13, ,
1, ,13, ,
1, ,12, ,
0, ,12, ,
0, ,13, ,
1, ,13, ,
0, ,13, ,
0, ,13, ,
0, ,13, ,
0, ,13, ,
0, ,12, ,
-1, ,12, ,
-2, ,12, ,
-2, ,13, ,
-4, ,13, ,
-8, ,13, ,
-10, ,13, ,
-14, ,13, ,
-15, ,13, ,
-15, ,13, ,
-14, ,13, ,
-11, ,13, ,
-9, ,13, ,
-4, ,13, ,
-3, ,13, ,
-1, ,13, ,
0, ,13, ,
2, ,13, ,
3, ,13, ,
3, ,13, ,
3, ,13, ,
3, ,13, ,
4, ,13, ,
3, ,13, ,
3, ,13, ,
3, ,13, ,
2, ,13, ,
2, ,13, ,
2, ,13, ,
2, ,13, ,
2, ,13, ,
2, ,13, ,
2, ,13, ,
2, ,13, ,
2, ,13, ,
2, ,13, ,
2, ,13, ,
3, ,13, ,
3, ,13, ,
3, ,13, ,
3, ,13, ,
3, ,13, ,
3, ,13, ,
3, ,13, ,
2, ,13, ,
2, ,13, ,
2, ,13, ,
1, ,13, ,
1, ,13, ,
1, ,13, ,
0, ,13, ,
0, ,13, ,
0, ,12, ,
0, ,12, ,
0, ,13, ,
0, ,12, ,
0, ,12, ,
0, ,13, ,
0, ,13, ,
0, ,13, ,
0, ,13, ,
-1, ,13, ,
-1, ,13, ,
-2, ,13, ,
-2, ,13, ,
-2, ,12, ,
-2, ,12, ,
-2, ,12, ,
-2, ,13, ,
-1, ,13, ,
0, ,13, ,
0, ,13, ,
0, ,13, ,
1, ,13, ,
1, ,13, ,
1, ,13, ,
1, ,12, ,
2, ,12, ,
2, ,13, ,
2, ,13, ,
2, ,13, ,
1, ,13, ,
1, ,13, ,
1, ,13, ,
0, ,13, ,
-1, ,13, ,
-2, ,13, ,
-2, ,12, ,
-3, ,12, ,
-5, ,13, ,
-5, ,13, ,
-5, ,13, ,
-5, ,13, ,
-5, ,13, ,
-5, ,13, ,
-5, ,13, ,
-5, ,13, ,
-5, ,13, ,
-6, ,13, ,
-6, ,13, ,
-7, ,13, ,
-8, ,13, ,
-8, ,13, ,
-10, ,13, ,
-11, ,12, ,
-16, ,12, ,
-18, ,12, ,
-20, ,13, ,
-23, ,13, ,
-26, ,13, ,
-26, ,13, ,
-27, ,13, ,
-27, ,13, ,
-26, ,13, ,
-26, ,13, ,
-26, ,13, ,
-26, ,13, ,
-27, ,13, ,
-29, ,13, ,
-31, ,13, ,
-34, ,13, ,
-40, ,13, ,
-43, ,13, ,
-46, ,13, ,
-50, ,13, ,
-54, ,13, ,
-55, ,13, ,
-55, ,13, ,
-55, ,12, ,
-51, ,12, ,
-47, ,12, ,
-43, ,13, ,
-39, ,13, ,
-28, ,13, ,
-23, ,13, ,
-18, ,13, ,
-12, ,13, ,
-2, ,13, ,
1, ,13, ,
4, ,13, ,
8, ,13, ,
11, ,13, ,
13, ,13, ,
14, ,13, ,
15, ,13, ,
15, ,13, ,
16, ,13, ,
16, ,13, ,
15, ,13, ,
15, ,13, ,
15, ,13, ,
14, ,13, ,
14, ,13, ,
13, ,13, ,
13, ,13, ,
12, ,13, ,
12, ,13, ,
11, ,13, ,
11, ,13, ,
11, ,13, ,
11, ,13, ,
11, ,13, ,
11, ,13, ,
11, ,13, ,
11, ,13, ,
12, ,13, ,
13, ,13, ,
13, ,13, ,
14, ,13, ,
15, ,13, ,
15, ,13, ,
15, ,13, ,
15, ,13, ,
14, ,12, ,
14, ,12, ,
13, ,12, ,
12, ,12, ,
8, ,12, ,
6, ,12, ,
5, ,13, ,
1, ,13, ,
-4, ,13, ,
-7, ,13, ,
-9, ,13, ,
-12, ,13, ,
-17, ,13, ,
-18, ,13, ,
-20, ,13, ,
-21, ,13, ,
-22, ,12, ,
-22, ,12, ,
-22, ,12, ,
-21, ,13, ,
-19, ,13, ,
-18, ,13, ,
-17, ,13, ,
-16, ,13, ,
-14, ,13, ,
-14, ,13, ,
-14, ,13, ,
-14, ,13, ,
-15, ,13, ,
-16, ,13, ,
-17, ,13, ,
-19, ,13, ,
-21, ,13, ,
-21, ,13, ,
-21, ,13, ,
-21, ,13, ,
-20, ,13, ,
-19, ,13, ,
-18, ,13, ,
-17, ,13, ,
-12, ,13, ,
-10, ,13, ,
-9, ,13, ,
-6, ,13, ,
-3, ,13, ,
-2, ,13, ,
0, ,13, ,
1, ,13, ,
4, ,13, ,
5, ,13, ,
6, ,13, ,
7, ,12, ,
9, ,12, ,
10, ,12, ,
10, ,13, ,
10, ,13, ,
10, ,13, ,
9, ,13, ,
8, ,13, ,
7, ,13, ,
4, ,13, ,
2, ,13, ,
0, ,13, ,
-2, ,13, ,
-8, ,13, ,
-9, ,13, ,
-12, ,13, ,
-13, ,13, ,
-17, ,13, ,
-18, ,13, ,
-19, ,13, ,
-20, ,13, ,
-19, ,13, ,
-19, ,13, ,
-19, ,13, ,
-18, ,13, ,
-16, ,13, ,
-15, ,13, ,
-14, ,13, ,
-13, ,12, ,
-11, ,12, ,
-9, ,13, ,
-8, ,13, ,
-8, ,12, ,
-7, ,12, ,
-8, ,12, ,
-8, ,13, ,
-9, ,13, ,
-10, ,13, ,
-11, ,13, ,
-13, ,12, ,
-13, ,12, ,
-15, ,13, ,
-16, ,13, ,
-16, ,13, ,
-17, ,13, ,
-15, ,12, ,
-15, ,12, ,
-14, ,12, ,
-13, ,13, ,
-11, ,13, ,
-10, ,13, ,
-9, ,13, ,
-9, ,12, ,
-7, ,12, ,
-6, ,13, ,
-5, ,13, ,
-5, ,13, ,
-4, ,13, ,
-3, ,13, ,
-2, ,13, ,
-1, ,13, ,
0, ,13, ,
2, ,13, ,
3, ,13, ,
5, ,12, ,
8, ,12, ,
9, ,12, ,
11, ,13, ,
12, ,12, ,
14, ,12, ,
16, ,13, ,
16, ,13, ,
17, ,13, ,
17, ,13, ,
17, ,13, ,
17, ,13, ,
16, ,13, ,
15, ,13, ,
14, ,13, ,
13, ,13, ,
12, ,13, ,
9, ,13, ,
9, ,13, ,
7, ,13, ,
5, ,13, ,
4, ,13, ,
4, ,13, ,
2, ,12, ,
2, ,12, ,
1, ,13, ,
0, ,13, ,
0, ,13, ,
-1, ,13, ,
-2, ,13, ,
-2, ,13, ,
-4, ,13, ,
-4, ,13, ,
-6, ,13, ,
-6, ,13, ,
-7, ,13, ,
-8, ,13, ,
-10, ,13, ,
-10, ,13, ,
-11, ,13, ,
-11, ,12, ,
-11, ,12, ,
-11, ,13, ,
-11, ,13, ,
-11, ,13, ,
-11, ,13, ,
-11, ,13, ,
-12, ,13, ,
-12, ,13, ,
-13, ,13, ,
-13, ,13, ,
-14, ,13, ,
-14, ,13, ,
-15, ,13, ,
-16, ,13, ,
-16, ,13, ,
-17, ,13, ,
-18, ,13, ,
-19, ,13, ,
-19, ,13, ,
-20, ,13, ,
-22, ,13, ,
-22, ,13, ,
-23, ,13, ,
-23, ,13, ,
-24, ,13, ,
-25, ,13, ,
-25, ,13, ,
-25, ,13, ,
-25, ,13, ,
-25, ,13, ,
-25, ,13, ,
-25, ,13, ,
-25, ,13, ,
-25, ,12, ,
-25, ,12, ,
-25, ,13, ,
-23, ,13, ,
-21, ,13, ,
-20, ,13, ,
-18, ,12, ,
-15, ,12, ,
-13, ,12, ,
-11, ,12, ,
-9, ,13, ,
-5, ,13, ,
-3, ,13, ,
-2, ,13, ,
0, ,13, ,
2, ,13, ,
3, ,12, ,
3, ,12, ,
2, ,13, ,
1, ,13, ,
1, ,13, ,
-1, ,13, ,
-2, ,13, ,
-4, ,13, ,
-6, ,13, ,
-7, ,13, ,
-8, ,13, ,
-9, ,13, ,
-9, ,13, ,
-9, ,13, ,
-8, ,13, ,
-6, ,13, ,
-5, ,13, ,
-2, ,13, ,
-1, ,13, ,
4, ,13, ,
6, ,13, ,
9, ,13, ,
12, ,13, ,
16, ,13, ,
18, ,13, ,
20, ,13, ,
22, ,13, ,
24, ,13, ,
25, ,13, ,
25, ,13, ,
25, ,13, ,
25, ,13, ,
24, ,13, ,
24, ,13, ,
23, ,13, ,
20, ,12, ,
20, ,12, ,
18, ,12, ,
17, ,12, ,
14, ,12, ,
13, ,12, ,
12, ,13, ,
9, ,13, ,
6, ,12, ,
5, ,12, ,
3, ,12, ,
1, ,13, ,
-1, ,13, ,
-3, ,12, ,
-5, ,12, ,
-7, ,13, ,
-9, ,13, ,
-10, ,13, ,
-12, ,13, ,
-13, ,12, ,
-15, ,12, ,
-16, ,12, ,
-17, ,13, ,
-18, ,13, ,
-19, ,13, ,
-20, ,13, ,
-21, ,13, ,
-21, ,13, ,
-21, ,13, ,
-21, ,13, ,
-20, ,13, ,
-20, ,12, ,
-18, ,12, ,
-16, ,13, ,
-15, ,13, ,
-14, ,12, ,
-9, ,12, ,
-8, ,12, ,
-6, ,13, ,
-5, ,13, ,
-2, ,13, ,
-1, ,13, ,
-1, ,13, ,
-1, ,13, ,
-2, ,13, ,
-2, ,13, ,
-4, ,13, ,
-5, ,13, ,
-8, ,12, ,
-9, ,12, ,
-11, ,12, ,
-13, ,13, ,
-16, ,13, ,
-18, ,13, ,
-18, ,13, ,
-19, ,13, ,
-18, ,13, ,
-18, ,13, ,
-18, ,13, ,
-17, ,13, ,
-15, ,13, ,
-15, ,13, ,
-14, ,13, ,
-13, ,13, ,
-11, ,12, ,
-10, ,12, ,
-10, ,12, ,
-9, ,12, ,
-10, ,12, ,
-10, ,12, ,
-10, ,13, ,
-10, ,13, ,
-12, ,13, ,
-12, ,13, ,
-12, ,13, ,
-12, ,13, ,
-12, ,13, ,
-12, ,13, ,
-12, ,13, ,
-12, ,13, ,
-11, ,13, ,
-10, ,13, ,
-10, ,13, ,
-9, ,13, ,
-7, ,13, ,
-6, ,13, ,
-5, ,13, ,
-4, ,13, ,
-3, ,13, ,
-1, ,13, ,
-1, ,13, ,
0, ,13, ,
2, ,13, ,
2, ,13, ,
2, ,13, ,
3, ,13, ,
3, ,13, ,
3, ,13, ,
3, ,13, ,
4, ,13, ,
5, ,13, ,
5, ,13, ,
6, ,13, ,
7, ,13, ,
8, ,13, ,
9, ,13, ,
9, ,12, ,
9, ,12, ,
8, ,13, ,
8, ,12, ,
7, ,12, ,
6, ,13, ,
3, ,13, ,
2, ,13, ,
0, ,13, ,
-2, ,13, ,
-6, ,13, ,
-8, ,13, ,
-9, ,13, ,
-11, ,12, ,
-13, ,12, ,
-14, ,13, ,
-14, ,13, ,
-13, ,13, ,
-12, ,13, ,
-11, ,13, ,
-9, ,13, ,
-7, ,13, ,
-4, ,12, ,
-1, ,12, ,
1, ,12, ,
3, ,13, ,
8, ,13, ,
9, ,13, ,
11, ,13, ,
12, ,13, ,
14, ,13, ,
15, ,13, ,
15, ,12, ,
15, ,12, ,
14, ,12, ,
12, ,12, ,
12, ,12, ,
11, ,13, ,
8, ,13, ,
6, ,13, ,
4, ,13, ,
3, ,12, ,
-2, ,12, ,
-4, ,12, ,
-7, ,13, ,
-8, ,13, ,
-12, ,13, ,
-14, ,13, ,
-15, ,13, ,
-16, ,12, ,
-17, ,12, ,
-16, ,13, ,
-17, ,13, ,
-15, ,13, ,
-14, ,13, ,
-13, ,13, ,
-11, ,13, ,
-10, ,12, ,
-7, ,12, ,
-6, ,12, ,
-4, ,13, ,
-4, ,13, ,
-3, ,13, ,
-3, ,13, ,
-3, ,13, ,
-3, ,12, ,
-5, ,12, ,
-6, ,12, ,
-6, ,13, ,
-7, ,13, ,
-7, ,12, ,
-7, ,12, ,
-7, ,12, ,
-6, ,13, ,
-5, ,13, ,
-5, ,13, ,
-4, ,13, ,
-3, ,13, ,
-1, ,13, ,
0, ,13, ,
1, ,13, ,
2, ,13, ,
3, ,13, ,
3, ,12, ,
3, ,12, ,
3, ,13, ,
3, ,12, ,
3, ,12, ,
3, ,12, ,
3, ,13, ,
3, ,13, ,
3, ,13, ,
4, ,13, ,
4, ,13, ,
5, ,13, ,
6, ,13, ,
6, ,13, ,
7, ,12, ,
7, ,12, ,
7, ,12, ,
7, ,12, ,
6, ,12, ,
5, ,12, ,
4, ,13, ,
3, ,13, ,
2, ,13, ,
0, ,13, ,
-1, ,13, ,
-2, ,13, ,
-3, ,12, ,
-5, ,12, ,
-5, ,12, ,
-5, ,12, ,
-5, ,13, ,
-5, ,13, ,
-5, ,13, ,
-4, ,13, ,
-4, ,13, ,
-2, ,12, ,
-1, ,12, ,
0, ,12, ,
1, ,13, ,
3, ,13, ,
3, ,13, ,
3, ,13, ,
3, ,13, ,
3, ,13, ,
2, ,13, ,
2, ,13, ,
0, ,13, ,
-1, ,13, ,
-3, ,13, ,
-3, ,13, ,
-6, ,13, ,
-9, ,13, ,
-10, ,13, ,
-12, ,13, ,
-13, ,13, ,
-16, ,13, ,
-16, ,13, ,
-17, ,13, ,
-17, ,13, ,
-16, ,13, ,
-16, ,13, ,
-15, ,13, ,
-14, ,13, ,
-11, ,13, ,
-9, ,13, ,
-8, ,13, ,
-6, ,13, ,
-2, ,13, ,
2, ,13, ,
3, ,13, ,
5, ,13, ,
10, ,13, ,
12, ,13, ,
14, ,13, ,
14, ,13, ,
17, ,13, ,
17, ,13, ,
16, ,12, ,
16, ,12, ,
15, ,13, ,
13, ,13, ,
12, ,13, ,
10, ,13, ,
6, ,13, ,
4, ,13, ,
2, ,13, ,
0, ,13, ,
-4, ,13, ,
-6, ,13, ,
-7, ,13, ,
-8, ,13, ,
-9, ,13, ,
-9, ,13, ,
-8, ,13, ,
-8, ,13, ,
-7, ,13, ,
-6, ,12, ,
-6, ,12, ,
-5, ,13, ,
-5, ,13, ,
-5, ,12, ,
-5, ,12, ,
-5, ,12, ,
-6, ,12, ,
-7, ,12, ,
-7, ,13, ,
-7, ,12, ,
-8, ,12, ,
-8, ,13, ,
-8, ,13, ,
-7, ,13, ,
-6, ,13, ,
-6, ,13, ,
-5, ,13, ,
-4, ,13, ,
-1, ,13, ,
1, ,13, ,
2, ,13, ,
3, ,12, ,
6, ,12, ,
7, ,12, ,
8, ,13, ,
9, ,13, ,
9, ,13, ,
9, ,13, ,
8, ,13, ,
8, ,13, ,
6, ,13, ,
5, ,13, ,
4, ,13, ,
3, ,13, ,
1, ,13, ,
0, ,13, ,
-2, ,13, ,
-2, ,13, ,
-4, ,13, ,
-4, ,13, ,
-4, ,13, ,
-4, ,12, ,
-4, ,12, ,
-3, ,13, ,
-3, ,13, ,
-3, ,13, ,
-1, ,13, ,
-1, ,13, ,
0, ,12, ,
0, ,12, ,
1, ,13, ,
1, ,13, ,
1, ,13, ,
0, ,13, ,
0, ,13, ,
-1, ,13, ,
-1, ,13, ,
-2, ,13, ,
-4, ,13, ,
-4, ,13, ,
-5, ,13, ,
-6, ,13, ,
-7, ,13, ,
-8, ,13, ,
-8, ,13, ,
-9, ,13, ,
-9, ,13, ,
-8, ,13, ,
-8, ,13, ,
-8, ,13, ,
-8, ,13, ,
-8, ,13, ,
-7, ,13, ,
-7, ,12, ,
-7, ,12, ,
-6, ,12, ,
-6, ,13, ,
-6, ,13, ,
-6, ,13, ,
-6, ,13, ,
-6, ,13, ,
-6, ,13, ,
-6, ,13, ,
-6, ,13, ,
-5, ,13, ,
-5, ,12, ,
-5, ,12, ,
-5, ,12, ,
-4, ,13, ,
-4, ,12, ,
-2, ,12, ,
-2, ,13, ,
-1, ,13, ,
0, ,13, ,
2, ,13, ,
3, ,13, ,
4, ,13, ,
4, ,13, ,
6, ,13, ,
6, ,13, ,
6, ,13, ,
6, ,12, ,
5, ,12, ,
4, ,12, ,
4, ,13, ,
3, ,12, ,
2, ,12, ,
1, ,13, ,
0, ,13, ,
-1, ,13, ,
-3, ,13, ,
-4, ,13, ,
-6, ,13, ,
-6, ,13, ,
-8, ,13, ,
-9, ,13, ,
-9, ,13, ,
-10, ,13, ,
-10, ,12, ,
-9, ,12, ,
-8, ,12, ,
-8, ,12, ,
-7, ,12, ,
-6, ,13, ,
-5, ,13, ,
-3, ,13, ,
-1, ,13, ,
0, ,13, ,
2, ,13, ,
3, ,13, ,
6, ,13, ,
7, ,13, ,
7, ,13, ,
8, ,12, ,
9, ,12, ,
8, ,12, ,
8, ,13, ,
7, ,13, ,
6, ,13, ,
6, ,13, ,
4, ,13, ,
3, ,13, ,
1, ,13, ,
-1, ,13, ,
-2, ,13, ,
-4, ,13, ,
-6, ,13, ,
-8, ,13, ,
-10, ,13, ,
-11, ,13, ,
-13, ,13, ,
-14, ,13, ,
-15, ,13, ,
-15, ,13, ,
-16, ,13, ,
-16, ,13, ,
-16, ,12, ,
-15, ,12, ,
-13, ,12, ,
-12, ,12, ,
-11, ,12, ,
-10, ,13, ,
-7, ,13, ,
-5, ,13, ,
-4, ,13, ,
-2, ,12, ,
1, ,12, ,
1, ,12, ,
3, ,13, ,
3, ,12, ,
4, ,12, ,
4, ,13, ,
4, ,13, ,
5, ,13, ,
5, ,13, ,
4, ,12, ,
4, ,12, ,
4, ,13, ,
5, ,13, ,
5, ,13, ,
5, ,13, ,
6, ,13, ,
7, ,13, ,
7, ,13, ,
8, ,13, ,
8, ,12, ,
9, ,12, ,
9, ,13, ,
9, ,13, ,
8, ,13, ,
7, ,13, ,
6, ,13, ,
6, ,12, ,
4, ,12, ,
2, ,13, ,
1, ,13, ,
0, ,13, ,
-1, ,13, ,
-3, ,12, ,
-4, ,12, ,
-5, ,12, ,
-5, ,13, ,
-4, ,13, ,
-4, ,13, ,
-4, ,13, ,
-4, ,13, ,
-2, ,13, ,
-2, ,13, ,
-1, ,13, ,
-1, ,13, ,
0, ,13, ,
1, ,13, ,
1, ,13, ,
2, ,13, ,
1, ,12, ,
1, ,12, ,
1, ,12, ,
1, ,13, ,
0, ,13, ,
0, ,13, ,
-1, ,13, ,
-1, ,13, ,
-2, ,13, ,
-2, ,12, ,
-2, ,12, ,
-2, ,13, ,
-2, ,13, ,
-1, ,13, ,
-1, ,13, ,
-1, ,13, ,
0, ,13, ,
0, ,13, ,
0, ,13, ,
1, ,13, ,
2, ,13, ,
3, ,13, ,
3, ,13, ,
4, ,12, ,
5, ,12, ,
5, ,12, ,
5, ,13, ,
5, ,13, ,
5, ,13, ,
5, ,13, ,
4, ,13, ,
4, ,13, ,
2, ,13, ,
1, ,13, ,
1, ,13, ,
-1, ,13, ,
-2, ,13, ,
-3, ,13, ,
-4, ,13, ,
-4, ,13, ,
-5, ,13, ,
-6, ,13, ,
-6, ,13, ,
-6, ,13, ,
-5, ,13, ,
-5, ,12, ,
-5, ,12, ,
-5, ,13, ,
-4, ,13, ,
-4, ,13, ,
-3, ,13, ,
-2, ,12, ,
-2, ,12, ,
-1, ,13, ,
0, ,13, ,
0, ,13, ,
2, ,13, ,
2, ,13, ,
3, ,13, ,
2, ,13, ,
4, ,13, ,
4, ,13, ,
4, ,13, ,
4, ,13, ,
3, ,13, ,
3, ,13, ,
2, ,13, ,
2, ,13, ,
0, ,13, ,
0, ,13, ,
-1, ,13, ,
-2, ,13, ,
-4, ,13, ,
-5, ,13, ,
-5, ,13, ,
-6, ,13, ,
-6, ,13, ,
-6, ,13, ,
-6, ,13, ,
-6, ,13, ,
-5, ,13, ,
-4, ,13, ,
-4, ,13, ,
-4, ,13, ,
-1, ,13, ,
-1, ,13, ,
0, ,13, ,
1, ,13, ,
3, ,13, ,
3, ,13, ,
4, ,13, ,
4, ,13, ,
4, ,13, ,
4, ,12, ,
4, ,12, ,
3, ,13, ,
3, ,13, ,
2, ,13, ,
2, ,13, ,
2, ,13, ,
1, ,12, ,
1, ,12, ,
1, ,12, ,
1, ,13, ,
1, ,13, ,
1, ,13, ,
1, ,13, ,
1, ,13, ,
1, ,13, ,
1, ,13, ,
1, ,13, ,
1, ,13, ,
0, ,13, ,
0, ,13, ,
-1, ,13, ,
-1, ,13, ,
-2, ,13, ,
-2, ,13, ,
-3, ,13, ,
-3, ,13, ,
-4, ,13, ,
-4, ,13, ,
-4, ,13, ,
-5, ,13, ,
-5, ,13, ,
-5, ,13, ,
-5, ,13, ,
-4, ,12, ,
-4, ,12, ,
-3, ,12, ,
-2, ,13, ,
-3, ,13, ,
-1, ,13, ,
0, ,13, ,
1, ,13, ,
2, ,13, ,
3, ,13, ,
3, ,13, ,
3, ,13, ,
4, ,12, ,
4, ,12, ,
4, ,12, ,
3, ,12, ,
3, ,12, ,
2, ,12, ,
1, ,12, ,
1, ,13, ,
0, ,13, ,
-1, ,13, ,
-2, ,13, ,
-2, ,12, ,
-2, ,12, ,
-1, ,13, ,
-1, ,13, ,
-1, ,13, ,
-1, ,13, ,
0, ,13, ,
0, ,13, ,
2, ,13, ,
2, ,13, ,
3, ,13, ,
4, ,13, ,
4, ,13, ,
4, ,13, ,
4, ,13, ,
5, ,13, ,
5, ,13, ,
5, ,13, ,
5, ,13, ,
4, ,12, ,
4, ,12, ,
4, ,13, ,
4, ,12, ,
4, ,12, ,
3, ,12, ,
3, ,13, ,
2, ,13, ,
1, ,13, ,
1, ,13, ,
0, ,13, ,
-1, ,13, ,
-2, ,13, ,
-2, ,13, ,
-3, ,13, ,
-4, ,13, ,
-4, ,12, ,
-5, ,12, ,
-4, ,13, ,
-4, ,12, ,
-4, ,12, ,
-4, ,12, ,
-3, ,13, ,
-2, ,12, ,
-2, ,12, ,
-1, ,12, ,
-1, ,13, ,
0, ,13, ,
1, ,13, ,
2, ,13, ,
2, ,13, ,
3, ,13, ,
3, ,12, ,
3, ,12, ,
2, ,13, ,
2, ,13, ,
2, ,13, ,
2, ,13, ,
2, ,13, ,
1, ,13, ,
1, ,12, ,
1, ,12, ,
1, ,13, ,
1, ,13, ,
1, ,13, ,
1, ,13, ,
1, ,13, ,
1, ,13, ,
1, ,12, ,
1, ,12, ,
1, ,13, ,
2, ,13, ,
2, ,13, ,
2, ,13, ,
2, ,12, ,
3, ,12, ,
3, ,12, ,
3, ,13, ,
3, ,13, ,
4, ,13, ,
4, ,13, ,
4, ,13, ,
4, ,13, ,
4, ,13, ,
3, ,13, ,
3, ,13, ,
3, ,13, ,
2, ,13, ,
1, ,13, ,
1, ,13, ,
0, ,13, ,
-1, ,13, ,
-3, ,13, ,
-3, ,13, ,
-4, ,13, ,
-5, ,13, ,
-5, ,13, ,
-6, ,13, ,
-7, ,13, ,
-7, ,13, ,
-8, ,13, ,
-8, ,13, ,
-8, ,13, ,
-8, ,12, ,
-8, ,12, ,
-8, ,12, ,
-7, ,12, ,
-7, ,12, ,
-7, ,12, ,
-6, ,12, ,
-6, ,12, ,
-5, ,12, ,
-4, ,13, ,
-4, ,13, ,
-3, ,12, ,
-2, ,12, ,
-2, ,13, ,
-1, ,13, ,
-1, ,13, ,
1, ,13, ,
1, ,12, ,
2, ,12, ,
2, ,12, ,
3, ,12, ,
3, ,12, ,
4, ,12, ,
4, ,13, ,
4, ,13, ,
5, ,13, ,
5, ,13, ,
5, ,13, ,
5, ,13, ,
6, ,13, ,
6, ,13, ,
6, ,12, ,
7, ,12, ,
7, ,13, ,
8, ,13, ,
8, ,13, ,
8, ,12, ,
8, ,12, ,
9, ,12, ,
9, ,13, ,
8, ,13, ,
8, ,13, ,
7, ,13, ,
7, ,13, ,
6, ,13, ,
5, ,13, ,
5, ,13, ,
4, ,13, ,
2, ,13, ,
1, ,13, ,
0, ,13, ,
-1, ,12, ,
-3, ,12, ,
-4, ,12, ,
-4, ,13, ,
-6, ,13, ,
-7, ,13, ,
-7, ,13, ,
-8, ,13, ,
-9, ,13, ,
-9, ,13, ,
-9, ,13, ,
-9, ,13, ,
-9, ,13, ,
-9, ,13, ,
-9, ,13, ,
-9, ,13, ,
-9, ,13, ,
-9, ,13, ,
-8, ,13, ,
-7, ,13, ,
-7, ,13, ,
-6, ,13, ,
-5, ,13, ,
-5, ,12, ,
-4, ,12, ,
-2, ,13, ,
-2, ,13, ,
-1, ,13, ,
0, ,13, ,
1, ,13, ,
2, ,13, ,
2, ,13, ,
2, ,13, ,
2, ,13, ,
2, ,13, ,
2, ,13, ,
2, ,13, ,
2, ,13, ,
2, ,13, ,
1, ,13, ,
1, ,13, ,
1, ,13, ,
1, ,13, ,
1, ,13, ,
1, ,13, ,
1, ,12, ,
1, ,12, ,
1, ,12, ,
2, ,13, ,
3, ,13, ,
3, ,13, ,
4, ,13, ,
4, ,13, ,
5, ,13, ,
5, ,13, ,
5, ,13, ,
6, ,13, ,
6, ,13, ,
5, ,13, ,
5, ,13, ,
5, ,13, ,
5, ,12, ,
4, ,12, ,
4, ,12, ,
3, ,13, ,
2, ,13, ,
2, ,13, ,
1, ,13, ,
0, ,12, ,
-1, ,12, ,
-1, ,13, ,
-2, ,13, ,
-3, ,13, ,
-3, ,13, ,
-3, ,13, ,
-3, ,13, ,
-3, ,13, ,
-3, ,13, ,
-3, ,12, ,
-3, ,12, ,
-2, ,13, ,
-2, ,13, ,
-2, ,13, ,
-1, ,13, ,
-1, ,12, ,
-1, ,12, ,
0, ,13, ,
0, ,12, ,
0, ,12, ,
0, ,13, ,
0, ,13, ,
0, ,13, ,
0, ,12, ,
0, ,12, ,
0, ,13, ,
-1, ,13, ,
-1, ,12, ,
-1, ,12, ,
-1, ,12, ,
-1, ,13, ,
-1, ,12, ,
-1, ,12, ,
-1, ,13, ,
-1, ,13, ,
-1, ,12, ,
0, ,12, ,
1, ,12, ,
1, ,13, ,
1, ,12, ,
2, ,12, ,
2, ,12, ,
3, ,12, ,
3, ,13, ,
4, ,13, ,
4, ,13, ,
4, ,13, ,
3, ,13, ,
3, ,13, ,
3, ,13, ,
2, ,13, ,
2, ,13, ,
0, ,13, ,
