raw_data/75% Glycerol, Impulsion 2Hz, Sonde 5MHz, Rampe 0.7Hz/temp0000247.CSV

Format,1.0B,
Memory Length,10000,Memory Length,10000,
IntpDistance,0,IntpDistance,0,
Trigger Address,159,Trigger Address,159,
Trigger Level,2.720E-01,Trigger Level,2.720E-01,
Source,CH1,Source,CH2,
Vertical Units,V,Vertical Units,V,
Vertical Units Div,0,Vertical Units Div,0,
Vertical Units Extend Div,16,Vertical Units Extend Div,16,
Label,,Label,,
Probe Type,0,Probe Type,0,
Probe Ratio,1.000e+00,Probe Ratio,1.000e+00,
Vertical Scale,5.000e-01,Vertical Scale,2.000e+00,
Vertical Position,0.000e+00,Vertical Position,0.000e+00,
Horizontal Units,S,Horizontal Units,S,
Horizontal Scale,5.000E-06,Horizontal Scale,5.000E-06,
Horizontal Position,2.420E-05,Horizontal Position,2.420E-05,
Horizontal Mode,Main,Horizontal Mode,Main,
SincET Mode,Real Time,SincET Mode,Real Time,
Sampling Period,5.000e-09,Sampling Period,5.000e-09,
Horizontal Old Scale,5.000E-06,Horizontal Old Scale,5.000E-06,
Horizontal Old Position,2.420E-05,Horizontal Old Position,2.420E-05,
Firmware,V1.32,Firmware,V1.32,
Mode,Fast,Mode,Fast,
Waveform Data,,Waveform Data,,
0, ,-22, ,
0, ,-22, ,
0, ,-22, ,
0, ,-22, ,
1, ,-22, ,
1, ,-22, ,
1, ,-22, ,
1, ,-21, ,
1, ,-22, ,
1, ,-22, ,
0, ,-21, ,
0, ,-22, ,
0, ,-22, ,
1, ,-22, ,
1, ,-22, ,
1, ,-22, ,
1, ,-21, ,
1, ,-21, ,
1, ,-21, ,
1, ,-21, ,
1, ,-21, ,
1, ,-21, ,
1, ,-21, ,
1, ,-22, ,
1, ,-22, ,
1, ,-22, ,
1, ,-22, ,
1, ,-22, ,
1, ,-22, ,
1, ,-21, ,
1, ,-21, ,
1, ,-22, ,
1, ,-22, ,
1, ,-22, ,
1, ,-22, ,
1, ,-22, ,
1, ,-22, ,
1, ,-22, ,
1, ,-22, ,
1, ,-22, ,
1, ,-22, ,
1, ,-22, ,
1, ,-22, ,
1, ,-22, ,
1, ,-22, ,
1, ,-21, ,
1, ,-21, ,
1, ,-22, ,
1, ,-22, ,
1, ,-22, ,
1, ,-22, ,
1, ,-22, ,
1, ,-22, ,
1, ,-22, ,
1, ,-22, ,
1, ,-22, ,
1, ,-22, ,
1, ,-22, ,
1, ,-22, ,
1, ,-22, ,
1, ,-21, ,
0, ,-22, ,
1, ,-22, ,
0, ,-22, ,
1, ,-22, ,
1, ,-22, ,
1, ,-22, ,
1, ,-21, ,
1, ,-22, ,
1, ,-22, ,
1, ,-22, ,
1, ,-22, ,
1, ,-22, ,
1, ,-22, ,
1, ,-22, ,
1, ,-22, ,
0, ,-22, ,
0, ,-21, ,
1, ,-21, ,
1, ,-22, ,
1, ,-22, ,
1, ,-22, ,
0, ,-22, ,
0, ,-22, ,
0, ,-22, ,
1, ,-22, ,
1, ,-21, ,
1, ,-22, ,
1, ,-22, ,
1, ,-21, ,
1, ,-21, ,
1, ,-22, ,
1, ,-22, ,
1, ,-22, ,
1, ,-22, ,
1, ,-22, ,
1, ,-22, ,
1, ,-22, ,
1, ,-22, ,
1, ,-21, ,
1, ,-22, ,
1, ,-22, ,
1, ,-22, ,
1, ,-22, ,
1, ,-22, ,
1, ,-22, ,
1, ,-22, ,
1, ,-21, ,
1, ,-22, ,
1, ,-22, ,
1, ,-22, ,
1, ,-22, ,
1, ,-22, ,
1, ,-22, ,
1, ,-22, ,
1, ,-22, ,
1, ,-22, ,
1, ,-22, ,
1, ,-21, ,
1, ,-21, ,
1, ,-22, ,
1, ,-22, ,
1, ,-21, ,
1, ,-21, ,
1, ,-21, ,
1, ,-22, ,
1, ,-22, ,
1, ,-22, ,
1, ,-22, ,
1, ,-22, ,
1, ,-22, ,
1, ,-22, ,
1, ,-22, ,
1, ,-22, ,
1, ,-21, ,
1, ,-22, ,
1, ,-22, ,
1, ,-21, ,
1, ,-21, ,
1, ,-22, ,
1, ,-22, ,
1, ,-22, ,
1, ,-21, ,
1, ,-21, ,
1, ,-22, ,
1, ,-22, ,
1, ,-22, ,
1, ,-22, ,
1, ,-22, ,
1, ,-22, ,
1, ,-22, ,
1, ,-22, ,
1, ,-22, ,
1, ,-22, ,
1, ,-22, ,
1, ,-22, ,
1, ,-22, ,
1, ,-22, ,
1, ,-22, ,
1, ,-22, ,
1, ,-22, ,
1, ,-22, ,
1, ,-22, ,
1, ,-22, ,
0, ,-22, ,
-1, ,-22, ,
1, ,-22, ,
-1, ,-22, ,
3, ,-22, ,
52, ,-22, ,
91, ,-22, ,
125, ,-22, ,
124, ,-22, ,
91, ,-22, ,
31, ,-22, ,
-6, ,-22, ,
11, ,-21, ,
114, ,-21, ,
125, ,-21, ,
125, ,-21, ,
125, ,-22, ,
125, ,-22, ,
125, ,-21, ,
125, ,-22, ,
124, ,-22, ,
121, ,-22, ,
115, ,-22, ,
110, ,-22, ,
106, ,-22, ,
100, ,-22, ,
96, ,-22, ,
93, ,-22, ,
90, ,-22, ,
82, ,-22, ,
79, ,-22, ,
77, ,-21, ,
74, ,-22, ,
68, ,-22, ,
66, ,-21, ,
63, ,-21, ,
60, ,-21, ,
56, ,-21, ,
53, ,-22, ,
51, ,-22, ,
49, ,-22, ,
45, ,-22, ,
43, ,-22, ,
41, ,-22, ,
40, ,-22, ,
36, ,-22, ,
35, ,-22, ,
34, ,-22, ,
31, ,-22, ,
28, ,-22, ,
27, ,-22, ,
25, ,-22, ,
25, ,-22, ,
24, ,-21, ,
22, ,-21, ,
21, ,-21, ,
20, ,-21, ,
18, ,-21, ,
18, ,-22, ,
17, ,-22, ,
16, ,-22, ,
14, ,-22, ,
13, ,-22, ,
13, ,-21, ,
12, ,-22, ,
11, ,-22, ,
11, ,-21, ,
10, ,-21, ,
10, ,-22, ,
9, ,-22, ,
7, ,-22, ,
7, ,-22, ,
6, ,-22, ,
6, ,-22, ,
6, ,-22, ,
5, ,-22, ,
5, ,-22, ,
4, ,-22, ,
4, ,-22, ,
4, ,-22, ,
3, ,-22, ,
3, ,-22, ,
3, ,-21, ,
3, ,-22, ,
3, ,-22, ,
2, ,-21, ,
1, ,-21, ,
1, ,-21, ,
1, ,-22, ,
1, ,-22, ,
1, ,-22, ,
1, ,-22, ,
1, ,-22, ,
0, ,-22, ,
0, ,-21, ,
0, ,-21, ,
0, ,-22, ,
0, ,-22, ,
0, ,-22, ,
0, ,-22, ,
0, ,-22, ,
0, ,-22, ,
-1, ,-22, ,
-1, ,-22, ,
-1, ,-21, ,
-1, ,-22, ,
-1, ,-22, ,
-1, ,-22, ,
-1, ,-22, ,
-1, ,-22, ,
-1, ,-22, ,
-1, ,-22, ,
-1, ,-22, ,
-1, ,-22, ,
-1, ,-21, ,
-1, ,-22, ,
-1, ,-22, ,
-1, ,-22, ,
-1, ,-22, ,
-1, ,-22, ,
-1, ,-22, ,
-1, ,-22, ,
-1, ,-22, ,
-1, ,-22, ,
-1, ,-22, ,
-1, ,-22, ,
-1, ,-22, ,
-1, ,-22, ,
-1, ,-22, ,
-1, ,-22, ,
-1, ,-21, ,
-1, ,-22, ,
-1, ,-22, ,
-1, ,-22, ,
-1, ,-22, ,
-1, ,-22, ,
-1, ,-22, ,
-1, ,-22, ,
-1, ,-22, ,
-1, ,-22, ,
-1, ,-22, ,
-1, ,-22, ,
-1, ,-22, ,
-1, ,-22, ,
-1, ,-22, ,
-1, ,-22, ,
-1, ,-21, ,
-1, ,-22, ,
-1, ,-22, ,
0, ,-22, ,
0, ,-22, ,
0, ,-22, ,
-1, ,-22, ,
-1, ,-22, ,
0, ,-22, ,
0, ,-22, ,
0, ,-21, ,
0, ,-21, ,
-1, ,-21, ,
0, ,-21, ,
0, ,-22, ,
0, ,-22, ,
0, ,-22, ,
0, ,-22, ,
0, ,-21, ,
0, ,-21, ,
-1, ,-21, ,
0, ,-22, ,
-1, ,-22, ,
0, ,-22, ,
0, ,-22, ,
0, ,-22, ,
0, ,-22, ,
0, ,-22, ,
0, ,-22, ,
0, ,-21, ,
0, ,-22, ,
0, ,-22, ,
0, ,-22, ,
0, ,-22, ,
0, ,-22, ,
0, ,-22, ,
0, ,-22, ,
0, ,-22, ,
0, ,-21, ,
0, ,-21, ,
0, ,-22, ,
0, ,-22, ,
0, ,-22, ,
0, ,-22, ,
0, ,-22, ,
0, ,-21, ,
0, ,-22, ,
0, ,-22, ,
1, ,-22, ,
0, ,-21, ,
0, ,-21, ,
1, ,-21, ,
1, ,-22, ,
1, ,-22, ,
0, ,-22, ,
0, ,-22, ,
1, ,-22, ,
1, ,-22, ,
1, ,-21, ,
0, ,-22, ,
0, ,-22, ,
0, ,-22, ,
0, ,-22, ,
0, ,-22, ,
0, ,-22, ,
0, ,-22, ,
0, ,-22, ,
1, ,-22, ,
1, ,-22, ,
1, ,-22, ,
0, ,-22, ,
0, ,-22, ,
0, ,-22, ,
0, ,-22, ,
0, ,-22, ,
1, ,-22, ,
1, ,-22, ,
1, ,-22, ,
0, ,-22, ,
0, ,-22, ,
1, ,-22, ,
0, ,-22, ,
0, ,-22, ,
1, ,-21, ,
1, ,-22, ,
1, ,-22, ,
0, ,-22, ,
0, ,-22, ,
1, ,-22, ,
1, ,-22, ,
1, ,-22, ,
1, ,-22, ,
1, ,-22, ,
1, ,-21, ,
1, ,-22, ,
0, ,-22, ,
0, ,-21, ,
0, ,-22, ,
0, ,-22, ,
0, ,-21, ,
0, ,-22, ,
0, ,-22, ,
0, ,-22, ,
0, ,-22, ,
1, ,-22, ,
1, ,-22, ,
1, ,-22, ,
1, ,-22, ,
1, ,-22, ,
1, ,-22, ,
1, ,-22, ,
1, ,-22, ,
1, ,-21, ,
1, ,-22, ,
1, ,-22, ,
1, ,-22, ,
1, ,-22, ,
1, ,-22, ,
1, ,-22, ,
0, ,-22, ,
0, ,-22, ,
0, ,-22, ,
0, ,-22, ,
0, ,-22, ,
-1, ,-22, ,
-1, ,-22, ,
-1, ,-22, ,
-2, ,-22, ,
-2, ,-22, ,
-4, ,-22, ,
-5, ,-22, ,
-8, ,-22, ,
-11, ,-22, ,
-14, ,-22, ,
-17, ,-22, ,
-19, ,-22, ,
-19, ,-22, ,
-18, ,-22, ,
-13, ,-22, ,
-8, ,-22, ,
-5, ,-22, ,
-3, ,-22, ,
-1, ,-22, ,
1, ,-22, ,
3, ,-21, ,
3, ,-22, ,
4, ,-22, ,
4, ,-22, ,
4, ,-22, ,
5, ,-22, ,
5, ,-21, ,
5, ,-22, ,
4, ,-22, ,
4, ,-22, ,
4, ,-22, ,
4, ,-22, ,
4, ,-21, ,
4, ,-21, ,
4, ,-22, ,
4, ,-22, ,
4, ,-22, ,
4, ,-22, ,
4, ,-22, ,
4, ,-22, ,
4, ,-22, ,
4, ,-22, ,
4, ,-21, ,
4, ,-22, ,
4, ,-22, ,
4, ,-22, ,
4, ,-22, ,
3, ,-22, ,
3, ,-22, ,
3, ,-22, ,
3, ,-21, ,
2, ,-21, ,
2, ,-21, ,
2, ,-22, ,
2, ,-22, ,
2, ,-21, ,
2, ,-22, ,
2, ,-22, ,
1, ,-22, ,
1, ,-22, ,
2, ,-22, ,
2, ,-22, ,
1, ,-22, ,
1, ,-22, ,
1, ,-22, ,
1, ,-21, ,
0, ,-21, ,
0, ,-21, ,
-1, ,-21, ,
-1, ,-21, ,
-1, ,-22, ,
-1, ,-22, ,
-1, ,-22, ,
-1, ,-22, ,
-1, ,-22, ,
0, ,-21, ,
1, ,-21, ,
1, ,-21, ,
1, ,-22, ,
1, ,-22, ,
1, ,-22, ,
1, ,-22, ,
1, ,-22, ,
1, ,-22, ,
1, ,-22, ,
1, ,-22, ,
0, ,-22, ,
-1, ,-22, ,
-2, ,-22, ,
-2, ,-22, ,
-3, ,-22, ,
-5, ,-22, ,
-6, ,-22, ,
-7, ,-22, ,
-8, ,-21, ,
-9, ,-21, ,
-9, ,-21, ,
-9, ,-22, ,
-9, ,-22, ,
-9, ,-22, ,
-9, ,-21, ,
-9, ,-21, ,
-9, ,-22, ,
-10, ,-22, ,
-11, ,-21, ,
-12, ,-22, ,
-14, ,-22, ,
-18, ,-22, ,
-20, ,-22, ,
-23, ,-22, ,
-25, ,-21, ,
-29, ,-21, ,
-31, ,-21, ,
-31, ,-21, ,
-31, ,-22, ,
-29, ,-22, ,
-28, ,-22, ,
-27, ,-21, ,
-25, ,-22, ,
-23, ,-22, ,
-23, ,-22, ,
-22, ,-22, ,
-22, ,-22, ,
-23, ,-22, ,
-24, ,-22, ,
-25, ,-22, ,
-25, ,-22, ,
-27, ,-22, ,
-27, ,-22, ,
-27, ,-22, ,
-27, ,-22, ,
-26, ,-22, ,
-25, ,-22, ,
-24, ,-21, ,
-22, ,-22, ,
-18, ,-22, ,
-16, ,-21, ,
-13, ,-22, ,
-11, ,-22, ,
-8, ,-22, ,
-5, ,-22, ,
-4, ,-22, ,
-3, ,-21, ,
-2, ,-22, ,
-2, ,-22, ,
-2, ,-22, ,
-2, ,-22, ,
-1, ,-22, ,
-1, ,-21, ,
-1, ,-22, ,
-1, ,-22, ,
-1, ,-21, ,
-1, ,-22, ,
0, ,-22, ,
-1, ,-21, ,
-1, ,-22, ,
-1, ,-22, ,
-2, ,-22, ,
-2, ,-21, ,
-3, ,-21, ,
-4, ,-22, ,
-4, ,-22, ,
-4, ,-22, ,
-3, ,-22, ,
-3, ,-22, ,
-2, ,-22, ,
-1, ,-22, ,
2, ,-22, ,
4, ,-22, ,
5, ,-22, ,
7, ,-22, ,
11, ,-22, ,
14, ,-22, ,
15, ,-22, ,
17, ,-22, ,
19, ,-22, ,
19, ,-22, ,
19, ,-22, ,
18, ,-22, ,
17, ,-22, ,
16, ,-22, ,
14, ,-22, ,
13, ,-22, ,
10, ,-22, ,
7, ,-22, ,
5, ,-22, ,
3, ,-22, ,
-1, ,-22, ,
-2, ,-22, ,
-3, ,-22, ,
-4, ,-22, ,
-6, ,-22, ,
-6, ,-22, ,
-6, ,-21, ,
-6, ,-22, ,
-5, ,-22, ,
-4, ,-22, ,
-4, ,-22, ,
-3, ,-22, ,
-1, ,-22, ,
-1, ,-22, ,
0, ,-22, ,
0, ,-22, ,
-1, ,-22, ,
-1, ,-22, ,
-2, ,-22, ,
-3, ,-22, ,
-6, ,-22, ,
-8, ,-22, ,
-10, ,-21, ,
-13, ,-22, ,
-17, ,-22, ,
-18, ,-22, ,
-21, ,-22, ,
-23, ,-22, ,
-25, ,-21, ,
-26, ,-22, ,
-27, ,-22, ,
-27, ,-21, ,
-27, ,-21, ,
-26, ,-22, ,
-25, ,-22, ,
-25, ,-21, ,
-22, ,-22, ,
-21, ,-22, ,
-18, ,-22, ,
-16, ,-22, ,
-12, ,-22, ,
-9, ,-22, ,
-7, ,-22, ,
-4, ,-21, ,
-2, ,-21, ,
-1, ,-21, ,
0, ,-21, ,
0, ,-21, ,
-1, ,-22, ,
-3, ,-22, ,
-4, ,-22, ,
-5, ,-22, ,
-7, ,-22, ,
-8, ,-22, ,
-9, ,-22, ,
-11, ,-21, ,
-11, ,-22, ,
-10, ,-22, ,
-10, ,-22, ,
-10, ,-22, ,
-8, ,-21, ,
-8, ,-22, ,
-7, ,-22, ,
-6, ,-21, ,
-6, ,-21, ,
-5, ,-22, ,
-5, ,-22, ,
-4, ,-22, ,
-4, ,-22, ,
-5, ,-22, ,
-5, ,-22, ,
-5, ,-21, ,
-6, ,-21, ,
-6, ,-21, ,
-7, ,-21, ,
-7, ,-21, ,
-8, ,-21, ,
-9, ,-22, ,
-10, ,-22, ,
-10, ,-22, ,
-11, ,-22, ,
-11, ,-22, ,
-11, ,-22, ,
-11, ,-22, ,
-10, ,-22, ,
-10, ,-22, ,
-10, ,-22, ,
-10, ,-22, ,
-8, ,-22, ,
-8, ,-22, ,
-8, ,-22, ,
-8, ,-22, ,
-8, ,-22, ,
-8, ,-22, ,
-8, ,-22, ,
-8, ,-22, ,
-8, ,-22, ,
-7, ,-22, ,
-7, ,-22, ,
-6, ,-22, ,
-4, ,-22, ,
-3, ,-22, ,
-1, ,-21, ,
0, ,-21, ,
3, ,-21, ,
4, ,-21, ,
5, ,-22, ,
7, ,-22, ,
10, ,-22, ,
10, ,-22, ,
11, ,-22, ,
12, ,-21, ,
13, ,-22, ,
14, ,-22, ,
15, ,-22, ,
16, ,-22, ,
16, ,-22, ,
17, ,-22, ,
17, ,-21, ,
17, ,-21, ,
18, ,-22, ,
18, ,-22, ,
17, ,-22, ,
17, ,-22, ,
16, ,-21, ,
15, ,-22, ,
14, ,-22, ,
13, ,-21, ,
10, ,-22, ,
9, ,-22, ,
7, ,-22, ,
5, ,-22, ,
1, ,-22, ,
-2, ,-22, ,
-4, ,-21, ,
-7, ,-22, ,
-10, ,-22, ,
-12, ,-22, ,
-14, ,-22, ,
-15, ,-22, ,
-16, ,-22, ,
-16, ,-22, ,
-16, ,-22, ,
-15, ,-22, ,
-14, ,-22, ,
-13, ,-22, ,
-11, ,-22, ,
-10, ,-22, ,
-8, ,-22, ,
-7, ,-22, ,
-6, ,-22, ,
-7, ,-22, ,
-7, ,-22, ,
-7, ,-22, ,
-9, ,-22, ,
-10, ,-22, ,
-12, ,-22, ,
-14, ,-22, ,
-16, ,-22, ,
-18, ,-22, ,
-22, ,-21, ,
-24, ,-22, ,
-26, ,-22, ,
-28, ,-22, ,
-31, ,-22, ,
-33, ,-22, ,
-34, ,-22, ,
-35, ,-22, ,
-35, ,-22, ,
-35, ,-22, ,
-35, ,-22, ,
-34, ,-22, ,
-32, ,-22, ,
-31, ,-21, ,
-29, ,-21, ,
-27, ,-22, ,
-23, ,-22, ,
-20, ,-22, ,
-17, ,-22, ,
-15, ,-22, ,
-10, ,-22, ,
-8, ,-22, ,
-5, ,-22, ,
-4, ,-22, ,
-1, ,-22, ,
-1, ,-22, ,
-1, ,-22, ,
-1, ,-22, ,
-2, ,-22, ,
-4, ,-22, ,
-4, ,-22, ,
-6, ,-22, ,
-9, ,-22, ,
-10, ,-22, ,
-11, ,-22, ,
-12, ,-22, ,
-13, ,-22, ,
-13, ,-22, ,
-13, ,-22, ,
-13, ,-22, ,
-10, ,-22, ,
-8, ,-22, ,
-6, ,-22, ,
-3, ,-22, ,
3, ,-22, ,
6, ,-22, ,
10, ,-22, ,
13, ,-22, ,
19, ,-22, ,
22, ,-22, ,
24, ,-22, ,
25, ,-22, ,
27, ,-22, ,
28, ,-22, ,
27, ,-22, ,
27, ,-22, ,
26, ,-22, ,
25, ,-22, ,
24, ,-22, ,
23, ,-21, ,
20, ,-21, ,
18, ,-21, ,
15, ,-22, ,
13, ,-22, ,
9, ,-22, ,
7, ,-22, ,
5, ,-22, ,
3, ,-21, ,
-1, ,-21, ,
-3, ,-21, ,
-4, ,-21, ,
-5, ,-22, ,
-8, ,-22, ,
-9, ,-21, ,
-9, ,-22, ,
-9, ,-22, ,
-8, ,-22, ,
-8, ,-22, ,
-6, ,-22, ,
-6, ,-21, ,
-3, ,-22, ,
-2, ,-22, ,
-1, ,-22, ,
1, ,-22, ,
3, ,-22, ,
4, ,-22, ,
5, ,-22, ,
5, ,-22, ,
4, ,-22, ,
4, ,-22, ,
2, ,-22, ,
1, ,-22, ,
-2, ,-22, ,
-5, ,-21, ,
-7, ,-21, ,
-9, ,-22, ,
-14, ,-22, ,
-15, ,-22, ,
-17, ,-22, ,
-18, ,-22, ,
-19, ,-22, ,
-19, ,-22, ,
-18, ,-21, ,
-18, ,-21, ,
-17, ,-21, ,
-15, ,-21, ,
-14, ,-22, ,
-13, ,-22, ,
-10, ,-22, ,
-10, ,-22, ,
-9, ,-22, ,
-9, ,-21, ,
-8, ,-22, ,
-8, ,-22, ,
-9, ,-22, ,
-9, ,-22, ,
-11, ,-22, ,
-13, ,-22, ,
-13, ,-21, ,
-14, ,-22, ,
-17, ,-22, ,
-17, ,-21, ,
-19, ,-22, ,
-20, ,-22, ,
-20, ,-21, ,
-20, ,-22, ,
-20, ,-22, ,
-19, ,-22, ,
-17, ,-22, ,
-16, ,-22, ,
-15, ,-22, ,
-13, ,-21, ,
-10, ,-22, ,
-8, ,-22, ,
-6, ,-22, ,
-5, ,-22, ,
-3, ,-22, ,
-1, ,-22, ,
-1, ,-22, ,
-1, ,-22, ,
-1, ,-22, ,
-2, ,-21, ,
-2, ,-22, ,
-3, ,-22, ,
-5, ,-22, ,
-6, ,-22, ,
-7, ,-22, ,
-7, ,-22, ,
-7, ,-22, ,
-7, ,-22, ,
-7, ,-22, ,
-7, ,-21, ,
-5, ,-21, ,
-4, ,-21, ,
-3, ,-22, ,
-1, ,-22, ,
1, ,-22, ,
2, ,-22, ,
3, ,-22, ,
5, ,-22, ,
5, ,-22, ,
5, ,-22, ,
4, ,-22, ,
4, ,-22, ,
3, ,-22, ,
1, ,-22, ,
0, ,-22, ,
-2, ,-22, ,
-4, ,-22, ,
-5, ,-22, ,
-6, ,-22, ,
-7, ,-22, ,
-8, ,-21, ,
-8, ,-22, ,
-7, ,-22, ,
-7, ,-21, ,
-6, ,-22, ,
-5, ,-22, ,
-4, ,-22, ,
-3, ,-22, ,
-1, ,-22, ,
0, ,-22, ,
1, ,-22, ,
1, ,-22, ,
3, ,-22, ,
3, ,-21, ,
4, ,-21, ,
4, ,-22, ,
4, ,-22, ,
4, ,-22, ,
4, ,-22, ,
4, ,-22, ,
3, ,-22, ,
2, ,-22, ,
2, ,-22, ,
2, ,-22, ,
0, ,-22, ,
-1, ,-22, ,
-1, ,-21, ,
-2, ,-21, ,
-3, ,-21, ,
-4, ,-21, ,
-5, ,-21, ,
-5, ,-22, ,
-6, ,-22, ,
-6, ,-22, ,
-6, ,-22, ,
-6, ,-22, ,
-6, ,-22, ,
-5, ,-21, ,
-5, ,-21, ,
-5, ,-22, ,
-4, ,-22, ,
-4, ,-22, ,
-3, ,-22, ,
-3, ,-21, ,
-2, ,-22, ,
-2, ,-22, ,
-1, ,-22, ,
0, ,-21, ,
1, ,-22, ,
1, ,-22, ,
1, ,-22, ,
2, ,-22, ,
2, ,-22, ,
2, ,-22, ,
2, ,-22, ,
2, ,-22, ,
2, ,-22, ,
2, ,-22, ,
2, ,-22, ,
2, ,-22, ,
1, ,-22, ,
1, ,-21, ,
1, ,-22, ,
1, ,-22, ,
0, ,-22, ,
-1, ,-22, ,
-1, ,-22, ,
-2, ,-21, ,
-2, ,-21, ,
-2, ,-22, ,
-3, ,-22, ,
-3, ,-22, ,
-4, ,-22, ,
-4, ,-22, ,
-4, ,-21, ,
-4, ,-21, ,
-4, ,-21, ,
-4, ,-21, ,
-4, ,-22, ,
-4, ,-22, ,
-3, ,-22, ,
-3, ,-22, ,
-3, ,-22, ,
-3, ,-21, ,
-2, ,-22, ,
-2, ,-22, ,
-2, ,-22, ,
-1, ,-22, ,
-1, ,-22, ,
0, ,-22, ,
1, ,-21, ,
1, ,-22, ,
2, ,-22, ,
3, ,-22, ,
3, ,-22, ,
5, ,-22, ,
6, ,-22, ,
7, ,-22, ,
7, ,-22, ,
7, ,-22, ,
6, ,-22, ,
6, ,-22, ,
5, ,-22, ,
5, ,-22, ,
1, ,-22, ,
0, ,-22, ,
-1, ,-22, ,
-4, ,-22, ,
-8, ,-22, ,
-8, ,-22, ,
-11, ,-22, ,
-12, ,-22, ,
-14, ,-22, ,
-15, ,-22, ,
-15, ,-22, ,
-15, ,-22, ,
-15, ,-21, ,
-15, ,-22, ,
-15, ,-22, ,
-13, ,-22, ,
-11, ,-22, ,
-9, ,-22, ,
-7, ,-21, ,
-5, ,-22, ,
-1, ,-22, ,
1, ,-21, ,
3, ,-21, ,
5, ,-21, ,
9, ,-22, ,
10, ,-22, ,
11, ,-22, ,
12, ,-22, ,
14, ,-22, ,
15, ,-21, ,
15, ,-21, ,
15, ,-22, ,
14, ,-22, ,
13, ,-22, ,
12, ,-22, ,
11, ,-21, ,
8, ,-22, ,
8, ,-22, ,
5, ,-22, ,
4, ,-22, ,
1, ,-21, ,
-1, ,-22, ,
-2, ,-22, ,
-4, ,-22, ,
-7, ,-22, ,
-8, ,-22, ,
-9, ,-22, ,
-10, ,-21, ,
-12, ,-21, ,
-13, ,-22, ,
-14, ,-22, ,
-15, ,-22, ,
-15, ,-22, ,
-14, ,-22, ,
-14, ,-22, ,
-14, ,-22, ,
-13, ,-21, ,
-13, ,-22, ,
-12, ,-22, ,
-11, ,-21, ,
-9, ,-22, ,
-9, ,-22, ,
-8, ,-22, ,
-6, ,-21, ,
-4, ,-21, ,
-4, ,-21, ,
-3, ,-21, ,
-2, ,-22, ,
-1, ,-22, ,
1, ,-22, ,
1, ,-22, ,
1, ,-22, ,
2, ,-22, ,
2, ,-22, ,
2, ,-22, ,
2, ,-21, ,
3, ,-22, ,
4, ,-22, ,
4, ,-22, ,
5, ,-21, ,
6, ,-21, ,
6, ,-22, ,
8, ,-22, ,
9, ,-22, ,
11, ,-22, ,
12, ,-22, ,
13, ,-22, ,
14, ,-22, ,
16, ,-22, ,
16, ,-22, ,
16, ,-22, ,
16, ,-21, ,
15, ,-22, ,
15, ,-22, ,
13, ,-22, ,
12, ,-22, ,
9, ,-22, ,
7, ,-22, ,
5, ,-22, ,
2, ,-22, ,
-3, ,-22, ,
-4, ,-22, ,
-6, ,-22, ,
-8, ,-22, ,
-10, ,-21, ,
-12, ,-22, ,
-13, ,-22, ,
-13, ,-22, ,
-13, ,-22, ,
-12, ,-22, ,
-12, ,-22, ,
-11, ,-22, ,
-9, ,-22, ,
-7, ,-22, ,
-5, ,-22, ,
-5, ,-22, ,
-1, ,-22, ,
1, ,-21, ,
1, ,-22, ,
2, ,-22, ,
4, ,-22, ,
4, ,-22, ,
4, ,-22, ,
3, ,-21, ,
1, ,-22, ,
0, ,-22, ,
-1, ,-22, ,
-2, ,-22, ,
-6, ,-22, ,
-8, ,-22, ,
-10, ,-21, ,
-12, ,-21, ,
-16, ,-21, ,
-17, ,-21, ,
-19, ,-22, ,
-20, ,-22, ,
-20, ,-21, ,
-20, ,-22, ,
-20, ,-22, ,
-20, ,-22, ,
-17, ,-22, ,
-15, ,-22, ,
-14, ,-22, ,
-11, ,-22, ,
-7, ,-22, ,
-4, ,-22, ,
-1, ,-22, ,
0, ,-22, ,
4, ,-22, ,
7, ,-22, ,
8, ,-22, ,
9, ,-22, ,
11, ,-22, ,
10, ,-22, ,
10, ,-22, ,
9, ,-22, ,
8, ,-22, ,
8, ,-22, ,
7, ,-22, ,
6, ,-22, ,
4, ,-22, ,
3, ,-22, ,
3, ,-22, ,
2, ,-22, ,
1, ,-22, ,
1, ,-22, ,
1, ,-21, ,
1, ,-22, ,
1, ,-22, ,
1, ,-22, ,
1, ,-22, ,
1, ,-21, ,
1, ,-22, ,
1, ,-22, ,
1, ,-22, ,
1, ,-22, ,
2, ,-22, ,
2, ,-22, ,
3, ,-21, ,
3, ,-22, ,
3, ,-22, ,
4, ,-21, ,
4, ,-22, ,
4, ,-22, ,
4, ,-22, ,
4, ,-22, ,
4, ,-22, ,
3, ,-22, ,
2, ,-22, ,
1, ,-22, ,
0, ,-22, ,
-1, ,-22, ,
-4, ,-22, ,
-5, ,-22, ,
-7, ,-22, ,
-9, ,-21, ,
-13, ,-21, ,
-13, ,-21, ,
-16, ,-22, ,
-16, ,-22, ,
-18, ,-21, ,
-20, ,-21, ,
-20, ,-22, ,
-20, ,-22, ,
-19, ,-22, ,
-18, ,-22, ,
-18, ,-22, ,
-16, ,-22, ,
-14, ,-22, ,
-13, ,-22, ,
-10, ,-22, ,
-10, ,-22, ,
-7, ,-22, ,
-5, ,-21, ,
-3, ,-21, ,
-1, ,-21, ,
1, ,-21, ,
2, ,-22, ,
4, ,-22, ,
4, ,-21, ,
6, ,-21, ,
6, ,-22, ,
6, ,-22, ,
7, ,-22, ,
6, ,-22, ,
6, ,-22, ,
6, ,-21, ,
5, ,-22, ,
4, ,-22, ,
3, ,-21, ,
2, ,-22, ,
2, ,-22, ,
0, ,-22, ,
-1, ,-22, ,
-1, ,-22, ,
-2, ,-21, ,
-2, ,-22, ,
-2, ,-22, ,
-2, ,-22, ,
-2, ,-22, ,
-1, ,-22, ,
-1, ,-22, ,
0, ,-21, ,
0, ,-21, ,
0, ,-21, ,
2, ,-21, ,
2, ,-21, ,
3, ,-22, ,
5, ,-22, ,
5, ,-21, ,
6, ,-22, ,
7, ,-22, ,
8, ,-22, ,
9, ,-22, ,
9, ,-22, ,
10, ,-21, ,
10, ,-22, ,
10, ,-22, ,
9, ,-22, ,
9, ,-22, ,
7, ,-22, ,
7, ,-22, ,
6, ,-22, ,
4, ,-22, ,
3, ,-22, ,
1, ,-22, ,
0, ,-21, ,
-1, ,-21, ,
-3, ,-22, ,
-3, ,-22, ,
-5, ,-22, ,
-5, ,-22, ,
-7, ,-22, ,
-8, ,-22, ,
-8, ,-21, ,
-9, ,-22, ,
-10, ,-22, ,
-10, ,-21, ,
-10, ,-22, ,
-9, ,-22, ,
-8, ,-21, ,
-8, ,-22, ,
-7, ,-22, ,
-7, ,-21, ,
-4, ,-22, ,
-2, ,-22, ,
-1, ,-22, ,
1, ,-21, ,
4, ,-22, ,
5, ,-22, ,
6, ,-22, ,
7, ,-22, ,
8, ,-22, ,
8, ,-22, ,
8, ,-21, ,
7, ,-22, ,
6, ,-22, ,
4, ,-22, ,
3, ,-22, ,
1, ,-22, ,
-2, ,-22, ,
-3, ,-22, ,
-5, ,-22, ,
-6, ,-22, ,
-8, ,-22, ,
-9, ,-22, ,
-9, ,-22, ,
-9, ,-22, ,
-9, ,-22, ,
-8, ,-21, ,
-7, ,-21, ,
-6, ,-22, ,
-3, ,-22, ,
-2, ,-22, ,
-1, ,-22, ,
1, ,-22, ,
3, ,-22, ,
4, ,-22, ,
4, ,-22, ,
6, ,-21, ,
7, ,-21, ,
7, ,-21, ,
7, ,-22, ,
7, ,-22, ,
7, ,-22, ,
7, ,-21, ,
6, ,-22, ,
6, ,-22, ,
6, ,-22, ,
5, ,-22, ,
5, ,-22, ,
5, ,-22, ,
4, ,-22, ,
4, ,-22, ,
4, ,-22, ,
3, ,-21, ,
3, ,-21, ,
3, ,-21, ,
3, ,-22, ,
2, ,-22, ,
1, ,-22, ,
1, ,-22, ,
1, ,-22, ,
1, ,-22, ,
0, ,-22, ,
-2, ,-22, ,
-2, ,-21, ,
-3, ,-21, ,
-4, ,-22, ,
-5, ,-22, ,
-6, ,-22, ,
-6, ,-22, ,
-7, ,-22, ,
-8, ,-22, ,
-8, ,-22, ,
-9, ,-22, ,
-9, ,-22, ,
-8, ,-21, ,
-8, ,-22, ,
-8, ,-22, ,
-7, ,-22, ,
-7, ,-22, ,
-6, ,-22, ,
-5, ,-22, ,
-3, ,-22, ,
-1, ,-22, ,
-1, ,-22, ,
1, ,-22, ,
3, ,-22, ,
4, ,-22, ,
5, ,-22, ,
5, ,-22, ,
6, ,-22, ,
6, ,-22, ,
6, ,-22, ,
6, ,-22, ,
5, ,-22, ,
4, ,-22, ,
3, ,-22, ,
2, ,-22, ,
0, ,-22, ,
0, ,-22, ,
-1, ,-22, ,
-1, ,-22, ,
-2, ,-22, ,
-3, ,-22, ,
-3, ,-22, ,
-3, ,-22, ,
-3, ,-22, ,
-1, ,-22, ,
-1, ,-22, ,
-1, ,-22, ,
0, ,-22, ,
1, ,-22, ,
2, ,-22, ,
2, ,-22, ,
4, ,-22, ,
4, ,-22, ,
5, ,-22, ,
5, ,-22, ,
5, ,-22, ,
5, ,-22, ,
4, ,-22, ,
4, ,-22, ,
2, ,-22, ,
2, ,-22, ,
0, ,-22, ,
0, ,-22, ,
-2, ,-21, ,
-3, ,-21, ,
-4, ,-22, ,
-5, ,-22, ,
-6, ,-22, ,
-5, ,-22, ,
-5, ,-22, ,
-5, ,-22, ,
-4, ,-22, ,
-4, ,-22, ,
-3, ,-22, ,
-3, ,-22, ,
-1, ,-22, ,
1, ,-22, ,
1, ,-22, ,
3, ,-22, ,
4, ,-21, ,
5, ,-22, ,
5, ,-22, ,
5, ,-21, ,
4, ,-22, ,
4, ,-22, ,
4, ,-22, ,
4, ,-22, ,
2, ,-22, ,
1, ,-22, ,
1, ,-22, ,
0, ,-22, ,
-2, ,-22, ,
-2, ,-21, ,
-3, ,-22, ,
-3, ,-22, ,
-3, ,-21, ,
-3, ,-22, ,
-3, ,-22, ,
-3, ,-22, ,
-3, ,-22, ,
-3, ,-22, ,
-3, ,-22, ,
-2, ,-22, ,
-2, ,-22, ,
-1, ,-22, ,
-1, ,-22, ,
-1, ,-22, ,
1, ,-22, ,
2, ,-22, ,
2, ,-22, ,
3, ,-22, ,
4, ,-21, ,
4, ,-22, ,
4, ,-22, ,
5, ,-22, ,
5, ,-22, ,
5, ,-22, ,
4, ,-22, ,
4, ,-22, ,
4, ,-22, ,
3, ,-22, ,
3, ,-22, ,
2, ,-22, ,
1, ,-22, ,
1, ,-21, ,
0, ,-22, ,
0, ,-22, ,
0, ,-22, ,
0, ,-22, ,
0, ,-22, ,
0, ,-22, ,
0, ,-22, ,
0, ,-22, ,
1, ,-22, ,
1, ,-21, ,
1, ,-21, ,
2, ,-21, ,
2, ,-21, ,
2, ,-22, ,
2, ,-22, ,
2, ,-22, ,
2, ,-22, ,
2, ,-21, ,
2, ,-21, ,
1, ,-21, ,
1, ,-21, ,
1, ,-22, ,
-1, ,-22, ,
-1, ,-22, ,
-2, ,-22, ,
-2, ,-22, ,
-3, ,-22, ,
-4, ,-22, ,
-4, ,-21, ,
-5, ,-21, ,
-5, ,-21, ,
-5, ,-21, ,
-5, ,-22, ,
-5, ,-22, ,
-5, ,-21, ,
-5, ,-22, ,
-4, ,-22, ,
-3, ,-22, ,
-2, ,-22, ,
-1, ,-22, ,
0, ,-22, ,
2, ,-22, ,
4, ,-22, ,
5, ,-22, ,
7, ,-22, ,
7, ,-22, ,
9, ,-22, ,
11, ,-22, ,
11, ,-22, ,
12, ,-22, ,
14, ,-22, ,
14, ,-22, ,
14, ,-22, ,
15, ,-21, ,
14, ,-21, ,
14, ,-21, ,
13, ,-22, ,
13, ,-22, ,
12, ,-22, ,
10, ,-22, ,
10, ,-21, ,
8, ,-22, ,
5, ,-22, ,
4, ,-21, ,
2, ,-22, ,
0, ,-22, ,
-3, ,-22, ,
-5, ,-22, ,
-7, ,-22, ,
-8, ,-22, ,
-12, ,-22, ,
-13, ,-21, ,
-14, ,-21, ,
-15, ,-22, ,
-16, ,-22, ,
-17, ,-22, ,
-17, ,-22, ,
-17, ,-21, ,
-17, ,-22, ,
-16, ,-22, ,
-16, ,-22, ,
-15, ,-22, ,
-14, ,-22, ,
-13, ,-22, ,
-12, ,-22, ,
-11, ,-21, ,
-9, ,-22, ,
-7, ,-22, ,
-6, ,-22, ,
-4, ,-21, ,
-2, ,-22, ,
-1, ,-22, ,
1, ,-22, ,
