raw_data/75% Glycerol, Impulsion 2Hz, Sonde 5MHz, Rampe 0.7Hz/temp0000065.CSV

Format,1.0B,
Memory Length,10000,Memory Length,10000,
IntpDistance,0,IntpDistance,0,
Trigger Address,159,Trigger Address,159,
Trigger Level,2.720E-01,Trigger Level,2.720E-01,
Source,CH1,Source,CH2,
Vertical Units,V,Vertical Units,V,
Vertical Units Div,0,Vertical Units Div,0,
Vertical Units Extend Div,16,Vertical Units Extend Div,16,
Label,,Label,,
Probe Type,0,Probe Type,0,
Probe Ratio,1.000e+00,Probe Ratio,1.000e+00,
Vertical Scale,5.000e-01,Vertical Scale,2.000e+00,
Vertical Position,0.000e+00,Vertical Position,0.000e+00,
Horizontal Units,S,Horizontal Units,S,
Horizontal Scale,5.000E-06,Horizontal Scale,5.000E-06,
Horizontal Position,2.420E-05,Horizontal Position,2.420E-05,
Horizontal Mode,Main,Horizontal Mode,Main,
SincET Mode,Real Time,SincET Mode,Real Time,
Sampling Period,5.000e-09,Sampling Period,5.000e-09,
Horizontal Old Scale,5.000E-06,Horizontal Old Scale,5.000E-06,
Horizontal Old Position,2.420E-05,Horizontal Old Position,2.420E-05,
Firmware,V1.32,Firmware,V1.32,
Mode,Fast,Mode,Fast,
Waveform Data,,Waveform Data,,
0, ,-29, ,
0, ,-29, ,
0, ,-29, ,
0, ,-29, ,
0, ,-29, ,
0, ,-29, ,
0, ,-30, ,
0, ,-30, ,
0, ,-29, ,
1, ,-29, ,
0, ,-29, ,
0, ,-29, ,
0, ,-29, ,
0, ,-29, ,
0, ,-29, ,
0, ,-29, ,
1, ,-29, ,
0, ,-29, ,
0, ,-29, ,
0, ,-29, ,
0, ,-29, ,
0, ,-29, ,
1, ,-29, ,
0, ,-29, ,
0, ,-29, ,
1, ,-29, ,
0, ,-29, ,
0, ,-29, ,
0, ,-30, ,
1, ,-30, ,
1, ,-30, ,
0, ,-29, ,
0, ,-29, ,
0, ,-29, ,
0, ,-29, ,
0, ,-29, ,
0, ,-29, ,
1, ,-29, ,
1, ,-29, ,
0, ,-29, ,
0, ,-29, ,
0, ,-29, ,
0, ,-29, ,
1, ,-29, ,
1, ,-30, ,
1, ,-30, ,
1, ,-30, ,
1, ,-29, ,
1, ,-29, ,
1, ,-29, ,
1, ,-29, ,
1, ,-29, ,
1, ,-29, ,
0, ,-29, ,
0, ,-29, ,
0, ,-29, ,
0, ,-29, ,
0, ,-29, ,
0, ,-29, ,
1, ,-29, ,
1, ,-29, ,
0, ,-29, ,
0, ,-29, ,
0, ,-29, ,
0, ,-29, ,
0, ,-29, ,
0, ,-29, ,
0, ,-29, ,
0, ,-29, ,
0, ,-29, ,
0, ,-29, ,
0, ,-29, ,
0, ,-29, ,
1, ,-29, ,
0, ,-29, ,
0, ,-29, ,
0, ,-29, ,
0, ,-29, ,
1, ,-29, ,
0, ,-29, ,
0, ,-29, ,
0, ,-29, ,
0, ,-29, ,
1, ,-29, ,
0, ,-29, ,
0, ,-29, ,
0, ,-29, ,
0, ,-29, ,
0, ,-29, ,
1, ,-29, ,
0, ,-29, ,
0, ,-29, ,
0, ,-29, ,
0, ,-29, ,
0, ,-29, ,
0, ,-29, ,
1, ,-29, ,
0, ,-29, ,
0, ,-29, ,
1, ,-29, ,
0, ,-29, ,
0, ,-29, ,
0, ,-29, ,
0, ,-29, ,
1, ,-29, ,
1, ,-29, ,
0, ,-29, ,
0, ,-29, ,
0, ,-29, ,
0, ,-29, ,
1, ,-29, ,
0, ,-29, ,
0, ,-29, ,
0, ,-29, ,
0, ,-29, ,
1, ,-29, ,
0, ,-29, ,
0, ,-29, ,
0, ,-29, ,
0, ,-29, ,
0, ,-29, ,
1, ,-29, ,
0, ,-29, ,
0, ,-29, ,
0, ,-29, ,
1, ,-29, ,
1, ,-29, ,
1, ,-29, ,
1, ,-29, ,
0, ,-29, ,
0, ,-29, ,
0, ,-29, ,
0, ,-29, ,
0, ,-29, ,
0, ,-29, ,
0, ,-29, ,
0, ,-29, ,
1, ,-29, ,
1, ,-29, ,
1, ,-29, ,
0, ,-29, ,
1, ,-29, ,
1, ,-29, ,
1, ,-29, ,
1, ,-29, ,
0, ,-29, ,
0, ,-29, ,
0, ,-29, ,
0, ,-29, ,
0, ,-29, ,
0, ,-29, ,
0, ,-29, ,
0, ,-29, ,
0, ,-29, ,
0, ,-29, ,
0, ,-29, ,
0, ,-29, ,
1, ,-29, ,
1, ,-29, ,
1, ,-30, ,
1, ,-30, ,
0, ,-30, ,
0, ,-29, ,
1, ,-29, ,
1, ,-29, ,
-1, ,-29, ,
0, ,-29, ,
0, ,-30, ,
10, ,-30, ,
68, ,-29, ,
108, ,-29, ,
124, ,-29, ,
123, ,-29, ,
67, ,-29, ,
10, ,-29, ,
-6, ,-29, ,
30, ,-29, ,
125, ,-29, ,
125, ,-29, ,
125, ,-29, ,
125, ,-29, ,
125, ,-29, ,
125, ,-29, ,
124, ,-29, ,
124, ,-29, ,
118, ,-29, ,
112, ,-29, ,
108, ,-29, ,
104, ,-29, ,
98, ,-29, ,
95, ,-29, ,
91, ,-29, ,
88, ,-29, ,
81, ,-29, ,
77, ,-29, ,
75, ,-29, ,
73, ,-29, ,
66, ,-29, ,
64, ,-29, ,
61, ,-29, ,
59, ,-29, ,
54, ,-29, ,
52, ,-29, ,
50, ,-29, ,
47, ,-29, ,
43, ,-29, ,
42, ,-29, ,
40, ,-29, ,
38, ,-29, ,
35, ,-29, ,
33, ,-29, ,
32, ,-29, ,
31, ,-29, ,
27, ,-29, ,
26, ,-29, ,
25, ,-29, ,
25, ,-29, ,
22, ,-30, ,
22, ,-30, ,
21, ,-29, ,
20, ,-29, ,
18, ,-29, ,
17, ,-29, ,
16, ,-29, ,
16, ,-29, ,
14, ,-29, ,
13, ,-29, ,
12, ,-29, ,
11, ,-29, ,
10, ,-29, ,
10, ,-29, ,
9, ,-29, ,
9, ,-29, ,
8, ,-29, ,
7, ,-29, ,
7, ,-29, ,
6, ,-29, ,
6, ,-29, ,
5, ,-30, ,
5, ,-30, ,
4, ,-29, ,
4, ,-30, ,
3, ,-30, ,
3, ,-29, ,
3, ,-29, ,
2, ,-29, ,
2, ,-29, ,
2, ,-29, ,
2, ,-29, ,
1, ,-30, ,
1, ,-30, ,
1, ,-29, ,
1, ,-29, ,
0, ,-29, ,
0, ,-29, ,
0, ,-29, ,
0, ,-29, ,
0, ,-29, ,
0, ,-29, ,
0, ,-29, ,
0, ,-29, ,
-1, ,-29, ,
-1, ,-29, ,
-1, ,-29, ,
-1, ,-29, ,
-1, ,-29, ,
-1, ,-29, ,
-1, ,-29, ,
-1, ,-29, ,
-1, ,-29, ,
-1, ,-29, ,
-2, ,-29, ,
-2, ,-29, ,
-2, ,-29, ,
-2, ,-29, ,
-1, ,-29, ,
-2, ,-29, ,
-2, ,-29, ,
-1, ,-29, ,
-2, ,-30, ,
-2, ,-30, ,
-2, ,-30, ,
-2, ,-29, ,
-2, ,-29, ,
-2, ,-29, ,
-2, ,-29, ,
-1, ,-29, ,
-2, ,-29, ,
-2, ,-29, ,
-1, ,-29, ,
-2, ,-29, ,
-2, ,-29, ,
-2, ,-29, ,
-1, ,-29, ,
-1, ,-29, ,
-1, ,-29, ,
-1, ,-29, ,
-1, ,-29, ,
-1, ,-29, ,
-1, ,-30, ,
-1, ,-30, ,
-1, ,-29, ,
-1, ,-29, ,
-1, ,-29, ,
-1, ,-29, ,
-1, ,-29, ,
-1, ,-29, ,
-1, ,-29, ,
-1, ,-29, ,
-1, ,-29, ,
-1, ,-29, ,
-1, ,-29, ,
-1, ,-29, ,
-1, ,-29, ,
-1, ,-29, ,
-1, ,-29, ,
-1, ,-29, ,
-1, ,-29, ,
-1, ,-29, ,
-1, ,-29, ,
-1, ,-29, ,
-1, ,-29, ,
-1, ,-29, ,
-1, ,-29, ,
-1, ,-29, ,
-1, ,-29, ,
0, ,-29, ,
0, ,-29, ,
0, ,-29, ,
-1, ,-29, ,
-1, ,-29, ,
-1, ,-29, ,
-1, ,-29, ,
-1, ,-29, ,
-1, ,-29, ,
-1, ,-29, ,
0, ,-29, ,
-1, ,-29, ,
-1, ,-29, ,
-1, ,-29, ,
-1, ,-29, ,
0, ,-29, ,
0, ,-29, ,
0, ,-29, ,
0, ,-29, ,
0, ,-29, ,
0, ,-29, ,
0, ,-29, ,
0, ,-29, ,
0, ,-29, ,
0, ,-29, ,
0, ,-29, ,
0, ,-29, ,
0, ,-29, ,
0, ,-29, ,
0, ,-29, ,
0, ,-29, ,
0, ,-29, ,
0, ,-29, ,
0, ,-29, ,
0, ,-29, ,
0, ,-30, ,
0, ,-30, ,
0, ,-29, ,
-1, ,-29, ,
0, ,-29, ,
0, ,-29, ,
0, ,-29, ,
0, ,-29, ,
0, ,-29, ,
0, ,-29, ,
0, ,-29, ,
0, ,-29, ,
0, ,-29, ,
0, ,-29, ,
0, ,-30, ,
0, ,-30, ,
0, ,-30, ,
0, ,-29, ,
0, ,-29, ,
0, ,-30, ,
0, ,-30, ,
0, ,-30, ,
0, ,-29, ,
0, ,-29, ,
0, ,-29, ,
0, ,-29, ,
0, ,-29, ,
0, ,-29, ,
0, ,-29, ,
0, ,-30, ,
0, ,-30, ,
0, ,-29, ,
0, ,-29, ,
0, ,-29, ,
0, ,-30, ,
0, ,-30, ,
0, ,-29, ,
0, ,-29, ,
0, ,-30, ,
0, ,-30, ,
0, ,-30, ,
0, ,-29, ,
0, ,-30, ,
0, ,-30, ,
0, ,-29, ,
0, ,-29, ,
0, ,-29, ,
0, ,-29, ,
0, ,-30, ,
0, ,-30, ,
0, ,-29, ,
0, ,-29, ,
0, ,-29, ,
0, ,-29, ,
0, ,-30, ,
0, ,-30, ,
0, ,-30, ,
0, ,-29, ,
0, ,-29, ,
0, ,-29, ,
0, ,-29, ,
0, ,-29, ,
0, ,-29, ,
0, ,-29, ,
0, ,-29, ,
0, ,-29, ,
0, ,-29, ,
0, ,-29, ,
-1, ,-29, ,
-1, ,-29, ,
-1, ,-29, ,
0, ,-29, ,
-1, ,-29, ,
-1, ,-29, ,
-1, ,-29, ,
-1, ,-29, ,
-1, ,-29, ,
-2, ,-30, ,
-2, ,-30, ,
-3, ,-29, ,
-4, ,-29, ,
-5, ,-29, ,
-6, ,-29, ,
-7, ,-29, ,
-7, ,-29, ,
-5, ,-29, ,
-5, ,-29, ,
-5, ,-29, ,
-2, ,-29, ,
-1, ,-29, ,
-1, ,-29, ,
0, ,-29, ,
1, ,-29, ,
1, ,-29, ,
1, ,-29, ,
2, ,-29, ,
2, ,-30, ,
2, ,-30, ,
2, ,-29, ,
1, ,-30, ,
1, ,-30, ,
0, ,-30, ,
0, ,-29, ,
0, ,-29, ,
-1, ,-29, ,
-2, ,-29, ,
-2, ,-29, ,
-2, ,-29, ,
-1, ,-29, ,
-1, ,-29, ,
-1, ,-29, ,
0, ,-29, ,
1, ,-29, ,
1, ,-29, ,
1, ,-29, ,
1, ,-30, ,
2, ,-30, ,
2, ,-30, ,
2, ,-29, ,
2, ,-29, ,
1, ,-29, ,
1, ,-29, ,
1, ,-29, ,
1, ,-30, ,
1, ,-30, ,
1, ,-30, ,
0, ,-29, ,
0, ,-29, ,
0, ,-29, ,
1, ,-29, ,
1, ,-29, ,
1, ,-29, ,
1, ,-29, ,
1, ,-29, ,
1, ,-30, ,
1, ,-30, ,
1, ,-30, ,
1, ,-29, ,
1, ,-29, ,
0, ,-29, ,
0, ,-29, ,
0, ,-29, ,
0, ,-29, ,
0, ,-29, ,
0, ,-30, ,
0, ,-30, ,
0, ,-29, ,
0, ,-29, ,
1, ,-29, ,
1, ,-29, ,
1, ,-29, ,
1, ,-29, ,
1, ,-29, ,
1, ,-29, ,
2, ,-29, ,
1, ,-29, ,
1, ,-29, ,
1, ,-30, ,
0, ,-30, ,
0, ,-29, ,
-1, ,-29, ,
-2, ,-29, ,
-2, ,-29, ,
-4, ,-29, ,
-5, ,-29, ,
-7, ,-29, ,
-9, ,-29, ,
-10, ,-29, ,
-12, ,-29, ,
-14, ,-29, ,
-14, ,-29, ,
-15, ,-29, ,
-15, ,-29, ,
-15, ,-29, ,
-15, ,-29, ,
-15, ,-29, ,
-15, ,-29, ,
-16, ,-29, ,
-17, ,-29, ,
-18, ,-29, ,
-21, ,-29, ,
-22, ,-30, ,
-25, ,-30, ,
-25, ,-29, ,
-28, ,-29, ,
-29, ,-29, ,
-28, ,-29, ,
-28, ,-29, ,
-26, ,-29, ,
-25, ,-29, ,
-25, ,-29, ,
-23, ,-29, ,
-20, ,-29, ,
-19, ,-29, ,
-19, ,-29, ,
-20, ,-29, ,
-21, ,-29, ,
-22, ,-29, ,
-25, ,-29, ,
-26, ,-29, ,
-31, ,-29, ,
-33, ,-29, ,
-36, ,-29, ,
-37, ,-29, ,
-39, ,-29, ,
-39, ,-30, ,
-38, ,-30, ,
-37, ,-30, ,
-33, ,-30, ,
-31, ,-29, ,
-27, ,-29, ,
-25, ,-30, ,
-18, ,-30, ,
-15, ,-30, ,
-12, ,-29, ,
-7, ,-29, ,
-2, ,-29, ,
0, ,-29, ,
3, ,-29, ,
5, ,-29, ,
9, ,-29, ,
10, ,-29, ,
12, ,-29, ,
13, ,-29, ,
14, ,-29, ,
14, ,-29, ,
14, ,-30, ,
14, ,-30, ,
13, ,-29, ,
13, ,-29, ,
12, ,-30, ,
11, ,-30, ,
10, ,-30, ,
9, ,-29, ,
8, ,-29, ,
8, ,-30, ,
7, ,-30, ,
7, ,-30, ,
7, ,-29, ,
8, ,-29, ,
8, ,-29, ,
9, ,-29, ,
11, ,-29, ,
11, ,-29, ,
14, ,-29, ,
15, ,-29, ,
15, ,-29, ,
16, ,-29, ,
17, ,-29, ,
16, ,-29, ,
16, ,-29, ,
15, ,-29, ,
12, ,-29, ,
11, ,-29, ,
9, ,-29, ,
7, ,-29, ,
2, ,-29, ,
-1, ,-29, ,
-3, ,-29, ,
-7, ,-29, ,
-11, ,-29, ,
-13, ,-29, ,
-15, ,-29, ,
-16, ,-29, ,
-18, ,-29, ,
-18, ,-29, ,
-18, ,-29, ,
-18, ,-29, ,
-15, ,-29, ,
-15, ,-29, ,
-14, ,-29, ,
-12, ,-29, ,
-10, ,-29, ,
-10, ,-29, ,
-9, ,-29, ,
-9, ,-29, ,
-9, ,-29, ,
-9, ,-29, ,
-10, ,-29, ,
-10, ,-29, ,
-12, ,-29, ,
-13, ,-29, ,
-13, ,-29, ,
-14, ,-29, ,
-15, ,-29, ,
-15, ,-29, ,
-15, ,-30, ,
-14, ,-30, ,
-14, ,-30, ,
-14, ,-29, ,
-14, ,-29, ,
-15, ,-29, ,
-15, ,-29, ,
-15, ,-29, ,
-15, ,-29, ,
-14, ,-29, ,
-14, ,-29, ,
-14, ,-29, ,
-13, ,-30, ,
-13, ,-30, ,
-11, ,-29, ,
-9, ,-29, ,
-8, ,-29, ,
-6, ,-29, ,
-5, ,-29, ,
-4, ,-29, ,
-3, ,-29, ,
-3, ,-29, ,
-3, ,-29, ,
-3, ,-29, ,
-4, ,-29, ,
-4, ,-29, ,
-4, ,-29, ,
-4, ,-29, ,
-4, ,-29, ,
-4, ,-29, ,
-4, ,-29, ,
-4, ,-29, ,
-4, ,-29, ,
-3, ,-29, ,
-3, ,-29, ,
-3, ,-29, ,
-3, ,-29, ,
-3, ,-29, ,
-3, ,-29, ,
-4, ,-29, ,
-4, ,-29, ,
-5, ,-29, ,
-6, ,-29, ,
-7, ,-29, ,
-7, ,-29, ,
-8, ,-29, ,
-9, ,-29, ,
-10, ,-30, ,
-11, ,-30, ,
-11, ,-29, ,
-12, ,-29, ,
-13, ,-29, ,
-13, ,-29, ,
-14, ,-29, ,
-16, ,-29, ,
-16, ,-29, ,
-17, ,-29, ,
-17, ,-29, ,
-17, ,-29, ,
-17, ,-29, ,
-17, ,-29, ,
-17, ,-29, ,
-17, ,-29, ,
-16, ,-30, ,
-15, ,-30, ,
-15, ,-29, ,
-13, ,-30, ,
-13, ,-30, ,
-12, ,-29, ,
-11, ,-29, ,
-8, ,-29, ,
-6, ,-29, ,
-6, ,-29, ,
-3, ,-29, ,
-1, ,-29, ,
1, ,-29, ,
3, ,-29, ,
4, ,-29, ,
8, ,-29, ,
9, ,-29, ,
10, ,-29, ,
12, ,-29, ,
14, ,-29, ,
16, ,-29, ,
16, ,-29, ,
17, ,-29, ,
19, ,-29, ,
19, ,-29, ,
19, ,-30, ,
20, ,-30, ,
19, ,-30, ,
18, ,-29, ,
18, ,-29, ,
17, ,-29, ,
15, ,-29, ,
14, ,-29, ,
12, ,-29, ,
12, ,-29, ,
9, ,-29, ,
8, ,-29, ,
6, ,-29, ,
5, ,-29, ,
3, ,-29, ,
2, ,-29, ,
0, ,-29, ,
0, ,-29, ,
-2, ,-29, ,
-4, ,-29, ,
-4, ,-30, ,
-5, ,-30, ,
-8, ,-29, ,
-9, ,-29, ,
-10, ,-29, ,
-11, ,-29, ,
-13, ,-29, ,
-14, ,-29, ,
-14, ,-29, ,
-15, ,-29, ,
-16, ,-29, ,
-16, ,-29, ,
-16, ,-29, ,
-15, ,-29, ,
-14, ,-29, ,
-14, ,-29, ,
-14, ,-29, ,
-14, ,-29, ,
-13, ,-29, ,
-13, ,-29, ,
-13, ,-29, ,
-14, ,-29, ,
-15, ,-29, ,
-16, ,-29, ,
-17, ,-29, ,
-19, ,-29, ,
-23, ,-29, ,
-24, ,-29, ,
-25, ,-29, ,
-27, ,-29, ,
-30, ,-29, ,
-32, ,-29, ,
-33, ,-29, ,
-34, ,-29, ,
-34, ,-29, ,
-33, ,-29, ,
-33, ,-29, ,
-31, ,-29, ,
-28, ,-30, ,
-26, ,-30, ,
-24, ,-29, ,
-23, ,-29, ,
-18, ,-29, ,
-15, ,-29, ,
-13, ,-29, ,
-12, ,-29, ,
-8, ,-29, ,
-8, ,-29, ,
-7, ,-30, ,
-6, ,-30, ,
-6, ,-29, ,
-6, ,-29, ,
-7, ,-29, ,
-7, ,-29, ,
-7, ,-29, ,
-7, ,-29, ,
-7, ,-29, ,
-7, ,-29, ,
-6, ,-29, ,
-6, ,-29, ,
-6, ,-29, ,
-5, ,-29, ,
-3, ,-29, ,
-3, ,-29, ,
-1, ,-29, ,
-1, ,-29, ,
1, ,-29, ,
2, ,-29, ,
4, ,-29, ,
5, ,-29, ,
8, ,-30, ,
9, ,-30, ,
10, ,-29, ,
11, ,-29, ,
12, ,-30, ,
14, ,-30, ,
14, ,-29, ,
14, ,-29, ,
14, ,-29, ,
13, ,-29, ,
13, ,-30, ,
12, ,-30, ,
11, ,-29, ,
10, ,-30, ,
9, ,-30, ,
9, ,-29, ,
8, ,-29, ,
7, ,-29, ,
7, ,-29, ,
6, ,-29, ,
5, ,-29, ,
5, ,-29, ,
4, ,-29, ,
4, ,-29, ,
4, ,-29, ,
4, ,-29, ,
5, ,-29, ,
4, ,-29, ,
4, ,-29, ,
5, ,-29, ,
6, ,-29, ,
6, ,-29, ,
8, ,-29, ,
8, ,-29, ,
10, ,-29, ,
10, ,-29, ,
11, ,-29, ,
12, ,-29, ,
12, ,-29, ,
12, ,-29, ,
11, ,-29, ,
10, ,-29, ,
10, ,-29, ,
8, ,-29, ,
6, ,-29, ,
4, ,-29, ,
1, ,-29, ,
0, ,-29, ,
-5, ,-30, ,
-7, ,-30, ,
-9, ,-29, ,
-12, ,-29, ,
-17, ,-29, ,
-18, ,-29, ,
-21, ,-30, ,
-22, ,-30, ,
-24, ,-30, ,
-25, ,-29, ,
-26, ,-29, ,
-27, ,-29, ,
-28, ,-29, ,
-29, ,-29, ,
-29, ,-29, ,
-29, ,-29, ,
-29, ,-29, ,
-29, ,-29, ,
-28, ,-29, ,
-29, ,-29, ,
-26, ,-29, ,
-25, ,-29, ,
-25, ,-29, ,
-24, ,-29, ,
-21, ,-29, ,
-20, ,-29, ,
-18, ,-30, ,
-17, ,-30, ,
-14, ,-29, ,
-12, ,-29, ,
-11, ,-29, ,
-10, ,-29, ,
-9, ,-29, ,
-8, ,-29, ,
-8, ,-29, ,
-8, ,-29, ,
-9, ,-29, ,
-9, ,-29, ,
-9, ,-29, ,
-9, ,-29, ,
-10, ,-29, ,
-10, ,-29, ,
-10, ,-29, ,
-10, ,-29, ,
-9, ,-29, ,
-9, ,-29, ,
-8, ,-29, ,
-7, ,-29, ,
-4, ,-29, ,
-4, ,-29, ,
-2, ,-29, ,
-1, ,-29, ,
2, ,-29, ,
4, ,-29, ,
4, ,-30, ,
6, ,-30, ,
7, ,-30, ,
7, ,-30, ,
8, ,-30, ,
8, ,-30, ,
7, ,-29, ,
7, ,-30, ,
6, ,-30, ,
6, ,-29, ,
5, ,-29, ,
4, ,-29, ,
4, ,-29, ,
2, ,-29, ,
1, ,-29, ,
1, ,-29, ,
0, ,-29, ,
0, ,-29, ,
0, ,-29, ,
-1, ,-29, ,
-1, ,-30, ,
-1, ,-30, ,
-1, ,-29, ,
-1, ,-29, ,
-1, ,-29, ,
-1, ,-29, ,
-1, ,-29, ,
-2, ,-29, ,
-2, ,-29, ,
-2, ,-29, ,
-2, ,-29, ,
-2, ,-29, ,
-2, ,-29, ,
-2, ,-29, ,
-3, ,-29, ,
-3, ,-29, ,
-3, ,-30, ,
-4, ,-30, ,
-4, ,-29, ,
-4, ,-29, ,
-4, ,-29, ,
-4, ,-29, ,
-5, ,-29, ,
-6, ,-29, ,
-6, ,-29, ,
-6, ,-29, ,
-6, ,-29, ,
-6, ,-29, ,
-7, ,-29, ,
-7, ,-29, ,
-8, ,-29, ,
-8, ,-29, ,
-8, ,-29, ,
-8, ,-29, ,
-8, ,-29, ,
-7, ,-29, ,
-7, ,-29, ,
-7, ,-29, ,
-6, ,-30, ,
-6, ,-30, ,
-5, ,-29, ,
-5, ,-29, ,
-4, ,-29, ,
-4, ,-29, ,
-3, ,-29, ,
-3, ,-29, ,
-2, ,-29, ,
-2, ,-29, ,
-2, ,-29, ,
-2, ,-29, ,
-2, ,-29, ,
-1, ,-29, ,
-1, ,-29, ,
0, ,-29, ,
1, ,-29, ,
2, ,-29, ,
3, ,-29, ,
3, ,-29, ,
4, ,-29, ,
5, ,-29, ,
5, ,-30, ,
5, ,-30, ,
5, ,-30, ,
4, ,-29, ,
4, ,-29, ,
4, ,-29, ,
2, ,-29, ,
1, ,-29, ,
0, ,-29, ,
0, ,-29, ,
-2, ,-30, ,
-3, ,-30, ,
-3, ,-29, ,
-4, ,-29, ,
-6, ,-29, ,
-6, ,-29, ,
-6, ,-29, ,
-6, ,-29, ,
-7, ,-29, ,
-8, ,-29, ,
-8, ,-29, ,
-8, ,-29, ,
-7, ,-29, ,
-7, ,-29, ,
-7, ,-29, ,
-7, ,-29, ,
-6, ,-29, ,
-6, ,-29, ,
-5, ,-29, ,
-5, ,-29, ,
-4, ,-29, ,
-3, ,-29, ,
-3, ,-29, ,
-1, ,-29, ,
0, ,-29, ,
0, ,-29, ,
1, ,-30, ,
2, ,-30, ,
3, ,-29, ,
5, ,-29, ,
5, ,-30, ,
6, ,-30, ,
7, ,-29, ,
7, ,-29, ,
6, ,-29, ,
6, ,-29, ,
6, ,-29, ,
5, ,-29, ,
5, ,-29, ,
5, ,-29, ,
2, ,-29, ,
0, ,-29, ,
0, ,-29, ,
-1, ,-29, ,
-3, ,-29, ,
-4, ,-29, ,
-4, ,-29, ,
-5, ,-29, ,
-5, ,-29, ,
-5, ,-29, ,
-5, ,-29, ,
-5, ,-29, ,
-4, ,-29, ,
-4, ,-29, ,
-4, ,-29, ,
-3, ,-29, ,
-1, ,-29, ,
-1, ,-29, ,
0, ,-29, ,
0, ,-29, ,
1, ,-29, ,
2, ,-29, ,
2, ,-29, ,
4, ,-29, ,
4, ,-29, ,
5, ,-29, ,
5, ,-30, ,
5, ,-30, ,
4, ,-29, ,
4, ,-29, ,
3, ,-29, ,
2, ,-30, ,
1, ,-30, ,
-1, ,-30, ,
-3, ,-29, ,
-4, ,-29, ,
-8, ,-29, ,
-9, ,-29, ,
-10, ,-29, ,
-12, ,-29, ,
-14, ,-29, ,
-16, ,-29, ,
-17, ,-29, ,
-17, ,-29, ,
-17, ,-29, ,
-16, ,-29, ,
-16, ,-29, ,
-15, ,-29, ,
-13, ,-29, ,
-12, ,-29, ,
-10, ,-30, ,
-9, ,-30, ,
-6, ,-29, ,
-4, ,-29, ,
-2, ,-29, ,
-1, ,-29, ,
2, ,-29, ,
2, ,-29, ,
4, ,-29, ,
4, ,-29, ,
6, ,-29, ,
7, ,-29, ,
7, ,-30, ,
7, ,-30, ,
8, ,-30, ,
8, ,-29, ,
9, ,-29, ,
9, ,-29, ,
10, ,-29, ,
11, ,-29, ,
11, ,-29, ,
12, ,-29, ,
12, ,-29, ,
12, ,-29, ,
12, ,-29, ,
11, ,-29, ,
10, ,-29, ,
10, ,-29, ,
8, ,-29, ,
7, ,-29, ,
4, ,-29, ,
1, ,-29, ,
-1, ,-30, ,
-4, ,-30, ,
-8, ,-29, ,
-10, ,-29, ,
-12, ,-29, ,
-13, ,-29, ,
-16, ,-29, ,
-16, ,-29, ,
-16, ,-29, ,
-16, ,-29, ,
-15, ,-29, ,
-13, ,-29, ,
-13, ,-29, ,
-11, ,-29, ,
-7, ,-29, ,
-5, ,-29, ,
-3, ,-29, ,
-2, ,-29, ,
2, ,-29, ,
4, ,-29, ,
5, ,-29, ,
6, ,-29, ,
8, ,-29, ,
8, ,-29, ,
9, ,-29, ,
8, ,-29, ,
7, ,-29, ,
7, ,-29, ,
6, ,-29, ,
5, ,-29, ,
3, ,-29, ,
1, ,-29, ,
0, ,-29, ,
-1, ,-29, ,
-5, ,-29, ,
-7, ,-30, ,
-8, ,-30, ,
-9, ,-29, ,
-12, ,-29, ,
-13, ,-29, ,
-13, ,-29, ,
-13, ,-29, ,
-13, ,-29, ,
-12, ,-29, ,
-12, ,-29, ,
-11, ,-30, ,
-8, ,-30, ,
-7, ,-30, ,
-5, ,-29, ,
-4, ,-29, ,
-1, ,-29, ,
2, ,-29, ,
3, ,-29, ,
5, ,-29, ,
6, ,-30, ,
6, ,-30, ,
6, ,-29, ,
5, ,-29, ,
4, ,-29, ,
4, ,-29, ,
2, ,-29, ,
1, ,-29, ,
-1, ,-29, ,
-3, ,-29, ,
-4, ,-29, ,
-5, ,-29, ,
-6, ,-29, ,
-7, ,-29, ,
-7, ,-29, ,
-7, ,-29, ,
-7, ,-29, ,
-7, ,-29, ,
-6, ,-29, ,
-6, ,-29, ,
-6, ,-29, ,
-5, ,-29, ,
-5, ,-29, ,
-4, ,-29, ,
-3, ,-29, ,
-3, ,-29, ,
-3, ,-29, ,
-3, ,-29, ,
-2, ,-29, ,
-2, ,-29, ,
-2, ,-29, ,
-1, ,-29, ,
-1, ,-29, ,
-1, ,-29, ,
-1, ,-29, ,
-1, ,-29, ,
0, ,-29, ,
0, ,-29, ,
0, ,-29, ,
0, ,-29, ,
0, ,-29, ,
0, ,-29, ,
0, ,-29, ,
-1, ,-29, ,
-1, ,-29, ,
0, ,-29, ,
0, ,-29, ,
0, ,-29, ,
0, ,-29, ,
0, ,-29, ,
1, ,-29, ,
1, ,-29, ,
1, ,-29, ,
1, ,-29, ,
1, ,-29, ,
1, ,-29, ,
0, ,-29, ,
0, ,-29, ,
0, ,-29, ,
-1, ,-29, ,
-2, ,-29, ,
-2, ,-29, ,
-3, ,-29, ,
-3, ,-29, ,
-4, ,-29, ,
-4, ,-29, ,
-4, ,-29, ,
-4, ,-29, ,
-4, ,-29, ,
-4, ,-29, ,
-4, ,-29, ,
-4, ,-29, ,
-5, ,-29, ,
-5, ,-29, ,
-5, ,-29, ,
-5, ,-29, ,
-6, ,-29, ,
-6, ,-29, ,
-7, ,-29, ,
-7, ,-29, ,
-9, ,-29, ,
-9, ,-29, ,
-9, ,-29, ,
-10, ,-29, ,
-10, ,-29, ,
-9, ,-29, ,
-9, ,-29, ,
-9, ,-29, ,
-7, ,-29, ,
-7, ,-29, ,
-6, ,-29, ,
-5, ,-29, ,
-3, ,-29, ,
-1, ,-29, ,
0, ,-29, ,
1, ,-29, ,
3, ,-29, ,
4, ,-29, ,
4, ,-29, ,
4, ,-29, ,
4, ,-29, ,
4, ,-29, ,
3, ,-29, ,
3, ,-29, ,
1, ,-29, ,
0, ,-29, ,
-1, ,-29, ,
-3, ,-29, ,
-5, ,-29, ,
-6, ,-29, ,
-7, ,-29, ,
-7, ,-29, ,
-8, ,-29, ,
-8, ,-29, ,
-8, ,-29, ,
-8, ,-29, ,
-7, ,-29, ,
-5, ,-29, ,
-5, ,-29, ,
-4, ,-29, ,
0, ,-29, ,
0, ,-29, ,
2, ,-29, ,
4, ,-29, ,
7, ,-29, ,
8, ,-29, ,
9, ,-29, ,
11, ,-29, ,
13, ,-29, ,
13, ,-29, ,
14, ,-29, ,
14, ,-29, ,
14, ,-29, ,
14, ,-29, ,
13, ,-30, ,
13, ,-30, ,
11, ,-30, ,
10, ,-29, ,
9, ,-29, ,
8, ,-29, ,
4, ,-29, ,
2, ,-29, ,
1, ,-29, ,
0, ,-29, ,
-3, ,-29, ,
-4, ,-29, ,
-4, ,-29, ,
-5, ,-29, ,
-5, ,-29, ,
-5, ,-29, ,
-5, ,-29, ,
-4, ,-29, ,
-4, ,-29, ,
-3, ,-29, ,
-2, ,-29, ,
-2, ,-29, ,
-1, ,-29, ,
-1, ,-29, ,
-2, ,-29, ,
-2, ,-29, ,
-3, ,-29, ,
-4, ,-29, ,
-4, ,-29, ,
-6, ,-29, ,
-7, ,-29, ,
-8, ,-29, ,
-9, ,-29, ,
-9, ,-29, ,
-10, ,-29, ,
-10, ,-29, ,
-10, ,-29, ,
-10, ,-29, ,
-9, ,-29, ,
-8, ,-29, ,
-8, ,-29, ,
-7, ,-29, ,
-5, ,-30, ,
-4, ,-30, ,
-2, ,-29, ,
-2, ,-29, ,
0, ,-29, ,
1, ,-29, ,
1, ,-29, ,
2, ,-29, ,
3, ,-29, ,
3, ,-29, ,
4, ,-29, ,
4, ,-29, ,
4, ,-29, ,
5, ,-29, ,
5, ,-29, ,
5, ,-29, ,
5, ,-29, ,
5, ,-29, ,
5, ,-29, ,
5, ,-29, ,
5, ,-29, ,
5, ,-29, ,
5, ,-29, ,
5, ,-29, ,
6, ,-29, ,
5, ,-29, ,
5, ,-30, ,
5, ,-30, ,
5, ,-29, ,
5, ,-29, ,
4, ,-29, ,
4, ,-29, ,
5, ,-29, ,
4, ,-29, ,
4, ,-29, ,
4, ,-29, ,
4, ,-29, ,
4, ,-29, ,
3, ,-29, ,
3, ,-29, ,
2, ,-29, ,
1, ,-29, ,
0, ,-29, ,
-1, ,-29, ,
-3, ,-29, ,
-4, ,-29, ,
-5, ,-29, ,
-7, ,-29, ,
-10, ,-29, ,
-10, ,-29, ,
-11, ,-29, ,
-13, ,-29, ,
-14, ,-29, ,
-14, ,-29, ,
-14, ,-29, ,
-13, ,-29, ,
-11, ,-29, ,
-12, ,-29, ,
-10, ,-29, ,
-9, ,-29, ,
-7, ,-29, ,
-5, ,-29, ,
-3, ,-29, ,
-2, ,-29, ,
0, ,-29, ,
0, ,-29, ,
2, ,-29, ,
2, ,-29, ,
3, ,-29, ,
3, ,-29, ,
3, ,-29, ,
3, ,-29, ,
3, ,-29, ,
3, ,-29, ,
4, ,-29, ,
4, ,-29, ,
4, ,-29, ,
4, ,-29, ,
5, ,-30, ,
5, ,-30, ,
5, ,-30, ,
5, ,-29, ,
4, ,-29, ,
4, ,-29, ,
3, ,-29, ,
3, ,-29, ,
2, ,-29, ,
2, ,-29, ,
1, ,-29, ,
0, ,-29, ,
0, ,-29, ,
-1, ,-29, ,
-1, ,-29, ,
-1, ,-29, ,
-1, ,-29, ,
-1, ,-29, ,
-1, ,-29, ,
0, ,-29, ,
0, ,-29, ,
1, ,-29, ,
2, ,-29, ,
2, ,-29, ,
2, ,-29, ,
2, ,-29, ,
2, ,-29, ,
2, ,-29, ,
2, ,-29, ,
1, ,-29, ,
0, ,-29, ,
0, ,-29, ,
-1, ,-29, ,
-1, ,-29, ,
-2, ,-29, ,
-3, ,-29, ,
-3, ,-29, ,
-3, ,-29, ,
-4, ,-29, ,
-3, ,-29, ,
-4, ,-29, ,
-3, ,-29, ,
-4, ,-29, ,
-4, ,-29, ,
-4, ,-29, ,
-4, ,-29, ,
-5, ,-29, ,
-5, ,-29, ,
-5, ,-29, ,
-5, ,-29, ,
-5, ,-29, ,
-5, ,-29, ,
-5, ,-29, ,
-6, ,-29, ,
-6, ,-29, ,
-4, ,-29, ,
-5, ,-29, ,
-3, ,-29, ,
-2, ,-29, ,
-2, ,-29, ,
0, ,-29, ,
0, ,-29, ,
2, ,-29, ,
3, ,-29, ,
4, ,-29, ,
5, ,-29, ,
6, ,-29, ,
6, ,-29, ,
7, ,-29, ,
7, ,-29, ,
7, ,-29, ,
7, ,-29, ,
7, ,-29, ,
7, ,-29, ,
7, ,-29, ,
7, ,-29, ,
7, ,-29, ,
7, ,-29, ,
7, ,-29, ,
7, ,-29, ,
6, ,-29, ,
6, ,-29, ,
5, ,-29, ,
4, ,-29, ,
4, ,-29, ,
3, ,-29, ,
1, ,-29, ,
1, ,-29, ,
-1, ,-29, ,
-1, ,-29, ,
-3, ,-29, ,
-5, ,-29, ,
-5, ,-29, ,
-5, ,-29, ,
-6, ,-29, ,
-6, ,-29, ,
-5, ,-29, ,
-5, ,-29, ,
-5, ,-29, ,
-4, ,-29, ,
-3, ,-29, ,
-3, ,-29, ,
-1, ,-29, ,
0, ,-29, ,
0, ,-29, ,
1, ,-29, ,
3, ,-29, ,
3, ,-29, ,
4, ,-29, ,
5, ,-29, ,
5, ,-29, ,
5, ,-29, ,
5, ,-29, ,
5, ,-29, ,
3, ,-29, ,
3, ,-29, ,
2, ,-29, ,
1, ,-29, ,
-1, ,-29, ,
-2, ,-29, ,
-2, ,-29, ,
-4, ,-29, ,
-5, ,-29, ,
-6, ,-29, ,
-6, ,-29, ,
-7, ,-29, ,
-7, ,-29, ,
-7, ,-29, ,
-7, ,-29, ,
-7, ,-29, ,
-5, ,-29, ,
-5, ,-29, ,
-4, ,-29, ,
-3, ,-29, ,
-1, ,-29, ,
1, ,-29, ,
1, ,-29, ,
3, ,-29, ,
5, ,-30, ,
6, ,-30, ,
7, ,-29, ,
7, ,-29, ,
7, ,-29, ,
7, ,-29, ,
7, ,-29, ,
7, ,-29, ,
6, ,-29, ,
5, ,-29, ,
5, ,-30, ,
4, ,-30, ,
3, ,-29, ,
3, ,-29, ,
1, ,-29, ,
1, ,-29, ,
0, ,-29, ,
-1, ,-29, ,
-2, ,-29, ,
-2, ,-29, ,
-3, ,-29, ,
-3, ,-29, ,
-3, ,-29, ,
-3, ,-29, ,
-3, ,-29, ,
-3, ,-29, ,
-3, ,-29, ,
-3, ,-29, ,
-2, ,-29, ,
-1, ,-29, ,
-1, ,-29, ,
0, ,-29, ,
1, ,-29, ,
1, ,-29, ,
