raw_data/75% Glycerol, Impulsion 2Hz, Sonde 5MHz, Rampe 0.7Hz/temp0000266.CSV

Format,1.0B,
Memory Length,10000,Memory Length,10000,
IntpDistance,0,IntpDistance,0,
Trigger Address,159,Trigger Address,159,
Trigger Level,2.720E-01,Trigger Level,2.720E-01,
Source,CH1,Source,CH2,
Vertical Units,V,Vertical Units,V,
Vertical Units Div,0,Vertical Units Div,0,
Vertical Units Extend Div,16,Vertical Units Extend Div,16,
Label,,Label,,
Probe Type,0,Probe Type,0,
Probe Ratio,1.000e+00,Probe Ratio,1.000e+00,
Vertical Scale,5.000e-01,Vertical Scale,2.000e+00,
Vertical Position,0.000e+00,Vertical Position,0.000e+00,
Horizontal Units,S,Horizontal Units,S,
Horizontal Scale,5.000E-06,Horizontal Scale,5.000E-06,
Horizontal Position,2.420E-05,Horizontal Position,2.420E-05,
Horizontal Mode,Main,Horizontal Mode,Main,
SincET Mode,Real Time,SincET Mode,Real Time,
Sampling Period,5.000e-09,Sampling Period,5.000e-09,
Horizontal Old Scale,5.000E-06,Horizontal Old Scale,5.000E-06,
Horizontal Old Position,2.420E-05,Horizontal Old Position,2.420E-05,
Firmware,V1.32,Firmware,V1.32,
Mode,Fast,Mode,Fast,
Waveform Data,,Waveform Data,,
1, ,-24, ,
0, ,-24, ,
0, ,-24, ,
1, ,-24, ,
1, ,-24, ,
1, ,-24, ,
1, ,-24, ,
1, ,-24, ,
0, ,-24, ,
0, ,-24, ,
0, ,-24, ,
1, ,-24, ,
1, ,-24, ,
1, ,-24, ,
1, ,-24, ,
1, ,-24, ,
1, ,-24, ,
1, ,-24, ,
1, ,-24, ,
1, ,-24, ,
1, ,-24, ,
0, ,-24, ,
0, ,-24, ,
0, ,-24, ,
0, ,-24, ,
1, ,-24, ,
1, ,-24, ,
1, ,-24, ,
1, ,-24, ,
1, ,-24, ,
1, ,-24, ,
1, ,-24, ,
1, ,-24, ,
1, ,-24, ,
1, ,-24, ,
1, ,-24, ,
1, ,-24, ,
0, ,-24, ,
0, ,-24, ,
1, ,-24, ,
0, ,-24, ,
0, ,-24, ,
0, ,-24, ,
1, ,-24, ,
1, ,-24, ,
1, ,-24, ,
1, ,-24, ,
0, ,-24, ,
0, ,-24, ,
1, ,-24, ,
0, ,-24, ,
0, ,-24, ,
1, ,-24, ,
1, ,-24, ,
1, ,-24, ,
1, ,-24, ,
1, ,-24, ,
1, ,-24, ,
0, ,-24, ,
0, ,-24, ,
1, ,-24, ,
1, ,-24, ,
1, ,-24, ,
1, ,-24, ,
1, ,-24, ,
1, ,-24, ,
1, ,-24, ,
1, ,-24, ,
1, ,-24, ,
1, ,-24, ,
1, ,-24, ,
1, ,-24, ,
1, ,-24, ,
1, ,-24, ,
1, ,-24, ,
1, ,-24, ,
1, ,-24, ,
1, ,-24, ,
1, ,-24, ,
1, ,-24, ,
1, ,-24, ,
0, ,-24, ,
0, ,-24, ,
1, ,-24, ,
1, ,-24, ,
1, ,-24, ,
1, ,-24, ,
1, ,-24, ,
1, ,-24, ,
1, ,-24, ,
1, ,-24, ,
1, ,-24, ,
1, ,-24, ,
1, ,-24, ,
1, ,-24, ,
1, ,-24, ,
1, ,-24, ,
0, ,-24, ,
0, ,-24, ,
0, ,-24, ,
0, ,-24, ,
0, ,-24, ,
1, ,-24, ,
1, ,-24, ,
1, ,-24, ,
1, ,-24, ,
1, ,-24, ,
1, ,-24, ,
1, ,-24, ,
1, ,-24, ,
1, ,-24, ,
0, ,-24, ,
0, ,-24, ,
1, ,-24, ,
0, ,-24, ,
0, ,-24, ,
0, ,-24, ,
0, ,-24, ,
1, ,-24, ,
1, ,-24, ,
1, ,-24, ,
1, ,-24, ,
1, ,-24, ,
0, ,-24, ,
1, ,-24, ,
0, ,-24, ,
1, ,-24, ,
1, ,-24, ,
0, ,-24, ,
0, ,-24, ,
0, ,-24, ,
1, ,-24, ,
1, ,-24, ,
1, ,-24, ,
1, ,-24, ,
1, ,-24, ,
1, ,-24, ,
1, ,-24, ,
0, ,-24, ,
0, ,-24, ,
1, ,-24, ,
0, ,-24, ,
0, ,-24, ,
1, ,-24, ,
1, ,-24, ,
1, ,-24, ,
1, ,-24, ,
0, ,-24, ,
0, ,-24, ,
0, ,-24, ,
1, ,-24, ,
1, ,-24, ,
1, ,-24, ,
1, ,-24, ,
0, ,-24, ,
0, ,-24, ,
1, ,-24, ,
1, ,-24, ,
1, ,-24, ,
1, ,-24, ,
1, ,-24, ,
1, ,-24, ,
0, ,-24, ,
0, ,-24, ,
0, ,-24, ,
-1, ,-24, ,
0, ,-24, ,
3, ,-24, ,
20, ,-24, ,
51, ,-24, ,
91, ,-24, ,
124, ,-24, ,
121, ,-24, ,
92, ,-24, ,
31, ,-24, ,
10, ,-24, ,
61, ,-24, ,
113, ,-24, ,
125, ,-24, ,
125, ,-24, ,
125, ,-24, ,
125, ,-24, ,
125, ,-24, ,
124, ,-24, ,
124, ,-24, ,
120, ,-24, ,
115, ,-24, ,
105, ,-24, ,
103, ,-24, ,
99, ,-24, ,
97, ,-24, ,
89, ,-24, ,
85, ,-24, ,
83, ,-24, ,
79, ,-24, ,
74, ,-24, ,
72, ,-24, ,
68, ,-24, ,
65, ,-24, ,
61, ,-24, ,
58, ,-24, ,
56, ,-24, ,
53, ,-24, ,
49, ,-24, ,
47, ,-24, ,
45, ,-24, ,
44, ,-24, ,
39, ,-24, ,
38, ,-24, ,
36, ,-24, ,
34, ,-24, ,
31, ,-24, ,
30, ,-24, ,
28, ,-24, ,
27, ,-24, ,
25, ,-24, ,
24, ,-24, ,
23, ,-24, ,
22, ,-24, ,
20, ,-24, ,
20, ,-24, ,
18, ,-24, ,
18, ,-24, ,
16, ,-24, ,
15, ,-24, ,
15, ,-24, ,
13, ,-24, ,
12, ,-24, ,
11, ,-24, ,
11, ,-24, ,
11, ,-24, ,
9, ,-24, ,
8, ,-24, ,
8, ,-24, ,
7, ,-24, ,
7, ,-24, ,
7, ,-24, ,
6, ,-24, ,
6, ,-24, ,
5, ,-24, ,
4, ,-24, ,
4, ,-24, ,
3, ,-24, ,
3, ,-24, ,
3, ,-24, ,
3, ,-24, ,
3, ,-24, ,
2, ,-24, ,
1, ,-24, ,
1, ,-24, ,
1, ,-24, ,
1, ,-24, ,
1, ,-24, ,
1, ,-24, ,
1, ,-24, ,
0, ,-24, ,
0, ,-24, ,
0, ,-24, ,
0, ,-24, ,
0, ,-24, ,
0, ,-24, ,
-1, ,-24, ,
-1, ,-24, ,
0, ,-24, ,
-1, ,-24, ,
-1, ,-24, ,
-1, ,-24, ,
-1, ,-24, ,
-1, ,-24, ,
-1, ,-24, ,
-1, ,-24, ,
-1, ,-24, ,
-1, ,-24, ,
-1, ,-24, ,
-1, ,-24, ,
-1, ,-24, ,
-1, ,-24, ,
-1, ,-24, ,
-1, ,-24, ,
-1, ,-24, ,
-1, ,-24, ,
-1, ,-24, ,
-1, ,-24, ,
-1, ,-24, ,
-1, ,-24, ,
-1, ,-24, ,
-1, ,-24, ,
-1, ,-24, ,
-1, ,-24, ,
-1, ,-24, ,
-1, ,-24, ,
-1, ,-24, ,
-1, ,-24, ,
-1, ,-24, ,
-1, ,-24, ,
-1, ,-24, ,
-1, ,-24, ,
-1, ,-24, ,
-1, ,-24, ,
-1, ,-24, ,
-1, ,-24, ,
-1, ,-24, ,
-1, ,-24, ,
-1, ,-24, ,
-1, ,-24, ,
-1, ,-24, ,
-1, ,-24, ,
-1, ,-24, ,
-1, ,-24, ,
-1, ,-24, ,
-1, ,-24, ,
-1, ,-24, ,
-1, ,-24, ,
-1, ,-24, ,
-1, ,-24, ,
-1, ,-24, ,
-1, ,-24, ,
-1, ,-24, ,
0, ,-24, ,
0, ,-24, ,
-1, ,-24, ,
-1, ,-24, ,
-1, ,-24, ,
0, ,-24, ,
0, ,-24, ,
-1, ,-24, ,
-1, ,-24, ,
-1, ,-24, ,
-1, ,-24, ,
0, ,-24, ,
0, ,-24, ,
0, ,-24, ,
0, ,-24, ,
0, ,-24, ,
0, ,-24, ,
0, ,-24, ,
0, ,-24, ,
0, ,-24, ,
0, ,-24, ,
0, ,-24, ,
0, ,-24, ,
0, ,-24, ,
0, ,-24, ,
0, ,-24, ,
0, ,-24, ,
0, ,-24, ,
0, ,-24, ,
0, ,-24, ,
0, ,-24, ,
0, ,-24, ,
0, ,-24, ,
0, ,-24, ,
0, ,-24, ,
0, ,-24, ,
0, ,-24, ,
0, ,-24, ,
0, ,-24, ,
0, ,-24, ,
0, ,-24, ,
0, ,-24, ,
0, ,-24, ,
0, ,-24, ,
0, ,-24, ,
0, ,-24, ,
0, ,-24, ,
0, ,-24, ,
0, ,-24, ,
0, ,-24, ,
0, ,-24, ,
0, ,-24, ,
0, ,-24, ,
0, ,-24, ,
0, ,-24, ,
0, ,-24, ,
0, ,-24, ,
0, ,-24, ,
0, ,-24, ,
1, ,-24, ,
0, ,-24, ,
0, ,-24, ,
1, ,-24, ,
0, ,-24, ,
0, ,-24, ,
0, ,-24, ,
0, ,-24, ,
0, ,-24, ,
0, ,-24, ,
0, ,-24, ,
0, ,-24, ,
0, ,-24, ,
0, ,-24, ,
0, ,-24, ,
0, ,-24, ,
0, ,-24, ,
0, ,-24, ,
0, ,-24, ,
0, ,-24, ,
0, ,-24, ,
1, ,-24, ,
0, ,-24, ,
0, ,-24, ,
0, ,-24, ,
0, ,-24, ,
0, ,-24, ,
0, ,-24, ,
0, ,-24, ,
0, ,-24, ,
0, ,-24, ,
0, ,-24, ,
0, ,-24, ,
0, ,-24, ,
0, ,-24, ,
0, ,-24, ,
0, ,-24, ,
1, ,-24, ,
1, ,-24, ,
0, ,-24, ,
0, ,-24, ,
0, ,-24, ,
0, ,-24, ,
0, ,-24, ,
0, ,-24, ,
1, ,-24, ,
0, ,-24, ,
0, ,-24, ,
1, ,-24, ,
0, ,-24, ,
0, ,-24, ,
1, ,-24, ,
0, ,-24, ,
0, ,-24, ,
0, ,-24, ,
0, ,-24, ,
0, ,-24, ,
0, ,-24, ,
0, ,-24, ,
-1, ,-24, ,
-1, ,-24, ,
-2, ,-24, ,
-3, ,-24, ,
-5, ,-24, ,
-7, ,-24, ,
-11, ,-24, ,
-19, ,-24, ,
-23, ,-24, ,
-25, ,-24, ,
-26, ,-24, ,
-23, ,-24, ,
-19, ,-24, ,
-15, ,-24, ,
-10, ,-24, ,
-5, ,-24, ,
-2, ,-24, ,
-1, ,-24, ,
1, ,-24, ,
4, ,-24, ,
4, ,-24, ,
5, ,-24, ,
5, ,-24, ,
5, ,-24, ,
5, ,-24, ,
5, ,-24, ,
5, ,-24, ,
4, ,-24, ,
4, ,-24, ,
4, ,-24, ,
4, ,-24, ,
4, ,-24, ,
4, ,-24, ,
4, ,-24, ,
5, ,-24, ,
5, ,-24, ,
5, ,-24, ,
5, ,-24, ,
5, ,-24, ,
5, ,-24, ,
5, ,-24, ,
5, ,-24, ,
5, ,-24, ,
5, ,-24, ,
4, ,-24, ,
4, ,-24, ,
3, ,-24, ,
2, ,-24, ,
2, ,-24, ,
2, ,-24, ,
2, ,-24, ,
2, ,-24, ,
2, ,-24, ,
2, ,-24, ,
2, ,-24, ,
2, ,-24, ,
3, ,-24, ,
3, ,-24, ,
3, ,-24, ,
3, ,-24, ,
3, ,-24, ,
3, ,-24, ,
3, ,-24, ,
2, ,-24, ,
2, ,-24, ,
2, ,-24, ,
2, ,-24, ,
2, ,-24, ,
2, ,-24, ,
2, ,-24, ,
1, ,-24, ,
1, ,-24, ,
1, ,-24, ,
1, ,-24, ,
1, ,-24, ,
0, ,-24, ,
0, ,-24, ,
0, ,-24, ,
0, ,-24, ,
0, ,-24, ,
-1, ,-24, ,
-1, ,-24, ,
-2, ,-24, ,
-3, ,-24, ,
-4, ,-24, ,
-6, ,-24, ,
-7, ,-24, ,
-11, ,-24, ,
-12, ,-24, ,
-15, ,-24, ,
-16, ,-24, ,
-19, ,-24, ,
-19, ,-24, ,
-18, ,-24, ,
-18, ,-24, ,
-16, ,-24, ,
-15, ,-24, ,
-14, ,-24, ,
-12, ,-24, ,
-9, ,-24, ,
-9, ,-24, ,
-8, ,-24, ,
-7, ,-24, ,
-7, ,-24, ,
-7, ,-24, ,
-8, ,-24, ,
-8, ,-24, ,
-9, ,-24, ,
-10, ,-24, ,
-10, ,-24, ,
-11, ,-24, ,
-12, ,-24, ,
-12, ,-24, ,
-12, ,-24, ,
-12, ,-24, ,
-13, ,-24, ,
-14, ,-24, ,
-14, ,-24, ,
-16, ,-24, ,
-19, ,-24, ,
-22, ,-24, ,
-25, ,-24, ,
-26, ,-24, ,
-34, ,-24, ,
-37, ,-24, ,
-40, ,-24, ,
-43, ,-24, ,
-45, ,-24, ,
-45, ,-24, ,
-45, ,-24, ,
-44, ,-24, ,
-40, ,-24, ,
-37, ,-24, ,
-34, ,-24, ,
-31, ,-24, ,
-25, ,-24, ,
-20, ,-24, ,
-18, ,-24, ,
-14, ,-24, ,
-9, ,-24, ,
-6, ,-24, ,
-4, ,-24, ,
-3, ,-24, ,
0, ,-24, ,
2, ,-24, ,
2, ,-24, ,
3, ,-24, ,
5, ,-24, ,
6, ,-24, ,
8, ,-24, ,
8, ,-24, ,
10, ,-24, ,
10, ,-24, ,
11, ,-24, ,
11, ,-24, ,
11, ,-24, ,
11, ,-24, ,
11, ,-24, ,
10, ,-24, ,
9, ,-24, ,
9, ,-24, ,
7, ,-24, ,
7, ,-24, ,
6, ,-24, ,
6, ,-24, ,
6, ,-24, ,
6, ,-24, ,
6, ,-24, ,
7, ,-24, ,
7, ,-24, ,
8, ,-24, ,
10, ,-24, ,
12, ,-24, ,
13, ,-24, ,
13, ,-24, ,
15, ,-24, ,
15, ,-24, ,
15, ,-24, ,
15, ,-24, ,
14, ,-24, ,
12, ,-24, ,
11, ,-24, ,
9, ,-24, ,
5, ,-24, ,
4, ,-24, ,
0, ,-24, ,
-2, ,-24, ,
-7, ,-24, ,
-10, ,-24, ,
-13, ,-24, ,
-16, ,-24, ,
-19, ,-24, ,
-20, ,-24, ,
-21, ,-24, ,
-21, ,-24, ,
-21, ,-24, ,
-21, ,-24, ,
-20, ,-24, ,
-20, ,-24, ,
-17, ,-24, ,
-16, ,-24, ,
-15, ,-24, ,
-14, ,-24, ,
-12, ,-24, ,
-12, ,-24, ,
-11, ,-24, ,
-10, ,-24, ,
-8, ,-24, ,
-6, ,-24, ,
-6, ,-24, ,
-5, ,-24, ,
-3, ,-24, ,
-2, ,-24, ,
-1, ,-24, ,
0, ,-24, ,
-1, ,-24, ,
-1, ,-24, ,
-2, ,-24, ,
-3, ,-24, ,
-7, ,-24, ,
-9, ,-24, ,
-11, ,-24, ,
-14, ,-24, ,
-19, ,-24, ,
-22, ,-24, ,
-24, ,-24, ,
-25, ,-24, ,
-26, ,-24, ,
-26, ,-24, ,
-26, ,-24, ,
-25, ,-24, ,
-25, ,-24, ,
-23, ,-24, ,
-22, ,-24, ,
-20, ,-24, ,
-16, ,-24, ,
-13, ,-24, ,
-10, ,-24, ,
-8, ,-24, ,
-2, ,-24, ,
0, ,-24, ,
2, ,-24, ,
4, ,-24, ,
8, ,-24, ,
9, ,-24, ,
10, ,-24, ,
10, ,-24, ,
10, ,-24, ,
9, ,-24, ,
9, ,-24, ,
8, ,-24, ,
6, ,-24, ,
5, ,-24, ,
4, ,-24, ,
2, ,-24, ,
-1, ,-24, ,
-2, ,-24, ,
-3, ,-24, ,
-4, ,-24, ,
-7, ,-24, ,
-8, ,-24, ,
-9, ,-24, ,
-11, ,-24, ,
-13, ,-24, ,
-14, ,-24, ,
-16, ,-24, ,
-16, ,-24, ,
-17, ,-24, ,
-17, ,-24, ,
-17, ,-24, ,
-17, ,-24, ,
-17, ,-24, ,
-16, ,-24, ,
-16, ,-24, ,
-15, ,-24, ,
-14, ,-24, ,
-14, ,-24, ,
-14, ,-24, ,
-14, ,-24, ,
-13, ,-24, ,
-13, ,-24, ,
-12, ,-24, ,
-12, ,-24, ,
-10, ,-24, ,
-10, ,-24, ,
-8, ,-24, ,
-7, ,-24, ,
-3, ,-24, ,
-1, ,-24, ,
1, ,-24, ,
3, ,-24, ,
8, ,-24, ,
9, ,-24, ,
12, ,-24, ,
14, ,-24, ,
18, ,-24, ,
20, ,-24, ,
20, ,-24, ,
21, ,-24, ,
21, ,-24, ,
21, ,-24, ,
20, ,-24, ,
19, ,-24, ,
16, ,-24, ,
15, ,-24, ,
13, ,-24, ,
10, ,-24, ,
6, ,-24, ,
4, ,-24, ,
2, ,-24, ,
0, ,-24, ,
-3, ,-24, ,
-4, ,-24, ,
-5, ,-24, ,
-6, ,-24, ,
-6, ,-24, ,
-5, ,-24, ,
-4, ,-24, ,
-4, ,-24, ,
-3, ,-24, ,
-1, ,-24, ,
-1, ,-24, ,
0, ,-24, ,
3, ,-24, ,
3, ,-24, ,
4, ,-24, ,
4, ,-24, ,
4, ,-24, ,
4, ,-24, ,
3, ,-24, ,
2, ,-24, ,
0, ,-24, ,
-2, ,-24, ,
-4, ,-24, ,
-7, ,-24, ,
-11, ,-24, ,
-13, ,-24, ,
-17, ,-24, ,
-19, ,-24, ,
-24, ,-24, ,
-26, ,-24, ,
-28, ,-24, ,
-31, ,-24, ,
-33, ,-24, ,
-34, ,-24, ,
-34, ,-24, ,
-34, ,-24, ,
-33, ,-24, ,
-32, ,-24, ,
-31, ,-24, ,
-30, ,-24, ,
-27, ,-24, ,
-25, ,-24, ,
-24, ,-24, ,
-22, ,-24, ,
-17, ,-24, ,
-17, ,-24, ,
-14, ,-24, ,
-13, ,-24, ,
-10, ,-24, ,
-8, ,-24, ,
-8, ,-24, ,
-6, ,-24, ,
-6, ,-24, ,
-6, ,-24, ,
-6, ,-24, ,
-7, ,-24, ,
-8, ,-24, ,
-9, ,-24, ,
-9, ,-24, ,
-10, ,-24, ,
-11, ,-24, ,
-13, ,-24, ,
-14, ,-24, ,
-15, ,-24, ,
-16, ,-24, ,
-16, ,-24, ,
-16, ,-24, ,
-15, ,-24, ,
-15, ,-24, ,
-15, ,-24, ,
-14, ,-24, ,
-14, ,-24, ,
-12, ,-24, ,
-10, ,-24, ,
-10, ,-24, ,
-9, ,-24, ,
-6, ,-24, ,
-5, ,-24, ,
-3, ,-24, ,
-2, ,-24, ,
2, ,-24, ,
2, ,-24, ,
5, ,-24, ,
6, ,-24, ,
9, ,-24, ,
10, ,-24, ,
11, ,-24, ,
12, ,-24, ,
14, ,-24, ,
14, ,-24, ,
16, ,-24, ,
16, ,-24, ,
18, ,-24, ,
17, ,-24, ,
19, ,-24, ,
19, ,-24, ,
19, ,-24, ,
20, ,-24, ,
20, ,-24, ,
20, ,-24, ,
19, ,-24, ,
18, ,-24, ,
18, ,-24, ,
17, ,-24, ,
16, ,-24, ,
15, ,-24, ,
14, ,-24, ,
14, ,-24, ,
12, ,-24, ,
10, ,-24, ,
9, ,-24, ,
7, ,-24, ,
5, ,-24, ,
3, ,-24, ,
1, ,-24, ,
1, ,-24, ,
-3, ,-24, ,
-4, ,-24, ,
-5, ,-24, ,
-6, ,-24, ,
-7, ,-24, ,
-8, ,-24, ,
-8, ,-24, ,
-8, ,-24, ,
-8, ,-24, ,
-9, ,-24, ,
-9, ,-24, ,
-9, ,-24, ,
-9, ,-24, ,
-10, ,-24, ,
-10, ,-24, ,
-11, ,-24, ,
-12, ,-24, ,
-14, ,-24, ,
-14, ,-24, ,
-16, ,-24, ,
-18, ,-24, ,
-19, ,-24, ,
-21, ,-24, ,
-22, ,-24, ,
-23, ,-24, ,
-24, ,-24, ,
-24, ,-24, ,
-24, ,-24, ,
-23, ,-24, ,
-23, ,-24, ,
-23, ,-24, ,
-22, ,-24, ,
-21, ,-24, ,
-19, ,-24, ,
-17, ,-24, ,
-17, ,-24, ,
-15, ,-24, ,
-14, ,-24, ,
-13, ,-24, ,
-13, ,-24, ,
-10, ,-24, ,
-10, ,-24, ,
-10, ,-24, ,
-9, ,-24, ,
-8, ,-24, ,
-7, ,-24, ,
-7, ,-24, ,
-6, ,-24, ,
-6, ,-24, ,
-6, ,-24, ,
-6, ,-24, ,
-6, ,-24, ,
-5, ,-24, ,
-5, ,-24, ,
-5, ,-24, ,
-5, ,-24, ,
-4, ,-24, ,
-4, ,-24, ,
-3, ,-24, ,
-3, ,-24, ,
-3, ,-24, ,
-2, ,-24, ,
-2, ,-24, ,
-2, ,-24, ,
-2, ,-24, ,
-3, ,-24, ,
-3, ,-24, ,
-4, ,-24, ,
-7, ,-24, ,
-7, ,-24, ,
-8, ,-24, ,
-10, ,-24, ,
-11, ,-24, ,
-12, ,-24, ,
-12, ,-24, ,
-12, ,-24, ,
-11, ,-24, ,
-11, ,-24, ,
-9, ,-24, ,
-7, ,-24, ,
-4, ,-24, ,
-2, ,-24, ,
1, ,-24, ,
2, ,-24, ,
7, ,-24, ,
8, ,-24, ,
9, ,-24, ,
11, ,-24, ,
11, ,-24, ,
11, ,-24, ,
10, ,-24, ,
9, ,-24, ,
7, ,-24, ,
6, ,-24, ,
5, ,-24, ,
4, ,-24, ,
1, ,-24, ,
0, ,-24, ,
-1, ,-24, ,
-2, ,-24, ,
-3, ,-24, ,
-3, ,-24, ,
-3, ,-24, ,
-3, ,-24, ,
-3, ,-24, ,
-3, ,-24, ,
-3, ,-24, ,
-4, ,-24, ,
-4, ,-24, ,
-4, ,-24, ,
-5, ,-24, ,
-5, ,-24, ,
-5, ,-24, ,
-5, ,-24, ,
-6, ,-24, ,
-6, ,-24, ,
-6, ,-24, ,
-6, ,-24, ,
-6, ,-24, ,
-5, ,-24, ,
-4, ,-24, ,
-4, ,-24, ,
-2, ,-24, ,
-2, ,-24, ,
-1, ,-24, ,
0, ,-24, ,
0, ,-24, ,
1, ,-24, ,
1, ,-24, ,
1, ,-24, ,
1, ,-24, ,
1, ,-24, ,
2, ,-24, ,
2, ,-24, ,
2, ,-24, ,
2, ,-24, ,
2, ,-24, ,
2, ,-24, ,
1, ,-24, ,
1, ,-24, ,
-1, ,-24, ,
-1, ,-24, ,
-2, ,-24, ,
-3, ,-24, ,
-5, ,-24, ,
-7, ,-24, ,
-8, ,-24, ,
-9, ,-24, ,
-11, ,-24, ,
-11, ,-24, ,
-11, ,-24, ,
-11, ,-24, ,
-10, ,-24, ,
-10, ,-24, ,
-9, ,-24, ,
-8, ,-24, ,
-6, ,-24, ,
-4, ,-24, ,
-2, ,-24, ,
0, ,-24, ,
4, ,-24, ,
5, ,-24, ,
7, ,-24, ,
7, ,-24, ,
9, ,-24, ,
10, ,-24, ,
10, ,-24, ,
11, ,-24, ,
10, ,-24, ,
9, ,-24, ,
9, ,-24, ,
7, ,-24, ,
5, ,-24, ,
5, ,-24, ,
3, ,-24, ,
2, ,-24, ,
0, ,-24, ,
-1, ,-24, ,
-2, ,-24, ,
-4, ,-24, ,
-5, ,-24, ,
-5, ,-24, ,
-6, ,-24, ,
-6, ,-24, ,
-6, ,-24, ,
-5, ,-24, ,
-5, ,-24, ,
-5, ,-24, ,
-5, ,-24, ,
-4, ,-24, ,
-4, ,-24, ,
-4, ,-24, ,
-4, ,-24, ,
-5, ,-24, ,
-5, ,-24, ,
-5, ,-24, ,
-6, ,-24, ,
-6, ,-24, ,
-6, ,-24, ,
-6, ,-24, ,
-6, ,-24, ,
-6, ,-24, ,
-6, ,-24, ,
-6, ,-24, ,
-7, ,-24, ,
-7, ,-24, ,
-7, ,-24, ,
-6, ,-24, ,
-6, ,-24, ,
-6, ,-24, ,
-6, ,-24, ,
-5, ,-24, ,
-5, ,-24, ,
-4, ,-24, ,
-4, ,-24, ,
-3, ,-24, ,
-2, ,-24, ,
-2, ,-24, ,
-2, ,-24, ,
-1, ,-24, ,
-1, ,-24, ,
0, ,-24, ,
0, ,-24, ,
1, ,-24, ,
0, ,-24, ,
0, ,-24, ,
1, ,-24, ,
1, ,-24, ,
1, ,-24, ,
1, ,-24, ,
0, ,-24, ,
0, ,-24, ,
1, ,-24, ,
1, ,-24, ,
2, ,-24, ,
2, ,-24, ,
3, ,-24, ,
4, ,-24, ,
4, ,-24, ,
5, ,-24, ,
7, ,-24, ,
7, ,-24, ,
8, ,-24, ,
8, ,-24, ,
9, ,-24, ,
9, ,-24, ,
9, ,-24, ,
9, ,-24, ,
8, ,-24, ,
7, ,-24, ,
7, ,-24, ,
5, ,-24, ,
3, ,-24, ,
2, ,-24, ,
0, ,-24, ,
-1, ,-24, ,
-4, ,-24, ,
-5, ,-24, ,
-5, ,-24, ,
-7, ,-24, ,
-9, ,-24, ,
-10, ,-24, ,
-10, ,-24, ,
-10, ,-24, ,
-10, ,-24, ,
-10, ,-24, ,
-9, ,-24, ,
-8, ,-24, ,
-7, ,-24, ,
-6, ,-24, ,
-6, ,-24, ,
-4, ,-24, ,
-3, ,-24, ,
-2, ,-24, ,
-1, ,-24, ,
-1, ,-24, ,
0, ,-24, ,
0, ,-24, ,
0, ,-24, ,
1, ,-24, ,
1, ,-24, ,
0, ,-24, ,
0, ,-24, ,
0, ,-24, ,
-1, ,-24, ,
-1, ,-24, ,
-2, ,-24, ,
-2, ,-24, ,
-3, ,-24, ,
-3, ,-24, ,
-3, ,-24, ,
-3, ,-24, ,
-4, ,-24, ,
-4, ,-24, ,
-4, ,-24, ,
-3, ,-24, ,
-3, ,-24, ,
-2, ,-24, ,
-2, ,-24, ,
-2, ,-24, ,
-1, ,-24, ,
0, ,-24, ,
1, ,-24, ,
2, ,-24, ,
3, ,-24, ,
4, ,-24, ,
5, ,-24, ,
5, ,-24, ,
6, ,-24, ,
7, ,-24, ,
7, ,-24, ,
7, ,-24, ,
6, ,-24, ,
6, ,-24, ,
5, ,-24, ,
5, ,-24, ,
3, ,-24, ,
2, ,-24, ,
1, ,-24, ,
0, ,-24, ,
-2, ,-24, ,
-4, ,-24, ,
-4, ,-24, ,
-5, ,-24, ,
-8, ,-24, ,
-8, ,-24, ,
-8, ,-24, ,
-8, ,-24, ,
-9, ,-24, ,
-9, ,-24, ,
-8, ,-24, ,
-8, ,-24, ,
-7, ,-24, ,
-6, ,-24, ,
-6, ,-24, ,
-4, ,-24, ,
-3, ,-24, ,
-3, ,-24, ,
-2, ,-24, ,
-2, ,-24, ,
-2, ,-24, ,
-2, ,-24, ,
-2, ,-24, ,
-3, ,-24, ,
-3, ,-24, ,
-4, ,-24, ,
-4, ,-24, ,
-4, ,-24, ,
-5, ,-24, ,
-5, ,-24, ,
-5, ,-24, ,
-5, ,-24, ,
-4, ,-24, ,
-4, ,-24, ,
-4, ,-24, ,
-4, ,-24, ,
-4, ,-24, ,
-4, ,-24, ,
-4, ,-24, ,
-4, ,-24, ,
-5, ,-24, ,
-5, ,-24, ,
-5, ,-24, ,
-6, ,-24, ,
-6, ,-24, ,
-6, ,-24, ,
-7, ,-24, ,
-7, ,-24, ,
-7, ,-24, ,
-7, ,-24, ,
-7, ,-24, ,
-7, ,-24, ,
-6, ,-24, ,
-6, ,-24, ,
-5, ,-24, ,
-4, ,-24, ,
-2, ,-24, ,
-1, ,-24, ,
1, ,-24, ,
2, ,-24, ,
4, ,-24, ,
6, ,-24, ,
7, ,-24, ,
9, ,-24, ,
10, ,-24, ,
11, ,-24, ,
11, ,-24, ,
11, ,-24, ,
10, ,-24, ,
10, ,-24, ,
7, ,-24, ,
6, ,-24, ,
4, ,-24, ,
1, ,-24, ,
-1, ,-24, ,
-3, ,-24, ,
-7, ,-24, ,
-8, ,-24, ,
-10, ,-24, ,
-10, ,-24, ,
-11, ,-24, ,
-11, ,-24, ,
-11, ,-24, ,
-11, ,-24, ,
-9, ,-24, ,
-7, ,-24, ,
-7, ,-24, ,
-5, ,-24, ,
-2, ,-24, ,
-2, ,-24, ,
0, ,-24, ,
0, ,-24, ,
1, ,-24, ,
2, ,-24, ,
1, ,-24, ,
1, ,-24, ,
0, ,-24, ,
0, ,-24, ,
-1, ,-24, ,
-2, ,-24, ,
-4, ,-24, ,
-5, ,-24, ,
-6, ,-24, ,
-6, ,-24, ,
-7, ,-24, ,
-7, ,-24, ,
-7, ,-24, ,
-7, ,-24, ,
-6, ,-24, ,
-5, ,-24, ,
-5, ,-24, ,
-4, ,-24, ,
-1, ,-24, ,
0, ,-24, ,
2, ,-24, ,
3, ,-24, ,
5, ,-24, ,
7, ,-24, ,
7, ,-24, ,
8, ,-24, ,
9, ,-24, ,
9, ,-24, ,
8, ,-24, ,
8, ,-24, ,
5, ,-24, ,
4, ,-24, ,
3, ,-24, ,
1, ,-24, ,
-3, ,-24, ,
-5, ,-24, ,
-6, ,-24, ,
-8, ,-24, ,
-11, ,-24, ,
-11, ,-24, ,
-11, ,-24, ,
-11, ,-24, ,
-11, ,-24, ,
-12, ,-24, ,
-10, ,-24, ,
-9, ,-24, ,
-7, ,-24, ,
-5, ,-24, ,
-5, ,-24, ,
-3, ,-24, ,
0, ,-24, ,
1, ,-24, ,
2, ,-24, ,
2, ,-24, ,
4, ,-24, ,
4, ,-24, ,
4, ,-24, ,
5, ,-24, ,
5, ,-24, ,
5, ,-24, ,
5, ,-24, ,
5, ,-24, ,
5, ,-24, ,
5, ,-24, ,
6, ,-24, ,
6, ,-24, ,
7, ,-24, ,
6, ,-24, ,
7, ,-24, ,
7, ,-24, ,
8, ,-24, ,
9, ,-24, ,
9, ,-24, ,
9, ,-24, ,
9, ,-24, ,
9, ,-24, ,
9, ,-24, ,
8, ,-24, ,
8, ,-24, ,
8, ,-24, ,
7, ,-24, ,
7, ,-24, ,
6, ,-24, ,
5, ,-24, ,
5, ,-24, ,
3, ,-24, ,
1, ,-24, ,
1, ,-24, ,
-1, ,-24, ,
-2, ,-24, ,
-3, ,-24, ,
-5, ,-24, ,
-6, ,-24, ,
-8, ,-24, ,
-9, ,-24, ,
-10, ,-24, ,
-10, ,-24, ,
-11, ,-24, ,
-11, ,-24, ,
-11, ,-24, ,
-11, ,-24, ,
-11, ,-24, ,
-10, ,-24, ,
-9, ,-24, ,
-8, ,-24, ,
-8, ,-24, ,
-6, ,-24, ,
-6, ,-24, ,
-5, ,-24, ,
-4, ,-24, ,
-3, ,-24, ,
-2, ,-24, ,
-2, ,-24, ,
-2, ,-24, ,
-1, ,-24, ,
-1, ,-24, ,
0, ,-24, ,
0, ,-24, ,
1, ,-24, ,
1, ,-24, ,
0, ,-24, ,
0, ,-24, ,
0, ,-24, ,
-1, ,-24, ,
-1, ,-24, ,
-1, ,-24, ,
-1, ,-24, ,
-1, ,-24, ,
-1, ,-24, ,
-1, ,-24, ,
0, ,-24, ,
0, ,-24, ,
1, ,-24, ,
2, ,-24, ,
3, ,-24, ,
5, ,-24, ,
5, ,-24, ,
6, ,-24, ,
8, ,-24, ,
8, ,-24, ,
8, ,-24, ,
8, ,-24, ,
8, ,-24, ,
8, ,-24, ,
7, ,-24, ,
7, ,-24, ,
5, ,-24, ,
4, ,-24, ,
4, ,-24, ,
3, ,-24, ,
2, ,-24, ,
2, ,-24, ,
1, ,-24, ,
1, ,-24, ,
0, ,-24, ,
0, ,-24, ,
0, ,-24, ,
0, ,-24, ,
0, ,-24, ,
0, ,-24, ,
0, ,-24, ,
0, ,-24, ,
0, ,-24, ,
0, ,-24, ,
0, ,-24, ,
0, ,-24, ,
-1, ,-24, ,
-1, ,-24, ,
-2, ,-24, ,
-3, ,-24, ,
-4, ,-24, ,
-5, ,-24, ,
-5, ,-24, ,
-6, ,-24, ,
-8, ,-24, ,
-8, ,-24, ,
-9, ,-24, ,
-10, ,-24, ,
-10, ,-24, ,
-11, ,-24, ,
-11, ,-24, ,
-11, ,-24, ,
-11, ,-24, ,
-10, ,-24, ,
-10, ,-24, ,
-10, ,-24, ,
-8, ,-24, ,
-7, ,-24, ,
-5, ,-24, ,
-5, ,-24, ,
-3, ,-24, ,
-1, ,-24, ,
0, ,-24, ,
2, ,-24, ,
4, ,-24, ,
5, ,-24, ,
6, ,-24, ,
7, ,-24, ,
8, ,-24, ,
8, ,-24, ,
9, ,-24, ,
9, ,-24, ,
8, ,-24, ,
7, ,-24, ,
6, ,-24, ,
5, ,-24, ,
3, ,-24, ,
3, ,-24, ,
2, ,-24, ,
2, ,-24, ,
0, ,-24, ,
-1, ,-24, ,
-1, ,-24, ,
-1, ,-24, ,
-1, ,-24, ,
0, ,-24, ,
0, ,-24, ,
0, ,-24, ,
1, ,-24, ,
2, ,-24, ,
3, ,-24, ,
3, ,-24, ,
4, ,-24, ,
5, ,-24, ,
5, ,-24, ,
5, ,-24, ,
5, ,-24, ,
4, ,-24, ,
4, ,-24, ,
3, ,-24, ,
2, ,-24, ,
1, ,-24, ,
1, ,-24, ,
1, ,-24, ,
0, ,-24, ,
0, ,-24, ,
0, ,-24, ,
0, ,-24, ,
0, ,-24, ,
1, ,-24, ,
1, ,-24, ,
2, ,-24, ,
2, ,-24, ,
2, ,-24, ,
3, ,-24, ,
3, ,-24, ,
3, ,-24, ,
3, ,-24, ,
2, ,-24, ,
2, ,-24, ,
1, ,-24, ,
0, ,-24, ,
-1, ,-24, ,
-1, ,-24, ,
-3, ,-24, ,
-3, ,-24, ,
-4, ,-24, ,
-4, ,-24, ,
-6, ,-24, ,
-6, ,-24, ,
-6, ,-24, ,
-6, ,-24, ,
-6, ,-24, ,
-6, ,-24, ,
-6, ,-24, ,
-5, ,-24, ,
-4, ,-24, ,
-4, ,-24, ,
-3, ,-24, ,
-3, ,-24, ,
-1, ,-24, ,
-1, ,-24, ,
0, ,-24, ,
1, ,-24, ,
2, ,-24, ,
2, ,-24, ,
3, ,-24, ,
3, ,-24, ,
3, ,-24, ,
3, ,-24, ,
3, ,-24, ,
3, ,-24, ,
3, ,-24, ,
2, ,-24, ,
2, ,-24, ,
2, ,-24, ,
2, ,-24, ,
2, ,-24, ,
2, ,-24, ,
3, ,-24, ,
3, ,-24, ,
3, ,-24, ,
4, ,-24, ,
4, ,-24, ,
5, ,-24, ,
5, ,-24, ,
5, ,-24, ,
5, ,-24, ,
5, ,-24, ,
5, ,-24, ,
5, ,-24, ,
4, ,-24, ,
3, ,-24, ,
3, ,-24, ,
2, ,-24, ,
2, ,-24, ,
1, ,-24, ,
0, ,-24, ,
0, ,-24, ,
-1, ,-24, ,
-2, ,-24, ,
-2, ,-24, ,
-2, ,-24, ,
-3, ,-24, ,
-3, ,-24, ,
-3, ,-24, ,
-3, ,-24, ,
-3, ,-24, ,
-2, ,-24, ,
-2, ,-24, ,
-2, ,-24, ,
-2, ,-24, ,
-1, ,-24, ,
-1, ,-24, ,
0, ,-24, ,
0, ,-24, ,
0, ,-24, ,
0, ,-24, ,
-1, ,-24, ,
-1, ,-24, ,
-1, ,-24, ,
-1, ,-24, ,
-1, ,-24, ,
-1, ,-24, ,
-1, ,-24, ,
-1, ,-24, ,
-1, ,-24, ,
-1, ,-24, ,
-1, ,-24, ,
-1, ,-24, ,
0, ,-24, ,
0, ,-24, ,
1, ,-24, ,
1, ,-24, ,
1, ,-24, ,
