raw_data/75% Glycerol, Impulsion 2Hz, Sonde 5MHz, Rampe 0.7Hz/temp0000101.CSV

Format,1.0B,
Memory Length,10000,Memory Length,10000,
IntpDistance,0,IntpDistance,0,
Trigger Address,159,Trigger Address,159,
Trigger Level,2.720E-01,Trigger Level,2.720E-01,
Source,CH1,Source,CH2,
Vertical Units,V,Vertical Units,V,
Vertical Units Div,0,Vertical Units Div,0,
Vertical Units Extend Div,16,Vertical Units Extend Div,16,
Label,,Label,,
Probe Type,0,Probe Type,0,
Probe Ratio,1.000e+00,Probe Ratio,1.000e+00,
Vertical Scale,5.000e-01,Vertical Scale,2.000e+00,
Vertical Position,0.000e+00,Vertical Position,0.000e+00,
Horizontal Units,S,Horizontal Units,S,
Horizontal Scale,5.000E-06,Horizontal Scale,5.000E-06,
Horizontal Position,2.420E-05,Horizontal Position,2.420E-05,
Horizontal Mode,Main,Horizontal Mode,Main,
SincET Mode,Real Time,SincET Mode,Real Time,
Sampling Period,5.000e-09,Sampling Period,5.000e-09,
Horizontal Old Scale,5.000E-06,Horizontal Old Scale,5.000E-06,
Horizontal Old Position,2.420E-05,Horizontal Old Position,2.420E-05,
Firmware,V1.32,Firmware,V1.32,
Mode,Fast,Mode,Fast,
Waveform Data,,Waveform Data,,
1, ,35, ,
0, ,35, ,
0, ,35, ,
1, ,35, ,
0, ,35, ,
0, ,35, ,
0, ,35, ,
0, ,35, ,
0, ,35, ,
0, ,35, ,
0, ,35, ,
0, ,35, ,
0, ,35, ,
0, ,35, ,
0, ,35, ,
0, ,35, ,
0, ,35, ,
0, ,35, ,
0, ,35, ,
1, ,35, ,
0, ,35, ,
0, ,35, ,
0, ,35, ,
0, ,35, ,
0, ,35, ,
0, ,35, ,
0, ,35, ,
0, ,35, ,
0, ,35, ,
0, ,35, ,
0, ,35, ,
0, ,35, ,
0, ,35, ,
0, ,35, ,
0, ,35, ,
0, ,35, ,
0, ,35, ,
0, ,35, ,
0, ,35, ,
0, ,35, ,
0, ,35, ,
0, ,35, ,
0, ,35, ,
0, ,35, ,
1, ,35, ,
1, ,35, ,
0, ,35, ,
0, ,35, ,
0, ,35, ,
0, ,35, ,
0, ,35, ,
1, ,35, ,
0, ,35, ,
0, ,35, ,
0, ,35, ,
0, ,35, ,
0, ,35, ,
0, ,35, ,
0, ,35, ,
0, ,35, ,
0, ,35, ,
0, ,35, ,
0, ,35, ,
1, ,35, ,
1, ,35, ,
1, ,35, ,
1, ,35, ,
1, ,35, ,
0, ,35, ,
0, ,35, ,
0, ,35, ,
1, ,35, ,
1, ,35, ,
0, ,35, ,
0, ,35, ,
1, ,35, ,
0, ,35, ,
0, ,35, ,
0, ,35, ,
0, ,35, ,
0, ,35, ,
0, ,35, ,
0, ,35, ,
1, ,35, ,
1, ,35, ,
1, ,35, ,
1, ,35, ,
0, ,35, ,
0, ,35, ,
1, ,35, ,
1, ,35, ,
0, ,35, ,
0, ,35, ,
0, ,35, ,
0, ,35, ,
0, ,35, ,
1, ,35, ,
0, ,35, ,
0, ,35, ,
0, ,35, ,
0, ,35, ,
0, ,35, ,
0, ,35, ,
0, ,35, ,
0, ,35, ,
0, ,35, ,
0, ,35, ,
0, ,35, ,
0, ,35, ,
0, ,35, ,
0, ,35, ,
0, ,35, ,
0, ,35, ,
0, ,35, ,
1, ,35, ,
1, ,35, ,
1, ,35, ,
1, ,35, ,
1, ,35, ,
0, ,35, ,
0, ,35, ,
0, ,35, ,
0, ,35, ,
1, ,35, ,
0, ,35, ,
0, ,35, ,
0, ,35, ,
0, ,35, ,
1, ,35, ,
1, ,35, ,
1, ,35, ,
0, ,35, ,
0, ,35, ,
0, ,35, ,
0, ,35, ,
0, ,35, ,
0, ,35, ,
0, ,35, ,
0, ,35, ,
0, ,35, ,
0, ,35, ,
1, ,35, ,
1, ,35, ,
0, ,35, ,
0, ,35, ,
0, ,35, ,
0, ,35, ,
0, ,35, ,
0, ,35, ,
1, ,35, ,
0, ,35, ,
0, ,35, ,
1, ,35, ,
1, ,35, ,
1, ,35, ,
1, ,35, ,
1, ,35, ,
1, ,35, ,
0, ,35, ,
0, ,35, ,
1, ,35, ,
1, ,35, ,
1, ,35, ,
1, ,35, ,
1, ,35, ,
-1, ,35, ,
-1, ,35, ,
0, ,35, ,
9, ,35, ,
32, ,35, ,
69, ,35, ,
124, ,35, ,
123, ,35, ,
118, ,35, ,
66, ,35, ,
-6, ,35, ,
30, ,35, ,
85, ,35, ,
125, ,35, ,
125, ,35, ,
125, ,35, ,
125, ,35, ,
125, ,35, ,
124, ,35, ,
124, ,35, ,
123, ,35, ,
118, ,35, ,
108, ,35, ,
104, ,35, ,
102, ,35, ,
98, ,35, ,
91, ,35, ,
88, ,35, ,
84, ,35, ,
80, ,35, ,
75, ,35, ,
73, ,35, ,
70, ,35, ,
67, ,35, ,
61, ,35, ,
59, ,35, ,
56, ,35, ,
55, ,35, ,
50, ,35, ,
48, ,35, ,
46, ,35, ,
43, ,35, ,
40, ,35, ,
38, ,35, ,
36, ,35, ,
35, ,35, ,
32, ,35, ,
30, ,35, ,
29, ,35, ,
27, ,35, ,
25, ,35, ,
24, ,35, ,
24, ,35, ,
22, ,35, ,
21, ,35, ,
19, ,35, ,
19, ,35, ,
18, ,35, ,
16, ,35, ,
16, ,35, ,
14, ,35, ,
13, ,35, ,
12, ,35, ,
11, ,35, ,
11, ,35, ,
10, ,35, ,
9, ,35, ,
9, ,35, ,
8, ,35, ,
8, ,35, ,
7, ,35, ,
6, ,35, ,
6, ,35, ,
5, ,35, ,
5, ,35, ,
4, ,35, ,
4, ,35, ,
4, ,35, ,
4, ,35, ,
3, ,35, ,
3, ,35, ,
2, ,35, ,
2, ,35, ,
2, ,35, ,
2, ,35, ,
2, ,35, ,
1, ,35, ,
1, ,35, ,
1, ,35, ,
1, ,35, ,
1, ,35, ,
0, ,35, ,
0, ,35, ,
0, ,35, ,
0, ,35, ,
-1, ,35, ,
-1, ,35, ,
-1, ,35, ,
-1, ,35, ,
-1, ,35, ,
-1, ,35, ,
-1, ,35, ,
-1, ,35, ,
-1, ,35, ,
-1, ,35, ,
-1, ,35, ,
-1, ,35, ,
-1, ,35, ,
-2, ,35, ,
-2, ,35, ,
-1, ,35, ,
-1, ,35, ,
-1, ,35, ,
-1, ,35, ,
-1, ,35, ,
-1, ,35, ,
-1, ,35, ,
-1, ,35, ,
-1, ,35, ,
-2, ,35, ,
-2, ,35, ,
-2, ,35, ,
-1, ,35, ,
-1, ,35, ,
-1, ,35, ,
-1, ,35, ,
-1, ,35, ,
-2, ,35, ,
-2, ,35, ,
-2, ,35, ,
-2, ,35, ,
-1, ,35, ,
-1, ,35, ,
-1, ,35, ,
-2, ,35, ,
-2, ,35, ,
-1, ,35, ,
-1, ,35, ,
-1, ,35, ,
-1, ,35, ,
-1, ,35, ,
-1, ,35, ,
-1, ,35, ,
-1, ,35, ,
-1, ,35, ,
-1, ,35, ,
-1, ,35, ,
-1, ,35, ,
-1, ,35, ,
-1, ,35, ,
-1, ,35, ,
-1, ,35, ,
-1, ,35, ,
-1, ,35, ,
-1, ,35, ,
0, ,35, ,
-1, ,35, ,
-1, ,35, ,
0, ,35, ,
0, ,35, ,
0, ,35, ,
0, ,35, ,
0, ,35, ,
0, ,35, ,
0, ,35, ,
0, ,35, ,
0, ,35, ,
0, ,35, ,
0, ,35, ,
0, ,35, ,
-1, ,35, ,
-1, ,35, ,
-1, ,35, ,
0, ,35, ,
0, ,35, ,
0, ,35, ,
0, ,35, ,
0, ,35, ,
0, ,35, ,
0, ,35, ,
0, ,35, ,
0, ,35, ,
0, ,35, ,
0, ,35, ,
0, ,35, ,
0, ,35, ,
0, ,35, ,
0, ,35, ,
0, ,35, ,
0, ,35, ,
0, ,35, ,
0, ,35, ,
0, ,35, ,
0, ,35, ,
0, ,35, ,
0, ,35, ,
0, ,35, ,
0, ,35, ,
0, ,35, ,
0, ,35, ,
0, ,35, ,
0, ,35, ,
0, ,35, ,
0, ,35, ,
0, ,35, ,
0, ,35, ,
0, ,35, ,
0, ,35, ,
0, ,35, ,
0, ,35, ,
0, ,35, ,
0, ,35, ,
0, ,35, ,
0, ,35, ,
0, ,35, ,
0, ,35, ,
0, ,35, ,
0, ,35, ,
0, ,35, ,
0, ,35, ,
0, ,35, ,
0, ,35, ,
0, ,35, ,
0, ,35, ,
0, ,35, ,
0, ,35, ,
0, ,35, ,
0, ,35, ,
0, ,35, ,
0, ,35, ,
0, ,35, ,
0, ,35, ,
0, ,35, ,
0, ,35, ,
0, ,35, ,
0, ,35, ,
0, ,35, ,
1, ,35, ,
0, ,35, ,
0, ,35, ,
0, ,35, ,
0, ,35, ,
0, ,35, ,
0, ,35, ,
-1, ,35, ,
-1, ,35, ,
0, ,35, ,
0, ,35, ,
0, ,35, ,
0, ,35, ,
0, ,35, ,
0, ,35, ,
0, ,35, ,
0, ,35, ,
1, ,35, ,
1, ,35, ,
0, ,35, ,
0, ,35, ,
1, ,35, ,
1, ,35, ,
1, ,35, ,
1, ,35, ,
1, ,35, ,
0, ,35, ,
0, ,35, ,
0, ,35, ,
0, ,35, ,
0, ,35, ,
0, ,35, ,
0, ,35, ,
0, ,35, ,
0, ,35, ,
0, ,35, ,
0, ,35, ,
-1, ,35, ,
-1, ,35, ,
-3, ,35, ,
-3, ,35, ,
-6, ,35, ,
-8, ,35, ,
-10, ,35, ,
-11, ,35, ,
-11, ,35, ,
-10, ,35, ,
-9, ,35, ,
-7, ,35, ,
-4, ,35, ,
-3, ,35, ,
-2, ,35, ,
-2, ,35, ,
0, ,35, ,
1, ,35, ,
1, ,35, ,
1, ,35, ,
1, ,35, ,
1, ,35, ,
0, ,35, ,
0, ,35, ,
0, ,35, ,
0, ,35, ,
-1, ,35, ,
-1, ,35, ,
-1, ,35, ,
-1, ,35, ,
0, ,35, ,
0, ,35, ,
2, ,35, ,
2, ,35, ,
2, ,35, ,
2, ,35, ,
3, ,35, ,
3, ,35, ,
3, ,35, ,
3, ,35, ,
2, ,35, ,
2, ,35, ,
2, ,35, ,
2, ,35, ,
1, ,35, ,
1, ,35, ,
1, ,35, ,
1, ,35, ,
1, ,35, ,
1, ,35, ,
1, ,35, ,
1, ,35, ,
2, ,35, ,
2, ,35, ,
2, ,35, ,
2, ,35, ,
3, ,35, ,
3, ,35, ,
3, ,35, ,
2, ,35, ,
2, ,35, ,
2, ,35, ,
2, ,35, ,
1, ,35, ,
1, ,35, ,
1, ,35, ,
1, ,35, ,
1, ,35, ,
0, ,35, ,
0, ,35, ,
0, ,35, ,
0, ,35, ,
0, ,35, ,
1, ,35, ,
1, ,35, ,
1, ,35, ,
1, ,35, ,
1, ,35, ,
2, ,35, ,
1, ,35, ,
0, ,35, ,
0, ,35, ,
-1, ,35, ,
-1, ,35, ,
-2, ,35, ,
-3, ,35, ,
-4, ,35, ,
-6, ,35, ,
-8, ,35, ,
-10, ,35, ,
-12, ,35, ,
-14, ,35, ,
-17, ,35, ,
-19, ,35, ,
-19, ,35, ,
-20, ,35, ,
-21, ,35, ,
-21, ,35, ,
-21, ,35, ,
-21, ,35, ,
-22, ,35, ,
-23, ,35, ,
-23, ,35, ,
-24, ,35, ,
-25, ,35, ,
-25, ,35, ,
-25, ,35, ,
-25, ,35, ,
-25, ,35, ,
-24, ,35, ,
-22, ,35, ,
-21, ,35, ,
-18, ,35, ,
-17, ,35, ,
-15, ,35, ,
-15, ,35, ,
-15, ,35, ,
-15, ,35, ,
-17, ,35, ,
-19, ,35, ,
-23, ,35, ,
-25, ,35, ,
-28, ,35, ,
-30, ,35, ,
-35, ,35, ,
-37, ,35, ,
-38, ,35, ,
-38, ,35, ,
-37, ,35, ,
-36, ,35, ,
-34, ,35, ,
-32, ,35, ,
-27, ,35, ,
-25, ,35, ,
-21, ,35, ,
-19, ,35, ,
-12, ,35, ,
-9, ,35, ,
-7, ,35, ,
-4, ,35, ,
1, ,35, ,
3, ,35, ,
5, ,35, ,
6, ,35, ,
9, ,35, ,
11, ,35, ,
12, ,35, ,
13, ,35, ,
14, ,35, ,
13, ,35, ,
13, ,35, ,
12, ,35, ,
10, ,35, ,
9, ,35, ,
7, ,35, ,
5, ,35, ,
1, ,35, ,
-2, ,35, ,
-2, ,35, ,
-4, ,35, ,
-4, ,35, ,
-4, ,35, ,
-4, ,35, ,
-2, ,35, ,
3, ,35, ,
5, ,35, ,
9, ,35, ,
12, ,35, ,
19, ,35, ,
22, ,35, ,
25, ,35, ,
26, ,35, ,
30, ,35, ,
30, ,35, ,
31, ,35, ,
31, ,35, ,
31, ,35, ,
31, ,35, ,
30, ,35, ,
29, ,35, ,
27, ,35, ,
26, ,35, ,
25, ,35, ,
22, ,35, ,
17, ,35, ,
14, ,35, ,
9, ,35, ,
3, ,35, ,
-12, ,35, ,
-21, ,35, ,
-29, ,35, ,
-37, ,35, ,
-51, ,35, ,
-54, ,35, ,
-58, ,35, ,
-60, ,35, ,
-63, ,35, ,
-63, ,35, ,
-62, ,35, ,
-62, ,35, ,
-59, ,35, ,
-56, ,35, ,
-55, ,35, ,
-53, ,35, ,
-48, ,35, ,
-45, ,35, ,
-42, ,35, ,
-40, ,35, ,
-32, ,35, ,
-28, ,35, ,
-25, ,35, ,
-20, ,35, ,
-9, ,35, ,
-3, ,35, ,
3, ,35, ,
10, ,35, ,
23, ,35, ,
28, ,35, ,
33, ,35, ,
38, ,35, ,
44, ,35, ,
45, ,35, ,
46, ,35, ,
45, ,35, ,
42, ,35, ,
40, ,35, ,
35, ,35, ,
31, ,35, ,
14, ,35, ,
3, ,35, ,
-8, ,35, ,
-21, ,35, ,
-41, ,35, ,
-50, ,35, ,
-57, ,35, ,
-61, ,35, ,
-60, ,35, ,
-55, ,35, ,
-47, ,35, ,
-37, ,35, ,
-13, ,35, ,
1, ,35, ,
13, ,35, ,
24, ,35, ,
40, ,35, ,
45, ,35, ,
49, ,35, ,
51, ,35, ,
51, ,35, ,
51, ,35, ,
50, ,35, ,
48, ,35, ,
43, ,35, ,
39, ,35, ,
35, ,35, ,
29, ,35, ,
15, ,35, ,
9, ,35, ,
0, ,35, ,
-8, ,35, ,
-21, ,35, ,
-27, ,35, ,
-32, ,35, ,
-37, ,35, ,
-46, ,35, ,
-50, ,35, ,
-55, ,35, ,
-60, ,35, ,
-72, ,35, ,
-78, ,35, ,
-84, ,35, ,
-91, ,35, ,
-102, ,35, ,
-107, ,35, ,
-110, ,35, ,
-112, ,35, ,
-113, ,35, ,
-113, ,35, ,
-112, ,35, ,
-110, ,35, ,
-85, ,35, ,
-65, ,35, ,
-45, ,35, ,
-25, ,35, ,
16, ,35, ,
35, ,35, ,
54, ,35, ,
69, ,35, ,
89, ,35, ,
96, ,35, ,
99, ,35, ,
99, ,35, ,
97, ,35, ,
95, ,35, ,
94, ,35, ,
92, ,35, ,
86, ,35, ,
84, ,35, ,
81, ,35, ,
78, ,35, ,
73, ,35, ,
69, ,35, ,
65, ,35, ,
61, ,35, ,
51, ,35, ,
44, ,35, ,
37, ,35, ,
31, ,35, ,
15, ,35, ,
8, ,35, ,
0, ,35, ,
-6, ,35, ,
-14, ,35, ,
-14, ,35, ,
-14, ,35, ,
-14, ,35, ,
-10, ,35, ,
-8, ,35, ,
-5, ,35, ,
-3, ,35, ,
1, ,35, ,
2, ,35, ,
1, ,35, ,
1, ,35, ,
-4, ,35, ,
-8, ,35, ,
-13, ,35, ,
-20, ,35, ,
-33, ,35, ,
-41, ,35, ,
-49, ,35, ,
-57, ,35, ,
-71, ,35, ,
-75, ,35, ,
-80, ,35, ,
-84, ,35, ,
-87, ,35, ,
-86, ,35, ,
-85, ,35, ,
-82, ,35, ,
-74, ,35, ,
-69, ,35, ,
-63, ,35, ,
-56, ,35, ,
-45, ,35, ,
-39, ,35, ,
-35, ,35, ,
-31, ,35, ,
-25, ,35, ,
-24, ,35, ,
-23, ,35, ,
-22, ,35, ,
-21, ,35, ,
-21, ,35, ,
-20, ,35, ,
-19, ,35, ,
-18, ,35, ,
-17, ,35, ,
-16, ,35, ,
-14, ,35, ,
-10, ,35, ,
-7, ,35, ,
-4, ,35, ,
-1, ,35, ,
5, ,35, ,
8, ,35, ,
12, ,35, ,
14, ,35, ,
20, ,35, ,
23, ,35, ,
24, ,35, ,
25, ,35, ,
27, ,35, ,
27, ,35, ,
27, ,35, ,
25, ,35, ,
23, ,35, ,
20, ,35, ,
16, ,35, ,
12, ,35, ,
4, ,35, ,
-1, ,35, ,
-6, ,35, ,
-10, ,35, ,
-18, ,35, ,
-20, ,35, ,
-22, ,35, ,
-22, ,35, ,
-20, ,35, ,
-18, ,35, ,
-15, ,35, ,
-12, ,35, ,
-3, ,35, ,
3, ,35, ,
8, ,35, ,
14, ,35, ,
24, ,35, ,
28, ,35, ,
33, ,35, ,
36, ,35, ,
43, ,35, ,
45, ,35, ,
47, ,35, ,
49, ,35, ,
48, ,35, ,
47, ,35, ,
46, ,35, ,
44, ,35, ,
39, ,35, ,
36, ,35, ,
32, ,35, ,
28, ,35, ,
20, ,35, ,
14, ,35, ,
10, ,35, ,
4, ,35, ,
-7, ,35, ,
-11, ,35, ,
-16, ,35, ,
-20, ,35, ,
-25, ,35, ,
-28, ,35, ,
-29, ,35, ,
-31, ,35, ,
-31, ,35, ,
-30, ,35, ,
-29, ,35, ,
-27, ,35, ,
-24, ,35, ,
-23, ,35, ,
-20, ,35, ,
-18, ,35, ,
-14, ,35, ,
-11, ,35, ,
-11, ,35, ,
-9, ,35, ,
-8, ,35, ,
-8, ,35, ,
-8, ,35, ,
-8, ,35, ,
-9, ,35, ,
-10, ,35, ,
-11, ,35, ,
-12, ,35, ,
-14, ,35, ,
-15, ,35, ,
-16, ,35, ,
-18, ,35, ,
-21, ,35, ,
-22, ,35, ,
-24, ,35, ,
-25, ,35, ,
-28, ,35, ,
-30, ,35, ,
-32, ,35, ,
-34, ,35, ,
-37, ,35, ,
-37, ,35, ,
-37, ,35, ,
-36, ,35, ,
-35, ,35, ,
-35, ,35, ,
-32, ,35, ,
-30, ,35, ,
-25, ,35, ,
-22, ,35, ,
-19, ,35, ,
-16, ,35, ,
-8, ,35, ,
-5, ,35, ,
-2, ,35, ,
1, ,35, ,
5, ,35, ,
7, ,35, ,
7, ,35, ,
7, ,35, ,
7, ,35, ,
6, ,35, ,
4, ,35, ,
3, ,35, ,
-1, ,35, ,
-2, ,35, ,
-4, ,35, ,
-5, ,35, ,
-6, ,35, ,
-6, ,35, ,
-6, ,35, ,
-5, ,35, ,
-3, ,35, ,
-1, ,35, ,
1, ,35, ,
3, ,35, ,
9, ,35, ,
11, ,35, ,
14, ,35, ,
16, ,35, ,
22, ,35, ,
24, ,35, ,
25, ,35, ,
27, ,35, ,
29, ,35, ,
29, ,35, ,
29, ,35, ,
28, ,35, ,
27, ,35, ,
26, ,35, ,
25, ,35, ,
23, ,35, ,
17, ,35, ,
13, ,35, ,
10, ,35, ,
5, ,35, ,
-4, ,35, ,
-8, ,35, ,
-13, ,35, ,
-17, ,35, ,
-25, ,35, ,
-29, ,35, ,
-32, ,35, ,
-35, ,35, ,
-39, ,35, ,
-40, ,35, ,
-40, ,35, ,
-40, ,35, ,
-38, ,35, ,
-37, ,35, ,
-35, ,35, ,
-32, ,35, ,
-27, ,35, ,
-25, ,35, ,
-22, ,35, ,
-19, ,35, ,
-13, ,35, ,
-12, ,35, ,
-9, ,35, ,
-7, ,35, ,
-4, ,35, ,
-3, ,35, ,
-3, ,35, ,
-3, ,35, ,
-3, ,35, ,
-3, ,35, ,
-4, ,35, ,
-4, ,35, ,
-5, ,35, ,
-6, ,35, ,
-6, ,35, ,
-7, ,35, ,
-6, ,35, ,
-6, ,35, ,
-6, ,35, ,
-6, ,35, ,
-5, ,35, ,
-3, ,35, ,
-2, ,35, ,
0, ,35, ,
3, ,35, ,
5, ,35, ,
8, ,35, ,
10, ,35, ,
15, ,35, ,
16, ,35, ,
19, ,35, ,
22, ,35, ,
25, ,35, ,
26, ,35, ,
28, ,35, ,
29, ,35, ,
30, ,35, ,
30, ,35, ,
30, ,35, ,
29, ,35, ,
27, ,35, ,
26, ,35, ,
25, ,35, ,
23, ,35, ,
18, ,35, ,
16, ,35, ,
12, ,35, ,
10, ,35, ,
4, ,35, ,
1, ,35, ,
-2, ,35, ,
-5, ,35, ,
-10, ,35, ,
-12, ,35, ,
-15, ,35, ,
-15, ,35, ,
-19, ,35, ,
-19, ,35, ,
-19, ,35, ,
-19, ,35, ,
-18, ,35, ,
-16, ,35, ,
-15, ,35, ,
-14, ,35, ,
-10, ,35, ,
-8, ,35, ,
-6, ,35, ,
-4, ,35, ,
-2, ,35, ,
0, ,35, ,
-1, ,35, ,
-1, ,35, ,
-2, ,35, ,
-4, ,35, ,
-6, ,35, ,
-8, ,35, ,
-14, ,35, ,
-16, ,35, ,
-20, ,35, ,
-23, ,35, ,
-28, ,35, ,
-31, ,35, ,
-33, ,35, ,
-36, ,35, ,
-37, ,35, ,
-37, ,35, ,
-37, ,35, ,
-36, ,35, ,
-31, ,35, ,
-28, ,35, ,
-25, ,35, ,
-22, ,35, ,
-14, ,35, ,
-8, ,35, ,
-4, ,35, ,
0, ,35, ,
9, ,35, ,
12, ,35, ,
16, ,35, ,
18, ,35, ,
23, ,35, ,
24, ,35, ,
25, ,35, ,
24, ,35, ,
23, ,35, ,
22, ,35, ,
22, ,35, ,
20, ,35, ,
17, ,35, ,
17, ,35, ,
16, ,35, ,
15, ,35, ,
13, ,35, ,
13, ,35, ,
12, ,35, ,
12, ,35, ,
11, ,35, ,
10, ,35, ,
9, ,35, ,
9, ,35, ,
6, ,35, ,
4, ,35, ,
2, ,35, ,
-1, ,35, ,
-7, ,35, ,
-9, ,35, ,
-13, ,35, ,
-15, ,35, ,
-19, ,35, ,
-21, ,35, ,
-20, ,35, ,
-21, ,35, ,
-18, ,35, ,
-15, ,35, ,
-13, ,35, ,
-9, ,35, ,
-1, ,35, ,
3, ,35, ,
8, ,35, ,
12, ,35, ,
21, ,35, ,
25, ,35, ,
27, ,35, ,
30, ,35, ,
34, ,35, ,
34, ,35, ,
34, ,35, ,
32, ,35, ,
28, ,35, ,
25, ,35, ,
21, ,35, ,
18, ,35, ,
8, ,35, ,
3, ,35, ,
-2, ,35, ,
-7, ,35, ,
-17, ,35, ,
-22, ,35, ,
-25, ,35, ,
-29, ,35, ,
-35, ,35, ,
-38, ,35, ,
-39, ,35, ,
-40, ,35, ,
-40, ,35, ,
-38, ,35, ,
-36, ,35, ,
-35, ,35, ,
-29, ,35, ,
-27, ,35, ,
-23, ,35, ,
-20, ,35, ,
-13, ,35, ,
-8, ,35, ,
-5, ,35, ,
0, ,35, ,
7, ,35, ,
10, ,35, ,
14, ,35, ,
17, ,35, ,
22, ,35, ,
24, ,35, ,
25, ,35, ,
25, ,35, ,
24, ,35, ,
22, ,35, ,
20, ,35, ,
17, ,35, ,
10, ,35, ,
7, ,35, ,
2, ,35, ,
-2, ,35, ,
-11, ,35, ,
-15, ,35, ,
-19, ,35, ,
-22, ,35, ,
-26, ,35, ,
-26, ,35, ,
-26, ,35, ,
-26, ,35, ,
-23, ,35, ,
-20, ,35, ,
-16, ,35, ,
-13, ,35, ,
-4, ,35, ,
0, ,35, ,
4, ,35, ,
9, ,35, ,
15, ,35, ,
17, ,35, ,
20, ,35, ,
21, ,35, ,
22, ,35, ,
22, ,35, ,
21, ,35, ,
21, ,35, ,
18, ,35, ,
17, ,35, ,
16, ,35, ,
14, ,35, ,
10, ,35, ,
8, ,35, ,
6, ,35, ,
3, ,35, ,
-2, ,35, ,
-4, ,35, ,
-6, ,35, ,
-10, ,35, ,
-14, ,35, ,
-17, ,35, ,
-19, ,35, ,
-20, ,35, ,
-21, ,35, ,
-21, ,35, ,
-21, ,35, ,
-20, ,35, ,
-15, ,35, ,
-12, ,35, ,
-9, ,35, ,
-5, ,35, ,
3, ,35, ,
6, ,35, ,
10, ,35, ,
12, ,35, ,
16, ,35, ,
16, ,35, ,
15, ,35, ,
14, ,35, ,
9, ,35, ,
5, ,35, ,
1, ,35, ,
-3, ,35, ,
-12, ,35, ,
-17, ,35, ,
-21, ,35, ,
-24, ,35, ,
-27, ,35, ,
-28, ,35, ,
-28, ,35, ,
-27, ,35, ,
-24, ,35, ,
-21, ,35, ,
-17, ,35, ,
-13, ,35, ,
-5, ,35, ,
-1, ,35, ,
4, ,35, ,
6, ,35, ,
11, ,35, ,
13, ,35, ,
14, ,35, ,
14, ,35, ,
13, ,35, ,
11, ,35, ,
10, ,35, ,
8, ,35, ,
3, ,35, ,
1, ,35, ,
-2, ,35, ,
-4, ,35, ,
-9, ,35, ,
-11, ,35, ,
-13, ,35, ,
-16, ,35, ,
-19, ,35, ,
-20, ,35, ,
-22, ,35, ,
-22, ,35, ,
-24, ,35, ,
-24, ,35, ,
-23, ,35, ,
-22, ,35, ,
-19, ,35, ,
-17, ,35, ,
-14, ,35, ,
-11, ,35, ,
-3, ,35, ,
0, ,35, ,
5, ,35, ,
7, ,35, ,
15, ,35, ,
18, ,35, ,
21, ,35, ,
23, ,35, ,
25, ,35, ,
25, ,35, ,
25, ,35, ,
24, ,35, ,
20, ,35, ,
19, ,35, ,
16, ,35, ,
13, ,35, ,
7, ,35, ,
5, ,35, ,
2, ,35, ,
0, ,35, ,
-3, ,35, ,
-3, ,35, ,
-3, ,35, ,
-2, ,35, ,
0, ,35, ,
2, ,35, ,
4, ,35, ,
6, ,35, ,
10, ,35, ,
12, ,35, ,
13, ,35, ,
15, ,35, ,
15, ,35, ,
14, ,35, ,
13, ,35, ,
11, ,35, ,
6, ,35, ,
4, ,35, ,
1, ,35, ,
-3, ,35, ,
-10, ,35, ,
-14, ,35, ,
-17, ,35, ,
-20, ,35, ,
-24, ,35, ,
-23, ,35, ,
-24, ,35, ,
-22, ,35, ,
-19, ,35, ,
-17, ,35, ,
-14, ,35, ,
-12, ,35, ,
-5, ,35, ,
-2, ,35, ,
1, ,35, ,
2, ,35, ,
3, ,35, ,
3, ,35, ,
2, ,35, ,
1, ,35, ,
-5, ,35, ,
-7, ,35, ,
-11, ,35, ,
-14, ,35, ,
-21, ,35, ,
-25, ,35, ,
-25, ,35, ,
-29, ,35, ,
-29, ,35, ,
-29, ,35, ,
-28, ,35, ,
-26, ,35, ,
-21, ,35, ,
-17, ,35, ,
-13, ,35, ,
-8, ,35, ,
2, ,35, ,
7, ,35, ,
13, ,35, ,
17, ,35, ,
25, ,35, ,
27, ,35, ,
29, ,35, ,
31, ,35, ,
33, ,35, ,
33, ,35, ,
32, ,35, ,
30, ,35, ,
27, ,35, ,
25, ,35, ,
23, ,35, ,
19, ,35, ,
13, ,35, ,
10, ,35, ,
7, ,35, ,
4, ,35, ,
0, ,35, ,
-2, ,35, ,
-4, ,35, ,
-5, ,35, ,
-6, ,35, ,
-6, ,35, ,
-6, ,35, ,
-5, ,35, ,
-4, ,35, ,
-4, ,35, ,
-4, ,35, ,
-4, ,35, ,
-4, ,35, ,
-4, ,35, ,
-5, ,35, ,
-5, ,35, ,
-6, ,35, ,
-7, ,35, ,
-7, ,35, ,
-7, ,35, ,
-8, ,35, ,
-8, ,35, ,
-8, ,35, ,
-8, ,35, ,
-7, ,35, ,
-7, ,35, ,
-6, ,35, ,
-6, ,35, ,
-3, ,35, ,
-2, ,35, ,
-2, ,35, ,
0, ,35, ,
3, ,35, ,
4, ,35, ,
6, ,35, ,
6, ,35, ,
9, ,35, ,
10, ,35, ,
10, ,35, ,
10, ,35, ,
9, ,35, ,
9, ,35, ,
8, ,35, ,
6, ,35, ,
3, ,35, ,
1, ,35, ,
-2, ,35, ,
-4, ,35, ,
-9, ,35, ,
-11, ,35, ,
-13, ,35, ,
-15, ,35, ,
-16, ,35, ,
-16, ,35, ,
-15, ,35, ,
-14, ,35, ,
-11, ,35, ,
-8, ,35, ,
-6, ,35, ,
-4, ,35, ,
2, ,35, ,
5, ,35, ,
7, ,35, ,
8, ,35, ,
11, ,35, ,
10, ,35, ,
10, ,35, ,
9, ,35, ,
5, ,35, ,
4, ,35, ,
0, ,35, ,
-2, ,35, ,
-8, ,35, ,
-10, ,35, ,
-13, ,35, ,
-16, ,35, ,
-18, ,35, ,
-18, ,35, ,
-18, ,35, ,
-17, ,35, ,
-15, ,35, ,
-13, ,35, ,
-11, ,35, ,
-8, ,35, ,
-2, ,35, ,
2, ,35, ,
4, ,35, ,
7, ,35, ,
13, ,35, ,
14, ,35, ,
17, ,35, ,
19, ,35, ,
20, ,35, ,
20, ,35, ,
20, ,35, ,
19, ,35, ,
17, ,35, ,
15, ,35, ,
14, ,35, ,
12, ,35, ,
8, ,35, ,
6, ,35, ,
4, ,35, ,
2, ,35, ,
-2, ,35, ,
-4, ,35, ,
-5, ,35, ,
-6, ,35, ,
-6, ,35, ,
-5, ,35, ,
-5, ,35, ,
-4, ,35, ,
-3, ,35, ,
-2, ,35, ,
1, ,35, ,
1, ,35, ,
3, ,35, ,
4, ,35, ,
4, ,35, ,
4, ,35, ,
2, ,35, ,
2, ,35, ,
0, ,35, ,
-2, ,35, ,
-7, ,35, ,
-10, ,35, ,
-11, ,35, ,
-14, ,35, ,
-17, ,35, ,
-20, ,35, ,
-20, ,35, ,
-21, ,35, ,
-21, ,35, ,
-19, ,35, ,
-18, ,35, ,
-17, ,35, ,
-13, ,35, ,
-11, ,35, ,
-8, ,35, ,
-6, ,35, ,
-1, ,35, ,
1, ,35, ,
3, ,35, ,
5, ,35, ,
8, ,35, ,
8, ,35, ,
10, ,35, ,
10, ,35, ,
10, ,35, ,
11, ,35, ,
11, ,35, ,
11, ,35, ,
11, ,35, ,
11, ,35, ,
11, ,35, ,
10, ,35, ,
9, ,35, ,
9, ,35, ,
7, ,35, ,
6, ,35, ,
4, ,35, ,
2, ,35, ,
2, ,35, ,
0, ,35, ,
-2, ,35, ,
-3, ,35, ,
-3, ,35, ,
-3, ,35, ,
-2, ,35, ,
-1, ,35, ,
0, ,35, ,
1, ,35, ,
4, ,35, ,
7, ,35, ,
8, ,35, ,
11, ,35, ,
14, ,35, ,
15, ,35, ,
16, ,35, ,
17, ,35, ,
16, ,35, ,
16, ,35, ,
15, ,35, ,
13, ,35, ,
10, ,35, ,
7, ,35, ,
6, ,35, ,
2, ,35, ,
-3, ,35, ,
-4, ,35, ,
-6, ,35, ,
-8, ,35, ,
-11, ,35, ,
-12, ,35, ,
-12, ,35, ,
-12, ,35, ,
-11, ,35, ,
-10, ,35, ,
-10, ,35, ,
-10, ,35, ,
-9, ,35, ,
-7, ,35, ,
-7, ,35, ,
-7, ,35, ,
-7, ,35, ,
-6, ,35, ,
-6, ,35, ,
-6, ,35, ,
-6, ,35, ,
-6, ,35, ,
-5, ,35, ,
-5, ,35, ,
-4, ,35, ,
-4, ,35, ,
-3, ,35, ,
-3, ,35, ,
-2, ,35, ,
-2, ,35, ,
-1, ,35, ,
0, ,35, ,
0, ,35, ,
0, ,35, ,
0, ,35, ,
0, ,35, ,
0, ,35, ,
0, ,35, ,
0, ,35, ,
-1, ,35, ,
-1, ,35, ,
0, ,35, ,
0, ,35, ,
0, ,35, ,
1, ,35, ,
1, ,35, ,
2, ,35, ,
3, ,35, ,
5, ,35, ,
6, ,35, ,
7, ,35, ,
8, ,35, ,
9, ,35, ,
9, ,35, ,
10, ,35, ,
10, ,35, ,
9, ,35, ,
9, ,35, ,
8, ,35, ,
7, ,35, ,
6, ,35, ,
5, ,35, ,
4, ,35, ,
2, ,35, ,
-2, ,35, ,
-3, ,35, ,
-5, ,35, ,
-6, ,35, ,
-9, ,35, ,
-12, ,35, ,
-13, ,35, ,
-14, ,35, ,
-17, ,35, ,
-18, ,35, ,
-18, ,35, ,
-18, ,35, ,
-17, ,35, ,
-17, ,35, ,
-14, ,35, ,
-13, ,35, ,
-8, ,35, ,
-5, ,35, ,
-2, ,35, ,
1, ,35, ,
9, ,35, ,
12, ,35, ,
15, ,35, ,
18, ,35, ,
24, ,35, ,
25, ,35, ,
27, ,35, ,
28, ,35, ,
27, ,35, ,
26, ,35, ,
26, ,35, ,
24, ,35, ,
21, ,35, ,
18, ,35, ,
16, ,35, ,
12, ,35, ,
7, ,35, ,
4, ,35, ,
2, ,35, ,
-2, ,35, ,
-6, ,35, ,
-9, ,35, ,
-11, ,35, ,
-12, ,35, ,
-15, ,35, ,
-17, ,35, ,
-17, ,35, ,
-18, ,35, ,
-20, ,35, ,
-20, ,35, ,
-20, ,35, ,
-21, ,35, ,
-22, ,35, ,
-22, ,35, ,
-21, ,35, ,
-21, ,35, ,
-20, ,35, ,
-19, ,35, ,
-19, ,35, ,
-17, ,35, ,
-15, ,35, ,
-13, ,35, ,
-11, ,35, ,
-11, ,35, ,
-6, ,35, ,
-5, ,35, ,
-3, ,35, ,
-1, ,35, ,
2, ,35, ,
3, ,35, ,
4, ,35, ,
5, ,35, ,
6, ,35, ,
5, ,35, ,
5, ,35, ,
5, ,35, ,
4, ,35, ,
3, ,35, ,
3, ,35, ,
3, ,35, ,
3, ,35, ,
3, ,35, ,
3, ,35, ,
4, ,35, ,
5, ,35, ,
7, ,35, ,
8, ,35, ,
9, ,35, ,
12, ,35, ,
14, ,35, ,
15, ,35, ,
17, ,35, ,
19, ,35, ,
20, ,35, ,
21, ,35, ,
21, ,35, ,
20, ,35, ,
20, ,35, ,
19, ,35, ,
18, ,35, ,
16, ,35, ,
13, ,35, ,
12, ,35, ,
10, ,35, ,
6, ,35, ,
5, ,35, ,
3, ,35, ,
1, ,35, ,
-3, ,35, ,
-4, ,35, ,
-5, ,35, ,
-7, ,35, ,
-10, ,35, ,
-11, ,35, ,
-12, ,35, ,
-13, ,35, ,
-14, ,35, ,
-15, ,35, ,
-16, ,35, ,
-16, ,35, ,
