raw_data/75% Glycerol, Impulsion 2Hz, Sonde 5MHz, Rampe 0.7Hz/temp0000287.CSV

Format,1.0B,
Memory Length,10000,Memory Length,10000,
IntpDistance,0,IntpDistance,0,
Trigger Address,159,Trigger Address,159,
Trigger Level,2.720E-01,Trigger Level,2.720E-01,
Source,CH1,Source,CH2,
Vertical Units,V,Vertical Units,V,
Vertical Units Div,0,Vertical Units Div,0,
Vertical Units Extend Div,16,Vertical Units Extend Div,16,
Label,,Label,,
Probe Type,0,Probe Type,0,
Probe Ratio,1.000e+00,Probe Ratio,1.000e+00,
Vertical Scale,5.000e-01,Vertical Scale,2.000e+00,
Vertical Position,0.000e+00,Vertical Position,0.000e+00,
Horizontal Units,S,Horizontal Units,S,
Horizontal Scale,5.000E-06,Horizontal Scale,5.000E-06,
Horizontal Position,2.420E-05,Horizontal Position,2.420E-05,
Horizontal Mode,Main,Horizontal Mode,Main,
SincET Mode,Real Time,SincET Mode,Real Time,
Sampling Period,5.000e-09,Sampling Period,5.000e-09,
Horizontal Old Scale,5.000E-06,Horizontal Old Scale,5.000E-06,
Horizontal Old Position,2.420E-05,Horizontal Old Position,2.420E-05,
Firmware,V1.32,Firmware,V1.32,
Mode,Fast,Mode,Fast,
Waveform Data,,Waveform Data,,
0, ,36, ,
0, ,36, ,
0, ,35, ,
0, ,35, ,
0, ,36, ,
1, ,36, ,
0, ,36, ,
0, ,36, ,
1, ,35, ,
0, ,35, ,
0, ,35, ,
0, ,35, ,
0, ,35, ,
1, ,36, ,
1, ,36, ,
1, ,36, ,
1, ,36, ,
1, ,36, ,
1, ,36, ,
1, ,36, ,
1, ,36, ,
1, ,36, ,
0, ,36, ,
0, ,36, ,
1, ,35, ,
1, ,35, ,
1, ,36, ,
0, ,35, ,
0, ,35, ,
0, ,35, ,
0, ,36, ,
0, ,35, ,
0, ,35, ,
0, ,35, ,
1, ,35, ,
1, ,35, ,
1, ,36, ,
1, ,35, ,
0, ,35, ,
0, ,35, ,
1, ,35, ,
0, ,35, ,
0, ,35, ,
0, ,35, ,
0, ,35, ,
1, ,35, ,
1, ,35, ,
1, ,35, ,
1, ,36, ,
1, ,36, ,
0, ,36, ,
0, ,36, ,
0, ,35, ,
0, ,35, ,
0, ,36, ,
0, ,36, ,
0, ,36, ,
0, ,36, ,
1, ,36, ,
1, ,36, ,
1, ,36, ,
0, ,36, ,
0, ,36, ,
1, ,35, ,
1, ,35, ,
0, ,35, ,
0, ,35, ,
1, ,35, ,
0, ,36, ,
0, ,36, ,
0, ,36, ,
0, ,36, ,
0, ,35, ,
0, ,35, ,
0, ,36, ,
1, ,35, ,
0, ,35, ,
0, ,36, ,
1, ,36, ,
0, ,36, ,
0, ,36, ,
0, ,35, ,
0, ,35, ,
0, ,35, ,
0, ,36, ,
0, ,36, ,
0, ,36, ,
0, ,36, ,
0, ,35, ,
1, ,35, ,
0, ,35, ,
0, ,36, ,
0, ,36, ,
0, ,36, ,
0, ,36, ,
1, ,36, ,
1, ,36, ,
0, ,35, ,
0, ,35, ,
0, ,35, ,
0, ,35, ,
1, ,36, ,
1, ,36, ,
1, ,36, ,
1, ,35, ,
1, ,35, ,
0, ,36, ,
0, ,35, ,
1, ,35, ,
1, ,36, ,
1, ,36, ,
0, ,36, ,
0, ,36, ,
0, ,35, ,
0, ,35, ,
0, ,35, ,
0, ,36, ,
0, ,36, ,
0, ,36, ,
0, ,36, ,
1, ,35, ,
0, ,35, ,
0, ,35, ,
1, ,36, ,
0, ,36, ,
0, ,36, ,
0, ,36, ,
0, ,36, ,
1, ,36, ,
0, ,35, ,
0, ,35, ,
1, ,35, ,
0, ,36, ,
0, ,36, ,
1, ,36, ,
1, ,36, ,
1, ,35, ,
1, ,35, ,
1, ,35, ,
1, ,35, ,
0, ,36, ,
0, ,36, ,
1, ,35, ,
0, ,35, ,
0, ,35, ,
0, ,35, ,
0, ,35, ,
0, ,35, ,
0, ,35, ,
0, ,36, ,
0, ,36, ,
0, ,36, ,
0, ,36, ,
0, ,36, ,
0, ,36, ,
0, ,35, ,
0, ,35, ,
0, ,36, ,
1, ,36, ,
0, ,35, ,
0, ,35, ,
0, ,36, ,
1, ,36, ,
1, ,36, ,
2, ,35, ,
0, ,35, ,
0, ,35, ,
0, ,36, ,
11, ,35, ,
35, ,35, ,
112, ,36, ,
124, ,36, ,
122, ,36, ,
113, ,36, ,
5, ,35, ,
-4, ,35, ,
37, ,35, ,
92, ,35, ,
125, ,35, ,
125, ,35, ,
125, ,35, ,
125, ,35, ,
125, ,35, ,
124, ,36, ,
124, ,36, ,
122, ,36, ,
111, ,36, ,
107, ,35, ,
103, ,35, ,
101, ,36, ,
95, ,35, ,
90, ,35, ,
87, ,35, ,
84, ,35, ,
77, ,35, ,
75, ,36, ,
72, ,35, ,
70, ,35, ,
64, ,35, ,
62, ,35, ,
59, ,36, ,
57, ,36, ,
52, ,36, ,
49, ,35, ,
48, ,35, ,
46, ,36, ,
42, ,35, ,
40, ,35, ,
38, ,35, ,
36, ,35, ,
34, ,35, ,
32, ,35, ,
30, ,35, ,
29, ,35, ,
26, ,35, ,
25, ,35, ,
25, ,35, ,
23, ,35, ,
22, ,35, ,
20, ,36, ,
20, ,36, ,
19, ,36, ,
16, ,36, ,
16, ,36, ,
15, ,36, ,
14, ,35, ,
13, ,35, ,
13, ,35, ,
11, ,36, ,
11, ,36, ,
10, ,36, ,
9, ,36, ,
9, ,35, ,
8, ,35, ,
7, ,35, ,
7, ,36, ,
6, ,35, ,
6, ,35, ,
5, ,35, ,
5, ,35, ,
5, ,36, ,
4, ,36, ,
3, ,36, ,
3, ,36, ,
3, ,36, ,
3, ,36, ,
2, ,36, ,
2, ,36, ,
2, ,36, ,
2, ,36, ,
1, ,36, ,
1, ,36, ,
1, ,36, ,
1, ,36, ,
1, ,36, ,
1, ,35, ,
1, ,35, ,
0, ,35, ,
0, ,36, ,
0, ,36, ,
0, ,36, ,
0, ,36, ,
0, ,36, ,
-1, ,36, ,
-1, ,35, ,
-1, ,35, ,
-1, ,35, ,
-1, ,35, ,
-1, ,35, ,
-1, ,35, ,
-1, ,36, ,
-1, ,35, ,
-1, ,35, ,
-1, ,36, ,
-1, ,35, ,
-1, ,35, ,
-1, ,36, ,
-1, ,35, ,
-1, ,35, ,
-1, ,35, ,
-1, ,35, ,
-2, ,36, ,
-2, ,36, ,
-1, ,36, ,
-1, ,35, ,
-1, ,35, ,
-1, ,36, ,
-1, ,36, ,
-1, ,36, ,
-1, ,36, ,
-1, ,36, ,
-1, ,35, ,
-1, ,35, ,
-1, ,35, ,
-1, ,35, ,
-1, ,35, ,
-1, ,35, ,
-1, ,35, ,
-1, ,35, ,
-1, ,35, ,
-1, ,36, ,
-1, ,36, ,
-1, ,36, ,
-1, ,36, ,
-1, ,35, ,
-1, ,35, ,
-1, ,36, ,
-1, ,36, ,
-1, ,35, ,
-1, ,35, ,
-1, ,35, ,
-1, ,35, ,
-1, ,36, ,
-1, ,35, ,
-1, ,35, ,
-1, ,35, ,
-1, ,35, ,
-1, ,35, ,
-1, ,36, ,
-1, ,36, ,
-1, ,36, ,
-1, ,36, ,
-1, ,36, ,
-1, ,36, ,
-1, ,36, ,
-1, ,36, ,
0, ,36, ,
-1, ,36, ,
-1, ,36, ,
-1, ,35, ,
0, ,35, ,
0, ,35, ,
0, ,36, ,
0, ,36, ,
0, ,36, ,
0, ,35, ,
-1, ,35, ,
-1, ,36, ,
-1, ,36, ,
-1, ,36, ,
-1, ,36, ,
0, ,35, ,
0, ,35, ,
-1, ,35, ,
-1, ,35, ,
-1, ,35, ,
0, ,35, ,
0, ,36, ,
0, ,36, ,
0, ,36, ,
0, ,36, ,
0, ,36, ,
0, ,36, ,
0, ,36, ,
0, ,36, ,
0, ,36, ,
0, ,36, ,
0, ,36, ,
0, ,36, ,
0, ,36, ,
0, ,36, ,
0, ,36, ,
0, ,36, ,
0, ,35, ,
0, ,35, ,
0, ,35, ,
0, ,35, ,
0, ,35, ,
0, ,35, ,
0, ,36, ,
0, ,35, ,
0, ,35, ,
0, ,36, ,
0, ,36, ,
0, ,36, ,
0, ,35, ,
0, ,35, ,
0, ,35, ,
0, ,35, ,
0, ,36, ,
0, ,35, ,
0, ,35, ,
1, ,36, ,
0, ,36, ,
0, ,35, ,
0, ,35, ,
0, ,36, ,
0, ,35, ,
0, ,35, ,
0, ,35, ,
0, ,35, ,
0, ,36, ,
0, ,35, ,
0, ,35, ,
0, ,36, ,
0, ,35, ,
0, ,35, ,
0, ,35, ,
0, ,35, ,
0, ,35, ,
1, ,35, ,
0, ,36, ,
0, ,35, ,
1, ,35, ,
1, ,35, ,
0, ,35, ,
0, ,35, ,
0, ,36, ,
0, ,35, ,
0, ,35, ,
0, ,35, ,
0, ,36, ,
0, ,36, ,
0, ,36, ,
0, ,36, ,
0, ,36, ,
0, ,35, ,
1, ,35, ,
1, ,35, ,
1, ,36, ,
1, ,36, ,
1, ,36, ,
0, ,36, ,
0, ,36, ,
0, ,35, ,
0, ,35, ,
0, ,35, ,
0, ,35, ,
0, ,35, ,
0, ,35, ,
0, ,35, ,
0, ,35, ,
0, ,35, ,
0, ,36, ,
0, ,36, ,
0, ,36, ,
0, ,35, ,
0, ,35, ,
-1, ,36, ,
-2, ,36, ,
-3, ,35, ,
-4, ,35, ,
-7, ,35, ,
-9, ,35, ,
-12, ,35, ,
-13, ,36, ,
-12, ,36, ,
-11, ,36, ,
-9, ,36, ,
-7, ,36, ,
-3, ,36, ,
-1, ,36, ,
-1, ,36, ,
0, ,35, ,
2, ,35, ,
2, ,35, ,
2, ,36, ,
2, ,36, ,
3, ,36, ,
3, ,36, ,
3, ,36, ,
2, ,36, ,
2, ,36, ,
1, ,36, ,
1, ,35, ,
1, ,35, ,
0, ,35, ,
0, ,36, ,
0, ,36, ,
0, ,36, ,
0, ,36, ,
0, ,36, ,
0, ,36, ,
1, ,35, ,
1, ,35, ,
2, ,35, ,
2, ,35, ,
2, ,35, ,
2, ,36, ,
2, ,36, ,
2, ,36, ,
2, ,35, ,
2, ,35, ,
1, ,35, ,
1, ,35, ,
1, ,35, ,
1, ,35, ,
1, ,35, ,
2, ,35, ,
2, ,35, ,
2, ,35, ,
2, ,36, ,
2, ,35, ,
2, ,35, ,
2, ,35, ,
2, ,35, ,
2, ,35, ,
2, ,36, ,
2, ,35, ,
1, ,35, ,
1, ,35, ,
1, ,35, ,
1, ,35, ,
0, ,36, ,
0, ,36, ,
0, ,36, ,
0, ,36, ,
0, ,36, ,
0, ,35, ,
0, ,35, ,
0, ,36, ,
0, ,36, ,
0, ,36, ,
0, ,36, ,
0, ,36, ,
0, ,35, ,
0, ,35, ,
0, ,35, ,
-1, ,35, ,
-2, ,36, ,
-2, ,36, ,
-3, ,36, ,
-4, ,36, ,
-4, ,36, ,
-5, ,35, ,
-5, ,35, ,
-6, ,36, ,
-6, ,35, ,
-5, ,35, ,
-5, ,35, ,
-5, ,36, ,
-4, ,36, ,
-4, ,36, ,
-3, ,35, ,
-3, ,35, ,
-4, ,35, ,
-4, ,35, ,
-4, ,35, ,
-5, ,36, ,
-6, ,36, ,
-8, ,36, ,
-10, ,35, ,
-16, ,35, ,
-19, ,35, ,
-23, ,35, ,
-27, ,35, ,
-35, ,35, ,
-37, ,35, ,
-39, ,36, ,
-40, ,36, ,
-39, ,36, ,
-39, ,36, ,
-38, ,35, ,
-38, ,35, ,
-36, ,35, ,
-36, ,35, ,
-36, ,35, ,
-37, ,35, ,
-38, ,35, ,
-38, ,35, ,
-39, ,35, ,
-39, ,35, ,
-38, ,36, ,
-38, ,36, ,
-37, ,35, ,
-35, ,35, ,
-30, ,35, ,
-26, ,36, ,
-25, ,36, ,
-21, ,36, ,
-14, ,36, ,
-10, ,36, ,
-7, ,36, ,
-4, ,36, ,
1, ,36, ,
2, ,35, ,
4, ,35, ,
4, ,36, ,
5, ,36, ,
5, ,35, ,
5, ,35, ,
6, ,36, ,
7, ,36, ,
7, ,36, ,
7, ,36, ,
8, ,36, ,
10, ,36, ,
11, ,35, ,
12, ,35, ,
13, ,36, ,
15, ,35, ,
16, ,35, ,
16, ,35, ,
16, ,35, ,
16, ,35, ,
16, ,35, ,
14, ,36, ,
14, ,36, ,
11, ,36, ,
10, ,36, ,
9, ,35, ,
8, ,35, ,
5, ,35, ,
4, ,36, ,
3, ,35, ,
3, ,35, ,
3, ,35, ,
3, ,35, ,
3, ,36, ,
3, ,36, ,
4, ,36, ,
3, ,35, ,
3, ,35, ,
3, ,36, ,
2, ,36, ,
1, ,36, ,
0, ,36, ,
0, ,36, ,
-3, ,36, ,
-4, ,36, ,
-5, ,35, ,
-6, ,35, ,
-9, ,35, ,
-11, ,35, ,
-11, ,36, ,
-12, ,36, ,
-14, ,36, ,
-14, ,35, ,
-14, ,35, ,
-14, ,35, ,
-13, ,35, ,
-12, ,35, ,
-11, ,35, ,
-11, ,35, ,
-9, ,35, ,
-8, ,35, ,
-7, ,35, ,
-7, ,36, ,
-6, ,36, ,
-7, ,36, ,
-7, ,36, ,
-8, ,36, ,
-8, ,36, ,
-8, ,36, ,
-8, ,36, ,
-8, ,35, ,
-8, ,35, ,
-8, ,35, ,
-7, ,36, ,
-7, ,36, ,
-6, ,36, ,
-5, ,36, ,
-5, ,36, ,
-4, ,36, ,
-4, ,35, ,
-5, ,35, ,
-5, ,35, ,
-6, ,35, ,
-6, ,36, ,
-7, ,36, ,
-7, ,35, ,
-7, ,35, ,
-8, ,35, ,
-9, ,36, ,
-9, ,36, ,
-10, ,35, ,
-11, ,35, ,
-12, ,35, ,
-12, ,35, ,
-13, ,35, ,
-14, ,36, ,
-15, ,36, ,
-15, ,36, ,
-15, ,36, ,
-16, ,36, ,
-16, ,36, ,
-16, ,36, ,
-15, ,36, ,
-15, ,36, ,
-14, ,36, ,
-14, ,35, ,
-14, ,35, ,
-15, ,35, ,
-15, ,35, ,
-15, ,35, ,
-15, ,35, ,
-16, ,36, ,
-16, ,36, ,
-16, ,36, ,
-15, ,35, ,
-14, ,35, ,
-14, ,35, ,
-13, ,35, ,
-12, ,35, ,
-9, ,35, ,
-8, ,36, ,
-7, ,36, ,
-6, ,36, ,
-2, ,36, ,
-2, ,35, ,
-1, ,35, ,
1, ,36, ,
2, ,36, ,
3, ,36, ,
5, ,35, ,
5, ,35, ,
7, ,36, ,
7, ,36, ,
8, ,35, ,
8, ,35, ,
7, ,35, ,
7, ,36, ,
6, ,35, ,
5, ,35, ,
4, ,36, ,
3, ,35, ,
2, ,35, ,
0, ,36, ,
-2, ,35, ,
-4, ,35, ,
-5, ,35, ,
-6, ,36, ,
-8, ,36, ,
-8, ,36, ,
-9, ,35, ,
-9, ,35, ,
-9, ,35, ,
-9, ,35, ,
-8, ,35, ,
-8, ,35, ,
-6, ,35, ,
-5, ,35, ,
-3, ,36, ,
-1, ,36, ,
2, ,36, ,
3, ,35, ,
5, ,35, ,
7, ,35, ,
9, ,35, ,
11, ,36, ,
12, ,36, ,
13, ,36, ,
14, ,36, ,
13, ,36, ,
13, ,36, ,
12, ,36, ,
11, ,36, ,
10, ,35, ,
8, ,35, ,
7, ,35, ,
4, ,35, ,
3, ,35, ,
1, ,36, ,
-1, ,36, ,
-5, ,35, ,
-6, ,35, ,
-8, ,35, ,
-9, ,36, ,
-10, ,35, ,
-11, ,35, ,
-11, ,36, ,
-11, ,35, ,
-11, ,35, ,
-10, ,35, ,
-10, ,35, ,
-9, ,35, ,
-8, ,36, ,
-7, ,36, ,
-6, ,36, ,
-6, ,36, ,
-4, ,36, ,
-4, ,36, ,
-5, ,35, ,
-5, ,35, ,
-6, ,36, ,
-7, ,36, ,
-7, ,35, ,
-9, ,35, ,
-11, ,36, ,
-13, ,36, ,
-14, ,36, ,
-15, ,36, ,
-19, ,36, ,
-20, ,35, ,
-22, ,35, ,
-23, ,36, ,
-26, ,36, ,
-27, ,36, ,
-28, ,36, ,
-29, ,36, ,
-30, ,35, ,
-30, ,35, ,
-30, ,35, ,
-30, ,35, ,
-28, ,35, ,
-27, ,35, ,
-27, ,35, ,
-25, ,36, ,
-23, ,35, ,
-21, ,35, ,
-19, ,36, ,
-18, ,36, ,
-14, ,35, ,
-13, ,35, ,
-12, ,35, ,
-10, ,35, ,
-8, ,35, ,
-8, ,36, ,
-7, ,36, ,
-6, ,36, ,
-6, ,35, ,
-5, ,35, ,
-4, ,36, ,
-4, ,36, ,
-3, ,35, ,
-3, ,35, ,
-3, ,35, ,
-3, ,35, ,
-2, ,35, ,
-2, ,35, ,
-2, ,35, ,
-1, ,35, ,
1, ,35, ,
2, ,35, ,
3, ,35, ,
3, ,35, ,
6, ,35, ,
7, ,36, ,
9, ,36, ,
10, ,35, ,
11, ,35, ,
12, ,35, ,
13, ,35, ,
13, ,35, ,
12, ,35, ,
12, ,35, ,
11, ,35, ,
10, ,35, ,
9, ,35, ,
8, ,36, ,
7, ,36, ,
6, ,36, ,
4, ,36, ,
4, ,35, ,
3, ,35, ,
3, ,36, ,
2, ,35, ,
1, ,35, ,
1, ,35, ,
1, ,35, ,
0, ,36, ,
0, ,36, ,
0, ,36, ,
0, ,36, ,
0, ,36, ,
0, ,36, ,
0, ,35, ,
1, ,35, ,
1, ,35, ,
2, ,36, ,
2, ,35, ,
2, ,35, ,
4, ,35, ,
5, ,36, ,
6, ,35, ,
6, ,35, ,
7, ,35, ,
8, ,36, ,
8, ,36, ,
8, ,36, ,
7, ,36, ,
6, ,36, ,
5, ,36, ,
3, ,36, ,
0, ,36, ,
-2, ,36, ,
-5, ,36, ,
-7, ,35, ,
-12, ,35, ,
-14, ,35, ,
-16, ,36, ,
-17, ,35, ,
-20, ,35, ,
-20, ,35, ,
-20, ,35, ,
-20, ,35, ,
-18, ,35, ,
-18, ,36, ,
-16, ,36, ,
-15, ,36, ,
-11, ,35, ,
-9, ,35, ,
-7, ,35, ,
-5, ,36, ,
-2, ,36, ,
0, ,36, ,
1, ,35, ,
0, ,35, ,
-1, ,36, ,
-1, ,36, ,
-3, ,36, ,
-4, ,36, ,
-8, ,35, ,
-11, ,35, ,
-13, ,36, ,
-16, ,36, ,
-21, ,36, ,
-23, ,35, ,
-25, ,35, ,
-27, ,36, ,
-29, ,36, ,
-29, ,36, ,
-29, ,36, ,
-29, ,35, ,
-28, ,35, ,
-27, ,35, ,
-26, ,35, ,
-25, ,35, ,
-20, ,35, ,
-18, ,35, ,
-16, ,36, ,
-14, ,36, ,
-9, ,35, ,
-7, ,35, ,
-5, ,35, ,
-3, ,36, ,
-1, ,36, ,
0, ,36, ,
1, ,35, ,
1, ,35, ,
1, ,36, ,
0, ,36, ,
0, ,35, ,
-1, ,35, ,
-2, ,35, ,
-2, ,35, ,
-2, ,35, ,
-2, ,35, ,
-2, ,35, ,
-1, ,35, ,
-1, ,35, ,
-1, ,35, ,
0, ,35, ,
1, ,35, ,
2, ,35, ,
2, ,35, ,
4, ,35, ,
5, ,35, ,
5, ,36, ,
6, ,36, ,
6, ,36, ,
6, ,36, ,
6, ,36, ,
6, ,36, ,
6, ,35, ,
6, ,35, ,
6, ,35, ,
7, ,36, ,
7, ,36, ,
7, ,35, ,
8, ,35, ,
8, ,35, ,
9, ,35, ,
9, ,35, ,
9, ,36, ,
9, ,35, ,
8, ,35, ,
8, ,35, ,
7, ,35, ,
6, ,35, ,
4, ,35, ,
2, ,35, ,
1, ,35, ,
-1, ,36, ,
-6, ,36, ,
-8, ,35, ,
-10, ,35, ,
-13, ,35, ,
-17, ,36, ,
-18, ,35, ,
-20, ,35, ,
-21, ,35, ,
-22, ,35, ,
-23, ,35, ,
-22, ,35, ,
-22, ,35, ,
-20, ,35, ,
-18, ,35, ,
-17, ,35, ,
-14, ,35, ,
-10, ,36, ,
-8, ,36, ,
-5, ,36, ,
-3, ,36, ,
3, ,36, ,
5, ,36, ,
8, ,36, ,
10, ,36, ,
13, ,35, ,
15, ,35, ,
16, ,36, ,
16, ,36, ,
16, ,36, ,
16, ,35, ,
15, ,35, ,
14, ,36, ,
11, ,36, ,
9, ,36, ,
7, ,36, ,
4, ,35, ,
-1, ,35, ,
-4, ,35, ,
-8, ,35, ,
-10, ,35, ,
-15, ,35, ,
-17, ,35, ,
-18, ,35, ,
-19, ,35, ,
-20, ,36, ,
-20, ,35, ,
-20, ,35, ,
-18, ,35, ,
-16, ,35, ,
-15, ,35, ,
-12, ,35, ,
-10, ,35, ,
-5, ,35, ,
-2, ,35, ,
0, ,36, ,
2, ,36, ,
7, ,35, ,
9, ,35, ,
11, ,35, ,
12, ,35, ,
15, ,35, ,
16, ,35, ,
16, ,35, ,
16, ,36, ,
15, ,36, ,
14, ,36, ,
13, ,36, ,
11, ,35, ,
9, ,35, ,
6, ,35, ,
5, ,36, ,
2, ,35, ,
-1, ,35, ,
-3, ,35, ,
-5, ,35, ,
-7, ,35, ,
-9, ,35, ,
-10, ,35, ,
-10, ,35, ,
-11, ,36, ,
-11, ,36, ,
-10, ,35, ,
-10, ,35, ,
-10, ,36, ,
-9, ,36, ,
-7, ,36, ,
-7, ,36, ,
-6, ,36, ,
-4, ,36, ,
-3, ,36, ,
-2, ,35, ,
-1, ,35, ,
0, ,35, ,
1, ,36, ,
2, ,35, ,
3, ,35, ,
3, ,35, ,
3, ,36, ,
3, ,36, ,
3, ,35, ,
2, ,35, ,
2, ,35, ,
2, ,36, ,
1, ,35, ,
0, ,35, ,
-1, ,35, ,
-1, ,35, ,
-1, ,35, ,
-2, ,35, ,
-2, ,36, ,
-3, ,35, ,
-3, ,35, ,
-3, ,35, ,
-3, ,35, ,
-3, ,35, ,
-3, ,35, ,
-4, ,35, ,
-4, ,35, ,
-4, ,36, ,
-4, ,35, ,
-4, ,35, ,
-4, ,35, ,
-4, ,35, ,
-4, ,35, ,
-3, ,35, ,
-3, ,35, ,
-3, ,35, ,
-2, ,35, ,
-2, ,36, ,
-2, ,36, ,
-1, ,36, ,
-1, ,36, ,
-1, ,36, ,
0, ,36, ,
0, ,35, ,
0, ,35, ,
0, ,35, ,
-1, ,35, ,
-1, ,35, ,
-1, ,35, ,
-1, ,35, ,
-2, ,35, ,
-2, ,35, ,
-2, ,35, ,
-2, ,35, ,
-2, ,35, ,
-2, ,35, ,
-2, ,36, ,
-1, ,36, ,
0, ,36, ,
0, ,36, ,
1, ,36, ,
2, ,35, ,
2, ,35, ,
3, ,35, ,
3, ,35, ,
3, ,35, ,
3, ,36, ,
3, ,36, ,
3, ,36, ,
3, ,35, ,
2, ,35, ,
2, ,35, ,
1, ,36, ,
1, ,35, ,
1, ,35, ,
0, ,36, ,
0, ,36, ,
0, ,36, ,
0, ,36, ,
0, ,36, ,
0, ,36, ,
0, ,36, ,
0, ,35, ,
0, ,35, ,
-1, ,36, ,
-1, ,36, ,
-2, ,35, ,
-2, ,35, ,
-3, ,35, ,
-4, ,35, ,
-5, ,35, ,
-5, ,36, ,
-6, ,36, ,
-6, ,36, ,
-7, ,36, ,
-7, ,35, ,
-7, ,35, ,
-6, ,35, ,
-6, ,35, ,
-5, ,35, ,
-5, ,36, ,
-4, ,35, ,
-4, ,35, ,
-3, ,35, ,
-3, ,36, ,
-2, ,35, ,
-1, ,35, ,
-1, ,35, ,
0, ,35, ,
0, ,35, ,
0, ,36, ,
1, ,36, ,
1, ,36, ,
2, ,36, ,
2, ,36, ,
2, ,35, ,
3, ,35, ,
3, ,36, ,
3, ,36, ,
4, ,35, ,
4, ,35, ,
4, ,35, ,
5, ,35, ,
4, ,36, ,
4, ,36, ,
5, ,36, ,
4, ,36, ,
4, ,36, ,
4, ,36, ,
3, ,36, ,
3, ,36, ,
2, ,35, ,
2, ,35, ,
0, ,35, ,
-1, ,36, ,
-1, ,36, ,
-2, ,36, ,
-4, ,36, ,
-4, ,35, ,
-5, ,35, ,
-5, ,35, ,
-5, ,35, ,
-6, ,35, ,
-6, ,35, ,
-6, ,35, ,
-5, ,35, ,
-5, ,35, ,
-4, ,35, ,
-3, ,36, ,
-2, ,36, ,
-1, ,35, ,
-1, ,35, ,
0, ,35, ,
0, ,35, ,
0, ,35, ,
-1, ,36, ,
-2, ,35, ,
-4, ,35, ,
-5, ,35, ,
-7, ,35, ,
-9, ,35, ,
-12, ,35, ,
-14, ,35, ,
-16, ,35, ,
-17, ,35, ,
-20, ,36, ,
-20, ,35, ,
-20, ,35, ,
-20, ,36, ,
-19, ,35, ,
-18, ,35, ,
-16, ,35, ,
-15, ,35, ,
-10, ,35, ,
-8, ,36, ,
-7, ,35, ,
-5, ,35, ,
-1, ,36, ,
2, ,35, ,
3, ,35, ,
4, ,36, ,
6, ,36, ,
6, ,36, ,
7, ,36, ,
7, ,36, ,
7, ,35, ,
7, ,35, ,
7, ,35, ,
7, ,35, ,
6, ,35, ,
6, ,36, ,
6, ,35, ,
6, ,35, ,
7, ,35, ,
7, ,36, ,
7, ,35, ,
8, ,35, ,
8, ,35, ,
9, ,35, ,
9, ,35, ,
9, ,35, ,
9, ,35, ,
9, ,35, ,
8, ,35, ,
7, ,35, ,
6, ,35, ,
5, ,35, ,
4, ,35, ,
2, ,36, ,
-1, ,36, ,
-3, ,35, ,
-4, ,35, ,
-6, ,35, ,
-10, ,35, ,
-11, ,35, ,
-13, ,35, ,
-15, ,35, ,
-17, ,35, ,
-18, ,36, ,
-19, ,35, ,
-19, ,35, ,
-18, ,36, ,
-18, ,36, ,
-17, ,35, ,
-17, ,35, ,
-14, ,36, ,
-13, ,36, ,
-11, ,35, ,
-10, ,35, ,
-6, ,35, ,
-5, ,35, ,
-3, ,36, ,
-1, ,35, ,
2, ,35, ,
4, ,35, ,
4, ,35, ,
5, ,35, ,
6, ,35, ,
6, ,35, ,
7, ,36, ,
6, ,36, ,
6, ,36, ,
6, ,35, ,
5, ,35, ,
5, ,36, ,
4, ,36, ,
4, ,36, ,
3, ,35, ,
3, ,35, ,
3, ,35, ,
2, ,35, ,
2, ,36, ,
2, ,35, ,
3, ,35, ,
3, ,35, ,
4, ,35, ,
4, ,35, ,
4, ,35, ,
5, ,35, ,
6, ,35, ,
6, ,36, ,
6, ,35, ,
6, ,35, ,
6, ,35, ,
5, ,35, ,
4, ,35, ,
4, ,35, ,
3, ,35, ,
3, ,35, ,
2, ,35, ,
1, ,35, ,
1, ,36, ,
0, ,36, ,
0, ,36, ,
0, ,36, ,
-1, ,36, ,
-1, ,36, ,
-1, ,36, ,
-1, ,36, ,
-1, ,36, ,
-1, ,36, ,
-2, ,36, ,
-2, ,36, ,
-2, ,36, ,
-2, ,36, ,
-2, ,36, ,
-3, ,36, ,
-3, ,35, ,
-3, ,35, ,
-4, ,36, ,
-4, ,35, ,
-4, ,35, ,
-4, ,36, ,
-5, ,36, ,
-5, ,35, ,
-5, ,35, ,
-5, ,36, ,
-5, ,35, ,
-4, ,35, ,
-4, ,35, ,
-3, ,35, ,
-3, ,35, ,
-3, ,36, ,
-2, ,36, ,
-2, ,36, ,
-1, ,36, ,
-1, ,35, ,
-1, ,35, ,
0, ,36, ,
1, ,36, ,
1, ,36, ,
2, ,36, ,
2, ,35, ,
3, ,35, ,
3, ,35, ,
3, ,35, ,
4, ,35, ,
4, ,35, ,
4, ,35, ,
4, ,35, ,
5, ,35, ,
5, ,36, ,
6, ,36, ,
6, ,35, ,
6, ,35, ,
6, ,35, ,
6, ,36, ,
6, ,36, ,
6, ,36, ,
6, ,36, ,
6, ,35, ,
5, ,35, ,
5, ,35, ,
4, ,35, ,
3, ,35, ,
2, ,36, ,
2, ,36, ,
0, ,36, ,
-1, ,36, ,
-1, ,35, ,
-2, ,35, ,
-4, ,35, ,
-4, ,35, ,
-5, ,35, ,
-6, ,35, ,
-6, ,35, ,
-7, ,35, ,
-7, ,36, ,
-7, ,36, ,
-7, ,35, ,
-7, ,35, ,
-7, ,36, ,
-7, ,36, ,
-6, ,36, ,
-5, ,35, ,
-5, ,35, ,
-4, ,35, ,
-3, ,36, ,
-2, ,36, ,
0, ,36, ,
0, ,36, ,
2, ,36, ,
3, ,36, ,
4, ,35, ,
4, ,35, ,
4, ,35, ,
4, ,35, ,
3, ,35, ,
3, ,35, ,
0, ,35, ,
-1, ,35, ,
-2, ,36, ,
-3, ,35, ,
-5, ,35, ,
-6, ,35, ,
-7, ,35, ,
-8, ,35, ,
-8, ,35, ,
-8, ,35, ,
-8, ,35, ,
-7, ,36, ,
-5, ,36, ,
-4, ,36, ,
-3, ,36, ,
-1, ,35, ,
2, ,35, ,
4, ,35, ,
5, ,35, ,
6, ,36, ,
7, ,36, ,
7, ,36, ,
6, ,36, ,
6, ,35, ,
5, ,35, ,
5, ,35, ,
3, ,35, ,
2, ,35, ,
0, ,35, ,
-1, ,35, ,
-2, ,35, ,
-3, ,35, ,
-5, ,35, ,
-5, ,35, ,
-5, ,35, ,
-6, ,35, ,
-6, ,36, ,
-5, ,36, ,
-4, ,35, ,
-4, ,35, ,
-3, ,36, ,
-1, ,36, ,
-1, ,35, ,
1, ,35, ,
2, ,35, ,
3, ,36, ,
4, ,35, ,
5, ,35, ,
7, ,36, ,
8, ,36, ,
8, ,35, ,
8, ,35, ,
9, ,35, ,
9, ,35, ,
9, ,35, ,
7, ,36, ,
6, ,36, ,
5, ,35, ,
4, ,35, ,
3, ,36, ,
0, ,36, ,
-2, ,36, ,
-3, ,35, ,
-4, ,35, ,
-7, ,35, ,
-7, ,35, ,
-8, ,35, ,
-8, ,36, ,
-8, ,36, ,
-8, ,35, ,
-7, ,35, ,
-7, ,35, ,
-5, ,35, ,
-4, ,35, ,
-3, ,35, ,
-2, ,35, ,
1, ,35, ,
1, ,36, ,
2, ,35, ,
3, ,35, ,
5, ,36, ,
5, ,36, ,
6, ,35, ,
6, ,35, ,
7, ,35, ,
7, ,35, ,
7, ,35, ,
7, ,35, ,
8, ,36, ,
8, ,36, ,
8, ,35, ,
8, ,35, ,
7, ,35, ,
6, ,35, ,
6, ,36, ,
5, ,35, ,
4, ,35, ,
4, ,35, ,
2, ,36, ,
2, ,36, ,
0, ,35, ,
-1, ,35, ,
-2, ,36, ,
-3, ,36, ,
-4, ,35, ,
-4, ,35, ,
-5, ,36, ,
-5, ,36, ,
-6, ,36, ,
-6, ,36, ,
-6, ,35, ,
-6, ,35, ,
-6, ,35, ,
-6, ,35, ,
-6, ,35, ,
-5, ,35, ,
-5, ,35, ,
-5, ,35, ,
-4, ,36, ,
-5, ,35, ,
-5, ,35, ,
-4, ,35, ,
-4, ,36, ,
-4, ,36, ,
-3, ,36, ,
-3, ,36, ,
-2, ,35, ,
-2, ,35, ,
-1, ,35, ,
0, ,35, ,
0, ,35, ,
1, ,36, ,
2, ,36, ,
3, ,36, ,
4, ,35, ,
5, ,35, ,
6, ,35, ,
6, ,35, ,
7, ,36, ,
7, ,36, ,
8, ,35, ,
8, ,35, ,
8, ,35, ,
8, ,35, ,
8, ,35, ,
7, ,36, ,
7, ,36, ,
6, ,36, ,
5, ,35, ,
4, ,35, ,
3, ,35, ,
2, ,36, ,
1, ,36, ,
0, ,36, ,
-1, ,35, ,
-2, ,35, ,
-3, ,35, ,
-4, ,35, ,
-4, ,35, ,
-4, ,35, ,
-4, ,36, ,
-4, ,35, ,
-3, ,35, ,
-3, ,36, ,
-2, ,36, ,
-1, ,36, ,
0, ,36, ,
0, ,35, ,
1, ,35, ,
2, ,35, ,
2, ,36, ,
2, ,36, ,
2, ,36, ,
2, ,36, ,
2, ,35, ,
2, ,35, ,
0, ,35, ,
0, ,36, ,
-1, ,36, ,
-1, ,36, ,
-2, ,36, ,
-3, ,36, ,
-3, ,36, ,
-3, ,36, ,
-3, ,36, ,
-3, ,36, ,
-3, ,36, ,
-3, ,36, ,
-2, ,36, ,
-2, ,36, ,
-2, ,36, ,
-2, ,36, ,
0, ,36, ,
0, ,36, ,
0, ,35, ,
0, ,35, ,
0, ,36, ,
0, ,36, ,
-1, ,35, ,
-1, ,35, ,
-2, ,35, ,
-3, ,35, ,
-4, ,35, ,
-4, ,35, ,
-5, ,35, ,
-6, ,35, ,
-6, ,35, ,
-6, ,36, ,
-7, ,36, ,
-7, ,36, ,
-7, ,36, ,
-6, ,36, ,
-5, ,36, ,
-5, ,35, ,
-4, ,35, ,
-4, ,36, ,
-2, ,36, ,
-1, ,36, ,
0, ,36, ,
1, ,36, ,
2, ,36, ,
3, ,36, ,
3, ,35, ,
4, ,35, ,
4, ,35, ,
5, ,35, ,
5, ,35, ,
5, ,36, ,
5, ,36, ,
5, ,36, ,
5, ,36, ,
5, ,36, ,
6, ,36, ,
6, ,36, ,
6, ,36, ,
6, ,36, ,
7, ,36, ,
7, ,36, ,
8, ,36, ,
8, ,36, ,
9, ,36, ,
9, ,36, ,
10, ,35, ,
9, ,35, ,
9, ,36, ,
9, ,36, ,
9, ,36, ,
8, ,35, ,
7, ,35, ,
7, ,35, ,
6, ,36, ,
5, ,35, ,
2, ,35, ,
0, ,35, ,
-2, ,35, ,
-4, ,35, ,
-7, ,35, ,
-9, ,35, ,
-11, ,35, ,
-13, ,35, ,
-17, ,35, ,
-18, ,35, ,
-19, ,35, ,
-20, ,36, ,
-20, ,36, ,
-20, ,36, ,
-20, ,36, ,
-19, ,35, ,
-17, ,35, ,
-15, ,35, ,
-13, ,35, ,
-11, ,35, ,
-7, ,36, ,
-5, ,36, ,
-3, ,35, ,
0, ,35, ,
4, ,35, ,
6, ,35, ,
8, ,36, ,
10, ,36, ,
13, ,36, ,
14, ,36, ,
14, ,35, ,
15, ,35, ,
14, ,35, ,
13, ,36, ,
13, ,35, ,
12, ,35, ,
10, ,35, ,
9, ,35, ,
8, ,35, ,
6, ,36, ,
3, ,35, ,
2, ,35, ,
1, ,35, ,
-1, ,35, ,
-3, ,35, ,
-4, ,36, ,
-5, ,35, ,
-6, ,35, ,
-7, ,35, ,
-7, ,35, ,
-7, ,35, ,
-7, ,35, ,
-6, ,35, ,
-5, ,35, ,
-5, ,36, ,
-3, ,36, ,
-2, ,36, ,
-1, ,36, ,
0, ,36, ,
1, ,35, ,
3, ,35, ,
4, ,35, ,
5, ,36, ,
6, ,36, ,
7, ,35, ,
7, ,35, ,
7, ,35, ,
6, ,35, ,
6, ,35, ,
6, ,35, ,
4, ,35, ,
4, ,36, ,
2, ,35, ,
1, ,35, ,
0, ,35, ,
-1, ,36, ,
-2, ,36, ,
-2, ,36, ,
-3, ,36, ,
-3, ,36, ,
-3, ,36, ,
-3, ,36, ,
-2, ,35, ,
-1, ,35, ,
-1, ,35, ,
0, ,35, ,
1, ,36, ,
1, ,36, ,
3, ,36, ,
3, ,35, ,
3, ,35, ,
3, ,35, ,
4, ,35, ,
4, ,35, ,
3, ,36, ,
3, ,36, ,
