raw_data/75% Glycerol, Impulsion 2Hz, Sonde 5MHz, Rampe 0.7Hz/temp0000145.CSV

Format,1.0B,
Memory Length,10000,Memory Length,10000,
IntpDistance,0,IntpDistance,0,
Trigger Address,159,Trigger Address,159,
Trigger Level,2.720E-01,Trigger Level,2.720E-01,
Source,CH1,Source,CH2,
Vertical Units,V,Vertical Units,V,
Vertical Units Div,0,Vertical Units Div,0,
Vertical Units Extend Div,16,Vertical Units Extend Div,16,
Label,,Label,,
Probe Type,0,Probe Type,0,
Probe Ratio,1.000e+00,Probe Ratio,1.000e+00,
Vertical Scale,5.000e-01,Vertical Scale,2.000e+00,
Vertical Position,0.000e+00,Vertical Position,0.000e+00,
Horizontal Units,S,Horizontal Units,S,
Horizontal Scale,5.000E-06,Horizontal Scale,5.000E-06,
Horizontal Position,2.420E-05,Horizontal Position,2.420E-05,
Horizontal Mode,Main,Horizontal Mode,Main,
SincET Mode,Real Time,SincET Mode,Real Time,
Sampling Period,5.000e-09,Sampling Period,5.000e-09,
Horizontal Old Scale,5.000E-06,Horizontal Old Scale,5.000E-06,
Horizontal Old Position,2.420E-05,Horizontal Old Position,2.420E-05,
Firmware,V1.32,Firmware,V1.32,
Mode,Fast,Mode,Fast,
Waveform Data,,Waveform Data,,
1, ,9, ,
1, ,9, ,
1, ,9, ,
1, ,9, ,
1, ,9, ,
0, ,10, ,
0, ,10, ,
0, ,9, ,
0, ,9, ,
1, ,9, ,
1, ,9, ,
0, ,9, ,
0, ,9, ,
0, ,9, ,
1, ,9, ,
1, ,9, ,
0, ,9, ,
0, ,9, ,
0, ,9, ,
1, ,9, ,
1, ,9, ,
0, ,9, ,
0, ,9, ,
0, ,9, ,
0, ,9, ,
0, ,9, ,
0, ,9, ,
1, ,9, ,
1, ,9, ,
1, ,9, ,
1, ,9, ,
0, ,9, ,
0, ,9, ,
1, ,9, ,
0, ,9, ,
0, ,9, ,
1, ,9, ,
1, ,9, ,
0, ,9, ,
0, ,9, ,
0, ,9, ,
0, ,9, ,
0, ,9, ,
1, ,9, ,
1, ,9, ,
0, ,9, ,
0, ,9, ,
0, ,9, ,
0, ,9, ,
0, ,9, ,
0, ,9, ,
0, ,9, ,
1, ,9, ,
0, ,9, ,
0, ,9, ,
1, ,9, ,
0, ,9, ,
0, ,9, ,
0, ,9, ,
0, ,9, ,
0, ,9, ,
0, ,9, ,
1, ,9, ,
0, ,9, ,
0, ,9, ,
0, ,9, ,
0, ,9, ,
0, ,9, ,
0, ,9, ,
0, ,9, ,
0, ,9, ,
0, ,9, ,
0, ,9, ,
0, ,9, ,
0, ,9, ,
0, ,9, ,
0, ,9, ,
0, ,9, ,
1, ,9, ,
0, ,9, ,
0, ,9, ,
1, ,9, ,
0, ,9, ,
0, ,9, ,
0, ,9, ,
0, ,10, ,
0, ,9, ,
0, ,9, ,
0, ,9, ,
1, ,9, ,
0, ,9, ,
0, ,10, ,
0, ,9, ,
0, ,9, ,
0, ,9, ,
0, ,9, ,
0, ,9, ,
0, ,9, ,
0, ,9, ,
0, ,9, ,
1, ,9, ,
1, ,9, ,
1, ,9, ,
1, ,9, ,
1, ,9, ,
1, ,9, ,
1, ,9, ,
0, ,9, ,
0, ,9, ,
0, ,9, ,
0, ,9, ,
1, ,9, ,
0, ,9, ,
0, ,9, ,
0, ,9, ,
0, ,9, ,
0, ,9, ,
0, ,9, ,
0, ,9, ,
1, ,9, ,
0, ,9, ,
0, ,9, ,
0, ,9, ,
0, ,9, ,
0, ,9, ,
0, ,9, ,
1, ,9, ,
0, ,9, ,
0, ,9, ,
1, ,9, ,
1, ,9, ,
0, ,9, ,
0, ,9, ,
0, ,9, ,
1, ,9, ,
1, ,9, ,
1, ,9, ,
1, ,9, ,
1, ,9, ,
0, ,9, ,
0, ,9, ,
0, ,9, ,
0, ,9, ,
1, ,9, ,
0, ,9, ,
0, ,9, ,
0, ,9, ,
0, ,9, ,
1, ,9, ,
1, ,9, ,
1, ,9, ,
0, ,9, ,
0, ,10, ,
0, ,9, ,
0, ,9, ,
0, ,9, ,
0, ,9, ,
0, ,9, ,
1, ,9, ,
0, ,9, ,
0, ,9, ,
0, ,9, ,
0, ,9, ,
1, ,9, ,
1, ,9, ,
1, ,9, ,
-1, ,9, ,
-2, ,9, ,
1, ,9, ,
17, ,9, ,
44, ,9, ,
123, ,9, ,
124, ,9, ,
121, ,9, ,
101, ,9, ,
-4, ,9, ,
4, ,9, ,
54, ,9, ,
106, ,9, ,
125, ,9, ,
125, ,9, ,
125, ,9, ,
125, ,9, ,
125, ,9, ,
124, ,9, ,
124, ,9, ,
121, ,9, ,
110, ,9, ,
107, ,9, ,
103, ,9, ,
100, ,9, ,
93, ,9, ,
90, ,9, ,
86, ,9, ,
82, ,9, ,
76, ,9, ,
75, ,9, ,
72, ,10, ,
69, ,9, ,
63, ,9, ,
61, ,9, ,
59, ,9, ,
56, ,9, ,
51, ,9, ,
49, ,9, ,
47, ,9, ,
45, ,9, ,
41, ,9, ,
39, ,9, ,
38, ,9, ,
36, ,9, ,
33, ,9, ,
32, ,9, ,
30, ,9, ,
29, ,9, ,
26, ,9, ,
25, ,9, ,
25, ,9, ,
23, ,9, ,
21, ,9, ,
21, ,9, ,
19, ,9, ,
18, ,9, ,
17, ,9, ,
15, ,9, ,
15, ,9, ,
14, ,9, ,
13, ,9, ,
12, ,9, ,
11, ,9, ,
11, ,9, ,
10, ,9, ,
9, ,9, ,
9, ,9, ,
8, ,9, ,
7, ,9, ,
6, ,9, ,
6, ,9, ,
6, ,9, ,
5, ,9, ,
4, ,9, ,
4, ,9, ,
4, ,9, ,
4, ,9, ,
3, ,9, ,
3, ,9, ,
3, ,9, ,
2, ,9, ,
2, ,9, ,
1, ,9, ,
1, ,9, ,
1, ,9, ,
1, ,9, ,
1, ,9, ,
1, ,9, ,
0, ,9, ,
0, ,9, ,
0, ,9, ,
0, ,9, ,
0, ,9, ,
0, ,9, ,
-1, ,9, ,
-1, ,9, ,
-1, ,9, ,
-1, ,9, ,
-1, ,9, ,
-1, ,9, ,
-1, ,9, ,
-1, ,9, ,
-1, ,9, ,
-1, ,9, ,
-1, ,9, ,
-1, ,9, ,
-1, ,9, ,
-1, ,9, ,
-1, ,9, ,
-1, ,9, ,
-1, ,9, ,
-1, ,9, ,
-1, ,9, ,
-2, ,9, ,
-2, ,9, ,
-2, ,9, ,
-2, ,10, ,
-1, ,9, ,
-1, ,9, ,
-1, ,9, ,
-1, ,9, ,
-1, ,9, ,
-1, ,9, ,
-1, ,9, ,
-1, ,9, ,
-1, ,9, ,
-1, ,9, ,
-1, ,9, ,
-1, ,9, ,
-2, ,9, ,
-2, ,9, ,
-2, ,9, ,
-1, ,9, ,
-1, ,9, ,
-1, ,9, ,
-1, ,9, ,
-1, ,9, ,
-1, ,9, ,
-1, ,9, ,
-1, ,9, ,
-1, ,9, ,
-1, ,9, ,
-1, ,9, ,
-1, ,9, ,
-1, ,9, ,
-1, ,9, ,
-1, ,9, ,
-1, ,9, ,
-1, ,9, ,
-1, ,9, ,
-1, ,9, ,
-1, ,9, ,
-1, ,9, ,
-1, ,9, ,
-1, ,9, ,
-1, ,9, ,
-1, ,9, ,
0, ,9, ,
0, ,9, ,
-1, ,9, ,
-1, ,9, ,
0, ,9, ,
0, ,9, ,
0, ,9, ,
-1, ,9, ,
-1, ,9, ,
-1, ,9, ,
0, ,9, ,
0, ,9, ,
0, ,9, ,
0, ,9, ,
0, ,9, ,
0, ,9, ,
0, ,9, ,
0, ,9, ,
0, ,9, ,
-1, ,9, ,
-1, ,9, ,
0, ,9, ,
0, ,9, ,
0, ,9, ,
0, ,9, ,
0, ,9, ,
0, ,9, ,
0, ,9, ,
0, ,9, ,
0, ,9, ,
0, ,9, ,
0, ,9, ,
0, ,9, ,
0, ,9, ,
0, ,9, ,
0, ,9, ,
0, ,9, ,
0, ,9, ,
0, ,9, ,
0, ,9, ,
0, ,9, ,
0, ,9, ,
0, ,9, ,
0, ,9, ,
0, ,9, ,
0, ,9, ,
0, ,9, ,
0, ,9, ,
0, ,9, ,
0, ,9, ,
0, ,9, ,
0, ,9, ,
0, ,9, ,
0, ,9, ,
0, ,9, ,
0, ,9, ,
1, ,9, ,
0, ,9, ,
0, ,9, ,
0, ,9, ,
0, ,9, ,
0, ,9, ,
0, ,9, ,
0, ,9, ,
0, ,9, ,
0, ,9, ,
0, ,9, ,
0, ,9, ,
0, ,9, ,
0, ,9, ,
0, ,9, ,
0, ,9, ,
0, ,9, ,
0, ,9, ,
0, ,9, ,
1, ,9, ,
0, ,9, ,
0, ,9, ,
0, ,9, ,
0, ,9, ,
0, ,9, ,
0, ,9, ,
0, ,9, ,
0, ,9, ,
0, ,9, ,
0, ,9, ,
0, ,9, ,
0, ,9, ,
0, ,9, ,
0, ,9, ,
0, ,9, ,
0, ,9, ,
0, ,9, ,
0, ,9, ,
0, ,9, ,
0, ,9, ,
0, ,9, ,
0, ,9, ,
1, ,9, ,
0, ,9, ,
0, ,9, ,
0, ,9, ,
0, ,9, ,
0, ,9, ,
0, ,9, ,
0, ,9, ,
0, ,9, ,
0, ,9, ,
-1, ,9, ,
-1, ,9, ,
-1, ,9, ,
-1, ,9, ,
-1, ,9, ,
-1, ,9, ,
-1, ,9, ,
-2, ,9, ,
-3, ,9, ,
-4, ,9, ,
-5, ,9, ,
-7, ,9, ,
-8, ,9, ,
-8, ,9, ,
-8, ,9, ,
-6, ,9, ,
-5, ,9, ,
-3, ,9, ,
-3, ,9, ,
-1, ,9, ,
0, ,9, ,
0, ,9, ,
1, ,9, ,
2, ,9, ,
2, ,9, ,
2, ,9, ,
2, ,9, ,
2, ,9, ,
1, ,9, ,
1, ,9, ,
0, ,9, ,
-1, ,9, ,
-2, ,9, ,
-2, ,9, ,
-2, ,9, ,
-2, ,9, ,
-1, ,9, ,
-2, ,9, ,
0, ,9, ,
0, ,9, ,
1, ,9, ,
1, ,9, ,
1, ,9, ,
2, ,9, ,
2, ,9, ,
3, ,9, ,
3, ,9, ,
2, ,9, ,
2, ,9, ,
2, ,9, ,
1, ,9, ,
1, ,9, ,
1, ,9, ,
1, ,9, ,
1, ,9, ,
0, ,9, ,
0, ,9, ,
1, ,9, ,
1, ,9, ,
1, ,9, ,
2, ,9, ,
1, ,9, ,
1, ,9, ,
1, ,9, ,
1, ,9, ,
1, ,9, ,
1, ,9, ,
1, ,9, ,
1, ,9, ,
0, ,10, ,
0, ,9, ,
-1, ,9, ,
-1, ,9, ,
-1, ,9, ,
-1, ,9, ,
0, ,9, ,
0, ,9, ,
0, ,9, ,
1, ,9, ,
1, ,9, ,
1, ,9, ,
1, ,9, ,
1, ,9, ,
1, ,9, ,
1, ,9, ,
0, ,9, ,
0, ,9, ,
-1, ,9, ,
-2, ,9, ,
-3, ,9, ,
-5, ,9, ,
-8, ,9, ,
-10, ,9, ,
-12, ,9, ,
-14, ,9, ,
-15, ,9, ,
-14, ,9, ,
-13, ,9, ,
-12, ,9, ,
-8, ,9, ,
-5, ,9, ,
-4, ,9, ,
-2, ,9, ,
1, ,9, ,
2, ,9, ,
3, ,9, ,
3, ,9, ,
4, ,9, ,
4, ,9, ,
3, ,9, ,
3, ,9, ,
1, ,9, ,
-2, ,10, ,
-3, ,9, ,
-7, ,9, ,
-16, ,9, ,
-22, ,9, ,
-27, ,9, ,
-33, ,9, ,
-44, ,9, ,
-49, ,9, ,
-53, ,9, ,
-58, ,9, ,
-65, ,9, ,
-67, ,9, ,
-72, ,9, ,
-75, ,9, ,
-82, ,9, ,
-87, ,9, ,
-90, ,9, ,
-93, ,9, ,
-95, ,9, ,
-95, ,9, ,
-92, ,9, ,
-87, ,9, ,
-69, ,9, ,
-55, ,9, ,
-39, ,9, ,
-24, ,9, ,
11, ,9, ,
25, ,9, ,
37, ,9, ,
47, ,9, ,
56, ,9, ,
57, ,9, ,
58, ,9, ,
57, ,9, ,
56, ,9, ,
55, ,9, ,
54, ,9, ,
53, ,9, ,
48, ,9, ,
45, ,9, ,
41, ,9, ,
34, ,9, ,
12, ,9, ,
-5, ,9, ,
-25, ,9, ,
-44, ,9, ,
-73, ,9, ,
-80, ,9, ,
-86, ,9, ,
-87, ,9, ,
-82, ,9, ,
-77, ,9, ,
-68, ,9, ,
-57, ,9, ,
-32, ,9, ,
-21, ,9, ,
-8, ,9, ,
4, ,9, ,
24, ,9, ,
32, ,9, ,
38, ,9, ,
44, ,9, ,
51, ,9, ,
52, ,9, ,
53, ,9, ,
53, ,9, ,
51, ,9, ,
51, ,9, ,
49, ,9, ,
49, ,10, ,
43, ,9, ,
39, ,9, ,
34, ,9, ,
27, ,9, ,
8, ,9, ,
-4, ,9, ,
-16, ,9, ,
-26, ,9, ,
-40, ,9, ,
-40, ,9, ,
-39, ,9, ,
-33, ,9, ,
-16, ,9, ,
-4, ,9, ,
6, ,9, ,
17, ,9, ,
32, ,9, ,
36, ,9, ,
40, ,9, ,
41, ,9, ,
42, ,9, ,
41, ,9, ,
41, ,9, ,
40, ,9, ,
38, ,9, ,
35, ,9, ,
32, ,9, ,
28, ,9, ,
17, ,9, ,
6, ,9, ,
-6, ,9, ,
-18, ,9, ,
-45, ,9, ,
-56, ,9, ,
-66, ,9, ,
-73, ,9, ,
-85, ,9, ,
-91, ,9, ,
-97, ,9, ,
-101, ,9, ,
-107, ,9, ,
-109, ,9, ,
-111, ,9, ,
-111, ,9, ,
-111, ,9, ,
-109, ,9, ,
-103, ,9, ,
-93, ,9, ,
-67, ,9, ,
-53, ,9, ,
-37, ,9, ,
-24, ,9, ,
6, ,9, ,
20, ,9, ,
30, ,9, ,
40, ,9, ,
52, ,9, ,
56, ,9, ,
58, ,9, ,
58, ,9, ,
56, ,9, ,
54, ,9, ,
51, ,9, ,
49, ,9, ,
43, ,9, ,
42, ,9, ,
42, ,9, ,
42, ,9, ,
43, ,9, ,
45, ,9, ,
46, ,9, ,
48, ,9, ,
50, ,9, ,
50, ,9, ,
50, ,9, ,
49, ,9, ,
48, ,9, ,
47, ,9, ,
44, ,9, ,
43, ,9, ,
37, ,9, ,
32, ,9, ,
27, ,9, ,
23, ,9, ,
8, ,9, ,
1, ,9, ,
-7, ,9, ,
-14, ,9, ,
-25, ,9, ,
-32, ,9, ,
-36, ,9, ,
-43, ,9, ,
-52, ,9, ,
-56, ,9, ,
-62, ,9, ,
-66, ,9, ,
-75, ,9, ,
-78, ,9, ,
-81, ,9, ,
-85, ,9, ,
-88, ,9, ,
-88, ,9, ,
-87, ,9, ,
-86, ,9, ,
-80, ,9, ,
-76, ,9, ,
-72, ,9, ,
-66, ,9, ,
-53, ,9, ,
-44, ,9, ,
-37, ,9, ,
-28, ,9, ,
-11, ,9, ,
-3, ,9, ,
6, ,9, ,
13, ,9, ,
27, ,9, ,
34, ,9, ,
40, ,9, ,
45, ,9, ,
53, ,9, ,
56, ,9, ,
58, ,9, ,
60, ,9, ,
60, ,9, ,
59, ,9, ,
57, ,9, ,
55, ,9, ,
49, ,9, ,
45, ,9, ,
41, ,9, ,
35, ,9, ,
25, ,9, ,
23, ,9, ,
18, ,9, ,
15, ,9, ,
12, ,9, ,
12, ,9, ,
12, ,9, ,
14, ,10, ,
18, ,9, ,
21, ,9, ,
23, ,9, ,
26, ,9, ,
29, ,9, ,
29, ,9, ,
29, ,9, ,
28, ,10, ,
25, ,9, ,
23, ,9, ,
18, ,9, ,
13, ,9, ,
0, ,9, ,
-8, ,9, ,
-16, ,9, ,
-24, ,9, ,
-37, ,9, ,
-42, ,9, ,
-47, ,9, ,
-50, ,9, ,
-52, ,9, ,
-51, ,9, ,
-49, ,9, ,
-46, ,9, ,
-37, ,9, ,
-32, ,9, ,
-27, ,9, ,
-22, ,9, ,
-14, ,9, ,
-10, ,9, ,
-7, ,9, ,
-6, ,9, ,
-7, ,9, ,
-8, ,9, ,
-10, ,9, ,
-12, ,9, ,
-19, ,9, ,
-23, ,9, ,
-26, ,9, ,
-29, ,9, ,
-36, ,9, ,
-39, ,9, ,
-40, ,9, ,
-42, ,9, ,
-42, ,9, ,
-42, ,9, ,
-42, ,9, ,
-42, ,9, ,
-41, ,9, ,
-40, ,9, ,
-39, ,9, ,
-39, ,9, ,
-37, ,9, ,
-36, ,9, ,
-35, ,9, ,
-34, ,9, ,
-30, ,9, ,
-27, ,9, ,
-25, ,9, ,
-23, ,9, ,
-14, ,9, ,
-10, ,9, ,
-5, ,9, ,
0, ,9, ,
10, ,9, ,
15, ,9, ,
19, ,9, ,
23, ,9, ,
28, ,9, ,
30, ,9, ,
33, ,9, ,
32, ,9, ,
31, ,9, ,
31, ,9, ,
28, ,9, ,
25, ,9, ,
21, ,9, ,
16, ,9, ,
14, ,9, ,
10, ,9, ,
5, ,9, ,
4, ,9, ,
4, ,9, ,
4, ,9, ,
5, ,9, ,
7, ,9, ,
10, ,9, ,
13, ,9, ,
20, ,9, ,
24, ,9, ,
26, ,9, ,
29, ,9, ,
33, ,9, ,
32, ,9, ,
32, ,9, ,
31, ,9, ,
27, ,9, ,
25, ,9, ,
22, ,9, ,
18, ,9, ,
10, ,9, ,
5, ,9, ,
1, ,9, ,
-4, ,9, ,
-11, ,9, ,
-14, ,9, ,
-17, ,9, ,
-18, ,9, ,
-20, ,9, ,
-21, ,9, ,
-21, ,9, ,
-22, ,9, ,
-22, ,9, ,
-22, ,9, ,
-23, ,10, ,
-23, ,9, ,
-25, ,9, ,
-27, ,9, ,
-27, ,9, ,
-29, ,9, ,
-31, ,9, ,
-31, ,9, ,
-31, ,9, ,
-30, ,9, ,
-27, ,9, ,
-25, ,9, ,
-22, ,9, ,
-19, ,9, ,
-9, ,9, ,
-4, ,9, ,
0, ,9, ,
6, ,9, ,
15, ,9, ,
19, ,9, ,
23, ,9, ,
25, ,9, ,
26, ,9, ,
26, ,9, ,
25, ,9, ,
23, ,9, ,
16, ,9, ,
12, ,9, ,
6, ,9, ,
0, ,9, ,
-13, ,9, ,
-20, ,9, ,
-26, ,9, ,
-32, ,9, ,
-44, ,9, ,
-49, ,9, ,
-53, ,9, ,
-56, ,9, ,
-59, ,9, ,
-59, ,9, ,
-58, ,9, ,
-55, ,9, ,
-46, ,9, ,
-41, ,9, ,
-35, ,9, ,
-28, ,9, ,
-14, ,9, ,
-6, ,9, ,
2, ,9, ,
9, ,9, ,
20, ,9, ,
25, ,9, ,
28, ,10, ,
31, ,9, ,
34, ,9, ,
34, ,9, ,
32, ,10, ,
31, ,9, ,
25, ,9, ,
23, ,9, ,
19, ,9, ,
14, ,9, ,
6, ,9, ,
1, ,9, ,
-3, ,9, ,
-7, ,9, ,
-14, ,9, ,
-16, ,9, ,
-18, ,9, ,
-21, ,9, ,
-22, ,9, ,
-22, ,9, ,
-22, ,9, ,
-22, ,9, ,
-18, ,9, ,
-17, ,9, ,
-15, ,9, ,
-13, ,9, ,
-8, ,9, ,
-6, ,9, ,
-3, ,9, ,
0, ,9, ,
6, ,9, ,
9, ,9, ,
13, ,9, ,
16, ,10, ,
21, ,9, ,
24, ,9, ,
25, ,9, ,
25, ,9, ,
25, ,9, ,
24, ,9, ,
23, ,9, ,
20, ,9, ,
13, ,9, ,
8, ,9, ,
3, ,9, ,
-3, ,9, ,
-15, ,9, ,
-21, ,9, ,
-25, ,9, ,
-30, ,9, ,
-38, ,9, ,
-41, ,9, ,
-42, ,9, ,
-42, ,9, ,
-40, ,9, ,
-37, ,9, ,
-33, ,9, ,
-29, ,9, ,
-18, ,9, ,
-13, ,9, ,
-7, ,9, ,
-1, ,9, ,
8, ,9, ,
11, ,9, ,
14, ,9, ,
16, ,9, ,
15, ,9, ,
14, ,9, ,
11, ,9, ,
8, ,9, ,
2, ,9, ,
-3, ,9, ,
-8, ,9, ,
-13, ,9, ,
-21, ,9, ,
-25, ,9, ,
-27, ,9, ,
-28, ,9, ,
-29, ,9, ,
-28, ,9, ,
-26, ,9, ,
-25, ,9, ,
-18, ,9, ,
-12, ,9, ,
-7, ,9, ,
-2, ,9, ,
10, ,9, ,
15, ,9, ,
21, ,9, ,
25, ,9, ,
34, ,9, ,
38, ,9, ,
41, ,9, ,
44, ,9, ,
46, ,9, ,
45, ,9, ,
45, ,9, ,
43, ,9, ,
38, ,10, ,
36, ,9, ,
32, ,9, ,
27, ,9, ,
17, ,9, ,
11, ,10, ,
6, ,9, ,
-1, ,9, ,
-11, ,9, ,
-16, ,9, ,
-20, ,9, ,
-23, ,9, ,
-26, ,9, ,
-26, ,9, ,
-26, ,9, ,
-25, ,9, ,
-22, ,9, ,
-19, ,9, ,
-16, ,9, ,
-12, ,9, ,
-5, ,9, ,
-2, ,9, ,
1, ,9, ,
3, ,9, ,
7, ,9, ,
9, ,9, ,
9, ,9, ,
9, ,9, ,
8, ,9, ,
7, ,9, ,
6, ,9, ,
4, ,9, ,
0, ,9, ,
-1, ,9, ,
-4, ,9, ,
-7, ,9, ,
-12, ,9, ,
-16, ,9, ,
-20, ,9, ,
-25, ,9, ,
-32, ,9, ,
-35, ,9, ,
-41, ,9, ,
-44, ,9, ,
-50, ,9, ,
-53, ,9, ,
-54, ,9, ,
-54, ,9, ,
-52, ,9, ,
-48, ,9, ,
-44, ,9, ,
-38, ,9, ,
-25, ,9, ,
-17, ,9, ,
-8, ,9, ,
0, ,9, ,
19, ,9, ,
25, ,9, ,
32, ,9, ,
39, ,9, ,
47, ,9, ,
51, ,9, ,
51, ,9, ,
51, ,9, ,
48, ,9, ,
45, ,9, ,
40, ,9, ,
35, ,9, ,
25, ,9, ,
18, ,9, ,
11, ,9, ,
5, ,9, ,
-7, ,9, ,
-11, ,9, ,
-16, ,9, ,
-19, ,9, ,
-22, ,9, ,
-22, ,9, ,
-21, ,9, ,
-20, ,9, ,
-15, ,10, ,
-11, ,9, ,
-7, ,9, ,
-4, ,9, ,
4, ,9, ,
8, ,9, ,
11, ,9, ,
14, ,9, ,
18, ,9, ,
20, ,9, ,
19, ,9, ,
19, ,9, ,
18, ,9, ,
16, ,9, ,
15, ,9, ,
12, ,9, ,
8, ,9, ,
6, ,9, ,
3, ,9, ,
2, ,9, ,
0, ,9, ,
-1, ,9, ,
-1, ,9, ,
-1, ,9, ,
0, ,9, ,
1, ,9, ,
1, ,9, ,
3, ,9, ,
3, ,9, ,
3, ,9, ,
3, ,9, ,
2, ,9, ,
0, ,9, ,
0, ,9, ,
-3, ,9, ,
-5, ,9, ,
-10, ,9, ,
-12, ,9, ,
-14, ,9, ,
-16, ,9, ,
-20, ,9, ,
-22, ,9, ,
-22, ,9, ,
-22, ,9, ,
-22, ,9, ,
-22, ,9, ,
-21, ,9, ,
-20, ,9, ,
-17, ,9, ,
-15, ,9, ,
-13, ,9, ,
-11, ,9, ,
-5, ,9, ,
-4, ,9, ,
-1, ,9, ,
1, ,9, ,
4, ,9, ,
6, ,9, ,
7, ,9, ,
8, ,9, ,
7, ,9, ,
6, ,9, ,
5, ,9, ,
3, ,9, ,
-1, ,9, ,
-4, ,9, ,
-7, ,9, ,
-10, ,9, ,
-16, ,9, ,
-19, ,9, ,
-21, ,9, ,
-23, ,9, ,
-23, ,9, ,
-23, ,9, ,
-21, ,9, ,
-19, ,9, ,
-12, ,9, ,
-9, ,9, ,
-4, ,9, ,
1, ,9, ,
11, ,9, ,
16, ,9, ,
19, ,9, ,
23, ,9, ,
26, ,9, ,
27, ,9, ,
27, ,9, ,
25, ,9, ,
22, ,9, ,
19, ,9, ,
14, ,9, ,
11, ,9, ,
2, ,9, ,
-3, ,9, ,
-7, ,9, ,
-10, ,9, ,
-15, ,9, ,
-15, ,9, ,
-15, ,9, ,
-15, ,9, ,
-12, ,9, ,
-10, ,9, ,
-6, ,9, ,
-3, ,9, ,
4, ,9, ,
8, ,9, ,
11, ,9, ,
14, ,9, ,
18, ,9, ,
19, ,9, ,
18, ,9, ,
18, ,9, ,
15, ,9, ,
13, ,9, ,
9, ,9, ,
5, ,9, ,
-3, ,9, ,
-9, ,9, ,
-13, ,9, ,
-18, ,9, ,
-25, ,9, ,
-29, ,9, ,
-32, ,9, ,
-34, ,9, ,
-36, ,9, ,
-36, ,9, ,
-35, ,9, ,
-33, ,9, ,
-25, ,9, ,
-21, ,9, ,
-17, ,9, ,
-11, ,9, ,
1, ,9, ,
6, ,9, ,
13, ,9, ,
17, ,10, ,
25, ,9, ,
28, ,9, ,
30, ,9, ,
32, ,9, ,
32, ,9, ,
32, ,9, ,
31, ,9, ,
29, ,9, ,
24, ,9, ,
21, ,9, ,
17, ,9, ,
13, ,9, ,
5, ,9, ,
0, ,9, ,
-5, ,9, ,
-9, ,9, ,
-18, ,9, ,
-21, ,9, ,
-25, ,9, ,
-26, ,9, ,
-30, ,9, ,
-31, ,9, ,
-30, ,9, ,
-30, ,9, ,
-26, ,9, ,
-24, ,9, ,
-20, ,9, ,
-16, ,9, ,
-7, ,9, ,
-2, ,9, ,
4, ,9, ,
8, ,9, ,
16, ,9, ,
20, ,9, ,
22, ,9, ,
24, ,9, ,
24, ,9, ,
23, ,9, ,
21, ,9, ,
17, ,9, ,
8, ,9, ,
4, ,9, ,
-2, ,9, ,
-7, ,9, ,
-18, ,9, ,
-24, ,9, ,
-28, ,9, ,
-32, ,9, ,
-39, ,9, ,
-41, ,9, ,
-43, ,9, ,
-43, ,9, ,
-42, ,9, ,
-40, ,9, ,
-37, ,9, ,
-35, ,9, ,
-27, ,9, ,
-24, ,9, ,
-20, ,9, ,
-15, ,9, ,
-5, ,9, ,
-2, ,9, ,
2, ,9, ,
6, ,9, ,
13, ,9, ,
16, ,9, ,
19, ,9, ,
22, ,9, ,
25, ,9, ,
26, ,9, ,
28, ,9, ,
29, ,9, ,
31, ,9, ,
32, ,9, ,
32, ,9, ,
31, ,9, ,
30, ,9, ,
29, ,9, ,
28, ,9, ,
25, ,9, ,
21, ,9, ,
18, ,9, ,
14, ,10, ,
12, ,9, ,
4, ,9, ,
-1, ,9, ,
-5, ,9, ,
-8, ,9, ,
-15, ,10, ,
-16, ,9, ,
-18, ,9, ,
-19, ,9, ,
-19, ,9, ,
-19, ,9, ,
-18, ,9, ,
-17, ,9, ,
-13, ,9, ,
-11, ,9, ,
-9, ,9, ,
-6, ,9, ,
-2, ,9, ,
0, ,9, ,
3, ,9, ,
4, ,9, ,
6, ,9, ,
7, ,9, ,
7, ,9, ,
8, ,9, ,
8, ,9, ,
8, ,9, ,
8, ,9, ,
7, ,9, ,
5, ,9, ,
5, ,9, ,
3, ,9, ,
2, ,9, ,
0, ,9, ,
-2, ,9, ,
-3, ,9, ,
-5, ,9, ,
-8, ,9, ,
-9, ,9, ,
-10, ,9, ,
-10, ,9, ,
-9, ,9, ,
-9, ,9, ,
-8, ,9, ,
-7, ,9, ,
-3, ,9, ,
-1, ,9, ,
1, ,9, ,
4, ,9, ,
7, ,9, ,
9, ,9, ,
11, ,9, ,
11, ,9, ,
10, ,9, ,
10, ,9, ,
9, ,9, ,
8, ,9, ,
3, ,9, ,
0, ,9, ,
-3, ,9, ,
-6, ,9, ,
-12, ,9, ,
-16, ,9, ,
-18, ,9, ,
-20, ,9, ,
-24, ,9, ,
-24, ,9, ,
-23, ,9, ,
-24, ,9, ,
-21, ,9, ,
-18, ,9, ,
-16, ,9, ,
-13, ,9, ,
-5, ,9, ,
-2, ,9, ,
2, ,9, ,
6, ,10, ,
13, ,9, ,
17, ,9, ,
19, ,9, ,
22, ,9, ,
25, ,9, ,
26, ,9, ,
29, ,9, ,
28, ,9, ,
28, ,9, ,
28, ,9, ,
26, ,9, ,
26, ,9, ,
24, ,9, ,
22, ,9, ,
20, ,9, ,
17, ,9, ,
12, ,9, ,
10, ,9, ,
6, ,9, ,
4, ,9, ,
-3, ,9, ,
-6, ,9, ,
-10, ,9, ,
-13, ,9, ,
-20, ,9, ,
-23, ,9, ,
-25, ,9, ,
-28, ,9, ,
-31, ,9, ,
-32, ,9, ,
-32, ,9, ,
-32, ,9, ,
-31, ,9, ,
-29, ,9, ,
-28, ,9, ,
-25, ,9, ,
-19, ,9, ,
-16, ,9, ,
-13, ,9, ,
-10, ,9, ,
-4, ,9, ,
-2, ,9, ,
0, ,9, ,
1, ,9, ,
2, ,9, ,
1, ,9, ,
1, ,9, ,
0, ,9, ,
-2, ,9, ,
-2, ,9, ,
-4, ,9, ,
-5, ,9, ,
-4, ,9, ,
-4, ,9, ,
-3, ,9, ,
-2, ,9, ,
2, ,10, ,
4, ,10, ,
6, ,9, ,
10, ,9, ,
16, ,9, ,
19, ,9, ,
23, ,9, ,
25, ,9, ,
28, ,9, ,
31, ,9, ,
32, ,9, ,
33, ,9, ,
33, ,9, ,
32, ,10, ,
31, ,9, ,
29, ,9, ,
25, ,9, ,
23, ,9, ,
19, ,9, ,
15, ,9, ,
8, ,9, ,
3, ,9, ,
-1, ,9, ,
-5, ,9, ,
-13, ,9, ,
-16, ,9, ,
-19, ,9, ,
-21, ,9, ,
-23, ,9, ,
-23, ,9, ,
-23, ,9, ,
-23, ,9, ,
-20, ,9, ,
-18, ,9, ,
-16, ,9, ,
-14, ,9, ,
-10, ,9, ,
-9, ,9, ,
-7, ,9, ,
-6, ,9, ,
-5, ,9, ,
-5, ,9, ,
-6, ,9, ,
-6, ,9, ,
-8, ,9, ,
-9, ,10, ,
-10, ,9, ,
-11, ,9, ,
-12, ,9, ,
-12, ,9, ,
-12, ,9, ,
-12, ,9, ,
-10, ,9, ,
-10, ,9, ,
-7, ,9, ,
-6, ,9, ,
-2, ,9, ,
0, ,9, ,
2, ,9, ,
4, ,9, ,
7, ,9, ,
7, ,9, ,
8, ,9, ,
8, ,9, ,
7, ,10, ,
7, ,9, ,
6, ,9, ,
5, ,9, ,
2, ,9, ,
0, ,9, ,
-2, ,9, ,
-4, ,9, ,
-7, ,9, ,
-7, ,9, ,
-8, ,9, ,
-8, ,9, ,
-7, ,9, ,
-5, ,9, ,
-3, ,9, ,
-2, ,9, ,
4, ,9, ,
7, ,9, ,
11, ,9, ,
14, ,9, ,
22, ,9, ,
25, ,9, ,
28, ,9, ,
30, ,9, ,
34, ,9, ,
34, ,9, ,
34, ,9, ,
33, ,9, ,
29, ,9, ,
26, ,9, ,
24, ,9, ,
19, ,9, ,
10, ,9, ,
5, ,9, ,
0, ,9, ,
-5, ,9, ,
-15, ,9, ,
-19, ,9, ,
-23, ,9, ,
-25, ,9, ,
-30, ,10, ,
-31, ,10, ,
-31, ,9, ,
-31, ,9, ,
-28, ,9, ,
-27, ,9, ,
-25, ,9, ,
-22, ,9, ,
-16, ,9, ,
-12, ,9, ,
-9, ,9, ,
-5, ,9, ,
3, ,9, ,
5, ,9, ,
9, ,9, ,
11, ,9, ,
16, ,9, ,
17, ,9, ,
18, ,9, ,
19, ,9, ,
19, ,9, ,
18, ,9, ,
17, ,9, ,
16, ,9, ,
12, ,9, ,
11, ,9, ,
9, ,9, ,
6, ,9, ,
2, ,9, ,
0, ,9, ,
-2, ,9, ,
-4, ,9, ,
-7, ,9, ,
-8, ,9, ,
-9, ,9, ,
-9, ,9, ,
-10, ,9, ,
-10, ,10, ,
-9, ,9, ,
-9, ,9, ,
-9, ,9, ,
-9, ,9, ,
-9, ,9, ,
-8, ,9, ,
-8, ,9, ,
-8, ,9, ,
-8, ,9, ,
-8, ,9, ,
-9, ,9, ,
-9, ,9, ,
-9, ,9, ,
-9, ,9, ,
-9, ,9, ,
-9, ,9, ,
-8, ,9, ,
-8, ,9, ,
-7, ,9, ,
-5, ,9, ,
-5, ,9, ,
-4, ,9, ,
-1, ,9, ,
1, ,9, ,
4, ,9, ,
5, ,9, ,
10, ,9, ,
13, ,9, ,
14, ,9, ,
17, ,9, ,
21, ,9, ,
23, ,9, ,
25, ,9, ,
25, ,9, ,
25, ,9, ,
25, ,9, ,
24, ,9, ,
23, ,9, ,
19, ,9, ,
16, ,9, ,
13, ,9, ,
9, ,9, ,
1, ,9, ,
-2, ,9, ,
-6, ,9, ,
-10, ,9, ,
-17, ,9, ,
-20, ,9, ,
-22, ,9, ,
-25, ,9, ,
-25, ,9, ,
-25, ,9, ,
-25, ,9, ,
-25, ,9, ,
-23, ,9, ,
-21, ,9, ,
-19, ,9, ,
-18, ,9, ,
-13, ,9, ,
-10, ,9, ,
-8, ,9, ,
-6, ,9, ,
-2, ,9, ,
-1, ,9, ,
1, ,9, ,
2, ,9, ,
4, ,9, ,
6, ,9, ,
5, ,9, ,
7, ,9, ,
9, ,9, ,
9, ,9, ,
10, ,9, ,
10, ,9, ,
12, ,9, ,
13, ,9, ,
13, ,9, ,
13, ,9, ,
14, ,9, ,
14, ,9, ,
13, ,9, ,
13, ,9, ,
11, ,9, ,
11, ,9, ,
10, ,9, ,
9, ,9, ,
8, ,9, ,
6, ,9, ,
5, ,9, ,
4, ,9, ,
0, ,9, ,
-1, ,9, ,
-3, ,9, ,
-4, ,9, ,
-9, ,9, ,
-11, ,9, ,
-13, ,9, ,
-15, ,9, ,
-20, ,9, ,
-21, ,9, ,
-23, ,9, ,
-24, ,9, ,
-25, ,9, ,
-25, ,9, ,
-24, ,9, ,
-24, ,9, ,
-20, ,9, ,
-17, ,9, ,
-14, ,9, ,
-10, ,9, ,
-2, ,9, ,
2, ,9, ,
7, ,9, ,
11, ,9, ,
20, ,9, ,
24, ,9, ,
26, ,9, ,
29, ,9, ,
33, ,9, ,
33, ,9, ,
34, ,9, ,
33, ,9, ,
30, ,9, ,
28, ,9, ,
25, ,9, ,
23, ,9, ,
16, ,9, ,
11, ,9, ,
8, ,9, ,
3, ,9, ,
-5, ,9, ,
-8, ,9, ,
-11, ,9, ,
-14, ,9, ,
-19, ,9, ,
-20, ,9, ,
-21, ,9, ,
-21, ,9, ,
-20, ,9, ,
-19, ,9, ,
-18, ,9, ,
-17, ,9, ,
-14, ,9, ,
-13, ,9, ,
-10, ,9, ,
-9, ,9, ,
-6, ,9, ,
-5, ,10, ,
-4, ,9, ,
-3, ,9, ,
-2, ,9, ,
-3, ,9, ,
-3, ,9, ,
-3, ,9, ,
-3, ,9, ,
-3, ,9, ,
-3, ,9, ,
-3, ,9, ,
-3, ,9, ,
-2, ,9, ,
-2, ,9, ,
-2, ,9, ,
0, ,9, ,
2, ,9, ,
3, ,9, ,
4, ,9, ,
6, ,9, ,
7, ,9, ,
8, ,9, ,
8, ,9, ,
9, ,9, ,
9, ,9, ,
9, ,9, ,
9, ,9, ,
7, ,9, ,
6, ,9, ,
5, ,9, ,
3, ,9, ,
0, ,9, ,
-1, ,9, ,
-2, ,9, ,
-4, ,9, ,
-7, ,9, ,
-8, ,9, ,
-9, ,9, ,
-10, ,9, ,
-10, ,9, ,
-10, ,9, ,
-9, ,9, ,
-9, ,9, ,
-6, ,9, ,
-5, ,9, ,
-3, ,9, ,
-1, ,9, ,
3, ,9, ,
6, ,9, ,
7, ,9, ,
10, ,9, ,
14, ,9, ,
15, ,9, ,
16, ,9, ,
17, ,9, ,
16, ,9, ,
15, ,9, ,
14, ,9, ,
13, ,9, ,
9, ,9, ,
7, ,9, ,
5, ,9, ,
2, ,9, ,
-2, ,9, ,
-4, ,9, ,
-6, ,9, ,
-8, ,9, ,
-11, ,9, ,
-11, ,9, ,
-11, ,9, ,
-11, ,9, ,
-11, ,9, ,
-10, ,9, ,
-10, ,9, ,
-8, ,9, ,
-6, ,9, ,
-6, ,9, ,
-4, ,9, ,
-3, ,9, ,
-2, ,9, ,
-1, ,9, ,
-1, ,9, ,
0, ,9, ,
1, ,9, ,
1, ,9, ,
1, ,9, ,
2, ,9, ,
2, ,9, ,
2, ,9, ,
3, ,9, ,
3, ,9, ,
5, ,9, ,
6, ,9, ,
7, ,9, ,
8, ,9, ,
9, ,9, ,
11, ,9, ,
11, ,9, ,
13, ,9, ,
15, ,9, ,
16, ,9, ,
17, ,9, ,
16, ,9, ,
17, ,9, ,
17, ,9, ,
17, ,9, ,
16, ,9, ,
14, ,9, ,
12, ,9, ,
10, ,9, ,
8, ,9, ,
2, ,9, ,
0, ,9, ,
-4, ,9, ,
-7, ,9, ,
-12, ,9, ,
-16, ,9, ,
-18, ,9, ,
-22, ,9, ,
-25, ,9, ,
-26, ,9, ,
-26, ,9, ,
-26, ,9, ,
-26, ,9, ,
-25, ,9, ,
-23, ,9, ,
-22, ,9, ,
-16, ,9, ,
-13, ,9, ,
-9, ,9, ,
-6, ,9, ,
2, ,9, ,
4, ,9, ,
8, ,9, ,
11, ,9, ,
16, ,9, ,
18, ,9, ,
19, ,9, ,
20, ,9, ,
20, ,9, ,
19, ,9, ,
19, ,9, ,
18, ,9, ,
15, ,10, ,
14, ,9, ,
11, ,9, ,
11, ,9, ,
7, ,9, ,
5, ,9, ,
4, ,9, ,
3, ,10, ,
2, ,9, ,
2, ,9, ,
2, ,9, ,
2, ,9, ,
3, ,9, ,
4, ,9, ,
4, ,9, ,
4, ,9, ,
6, ,9, ,
6, ,9, ,
6, ,9, ,
