raw_data/75% Glycerol, Impulsion 2Hz, Sonde 5MHz, Rampe 0.7Hz/temp0000130.CSV

Format,1.0B,
Memory Length,10000,Memory Length,10000,
IntpDistance,0,IntpDistance,0,
Trigger Address,159,Trigger Address,159,
Trigger Level,2.720E-01,Trigger Level,2.720E-01,
Source,CH1,Source,CH2,
Vertical Units,V,Vertical Units,V,
Vertical Units Div,0,Vertical Units Div,0,
Vertical Units Extend Div,16,Vertical Units Extend Div,16,
Label,,Label,,
Probe Type,0,Probe Type,0,
Probe Ratio,1.000e+00,Probe Ratio,1.000e+00,
Vertical Scale,5.000e-01,Vertical Scale,2.000e+00,
Vertical Position,0.000e+00,Vertical Position,0.000e+00,
Horizontal Units,S,Horizontal Units,S,
Horizontal Scale,5.000E-06,Horizontal Scale,5.000E-06,
Horizontal Position,2.420E-05,Horizontal Position,2.420E-05,
Horizontal Mode,Main,Horizontal Mode,Main,
SincET Mode,Real Time,SincET Mode,Real Time,
Sampling Period,5.000e-09,Sampling Period,5.000e-09,
Horizontal Old Scale,5.000E-06,Horizontal Old Scale,5.000E-06,
Horizontal Old Position,2.420E-05,Horizontal Old Position,2.420E-05,
Firmware,V1.32,Firmware,V1.32,
Mode,Fast,Mode,Fast,
Waveform Data,,Waveform Data,,
1, ,15, ,
1, ,15, ,
0, ,15, ,
0, ,15, ,
1, ,15, ,
1, ,15, ,
1, ,15, ,
1, ,15, ,
0, ,15, ,
0, ,15, ,
0, ,15, ,
1, ,15, ,
1, ,15, ,
0, ,15, ,
0, ,15, ,
0, ,15, ,
0, ,15, ,
1, ,15, ,
0, ,15, ,
0, ,15, ,
1, ,15, ,
0, ,15, ,
0, ,15, ,
1, ,15, ,
1, ,15, ,
1, ,15, ,
0, ,15, ,
0, ,15, ,
1, ,15, ,
1, ,15, ,
1, ,15, ,
0, ,15, ,
0, ,15, ,
1, ,15, ,
1, ,15, ,
0, ,15, ,
0, ,15, ,
0, ,15, ,
1, ,15, ,
1, ,15, ,
1, ,15, ,
0, ,15, ,
0, ,15, ,
1, ,15, ,
1, ,15, ,
1, ,15, ,
1, ,15, ,
0, ,15, ,
0, ,15, ,
0, ,15, ,
0, ,15, ,
0, ,15, ,
1, ,15, ,
1, ,15, ,
1, ,15, ,
1, ,15, ,
0, ,15, ,
0, ,15, ,
0, ,15, ,
0, ,15, ,
1, ,15, ,
0, ,15, ,
0, ,15, ,
1, ,15, ,
0, ,15, ,
0, ,15, ,
0, ,15, ,
0, ,15, ,
1, ,15, ,
1, ,15, ,
1, ,15, ,
1, ,15, ,
1, ,15, ,
1, ,15, ,
1, ,15, ,
1, ,15, ,
1, ,15, ,
1, ,15, ,
1, ,15, ,
0, ,15, ,
0, ,15, ,
1, ,15, ,
0, ,15, ,
0, ,15, ,
0, ,15, ,
0, ,15, ,
0, ,15, ,
0, ,15, ,
0, ,15, ,
0, ,15, ,
0, ,15, ,
0, ,15, ,
0, ,15, ,
0, ,15, ,
0, ,15, ,
1, ,15, ,
1, ,15, ,
1, ,15, ,
0, ,15, ,
0, ,15, ,
1, ,15, ,
1, ,15, ,
1, ,15, ,
1, ,15, ,
0, ,15, ,
0, ,15, ,
0, ,15, ,
0, ,15, ,
0, ,15, ,
0, ,15, ,
1, ,15, ,
1, ,15, ,
1, ,15, ,
1, ,15, ,
1, ,15, ,
1, ,15, ,
1, ,15, ,
0, ,15, ,
0, ,15, ,
1, ,15, ,
0, ,15, ,
0, ,15, ,
0, ,15, ,
1, ,15, ,
1, ,15, ,
0, ,15, ,
0, ,15, ,
0, ,15, ,
0, ,15, ,
0, ,15, ,
0, ,15, ,
0, ,15, ,
0, ,15, ,
0, ,15, ,
1, ,15, ,
1, ,15, ,
0, ,15, ,
0, ,15, ,
0, ,15, ,
0, ,15, ,
0, ,15, ,
0, ,15, ,
1, ,15, ,
1, ,15, ,
1, ,15, ,
1, ,15, ,
1, ,15, ,
0, ,15, ,
0, ,15, ,
0, ,15, ,
0, ,15, ,
0, ,15, ,
0, ,15, ,
1, ,15, ,
1, ,15, ,
1, ,15, ,
1, ,15, ,
0, ,15, ,
0, ,15, ,
1, ,15, ,
1, ,15, ,
1, ,15, ,
1, ,15, ,
1, ,15, ,
2, ,15, ,
0, ,15, ,
1, ,15, ,
0, ,15, ,
15, ,15, ,
42, ,15, ,
80, ,15, ,
124, ,15, ,
122, ,15, ,
104, ,15, ,
46, ,15, ,
2, ,15, ,
48, ,15, ,
103, ,15, ,
125, ,15, ,
125, ,15, ,
125, ,15, ,
125, ,15, ,
125, ,15, ,
124, ,15, ,
124, ,15, ,
122, ,15, ,
115, ,15, ,
106, ,15, ,
104, ,15, ,
100, ,15, ,
97, ,15, ,
90, ,15, ,
86, ,15, ,
83, ,15, ,
80, ,15, ,
75, ,15, ,
72, ,15, ,
69, ,15, ,
67, ,15, ,
61, ,15, ,
58, ,15, ,
57, ,15, ,
54, ,15, ,
49, ,15, ,
48, ,15, ,
45, ,15, ,
43, ,15, ,
40, ,15, ,
37, ,15, ,
37, ,15, ,
35, ,15, ,
31, ,15, ,
30, ,15, ,
28, ,15, ,
28, ,15, ,
25, ,15, ,
24, ,15, ,
24, ,15, ,
22, ,15, ,
20, ,15, ,
20, ,15, ,
18, ,15, ,
17, ,15, ,
16, ,15, ,
15, ,15, ,
14, ,15, ,
14, ,15, ,
12, ,15, ,
12, ,15, ,
11, ,15, ,
11, ,15, ,
9, ,15, ,
9, ,15, ,
8, ,15, ,
7, ,15, ,
6, ,15, ,
6, ,15, ,
6, ,15, ,
6, ,15, ,
5, ,15, ,
4, ,15, ,
4, ,15, ,
4, ,15, ,
3, ,15, ,
3, ,15, ,
3, ,15, ,
3, ,15, ,
2, ,15, ,
2, ,15, ,
2, ,15, ,
1, ,15, ,
1, ,15, ,
1, ,15, ,
0, ,15, ,
0, ,15, ,
1, ,15, ,
0, ,15, ,
0, ,15, ,
0, ,15, ,
0, ,15, ,
0, ,15, ,
0, ,15, ,
-1, ,15, ,
0, ,15, ,
-1, ,15, ,
-1, ,15, ,
-1, ,15, ,
-1, ,15, ,
-1, ,15, ,
-1, ,15, ,
-1, ,15, ,
-1, ,15, ,
-1, ,15, ,
-1, ,15, ,
-1, ,15, ,
-1, ,15, ,
-1, ,15, ,
-1, ,15, ,
-1, ,15, ,
-1, ,15, ,
-2, ,15, ,
-2, ,15, ,
-2, ,15, ,
-1, ,15, ,
-1, ,15, ,
-1, ,15, ,
-1, ,15, ,
-1, ,15, ,
-1, ,15, ,
-1, ,15, ,
-1, ,15, ,
-1, ,15, ,
-1, ,15, ,
-2, ,15, ,
-2, ,15, ,
-1, ,15, ,
-1, ,15, ,
-1, ,15, ,
-1, ,15, ,
-1, ,15, ,
-1, ,15, ,
-1, ,15, ,
-1, ,15, ,
-1, ,15, ,
-1, ,15, ,
-1, ,15, ,
-1, ,15, ,
-1, ,15, ,
-1, ,15, ,
-1, ,15, ,
-1, ,15, ,
-1, ,15, ,
-1, ,15, ,
-1, ,15, ,
-1, ,15, ,
-1, ,15, ,
-1, ,15, ,
-1, ,15, ,
-1, ,15, ,
-1, ,15, ,
-1, ,15, ,
0, ,15, ,
0, ,15, ,
0, ,15, ,
0, ,15, ,
-1, ,15, ,
-1, ,15, ,
0, ,15, ,
-1, ,15, ,
-1, ,15, ,
-1, ,15, ,
0, ,15, ,
0, ,15, ,
0, ,15, ,
0, ,15, ,
0, ,15, ,
0, ,15, ,
0, ,15, ,
0, ,15, ,
-1, ,15, ,
0, ,15, ,
0, ,15, ,
0, ,15, ,
0, ,15, ,
-1, ,15, ,
0, ,15, ,
0, ,15, ,
0, ,15, ,
0, ,15, ,
0, ,15, ,
0, ,15, ,
0, ,15, ,
0, ,15, ,
0, ,15, ,
0, ,15, ,
0, ,15, ,
0, ,15, ,
0, ,15, ,
0, ,15, ,
0, ,15, ,
0, ,15, ,
0, ,15, ,
0, ,15, ,
0, ,15, ,
0, ,15, ,
0, ,15, ,
0, ,15, ,
0, ,15, ,
-1, ,15, ,
0, ,15, ,
0, ,15, ,
0, ,15, ,
0, ,15, ,
0, ,15, ,
0, ,15, ,
0, ,15, ,
0, ,15, ,
0, ,15, ,
0, ,15, ,
0, ,15, ,
0, ,15, ,
0, ,15, ,
0, ,15, ,
0, ,15, ,
0, ,15, ,
0, ,15, ,
0, ,15, ,
0, ,15, ,
0, ,15, ,
0, ,15, ,
0, ,15, ,
0, ,15, ,
0, ,15, ,
0, ,15, ,
0, ,15, ,
0, ,15, ,
0, ,15, ,
0, ,15, ,
1, ,15, ,
1, ,15, ,
0, ,15, ,
0, ,15, ,
0, ,15, ,
0, ,15, ,
0, ,15, ,
0, ,15, ,
0, ,15, ,
0, ,15, ,
0, ,15, ,
0, ,15, ,
0, ,15, ,
0, ,15, ,
0, ,15, ,
0, ,15, ,
1, ,15, ,
1, ,15, ,
1, ,15, ,
1, ,15, ,
0, ,15, ,
0, ,15, ,
0, ,15, ,
0, ,15, ,
0, ,15, ,
1, ,15, ,
0, ,15, ,
0, ,15, ,
0, ,15, ,
0, ,15, ,
0, ,15, ,
0, ,15, ,
0, ,15, ,
0, ,15, ,
0, ,15, ,
0, ,15, ,
0, ,15, ,
0, ,15, ,
0, ,15, ,
0, ,15, ,
0, ,15, ,
-1, ,15, ,
-1, ,15, ,
-1, ,15, ,
-3, ,15, ,
-5, ,15, ,
-6, ,15, ,
-8, ,15, ,
-8, ,15, ,
-7, ,15, ,
-7, ,15, ,
-6, ,15, ,
-5, ,15, ,
-3, ,15, ,
-1, ,15, ,
-1, ,15, ,
0, ,15, ,
1, ,15, ,
1, ,15, ,
1, ,15, ,
1, ,15, ,
0, ,15, ,
0, ,15, ,
0, ,15, ,
0, ,15, ,
-1, ,15, ,
-1, ,15, ,
-1, ,15, ,
-1, ,15, ,
-1, ,15, ,
-1, ,15, ,
-1, ,15, ,
0, ,15, ,
1, ,15, ,
1, ,15, ,
2, ,15, ,
2, ,15, ,
2, ,15, ,
3, ,15, ,
3, ,15, ,
3, ,15, ,
3, ,15, ,
3, ,15, ,
2, ,15, ,
2, ,15, ,
2, ,15, ,
1, ,15, ,
1, ,15, ,
1, ,15, ,
1, ,15, ,
1, ,15, ,
1, ,15, ,
1, ,15, ,
1, ,15, ,
1, ,15, ,
1, ,15, ,
2, ,15, ,
2, ,15, ,
2, ,15, ,
2, ,15, ,
1, ,15, ,
1, ,15, ,
1, ,15, ,
1, ,15, ,
1, ,15, ,
1, ,15, ,
1, ,15, ,
1, ,15, ,
1, ,15, ,
1, ,15, ,
2, ,15, ,
2, ,15, ,
2, ,15, ,
1, ,15, ,
1, ,15, ,
2, ,15, ,
2, ,15, ,
1, ,15, ,
1, ,15, ,
1, ,15, ,
0, ,15, ,
-1, ,15, ,
-3, ,15, ,
-5, ,15, ,
-7, ,15, ,
-13, ,15, ,
-15, ,15, ,
-19, ,15, ,
-21, ,15, ,
-23, ,15, ,
-23, ,15, ,
-22, ,15, ,
-21, ,15, ,
-16, ,15, ,
-13, ,15, ,
-11, ,15, ,
-8, ,15, ,
-4, ,15, ,
-4, ,15, ,
-1, ,15, ,
-1, ,15, ,
-1, ,15, ,
-1, ,15, ,
-2, ,15, ,
-3, ,15, ,
-5, ,15, ,
-7, ,15, ,
-9, ,15, ,
-12, ,15, ,
-16, ,15, ,
-17, ,15, ,
-20, ,15, ,
-20, ,15, ,
-23, ,15, ,
-24, ,15, ,
-25, ,15, ,
-26, ,15, ,
-29, ,15, ,
-29, ,15, ,
-32, ,15, ,
-34, ,15, ,
-38, ,15, ,
-40, ,15, ,
-42, ,15, ,
-43, ,15, ,
-43, ,15, ,
-43, ,15, ,
-43, ,15, ,
-41, ,15, ,
-37, ,15, ,
-35, ,15, ,
-31, ,15, ,
-29, ,15, ,
-22, ,15, ,
-19, ,15, ,
-15, ,15, ,
-12, ,15, ,
-7, ,15, ,
-6, ,15, ,
-3, ,15, ,
-2, ,15, ,
0, ,15, ,
1, ,15, ,
2, ,15, ,
2, ,15, ,
4, ,15, ,
3, ,15, ,
5, ,15, ,
5, ,15, ,
6, ,15, ,
7, ,15, ,
7, ,15, ,
8, ,15, ,
8, ,15, ,
8, ,15, ,
9, ,15, ,
8, ,15, ,
9, ,15, ,
10, ,15, ,
10, ,15, ,
10, ,15, ,
11, ,15, ,
12, ,15, ,
13, ,15, ,
13, ,15, ,
14, ,15, ,
17, ,15, ,
17, ,15, ,
17, ,15, ,
18, ,15, ,
18, ,15, ,
18, ,15, ,
18, ,15, ,
16, ,15, ,
15, ,15, ,
13, ,15, ,
13, ,15, ,
9, ,15, ,
6, ,15, ,
5, ,15, ,
1, ,15, ,
-2, ,15, ,
-4, ,15, ,
-5, ,15, ,
-6, ,15, ,
-7, ,15, ,
-7, ,15, ,
-7, ,15, ,
-7, ,15, ,
-7, ,15, ,
-5, ,15, ,
-5, ,15, ,
-5, ,15, ,
-5, ,15, ,
-5, ,15, ,
-5, ,15, ,
-7, ,15, ,
-8, ,15, ,
-9, ,15, ,
-11, ,15, ,
-12, ,15, ,
-17, ,15, ,
-19, ,15, ,
-21, ,15, ,
-24, ,15, ,
-26, ,15, ,
-27, ,15, ,
-27, ,15, ,
-27, ,15, ,
-26, ,15, ,
-25, ,15, ,
-25, ,15, ,
-24, ,15, ,
-21, ,15, ,
-19, ,15, ,
-18, ,15, ,
-18, ,15, ,
-15, ,15, ,
-15, ,15, ,
-12, ,15, ,
-12, ,15, ,
-10, ,15, ,
-9, ,15, ,
-9, ,15, ,
-7, ,15, ,
-6, ,15, ,
-5, ,15, ,
-5, ,15, ,
-5, ,15, ,
-4, ,15, ,
-4, ,15, ,
-3, ,15, ,
-3, ,15, ,
-3, ,15, ,
-3, ,15, ,
-3, ,15, ,
-2, ,15, ,
-2, ,15, ,
-1, ,15, ,
0, ,15, ,
1, ,15, ,
2, ,15, ,
2, ,15, ,
3, ,15, ,
3, ,15, ,
3, ,15, ,
3, ,15, ,
2, ,15, ,
1, ,15, ,
0, ,15, ,
-2, ,15, ,
-2, ,15, ,
-4, ,15, ,
-6, ,15, ,
-8, ,15, ,
-10, ,15, ,
-11, ,15, ,
-14, ,15, ,
-15, ,15, ,
-16, ,15, ,
-18, ,15, ,
-19, ,15, ,
-19, ,15, ,
-19, ,15, ,
-19, ,15, ,
-17, ,15, ,
-16, ,15, ,
-14, ,15, ,
-12, ,15, ,
-8, ,15, ,
-6, ,15, ,
-5, ,15, ,
-2, ,15, ,
0, ,15, ,
1, ,15, ,
1, ,15, ,
1, ,15, ,
0, ,15, ,
0, ,15, ,
-1, ,15, ,
-1, ,15, ,
-2, ,15, ,
-3, ,15, ,
-4, ,15, ,
-4, ,15, ,
-4, ,15, ,
-4, ,15, ,
-4, ,15, ,
-3, ,15, ,
-2, ,15, ,
-2, ,15, ,
-1, ,15, ,
0, ,15, ,
2, ,15, ,
3, ,15, ,
3, ,15, ,
6, ,15, ,
7, ,15, ,
9, ,15, ,
10, ,15, ,
10, ,15, ,
11, ,15, ,
12, ,15, ,
11, ,15, ,
11, ,15, ,
11, ,15, ,
9, ,15, ,
9, ,15, ,
8, ,15, ,
6, ,15, ,
5, ,15, ,
4, ,15, ,
3, ,15, ,
1, ,15, ,
0, ,15, ,
-1, ,15, ,
-2, ,15, ,
-3, ,15, ,
-3, ,15, ,
-4, ,15, ,
-4, ,15, ,
-4, ,15, ,
-4, ,15, ,
-4, ,15, ,
-4, ,15, ,
-4, ,15, ,
-4, ,15, ,
-4, ,15, ,
-4, ,15, ,
-5, ,15, ,
-5, ,15, ,
-6, ,15, ,
-6, ,15, ,
-8, ,15, ,
-8, ,15, ,
-10, ,15, ,
-10, ,15, ,
-12, ,15, ,
-13, ,15, ,
-13, ,15, ,
-15, ,15, ,
-17, ,15, ,
-18, ,15, ,
-19, ,15, ,
-19, ,15, ,
-21, ,15, ,
-22, ,15, ,
-22, ,15, ,
-23, ,15, ,
-23, ,15, ,
-23, ,15, ,
-24, ,15, ,
-24, ,15, ,
-23, ,15, ,
-24, ,15, ,
-24, ,15, ,
-24, ,15, ,
-24, ,15, ,
-24, ,15, ,
-24, ,15, ,
-24, ,15, ,
-24, ,15, ,
-24, ,15, ,
-24, ,15, ,
-24, ,15, ,
-24, ,15, ,
-24, ,15, ,
-24, ,15, ,
-23, ,15, ,
-23, ,15, ,
-22, ,15, ,
-20, ,15, ,
-20, ,15, ,
-17, ,15, ,
-15, ,15, ,
-13, ,15, ,
-12, ,15, ,
-8, ,15, ,
-6, ,15, ,
-5, ,15, ,
-3, ,15, ,
0, ,15, ,
2, ,15, ,
3, ,15, ,
5, ,15, ,
8, ,15, ,
9, ,15, ,
11, ,15, ,
12, ,15, ,
15, ,15, ,
16, ,15, ,
17, ,15, ,
18, ,15, ,
20, ,15, ,
20, ,15, ,
20, ,15, ,
20, ,15, ,
19, ,15, ,
17, ,15, ,
17, ,15, ,
16, ,15, ,
13, ,15, ,
11, ,15, ,
10, ,15, ,
8, ,15, ,
5, ,15, ,
4, ,15, ,
3, ,15, ,
1, ,15, ,
0, ,15, ,
0, ,15, ,
0, ,15, ,
0, ,15, ,
0, ,15, ,
0, ,15, ,
0, ,15, ,
1, ,15, ,
2, ,15, ,
3, ,15, ,
3, ,15, ,
3, ,15, ,
4, ,15, ,
5, ,15, ,
5, ,15, ,
5, ,15, ,
5, ,15, ,
5, ,15, ,
5, ,15, ,
4, ,15, ,
4, ,15, ,
4, ,15, ,
3, ,15, ,
3, ,15, ,
2, ,15, ,
1, ,15, ,
1, ,15, ,
0, ,15, ,
-1, ,15, ,
-2, ,15, ,
-4, ,15, ,
-4, ,15, ,
-7, ,15, ,
-9, ,15, ,
-10, ,15, ,
-12, ,15, ,
-15, ,15, ,
-16, ,15, ,
-17, ,15, ,
-18, ,15, ,
-21, ,15, ,
-22, ,15, ,
-22, ,15, ,
-23, ,15, ,
-24, ,15, ,
-24, ,15, ,
-24, ,15, ,
-24, ,15, ,
-23, ,15, ,
-23, ,15, ,
-22, ,15, ,
-22, ,15, ,
-21, ,15, ,
-21, ,15, ,
-20, ,15, ,
-20, ,15, ,
-19, ,15, ,
-18, ,15, ,
-17, ,15, ,
-17, ,15, ,
-15, ,15, ,
-14, ,15, ,
-13, ,15, ,
-11, ,15, ,
-9, ,15, ,
-8, ,15, ,
-7, ,15, ,
-6, ,15, ,
-4, ,15, ,
-3, ,15, ,
-2, ,15, ,
-1, ,15, ,
0, ,15, ,
0, ,15, ,
1, ,15, ,
1, ,15, ,
1, ,15, ,
1, ,15, ,
1, ,15, ,
1, ,15, ,
0, ,15, ,
0, ,15, ,
0, ,15, ,
-1, ,15, ,
-1, ,15, ,
-2, ,15, ,
-2, ,15, ,
-2, ,15, ,
-3, ,15, ,
-3, ,15, ,
-3, ,15, ,
-3, ,15, ,
-3, ,15, ,
-2, ,15, ,
-2, ,15, ,
-1, ,15, ,
0, ,15, ,
0, ,15, ,
1, ,15, ,
1, ,15, ,
1, ,15, ,
2, ,15, ,
1, ,15, ,
2, ,15, ,
1, ,15, ,
1, ,15, ,
1, ,15, ,
0, ,15, ,
-1, ,15, ,
-2, ,15, ,
-2, ,15, ,
-3, ,15, ,
-3, ,15, ,
-4, ,15, ,
-4, ,15, ,
-5, ,15, ,
-5, ,15, ,
-6, ,15, ,
-6, ,15, ,
-7, ,15, ,
-7, ,15, ,
-8, ,15, ,
-8, ,15, ,
-8, ,15, ,
-9, ,15, ,
-10, ,15, ,
-10, ,15, ,
-10, ,15, ,
-11, ,15, ,
-12, ,15, ,
-12, ,15, ,
-12, ,15, ,
-12, ,15, ,
-12, ,15, ,
-12, ,15, ,
-11, ,15, ,
-9, ,15, ,
-9, ,15, ,
-7, ,15, ,
-6, ,15, ,
-3, ,15, ,
-1, ,15, ,
1, ,15, ,
3, ,15, ,
7, ,15, ,
8, ,15, ,
11, ,15, ,
12, ,15, ,
14, ,15, ,
15, ,15, ,
15, ,15, ,
15, ,15, ,
14, ,15, ,
13, ,15, ,
12, ,15, ,
10, ,15, ,
7, ,15, ,
5, ,15, ,
3, ,15, ,
1, ,15, ,
-3, ,15, ,
-6, ,15, ,
-7, ,15, ,
-8, ,15, ,
-10, ,15, ,
-10, ,15, ,
-10, ,15, ,
-10, ,15, ,
-7, ,15, ,
-6, ,15, ,
-4, ,15, ,
-3, ,15, ,
2, ,15, ,
5, ,15, ,
6, ,15, ,
9, ,15, ,
14, ,15, ,
15, ,15, ,
16, ,15, ,
17, ,15, ,
16, ,15, ,
16, ,15, ,
15, ,15, ,
15, ,15, ,
11, ,15, ,
8, ,15, ,
5, ,15, ,
2, ,15, ,
-4, ,15, ,
-7, ,15, ,
-10, ,15, ,
-13, ,15, ,
-18, ,15, ,
-21, ,15, ,
-22, ,15, ,
-23, ,15, ,
-23, ,15, ,
-23, ,15, ,
-22, ,15, ,
-20, ,15, ,
-18, ,15, ,
-15, ,15, ,
-13, ,15, ,
-12, ,15, ,
-7, ,15, ,
-5, ,15, ,
-4, ,15, ,
-2, ,15, ,
-1, ,15, ,
-1, ,15, ,
-1, ,15, ,
-2, ,15, ,
-3, ,15, ,
-3, ,15, ,
-4, ,15, ,
-5, ,15, ,
-6, ,15, ,
-6, ,15, ,
-6, ,15, ,
-6, ,15, ,
-5, ,15, ,
-4, ,15, ,
-4, ,15, ,
-3, ,15, ,
0, ,15, ,
0, ,15, ,
1, ,15, ,
2, ,15, ,
4, ,15, ,
4, ,15, ,
5, ,15, ,
5, ,15, ,
5, ,15, ,
5, ,15, ,
5, ,15, ,
5, ,15, ,
4, ,15, ,
4, ,15, ,
4, ,15, ,
4, ,15, ,
4, ,15, ,
3, ,15, ,
3, ,15, ,
3, ,15, ,
3, ,15, ,
3, ,15, ,
2, ,15, ,
2, ,15, ,
1, ,15, ,
0, ,15, ,
0, ,15, ,
0, ,15, ,
-2, ,15, ,
-2, ,15, ,
-3, ,15, ,
-3, ,15, ,
-3, ,15, ,
-4, ,15, ,
-4, ,15, ,
-4, ,15, ,
-3, ,15, ,
-3, ,15, ,
-3, ,15, ,
-2, ,15, ,
-2, ,15, ,
-2, ,15, ,
-2, ,15, ,
-2, ,15, ,
-2, ,15, ,
-2, ,15, ,
-2, ,15, ,
-2, ,15, ,
-3, ,15, ,
-4, ,15, ,
-4, ,15, ,
-5, ,15, ,
-5, ,15, ,
-4, ,15, ,
-5, ,15, ,
-5, ,15, ,
-4, ,15, ,
-4, ,15, ,
-3, ,15, ,
-3, ,15, ,
-1, ,15, ,
0, ,15, ,
0, ,15, ,
1, ,15, ,
3, ,15, ,
3, ,15, ,
4, ,15, ,
5, ,15, ,
6, ,15, ,
6, ,15, ,
6, ,15, ,
7, ,15, ,
7, ,15, ,
7, ,15, ,
6, ,15, ,
6, ,15, ,
5, ,15, ,
4, ,15, ,
4, ,15, ,
2, ,15, ,
1, ,15, ,
0, ,15, ,
-1, ,15, ,
-2, ,15, ,
-4, ,15, ,
-4, ,15, ,
-4, ,15, ,
-5, ,15, ,
-6, ,15, ,
-6, ,15, ,
-5, ,15, ,
-5, ,15, ,
-5, ,15, ,
-4, ,15, ,
-4, ,15, ,
-3, ,15, ,
-3, ,15, ,
-2, ,15, ,
-2, ,15, ,
-2, ,15, ,
-1, ,15, ,
-1, ,15, ,
-1, ,15, ,
-1, ,15, ,
-2, ,15, ,
-3, ,15, ,
-3, ,15, ,
-4, ,15, ,
-5, ,15, ,
-5, ,15, ,
-6, ,15, ,
-6, ,15, ,
-7, ,15, ,
-8, ,15, ,
-8, ,15, ,
-8, ,15, ,
-7, ,15, ,
-7, ,15, ,
-7, ,15, ,
-5, ,15, ,
-5, ,15, ,
-3, ,15, ,
-2, ,15, ,
-1, ,15, ,
2, ,15, ,
3, ,15, ,
3, ,15, ,
4, ,15, ,
5, ,15, ,
5, ,15, ,
5, ,15, ,
4, ,15, ,
3, ,15, ,
3, ,15, ,
2, ,15, ,
2, ,15, ,
0, ,15, ,
-2, ,15, ,
-2, ,15, ,
-3, ,15, ,
-5, ,15, ,
-6, ,15, ,
-7, ,15, ,
-8, ,15, ,
-9, ,15, ,
-9, ,15, ,
-9, ,15, ,
-9, ,15, ,
-9, ,15, ,
-9, ,15, ,
-9, ,15, ,
-8, ,15, ,
-7, ,15, ,
-7, ,15, ,
-7, ,15, ,
-6, ,15, ,
-6, ,15, ,
-3, ,15, ,
-3, ,15, ,
-3, ,15, ,
-1, ,15, ,
-2, ,15, ,
0, ,15, ,
0, ,15, ,
1, ,15, ,
1, ,15, ,
1, ,15, ,
1, ,15, ,
2, ,15, ,
2, ,15, ,
2, ,15, ,
2, ,15, ,
2, ,15, ,
2, ,15, ,
2, ,15, ,
2, ,15, ,
2, ,15, ,
1, ,15, ,
1, ,15, ,
0, ,15, ,
0, ,15, ,
0, ,15, ,
-1, ,15, ,
-2, ,15, ,
-3, ,15, ,
-3, ,15, ,
-3, ,15, ,
-4, ,15, ,
-4, ,15, ,
-4, ,15, ,
-4, ,15, ,
-4, ,15, ,
-4, ,15, ,
-4, ,15, ,
-4, ,15, ,
-4, ,15, ,
-4, ,15, ,
-3, ,15, ,
-3, ,15, ,
-3, ,15, ,
-3, ,15, ,
-3, ,15, ,
-3, ,15, ,
-3, ,15, ,
-2, ,15, ,
-1, ,15, ,
-1, ,15, ,
-1, ,15, ,
0, ,15, ,
0, ,15, ,
1, ,15, ,
2, ,15, ,
1, ,15, ,
1, ,15, ,
1, ,15, ,
1, ,15, ,
1, ,15, ,
0, ,15, ,
0, ,15, ,
-1, ,15, ,
-2, ,15, ,
-2, ,15, ,
-3, ,15, ,
-3, ,15, ,
-4, ,15, ,
-4, ,15, ,
-4, ,15, ,
-5, ,15, ,
-5, ,15, ,
-5, ,15, ,
-5, ,15, ,
-5, ,15, ,
-4, ,15, ,
-4, ,15, ,
-3, ,15, ,
-3, ,15, ,
-2, ,15, ,
0, ,15, ,
0, ,15, ,
1, ,15, ,
3, ,15, ,
4, ,15, ,
4, ,15, ,
5, ,15, ,
5, ,15, ,
5, ,15, ,
5, ,15, ,
5, ,15, ,
4, ,15, ,
3, ,15, ,
2, ,15, ,
1, ,15, ,
-1, ,15, ,
-2, ,15, ,
-4, ,15, ,
-5, ,15, ,
-7, ,15, ,
-8, ,15, ,
-8, ,15, ,
-9, ,15, ,
-9, ,15, ,
-8, ,15, ,
-9, ,15, ,
-7, ,15, ,
-6, ,15, ,
-4, ,15, ,
-3, ,15, ,
-2, ,15, ,
1, ,15, ,
3, ,15, ,
4, ,15, ,
6, ,15, ,
8, ,15, ,
8, ,15, ,
10, ,15, ,
10, ,15, ,
10, ,15, ,
10, ,15, ,
10, ,15, ,
9, ,15, ,
8, ,15, ,
8, ,15, ,
8, ,15, ,
6, ,15, ,
5, ,15, ,
5, ,15, ,
4, ,15, ,
3, ,15, ,
2, ,15, ,
1, ,15, ,
1, ,15, ,
0, ,15, ,
0, ,15, ,
0, ,15, ,
0, ,15, ,
0, ,15, ,
0, ,15, ,
0, ,15, ,
0, ,15, ,
0, ,15, ,
0, ,15, ,
1, ,15, ,
0, ,15, ,
0, ,15, ,
0, ,15, ,
0, ,15, ,
-1, ,15, ,
-1, ,15, ,
-2, ,15, ,
-3, ,15, ,
-4, ,15, ,
-4, ,15, ,
-6, ,15, ,
-7, ,15, ,
-7, ,15, ,
-9, ,15, ,
-10, ,15, ,
-10, ,15, ,
-10, ,15, ,
-10, ,15, ,
-9, ,15, ,
-9, ,15, ,
-9, ,15, ,
-9, ,15, ,
-8, ,15, ,
-6, ,15, ,
-5, ,15, ,
-4, ,15, ,
-2, ,15, ,
-1, ,15, ,
1, ,15, ,
1, ,15, ,
4, ,15, ,
6, ,15, ,
6, ,15, ,
7, ,15, ,
9, ,15, ,
9, ,15, ,
9, ,15, ,
9, ,15, ,
8, ,15, ,
7, ,15, ,
7, ,15, ,
6, ,15, ,
4, ,15, ,
3, ,15, ,
2, ,15, ,
1, ,15, ,
-2, ,15, ,
-3, ,15, ,
-4, ,15, ,
-5, ,15, ,
-6, ,15, ,
-7, ,15, ,
-7, ,15, ,
-8, ,15, ,
-7, ,15, ,
-7, ,15, ,
-7, ,15, ,
-7, ,15, ,
-6, ,15, ,
-6, ,15, ,
-4, ,15, ,
-4, ,15, ,
-2, ,15, ,
-1, ,15, ,
0, ,15, ,
2, ,15, ,
4, ,15, ,
4, ,15, ,
5, ,15, ,
6, ,15, ,
6, ,15, ,
7, ,15, ,
7, ,15, ,
7, ,15, ,
6, ,15, ,
6, ,15, ,
6, ,15, ,
5, ,15, ,
4, ,15, ,
3, ,15, ,
2, ,15, ,
2, ,15, ,
0, ,15, ,
0, ,15, ,
-1, ,15, ,
-2, ,15, ,
-3, ,15, ,
-3, ,15, ,
-4, ,15, ,
-4, ,15, ,
-4, ,15, ,
-4, ,15, ,
-5, ,15, ,
-5, ,15, ,
-5, ,15, ,
-5, ,15, ,
-5, ,15, ,
-5, ,15, ,
-4, ,15, ,
-4, ,15, ,
-4, ,15, ,
-4, ,15, ,
-2, ,15, ,
-1, ,15, ,
-2, ,15, ,
0, ,15, ,
1, ,15, ,
1, ,15, ,
1, ,15, ,
1, ,15, ,
2, ,15, ,
2, ,15, ,
2, ,15, ,
1, ,15, ,
1, ,15, ,
0, ,15, ,
-1, ,15, ,
-3, ,15, ,
-5, ,15, ,
-6, ,15, ,
-7, ,15, ,
-8, ,15, ,
-9, ,15, ,
-9, ,15, ,
-9, ,15, ,
-9, ,15, ,
-8, ,15, ,
-7, ,15, ,
-6, ,15, ,
-4, ,15, ,
0, ,15, ,
2, ,15, ,
4, ,15, ,
5, ,15, ,
10, ,15, ,
12, ,15, ,
14, ,15, ,
16, ,15, ,
17, ,15, ,
18, ,15, ,
18, ,15, ,
17, ,15, ,
16, ,15, ,
16, ,15, ,
14, ,15, ,
13, ,15, ,
11, ,15, ,
9, ,15, ,
8, ,15, ,
6, ,15, ,
3, ,15, ,
1, ,15, ,
-1, ,15, ,
-1, ,15, ,
-4, ,15, ,
-5, ,15, ,
-5, ,15, ,
-6, ,15, ,
-6, ,15, ,
-7, ,15, ,
-7, ,15, ,
-7, ,15, ,
-6, ,15, ,
-6, ,15, ,
-6, ,15, ,
-5, ,15, ,
-4, ,15, ,
-2, ,15, ,
-2, ,15, ,
-1, ,15, ,
0, ,15, ,
0, ,15, ,
1, ,15, ,
1, ,15, ,
0, ,15, ,
0, ,15, ,
0, ,15, ,
1, ,15, ,
0, ,15, ,
-2, ,15, ,
-2, ,15, ,
-2, ,15, ,
-3, ,15, ,
-3, ,15, ,
-4, ,15, ,
-4, ,15, ,
-5, ,15, ,
-5, ,15, ,
-5, ,15, ,
-5, ,15, ,
-5, ,15, ,
-5, ,15, ,
-5, ,15, ,
-5, ,15, ,
-3, ,15, ,
-4, ,15, ,
-2, ,15, ,
-2, ,15, ,
-1, ,15, ,
0, ,15, ,
0, ,15, ,
1, ,15, ,
2, ,15, ,
2, ,15, ,
3, ,15, ,
3, ,15, ,
4, ,15, ,
5, ,15, ,
5, ,15, ,
5, ,15, ,
6, ,15, ,
6, ,15, ,
6, ,15, ,
6, ,15, ,
6, ,15, ,
6, ,15, ,
6, ,15, ,
5, ,15, ,
5, ,15, ,
4, ,15, ,
4, ,15, ,
3, ,15, ,
2, ,15, ,
2, ,15, ,
1, ,15, ,
1, ,15, ,
0, ,15, ,
0, ,15, ,
0, ,15, ,
-1, ,15, ,
-1, ,15, ,
-1, ,15, ,
-1, ,15, ,
-1, ,15, ,
0, ,15, ,
0, ,15, ,
0, ,15, ,
0, ,15, ,
0, ,15, ,
0, ,15, ,
0, ,15, ,
0, ,15, ,
0, ,15, ,
-1, ,15, ,
-1, ,15, ,
-2, ,15, ,
-3, ,15, ,
-3, ,15, ,
-3, ,15, ,
-3, ,15, ,
-4, ,15, ,
-4, ,15, ,
-4, ,15, ,
-5, ,15, ,
-4, ,15, ,
-3, ,15, ,
-3, ,15, ,
-3, ,15, ,
-3, ,15, ,
-3, ,15, ,
-2, ,15, ,
-1, ,15, ,
-1, ,15, ,
0, ,15, ,
0, ,15, ,
1, ,15, ,
1, ,15, ,
2, ,15, ,
3, ,15, ,
3, ,15, ,
4, ,15, ,
4, ,15, ,
4, ,15, ,
4, ,15, ,
4, ,15, ,
3, ,15, ,
3, ,15, ,
3, ,15, ,
2, ,15, ,
1, ,15, ,
0, ,15, ,
0, ,15, ,
-2, ,15, ,
-3, ,15, ,
-4, ,15, ,
-5, ,15, ,
-6, ,15, ,
-6, ,15, ,
-7, ,15, ,
-7, ,15, ,
-7, ,15, ,
-7, ,15, ,
-7, ,15, ,
-7, ,15, ,
-5, ,15, ,
-4, ,15, ,
-4, ,15, ,
-3, ,15, ,
-1, ,15, ,
-1, ,15, ,
0, ,15, ,
0, ,15, ,
1, ,15, ,
1, ,15, ,
1, ,15, ,
2, ,15, ,
1, ,15, ,
1, ,15, ,
1, ,15, ,
1, ,15, ,
1, ,15, ,
1, ,15, ,
1, ,15, ,
1, ,15, ,
1, ,15, ,
1, ,15, ,
2, ,15, ,
2, ,15, ,
3, ,15, ,
3, ,15, ,
3, ,15, ,
4, ,15, ,
5, ,15, ,
6, ,15, ,
6, ,15, ,
6, ,15, ,
7, ,15, ,
7, ,15, ,
7, ,15, ,
7, ,15, ,
6, ,15, ,
6, ,15, ,
5, ,15, ,
5, ,15, ,
4, ,15, ,
4, ,15, ,
3, ,15, ,
3, ,15, ,
2, ,15, ,
1, ,15, ,
1, ,15, ,
0, ,15, ,
-1, ,15, ,
-1, ,15, ,
-1, ,15, ,
-1, ,15, ,
-3, ,15, ,
-3, ,15, ,
-4, ,15, ,
-4, ,15, ,
-5, ,15, ,
-5, ,15, ,
-5, ,15, ,
-5, ,15, ,
-6, ,15, ,
-6, ,15, ,
-6, ,15, ,
-7, ,15, ,
-7, ,15, ,
-6, ,15, ,
-6, ,15, ,
-6, ,15, ,
-6, ,15, ,
-7, ,15, ,
-6, ,15, ,
-6, ,15, ,
-5, ,15, ,
-5, ,15, ,
-5, ,15, ,
-4, ,15, ,
-3, ,15, ,
-3, ,15, ,
-2, ,15, ,
-2, ,15, ,
0, ,15, ,
1, ,15, ,
2, ,15, ,
3, ,15, ,
4, ,15, ,
4, ,15, ,
5, ,15, ,
5, ,15, ,
6, ,15, ,
6, ,15, ,
6, ,15, ,
6, ,15, ,
6, ,15, ,
6, ,15, ,
6, ,15, ,
6, ,15, ,
6, ,15, ,
6, ,15, ,
6, ,15, ,
6, ,15, ,
7, ,15, ,
7, ,15, ,
7, ,15, ,
7, ,15, ,
6, ,15, ,
6, ,15, ,
5, ,15, ,
5, ,15, ,
5, ,15, ,
4, ,15, ,
3, ,15, ,
3, ,15, ,
0, ,15, ,
0, ,15, ,
-2, ,15, ,
