raw_data/75% Glycerol, Impulsion 2Hz, Sonde 5MHz, Rampe 0.7Hz/temp0000238.CSV

Format,1.0B,
Memory Length,10000,Memory Length,10000,
IntpDistance,0,IntpDistance,0,
Trigger Address,159,Trigger Address,159,
Trigger Level,2.720E-01,Trigger Level,2.720E-01,
Source,CH1,Source,CH2,
Vertical Units,V,Vertical Units,V,
Vertical Units Div,0,Vertical Units Div,0,
Vertical Units Extend Div,16,Vertical Units Extend Div,16,
Label,,Label,,
Probe Type,0,Probe Type,0,
Probe Ratio,1.000e+00,Probe Ratio,1.000e+00,
Vertical Scale,5.000e-01,Vertical Scale,2.000e+00,
Vertical Position,0.000e+00,Vertical Position,0.000e+00,
Horizontal Units,S,Horizontal Units,S,
Horizontal Scale,5.000E-06,Horizontal Scale,5.000E-06,
Horizontal Position,2.420E-05,Horizontal Position,2.420E-05,
Horizontal Mode,Main,Horizontal Mode,Main,
SincET Mode,Real Time,SincET Mode,Real Time,
Sampling Period,5.000e-09,Sampling Period,5.000e-09,
Horizontal Old Scale,5.000E-06,Horizontal Old Scale,5.000E-06,
Horizontal Old Position,2.420E-05,Horizontal Old Position,2.420E-05,
Firmware,V1.32,Firmware,V1.32,
Mode,Fast,Mode,Fast,
Waveform Data,,Waveform Data,,
0, ,10, ,
1, ,10, ,
1, ,10, ,
1, ,10, ,
1, ,10, ,
1, ,10, ,
1, ,10, ,
1, ,10, ,
0, ,10, ,
0, ,10, ,
0, ,10, ,
0, ,10, ,
1, ,10, ,
1, ,10, ,
1, ,10, ,
0, ,10, ,
0, ,10, ,
1, ,10, ,
1, ,10, ,
1, ,10, ,
1, ,10, ,
0, ,10, ,
0, ,10, ,
0, ,10, ,
0, ,10, ,
1, ,10, ,
1, ,10, ,
1, ,10, ,
1, ,10, ,
1, ,10, ,
1, ,10, ,
1, ,10, ,
1, ,10, ,
1, ,10, ,
1, ,10, ,
1, ,10, ,
1, ,10, ,
1, ,10, ,
1, ,10, ,
1, ,10, ,
1, ,10, ,
1, ,10, ,
1, ,10, ,
1, ,10, ,
1, ,10, ,
1, ,10, ,
1, ,10, ,
1, ,10, ,
1, ,10, ,
1, ,10, ,
1, ,10, ,
1, ,10, ,
1, ,10, ,
1, ,10, ,
0, ,10, ,
0, ,10, ,
1, ,10, ,
1, ,10, ,
1, ,9, ,
1, ,9, ,
1, ,10, ,
1, ,10, ,
1, ,10, ,
1, ,10, ,
1, ,10, ,
1, ,10, ,
1, ,10, ,
1, ,10, ,
1, ,10, ,
1, ,10, ,
1, ,10, ,
0, ,10, ,
0, ,10, ,
1, ,10, ,
1, ,10, ,
1, ,10, ,
1, ,10, ,
1, ,10, ,
1, ,10, ,
1, ,10, ,
0, ,10, ,
0, ,10, ,
0, ,10, ,
1, ,10, ,
1, ,10, ,
0, ,10, ,
0, ,10, ,
0, ,10, ,
0, ,10, ,
1, ,10, ,
1, ,10, ,
1, ,10, ,
1, ,10, ,
1, ,10, ,
1, ,10, ,
1, ,10, ,
1, ,10, ,
1, ,10, ,
1, ,10, ,
1, ,10, ,
1, ,10, ,
1, ,10, ,
1, ,10, ,
1, ,10, ,
1, ,10, ,
1, ,10, ,
1, ,10, ,
1, ,10, ,
1, ,10, ,
0, ,10, ,
0, ,10, ,
1, ,10, ,
1, ,10, ,
1, ,10, ,
1, ,10, ,
0, ,10, ,
0, ,10, ,
0, ,10, ,
0, ,10, ,
0, ,10, ,
0, ,10, ,
1, ,10, ,
1, ,10, ,
1, ,10, ,
1, ,10, ,
1, ,10, ,
1, ,10, ,
1, ,10, ,
0, ,10, ,
0, ,10, ,
0, ,10, ,
1, ,10, ,
1, ,10, ,
1, ,10, ,
1, ,10, ,
1, ,10, ,
1, ,10, ,
1, ,10, ,
0, ,10, ,
0, ,10, ,
0, ,10, ,
0, ,10, ,
1, ,10, ,
0, ,10, ,
0, ,10, ,
1, ,10, ,
1, ,10, ,
1, ,10, ,
1, ,10, ,
1, ,10, ,
1, ,10, ,
1, ,10, ,
0, ,10, ,
0, ,10, ,
0, ,10, ,
0, ,10, ,
0, ,10, ,
0, ,10, ,
0, ,10, ,
1, ,10, ,
1, ,10, ,
1, ,10, ,
1, ,10, ,
1, ,10, ,
0, ,10, ,
-1, ,10, ,
0, ,10, ,
10, ,10, ,
31, ,10, ,
68, ,10, ,
108, ,10, ,
123, ,10, ,
118, ,10, ,
67, ,10, ,
10, ,10, ,
30, ,10, ,
85, ,10, ,
125, ,10, ,
125, ,10, ,
125, ,10, ,
125, ,10, ,
125, ,10, ,
125, ,10, ,
124, ,10, ,
123, ,10, ,
118, ,10, ,
112, ,10, ,
104, ,10, ,
102, ,10, ,
98, ,10, ,
95, ,10, ,
88, ,10, ,
84, ,10, ,
81, ,10, ,
78, ,10, ,
73, ,10, ,
70, ,10, ,
67, ,10, ,
65, ,10, ,
59, ,10, ,
57, ,10, ,
55, ,10, ,
52, ,10, ,
48, ,10, ,
46, ,10, ,
44, ,10, ,
42, ,10, ,
39, ,10, ,
36, ,10, ,
35, ,10, ,
34, ,10, ,
30, ,10, ,
29, ,10, ,
28, ,10, ,
26, ,10, ,
25, ,10, ,
24, ,10, ,
23, ,10, ,
21, ,10, ,
20, ,10, ,
19, ,10, ,
18, ,10, ,
17, ,10, ,
16, ,10, ,
15, ,10, ,
14, ,10, ,
13, ,10, ,
12, ,10, ,
11, ,10, ,
11, ,10, ,
10, ,10, ,
9, ,10, ,
8, ,10, ,
8, ,10, ,
7, ,10, ,
6, ,10, ,
6, ,10, ,
5, ,10, ,
5, ,10, ,
5, ,10, ,
4, ,10, ,
4, ,10, ,
4, ,10, ,
3, ,10, ,
3, ,10, ,
2, ,10, ,
2, ,10, ,
2, ,10, ,
2, ,10, ,
2, ,10, ,
2, ,10, ,
1, ,10, ,
1, ,10, ,
1, ,10, ,
1, ,10, ,
0, ,10, ,
0, ,10, ,
0, ,10, ,
0, ,10, ,
0, ,10, ,
0, ,10, ,
0, ,10, ,
0, ,10, ,
-1, ,10, ,
-1, ,10, ,
-1, ,10, ,
-1, ,10, ,
-1, ,10, ,
-1, ,10, ,
-1, ,10, ,
-1, ,10, ,
-1, ,10, ,
-1, ,10, ,
-1, ,10, ,
-1, ,10, ,
-1, ,10, ,
-1, ,10, ,
-1, ,10, ,
-1, ,10, ,
-1, ,10, ,
-1, ,10, ,
-1, ,10, ,
-2, ,10, ,
-2, ,10, ,
-1, ,10, ,
-1, ,10, ,
-1, ,10, ,
-1, ,10, ,
-1, ,10, ,
-1, ,10, ,
-1, ,10, ,
-1, ,10, ,
-1, ,10, ,
-1, ,10, ,
-1, ,10, ,
-2, ,10, ,
-2, ,10, ,
-2, ,10, ,
-2, ,10, ,
-1, ,10, ,
-1, ,10, ,
-1, ,10, ,
-1, ,10, ,
-1, ,10, ,
-1, ,10, ,
-1, ,10, ,
-1, ,10, ,
-1, ,10, ,
-1, ,10, ,
-1, ,10, ,
-1, ,10, ,
-1, ,10, ,
-1, ,10, ,
-1, ,10, ,
-1, ,10, ,
-1, ,10, ,
-1, ,10, ,
-1, ,10, ,
-1, ,10, ,
0, ,10, ,
-1, ,10, ,
-1, ,10, ,
-1, ,10, ,
0, ,10, ,
0, ,10, ,
-1, ,10, ,
-1, ,10, ,
0, ,10, ,
-1, ,10, ,
-1, ,10, ,
-1, ,10, ,
0, ,10, ,
0, ,10, ,
0, ,10, ,
0, ,10, ,
0, ,10, ,
0, ,10, ,
0, ,10, ,
0, ,10, ,
0, ,10, ,
0, ,10, ,
0, ,10, ,
0, ,10, ,
0, ,10, ,
0, ,10, ,
0, ,10, ,
0, ,10, ,
0, ,10, ,
0, ,10, ,
0, ,10, ,
0, ,10, ,
0, ,10, ,
0, ,10, ,
0, ,10, ,
0, ,10, ,
0, ,10, ,
0, ,10, ,
0, ,10, ,
0, ,10, ,
0, ,10, ,
0, ,10, ,
0, ,10, ,
0, ,10, ,
0, ,10, ,
0, ,10, ,
0, ,10, ,
0, ,10, ,
0, ,10, ,
0, ,10, ,
0, ,10, ,
0, ,10, ,
0, ,10, ,
0, ,10, ,
0, ,10, ,
0, ,10, ,
0, ,10, ,
0, ,10, ,
0, ,10, ,
0, ,10, ,
0, ,10, ,
0, ,10, ,
0, ,10, ,
1, ,10, ,
0, ,10, ,
0, ,10, ,
0, ,10, ,
0, ,10, ,
0, ,10, ,
0, ,10, ,
0, ,10, ,
0, ,10, ,
0, ,10, ,
0, ,10, ,
0, ,10, ,
0, ,10, ,
0, ,10, ,
0, ,10, ,
0, ,10, ,
0, ,10, ,
1, ,10, ,
1, ,10, ,
1, ,10, ,
1, ,10, ,
1, ,10, ,
1, ,10, ,
0, ,10, ,
0, ,10, ,
0, ,10, ,
0, ,10, ,
0, ,10, ,
0, ,10, ,
0, ,10, ,
0, ,10, ,
0, ,9, ,
0, ,9, ,
0, ,10, ,
0, ,10, ,
0, ,10, ,
0, ,10, ,
0, ,10, ,
1, ,10, ,
0, ,10, ,
0, ,10, ,
0, ,10, ,
0, ,10, ,
0, ,10, ,
0, ,10, ,
0, ,10, ,
0, ,10, ,
0, ,10, ,
0, ,10, ,
0, ,10, ,
0, ,10, ,
0, ,10, ,
0, ,10, ,
-1, ,10, ,
-1, ,10, ,
-1, ,10, ,
-1, ,10, ,
-3, ,10, ,
-4, ,10, ,
-5, ,10, ,
-7, ,10, ,
-11, ,10, ,
-11, ,10, ,
-11, ,10, ,
-11, ,10, ,
-7, ,10, ,
-6, ,10, ,
-4, ,10, ,
-2, ,10, ,
-1, ,10, ,
1, ,10, ,
1, ,10, ,
2, ,10, ,
2, ,10, ,
3, ,10, ,
3, ,10, ,
3, ,10, ,
3, ,10, ,
3, ,10, ,
2, ,10, ,
2, ,10, ,
1, ,10, ,
0, ,10, ,
0, ,10, ,
0, ,10, ,
0, ,10, ,
0, ,10, ,
0, ,10, ,
0, ,10, ,
1, ,10, ,
1, ,10, ,
1, ,10, ,
1, ,10, ,
2, ,10, ,
2, ,10, ,
2, ,10, ,
2, ,10, ,
2, ,10, ,
1, ,10, ,
1, ,10, ,
1, ,10, ,
0, ,10, ,
0, ,10, ,
0, ,10, ,
0, ,10, ,
0, ,10, ,
0, ,10, ,
1, ,10, ,
1, ,10, ,
1, ,10, ,
1, ,10, ,
1, ,10, ,
2, ,10, ,
2, ,10, ,
2, ,10, ,
2, ,10, ,
2, ,10, ,
2, ,10, ,
2, ,10, ,
2, ,10, ,
2, ,10, ,
2, ,10, ,
2, ,10, ,
2, ,10, ,
2, ,10, ,
2, ,10, ,
2, ,10, ,
2, ,10, ,
2, ,10, ,
2, ,10, ,
2, ,10, ,
2, ,10, ,
2, ,10, ,
1, ,10, ,
1, ,10, ,
0, ,10, ,
0, ,10, ,
-1, ,10, ,
-2, ,10, ,
-3, ,10, ,
-4, ,10, ,
-8, ,10, ,
-10, ,10, ,
-13, ,10, ,
-16, ,10, ,
-20, ,10, ,
-23, ,10, ,
-23, ,10, ,
-23, ,10, ,
-22, ,10, ,
-21, ,10, ,
-20, ,10, ,
-18, ,10, ,
-15, ,10, ,
-13, ,10, ,
-12, ,10, ,
-12, ,10, ,
-12, ,10, ,
-12, ,10, ,
-14, ,10, ,
-14, ,10, ,
-16, ,10, ,
-18, ,10, ,
-19, ,10, ,
-19, ,10, ,
-19, ,10, ,
-19, ,10, ,
-18, ,10, ,
-17, ,10, ,
-17, ,10, ,
-17, ,10, ,
-17, ,10, ,
-18, ,10, ,
-19, ,10, ,
-20, ,10, ,
-23, ,10, ,
-24, ,10, ,
-28, ,10, ,
-30, ,10, ,
-32, ,10, ,
-35, ,10, ,
-37, ,10, ,
-37, ,10, ,
-37, ,10, ,
-36, ,10, ,
-34, ,10, ,
-31, ,10, ,
-29, ,10, ,
-27, ,10, ,
-23, ,10, ,
-19, ,10, ,
-18, ,10, ,
-15, ,10, ,
-10, ,10, ,
-8, ,10, ,
-6, ,10, ,
-4, ,10, ,
0, ,10, ,
2, ,10, ,
3, ,10, ,
6, ,10, ,
10, ,10, ,
11, ,10, ,
14, ,10, ,
15, ,10, ,
17, ,10, ,
18, ,10, ,
18, ,10, ,
18, ,10, ,
18, ,10, ,
16, ,10, ,
16, ,10, ,
15, ,10, ,
12, ,10, ,
10, ,10, ,
8, ,10, ,
7, ,10, ,
4, ,10, ,
2, ,10, ,
1, ,10, ,
0, ,10, ,
0, ,10, ,
2, ,10, ,
2, ,10, ,
3, ,10, ,
5, ,10, ,
5, ,10, ,
6, ,10, ,
7, ,10, ,
8, ,10, ,
8, ,10, ,
8, ,10, ,
8, ,10, ,
6, ,10, ,
5, ,10, ,
4, ,10, ,
3, ,10, ,
0, ,10, ,
-1, ,10, ,
-3, ,10, ,
-5, ,10, ,
-7, ,10, ,
-8, ,10, ,
-8, ,10, ,
-8, ,10, ,
-8, ,10, ,
-8, ,10, ,
-8, ,10, ,
-7, ,10, ,
-6, ,10, ,
-5, ,10, ,
-5, ,10, ,
-5, ,10, ,
-4, ,10, ,
-4, ,10, ,
-5, ,10, ,
-5, ,10, ,
-6, ,10, ,
-7, ,10, ,
-9, ,10, ,
-9, ,10, ,
-12, ,10, ,
-12, ,10, ,
-14, ,10, ,
-14, ,10, ,
-15, ,10, ,
-16, ,10, ,
-16, ,10, ,
-17, ,10, ,
-17, ,10, ,
-17, ,10, ,
-18, ,10, ,
-18, ,10, ,
-18, ,10, ,
-18, ,10, ,
-18, ,10, ,
-18, ,10, ,
-16, ,10, ,
-15, ,10, ,
-13, ,10, ,
-12, ,10, ,
-9, ,10, ,
-7, ,10, ,
-7, ,10, ,
-5, ,10, ,
-3, ,10, ,
-3, ,10, ,
-3, ,10, ,
-4, ,10, ,
-5, ,10, ,
-6, ,10, ,
-6, ,10, ,
-7, ,10, ,
-10, ,10, ,
-10, ,10, ,
-11, ,10, ,
-12, ,10, ,
-13, ,10, ,
-12, ,10, ,
-12, ,10, ,
-12, ,10, ,
-11, ,10, ,
-9, ,10, ,
-9, ,10, ,
-7, ,10, ,
-4, ,10, ,
-3, ,10, ,
-1, ,10, ,
1, ,10, ,
3, ,10, ,
4, ,10, ,
4, ,10, ,
4, ,10, ,
3, ,10, ,
2, ,10, ,
2, ,10, ,
0, ,10, ,
-4, ,10, ,
-6, ,10, ,
-9, ,10, ,
-11, ,10, ,
-14, ,10, ,
-16, ,10, ,
-18, ,10, ,
-18, ,10, ,
-18, ,10, ,
-18, ,10, ,
-18, ,10, ,
-17, ,10, ,
-15, ,10, ,
-14, ,10, ,
-12, ,10, ,
-11, ,10, ,
-8, ,10, ,
-7, ,10, ,
-6, ,10, ,
-4, ,10, ,
-2, ,10, ,
-2, ,10, ,
-1, ,10, ,
-1, ,10, ,
-1, ,10, ,
0, ,10, ,
0, ,10, ,
0, ,10, ,
0, ,10, ,
0, ,10, ,
2, ,10, ,
2, ,10, ,
4, ,10, ,
6, ,10, ,
7, ,10, ,
9, ,10, ,
13, ,10, ,
14, ,10, ,
16, ,10, ,
17, ,10, ,
19, ,10, ,
20, ,10, ,
19, ,10, ,
19, ,10, ,
18, ,10, ,
17, ,10, ,
16, ,10, ,
15, ,10, ,
11, ,10, ,
9, ,10, ,
8, ,10, ,
6, ,10, ,
3, ,10, ,
1, ,10, ,
-1, ,10, ,
-2, ,10, ,
-5, ,10, ,
-6, ,10, ,
-7, ,10, ,
-8, ,10, ,
-10, ,10, ,
-11, ,10, ,
-11, ,10, ,
-11, ,10, ,
-12, ,10, ,
-12, ,10, ,
-12, ,10, ,
-12, ,10, ,
-11, ,10, ,
-11, ,10, ,
-10, ,10, ,
-10, ,10, ,
-9, ,10, ,
-9, ,10, ,
-9, ,10, ,
-9, ,10, ,
-10, ,10, ,
-11, ,10, ,
-11, ,10, ,
-12, ,10, ,
-15, ,10, ,
-15, ,10, ,
-16, ,10, ,
-18, ,10, ,
-20, ,10, ,
-22, ,10, ,
-23, ,10, ,
-25, ,10, ,
-27, ,10, ,
-28, ,10, ,
-29, ,10, ,
-30, ,10, ,
-32, ,10, ,
-32, ,10, ,
-32, ,10, ,
-32, ,10, ,
-32, ,10, ,
-32, ,10, ,
-32, ,10, ,
-30, ,10, ,
-29, ,10, ,
-28, ,10, ,
-27, ,10, ,
-26, ,10, ,
-24, ,10, ,
-22, ,10, ,
-21, ,10, ,
-18, ,10, ,
-14, ,10, ,
-12, ,10, ,
-9, ,10, ,
-8, ,10, ,
-3, ,10, ,
0, ,10, ,
2, ,10, ,
4, ,10, ,
9, ,10, ,
10, ,10, ,
11, ,10, ,
12, ,10, ,
15, ,10, ,
16, ,10, ,
16, ,10, ,
16, ,10, ,
16, ,10, ,
17, ,10, ,
17, ,10, ,
16, ,10, ,
15, ,10, ,
15, ,10, ,
14, ,10, ,
13, ,10, ,
12, ,10, ,
10, ,10, ,
9, ,10, ,
8, ,10, ,
5, ,10, ,
5, ,10, ,
2, ,10, ,
2, ,10, ,
1, ,10, ,
0, ,10, ,
0, ,10, ,
0, ,10, ,
1, ,10, ,
1, ,10, ,
2, ,10, ,
3, ,10, ,
5, ,10, ,
6, ,10, ,
7, ,10, ,
8, ,10, ,
11, ,10, ,
12, ,10, ,
13, ,10, ,
14, ,10, ,
14, ,10, ,
13, ,10, ,
13, ,10, ,
12, ,10, ,
10, ,10, ,
9, ,10, ,
6, ,10, ,
5, ,10, ,
0, ,10, ,
-3, ,10, ,
-4, ,10, ,
-7, ,10, ,
-11, ,10, ,
-13, ,10, ,
-15, ,10, ,
-15, ,10, ,
-17, ,10, ,
-18, ,10, ,
-18, ,10, ,
-18, ,10, ,
-17, ,10, ,
-16, ,10, ,
-16, ,10, ,
-15, ,10, ,
-14, ,10, ,
-14, ,10, ,
-14, ,10, ,
-14, ,10, ,
-13, ,10, ,
-13, ,10, ,
-13, ,10, ,
-13, ,10, ,
-13, ,10, ,
-14, ,10, ,
-14, ,10, ,
-14, ,10, ,
-14, ,10, ,
-14, ,10, ,
-14, ,10, ,
-13, ,10, ,
-13, ,10, ,
-13, ,10, ,
-12, ,10, ,
-12, ,10, ,
-11, ,10, ,
-11, ,10, ,
-10, ,10, ,
-10, ,10, ,
-9, ,10, ,
-9, ,10, ,
-9, ,10, ,
-9, ,10, ,
-8, ,10, ,
-7, ,10, ,
-7, ,10, ,
-7, ,10, ,
-6, ,10, ,
-6, ,10, ,
-5, ,10, ,
-5, ,10, ,
-4, ,10, ,
-4, ,10, ,
-4, ,10, ,
-3, ,10, ,
-3, ,10, ,
-3, ,10, ,
-2, ,10, ,
-3, ,10, ,
-4, ,10, ,
-4, ,10, ,
-5, ,10, ,
-6, ,10, ,
-7, ,10, ,
-8, ,10, ,
-9, ,10, ,
-10, ,10, ,
-11, ,10, ,
-11, ,10, ,
-11, ,10, ,
-11, ,10, ,
-10, ,10, ,
-11, ,10, ,
-9, ,10, ,
-9, ,10, ,
-6, ,10, ,
-4, ,10, ,
-3, ,10, ,
-1, ,10, ,
3, ,10, ,
4, ,10, ,
6, ,10, ,
7, ,10, ,
9, ,10, ,
10, ,10, ,
9, ,10, ,
9, ,10, ,
8, ,10, ,
7, ,10, ,
6, ,10, ,
4, ,10, ,
-1, ,10, ,
-2, ,10, ,
-5, ,10, ,
-7, ,10, ,
-10, ,10, ,
-13, ,10, ,
-15, ,10, ,
-16, ,10, ,
-18, ,10, ,
-19, ,10, ,
-19, ,10, ,
-18, ,10, ,
-17, ,10, ,
-17, ,10, ,
-15, ,10, ,
-14, ,10, ,
-11, ,10, ,
-9, ,10, ,
-7, ,10, ,
-5, ,10, ,
-1, ,10, ,
0, ,10, ,
2, ,10, ,
4, ,10, ,
8, ,10, ,
10, ,10, ,
11, ,10, ,
13, ,10, ,
15, ,10, ,
16, ,10, ,
17, ,10, ,
18, ,10, ,
18, ,10, ,
18, ,10, ,
17, ,10, ,
16, ,10, ,
14, ,10, ,
12, ,10, ,
11, ,10, ,
9, ,10, ,
5, ,10, ,
3, ,10, ,
1, ,10, ,
-1, ,10, ,
-5, ,10, ,
-7, ,10, ,
-8, ,10, ,
-10, ,10, ,
-11, ,10, ,
-11, ,10, ,
-11, ,10, ,
-11, ,10, ,
-10, ,10, ,
-10, ,10, ,
-9, ,10, ,
-9, ,10, ,
-7, ,10, ,
-7, ,10, ,
-6, ,10, ,
-4, ,10, ,
-3, ,10, ,
-2, ,10, ,
-1, ,10, ,
-1, ,10, ,
1, ,10, ,
1, ,10, ,
1, ,10, ,
1, ,10, ,
1, ,10, ,
0, ,10, ,
0, ,10, ,
-1, ,10, ,
-3, ,10, ,
-3, ,10, ,
-4, ,10, ,
-5, ,10, ,
-7, ,10, ,
-9, ,10, ,
-9, ,10, ,
-10, ,10, ,
-10, ,10, ,
-10, ,10, ,
-10, ,10, ,
-10, ,10, ,
-9, ,10, ,
-8, ,10, ,
-7, ,10, ,
-7, ,10, ,
-5, ,10, ,
-4, ,10, ,
-3, ,10, ,
-2, ,10, ,
0, ,10, ,
0, ,10, ,
1, ,10, ,
1, ,10, ,
2, ,10, ,
3, ,10, ,
3, ,10, ,
4, ,10, ,
4, ,10, ,
4, ,10, ,
5, ,10, ,
5, ,10, ,
6, ,10, ,
6, ,10, ,
6, ,10, ,
6, ,10, ,
6, ,10, ,
5, ,10, ,
5, ,10, ,
5, ,10, ,
5, ,10, ,
5, ,10, ,
4, ,10, ,
4, ,10, ,
3, ,10, ,
3, ,10, ,
3, ,10, ,
2, ,10, ,
1, ,10, ,
1, ,10, ,
0, ,10, ,
0, ,10, ,
-1, ,10, ,
-2, ,10, ,
-2, ,10, ,
-3, ,10, ,
-3, ,10, ,
-3, ,10, ,
-4, ,10, ,
-4, ,10, ,
-4, ,10, ,
-5, ,10, ,
-5, ,10, ,
-5, ,10, ,
-5, ,10, ,
-4, ,10, ,
-3, ,10, ,
-3, ,10, ,
-2, ,10, ,
-2, ,10, ,
-1, ,10, ,
-1, ,10, ,
-1, ,10, ,
0, ,10, ,
0, ,10, ,
0, ,10, ,
0, ,10, ,
0, ,10, ,
0, ,10, ,
0, ,10, ,
-1, ,10, ,
-1, ,10, ,
-2, ,10, ,
-2, ,10, ,
-4, ,10, ,
-5, ,10, ,
-5, ,10, ,
-7, ,10, ,
-8, ,10, ,
-9, ,10, ,
-10, ,10, ,
-10, ,10, ,
-12, ,10, ,
-12, ,10, ,
-12, ,10, ,
-12, ,10, ,
-12, ,10, ,
-12, ,10, ,
-12, ,10, ,
-11, ,10, ,
-9, ,10, ,
-9, ,10, ,
-7, ,10, ,
-6, ,10, ,
-3, ,10, ,
-1, ,10, ,
-1, ,10, ,
1, ,10, ,
3, ,10, ,
4, ,10, ,
5, ,10, ,
5, ,10, ,
7, ,10, ,
9, ,10, ,
9, ,10, ,
10, ,10, ,
11, ,10, ,
12, ,10, ,
13, ,10, ,
12, ,10, ,
12, ,10, ,
12, ,10, ,
11, ,10, ,
10, ,10, ,
8, ,10, ,
7, ,10, ,
6, ,10, ,
3, ,10, ,
0, ,10, ,
-1, ,10, ,
-4, ,10, ,
-5, ,10, ,
-8, ,10, ,
-9, ,10, ,
-9, ,10, ,
-9, ,10, ,
-9, ,10, ,
-8, ,10, ,
-8, ,10, ,
-6, ,10, ,
-4, ,10, ,
-2, ,10, ,
-1, ,10, ,
1, ,10, ,
3, ,10, ,
5, ,10, ,
6, ,10, ,
7, ,10, ,
8, ,10, ,
8, ,10, ,
8, ,10, ,
8, ,10, ,
7, ,10, ,
7, ,10, ,
6, ,10, ,
6, ,10, ,
4, ,10, ,
3, ,10, ,
2, ,10, ,
0, ,10, ,
-2, ,10, ,
-3, ,10, ,
-4, ,10, ,
-5, ,10, ,
-7, ,10, ,
-8, ,10, ,
-9, ,10, ,
-10, ,10, ,
-10, ,10, ,
-11, ,10, ,
-11, ,10, ,
-11, ,10, ,
-10, ,10, ,
-10, ,10, ,
-9, ,10, ,
-8, ,10, ,
-7, ,10, ,
-6, ,10, ,
-6, ,10, ,
-5, ,10, ,
-4, ,10, ,
-4, ,10, ,
-4, ,10, ,
-5, ,10, ,
-5, ,10, ,
-5, ,10, ,
-6, ,10, ,
-6, ,10, ,
-6, ,10, ,
-8, ,10, ,
-8, ,10, ,
-8, ,10, ,
-9, ,10, ,
-9, ,10, ,
-9, ,9, ,
-9, ,9, ,
-8, ,10, ,
-8, ,10, ,
-7, ,10, ,
-6, ,10, ,
-5, ,10, ,
-4, ,10, ,
-4, ,10, ,
-3, ,10, ,
-2, ,10, ,
-1, ,10, ,
0, ,10, ,
0, ,10, ,
1, ,10, ,
1, ,10, ,
1, ,10, ,
2, ,10, ,
3, ,10, ,
3, ,10, ,
3, ,10, ,
2, ,10, ,
2, ,10, ,
3, ,10, ,
3, ,10, ,
4, ,10, ,
4, ,10, ,
4, ,10, ,
4, ,10, ,
4, ,10, ,
5, ,10, ,
5, ,10, ,
4, ,10, ,
4, ,10, ,
3, ,10, ,
3, ,10, ,
2, ,10, ,
2, ,10, ,
1, ,10, ,
0, ,10, ,
-1, ,10, ,
-1, ,10, ,
-2, ,10, ,
-3, ,10, ,
-3, ,10, ,
-4, ,10, ,
-6, ,10, ,
-6, ,10, ,
-6, ,10, ,
-6, ,10, ,
-7, ,10, ,
-7, ,10, ,
-7, ,10, ,
-6, ,10, ,
-6, ,10, ,
-5, ,10, ,
-6, ,10, ,
-4, ,10, ,
-3, ,10, ,
-3, ,10, ,
-2, ,10, ,
-2, ,10, ,
-2, ,10, ,
-2, ,10, ,
-3, ,10, ,
-3, ,10, ,
-3, ,10, ,
-4, ,10, ,
-4, ,10, ,
-4, ,10, ,
-4, ,10, ,
-4, ,10, ,
-4, ,10, ,
-4, ,10, ,
-3, ,10, ,
-3, ,10, ,
-2, ,10, ,
-1, ,10, ,
2, ,10, ,
3, ,10, ,
4, ,10, ,
6, ,10, ,
8, ,10, ,
8, ,10, ,
9, ,10, ,
9, ,10, ,
8, ,10, ,
8, ,10, ,
7, ,10, ,
6, ,10, ,
4, ,10, ,
2, ,10, ,
1, ,10, ,
-1, ,10, ,
-4, ,10, ,
-5, ,10, ,
-7, ,10, ,
-8, ,10, ,
-11, ,10, ,
-11, ,10, ,
-11, ,10, ,
-11, ,10, ,
-11, ,10, ,
-10, ,10, ,
-10, ,10, ,
-9, ,10, ,
-7, ,10, ,
-6, ,10, ,
-5, ,10, ,
-4, ,10, ,
-1, ,10, ,
0, ,10, ,
2, ,10, ,
4, ,10, ,
6, ,10, ,
6, ,10, ,
8, ,10, ,
9, ,10, ,
10, ,10, ,
11, ,10, ,
11, ,10, ,
11, ,10, ,
10, ,10, ,
9, ,10, ,
9, ,10, ,
8, ,10, ,
7, ,10, ,
7, ,10, ,
6, ,10, ,
5, ,10, ,
4, ,10, ,
3, ,10, ,
3, ,10, ,
1, ,10, ,
1, ,10, ,
1, ,10, ,
0, ,10, ,
-1, ,10, ,
-1, ,10, ,
-1, ,10, ,
-1, ,10, ,
-1, ,10, ,
-1, ,10, ,
-2, ,10, ,
-2, ,10, ,
-2, ,10, ,
-2, ,10, ,
-2, ,10, ,
-3, ,10, ,
-3, ,10, ,
-4, ,10, ,
-4, ,10, ,
-4, ,10, ,
-3, ,10, ,
-3, ,10, ,
-3, ,10, ,
-3, ,10, ,
-3, ,10, ,
-2, ,10, ,
-1, ,10, ,
-1, ,10, ,
0, ,10, ,
1, ,10, ,
1, ,10, ,
2, ,10, ,
2, ,10, ,
2, ,10, ,
2, ,10, ,
2, ,10, ,
1, ,10, ,
0, ,10, ,
0, ,10, ,
-1, ,10, ,
-1, ,10, ,
-3, ,10, ,
-3, ,10, ,
-3, ,10, ,
-4, ,10, ,
-4, ,10, ,
-4, ,10, ,
-3, ,10, ,
-3, ,10, ,
-2, ,10, ,
-1, ,10, ,
-1, ,10, ,
0, ,10, ,
2, ,10, ,
2, ,10, ,
3, ,10, ,
3, ,10, ,
4, ,10, ,
4, ,10, ,
4, ,10, ,
4, ,10, ,
3, ,10, ,
2, ,10, ,
2, ,10, ,
1, ,10, ,
0, ,10, ,
-1, ,10, ,
-2, ,10, ,
-2, ,10, ,
-4, ,10, ,
-5, ,10, ,
-5, ,10, ,
-6, ,10, ,
-7, ,10, ,
-8, ,10, ,
-8, ,10, ,
-8, ,10, ,
-8, ,10, ,
-8, ,10, ,
-7, ,10, ,
-6, ,10, ,
-5, ,10, ,
-4, ,10, ,
-3, ,10, ,
-2, ,10, ,
1, ,10, ,
3, ,10, ,
4, ,10, ,
5, ,10, ,
8, ,10, ,
10, ,10, ,
10, ,10, ,
12, ,10, ,
12, ,10, ,
12, ,10, ,
12, ,10, ,
11, ,10, ,
10, ,10, ,
10, ,10, ,
9, ,10, ,
7, ,10, ,
5, ,10, ,
3, ,10, ,
2, ,10, ,
0, ,10, ,
-3, ,10, ,
-3, ,10, ,
-5, ,10, ,
-6, ,10, ,
-7, ,10, ,
-8, ,10, ,
-8, ,10, ,
-8, ,10, ,
-9, ,10, ,
-9, ,10, ,
-9, ,10, ,
-8, ,10, ,
-8, ,10, ,
-8, ,10, ,
-7, ,10, ,
-7, ,10, ,
-6, ,10, ,
-6, ,10, ,
-5, ,10, ,
-4, ,10, ,
-3, ,10, ,
-3, ,10, ,
-2, ,10, ,
-1, ,10, ,
1, ,10, ,
2, ,10, ,
2, ,10, ,
3, ,10, ,
5, ,10, ,
5, ,10, ,
5, ,10, ,
5, ,10, ,
4, ,10, ,
4, ,10, ,
3, ,10, ,
3, ,10, ,
1, ,10, ,
0, ,10, ,
-1, ,10, ,
-2, ,10, ,
-4, ,10, ,
-4, ,10, ,
-4, ,10, ,
-4, ,10, ,
-3, ,10, ,
-3, ,10, ,
-2, ,10, ,
-1, ,10, ,
1, ,10, ,
2, ,10, ,
3, ,10, ,
4, ,10, ,
7, ,10, ,
8, ,10, ,
9, ,10, ,
10, ,10, ,
10, ,10, ,
10, ,10, ,
10, ,10, ,
10, ,10, ,
9, ,10, ,
8, ,10, ,
7, ,10, ,
6, ,10, ,
4, ,10, ,
3, ,10, ,
2, ,10, ,
1, ,10, ,
0, ,10, ,
-1, ,10, ,
-2, ,10, ,
-2, ,10, ,
-2, ,10, ,
-2, ,10, ,
-2, ,10, ,
-2, ,10, ,
-1, ,10, ,
0, ,10, ,
0, ,10, ,
0, ,10, ,
1, ,10, ,
2, ,10, ,
2, ,10, ,
2, ,10, ,
2, ,10, ,
1, ,10, ,
1, ,10, ,
0, ,10, ,
-1, ,10, ,
-1, ,10, ,
-2, ,10, ,
-3, ,10, ,
-4, ,10, ,
-6, ,10, ,
-6, ,10, ,
-6, ,10, ,
-7, ,10, ,
-7, ,10, ,
-6, ,10, ,
-6, ,10, ,
-5, ,10, ,
-4, ,10, ,
-3, ,10, ,
-3, ,10, ,
0, ,10, ,
1, ,10, ,
2, ,10, ,
4, ,10, ,
5, ,10, ,
5, ,10, ,
6, ,10, ,
6, ,10, ,
6, ,10, ,
6, ,10, ,
5, ,10, ,
5, ,10, ,
4, ,10, ,
3, ,10, ,
2, ,10, ,
1, ,10, ,
-1, ,10, ,
-1, ,10, ,
-1, ,10, ,
-2, ,10, ,
-3, ,10, ,
-3, ,10, ,
-2, ,10, ,
-2, ,10, ,
-2, ,10, ,
-2, ,10, ,
-1, ,10, ,
-1, ,10, ,
-1, ,10, ,
-1, ,10, ,
-1, ,10, ,
-1, ,10, ,
-1, ,10, ,
-1, ,10, ,
-1, ,10, ,
-1, ,10, ,
-1, ,10, ,
-1, ,10, ,
-1, ,10, ,
-1, ,10, ,
-1, ,10, ,
0, ,10, ,
0, ,10, ,
-1, ,10, ,
-1, ,10, ,
-1, ,10, ,
-1, ,10, ,
-1, ,10, ,
0, ,10, ,
0, ,10, ,
0, ,10, ,
0, ,10, ,
1, ,10, ,
1, ,10, ,
2, ,10, ,
2, ,10, ,
3, ,10, ,
4, ,10, ,
4, ,10, ,
5, ,10, ,
6, ,10, ,
6, ,10, ,
6, ,10, ,
6, ,10, ,
6, ,10, ,
6, ,10, ,
5, ,10, ,
5, ,10, ,
4, ,10, ,
2, ,10, ,
2, ,10, ,
0, ,10, ,
-1, ,10, ,
-2, ,10, ,
-3, ,10, ,
-4, ,10, ,
-5, ,10, ,
-6, ,10, ,
-6, ,10, ,
-7, ,10, ,
-7, ,10, ,
-7, ,10, ,
-7, ,10, ,
-6, ,10, ,
-5, ,10, ,
-5, ,10, ,
-5, ,10, ,
-4, ,10, ,
-2, ,10, ,
-1, ,10, ,
-1, ,10, ,
0, ,10, ,
2, ,10, ,
2, ,10, ,
3, ,10, ,
3, ,10, ,
4, ,10, ,
4, ,10, ,
4, ,10, ,
4, ,10, ,
3, ,10, ,
2, ,10, ,
2, ,10, ,
1, ,10, ,
0, ,10, ,
0, ,10, ,
-1, ,10, ,
-1, ,10, ,
-2, ,10, ,
-3, ,10, ,
-3, ,10, ,
-3, ,10, ,
-2, ,10, ,
-2, ,10, ,
-2, ,10, ,
-2, ,10, ,
0, ,10, ,
0, ,10, ,
1, ,10, ,
1, ,10, ,
2, ,10, ,
3, ,10, ,
3, ,10, ,
3, ,10, ,
2, ,10, ,
2, ,10, ,
2, ,10, ,
1, ,10, ,
0, ,10, ,
0, ,10, ,
-1, ,10, ,
-1, ,10, ,
-3, ,10, ,
-3, ,10, ,
-3, ,10, ,
-4, ,10, ,
-4, ,10, ,
-4, ,10, ,
-4, ,10, ,
-4, ,10, ,
-3, ,10, ,
-3, ,10, ,
-2, ,10, ,
-2, ,10, ,
0, ,10, ,
1, ,10, ,
0, ,10, ,
2, ,10, ,
3, ,10, ,
3, ,10, ,
3, ,10, ,
3, ,10, ,
3, ,10, ,
4, ,10, ,
3, ,10, ,
3, ,10, ,
2, ,10, ,
1, ,10, ,
1, ,10, ,
0, ,10, ,
-2, ,10, ,
-2, ,10, ,
-3, ,10, ,
-3, ,10, ,
-3, ,10, ,
-3, ,10, ,
-3, ,10, ,
-2, ,10, ,
-1, ,10, ,
0, ,10, ,
1, ,10, ,
2, ,10, ,
3, ,10, ,
5, ,10, ,
6, ,10, ,
6, ,10, ,
7, ,10, ,
8, ,10, ,
7, ,10, ,
7, ,10, ,
6, ,10, ,
5, ,10, ,
5, ,10, ,
4, ,10, ,
2, ,9, ,
0, ,9, ,
-1, ,9, ,
-2, ,10, ,
-4, ,10, ,
-6, ,10, ,
-6, ,10, ,
-6, ,10, ,
-6, ,10, ,
-6, ,10, ,
-5, ,10, ,
-5, ,10, ,
-4, ,10, ,
-2, ,10, ,
-2, ,10, ,
-1, ,10, ,
1, ,10, ,
2, ,10, ,
2, ,10, ,
3, ,10, ,
4, ,10, ,
4, ,10, ,
4, ,10, ,
3, ,10, ,
3, ,10, ,
3, ,10, ,
2, ,10, ,
