raw_data/75% Glycerol, Impulsion 2Hz, Sonde 5MHz, Rampe 0.7Hz/temp0000358.CSV

Format,1.0B,
Memory Length,10000,Memory Length,10000,
IntpDistance,0,IntpDistance,0,
Trigger Address,159,Trigger Address,159,
Trigger Level,2.720E-01,Trigger Level,2.720E-01,
Source,CH1,Source,CH2,
Vertical Units,V,Vertical Units,V,
Vertical Units Div,0,Vertical Units Div,0,
Vertical Units Extend Div,16,Vertical Units Extend Div,16,
Label,,Label,,
Probe Type,0,Probe Type,0,
Probe Ratio,1.000e+00,Probe Ratio,1.000e+00,
Vertical Scale,5.000e-01,Vertical Scale,2.000e+00,
Vertical Position,0.000e+00,Vertical Position,0.000e+00,
Horizontal Units,S,Horizontal Units,S,
Horizontal Scale,5.000E-06,Horizontal Scale,5.000E-06,
Horizontal Position,2.420E-05,Horizontal Position,2.420E-05,
Horizontal Mode,Main,Horizontal Mode,Main,
SincET Mode,Real Time,SincET Mode,Real Time,
Sampling Period,5.000e-09,Sampling Period,5.000e-09,
Horizontal Old Scale,5.000E-06,Horizontal Old Scale,5.000E-06,
Horizontal Old Position,2.420E-05,Horizontal Old Position,2.420E-05,
Firmware,V1.32,Firmware,V1.32,
Mode,Fast,Mode,Fast,
Waveform Data,,Waveform Data,,
0, ,-41, ,
1, ,-42, ,
0, ,-42, ,
0, ,-42, ,
0, ,-41, ,
0, ,-41, ,
0, ,-42, ,
0, ,-42, ,
0, ,-42, ,
0, ,-42, ,
0, ,-41, ,
1, ,-41, ,
0, ,-41, ,
0, ,-41, ,
1, ,-42, ,
0, ,-42, ,
0, ,-42, ,
1, ,-42, ,
1, ,-41, ,
1, ,-41, ,
0, ,-41, ,
0, ,-42, ,
0, ,-42, ,
0, ,-42, ,
0, ,-42, ,
1, ,-41, ,
0, ,-41, ,
0, ,-42, ,
0, ,-42, ,
1, ,-41, ,
0, ,-41, ,
0, ,-41, ,
0, ,-41, ,
1, ,-41, ,
1, ,-41, ,
1, ,-41, ,
1, ,-41, ,
1, ,-41, ,
1, ,-41, ,
1, ,-41, ,
1, ,-42, ,
0, ,-42, ,
0, ,-41, ,
0, ,-41, ,
0, ,-41, ,
0, ,-42, ,
1, ,-42, ,
0, ,-41, ,
0, ,-41, ,
1, ,-41, ,
0, ,-41, ,
0, ,-41, ,
0, ,-41, ,
0, ,-41, ,
0, ,-42, ,
0, ,-42, ,
0, ,-42, ,
0, ,-41, ,
0, ,-41, ,
0, ,-42, ,
0, ,-42, ,
0, ,-41, ,
0, ,-41, ,
0, ,-41, ,
0, ,-41, ,
1, ,-42, ,
0, ,-42, ,
0, ,-42, ,
0, ,-41, ,
0, ,-42, ,
0, ,-42, ,
0, ,-41, ,
1, ,-41, ,
1, ,-41, ,
0, ,-41, ,
0, ,-42, ,
0, ,-42, ,
0, ,-41, ,
0, ,-42, ,
0, ,-42, ,
0, ,-42, ,
1, ,-41, ,
0, ,-41, ,
0, ,-41, ,
0, ,-41, ,
0, ,-42, ,
0, ,-42, ,
0, ,-42, ,
1, ,-42, ,
0, ,-42, ,
0, ,-42, ,
1, ,-42, ,
1, ,-42, ,
0, ,-41, ,
0, ,-41, ,
1, ,-41, ,
1, ,-42, ,
1, ,-42, ,
0, ,-42, ,
0, ,-42, ,
0, ,-41, ,
0, ,-42, ,
1, ,-42, ,
1, ,-41, ,
1, ,-41, ,
1, ,-41, ,
1, ,-41, ,
1, ,-42, ,
1, ,-42, ,
1, ,-41, ,
1, ,-41, ,
1, ,-41, ,
1, ,-42, ,
0, ,-42, ,
0, ,-41, ,
0, ,-41, ,
0, ,-41, ,
0, ,-41, ,
0, ,-41, ,
0, ,-41, ,
1, ,-41, ,
0, ,-41, ,
0, ,-41, ,
0, ,-41, ,
0, ,-41, ,
1, ,-41, ,
1, ,-42, ,
0, ,-42, ,
0, ,-42, ,
1, ,-42, ,
1, ,-42, ,
1, ,-42, ,
1, ,-42, ,
1, ,-42, ,
1, ,-42, ,
1, ,-41, ,
1, ,-42, ,
0, ,-42, ,
0, ,-41, ,
1, ,-41, ,
1, ,-41, ,
1, ,-41, ,
1, ,-41, ,
1, ,-41, ,
1, ,-41, ,
1, ,-42, ,
1, ,-42, ,
1, ,-42, ,
1, ,-42, ,
0, ,-42, ,
0, ,-42, ,
0, ,-42, ,
0, ,-42, ,
0, ,-42, ,
0, ,-41, ,
0, ,-42, ,
0, ,-42, ,
0, ,-41, ,
0, ,-41, ,
0, ,-41, ,
1, ,-42, ,
1, ,-42, ,
1, ,-41, ,
1, ,-41, ,
1, ,-41, ,
0, ,-41, ,
-1, ,-41, ,
1, ,-41, ,
16, ,-41, ,
83, ,-42, ,
123, ,-42, ,
124, ,-42, ,
121, ,-41, ,
42, ,-41, ,
-3, ,-41, ,
3, ,-41, ,
53, ,-41, ,
125, ,-42, ,
125, ,-42, ,
125, ,-42, ,
125, ,-41, ,
125, ,-41, ,
125, ,-41, ,
124, ,-41, ,
124, ,-41, ,
116, ,-41, ,
110, ,-41, ,
106, ,-41, ,
103, ,-41, ,
97, ,-41, ,
94, ,-41, ,
89, ,-41, ,
86, ,-41, ,
79, ,-42, ,
76, ,-42, ,
75, ,-42, ,
71, ,-41, ,
66, ,-41, ,
63, ,-41, ,
61, ,-41, ,
59, ,-41, ,
54, ,-41, ,
51, ,-41, ,
49, ,-42, ,
47, ,-42, ,
42, ,-41, ,
42, ,-41, ,
39, ,-41, ,
38, ,-41, ,
35, ,-41, ,
33, ,-41, ,
32, ,-41, ,
30, ,-41, ,
27, ,-42, ,
26, ,-42, ,
25, ,-41, ,
25, ,-42, ,
22, ,-42, ,
21, ,-41, ,
20, ,-41, ,
19, ,-41, ,
17, ,-42, ,
17, ,-42, ,
15, ,-42, ,
15, ,-42, ,
14, ,-41, ,
12, ,-41, ,
12, ,-41, ,
11, ,-41, ,
10, ,-42, ,
10, ,-42, ,
8, ,-41, ,
8, ,-41, ,
7, ,-41, ,
7, ,-41, ,
7, ,-41, ,
6, ,-41, ,
5, ,-41, ,
5, ,-41, ,
5, ,-41, ,
5, ,-42, ,
4, ,-42, ,
3, ,-42, ,
3, ,-42, ,
3, ,-41, ,
3, ,-41, ,
2, ,-42, ,
2, ,-42, ,
2, ,-42, ,
1, ,-42, ,
1, ,-41, ,
1, ,-41, ,
1, ,-41, ,
0, ,-41, ,
0, ,-42, ,
0, ,-42, ,
0, ,-42, ,
0, ,-42, ,
0, ,-41, ,
0, ,-42, ,
-1, ,-42, ,
-1, ,-42, ,
-1, ,-42, ,
-1, ,-42, ,
-1, ,-42, ,
-1, ,-41, ,
-1, ,-41, ,
-1, ,-41, ,
-1, ,-41, ,
-1, ,-41, ,
-1, ,-42, ,
-1, ,-42, ,
-1, ,-42, ,
-1, ,-42, ,
-1, ,-42, ,
-1, ,-42, ,
-1, ,-41, ,
-1, ,-41, ,
-1, ,-42, ,
-1, ,-42, ,
-1, ,-42, ,
-2, ,-42, ,
-2, ,-41, ,
-1, ,-42, ,
-2, ,-42, ,
-2, ,-42, ,
-2, ,-42, ,
-1, ,-42, ,
-1, ,-42, ,
-1, ,-42, ,
-1, ,-42, ,
-1, ,-42, ,
-1, ,-41, ,
-1, ,-42, ,
-1, ,-42, ,
-2, ,-42, ,
-2, ,-42, ,
-1, ,-41, ,
-1, ,-41, ,
-1, ,-42, ,
-1, ,-42, ,
-1, ,-42, ,
-1, ,-42, ,
-1, ,-41, ,
-1, ,-41, ,
-1, ,-42, ,
-1, ,-42, ,
-1, ,-42, ,
-1, ,-41, ,
-1, ,-42, ,
-1, ,-42, ,
-1, ,-41, ,
-1, ,-41, ,
-1, ,-42, ,
-1, ,-42, ,
-1, ,-42, ,
-1, ,-41, ,
-1, ,-41, ,
-1, ,-41, ,
-1, ,-42, ,
-1, ,-42, ,
-1, ,-41, ,
-1, ,-41, ,
-1, ,-41, ,
-1, ,-41, ,
0, ,-42, ,
0, ,-42, ,
0, ,-42, ,
0, ,-41, ,
-1, ,-41, ,
-1, ,-41, ,
0, ,-41, ,
0, ,-41, ,
-1, ,-41, ,
-1, ,-41, ,
0, ,-41, ,
0, ,-41, ,
0, ,-41, ,
0, ,-41, ,
0, ,-41, ,
0, ,-41, ,
0, ,-41, ,
0, ,-41, ,
-1, ,-41, ,
0, ,-41, ,
0, ,-41, ,
0, ,-41, ,
0, ,-42, ,
0, ,-42, ,
0, ,-42, ,
-1, ,-42, ,
-1, ,-42, ,
-1, ,-42, ,
0, ,-42, ,
0, ,-42, ,
0, ,-42, ,
0, ,-42, ,
0, ,-41, ,
0, ,-41, ,
0, ,-41, ,
0, ,-41, ,
0, ,-41, ,
0, ,-41, ,
0, ,-41, ,
0, ,-41, ,
0, ,-42, ,
0, ,-42, ,
0, ,-42, ,
0, ,-42, ,
0, ,-41, ,
0, ,-42, ,
0, ,-42, ,
0, ,-42, ,
0, ,-42, ,
0, ,-42, ,
0, ,-41, ,
0, ,-42, ,
0, ,-42, ,
0, ,-41, ,
0, ,-41, ,
0, ,-41, ,
0, ,-41, ,
0, ,-42, ,
0, ,-42, ,
0, ,-42, ,
0, ,-42, ,
0, ,-42, ,
0, ,-42, ,
0, ,-41, ,
0, ,-41, ,
0, ,-42, ,
0, ,-42, ,
0, ,-42, ,
0, ,-41, ,
0, ,-41, ,
0, ,-42, ,
0, ,-42, ,
0, ,-42, ,
0, ,-42, ,
0, ,-42, ,
0, ,-42, ,
0, ,-41, ,
1, ,-41, ,
1, ,-41, ,
1, ,-41, ,
0, ,-41, ,
0, ,-41, ,
0, ,-42, ,
0, ,-42, ,
0, ,-42, ,
0, ,-41, ,
0, ,-41, ,
0, ,-41, ,
0, ,-41, ,
0, ,-41, ,
0, ,-41, ,
0, ,-41, ,
0, ,-41, ,
0, ,-42, ,
1, ,-42, ,
0, ,-42, ,
0, ,-41, ,
0, ,-42, ,
0, ,-42, ,
0, ,-42, ,
0, ,-42, ,
-1, ,-41, ,
-1, ,-41, ,
-1, ,-41, ,
0, ,-42, ,
0, ,-42, ,
0, ,-41, ,
-1, ,-41, ,
-1, ,-42, ,
-1, ,-42, ,
-1, ,-42, ,
-1, ,-41, ,
-2, ,-41, ,
-3, ,-41, ,
-4, ,-41, ,
-5, ,-42, ,
-7, ,-42, ,
-9, ,-42, ,
-12, ,-42, ,
-13, ,-42, ,
-13, ,-41, ,
-12, ,-41, ,
-10, ,-41, ,
-8, ,-41, ,
-4, ,-41, ,
-2, ,-41, ,
-1, ,-41, ,
0, ,-41, ,
2, ,-41, ,
3, ,-41, ,
3, ,-41, ,
3, ,-41, ,
4, ,-41, ,
4, ,-41, ,
4, ,-41, ,
4, ,-41, ,
3, ,-41, ,
3, ,-41, ,
3, ,-41, ,
3, ,-42, ,
2, ,-42, ,
2, ,-41, ,
2, ,-41, ,
2, ,-41, ,
2, ,-41, ,
2, ,-41, ,
2, ,-41, ,
2, ,-42, ,
2, ,-42, ,
2, ,-41, ,
2, ,-41, ,
2, ,-41, ,
2, ,-42, ,
2, ,-42, ,
2, ,-41, ,
2, ,-41, ,
1, ,-42, ,
1, ,-42, ,
1, ,-42, ,
1, ,-41, ,
0, ,-41, ,
0, ,-42, ,
0, ,-42, ,
0, ,-42, ,
0, ,-42, ,
0, ,-41, ,
0, ,-42, ,
1, ,-42, ,
1, ,-41, ,
1, ,-41, ,
1, ,-41, ,
1, ,-42, ,
1, ,-42, ,
0, ,-41, ,
0, ,-42, ,
0, ,-42, ,
-1, ,-42, ,
-1, ,-42, ,
-1, ,-41, ,
-1, ,-41, ,
-1, ,-42, ,
-1, ,-42, ,
0, ,-42, ,
0, ,-42, ,
0, ,-41, ,
0, ,-41, ,
0, ,-41, ,
1, ,-41, ,
1, ,-42, ,
1, ,-42, ,
1, ,-42, ,
1, ,-42, ,
1, ,-41, ,
0, ,-41, ,
0, ,-41, ,
-1, ,-41, ,
-2, ,-41, ,
-3, ,-41, ,
-3, ,-42, ,
-4, ,-42, ,
-6, ,-41, ,
-6, ,-41, ,
-7, ,-41, ,
-7, ,-41, ,
-7, ,-42, ,
-7, ,-42, ,
-7, ,-42, ,
-7, ,-41, ,
-7, ,-42, ,
-7, ,-42, ,
-7, ,-41, ,
-7, ,-42, ,
-8, ,-42, ,
-8, ,-41, ,
-9, ,-42, ,
-10, ,-42, ,
-12, ,-41, ,
-14, ,-41, ,
-16, ,-41, ,
-19, ,-41, ,
-22, ,-42, ,
-24, ,-42, ,
-25, ,-42, ,
-25, ,-42, ,
-25, ,-42, ,
-24, ,-42, ,
-24, ,-41, ,
-23, ,-41, ,
-21, ,-42, ,
-19, ,-42, ,
-18, ,-42, ,
-17, ,-41, ,
-15, ,-41, ,
-15, ,-42, ,
-14, ,-42, ,
-14, ,-42, ,
-15, ,-41, ,
-16, ,-41, ,
-16, ,-42, ,
-18, ,-42, ,
-22, ,-42, ,
-25, ,-42, ,
-28, ,-42, ,
-33, ,-42, ,
-44, ,-42, ,
-52, ,-41, ,
-59, ,-41, ,
-67, ,-41, ,
-82, ,-41, ,
-88, ,-42, ,
-94, ,-42, ,
-98, ,-42, ,
-98, ,-42, ,
-95, ,-41, ,
-88, ,-41, ,
-79, ,-41, ,
-50, ,-41, ,
-33, ,-41, ,
-15, ,-41, ,
2, ,-41, ,
34, ,-42, ,
45, ,-42, ,
53, ,-42, ,
60, ,-42, ,
63, ,-41, ,
63, ,-42, ,
62, ,-42, ,
62, ,-42, ,
59, ,-41, ,
57, ,-41, ,
56, ,-42, ,
53, ,-42, ,
47, ,-41, ,
42, ,-41, ,
34, ,-41, ,
25, ,-41, ,
2, ,-42, ,
-12, ,-42, ,
-25, ,-42, ,
-35, ,-42, ,
-46, ,-41, ,
-47, ,-42, ,
-45, ,-42, ,
-41, ,-42, ,
-27, ,-42, ,
-19, ,-42, ,
-9, ,-42, ,
2, ,-42, ,
20, ,-41, ,
27, ,-42, ,
32, ,-42, ,
36, ,-42, ,
42, ,-41, ,
42, ,-41, ,
43, ,-41, ,
43, ,-41, ,
42, ,-41, ,
41, ,-41, ,
40, ,-41, ,
39, ,-41, ,
35, ,-42, ,
32, ,-42, ,
28, ,-42, ,
23, ,-41, ,
5, ,-42, ,
-7, ,-42, ,
-23, ,-41, ,
-38, ,-42, ,
-62, ,-42, ,
-70, ,-42, ,
-74, ,-42, ,
-74, ,-42, ,
-71, ,-41, ,
-65, ,-41, ,
-57, ,-41, ,
-47, ,-42, ,
-26, ,-42, ,
-17, ,-42, ,
-6, ,-42, ,
2, ,-41, ,
15, ,-41, ,
19, ,-42, ,
21, ,-42, ,
22, ,-42, ,
21, ,-42, ,
18, ,-42, ,
16, ,-42, ,
12, ,-42, ,
3, ,-41, ,
-3, ,-42, ,
-8, ,-42, ,
-13, ,-42, ,
-23, ,-41, ,
-27, ,-41, ,
-32, ,-41, ,
-38, ,-41, ,
-49, ,-41, ,
-53, ,-42, ,
-58, ,-42, ,
-63, ,-42, ,
-69, ,-41, ,
-70, ,-41, ,
-70, ,-42, ,
-68, ,-42, ,
-58, ,-41, ,
-48, ,-42, ,
-38, ,-42, ,
-26, ,-42, ,
-1, ,-41, ,
13, ,-41, ,
26, ,-41, ,
36, ,-41, ,
54, ,-41, ,
60, ,-41, ,
63, ,-41, ,
66, ,-42, ,
66, ,-42, ,
65, ,-41, ,
64, ,-42, ,
60, ,-42, ,
53, ,-41, ,
47, ,-41, ,
39, ,-41, ,
28, ,-41, ,
3, ,-42, ,
-11, ,-42, ,
-24, ,-42, ,
-34, ,-41, ,
-53, ,-41, ,
-58, ,-41, ,
-64, ,-41, ,
-67, ,-42, ,
-68, ,-42, ,
-66, ,-41, ,
-61, ,-41, ,
-57, ,-41, ,
-43, ,-41, ,
-35, ,-42, ,
-26, ,-42, ,
-17, ,-42, ,
-1, ,-41, ,
6, ,-41, ,
13, ,-41, ,
18, ,-41, ,
25, ,-42, ,
27, ,-42, ,
27, ,-41, ,
26, ,-41, ,
25, ,-41, ,
23, ,-41, ,
21, ,-41, ,
17, ,-41, ,
10, ,-41, ,
7, ,-42, ,
3, ,-42, ,
1, ,-42, ,
-3, ,-42, ,
-3, ,-42, ,
-2, ,-42, ,
-2, ,-42, ,
2, ,-42, ,
4, ,-42, ,
6, ,-41, ,
9, ,-41, ,
15, ,-41, ,
16, ,-41, ,
19, ,-41, ,
20, ,-41, ,
22, ,-41, ,
23, ,-42, ,
23, ,-42, ,
22, ,-42, ,
21, ,-41, ,
19, ,-41, ,
19, ,-41, ,
17, ,-41, ,
14, ,-42, ,
13, ,-42, ,
11, ,-41, ,
9, ,-41, ,
6, ,-42, ,
3, ,-42, ,
2, ,-42, ,
0, ,-41, ,
-4, ,-41, ,
-6, ,-41, ,
-9, ,-41, ,
-10, ,-41, ,
-15, ,-41, ,
-16, ,-41, ,
-18, ,-41, ,
-18, ,-41, ,
-18, ,-42, ,
-18, ,-42, ,
-17, ,-41, ,
-16, ,-42, ,
-13, ,-42, ,
-13, ,-41, ,
-12, ,-41, ,
-13, ,-41, ,
-14, ,-41, ,
-16, ,-41, ,
-19, ,-41, ,
-22, ,-41, ,
-29, ,-41, ,
-34, ,-41, ,
-39, ,-41, ,
-43, ,-41, ,
-51, ,-41, ,
-53, ,-41, ,
-55, ,-41, ,
-55, ,-41, ,
-52, ,-41, ,
-50, ,-41, ,
-45, ,-42, ,
-39, ,-42, ,
-25, ,-41, ,
-18, ,-42, ,
-10, ,-42, ,
-3, ,-42, ,
10, ,-42, ,
15, ,-42, ,
19, ,-42, ,
20, ,-42, ,
21, ,-41, ,
20, ,-41, ,
15, ,-41, ,
12, ,-41, ,
1, ,-42, ,
-4, ,-42, ,
-11, ,-42, ,
-16, ,-41, ,
-27, ,-41, ,
-32, ,-42, ,
-36, ,-42, ,
-39, ,-42, ,
-42, ,-42, ,
-42, ,-42, ,
-41, ,-42, ,
-40, ,-41, ,
-34, ,-41, ,
-29, ,-41, ,
-25, ,-41, ,
-20, ,-42, ,
-9, ,-42, ,
-4, ,-41, ,
3, ,-41, ,
7, ,-41, ,
17, ,-42, ,
21, ,-42, ,
25, ,-41, ,
27, ,-41, ,
31, ,-42, ,
32, ,-42, ,
32, ,-42, ,
32, ,-42, ,
31, ,-42, ,
29, ,-42, ,
27, ,-42, ,
25, ,-41, ,
20, ,-41, ,
16, ,-41, ,
13, ,-42, ,
9, ,-42, ,
2, ,-42, ,
-1, ,-42, ,
-5, ,-41, ,
-8, ,-41, ,
-13, ,-42, ,
-16, ,-42, ,
-18, ,-42, ,
-19, ,-41, ,
-19, ,-41, ,
-19, ,-41, ,
-18, ,-41, ,
-16, ,-41, ,
-11, ,-42, ,
-8, ,-42, ,
-5, ,-42, ,
-2, ,-42, ,
5, ,-41, ,
9, ,-41, ,
12, ,-41, ,
15, ,-41, ,
21, ,-41, ,
22, ,-41, ,
25, ,-42, ,
25, ,-42, ,
27, ,-41, ,
27, ,-41, ,
26, ,-41, ,
26, ,-41, ,
25, ,-41, ,
23, ,-41, ,
22, ,-42, ,
20, ,-42, ,
15, ,-42, ,
13, ,-42, ,
10, ,-42, ,
7, ,-42, ,
-1, ,-41, ,
-4, ,-41, ,
-8, ,-42, ,
-12, ,-42, ,
-20, ,-41, ,
-25, ,-42, ,
-28, ,-42, ,
-32, ,-42, ,
-39, ,-41, ,
-42, ,-41, ,
-44, ,-42, ,
-47, ,-42, ,
-48, ,-41, ,
-48, ,-41, ,
-47, ,-41, ,
-47, ,-41, ,
-43, ,-41, ,
-40, ,-42, ,
-37, ,-42, ,
-34, ,-42, ,
-28, ,-42, ,
-25, ,-42, ,
-22, ,-41, ,
-19, ,-41, ,
-14, ,-41, ,
-11, ,-41, ,
-9, ,-41, ,
-7, ,-41, ,
-4, ,-41, ,
-1, ,-41, ,
1, ,-41, ,
2, ,-41, ,
6, ,-41, ,
8, ,-41, ,
9, ,-41, ,
11, ,-41, ,
14, ,-41, ,
16, ,-41, ,
17, ,-41, ,
18, ,-41, ,
19, ,-41, ,
19, ,-41, ,
18, ,-41, ,
18, ,-41, ,
15, ,-41, ,
13, ,-42, ,
11, ,-42, ,
8, ,-42, ,
3, ,-42, ,
-1, ,-41, ,
-5, ,-41, ,
-9, ,-41, ,
-15, ,-41, ,
-18, ,-42, ,
-20, ,-42, ,
-23, ,-42, ,
-25, ,-41, ,
-26, ,-41, ,
-26, ,-42, ,
-26, ,-42, ,
-25, ,-41, ,
-24, ,-42, ,
-22, ,-42, ,
-20, ,-42, ,
-15, ,-42, ,
-13, ,-42, ,
-10, ,-42, ,
-7, ,-41, ,
-3, ,-41, ,
-1, ,-41, ,
-1, ,-41, ,
1, ,-41, ,
0, ,-41, ,
-1, ,-41, ,
-1, ,-41, ,
-2, ,-42, ,
-6, ,-42, ,
-7, ,-42, ,
-10, ,-42, ,
-11, ,-42, ,
-15, ,-41, ,
-16, ,-41, ,
-18, ,-42, ,
-18, ,-42, ,
-18, ,-41, ,
-17, ,-42, ,
-16, ,-42, ,
-15, ,-42, ,
-10, ,-42, ,
-8, ,-41, ,
-5, ,-41, ,
-2, ,-41, ,
4, ,-41, ,
7, ,-42, ,
10, ,-42, ,
14, ,-42, ,
19, ,-41, ,
21, ,-41, ,
23, ,-41, ,
24, ,-41, ,
25, ,-41, ,
25, ,-42, ,
25, ,-42, ,
24, ,-42, ,
20, ,-41, ,
17, ,-41, ,
14, ,-42, ,
11, ,-42, ,
4, ,-41, ,
0, ,-42, ,
-5, ,-42, ,
-8, ,-42, ,
-15, ,-42, ,
-18, ,-41, ,
-20, ,-41, ,
-21, ,-41, ,
-21, ,-42, ,
-20, ,-42, ,
-19, ,-41, ,
-16, ,-41, ,
-10, ,-42, ,
-6, ,-42, ,
-2, ,-42, ,
2, ,-42, ,
10, ,-41, ,
14, ,-42, ,
17, ,-42, ,
20, ,-42, ,
23, ,-41, ,
23, ,-41, ,
23, ,-41, ,
22, ,-41, ,
18, ,-42, ,
16, ,-42, ,
13, ,-42, ,
8, ,-42, ,
0, ,-41, ,
-6, ,-41, ,
-10, ,-41, ,
-15, ,-41, ,
-23, ,-42, ,
-25, ,-42, ,
-29, ,-42, ,
-31, ,-42, ,
-34, ,-41, ,
-34, ,-41, ,
-34, ,-41, ,
-33, ,-41, ,
-28, ,-42, ,
-25, ,-42, ,
-22, ,-42, ,
-18, ,-42, ,
-9, ,-42, ,
-6, ,-42, ,
-1, ,-42, ,
3, ,-42, ,
9, ,-41, ,
11, ,-41, ,
12, ,-41, ,
13, ,-41, ,
12, ,-41, ,
10, ,-41, ,
9, ,-41, ,
7, ,-41, ,
1, ,-42, ,
1, ,-42, ,
-2, ,-41, ,
-4, ,-41, ,
-7, ,-42, ,
-8, ,-42, ,
-8, ,-42, ,
-8, ,-41, ,
-8, ,-41, ,
-8, ,-42, ,
-7, ,-42, ,
-7, ,-42, ,
-5, ,-41, ,
-4, ,-41, ,
-4, ,-41, ,
-4, ,-41, ,
-3, ,-41, ,
-2, ,-41, ,
-2, ,-41, ,
0, ,-41, ,
1, ,-42, ,
3, ,-42, ,
5, ,-42, ,
6, ,-41, ,
9, ,-41, ,
12, ,-42, ,
13, ,-42, ,
15, ,-42, ,
17, ,-41, ,
17, ,-41, ,
17, ,-41, ,
16, ,-41, ,
14, ,-41, ,
12, ,-41, ,
10, ,-41, ,
7, ,-42, ,
2, ,-42, ,
-2, ,-41, ,
-4, ,-41, ,
-7, ,-41, ,
-12, ,-42, ,
-14, ,-42, ,
-15, ,-41, ,
-15, ,-41, ,
-15, ,-42, ,
-14, ,-42, ,
-13, ,-42, ,
-11, ,-41, ,
-7, ,-42, ,
-5, ,-42, ,
-4, ,-41, ,
-1, ,-41, ,
3, ,-42, ,
4, ,-42, ,
5, ,-42, ,
5, ,-41, ,
5, ,-42, ,
5, ,-42, ,
4, ,-42, ,
4, ,-42, ,
2, ,-42, ,
0, ,-42, ,
0, ,-42, ,
-1, ,-41, ,
-3, ,-41, ,
-3, ,-41, ,
-4, ,-41, ,
-4, ,-41, ,
-5, ,-41, ,
-6, ,-41, ,
-6, ,-42, ,
-6, ,-42, ,
-6, ,-42, ,
-6, ,-42, ,
-6, ,-42, ,
-6, ,-42, ,
-7, ,-41, ,
-7, ,-41, ,
-7, ,-41, ,
-7, ,-41, ,
-7, ,-42, ,
-6, ,-42, ,
-6, ,-41, ,
-5, ,-41, ,
-2, ,-41, ,
-1, ,-41, ,
0, ,-42, ,
2, ,-42, ,
5, ,-41, ,
7, ,-42, ,
8, ,-42, ,
10, ,-42, ,
12, ,-41, ,
13, ,-41, ,
13, ,-41, ,
13, ,-41, ,
13, ,-42, ,
13, ,-42, ,
12, ,-41, ,
11, ,-41, ,
10, ,-41, ,
8, ,-41, ,
8, ,-41, ,
6, ,-41, ,
4, ,-41, ,
3, ,-42, ,
2, ,-42, ,
1, ,-42, ,
-2, ,-42, ,
-2, ,-42, ,
-4, ,-42, ,
-6, ,-42, ,
-9, ,-42, ,
-10, ,-42, ,
-11, ,-41, ,
-13, ,-42, ,
-16, ,-42, ,
-17, ,-41, ,
-18, ,-42, ,
-19, ,-42, ,
-19, ,-42, ,
-19, ,-42, ,
-18, ,-42, ,
-17, ,-42, ,
-16, ,-41, ,
-14, ,-41, ,
-12, ,-41, ,
-11, ,-41, ,
-7, ,-41, ,
-5, ,-41, ,
-4, ,-41, ,
-2, ,-42, ,
0, ,-42, ,
1, ,-42, ,
1, ,-41, ,
0, ,-41, ,
-1, ,-42, ,
-1, ,-42, ,
-2, ,-41, ,
-2, ,-42, ,
-4, ,-42, ,
-5, ,-42, ,
-5, ,-42, ,
-6, ,-41, ,
-6, ,-41, ,
-5, ,-41, ,
-5, ,-41, ,
-4, ,-42, ,
-1, ,-42, ,
1, ,-41, ,
3, ,-42, ,
5, ,-42, ,
10, ,-41, ,
11, ,-42, ,
13, ,-42, ,
15, ,-42, ,
18, ,-42, ,
19, ,-42, ,
19, ,-42, ,
19, ,-42, ,
18, ,-41, ,
17, ,-41, ,
15, ,-41, ,
13, ,-42, ,
9, ,-42, ,
6, ,-41, ,
3, ,-42, ,
0, ,-42, ,
-7, ,-42, ,
-9, ,-42, ,
-13, ,-41, ,
-15, ,-42, ,
-21, ,-42, ,
-23, ,-41, ,
-24, ,-41, ,
-25, ,-41, ,
-25, ,-41, ,
-25, ,-42, ,
-25, ,-42, ,
-24, ,-42, ,
-19, ,-41, ,
-17, ,-41, ,
-13, ,-42, ,
-10, ,-42, ,
-3, ,-41, ,
2, ,-41, ,
6, ,-41, ,
10, ,-41, ,
16, ,-41, ,
19, ,-41, ,
21, ,-41, ,
22, ,-41, ,
22, ,-41, ,
22, ,-41, ,
20, ,-41, ,
19, ,-41, ,
14, ,-41, ,
10, ,-41, ,
7, ,-42, ,
3, ,-42, ,
-3, ,-41, ,
-6, ,-41, ,
-8, ,-41, ,
-12, ,-41, ,
-15, ,-41, ,
-17, ,-41, ,
-18, ,-42, ,
-18, ,-42, ,
-18, ,-41, ,
-17, ,-41, ,
-16, ,-41, ,
-16, ,-42, ,
-13, ,-42, ,
-13, ,-41, ,
-12, ,-41, ,
-11, ,-41, ,
-9, ,-41, ,
-8, ,-41, ,
-7, ,-41, ,
-6, ,-41, ,
-4, ,-41, ,
-3, ,-41, ,
-2, ,-41, ,
-1, ,-41, ,
2, ,-42, ,
3, ,-42, ,
5, ,-41, ,
6, ,-41, ,
8, ,-42, ,
9, ,-42, ,
9, ,-42, ,
9, ,-42, ,
8, ,-41, ,
8, ,-41, ,
6, ,-41, ,
5, ,-41, ,
2, ,-41, ,
0, ,-41, ,
-1, ,-41, ,
-4, ,-41, ,
-8, ,-42, ,
-9, ,-42, ,
-12, ,-41, ,
-13, ,-41, ,
-14, ,-41, ,
-15, ,-41, ,
-15, ,-41, ,
-15, ,-41, ,
-14, ,-42, ,
-14, ,-42, ,
-12, ,-42, ,
-11, ,-42, ,
-10, ,-42, ,
-9, ,-42, ,
-7, ,-42, ,
-6, ,-41, ,
-4, ,-42, ,
-2, ,-42, ,
-1, ,-42, ,
0, ,-42, ,
2, ,-42, ,
3, ,-42, ,
5, ,-42, ,
6, ,-41, ,
7, ,-42, ,
8, ,-42, ,
8, ,-41, ,
9, ,-41, ,
9, ,-41, ,
9, ,-41, ,
9, ,-41, ,
9, ,-41, ,
8, ,-41, ,
7, ,-42, ,
6, ,-42, ,
6, ,-42, ,
4, ,-41, ,
2, ,-41, ,
1, ,-41, ,
1, ,-41, ,
-2, ,-42, ,
-3, ,-42, ,
-4, ,-41, ,
-5, ,-41, ,
-7, ,-42, ,
-8, ,-42, ,
-9, ,-42, ,
-10, ,-42, ,
-10, ,-41, ,
-10, ,-42, ,
-10, ,-42, ,
-10, ,-42, ,
-9, ,-42, ,
-8, ,-42, ,
-7, ,-42, ,
-6, ,-41, ,
-3, ,-41, ,
-2, ,-41, ,
0, ,-41, ,
2, ,-41, ,
4, ,-42, ,
6, ,-42, ,
8, ,-42, ,
8, ,-41, ,
10, ,-41, ,
11, ,-42, ,
11, ,-42, ,
11, ,-42, ,
11, ,-42, ,
10, ,-41, ,
9, ,-41, ,
9, ,-42, ,
7, ,-42, ,
6, ,-41, ,
4, ,-41, ,
3, ,-41, ,
1, ,-42, ,
0, ,-42, ,
0, ,-42, ,
-1, ,-41, ,
-1, ,-41, ,
0, ,-42, ,
0, ,-42, ,
0, ,-42, ,
2, ,-41, ,
3, ,-41, ,
4, ,-42, ,
5, ,-42, ,
7, ,-41, ,
8, ,-41, ,
8, ,-41, ,
10, ,-41, ,
10, ,-41, ,
9, ,-41, ,
9, ,-41, ,
8, ,-41, ,
6, ,-41, ,
4, ,-42, ,
2, ,-42, ,
1, ,-42, ,
-4, ,-42, ,
-6, ,-42, ,
-7, ,-42, ,
-10, ,-42, ,
-13, ,-42, ,
-14, ,-42, ,
-15, ,-42, ,
-15, ,-42, ,
-15, ,-41, ,
-15, ,-41, ,
-13, ,-41, ,
-13, ,-41, ,
-9, ,-41, ,
-8, ,-41, ,
-5, ,-41, ,
-3, ,-41, ,
1, ,-41, ,
2, ,-41, ,
4, ,-41, ,
5, ,-41, ,
7, ,-42, ,
6, ,-42, ,
6, ,-42, ,
5, ,-42, ,
3, ,-42, ,
1, ,-42, ,
0, ,-42, ,
-4, ,-41, ,
-8, ,-42, ,
-10, ,-42, ,
-12, ,-41, ,
-14, ,-42, ,
-17, ,-42, ,
-18, ,-41, ,
-18, ,-41, ,
-18, ,-41, ,
-18, ,-42, ,
-17, ,-42, ,
-15, ,-42, ,
-14, ,-42, ,
-10, ,-41, ,
-8, ,-41, ,
-6, ,-41, ,
-4, ,-41, ,
0, ,-42, ,
3, ,-42, ,
4, ,-41, ,
7, ,-41, ,
10, ,-41, ,
11, ,-41, ,
13, ,-42, ,
14, ,-42, ,
17, ,-41, ,
18, ,-42, ,
19, ,-42, ,
20, ,-42, ,
20, ,-42, ,
20, ,-42, ,
20, ,-42, ,
19, ,-42, ,
18, ,-41, ,
18, ,-41, ,
16, ,-41, ,
14, ,-41, ,
11, ,-41, ,
8, ,-41, ,
7, ,-42, ,
4, ,-42, ,
1, ,-41, ,
-2, ,-41, ,
-3, ,-41, ,
-5, ,-42, ,
-7, ,-42, ,
-8, ,-42, ,
-8, ,-42, ,
-8, ,-41, ,
-8, ,-41, ,
-8, ,-41, ,
-8, ,-41, ,
-8, ,-42, ,
-7, ,-42, ,
-7, ,-42, ,
-7, ,-42, ,
-7, ,-42, ,
-7, ,-41, ,
-7, ,-41, ,
-7, ,-41, ,
-7, ,-41, ,
-7, ,-41, ,
-7, ,-41, ,
-7, ,-41, ,
-8, ,-41, ,
-8, ,-42, ,
-7, ,-42, ,
-7, ,-41, ,
-7, ,-42, ,
-7, ,-42, ,
-7, ,-41, ,
-7, ,-41, ,
-7, ,-41, ,
-7, ,-42, ,
-7, ,-42, ,
-7, ,-41, ,
-6, ,-41, ,
-5, ,-41, ,
-5, ,-41, ,
-4, ,-42, ,
-3, ,-42, ,
0, ,-41, ,
1, ,-41, ,
3, ,-41, ,
5, ,-41, ,
9, ,-41, ,
11, ,-41, ,
13, ,-42, ,
15, ,-42, ,
18, ,-41, ,
20, ,-42, ,
20, ,-42, ,
20, ,-42, ,
19, ,-42, ,
18, ,-42, ,
17, ,-42, ,
15, ,-41, ,
10, ,-41, ,
7, ,-42, ,
4, ,-42, ,
1, ,-42, ,
-5, ,-41, ,
-8, ,-41, ,
-11, ,-42, ,
-13, ,-42, ,
-16, ,-41, ,
-17, ,-41, ,
-17, ,-41, ,
-17, ,-41, ,
-16, ,-42, ,
-14, ,-42, ,
-13, ,-42, ,
-11, ,-41, ,
-7, ,-42, ,
-4, ,-42, ,
-3, ,-41, ,
-1, ,-41, ,
3, ,-41, ,
4, ,-41, ,
5, ,-41, ,
6, ,-41, ,
7, ,-41, ,
7, ,-42, ,
6, ,-42, ,
6, ,-42, ,
4, ,-42, ,
4, ,-42, ,
3, ,-42, ,
2, ,-42, ,
1, ,-41, ,
0, ,-41, ,
0, ,-41, ,
0, ,-42, ,
0, ,-42, ,
0, ,-41, ,
1, ,-42, ,
1, ,-42, ,
2, ,-42, ,
3, ,-42, ,
3, ,-42, ,
4, ,-42, ,
5, ,-42, ,
6, ,-42, ,
6, ,-42, ,
7, ,-41, ,
7, ,-41, ,
8, ,-42, ,
8, ,-42, ,
8, ,-42, ,
7, ,-41, ,
7, ,-41, ,
6, ,-42, ,
6, ,-42, ,
4, ,-42, ,
4, ,-42, ,
2, ,-42, ,
2, ,-42, ,
-1, ,-41, ,
-2, ,-41, ,
-3, ,-41, ,
-5, ,-41, ,
-8, ,-41, ,
-8, ,-41, ,
-10, ,-41, ,
-11, ,-42, ,
-12, ,-42, ,
-13, ,-41, ,
-13, ,-41, ,
-13, ,-42, ,
-12, ,-42, ,
-11, ,-41, ,
-11, ,-41, ,
-9, ,-41, ,
-6, ,-42, ,
-5, ,-42, ,
-3, ,-42, ,
-2, ,-41, ,
1, ,-41, ,
3, ,-41, ,
4, ,-41, ,
5, ,-42, ,
6, ,-42, ,
6, ,-41, ,
6, ,-41, ,
6, ,-41, ,
5, ,-42, ,
5, ,-42, ,
4, ,-41, ,
4, ,-41, ,
2, ,-42, ,
1, ,-42, ,
1, ,-42, ,
0, ,-41, ,
0, ,-42, ,
0, ,-42, ,
0, ,-41, ,
1, ,-41, ,
1, ,-41, ,
2, ,-41, ,
2, ,-42, ,
3, ,-42, ,
4, ,-42, ,
5, ,-42, ,
5, ,-42, ,
6, ,-42, ,
