raw_data/75% Glycerol, Impulsion 2Hz, Sonde 5MHz, Rampe 0.7Hz/temp0000025.CSV

Format,1.0B,
Memory Length,10000,Memory Length,10000,
IntpDistance,0,IntpDistance,0,
Trigger Address,159,Trigger Address,159,
Trigger Level,2.720E-01,Trigger Level,2.720E-01,
Source,CH1,Source,CH2,
Vertical Units,V,Vertical Units,V,
Vertical Units Div,0,Vertical Units Div,0,
Vertical Units Extend Div,16,Vertical Units Extend Div,16,
Label,,Label,,
Probe Type,0,Probe Type,0,
Probe Ratio,1.000e+00,Probe Ratio,1.000e+00,
Vertical Scale,5.000e-01,Vertical Scale,2.000e+00,
Vertical Position,0.000e+00,Vertical Position,0.000e+00,
Horizontal Units,S,Horizontal Units,S,
Horizontal Scale,5.000E-06,Horizontal Scale,5.000E-06,
Horizontal Position,2.420E-05,Horizontal Position,2.420E-05,
Horizontal Mode,Main,Horizontal Mode,Main,
SincET Mode,Real Time,SincET Mode,Real Time,
Sampling Period,5.000e-09,Sampling Period,5.000e-09,
Horizontal Old Scale,5.000E-06,Horizontal Old Scale,5.000E-06,
Horizontal Old Position,2.420E-05,Horizontal Old Position,2.420E-05,
Firmware,V1.32,Firmware,V1.32,
Mode,Fast,Mode,Fast,
Waveform Data,,Waveform Data,,
0, ,40, ,
0, ,40, ,
0, ,40, ,
1, ,40, ,
1, ,40, ,
1, ,40, ,
1, ,40, ,
1, ,40, ,
1, ,40, ,
0, ,40, ,
0, ,40, ,
1, ,40, ,
1, ,40, ,
1, ,40, ,
1, ,40, ,
1, ,40, ,
1, ,40, ,
1, ,40, ,
0, ,40, ,
0, ,40, ,
1, ,40, ,
1, ,40, ,
1, ,40, ,
1, ,40, ,
1, ,40, ,
1, ,40, ,
1, ,40, ,
1, ,40, ,
1, ,40, ,
0, ,40, ,
0, ,40, ,
1, ,40, ,
1, ,40, ,
1, ,40, ,
1, ,40, ,
1, ,40, ,
1, ,40, ,
0, ,40, ,
0, ,40, ,
1, ,40, ,
1, ,40, ,
1, ,40, ,
1, ,40, ,
0, ,40, ,
0, ,40, ,
0, ,40, ,
0, ,40, ,
1, ,40, ,
1, ,40, ,
1, ,40, ,
0, ,40, ,
0, ,40, ,
1, ,40, ,
1, ,40, ,
1, ,40, ,
0, ,40, ,
0, ,40, ,
0, ,40, ,
0, ,40, ,
0, ,40, ,
0, ,40, ,
0, ,40, ,
0, ,40, ,
1, ,40, ,
1, ,40, ,
1, ,40, ,
0, ,40, ,
0, ,40, ,
0, ,40, ,
1, ,40, ,
0, ,40, ,
0, ,40, ,
1, ,40, ,
1, ,40, ,
1, ,40, ,
1, ,40, ,
1, ,40, ,
1, ,40, ,
1, ,40, ,
1, ,40, ,
1, ,40, ,
1, ,40, ,
0, ,40, ,
0, ,40, ,
0, ,40, ,
1, ,40, ,
1, ,40, ,
0, ,40, ,
0, ,40, ,
0, ,40, ,
0, ,40, ,
0, ,40, ,
1, ,40, ,
0, ,40, ,
0, ,40, ,
1, ,40, ,
0, ,40, ,
0, ,40, ,
0, ,40, ,
1, ,40, ,
1, ,40, ,
0, ,40, ,
0, ,40, ,
1, ,40, ,
1, ,40, ,
1, ,40, ,
1, ,40, ,
1, ,40, ,
0, ,40, ,
0, ,40, ,
0, ,40, ,
1, ,40, ,
0, ,40, ,
0, ,40, ,
0, ,40, ,
1, ,40, ,
1, ,40, ,
1, ,40, ,
1, ,40, ,
1, ,40, ,
1, ,40, ,
1, ,40, ,
1, ,40, ,
1, ,40, ,
1, ,40, ,
0, ,40, ,
0, ,40, ,
0, ,40, ,
0, ,40, ,
1, ,40, ,
0, ,40, ,
0, ,40, ,
1, ,40, ,
0, ,40, ,
0, ,40, ,
1, ,40, ,
1, ,40, ,
1, ,40, ,
1, ,40, ,
1, ,40, ,
1, ,40, ,
1, ,40, ,
1, ,40, ,
1, ,40, ,
0, ,40, ,
0, ,40, ,
0, ,40, ,
1, ,40, ,
1, ,40, ,
1, ,40, ,
1, ,40, ,
1, ,40, ,
1, ,40, ,
1, ,40, ,
1, ,40, ,
1, ,40, ,
1, ,40, ,
1, ,40, ,
1, ,40, ,
1, ,40, ,
1, ,40, ,
1, ,40, ,
1, ,40, ,
1, ,40, ,
2, ,40, ,
0, ,40, ,
0, ,40, ,
0, ,40, ,
13, ,40, ,
40, ,40, ,
77, ,40, ,
124, ,40, ,
122, ,40, ,
107, ,40, ,
52, ,40, ,
-1, ,40, ,
43, ,40, ,
97, ,40, ,
125, ,40, ,
125, ,40, ,
125, ,40, ,
125, ,40, ,
125, ,40, ,
124, ,40, ,
124, ,40, ,
123, ,40, ,
116, ,40, ,
107, ,40, ,
104, ,40, ,
100, ,40, ,
97, ,40, ,
90, ,40, ,
86, ,40, ,
84, ,40, ,
80, ,40, ,
75, ,40, ,
72, ,40, ,
69, ,40, ,
67, ,40, ,
61, ,40, ,
59, ,40, ,
57, ,40, ,
54, ,40, ,
49, ,40, ,
48, ,40, ,
45, ,40, ,
43, ,40, ,
40, ,40, ,
38, ,40, ,
37, ,40, ,
35, ,40, ,
32, ,40, ,
30, ,40, ,
28, ,40, ,
27, ,40, ,
25, ,40, ,
24, ,40, ,
23, ,40, ,
22, ,40, ,
21, ,40, ,
20, ,40, ,
18, ,40, ,
18, ,40, ,
16, ,40, ,
15, ,40, ,
14, ,40, ,
14, ,40, ,
12, ,40, ,
11, ,40, ,
11, ,40, ,
10, ,40, ,
9, ,40, ,
8, ,40, ,
8, ,40, ,
8, ,40, ,
7, ,40, ,
6, ,40, ,
6, ,40, ,
5, ,40, ,
5, ,40, ,
4, ,40, ,
4, ,40, ,
4, ,40, ,
3, ,40, ,
3, ,40, ,
2, ,40, ,
2, ,40, ,
2, ,40, ,
2, ,40, ,
2, ,40, ,
2, ,40, ,
1, ,40, ,
1, ,40, ,
1, ,40, ,
1, ,40, ,
0, ,40, ,
0, ,40, ,
0, ,40, ,
0, ,40, ,
0, ,40, ,
0, ,40, ,
0, ,40, ,
0, ,40, ,
0, ,40, ,
-1, ,40, ,
-1, ,40, ,
-1, ,40, ,
-1, ,40, ,
-1, ,40, ,
-1, ,40, ,
-1, ,40, ,
-1, ,40, ,
-1, ,40, ,
-1, ,40, ,
-1, ,40, ,
-1, ,40, ,
-1, ,40, ,
-2, ,40, ,
-2, ,40, ,
-1, ,40, ,
-1, ,40, ,
-1, ,40, ,
-2, ,40, ,
-2, ,40, ,
-1, ,40, ,
-1, ,40, ,
-1, ,40, ,
-1, ,40, ,
-2, ,40, ,
-2, ,40, ,
-2, ,40, ,
-1, ,40, ,
-1, ,40, ,
-1, ,40, ,
-1, ,40, ,
-1, ,40, ,
-1, ,40, ,
-1, ,40, ,
-1, ,40, ,
-1, ,40, ,
-1, ,40, ,
-1, ,40, ,
-1, ,40, ,
-1, ,40, ,
-1, ,40, ,
-1, ,40, ,
-1, ,40, ,
-1, ,40, ,
-1, ,40, ,
-1, ,40, ,
-1, ,40, ,
-1, ,40, ,
-1, ,40, ,
-1, ,40, ,
-1, ,40, ,
-1, ,40, ,
-1, ,40, ,
-1, ,40, ,
-1, ,40, ,
-1, ,40, ,
-1, ,40, ,
-1, ,40, ,
-1, ,40, ,
-1, ,40, ,
0, ,40, ,
-1, ,40, ,
-1, ,40, ,
0, ,40, ,
0, ,40, ,
0, ,40, ,
0, ,40, ,
0, ,40, ,
0, ,40, ,
0, ,40, ,
0, ,40, ,
0, ,40, ,
0, ,40, ,
0, ,40, ,
0, ,40, ,
0, ,40, ,
0, ,40, ,
0, ,40, ,
0, ,40, ,
0, ,40, ,
0, ,40, ,
0, ,40, ,
0, ,40, ,
0, ,40, ,
0, ,40, ,
0, ,40, ,
0, ,40, ,
0, ,40, ,
0, ,40, ,
0, ,40, ,
0, ,40, ,
0, ,40, ,
0, ,40, ,
0, ,40, ,
0, ,40, ,
0, ,40, ,
0, ,40, ,
0, ,40, ,
0, ,40, ,
0, ,40, ,
0, ,40, ,
0, ,40, ,
0, ,40, ,
0, ,40, ,
0, ,40, ,
0, ,40, ,
0, ,40, ,
0, ,40, ,
0, ,40, ,
0, ,40, ,
0, ,40, ,
0, ,40, ,
0, ,40, ,
0, ,40, ,
0, ,40, ,
0, ,40, ,
0, ,40, ,
0, ,40, ,
0, ,40, ,
1, ,40, ,
0, ,40, ,
0, ,40, ,
0, ,40, ,
0, ,40, ,
0, ,40, ,
0, ,40, ,
0, ,40, ,
0, ,40, ,
0, ,40, ,
0, ,40, ,
0, ,40, ,
0, ,40, ,
0, ,40, ,
0, ,40, ,
0, ,40, ,
0, ,40, ,
0, ,40, ,
1, ,40, ,
1, ,40, ,
0, ,40, ,
0, ,40, ,
0, ,40, ,
0, ,40, ,
0, ,40, ,
0, ,40, ,
0, ,40, ,
0, ,40, ,
0, ,40, ,
0, ,40, ,
0, ,40, ,
1, ,40, ,
0, ,40, ,
0, ,40, ,
1, ,40, ,
0, ,40, ,
0, ,40, ,
0, ,40, ,
0, ,40, ,
0, ,40, ,
0, ,40, ,
0, ,40, ,
0, ,40, ,
0, ,40, ,
0, ,40, ,
0, ,40, ,
0, ,40, ,
0, ,40, ,
0, ,40, ,
-1, ,40, ,
-1, ,40, ,
-1, ,40, ,
-1, ,40, ,
-1, ,40, ,
-2, ,40, ,
-2, ,40, ,
-3, ,40, ,
-3, ,40, ,
-4, ,40, ,
-6, ,40, ,
-9, ,40, ,
-11, ,40, ,
-13, ,40, ,
-13, ,40, ,
-10, ,40, ,
-9, ,40, ,
-7, ,40, ,
-5, ,40, ,
-2, ,40, ,
-1, ,40, ,
0, ,40, ,
1, ,40, ,
2, ,40, ,
2, ,40, ,
3, ,40, ,
2, ,40, ,
3, ,40, ,
3, ,40, ,
3, ,40, ,
3, ,40, ,
3, ,40, ,
3, ,40, ,
2, ,40, ,
2, ,40, ,
2, ,40, ,
2, ,40, ,
2, ,40, ,
2, ,40, ,
2, ,40, ,
2, ,40, ,
3, ,40, ,
3, ,40, ,
3, ,40, ,
3, ,40, ,
3, ,40, ,
3, ,40, ,
2, ,40, ,
2, ,40, ,
2, ,40, ,
1, ,40, ,
1, ,40, ,
1, ,40, ,
0, ,40, ,
0, ,40, ,
0, ,40, ,
0, ,40, ,
0, ,40, ,
0, ,40, ,
0, ,40, ,
1, ,40, ,
1, ,40, ,
1, ,40, ,
1, ,40, ,
1, ,40, ,
1, ,40, ,
1, ,40, ,
0, ,40, ,
0, ,40, ,
0, ,40, ,
0, ,40, ,
0, ,40, ,
0, ,40, ,
0, ,40, ,
0, ,40, ,
0, ,40, ,
0, ,40, ,
0, ,40, ,
0, ,40, ,
1, ,40, ,
1, ,40, ,
1, ,40, ,
1, ,40, ,
1, ,40, ,
2, ,40, ,
1, ,40, ,
1, ,40, ,
1, ,40, ,
0, ,40, ,
0, ,40, ,
-1, ,40, ,
-3, ,40, ,
-4, ,40, ,
-5, ,40, ,
-6, ,40, ,
-9, ,40, ,
-11, ,40, ,
-12, ,40, ,
-13, ,40, ,
-13, ,40, ,
-13, ,40, ,
-13, ,40, ,
-13, ,40, ,
-12, ,40, ,
-12, ,40, ,
-12, ,40, ,
-12, ,40, ,
-13, ,40, ,
-14, ,40, ,
-15, ,40, ,
-17, ,40, ,
-20, ,40, ,
-23, ,40, ,
-24, ,40, ,
-25, ,40, ,
-28, ,40, ,
-28, ,40, ,
-28, ,40, ,
-28, ,40, ,
-28, ,40, ,
-27, ,40, ,
-26, ,40, ,
-27, ,40, ,
-26, ,40, ,
-25, ,40, ,
-25, ,40, ,
-25, ,40, ,
-26, ,40, ,
-26, ,40, ,
-26, ,40, ,
-25, ,40, ,
-25, ,40, ,
-24, ,40, ,
-23, ,40, ,
-22, ,40, ,
-18, ,40, ,
-16, ,40, ,
-14, ,40, ,
-13, ,40, ,
-10, ,40, ,
-9, ,40, ,
-8, ,40, ,
-7, ,40, ,
-6, ,40, ,
-6, ,40, ,
-6, ,40, ,
-6, ,40, ,
-6, ,40, ,
-5, ,40, ,
-5, ,40, ,
-4, ,40, ,
-3, ,40, ,
-3, ,40, ,
-1, ,40, ,
0, ,40, ,
2, ,40, ,
3, ,40, ,
4, ,40, ,
4, ,40, ,
6, ,40, ,
6, ,40, ,
7, ,40, ,
7, ,40, ,
7, ,40, ,
7, ,40, ,
6, ,40, ,
6, ,40, ,
6, ,40, ,
5, ,40, ,
5, ,40, ,
5, ,40, ,
6, ,40, ,
6, ,40, ,
6, ,40, ,
7, ,40, ,
8, ,40, ,
8, ,40, ,
9, ,40, ,
9, ,40, ,
9, ,40, ,
11, ,40, ,
11, ,40, ,
11, ,40, ,
12, ,40, ,
11, ,40, ,
12, ,40, ,
12, ,40, ,
11, ,40, ,
11, ,40, ,
10, ,40, ,
10, ,40, ,
8, ,40, ,
6, ,40, ,
5, ,40, ,
2, ,40, ,
-1, ,40, ,
-3, ,40, ,
-5, ,40, ,
-8, ,40, ,
-12, ,40, ,
-14, ,40, ,
-16, ,40, ,
-18, ,40, ,
-22, ,40, ,
-24, ,40, ,
-25, ,40, ,
-27, ,40, ,
-30, ,40, ,
-32, ,40, ,
-33, ,40, ,
-35, ,40, ,
-36, ,40, ,
-36, ,40, ,
-36, ,40, ,
-36, ,40, ,
-35, ,40, ,
-33, ,40, ,
-31, ,40, ,
-29, ,40, ,
-25, ,40, ,
-22, ,40, ,
-19, ,40, ,
-16, ,40, ,
-10, ,40, ,
-8, ,40, ,
-5, ,40, ,
-2, ,40, ,
2, ,40, ,
4, ,40, ,
6, ,40, ,
8, ,40, ,
11, ,40, ,
11, ,40, ,
11, ,40, ,
10, ,40, ,
9, ,40, ,
8, ,40, ,
6, ,40, ,
5, ,40, ,
2, ,40, ,
0, ,40, ,
-1, ,40, ,
-4, ,40, ,
-6, ,40, ,
-6, ,40, ,
-7, ,40, ,
-7, ,40, ,
-7, ,40, ,
-6, ,40, ,
-6, ,40, ,
-6, ,40, ,
-5, ,40, ,
-4, ,40, ,
-4, ,40, ,
-3, ,40, ,
-1, ,40, ,
0, ,40, ,
1, ,40, ,
2, ,40, ,
3, ,40, ,
4, ,40, ,
5, ,40, ,
5, ,40, ,
4, ,40, ,
4, ,40, ,
3, ,40, ,
2, ,40, ,
-1, ,40, ,
-3, ,40, ,
-6, ,40, ,
-8, ,40, ,
-12, ,40, ,
-14, ,40, ,
-16, ,40, ,
-18, ,40, ,
-21, ,40, ,
-21, ,40, ,
-22, ,40, ,
-23, ,40, ,
-24, ,40, ,
-25, ,40, ,
-25, ,40, ,
-25, ,40, ,
-23, ,40, ,
-23, ,40, ,
-22, ,40, ,
-21, ,40, ,
-20, ,40, ,
-19, ,40, ,
-17, ,40, ,
-16, ,40, ,
-13, ,40, ,
-12, ,40, ,
-10, ,40, ,
-8, ,40, ,
-4, ,40, ,
-2, ,40, ,
0, ,40, ,
2, ,40, ,
6, ,40, ,
9, ,40, ,
11, ,40, ,
13, ,40, ,
18, ,40, ,
20, ,40, ,
22, ,40, ,
24, ,40, ,
25, ,40, ,
26, ,40, ,
27, ,40, ,
28, ,40, ,
27, ,40, ,
27, ,40, ,
26, ,40, ,
25, ,40, ,
24, ,40, ,
22, ,40, ,
20, ,40, ,
19, ,40, ,
14, ,40, ,
12, ,40, ,
9, ,40, ,
6, ,40, ,
0, ,40, ,
-2, ,40, ,
-5, ,40, ,
-8, ,40, ,
-12, ,40, ,
-15, ,40, ,
-17, ,40, ,
-18, ,40, ,
-21, ,40, ,
-22, ,40, ,
-24, ,40, ,
-25, ,40, ,
-25, ,40, ,
-25, ,40, ,
-25, ,40, ,
-25, ,40, ,
-24, ,40, ,
-24, ,40, ,
-23, ,40, ,
-22, ,40, ,
-20, ,40, ,
-19, ,40, ,
-18, ,40, ,
-17, ,40, ,
-15, ,40, ,
-13, ,40, ,
-13, ,40, ,
-12, ,40, ,
-11, ,40, ,
-11, ,40, ,
-10, ,40, ,
-11, ,40, ,
-12, ,40, ,
-12, ,40, ,
-13, ,40, ,
-14, ,40, ,
-16, ,40, ,
-17, ,40, ,
-18, ,40, ,
-19, ,40, ,
-21, ,40, ,
-21, ,40, ,
-22, ,40, ,
-22, ,40, ,
-22, ,40, ,
-22, ,40, ,
-22, ,40, ,
-22, ,40, ,
-21, ,40, ,
-20, ,40, ,
-20, ,40, ,
-19, ,40, ,
-17, ,40, ,
-16, ,40, ,
-14, ,40, ,
-14, ,40, ,
-10, ,40, ,
-9, ,40, ,
-7, ,40, ,
-5, ,40, ,
-2, ,40, ,
-1, ,40, ,
0, ,40, ,
2, ,40, ,
4, ,40, ,
5, ,40, ,
6, ,40, ,
6, ,40, ,
7, ,40, ,
7, ,40, ,
7, ,40, ,
7, ,40, ,
6, ,40, ,
6, ,40, ,
5, ,40, ,
4, ,40, ,
3, ,40, ,
2, ,40, ,
2, ,40, ,
1, ,40, ,
0, ,40, ,
0, ,40, ,
0, ,40, ,
0, ,40, ,
0, ,40, ,
1, ,40, ,
2, ,40, ,
2, ,40, ,
5, ,40, ,
6, ,40, ,
6, ,40, ,
8, ,40, ,
10, ,40, ,
11, ,40, ,
13, ,40, ,
13, ,40, ,
14, ,40, ,
15, ,40, ,
15, ,40, ,
15, ,40, ,
14, ,40, ,
14, ,40, ,
14, ,40, ,
13, ,40, ,
12, ,40, ,
12, ,40, ,
10, ,40, ,
9, ,40, ,
8, ,40, ,
6, ,40, ,
6, ,40, ,
4, ,40, ,
2, ,40, ,
1, ,40, ,
-1, ,40, ,
-2, ,40, ,
-5, ,40, ,
-7, ,40, ,
-8, ,40, ,
-11, ,40, ,
-14, ,40, ,
-16, ,40, ,
-17, ,40, ,
-19, ,40, ,
-21, ,40, ,
-21, ,40, ,
-21, ,40, ,
-21, ,40, ,
-20, ,40, ,
-20, ,40, ,
-19, ,40, ,
-17, ,40, ,
-14, ,40, ,
-13, ,40, ,
-11, ,40, ,
-11, ,40, ,
-8, ,40, ,
-7, ,40, ,
-7, ,40, ,
-6, ,40, ,
-6, ,40, ,
-7, ,40, ,
-8, ,40, ,
-9, ,40, ,
-11, ,40, ,
-12, ,40, ,
-13, ,40, ,
-15, ,40, ,
-17, ,40, ,
-18, ,40, ,
-18, ,40, ,
-19, ,40, ,
-19, ,40, ,
-19, ,40, ,
-19, ,40, ,
-18, ,40, ,
-17, ,40, ,
-17, ,40, ,
-16, ,40, ,
-15, ,40, ,
-14, ,40, ,
-13, ,40, ,
-12, ,40, ,
-11, ,40, ,
-9, ,40, ,
-9, ,40, ,
-9, ,40, ,
-8, ,40, ,
-6, ,40, ,
-5, ,40, ,
-5, ,40, ,
-4, ,40, ,
-2, ,40, ,
-2, ,40, ,
-1, ,40, ,
-1, ,40, ,
0, ,40, ,
1, ,40, ,
1, ,40, ,
2, ,40, ,
2, ,40, ,
2, ,40, ,
2, ,40, ,
2, ,40, ,
2, ,40, ,
2, ,40, ,
1, ,40, ,
1, ,40, ,
1, ,40, ,
0, ,40, ,
0, ,40, ,
-1, ,40, ,
-1, ,40, ,
-1, ,40, ,
-2, ,40, ,
-2, ,40, ,
-2, ,40, ,
-2, ,40, ,
-2, ,40, ,
-3, ,40, ,
-3, ,40, ,
-3, ,40, ,
-3, ,40, ,
-4, ,40, ,
-4, ,40, ,
-5, ,40, ,
-5, ,40, ,
-6, ,40, ,
-7, ,40, ,
-7, ,40, ,
-8, ,40, ,
-8, ,40, ,
-8, ,40, ,
-9, ,40, ,
-9, ,40, ,
-9, ,40, ,
-8, ,40, ,
-7, ,40, ,
-7, ,40, ,
-7, ,40, ,
-6, ,40, ,
-5, ,40, ,
-4, ,40, ,
-4, ,40, ,
-2, ,40, ,
-1, ,40, ,
-1, ,40, ,
1, ,40, ,
2, ,40, ,
3, ,40, ,
5, ,40, ,
5, ,40, ,
7, ,40, ,
8, ,40, ,
8, ,40, ,
10, ,40, ,
11, ,40, ,
12, ,40, ,
12, ,40, ,
12, ,40, ,
12, ,40, ,
12, ,40, ,
12, ,40, ,
12, ,40, ,
11, ,40, ,
10, ,40, ,
10, ,40, ,
8, ,40, ,
7, ,40, ,
6, ,40, ,
5, ,40, ,
4, ,40, ,
2, ,40, ,
0, ,40, ,
-1, ,40, ,
-3, ,40, ,
-5, ,40, ,
-7, ,40, ,
-8, ,40, ,
-9, ,40, ,
-11, ,40, ,
-13, ,40, ,
-13, ,40, ,
-14, ,40, ,
-15, ,40, ,
-16, ,40, ,
-16, ,40, ,
-16, ,40, ,
-16, ,40, ,
-16, ,40, ,
-16, ,40, ,
-15, ,40, ,
-15, ,40, ,
-14, ,40, ,
-14, ,40, ,
-13, ,40, ,
-12, ,40, ,
-12, ,40, ,
-11, ,40, ,
-10, ,40, ,
-8, ,40, ,
-8, ,40, ,
-7, ,40, ,
-5, ,40, ,
-3, ,40, ,
-2, ,40, ,
0, ,40, ,
1, ,40, ,
3, ,40, ,
5, ,40, ,
6, ,40, ,
7, ,40, ,
9, ,40, ,
10, ,40, ,
10, ,40, ,
10, ,40, ,
10, ,40, ,
10, ,40, ,
9, ,40, ,
9, ,40, ,
8, ,40, ,
6, ,40, ,
5, ,40, ,
4, ,40, ,
2, ,40, ,
1, ,40, ,
0, ,40, ,
-1, ,40, ,
-2, ,40, ,
-3, ,40, ,
-3, ,40, ,
-3, ,40, ,
-2, ,40, ,
-2, ,40, ,
-1, ,40, ,
-1, ,40, ,
2, ,40, ,
1, ,40, ,
3, ,40, ,
4, ,40, ,
6, ,40, ,
7, ,40, ,
7, ,40, ,
8, ,40, ,
7, ,40, ,
7, ,40, ,
7, ,40, ,
6, ,40, ,
5, ,40, ,
4, ,40, ,
2, ,40, ,
1, ,40, ,
-1, ,40, ,
-3, ,40, ,
-4, ,40, ,
-6, ,40, ,
-9, ,40, ,
-10, ,40, ,
-11, ,40, ,
-11, ,40, ,
-12, ,40, ,
-12, ,40, ,
-12, ,40, ,
-12, ,40, ,
-11, ,40, ,
-10, ,40, ,
-10, ,40, ,
-9, ,40, ,
-8, ,40, ,
-8, ,40, ,
-8, ,40, ,
-7, ,40, ,
-7, ,40, ,
-7, ,40, ,
-7, ,40, ,
-7, ,40, ,
-6, ,40, ,
-6, ,40, ,
-6, ,40, ,
-6, ,40, ,
-6, ,40, ,
-6, ,40, ,
-6, ,40, ,
-5, ,40, ,
-5, ,40, ,
-5, ,40, ,
-4, ,40, ,
-3, ,40, ,
-2, ,40, ,
-2, ,40, ,
-1, ,40, ,
0, ,40, ,
1, ,40, ,
2, ,40, ,
2, ,40, ,
3, ,40, ,
5, ,40, ,
6, ,40, ,
6, ,40, ,
7, ,40, ,
8, ,40, ,
9, ,40, ,
9, ,40, ,
10, ,40, ,
11, ,40, ,
11, ,40, ,
11, ,40, ,
10, ,40, ,
10, ,40, ,
9, ,40, ,
9, ,40, ,
7, ,40, ,
5, ,40, ,
5, ,40, ,
3, ,40, ,
3, ,40, ,
1, ,40, ,
0, ,40, ,
0, ,40, ,
-1, ,40, ,
-1, ,40, ,
-1, ,40, ,
0, ,40, ,
0, ,40, ,
1, ,40, ,
2, ,40, ,
3, ,40, ,
3, ,40, ,
4, ,40, ,
4, ,40, ,
4, ,40, ,
4, ,40, ,
3, ,40, ,
2, ,40, ,
1, ,40, ,
-1, ,40, ,
-3, ,40, ,
-4, ,40, ,
-7, ,40, ,
-8, ,40, ,
-11, ,40, ,
-12, ,40, ,
-13, ,40, ,
-15, ,40, ,
-15, ,40, ,
-15, ,40, ,
-15, ,40, ,
-15, ,40, ,
-14, ,40, ,
-14, ,40, ,
-14, ,40, ,
-13, ,40, ,
-13, ,40, ,
-11, ,40, ,
-11, ,40, ,
-11, ,40, ,
-9, ,40, ,
-8, ,40, ,
-7, ,40, ,
-7, ,40, ,
-5, ,40, ,
-4, ,40, ,
-4, ,40, ,
-3, ,40, ,
-1, ,40, ,
0, ,40, ,
0, ,40, ,
1, ,40, ,
1, ,40, ,
1, ,40, ,
2, ,40, ,
2, ,40, ,
3, ,40, ,
3, ,40, ,
3, ,40, ,
4, ,40, ,
5, ,40, ,
6, ,40, ,
6, ,40, ,
6, ,40, ,
8, ,40, ,
8, ,40, ,
10, ,40, ,
10, ,40, ,
11, ,40, ,
11, ,40, ,
11, ,40, ,
10, ,40, ,
9, ,40, ,
9, ,40, ,
7, ,40, ,
6, ,40, ,
4, ,40, ,
3, ,40, ,
1, ,40, ,
-1, ,40, ,
-3, ,40, ,
-5, ,40, ,
-6, ,40, ,
-8, ,40, ,
-10, ,40, ,
-11, ,40, ,
-12, ,40, ,
-13, ,40, ,
-13, ,40, ,
-13, ,40, ,
-13, ,40, ,
-13, ,40, ,
-12, ,40, ,
-12, ,40, ,
-12, ,40, ,
-11, ,40, ,
-10, ,40, ,
-10, ,40, ,
-9, ,40, ,
-9, ,40, ,
-8, ,40, ,
-8, ,40, ,
-9, ,40, ,
-9, ,40, ,
-9, ,40, ,
-9, ,40, ,
-9, ,40, ,
-9, ,40, ,
-9, ,40, ,
-9, ,40, ,
-9, ,40, ,
-9, ,40, ,
-8, ,40, ,
-9, ,40, ,
-7, ,40, ,
-7, ,40, ,
-5, ,40, ,
-4, ,40, ,
-3, ,40, ,
-2, ,40, ,
0, ,40, ,
2, ,40, ,
3, ,40, ,
4, ,40, ,
6, ,40, ,
7, ,40, ,
8, ,40, ,
9, ,40, ,
10, ,40, ,
11, ,40, ,
11, ,40, ,
11, ,40, ,
10, ,40, ,
9, ,40, ,
9, ,40, ,
8, ,40, ,
6, ,40, ,
5, ,40, ,
4, ,40, ,
3, ,40, ,
1, ,40, ,
0, ,40, ,
-1, ,40, ,
-1, ,40, ,
-2, ,40, ,
-3, ,40, ,
-3, ,40, ,
-3, ,40, ,
-2, ,40, ,
-1, ,40, ,
-1, ,40, ,
0, ,40, ,
1, ,40, ,
2, ,40, ,
2, ,40, ,
2, ,40, ,
3, ,40, ,
3, ,40, ,
3, ,40, ,
3, ,40, ,
2, ,40, ,
1, ,40, ,
1, ,40, ,
-1, ,40, ,
-2, ,40, ,
-3, ,40, ,
-4, ,40, ,
-4, ,40, ,
-4, ,40, ,
-5, ,40, ,
-5, ,40, ,
-5, ,40, ,
-5, ,40, ,
-4, ,40, ,
-4, ,40, ,
-3, ,40, ,
-2, ,40, ,
-2, ,40, ,
-2, ,40, ,
-1, ,40, ,
-1, ,40, ,
-1, ,40, ,
-1, ,40, ,
-1, ,40, ,
-1, ,40, ,
-2, ,40, ,
-2, ,40, ,
-2, ,40, ,
-3, ,40, ,
-3, ,40, ,
-4, ,40, ,
-3, ,40, ,
-4, ,40, ,
-4, ,40, ,
-3, ,40, ,
-3, ,40, ,
-3, ,40, ,
-2, ,40, ,
-1, ,40, ,
-1, ,40, ,
1, ,40, ,
1, ,40, ,
2, ,40, ,
2, ,40, ,
3, ,40, ,
3, ,40, ,
3, ,40, ,
4, ,40, ,
3, ,40, ,
3, ,40, ,
3, ,40, ,
3, ,40, ,
3, ,40, ,
3, ,40, ,
2, ,40, ,
2, ,40, ,
2, ,40, ,
2, ,40, ,
2, ,40, ,
2, ,40, ,
3, ,40, ,
3, ,40, ,
3, ,40, ,
3, ,40, ,
4, ,40, ,
4, ,40, ,
4, ,40, ,
5, ,40, ,
5, ,40, ,
6, ,40, ,
6, ,40, ,
6, ,40, ,
6, ,40, ,
6, ,40, ,
6, ,40, ,
5, ,40, ,
4, ,40, ,
4, ,40, ,
2, ,40, ,
1, ,40, ,
0, ,40, ,
-2, ,40, ,
-3, ,40, ,
-5, ,40, ,
-6, ,40, ,
-6, ,40, ,
-7, ,40, ,
-7, ,40, ,
-7, ,40, ,
-7, ,40, ,
-7, ,40, ,
-7, ,40, ,
-6, ,40, ,
-6, ,40, ,
-6, ,40, ,
-6, ,40, ,
-7, ,40, ,
-7, ,40, ,
-7, ,40, ,
-9, ,40, ,
-10, ,40, ,
-10, ,40, ,
-11, ,40, ,
-11, ,40, ,
-11, ,40, ,
-11, ,40, ,
-11, ,40, ,
-11, ,40, ,
-8, ,40, ,
-7, ,40, ,
-6, ,40, ,
-4, ,40, ,
0, ,40, ,
2, ,40, ,
4, ,40, ,
5, ,40, ,
8, ,40, ,
9, ,40, ,
10, ,40, ,
11, ,40, ,
12, ,40, ,
11, ,40, ,
11, ,40, ,
10, ,40, ,
9, ,40, ,
9, ,40, ,
8, ,40, ,
7, ,40, ,
6, ,40, ,
5, ,40, ,
5, ,40, ,
4, ,40, ,
3, ,40, ,
3, ,40, ,
2, ,40, ,
2, ,40, ,
1, ,40, ,
1, ,40, ,
0, ,40, ,
0, ,40, ,
-1, ,40, ,
-1, ,40, ,
-2, ,40, ,
-2, ,40, ,
-2, ,40, ,
-2, ,40, ,
-2, ,40, ,
-2, ,40, ,
-2, ,40, ,
-2, ,40, ,
-2, ,40, ,
-2, ,40, ,
-1, ,40, ,
-1, ,40, ,
0, ,40, ,
0, ,40, ,
1, ,40, ,
3, ,40, ,
3, ,40, ,
4, ,40, ,
5, ,40, ,
5, ,40, ,
5, ,40, ,
5, ,40, ,
4, ,40, ,
4, ,40, ,
3, ,40, ,
3, ,40, ,
2, ,40, ,
0, ,40, ,
0, ,40, ,
-2, ,40, ,
-4, ,40, ,
-5, ,40, ,
-6, ,40, ,
-8, ,40, ,
-10, ,40, ,
-11, ,40, ,
-11, ,40, ,
-12, ,40, ,
-13, ,40, ,
-14, ,40, ,
-14, ,40, ,
-14, ,40, ,
-13, ,40, ,
-12, ,40, ,
-12, ,40, ,
-12, ,40, ,
-9, ,40, ,
-8, ,40, ,
-7, ,40, ,
-5, ,40, ,
-3, ,40, ,
-2, ,40, ,
0, ,40, ,
1, ,40, ,
4, ,40, ,
5, ,40, ,
7, ,40, ,
8, ,40, ,
9, ,40, ,
10, ,40, ,
11, ,40, ,
11, ,40, ,
12, ,40, ,
12, ,40, ,
11, ,40, ,
11, ,40, ,
11, ,40, ,
9, ,40, ,
9, ,40, ,
8, ,40, ,
7, ,40, ,
6, ,40, ,
6, ,40, ,
5, ,40, ,
5, ,40, ,
4, ,40, ,
4, ,40, ,
4, ,40, ,
4, ,40, ,
4, ,40, ,
4, ,40, ,
4, ,40, ,
5, ,40, ,
5, ,40, ,
5, ,40, ,
5, ,40, ,
5, ,40, ,
5, ,40, ,
4, ,40, ,
4, ,40, ,
3, ,40, ,
2, ,40, ,
2, ,40, ,
0, ,40, ,
-1, ,40, ,
-1, ,40, ,
-3, ,40, ,
-3, ,40, ,
-5, ,40, ,
-6, ,40, ,
-6, ,40, ,
-7, ,40, ,
-7, ,40, ,
-7, ,40, ,
-7, ,40, ,
-7, ,40, ,
-7, ,40, ,
-7, ,40, ,
-6, ,40, ,
-6, ,40, ,
-5, ,40, ,
-4, ,40, ,
-3, ,40, ,
-2, ,40, ,
0, ,40, ,
-1, ,40, ,
1, ,40, ,
1, ,40, ,
1, ,40, ,
2, ,40, ,
1, ,40, ,
1, ,40, ,
1, ,40, ,
1, ,40, ,
1, ,40, ,
0, ,40, ,
-1, ,40, ,
-2, ,40, ,
-2, ,40, ,
-3, ,40, ,
-3, ,40, ,
-3, ,40, ,
-3, ,40, ,
-3, ,40, ,
-3, ,40, ,
-3, ,40, ,
-2, ,40, ,
-2, ,40, ,
-1, ,40, ,
0, ,40, ,
1, ,40, ,
2, ,40, ,
4, ,40, ,
5, ,40, ,
5, ,40, ,
6, ,40, ,
8, ,40, ,
8, ,40, ,
8, ,40, ,
7, ,40, ,
6, ,40, ,
6, ,40, ,
5, ,40, ,
5, ,40, ,
2, ,40, ,
2, ,40, ,
0, ,40, ,
-2, ,40, ,
-4, ,40, ,
-5, ,40, ,
-6, ,40, ,
-6, ,40, ,
-7, ,40, ,
-7, ,40, ,
-7, ,40, ,
-6, ,40, ,
-6, ,40, ,
-6, ,40, ,
-5, ,40, ,
-5, ,40, ,
-3, ,40, ,
-3, ,40, ,
-2, ,40, ,
-1, ,40, ,
-1, ,40, ,
1, ,40, ,
0, ,40, ,
2, ,40, ,
3, ,40, ,
3, ,40, ,
4, ,40, ,
4, ,40, ,
6, ,40, ,
7, ,40, ,
8, ,40, ,
8, ,40, ,
9, ,40, ,
9, ,40, ,
9, ,40, ,
9, ,40, ,
8, ,40, ,
7, ,40, ,
6, ,40, ,
6, ,40, ,
4, ,40, ,
3, ,40, ,
2, ,40, ,
1, ,40, ,
-1, ,40, ,
-2, ,40, ,
-3, ,40, ,
-4, ,40, ,
-6, ,40, ,
-7, ,40, ,
-7, ,40, ,
-9, ,40, ,
-10, ,40, ,
-10, ,40, ,
-11, ,40, ,
-11, ,40, ,
-12, ,40, ,
-13, ,40, ,
-13, ,40, ,
-13, ,40, ,
-13, ,40, ,
-12, ,40, ,
-12, ,40, ,
-12, ,40, ,
-10, ,40, ,
-9, ,40, ,
-8, ,40, ,
-7, ,40, ,
-5, ,40, ,
-3, ,40, ,
-2, ,40, ,
0, ,40, ,
3, ,40, ,
4, ,40, ,
6, ,40, ,
7, ,40, ,
9, ,40, ,
10, ,40, ,
11, ,40, ,
12, ,40, ,
13, ,40, ,
12, ,40, ,
12, ,40, ,
12, ,40, ,
11, ,40, ,
10, ,40, ,
9, ,40, ,
8, ,40, ,
6, ,40, ,
5, ,40, ,
3, ,40, ,
2, ,40, ,
0, ,40, ,
-1, ,40, ,
-2, ,40, ,
-2, ,40, ,
-3, ,40, ,
-4, ,40, ,
-4, ,40, ,
-4, ,40, ,
-4, ,40, ,
-4, ,40, ,
-4, ,40, ,
-3, ,40, ,
-3, ,40, ,
-4, ,40, ,
-4, ,40, ,
-4, ,40, ,
-4, ,40, ,
-4, ,40, ,
-4, ,40, ,
-4, ,40, ,
-4, ,40, ,
-5, ,40, ,
-5, ,40, ,
-5, ,40, ,
-4, ,40, ,
-3, ,40, ,
-3, ,40, ,
-2, ,40, ,
0, ,40, ,
0, ,40, ,
1, ,40, ,
1, ,40, ,
3, ,40, ,
4, ,40, ,
5, ,40, ,
6, ,40, ,
7, ,40, ,
8, ,40, ,
9, ,40, ,
9, ,40, ,
9, ,40, ,
9, ,40, ,
9, ,40, ,
9, ,40, ,
8, ,40, ,
7, ,40, ,
7, ,40, ,
6, ,40, ,
5, ,40, ,
5, ,40, ,
4, ,40, ,
4, ,40, ,
2, ,40, ,
1, ,40, ,
0, ,40, ,
-1, ,40, ,
-3, ,40, ,
-4, ,40, ,
-5, ,40, ,
-6, ,40, ,
-7, ,40, ,
-8, ,40, ,
-9, ,40, ,
-10, ,40, ,
-10, ,40, ,
-10, ,40, ,
-10, ,40, ,
-10, ,40, ,
-10, ,40, ,
-10, ,40, ,
-9, ,40, ,
-9, ,40, ,
