raw_data/75% Glycerol, Impulsion 2Hz, Sonde 5MHz, Rampe 0.7Hz/temp0000301.CSV

Format,1.0B,
Memory Length,10000,Memory Length,10000,
IntpDistance,0,IntpDistance,0,
Trigger Address,159,Trigger Address,159,
Trigger Level,2.720E-01,Trigger Level,2.720E-01,
Source,CH1,Source,CH2,
Vertical Units,V,Vertical Units,V,
Vertical Units Div,0,Vertical Units Div,0,
Vertical Units Extend Div,16,Vertical Units Extend Div,16,
Label,,Label,,
Probe Type,0,Probe Type,0,
Probe Ratio,1.000e+00,Probe Ratio,1.000e+00,
Vertical Scale,5.000e-01,Vertical Scale,2.000e+00,
Vertical Position,0.000e+00,Vertical Position,0.000e+00,
Horizontal Units,S,Horizontal Units,S,
Horizontal Scale,5.000E-06,Horizontal Scale,5.000E-06,
Horizontal Position,2.420E-05,Horizontal Position,2.420E-05,
Horizontal Mode,Main,Horizontal Mode,Main,
SincET Mode,Real Time,SincET Mode,Real Time,
Sampling Period,5.000e-09,Sampling Period,5.000e-09,
Horizontal Old Scale,5.000E-06,Horizontal Old Scale,5.000E-06,
Horizontal Old Position,2.420E-05,Horizontal Old Position,2.420E-05,
Firmware,V1.32,Firmware,V1.32,
Mode,Fast,Mode,Fast,
Waveform Data,,Waveform Data,,
1, ,16, ,
1, ,16, ,
1, ,16, ,
1, ,16, ,
1, ,16, ,
1, ,16, ,
1, ,16, ,
1, ,16, ,
1, ,16, ,
1, ,16, ,
1, ,16, ,
1, ,16, ,
1, ,16, ,
1, ,16, ,
1, ,16, ,
0, ,16, ,
0, ,16, ,
0, ,16, ,
0, ,16, ,
1, ,16, ,
1, ,16, ,
0, ,16, ,
0, ,16, ,
0, ,16, ,
1, ,16, ,
1, ,16, ,
1, ,16, ,
1, ,16, ,
1, ,16, ,
0, ,16, ,
0, ,16, ,
0, ,16, ,
0, ,16, ,
0, ,16, ,
0, ,16, ,
1, ,16, ,
1, ,16, ,
0, ,16, ,
1, ,16, ,
1, ,16, ,
1, ,16, ,
1, ,16, ,
1, ,16, ,
1, ,16, ,
1, ,16, ,
0, ,16, ,
0, ,16, ,
0, ,16, ,
1, ,16, ,
1, ,16, ,
1, ,16, ,
1, ,16, ,
0, ,16, ,
0, ,16, ,
0, ,16, ,
1, ,16, ,
1, ,16, ,
1, ,16, ,
0, ,16, ,
0, ,16, ,
1, ,16, ,
1, ,16, ,
1, ,16, ,
1, ,16, ,
1, ,16, ,
1, ,16, ,
1, ,16, ,
1, ,16, ,
1, ,16, ,
1, ,16, ,
1, ,16, ,
1, ,16, ,
1, ,16, ,
1, ,16, ,
1, ,16, ,
1, ,16, ,
1, ,16, ,
1, ,16, ,
1, ,16, ,
1, ,16, ,
1, ,16, ,
1, ,16, ,
1, ,16, ,
1, ,16, ,
1, ,16, ,
1, ,16, ,
1, ,16, ,
1, ,16, ,
1, ,16, ,
1, ,16, ,
1, ,16, ,
1, ,16, ,
1, ,16, ,
1, ,16, ,
1, ,16, ,
1, ,16, ,
1, ,16, ,
1, ,16, ,
1, ,16, ,
1, ,16, ,
1, ,16, ,
1, ,16, ,
1, ,16, ,
1, ,16, ,
0, ,16, ,
0, ,16, ,
1, ,16, ,
1, ,16, ,
1, ,16, ,
1, ,16, ,
1, ,16, ,
0, ,16, ,
0, ,16, ,
1, ,16, ,
1, ,16, ,
1, ,16, ,
1, ,16, ,
1, ,16, ,
1, ,16, ,
1, ,16, ,
1, ,16, ,
1, ,16, ,
0, ,16, ,
0, ,16, ,
1, ,16, ,
1, ,16, ,
1, ,16, ,
1, ,16, ,
1, ,16, ,
1, ,16, ,
0, ,16, ,
0, ,16, ,
1, ,16, ,
1, ,16, ,
1, ,16, ,
0, ,16, ,
0, ,16, ,
1, ,16, ,
1, ,16, ,
1, ,16, ,
0, ,16, ,
0, ,16, ,
1, ,16, ,
1, ,16, ,
1, ,16, ,
1, ,16, ,
1, ,16, ,
1, ,16, ,
1, ,16, ,
1, ,16, ,
1, ,16, ,
1, ,16, ,
1, ,16, ,
1, ,16, ,
1, ,16, ,
1, ,16, ,
1, ,16, ,
1, ,16, ,
1, ,16, ,
1, ,16, ,
1, ,16, ,
1, ,16, ,
1, ,16, ,
0, ,16, ,
0, ,16, ,
-1, ,16, ,
0, ,16, ,
-1, ,16, ,
27, ,16, ,
63, ,16, ,
103, ,16, ,
125, ,16, ,
120, ,16, ,
75, ,16, ,
17, ,16, ,
-8, ,16, ,
78, ,16, ,
125, ,16, ,
125, ,16, ,
125, ,16, ,
125, ,16, ,
125, ,16, ,
125, ,16, ,
125, ,16, ,
124, ,16, ,
119, ,16, ,
113, ,16, ,
109, ,16, ,
102, ,16, ,
98, ,16, ,
96, ,16, ,
92, ,16, ,
84, ,16, ,
82, ,16, ,
78, ,16, ,
75, ,16, ,
70, ,16, ,
68, ,16, ,
65, ,16, ,
62, ,16, ,
57, ,16, ,
55, ,16, ,
52, ,17, ,
51, ,16, ,
46, ,16, ,
45, ,16, ,
42, ,16, ,
40, ,16, ,
37, ,16, ,
36, ,16, ,
34, ,16, ,
33, ,16, ,
29, ,16, ,
28, ,16, ,
27, ,16, ,
25, ,16, ,
24, ,16, ,
23, ,16, ,
22, ,16, ,
21, ,16, ,
19, ,16, ,
18, ,16, ,
18, ,16, ,
16, ,16, ,
15, ,16, ,
14, ,16, ,
13, ,16, ,
13, ,16, ,
11, ,16, ,
10, ,16, ,
10, ,16, ,
9, ,16, ,
8, ,16, ,
8, ,16, ,
7, ,16, ,
7, ,16, ,
6, ,16, ,
5, ,16, ,
5, ,16, ,
5, ,16, ,
4, ,16, ,
4, ,16, ,
4, ,16, ,
4, ,16, ,
3, ,16, ,
3, ,16, ,
3, ,16, ,
2, ,16, ,
2, ,16, ,
2, ,16, ,
1, ,16, ,
1, ,16, ,
1, ,16, ,
1, ,16, ,
1, ,16, ,
0, ,16, ,
0, ,16, ,
0, ,16, ,
0, ,16, ,
0, ,16, ,
0, ,16, ,
0, ,16, ,
0, ,16, ,
-1, ,16, ,
-1, ,16, ,
-1, ,16, ,
-1, ,16, ,
-1, ,16, ,
-1, ,16, ,
-1, ,16, ,
-1, ,16, ,
-1, ,16, ,
-1, ,16, ,
-1, ,16, ,
-1, ,16, ,
-1, ,16, ,
-1, ,16, ,
-1, ,16, ,
-1, ,16, ,
-1, ,16, ,
-1, ,16, ,
-1, ,16, ,
-1, ,16, ,
-1, ,16, ,
-1, ,16, ,
-1, ,16, ,
-1, ,16, ,
-1, ,16, ,
-1, ,16, ,
-1, ,16, ,
-1, ,16, ,
-1, ,16, ,
-1, ,16, ,
-1, ,16, ,
-1, ,16, ,
-1, ,16, ,
-1, ,16, ,
-1, ,16, ,
-1, ,16, ,
-1, ,16, ,
-1, ,16, ,
-1, ,16, ,
-1, ,16, ,
-1, ,16, ,
-1, ,16, ,
-1, ,16, ,
-1, ,16, ,
-1, ,16, ,
-1, ,16, ,
-1, ,16, ,
-1, ,16, ,
-1, ,16, ,
-1, ,16, ,
-1, ,16, ,
-1, ,16, ,
-1, ,16, ,
0, ,16, ,
0, ,16, ,
0, ,16, ,
0, ,16, ,
0, ,16, ,
0, ,16, ,
-1, ,16, ,
-1, ,16, ,
0, ,16, ,
0, ,16, ,
0, ,16, ,
-1, ,16, ,
-1, ,16, ,
0, ,16, ,
0, ,16, ,
0, ,16, ,
0, ,16, ,
0, ,16, ,
0, ,16, ,
0, ,16, ,
0, ,16, ,
0, ,16, ,
0, ,16, ,
0, ,16, ,
0, ,16, ,
0, ,16, ,
0, ,16, ,
0, ,16, ,
0, ,16, ,
0, ,16, ,
0, ,16, ,
0, ,16, ,
0, ,16, ,
0, ,16, ,
0, ,16, ,
0, ,16, ,
0, ,16, ,
0, ,16, ,
0, ,16, ,
0, ,16, ,
0, ,16, ,
0, ,16, ,
0, ,16, ,
0, ,16, ,
0, ,16, ,
0, ,16, ,
0, ,16, ,
0, ,16, ,
0, ,16, ,
0, ,16, ,
0, ,16, ,
0, ,16, ,
1, ,16, ,
1, ,16, ,
1, ,16, ,
1, ,16, ,
0, ,16, ,
0, ,16, ,
0, ,16, ,
0, ,16, ,
0, ,16, ,
0, ,16, ,
0, ,16, ,
0, ,16, ,
0, ,16, ,
0, ,16, ,
0, ,16, ,
0, ,16, ,
1, ,16, ,
1, ,16, ,
1, ,16, ,
1, ,16, ,
0, ,16, ,
0, ,16, ,
0, ,16, ,
0, ,16, ,
0, ,16, ,
0, ,16, ,
1, ,16, ,
1, ,16, ,
1, ,16, ,
0, ,16, ,
0, ,16, ,
0, ,16, ,
1, ,16, ,
1, ,16, ,
1, ,16, ,
1, ,16, ,
0, ,16, ,
0, ,16, ,
0, ,16, ,
0, ,16, ,
0, ,16, ,
0, ,16, ,
0, ,16, ,
0, ,16, ,
0, ,16, ,
0, ,16, ,
1, ,16, ,
1, ,16, ,
1, ,16, ,
1, ,16, ,
1, ,16, ,
1, ,16, ,
0, ,16, ,
0, ,16, ,
1, ,16, ,
1, ,16, ,
1, ,16, ,
1, ,16, ,
1, ,16, ,
1, ,16, ,
1, ,16, ,
0, ,16, ,
0, ,16, ,
0, ,16, ,
0, ,16, ,
0, ,16, ,
0, ,16, ,
0, ,16, ,
-1, ,16, ,
-2, ,16, ,
-2, ,16, ,
-3, ,16, ,
-7, ,16, ,
-8, ,16, ,
-11, ,16, ,
-13, ,16, ,
-16, ,16, ,
-16, ,16, ,
-15, ,16, ,
-13, ,16, ,
-7, ,16, ,
-4, ,16, ,
-3, ,16, ,
-1, ,16, ,
1, ,16, ,
2, ,16, ,
3, ,16, ,
4, ,16, ,
4, ,16, ,
4, ,16, ,
4, ,16, ,
4, ,16, ,
4, ,16, ,
4, ,16, ,
4, ,16, ,
2, ,16, ,
2, ,16, ,
2, ,16, ,
1, ,16, ,
1, ,16, ,
2, ,16, ,
2, ,16, ,
2, ,16, ,
2, ,16, ,
2, ,16, ,
3, ,16, ,
3, ,16, ,
3, ,16, ,
3, ,16, ,
3, ,16, ,
3, ,16, ,
3, ,16, ,
2, ,16, ,
2, ,16, ,
2, ,16, ,
2, ,16, ,
1, ,16, ,
0, ,16, ,
0, ,16, ,
0, ,16, ,
0, ,16, ,
0, ,16, ,
0, ,16, ,
1, ,16, ,
1, ,16, ,
2, ,16, ,
2, ,16, ,
2, ,16, ,
2, ,16, ,
2, ,16, ,
2, ,16, ,
2, ,16, ,
1, ,16, ,
1, ,16, ,
1, ,16, ,
1, ,16, ,
1, ,16, ,
1, ,16, ,
1, ,16, ,
1, ,16, ,
1, ,16, ,
1, ,16, ,
1, ,16, ,
1, ,16, ,
1, ,16, ,
1, ,16, ,
1, ,16, ,
1, ,16, ,
0, ,16, ,
0, ,16, ,
0, ,16, ,
-1, ,16, ,
-3, ,16, ,
-3, ,16, ,
-4, ,16, ,
-4, ,16, ,
-6, ,16, ,
-7, ,16, ,
-7, ,16, ,
-8, ,16, ,
-8, ,16, ,
-7, ,16, ,
-7, ,16, ,
-7, ,16, ,
-6, ,16, ,
-6, ,16, ,
-5, ,16, ,
-5, ,16, ,
-5, ,16, ,
-5, ,16, ,
-6, ,16, ,
-7, ,16, ,
-8, ,16, ,
-10, ,16, ,
-12, ,16, ,
-15, ,16, ,
-21, ,16, ,
-23, ,16, ,
-26, ,16, ,
-29, ,16, ,
-32, ,16, ,
-34, ,16, ,
-34, ,16, ,
-34, ,16, ,
-34, ,16, ,
-35, ,16, ,
-35, ,16, ,
-36, ,16, ,
-37, ,16, ,
-37, ,16, ,
-38, ,16, ,
-39, ,16, ,
-39, ,16, ,
-39, ,16, ,
-38, ,16, ,
-37, ,16, ,
-34, ,16, ,
-32, ,16, ,
-30, ,16, ,
-27, ,16, ,
-22, ,16, ,
-18, ,16, ,
-14, ,16, ,
-11, ,16, ,
-6, ,16, ,
-3, ,16, ,
-1, ,16, ,
0, ,16, ,
3, ,16, ,
4, ,16, ,
4, ,16, ,
5, ,16, ,
6, ,16, ,
6, ,16, ,
7, ,16, ,
7, ,16, ,
8, ,16, ,
9, ,16, ,
9, ,16, ,
10, ,16, ,
11, ,16, ,
11, ,16, ,
11, ,16, ,
10, ,16, ,
9, ,16, ,
9, ,16, ,
8, ,16, ,
7, ,16, ,
5, ,16, ,
4, ,16, ,
3, ,16, ,
3, ,16, ,
2, ,16, ,
2, ,16, ,
2, ,16, ,
3, ,16, ,
4, ,16, ,
5, ,16, ,
6, ,16, ,
7, ,16, ,
8, ,16, ,
9, ,16, ,
9, ,16, ,
8, ,16, ,
7, ,16, ,
7, ,16, ,
6, ,16, ,
5, ,16, ,
2, ,16, ,
1, ,16, ,
0, ,16, ,
-1, ,16, ,
-3, ,16, ,
-4, ,16, ,
-5, ,16, ,
-5, ,16, ,
-4, ,16, ,
-4, ,16, ,
-4, ,16, ,
-3, ,16, ,
-3, ,16, ,
-3, ,16, ,
-2, ,16, ,
-2, ,16, ,
-2, ,16, ,
-2, ,16, ,
-3, ,16, ,
-3, ,16, ,
-4, ,16, ,
-6, ,16, ,
-7, ,16, ,
-8, ,16, ,
-12, ,16, ,
-12, ,16, ,
-14, ,16, ,
-15, ,16, ,
-17, ,16, ,
-18, ,16, ,
-18, ,16, ,
-19, ,16, ,
-20, ,16, ,
-20, ,16, ,
-21, ,16, ,
-21, ,16, ,
-23, ,16, ,
-24, ,16, ,
-24, ,16, ,
-25, ,16, ,
-25, ,16, ,
-25, ,16, ,
-25, ,16, ,
-25, ,16, ,
-24, ,16, ,
-22, ,16, ,
-20, ,16, ,
-18, ,16, ,
-13, ,16, ,
-10, ,16, ,
-8, ,16, ,
-6, ,16, ,
-2, ,16, ,
-1, ,16, ,
2, ,16, ,
3, ,16, ,
4, ,16, ,
4, ,16, ,
4, ,16, ,
5, ,16, ,
4, ,16, ,
3, ,16, ,
3, ,16, ,
2, ,16, ,
1, ,16, ,
0, ,16, ,
0, ,16, ,
-1, ,16, ,
-2, ,16, ,
-3, ,16, ,
-3, ,16, ,
-4, ,16, ,
-4, ,16, ,
-4, ,16, ,
-5, ,16, ,
-5, ,16, ,
-6, ,16, ,
-6, ,16, ,
-7, ,16, ,
-7, ,16, ,
-8, ,16, ,
-8, ,16, ,
-9, ,16, ,
-10, ,16, ,
-10, ,16, ,
-11, ,16, ,
-11, ,16, ,
-11, ,16, ,
-10, ,16, ,
-10, ,16, ,
-9, ,16, ,
-8, ,16, ,
-6, ,16, ,
-6, ,16, ,
-5, ,16, ,
-5, ,16, ,
-5, ,16, ,
-4, ,16, ,
-5, ,16, ,
-5, ,16, ,
-6, ,16, ,
-7, ,16, ,
-7, ,16, ,
-8, ,16, ,
-9, ,16, ,
-9, ,16, ,
-9, ,16, ,
-8, ,16, ,
-8, ,16, ,
-7, ,16, ,
-6, ,16, ,
-5, ,16, ,
-1, ,16, ,
0, ,16, ,
3, ,16, ,
5, ,16, ,
9, ,16, ,
9, ,16, ,
12, ,16, ,
12, ,16, ,
14, ,16, ,
15, ,16, ,
14, ,16, ,
14, ,16, ,
13, ,16, ,
11, ,16, ,
11, ,16, ,
10, ,16, ,
7, ,16, ,
5, ,16, ,
4, ,16, ,
3, ,16, ,
2, ,16, ,
1, ,16, ,
1, ,16, ,
1, ,16, ,
0, ,16, ,
0, ,16, ,
0, ,16, ,
0, ,16, ,
-1, ,16, ,
-2, ,16, ,
-2, ,16, ,
-2, ,16, ,
-4, ,16, ,
-4, ,16, ,
-5, ,16, ,
-5, ,16, ,
-5, ,16, ,
-5, ,16, ,
-5, ,16, ,
-5, ,16, ,
-6, ,16, ,
-6, ,16, ,
-6, ,16, ,
-7, ,16, ,
-7, ,16, ,
-8, ,16, ,
-8, ,16, ,
-9, ,16, ,
-11, ,16, ,
-12, ,16, ,
-13, ,16, ,
-15, ,16, ,
-18, ,16, ,
-20, ,16, ,
-21, ,16, ,
-23, ,16, ,
-26, ,16, ,
-26, ,16, ,
-28, ,16, ,
-29, ,16, ,
-31, ,16, ,
-31, ,16, ,
-31, ,16, ,
-31, ,16, ,
-31, ,16, ,
-31, ,16, ,
-30, ,16, ,
-29, ,16, ,
-27, ,16, ,
-26, ,16, ,
-25, ,16, ,
-24, ,16, ,
-21, ,16, ,
-19, ,16, ,
-18, ,16, ,
-16, ,16, ,
-13, ,16, ,
-11, ,16, ,
-10, ,16, ,
-7, ,16, ,
-5, ,16, ,
-3, ,16, ,
-1, ,16, ,
0, ,16, ,
1, ,16, ,
2, ,16, ,
3, ,16, ,
2, ,16, ,
2, ,16, ,
2, ,16, ,
1, ,16, ,
1, ,16, ,
0, ,16, ,
0, ,16, ,
0, ,16, ,
0, ,16, ,
1, ,16, ,
2, ,16, ,
2, ,16, ,
4, ,16, ,
5, ,16, ,
6, ,16, ,
6, ,16, ,
7, ,16, ,
8, ,16, ,
8, ,16, ,
8, ,16, ,
8, ,16, ,
8, ,16, ,
8, ,16, ,
8, ,16, ,
8, ,16, ,
8, ,16, ,
8, ,16, ,
8, ,16, ,
10, ,16, ,
10, ,16, ,
12, ,16, ,
13, ,16, ,
13, ,16, ,
14, ,16, ,
15, ,16, ,
15, ,16, ,
16, ,16, ,
15, ,16, ,
14, ,16, ,
14, ,16, ,
13, ,16, ,
11, ,16, ,
10, ,16, ,
10, ,16, ,
8, ,16, ,
6, ,16, ,
5, ,16, ,
4, ,16, ,
3, ,16, ,
1, ,16, ,
0, ,16, ,
-1, ,16, ,
-2, ,16, ,
-3, ,16, ,
-6, ,16, ,
-7, ,16, ,
-8, ,16, ,
-12, ,16, ,
-14, ,16, ,
-16, ,16, ,
-17, ,16, ,
-20, ,16, ,
-23, ,16, ,
-24, ,16, ,
-25, ,16, ,
-25, ,16, ,
-25, ,16, ,
-25, ,16, ,
-25, ,16, ,
-24, ,16, ,
-23, ,16, ,
-22, ,16, ,
-21, ,16, ,
-18, ,16, ,
-15, ,16, ,
-14, ,16, ,
-12, ,16, ,
-9, ,16, ,
-8, ,16, ,
-6, ,16, ,
-5, ,16, ,
-3, ,16, ,
-1, ,16, ,
-1, ,16, ,
0, ,16, ,
0, ,16, ,
0, ,16, ,
0, ,16, ,
-1, ,16, ,
-2, ,16, ,
-3, ,16, ,
-4, ,16, ,
-6, ,16, ,
-9, ,16, ,
-10, ,16, ,
-12, ,16, ,
-14, ,16, ,
-17, ,16, ,
-18, ,16, ,
-20, ,16, ,
-20, ,16, ,
-21, ,16, ,
-21, ,16, ,
-20, ,16, ,
-20, ,16, ,
-18, ,16, ,
-17, ,16, ,
-16, ,16, ,
-14, ,16, ,
-11, ,16, ,
-10, ,16, ,
-8, ,16, ,
-7, ,16, ,
-5, ,16, ,
-3, ,16, ,
-2, ,16, ,
-2, ,16, ,
0, ,16, ,
0, ,16, ,
1, ,16, ,
1, ,16, ,
2, ,16, ,
2, ,16, ,
2, ,16, ,
2, ,16, ,
2, ,16, ,
1, ,16, ,
1, ,16, ,
0, ,16, ,
-1, ,16, ,
-1, ,16, ,
-2, ,16, ,
-2, ,16, ,
-2, ,16, ,
-2, ,16, ,
-2, ,16, ,
-3, ,16, ,
-3, ,16, ,
-2, ,16, ,
-1, ,16, ,
1, ,16, ,
2, ,16, ,
2, ,16, ,
4, ,16, ,
4, ,16, ,
5, ,16, ,
5, ,16, ,
5, ,16, ,
5, ,16, ,
4, ,16, ,
3, ,16, ,
3, ,16, ,
3, ,16, ,
2, ,16, ,
1, ,16, ,
1, ,16, ,
0, ,16, ,
0, ,16, ,
0, ,16, ,
1, ,16, ,
1, ,16, ,
1, ,16, ,
2, ,16, ,
2, ,16, ,
3, ,16, ,
4, ,16, ,
4, ,16, ,
4, ,16, ,
5, ,16, ,
4, ,16, ,
4, ,16, ,
3, ,16, ,
3, ,16, ,
1, ,16, ,
1, ,16, ,
-1, ,16, ,
-2, ,16, ,
-4, ,16, ,
-5, ,16, ,
-7, ,16, ,
-8, ,16, ,
-11, ,16, ,
-12, ,16, ,
-13, ,16, ,
-14, ,16, ,
-16, ,16, ,
-16, ,16, ,
-16, ,17, ,
-16, ,16, ,
-16, ,16, ,
-15, ,16, ,
-14, ,16, ,
-14, ,16, ,
-12, ,16, ,
-10, ,16, ,
-10, ,16, ,
-8, ,16, ,
-4, ,16, ,
-4, ,16, ,
-2, ,16, ,
-1, ,16, ,
3, ,16, ,
5, ,16, ,
5, ,16, ,
7, ,16, ,
8, ,16, ,
9, ,16, ,
9, ,16, ,
9, ,16, ,
8, ,16, ,
8, ,16, ,
7, ,16, ,
6, ,16, ,
4, ,16, ,
2, ,16, ,
2, ,16, ,
0, ,16, ,
-2, ,16, ,
-3, ,16, ,
-3, ,16, ,
-4, ,16, ,
-4, ,16, ,
-4, ,16, ,
-4, ,16, ,
-4, ,16, ,
-3, ,16, ,
-2, ,16, ,
-1, ,16, ,
0, ,16, ,
2, ,16, ,
3, ,16, ,
4, ,16, ,
5, ,16, ,
7, ,16, ,
8, ,16, ,
8, ,16, ,
9, ,16, ,
8, ,16, ,
8, ,16, ,
7, ,16, ,
6, ,16, ,
3, ,16, ,
2, ,16, ,
-1, ,16, ,
-2, ,16, ,
-5, ,16, ,
-7, ,16, ,
-8, ,16, ,
-9, ,16, ,
-10, ,16, ,
-10, ,16, ,
-10, ,16, ,
-10, ,16, ,
-8, ,16, ,
-8, ,16, ,
-7, ,16, ,
-6, ,16, ,
-5, ,16, ,
-4, ,16, ,
-3, ,16, ,
-3, ,16, ,
-2, ,16, ,
-2, ,16, ,
-2, ,16, ,
-3, ,16, ,
-3, ,16, ,
-3, ,16, ,
-3, ,16, ,
-4, ,16, ,
-4, ,16, ,
-4, ,16, ,
-4, ,16, ,
-4, ,16, ,
-4, ,16, ,
-3, ,16, ,
-3, ,16, ,
-3, ,16, ,
-2, ,16, ,
-2, ,16, ,
-2, ,16, ,
-2, ,16, ,
-1, ,16, ,
0, ,16, ,
0, ,16, ,
0, ,16, ,
2, ,16, ,
2, ,16, ,
3, ,16, ,
3, ,16, ,
4, ,16, ,
5, ,16, ,
5, ,16, ,
5, ,16, ,
5, ,16, ,
4, ,16, ,
4, ,16, ,
4, ,16, ,
3, ,16, ,
3, ,16, ,
2, ,16, ,
2, ,16, ,
0, ,16, ,
-1, ,16, ,
-1, ,16, ,
-2, ,16, ,
-3, ,16, ,
-3, ,16, ,
-4, ,16, ,
-5, ,16, ,
-5, ,16, ,
-5, ,16, ,
-5, ,16, ,
-5, ,16, ,
-5, ,16, ,
-5, ,16, ,
-5, ,16, ,
-4, ,16, ,
-3, ,16, ,
-3, ,16, ,
-2, ,16, ,
-2, ,16, ,
0, ,16, ,
0, ,16, ,
0, ,16, ,
1, ,16, ,
2, ,16, ,
2, ,16, ,
2, ,16, ,
1, ,16, ,
1, ,16, ,
1, ,16, ,
0, ,16, ,
0, ,16, ,
0, ,16, ,
0, ,16, ,
-1, ,16, ,
-1, ,16, ,
-1, ,16, ,
0, ,16, ,
-1, ,16, ,
1, ,16, ,
2, ,16, ,
2, ,16, ,
3, ,16, ,
4, ,16, ,
5, ,16, ,
6, ,16, ,
6, ,16, ,
6, ,16, ,
6, ,16, ,
5, ,16, ,
5, ,16, ,
4, ,16, ,
2, ,16, ,
2, ,16, ,
0, ,16, ,
-1, ,16, ,
-3, ,16, ,
-5, ,16, ,
-6, ,16, ,
-7, ,16, ,
-9, ,16, ,
-9, ,16, ,
-10, ,16, ,
-10, ,16, ,
-9, ,16, ,
-9, ,16, ,
-8, ,16, ,
-8, ,16, ,
-6, ,16, ,
-5, ,16, ,
-4, ,16, ,
-3, ,16, ,
-2, ,16, ,
-1, ,16, ,
-1, ,16, ,
0, ,16, ,
1, ,16, ,
0, ,16, ,
0, ,16, ,
0, ,16, ,
-1, ,16, ,
-2, ,16, ,
-2, ,16, ,
-4, ,16, ,
-6, ,16, ,
-6, ,16, ,
-7, ,16, ,
-7, ,16, ,
-8, ,16, ,
-8, ,16, ,
-7, ,16, ,
-6, ,16, ,
-5, ,16, ,
-3, ,16, ,
-2, ,16, ,
-1, ,16, ,
1, ,16, ,
2, ,16, ,
4, ,16, ,
5, ,16, ,
6, ,16, ,
6, ,16, ,
6, ,16, ,
6, ,16, ,
5, ,16, ,
4, ,16, ,
4, ,16, ,
2, ,16, ,
0, ,16, ,
-1, ,16, ,
-2, ,16, ,
-3, ,16, ,
-6, ,16, ,
-7, ,16, ,
-7, ,16, ,
-9, ,16, ,
-9, ,16, ,
-10, ,16, ,
-10, ,16, ,
-10, ,16, ,
-8, ,16, ,
-8, ,16, ,
-8, ,16, ,
-7, ,16, ,
-5, ,16, ,
-3, ,16, ,
-3, ,16, ,
-1, ,16, ,
0, ,16, ,
1, ,17, ,
2, ,16, ,
2, ,16, ,
2, ,16, ,
2, ,16, ,
1, ,16, ,
0, ,16, ,
-1, ,16, ,
-3, ,16, ,
-4, ,16, ,
-5, ,16, ,
-6, ,16, ,
-6, ,16, ,
-7, ,16, ,
-7, ,16, ,
-6, ,16, ,
-6, ,16, ,
-5, ,16, ,
-5, ,16, ,
-3, ,16, ,
-2, ,16, ,
-2, ,16, ,
-1, ,16, ,
0, ,16, ,
1, ,16, ,
1, ,16, ,
1, ,16, ,
0, ,16, ,
0, ,16, ,
0, ,16, ,
0, ,16, ,
-1, ,16, ,
-2, ,16, ,
-2, ,16, ,
-2, ,16, ,
-2, ,16, ,
-2, ,16, ,
-2, ,16, ,
-2, ,16, ,
-2, ,16, ,
-2, ,16, ,
-1, ,16, ,
-1, ,16, ,
-1, ,16, ,
1, ,16, ,
1, ,16, ,
2, ,16, ,
3, ,16, ,
3, ,16, ,
4, ,16, ,
4, ,16, ,
4, ,16, ,
4, ,16, ,
4, ,16, ,
4, ,16, ,
3, ,16, ,
2, ,16, ,
1, ,16, ,
0, ,16, ,
-2, ,16, ,
-3, ,16, ,
-4, ,16, ,
-4, ,16, ,
-6, ,16, ,
-7, ,16, ,
-7, ,16, ,
-7, ,16, ,
-6, ,16, ,
-6, ,16, ,
-6, ,16, ,
-5, ,16, ,
-3, ,16, ,
-2, ,16, ,
0, ,16, ,
1, ,16, ,
3, ,16, ,
4, ,16, ,
5, ,16, ,
6, ,16, ,
7, ,16, ,
6, ,16, ,
6, ,16, ,
6, ,16, ,
5, ,16, ,
5, ,16, ,
4, ,16, ,
4, ,16, ,
3, ,16, ,
2, ,16, ,
2, ,16, ,
1, ,16, ,
0, ,16, ,
1, ,16, ,
1, ,16, ,
1, ,16, ,
1, ,16, ,
1, ,16, ,
1, ,16, ,
1, ,16, ,
0, ,16, ,
0, ,17, ,
0, ,16, ,
0, ,16, ,
0, ,16, ,
-1, ,16, ,
-1, ,16, ,
-2, ,16, ,
-3, ,16, ,
-3, ,16, ,
-3, ,16, ,
-3, ,16, ,
-4, ,16, ,
-4, ,16, ,
-4, ,16, ,
-4, ,16, ,
-3, ,16, ,
-3, ,16, ,
-3, ,16, ,
-2, ,16, ,
-1, ,16, ,
-1, ,16, ,
0, ,16, ,
0, ,16, ,
1, ,16, ,
1, ,16, ,
2, ,16, ,
2, ,16, ,
2, ,16, ,
2, ,16, ,
2, ,16, ,
2, ,16, ,
3, ,16, ,
3, ,16, ,
3, ,16, ,
3, ,16, ,
3, ,17, ,
3, ,16, ,
3, ,16, ,
4, ,16, ,
4, ,16, ,
4, ,16, ,
4, ,16, ,
4, ,16, ,
3, ,16, ,
2, ,16, ,
2, ,16, ,
1, ,16, ,
0, ,16, ,
0, ,16, ,
-2, ,16, ,
-3, ,16, ,
-4, ,16, ,
-5, ,16, ,
-5, ,16, ,
-5, ,16, ,
-5, ,16, ,
-5, ,16, ,
-5, ,16, ,
-5, ,16, ,
-3, ,16, ,
-3, ,16, ,
-2, ,16, ,
-2, ,16, ,
0, ,16, ,
1, ,16, ,
1, ,16, ,
2, ,16, ,
2, ,16, ,
2, ,16, ,
2, ,16, ,
1, ,16, ,
1, ,16, ,
1, ,16, ,
1, ,16, ,
0, ,16, ,
0, ,16, ,
0, ,16, ,
0, ,16, ,
0, ,16, ,
0, ,16, ,
1, ,16, ,
2, ,16, ,
2, ,16, ,
3, ,16, ,
4, ,16, ,
4, ,16, ,
4, ,16, ,
4, ,16, ,
4, ,16, ,
3, ,16, ,
3, ,16, ,
2, ,16, ,
1, ,16, ,
1, ,16, ,
-1, ,16, ,
-2, ,16, ,
-3, ,16, ,
-4, ,16, ,
-5, ,16, ,
-7, ,16, ,
-7, ,16, ,
-8, ,16, ,
-8, ,16, ,
-8, ,16, ,
-8, ,16, ,
-8, ,16, ,
-7, ,16, ,
-6, ,16, ,
-6, ,16, ,
-5, ,16, ,
-4, ,16, ,
-3, ,16, ,
-1, ,16, ,
-1, ,16, ,
0, ,16, ,
2, ,16, ,
2, ,16, ,
4, ,16, ,
3, ,16, ,
4, ,16, ,
4, ,16, ,
4, ,16, ,
4, ,16, ,
3, ,16, ,
2, ,16, ,
1, ,16, ,
0, ,16, ,
-2, ,16, ,
-2, ,16, ,
-3, ,16, ,
-3, ,16, ,
-4, ,16, ,
-4, ,16, ,
-4, ,16, ,
-4, ,16, ,
-3, ,16, ,
-2, ,16, ,
-1, ,16, ,
0, ,16, ,
2, ,16, ,
3, ,16, ,
4, ,16, ,
5, ,16, ,
7, ,16, ,
7, ,16, ,
8, ,16, ,
8, ,16, ,
8, ,16, ,
7, ,16, ,
7, ,16, ,
7, ,16, ,
6, ,16, ,
6, ,16, ,
5, ,16, ,
5, ,16, ,
5, ,16, ,
5, ,16, ,
4, ,16, ,
4, ,16, ,
4, ,16, ,
4, ,16, ,
3, ,16, ,
3, ,16, ,
2, ,16, ,
2, ,16, ,
2, ,16, ,
1, ,16, ,
0, ,16, ,
0, ,16, ,
0, ,16, ,
0, ,16, ,
0, ,16, ,
-1, ,17, ,
-1, ,16, ,
-1, ,16, ,
-1, ,16, ,
-1, ,16, ,
-1, ,16, ,
-1, ,16, ,
-2, ,16, ,
-2, ,16, ,
-2, ,16, ,
-3, ,16, ,
-5, ,16, ,
-5, ,16, ,
-6, ,16, ,
-6, ,16, ,
-6, ,16, ,
-7, ,16, ,
-7, ,16, ,
-7, ,16, ,
-7, ,16, ,
-7, ,16, ,
-7, ,16, ,
-7, ,16, ,
-6, ,16, ,
-6, ,16, ,
-5, ,16, ,
-5, ,16, ,
-4, ,16, ,
-3, ,16, ,
-2, ,16, ,
-1, ,16, ,
1, ,16, ,
2, ,16, ,
4, ,16, ,
4, ,16, ,
6, ,16, ,
8, ,16, ,
8, ,16, ,
9, ,16, ,
11, ,16, ,
11, ,16, ,
11, ,16, ,
11, ,16, ,
11, ,16, ,
10, ,16, ,
10, ,16, ,
9, ,16, ,
7, ,16, ,
6, ,16, ,
6, ,16, ,
5, ,16, ,
3, ,16, ,
3, ,16, ,
2, ,16, ,
2, ,16, ,
1, ,16, ,
1, ,16, ,
0, ,16, ,
0, ,16, ,
-1, ,16, ,
-1, ,16, ,
-1, ,16, ,
-1, ,16, ,
-1, ,16, ,
-2, ,16, ,
-2, ,16, ,
-2, ,16, ,
-2, ,16, ,
-2, ,16, ,
-2, ,16, ,
-1, ,16, ,
-1, ,16, ,
-2, ,16, ,
-2, ,16, ,
-2, ,16, ,
-1, ,16, ,
-1, ,16, ,
-1, ,16, ,
-1, ,16, ,
-1, ,16, ,
-1, ,16, ,
-1, ,16, ,
-2, ,16, ,
-2, ,16, ,
-2, ,16, ,
-2, ,16, ,
-2, ,16, ,
-2, ,16, ,
-2, ,16, ,
-2, ,16, ,
-2, ,16, ,
-1, ,16, ,
-1, ,16, ,
-1, ,16, ,
-1, ,16, ,
-1, ,16, ,
-1, ,16, ,
-1, ,16, ,
-1, ,16, ,
-1, ,16, ,
-1, ,16, ,
-1, ,16, ,
-1, ,16, ,
-1, ,16, ,
-2, ,16, ,
-2, ,16, ,
-2, ,16, ,
-2, ,16, ,
-2, ,16, ,
-2, ,16, ,
-3, ,16, ,
-3, ,16, ,
-3, ,16, ,
-4, ,16, ,
-4, ,16, ,
-4, ,16, ,
-4, ,16, ,
-4, ,16, ,
-4, ,16, ,
-3, ,16, ,
-3, ,16, ,
-2, ,16, ,
-1, ,16, ,
0, ,16, ,
1, ,16, ,
3, ,16, ,
4, ,16, ,
6, ,16, ,
7, ,16, ,
8, ,16, ,
9, ,16, ,
10, ,16, ,
11, ,16, ,
11, ,16, ,
12, ,16, ,
11, ,16, ,
10, ,16, ,
10, ,16, ,
9, ,16, ,
7, ,16, ,
6, ,16, ,
4, ,16, ,
4, ,16, ,
0, ,16, ,
-1, ,16, ,
-2, ,16, ,
-4, ,16, ,
-6, ,16, ,
-7, ,16, ,
-8, ,16, ,
-8, ,16, ,
-8, ,16, ,
-8, ,16, ,
-8, ,16, ,
-7, ,16, ,
-6, ,16, ,
-5, ,16, ,
-4, ,16, ,
-2, ,16, ,
-1, ,16, ,
0, ,16, ,
2, ,16, ,
2, ,16, ,
3, ,16, ,
4, ,16, ,
3, ,16, ,
3, ,16, ,
2, ,16, ,
1, ,16, ,
1, ,16, ,
0, ,16, ,
-1, ,16, ,
-3, ,16, ,
-4, ,16, ,
-5, ,16, ,
-7, ,16, ,
-8, ,16, ,
-8, ,16, ,
-9, ,16, ,
-9, ,16, ,
-9, ,16, ,
-9, ,16, ,
-9, ,16, ,
-8, ,16, ,
-7, ,16, ,
-6, ,16, ,
-5, ,16, ,
-3, ,16, ,
-1, ,16, ,
0, ,16, ,
2, ,16, ,
5, ,16, ,
6, ,16, ,
8, ,16, ,
8, ,16, ,
10, ,16, ,
11, ,16, ,
12, ,16, ,
12, ,16, ,
12, ,16, ,
11, ,16, ,
11, ,16, ,
10, ,16, ,
9, ,16, ,
8, ,16, ,
7, ,16, ,
7, ,16, ,
5, ,16, ,
3, ,16, ,
2, ,16, ,
0, ,16, ,
-1, ,16, ,
-2, ,16, ,
-3, ,16, ,
-4, ,16, ,
-5, ,16, ,
-6, ,16, ,
-6, ,16, ,
-7, ,16, ,
-7, ,16, ,
-7, ,16, ,
-6, ,16, ,
-5, ,16, ,
-4, ,16, ,
-4, ,16, ,
-3, ,16, ,
-2, ,16, ,
0, ,16, ,
2, ,16, ,
2, ,16, ,
4, ,16, ,
5, ,16, ,
5, ,16, ,
5, ,16, ,
5, ,16, ,
4, ,16, ,
4, ,16, ,
2, ,16, ,
2, ,16, ,
0, ,16, ,
-1, ,16, ,
-2, ,16, ,
-3, ,16, ,
-4, ,16, ,
-5, ,16, ,
-5, ,16, ,
-5, ,16, ,
-5, ,16, ,
-5, ,16, ,
-4, ,16, ,
-4, ,16, ,
-2, ,16, ,
-1, ,16, ,
0, ,16, ,
1, ,16, ,
2, ,16, ,
2, ,16, ,
3, ,16, ,
4, ,16, ,
4, ,16, ,
4, ,16, ,
4, ,16, ,
5, ,16, ,
4, ,16, ,
4, ,16, ,
5, ,16, ,
4, ,16, ,
4, ,16, ,
4, ,16, ,
3, ,16, ,
3, ,16, ,
4, ,16, ,
