raw_data/75% Glycerol, Impulsion 2Hz, Sonde 5MHz, Rampe 0.7Hz/temp0000077.CSV

Format,1.0B,
Memory Length,10000,Memory Length,10000,
IntpDistance,0,IntpDistance,0,
Trigger Address,159,Trigger Address,159,
Trigger Level,2.720E-01,Trigger Level,2.720E-01,
Source,CH1,Source,CH2,
Vertical Units,V,Vertical Units,V,
Vertical Units Div,0,Vertical Units Div,0,
Vertical Units Extend Div,16,Vertical Units Extend Div,16,
Label,,Label,,
Probe Type,0,Probe Type,0,
Probe Ratio,1.000e+00,Probe Ratio,1.000e+00,
Vertical Scale,5.000e-01,Vertical Scale,2.000e+00,
Vertical Position,0.000e+00,Vertical Position,0.000e+00,
Horizontal Units,S,Horizontal Units,S,
Horizontal Scale,5.000E-06,Horizontal Scale,5.000E-06,
Horizontal Position,2.420E-05,Horizontal Position,2.420E-05,
Horizontal Mode,Main,Horizontal Mode,Main,
SincET Mode,Real Time,SincET Mode,Real Time,
Sampling Period,5.000e-09,Sampling Period,5.000e-09,
Horizontal Old Scale,5.000E-06,Horizontal Old Scale,5.000E-06,
Horizontal Old Position,2.420E-05,Horizontal Old Position,2.420E-05,
Firmware,V1.32,Firmware,V1.32,
Mode,Fast,Mode,Fast,
Waveform Data,,Waveform Data,,
1, ,-20, ,
1, ,-20, ,
1, ,-20, ,
1, ,-20, ,
1, ,-20, ,
1, ,-20, ,
1, ,-20, ,
1, ,-20, ,
1, ,-20, ,
1, ,-20, ,
0, ,-20, ,
0, ,-20, ,
1, ,-20, ,
1, ,-20, ,
1, ,-20, ,
1, ,-20, ,
1, ,-20, ,
1, ,-20, ,
1, ,-20, ,
0, ,-20, ,
0, ,-20, ,
0, ,-20, ,
1, ,-20, ,
1, ,-20, ,
0, ,-20, ,
0, ,-20, ,
0, ,-20, ,
0, ,-20, ,
1, ,-20, ,
0, ,-20, ,
0, ,-20, ,
1, ,-20, ,
1, ,-20, ,
1, ,-20, ,
0, ,-20, ,
0, ,-20, ,
0, ,-20, ,
0, ,-20, ,
1, ,-20, ,
1, ,-20, ,
1, ,-20, ,
1, ,-20, ,
0, ,-20, ,
0, ,-20, ,
0, ,-20, ,
1, ,-20, ,
0, ,-20, ,
0, ,-20, ,
1, ,-20, ,
1, ,-20, ,
1, ,-20, ,
1, ,-20, ,
1, ,-20, ,
0, ,-20, ,
0, ,-20, ,
1, ,-20, ,
1, ,-20, ,
1, ,-20, ,
1, ,-20, ,
1, ,-20, ,
1, ,-20, ,
0, ,-20, ,
0, ,-20, ,
1, ,-20, ,
1, ,-20, ,
0, ,-20, ,
0, ,-20, ,
1, ,-20, ,
1, ,-20, ,
1, ,-20, ,
1, ,-20, ,
1, ,-20, ,
0, ,-20, ,
0, ,-20, ,
0, ,-20, ,
0, ,-20, ,
1, ,-20, ,
0, ,-20, ,
0, ,-20, ,
0, ,-20, ,
0, ,-20, ,
1, ,-20, ,
0, ,-20, ,
0, ,-20, ,
0, ,-20, ,
0, ,-20, ,
0, ,-20, ,
0, ,-20, ,
0, ,-20, ,
1, ,-20, ,
0, ,-20, ,
0, ,-20, ,
1, ,-20, ,
1, ,-20, ,
1, ,-20, ,
1, ,-20, ,
0, ,-20, ,
0, ,-20, ,
1, ,-20, ,
0, ,-20, ,
0, ,-20, ,
0, ,-20, ,
1, ,-20, ,
1, ,-20, ,
1, ,-20, ,
1, ,-20, ,
0, ,-20, ,
0, ,-20, ,
1, ,-20, ,
1, ,-20, ,
1, ,-20, ,
1, ,-20, ,
1, ,-20, ,
1, ,-20, ,
1, ,-20, ,
1, ,-20, ,
1, ,-20, ,
1, ,-20, ,
1, ,-20, ,
1, ,-20, ,
1, ,-20, ,
1, ,-20, ,
1, ,-20, ,
1, ,-20, ,
1, ,-20, ,
1, ,-20, ,
1, ,-20, ,
1, ,-20, ,
1, ,-20, ,
1, ,-20, ,
0, ,-20, ,
0, ,-20, ,
1, ,-20, ,
1, ,-20, ,
0, ,-20, ,
0, ,-20, ,
0, ,-20, ,
1, ,-20, ,
1, ,-20, ,
1, ,-20, ,
1, ,-20, ,
0, ,-20, ,
0, ,-20, ,
0, ,-20, ,
0, ,-20, ,
0, ,-20, ,
1, ,-20, ,
1, ,-20, ,
1, ,-20, ,
1, ,-20, ,
1, ,-20, ,
0, ,-20, ,
0, ,-20, ,
0, ,-20, ,
1, ,-20, ,
1, ,-20, ,
1, ,-20, ,
1, ,-20, ,
1, ,-20, ,
1, ,-20, ,
0, ,-20, ,
0, ,-20, ,
0, ,-20, ,
-1, ,-20, ,
0, ,-20, ,
-1, ,-20, ,
-2, ,-20, ,
6, ,-20, ,
25, ,-20, ,
58, ,-20, ,
125, ,-20, ,
123, ,-20, ,
120, ,-20, ,
81, ,-20, ,
-8, ,-20, ,
19, ,-20, ,
73, ,-20, ,
122, ,-20, ,
125, ,-20, ,
125, ,-20, ,
125, ,-20, ,
125, ,-20, ,
125, ,-20, ,
124, ,-20, ,
124, ,-20, ,
119, ,-20, ,
109, ,-20, ,
105, ,-20, ,
102, ,-20, ,
99, ,-20, ,
92, ,-20, ,
89, ,-20, ,
85, ,-20, ,
82, ,-20, ,
75, ,-20, ,
73, ,-20, ,
71, ,-20, ,
67, ,-20, ,
63, ,-20, ,
60, ,-20, ,
57, ,-20, ,
55, ,-20, ,
50, ,-20, ,
48, ,-20, ,
47, ,-20, ,
44, ,-20, ,
41, ,-20, ,
39, ,-20, ,
37, ,-20, ,
36, ,-20, ,
32, ,-20, ,
31, ,-20, ,
30, ,-20, ,
28, ,-20, ,
25, ,-20, ,
25, ,-20, ,
24, ,-20, ,
23, ,-20, ,
21, ,-20, ,
20, ,-20, ,
19, ,-20, ,
18, ,-20, ,
17, ,-20, ,
16, ,-20, ,
14, ,-20, ,
14, ,-20, ,
13, ,-20, ,
12, ,-20, ,
11, ,-20, ,
11, ,-20, ,
9, ,-20, ,
9, ,-20, ,
9, ,-20, ,
8, ,-20, ,
7, ,-20, ,
6, ,-20, ,
6, ,-20, ,
6, ,-20, ,
5, ,-20, ,
5, ,-20, ,
4, ,-20, ,
4, ,-20, ,
4, ,-20, ,
3, ,-20, ,
3, ,-20, ,
2, ,-20, ,
2, ,-20, ,
2, ,-20, ,
2, ,-20, ,
2, ,-20, ,
2, ,-20, ,
1, ,-20, ,
1, ,-20, ,
1, ,-20, ,
0, ,-20, ,
0, ,-20, ,
1, ,-20, ,
1, ,-20, ,
0, ,-20, ,
0, ,-20, ,
0, ,-20, ,
-1, ,-20, ,
-1, ,-20, ,
0, ,-20, ,
-1, ,-20, ,
-1, ,-20, ,
-1, ,-20, ,
-1, ,-20, ,
-1, ,-20, ,
-1, ,-20, ,
-1, ,-20, ,
-1, ,-20, ,
-1, ,-20, ,
-1, ,-20, ,
-1, ,-20, ,
-1, ,-20, ,
-1, ,-20, ,
-1, ,-20, ,
-1, ,-20, ,
-1, ,-20, ,
-1, ,-20, ,
-1, ,-20, ,
-1, ,-20, ,
-2, ,-20, ,
-1, ,-20, ,
-2, ,-20, ,
-1, ,-20, ,
-1, ,-20, ,
-1, ,-20, ,
-1, ,-20, ,
-1, ,-20, ,
-1, ,-20, ,
-1, ,-20, ,
-2, ,-20, ,
-2, ,-20, ,
-1, ,-20, ,
-1, ,-20, ,
-1, ,-20, ,
-1, ,-20, ,
-1, ,-20, ,
-1, ,-20, ,
-1, ,-20, ,
-1, ,-20, ,
-1, ,-20, ,
-1, ,-20, ,
-1, ,-20, ,
-1, ,-20, ,
-1, ,-20, ,
-1, ,-20, ,
-1, ,-20, ,
-1, ,-20, ,
-1, ,-20, ,
-1, ,-20, ,
-1, ,-20, ,
-1, ,-20, ,
-1, ,-20, ,
-1, ,-20, ,
-1, ,-20, ,
-1, ,-20, ,
-1, ,-20, ,
-1, ,-20, ,
-1, ,-20, ,
0, ,-20, ,
0, ,-20, ,
0, ,-20, ,
0, ,-20, ,
-1, ,-20, ,
-1, ,-20, ,
-1, ,-20, ,
0, ,-20, ,
0, ,-20, ,
0, ,-20, ,
0, ,-20, ,
0, ,-20, ,
0, ,-20, ,
0, ,-20, ,
0, ,-20, ,
0, ,-20, ,
0, ,-20, ,
0, ,-20, ,
0, ,-20, ,
0, ,-20, ,
0, ,-20, ,
0, ,-20, ,
0, ,-20, ,
0, ,-20, ,
0, ,-20, ,
0, ,-20, ,
0, ,-20, ,
0, ,-20, ,
0, ,-20, ,
0, ,-20, ,
0, ,-20, ,
0, ,-20, ,
0, ,-20, ,
0, ,-20, ,
0, ,-20, ,
0, ,-20, ,
0, ,-20, ,
0, ,-20, ,
0, ,-20, ,
0, ,-20, ,
0, ,-20, ,
0, ,-20, ,
0, ,-20, ,
0, ,-20, ,
0, ,-20, ,
0, ,-20, ,
0, ,-20, ,
0, ,-20, ,
0, ,-20, ,
0, ,-20, ,
0, ,-20, ,
0, ,-20, ,
0, ,-20, ,
0, ,-20, ,
0, ,-20, ,
0, ,-20, ,
0, ,-20, ,
0, ,-20, ,
0, ,-20, ,
0, ,-20, ,
0, ,-20, ,
0, ,-20, ,
0, ,-20, ,
0, ,-20, ,
0, ,-20, ,
0, ,-20, ,
0, ,-20, ,
0, ,-20, ,
0, ,-20, ,
0, ,-20, ,
0, ,-20, ,
0, ,-20, ,
0, ,-20, ,
0, ,-20, ,
0, ,-20, ,
0, ,-20, ,
0, ,-20, ,
0, ,-20, ,
0, ,-20, ,
0, ,-20, ,
0, ,-20, ,
0, ,-20, ,
0, ,-20, ,
0, ,-20, ,
1, ,-20, ,
0, ,-20, ,
0, ,-20, ,
0, ,-20, ,
1, ,-20, ,
1, ,-20, ,
1, ,-20, ,
0, ,-20, ,
0, ,-20, ,
0, ,-20, ,
0, ,-20, ,
1, ,-20, ,
1, ,-20, ,
1, ,-20, ,
1, ,-20, ,
0, ,-20, ,
0, ,-20, ,
0, ,-20, ,
0, ,-20, ,
0, ,-20, ,
0, ,-20, ,
0, ,-20, ,
0, ,-20, ,
0, ,-20, ,
0, ,-20, ,
0, ,-20, ,
0, ,-20, ,
0, ,-20, ,
0, ,-20, ,
0, ,-20, ,
0, ,-20, ,
0, ,-20, ,
-1, ,-20, ,
-1, ,-20, ,
-2, ,-20, ,
-2, ,-20, ,
-4, ,-20, ,
-6, ,-20, ,
-6, ,-20, ,
-6, ,-20, ,
-6, ,-20, ,
-5, ,-20, ,
-5, ,-20, ,
-3, ,-20, ,
-2, ,-20, ,
-2, ,-20, ,
-1, ,-20, ,
-1, ,-20, ,
1, ,-20, ,
1, ,-20, ,
1, ,-20, ,
1, ,-20, ,
1, ,-20, ,
1, ,-20, ,
0, ,-20, ,
0, ,-20, ,
-1, ,-20, ,
-1, ,-20, ,
-2, ,-20, ,
-2, ,-20, ,
-1, ,-20, ,
-1, ,-20, ,
0, ,-20, ,
0, ,-20, ,
0, ,-20, ,
1, ,-20, ,
1, ,-20, ,
2, ,-20, ,
3, ,-20, ,
3, ,-20, ,
3, ,-20, ,
2, ,-20, ,
2, ,-20, ,
2, ,-20, ,
2, ,-20, ,
2, ,-20, ,
1, ,-20, ,
1, ,-20, ,
1, ,-20, ,
0, ,-20, ,
0, ,-20, ,
1, ,-20, ,
0, ,-20, ,
0, ,-20, ,
1, ,-20, ,
1, ,-20, ,
1, ,-20, ,
1, ,-20, ,
1, ,-20, ,
1, ,-20, ,
1, ,-20, ,
2, ,-20, ,
1, ,-20, ,
1, ,-20, ,
1, ,-20, ,
1, ,-20, ,
1, ,-20, ,
1, ,-20, ,
0, ,-20, ,
0, ,-20, ,
1, ,-20, ,
1, ,-20, ,
1, ,-20, ,
1, ,-20, ,
1, ,-20, ,
2, ,-20, ,
2, ,-20, ,
2, ,-20, ,
2, ,-20, ,
1, ,-20, ,
1, ,-20, ,
1, ,-20, ,
1, ,-20, ,
1, ,-20, ,
0, ,-20, ,
0, ,-20, ,
-2, ,-20, ,
-3, ,-20, ,
-3, ,-20, ,
-5, ,-20, ,
-7, ,-20, ,
-9, ,-20, ,
-10, ,-20, ,
-11, ,-20, ,
-12, ,-20, ,
-13, ,-20, ,
-13, ,-20, ,
-13, ,-20, ,
-13, ,-20, ,
-12, ,-20, ,
-12, ,-20, ,
-13, ,-20, ,
-14, ,-20, ,
-15, ,-20, ,
-16, ,-20, ,
-18, ,-20, ,
-24, ,-20, ,
-26, ,-20, ,
-30, ,-20, ,
-32, ,-20, ,
-38, ,-20, ,
-40, ,-20, ,
-40, ,-20, ,
-40, ,-20, ,
-39, ,-20, ,
-37, ,-20, ,
-37, ,-20, ,
-34, ,-20, ,
-32, ,-20, ,
-31, ,-20, ,
-29, ,-20, ,
-28, ,-20, ,
-27, ,-20, ,
-25, ,-20, ,
-25, ,-20, ,
-25, ,-20, ,
-23, ,-20, ,
-23, ,-20, ,
-22, ,-20, ,
-20, ,-20, ,
-17, ,-20, ,
-15, ,-20, ,
-14, ,-20, ,
-12, ,-20, ,
-8, ,-20, ,
-6, ,-20, ,
-4, ,-20, ,
-3, ,-20, ,
0, ,-20, ,
0, ,-20, ,
1, ,-20, ,
1, ,-20, ,
2, ,-20, ,
2, ,-20, ,
2, ,-20, ,
2, ,-20, ,
2, ,-20, ,
2, ,-20, ,
2, ,-20, ,
2, ,-20, ,
3, ,-20, ,
3, ,-20, ,
4, ,-20, ,
4, ,-20, ,
5, ,-20, ,
5, ,-20, ,
6, ,-20, ,
6, ,-20, ,
7, ,-20, ,
7, ,-20, ,
8, ,-20, ,
8, ,-20, ,
9, ,-20, ,
10, ,-20, ,
10, ,-20, ,
11, ,-20, ,
13, ,-20, ,
13, ,-20, ,
14, ,-20, ,
14, ,-20, ,
14, ,-20, ,
14, ,-20, ,
14, ,-20, ,
13, ,-20, ,
12, ,-20, ,
11, ,-20, ,
10, ,-20, ,
8, ,-20, ,
5, ,-20, ,
3, ,-20, ,
0, ,-20, ,
-1, ,-20, ,
-4, ,-20, ,
-6, ,-20, ,
-7, ,-20, ,
-10, ,-20, ,
-11, ,-20, ,
-13, ,-20, ,
-13, ,-20, ,
-13, ,-20, ,
-13, ,-20, ,
-13, ,-20, ,
-13, ,-20, ,
-13, ,-20, ,
-12, ,-20, ,
-10, ,-20, ,
-10, ,-20, ,
-9, ,-20, ,
-8, ,-20, ,
-8, ,-20, ,
-7, ,-20, ,
-6, ,-20, ,
-6, ,-20, ,
-6, ,-20, ,
-6, ,-20, ,
-6, ,-20, ,
-8, ,-20, ,
-8, ,-20, ,
-9, ,-20, ,
-9, ,-20, ,
-10, ,-20, ,
-12, ,-20, ,
-12, ,-20, ,
-13, ,-20, ,
-15, ,-20, ,
-16, ,-20, ,
-17, ,-20, ,
-18, ,-20, ,
-20, ,-20, ,
-20, ,-20, ,
-20, ,-20, ,
-20, ,-20, ,
-20, ,-20, ,
-19, ,-20, ,
-18, ,-20, ,
-17, ,-20, ,
-13, ,-20, ,
-11, ,-20, ,
-9, ,-20, ,
-8, ,-20, ,
-4, ,-20, ,
-3, ,-20, ,
-2, ,-20, ,
-1, ,-20, ,
1, ,-20, ,
1, ,-20, ,
1, ,-20, ,
1, ,-20, ,
0, ,-20, ,
0, ,-20, ,
0, ,-20, ,
-1, ,-20, ,
-1, ,-20, ,
-1, ,-20, ,
-2, ,-20, ,
-2, ,-20, ,
-3, ,-20, ,
-4, ,-20, ,
-4, ,-20, ,
-5, ,-20, ,
-5, ,-20, ,
-5, ,-20, ,
-5, ,-20, ,
-6, ,-20, ,
-6, ,-20, ,
-6, ,-20, ,
-6, ,-20, ,
-6, ,-20, ,
-7, ,-20, ,
-7, ,-20, ,
-8, ,-20, ,
-8, ,-20, ,
-9, ,-20, ,
-11, ,-20, ,
-12, ,-20, ,
-14, ,-20, ,
-16, ,-20, ,
-17, ,-20, ,
-18, ,-20, ,
-19, ,-20, ,
-20, ,-20, ,
-21, ,-20, ,
-21, ,-20, ,
-21, ,-20, ,
-20, ,-20, ,
-19, ,-20, ,
-19, ,-20, ,
-18, ,-20, ,
-15, ,-20, ,
-14, ,-20, ,
-12, ,-20, ,
-11, ,-20, ,
-7, ,-20, ,
-5, ,-20, ,
-2, ,-20, ,
0, ,-20, ,
3, ,-20, ,
5, ,-20, ,
6, ,-20, ,
8, ,-20, ,
10, ,-20, ,
12, ,-20, ,
12, ,-20, ,
13, ,-20, ,
14, ,-20, ,
14, ,-20, ,
15, ,-20, ,
15, ,-20, ,
16, ,-20, ,
16, ,-20, ,
16, ,-20, ,
16, ,-20, ,
17, ,-20, ,
17, ,-20, ,
16, ,-20, ,
16, ,-20, ,
15, ,-20, ,
14, ,-20, ,
13, ,-20, ,
13, ,-20, ,
11, ,-20, ,
9, ,-20, ,
8, ,-20, ,
6, ,-20, ,
5, ,-20, ,
4, ,-20, ,
3, ,-20, ,
2, ,-20, ,
-1, ,-20, ,
-2, ,-20, ,
-3, ,-20, ,
-5, ,-20, ,
-8, ,-20, ,
-8, ,-20, ,
-10, ,-20, ,
-11, ,-20, ,
-13, ,-20, ,
-15, ,-20, ,
-16, ,-20, ,
-18, ,-20, ,
-21, ,-20, ,
-22, ,-20, ,
-23, ,-20, ,
-24, ,-20, ,
-25, ,-20, ,
-25, ,-20, ,
-25, ,-20, ,
-25, ,-20, ,
-25, ,-20, ,
-22, ,-20, ,
-22, ,-20, ,
-21, ,-20, ,
-18, ,-20, ,
-17, ,-20, ,
-15, ,-20, ,
-14, ,-20, ,
-11, ,-20, ,
-10, ,-20, ,
-10, ,-20, ,
-9, ,-20, ,
-8, ,-20, ,
-9, ,-20, ,
-9, ,-20, ,
-10, ,-20, ,
-11, ,-20, ,
-12, ,-20, ,
-12, ,-20, ,
-13, ,-20, ,
-15, ,-20, ,
-16, ,-20, ,
-18, ,-20, ,
-19, ,-20, ,
-22, ,-20, ,
-23, ,-20, ,
-24, ,-20, ,
-25, ,-20, ,
-25, ,-20, ,
-26, ,-20, ,
-26, ,-20, ,
-26, ,-20, ,
-25, ,-20, ,
-25, ,-20, ,
-24, ,-20, ,
-22, ,-20, ,
-18, ,-20, ,
-16, ,-20, ,
-12, ,-20, ,
-10, ,-20, ,
-4, ,-20, ,
-1, ,-20, ,
2, ,-20, ,
5, ,-20, ,
9, ,-20, ,
10, ,-20, ,
13, ,-20, ,
13, ,-20, ,
15, ,-20, ,
17, ,-20, ,
17, ,-20, ,
17, ,-20, ,
16, ,-20, ,
15, ,-20, ,
15, ,-20, ,
14, ,-20, ,
12, ,-20, ,
11, ,-20, ,
9, ,-20, ,
7, ,-20, ,
3, ,-20, ,
1, ,-20, ,
-1, ,-20, ,
-3, ,-20, ,
-6, ,-20, ,
-8, ,-20, ,
-9, ,-20, ,
-10, ,-20, ,
-10, ,-20, ,
-10, ,-20, ,
-9, ,-20, ,
-8, ,-20, ,
-6, ,-20, ,
-3, ,-20, ,
-2, ,-20, ,
0, ,-20, ,
5, ,-20, ,
8, ,-20, ,
10, ,-20, ,
12, ,-20, ,
16, ,-20, ,
19, ,-20, ,
20, ,-20, ,
21, ,-20, ,
23, ,-20, ,
22, ,-20, ,
22, ,-20, ,
21, ,-20, ,
19, ,-20, ,
19, ,-20, ,
17, ,-20, ,
15, ,-20, ,
12, ,-20, ,
9, ,-20, ,
8, ,-20, ,
5, ,-20, ,
2, ,-20, ,
0, ,-20, ,
-3, ,-20, ,
-4, ,-20, ,
-8, ,-20, ,
-10, ,-20, ,
-11, ,-20, ,
-13, ,-20, ,
-15, ,-20, ,
-16, ,-20, ,
-18, ,-20, ,
-18, ,-20, ,
-20, ,-20, ,
-21, ,-20, ,
-22, ,-20, ,
-23, ,-20, ,
-25, ,-20, ,
-25, ,-20, ,
-26, ,-20, ,
-26, ,-20, ,
-27, ,-20, ,
-27, ,-20, ,
-26, ,-20, ,
-26, ,-20, ,
-26, ,-20, ,
-25, ,-20, ,
-25, ,-20, ,
-25, ,-20, ,
-23, ,-20, ,
-22, ,-20, ,
-20, ,-20, ,
-20, ,-20, ,
-17, ,-20, ,
-15, ,-20, ,
-14, ,-20, ,
-12, ,-20, ,
-10, ,-20, ,
-8, ,-20, ,
-7, ,-20, ,
-6, ,-20, ,
-4, ,-20, ,
-2, ,-20, ,
-2, ,-20, ,
0, ,-20, ,
2, ,-20, ,
2, ,-20, ,
3, ,-20, ,
3, ,-20, ,
3, ,-20, ,
4, ,-20, ,
3, ,-20, ,
3, ,-20, ,
3, ,-20, ,
1, ,-20, ,
1, ,-20, ,
0, ,-20, ,
-2, ,-20, ,
-3, ,-20, ,
-5, ,-20, ,
-6, ,-20, ,
-9, ,-20, ,
-10, ,-20, ,
-10, ,-20, ,
-12, ,-20, ,
-12, ,-20, ,
-12, ,-20, ,
-12, ,-20, ,
-11, ,-20, ,
-9, ,-20, ,
-9, ,-20, ,
-7, ,-20, ,
-6, ,-20, ,
-4, ,-20, ,
-2, ,-20, ,
-2, ,-20, ,
0, ,-20, ,
1, ,-20, ,
2, ,-20, ,
2, ,-20, ,
2, ,-20, ,
2, ,-20, ,
2, ,-20, ,
2, ,-20, ,
2, ,-20, ,
2, ,-20, ,
2, ,-20, ,
2, ,-20, ,
2, ,-20, ,
2, ,-20, ,
2, ,-20, ,
2, ,-20, ,
2, ,-20, ,
3, ,-20, ,
3, ,-20, ,
3, ,-20, ,
3, ,-20, ,
2, ,-20, ,
2, ,-20, ,
1, ,-20, ,
1, ,-20, ,
0, ,-20, ,
-2, ,-20, ,
-3, ,-20, ,
-4, ,-20, ,
-7, ,-20, ,
-9, ,-20, ,
-11, ,-20, ,
-12, ,-20, ,
-15, ,-20, ,
-16, ,-20, ,
-17, ,-20, ,
-17, ,-20, ,
-17, ,-20, ,
-16, ,-20, ,
-15, ,-20, ,
-14, ,-20, ,
-11, ,-20, ,
-9, ,-20, ,
-6, ,-20, ,
-4, ,-20, ,
1, ,-20, ,
5, ,-20, ,
7, ,-20, ,
10, ,-20, ,
15, ,-20, ,
16, ,-20, ,
18, ,-20, ,
19, ,-20, ,
20, ,-20, ,
20, ,-20, ,
20, ,-20, ,
20, ,-20, ,
17, ,-20, ,
15, ,-20, ,
14, ,-20, ,
10, ,-20, ,
6, ,-20, ,
3, ,-20, ,
1, ,-20, ,
-2, ,-20, ,
-7, ,-20, ,
-10, ,-20, ,
-12, ,-20, ,
-14, ,-20, ,
-17, ,-20, ,
-18, ,-20, ,
-18, ,-20, ,
-18, ,-20, ,
-17, ,-20, ,
-16, ,-20, ,
-15, ,-20, ,
-14, ,-20, ,
-10, ,-20, ,
-8, ,-20, ,
-6, ,-20, ,
-3, ,-20, ,
1, ,-20, ,
3, ,-20, ,
5, ,-20, ,
6, ,-20, ,
9, ,-20, ,
10, ,-20, ,
11, ,-20, ,
11, ,-20, ,
11, ,-20, ,
9, ,-20, ,
9, ,-20, ,
7, ,-20, ,
4, ,-20, ,
3, ,-20, ,
0, ,-20, ,
-2, ,-20, ,
-7, ,-20, ,
-10, ,-20, ,
-11, ,-20, ,
-14, ,-20, ,
-18, ,-20, ,
-18, ,-20, ,
-19, ,-20, ,
-19, ,-20, ,
-18, ,-20, ,
-18, ,-20, ,
-16, ,-20, ,
-15, ,-20, ,
-12, ,-20, ,
-10, ,-20, ,
-7, ,-20, ,
-5, ,-20, ,
0, ,-20, ,
1, ,-20, ,
4, ,-20, ,
6, ,-20, ,
9, ,-20, ,
10, ,-20, ,
11, ,-20, ,
12, ,-20, ,
12, ,-20, ,
12, ,-20, ,
12, ,-20, ,
11, ,-20, ,
9, ,-20, ,
8, ,-20, ,
6, ,-20, ,
5, ,-20, ,
1, ,-20, ,
0, ,-20, ,
-1, ,-20, ,
-3, ,-20, ,
-5, ,-20, ,
-5, ,-20, ,
-6, ,-20, ,
-6, ,-20, ,
-6, ,-20, ,
-6, ,-20, ,
-6, ,-20, ,
-6, ,-20, ,
-6, ,-20, ,
-5, ,-20, ,
-6, ,-20, ,
-6, ,-20, ,
-6, ,-20, ,
-6, ,-20, ,
-6, ,-20, ,
-7, ,-20, ,
-7, ,-20, ,
-7, ,-20, ,
-7, ,-20, ,
-7, ,-20, ,
-7, ,-20, ,
-7, ,-20, ,
-6, ,-20, ,
-6, ,-20, ,
-4, ,-20, ,
-3, ,-20, ,
-2, ,-20, ,
-1, ,-20, ,
2, ,-20, ,
3, ,-20, ,
4, ,-20, ,
5, ,-20, ,
8, ,-20, ,
9, ,-20, ,
10, ,-20, ,
11, ,-20, ,
12, ,-20, ,
13, ,-20, ,
13, ,-20, ,
12, ,-20, ,
10, ,-20, ,
10, ,-20, ,
9, ,-20, ,
8, ,-20, ,
5, ,-20, ,
4, ,-20, ,
3, ,-20, ,
0, ,-20, ,
-2, ,-20, ,
-4, ,-20, ,
-5, ,-20, ,
-7, ,-20, ,
-8, ,-20, ,
-9, ,-20, ,
-9, ,-20, ,
-9, ,-20, ,
-9, ,-20, ,
-7, ,-20, ,
-7, ,-20, ,
-6, ,-20, ,
-4, ,-20, ,
-3, ,-20, ,
-2, ,-20, ,
-1, ,-20, ,
1, ,-20, ,
1, ,-20, ,
1, ,-20, ,
1, ,-20, ,
1, ,-20, ,
0, ,-20, ,
-1, ,-20, ,
-1, ,-20, ,
-3, ,-20, ,
-4, ,-20, ,
-5, ,-20, ,
-5, ,-20, ,
-7, ,-20, ,
-7, ,-20, ,
-7, ,-20, ,
-7, ,-20, ,
-7, ,-20, ,
-6, ,-20, ,
-6, ,-20, ,
-6, ,-20, ,
-4, ,-20, ,
-4, ,-20, ,
-3, ,-20, ,
-3, ,-20, ,
-1, ,-20, ,
0, ,-20, ,
0, ,-20, ,
0, ,-20, ,
0, ,-20, ,
1, ,-20, ,
1, ,-20, ,
1, ,-20, ,
1, ,-20, ,
1, ,-20, ,
1, ,-20, ,
1, ,-20, ,
1, ,-20, ,
1, ,-20, ,
1, ,-20, ,
1, ,-20, ,
1, ,-20, ,
2, ,-20, ,
2, ,-20, ,
2, ,-20, ,
2, ,-20, ,
2, ,-20, ,
2, ,-20, ,
2, ,-20, ,
2, ,-20, ,
2, ,-20, ,
2, ,-20, ,
1, ,-20, ,
1, ,-20, ,
0, ,-20, ,
0, ,-20, ,
-1, ,-20, ,
-2, ,-20, ,
-3, ,-20, ,
-4, ,-20, ,
-4, ,-20, ,
-6, ,-20, ,
-6, ,-20, ,
-8, ,-20, ,
-9, ,-20, ,
-10, ,-20, ,
-10, ,-20, ,
-10, ,-20, ,
-10, ,-20, ,
-10, ,-20, ,
-10, ,-20, ,
-9, ,-20, ,
-8, ,-20, ,
-7, ,-20, ,
-5, ,-20, ,
-5, ,-20, ,
-2, ,-20, ,
0, ,-20, ,
1, ,-20, ,
2, ,-20, ,
3, ,-20, ,
4, ,-20, ,
4, ,-20, ,
4, ,-20, ,
4, ,-20, ,
4, ,-20, ,
3, ,-20, ,
2, ,-20, ,
1, ,-20, ,
0, ,-20, ,
-1, ,-20, ,
-1, ,-20, ,
-3, ,-20, ,
-3, ,-20, ,
-4, ,-20, ,
-4, ,-20, ,
-4, ,-20, ,
-4, ,-20, ,
-4, ,-20, ,
-5, ,-20, ,
-5, ,-20, ,
-4, ,-20, ,
-4, ,-20, ,
-4, ,-20, ,
-4, ,-20, ,
-3, ,-20, ,
-2, ,-20, ,
-2, ,-20, ,
-2, ,-20, ,
-1, ,-20, ,
-1, ,-20, ,
0, ,-20, ,
0, ,-20, ,
0, ,-20, ,
1, ,-20, ,
1, ,-20, ,
1, ,-20, ,
1, ,-20, ,
-1, ,-20, ,
-1, ,-20, ,
-2, ,-20, ,
-3, ,-20, ,
-3, ,-20, ,
-4, ,-20, ,
-5, ,-20, ,
-7, ,-20, ,
-8, ,-20, ,
-9, ,-20, ,
-10, ,-20, ,
-11, ,-20, ,
-11, ,-20, ,
-12, ,-20, ,
-12, ,-20, ,
-11, ,-20, ,
-11, ,-20, ,
-10, ,-20, ,
-9, ,-20, ,
-8, ,-20, ,
-7, ,-20, ,
-6, ,-20, ,
-5, ,-20, ,
-3, ,-20, ,
-3, ,-20, ,
-1, ,-20, ,
-1, ,-20, ,
1, ,-20, ,
2, ,-20, ,
2, ,-20, ,
3, ,-20, ,
4, ,-20, ,
4, ,-20, ,
4, ,-20, ,
4, ,-20, ,
3, ,-20, ,
3, ,-20, ,
3, ,-20, ,
3, ,-20, ,
3, ,-20, ,
2, ,-20, ,
3, ,-20, ,
2, ,-20, ,
3, ,-20, ,
4, ,-20, ,
4, ,-20, ,
6, ,-20, ,
8, ,-20, ,
8, ,-20, ,
10, ,-20, ,
10, ,-20, ,
12, ,-20, ,
13, ,-20, ,
13, ,-20, ,
13, ,-20, ,
12, ,-20, ,
12, ,-20, ,
11, ,-20, ,
9, ,-20, ,
7, ,-20, ,
5, ,-20, ,
3, ,-20, ,
0, ,-20, ,
-3, ,-20, ,
-5, ,-20, ,
-7, ,-20, ,
-9, ,-20, ,
-12, ,-20, ,
-12, ,-20, ,
-13, ,-20, ,
-13, ,-20, ,
-14, ,-20, ,
-14, ,-20, ,
-13, ,-20, ,
-12, ,-20, ,
-11, ,-20, ,
-9, ,-20, ,
-9, ,-20, ,
-7, ,-20, ,
-5, ,-20, ,
-4, ,-20, ,
-2, ,-20, ,
-2, ,-20, ,
0, ,-20, ,
0, ,-20, ,
0, ,-20, ,
1, ,-20, ,
1, ,-20, ,
1, ,-20, ,
2, ,-20, ,
2, ,-20, ,
2, ,-20, ,
3, ,-20, ,
3, ,-20, ,
3, ,-20, ,
4, ,-20, ,
4, ,-20, ,
5, ,-20, ,
5, ,-20, ,
6, ,-20, ,
6, ,-20, ,
6, ,-20, ,
6, ,-20, ,
6, ,-20, ,
5, ,-20, ,
5, ,-20, ,
4, ,-20, ,
3, ,-20, ,
3, ,-20, ,
2, ,-20, ,
2, ,-20, ,
1, ,-20, ,
1, ,-20, ,
0, ,-20, ,
0, ,-20, ,
-1, ,-20, ,
-1, ,-20, ,
-2, ,-20, ,
-2, ,-20, ,
-3, ,-20, ,
-4, ,-20, ,
-4, ,-20, ,
-5, ,-20, ,
-6, ,-20, ,
-6, ,-20, ,
-6, ,-20, ,
-6, ,-20, ,
-6, ,-20, ,
-6, ,-20, ,
-6, ,-20, ,
-6, ,-20, ,
-4, ,-20, ,
-3, ,-20, ,
-2, ,-20, ,
0, ,-20, ,
3, ,-20, ,
4, ,-20, ,
6, ,-20, ,
6, ,-20, ,
9, ,-20, ,
10, ,-20, ,
11, ,-20, ,
11, ,-20, ,
10, ,-20, ,
9, ,-20, ,
9, ,-20, ,
8, ,-20, ,
6, ,-20, ,
4, ,-20, ,
2, ,-20, ,
2, ,-20, ,
-2, ,-20, ,
-3, ,-20, ,
-5, ,-20, ,
-6, ,-20, ,
-8, ,-20, ,
-9, ,-20, ,
-10, ,-20, ,
-11, ,-20, ,
-11, ,-20, ,
-11, ,-20, ,
-11, ,-20, ,
-11, ,-20, ,
-10, ,-20, ,
-10, ,-20, ,
-9, ,-20, ,
-8, ,-20, ,
-6, ,-20, ,
-6, ,-20, ,
-4, ,-20, ,
-4, ,-20, ,
-2, ,-20, ,
0, ,-20, ,
0, ,-20, ,
1, ,-20, ,
4, ,-20, ,
5, ,-20, ,
6, ,-20, ,
6, ,-20, ,
8, ,-20, ,
8, ,-20, ,
8, ,-20, ,
9, ,-20, ,
9, ,-20, ,
7, ,-20, ,
7, ,-20, ,
6, ,-20, ,
4, ,-20, ,
3, ,-20, ,
2, ,-20, ,
0, ,-20, ,
-1, ,-20, ,
-3, ,-20, ,
-3, ,-20, ,
-5, ,-20, ,
-5, ,-20, ,
-5, ,-20, ,
-5, ,-20, ,
-5, ,-20, ,
-4, ,-20, ,
-4, ,-20, ,
-3, ,-20, ,
-3, ,-20, ,
-2, ,-20, ,
0, ,-20, ,
-1, ,-20, ,
1, ,-20, ,
1, ,-20, ,
1, ,-20, ,
2, ,-20, ,
1, ,-20, ,
1, ,-20, ,
1, ,-20, ,
1, ,-20, ,
1, ,-20, ,
1, ,-20, ,
1, ,-20, ,
1, ,-20, ,
1, ,-20, ,
2, ,-20, ,
3, ,-20, ,
3, ,-20, ,
3, ,-20, ,
4, ,-20, ,
4, ,-20, ,
4, ,-20, ,
4, ,-20, ,
4, ,-20, ,
4, ,-20, ,
3, ,-20, ,
3, ,-20, ,
2, ,-20, ,
1, ,-20, ,
0, ,-20, ,
-1, ,-20, ,
-2, ,-20, ,
-3, ,-20, ,
-4, ,-20, ,
-4, ,-20, ,
-5, ,-20, ,
-5, ,-20, ,
-5, ,-20, ,
-5, ,-20, ,
-5, ,-20, ,
-5, ,-20, ,
-5, ,-20, ,
-5, ,-20, ,
-4, ,-20, ,
-4, ,-20, ,
-3, ,-20, ,
-4, ,-20, ,
-2, ,-20, ,
-2, ,-20, ,
-1, ,-20, ,
0, ,-20, ,
1, ,-20, ,
1, ,-20, ,
2, ,-20, ,
2, ,-20, ,
3, ,-20, ,
4, ,-20, ,
3, ,-20, ,
3, ,-20, ,
3, ,-20, ,
2, ,-20, ,
2, ,-20, ,
1, ,-20, ,
0, ,-20, ,
0, ,-20, ,
-1, ,-20, ,
-2, ,-20, ,
-3, ,-20, ,
-4, ,-20, ,
-4, ,-20, ,
-4, ,-20, ,
-3, ,-20, ,
-3, ,-20, ,
-3, ,-20, ,
-2, ,-20, ,
0, ,-20, ,
1, ,-20, ,
2, ,-20, ,
3, ,-20, ,
5, ,-20, ,
7, ,-20, ,
6, ,-20, ,
8, ,-20, ,
9, ,-20, ,
9, ,-20, ,
11, ,-20, ,
11, ,-20, ,
11, ,-20, ,
12, ,-20, ,
11, ,-20, ,
11, ,-20, ,
11, ,-20, ,
10, ,-20, ,
10, ,-20, ,
10, ,-20, ,
9, ,-20, ,
8, ,-20, ,
7, ,-20, ,
6, ,-20, ,
5, ,-20, ,
3, ,-20, ,
1, ,-20, ,
0, ,-20, ,
-3, ,-20, ,
-5, ,-20, ,
-6, ,-20, ,
-7, ,-20, ,
-9, ,-20, ,
-10, ,-20, ,
-11, ,-20, ,
-11, ,-20, ,
-11, ,-20, ,
-11, ,-20, ,
-11, ,-20, ,
-10, ,-20, ,
-9, ,-20, ,
-8, ,-20, ,
-7, ,-20, ,
-6, ,-20, ,
-4, ,-20, ,
-2, ,-20, ,
-1, ,-20, ,
0, ,-20, ,
2, ,-20, ,
2, ,-20, ,
3, ,-20, ,
3, ,-20, ,
2, ,-20, ,
2, ,-20, ,
1, ,-20, ,
1, ,-20, ,
-1, ,-20, ,
-2, ,-20, ,
-3, ,-20, ,
-4, ,-20, ,
-6, ,-20, ,
-6, ,-20, ,
-7, ,-20, ,
-7, ,-20, ,
-8, ,-20, ,
-8, ,-20, ,
-7, ,-20, ,
-7, ,-20, ,
-6, ,-20, ,
-5, ,-20, ,
-5, ,-20, ,
-4, ,-20, ,
-1, ,-20, ,
0, ,-20, ,
1, ,-20, ,
2, ,-20, ,
3, ,-20, ,
5, ,-20, ,
5, ,-20, ,
6, ,-20, ,
