raw_data/75% Glycerol, Impulsion 2Hz, Sonde 5MHz, Rampe 0.7Hz/temp0000171.CSV

Format,1.0B,
Memory Length,10000,Memory Length,10000,
IntpDistance,0,IntpDistance,0,
Trigger Address,159,Trigger Address,159,
Trigger Level,2.720E-01,Trigger Level,2.720E-01,
Source,CH1,Source,CH2,
Vertical Units,V,Vertical Units,V,
Vertical Units Div,0,Vertical Units Div,0,
Vertical Units Extend Div,16,Vertical Units Extend Div,16,
Label,,Label,,
Probe Type,0,Probe Type,0,
Probe Ratio,1.000e+00,Probe Ratio,1.000e+00,
Vertical Scale,5.000e-01,Vertical Scale,2.000e+00,
Vertical Position,0.000e+00,Vertical Position,0.000e+00,
Horizontal Units,S,Horizontal Units,S,
Horizontal Scale,5.000E-06,Horizontal Scale,5.000E-06,
Horizontal Position,2.420E-05,Horizontal Position,2.420E-05,
Horizontal Mode,Main,Horizontal Mode,Main,
SincET Mode,Real Time,SincET Mode,Real Time,
Sampling Period,5.000e-09,Sampling Period,5.000e-09,
Horizontal Old Scale,5.000E-06,Horizontal Old Scale,5.000E-06,
Horizontal Old Position,2.420E-05,Horizontal Old Position,2.420E-05,
Firmware,V1.32,Firmware,V1.32,
Mode,Fast,Mode,Fast,
Waveform Data,,Waveform Data,,
1, ,-42, ,
1, ,-42, ,
1, ,-42, ,
1, ,-42, ,
1, ,-42, ,
1, ,-42, ,
1, ,-42, ,
1, ,-42, ,
0, ,-42, ,
0, ,-42, ,
0, ,-42, ,
1, ,-42, ,
1, ,-42, ,
1, ,-42, ,
1, ,-42, ,
1, ,-42, ,
1, ,-42, ,
1, ,-42, ,
1, ,-42, ,
1, ,-42, ,
1, ,-42, ,
0, ,-42, ,
0, ,-42, ,
1, ,-42, ,
1, ,-42, ,
1, ,-42, ,
1, ,-42, ,
1, ,-42, ,
1, ,-42, ,
1, ,-42, ,
1, ,-42, ,
1, ,-42, ,
1, ,-42, ,
1, ,-42, ,
1, ,-42, ,
1, ,-42, ,
1, ,-42, ,
0, ,-42, ,
1, ,-42, ,
1, ,-42, ,
1, ,-42, ,
1, ,-42, ,
1, ,-42, ,
1, ,-42, ,
1, ,-42, ,
1, ,-42, ,
1, ,-42, ,
1, ,-42, ,
1, ,-42, ,
1, ,-42, ,
1, ,-42, ,
1, ,-42, ,
1, ,-42, ,
1, ,-42, ,
1, ,-42, ,
0, ,-42, ,
0, ,-42, ,
1, ,-42, ,
0, ,-42, ,
0, ,-42, ,
0, ,-42, ,
0, ,-42, ,
1, ,-42, ,
0, ,-42, ,
0, ,-42, ,
1, ,-42, ,
1, ,-42, ,
1, ,-42, ,
1, ,-42, ,
1, ,-42, ,
1, ,-42, ,
1, ,-42, ,
1, ,-42, ,
1, ,-42, ,
1, ,-42, ,
1, ,-42, ,
1, ,-42, ,
1, ,-42, ,
1, ,-42, ,
1, ,-42, ,
1, ,-42, ,
1, ,-42, ,
1, ,-42, ,
1, ,-42, ,
1, ,-42, ,
1, ,-42, ,
1, ,-42, ,
1, ,-42, ,
1, ,-42, ,
1, ,-42, ,
1, ,-42, ,
1, ,-42, ,
1, ,-42, ,
1, ,-42, ,
1, ,-42, ,
1, ,-42, ,
1, ,-42, ,
1, ,-42, ,
1, ,-42, ,
1, ,-42, ,
1, ,-42, ,
0, ,-42, ,
1, ,-42, ,
1, ,-42, ,
1, ,-42, ,
1, ,-42, ,
1, ,-42, ,
1, ,-42, ,
1, ,-42, ,
0, ,-42, ,
0, ,-42, ,
1, ,-42, ,
1, ,-42, ,
1, ,-42, ,
1, ,-42, ,
1, ,-42, ,
1, ,-42, ,
1, ,-42, ,
1, ,-42, ,
1, ,-42, ,
1, ,-42, ,
1, ,-42, ,
1, ,-42, ,
1, ,-42, ,
1, ,-42, ,
1, ,-42, ,
1, ,-42, ,
1, ,-42, ,
1, ,-42, ,
1, ,-42, ,
1, ,-42, ,
1, ,-42, ,
1, ,-42, ,
1, ,-42, ,
1, ,-42, ,
1, ,-42, ,
1, ,-42, ,
1, ,-42, ,
1, ,-42, ,
1, ,-42, ,
1, ,-42, ,
1, ,-42, ,
1, ,-42, ,
1, ,-42, ,
1, ,-42, ,
1, ,-42, ,
1, ,-42, ,
1, ,-42, ,
1, ,-42, ,
1, ,-42, ,
1, ,-42, ,
1, ,-42, ,
1, ,-42, ,
1, ,-42, ,
1, ,-42, ,
0, ,-42, ,
1, ,-42, ,
0, ,-42, ,
1, ,-42, ,
1, ,-42, ,
0, ,-42, ,
0, ,-42, ,
0, ,-42, ,
0, ,-42, ,
0, ,-42, ,
-1, ,-42, ,
1, ,-42, ,
6, ,-42, ,
24, ,-42, ,
57, ,-42, ,
97, ,-42, ,
123, ,-42, ,
120, ,-42, ,
83, ,-42, ,
24, ,-42, ,
17, ,-42, ,
71, ,-42, ,
120, ,-42, ,
125, ,-42, ,
125, ,-42, ,
125, ,-42, ,
125, ,-42, ,
125, ,-42, ,
124, ,-42, ,
124, ,-42, ,
119, ,-42, ,
114, ,-42, ,
105, ,-42, ,
103, ,-42, ,
99, ,-42, ,
97, ,-42, ,
89, ,-42, ,
85, ,-42, ,
83, ,-42, ,
79, ,-42, ,
74, ,-42, ,
72, ,-42, ,
68, ,-42, ,
66, ,-42, ,
61, ,-42, ,
57, ,-42, ,
56, ,-42, ,
53, ,-42, ,
48, ,-42, ,
47, ,-42, ,
44, ,-42, ,
43, ,-42, ,
39, ,-42, ,
38, ,-42, ,
37, ,-42, ,
34, ,-42, ,
31, ,-42, ,
30, ,-42, ,
28, ,-42, ,
27, ,-42, ,
25, ,-42, ,
24, ,-42, ,
23, ,-42, ,
22, ,-42, ,
20, ,-42, ,
19, ,-42, ,
18, ,-42, ,
18, ,-42, ,
16, ,-42, ,
14, ,-42, ,
14, ,-42, ,
13, ,-42, ,
12, ,-42, ,
11, ,-42, ,
11, ,-42, ,
11, ,-42, ,
9, ,-42, ,
8, ,-42, ,
8, ,-42, ,
7, ,-42, ,
7, ,-42, ,
6, ,-42, ,
6, ,-42, ,
6, ,-42, ,
5, ,-42, ,
4, ,-42, ,
4, ,-42, ,
3, ,-42, ,
3, ,-42, ,
3, ,-42, ,
3, ,-42, ,
3, ,-42, ,
3, ,-42, ,
2, ,-42, ,
1, ,-42, ,
1, ,-42, ,
1, ,-42, ,
1, ,-42, ,
1, ,-42, ,
1, ,-42, ,
1, ,-42, ,
1, ,-42, ,
1, ,-42, ,
1, ,-42, ,
0, ,-42, ,
0, ,-42, ,
-1, ,-42, ,
-1, ,-42, ,
0, ,-42, ,
0, ,-42, ,
0, ,-42, ,
-1, ,-42, ,
-1, ,-42, ,
-1, ,-42, ,
-1, ,-42, ,
-1, ,-42, ,
-1, ,-42, ,
-1, ,-42, ,
-1, ,-42, ,
-1, ,-42, ,
-1, ,-42, ,
-1, ,-42, ,
-1, ,-42, ,
-1, ,-42, ,
-1, ,-42, ,
-1, ,-42, ,
-1, ,-42, ,
-1, ,-42, ,
-1, ,-42, ,
-1, ,-42, ,
-1, ,-42, ,
-1, ,-42, ,
-1, ,-42, ,
-1, ,-42, ,
-1, ,-42, ,
-1, ,-42, ,
-1, ,-42, ,
-1, ,-42, ,
-1, ,-42, ,
-1, ,-42, ,
-1, ,-42, ,
-1, ,-42, ,
-1, ,-42, ,
-1, ,-42, ,
-1, ,-42, ,
-1, ,-42, ,
-1, ,-42, ,
-1, ,-42, ,
-1, ,-42, ,
-1, ,-42, ,
-1, ,-42, ,
-1, ,-42, ,
-1, ,-42, ,
-1, ,-42, ,
-1, ,-42, ,
-1, ,-42, ,
-1, ,-42, ,
-1, ,-42, ,
-1, ,-42, ,
-1, ,-42, ,
0, ,-42, ,
-1, ,-42, ,
-1, ,-42, ,
-1, ,-42, ,
0, ,-42, ,
0, ,-42, ,
0, ,-42, ,
0, ,-42, ,
-1, ,-42, ,
-1, ,-42, ,
-1, ,-42, ,
0, ,-42, ,
0, ,-42, ,
0, ,-42, ,
0, ,-42, ,
0, ,-42, ,
0, ,-42, ,
-1, ,-42, ,
-1, ,-42, ,
0, ,-42, ,
0, ,-42, ,
0, ,-42, ,
0, ,-42, ,
0, ,-42, ,
0, ,-42, ,
0, ,-42, ,
0, ,-42, ,
0, ,-42, ,
0, ,-42, ,
0, ,-42, ,
0, ,-42, ,
0, ,-42, ,
0, ,-42, ,
0, ,-42, ,
0, ,-42, ,
1, ,-42, ,
0, ,-42, ,
0, ,-42, ,
0, ,-42, ,
0, ,-42, ,
0, ,-42, ,
0, ,-42, ,
0, ,-42, ,
0, ,-42, ,
0, ,-42, ,
0, ,-42, ,
0, ,-42, ,
0, ,-42, ,
0, ,-42, ,
0, ,-42, ,
0, ,-42, ,
0, ,-42, ,
1, ,-42, ,
0, ,-42, ,
0, ,-42, ,
0, ,-42, ,
0, ,-42, ,
0, ,-42, ,
0, ,-42, ,
1, ,-42, ,
0, ,-42, ,
0, ,-42, ,
0, ,-42, ,
0, ,-42, ,
0, ,-42, ,
0, ,-42, ,
0, ,-42, ,
0, ,-42, ,
1, ,-42, ,
1, ,-42, ,
1, ,-42, ,
0, ,-42, ,
0, ,-42, ,
0, ,-42, ,
0, ,-42, ,
0, ,-42, ,
1, ,-42, ,
0, ,-42, ,
0, ,-42, ,
0, ,-42, ,
1, ,-42, ,
1, ,-42, ,
1, ,-42, ,
1, ,-42, ,
1, ,-42, ,
1, ,-42, ,
1, ,-42, ,
0, ,-42, ,
0, ,-42, ,
0, ,-42, ,
0, ,-42, ,
0, ,-42, ,
0, ,-42, ,
0, ,-42, ,
0, ,-42, ,
0, ,-42, ,
0, ,-42, ,
0, ,-42, ,
0, ,-42, ,
1, ,-42, ,
0, ,-42, ,
0, ,-42, ,
1, ,-42, ,
1, ,-42, ,
0, ,-42, ,
0, ,-42, ,
0, ,-42, ,
1, ,-42, ,
1, ,-42, ,
0, ,-42, ,
0, ,-42, ,
0, ,-42, ,
1, ,-42, ,
1, ,-42, ,
0, ,-42, ,
0, ,-42, ,
1, ,-42, ,
1, ,-42, ,
1, ,-42, ,
0, ,-42, ,
0, ,-42, ,
0, ,-42, ,
0, ,-42, ,
0, ,-42, ,
-1, ,-42, ,
-2, ,-42, ,
-2, ,-42, ,
-3, ,-42, ,
-5, ,-42, ,
-6, ,-42, ,
-7, ,-42, ,
-7, ,-42, ,
-6, ,-42, ,
-5, ,-42, ,
-4, ,-42, ,
-4, ,-42, ,
-2, ,-42, ,
-1, ,-42, ,
0, ,-42, ,
0, ,-42, ,
1, ,-42, ,
1, ,-42, ,
1, ,-42, ,
1, ,-42, ,
1, ,-42, ,
1, ,-42, ,
0, ,-42, ,
0, ,-42, ,
-1, ,-42, ,
-1, ,-42, ,
-1, ,-42, ,
-2, ,-42, ,
-2, ,-42, ,
-1, ,-42, ,
-1, ,-42, ,
0, ,-42, ,
1, ,-42, ,
1, ,-42, ,
1, ,-42, ,
1, ,-42, ,
2, ,-42, ,
2, ,-42, ,
2, ,-42, ,
2, ,-42, ,
3, ,-42, ,
2, ,-42, ,
2, ,-42, ,
2, ,-42, ,
2, ,-42, ,
2, ,-42, ,
1, ,-42, ,
1, ,-42, ,
1, ,-42, ,
1, ,-42, ,
2, ,-42, ,
2, ,-42, ,
2, ,-42, ,
2, ,-42, ,
2, ,-42, ,
2, ,-42, ,
3, ,-42, ,
2, ,-42, ,
2, ,-42, ,
2, ,-42, ,
2, ,-42, ,
2, ,-42, ,
1, ,-42, ,
1, ,-42, ,
1, ,-42, ,
0, ,-42, ,
0, ,-42, ,
0, ,-42, ,
0, ,-42, ,
0, ,-42, ,
0, ,-42, ,
0, ,-42, ,
1, ,-42, ,
1, ,-42, ,
1, ,-42, ,
1, ,-42, ,
1, ,-42, ,
1, ,-42, ,
0, ,-42, ,
0, ,-42, ,
-1, ,-42, ,
-2, ,-42, ,
-2, ,-42, ,
-4, ,-42, ,
-5, ,-42, ,
-7, ,-42, ,
-8, ,-42, ,
-9, ,-42, ,
-12, ,-42, ,
-13, ,-42, ,
-13, ,-42, ,
-13, ,-42, ,
-13, ,-42, ,
-13, ,-42, ,
-13, ,-42, ,
-12, ,-42, ,
-12, ,-42, ,
-13, ,-42, ,
-13, ,-42, ,
-15, ,-42, ,
-17, ,-42, ,
-19, ,-42, ,
-21, ,-42, ,
-23, ,-42, ,
-28, ,-42, ,
-30, ,-42, ,
-31, ,-42, ,
-31, ,-42, ,
-30, ,-42, ,
-28, ,-42, ,
-27, ,-42, ,
-25, ,-42, ,
-20, ,-42, ,
-18, ,-42, ,
-16, ,-42, ,
-14, ,-42, ,
-11, ,-42, ,
-10, ,-42, ,
-10, ,-42, ,
-10, ,-42, ,
-11, ,-42, ,
-12, ,-42, ,
-12, ,-42, ,
-14, ,-42, ,
-16, ,-42, ,
-17, ,-42, ,
-18, ,-42, ,
-18, ,-42, ,
-19, ,-42, ,
-19, ,-42, ,
-19, ,-42, ,
-19, ,-42, ,
-19, ,-42, ,
-19, ,-42, ,
-19, ,-42, ,
-18, ,-42, ,
-18, ,-42, ,
-18, ,-42, ,
-18, ,-42, ,
-18, ,-42, ,
-18, ,-42, ,
-16, ,-42, ,
-15, ,-42, ,
-14, ,-42, ,
-10, ,-42, ,
-8, ,-42, ,
-5, ,-42, ,
-2, ,-42, ,
3, ,-42, ,
6, ,-42, ,
8, ,-42, ,
11, ,-42, ,
14, ,-42, ,
16, ,-42, ,
18, ,-42, ,
18, ,-42, ,
18, ,-42, ,
17, ,-42, ,
17, ,-42, ,
16, ,-42, ,
14, ,-42, ,
11, ,-42, ,
9, ,-42, ,
7, ,-42, ,
3, ,-42, ,
1, ,-42, ,
-2, ,-42, ,
-4, ,-42, ,
-7, ,-42, ,
-9, ,-42, ,
-9, ,-42, ,
-9, ,-42, ,
-9, ,-42, ,
-8, ,-42, ,
-8, ,-42, ,
-6, ,-42, ,
-3, ,-42, ,
-1, ,-42, ,
1, ,-42, ,
3, ,-42, ,
7, ,-42, ,
9, ,-42, ,
11, ,-42, ,
12, ,-42, ,
14, ,-42, ,
15, ,-42, ,
16, ,-42, ,
15, ,-42, ,
15, ,-42, ,
15, ,-42, ,
13, ,-42, ,
13, ,-42, ,
10, ,-42, ,
8, ,-42, ,
6, ,-42, ,
4, ,-42, ,
-1, ,-42, ,
-4, ,-42, ,
-7, ,-42, ,
-10, ,-42, ,
-17, ,-42, ,
-21, ,-42, ,
-24, ,-42, ,
-27, ,-42, ,
-32, ,-42, ,
-34, ,-42, ,
-35, ,-42, ,
-35, ,-42, ,
-34, ,-42, ,
-34, ,-42, ,
-33, ,-42, ,
-32, ,-42, ,
-28, ,-42, ,
-26, ,-42, ,
-25, ,-42, ,
-24, ,-42, ,
-22, ,-42, ,
-21, ,-42, ,
-19, ,-42, ,
-18, ,-42, ,
-15, ,-42, ,
-14, ,-42, ,
-12, ,-42, ,
-10, ,-42, ,
-7, ,-42, ,
-6, ,-42, ,
-5, ,-42, ,
-3, ,-42, ,
-1, ,-42, ,
0, ,-42, ,
0, ,-42, ,
0, ,-42, ,
1, ,-42, ,
0, ,-42, ,
0, ,-42, ,
-1, ,-42, ,
-2, ,-42, ,
-2, ,-42, ,
-3, ,-42, ,
-3, ,-42, ,
-4, ,-42, ,
-6, ,-42, ,
-6, ,-42, ,
-7, ,-42, ,
-7, ,-42, ,
-7, ,-42, ,
-7, ,-42, ,
-7, ,-42, ,
-6, ,-42, ,
-5, ,-42, ,
-4, ,-42, ,
-3, ,-42, ,
0, ,-42, ,
1, ,-42, ,
3, ,-42, ,
4, ,-42, ,
7, ,-42, ,
7, ,-42, ,
8, ,-42, ,
7, ,-42, ,
6, ,-42, ,
6, ,-42, ,
5, ,-42, ,
3, ,-42, ,
0, ,-42, ,
-2, ,-42, ,
-4, ,-42, ,
-6, ,-42, ,
-10, ,-42, ,
-11, ,-42, ,
-14, ,-42, ,
-15, ,-42, ,
-19, ,-42, ,
-21, ,-42, ,
-21, ,-42, ,
-22, ,-42, ,
-22, ,-42, ,
-21, ,-42, ,
-21, ,-42, ,
-19, ,-42, ,
-15, ,-42, ,
-13, ,-42, ,
-11, ,-42, ,
-8, ,-42, ,
-3, ,-42, ,
1, ,-42, ,
3, ,-42, ,
5, ,-42, ,
10, ,-42, ,
11, ,-42, ,
13, ,-42, ,
15, ,-42, ,
16, ,-42, ,
17, ,-42, ,
17, ,-42, ,
18, ,-42, ,
17, ,-42, ,
17, ,-42, ,
16, ,-42, ,
16, ,-42, ,
14, ,-42, ,
13, ,-42, ,
12, ,-42, ,
11, ,-42, ,
8, ,-42, ,
6, ,-42, ,
4, ,-42, ,
3, ,-42, ,
-1, ,-42, ,
-2, ,-42, ,
-4, ,-42, ,
-5, ,-42, ,
-8, ,-42, ,
-9, ,-42, ,
-9, ,-42, ,
-10, ,-42, ,
-11, ,-42, ,
-11, ,-42, ,
-11, ,-42, ,
-11, ,-42, ,
-11, ,-42, ,
-12, ,-42, ,
-12, ,-42, ,
-12, ,-42, ,
-12, ,-42, ,
-12, ,-42, ,
-13, ,-42, ,
-13, ,-42, ,
-13, ,-42, ,
-13, ,-42, ,
-13, ,-42, ,
-13, ,-42, ,
-13, ,-42, ,
-13, ,-42, ,
-13, ,-42, ,
-12, ,-42, ,
-11, ,-42, ,
-11, ,-42, ,
-9, ,-42, ,
-9, ,-42, ,
-8, ,-42, ,
-7, ,-42, ,
-7, ,-42, ,
-6, ,-42, ,
-6, ,-42, ,
-6, ,-42, ,
-6, ,-42, ,
-7, ,-42, ,
-9, ,-42, ,
-10, ,-42, ,
-11, ,-42, ,
-12, ,-42, ,
-14, ,-42, ,
-16, ,-42, ,
-16, ,-42, ,
-18, ,-42, ,
-20, ,-42, ,
-21, ,-42, ,
-23, ,-42, ,
-23, ,-42, ,
-24, ,-42, ,
-24, ,-42, ,
-25, ,-42, ,
-25, ,-42, ,
-24, ,-42, ,
-24, ,-42, ,
-24, ,-42, ,
-23, ,-42, ,
-22, ,-42, ,
-22, ,-42, ,
-20, ,-42, ,
-19, ,-42, ,
-16, ,-42, ,
-14, ,-42, ,
-13, ,-42, ,
-11, ,-42, ,
-7, ,-42, ,
-6, ,-42, ,
-4, ,-42, ,
-3, ,-42, ,
-1, ,-42, ,
1, ,-42, ,
2, ,-42, ,
3, ,-42, ,
6, ,-42, ,
6, ,-42, ,
7, ,-42, ,
8, ,-42, ,
10, ,-42, ,
11, ,-42, ,
11, ,-42, ,
12, ,-42, ,
12, ,-42, ,
13, ,-42, ,
13, ,-42, ,
13, ,-42, ,
13, ,-42, ,
13, ,-42, ,
13, ,-42, ,
13, ,-42, ,
13, ,-42, ,
13, ,-42, ,
13, ,-42, ,
13, ,-42, ,
13, ,-42, ,
13, ,-42, ,
12, ,-42, ,
12, ,-42, ,
11, ,-42, ,
9, ,-42, ,
9, ,-42, ,
7, ,-42, ,
5, ,-42, ,
4, ,-42, ,
3, ,-42, ,
2, ,-42, ,
-1, ,-42, ,
-2, ,-42, ,
-3, ,-42, ,
-3, ,-42, ,
-3, ,-42, ,
-3, ,-42, ,
-3, ,-42, ,
-2, ,-42, ,
-2, ,-42, ,
-2, ,-42, ,
0, ,-42, ,
-1, ,-42, ,
-1, ,-42, ,
0, ,-42, ,
-1, ,-42, ,
-1, ,-42, ,
-2, ,-42, ,
-3, ,-42, ,
-3, ,-42, ,
-4, ,-42, ,
-6, ,-42, ,
-7, ,-42, ,
-8, ,-42, ,
-9, ,-42, ,
-11, ,-42, ,
-12, ,-42, ,
-12, ,-42, ,
-14, ,-42, ,
-14, ,-42, ,
-14, ,-42, ,
-15, ,-42, ,
-15, ,-42, ,
-15, ,-42, ,
-15, ,-42, ,
-15, ,-42, ,
-14, ,-42, ,
-13, ,-42, ,
-12, ,-42, ,
-12, ,-42, ,
-11, ,-42, ,
-9, ,-42, ,
-9, ,-42, ,
-8, ,-42, ,
-8, ,-42, ,
-7, ,-42, ,
-6, ,-42, ,
-7, ,-42, ,
-7, ,-42, ,
-8, ,-42, ,
-9, ,-42, ,
-10, ,-42, ,
-10, ,-42, ,
-13, ,-42, ,
-14, ,-42, ,
-15, ,-42, ,
-16, ,-42, ,
-18, ,-42, ,
-19, ,-42, ,
-20, ,-42, ,
-20, ,-42, ,
-21, ,-42, ,
-21, ,-42, ,
-22, ,-42, ,
-22, ,-42, ,
-22, ,-42, ,
-23, ,-42, ,
-22, ,-42, ,
-22, ,-42, ,
-22, ,-42, ,
-21, ,-42, ,
-22, ,-42, ,
-20, ,-42, ,
-19, ,-42, ,
-19, ,-42, ,
-17, ,-42, ,
-16, ,-42, ,
-12, ,-42, ,
-11, ,-42, ,
-8, ,-42, ,
-5, ,-42, ,
0, ,-42, ,
2, ,-42, ,
5, ,-42, ,
8, ,-42, ,
13, ,-42, ,
16, ,-42, ,
18, ,-42, ,
21, ,-42, ,
24, ,-42, ,
24, ,-42, ,
25, ,-42, ,
25, ,-42, ,
24, ,-42, ,
24, ,-42, ,
23, ,-42, ,
22, ,-42, ,
19, ,-42, ,
17, ,-42, ,
15, ,-42, ,
12, ,-42, ,
8, ,-42, ,
6, ,-42, ,
4, ,-42, ,
2, ,-42, ,
-3, ,-42, ,
-6, ,-42, ,
-7, ,-42, ,
-9, ,-42, ,
-13, ,-42, ,
-14, ,-42, ,
-16, ,-42, ,
-17, ,-42, ,
-18, ,-42, ,
-19, ,-42, ,
-19, ,-42, ,
-19, ,-42, ,
-19, ,-42, ,
-17, ,-42, ,
-17, ,-42, ,
-15, ,-42, ,
-13, ,-42, ,
-12, ,-42, ,
-9, ,-42, ,
-8, ,-42, ,
-4, ,-42, ,
-2, ,-42, ,
-1, ,-42, ,
0, ,-42, ,
4, ,-42, ,
5, ,-42, ,
7, ,-42, ,
7, ,-42, ,
8, ,-42, ,
9, ,-42, ,
9, ,-42, ,
9, ,-42, ,
7, ,-42, ,
7, ,-42, ,
6, ,-42, ,
5, ,-42, ,
3, ,-42, ,
2, ,-42, ,
0, ,-42, ,
0, ,-42, ,
-3, ,-42, ,
-4, ,-42, ,
-4, ,-42, ,
-4, ,-42, ,
-4, ,-42, ,
-4, ,-42, ,
-4, ,-42, ,
-4, ,-42, ,
-3, ,-42, ,
-3, ,-42, ,
-1, ,-42, ,
-1, ,-42, ,
0, ,-42, ,
1, ,-42, ,
2, ,-42, ,
2, ,-42, ,
2, ,-42, ,
2, ,-42, ,
2, ,-42, ,
2, ,-42, ,
1, ,-42, ,
0, ,-42, ,
-1, ,-42, ,
-1, ,-42, ,
-3, ,-42, ,
-4, ,-42, ,
-5, ,-42, ,
-6, ,-42, ,
-8, ,-42, ,
-9, ,-42, ,
-10, ,-42, ,
-10, ,-42, ,
-11, ,-42, ,
-11, ,-42, ,
-11, ,-42, ,
-11, ,-42, ,
-10, ,-42, ,
-9, ,-42, ,
-9, ,-42, ,
-7, ,-42, ,
-5, ,-42, ,
-3, ,-42, ,
-1, ,-42, ,
0, ,-42, ,
5, ,-42, ,
7, ,-42, ,
8, ,-42, ,
10, ,-42, ,
12, ,-42, ,
13, ,-42, ,
13, ,-42, ,
13, ,-42, ,
12, ,-42, ,
11, ,-42, ,
9, ,-42, ,
8, ,-42, ,
2, ,-42, ,
0, ,-42, ,
-3, ,-42, ,
-6, ,-42, ,
-12, ,-42, ,
-14, ,-42, ,
-17, ,-42, ,
-18, ,-42, ,
-20, ,-42, ,
-20, ,-42, ,
-19, ,-42, ,
-20, ,-42, ,
-17, ,-42, ,
-14, ,-42, ,
-13, ,-42, ,
-10, ,-42, ,
-5, ,-42, ,
-3, ,-42, ,
0, ,-42, ,
3, ,-42, ,
7, ,-42, ,
10, ,-42, ,
11, ,-42, ,
13, ,-42, ,
15, ,-42, ,
14, ,-42, ,
14, ,-42, ,
13, ,-42, ,
12, ,-42, ,
11, ,-42, ,
9, ,-42, ,
8, ,-42, ,
4, ,-42, ,
1, ,-42, ,
0, ,-42, ,
-2, ,-42, ,
-6, ,-42, ,
-7, ,-42, ,
-9, ,-42, ,
-9, ,-42, ,
-9, ,-42, ,
-9, ,-42, ,
-9, ,-42, ,
-8, ,-42, ,
-6, ,-42, ,
-5, ,-42, ,
-3, ,-42, ,
-1, ,-42, ,
2, ,-42, ,
3, ,-42, ,
5, ,-42, ,
5, ,-42, ,
7, ,-42, ,
8, ,-42, ,
8, ,-42, ,
8, ,-42, ,
7, ,-42, ,
7, ,-42, ,
6, ,-42, ,
5, ,-42, ,
4, ,-42, ,
3, ,-42, ,
2, ,-42, ,
1, ,-42, ,
-1, ,-42, ,
-3, ,-42, ,
-3, ,-42, ,
-5, ,-42, ,
-7, ,-42, ,
-7, ,-42, ,
-8, ,-42, ,
-8, ,-42, ,
-9, ,-42, ,
-10, ,-42, ,
-10, ,-42, ,
-10, ,-42, ,
-10, ,-42, ,
-10, ,-42, ,
-10, ,-42, ,
-9, ,-42, ,
-8, ,-42, ,
-8, ,-42, ,
-6, ,-42, ,
-6, ,-42, ,
-4, ,-42, ,
-3, ,-42, ,
-3, ,-42, ,
-1, ,-42, ,
1, ,-42, ,
1, ,-42, ,
2, ,-42, ,
2, ,-42, ,
2, ,-42, ,
2, ,-42, ,
2, ,-42, ,
2, ,-42, ,
1, ,-42, ,
1, ,-42, ,
1, ,-42, ,
0, ,-42, ,
0, ,-42, ,
0, ,-42, ,
0, ,-42, ,
0, ,-42, ,
1, ,-42, ,
1, ,-42, ,
2, ,-42, ,
2, ,-42, ,
4, ,-42, ,
5, ,-42, ,
5, ,-42, ,
6, ,-42, ,
6, ,-42, ,
6, ,-42, ,
6, ,-42, ,
6, ,-42, ,
6, ,-42, ,
5, ,-42, ,
5, ,-42, ,
4, ,-42, ,
3, ,-42, ,
2, ,-42, ,
1, ,-42, ,
0, ,-42, ,
-1, ,-42, ,
-2, ,-42, ,
-4, ,-42, ,
-4, ,-42, ,
-6, ,-42, ,
-8, ,-42, ,
-8, ,-42, ,
-9, ,-42, ,
-11, ,-42, ,
-11, ,-42, ,
-12, ,-42, ,
-12, ,-42, ,
-11, ,-42, ,
-11, ,-42, ,
-11, ,-42, ,
-11, ,-42, ,
-9, ,-42, ,
-8, ,-42, ,
-7, ,-42, ,
-4, ,-42, ,
-2, ,-42, ,
-1, ,-42, ,
2, ,-42, ,
2, ,-42, ,
5, ,-42, ,
7, ,-42, ,
7, ,-42, ,
8, ,-42, ,
8, ,-42, ,
7, ,-42, ,
6, ,-42, ,
6, ,-42, ,
3, ,-42, ,
2, ,-42, ,
0, ,-42, ,
-1, ,-42, ,
-4, ,-42, ,
-6, ,-42, ,
-7, ,-42, ,
-9, ,-42, ,
-11, ,-42, ,
-11, ,-42, ,
-11, ,-42, ,
-11, ,-42, ,
-11, ,-42, ,
-11, ,-42, ,
-10, ,-42, ,
-9, ,-42, ,
-8, ,-42, ,
-6, ,-42, ,
-6, ,-42, ,
-5, ,-42, ,
-3, ,-42, ,
-1, ,-42, ,
0, ,-42, ,
0, ,-42, ,
2, ,-42, ,
3, ,-42, ,
3, ,-42, ,
4, ,-42, ,
5, ,-42, ,
5, ,-42, ,
5, ,-42, ,
5, ,-42, ,
5, ,-42, ,
5, ,-42, ,
4, ,-42, ,
4, ,-42, ,
3, ,-42, ,
2, ,-42, ,
2, ,-42, ,
1, ,-42, ,
-2, ,-42, ,
-2, ,-42, ,
-3, ,-42, ,
-5, ,-42, ,
-6, ,-42, ,
-8, ,-42, ,
-9, ,-42, ,
-10, ,-42, ,
-10, ,-42, ,
-10, ,-42, ,
-10, ,-42, ,
-10, ,-42, ,
-10, ,-42, ,
-9, ,-42, ,
-8, ,-42, ,
-8, ,-42, ,
-6, ,-42, ,
-5, ,-42, ,
-5, ,-42, ,
-4, ,-42, ,
-2, ,-42, ,
-2, ,-42, ,
-2, ,-42, ,
-2, ,-42, ,
-2, ,-42, ,
-1, ,-42, ,
-1, ,-42, ,
-1, ,-42, ,
-1, ,-42, ,
-1, ,-42, ,
0, ,-42, ,
1, ,-42, ,
2, ,-42, ,
2, ,-42, ,
2, ,-42, ,
3, ,-42, ,
4, ,-42, ,
4, ,-42, ,
4, ,-42, ,
4, ,-42, ,
5, ,-42, ,
5, ,-42, ,
4, ,-42, ,
4, ,-42, ,
3, ,-42, ,
2, ,-42, ,
2, ,-42, ,
1, ,-42, ,
-1, ,-42, ,
-2, ,-42, ,
-3, ,-42, ,
-3, ,-42, ,
-5, ,-42, ,
-5, ,-42, ,
-5, ,-42, ,
-6, ,-42, ,
-6, ,-42, ,
-6, ,-42, ,
-6, ,-42, ,
-5, ,-42, ,
-5, ,-42, ,
-4, ,-42, ,
-3, ,-42, ,
-3, ,-42, ,
-2, ,-42, ,
-1, ,-42, ,
-2, ,-42, ,
-1, ,-42, ,
0, ,-42, ,
0, ,-42, ,
2, ,-42, ,
1, ,-42, ,
2, ,-42, ,
3, ,-42, ,
3, ,-42, ,
3, ,-42, ,
4, ,-42, ,
4, ,-42, ,
4, ,-42, ,
4, ,-42, ,
5, ,-42, ,
5, ,-42, ,
5, ,-42, ,
6, ,-42, ,
7, ,-42, ,
6, ,-42, ,
6, ,-42, ,
6, ,-42, ,
6, ,-42, ,
6, ,-42, ,
6, ,-42, ,
6, ,-42, ,
5, ,-42, ,
5, ,-42, ,
4, ,-42, ,
3, ,-42, ,
3, ,-42, ,
3, ,-42, ,
1, ,-42, ,
1, ,-42, ,
0, ,-42, ,
-1, ,-42, ,
-1, ,-42, ,
-2, ,-42, ,
-4, ,-42, ,
-4, ,-42, ,
-5, ,-42, ,
-5, ,-42, ,
-5, ,-42, ,
-6, ,-42, ,
-6, ,-42, ,
-6, ,-42, ,
-5, ,-42, ,
-4, ,-42, ,
-4, ,-42, ,
-3, ,-42, ,
-2, ,-42, ,
-1, ,-42, ,
-1, ,-42, ,
0, ,-42, ,
0, ,-42, ,
1, ,-42, ,
1, ,-42, ,
1, ,-42, ,
0, ,-42, ,
0, ,-42, ,
0, ,-42, ,
-1, ,-42, ,
-3, ,-42, ,
-3, ,-42, ,
-4, ,-42, ,
-4, ,-42, ,
-5, ,-42, ,
-5, ,-42, ,
-5, ,-42, ,
-5, ,-42, ,
-3, ,-42, ,
-3, ,-42, ,
-2, ,-42, ,
-1, ,-42, ,
1, ,-42, ,
2, ,-42, ,
3, ,-42, ,
4, ,-42, ,
5, ,-42, ,
6, ,-42, ,
7, ,-42, ,
7, ,-42, ,
7, ,-42, ,
6, ,-42, ,
6, ,-42, ,
5, ,-42, ,
4, ,-42, ,
4, ,-42, ,
3, ,-42, ,
3, ,-42, ,
2, ,-42, ,
1, ,-42, ,
1, ,-42, ,
0, ,-42, ,
-1, ,-42, ,
-1, ,-42, ,
-1, ,-42, ,
-1, ,-42, ,
-2, ,-42, ,
-2, ,-42, ,
-2, ,-42, ,
-2, ,-42, ,
-3, ,-42, ,
-3, ,-42, ,
-3, ,-42, ,
-3, ,-42, ,
-4, ,-42, ,
-4, ,-42, ,
-5, ,-42, ,
-5, ,-42, ,
-6, ,-42, ,
-6, ,-42, ,
-6, ,-42, ,
-6, ,-42, ,
-6, ,-42, ,
-6, ,-42, ,
-6, ,-42, ,
-6, ,-42, ,
-5, ,-42, ,
-4, ,-42, ,
-3, ,-42, ,
-2, ,-42, ,
0, ,-42, ,
0, ,-42, ,
2, ,-42, ,
3, ,-42, ,
4, ,-42, ,
6, ,-42, ,
7, ,-42, ,
7, ,-42, ,
8, ,-42, ,
8, ,-42, ,
8, ,-42, ,
8, ,-42, ,
7, ,-42, ,
7, ,-42, ,
6, ,-42, ,
6, ,-42, ,
4, ,-42, ,
4, ,-42, ,
3, ,-42, ,
2, ,-42, ,
1, ,-42, ,
1, ,-42, ,
0, ,-42, ,
0, ,-42, ,
-1, ,-42, ,
-2, ,-42, ,
-3, ,-42, ,
-4, ,-42, ,
-5, ,-42, ,
-6, ,-42, ,
-6, ,-42, ,
-6, ,-42, ,
-7, ,-42, ,
-8, ,-42, ,
-8, ,-42, ,
-8, ,-42, ,
-7, ,-42, ,
-7, ,-42, ,
-7, ,-42, ,
-6, ,-42, ,
-4, ,-42, ,
-3, ,-42, ,
-2, ,-42, ,
-1, ,-42, ,
2, ,-42, ,
2, ,-42, ,
3, ,-42, ,
5, ,-42, ,
6, ,-42, ,
7, ,-42, ,
7, ,-42, ,
7, ,-42, ,
7, ,-42, ,
7, ,-42, ,
6, ,-42, ,
5, ,-42, ,
4, ,-42, ,
3, ,-42, ,
3, ,-42, ,
2, ,-42, ,
0, ,-42, ,
-1, ,-42, ,
-2, ,-42, ,
-3, ,-42, ,
-3, ,-42, ,
-3, ,-42, ,
-4, ,-42, ,
-4, ,-42, ,
-3, ,-42, ,
-3, ,-42, ,
-3, ,-42, ,
-1, ,-42, ,
0, ,-42, ,
1, ,-42, ,
2, ,-42, ,
3, ,-42, ,
6, ,-42, ,
7, ,-42, ,
7, ,-42, ,
9, ,-42, ,
9, ,-42, ,
9, ,-42, ,
8, ,-42, ,
8, ,-42, ,
6, ,-42, ,
6, ,-42, ,
5, ,-42, ,
4, ,-42, ,
2, ,-42, ,
0, ,-42, ,
-1, ,-42, ,
-2, ,-42, ,
-4, ,-42, ,
-5, ,-42, ,
-6, ,-42, ,
-7, ,-42, ,
-7, ,-42, ,
-8, ,-42, ,
-8, ,-42, ,
-8, ,-42, ,
-8, ,-42, ,
-6, ,-42, ,
-6, ,-42, ,
-6, ,-42, ,
-5, ,-42, ,
-5, ,-42, ,
-4, ,-42, ,
-4, ,-42, ,
-2, ,-42, ,
-1, ,-42, ,
-2, ,-42, ,
0, ,-42, ,
1, ,-42, ,
2, ,-42, ,
3, ,-42, ,
3, ,-42, ,
4, ,-42, ,
6, ,-42, ,
6, ,-42, ,
7, ,-42, ,
9, ,-42, ,
9, ,-42, ,
10, ,-42, ,
10, ,-42, ,
10, ,-42, ,
10, ,-42, ,
10, ,-42, ,
10, ,-42, ,
9, ,-42, ,
8, ,-42, ,
8, ,-42, ,
6, ,-42, ,
4, ,-42, ,
3, ,-42, ,
1, ,-42, ,
0, ,-42, ,
-2, ,-42, ,
-4, ,-42, ,
-5, ,-42, ,
-6, ,-42, ,
-8, ,-42, ,
-8, ,-42, ,
-8, ,-42, ,
-8, ,-42, ,
-8, ,-42, ,
-8, ,-42, ,
-7, ,-42, ,
-7, ,-42, ,
-7, ,-42, ,
-6, ,-42, ,
-5, ,-42, ,
-4, ,-42, ,
-3, ,-42, ,
-3, ,-42, ,
-2, ,-42, ,
-1, ,-42, ,
-1, ,-42, ,
0, ,-42, ,
0, ,-42, ,
1, ,-42, ,
2, ,-42, ,
2, ,-42, ,
3, ,-42, ,
3, ,-42, ,
3, ,-42, ,
4, ,-42, ,
4, ,-42, ,
5, ,-42, ,
5, ,-42, ,
6, ,-42, ,
6, ,-42, ,
6, ,-42, ,
6, ,-42, ,
5, ,-42, ,
5, ,-42, ,
4, ,-42, ,
4, ,-42, ,
4, ,-42, ,
3, ,-42, ,
2, ,-42, ,
1, ,-42, ,
