raw_data/75% Glycerol, Impulsion 2Hz, Sonde 5MHz, Rampe 0.7Hz/temp0000258.CSV

Format,1.0B,
Memory Length,10000,Memory Length,10000,
IntpDistance,0,IntpDistance,0,
Trigger Address,159,Trigger Address,159,
Trigger Level,2.720E-01,Trigger Level,2.720E-01,
Source,CH1,Source,CH2,
Vertical Units,V,Vertical Units,V,
Vertical Units Div,0,Vertical Units Div,0,
Vertical Units Extend Div,16,Vertical Units Extend Div,16,
Label,,Label,,
Probe Type,0,Probe Type,0,
Probe Ratio,1.000e+00,Probe Ratio,1.000e+00,
Vertical Scale,5.000e-01,Vertical Scale,2.000e+00,
Vertical Position,0.000e+00,Vertical Position,0.000e+00,
Horizontal Units,S,Horizontal Units,S,
Horizontal Scale,5.000E-06,Horizontal Scale,5.000E-06,
Horizontal Position,2.420E-05,Horizontal Position,2.420E-05,
Horizontal Mode,Main,Horizontal Mode,Main,
SincET Mode,Real Time,SincET Mode,Real Time,
Sampling Period,5.000e-09,Sampling Period,5.000e-09,
Horizontal Old Scale,5.000E-06,Horizontal Old Scale,5.000E-06,
Horizontal Old Position,2.420E-05,Horizontal Old Position,2.420E-05,
Firmware,V1.32,Firmware,V1.32,
Mode,Fast,Mode,Fast,
Waveform Data,,Waveform Data,,
1, ,28, ,
1, ,28, ,
1, ,28, ,
0, ,28, ,
0, ,28, ,
1, ,28, ,
0, ,28, ,
0, ,28, ,
0, ,28, ,
0, ,28, ,
1, ,28, ,
1, ,28, ,
0, ,28, ,
0, ,28, ,
0, ,28, ,
1, ,28, ,
1, ,28, ,
1, ,28, ,
1, ,28, ,
1, ,28, ,
1, ,28, ,
1, ,28, ,
1, ,28, ,
1, ,28, ,
1, ,28, ,
0, ,28, ,
0, ,28, ,
0, ,28, ,
1, ,28, ,
1, ,28, ,
0, ,28, ,
0, ,28, ,
0, ,28, ,
0, ,28, ,
0, ,28, ,
0, ,28, ,
1, ,28, ,
1, ,28, ,
0, ,28, ,
0, ,28, ,
1, ,28, ,
1, ,28, ,
1, ,28, ,
0, ,28, ,
0, ,28, ,
0, ,28, ,
0, ,28, ,
1, ,28, ,
1, ,28, ,
1, ,28, ,
1, ,28, ,
0, ,28, ,
0, ,28, ,
1, ,28, ,
1, ,28, ,
1, ,28, ,
1, ,28, ,
1, ,28, ,
1, ,28, ,
1, ,28, ,
0, ,28, ,
0, ,28, ,
0, ,28, ,
0, ,28, ,
1, ,28, ,
1, ,28, ,
1, ,28, ,
1, ,28, ,
1, ,28, ,
1, ,28, ,
1, ,28, ,
1, ,28, ,
1, ,28, ,
1, ,28, ,
1, ,28, ,
0, ,28, ,
0, ,28, ,
1, ,28, ,
1, ,28, ,
1, ,28, ,
0, ,28, ,
0, ,28, ,
1, ,28, ,
1, ,28, ,
1, ,28, ,
1, ,28, ,
1, ,28, ,
1, ,28, ,
0, ,28, ,
0, ,28, ,
0, ,28, ,
0, ,28, ,
1, ,28, ,
1, ,28, ,
1, ,28, ,
1, ,28, ,
1, ,28, ,
1, ,28, ,
1, ,28, ,
0, ,28, ,
0, ,28, ,
1, ,28, ,
1, ,28, ,
1, ,28, ,
1, ,28, ,
1, ,28, ,
0, ,28, ,
0, ,28, ,
1, ,28, ,
1, ,28, ,
1, ,28, ,
1, ,28, ,
1, ,28, ,
1, ,28, ,
1, ,28, ,
1, ,28, ,
1, ,28, ,
1, ,28, ,
1, ,28, ,
1, ,28, ,
1, ,28, ,
1, ,28, ,
1, ,28, ,
0, ,28, ,
0, ,28, ,
1, ,28, ,
1, ,28, ,
1, ,28, ,
1, ,28, ,
1, ,28, ,
1, ,28, ,
0, ,28, ,
0, ,28, ,
1, ,28, ,
1, ,28, ,
1, ,28, ,
1, ,28, ,
0, ,28, ,
0, ,28, ,
0, ,28, ,
1, ,28, ,
1, ,28, ,
1, ,28, ,
1, ,28, ,
1, ,28, ,
1, ,28, ,
1, ,28, ,
1, ,28, ,
0, ,28, ,
1, ,28, ,
1, ,28, ,
1, ,28, ,
1, ,28, ,
1, ,28, ,
1, ,28, ,
1, ,28, ,
0, ,28, ,
0, ,28, ,
0, ,28, ,
1, ,28, ,
0, ,28, ,
0, ,28, ,
1, ,28, ,
0, ,28, ,
-1, ,28, ,
0, ,28, ,
-2, ,28, ,
3, ,28, ,
52, ,28, ,
92, ,28, ,
125, ,28, ,
124, ,28, ,
90, ,28, ,
29, ,28, ,
-7, ,28, ,
12, ,28, ,
115, ,28, ,
125, ,28, ,
125, ,28, ,
125, ,28, ,
125, ,28, ,
125, ,28, ,
125, ,28, ,
124, ,28, ,
120, ,28, ,
114, ,28, ,
110, ,28, ,
105, ,28, ,
99, ,28, ,
97, ,28, ,
93, ,28, ,
89, ,28, ,
82, ,28, ,
78, ,28, ,
76, ,28, ,
74, ,28, ,
68, ,28, ,
66, ,28, ,
63, ,28, ,
61, ,28, ,
56, ,28, ,
53, ,28, ,
51, ,28, ,
48, ,28, ,
45, ,28, ,
43, ,28, ,
41, ,28, ,
39, ,28, ,
36, ,28, ,
35, ,28, ,
33, ,28, ,
31, ,28, ,
28, ,28, ,
27, ,28, ,
26, ,28, ,
25, ,28, ,
23, ,28, ,
22, ,28, ,
21, ,28, ,
20, ,28, ,
18, ,28, ,
18, ,28, ,
16, ,28, ,
16, ,28, ,
14, ,28, ,
13, ,28, ,
13, ,28, ,
12, ,28, ,
10, ,28, ,
10, ,28, ,
10, ,28, ,
10, ,28, ,
8, ,28, ,
7, ,28, ,
7, ,28, ,
6, ,28, ,
6, ,28, ,
6, ,28, ,
5, ,28, ,
5, ,28, ,
4, ,28, ,
4, ,28, ,
4, ,28, ,
3, ,28, ,
3, ,28, ,
3, ,28, ,
2, ,28, ,
2, ,28, ,
2, ,28, ,
1, ,28, ,
1, ,28, ,
1, ,28, ,
1, ,28, ,
1, ,28, ,
0, ,28, ,
1, ,28, ,
1, ,28, ,
0, ,28, ,
0, ,28, ,
0, ,28, ,
-1, ,28, ,
-1, ,28, ,
-1, ,28, ,
-1, ,28, ,
-1, ,28, ,
-1, ,28, ,
-1, ,28, ,
-1, ,28, ,
-1, ,28, ,
-1, ,28, ,
-1, ,28, ,
-1, ,28, ,
-2, ,28, ,
-2, ,28, ,
-1, ,28, ,
-1, ,28, ,
-2, ,28, ,
-1, ,28, ,
-2, ,28, ,
-1, ,28, ,
-1, ,28, ,
-1, ,28, ,
-1, ,28, ,
-1, ,28, ,
-1, ,28, ,
-1, ,28, ,
-1, ,28, ,
-1, ,28, ,
-1, ,28, ,
-1, ,28, ,
-1, ,28, ,
-1, ,28, ,
-1, ,28, ,
-1, ,28, ,
-1, ,28, ,
-1, ,28, ,
-1, ,28, ,
-1, ,28, ,
-1, ,28, ,
-1, ,28, ,
-1, ,28, ,
-1, ,28, ,
-1, ,28, ,
-1, ,28, ,
-1, ,28, ,
-1, ,28, ,
-1, ,28, ,
-1, ,28, ,
-1, ,28, ,
-1, ,28, ,
-1, ,28, ,
-1, ,28, ,
0, ,28, ,
-1, ,28, ,
-1, ,28, ,
-1, ,28, ,
-1, ,28, ,
0, ,28, ,
0, ,28, ,
0, ,28, ,
0, ,28, ,
0, ,28, ,
0, ,28, ,
-1, ,28, ,
-1, ,28, ,
0, ,28, ,
0, ,28, ,
-1, ,28, ,
-1, ,28, ,
0, ,28, ,
0, ,28, ,
0, ,28, ,
0, ,28, ,
0, ,28, ,
0, ,28, ,
0, ,28, ,
0, ,28, ,
0, ,28, ,
0, ,28, ,
0, ,28, ,
0, ,28, ,
0, ,28, ,
0, ,28, ,
0, ,28, ,
0, ,28, ,
0, ,28, ,
0, ,28, ,
0, ,28, ,
0, ,28, ,
0, ,28, ,
0, ,28, ,
0, ,28, ,
0, ,28, ,
0, ,28, ,
0, ,28, ,
0, ,28, ,
0, ,28, ,
0, ,28, ,
0, ,28, ,
0, ,28, ,
0, ,28, ,
0, ,28, ,
0, ,28, ,
0, ,28, ,
0, ,28, ,
0, ,28, ,
0, ,28, ,
0, ,28, ,
0, ,28, ,
0, ,28, ,
0, ,28, ,
0, ,28, ,
0, ,28, ,
0, ,28, ,
0, ,28, ,
0, ,28, ,
0, ,28, ,
0, ,28, ,
0, ,28, ,
0, ,28, ,
0, ,28, ,
0, ,28, ,
0, ,28, ,
0, ,28, ,
0, ,28, ,
0, ,28, ,
0, ,28, ,
0, ,28, ,
0, ,28, ,
0, ,28, ,
0, ,28, ,
0, ,28, ,
0, ,28, ,
0, ,28, ,
0, ,28, ,
0, ,28, ,
0, ,28, ,
0, ,28, ,
0, ,28, ,
0, ,28, ,
0, ,28, ,
0, ,28, ,
1, ,28, ,
0, ,28, ,
0, ,28, ,
0, ,28, ,
0, ,28, ,
0, ,28, ,
0, ,28, ,
0, ,28, ,
1, ,28, ,
0, ,28, ,
0, ,28, ,
0, ,28, ,
0, ,28, ,
0, ,28, ,
0, ,28, ,
0, ,28, ,
1, ,28, ,
1, ,28, ,
1, ,28, ,
1, ,28, ,
1, ,28, ,
0, ,28, ,
0, ,28, ,
0, ,28, ,
0, ,28, ,
0, ,28, ,
0, ,28, ,
0, ,28, ,
0, ,28, ,
0, ,28, ,
0, ,28, ,
0, ,28, ,
0, ,28, ,
0, ,28, ,
0, ,28, ,
-1, ,28, ,
-1, ,28, ,
-2, ,28, ,
-4, ,28, ,
-6, ,28, ,
-8, ,28, ,
-11, ,28, ,
-13, ,28, ,
-13, ,28, ,
-13, ,28, ,
-11, ,28, ,
-6, ,28, ,
-5, ,28, ,
-3, ,28, ,
-2, ,28, ,
0, ,28, ,
1, ,28, ,
2, ,28, ,
3, ,28, ,
3, ,28, ,
3, ,28, ,
3, ,28, ,
3, ,28, ,
3, ,28, ,
3, ,28, ,
2, ,28, ,
2, ,28, ,
2, ,28, ,
2, ,28, ,
2, ,28, ,
2, ,28, ,
2, ,28, ,
2, ,28, ,
2, ,28, ,
2, ,28, ,
2, ,28, ,
3, ,28, ,
3, ,28, ,
3, ,28, ,
3, ,28, ,
3, ,28, ,
3, ,28, ,
3, ,28, ,
2, ,28, ,
2, ,28, ,
2, ,28, ,
1, ,28, ,
1, ,28, ,
1, ,28, ,
1, ,28, ,
1, ,28, ,
1, ,28, ,
1, ,28, ,
1, ,28, ,
1, ,28, ,
1, ,28, ,
1, ,28, ,
1, ,28, ,
1, ,28, ,
0, ,28, ,
0, ,28, ,
0, ,28, ,
-1, ,28, ,
-2, ,28, ,
-2, ,28, ,
-2, ,28, ,
-2, ,28, ,
-2, ,28, ,
-2, ,28, ,
-1, ,28, ,
-1, ,28, ,
-1, ,28, ,
0, ,28, ,
0, ,28, ,
1, ,28, ,
1, ,28, ,
1, ,28, ,
2, ,28, ,
1, ,28, ,
1, ,28, ,
1, ,28, ,
1, ,28, ,
1, ,28, ,
0, ,28, ,
0, ,28, ,
-1, ,28, ,
-1, ,28, ,
-2, ,28, ,
-3, ,28, ,
-3, ,28, ,
-4, ,28, ,
-4, ,28, ,
-4, ,28, ,
-4, ,28, ,
-5, ,28, ,
-5, ,28, ,
-5, ,28, ,
-5, ,28, ,
-5, ,28, ,
-6, ,28, ,
-7, ,28, ,
-7, ,28, ,
-8, ,28, ,
-10, ,28, ,
-11, ,28, ,
-13, ,28, ,
-15, ,28, ,
-20, ,28, ,
-22, ,28, ,
-24, ,28, ,
-26, ,28, ,
-29, ,28, ,
-31, ,28, ,
-32, ,28, ,
-33, ,28, ,
-35, ,28, ,
-36, ,28, ,
-37, ,28, ,
-39, ,28, ,
-43, ,28, ,
-44, ,28, ,
-46, ,28, ,
-48, ,28, ,
-49, ,28, ,
-49, ,28, ,
-49, ,28, ,
-48, ,28, ,
-44, ,28, ,
-40, ,28, ,
-37, ,28, ,
-33, ,28, ,
-25, ,28, ,
-21, ,28, ,
-16, ,28, ,
-13, ,28, ,
-5, ,28, ,
-2, ,28, ,
2, ,28, ,
4, ,28, ,
7, ,28, ,
8, ,28, ,
9, ,28, ,
9, ,28, ,
10, ,28, ,
10, ,28, ,
10, ,28, ,
10, ,28, ,
10, ,28, ,
10, ,28, ,
10, ,28, ,
10, ,28, ,
9, ,28, ,
9, ,28, ,
9, ,28, ,
9, ,28, ,
8, ,28, ,
8, ,28, ,
8, ,28, ,
7, ,28, ,
7, ,28, ,
6, ,28, ,
6, ,28, ,
6, ,28, ,
6, ,28, ,
6, ,28, ,
6, ,28, ,
7, ,28, ,
7, ,28, ,
8, ,28, ,
9, ,28, ,
9, ,28, ,
11, ,28, ,
11, ,28, ,
12, ,28, ,
12, ,28, ,
12, ,28, ,
12, ,28, ,
11, ,28, ,
11, ,28, ,
10, ,28, ,
9, ,28, ,
7, ,28, ,
6, ,28, ,
3, ,28, ,
2, ,28, ,
0, ,28, ,
-2, ,28, ,
-6, ,28, ,
-8, ,28, ,
-10, ,28, ,
-12, ,28, ,
-14, ,28, ,
-15, ,28, ,
-16, ,28, ,
-16, ,28, ,
-16, ,28, ,
-16, ,28, ,
-16, ,28, ,
-16, ,28, ,
-16, ,28, ,
-16, ,28, ,
-16, ,28, ,
-16, ,28, ,
-16, ,28, ,
-16, ,28, ,
-16, ,28, ,
-16, ,28, ,
-15, ,28, ,
-15, ,28, ,
-15, ,28, ,
-14, ,28, ,
-13, ,28, ,
-13, ,28, ,
-13, ,28, ,
-13, ,28, ,
-12, ,28, ,
-13, ,28, ,
-13, ,28, ,
-13, ,28, ,
-14, ,28, ,
-15, ,28, ,
-15, ,28, ,
-15, ,28, ,
-15, ,28, ,
-15, ,28, ,
-15, ,28, ,
-15, ,28, ,
-14, ,28, ,
-13, ,28, ,
-13, ,28, ,
-12, ,28, ,
-10, ,28, ,
-9, ,28, ,
-8, ,28, ,
-7, ,28, ,
-5, ,28, ,
-4, ,28, ,
-3, ,28, ,
-2, ,28, ,
1, ,28, ,
3, ,28, ,
4, ,28, ,
6, ,28, ,
8, ,28, ,
9, ,28, ,
11, ,28, ,
11, ,28, ,
11, ,28, ,
11, ,28, ,
11, ,28, ,
10, ,28, ,
9, ,28, ,
8, ,28, ,
7, ,28, ,
6, ,28, ,
3, ,28, ,
2, ,28, ,
0, ,28, ,
-2, ,28, ,
-7, ,28, ,
-9, ,28, ,
-12, ,28, ,
-15, ,28, ,
-20, ,28, ,
-21, ,28, ,
-23, ,28, ,
-24, ,28, ,
-25, ,28, ,
-25, ,28, ,
-25, ,28, ,
-25, ,28, ,
-24, ,28, ,
-22, ,28, ,
-22, ,28, ,
-20, ,28, ,
-18, ,28, ,
-16, ,28, ,
-15, ,28, ,
-15, ,28, ,
-12, ,28, ,
-11, ,28, ,
-10, ,28, ,
-9, ,28, ,
-6, ,28, ,
-6, ,28, ,
-4, ,28, ,
-3, ,28, ,
-2, ,28, ,
-1, ,28, ,
0, ,28, ,
1, ,28, ,
3, ,28, ,
3, ,28, ,
5, ,28, ,
6, ,28, ,
7, ,28, ,
9, ,28, ,
9, ,28, ,
11, ,28, ,
12, ,28, ,
13, ,28, ,
15, ,28, ,
15, ,28, ,
17, ,28, ,
17, ,28, ,
17, ,28, ,
17, ,28, ,
16, ,28, ,
15, ,28, ,
14, ,28, ,
13, ,28, ,
10, ,28, ,
9, ,28, ,
7, ,28, ,
5, ,28, ,
2, ,28, ,
-1, ,28, ,
-2, ,28, ,
-4, ,28, ,
-6, ,28, ,
-6, ,28, ,
-6, ,28, ,
-5, ,28, ,
-5, ,28, ,
-3, ,28, ,
-2, ,28, ,
-1, ,28, ,
1, ,28, ,
2, ,28, ,
3, ,28, ,
3, ,28, ,
3, ,28, ,
3, ,28, ,
2, ,28, ,
2, ,28, ,
-1, ,28, ,
-3, ,28, ,
-6, ,28, ,
-8, ,28, ,
-14, ,28, ,
-17, ,28, ,
-19, ,28, ,
-22, ,28, ,
-26, ,28, ,
-28, ,28, ,
-30, ,28, ,
-30, ,28, ,
-31, ,28, ,
-31, ,28, ,
-31, ,28, ,
-31, ,28, ,
-29, ,28, ,
-28, ,28, ,
-27, ,28, ,
-25, ,28, ,
-24, ,28, ,
-24, ,28, ,
-23, ,28, ,
-24, ,28, ,
-24, ,28, ,
-24, ,28, ,
-25, ,28, ,
-25, ,28, ,
-27, ,28, ,
-29, ,28, ,
-29, ,28, ,
-31, ,28, ,
-32, ,28, ,
-32, ,28, ,
-32, ,28, ,
-31, ,28, ,
-29, ,28, ,
-28, ,28, ,
-26, ,28, ,
-25, ,28, ,
-19, ,28, ,
-17, ,28, ,
-13, ,28, ,
-10, ,28, ,
-2, ,28, ,
1, ,28, ,
5, ,28, ,
8, ,28, ,
14, ,28, ,
18, ,28, ,
20, ,28, ,
23, ,28, ,
27, ,28, ,
29, ,28, ,
31, ,28, ,
32, ,28, ,
33, ,28, ,
33, ,28, ,
32, ,28, ,
31, ,28, ,
29, ,28, ,
27, ,28, ,
25, ,28, ,
24, ,28, ,
20, ,28, ,
17, ,28, ,
15, ,28, ,
12, ,28, ,
8, ,28, ,
5, ,28, ,
3, ,28, ,
2, ,28, ,
-2, ,28, ,
-2, ,28, ,
-3, ,28, ,
-4, ,28, ,
-4, ,28, ,
-4, ,28, ,
-4, ,28, ,
-4, ,28, ,
-4, ,28, ,
-3, ,28, ,
-4, ,28, ,
-3, ,28, ,
-3, ,28, ,
-2, ,28, ,
-2, ,28, ,
-2, ,28, ,
-2, ,28, ,
-1, ,28, ,
-1, ,28, ,
-1, ,28, ,
-1, ,28, ,
-2, ,28, ,
-2, ,28, ,
-2, ,28, ,
-2, ,28, ,
-3, ,28, ,
-3, ,28, ,
-3, ,28, ,
-4, ,28, ,
-5, ,28, ,
-6, ,28, ,
-6, ,28, ,
-7, ,28, ,
-7, ,28, ,
-8, ,28, ,
-9, ,28, ,
-10, ,28, ,
-11, ,28, ,
-11, ,28, ,
-13, ,28, ,
-15, ,28, ,
-16, ,28, ,
-16, ,28, ,
-17, ,28, ,
-18, ,28, ,
-18, ,28, ,
-18, ,28, ,
-18, ,28, ,
-18, ,28, ,
-17, ,28, ,
-17, ,28, ,
-16, ,28, ,
-14, ,28, ,
-14, ,28, ,
-13, ,28, ,
-12, ,28, ,
-11, ,28, ,
-10, ,28, ,
-10, ,28, ,
-10, ,28, ,
-9, ,28, ,
-9, ,28, ,
-10, ,28, ,
-10, ,28, ,
-10, ,28, ,
-10, ,28, ,
-10, ,28, ,
-10, ,28, ,
-10, ,28, ,
-10, ,28, ,
-10, ,28, ,
-10, ,28, ,
-10, ,28, ,
-9, ,28, ,
-9, ,28, ,
-9, ,28, ,
-8, ,28, ,
-8, ,28, ,
-7, ,28, ,
-7, ,28, ,
-6, ,28, ,
-6, ,28, ,
-5, ,28, ,
-4, ,28, ,
-4, ,28, ,
-4, ,28, ,
-4, ,28, ,
-4, ,28, ,
-4, ,28, ,
-4, ,28, ,
-4, ,28, ,
-4, ,28, ,
-4, ,28, ,
-4, ,28, ,
-4, ,28, ,
-4, ,28, ,
-4, ,28, ,
-3, ,28, ,
-3, ,28, ,
-3, ,28, ,
-3, ,28, ,
-3, ,28, ,
-3, ,28, ,
-2, ,28, ,
-2, ,28, ,
-2, ,28, ,
-2, ,28, ,
-1, ,28, ,
0, ,28, ,
0, ,28, ,
0, ,28, ,
0, ,28, ,
2, ,28, ,
3, ,28, ,
3, ,28, ,
4, ,28, ,
6, ,28, ,
6, ,28, ,
6, ,28, ,
6, ,28, ,
5, ,28, ,
5, ,28, ,
4, ,28, ,
4, ,28, ,
1, ,28, ,
1, ,28, ,
0, ,28, ,
-2, ,28, ,
-5, ,28, ,
-5, ,28, ,
-6, ,28, ,
-7, ,28, ,
-7, ,28, ,
-6, ,28, ,
-6, ,28, ,
-6, ,28, ,
-4, ,28, ,
-3, ,28, ,
-1, ,28, ,
0, ,28, ,
3, ,28, ,
4, ,28, ,
5, ,28, ,
6, ,28, ,
7, ,28, ,
7, ,28, ,
6, ,28, ,
6, ,28, ,
6, ,28, ,
4, ,28, ,
4, ,28, ,
2, ,28, ,
0, ,28, ,
-1, ,28, ,
-2, ,28, ,
-3, ,28, ,
-5, ,28, ,
-5, ,28, ,
-6, ,28, ,
-7, ,28, ,
-7, ,28, ,
-8, ,28, ,
-8, ,28, ,
-8, ,28, ,
-9, ,28, ,
-9, ,28, ,
-9, ,28, ,
-9, ,28, ,
-9, ,28, ,
-9, ,28, ,
-9, ,28, ,
-9, ,28, ,
-8, ,28, ,
-8, ,28, ,
-7, ,28, ,
-7, ,28, ,
-7, ,28, ,
-6, ,28, ,
-6, ,28, ,
-5, ,28, ,
-4, ,28, ,
-3, ,28, ,
-2, ,28, ,
-2, ,28, ,
0, ,28, ,
2, ,28, ,
3, ,28, ,
4, ,28, ,
7, ,28, ,
7, ,28, ,
9, ,28, ,
9, ,28, ,
11, ,28, ,
12, ,28, ,
12, ,28, ,
12, ,28, ,
11, ,28, ,
10, ,28, ,
8, ,28, ,
7, ,28, ,
4, ,28, ,
2, ,28, ,
0, ,28, ,
-2, ,28, ,
-7, ,28, ,
-8, ,28, ,
-10, ,28, ,
-12, ,28, ,
-15, ,28, ,
-15, ,28, ,
-17, ,28, ,
-17, ,28, ,
-16, ,28, ,
-16, ,28, ,
-15, ,28, ,
-14, ,28, ,
-12, ,28, ,
-9, ,28, ,
-7, ,28, ,
-6, ,28, ,
-1, ,28, ,
0, ,28, ,
3, ,28, ,
3, ,28, ,
6, ,28, ,
7, ,28, ,
7, ,28, ,
7, ,28, ,
7, ,28, ,
6, ,28, ,
6, ,28, ,
6, ,28, ,
5, ,28, ,
5, ,28, ,
4, ,28, ,
4, ,28, ,
4, ,28, ,
4, ,28, ,
5, ,28, ,
5, ,28, ,
5, ,28, ,
6, ,28, ,
6, ,28, ,
6, ,28, ,
6, ,28, ,
6, ,28, ,
6, ,28, ,
5, ,28, ,
4, ,28, ,
4, ,28, ,
3, ,28, ,
3, ,28, ,
2, ,28, ,
1, ,28, ,
0, ,28, ,
-1, ,28, ,
-4, ,28, ,
-4, ,28, ,
-6, ,28, ,
-7, ,28, ,
-10, ,28, ,
-12, ,28, ,
-14, ,28, ,
-15, ,28, ,
-17, ,28, ,
-18, ,28, ,
-19, ,28, ,
-18, ,28, ,
-17, ,28, ,
-17, ,28, ,
-16, ,28, ,
-15, ,28, ,
-12, ,28, ,
-10, ,28, ,
-8, ,28, ,
-5, ,28, ,
0, ,28, ,
2, ,28, ,
4, ,28, ,
5, ,28, ,
8, ,28, ,
9, ,28, ,
10, ,28, ,
10, ,28, ,
10, ,28, ,
9, ,28, ,
9, ,28, ,
8, ,28, ,
5, ,28, ,
4, ,28, ,
3, ,28, ,
2, ,28, ,
-1, ,28, ,
-2, ,28, ,
-2, ,28, ,
-3, ,28, ,
-3, ,28, ,
-3, ,28, ,
-3, ,28, ,
-3, ,28, ,
-2, ,28, ,
-1, ,28, ,
-1, ,28, ,
-1, ,28, ,
0, ,28, ,
0, ,28, ,
0, ,28, ,
1, ,28, ,
1, ,28, ,
1, ,28, ,
1, ,28, ,
0, ,28, ,
0, ,28, ,
0, ,28, ,
0, ,28, ,
1, ,28, ,
1, ,28, ,
1, ,28, ,
1, ,28, ,
1, ,28, ,
2, ,28, ,
2, ,28, ,
2, ,28, ,
2, ,28, ,
2, ,28, ,
2, ,28, ,
2, ,28, ,
1, ,28, ,
0, ,28, ,
0, ,28, ,
-1, ,28, ,
-1, ,28, ,
-3, ,28, ,
-3, ,28, ,
-4, ,28, ,
-4, ,28, ,
-4, ,28, ,
-4, ,28, ,
-4, ,28, ,
-4, ,28, ,
-4, ,28, ,
-4, ,28, ,
-4, ,28, ,
-4, ,28, ,
-4, ,28, ,
-4, ,28, ,
-4, ,28, ,
-4, ,28, ,
-4, ,28, ,
-4, ,28, ,
-4, ,28, ,
-4, ,28, ,
-3, ,28, ,
-3, ,28, ,
-2, ,28, ,
-2, ,28, ,
-1, ,28, ,
-1, ,28, ,
-1, ,28, ,
0, ,28, ,
1, ,28, ,
2, ,28, ,
2, ,28, ,
2, ,28, ,
2, ,28, ,
2, ,28, ,
1, ,28, ,
1, ,28, ,
-1, ,28, ,
-2, ,28, ,
-2, ,28, ,
-3, ,28, ,
-4, ,28, ,
-6, ,28, ,
-6, ,28, ,
-7, ,28, ,
-8, ,28, ,
-9, ,28, ,
-9, ,28, ,
-9, ,28, ,
-9, ,28, ,
-9, ,28, ,
-8, ,28, ,
-8, ,28, ,
-8, ,28, ,
-7, ,28, ,
-7, ,28, ,
-7, ,28, ,
-6, ,28, ,
-6, ,28, ,
-6, ,28, ,
-6, ,28, ,
-6, ,28, ,
-5, ,28, ,
-5, ,28, ,
-4, ,28, ,
-3, ,28, ,
-3, ,28, ,
-1, ,28, ,
0, ,28, ,
2, ,28, ,
4, ,28, ,
5, ,28, ,
6, ,28, ,
9, ,28, ,
11, ,28, ,
12, ,28, ,
13, ,28, ,
13, ,28, ,
13, ,28, ,
12, ,28, ,
12, ,28, ,
10, ,28, ,
9, ,28, ,
8, ,28, ,
5, ,28, ,
1, ,28, ,
-1, ,28, ,
-4, ,28, ,
-7, ,28, ,
-11, ,28, ,
-14, ,28, ,
-16, ,28, ,
-18, ,28, ,
-21, ,28, ,
-22, ,28, ,
-22, ,28, ,
-22, ,28, ,
-21, ,28, ,
-21, ,28, ,
-19, ,28, ,
-18, ,28, ,
-13, ,28, ,
-11, ,28, ,
-9, ,28, ,
-7, ,28, ,
-1, ,28, ,
1, ,28, ,
3, ,28, ,
5, ,28, ,
8, ,28, ,
10, ,28, ,
10, ,28, ,
11, ,28, ,
10, ,28, ,
10, ,28, ,
9, ,28, ,
8, ,28, ,
6, ,28, ,
5, ,28, ,
4, ,28, ,
3, ,28, ,
1, ,28, ,
0, ,28, ,
-1, ,28, ,
-2, ,28, ,
-4, ,28, ,
-4, ,28, ,
-4, ,28, ,
-4, ,28, ,
-4, ,28, ,
-4, ,28, ,
-4, ,28, ,
-4, ,28, ,
-3, ,28, ,
-2, ,28, ,
-2, ,28, ,
-1, ,28, ,
1, ,28, ,
2, ,28, ,
3, ,28, ,
4, ,28, ,
6, ,28, ,
6, ,28, ,
8, ,28, ,
9, ,28, ,
11, ,28, ,
11, ,28, ,
11, ,28, ,
11, ,28, ,
10, ,28, ,
10, ,28, ,
9, ,28, ,
8, ,28, ,
6, ,28, ,
4, ,28, ,
4, ,28, ,
2, ,28, ,
-1, ,28, ,
-2, ,28, ,
-4, ,28, ,
-5, ,28, ,
-7, ,28, ,
-7, ,28, ,
-7, ,28, ,
-8, ,28, ,
-8, ,28, ,
-8, ,28, ,
-8, ,28, ,
-7, ,28, ,
-6, ,28, ,
-6, ,28, ,
-5, ,28, ,
-4, ,28, ,
-3, ,28, ,
-2, ,28, ,
-1, ,28, ,
-1, ,28, ,
0, ,28, ,
0, ,28, ,
0, ,28, ,
0, ,28, ,
0, ,28, ,
0, ,28, ,
-1, ,28, ,
-1, ,28, ,
-2, ,28, ,
-2, ,28, ,
-2, ,28, ,
-3, ,28, ,
-3, ,28, ,
-3, ,28, ,
-4, ,28, ,
-4, ,28, ,
-4, ,28, ,
-3, ,28, ,
-3, ,28, ,
-3, ,28, ,
-3, ,28, ,
-2, ,28, ,
-2, ,28, ,
-2, ,28, ,
-1, ,28, ,
0, ,28, ,
0, ,28, ,
0, ,28, ,
2, ,28, ,
2, ,28, ,
3, ,28, ,
4, ,28, ,
5, ,28, ,
5, ,28, ,
7, ,28, ,
7, ,28, ,
8, ,28, ,
8, ,28, ,
9, ,28, ,
9, ,28, ,
9, ,28, ,
9, ,28, ,
9, ,28, ,
8, ,28, ,
7, ,28, ,
7, ,28, ,
6, ,28, ,
5, ,28, ,
4, ,28, ,
2, ,28, ,
2, ,28, ,
1, ,28, ,
-1, ,28, ,
-1, ,28, ,
-3, ,28, ,
-3, ,28, ,
-4, ,28, ,
-5, ,28, ,
-5, ,28, ,
-5, ,28, ,
-6, ,28, ,
-6, ,28, ,
-6, ,28, ,
-6, ,28, ,
-6, ,28, ,
-7, ,28, ,
-7, ,28, ,
-7, ,28, ,
-7, ,28, ,
-7, ,28, ,
-7, ,28, ,
-6, ,28, ,
-5, ,28, ,
-5, ,28, ,
-5, ,28, ,
-5, ,28, ,
-4, ,28, ,
-3, ,28, ,
-3, ,28, ,
-2, ,28, ,
-2, ,28, ,
-1, ,28, ,
-1, ,28, ,
-1, ,28, ,
-1, ,28, ,
-1, ,28, ,
-1, ,28, ,
0, ,28, ,
0, ,28, ,
0, ,28, ,
0, ,28, ,
0, ,28, ,
0, ,28, ,
1, ,28, ,
1, ,28, ,
1, ,28, ,
2, ,28, ,
2, ,28, ,
3, ,28, ,
3, ,28, ,
4, ,28, ,
5, ,28, ,
5, ,28, ,
6, ,28, ,
7, ,28, ,
7, ,28, ,
7, ,28, ,
7, ,28, ,
8, ,28, ,
8, ,28, ,
8, ,28, ,
7, ,28, ,
7, ,28, ,
6, ,28, ,
6, ,28, ,
5, ,28, ,
3, ,28, ,
3, ,28, ,
2, ,28, ,
0, ,28, ,
-1, ,28, ,
-3, ,28, ,
-3, ,28, ,
-4, ,28, ,
-5, ,28, ,
-5, ,28, ,
-5, ,28, ,
-5, ,28, ,
-5, ,28, ,
-5, ,28, ,
-4, ,28, ,
-5, ,28, ,
-4, ,28, ,
-3, ,28, ,
-3, ,28, ,
-2, ,28, ,
-1, ,28, ,
-1, ,28, ,
0, ,28, ,
0, ,28, ,
1, ,28, ,
1, ,28, ,
1, ,28, ,
0, ,28, ,
0, ,28, ,
0, ,28, ,
0, ,28, ,
-1, ,28, ,
-2, ,28, ,
-2, ,28, ,
-3, ,28, ,
-3, ,28, ,
-4, ,28, ,
-5, ,28, ,
-5, ,28, ,
-5, ,28, ,
-6, ,28, ,
-6, ,28, ,
-7, ,28, ,
-7, ,28, ,
-6, ,28, ,
-6, ,28, ,
-6, ,28, ,
-6, ,28, ,
-5, ,28, ,
-4, ,28, ,
-3, ,28, ,
-2, ,28, ,
1, ,28, ,
2, ,28, ,
4, ,28, ,
5, ,28, ,
8, ,28, ,
10, ,28, ,
11, ,28, ,
12, ,28, ,
14, ,28, ,
14, ,28, ,
14, ,28, ,
14, ,28, ,
13, ,28, ,
12, ,28, ,
11, ,28, ,
10, ,28, ,
7, ,28, ,
5, ,28, ,
4, ,28, ,
3, ,28, ,
0, ,28, ,
-1, ,28, ,
-2, ,28, ,
-3, ,28, ,
-4, ,28, ,
-4, ,28, ,
-4, ,28, ,
-4, ,28, ,
-4, ,28, ,
-4, ,28, ,
-4, ,28, ,
-4, ,28, ,
-3, ,28, ,
-3, ,28, ,
-2, ,28, ,
-2, ,28, ,
-1, ,28, ,
0, ,28, ,
0, ,28, ,
1, ,28, ,
2, ,28, ,
2, ,28, ,
3, ,28, ,
3, ,28, ,
4, ,28, ,
4, ,28, ,
4, ,28, ,
4, ,28, ,
3, ,28, ,
3, ,28, ,
3, ,28, ,
3, ,28, ,
2, ,28, ,
1, ,28, ,
1, ,28, ,
1, ,28, ,
0, ,28, ,
0, ,28, ,
0, ,28, ,
0, ,28, ,
0, ,28, ,
0, ,28, ,
0, ,28, ,
0, ,28, ,
1, ,28, ,
1, ,28, ,
1, ,28, ,
0, ,28, ,
0, ,28, ,
0, ,28, ,
-1, ,28, ,
-1, ,28, ,
-2, ,28, ,
-3, ,28, ,
-3, ,28, ,
-3, ,28, ,
-4, ,28, ,
-4, ,28, ,
-4, ,28, ,
-4, ,28, ,
-4, ,28, ,
-4, ,28, ,
-4, ,28, ,
-4, ,28, ,
-3, ,28, ,
-3, ,28, ,
-2, ,28, ,
-2, ,28, ,
-2, ,28, ,
-1, ,28, ,
-1, ,28, ,
-1, ,28, ,
-1, ,28, ,
0, ,28, ,
0, ,28, ,
0, ,28, ,
-1, ,28, ,
-2, ,28, ,
-2, ,28, ,
-2, ,28, ,
-3, ,28, ,
-3, ,28, ,
-3, ,28, ,
-3, ,28, ,
-3, ,28, ,
-3, ,28, ,
-2, ,28, ,
-3, ,28, ,
-1, ,28, ,
0, ,28, ,
0, ,28, ,
2, ,28, ,
3, ,28, ,
5, ,28, ,
6, ,28, ,
6, ,28, ,
8, ,28, ,
9, ,28, ,
9, ,28, ,
9, ,28, ,
9, ,28, ,
8, ,28, ,
8, ,28, ,
7, ,28, ,
6, ,28, ,
5, ,28, ,
4, ,28, ,
3, ,28, ,
1, ,28, ,
0, ,28, ,
-1, ,28, ,
-2, ,28, ,
-3, ,28, ,
-3, ,28, ,
-3, ,28, ,
-3, ,28, ,
-3, ,28, ,
-3, ,28, ,
-3, ,28, ,
-3, ,28, ,
-3, ,28, ,
-3, ,28, ,
-3, ,28, ,
-2, ,28, ,
-2, ,28, ,
-2, ,28, ,
-2, ,28, ,
-2, ,28, ,
-3, ,28, ,
-3, ,28, ,
-3, ,28, ,
-3, ,28, ,
-3, ,28, ,
-4, ,28, ,
-3, ,28, ,
-4, ,28, ,
-3, ,28, ,
-4, ,28, ,
-4, ,28, ,
-4, ,28, ,
-3, ,28, ,
-3, ,28, ,
-2, ,28, ,
-2, ,28, ,
-1, ,28, ,
-1, ,28, ,
0, ,28, ,
0, ,28, ,
2, ,28, ,
2, ,28, ,
2, ,28, ,
2, ,28, ,
3, ,28, ,
4, ,28, ,
4, ,28, ,
4, ,28, ,
3, ,28, ,
3, ,28, ,
3, ,28, ,
2, ,28, ,
1, ,28, ,
1, ,28, ,
0, ,28, ,
0, ,28, ,
-1, ,28, ,
-1, ,28, ,
-2, ,28, ,
-2, ,28, ,
-2, ,28, ,
-2, ,28, ,
-2, ,28, ,
-2, ,28, ,
-1, ,28, ,
-1, ,28, ,
0, ,28, ,
1, ,28, ,
3, ,28, ,
4, ,28, ,
5, ,28, ,
5, ,28, ,
6, ,28, ,
7, ,28, ,
8, ,28, ,
8, ,28, ,
7, ,28, ,
7, ,28, ,
6, ,28, ,
6, ,28, ,
4, ,28, ,
3, ,28, ,
2, ,28, ,
1, ,28, ,
-1, ,28, ,
-2, ,28, ,
-3, ,28, ,
-4, ,28, ,
-5, ,28, ,
-5, ,28, ,
-6, ,28, ,
-6, ,28, ,
-7, ,28, ,
-7, ,28, ,
-7, ,28, ,
-6, ,28, ,
-6, ,28, ,
-7, ,28, ,
-6, ,28, ,
-7, ,28, ,
-6, ,28, ,
-6, ,28, ,
-6, ,28, ,
-6, ,28, ,
-5, ,28, ,
-5, ,28, ,
-4, ,28, ,
-4, ,28, ,
-3, ,28, ,
-1, ,28, ,
-1, ,28, ,
1, ,28, ,
3, ,28, ,
4, ,28, ,
6, ,28, ,
6, ,28, ,
9, ,28, ,
9, ,28, ,
10, ,28, ,
10, ,28, ,
11, ,28, ,
10, ,28, ,
10, ,28, ,
9, ,28, ,
8, ,28, ,
7, ,28, ,
6, ,28, ,
