raw_data/75% Glycerol, Impulsion 2Hz, Sonde 5MHz, Rampe 0.7Hz/temp0000217.CSV

Format,1.0B,
Memory Length,10000,Memory Length,10000,
IntpDistance,0,IntpDistance,0,
Trigger Address,159,Trigger Address,159,
Trigger Level,2.720E-01,Trigger Level,2.720E-01,
Source,CH1,Source,CH2,
Vertical Units,V,Vertical Units,V,
Vertical Units Div,0,Vertical Units Div,0,
Vertical Units Extend Div,16,Vertical Units Extend Div,16,
Label,,Label,,
Probe Type,0,Probe Type,0,
Probe Ratio,1.000e+00,Probe Ratio,1.000e+00,
Vertical Scale,5.000e-01,Vertical Scale,2.000e+00,
Vertical Position,0.000e+00,Vertical Position,0.000e+00,
Horizontal Units,S,Horizontal Units,S,
Horizontal Scale,5.000E-06,Horizontal Scale,5.000E-06,
Horizontal Position,2.420E-05,Horizontal Position,2.420E-05,
Horizontal Mode,Main,Horizontal Mode,Main,
SincET Mode,Real Time,SincET Mode,Real Time,
Sampling Period,5.000e-09,Sampling Period,5.000e-09,
Horizontal Old Scale,5.000E-06,Horizontal Old Scale,5.000E-06,
Horizontal Old Position,2.420E-05,Horizontal Old Position,2.420E-05,
Firmware,V1.32,Firmware,V1.32,
Mode,Fast,Mode,Fast,
Waveform Data,,Waveform Data,,
1, ,-36, ,
0, ,-36, ,
0, ,-36, ,
0, ,-36, ,
0, ,-36, ,
0, ,-36, ,
0, ,-36, ,
0, ,-36, ,
1, ,-36, ,
1, ,-36, ,
1, ,-36, ,
0, ,-36, ,
0, ,-36, ,
0, ,-36, ,
0, ,-36, ,
0, ,-36, ,
0, ,-36, ,
0, ,-36, ,
0, ,-36, ,
0, ,-36, ,
1, ,-36, ,
1, ,-36, ,
1, ,-36, ,
0, ,-36, ,
0, ,-36, ,
0, ,-36, ,
1, ,-36, ,
0, ,-36, ,
0, ,-36, ,
1, ,-36, ,
0, ,-36, ,
0, ,-36, ,
1, ,-36, ,
1, ,-36, ,
1, ,-36, ,
0, ,-36, ,
0, ,-36, ,
1, ,-36, ,
1, ,-36, ,
1, ,-36, ,
0, ,-36, ,
0, ,-36, ,
0, ,-36, ,
0, ,-36, ,
0, ,-36, ,
1, ,-36, ,
1, ,-36, ,
1, ,-36, ,
1, ,-36, ,
0, ,-36, ,
0, ,-36, ,
0, ,-36, ,
0, ,-36, ,
0, ,-36, ,
0, ,-36, ,
1, ,-36, ,
1, ,-36, ,
0, ,-36, ,
0, ,-36, ,
0, ,-36, ,
0, ,-36, ,
1, ,-36, ,
1, ,-36, ,
1, ,-36, ,
1, ,-36, ,
1, ,-36, ,
1, ,-36, ,
1, ,-36, ,
1, ,-36, ,
1, ,-36, ,
0, ,-36, ,
1, ,-36, ,
1, ,-36, ,
1, ,-36, ,
1, ,-36, ,
1, ,-36, ,
1, ,-36, ,
1, ,-36, ,
0, ,-36, ,
0, ,-36, ,
1, ,-36, ,
1, ,-36, ,
1, ,-36, ,
1, ,-36, ,
0, ,-36, ,
1, ,-36, ,
0, ,-36, ,
0, ,-36, ,
1, ,-36, ,
1, ,-36, ,
0, ,-36, ,
0, ,-36, ,
0, ,-36, ,
0, ,-36, ,
0, ,-36, ,
0, ,-36, ,
1, ,-36, ,
0, ,-36, ,
0, ,-36, ,
0, ,-36, ,
1, ,-36, ,
1, ,-36, ,
1, ,-36, ,
1, ,-36, ,
0, ,-36, ,
0, ,-36, ,
1, ,-36, ,
1, ,-36, ,
1, ,-36, ,
1, ,-36, ,
1, ,-36, ,
1, ,-36, ,
0, ,-36, ,
0, ,-36, ,
0, ,-36, ,
0, ,-36, ,
0, ,-36, ,
0, ,-36, ,
0, ,-36, ,
1, ,-36, ,
1, ,-36, ,
0, ,-36, ,
0, ,-36, ,
0, ,-36, ,
1, ,-36, ,
1, ,-36, ,
1, ,-36, ,
1, ,-36, ,
1, ,-36, ,
1, ,-36, ,
1, ,-36, ,
1, ,-36, ,
1, ,-36, ,
1, ,-36, ,
0, ,-36, ,
0, ,-36, ,
0, ,-36, ,
0, ,-36, ,
1, ,-36, ,
1, ,-36, ,
1, ,-36, ,
1, ,-36, ,
1, ,-36, ,
1, ,-36, ,
0, ,-36, ,
0, ,-36, ,
1, ,-36, ,
1, ,-36, ,
1, ,-36, ,
1, ,-36, ,
1, ,-36, ,
1, ,-36, ,
1, ,-36, ,
1, ,-36, ,
1, ,-36, ,
0, ,-36, ,
0, ,-36, ,
1, ,-36, ,
1, ,-36, ,
1, ,-36, ,
1, ,-36, ,
1, ,-36, ,
0, ,-36, ,
0, ,-36, ,
-1, ,-36, ,
0, ,-36, ,
-2, ,-36, ,
5, ,-36, ,
57, ,-36, ,
97, ,-36, ,
125, ,-36, ,
123, ,-36, ,
82, ,-36, ,
23, ,-36, ,
-7, ,-36, ,
19, ,-36, ,
121, ,-36, ,
125, ,-36, ,
125, ,-36, ,
125, ,-36, ,
125, ,-36, ,
125, ,-36, ,
125, ,-36, ,
124, ,-36, ,
120, ,-36, ,
114, ,-36, ,
109, ,-36, ,
105, ,-36, ,
99, ,-36, ,
96, ,-36, ,
92, ,-36, ,
89, ,-36, ,
82, ,-36, ,
78, ,-36, ,
76, ,-36, ,
73, ,-36, ,
68, ,-36, ,
65, ,-36, ,
62, ,-36, ,
60, ,-36, ,
55, ,-36, ,
53, ,-36, ,
51, ,-36, ,
49, ,-36, ,
44, ,-36, ,
43, ,-36, ,
40, ,-36, ,
39, ,-36, ,
36, ,-36, ,
34, ,-36, ,
33, ,-36, ,
31, ,-36, ,
28, ,-36, ,
27, ,-36, ,
25, ,-36, ,
25, ,-36, ,
23, ,-36, ,
22, ,-36, ,
21, ,-36, ,
20, ,-36, ,
18, ,-36, ,
17, ,-36, ,
16, ,-36, ,
16, ,-36, ,
14, ,-36, ,
13, ,-36, ,
12, ,-36, ,
12, ,-36, ,
10, ,-36, ,
10, ,-36, ,
9, ,-36, ,
9, ,-36, ,
8, ,-36, ,
7, ,-36, ,
7, ,-36, ,
6, ,-36, ,
5, ,-36, ,
5, ,-36, ,
5, ,-36, ,
5, ,-36, ,
4, ,-36, ,
3, ,-36, ,
3, ,-36, ,
3, ,-36, ,
2, ,-36, ,
2, ,-36, ,
2, ,-36, ,
2, ,-36, ,
1, ,-36, ,
1, ,-36, ,
1, ,-36, ,
1, ,-36, ,
1, ,-36, ,
1, ,-36, ,
1, ,-36, ,
1, ,-36, ,
0, ,-36, ,
0, ,-36, ,
0, ,-36, ,
0, ,-36, ,
0, ,-36, ,
0, ,-36, ,
0, ,-36, ,
0, ,-36, ,
-1, ,-36, ,
-1, ,-36, ,
-1, ,-36, ,
-2, ,-36, ,
-1, ,-36, ,
-1, ,-36, ,
-1, ,-36, ,
-1, ,-36, ,
-1, ,-36, ,
-1, ,-36, ,
-1, ,-36, ,
-1, ,-36, ,
-1, ,-36, ,
-1, ,-36, ,
-1, ,-36, ,
-1, ,-36, ,
-1, ,-36, ,
-1, ,-36, ,
-1, ,-36, ,
-1, ,-36, ,
-1, ,-36, ,
-1, ,-36, ,
-1, ,-36, ,
-1, ,-36, ,
-1, ,-36, ,
-1, ,-36, ,
-1, ,-36, ,
-1, ,-36, ,
-2, ,-36, ,
-1, ,-36, ,
-1, ,-36, ,
-1, ,-36, ,
-1, ,-36, ,
-1, ,-36, ,
-1, ,-36, ,
-1, ,-36, ,
-1, ,-36, ,
-1, ,-36, ,
-1, ,-36, ,
-1, ,-36, ,
-1, ,-36, ,
-1, ,-36, ,
-1, ,-36, ,
-1, ,-36, ,
-1, ,-36, ,
-1, ,-36, ,
-1, ,-36, ,
-1, ,-36, ,
-1, ,-36, ,
-1, ,-36, ,
-1, ,-36, ,
-1, ,-36, ,
-1, ,-36, ,
0, ,-36, ,
-1, ,-36, ,
-1, ,-36, ,
-1, ,-36, ,
-1, ,-36, ,
-1, ,-36, ,
-1, ,-36, ,
-1, ,-36, ,
0, ,-36, ,
-1, ,-36, ,
-1, ,-36, ,
0, ,-36, ,
0, ,-36, ,
0, ,-36, ,
0, ,-36, ,
0, ,-36, ,
0, ,-36, ,
0, ,-36, ,
0, ,-36, ,
0, ,-36, ,
0, ,-36, ,
0, ,-36, ,
0, ,-36, ,
-1, ,-36, ,
0, ,-36, ,
0, ,-36, ,
0, ,-36, ,
0, ,-36, ,
0, ,-36, ,
0, ,-36, ,
0, ,-36, ,
0, ,-36, ,
0, ,-36, ,
0, ,-36, ,
0, ,-36, ,
0, ,-36, ,
0, ,-36, ,
0, ,-36, ,
0, ,-36, ,
0, ,-36, ,
0, ,-36, ,
0, ,-36, ,
0, ,-36, ,
0, ,-36, ,
0, ,-36, ,
0, ,-36, ,
0, ,-36, ,
0, ,-36, ,
0, ,-36, ,
0, ,-36, ,
0, ,-36, ,
0, ,-36, ,
0, ,-36, ,
0, ,-36, ,
0, ,-36, ,
0, ,-36, ,
0, ,-36, ,
0, ,-36, ,
0, ,-36, ,
0, ,-36, ,
0, ,-36, ,
0, ,-36, ,
0, ,-36, ,
0, ,-36, ,
0, ,-36, ,
0, ,-36, ,
0, ,-36, ,
0, ,-36, ,
0, ,-36, ,
0, ,-36, ,
0, ,-36, ,
0, ,-36, ,
0, ,-36, ,
0, ,-36, ,
1, ,-36, ,
0, ,-36, ,
0, ,-36, ,
0, ,-36, ,
0, ,-36, ,
0, ,-36, ,
0, ,-36, ,
0, ,-36, ,
0, ,-36, ,
0, ,-36, ,
0, ,-36, ,
0, ,-36, ,
0, ,-36, ,
0, ,-36, ,
0, ,-36, ,
0, ,-36, ,
0, ,-36, ,
0, ,-36, ,
0, ,-36, ,
0, ,-36, ,
0, ,-36, ,
0, ,-36, ,
0, ,-36, ,
0, ,-36, ,
1, ,-36, ,
1, ,-36, ,
0, ,-36, ,
0, ,-36, ,
0, ,-36, ,
1, ,-36, ,
1, ,-36, ,
1, ,-36, ,
1, ,-36, ,
0, ,-36, ,
0, ,-36, ,
0, ,-36, ,
0, ,-36, ,
0, ,-36, ,
0, ,-36, ,
0, ,-36, ,
1, ,-36, ,
0, ,-36, ,
0, ,-36, ,
0, ,-36, ,
0, ,-36, ,
-2, ,-36, ,
-2, ,-36, ,
-3, ,-36, ,
-3, ,-36, ,
-7, ,-36, ,
-11, ,-36, ,
-14, ,-36, ,
-17, ,-36, ,
-20, ,-36, ,
-19, ,-36, ,
-17, ,-36, ,
-14, ,-36, ,
-7, ,-36, ,
-5, ,-36, ,
-2, ,-36, ,
-1, ,-36, ,
1, ,-36, ,
2, ,-36, ,
2, ,-36, ,
3, ,-36, ,
4, ,-36, ,
3, ,-36, ,
4, ,-36, ,
3, ,-36, ,
3, ,-36, ,
2, ,-36, ,
2, ,-36, ,
1, ,-36, ,
1, ,-36, ,
1, ,-36, ,
1, ,-36, ,
1, ,-36, ,
2, ,-36, ,
2, ,-36, ,
2, ,-36, ,
3, ,-36, ,
4, ,-36, ,
4, ,-36, ,
4, ,-36, ,
4, ,-36, ,
4, ,-36, ,
4, ,-36, ,
4, ,-36, ,
4, ,-36, ,
4, ,-36, ,
4, ,-36, ,
4, ,-36, ,
3, ,-36, ,
3, ,-36, ,
3, ,-36, ,
2, ,-36, ,
2, ,-36, ,
2, ,-36, ,
2, ,-36, ,
2, ,-36, ,
1, ,-36, ,
1, ,-36, ,
1, ,-36, ,
1, ,-36, ,
1, ,-36, ,
0, ,-36, ,
0, ,-36, ,
0, ,-36, ,
0, ,-36, ,
-1, ,-36, ,
-1, ,-36, ,
-1, ,-36, ,
0, ,-36, ,
0, ,-36, ,
0, ,-36, ,
0, ,-36, ,
0, ,-36, ,
1, ,-36, ,
2, ,-36, ,
2, ,-36, ,
2, ,-36, ,
2, ,-36, ,
2, ,-36, ,
2, ,-36, ,
1, ,-36, ,
1, ,-36, ,
0, ,-36, ,
0, ,-36, ,
-1, ,-36, ,
-3, ,-36, ,
-5, ,-36, ,
-6, ,-36, ,
-8, ,-36, ,
-10, ,-36, ,
-11, ,-36, ,
-13, ,-36, ,
-14, ,-36, ,
-13, ,-36, ,
-13, ,-36, ,
-12, ,-36, ,
-12, ,-36, ,
-10, ,-36, ,
-9, ,-36, ,
-9, ,-36, ,
-9, ,-36, ,
-9, ,-36, ,
-10, ,-36, ,
-10, ,-36, ,
-11, ,-36, ,
-15, ,-36, ,
-17, ,-36, ,
-20, ,-36, ,
-23, ,-36, ,
-28, ,-36, ,
-31, ,-36, ,
-32, ,-36, ,
-33, ,-36, ,
-33, ,-36, ,
-32, ,-36, ,
-31, ,-36, ,
-30, ,-36, ,
-27, ,-36, ,
-26, ,-36, ,
-25, ,-36, ,
-24, ,-36, ,
-22, ,-36, ,
-21, ,-36, ,
-21, ,-36, ,
-20, ,-36, ,
-19, ,-36, ,
-19, ,-36, ,
-19, ,-36, ,
-19, ,-36, ,
-18, ,-36, ,
-16, ,-36, ,
-16, ,-36, ,
-15, ,-36, ,
-13, ,-36, ,
-13, ,-36, ,
-12, ,-36, ,
-12, ,-36, ,
-11, ,-36, ,
-11, ,-36, ,
-12, ,-36, ,
-12, ,-36, ,
-12, ,-36, ,
-12, ,-36, ,
-12, ,-36, ,
-12, ,-36, ,
-10, ,-36, ,
-10, ,-36, ,
-8, ,-36, ,
-7, ,-36, ,
-3, ,-36, ,
-2, ,-36, ,
1, ,-36, ,
3, ,-36, ,
7, ,-36, ,
9, ,-36, ,
10, ,-36, ,
13, ,-36, ,
15, ,-36, ,
15, ,-36, ,
15, ,-36, ,
15, ,-36, ,
14, ,-36, ,
14, ,-36, ,
12, ,-36, ,
12, ,-36, ,
9, ,-36, ,
8, ,-36, ,
7, ,-36, ,
6, ,-36, ,
4, ,-36, ,
4, ,-36, ,
3, ,-36, ,
3, ,-36, ,
2, ,-36, ,
2, ,-36, ,
2, ,-36, ,
2, ,-36, ,
1, ,-36, ,
1, ,-36, ,
1, ,-36, ,
1, ,-36, ,
0, ,-36, ,
-1, ,-36, ,
-1, ,-36, ,
-2, ,-36, ,
-2, ,-36, ,
-2, ,-36, ,
-2, ,-36, ,
-2, ,-36, ,
-2, ,-36, ,
-2, ,-36, ,
-1, ,-36, ,
-1, ,-36, ,
1, ,-36, ,
2, ,-36, ,
2, ,-36, ,
3, ,-36, ,
4, ,-36, ,
4, ,-36, ,
4, ,-36, ,
3, ,-36, ,
1, ,-36, ,
0, ,-36, ,
-2, ,-36, ,
-3, ,-36, ,
-8, ,-36, ,
-10, ,-36, ,
-13, ,-36, ,
-15, ,-36, ,
-20, ,-36, ,
-21, ,-36, ,
-24, ,-36, ,
-24, ,-36, ,
-25, ,-36, ,
-26, ,-36, ,
-26, ,-36, ,
-26, ,-36, ,
-27, ,-36, ,
-27, ,-36, ,
-27, ,-36, ,
-26, ,-36, ,
-25, ,-36, ,
-25, ,-36, ,
-25, ,-36, ,
-24, ,-36, ,
-21, ,-36, ,
-18, ,-36, ,
-17, ,-36, ,
-14, ,-36, ,
-10, ,-36, ,
-9, ,-36, ,
-6, ,-36, ,
-5, ,-36, ,
-3, ,-36, ,
-2, ,-36, ,
-2, ,-36, ,
-2, ,-36, ,
-3, ,-36, ,
-4, ,-36, ,
-4, ,-36, ,
-5, ,-36, ,
-6, ,-36, ,
-6, ,-36, ,
-7, ,-36, ,
-6, ,-36, ,
-6, ,-36, ,
-6, ,-36, ,
-5, ,-36, ,
-5, ,-36, ,
-4, ,-36, ,
-2, ,-36, ,
-2, ,-36, ,
0, ,-36, ,
2, ,-36, ,
4, ,-36, ,
5, ,-36, ,
7, ,-36, ,
9, ,-36, ,
9, ,-36, ,
9, ,-36, ,
9, ,-36, ,
8, ,-36, ,
6, ,-36, ,
4, ,-36, ,
2, ,-36, ,
-3, ,-36, ,
-5, ,-36, ,
-8, ,-36, ,
-11, ,-36, ,
-15, ,-36, ,
-18, ,-36, ,
-20, ,-36, ,
-21, ,-36, ,
-23, ,-36, ,
-23, ,-36, ,
-23, ,-36, ,
-23, ,-36, ,
-21, ,-36, ,
-20, ,-36, ,
-18, ,-36, ,
-17, ,-36, ,
-13, ,-36, ,
-11, ,-36, ,
-9, ,-36, ,
-7, ,-36, ,
-4, ,-36, ,
-3, ,-36, ,
-2, ,-36, ,
-1, ,-36, ,
0, ,-36, ,
0, ,-36, ,
0, ,-36, ,
1, ,-36, ,
2, ,-36, ,
1, ,-36, ,
3, ,-36, ,
3, ,-36, ,
5, ,-36, ,
7, ,-36, ,
8, ,-36, ,
10, ,-36, ,
14, ,-36, ,
16, ,-36, ,
17, ,-36, ,
19, ,-36, ,
21, ,-36, ,
21, ,-36, ,
20, ,-36, ,
20, ,-36, ,
19, ,-36, ,
17, ,-36, ,
16, ,-36, ,
13, ,-36, ,
9, ,-36, ,
8, ,-36, ,
4, ,-36, ,
2, ,-36, ,
-2, ,-36, ,
-5, ,-36, ,
-7, ,-36, ,
-8, ,-36, ,
-11, ,-36, ,
-11, ,-36, ,
-11, ,-36, ,
-10, ,-36, ,
-9, ,-36, ,
-9, ,-36, ,
-8, ,-36, ,
-7, ,-36, ,
-5, ,-36, ,
-3, ,-36, ,
-3, ,-36, ,
-1, ,-36, ,
0, ,-36, ,
0, ,-36, ,
0, ,-36, ,
0, ,-36, ,
-2, ,-36, ,
-2, ,-36, ,
-5, ,-36, ,
-6, ,-36, ,
-11, ,-36, ,
-14, ,-36, ,
-17, ,-36, ,
-21, ,-36, ,
-27, ,-36, ,
-30, ,-36, ,
-33, ,-36, ,
-35, ,-36, ,
-40, ,-36, ,
-42, ,-36, ,
-42, ,-36, ,
-42, ,-36, ,
-41, ,-36, ,
-39, ,-36, ,
-38, ,-36, ,
-35, ,-36, ,
-28, ,-36, ,
-25, ,-36, ,
-23, ,-36, ,
-20, ,-36, ,
-13, ,-36, ,
-9, ,-36, ,
-7, ,-36, ,
-5, ,-36, ,
-2, ,-36, ,
-2, ,-36, ,
-3, ,-36, ,
-3, ,-36, ,
-5, ,-36, ,
-5, ,-36, ,
-7, ,-36, ,
-7, ,-36, ,
-10, ,-36, ,
-11, ,-36, ,
-12, ,-36, ,
-13, ,-36, ,
-13, ,-36, ,
-12, ,-36, ,
-12, ,-36, ,
-12, ,-36, ,
-10, ,-36, ,
-10, ,-36, ,
-8, ,-36, ,
-8, ,-36, ,
-5, ,-36, ,
-3, ,-36, ,
-2, ,-36, ,
0, ,-36, ,
3, ,-36, ,
4, ,-36, ,
6, ,-36, ,
7, ,-36, ,
9, ,-36, ,
11, ,-36, ,
11, ,-36, ,
11, ,-36, ,
12, ,-36, ,
12, ,-36, ,
12, ,-36, ,
11, ,-36, ,
11, ,-36, ,
11, ,-36, ,
11, ,-36, ,
11, ,-36, ,
12, ,-36, ,
12, ,-36, ,
13, ,-36, ,
13, ,-36, ,
13, ,-36, ,
14, ,-36, ,
14, ,-36, ,
14, ,-36, ,
15, ,-36, ,
14, ,-36, ,
14, ,-36, ,
14, ,-36, ,
13, ,-36, ,
12, ,-36, ,
11, ,-36, ,
11, ,-36, ,
9, ,-36, ,
7, ,-36, ,
7, ,-36, ,
5, ,-36, ,
2, ,-36, ,
1, ,-36, ,
0, ,-36, ,
-2, ,-36, ,
-4, ,-36, ,
-5, ,-36, ,
-7, ,-36, ,
-8, ,-36, ,
-9, ,-36, ,
-10, ,-36, ,
-11, ,-36, ,
-11, ,-36, ,
-12, ,-36, ,
-12, ,-36, ,
-12, ,-36, ,
-12, ,-36, ,
-12, ,-36, ,
-11, ,-36, ,
-11, ,-36, ,
-10, ,-36, ,
-9, ,-36, ,
-9, ,-36, ,
-8, ,-36, ,
-8, ,-36, ,
-9, ,-36, ,
-9, ,-36, ,
-11, ,-36, ,
-11, ,-36, ,
-13, ,-36, ,
-15, ,-36, ,
-16, ,-36, ,
-17, ,-36, ,
-20, ,-36, ,
-21, ,-36, ,
-23, ,-36, ,
-24, ,-36, ,
-25, ,-36, ,
-26, ,-36, ,
-26, ,-36, ,
-27, ,-36, ,
-27, ,-36, ,
-26, ,-36, ,
-26, ,-36, ,
-26, ,-36, ,
-24, ,-36, ,
-24, ,-36, ,
-22, ,-36, ,
-21, ,-36, ,
-17, ,-36, ,
-15, ,-36, ,
-14, ,-36, ,
-11, ,-36, ,
-7, ,-36, ,
-4, ,-36, ,
-2, ,-36, ,
0, ,-36, ,
3, ,-36, ,
5, ,-36, ,
6, ,-36, ,
7, ,-36, ,
8, ,-36, ,
8, ,-36, ,
8, ,-36, ,
7, ,-36, ,
6, ,-36, ,
5, ,-36, ,
4, ,-36, ,
3, ,-36, ,
2, ,-36, ,
0, ,-36, ,
0, ,-36, ,
-1, ,-36, ,
-2, ,-36, ,
-2, ,-36, ,
-2, ,-36, ,
-2, ,-36, ,
-1, ,-36, ,
-1, ,-36, ,
-1, ,-36, ,
-1, ,-36, ,
0, ,-36, ,
1, ,-36, ,
1, ,-36, ,
1, ,-36, ,
1, ,-36, ,
1, ,-36, ,
2, ,-36, ,
1, ,-36, ,
1, ,-36, ,
1, ,-36, ,
0, ,-36, ,
-1, ,-36, ,
-2, ,-36, ,
-3, ,-36, ,
-4, ,-36, ,
-6, ,-36, ,
-8, ,-36, ,
-9, ,-36, ,
-11, ,-36, ,
-12, ,-36, ,
-15, ,-36, ,
-17, ,-36, ,
-17, ,-36, ,
-17, ,-36, ,
-17, ,-36, ,
-17, ,-36, ,
-16, ,-36, ,
-15, ,-36, ,
-13, ,-36, ,
-12, ,-36, ,
-11, ,-36, ,
-9, ,-36, ,
-5, ,-36, ,
-3, ,-36, ,
-2, ,-36, ,
0, ,-36, ,
3, ,-36, ,
5, ,-36, ,
6, ,-36, ,
7, ,-36, ,
9, ,-36, ,
10, ,-36, ,
11, ,-36, ,
12, ,-36, ,
13, ,-36, ,
12, ,-36, ,
12, ,-36, ,
12, ,-36, ,
11, ,-36, ,
10, ,-36, ,
9, ,-36, ,
8, ,-36, ,
6, ,-36, ,
4, ,-36, ,
3, ,-36, ,
1, ,-36, ,
-2, ,-36, ,
-3, ,-36, ,
-5, ,-36, ,
-6, ,-36, ,
-8, ,-36, ,
-9, ,-36, ,
-9, ,-36, ,
-9, ,-36, ,
-8, ,-36, ,
-7, ,-36, ,
-8, ,-36, ,
-6, ,-36, ,
-4, ,-36, ,
-4, ,-36, ,
-2, ,-36, ,
-1, ,-36, ,
1, ,-36, ,
3, ,-36, ,
4, ,-36, ,
5, ,-36, ,
7, ,-36, ,
7, ,-36, ,
9, ,-36, ,
9, ,-36, ,
9, ,-36, ,
9, ,-36, ,
8, ,-36, ,
8, ,-36, ,
6, ,-36, ,
3, ,-36, ,
3, ,-36, ,
-1, ,-36, ,
-6, ,-36, ,
-8, ,-36, ,
-11, ,-36, ,
-13, ,-36, ,
-19, ,-36, ,
-21, ,-36, ,
-24, ,-36, ,
-25, ,-36, ,
-26, ,-36, ,
-26, ,-36, ,
-26, ,-36, ,
-25, ,-36, ,
-23, ,-36, ,
-22, ,-36, ,
-19, ,-36, ,
-16, ,-36, ,
-10, ,-36, ,
-5, ,-36, ,
-2, ,-36, ,
2, ,-36, ,
8, ,-36, ,
11, ,-36, ,
13, ,-36, ,
15, ,-36, ,
18, ,-36, ,
18, ,-36, ,
18, ,-36, ,
17, ,-36, ,
15, ,-36, ,
13, ,-36, ,
13, ,-36, ,
10, ,-36, ,
6, ,-36, ,
4, ,-36, ,
3, ,-36, ,
1, ,-36, ,
-2, ,-36, ,
-3, ,-36, ,
-4, ,-36, ,
-4, ,-36, ,
-4, ,-36, ,
-3, ,-36, ,
-3, ,-36, ,
-2, ,-36, ,
-1, ,-36, ,
-1, ,-36, ,
1, ,-36, ,
1, ,-36, ,
3, ,-36, ,
4, ,-36, ,
4, ,-36, ,
4, ,-36, ,
5, ,-36, ,
5, ,-36, ,
5, ,-36, ,
4, ,-36, ,
3, ,-36, ,
3, ,-36, ,
2, ,-36, ,
2, ,-36, ,
1, ,-36, ,
0, ,-36, ,
-1, ,-36, ,
-2, ,-36, ,
-4, ,-36, ,
-4, ,-36, ,
-5, ,-36, ,
-6, ,-36, ,
-7, ,-36, ,
-8, ,-36, ,
-8, ,-36, ,
-10, ,-36, ,
-11, ,-36, ,
-11, ,-36, ,
-12, ,-36, ,
-12, ,-36, ,
-13, ,-36, ,
-13, ,-36, ,
-13, ,-36, ,
-13, ,-36, ,
-13, ,-36, ,
-13, ,-36, ,
-12, ,-36, ,
-12, ,-36, ,
-11, ,-36, ,
-10, ,-36, ,
-9, ,-36, ,
-8, ,-36, ,
-6, ,-36, ,
-5, ,-36, ,
-4, ,-36, ,
-2, ,-36, ,
0, ,-36, ,
2, ,-36, ,
4, ,-36, ,
5, ,-36, ,
8, ,-36, ,
9, ,-36, ,
10, ,-36, ,
12, ,-36, ,
13, ,-36, ,
13, ,-36, ,
13, ,-36, ,
12, ,-36, ,
11, ,-36, ,
11, ,-36, ,
10, ,-36, ,
9, ,-36, ,
6, ,-36, ,
5, ,-36, ,
3, ,-36, ,
2, ,-36, ,
-1, ,-36, ,
-1, ,-36, ,
-2, ,-36, ,
-2, ,-36, ,
-2, ,-36, ,
-2, ,-36, ,
-1, ,-36, ,
-1, ,-36, ,
0, ,-36, ,
1, ,-36, ,
1, ,-36, ,
2, ,-36, ,
3, ,-36, ,
2, ,-36, ,
2, ,-36, ,
2, ,-36, ,
1, ,-36, ,
1, ,-36, ,
0, ,-36, ,
0, ,-36, ,
-2, ,-36, ,
-2, ,-36, ,
-2, ,-36, ,
-3, ,-36, ,
-4, ,-36, ,
-4, ,-36, ,
-4, ,-36, ,
-4, ,-36, ,
-4, ,-36, ,
-4, ,-36, ,
-4, ,-36, ,
-4, ,-36, ,
-4, ,-36, ,
-4, ,-36, ,
-5, ,-36, ,
-5, ,-36, ,
-4, ,-36, ,
-4, ,-36, ,
-4, ,-36, ,
-5, ,-36, ,
-5, ,-36, ,
-4, ,-36, ,
-4, ,-36, ,
-4, ,-36, ,
-4, ,-36, ,
-4, ,-36, ,
-4, ,-36, ,
-4, ,-36, ,
-4, ,-36, ,
-4, ,-36, ,
-4, ,-36, ,
-4, ,-36, ,
-5, ,-36, ,
-6, ,-36, ,
-6, ,-36, ,
-6, ,-36, ,
-7, ,-36, ,
-7, ,-36, ,
-7, ,-36, ,
-7, ,-36, ,
-7, ,-36, ,
-7, ,-36, ,
-6, ,-36, ,
-6, ,-36, ,
-4, ,-36, ,
-2, ,-36, ,
-1, ,-36, ,
0, ,-36, ,
3, ,-36, ,
4, ,-36, ,
5, ,-36, ,
6, ,-36, ,
8, ,-36, ,
8, ,-36, ,
8, ,-36, ,
8, ,-36, ,
7, ,-36, ,
5, ,-36, ,
5, ,-36, ,
4, ,-36, ,
0, ,-36, ,
-1, ,-36, ,
-3, ,-36, ,
-4, ,-36, ,
-8, ,-36, ,
-9, ,-36, ,
-11, ,-36, ,
-13, ,-36, ,
-14, ,-36, ,
-14, ,-36, ,
-14, ,-36, ,
-14, ,-36, ,
-14, ,-36, ,
-14, ,-36, ,
-13, ,-36, ,
-12, ,-36, ,
-11, ,-36, ,
-9, ,-36, ,
-8, ,-36, ,
-6, ,-36, ,
-3, ,-36, ,
-2, ,-36, ,
0, ,-36, ,
2, ,-36, ,
6, ,-36, ,
7, ,-36, ,
9, ,-36, ,
11, ,-36, ,
12, ,-36, ,
12, ,-36, ,
12, ,-36, ,
11, ,-36, ,
10, ,-36, ,
10, ,-36, ,
8, ,-36, ,
7, ,-36, ,
5, ,-36, ,
3, ,-36, ,
2, ,-36, ,
0, ,-36, ,
-2, ,-36, ,
-2, ,-36, ,
-2, ,-36, ,
-2, ,-36, ,
-2, ,-36, ,
-2, ,-36, ,
-1, ,-36, ,
-1, ,-36, ,
0, ,-36, ,
0, ,-36, ,
0, ,-36, ,
0, ,-36, ,
-1, ,-36, ,
-2, ,-36, ,
-2, ,-36, ,
-5, ,-36, ,
-7, ,-36, ,
-9, ,-36, ,
-11, ,-36, ,
-12, ,-36, ,
-15, ,-36, ,
-17, ,-36, ,
-19, ,-36, ,
-19, ,-36, ,
-20, ,-36, ,
-20, ,-36, ,
-20, ,-36, ,
-19, ,-36, ,
-17, ,-36, ,
-16, ,-36, ,
-14, ,-36, ,
-12, ,-36, ,
-8, ,-36, ,
-6, ,-36, ,
-4, ,-36, ,
-2, ,-36, ,
2, ,-36, ,
4, ,-36, ,
6, ,-36, ,
7, ,-36, ,
9, ,-36, ,
11, ,-36, ,
11, ,-36, ,
12, ,-36, ,
13, ,-36, ,
13, ,-36, ,
13, ,-36, ,
12, ,-36, ,
11, ,-36, ,
11, ,-36, ,
10, ,-36, ,
10, ,-36, ,
9, ,-36, ,
8, ,-36, ,
7, ,-36, ,
6, ,-36, ,
4, ,-36, ,
4, ,-36, ,
3, ,-36, ,
2, ,-36, ,
2, ,-36, ,
1, ,-36, ,
1, ,-36, ,
1, ,-36, ,
2, ,-36, ,
2, ,-36, ,
2, ,-36, ,
2, ,-36, ,
2, ,-36, ,
1, ,-36, ,
1, ,-36, ,
0, ,-36, ,
-1, ,-36, ,
-2, ,-36, ,
-2, ,-36, ,
-3, ,-36, ,
-6, ,-36, ,
-7, ,-36, ,
-8, ,-36, ,
-9, ,-36, ,
-10, ,-36, ,
-11, ,-36, ,
-11, ,-36, ,
-11, ,-36, ,
-11, ,-36, ,
-11, ,-36, ,
-10, ,-36, ,
-10, ,-36, ,
-8, ,-36, ,
-6, ,-36, ,
-5, ,-36, ,
-3, ,-36, ,
0, ,-36, ,
1, ,-36, ,
3, ,-36, ,
4, ,-36, ,
6, ,-36, ,
8, ,-36, ,
9, ,-36, ,
10, ,-36, ,
12, ,-36, ,
12, ,-36, ,
13, ,-36, ,
12, ,-36, ,
12, ,-36, ,
11, ,-36, ,
11, ,-36, ,
10, ,-36, ,
8, ,-36, ,
7, ,-36, ,
6, ,-36, ,
4, ,-36, ,
1, ,-36, ,
0, ,-36, ,
-2, ,-36, ,
-4, ,-36, ,
-6, ,-36, ,
-8, ,-36, ,
-8, ,-36, ,
-9, ,-36, ,
-9, ,-36, ,
-8, ,-36, ,
-8, ,-36, ,
-7, ,-36, ,
-5, ,-36, ,
-5, ,-36, ,
-4, ,-36, ,
-3, ,-36, ,
-1, ,-36, ,
0, ,-36, ,
0, ,-36, ,
1, ,-36, ,
1, ,-36, ,
1, ,-36, ,
1, ,-36, ,
1, ,-36, ,
0, ,-36, ,
0, ,-36, ,
-1, ,-36, ,
-1, ,-36, ,
-1, ,-36, ,
-1, ,-36, ,
-1, ,-36, ,
-1, ,-36, ,
-1, ,-36, ,
-1, ,-36, ,
-1, ,-36, ,
-1, ,-36, ,
-1, ,-36, ,
-1, ,-36, ,
-1, ,-36, ,
-1, ,-36, ,
-2, ,-36, ,
-2, ,-36, ,
-2, ,-36, ,
-2, ,-36, ,
-2, ,-36, ,
-2, ,-36, ,
-2, ,-36, ,
-2, ,-36, ,
-2, ,-36, ,
-1, ,-36, ,
-1, ,-36, ,
-1, ,-36, ,
1, ,-36, ,
1, ,-36, ,
2, ,-36, ,
2, ,-36, ,
2, ,-36, ,
3, ,-36, ,
3, ,-36, ,
4, ,-36, ,
3, ,-36, ,
3, ,-36, ,
3, ,-36, ,
2, ,-36, ,
2, ,-36, ,
2, ,-36, ,
2, ,-36, ,
2, ,-36, ,
1, ,-36, ,
1, ,-36, ,
1, ,-36, ,
1, ,-36, ,
1, ,-36, ,
1, ,-36, ,
2, ,-36, ,
2, ,-36, ,
2, ,-36, ,
2, ,-36, ,
2, ,-36, ,
1, ,-36, ,
1, ,-36, ,
1, ,-36, ,
1, ,-36, ,
0, ,-36, ,
-1, ,-36, ,
-2, ,-36, ,
-2, ,-36, ,
-4, ,-36, ,
-5, ,-36, ,
-6, ,-36, ,
-7, ,-36, ,
-7, ,-36, ,
-9, ,-36, ,
-9, ,-36, ,
-9, ,-36, ,
-9, ,-36, ,
-8, ,-36, ,
-8, ,-36, ,
-7, ,-36, ,
-7, ,-36, ,
-4, ,-36, ,
-3, ,-36, ,
-2, ,-36, ,
-1, ,-36, ,
1, ,-36, ,
3, ,-36, ,
4, ,-36, ,
5, ,-36, ,
7, ,-36, ,
7, ,-36, ,
8, ,-36, ,
8, ,-36, ,
9, ,-36, ,
9, ,-36, ,
8, ,-36, ,
8, ,-36, ,
6, ,-36, ,
5, ,-36, ,
5, ,-36, ,
3, ,-36, ,
1, ,-36, ,
0, ,-36, ,
-2, ,-36, ,
-3, ,-36, ,
-5, ,-36, ,
-6, ,-36, ,
-6, ,-36, ,
-7, ,-36, ,
-7, ,-36, ,
-5, ,-36, ,
-5, ,-36, ,
-5, ,-36, ,
-2, ,-36, ,
-1, ,-36, ,
1, ,-36, ,
2, ,-36, ,
5, ,-36, ,
7, ,-36, ,
7, ,-36, ,
10, ,-36, ,
11, ,-36, ,
11, ,-36, ,
11, ,-36, ,
10, ,-36, ,
9, ,-36, ,
8, ,-36, ,
7, ,-36, ,
6, ,-36, ,
4, ,-36, ,
2, ,-36, ,
1, ,-36, ,
0, ,-36, ,
-3, ,-36, ,
-3, ,-36, ,
-4, ,-36, ,
-5, ,-36, ,
-6, ,-36, ,
-7, ,-36, ,
-7, ,-36, ,
-7, ,-36, ,
-7, ,-36, ,
-7, ,-36, ,
-7, ,-36, ,
-6, ,-36, ,
-6, ,-36, ,
-6, ,-36, ,
-5, ,-36, ,
-5, ,-36, ,
-4, ,-36, ,
-3, ,-36, ,
-2, ,-36, ,
-2, ,-36, ,
0, ,-36, ,
1, ,-36, ,
1, ,-36, ,
1, ,-36, ,
2, ,-36, ,
3, ,-36, ,
3, ,-36, ,
4, ,-36, ,
3, ,-36, ,
3, ,-36, ,
4, ,-36, ,
4, ,-36, ,
3, ,-36, ,
3, ,-36, ,
2, ,-36, ,
2, ,-36, ,
1, ,-36, ,
0, ,-36, ,
0, ,-36, ,
0, ,-36, ,
0, ,-36, ,
0, ,-36, ,
1, ,-36, ,
1, ,-36, ,
1, ,-36, ,
1, ,-36, ,
2, ,-36, ,
2, ,-36, ,
2, ,-36, ,
3, ,-36, ,
3, ,-36, ,
3, ,-36, ,
3, ,-36, ,
3, ,-36, ,
2, ,-36, ,
2, ,-36, ,
1, ,-36, ,
1, ,-36, ,
1, ,-36, ,
1, ,-36, ,
0, ,-36, ,
0, ,-36, ,
0, ,-36, ,
0, ,-36, ,
0, ,-36, ,
0, ,-36, ,
0, ,-36, ,
0, ,-36, ,
1, ,-36, ,
1, ,-36, ,
2, ,-36, ,
2, ,-36, ,
2, ,-36, ,
3, ,-36, ,
3, ,-36, ,
3, ,-36, ,
3, ,-36, ,
3, ,-36, ,
3, ,-36, ,
2, ,-36, ,
1, ,-36, ,
1, ,-36, ,
0, ,-36, ,
-1, ,-36, ,
-2, ,-36, ,
-3, ,-36, ,
-3, ,-36, ,
-4, ,-36, ,
-5, ,-36, ,
-6, ,-36, ,
-6, ,-36, ,
-7, ,-36, ,
-6, ,-36, ,
-6, ,-36, ,
-6, ,-36, ,
-6, ,-36, ,
