raw_data/75% Glycerol, Impulsion 2Hz, Sonde 5MHz, Rampe 0.7Hz/temp0000223.CSV

Format,1.0B,
Memory Length,10000,Memory Length,10000,
IntpDistance,0,IntpDistance,0,
Trigger Address,159,Trigger Address,159,
Trigger Level,2.720E-01,Trigger Level,2.720E-01,
Source,CH1,Source,CH2,
Vertical Units,V,Vertical Units,V,
Vertical Units Div,0,Vertical Units Div,0,
Vertical Units Extend Div,16,Vertical Units Extend Div,16,
Label,,Label,,
Probe Type,0,Probe Type,0,
Probe Ratio,1.000e+00,Probe Ratio,1.000e+00,
Vertical Scale,5.000e-01,Vertical Scale,2.000e+00,
Vertical Position,0.000e+00,Vertical Position,0.000e+00,
Horizontal Units,S,Horizontal Units,S,
Horizontal Scale,5.000E-06,Horizontal Scale,5.000E-06,
Horizontal Position,2.420E-05,Horizontal Position,2.420E-05,
Horizontal Mode,Main,Horizontal Mode,Main,
SincET Mode,Real Time,SincET Mode,Real Time,
Sampling Period,5.000e-09,Sampling Period,5.000e-09,
Horizontal Old Scale,5.000E-06,Horizontal Old Scale,5.000E-06,
Horizontal Old Position,2.420E-05,Horizontal Old Position,2.420E-05,
Firmware,V1.32,Firmware,V1.32,
Mode,Fast,Mode,Fast,
Waveform Data,,Waveform Data,,
0, ,16, ,
0, ,16, ,
1, ,16, ,
1, ,16, ,
1, ,16, ,
0, ,16, ,
0, ,16, ,
0, ,16, ,
1, ,16, ,
1, ,16, ,
1, ,16, ,
1, ,16, ,
1, ,16, ,
1, ,16, ,
1, ,16, ,
1, ,16, ,
1, ,16, ,
1, ,16, ,
1, ,16, ,
1, ,16, ,
1, ,16, ,
1, ,16, ,
0, ,16, ,
0, ,16, ,
0, ,16, ,
1, ,16, ,
1, ,16, ,
1, ,16, ,
1, ,16, ,
1, ,16, ,
1, ,16, ,
1, ,16, ,
1, ,16, ,
1, ,16, ,
1, ,16, ,
0, ,16, ,
0, ,16, ,
1, ,16, ,
1, ,16, ,
1, ,16, ,
1, ,16, ,
1, ,16, ,
1, ,16, ,
1, ,16, ,
0, ,16, ,
0, ,16, ,
1, ,16, ,
1, ,16, ,
1, ,16, ,
1, ,16, ,
0, ,16, ,
1, ,16, ,
1, ,16, ,
1, ,16, ,
1, ,16, ,
1, ,16, ,
1, ,16, ,
1, ,16, ,
1, ,16, ,
1, ,16, ,
1, ,16, ,
1, ,16, ,
1, ,16, ,
0, ,16, ,
0, ,16, ,
1, ,16, ,
1, ,16, ,
1, ,16, ,
1, ,16, ,
1, ,16, ,
1, ,16, ,
1, ,16, ,
1, ,16, ,
1, ,16, ,
1, ,16, ,
0, ,16, ,
0, ,16, ,
1, ,16, ,
1, ,16, ,
1, ,16, ,
1, ,16, ,
1, ,16, ,
0, ,16, ,
0, ,16, ,
0, ,16, ,
0, ,16, ,
0, ,16, ,
0, ,16, ,
0, ,16, ,
1, ,16, ,
1, ,16, ,
1, ,16, ,
1, ,16, ,
1, ,16, ,
1, ,16, ,
1, ,16, ,
1, ,16, ,
1, ,16, ,
0, ,16, ,
0, ,16, ,
0, ,16, ,
1, ,16, ,
1, ,16, ,
1, ,16, ,
1, ,16, ,
1, ,16, ,
1, ,16, ,
1, ,16, ,
1, ,16, ,
1, ,16, ,
1, ,16, ,
0, ,16, ,
0, ,16, ,
1, ,16, ,
1, ,16, ,
1, ,16, ,
1, ,16, ,
1, ,16, ,
1, ,16, ,
1, ,16, ,
1, ,16, ,
1, ,16, ,
1, ,16, ,
1, ,16, ,
1, ,16, ,
0, ,16, ,
0, ,16, ,
0, ,16, ,
1, ,16, ,
1, ,16, ,
0, ,16, ,
0, ,16, ,
0, ,16, ,
1, ,16, ,
1, ,16, ,
1, ,16, ,
1, ,16, ,
1, ,16, ,
1, ,16, ,
1, ,16, ,
0, ,16, ,
0, ,16, ,
1, ,16, ,
1, ,16, ,
1, ,16, ,
1, ,16, ,
1, ,16, ,
0, ,16, ,
0, ,16, ,
0, ,16, ,
0, ,16, ,
0, ,16, ,
0, ,16, ,
1, ,16, ,
1, ,16, ,
1, ,16, ,
1, ,16, ,
1, ,16, ,
1, ,16, ,
1, ,16, ,
1, ,16, ,
0, ,16, ,
0, ,16, ,
0, ,16, ,
0, ,16, ,
0, ,16, ,
1, ,16, ,
-2, ,16, ,
1, ,16, ,
47, ,16, ,
86, ,16, ,
125, ,16, ,
124, ,16, ,
97, ,16, ,
37, ,16, ,
-4, ,16, ,
7, ,16, ,
110, ,16, ,
125, ,16, ,
125, ,16, ,
125, ,16, ,
125, ,16, ,
125, ,16, ,
125, ,16, ,
124, ,16, ,
121, ,16, ,
115, ,16, ,
110, ,16, ,
106, ,16, ,
100, ,16, ,
97, ,16, ,
93, ,16, ,
90, ,16, ,
83, ,16, ,
79, ,16, ,
77, ,16, ,
74, ,16, ,
69, ,16, ,
66, ,16, ,
63, ,16, ,
61, ,16, ,
56, ,16, ,
53, ,16, ,
52, ,16, ,
49, ,16, ,
44, ,16, ,
43, ,16, ,
41, ,16, ,
40, ,16, ,
36, ,16, ,
34, ,16, ,
33, ,16, ,
32, ,16, ,
28, ,16, ,
28, ,16, ,
26, ,16, ,
25, ,16, ,
23, ,16, ,
22, ,16, ,
22, ,16, ,
20, ,16, ,
18, ,16, ,
18, ,16, ,
17, ,16, ,
16, ,16, ,
14, ,16, ,
14, ,16, ,
13, ,16, ,
12, ,16, ,
11, ,16, ,
10, ,16, ,
9, ,16, ,
9, ,16, ,
8, ,16, ,
7, ,16, ,
7, ,16, ,
7, ,16, ,
6, ,16, ,
6, ,16, ,
5, ,16, ,
5, ,16, ,
4, ,16, ,
4, ,16, ,
4, ,16, ,
3, ,16, ,
3, ,16, ,
3, ,16, ,
2, ,16, ,
2, ,16, ,
2, ,16, ,
1, ,16, ,
1, ,16, ,
1, ,16, ,
1, ,16, ,
1, ,16, ,
1, ,16, ,
1, ,16, ,
0, ,16, ,
0, ,16, ,
0, ,16, ,
0, ,16, ,
0, ,16, ,
0, ,16, ,
0, ,16, ,
0, ,16, ,
-1, ,16, ,
-1, ,16, ,
-1, ,16, ,
-1, ,16, ,
-1, ,16, ,
-1, ,16, ,
-1, ,16, ,
-1, ,16, ,
-1, ,16, ,
-1, ,16, ,
-1, ,16, ,
-1, ,16, ,
-1, ,16, ,
-1, ,16, ,
-1, ,16, ,
-1, ,16, ,
-1, ,16, ,
-1, ,16, ,
-1, ,16, ,
-1, ,16, ,
-1, ,16, ,
-1, ,16, ,
-1, ,16, ,
-1, ,16, ,
-1, ,16, ,
-1, ,16, ,
-1, ,16, ,
-1, ,16, ,
-1, ,16, ,
-1, ,16, ,
-2, ,16, ,
-1, ,16, ,
-1, ,16, ,
-1, ,16, ,
-1, ,16, ,
-1, ,16, ,
-1, ,16, ,
-1, ,16, ,
-1, ,16, ,
-1, ,16, ,
-1, ,16, ,
-1, ,16, ,
-1, ,16, ,
-1, ,16, ,
-1, ,16, ,
-1, ,16, ,
-1, ,16, ,
-1, ,16, ,
-1, ,16, ,
-1, ,16, ,
-1, ,16, ,
-1, ,16, ,
-1, ,16, ,
0, ,16, ,
0, ,16, ,
0, ,16, ,
-1, ,16, ,
-1, ,16, ,
-1, ,16, ,
-1, ,16, ,
0, ,16, ,
0, ,16, ,
0, ,16, ,
0, ,16, ,
-1, ,16, ,
-1, ,16, ,
-1, ,16, ,
0, ,16, ,
0, ,16, ,
0, ,16, ,
0, ,16, ,
0, ,16, ,
0, ,16, ,
0, ,16, ,
0, ,16, ,
0, ,16, ,
0, ,16, ,
0, ,16, ,
0, ,16, ,
0, ,16, ,
0, ,16, ,
0, ,16, ,
0, ,16, ,
0, ,16, ,
0, ,16, ,
0, ,16, ,
0, ,16, ,
0, ,16, ,
0, ,16, ,
0, ,16, ,
0, ,16, ,
0, ,16, ,
0, ,16, ,
0, ,16, ,
0, ,16, ,
0, ,16, ,
0, ,16, ,
0, ,16, ,
1, ,16, ,
0, ,16, ,
0, ,16, ,
0, ,16, ,
0, ,16, ,
0, ,16, ,
0, ,16, ,
0, ,16, ,
0, ,16, ,
0, ,16, ,
0, ,16, ,
0, ,16, ,
0, ,16, ,
0, ,16, ,
0, ,16, ,
0, ,16, ,
1, ,16, ,
1, ,16, ,
0, ,16, ,
0, ,16, ,
0, ,16, ,
0, ,16, ,
1, ,16, ,
0, ,16, ,
0, ,16, ,
0, ,16, ,
0, ,16, ,
0, ,16, ,
0, ,16, ,
0, ,16, ,
0, ,16, ,
0, ,16, ,
0, ,16, ,
0, ,16, ,
0, ,16, ,
0, ,16, ,
0, ,16, ,
0, ,16, ,
1, ,16, ,
1, ,16, ,
1, ,16, ,
0, ,16, ,
0, ,16, ,
1, ,16, ,
0, ,16, ,
0, ,16, ,
0, ,16, ,
0, ,16, ,
0, ,16, ,
0, ,16, ,
0, ,16, ,
1, ,16, ,
1, ,16, ,
1, ,16, ,
1, ,16, ,
1, ,16, ,
1, ,16, ,
1, ,16, ,
1, ,16, ,
1, ,16, ,
1, ,16, ,
1, ,16, ,
0, ,16, ,
0, ,16, ,
0, ,16, ,
0, ,16, ,
0, ,16, ,
1, ,16, ,
0, ,16, ,
0, ,16, ,
0, ,16, ,
0, ,16, ,
0, ,16, ,
0, ,16, ,
-1, ,16, ,
-1, ,16, ,
-1, ,16, ,
-2, ,16, ,
-3, ,16, ,
-4, ,16, ,
-5, ,16, ,
-8, ,16, ,
-8, ,16, ,
-8, ,16, ,
-8, ,16, ,
-7, ,16, ,
-4, ,16, ,
-4, ,16, ,
-3, ,16, ,
-2, ,16, ,
0, ,16, ,
1, ,16, ,
1, ,16, ,
1, ,16, ,
2, ,16, ,
2, ,16, ,
2, ,16, ,
1, ,16, ,
1, ,16, ,
1, ,16, ,
0, ,16, ,
0, ,16, ,
0, ,16, ,
-1, ,16, ,
-1, ,16, ,
-1, ,16, ,
0, ,16, ,
1, ,16, ,
1, ,16, ,
1, ,16, ,
2, ,16, ,
2, ,16, ,
2, ,16, ,
2, ,16, ,
3, ,16, ,
3, ,16, ,
3, ,16, ,
3, ,16, ,
3, ,16, ,
3, ,16, ,
2, ,16, ,
2, ,16, ,
2, ,16, ,
2, ,16, ,
2, ,16, ,
2, ,16, ,
1, ,16, ,
1, ,16, ,
2, ,16, ,
1, ,16, ,
1, ,16, ,
1, ,16, ,
1, ,16, ,
1, ,16, ,
1, ,16, ,
0, ,16, ,
0, ,16, ,
0, ,16, ,
0, ,16, ,
0, ,16, ,
0, ,16, ,
0, ,16, ,
1, ,16, ,
1, ,16, ,
1, ,16, ,
1, ,16, ,
1, ,16, ,
2, ,16, ,
1, ,16, ,
2, ,16, ,
2, ,16, ,
2, ,16, ,
2, ,16, ,
1, ,16, ,
1, ,16, ,
0, ,16, ,
0, ,16, ,
-1, ,16, ,
-3, ,16, ,
-4, ,16, ,
-7, ,16, ,
-8, ,16, ,
-12, ,16, ,
-14, ,16, ,
-16, ,16, ,
-17, ,16, ,
-17, ,16, ,
-17, ,16, ,
-16, ,16, ,
-16, ,16, ,
-14, ,16, ,
-12, ,16, ,
-12, ,16, ,
-11, ,16, ,
-10, ,16, ,
-11, ,16, ,
-11, ,16, ,
-12, ,16, ,
-14, ,16, ,
-16, ,16, ,
-18, ,16, ,
-20, ,16, ,
-23, ,16, ,
-25, ,16, ,
-25, ,16, ,
-26, ,16, ,
-26, ,16, ,
-25, ,16, ,
-25, ,16, ,
-24, ,16, ,
-23, ,16, ,
-23, ,16, ,
-23, ,16, ,
-23, ,16, ,
-23, ,16, ,
-24, ,16, ,
-25, ,16, ,
-25, ,16, ,
-28, ,16, ,
-28, ,16, ,
-29, ,16, ,
-29, ,16, ,
-28, ,16, ,
-27, ,16, ,
-26, ,16, ,
-25, ,16, ,
-21, ,16, ,
-19, ,16, ,
-16, ,16, ,
-14, ,16, ,
-8, ,16, ,
-5, ,16, ,
-3, ,16, ,
-1, ,16, ,
2, ,16, ,
3, ,16, ,
5, ,16, ,
5, ,16, ,
5, ,16, ,
5, ,16, ,
4, ,16, ,
4, ,16, ,
2, ,16, ,
1, ,16, ,
0, ,16, ,
-1, ,16, ,
-3, ,16, ,
-4, ,16, ,
-5, ,16, ,
-5, ,16, ,
-5, ,16, ,
-5, ,16, ,
-4, ,16, ,
-4, ,16, ,
-2, ,16, ,
0, ,16, ,
1, ,16, ,
2, ,16, ,
6, ,16, ,
8, ,16, ,
11, ,16, ,
12, ,16, ,
16, ,16, ,
18, ,16, ,
19, ,16, ,
21, ,16, ,
21, ,16, ,
21, ,16, ,
21, ,16, ,
19, ,16, ,
17, ,16, ,
15, ,16, ,
13, ,16, ,
11, ,16, ,
5, ,16, ,
2, ,16, ,
0, ,16, ,
-4, ,16, ,
-9, ,16, ,
-11, ,16, ,
-12, ,16, ,
-14, ,16, ,
-14, ,16, ,
-14, ,16, ,
-13, ,16, ,
-12, ,16, ,
-10, ,16, ,
-9, ,16, ,
-8, ,16, ,
-5, ,16, ,
-3, ,16, ,
-2, ,16, ,
-1, ,16, ,
-1, ,16, ,
-1, ,16, ,
-2, ,16, ,
-2, ,16, ,
-3, ,16, ,
-5, ,16, ,
-6, ,16, ,
-7, ,16, ,
-9, ,16, ,
-10, ,16, ,
-11, ,16, ,
-13, ,16, ,
-14, ,16, ,
-15, ,16, ,
-16, ,16, ,
-16, ,16, ,
-17, ,16, ,
-19, ,16, ,
-21, ,16, ,
-22, ,16, ,
-23, ,16, ,
-25, ,16, ,
-25, ,16, ,
-25, ,16, ,
-25, ,16, ,
-23, ,16, ,
-21, ,16, ,
-20, ,16, ,
-18, ,16, ,
-14, ,16, ,
-13, ,16, ,
-11, ,16, ,
-11, ,16, ,
-9, ,16, ,
-8, ,16, ,
-8, ,16, ,
-8, ,16, ,
-9, ,16, ,
-9, ,16, ,
-9, ,16, ,
-9, ,16, ,
-8, ,16, ,
-8, ,16, ,
-7, ,16, ,
-6, ,16, ,
-5, ,16, ,
-3, ,16, ,
-1, ,16, ,
0, ,16, ,
2, ,16, ,
3, ,16, ,
4, ,16, ,
5, ,16, ,
6, ,16, ,
5, ,16, ,
5, ,16, ,
4, ,16, ,
2, ,16, ,
2, ,16, ,
1, ,16, ,
0, ,16, ,
-3, ,16, ,
-5, ,16, ,
-6, ,16, ,
-8, ,16, ,
-10, ,16, ,
-11, ,16, ,
-11, ,16, ,
-11, ,16, ,
-11, ,16, ,
-11, ,16, ,
-10, ,16, ,
-10, ,16, ,
-9, ,16, ,
-8, ,16, ,
-7, ,16, ,
-7, ,16, ,
-7, ,16, ,
-7, ,16, ,
-7, ,16, ,
-7, ,16, ,
-6, ,16, ,
-6, ,16, ,
-6, ,16, ,
-6, ,16, ,
-6, ,16, ,
-6, ,16, ,
-6, ,16, ,
-6, ,16, ,
-6, ,16, ,
-6, ,16, ,
-6, ,16, ,
-6, ,16, ,
-5, ,16, ,
-5, ,16, ,
-5, ,16, ,
-5, ,16, ,
-4, ,16, ,
-3, ,16, ,
-2, ,16, ,
0, ,16, ,
3, ,16, ,
5, ,16, ,
7, ,16, ,
8, ,16, ,
12, ,16, ,
14, ,16, ,
15, ,16, ,
16, ,16, ,
18, ,16, ,
18, ,16, ,
18, ,16, ,
18, ,16, ,
17, ,16, ,
16, ,16, ,
14, ,16, ,
14, ,16, ,
10, ,16, ,
8, ,16, ,
7, ,16, ,
5, ,16, ,
2, ,16, ,
0, ,16, ,
-1, ,16, ,
-3, ,16, ,
-5, ,16, ,
-7, ,16, ,
-8, ,16, ,
-8, ,16, ,
-10, ,16, ,
-11, ,16, ,
-11, ,16, ,
-11, ,16, ,
-12, ,16, ,
-13, ,16, ,
-13, ,16, ,
-13, ,16, ,
-14, ,16, ,
-14, ,16, ,
-14, ,16, ,
-14, ,16, ,
-15, ,16, ,
-15, ,16, ,
-14, ,16, ,
-15, ,16, ,
-16, ,16, ,
-16, ,16, ,
-17, ,16, ,
-17, ,16, ,
-19, ,16, ,
-20, ,16, ,
-20, ,16, ,
-22, ,16, ,
-24, ,16, ,
-24, ,16, ,
-25, ,16, ,
-26, ,16, ,
-27, ,16, ,
-27, ,16, ,
-27, ,16, ,
-27, ,16, ,
-27, ,16, ,
-26, ,16, ,
-25, ,16, ,
-25, ,16, ,
-23, ,16, ,
-21, ,16, ,
-19, ,16, ,
-17, ,16, ,
-13, ,16, ,
-12, ,16, ,
-10, ,16, ,
-9, ,16, ,
-5, ,16, ,
-5, ,16, ,
-4, ,16, ,
-3, ,16, ,
-2, ,16, ,
-1, ,16, ,
-2, ,16, ,
-2, ,16, ,
-3, ,16, ,
-4, ,16, ,
-4, ,16, ,
-5, ,16, ,
-6, ,16, ,
-6, ,16, ,
-6, ,16, ,
-5, ,16, ,
-5, ,16, ,
-4, ,16, ,
-4, ,16, ,
-3, ,16, ,
0, ,16, ,
1, ,16, ,
2, ,16, ,
4, ,16, ,
6, ,16, ,
7, ,16, ,
8, ,16, ,
9, ,16, ,
11, ,16, ,
12, ,16, ,
12, ,16, ,
13, ,16, ,
12, ,16, ,
12, ,16, ,
13, ,16, ,
12, ,16, ,
11, ,16, ,
11, ,16, ,
10, ,16, ,
10, ,16, ,
9, ,16, ,
8, ,16, ,
8, ,16, ,
8, ,16, ,
8, ,16, ,
8, ,16, ,
8, ,16, ,
8, ,16, ,
8, ,16, ,
7, ,16, ,
7, ,16, ,
7, ,16, ,
6, ,16, ,
6, ,16, ,
5, ,16, ,
5, ,16, ,
3, ,16, ,
1, ,16, ,
0, ,16, ,
-1, ,16, ,
-2, ,16, ,
-3, ,16, ,
-4, ,16, ,
-4, ,16, ,
-5, ,16, ,
-5, ,16, ,
-5, ,16, ,
-5, ,16, ,
-4, ,16, ,
-4, ,16, ,
-3, ,16, ,
-2, ,16, ,
-2, ,16, ,
-2, ,16, ,
-1, ,16, ,
-2, ,16, ,
-2, ,16, ,
-2, ,16, ,
-4, ,16, ,
-5, ,16, ,
-7, ,16, ,
-10, ,16, ,
-11, ,16, ,
-13, ,16, ,
-17, ,16, ,
-18, ,16, ,
-20, ,16, ,
-22, ,16, ,
-25, ,16, ,
-26, ,16, ,
-27, ,16, ,
-29, ,16, ,
-31, ,16, ,
-32, ,16, ,
-32, ,16, ,
-32, ,16, ,
-32, ,16, ,
-32, ,16, ,
-31, ,16, ,
-31, ,16, ,
-29, ,16, ,
-28, ,16, ,
-26, ,16, ,
-25, ,16, ,
-21, ,16, ,
-19, ,16, ,
-16, ,16, ,
-14, ,16, ,
-9, ,16, ,
-6, ,16, ,
-4, ,16, ,
-2, ,16, ,
2, ,16, ,
3, ,16, ,
5, ,16, ,
6, ,16, ,
8, ,16, ,
8, ,16, ,
8, ,16, ,
8, ,16, ,
8, ,16, ,
7, ,16, ,
7, ,16, ,
7, ,16, ,
6, ,16, ,
6, ,16, ,
6, ,16, ,
6, ,16, ,
7, ,16, ,
7, ,16, ,
7, ,16, ,
7, ,16, ,
6, ,16, ,
6, ,16, ,
5, ,16, ,
5, ,16, ,
3, ,16, ,
2, ,16, ,
1, ,16, ,
-1, ,16, ,
-4, ,16, ,
-6, ,16, ,
-9, ,16, ,
-9, ,16, ,
-13, ,16, ,
-15, ,16, ,
-16, ,16, ,
-17, ,16, ,
-17, ,16, ,
-16, ,16, ,
-16, ,16, ,
-15, ,16, ,
-12, ,16, ,
-11, ,16, ,
-9, ,16, ,
-7, ,16, ,
-3, ,16, ,
0, ,16, ,
1, ,16, ,
3, ,16, ,
6, ,16, ,
7, ,16, ,
9, ,16, ,
9, ,16, ,
10, ,16, ,
10, ,16, ,
9, ,16, ,
9, ,16, ,
7, ,16, ,
5, ,16, ,
4, ,16, ,
3, ,16, ,
0, ,16, ,
0, ,16, ,
-2, ,16, ,
-3, ,16, ,
-5, ,16, ,
-6, ,16, ,
-6, ,16, ,
-6, ,16, ,
-6, ,16, ,
-6, ,16, ,
-6, ,16, ,
-5, ,16, ,
-4, ,16, ,
-3, ,16, ,
-2, ,16, ,
-2, ,16, ,
1, ,16, ,
2, ,16, ,
2, ,16, ,
3, ,16, ,
4, ,16, ,
4, ,16, ,
4, ,16, ,
3, ,16, ,
2, ,16, ,
2, ,16, ,
1, ,16, ,
0, ,16, ,
-2, ,16, ,
-4, ,16, ,
-5, ,16, ,
-7, ,16, ,
-10, ,16, ,
-11, ,16, ,
-12, ,16, ,
-13, ,16, ,
-14, ,16, ,
-14, ,16, ,
-14, ,16, ,
-14, ,16, ,
-13, ,16, ,
-11, ,16, ,
-11, ,16, ,
-8, ,16, ,
-6, ,16, ,
-4, ,16, ,
-2, ,16, ,
0, ,16, ,
3, ,16, ,
6, ,16, ,
8, ,16, ,
10, ,16, ,
13, ,16, ,
13, ,16, ,
14, ,16, ,
14, ,16, ,
13, ,16, ,
13, ,16, ,
12, ,16, ,
11, ,16, ,
9, ,16, ,
7, ,16, ,
5, ,16, ,
3, ,16, ,
0, ,16, ,
-1, ,16, ,
-3, ,16, ,
-5, ,16, ,
-6, ,16, ,
-6, ,16, ,
-6, ,16, ,
-6, ,16, ,
-6, ,16, ,
-6, ,16, ,
-5, ,16, ,
-4, ,16, ,
-3, ,16, ,
-3, ,16, ,
-2, ,16, ,
-2, ,16, ,
-1, ,16, ,
0, ,16, ,
0, ,16, ,
0, ,16, ,
-1, ,16, ,
-2, ,16, ,
-2, ,16, ,
-3, ,16, ,
-5, ,16, ,
-6, ,16, ,
-8, ,16, ,
-8, ,16, ,
-11, ,16, ,
-12, ,16, ,
-14, ,16, ,
-14, ,16, ,
-15, ,16, ,
-15, ,16, ,
-15, ,16, ,
-14, ,16, ,
-12, ,16, ,
-11, ,16, ,
-9, ,16, ,
-8, ,16, ,
-5, ,16, ,
-2, ,16, ,
-1, ,16, ,
1, ,16, ,
3, ,16, ,
4, ,16, ,
5, ,16, ,
5, ,16, ,
7, ,16, ,
8, ,16, ,
8, ,16, ,
9, ,16, ,
9, ,16, ,
9, ,16, ,
10, ,16, ,
10, ,16, ,
11, ,16, ,
11, ,16, ,
11, ,16, ,
11, ,16, ,
11, ,16, ,
10, ,16, ,
10, ,16, ,
8, ,16, ,
7, ,16, ,
6, ,16, ,
5, ,16, ,
4, ,16, ,
2, ,16, ,
0, ,16, ,
0, ,16, ,
-2, ,16, ,
-4, ,16, ,
-5, ,16, ,
-7, ,16, ,
-7, ,16, ,
-9, ,16, ,
-10, ,16, ,
-11, ,16, ,
-12, ,16, ,
-13, ,16, ,
-13, ,16, ,
-13, ,16, ,
-13, ,16, ,
-13, ,16, ,
-13, ,16, ,
-12, ,16, ,
-12, ,16, ,
-11, ,16, ,
-10, ,16, ,
-10, ,16, ,
-8, ,16, ,
-6, ,16, ,
-5, ,16, ,
-3, ,16, ,
-3, ,16, ,
-1, ,16, ,
1, ,16, ,
2, ,16, ,
3, ,16, ,
4, ,16, ,
4, ,16, ,
5, ,16, ,
6, ,16, ,
6, ,16, ,
7, ,16, ,
7, ,16, ,
7, ,16, ,
6, ,16, ,
5, ,16, ,
5, ,16, ,
5, ,16, ,
4, ,16, ,
4, ,16, ,
4, ,16, ,
4, ,16, ,
3, ,16, ,
3, ,16, ,
3, ,16, ,
3, ,16, ,
3, ,16, ,
3, ,16, ,
3, ,16, ,
3, ,16, ,
3, ,16, ,
3, ,16, ,
2, ,16, ,
2, ,16, ,
1, ,16, ,
1, ,16, ,
0, ,16, ,
-1, ,16, ,
-2, ,16, ,
-4, ,16, ,
-4, ,16, ,
-5, ,16, ,
-6, ,16, ,
-6, ,16, ,
-6, ,16, ,
-7, ,16, ,
-7, ,16, ,
-8, ,16, ,
-8, ,16, ,
-9, ,16, ,
-10, ,16, ,
-10, ,16, ,
-11, ,16, ,
-11, ,16, ,
-12, ,16, ,
-13, ,16, ,
-13, ,16, ,
-13, ,16, ,
-13, ,16, ,
-12, ,16, ,
-11, ,16, ,
-10, ,16, ,
-8, ,16, ,
-7, ,16, ,
-5, ,16, ,
-3, ,16, ,
0, ,16, ,
1, ,16, ,
2, ,16, ,
4, ,16, ,
6, ,16, ,
6, ,16, ,
7, ,16, ,
7, ,16, ,
6, ,16, ,
6, ,16, ,
5, ,16, ,
5, ,16, ,
3, ,16, ,
2, ,16, ,
2, ,16, ,
1, ,16, ,
0, ,16, ,
0, ,16, ,
-2, ,16, ,
-2, ,16, ,
-3, ,16, ,
-3, ,16, ,
-3, ,16, ,
-4, ,16, ,
-5, ,16, ,
-5, ,16, ,
-5, ,16, ,
-5, ,16, ,
-5, ,16, ,
-6, ,16, ,
-5, ,16, ,
-5, ,16, ,
-5, ,16, ,
-4, ,16, ,
-4, ,16, ,
-3, ,16, ,
-1, ,16, ,
-1, ,16, ,
0, ,16, ,
0, ,16, ,
2, ,16, ,
3, ,16, ,
3, ,16, ,
4, ,16, ,
4, ,16, ,
3, ,16, ,
3, ,16, ,
2, ,16, ,
0, ,16, ,
0, ,16, ,
-2, ,16, ,
-3, ,16, ,
-6, ,16, ,
-7, ,16, ,
-8, ,16, ,
-10, ,16, ,
-11, ,16, ,
-11, ,16, ,
-11, ,16, ,
-11, ,16, ,
-11, ,16, ,
-10, ,16, ,
-9, ,16, ,
-9, ,16, ,
-7, ,16, ,
-5, ,16, ,
-3, ,16, ,
-3, ,16, ,
-1, ,16, ,
-1, ,16, ,
1, ,16, ,
1, ,16, ,
2, ,16, ,
2, ,16, ,
2, ,16, ,
2, ,16, ,
1, ,16, ,
0, ,16, ,
0, ,16, ,
-1, ,16, ,
-2, ,16, ,
-2, ,16, ,
-2, ,16, ,
-2, ,16, ,
-3, ,16, ,
-3, ,16, ,
-3, ,16, ,
-3, ,16, ,
-3, ,16, ,
-3, ,16, ,
-3, ,16, ,
-4, ,16, ,
-4, ,16, ,
-4, ,16, ,
-4, ,16, ,
-4, ,16, ,
-4, ,16, ,
-4, ,16, ,
-4, ,16, ,
-4, ,16, ,
-3, ,16, ,
-3, ,16, ,
-2, ,16, ,
-2, ,16, ,
0, ,16, ,
0, ,16, ,
1, ,16, ,
2, ,16, ,
3, ,16, ,
4, ,16, ,
5, ,16, ,
5, ,16, ,
6, ,16, ,
7, ,16, ,
7, ,16, ,
7, ,16, ,
8, ,16, ,
8, ,16, ,
8, ,16, ,
8, ,16, ,
9, ,16, ,
9, ,16, ,
9, ,16, ,
8, ,16, ,
8, ,16, ,
8, ,16, ,
8, ,16, ,
7, ,16, ,
6, ,16, ,
5, ,16, ,
4, ,16, ,
4, ,16, ,
2, ,16, ,
0, ,16, ,
0, ,16, ,
-1, ,16, ,
-4, ,16, ,
-5, ,16, ,
-6, ,16, ,
-6, ,16, ,
-8, ,16, ,
-9, ,16, ,
-9, ,16, ,
-9, ,16, ,
-8, ,16, ,
-8, ,16, ,
-8, ,16, ,
-8, ,16, ,
-6, ,16, ,
-6, ,16, ,
-5, ,16, ,
-5, ,16, ,
-3, ,16, ,
-2, ,16, ,
-1, ,16, ,
0, ,16, ,
1, ,16, ,
1, ,16, ,
2, ,16, ,
2, ,16, ,
3, ,16, ,
3, ,16, ,
3, ,16, ,
3, ,16, ,
3, ,16, ,
3, ,16, ,
3, ,16, ,
3, ,16, ,
4, ,16, ,
4, ,16, ,
4, ,16, ,
5, ,16, ,
5, ,16, ,
4, ,16, ,
4, ,16, ,
4, ,16, ,
4, ,16, ,
4, ,16, ,
3, ,16, ,
3, ,16, ,
2, ,16, ,
1, ,16, ,
1, ,16, ,
0, ,16, ,
-2, ,16, ,
-2, ,16, ,
-3, ,16, ,
-3, ,16, ,
-4, ,16, ,
-4, ,16, ,
-5, ,16, ,
-5, ,16, ,
-5, ,16, ,
-5, ,16, ,
-5, ,16, ,
-5, ,16, ,
-6, ,16, ,
-6, ,16, ,
-5, ,16, ,
-6, ,16, ,
-5, ,16, ,
-4, ,16, ,
-4, ,16, ,
-2, ,16, ,
-1, ,16, ,
-1, ,16, ,
1, ,16, ,
1, ,16, ,
3, ,16, ,
4, ,16, ,
4, ,16, ,
6, ,16, ,
6, ,16, ,
6, ,16, ,
6, ,16, ,
5, ,16, ,
4, ,16, ,
4, ,16, ,
2, ,16, ,
2, ,16, ,
-1, ,16, ,
-3, ,16, ,
-4, ,16, ,
-6, ,16, ,
-8, ,16, ,
-9, ,16, ,
-10, ,16, ,
-10, ,16, ,
-10, ,16, ,
-10, ,16, ,
-9, ,16, ,
-9, ,16, ,
-8, ,16, ,
-7, ,16, ,
-6, ,16, ,
-4, ,16, ,
-1, ,16, ,
0, ,16, ,
2, ,16, ,
2, ,16, ,
4, ,16, ,
5, ,16, ,
5, ,16, ,
6, ,16, ,
7, ,16, ,
6, ,16, ,
6, ,16, ,
6, ,16, ,
6, ,16, ,
6, ,16, ,
5, ,16, ,
5, ,16, ,
4, ,16, ,
4, ,16, ,
4, ,16, ,
3, ,16, ,
3, ,16, ,
3, ,16, ,
3, ,16, ,
3, ,16, ,
2, ,16, ,
2, ,16, ,
2, ,16, ,
2, ,16, ,
2, ,16, ,
2, ,16, ,
2, ,16, ,
2, ,16, ,
1, ,16, ,
1, ,16, ,
1, ,16, ,
0, ,16, ,
-1, ,16, ,
-1, ,16, ,
-3, ,16, ,
-3, ,16, ,
-4, ,16, ,
-5, ,16, ,
-5, ,16, ,
-6, ,16, ,
-6, ,16, ,
-5, ,16, ,
-5, ,16, ,
-5, ,16, ,
-4, ,16, ,
-4, ,16, ,
-3, ,16, ,
-2, ,16, ,
0, ,16, ,
1, ,16, ,
1, ,16, ,
2, ,16, ,
3, ,16, ,
4, ,16, ,
4, ,16, ,
4, ,16, ,
4, ,16, ,
3, ,16, ,
3, ,16, ,
2, ,16, ,
1, ,16, ,
0, ,16, ,
0, ,16, ,
-1, ,16, ,
-2, ,16, ,
-2, ,16, ,
-3, ,16, ,
-3, ,16, ,
-2, ,16, ,
-2, ,16, ,
-2, ,16, ,
-1, ,16, ,
0, ,16, ,
1, ,16, ,
1, ,16, ,
2, ,16, ,
3, ,16, ,
3, ,16, ,
4, ,16, ,
4, ,16, ,
3, ,16, ,
3, ,16, ,
2, ,16, ,
2, ,16, ,
1, ,16, ,
0, ,16, ,
0, ,16, ,
-1, ,16, ,
-2, ,16, ,
-2, ,16, ,
-2, ,16, ,
-2, ,16, ,
-3, ,16, ,
-3, ,16, ,
-3, ,16, ,
-3, ,16, ,
-3, ,16, ,
-3, ,16, ,
-3, ,16, ,
-2, ,16, ,
-2, ,16, ,
-2, ,16, ,
-1, ,16, ,
-1, ,16, ,
0, ,16, ,
1, ,16, ,
1, ,16, ,
3, ,16, ,
4, ,16, ,
5, ,16, ,
5, ,16, ,
6, ,16, ,
7, ,16, ,
7, ,16, ,
7, ,16, ,
7, ,16, ,
7, ,16, ,
6, ,16, ,
6, ,16, ,
5, ,16, ,
4, ,16, ,
3, ,16, ,
2, ,16, ,
2, ,16, ,
1, ,16, ,
0, ,16, ,
0, ,16, ,
0, ,16, ,
1, ,16, ,
1, ,16, ,
1, ,16, ,
1, ,16, ,
1, ,16, ,
0, ,16, ,
0, ,16, ,
0, ,16, ,
0, ,16, ,
0, ,16, ,
-1, ,16, ,
-1, ,16, ,
-2, ,16, ,
-3, ,16, ,
-3, ,16, ,
-4, ,16, ,
-5, ,16, ,
-5, ,16, ,
-5, ,16, ,
-5, ,16, ,
-6, ,16, ,
-6, ,16, ,
-6, ,16, ,
-6, ,16, ,
-6, ,16, ,
-6, ,16, ,
-6, ,16, ,
-6, ,16, ,
-5, ,16, ,
-5, ,16, ,
-4, ,16, ,
-5, ,16, ,
-3, ,16, ,
-2, ,16, ,
-2, ,16, ,
-2, ,16, ,
0, ,16, ,
0, ,16, ,
1, ,16, ,
1, ,16, ,
2, ,16, ,
3, ,16, ,
3, ,16, ,
4, ,16, ,
4, ,16, ,
5, ,16, ,
5, ,16, ,
5, ,16, ,
6, ,16, ,
7, ,16, ,
7, ,16, ,
8, ,16, ,
9, ,16, ,
9, ,16, ,
9, ,16, ,
9, ,16, ,
9, ,16, ,
8, ,16, ,
8, ,16, ,
8, ,16, ,
6, ,16, ,
5, ,16, ,
4, ,16, ,
3, ,16, ,
-1, ,16, ,
-2, ,16, ,
-3, ,16, ,
-4, ,16, ,
-6, ,16, ,
-8, ,16, ,
-9, ,16, ,
-9, ,16, ,
-10, ,16, ,
-10, ,16, ,
-10, ,16, ,
-9, ,16, ,
-9, ,16, ,
-8, ,16, ,
-7, ,16, ,
-6, ,16, ,
-5, ,16, ,
-4, ,16, ,
-3, ,16, ,
-2, ,16, ,
0, ,16, ,
0, ,16, ,
1, ,16, ,
1, ,16, ,
1, ,16, ,
1, ,16, ,
1, ,16, ,
1, ,16, ,
1, ,16, ,
0, ,16, ,
0, ,16, ,
0, ,16, ,
0, ,16, ,
0, ,16, ,
0, ,16, ,
1, ,16, ,
2, ,16, ,
2, ,16, ,
3, ,16, ,
3, ,16, ,
4, ,16, ,
5, ,16, ,
5, ,16, ,
6, ,16, ,
7, ,16, ,
6, ,16, ,
6, ,16, ,
6, ,16, ,
5, ,16, ,
5, ,16, ,
3, ,16, ,
3, ,16, ,
1, ,16, ,
0, ,16, ,
0, ,16, ,
-2, ,16, ,
-4, ,16, ,
-6, ,16, ,
-7, ,16, ,
-8, ,16, ,
-10, ,16, ,
-12, ,16, ,
-13, ,16, ,
-14, ,16, ,
-14, ,16, ,
-14, ,16, ,
-14, ,16, ,
-14, ,16, ,
-12, ,16, ,
-12, ,16, ,
-11, ,16, ,
-9, ,16, ,
-6, ,16, ,
-4, ,16, ,
-3, ,16, ,
0, ,16, ,
4, ,16, ,
5, ,16, ,
7, ,16, ,
8, ,16, ,
9, ,16, ,
11, ,16, ,
11, ,16, ,
11, ,16, ,
10, ,16, ,
10, ,16, ,
9, ,16, ,
9, ,16, ,
7, ,16, ,
7, ,16, ,
6, ,16, ,
5, ,16, ,
4, ,16, ,
4, ,16, ,
4, ,16, ,
4, ,16, ,
3, ,16, ,
3, ,16, ,
3, ,16, ,
4, ,16, ,
4, ,16, ,
4, ,16, ,
4, ,16, ,
4, ,16, ,
4, ,16, ,
4, ,16, ,
4, ,16, ,
4, ,16, ,
4, ,16, ,
4, ,16, ,
4, ,16, ,
4, ,16, ,
4, ,16, ,
4, ,16, ,
4, ,16, ,
4, ,16, ,
3, ,16, ,
2, ,16, ,
2, ,16, ,
1, ,16, ,
0, ,16, ,
-1, ,16, ,
-2, ,16, ,
-3, ,16, ,
-5, ,16, ,
-7, ,16, ,
-7, ,16, ,
-9, ,16, ,
-11, ,16, ,
-11, ,16, ,
-12, ,16, ,
-12, ,16, ,
-13, ,16, ,
-13, ,16, ,
-13, ,16, ,
-12, ,16, ,
-12, ,16, ,
-11, ,16, ,
-10, ,16, ,
-9, ,16, ,
-6, ,16, ,
-5, ,16, ,
