raw_data/75% Glycerol, Impulsion 2Hz, Sonde 5MHz, Rampe 0.7Hz/temp0000153.CSV

Format,1.0B,
Memory Length,10000,Memory Length,10000,
IntpDistance,0,IntpDistance,0,
Trigger Address,159,Trigger Address,159,
Trigger Level,2.720E-01,Trigger Level,2.720E-01,
Source,CH1,Source,CH2,
Vertical Units,V,Vertical Units,V,
Vertical Units Div,0,Vertical Units Div,0,
Vertical Units Extend Div,16,Vertical Units Extend Div,16,
Label,,Label,,
Probe Type,0,Probe Type,0,
Probe Ratio,1.000e+00,Probe Ratio,1.000e+00,
Vertical Scale,5.000e-01,Vertical Scale,2.000e+00,
Vertical Position,0.000e+00,Vertical Position,0.000e+00,
Horizontal Units,S,Horizontal Units,S,
Horizontal Scale,5.000E-06,Horizontal Scale,5.000E-06,
Horizontal Position,2.420E-05,Horizontal Position,2.420E-05,
Horizontal Mode,Main,Horizontal Mode,Main,
SincET Mode,Real Time,SincET Mode,Real Time,
Sampling Period,5.000e-09,Sampling Period,5.000e-09,
Horizontal Old Scale,5.000E-06,Horizontal Old Scale,5.000E-06,
Horizontal Old Position,2.420E-05,Horizontal Old Position,2.420E-05,
Firmware,V1.32,Firmware,V1.32,
Mode,Fast,Mode,Fast,
Waveform Data,,Waveform Data,,
1, ,-12, ,
1, ,-12, ,
1, ,-12, ,
1, ,-12, ,
1, ,-12, ,
0, ,-12, ,
0, ,-12, ,
1, ,-12, ,
0, ,-12, ,
0, ,-12, ,
1, ,-12, ,
1, ,-12, ,
1, ,-12, ,
0, ,-12, ,
0, ,-12, ,
0, ,-12, ,
0, ,-12, ,
1, ,-12, ,
1, ,-12, ,
1, ,-12, ,
1, ,-12, ,
1, ,-12, ,
1, ,-12, ,
1, ,-12, ,
1, ,-12, ,
1, ,-12, ,
1, ,-12, ,
0, ,-12, ,
0, ,-12, ,
0, ,-12, ,
1, ,-12, ,
1, ,-12, ,
0, ,-12, ,
0, ,-12, ,
0, ,-12, ,
0, ,-12, ,
1, ,-12, ,
1, ,-12, ,
1, ,-12, ,
1, ,-12, ,
1, ,-12, ,
1, ,-12, ,
1, ,-12, ,
1, ,-12, ,
1, ,-12, ,
0, ,-12, ,
0, ,-12, ,
1, ,-12, ,
1, ,-12, ,
1, ,-12, ,
0, ,-12, ,
0, ,-12, ,
1, ,-12, ,
1, ,-12, ,
1, ,-12, ,
1, ,-12, ,
0, ,-12, ,
0, ,-12, ,
1, ,-12, ,
1, ,-12, ,
0, ,-12, ,
0, ,-12, ,
1, ,-12, ,
1, ,-12, ,
1, ,-12, ,
1, ,-12, ,
0, ,-12, ,
0, ,-12, ,
0, ,-12, ,
0, ,-12, ,
0, ,-12, ,
0, ,-12, ,
0, ,-12, ,
1, ,-12, ,
1, ,-12, ,
1, ,-12, ,
1, ,-12, ,
0, ,-12, ,
0, ,-12, ,
1, ,-12, ,
1, ,-12, ,
1, ,-12, ,
1, ,-12, ,
0, ,-12, ,
0, ,-12, ,
0, ,-12, ,
0, ,-12, ,
0, ,-12, ,
0, ,-12, ,
0, ,-12, ,
1, ,-12, ,
1, ,-12, ,
1, ,-12, ,
0, ,-12, ,
0, ,-12, ,
1, ,-12, ,
0, ,-12, ,
0, ,-12, ,
1, ,-12, ,
1, ,-12, ,
1, ,-12, ,
1, ,-12, ,
0, ,-12, ,
0, ,-12, ,
0, ,-12, ,
1, ,-12, ,
1, ,-12, ,
1, ,-12, ,
1, ,-12, ,
1, ,-12, ,
0, ,-12, ,
0, ,-12, ,
0, ,-12, ,
1, ,-12, ,
1, ,-12, ,
0, ,-12, ,
0, ,-12, ,
0, ,-12, ,
1, ,-12, ,
1, ,-12, ,
0, ,-12, ,
0, ,-12, ,
0, ,-12, ,
0, ,-12, ,
1, ,-12, ,
1, ,-12, ,
1, ,-12, ,
1, ,-12, ,
1, ,-12, ,
1, ,-12, ,
0, ,-12, ,
0, ,-12, ,
1, ,-12, ,
1, ,-12, ,
1, ,-12, ,
1, ,-12, ,
1, ,-12, ,
1, ,-12, ,
1, ,-12, ,
1, ,-12, ,
1, ,-12, ,
0, ,-12, ,
0, ,-12, ,
1, ,-12, ,
1, ,-12, ,
1, ,-12, ,
1, ,-12, ,
1, ,-12, ,
0, ,-12, ,
0, ,-12, ,
0, ,-12, ,
1, ,-12, ,
1, ,-12, ,
1, ,-12, ,
1, ,-12, ,
1, ,-12, ,
1, ,-12, ,
1, ,-12, ,
1, ,-12, ,
1, ,-12, ,
0, ,-12, ,
0, ,-12, ,
1, ,-12, ,
0, ,-12, ,
2, ,-12, ,
0, ,-12, ,
-1, ,-12, ,
0, ,-12, ,
12, ,-12, ,
37, ,-12, ,
115, ,-12, ,
124, ,-12, ,
122, ,-12, ,
111, ,-12, ,
4, ,-12, ,
-3, ,-12, ,
38, ,-12, ,
94, ,-12, ,
125, ,-12, ,
125, ,-12, ,
125, ,-12, ,
125, ,-12, ,
125, ,-12, ,
124, ,-12, ,
124, ,-12, ,
123, ,-12, ,
111, ,-12, ,
107, ,-12, ,
104, ,-12, ,
101, ,-12, ,
94, ,-12, ,
91, ,-12, ,
87, ,-12, ,
84, ,-12, ,
77, ,-12, ,
75, ,-12, ,
73, ,-12, ,
69, ,-12, ,
64, ,-12, ,
62, ,-12, ,
59, ,-12, ,
57, ,-12, ,
52, ,-12, ,
49, ,-12, ,
47, ,-12, ,
46, ,-12, ,
42, ,-12, ,
40, ,-12, ,
38, ,-12, ,
37, ,-12, ,
34, ,-12, ,
32, ,-12, ,
30, ,-12, ,
28, ,-12, ,
26, ,-12, ,
25, ,-12, ,
25, ,-12, ,
24, ,-12, ,
22, ,-12, ,
21, ,-12, ,
20, ,-12, ,
19, ,-12, ,
17, ,-12, ,
16, ,-12, ,
15, ,-12, ,
15, ,-12, ,
13, ,-12, ,
12, ,-12, ,
12, ,-12, ,
11, ,-12, ,
10, ,-12, ,
9, ,-12, ,
8, ,-12, ,
8, ,-12, ,
7, ,-12, ,
7, ,-12, ,
6, ,-12, ,
5, ,-12, ,
5, ,-12, ,
5, ,-12, ,
4, ,-12, ,
4, ,-12, ,
4, ,-12, ,
3, ,-12, ,
3, ,-12, ,
3, ,-12, ,
2, ,-12, ,
2, ,-12, ,
2, ,-12, ,
2, ,-12, ,
1, ,-12, ,
1, ,-12, ,
1, ,-12, ,
1, ,-12, ,
0, ,-12, ,
0, ,-12, ,
0, ,-12, ,
0, ,-12, ,
0, ,-12, ,
0, ,-12, ,
0, ,-12, ,
0, ,-12, ,
-1, ,-12, ,
-1, ,-12, ,
0, ,-12, ,
-1, ,-12, ,
-1, ,-12, ,
-1, ,-12, ,
-1, ,-12, ,
-1, ,-12, ,
-1, ,-12, ,
-1, ,-12, ,
-1, ,-12, ,
-1, ,-12, ,
-1, ,-12, ,
-1, ,-12, ,
-1, ,-12, ,
-1, ,-12, ,
-1, ,-12, ,
-1, ,-12, ,
-1, ,-12, ,
-1, ,-12, ,
-1, ,-12, ,
-1, ,-12, ,
-1, ,-12, ,
-1, ,-12, ,
-1, ,-12, ,
-1, ,-12, ,
-1, ,-12, ,
-1, ,-12, ,
-1, ,-12, ,
-1, ,-12, ,
-1, ,-12, ,
-2, ,-12, ,
-2, ,-12, ,
-1, ,-12, ,
-1, ,-12, ,
-1, ,-12, ,
-1, ,-12, ,
-1, ,-12, ,
-1, ,-12, ,
-1, ,-12, ,
-1, ,-12, ,
-1, ,-12, ,
-1, ,-12, ,
-1, ,-12, ,
-1, ,-12, ,
-1, ,-12, ,
-1, ,-12, ,
-1, ,-12, ,
-1, ,-12, ,
0, ,-12, ,
-1, ,-12, ,
-1, ,-12, ,
0, ,-12, ,
-1, ,-12, ,
-1, ,-12, ,
-1, ,-12, ,
-1, ,-12, ,
0, ,-12, ,
0, ,-12, ,
0, ,-12, ,
0, ,-12, ,
-1, ,-12, ,
-1, ,-12, ,
-1, ,-12, ,
-1, ,-12, ,
-1, ,-12, ,
-1, ,-12, ,
0, ,-12, ,
0, ,-12, ,
0, ,-12, ,
0, ,-12, ,
0, ,-12, ,
0, ,-12, ,
0, ,-12, ,
0, ,-12, ,
0, ,-12, ,
0, ,-12, ,
0, ,-12, ,
0, ,-12, ,
0, ,-12, ,
0, ,-12, ,
0, ,-12, ,
0, ,-12, ,
0, ,-12, ,
0, ,-12, ,
0, ,-12, ,
0, ,-12, ,
0, ,-12, ,
0, ,-12, ,
0, ,-12, ,
0, ,-12, ,
0, ,-12, ,
0, ,-12, ,
0, ,-12, ,
0, ,-12, ,
0, ,-12, ,
0, ,-12, ,
0, ,-12, ,
0, ,-12, ,
0, ,-12, ,
0, ,-12, ,
0, ,-12, ,
0, ,-12, ,
0, ,-12, ,
0, ,-12, ,
0, ,-12, ,
0, ,-12, ,
0, ,-12, ,
0, ,-12, ,
0, ,-12, ,
0, ,-12, ,
0, ,-12, ,
0, ,-12, ,
0, ,-12, ,
0, ,-12, ,
0, ,-12, ,
0, ,-12, ,
0, ,-12, ,
0, ,-12, ,
0, ,-12, ,
0, ,-12, ,
0, ,-12, ,
0, ,-12, ,
0, ,-12, ,
0, ,-12, ,
0, ,-12, ,
0, ,-12, ,
0, ,-12, ,
0, ,-12, ,
0, ,-12, ,
0, ,-12, ,
0, ,-12, ,
0, ,-12, ,
0, ,-12, ,
1, ,-12, ,
0, ,-12, ,
0, ,-12, ,
1, ,-12, ,
0, ,-12, ,
0, ,-12, ,
0, ,-12, ,
0, ,-12, ,
0, ,-12, ,
0, ,-12, ,
0, ,-12, ,
0, ,-12, ,
0, ,-12, ,
0, ,-12, ,
0, ,-12, ,
0, ,-12, ,
0, ,-12, ,
0, ,-12, ,
0, ,-12, ,
1, ,-12, ,
1, ,-12, ,
1, ,-12, ,
1, ,-12, ,
1, ,-12, ,
1, ,-12, ,
1, ,-12, ,
1, ,-12, ,
1, ,-12, ,
0, ,-12, ,
0, ,-12, ,
1, ,-12, ,
1, ,-12, ,
0, ,-12, ,
0, ,-12, ,
0, ,-12, ,
0, ,-12, ,
0, ,-12, ,
0, ,-12, ,
1, ,-12, ,
0, ,-12, ,
0, ,-12, ,
0, ,-12, ,
-1, ,-12, ,
-1, ,-12, ,
-2, ,-12, ,
-2, ,-12, ,
-4, ,-12, ,
-6, ,-12, ,
-6, ,-12, ,
-7, ,-12, ,
-7, ,-12, ,
-6, ,-12, ,
-5, ,-12, ,
-4, ,-12, ,
-2, ,-12, ,
-1, ,-12, ,
0, ,-12, ,
0, ,-12, ,
1, ,-12, ,
1, ,-12, ,
1, ,-12, ,
2, ,-12, ,
1, ,-12, ,
1, ,-12, ,
1, ,-12, ,
1, ,-12, ,
0, ,-12, ,
-1, ,-12, ,
-1, ,-12, ,
-1, ,-12, ,
-2, ,-12, ,
-2, ,-12, ,
-2, ,-12, ,
-2, ,-12, ,
-1, ,-12, ,
0, ,-12, ,
0, ,-12, ,
1, ,-12, ,
2, ,-12, ,
1, ,-12, ,
1, ,-12, ,
1, ,-12, ,
2, ,-12, ,
2, ,-12, ,
1, ,-12, ,
1, ,-12, ,
0, ,-12, ,
0, ,-12, ,
0, ,-12, ,
0, ,-12, ,
0, ,-12, ,
0, ,-12, ,
0, ,-12, ,
0, ,-12, ,
0, ,-12, ,
0, ,-12, ,
1, ,-12, ,
1, ,-12, ,
2, ,-12, ,
2, ,-12, ,
2, ,-12, ,
2, ,-12, ,
2, ,-12, ,
1, ,-12, ,
1, ,-12, ,
1, ,-12, ,
1, ,-12, ,
1, ,-12, ,
1, ,-12, ,
1, ,-12, ,
2, ,-12, ,
2, ,-12, ,
2, ,-12, ,
2, ,-12, ,
2, ,-12, ,
2, ,-12, ,
2, ,-12, ,
2, ,-12, ,
2, ,-12, ,
2, ,-12, ,
2, ,-12, ,
2, ,-12, ,
1, ,-12, ,
1, ,-12, ,
0, ,-12, ,
0, ,-12, ,
-2, ,-12, ,
-3, ,-12, ,
-4, ,-12, ,
-6, ,-12, ,
-9, ,-12, ,
-11, ,-12, ,
-13, ,-12, ,
-15, ,-12, ,
-18, ,-12, ,
-19, ,-12, ,
-20, ,-12, ,
-20, ,-12, ,
-19, ,-12, ,
-19, ,-12, ,
-19, ,-12, ,
-18, ,-12, ,
-17, ,-12, ,
-17, ,-12, ,
-17, ,-12, ,
-17, ,-12, ,
-18, ,-12, ,
-18, ,-12, ,
-18, ,-12, ,
-18, ,-12, ,
-18, ,-12, ,
-18, ,-12, ,
-17, ,-12, ,
-17, ,-12, ,
-16, ,-12, ,
-16, ,-12, ,
-16, ,-12, ,
-16, ,-12, ,
-18, ,-12, ,
-19, ,-12, ,
-20, ,-12, ,
-21, ,-12, ,
-25, ,-12, ,
-25, ,-12, ,
-28, ,-12, ,
-29, ,-12, ,
-31, ,-12, ,
-31, ,-12, ,
-30, ,-12, ,
-30, ,-12, ,
-27, ,-12, ,
-26, ,-12, ,
-24, ,-12, ,
-22, ,-12, ,
-17, ,-12, ,
-14, ,-12, ,
-12, ,-12, ,
-10, ,-12, ,
-7, ,-12, ,
-6, ,-12, ,
-5, ,-12, ,
-4, ,-12, ,
-4, ,-12, ,
-4, ,-12, ,
-5, ,-12, ,
-5, ,-12, ,
-5, ,-12, ,
-5, ,-12, ,
-5, ,-12, ,
-5, ,-12, ,
-4, ,-12, ,
-4, ,-12, ,
-3, ,-12, ,
-3, ,-12, ,
-1, ,-12, ,
0, ,-12, ,
0, ,-12, ,
2, ,-12, ,
4, ,-12, ,
4, ,-12, ,
6, ,-12, ,
6, ,-12, ,
7, ,-12, ,
8, ,-12, ,
8, ,-12, ,
8, ,-12, ,
8, ,-12, ,
8, ,-12, ,
8, ,-12, ,
8, ,-12, ,
8, ,-12, ,
8, ,-12, ,
8, ,-12, ,
8, ,-12, ,
8, ,-12, ,
8, ,-12, ,
9, ,-12, ,
9, ,-12, ,
9, ,-12, ,
9, ,-12, ,
9, ,-12, ,
9, ,-12, ,
10, ,-12, ,
10, ,-12, ,
10, ,-12, ,
10, ,-12, ,
9, ,-12, ,
9, ,-12, ,
8, ,-12, ,
8, ,-12, ,
6, ,-12, ,
5, ,-12, ,
4, ,-12, ,
3, ,-12, ,
-1, ,-12, ,
-2, ,-12, ,
-5, ,-12, ,
-7, ,-12, ,
-11, ,-12, ,
-15, ,-12, ,
-17, ,-12, ,
-20, ,-12, ,
-25, ,-12, ,
-26, ,-12, ,
-28, ,-12, ,
-30, ,-12, ,
-33, ,-12, ,
-33, ,-12, ,
-33, ,-12, ,
-33, ,-12, ,
-31, ,-12, ,
-29, ,-12, ,
-26, ,-12, ,
-25, ,-12, ,
-20, ,-12, ,
-18, ,-12, ,
-15, ,-12, ,
-13, ,-12, ,
-10, ,-12, ,
-8, ,-12, ,
-7, ,-12, ,
-5, ,-12, ,
-3, ,-12, ,
-2, ,-12, ,
-1, ,-12, ,
0, ,-12, ,
2, ,-12, ,
4, ,-12, ,
4, ,-12, ,
4, ,-12, ,
4, ,-12, ,
3, ,-12, ,
3, ,-12, ,
1, ,-12, ,
0, ,-12, ,
-1, ,-12, ,
-2, ,-12, ,
-3, ,-12, ,
-6, ,-12, ,
-7, ,-12, ,
-7, ,-12, ,
-8, ,-12, ,
-8, ,-12, ,
-8, ,-12, ,
-9, ,-12, ,
-9, ,-12, ,
-8, ,-12, ,
-8, ,-12, ,
-8, ,-12, ,
-8, ,-12, ,
-8, ,-12, ,
-8, ,-12, ,
-8, ,-12, ,
-9, ,-12, ,
-9, ,-12, ,
-10, ,-12, ,
-10, ,-12, ,
-11, ,-12, ,
-12, ,-12, ,
-12, ,-12, ,
-13, ,-12, ,
-13, ,-12, ,
-14, ,-12, ,
-16, ,-12, ,
-16, ,-12, ,
-16, ,-12, ,
-16, ,-12, ,
-16, ,-12, ,
-16, ,-12, ,
-15, ,-12, ,
-13, ,-12, ,
-12, ,-12, ,
-11, ,-12, ,
-9, ,-12, ,
-6, ,-12, ,
-4, ,-12, ,
-3, ,-12, ,
-1, ,-12, ,
1, ,-12, ,
3, ,-12, ,
4, ,-12, ,
5, ,-12, ,
7, ,-12, ,
9, ,-12, ,
9, ,-12, ,
10, ,-12, ,
11, ,-12, ,
11, ,-12, ,
11, ,-12, ,
10, ,-12, ,
9, ,-12, ,
9, ,-12, ,
8, ,-12, ,
7, ,-12, ,
6, ,-12, ,
5, ,-12, ,
4, ,-12, ,
3, ,-12, ,
2, ,-12, ,
1, ,-12, ,
0, ,-12, ,
0, ,-12, ,
0, ,-12, ,
-1, ,-12, ,
-1, ,-12, ,
-1, ,-12, ,
-1, ,-12, ,
-1, ,-12, ,
-2, ,-12, ,
-2, ,-12, ,
-2, ,-12, ,
-2, ,-12, ,
-1, ,-12, ,
-1, ,-12, ,
-1, ,-12, ,
-1, ,-12, ,
-1, ,-12, ,
0, ,-12, ,
0, ,-12, ,
0, ,-12, ,
1, ,-12, ,
1, ,-12, ,
2, ,-12, ,
2, ,-12, ,
2, ,-12, ,
2, ,-12, ,
2, ,-12, ,
1, ,-12, ,
1, ,-12, ,
0, ,-12, ,
-1, ,-12, ,
-2, ,-12, ,
-4, ,-12, ,
-5, ,-12, ,
-9, ,-12, ,
-11, ,-12, ,
-13, ,-12, ,
-15, ,-12, ,
-19, ,-12, ,
-20, ,-12, ,
-22, ,-12, ,
-23, ,-12, ,
-24, ,-12, ,
-24, ,-12, ,
-24, ,-12, ,
-23, ,-12, ,
-22, ,-12, ,
-21, ,-12, ,
-20, ,-12, ,
-18, ,-12, ,
-16, ,-12, ,
-15, ,-12, ,
-13, ,-12, ,
-13, ,-12, ,
-13, ,-12, ,
-13, ,-12, ,
-13, ,-12, ,
-14, ,-12, ,
-15, ,-12, ,
-16, ,-12, ,
-16, ,-12, ,
-18, ,-12, ,
-20, ,-12, ,
-20, ,-12, ,
-22, ,-12, ,
-22, ,-12, ,
-23, ,-12, ,
-23, ,-12, ,
-23, ,-12, ,
-23, ,-12, ,
-22, ,-12, ,
-22, ,-12, ,
-22, ,-12, ,
-20, ,-12, ,
-19, ,-12, ,
-17, ,-12, ,
-16, ,-12, ,
-15, ,-12, ,
-12, ,-12, ,
-10, ,-12, ,
-9, ,-12, ,
-8, ,-12, ,
-5, ,-12, ,
-4, ,-12, ,
-3, ,-12, ,
-2, ,-12, ,
1, ,-12, ,
3, ,-12, ,
4, ,-12, ,
5, ,-12, ,
9, ,-12, ,
10, ,-12, ,
12, ,-12, ,
13, ,-12, ,
15, ,-12, ,
17, ,-12, ,
17, ,-12, ,
18, ,-12, ,
19, ,-12, ,
19, ,-12, ,
19, ,-12, ,
18, ,-12, ,
17, ,-12, ,
16, ,-12, ,
15, ,-12, ,
15, ,-12, ,
12, ,-12, ,
11, ,-12, ,
10, ,-12, ,
9, ,-12, ,
7, ,-12, ,
6, ,-12, ,
5, ,-12, ,
4, ,-12, ,
2, ,-12, ,
2, ,-12, ,
2, ,-12, ,
1, ,-12, ,
1, ,-12, ,
1, ,-12, ,
1, ,-12, ,
1, ,-12, ,
2, ,-12, ,
2, ,-12, ,
2, ,-12, ,
2, ,-12, ,
3, ,-12, ,
4, ,-12, ,
4, ,-12, ,
5, ,-12, ,
5, ,-12, ,
5, ,-12, ,
5, ,-12, ,
4, ,-12, ,
3, ,-12, ,
2, ,-12, ,
1, ,-12, ,
0, ,-12, ,
-3, ,-12, ,
-6, ,-12, ,
-7, ,-12, ,
-10, ,-12, ,
-15, ,-12, ,
-17, ,-12, ,
-19, ,-12, ,
-21, ,-12, ,
-25, ,-12, ,
-25, ,-12, ,
-26, ,-12, ,
-26, ,-12, ,
-25, ,-12, ,
-25, ,-12, ,
-25, ,-12, ,
-23, ,-12, ,
-21, ,-12, ,
-20, ,-12, ,
-18, ,-12, ,
-17, ,-12, ,
-14, ,-12, ,
-13, ,-12, ,
-13, ,-12, ,
-12, ,-12, ,
-11, ,-12, ,
-11, ,-12, ,
-11, ,-12, ,
-11, ,-12, ,
-11, ,-12, ,
-10, ,-12, ,
-10, ,-12, ,
-9, ,-12, ,
-9, ,-12, ,
-7, ,-12, ,
-6, ,-12, ,
-6, ,-12, ,
-4, ,-12, ,
-2, ,-12, ,
-2, ,-12, ,
-2, ,-12, ,
-2, ,-12, ,
-2, ,-12, ,
-2, ,-12, ,
-4, ,-12, ,
-6, ,-12, ,
-6, ,-12, ,
-7, ,-12, ,
-8, ,-12, ,
-11, ,-12, ,
-12, ,-12, ,
-12, ,-12, ,
-14, ,-12, ,
-14, ,-12, ,
-14, ,-12, ,
-14, ,-12, ,
-14, ,-12, ,
-13, ,-12, ,
-12, ,-12, ,
-11, ,-12, ,
-10, ,-12, ,
-8, ,-12, ,
-7, ,-12, ,
-5, ,-12, ,
-4, ,-12, ,
-1, ,-12, ,
0, ,-12, ,
2, ,-12, ,
3, ,-12, ,
5, ,-12, ,
7, ,-12, ,
7, ,-12, ,
7, ,-12, ,
7, ,-12, ,
6, ,-12, ,
6, ,-12, ,
5, ,-12, ,
4, ,-12, ,
4, ,-12, ,
2, ,-12, ,
2, ,-12, ,
0, ,-12, ,
-1, ,-12, ,
-1, ,-12, ,
-2, ,-12, ,
-4, ,-12, ,
-4, ,-12, ,
-4, ,-12, ,
-4, ,-12, ,
-5, ,-12, ,
-6, ,-12, ,
-6, ,-12, ,
-6, ,-12, ,
-7, ,-12, ,
-6, ,-12, ,
-6, ,-12, ,
-6, ,-12, ,
-5, ,-12, ,
-5, ,-12, ,
-5, ,-12, ,
-5, ,-12, ,
-4, ,-12, ,
-3, ,-12, ,
-3, ,-12, ,
-2, ,-12, ,
0, ,-12, ,
0, ,-12, ,
1, ,-12, ,
1, ,-12, ,
3, ,-12, ,
3, ,-12, ,
3, ,-12, ,
4, ,-12, ,
4, ,-12, ,
4, ,-12, ,
4, ,-12, ,
3, ,-12, ,
3, ,-12, ,
3, ,-12, ,
2, ,-12, ,
2, ,-12, ,
1, ,-12, ,
-1, ,-12, ,
-1, ,-12, ,
-2, ,-12, ,
-3, ,-12, ,
-4, ,-12, ,
-4, ,-12, ,
-4, ,-12, ,
-5, ,-12, ,
-5, ,-12, ,
-5, ,-12, ,
-5, ,-12, ,
-4, ,-12, ,
-4, ,-12, ,
-3, ,-12, ,
-3, ,-12, ,
-2, ,-12, ,
-2, ,-12, ,
-1, ,-12, ,
-2, ,-12, ,
-1, ,-12, ,
-1, ,-12, ,
-1, ,-12, ,
-1, ,-12, ,
-2, ,-12, ,
-2, ,-12, ,
-1, ,-12, ,
-2, ,-12, ,
-3, ,-12, ,
-3, ,-12, ,
-3, ,-12, ,
-3, ,-12, ,
-3, ,-12, ,
-3, ,-12, ,
-3, ,-12, ,
-3, ,-12, ,
-3, ,-12, ,
-3, ,-12, ,
-2, ,-12, ,
-2, ,-12, ,
-2, ,-12, ,
-2, ,-12, ,
-1, ,-12, ,
-1, ,-12, ,
0, ,-12, ,
1, ,-12, ,
1, ,-12, ,
2, ,-12, ,
3, ,-12, ,
3, ,-12, ,
3, ,-12, ,
4, ,-12, ,
5, ,-12, ,
5, ,-12, ,
5, ,-12, ,
5, ,-12, ,
5, ,-12, ,
4, ,-12, ,
4, ,-12, ,
2, ,-12, ,
1, ,-12, ,
0, ,-12, ,
-1, ,-12, ,
-2, ,-12, ,
-5, ,-12, ,
-6, ,-12, ,
-7, ,-12, ,
-8, ,-12, ,
-10, ,-12, ,
-10, ,-12, ,
-11, ,-12, ,
-11, ,-12, ,
-11, ,-12, ,
-11, ,-12, ,
-11, ,-12, ,
-11, ,-12, ,
-10, ,-12, ,
-9, ,-12, ,
-9, ,-12, ,
-8, ,-12, ,
-7, ,-12, ,
-6, ,-12, ,
-4, ,-12, ,
-5, ,-12, ,
-2, ,-12, ,
-1, ,-12, ,
1, ,-12, ,
2, ,-12, ,
5, ,-12, ,
5, ,-12, ,
7, ,-12, ,
7, ,-12, ,
8, ,-12, ,
9, ,-12, ,
8, ,-12, ,
8, ,-12, ,
7, ,-12, ,
6, ,-12, ,
6, ,-12, ,
4, ,-12, ,
2, ,-12, ,
1, ,-12, ,
-2, ,-12, ,
-2, ,-12, ,
-5, ,-12, ,
-6, ,-12, ,
-6, ,-12, ,
-7, ,-12, ,
-7, ,-12, ,
-6, ,-12, ,
-6, ,-12, ,
-6, ,-12, ,
-4, ,-12, ,
-3, ,-12, ,
-3, ,-12, ,
-2, ,-12, ,
0, ,-12, ,
1, ,-12, ,
2, ,-12, ,
2, ,-12, ,
2, ,-12, ,
2, ,-12, ,
1, ,-12, ,
1, ,-12, ,
0, ,-12, ,
-1, ,-12, ,
-2, ,-12, ,
-2, ,-12, ,
-3, ,-12, ,
-3, ,-12, ,
-3, ,-12, ,
-3, ,-12, ,
-2, ,-12, ,
-2, ,-12, ,
-1, ,-12, ,
0, ,-12, ,
2, ,-12, ,
2, ,-12, ,
4, ,-12, ,
5, ,-12, ,
5, ,-12, ,
6, ,-12, ,
6, ,-12, ,
6, ,-12, ,
6, ,-12, ,
4, ,-12, ,
4, ,-12, ,
3, ,-12, ,
1, ,-12, ,
0, ,-12, ,
-2, ,-12, ,
-3, ,-12, ,
-6, ,-12, ,
-7, ,-12, ,
-8, ,-12, ,
-10, ,-12, ,
-11, ,-12, ,
-11, ,-12, ,
-11, ,-12, ,
-11, ,-12, ,
-9, ,-12, ,
-9, ,-12, ,
-8, ,-12, ,
-7, ,-12, ,
-5, ,-12, ,
-3, ,-12, ,
-2, ,-12, ,
-1, ,-12, ,
2, ,-12, ,
2, ,-12, ,
4, ,-12, ,
3, ,-12, ,
3, ,-12, ,
3, ,-12, ,
1, ,-12, ,
1, ,-12, ,
1, ,-12, ,
-1, ,-12, ,
-2, ,-12, ,
-3, ,-12, ,
-4, ,-12, ,
-4, ,-12, ,
-5, ,-12, ,
-5, ,-12, ,
-4, ,-12, ,
-4, ,-12, ,
-3, ,-12, ,
-3, ,-12, ,
-2, ,-12, ,
-1, ,-12, ,
-1, ,-12, ,
0, ,-12, ,
2, ,-12, ,
3, ,-12, ,
3, ,-12, ,
4, ,-12, ,
5, ,-12, ,
5, ,-12, ,
5, ,-12, ,
6, ,-12, ,
7, ,-12, ,
7, ,-12, ,
7, ,-12, ,
7, ,-12, ,
6, ,-12, ,
6, ,-12, ,
5, ,-12, ,
5, ,-12, ,
3, ,-12, ,
2, ,-12, ,
1, ,-12, ,
0, ,-12, ,
-3, ,-12, ,
-4, ,-12, ,
-5, ,-12, ,
-6, ,-12, ,
-8, ,-12, ,
-9, ,-12, ,
-10, ,-12, ,
-10, ,-12, ,
-11, ,-12, ,
-11, ,-12, ,
-11, ,-12, ,
-11, ,-12, ,
-10, ,-12, ,
-10, ,-12, ,
-10, ,-12, ,
-10, ,-12, ,
-10, ,-12, ,
-9, ,-12, ,
-9, ,-12, ,
-9, ,-12, ,
-8, ,-12, ,
-8, ,-12, ,
-8, ,-12, ,
-8, ,-12, ,
-8, ,-12, ,
-8, ,-12, ,
-8, ,-12, ,
-8, ,-12, ,
-8, ,-12, ,
-8, ,-12, ,
-7, ,-12, ,
-7, ,-12, ,
-6, ,-12, ,
-5, ,-12, ,
-5, ,-12, ,
-4, ,-12, ,
-2, ,-12, ,
-2, ,-12, ,
0, ,-12, ,
1, ,-12, ,
2, ,-12, ,
4, ,-12, ,
5, ,-12, ,
6, ,-12, ,
7, ,-12, ,
7, ,-12, ,
7, ,-12, ,
7, ,-12, ,
7, ,-12, ,
7, ,-12, ,
6, ,-12, ,
6, ,-12, ,
5, ,-12, ,
4, ,-12, ,
4, ,-12, ,
3, ,-12, ,
2, ,-12, ,
2, ,-12, ,
0, ,-12, ,
0, ,-12, ,
-1, ,-12, ,
-1, ,-12, ,
-2, ,-12, ,
-2, ,-12, ,
-2, ,-12, ,
-2, ,-12, ,
-3, ,-12, ,
-3, ,-12, ,
-4, ,-12, ,
-4, ,-12, ,
-5, ,-12, ,
-5, ,-12, ,
-6, ,-12, ,
-6, ,-12, ,
-6, ,-12, ,
-6, ,-12, ,
-7, ,-12, ,
-7, ,-12, ,
-7, ,-12, ,
-7, ,-12, ,
-7, ,-12, ,
-6, ,-12, ,
-7, ,-12, ,
-6, ,-12, ,
-5, ,-12, ,
-5, ,-12, ,
-4, ,-12, ,
-4, ,-12, ,
-2, ,-12, ,
-1, ,-12, ,
-1, ,-12, ,
0, ,-12, ,
2, ,-12, ,
2, ,-12, ,
2, ,-12, ,
2, ,-12, ,
2, ,-12, ,
2, ,-12, ,
2, ,-12, ,
2, ,-12, ,
1, ,-12, ,
1, ,-12, ,
1, ,-12, ,
1, ,-12, ,
1, ,-12, ,
1, ,-12, ,
1, ,-12, ,
1, ,-12, ,
2, ,-12, ,
2, ,-12, ,
2, ,-12, ,
3, ,-12, ,
3, ,-12, ,
2, ,-12, ,
2, ,-12, ,
2, ,-12, ,
1, ,-12, ,
1, ,-12, ,
0, ,-12, ,
0, ,-12, ,
-2, ,-12, ,
-2, ,-12, ,
-3, ,-12, ,
-3, ,-12, ,
-3, ,-12, ,
-3, ,-12, ,
-3, ,-12, ,
-3, ,-12, ,
-2, ,-12, ,
-1, ,-12, ,
-1, ,-12, ,
1, ,-12, ,
2, ,-12, ,
3, ,-12, ,
4, ,-12, ,
5, ,-12, ,
6, ,-12, ,
6, ,-12, ,
6, ,-12, ,
6, ,-12, ,
5, ,-12, ,
4, ,-12, ,
4, ,-12, ,
3, ,-12, ,
1, ,-12, ,
0, ,-12, ,
-1, ,-12, ,
-2, ,-12, ,
-3, ,-12, ,
-4, ,-12, ,
-5, ,-12, ,
-5, ,-12, ,
-5, ,-12, ,
-5, ,-12, ,
-5, ,-12, ,
-4, ,-12, ,
-3, ,-12, ,
-2, ,-12, ,
-1, ,-12, ,
-1, ,-12, ,
1, ,-12, ,
2, ,-12, ,
3, ,-12, ,
4, ,-12, ,
6, ,-12, ,
6, ,-12, ,
7, ,-12, ,
7, ,-12, ,
7, ,-12, ,
7, ,-12, ,
6, ,-12, ,
6, ,-12, ,
5, ,-12, ,
4, ,-12, ,
4, ,-12, ,
3, ,-12, ,
2, ,-12, ,
1, ,-12, ,
-1, ,-12, ,
-1, ,-12, ,
-3, ,-12, ,
-4, ,-12, ,
-5, ,-12, ,
-5, ,-12, ,
-6, ,-12, ,
-6, ,-12, ,
-7, ,-12, ,
-7, ,-12, ,
-6, ,-12, ,
-6, ,-12, ,
-6, ,-12, ,
-5, ,-12, ,
-4, ,-12, ,
-3, ,-12, ,
-3, ,-12, ,
-2, ,-12, ,
0, ,-12, ,
0, ,-12, ,
1, ,-12, ,
1, ,-12, ,
1, ,-12, ,
1, ,-12, ,
1, ,-12, ,
1, ,-12, ,
0, ,-12, ,
-1, ,-12, ,
-2, ,-12, ,
-2, ,-12, ,
-3, ,-12, ,
-3, ,-12, ,
-4, ,-12, ,
-4, ,-12, ,
-3, ,-12, ,
-3, ,-12, ,
-3, ,-12, ,
-2, ,-12, ,
-2, ,-12, ,
0, ,-12, ,
0, ,-12, ,
0, ,-12, ,
1, ,-12, ,
1, ,-12, ,
1, ,-12, ,
1, ,-12, ,
0, ,-12, ,
0, ,-12, ,
0, ,-12, ,
0, ,-12, ,
-1, ,-12, ,
-1, ,-12, ,
-1, ,-12, ,
-1, ,-12, ,
-1, ,-12, ,
0, ,-12, ,
0, ,-12, ,
1, ,-12, ,
3, ,-12, ,
3, ,-12, ,
4, ,-12, ,
4, ,-12, ,
5, ,-12, ,
6, ,-12, ,
6, ,-12, ,
7, ,-12, ,
6, ,-12, ,
5, ,-12, ,
5, ,-12, ,
4, ,-12, ,
2, ,-12, ,
1, ,-12, ,
0, ,-12, ,
-1, ,-12, ,
-3, ,-12, ,
-5, ,-12, ,
-5, ,-12, ,
-5, ,-12, ,
-5, ,-12, ,
-5, ,-12, ,
-5, ,-12, ,
-5, ,-12, ,
-4, ,-12, ,
-3, ,-12, ,
-2, ,-12, ,
-2, ,-12, ,
-1, ,-12, ,
1, ,-12, ,
1, ,-12, ,
2, ,-12, ,
2, ,-12, ,
2, ,-12, ,
2, ,-12, ,
1, ,-12, ,
1, ,-12, ,
1, ,-12, ,
-1, ,-12, ,
-1, ,-12, ,
-2, ,-12, ,
-3, ,-12, ,
-3, ,-12, ,
-4, ,-12, ,
-4, ,-12, ,
-4, ,-12, ,
-4, ,-12, ,
-4, ,-12, ,
-4, ,-12, ,
-4, ,-12, ,
-4, ,-12, ,
-3, ,-12, ,
-2, ,-12, ,
-1, ,-12, ,
-1, ,-12, ,
0, ,-12, ,
2, ,-12, ,
1, ,-12, ,
3, ,-12, ,
3, ,-12, ,
4, ,-12, ,
4, ,-12, ,
4, ,-12, ,
5, ,-12, ,
5, ,-12, ,
5, ,-12, ,
4, ,-12, ,
4, ,-12, ,
3, ,-12, ,
2, ,-12, ,
2, ,-12, ,
2, ,-12, ,
1, ,-12, ,
0, ,-12, ,
0, ,-12, ,
0, ,-12, ,
-1, ,-12, ,
-1, ,-12, ,
-1, ,-12, ,
0, ,-12, ,
0, ,-12, ,
0, ,-12, ,
1, ,-12, ,
1, ,-12, ,
3, ,-12, ,
3, ,-12, ,
3, ,-12, ,
3, ,-12, ,
4, ,-12, ,
4, ,-12, ,
5, ,-12, ,
5, ,-12, ,
5, ,-12, ,
5, ,-12, ,
4, ,-12, ,
4, ,-12, ,
3, ,-12, ,
2, ,-12, ,
2, ,-12, ,
1, ,-12, ,
0, ,-12, ,
0, ,-12, ,
0, ,-12, ,
0, ,-12, ,
0, ,-12, ,
0, ,-12, ,
0, ,-12, ,
0, ,-12, ,
1, ,-12, ,
2, ,-12, ,
2, ,-12, ,
2, ,-12, ,
2, ,-12, ,
2, ,-12, ,
2, ,-12, ,
2, ,-12, ,
1, ,-12, ,
1, ,-12, ,
0, ,-12, ,
0, ,-12, ,
-1, ,-12, ,
-2, ,-12, ,
-3, ,-12, ,
-4, ,-12, ,
-6, ,-12, ,
-6, ,-12, ,
-7, ,-12, ,
-7, ,-12, ,
-8, ,-12, ,
-8, ,-12, ,
-8, ,-12, ,
-8, ,-12, ,
-7, ,-12, ,
-6, ,-12, ,
-6, ,-12, ,
-5, ,-12, ,
-3, ,-12, ,
-2, ,-12, ,
0, ,-12, ,
0, ,-12, ,
3, ,-12, ,
4, ,-12, ,
6, ,-12, ,
7, ,-12, ,
8, ,-12, ,
9, ,-12, ,
10, ,-12, ,
9, ,-12, ,
9, ,-12, ,
8, ,-12, ,
8, ,-12, ,
7, ,-12, ,
5, ,-12, ,
4, ,-12, ,
2, ,-12, ,
0, ,-12, ,
-2, ,-12, ,
-2, ,-12, ,
-4, ,-12, ,
-5, ,-12, ,
-6, ,-12, ,
-6, ,-12, ,
-6, ,-12, ,
-6, ,-12, ,
-5, ,-12, ,
-5, ,-12, ,
-4, ,-12, ,
-3, ,-12, ,
-1, ,-12, ,
-1, ,-12, ,
1, ,-12, ,
1, ,-12, ,
2, ,-12, ,
3, ,-12, ,
3, ,-12, ,
4, ,-12, ,
5, ,-12, ,
5, ,-12, ,
5, ,-12, ,
5, ,-12, ,
4, ,-12, ,
4, ,-12, ,
4, ,-12, ,
3, ,-12, ,
3, ,-12, ,
2, ,-12, ,
2, ,-12, ,
1, ,-12, ,
0, ,-12, ,
-2, ,-12, ,
