raw_data/75% Glycerol, Impulsion 2Hz, Sonde 5MHz, Rampe 0.7Hz/temp0000150.CSV

Format,1.0B,
Memory Length,10000,Memory Length,10000,
IntpDistance,0,IntpDistance,0,
Trigger Address,159,Trigger Address,159,
Trigger Level,2.720E-01,Trigger Level,2.720E-01,
Source,CH1,Source,CH2,
Vertical Units,V,Vertical Units,V,
Vertical Units Div,0,Vertical Units Div,0,
Vertical Units Extend Div,16,Vertical Units Extend Div,16,
Label,,Label,,
Probe Type,0,Probe Type,0,
Probe Ratio,1.000e+00,Probe Ratio,1.000e+00,
Vertical Scale,5.000e-01,Vertical Scale,2.000e+00,
Vertical Position,0.000e+00,Vertical Position,0.000e+00,
Horizontal Units,S,Horizontal Units,S,
Horizontal Scale,5.000E-06,Horizontal Scale,5.000E-06,
Horizontal Position,2.420E-05,Horizontal Position,2.420E-05,
Horizontal Mode,Main,Horizontal Mode,Main,
SincET Mode,Real Time,SincET Mode,Real Time,
Sampling Period,5.000e-09,Sampling Period,5.000e-09,
Horizontal Old Scale,5.000E-06,Horizontal Old Scale,5.000E-06,
Horizontal Old Position,2.420E-05,Horizontal Old Position,2.420E-05,
Firmware,V1.32,Firmware,V1.32,
Mode,Fast,Mode,Fast,
Waveform Data,,Waveform Data,,
1, ,22, ,
1, ,22, ,
0, ,22, ,
0, ,22, ,
1, ,22, ,
1, ,22, ,
1, ,22, ,
0, ,22, ,
0, ,22, ,
1, ,22, ,
1, ,22, ,
1, ,22, ,
1, ,22, ,
1, ,22, ,
1, ,22, ,
0, ,22, ,
0, ,22, ,
1, ,22, ,
0, ,22, ,
0, ,22, ,
1, ,22, ,
0, ,22, ,
0, ,22, ,
1, ,22, ,
1, ,22, ,
1, ,22, ,
1, ,22, ,
1, ,22, ,
1, ,22, ,
0, ,22, ,
0, ,22, ,
1, ,22, ,
0, ,22, ,
0, ,22, ,
0, ,22, ,
0, ,22, ,
0, ,22, ,
0, ,22, ,
1, ,22, ,
1, ,22, ,
0, ,22, ,
0, ,22, ,
0, ,22, ,
0, ,22, ,
1, ,22, ,
0, ,22, ,
0, ,22, ,
0, ,22, ,
0, ,22, ,
1, ,22, ,
1, ,22, ,
1, ,22, ,
1, ,22, ,
1, ,22, ,
1, ,22, ,
1, ,22, ,
1, ,22, ,
1, ,22, ,
1, ,22, ,
1, ,22, ,
1, ,22, ,
0, ,22, ,
0, ,22, ,
1, ,22, ,
1, ,22, ,
1, ,22, ,
1, ,22, ,
0, ,22, ,
0, ,22, ,
0, ,22, ,
1, ,22, ,
1, ,22, ,
0, ,22, ,
0, ,22, ,
1, ,22, ,
1, ,22, ,
1, ,22, ,
1, ,22, ,
1, ,22, ,
1, ,22, ,
1, ,22, ,
1, ,22, ,
1, ,22, ,
0, ,22, ,
0, ,22, ,
0, ,22, ,
0, ,22, ,
0, ,22, ,
0, ,22, ,
1, ,22, ,
0, ,22, ,
0, ,22, ,
0, ,22, ,
0, ,22, ,
0, ,22, ,
1, ,22, ,
1, ,22, ,
1, ,22, ,
0, ,22, ,
0, ,22, ,
0, ,22, ,
0, ,22, ,
0, ,22, ,
1, ,22, ,
0, ,22, ,
0, ,22, ,
0, ,22, ,
0, ,22, ,
0, ,22, ,
0, ,22, ,
1, ,22, ,
1, ,22, ,
0, ,22, ,
0, ,22, ,
0, ,22, ,
0, ,22, ,
0, ,22, ,
0, ,22, ,
0, ,22, ,
1, ,22, ,
1, ,22, ,
1, ,22, ,
0, ,22, ,
0, ,22, ,
0, ,22, ,
1, ,22, ,
1, ,22, ,
0, ,22, ,
0, ,22, ,
0, ,22, ,
0, ,22, ,
0, ,22, ,
0, ,22, ,
0, ,22, ,
1, ,22, ,
0, ,22, ,
0, ,22, ,
0, ,22, ,
0, ,22, ,
0, ,22, ,
0, ,22, ,
0, ,22, ,
0, ,22, ,
1, ,22, ,
1, ,22, ,
1, ,22, ,
1, ,22, ,
0, ,22, ,
0, ,22, ,
0, ,22, ,
0, ,22, ,
1, ,22, ,
1, ,22, ,
1, ,22, ,
0, ,22, ,
0, ,22, ,
0, ,22, ,
0, ,22, ,
0, ,22, ,
0, ,22, ,
0, ,22, ,
0, ,22, ,
0, ,22, ,
0, ,22, ,
-1, ,22, ,
0, ,22, ,
-2, ,22, ,
22, ,22, ,
52, ,22, ,
94, ,22, ,
125, ,22, ,
121, ,22, ,
89, ,22, ,
28, ,22, ,
-7, ,22, ,
65, ,22, ,
115, ,22, ,
125, ,22, ,
125, ,22, ,
125, ,22, ,
125, ,22, ,
125, ,22, ,
125, ,22, ,
124, ,22, ,
120, ,22, ,
114, ,22, ,
109, ,22, ,
102, ,22, ,
100, ,22, ,
96, ,22, ,
93, ,22, ,
85, ,22, ,
82, ,22, ,
79, ,22, ,
76, ,22, ,
71, ,22, ,
68, ,22, ,
65, ,22, ,
63, ,22, ,
58, ,22, ,
55, ,22, ,
54, ,22, ,
51, ,22, ,
46, ,22, ,
45, ,22, ,
42, ,22, ,
41, ,22, ,
37, ,22, ,
36, ,22, ,
35, ,22, ,
32, ,22, ,
29, ,22, ,
28, ,22, ,
27, ,22, ,
25, ,22, ,
24, ,22, ,
23, ,22, ,
22, ,22, ,
21, ,22, ,
19, ,22, ,
18, ,22, ,
17, ,22, ,
17, ,22, ,
15, ,22, ,
14, ,22, ,
14, ,22, ,
12, ,22, ,
11, ,22, ,
11, ,22, ,
10, ,22, ,
9, ,22, ,
8, ,22, ,
8, ,22, ,
7, ,22, ,
6, ,22, ,
6, ,22, ,
6, ,22, ,
5, ,22, ,
5, ,22, ,
4, ,22, ,
4, ,22, ,
4, ,22, ,
3, ,22, ,
3, ,22, ,
3, ,22, ,
3, ,22, ,
2, ,22, ,
2, ,22, ,
1, ,22, ,
1, ,22, ,
1, ,22, ,
1, ,22, ,
1, ,22, ,
0, ,22, ,
0, ,22, ,
0, ,22, ,
0, ,22, ,
0, ,22, ,
0, ,22, ,
0, ,22, ,
0, ,22, ,
-1, ,22, ,
-1, ,22, ,
-1, ,22, ,
-1, ,22, ,
-1, ,22, ,
-1, ,22, ,
-1, ,22, ,
-1, ,22, ,
-1, ,22, ,
-1, ,22, ,
-1, ,22, ,
-1, ,22, ,
-1, ,22, ,
-1, ,22, ,
-1, ,22, ,
-1, ,22, ,
-1, ,22, ,
-1, ,22, ,
-1, ,22, ,
-1, ,22, ,
-1, ,22, ,
-1, ,22, ,
-1, ,22, ,
-1, ,22, ,
-1, ,22, ,
-1, ,22, ,
-1, ,22, ,
-1, ,22, ,
-1, ,22, ,
-1, ,22, ,
-1, ,22, ,
-1, ,22, ,
-1, ,22, ,
-1, ,22, ,
-1, ,22, ,
-1, ,22, ,
-1, ,22, ,
-1, ,22, ,
-1, ,22, ,
-1, ,22, ,
-1, ,22, ,
-1, ,22, ,
-1, ,22, ,
-1, ,22, ,
-1, ,22, ,
-1, ,22, ,
-1, ,22, ,
-1, ,22, ,
-1, ,22, ,
-1, ,22, ,
-1, ,22, ,
-1, ,22, ,
-1, ,22, ,
-1, ,22, ,
-1, ,22, ,
-1, ,22, ,
-1, ,22, ,
0, ,22, ,
-1, ,22, ,
-1, ,22, ,
-1, ,22, ,
-1, ,22, ,
0, ,22, ,
0, ,22, ,
0, ,22, ,
0, ,22, ,
0, ,22, ,
-1, ,22, ,
-1, ,22, ,
-1, ,22, ,
0, ,22, ,
-1, ,22, ,
-1, ,22, ,
-1, ,22, ,
0, ,22, ,
0, ,22, ,
0, ,22, ,
0, ,22, ,
0, ,22, ,
0, ,22, ,
0, ,22, ,
0, ,22, ,
0, ,22, ,
0, ,22, ,
0, ,22, ,
0, ,22, ,
0, ,22, ,
0, ,22, ,
0, ,22, ,
0, ,22, ,
0, ,22, ,
0, ,22, ,
0, ,22, ,
0, ,22, ,
0, ,22, ,
0, ,22, ,
0, ,22, ,
0, ,22, ,
0, ,22, ,
0, ,22, ,
0, ,22, ,
0, ,22, ,
0, ,21, ,
0, ,21, ,
0, ,21, ,
0, ,22, ,
0, ,22, ,
0, ,22, ,
0, ,22, ,
0, ,22, ,
0, ,22, ,
0, ,22, ,
0, ,22, ,
0, ,22, ,
0, ,22, ,
0, ,22, ,
0, ,22, ,
0, ,22, ,
0, ,22, ,
0, ,22, ,
0, ,22, ,
0, ,22, ,
0, ,22, ,
0, ,22, ,
0, ,22, ,
0, ,22, ,
0, ,22, ,
0, ,22, ,
0, ,22, ,
0, ,22, ,
0, ,22, ,
0, ,22, ,
0, ,22, ,
0, ,22, ,
0, ,22, ,
0, ,22, ,
0, ,22, ,
0, ,22, ,
1, ,22, ,
0, ,22, ,
0, ,22, ,
0, ,22, ,
0, ,22, ,
0, ,22, ,
0, ,22, ,
0, ,22, ,
0, ,22, ,
0, ,22, ,
0, ,22, ,
0, ,22, ,
0, ,22, ,
1, ,22, ,
1, ,22, ,
1, ,22, ,
0, ,22, ,
0, ,22, ,
1, ,22, ,
1, ,22, ,
1, ,22, ,
1, ,22, ,
1, ,22, ,
0, ,22, ,
0, ,22, ,
0, ,22, ,
0, ,22, ,
0, ,22, ,
0, ,22, ,
0, ,22, ,
0, ,22, ,
1, ,22, ,
1, ,22, ,
0, ,22, ,
0, ,22, ,
0, ,22, ,
0, ,22, ,
0, ,22, ,
0, ,22, ,
-1, ,22, ,
-2, ,22, ,
-3, ,22, ,
-3, ,22, ,
-4, ,22, ,
-7, ,22, ,
-7, ,22, ,
-7, ,22, ,
-6, ,22, ,
-5, ,22, ,
-4, ,22, ,
-3, ,22, ,
-3, ,22, ,
-1, ,22, ,
0, ,22, ,
0, ,22, ,
1, ,22, ,
1, ,22, ,
1, ,22, ,
1, ,22, ,
1, ,22, ,
1, ,22, ,
1, ,22, ,
1, ,22, ,
0, ,22, ,
0, ,22, ,
1, ,22, ,
0, ,22, ,
0, ,22, ,
1, ,22, ,
1, ,22, ,
1, ,22, ,
1, ,22, ,
2, ,22, ,
2, ,22, ,
2, ,22, ,
2, ,22, ,
2, ,22, ,
2, ,22, ,
2, ,22, ,
2, ,22, ,
1, ,22, ,
1, ,22, ,
1, ,22, ,
1, ,22, ,
0, ,22, ,
-1, ,22, ,
-1, ,22, ,
-1, ,22, ,
-2, ,22, ,
-2, ,22, ,
-1, ,22, ,
-1, ,22, ,
-1, ,22, ,
-1, ,22, ,
-1, ,22, ,
-1, ,22, ,
-1, ,22, ,
-2, ,22, ,
-2, ,22, ,
-2, ,22, ,
-3, ,22, ,
-3, ,22, ,
-3, ,22, ,
-3, ,22, ,
-2, ,22, ,
-2, ,22, ,
-2, ,22, ,
-1, ,22, ,
0, ,22, ,
1, ,22, ,
1, ,22, ,
2, ,22, ,
3, ,22, ,
3, ,22, ,
3, ,22, ,
3, ,22, ,
3, ,22, ,
3, ,22, ,
3, ,22, ,
3, ,22, ,
2, ,22, ,
1, ,22, ,
1, ,22, ,
1, ,22, ,
0, ,22, ,
-2, ,22, ,
-2, ,22, ,
-3, ,22, ,
-5, ,22, ,
-6, ,22, ,
-6, ,22, ,
-7, ,22, ,
-7, ,22, ,
-6, ,22, ,
-6, ,22, ,
-6, ,22, ,
-6, ,22, ,
-7, ,22, ,
-7, ,22, ,
-8, ,22, ,
-11, ,22, ,
-12, ,22, ,
-16, ,22, ,
-19, ,22, ,
-27, ,22, ,
-32, ,22, ,
-37, ,22, ,
-42, ,22, ,
-47, ,22, ,
-47, ,22, ,
-47, ,22, ,
-47, ,22, ,
-45, ,22, ,
-44, ,22, ,
-43, ,22, ,
-41, ,22, ,
-39, ,22, ,
-37, ,22, ,
-36, ,22, ,
-35, ,22, ,
-35, ,22, ,
-34, ,22, ,
-33, ,22, ,
-32, ,21, ,
-29, ,21, ,
-28, ,22, ,
-25, ,22, ,
-24, ,22, ,
-19, ,22, ,
-17, ,22, ,
-14, ,22, ,
-12, ,22, ,
-7, ,22, ,
-5, ,22, ,
-3, ,22, ,
-2, ,22, ,
1, ,22, ,
1, ,22, ,
2, ,22, ,
3, ,22, ,
5, ,22, ,
7, ,22, ,
8, ,22, ,
9, ,22, ,
13, ,22, ,
14, ,22, ,
15, ,22, ,
17, ,22, ,
19, ,22, ,
21, ,22, ,
20, ,22, ,
21, ,22, ,
20, ,22, ,
20, ,22, ,
19, ,22, ,
18, ,22, ,
16, ,22, ,
14, ,22, ,
12, ,22, ,
10, ,22, ,
7, ,22, ,
4, ,22, ,
2, ,22, ,
0, ,22, ,
-3, ,22, ,
-4, ,22, ,
-5, ,22, ,
-5, ,22, ,
-6, ,22, ,
-6, ,22, ,
-6, ,22, ,
-6, ,22, ,
-6, ,22, ,
-6, ,22, ,
-6, ,22, ,
-5, ,22, ,
-4, ,22, ,
-3, ,22, ,
-2, ,22, ,
-2, ,22, ,
0, ,22, ,
2, ,22, ,
2, ,22, ,
4, ,22, ,
5, ,22, ,
6, ,22, ,
7, ,22, ,
8, ,22, ,
8, ,22, ,
9, ,22, ,
9, ,22, ,
9, ,22, ,
8, ,22, ,
7, ,22, ,
7, ,22, ,
6, ,22, ,
4, ,22, ,
3, ,22, ,
1, ,22, ,
-1, ,22, ,
-5, ,22, ,
-7, ,22, ,
-9, ,22, ,
-12, ,22, ,
-17, ,22, ,
-20, ,22, ,
-23, ,22, ,
-24, ,22, ,
-28, ,22, ,
-31, ,22, ,
-32, ,22, ,
-34, ,22, ,
-38, ,22, ,
-39, ,22, ,
-40, ,22, ,
-42, ,22, ,
-42, ,22, ,
-42, ,22, ,
-41, ,22, ,
-41, ,22, ,
-37, ,22, ,
-35, ,22, ,
-32, ,22, ,
-28, ,22, ,
-22, ,22, ,
-18, ,22, ,
-14, ,22, ,
-11, ,22, ,
-4, ,22, ,
-1, ,22, ,
2, ,22, ,
4, ,22, ,
8, ,22, ,
10, ,22, ,
12, ,22, ,
13, ,22, ,
15, ,22, ,
16, ,22, ,
16, ,22, ,
16, ,22, ,
16, ,22, ,
16, ,22, ,
15, ,22, ,
15, ,22, ,
14, ,22, ,
13, ,22, ,
12, ,22, ,
11, ,22, ,
8, ,22, ,
7, ,22, ,
5, ,22, ,
3, ,22, ,
0, ,22, ,
-2, ,22, ,
-4, ,22, ,
-5, ,22, ,
-9, ,22, ,
-11, ,22, ,
-13, ,22, ,
-14, ,22, ,
-16, ,22, ,
-16, ,22, ,
-17, ,22, ,
-17, ,22, ,
-15, ,22, ,
-15, ,22, ,
-13, ,22, ,
-14, ,22, ,
-12, ,22, ,
-10, ,22, ,
-10, ,22, ,
-9, ,22, ,
-9, ,22, ,
-10, ,22, ,
-10, ,22, ,
-11, ,22, ,
-12, ,22, ,
-13, ,22, ,
-13, ,22, ,
-13, ,22, ,
-13, ,22, ,
-13, ,22, ,
-13, ,22, ,
-12, ,22, ,
-11, ,22, ,
-9, ,22, ,
-8, ,22, ,
-6, ,22, ,
-3, ,22, ,
-1, ,22, ,
1, ,22, ,
3, ,22, ,
7, ,22, ,
9, ,22, ,
10, ,22, ,
12, ,22, ,
15, ,22, ,
17, ,22, ,
18, ,22, ,
18, ,22, ,
19, ,22, ,
19, ,22, ,
18, ,22, ,
18, ,22, ,
17, ,22, ,
16, ,22, ,
15, ,22, ,
13, ,22, ,
10, ,22, ,
8, ,22, ,
6, ,22, ,
5, ,22, ,
1, ,22, ,
-1, ,22, ,
-2, ,22, ,
-3, ,22, ,
-6, ,22, ,
-6, ,22, ,
-7, ,22, ,
-7, ,22, ,
-8, ,22, ,
-8, ,22, ,
-8, ,22, ,
-9, ,22, ,
-9, ,22, ,
-9, ,22, ,
-10, ,22, ,
-10, ,22, ,
-11, ,22, ,
-11, ,22, ,
-11, ,22, ,
-12, ,22, ,
-13, ,22, ,
-13, ,22, ,
-14, ,22, ,
-15, ,22, ,
-16, ,22, ,
-16, ,22, ,
-17, ,22, ,
-17, ,22, ,
-18, ,22, ,
-19, ,22, ,
-20, ,22, ,
-20, ,22, ,
-21, ,22, ,
-22, ,22, ,
-23, ,22, ,
-24, ,22, ,
-25, ,22, ,
-26, ,22, ,
-26, ,22, ,
-27, ,22, ,
-27, ,22, ,
-27, ,22, ,
-27, ,22, ,
-27, ,22, ,
-25, ,22, ,
-24, ,22, ,
-24, ,22, ,
-22, ,22, ,
-18, ,22, ,
-17, ,22, ,
-15, ,22, ,
-14, ,22, ,
-10, ,22, ,
-9, ,22, ,
-9, ,22, ,
-7, ,22, ,
-6, ,22, ,
-6, ,22, ,
-5, ,22, ,
-5, ,22, ,
-4, ,22, ,
-4, ,22, ,
-4, ,22, ,
-3, ,22, ,
-3, ,22, ,
-3, ,22, ,
-3, ,22, ,
-2, ,22, ,
-2, ,22, ,
-1, ,22, ,
-1, ,22, ,
-1, ,22, ,
2, ,22, ,
2, ,22, ,
3, ,22, ,
4, ,22, ,
7, ,22, ,
8, ,22, ,
9, ,22, ,
10, ,22, ,
13, ,22, ,
13, ,22, ,
15, ,22, ,
15, ,22, ,
16, ,22, ,
16, ,22, ,
15, ,22, ,
15, ,22, ,
14, ,22, ,
13, ,22, ,
12, ,22, ,
11, ,22, ,
8, ,22, ,
8, ,22, ,
6, ,22, ,
5, ,22, ,
3, ,22, ,
2, ,22, ,
1, ,22, ,
0, ,22, ,
0, ,22, ,
0, ,22, ,
0, ,22, ,
0, ,22, ,
0, ,22, ,
1, ,22, ,
2, ,22, ,
1, ,22, ,
2, ,22, ,
3, ,22, ,
3, ,22, ,
4, ,22, ,
5, ,22, ,
4, ,22, ,
4, ,22, ,
4, ,22, ,
3, ,22, ,
3, ,22, ,
2, ,22, ,
1, ,22, ,
0, ,22, ,
-3, ,22, ,
-3, ,22, ,
-5, ,22, ,
-9, ,22, ,
-11, ,22, ,
-13, ,22, ,
-16, ,22, ,
-20, ,22, ,
-22, ,22, ,
-23, ,22, ,
-25, ,22, ,
-26, ,22, ,
-26, ,22, ,
-26, ,22, ,
-25, ,22, ,
-24, ,22, ,
-23, ,22, ,
-22, ,22, ,
-20, ,22, ,
-17, ,22, ,
-14, ,22, ,
-12, ,22, ,
-10, ,22, ,
-6, ,22, ,
-5, ,22, ,
-3, ,22, ,
-2, ,22, ,
0, ,22, ,
1, ,22, ,
0, ,22, ,
0, ,22, ,
-1, ,22, ,
-2, ,22, ,
-3, ,22, ,
-5, ,22, ,
-7, ,22, ,
-8, ,22, ,
-10, ,22, ,
-12, ,22, ,
-14, ,22, ,
-16, ,22, ,
-18, ,22, ,
-18, ,22, ,
-19, ,22, ,
-19, ,22, ,
-19, ,22, ,
-19, ,22, ,
-17, ,22, ,
-17, ,22, ,
-15, ,22, ,
-13, ,22, ,
-9, ,22, ,
-7, ,22, ,
-6, ,22, ,
-3, ,22, ,
0, ,22, ,
1, ,22, ,
3, ,22, ,
3, ,22, ,
5, ,22, ,
5, ,22, ,
5, ,22, ,
5, ,22, ,
4, ,22, ,
3, ,22, ,
2, ,22, ,
1, ,22, ,
-1, ,22, ,
-2, ,22, ,
-4, ,22, ,
-5, ,22, ,
-6, ,22, ,
-8, ,22, ,
-8, ,22, ,
-9, ,22, ,
-10, ,22, ,
-10, ,22, ,
-10, ,22, ,
-10, ,22, ,
-10, ,22, ,
-9, ,22, ,
-8, ,22, ,
-8, ,22, ,
-6, ,22, ,
-5, ,22, ,
-3, ,22, ,
-2, ,22, ,
0, ,22, ,
1, ,22, ,
2, ,22, ,
3, ,22, ,
4, ,22, ,
4, ,22, ,
5, ,22, ,
5, ,22, ,
5, ,22, ,
5, ,22, ,
4, ,22, ,
4, ,22, ,
4, ,22, ,
4, ,22, ,
4, ,22, ,
3, ,22, ,
3, ,22, ,
2, ,22, ,
2, ,22, ,
0, ,22, ,
-1, ,22, ,
-2, ,22, ,
-2, ,22, ,
-4, ,22, ,
-5, ,22, ,
-6, ,22, ,
-7, ,22, ,
-7, ,22, ,
-8, ,22, ,
-8, ,22, ,
-8, ,22, ,
-8, ,22, ,
-6, ,22, ,
-6, ,22, ,
-5, ,22, ,
-4, ,22, ,
-1, ,22, ,
0, ,22, ,
1, ,22, ,
3, ,22, ,
5, ,22, ,
7, ,22, ,
8, ,22, ,
8, ,22, ,
10, ,22, ,
11, ,22, ,
11, ,22, ,
10, ,22, ,
9, ,22, ,
9, ,22, ,
8, ,22, ,
6, ,22, ,
4, ,22, ,
3, ,22, ,
1, ,22, ,
-1, ,22, ,
-4, ,22, ,
-5, ,22, ,
-7, ,22, ,
-8, ,22, ,
-12, ,22, ,
-12, ,22, ,
-13, ,22, ,
-14, ,22, ,
-15, ,22, ,
-15, ,22, ,
-15, ,22, ,
-15, ,22, ,
-14, ,22, ,
-13, ,22, ,
-12, ,22, ,
-11, ,22, ,
-8, ,22, ,
-8, ,22, ,
-7, ,22, ,
-5, ,22, ,
-2, ,22, ,
-1, ,22, ,
0, ,22, ,
1, ,22, ,
3, ,22, ,
4, ,22, ,
5, ,22, ,
5, ,22, ,
5, ,22, ,
6, ,22, ,
6, ,22, ,
6, ,22, ,
5, ,22, ,
4, ,22, ,
4, ,22, ,
3, ,22, ,
2, ,22, ,
1, ,22, ,
0, ,22, ,
0, ,22, ,
-3, ,22, ,
-3, ,22, ,
-4, ,22, ,
-5, ,22, ,
-7, ,22, ,
-7, ,22, ,
-8, ,22, ,
-8, ,22, ,
-8, ,22, ,
-8, ,22, ,
-7, ,22, ,
-7, ,22, ,
-6, ,22, ,
-5, ,22, ,
-5, ,22, ,
-3, ,22, ,
-1, ,22, ,
0, ,22, ,
1, ,22, ,
2, ,22, ,
4, ,22, ,
5, ,22, ,
5, ,22, ,
6, ,22, ,
6, ,22, ,
6, ,22, ,
6, ,22, ,
5, ,22, ,
4, ,22, ,
3, ,22, ,
2, ,22, ,
1, ,22, ,
0, ,22, ,
-1, ,22, ,
-1, ,22, ,
-2, ,22, ,
-2, ,22, ,
-2, ,22, ,
-2, ,22, ,
-2, ,22, ,
-1, ,22, ,
0, ,22, ,
0, ,22, ,
0, ,22, ,
1, ,22, ,
1, ,22, ,
1, ,22, ,
1, ,22, ,
1, ,22, ,
0, ,22, ,
0, ,22, ,
-1, ,22, ,
-2, ,22, ,
-2, ,22, ,
-3, ,22, ,
-3, ,22, ,
-4, ,22, ,
-4, ,22, ,
-4, ,22, ,
-4, ,22, ,
-5, ,22, ,
-5, ,22, ,
-5, ,22, ,
-5, ,22, ,
-5, ,22, ,
-6, ,22, ,
-6, ,22, ,
-6, ,22, ,
-7, ,22, ,
-7, ,22, ,
-7, ,22, ,
-7, ,22, ,
-7, ,22, ,
-7, ,22, ,
-6, ,22, ,
-5, ,22, ,
-5, ,22, ,
-4, ,22, ,
-4, ,22, ,
-3, ,22, ,
-2, ,22, ,
-2, ,22, ,
-1, ,22, ,
-1, ,22, ,
0, ,22, ,
1, ,22, ,
1, ,22, ,
1, ,22, ,
3, ,22, ,
3, ,22, ,
4, ,22, ,
4, ,22, ,
5, ,22, ,
7, ,22, ,
8, ,22, ,
8, ,22, ,
9, ,22, ,
10, ,22, ,
11, ,22, ,
11, ,22, ,
11, ,22, ,
11, ,22, ,
11, ,22, ,
10, ,22, ,
9, ,22, ,
8, ,22, ,
8, ,22, ,
6, ,22, ,
3, ,22, ,
2, ,22, ,
0, ,22, ,
-1, ,22, ,
-5, ,22, ,
-7, ,22, ,
-9, ,22, ,
-11, ,22, ,
-13, ,22, ,
-13, ,22, ,
-14, ,22, ,
-14, ,22, ,
-13, ,22, ,
-13, ,22, ,
-12, ,22, ,
-11, ,22, ,
-8, ,22, ,
-6, ,22, ,
-4, ,22, ,
-2, ,22, ,
1, ,22, ,
2, ,22, ,
4, ,22, ,
4, ,22, ,
4, ,22, ,
3, ,22, ,
1, ,22, ,
1, ,22, ,
-3, ,22, ,
-6, ,22, ,
-8, ,22, ,
-11, ,22, ,
-16, ,22, ,
-17, ,22, ,
-19, ,22, ,
-20, ,22, ,
-21, ,22, ,
-21, ,22, ,
-21, ,22, ,
-20, ,22, ,
-17, ,22, ,
-14, ,22, ,
-12, ,22, ,
-9, ,22, ,
-2, ,22, ,
0, ,22, ,
3, ,22, ,
6, ,22, ,
11, ,22, ,
14, ,22, ,
15, ,22, ,
18, ,22, ,
19, ,22, ,
18, ,22, ,
18, ,22, ,
17, ,22, ,
16, ,22, ,
14, ,22, ,
13, ,22, ,
11, ,22, ,
7, ,22, ,
5, ,22, ,
2, ,22, ,
1, ,22, ,
-4, ,22, ,
-4, ,22, ,
-5, ,22, ,
-6, ,22, ,
-8, ,22, ,
-8, ,22, ,
-8, ,22, ,
-8, ,22, ,
-8, ,22, ,
-8, ,22, ,
-8, ,22, ,
-7, ,22, ,
-6, ,22, ,
-6, ,22, ,
-6, ,22, ,
-6, ,22, ,
-6, ,22, ,
-6, ,22, ,
-6, ,22, ,
-6, ,22, ,
-7, ,22, ,
-7, ,22, ,
-8, ,22, ,
-8, ,22, ,
-9, ,22, ,
-9, ,22, ,
-10, ,22, ,
-10, ,22, ,
-11, ,22, ,
-11, ,22, ,
-11, ,22, ,
-11, ,22, ,
-11, ,22, ,
-10, ,22, ,
-10, ,22, ,
-9, ,22, ,
-8, ,22, ,
-7, ,22, ,
-6, ,22, ,
-6, ,22, ,
-3, ,22, ,
-2, ,22, ,
-1, ,22, ,
0, ,22, ,
3, ,22, ,
3, ,22, ,
4, ,22, ,
5, ,22, ,
6, ,22, ,
7, ,22, ,
7, ,22, ,
7, ,22, ,
7, ,22, ,
7, ,22, ,
6, ,22, ,
6, ,22, ,
5, ,22, ,
4, ,22, ,
2, ,22, ,
2, ,22, ,
0, ,22, ,
-2, ,22, ,
-2, ,22, ,
-4, ,22, ,
-5, ,22, ,
-5, ,22, ,
-6, ,22, ,
-6, ,22, ,
-5, ,22, ,
-5, ,22, ,
-4, ,22, ,
-3, ,22, ,
-1, ,22, ,
1, ,22, ,
1, ,22, ,
3, ,22, ,
6, ,22, ,
7, ,22, ,
8, ,22, ,
9, ,22, ,
10, ,22, ,
11, ,22, ,
11, ,22, ,
11, ,22, ,
10, ,22, ,
9, ,22, ,
9, ,22, ,
7, ,22, ,
5, ,22, ,
4, ,22, ,
3, ,22, ,
1, ,22, ,
-2, ,22, ,
-4, ,22, ,
-5, ,22, ,
-6, ,22, ,
-10, ,22, ,
-10, ,22, ,
-12, ,22, ,
-13, ,22, ,
-14, ,22, ,
-14, ,22, ,
-14, ,22, ,
-15, ,22, ,
-14, ,22, ,
-13, ,22, ,
-13, ,22, ,
-11, ,22, ,
-9, ,22, ,
-9, ,22, ,
-7, ,22, ,
-5, ,22, ,
-3, ,22, ,
-1, ,22, ,
0, ,22, ,
2, ,22, ,
4, ,22, ,
5, ,22, ,
7, ,22, ,
6, ,22, ,
7, ,22, ,
8, ,22, ,
8, ,22, ,
8, ,22, ,
8, ,22, ,
8, ,22, ,
8, ,22, ,
8, ,22, ,
7, ,22, ,
7, ,22, ,
7, ,22, ,
7, ,22, ,
6, ,22, ,
6, ,22, ,
5, ,22, ,
5, ,22, ,
4, ,22, ,
4, ,22, ,
3, ,22, ,
3, ,22, ,
2, ,22, ,
1, ,22, ,
0, ,22, ,
-1, ,22, ,
-2, ,22, ,
-2, ,22, ,
-3, ,22, ,
-3, ,22, ,
-4, ,22, ,
-4, ,22, ,
-4, ,22, ,
-4, ,22, ,
-3, ,22, ,
-2, ,22, ,
-2, ,22, ,
-1, ,22, ,
1, ,22, ,
1, ,22, ,
2, ,22, ,
2, ,22, ,
4, ,22, ,
4, ,22, ,
4, ,22, ,
4, ,22, ,
5, ,22, ,
4, ,22, ,
4, ,22, ,
2, ,22, ,
1, ,22, ,
1, ,22, ,
0, ,22, ,
-1, ,22, ,
-2, ,22, ,
-4, ,22, ,
-4, ,22, ,
-5, ,22, ,
-7, ,22, ,
-7, ,22, ,
-8, ,22, ,
-8, ,22, ,
-10, ,22, ,
-10, ,22, ,
-10, ,22, ,
-10, ,22, ,
-11, ,22, ,
-11, ,22, ,
-11, ,22, ,
-11, ,22, ,
-10, ,22, ,
-10, ,22, ,
-10, ,22, ,
-10, ,22, ,
-8, ,22, ,
-6, ,22, ,
-6, ,22, ,
-5, ,22, ,
-2, ,22, ,
-1, ,22, ,
1, ,22, ,
2, ,22, ,
5, ,22, ,
7, ,22, ,
8, ,22, ,
9, ,22, ,
10, ,22, ,
11, ,22, ,
11, ,22, ,
11, ,22, ,
11, ,22, ,
11, ,22, ,
10, ,22, ,
10, ,22, ,
9, ,22, ,
8, ,22, ,
7, ,22, ,
6, ,22, ,
4, ,22, ,
4, ,22, ,
3, ,22, ,
2, ,22, ,
0, ,22, ,
0, ,22, ,
-1, ,22, ,
-1, ,22, ,
-1, ,22, ,
-1, ,22, ,
-1, ,22, ,
-1, ,22, ,
-1, ,22, ,
0, ,22, ,
0, ,22, ,
0, ,22, ,
2, ,22, ,
2, ,22, ,
2, ,22, ,
2, ,22, ,
2, ,22, ,
2, ,22, ,
2, ,22, ,
1, ,22, ,
-1, ,22, ,
-1, ,22, ,
-3, ,22, ,
-3, ,22, ,
-6, ,22, ,
-7, ,22, ,
-8, ,22, ,
-10, ,22, ,
-11, ,22, ,
-12, ,22, ,
-12, ,22, ,
-12, ,22, ,
-11, ,22, ,
-11, ,22, ,
-10, ,22, ,
-10, ,22, ,
-8, ,22, ,
-7, ,22, ,
-5, ,22, ,
-4, ,22, ,
-1, ,22, ,
0, ,22, ,
1, ,22, ,
2, ,22, ,
4, ,22, ,
6, ,22, ,
6, ,22, ,
7, ,22, ,
7, ,22, ,
7, ,22, ,
7, ,22, ,
7, ,22, ,
6, ,22, ,
5, ,22, ,
5, ,22, ,
5, ,22, ,
4, ,22, ,
4, ,22, ,
3, ,22, ,
3, ,22, ,
4, ,22, ,
4, ,22, ,
3, ,22, ,
3, ,22, ,
4, ,22, ,
4, ,22, ,
5, ,22, ,
5, ,22, ,
5, ,22, ,
6, ,22, ,
6, ,22, ,
6, ,22, ,
5, ,22, ,
4, ,22, ,
4, ,22, ,
3, ,22, ,
1, ,22, ,
1, ,22, ,
-1, ,22, ,
-1, ,22, ,
-4, ,22, ,
-5, ,22, ,
-6, ,22, ,
-7, ,22, ,
-8, ,22, ,
-8, ,22, ,
-8, ,22, ,
-8, ,22, ,
-7, ,22, ,
-7, ,22, ,
-6, ,22, ,
-6, ,22, ,
-4, ,22, ,
-3, ,22, ,
-2, ,22, ,
-1, ,22, ,
2, ,22, ,
2, ,22, ,
3, ,22, ,
4, ,22, ,
6, ,22, ,
7, ,22, ,
7, ,22, ,
7, ,22, ,
7, ,22, ,
7, ,22, ,
7, ,22, ,
6, ,22, ,
5, ,22, ,
4, ,22, ,
3, ,22, ,
3, ,22, ,
2, ,22, ,
0, ,22, ,
0, ,22, ,
-1, ,22, ,
-2, ,22, ,
-2, ,22, ,
-3, ,22, ,
-3, ,22, ,
-3, ,22, ,
-3, ,22, ,
-3, ,22, ,
-3, ,22, ,
-2, ,22, ,
-1, ,22, ,
-1, ,22, ,
0, ,22, ,
0, ,22, ,
1, ,22, ,
2, ,22, ,
2, ,22, ,
2, ,22, ,
3, ,22, ,
3, ,22, ,
3, ,22, ,
2, ,22, ,
2, ,22, ,
2, ,22, ,
1, ,22, ,
1, ,22, ,
0, ,22, ,
0, ,22, ,
0, ,22, ,
-1, ,22, ,
-1, ,22, ,
-1, ,22, ,
-1, ,22, ,
-2, ,22, ,
-2, ,22, ,
-2, ,22, ,
-2, ,22, ,
-2, ,22, ,
-2, ,22, ,
-2, ,22, ,
-3, ,22, ,
-3, ,22, ,
-3, ,22, ,
-4, ,22, ,
-4, ,22, ,
-4, ,22, ,
-4, ,22, ,
-4, ,22, ,
-4, ,22, ,
-4, ,22, ,
-4, ,22, ,
-4, ,22, ,
-3, ,22, ,
-1, ,22, ,
-1, ,22, ,
1, ,22, ,
1, ,22, ,
3, ,22, ,
4, ,22, ,
4, ,22, ,
5, ,22, ,
6, ,22, ,
6, ,22, ,
6, ,22, ,
5, ,22, ,
5, ,22, ,
4, ,22, ,
4, ,22, ,
3, ,22, ,
3, ,22, ,
3, ,22, ,
3, ,22, ,
3, ,22, ,
3, ,22, ,
3, ,22, ,
3, ,22, ,
3, ,22, ,
5, ,22, ,
5, ,22, ,
4, ,22, ,
4, ,22, ,
4, ,22, ,
3, ,22, ,
3, ,22, ,
2, ,22, ,
0, ,22, ,
-2, ,22, ,
-2, ,22, ,
-4, ,22, ,
-6, ,22, ,
-7, ,22, ,
-8, ,22, ,
-9, ,22, ,
-10, ,22, ,
-10, ,22, ,
-10, ,22, ,
-10, ,22, ,
-10, ,22, ,
-9, ,22, ,
-9, ,22, ,
-8, ,22, ,
-7, ,22, ,
-7, ,22, ,
-4, ,22, ,
-4, ,22, ,
-2, ,22, ,
0, ,22, ,
0, ,22, ,
2, ,22, ,
3, ,22, ,
4, ,22, ,
5, ,22, ,
5, ,22, ,
5, ,22, ,
6, ,22, ,
5, ,22, ,
5, ,22, ,
4, ,22, ,
4, ,22, ,
4, ,22, ,
3, ,22, ,
2, ,22, ,
1, ,22, ,
1, ,22, ,
0, ,22, ,
0, ,22, ,
-1, ,22, ,
-1, ,22, ,
-1, ,22, ,
0, ,22, ,
0, ,22, ,
0, ,22, ,
0, ,22, ,
1, ,22, ,
1, ,22, ,
2, ,22, ,
3, ,22, ,
3, ,22, ,
3, ,22, ,
3, ,22, ,
4, ,22, ,
4, ,22, ,
4, ,22, ,
4, ,22, ,
3, ,22, ,
3, ,22, ,
3, ,22, ,
2, ,22, ,
2, ,22, ,
1, ,22, ,
1, ,22, ,
1, ,22, ,
0, ,22, ,
-1, ,22, ,
-1, ,22, ,
-2, ,22, ,
-2, ,22, ,
-3, ,22, ,
-4, ,22, ,
-5, ,22, ,
-5, ,22, ,
-6, ,22, ,
-6, ,22, ,
-7, ,22, ,
-6, ,22, ,
-5, ,22, ,
-5, ,22, ,
-5, ,22, ,
-4, ,22, ,
-4, ,22, ,
-3, ,22, ,
-2, ,22, ,
-2, ,22, ,
1, ,22, ,
0, ,22, ,
2, ,22, ,
2, ,22, ,
3, ,22, ,
4, ,22, ,
4, ,22, ,
4, ,22, ,
4, ,22, ,
4, ,22, ,
4, ,22, ,
3, ,22, ,
2, ,22, ,
2, ,22, ,
1, ,22, ,
1, ,22, ,
0, ,22, ,
-1, ,22, ,
-2, ,22, ,
-2, ,22, ,
-2, ,22, ,
-2, ,22, ,
-2, ,22, ,
-2, ,22, ,
-1, ,22, ,
-1, ,22, ,
0, ,22, ,
0, ,22, ,
2, ,22, ,
3, ,22, ,
3, ,22, ,
4, ,22, ,
5, ,22, ,
6, ,22, ,
6, ,22, ,
6, ,22, ,
6, ,22, ,
6, ,22, ,
5, ,22, ,
5, ,22, ,
3, ,22, ,
2, ,22, ,
