raw_data/75% Glycerol, Impulsion 2Hz, Sonde 5MHz, Rampe 0.7Hz/temp0000241.CSV

Format,1.0B,
Memory Length,10000,Memory Length,10000,
IntpDistance,0,IntpDistance,0,
Trigger Address,159,Trigger Address,159,
Trigger Level,2.720E-01,Trigger Level,2.720E-01,
Source,CH1,Source,CH2,
Vertical Units,V,Vertical Units,V,
Vertical Units Div,0,Vertical Units Div,0,
Vertical Units Extend Div,16,Vertical Units Extend Div,16,
Label,,Label,,
Probe Type,0,Probe Type,0,
Probe Ratio,1.000e+00,Probe Ratio,1.000e+00,
Vertical Scale,5.000e-01,Vertical Scale,2.000e+00,
Vertical Position,0.000e+00,Vertical Position,0.000e+00,
Horizontal Units,S,Horizontal Units,S,
Horizontal Scale,5.000E-06,Horizontal Scale,5.000E-06,
Horizontal Position,2.420E-05,Horizontal Position,2.420E-05,
Horizontal Mode,Main,Horizontal Mode,Main,
SincET Mode,Real Time,SincET Mode,Real Time,
Sampling Period,5.000e-09,Sampling Period,5.000e-09,
Horizontal Old Scale,5.000E-06,Horizontal Old Scale,5.000E-06,
Horizontal Old Position,2.420E-05,Horizontal Old Position,2.420E-05,
Firmware,V1.32,Firmware,V1.32,
Mode,Fast,Mode,Fast,
Waveform Data,,Waveform Data,,
0, ,43, ,
0, ,43, ,
1, ,43, ,
1, ,43, ,
1, ,43, ,
0, ,43, ,
0, ,43, ,
0, ,43, ,
0, ,43, ,
0, ,43, ,
0, ,43, ,
0, ,43, ,
0, ,43, ,
0, ,43, ,
1, ,43, ,
1, ,43, ,
1, ,43, ,
1, ,43, ,
0, ,43, ,
0, ,43, ,
1, ,43, ,
1, ,43, ,
1, ,43, ,
1, ,43, ,
1, ,43, ,
0, ,43, ,
0, ,43, ,
1, ,43, ,
1, ,43, ,
0, ,43, ,
0, ,43, ,
0, ,43, ,
0, ,43, ,
0, ,43, ,
0, ,43, ,
0, ,43, ,
1, ,43, ,
1, ,43, ,
1, ,43, ,
1, ,43, ,
1, ,43, ,
1, ,43, ,
1, ,43, ,
0, ,43, ,
0, ,43, ,
0, ,43, ,
1, ,43, ,
1, ,43, ,
1, ,43, ,
1, ,43, ,
0, ,43, ,
0, ,43, ,
1, ,43, ,
1, ,43, ,
1, ,43, ,
1, ,43, ,
1, ,43, ,
1, ,43, ,
1, ,43, ,
1, ,43, ,
1, ,43, ,
0, ,43, ,
0, ,43, ,
1, ,43, ,
0, ,43, ,
0, ,43, ,
1, ,43, ,
1, ,43, ,
1, ,43, ,
1, ,43, ,
1, ,43, ,
1, ,43, ,
0, ,43, ,
0, ,43, ,
1, ,43, ,
1, ,43, ,
1, ,43, ,
0, ,43, ,
0, ,43, ,
0, ,43, ,
0, ,43, ,
1, ,43, ,
1, ,43, ,
1, ,43, ,
1, ,43, ,
1, ,43, ,
1, ,43, ,
1, ,43, ,
1, ,43, ,
1, ,43, ,
1, ,43, ,
1, ,43, ,
1, ,43, ,
0, ,43, ,
0, ,43, ,
0, ,43, ,
0, ,43, ,
1, ,43, ,
1, ,43, ,
1, ,43, ,
1, ,43, ,
0, ,43, ,
0, ,43, ,
1, ,43, ,
0, ,43, ,
0, ,43, ,
0, ,43, ,
0, ,43, ,
1, ,43, ,
1, ,43, ,
0, ,43, ,
0, ,43, ,
0, ,43, ,
0, ,43, ,
1, ,43, ,
1, ,43, ,
1, ,43, ,
1, ,43, ,
1, ,43, ,
1, ,43, ,
0, ,43, ,
0, ,43, ,
1, ,43, ,
1, ,43, ,
1, ,43, ,
1, ,43, ,
1, ,43, ,
1, ,43, ,
1, ,43, ,
1, ,43, ,
1, ,43, ,
1, ,43, ,
1, ,43, ,
0, ,43, ,
0, ,43, ,
0, ,43, ,
0, ,43, ,
0, ,43, ,
0, ,43, ,
0, ,43, ,
0, ,43, ,
0, ,43, ,
0, ,43, ,
0, ,43, ,
0, ,43, ,
1, ,43, ,
0, ,43, ,
0, ,43, ,
0, ,43, ,
0, ,43, ,
0, ,43, ,
0, ,43, ,
0, ,43, ,
0, ,43, ,
1, ,43, ,
1, ,43, ,
1, ,43, ,
1, ,43, ,
0, ,43, ,
0, ,43, ,
0, ,43, ,
1, ,43, ,
1, ,43, ,
0, ,43, ,
0, ,43, ,
-1, ,43, ,
-2, ,43, ,
4, ,43, ,
21, ,43, ,
53, ,43, ,
125, ,43, ,
124, ,43, ,
121, ,43, ,
89, ,43, ,
-7, ,43, ,
13, ,43, ,
65, ,43, ,
116, ,43, ,
125, ,43, ,
125, ,43, ,
125, ,43, ,
125, ,43, ,
125, ,43, ,
124, ,43, ,
124, ,43, ,
120, ,43, ,
109, ,43, ,
105, ,43, ,
103, ,43, ,
99, ,43, ,
93, ,43, ,
90, ,43, ,
85, ,43, ,
82, ,43, ,
76, ,43, ,
74, ,43, ,
71, ,43, ,
68, ,43, ,
62, ,43, ,
61, ,43, ,
57, ,43, ,
55, ,43, ,
51, ,43, ,
48, ,43, ,
47, ,43, ,
45, ,43, ,
40, ,43, ,
40, ,43, ,
37, ,43, ,
36, ,43, ,
33, ,43, ,
31, ,43, ,
30, ,43, ,
28, ,43, ,
25, ,43, ,
25, ,43, ,
24, ,43, ,
23, ,43, ,
21, ,43, ,
20, ,43, ,
19, ,43, ,
18, ,43, ,
16, ,43, ,
16, ,43, ,
15, ,43, ,
14, ,43, ,
13, ,43, ,
12, ,43, ,
12, ,43, ,
11, ,43, ,
9, ,43, ,
9, ,43, ,
8, ,43, ,
8, ,43, ,
7, ,43, ,
6, ,43, ,
6, ,43, ,
5, ,43, ,
5, ,43, ,
5, ,43, ,
4, ,43, ,
4, ,43, ,
3, ,43, ,
3, ,43, ,
3, ,43, ,
3, ,43, ,
3, ,43, ,
2, ,43, ,
2, ,43, ,
2, ,43, ,
2, ,43, ,
1, ,43, ,
1, ,43, ,
1, ,43, ,
0, ,43, ,
0, ,43, ,
0, ,43, ,
0, ,43, ,
0, ,43, ,
0, ,43, ,
0, ,43, ,
0, ,43, ,
-1, ,43, ,
-1, ,43, ,
-1, ,43, ,
-1, ,43, ,
-1, ,43, ,
-1, ,43, ,
-1, ,43, ,
-1, ,43, ,
-1, ,43, ,
-1, ,43, ,
-1, ,43, ,
-1, ,43, ,
-1, ,43, ,
-1, ,43, ,
-1, ,43, ,
-1, ,43, ,
-1, ,43, ,
-1, ,43, ,
-1, ,43, ,
-1, ,43, ,
-1, ,43, ,
-1, ,43, ,
-1, ,43, ,
-1, ,43, ,
-1, ,43, ,
-1, ,43, ,
-2, ,43, ,
-2, ,43, ,
-1, ,43, ,
-1, ,43, ,
-1, ,43, ,
-1, ,43, ,
-1, ,43, ,
-1, ,43, ,
-1, ,43, ,
-1, ,43, ,
-1, ,43, ,
-1, ,43, ,
-1, ,43, ,
-1, ,43, ,
-1, ,43, ,
-1, ,43, ,
-1, ,43, ,
-1, ,43, ,
-1, ,43, ,
-1, ,43, ,
-1, ,43, ,
-1, ,43, ,
-1, ,43, ,
-1, ,43, ,
-1, ,43, ,
-1, ,43, ,
-1, ,43, ,
-1, ,43, ,
-1, ,43, ,
-1, ,43, ,
-1, ,43, ,
-1, ,43, ,
-1, ,44, ,
-1, ,43, ,
-1, ,43, ,
-1, ,43, ,
0, ,43, ,
0, ,43, ,
0, ,43, ,
0, ,43, ,
0, ,43, ,
0, ,43, ,
0, ,43, ,
0, ,43, ,
0, ,43, ,
0, ,43, ,
0, ,43, ,
0, ,43, ,
0, ,43, ,
0, ,43, ,
0, ,43, ,
0, ,43, ,
0, ,43, ,
0, ,43, ,
0, ,43, ,
0, ,43, ,
0, ,43, ,
0, ,43, ,
0, ,43, ,
0, ,43, ,
0, ,43, ,
0, ,43, ,
0, ,43, ,
0, ,43, ,
0, ,43, ,
0, ,43, ,
0, ,43, ,
0, ,43, ,
0, ,43, ,
0, ,43, ,
0, ,43, ,
0, ,43, ,
0, ,43, ,
0, ,43, ,
0, ,43, ,
0, ,43, ,
0, ,43, ,
0, ,43, ,
0, ,43, ,
0, ,43, ,
0, ,43, ,
0, ,43, ,
0, ,43, ,
0, ,43, ,
0, ,43, ,
0, ,43, ,
0, ,43, ,
0, ,43, ,
0, ,43, ,
0, ,43, ,
0, ,43, ,
0, ,43, ,
0, ,43, ,
0, ,43, ,
0, ,43, ,
0, ,43, ,
0, ,43, ,
0, ,43, ,
0, ,43, ,
0, ,43, ,
0, ,43, ,
0, ,43, ,
0, ,43, ,
0, ,43, ,
0, ,43, ,
0, ,43, ,
0, ,43, ,
0, ,43, ,
1, ,43, ,
0, ,43, ,
0, ,43, ,
0, ,43, ,
0, ,43, ,
1, ,43, ,
0, ,43, ,
0, ,43, ,
0, ,43, ,
0, ,43, ,
0, ,43, ,
0, ,43, ,
0, ,43, ,
0, ,43, ,
0, ,43, ,
0, ,43, ,
1, ,43, ,
0, ,43, ,
0, ,43, ,
0, ,43, ,
0, ,43, ,
0, ,43, ,
0, ,43, ,
0, ,43, ,
0, ,43, ,
1, ,43, ,
0, ,43, ,
0, ,43, ,
0, ,43, ,
0, ,43, ,
0, ,43, ,
0, ,43, ,
0, ,43, ,
0, ,43, ,
0, ,43, ,
0, ,43, ,
0, ,43, ,
0, ,43, ,
-1, ,43, ,
-1, ,43, ,
-1, ,43, ,
-1, ,43, ,
-2, ,43, ,
-2, ,43, ,
-4, ,43, ,
-6, ,43, ,
-10, ,43, ,
-13, ,43, ,
-14, ,43, ,
-15, ,43, ,
-13, ,43, ,
-11, ,43, ,
-9, ,43, ,
-6, ,43, ,
-2, ,43, ,
-1, ,43, ,
0, ,43, ,
1, ,43, ,
2, ,43, ,
2, ,43, ,
3, ,43, ,
3, ,43, ,
3, ,43, ,
3, ,43, ,
3, ,43, ,
2, ,43, ,
1, ,43, ,
1, ,43, ,
0, ,43, ,
0, ,43, ,
-1, ,43, ,
-1, ,43, ,
0, ,43, ,
0, ,43, ,
1, ,43, ,
2, ,43, ,
2, ,43, ,
3, ,43, ,
3, ,43, ,
3, ,43, ,
3, ,43, ,
3, ,43, ,
3, ,43, ,
3, ,43, ,
3, ,43, ,
3, ,43, ,
3, ,43, ,
3, ,43, ,
3, ,43, ,
2, ,43, ,
2, ,43, ,
2, ,43, ,
2, ,43, ,
2, ,43, ,
1, ,43, ,
1, ,43, ,
2, ,43, ,
1, ,43, ,
1, ,43, ,
1, ,43, ,
1, ,43, ,
1, ,43, ,
1, ,43, ,
0, ,43, ,
0, ,43, ,
0, ,43, ,
0, ,43, ,
0, ,43, ,
0, ,43, ,
0, ,43, ,
0, ,43, ,
0, ,43, ,
1, ,43, ,
1, ,43, ,
1, ,43, ,
2, ,43, ,
2, ,43, ,
2, ,43, ,
1, ,43, ,
1, ,43, ,
1, ,43, ,
0, ,43, ,
0, ,43, ,
-1, ,43, ,
-1, ,43, ,
-2, ,43, ,
-4, ,43, ,
-5, ,43, ,
-5, ,43, ,
-7, ,43, ,
-9, ,43, ,
-9, ,43, ,
-10, ,43, ,
-10, ,43, ,
-10, ,43, ,
-11, ,43, ,
-10, ,43, ,
-11, ,43, ,
-12, ,43, ,
-12, ,43, ,
-13, ,43, ,
-14, ,43, ,
-16, ,43, ,
-18, ,43, ,
-20, ,43, ,
-23, ,43, ,
-27, ,43, ,
-29, ,43, ,
-32, ,43, ,
-33, ,43, ,
-34, ,43, ,
-33, ,43, ,
-32, ,43, ,
-32, ,43, ,
-28, ,43, ,
-27, ,43, ,
-26, ,43, ,
-25, ,43, ,
-24, ,43, ,
-24, ,43, ,
-24, ,43, ,
-25, ,43, ,
-25, ,43, ,
-26, ,43, ,
-26, ,43, ,
-26, ,43, ,
-25, ,43, ,
-25, ,43, ,
-23, ,43, ,
-22, ,43, ,
-18, ,43, ,
-15, ,43, ,
-13, ,43, ,
-9, ,43, ,
-5, ,43, ,
-3, ,43, ,
-1, ,43, ,
0, ,43, ,
2, ,43, ,
1, ,43, ,
1, ,43, ,
1, ,43, ,
0, ,43, ,
-2, ,43, ,
-2, ,43, ,
-3, ,43, ,
-3, ,43, ,
-3, ,43, ,
-3, ,43, ,
-2, ,43, ,
-2, ,43, ,
-1, ,43, ,
0, ,43, ,
0, ,43, ,
1, ,43, ,
1, ,43, ,
1, ,43, ,
1, ,43, ,
1, ,43, ,
1, ,43, ,
1, ,43, ,
1, ,43, ,
1, ,43, ,
1, ,43, ,
1, ,43, ,
2, ,43, ,
3, ,43, ,
4, ,43, ,
5, ,43, ,
6, ,43, ,
8, ,43, ,
9, ,43, ,
10, ,43, ,
10, ,43, ,
11, ,43, ,
11, ,43, ,
11, ,43, ,
9, ,43, ,
7, ,43, ,
7, ,43, ,
6, ,43, ,
5, ,43, ,
2, ,43, ,
1, ,43, ,
0, ,43, ,
-2, ,43, ,
-3, ,43, ,
-4, ,43, ,
-5, ,43, ,
-5, ,43, ,
-5, ,43, ,
-5, ,43, ,
-5, ,43, ,
-5, ,43, ,
-4, ,43, ,
-4, ,43, ,
-4, ,43, ,
-3, ,43, ,
-3, ,43, ,
-3, ,43, ,
-3, ,43, ,
-4, ,43, ,
-5, ,43, ,
-5, ,43, ,
-6, ,43, ,
-6, ,43, ,
-7, ,43, ,
-8, ,43, ,
-8, ,43, ,
-9, ,43, ,
-9, ,43, ,
-9, ,43, ,
-9, ,43, ,
-9, ,43, ,
-9, ,43, ,
-10, ,43, ,
-11, ,43, ,
-12, ,43, ,
-14, ,43, ,
-15, ,43, ,
-16, ,43, ,
-18, ,43, ,
-19, ,43, ,
-20, ,43, ,
-21, ,43, ,
-21, ,43, ,
-21, ,43, ,
-21, ,43, ,
-20, ,43, ,
-20, ,43, ,
-20, ,43, ,
-20, ,43, ,
-20, ,43, ,
-20, ,43, ,
-20, ,43, ,
-20, ,43, ,
-19, ,43, ,
-19, ,43, ,
-18, ,43, ,
-18, ,43, ,
-17, ,43, ,
-16, ,43, ,
-14, ,43, ,
-12, ,43, ,
-11, ,43, ,
-9, ,43, ,
-5, ,43, ,
-4, ,43, ,
-1, ,43, ,
0, ,43, ,
5, ,43, ,
6, ,43, ,
8, ,43, ,
11, ,43, ,
14, ,43, ,
15, ,43, ,
16, ,43, ,
16, ,43, ,
16, ,43, ,
16, ,43, ,
15, ,43, ,
14, ,43, ,
9, ,43, ,
6, ,43, ,
3, ,43, ,
-1, ,43, ,
-8, ,43, ,
-12, ,43, ,
-16, ,43, ,
-20, ,43, ,
-25, ,43, ,
-28, ,43, ,
-30, ,43, ,
-32, ,43, ,
-33, ,43, ,
-33, ,43, ,
-32, ,43, ,
-30, ,43, ,
-26, ,43, ,
-25, ,43, ,
-21, ,43, ,
-18, ,43, ,
-11, ,43, ,
-7, ,43, ,
-3, ,43, ,
0, ,43, ,
7, ,43, ,
10, ,43, ,
12, ,43, ,
14, ,43, ,
16, ,43, ,
17, ,43, ,
17, ,43, ,
16, ,43, ,
15, ,43, ,
13, ,43, ,
13, ,43, ,
11, ,43, ,
8, ,43, ,
8, ,43, ,
6, ,43, ,
5, ,43, ,
4, ,43, ,
3, ,43, ,
3, ,43, ,
3, ,43, ,
3, ,43, ,
4, ,43, ,
3, ,43, ,
5, ,43, ,
5, ,43, ,
5, ,43, ,
7, ,43, ,
7, ,43, ,
8, ,43, ,
9, ,43, ,
8, ,43, ,
8, ,43, ,
8, ,43, ,
7, ,43, ,
7, ,43, ,
5, ,43, ,
4, ,43, ,
2, ,43, ,
0, ,43, ,
0, ,43, ,
-3, ,43, ,
-6, ,43, ,
-7, ,43, ,
-9, ,43, ,
-12, ,43, ,
-14, ,43, ,
-16, ,43, ,
-16, ,43, ,
-19, ,43, ,
-20, ,43, ,
-21, ,43, ,
-21, ,43, ,
-21, ,43, ,
-21, ,43, ,
-21, ,43, ,
-20, ,43, ,
-19, ,43, ,
-20, ,43, ,
-17, ,43, ,
-18, ,43, ,
-16, ,43, ,
-15, ,43, ,
-15, ,43, ,
-15, ,43, ,
-14, ,43, ,
-14, ,43, ,
-14, ,43, ,
-14, ,43, ,
-14, ,43, ,
-14, ,43, ,
-14, ,43, ,
-14, ,43, ,
-14, ,43, ,
-14, ,43, ,
-14, ,43, ,
-14, ,43, ,
-14, ,43, ,
-14, ,43, ,
-15, ,43, ,
-16, ,43, ,
-17, ,43, ,
-18, ,43, ,
-18, ,43, ,
-20, ,43, ,
-21, ,43, ,
-21, ,43, ,
-22, ,43, ,
-22, ,43, ,
-22, ,43, ,
-21, ,43, ,
-21, ,43, ,
-20, ,43, ,
-18, ,43, ,
-16, ,43, ,
-15, ,43, ,
-13, ,43, ,
-9, ,43, ,
-8, ,43, ,
-6, ,43, ,
-4, ,43, ,
-2, ,43, ,
0, ,43, ,
1, ,43, ,
3, ,43, ,
5, ,43, ,
5, ,43, ,
6, ,43, ,
6, ,43, ,
6, ,43, ,
6, ,43, ,
6, ,43, ,
6, ,43, ,
6, ,43, ,
6, ,43, ,
6, ,43, ,
6, ,43, ,
7, ,43, ,
7, ,43, ,
7, ,43, ,
8, ,43, ,
9, ,43, ,
10, ,43, ,
11, ,43, ,
11, ,43, ,
13, ,43, ,
15, ,43, ,
15, ,43, ,
16, ,43, ,
19, ,43, ,
18, ,43, ,
20, ,43, ,
20, ,43, ,
20, ,43, ,
21, ,43, ,
20, ,43, ,
20, ,43, ,
18, ,43, ,
17, ,43, ,
17, ,43, ,
14, ,43, ,
12, ,43, ,
10, ,43, ,
8, ,43, ,
7, ,43, ,
4, ,43, ,
2, ,43, ,
1, ,43, ,
-1, ,43, ,
-4, ,43, ,
-5, ,43, ,
-6, ,43, ,
-7, ,43, ,
-9, ,43, ,
-10, ,43, ,
-11, ,43, ,
-13, ,43, ,
-15, ,43, ,
-16, ,43, ,
-18, ,43, ,
-20, ,43, ,
-22, ,43, ,
-24, ,43, ,
-25, ,43, ,
-25, ,43, ,
-26, ,43, ,
-26, ,43, ,
-26, ,43, ,
-25, ,43, ,
-25, ,43, ,
-25, ,43, ,
-22, ,43, ,
-21, ,43, ,
-18, ,43, ,
-16, ,43, ,
-16, ,43, ,
-14, ,43, ,
-11, ,43, ,
-10, ,43, ,
-9, ,43, ,
-9, ,43, ,
-9, ,43, ,
-9, ,43, ,
-10, ,43, ,
-10, ,43, ,
-12, ,43, ,
-13, ,43, ,
-14, ,43, ,
-15, ,43, ,
-15, ,43, ,
-15, ,43, ,
-15, ,43, ,
-15, ,43, ,
-14, ,43, ,
-14, ,43, ,
-14, ,43, ,
-14, ,43, ,
-12, ,43, ,
-11, ,43, ,
-10, ,43, ,
-9, ,43, ,
-8, ,43, ,
-8, ,43, ,
-7, ,43, ,
-7, ,43, ,
-6, ,43, ,
-6, ,43, ,
-6, ,43, ,
-5, ,43, ,
-5, ,43, ,
-5, ,43, ,
-5, ,43, ,
-5, ,43, ,
-5, ,43, ,
-4, ,43, ,
-3, ,43, ,
-2, ,43, ,
0, ,43, ,
0, ,43, ,
1, ,43, ,
3, ,43, ,
4, ,43, ,
6, ,43, ,
7, ,43, ,
8, ,43, ,
10, ,43, ,
11, ,43, ,
12, ,43, ,
12, ,43, ,
12, ,43, ,
12, ,43, ,
11, ,43, ,
11, ,43, ,
9, ,43, ,
8, ,43, ,
7, ,43, ,
6, ,43, ,
4, ,43, ,
2, ,43, ,
1, ,43, ,
0, ,43, ,
-2, ,43, ,
-5, ,43, ,
-5, ,43, ,
-6, ,43, ,
-8, ,43, ,
-9, ,43, ,
-10, ,43, ,
-10, ,43, ,
-11, ,43, ,
-12, ,43, ,
-12, ,43, ,
-12, ,43, ,
-12, ,43, ,
-12, ,43, ,
-12, ,43, ,
-12, ,43, ,
-11, ,43, ,
-11, ,43, ,
-10, ,43, ,
-10, ,43, ,
-9, ,43, ,
-8, ,43, ,
-7, ,43, ,
-6, ,43, ,
-4, ,43, ,
-3, ,43, ,
-2, ,43, ,
-1, ,43, ,
1, ,43, ,
3, ,43, ,
4, ,43, ,
4, ,43, ,
5, ,43, ,
5, ,43, ,
6, ,43, ,
6, ,43, ,
6, ,43, ,
6, ,43, ,
6, ,43, ,
6, ,43, ,
5, ,43, ,
5, ,43, ,
5, ,43, ,
4, ,43, ,
4, ,43, ,
4, ,43, ,
4, ,43, ,
4, ,43, ,
3, ,43, ,
3, ,43, ,
3, ,43, ,
2, ,43, ,
1, ,43, ,
1, ,43, ,
0, ,43, ,
-1, ,43, ,
-2, ,43, ,
-3, ,43, ,
-3, ,43, ,
-5, ,43, ,
-6, ,43, ,
-6, ,43, ,
-6, ,43, ,
-6, ,43, ,
-5, ,43, ,
-6, ,43, ,
-4, ,43, ,
-4, ,43, ,
-3, ,43, ,
-2, ,43, ,
-1, ,43, ,
1, ,43, ,
2, ,43, ,
3, ,43, ,
4, ,43, ,
5, ,43, ,
4, ,43, ,
4, ,43, ,
3, ,43, ,
3, ,43, ,
2, ,43, ,
0, ,43, ,
-1, ,43, ,
-2, ,43, ,
-5, ,43, ,
-7, ,43, ,
-9, ,43, ,
-10, ,43, ,
-13, ,43, ,
-15, ,43, ,
-15, ,43, ,
-16, ,43, ,
-16, ,43, ,
-16, ,43, ,
-16, ,43, ,
-15, ,43, ,
-14, ,43, ,
-13, ,43, ,
-12, ,43, ,
-11, ,43, ,
-8, ,43, ,
-6, ,43, ,
-5, ,43, ,
-2, ,43, ,
1, ,43, ,
2, ,43, ,
3, ,43, ,
4, ,43, ,
6, ,43, ,
6, ,43, ,
7, ,43, ,
7, ,43, ,
6, ,43, ,
5, ,43, ,
5, ,43, ,
5, ,43, ,
4, ,43, ,
3, ,43, ,
2, ,43, ,
2, ,43, ,
0, ,43, ,
-1, ,43, ,
-1, ,43, ,
-1, ,43, ,
-1, ,43, ,
-1, ,43, ,
0, ,43, ,
0, ,43, ,
1, ,43, ,
1, ,43, ,
3, ,43, ,
3, ,43, ,
5, ,43, ,
7, ,43, ,
7, ,43, ,
9, ,43, ,
11, ,43, ,
11, ,43, ,
11, ,43, ,
11, ,43, ,
11, ,43, ,
10, ,43, ,
10, ,43, ,
9, ,43, ,
8, ,43, ,
6, ,43, ,
5, ,43, ,
4, ,43, ,
2, ,43, ,
1, ,43, ,
0, ,43, ,
-1, ,43, ,
-3, ,43, ,
-4, ,43, ,
-5, ,43, ,
-6, ,43, ,
-8, ,43, ,
-9, ,43, ,
-10, ,43, ,
-10, ,43, ,
-12, ,43, ,
-13, ,43, ,
-14, ,43, ,
-15, ,43, ,
-16, ,43, ,
-16, ,43, ,
-16, ,43, ,
-16, ,43, ,
-16, ,43, ,
-16, ,43, ,
-15, ,43, ,
-15, ,43, ,
-14, ,43, ,
-13, ,43, ,
-13, ,43, ,
-11, ,43, ,
-9, ,43, ,
-9, ,43, ,
-8, ,43, ,
-7, ,43, ,
-4, ,43, ,
-3, ,43, ,
-2, ,43, ,
0, ,43, ,
2, ,43, ,
4, ,43, ,
5, ,43, ,
6, ,43, ,
9, ,43, ,
10, ,43, ,
10, ,43, ,
12, ,43, ,
12, ,43, ,
12, ,43, ,
12, ,43, ,
12, ,43, ,
11, ,43, ,
11, ,43, ,
10, ,43, ,
9, ,43, ,
8, ,43, ,
7, ,43, ,
7, ,43, ,
6, ,43, ,
5, ,43, ,
4, ,43, ,
2, ,43, ,
2, ,43, ,
0, ,43, ,
-1, ,43, ,
-1, ,43, ,
-3, ,43, ,
-5, ,43, ,
-5, ,43, ,
-6, ,43, ,
-6, ,43, ,
-7, ,43, ,
-7, ,43, ,
-7, ,43, ,
-7, ,43, ,
-7, ,43, ,
-6, ,43, ,
-6, ,43, ,
-6, ,43, ,
-4, ,43, ,
-4, ,43, ,
-3, ,43, ,
-3, ,43, ,
-2, ,43, ,
-1, ,43, ,
-1, ,43, ,
0, ,43, ,
1, ,43, ,
2, ,43, ,
3, ,43, ,
3, ,43, ,
4, ,43, ,
4, ,43, ,
4, ,43, ,
5, ,43, ,
4, ,43, ,
3, ,43, ,
3, ,43, ,
2, ,43, ,
0, ,43, ,
-1, ,43, ,
-2, ,43, ,
-3, ,43, ,
-7, ,43, ,
-9, ,43, ,
-10, ,43, ,
-11, ,43, ,
-14, ,43, ,
-14, ,43, ,
-15, ,43, ,
-15, ,43, ,
-15, ,43, ,
-15, ,43, ,
-15, ,43, ,
-15, ,43, ,
-13, ,43, ,
-12, ,43, ,
-12, ,43, ,
-11, ,43, ,
-9, ,43, ,
-9, ,43, ,
-8, ,43, ,
-8, ,43, ,
-7, ,43, ,
-5, ,43, ,
-5, ,43, ,
-4, ,43, ,
-2, ,43, ,
-2, ,43, ,
-1, ,43, ,
-1, ,43, ,
2, ,43, ,
2, ,43, ,
2, ,43, ,
4, ,43, ,
5, ,43, ,
5, ,43, ,
6, ,43, ,
6, ,43, ,
7, ,43, ,
7, ,43, ,
6, ,43, ,
6, ,43, ,
5, ,43, ,
5, ,43, ,
5, ,43, ,
4, ,43, ,
3, ,43, ,
3, ,43, ,
2, ,43, ,
1, ,43, ,
0, ,43, ,
0, ,43, ,
-1, ,43, ,
-1, ,43, ,
-2, ,43, ,
-2, ,43, ,
-2, ,43, ,
-2, ,43, ,
-2, ,43, ,
-2, ,43, ,
-1, ,43, ,
-1, ,43, ,
-1, ,43, ,
-1, ,43, ,
0, ,43, ,
0, ,43, ,
0, ,43, ,
0, ,43, ,
0, ,43, ,
-1, ,43, ,
-2, ,43, ,
-2, ,43, ,
-3, ,43, ,
-3, ,43, ,
-4, ,43, ,
-6, ,43, ,
-6, ,43, ,
-8, ,43, ,
-9, ,43, ,
-9, ,43, ,
-9, ,43, ,
-10, ,43, ,
-10, ,43, ,
-10, ,43, ,
-10, ,43, ,
-10, ,43, ,
-9, ,43, ,
-9, ,43, ,
-9, ,43, ,
-8, ,43, ,
-6, ,43, ,
-6, ,43, ,
-4, ,43, ,
-4, ,43, ,
-1, ,43, ,
0, ,43, ,
1, ,43, ,
3, ,43, ,
6, ,43, ,
7, ,43, ,
8, ,43, ,
8, ,43, ,
10, ,43, ,
10, ,43, ,
10, ,43, ,
9, ,43, ,
8, ,43, ,
7, ,43, ,
6, ,43, ,
4, ,43, ,
2, ,43, ,
0, ,43, ,
-1, ,43, ,
-2, ,43, ,
-4, ,43, ,
-5, ,43, ,
-6, ,43, ,
-6, ,43, ,
-6, ,43, ,
-6, ,43, ,
-6, ,43, ,
-5, ,43, ,
-4, ,43, ,
-3, ,43, ,
-2, ,43, ,
-1, ,43, ,
0, ,43, ,
2, ,43, ,
3, ,43, ,
4, ,43, ,
7, ,43, ,
7, ,43, ,
9, ,43, ,
9, ,43, ,
11, ,43, ,
11, ,43, ,
11, ,43, ,
11, ,43, ,
10, ,43, ,
10, ,43, ,
10, ,43, ,
8, ,43, ,
6, ,43, ,
4, ,43, ,
3, ,43, ,
1, ,43, ,
-2, ,43, ,
-5, ,43, ,
-6, ,43, ,
-9, ,43, ,
-11, ,43, ,
-12, ,43, ,
-13, ,43, ,
-14, ,43, ,
-13, ,43, ,
-13, ,43, ,
-12, ,43, ,
-12, ,43, ,
-9, ,43, ,
-7, ,43, ,
-5, ,43, ,
-2, ,43, ,
1, ,43, ,
3, ,43, ,
5, ,43, ,
6, ,43, ,
9, ,43, ,
10, ,43, ,
11, ,43, ,
12, ,43, ,
12, ,43, ,
12, ,43, ,
11, ,43, ,
11, ,43, ,
8, ,43, ,
8, ,43, ,
6, ,43, ,
5, ,43, ,
2, ,43, ,
-1, ,43, ,
-1, ,43, ,
-3, ,43, ,
-6, ,43, ,
-8, ,43, ,
-9, ,43, ,
-10, ,43, ,
-12, ,43, ,
-12, ,43, ,
-12, ,43, ,
-12, ,43, ,
-12, ,43, ,
-12, ,43, ,
-11, ,43, ,
-10, ,43, ,
-9, ,43, ,
-8, ,43, ,
-6, ,43, ,
-6, ,43, ,
-3, ,43, ,
-2, ,43, ,
-2, ,43, ,
0, ,43, ,
1, ,43, ,
2, ,43, ,
3, ,43, ,
2, ,43, ,
3, ,43, ,
4, ,43, ,
4, ,43, ,
4, ,43, ,
5, ,43, ,
5, ,43, ,
5, ,43, ,
5, ,43, ,
5, ,43, ,
5, ,43, ,
5, ,43, ,
5, ,43, ,
5, ,43, ,
4, ,43, ,
4, ,43, ,
4, ,43, ,
3, ,43, ,
2, ,43, ,
2, ,43, ,
2, ,43, ,
1, ,43, ,
0, ,43, ,
0, ,43, ,
-1, ,43, ,
-1, ,43, ,
-1, ,43, ,
-1, ,43, ,
-1, ,43, ,
-1, ,43, ,
-1, ,43, ,
-1, ,43, ,
-1, ,43, ,
0, ,43, ,
0, ,43, ,
0, ,43, ,
0, ,43, ,
1, ,43, ,
1, ,43, ,
1, ,43, ,
1, ,43, ,
2, ,43, ,
2, ,43, ,
1, ,43, ,
2, ,43, ,
2, ,43, ,
1, ,43, ,
1, ,43, ,
1, ,43, ,
0, ,43, ,
0, ,43, ,
-1, ,43, ,
-1, ,43, ,
-2, ,43, ,
-3, ,43, ,
-3, ,43, ,
-4, ,43, ,
-5, ,43, ,
-5, ,43, ,
-6, ,43, ,
-6, ,43, ,
-7, ,43, ,
-7, ,43, ,
-7, ,43, ,
-7, ,43, ,
-7, ,43, ,
-6, ,43, ,
-6, ,43, ,
-5, ,43, ,
-4, ,43, ,
-3, ,43, ,
-2, ,43, ,
-1, ,43, ,
1, ,43, ,
2, ,43, ,
3, ,43, ,
4, ,43, ,
5, ,43, ,
5, ,43, ,
5, ,43, ,
5, ,43, ,
6, ,43, ,
5, ,43, ,
5, ,43, ,
4, ,43, ,
3, ,43, ,
2, ,43, ,
2, ,43, ,
1, ,43, ,
0, ,43, ,
0, ,43, ,
0, ,43, ,
0, ,43, ,
0, ,43, ,
0, ,43, ,
0, ,43, ,
0, ,43, ,
0, ,43, ,
0, ,43, ,
1, ,43, ,
1, ,43, ,
1, ,43, ,
1, ,43, ,
1, ,43, ,
1, ,43, ,
0, ,43, ,
0, ,43, ,
0, ,43, ,
1, ,43, ,
0, ,43, ,
0, ,43, ,
1, ,43, ,
1, ,43, ,
1, ,43, ,
1, ,43, ,
2, ,43, ,
2, ,43, ,
3, ,43, ,
4, ,43, ,
5, ,43, ,
5, ,43, ,
6, ,43, ,
6, ,43, ,
6, ,43, ,
7, ,43, ,
7, ,43, ,
6, ,43, ,
6, ,43, ,
5, ,43, ,
4, ,43, ,
3, ,43, ,
2, ,43, ,
1, ,43, ,
-1, ,43, ,
-2, ,43, ,
-3, ,43, ,
-4, ,43, ,
-6, ,43, ,
-7, ,43, ,
-8, ,43, ,
-9, ,43, ,
-9, ,43, ,
-10, ,43, ,
-10, ,43, ,
-10, ,43, ,
-9, ,43, ,
-8, ,43, ,
-7, ,43, ,
-6, ,43, ,
-3, ,43, ,
-3, ,43, ,
-1, ,43, ,
0, ,43, ,
2, ,43, ,
4, ,43, ,
4, ,43, ,
5, ,43, ,
7, ,43, ,
7, ,43, ,
7, ,43, ,
7, ,43, ,
6, ,43, ,
6, ,43, ,
6, ,43, ,
5, ,43, ,
5, ,43, ,
4, ,43, ,
4, ,43, ,
3, ,43, ,
3, ,43, ,
4, ,43, ,
4, ,43, ,
4, ,43, ,
4, ,43, ,
4, ,43, ,
4, ,43, ,
4, ,43, ,
4, ,43, ,
4, ,43, ,
3, ,43, ,
3, ,43, ,
3, ,43, ,
3, ,43, ,
3, ,43, ,
2, ,43, ,
1, ,43, ,
1, ,43, ,
0, ,43, ,
0, ,43, ,
-1, ,43, ,
-2, ,43, ,
-2, ,43, ,
-3, ,43, ,
-5, ,43, ,
-6, ,43, ,
-7, ,43, ,
-7, ,43, ,
-9, ,43, ,
-9, ,43, ,
-9, ,43, ,
-10, ,43, ,
-10, ,43, ,
-9, ,43, ,
-9, ,43, ,
-8, ,43, ,
-6, ,43, ,
-6, ,43, ,
-5, ,43, ,
-4, ,43, ,
-2, ,43, ,
-1, ,43, ,
0, ,43, ,
1, ,43, ,
1, ,43, ,
1, ,43, ,
1, ,43, ,
1, ,43, ,
1, ,43, ,
0, ,43, ,
0, ,43, ,
0, ,43, ,
0, ,43, ,
0, ,43, ,
0, ,43, ,
1, ,43, ,
1, ,43, ,
2, ,43, ,
2, ,43, ,
3, ,43, ,
4, ,43, ,
4, ,43, ,
5, ,43, ,
5, ,43, ,
5, ,43, ,
4, ,43, ,
4, ,43, ,
3, ,43, ,
2, ,43, ,
1, ,43, ,
1, ,43, ,
0, ,43, ,
-1, ,43, ,
-2, ,43, ,
-3, ,43, ,
-3, ,43, ,
-4, ,43, ,
-4, ,43, ,
-4, ,43, ,
-5, ,43, ,
-5, ,43, ,
-4, ,43, ,
-4, ,43, ,
-3, ,43, ,
-2, ,43, ,
-1, ,43, ,
0, ,43, ,
0, ,43, ,
2, ,43, ,
3, ,43, ,
4, ,43, ,
5, ,43, ,
6, ,43, ,
6, ,43, ,
7, ,43, ,
7, ,43, ,
7, ,43, ,
7, ,43, ,
6, ,43, ,
6, ,43, ,
5, ,43, ,
4, ,43, ,
3, ,43, ,
3, ,43, ,
1, ,43, ,
0, ,43, ,
-1, ,43, ,
-2, ,43, ,
-3, ,43, ,
-4, ,43, ,
-4, ,43, ,
-5, ,43, ,
-6, ,43, ,
-7, ,43, ,
-7, ,43, ,
-7, ,43, ,
-7, ,43, ,
-7, ,43, ,
-6, ,43, ,
-7, ,43, ,
-6, ,43, ,
-5, ,43, ,
-5, ,43, ,
-3, ,43, ,
-2, ,43, ,
-2, ,43, ,
0, ,43, ,
0, ,43, ,
2, ,43, ,
3, ,43, ,
3, ,43, ,
4, ,43, ,
4, ,43, ,
4, ,43, ,
5, ,43, ,
4, ,43, ,
4, ,43, ,
4, ,43, ,
3, ,43, ,
3, ,43, ,
2, ,43, ,
1, ,43, ,
0, ,43, ,
-1, ,43, ,
-2, ,43, ,
-2, ,43, ,
-3, ,43, ,
-3, ,43, ,
-3, ,43, ,
-3, ,43, ,
-3, ,43, ,
-2, ,43, ,
-2, ,43, ,
-2, ,43, ,
-1, ,43, ,
-1, ,43, ,
0, ,43, ,
0, ,43, ,
1, ,43, ,
1, ,43, ,
1, ,43, ,
2, ,43, ,
1, ,43, ,
1, ,43, ,
1, ,43, ,
1, ,43, ,
1, ,43, ,
1, ,43, ,
1, ,43, ,
1, ,43, ,
1, ,43, ,
1, ,43, ,
1, ,43, ,
1, ,43, ,
2, ,43, ,
2, ,43, ,
2, ,43, ,
2, ,43, ,
2, ,43, ,
3, ,43, ,
3, ,43, ,
3, ,43, ,
3, ,43, ,
3, ,43, ,
2, ,43, ,
2, ,43, ,
2, ,43, ,
2, ,43, ,
0, ,43, ,
0, ,43, ,
0, ,43, ,
-1, ,43, ,
-2, ,43, ,
-2, ,43, ,
-3, ,43, ,
-3, ,43, ,
