raw_data/75% Glycerol, Impulsion 2Hz, Sonde 5MHz, Rampe 0.7Hz/temp0000069.CSV

Format,1.0B,
Memory Length,10000,Memory Length,10000,
IntpDistance,0,IntpDistance,0,
Trigger Address,159,Trigger Address,159,
Trigger Level,2.720E-01,Trigger Level,2.720E-01,
Source,CH1,Source,CH2,
Vertical Units,V,Vertical Units,V,
Vertical Units Div,0,Vertical Units Div,0,
Vertical Units Extend Div,16,Vertical Units Extend Div,16,
Label,,Label,,
Probe Type,0,Probe Type,0,
Probe Ratio,1.000e+00,Probe Ratio,1.000e+00,
Vertical Scale,5.000e-01,Vertical Scale,2.000e+00,
Vertical Position,0.000e+00,Vertical Position,0.000e+00,
Horizontal Units,S,Horizontal Units,S,
Horizontal Scale,5.000E-06,Horizontal Scale,5.000E-06,
Horizontal Position,2.420E-05,Horizontal Position,2.420E-05,
Horizontal Mode,Main,Horizontal Mode,Main,
SincET Mode,Real Time,SincET Mode,Real Time,
Sampling Period,5.000e-09,Sampling Period,5.000e-09,
Horizontal Old Scale,5.000E-06,Horizontal Old Scale,5.000E-06,
Horizontal Old Position,2.420E-05,Horizontal Old Position,2.420E-05,
Firmware,V1.32,Firmware,V1.32,
Mode,Fast,Mode,Fast,
Waveform Data,,Waveform Data,,
0, ,17, ,
0, ,17, ,
0, ,17, ,
0, ,17, ,
0, ,17, ,
0, ,17, ,
1, ,17, ,
0, ,17, ,
0, ,17, ,
0, ,17, ,
0, ,17, ,
0, ,17, ,
0, ,17, ,
0, ,17, ,
0, ,17, ,
0, ,17, ,
0, ,17, ,
0, ,17, ,
0, ,17, ,
0, ,17, ,
0, ,17, ,
1, ,17, ,
1, ,17, ,
1, ,17, ,
0, ,17, ,
0, ,17, ,
1, ,17, ,
0, ,17, ,
0, ,17, ,
0, ,17, ,
0, ,17, ,
1, ,17, ,
1, ,17, ,
0, ,17, ,
0, ,17, ,
0, ,17, ,
0, ,17, ,
0, ,17, ,
0, ,17, ,
1, ,17, ,
1, ,17, ,
1, ,17, ,
1, ,17, ,
0, ,17, ,
0, ,17, ,
0, ,17, ,
0, ,17, ,
0, ,17, ,
0, ,17, ,
0, ,17, ,
0, ,17, ,
0, ,17, ,
1, ,17, ,
0, ,17, ,
0, ,17, ,
0, ,17, ,
0, ,17, ,
0, ,17, ,
1, ,17, ,
1, ,17, ,
1, ,17, ,
0, ,17, ,
0, ,17, ,
1, ,17, ,
1, ,17, ,
0, ,17, ,
0, ,17, ,
1, ,17, ,
1, ,17, ,
1, ,17, ,
0, ,17, ,
0, ,17, ,
0, ,17, ,
0, ,17, ,
0, ,17, ,
0, ,17, ,
0, ,17, ,
0, ,17, ,
0, ,17, ,
1, ,17, ,
0, ,17, ,
0, ,16, ,
0, ,16, ,
0, ,17, ,
0, ,17, ,
0, ,17, ,
1, ,17, ,
1, ,17, ,
0, ,17, ,
0, ,17, ,
0, ,17, ,
0, ,17, ,
0, ,17, ,
0, ,17, ,
0, ,17, ,
0, ,17, ,
0, ,17, ,
0, ,17, ,
1, ,17, ,
0, ,17, ,
0, ,17, ,
0, ,17, ,
0, ,17, ,
0, ,17, ,
0, ,17, ,
0, ,17, ,
0, ,17, ,
0, ,17, ,
0, ,17, ,
1, ,17, ,
0, ,17, ,
0, ,17, ,
0, ,17, ,
0, ,17, ,
0, ,17, ,
0, ,17, ,
0, ,17, ,
1, ,17, ,
1, ,17, ,
1, ,17, ,
1, ,17, ,
0, ,17, ,
0, ,16, ,
0, ,16, ,
1, ,16, ,
0, ,17, ,
0, ,17, ,
1, ,17, ,
0, ,17, ,
0, ,17, ,
0, ,17, ,
0, ,17, ,
0, ,17, ,
0, ,17, ,
0, ,17, ,
0, ,17, ,
0, ,17, ,
1, ,17, ,
1, ,17, ,
0, ,17, ,
0, ,17, ,
0, ,17, ,
0, ,17, ,
0, ,17, ,
1, ,16, ,
0, ,16, ,
0, ,17, ,
1, ,17, ,
1, ,17, ,
1, ,17, ,
1, ,17, ,
0, ,17, ,
0, ,17, ,
0, ,17, ,
0, ,17, ,
0, ,17, ,
0, ,17, ,
0, ,17, ,
0, ,17, ,
0, ,17, ,
0, ,17, ,
0, ,17, ,
0, ,17, ,
0, ,17, ,
0, ,17, ,
-1, ,17, ,
0, ,17, ,
-2, ,17, ,
6, ,17, ,
59, ,17, ,
100, ,17, ,
125, ,17, ,
123, ,17, ,
78, ,17, ,
19, ,17, ,
-7, ,17, ,
20, ,17, ,
123, ,17, ,
125, ,17, ,
125, ,17, ,
125, ,17, ,
125, ,17, ,
125, ,17, ,
125, ,17, ,
124, ,17, ,
119, ,17, ,
114, ,17, ,
108, ,17, ,
105, ,17, ,
99, ,17, ,
95, ,16, ,
92, ,16, ,
88, ,17, ,
81, ,17, ,
79, ,17, ,
75, ,17, ,
73, ,17, ,
67, ,17, ,
64, ,17, ,
62, ,17, ,
60, ,17, ,
55, ,17, ,
53, ,17, ,
50, ,17, ,
48, ,17, ,
44, ,17, ,
42, ,17, ,
40, ,17, ,
38, ,17, ,
35, ,17, ,
34, ,17, ,
32, ,17, ,
31, ,16, ,
28, ,16, ,
26, ,17, ,
25, ,17, ,
25, ,17, ,
22, ,17, ,
22, ,17, ,
21, ,17, ,
20, ,17, ,
18, ,17, ,
17, ,17, ,
16, ,17, ,
16, ,17, ,
14, ,17, ,
13, ,17, ,
12, ,17, ,
12, ,17, ,
10, ,17, ,
9, ,17, ,
9, ,17, ,
8, ,17, ,
7, ,17, ,
7, ,17, ,
7, ,17, ,
7, ,17, ,
6, ,17, ,
5, ,17, ,
5, ,17, ,
4, ,17, ,
4, ,16, ,
4, ,16, ,
3, ,17, ,
3, ,17, ,
2, ,17, ,
2, ,17, ,
2, ,17, ,
2, ,17, ,
1, ,17, ,
1, ,17, ,
1, ,17, ,
1, ,17, ,
1, ,17, ,
0, ,16, ,
0, ,16, ,
0, ,17, ,
0, ,17, ,
0, ,17, ,
0, ,17, ,
0, ,17, ,
0, ,17, ,
0, ,17, ,
0, ,17, ,
-1, ,17, ,
-1, ,17, ,
-1, ,17, ,
-1, ,17, ,
-1, ,17, ,
-1, ,17, ,
-1, ,17, ,
-1, ,17, ,
-1, ,17, ,
-1, ,17, ,
-1, ,17, ,
-2, ,17, ,
-2, ,17, ,
-2, ,17, ,
-1, ,17, ,
-2, ,17, ,
-2, ,17, ,
-1, ,17, ,
-1, ,17, ,
-1, ,17, ,
-1, ,17, ,
-1, ,17, ,
-1, ,17, ,
-1, ,17, ,
-2, ,17, ,
-2, ,16, ,
-1, ,16, ,
-1, ,17, ,
-1, ,17, ,
-1, ,17, ,
-1, ,16, ,
-1, ,16, ,
-1, ,17, ,
-1, ,17, ,
-1, ,17, ,
-1, ,17, ,
-1, ,17, ,
-1, ,17, ,
-1, ,17, ,
-1, ,17, ,
-1, ,17, ,
-1, ,17, ,
-1, ,17, ,
-1, ,17, ,
-1, ,16, ,
-1, ,16, ,
-1, ,16, ,
-1, ,17, ,
-1, ,17, ,
-1, ,17, ,
-1, ,17, ,
-1, ,17, ,
-1, ,17, ,
-1, ,17, ,
-1, ,17, ,
-1, ,17, ,
-1, ,17, ,
-1, ,17, ,
-1, ,17, ,
-1, ,17, ,
0, ,17, ,
0, ,17, ,
-1, ,17, ,
-1, ,17, ,
-1, ,17, ,
-1, ,17, ,
0, ,17, ,
0, ,17, ,
0, ,17, ,
0, ,17, ,
0, ,17, ,
0, ,17, ,
0, ,17, ,
0, ,17, ,
0, ,17, ,
0, ,17, ,
0, ,17, ,
0, ,17, ,
0, ,17, ,
0, ,16, ,
0, ,16, ,
0, ,16, ,
0, ,16, ,
0, ,16, ,
0, ,16, ,
0, ,17, ,
0, ,16, ,
0, ,16, ,
0, ,17, ,
0, ,17, ,
0, ,17, ,
0, ,17, ,
0, ,17, ,
0, ,17, ,
0, ,17, ,
0, ,17, ,
0, ,17, ,
0, ,17, ,
0, ,17, ,
0, ,17, ,
0, ,17, ,
0, ,17, ,
0, ,17, ,
0, ,17, ,
0, ,17, ,
0, ,17, ,
0, ,17, ,
0, ,17, ,
0, ,17, ,
0, ,17, ,
0, ,17, ,
0, ,17, ,
0, ,17, ,
0, ,17, ,
0, ,17, ,
0, ,17, ,
0, ,17, ,
0, ,17, ,
0, ,17, ,
0, ,17, ,
0, ,17, ,
0, ,17, ,
0, ,17, ,
0, ,17, ,
0, ,17, ,
0, ,17, ,
0, ,17, ,
0, ,17, ,
0, ,17, ,
0, ,17, ,
0, ,17, ,
0, ,17, ,
0, ,17, ,
0, ,17, ,
0, ,17, ,
0, ,16, ,
0, ,16, ,
0, ,16, ,
0, ,17, ,
0, ,17, ,
0, ,17, ,
0, ,17, ,
1, ,17, ,
1, ,17, ,
1, ,17, ,
0, ,17, ,
0, ,17, ,
0, ,17, ,
0, ,17, ,
1, ,17, ,
1, ,16, ,
1, ,16, ,
1, ,17, ,
0, ,17, ,
0, ,16, ,
0, ,16, ,
0, ,16, ,
1, ,17, ,
0, ,17, ,
0, ,17, ,
0, ,17, ,
0, ,17, ,
0, ,17, ,
0, ,17, ,
0, ,17, ,
0, ,17, ,
0, ,17, ,
0, ,17, ,
0, ,17, ,
0, ,17, ,
0, ,17, ,
0, ,17, ,
0, ,17, ,
0, ,17, ,
0, ,17, ,
0, ,17, ,
-1, ,17, ,
-1, ,17, ,
-1, ,17, ,
-2, ,17, ,
-2, ,17, ,
-3, ,17, ,
-3, ,17, ,
-3, ,17, ,
-2, ,17, ,
-2, ,17, ,
-1, ,17, ,
-1, ,17, ,
-1, ,17, ,
0, ,17, ,
0, ,17, ,
0, ,17, ,
-1, ,17, ,
-1, ,17, ,
-1, ,17, ,
-2, ,17, ,
-2, ,17, ,
-3, ,17, ,
-4, ,17, ,
-4, ,17, ,
-5, ,17, ,
-5, ,17, ,
-5, ,17, ,
-5, ,17, ,
-4, ,17, ,
-3, ,17, ,
-2, ,17, ,
0, ,17, ,
-1, ,17, ,
1, ,17, ,
2, ,17, ,
2, ,17, ,
2, ,17, ,
3, ,17, ,
3, ,17, ,
3, ,17, ,
2, ,17, ,
2, ,17, ,
2, ,17, ,
1, ,17, ,
1, ,17, ,
1, ,17, ,
0, ,17, ,
0, ,17, ,
0, ,17, ,
0, ,17, ,
0, ,17, ,
0, ,17, ,
1, ,17, ,
1, ,17, ,
2, ,17, ,
2, ,17, ,
2, ,17, ,
2, ,17, ,
2, ,17, ,
1, ,17, ,
1, ,17, ,
2, ,17, ,
2, ,17, ,
2, ,17, ,
2, ,17, ,
2, ,17, ,
2, ,17, ,
2, ,17, ,
2, ,17, ,
2, ,17, ,
2, ,17, ,
2, ,17, ,
2, ,17, ,
2, ,17, ,
2, ,17, ,
2, ,17, ,
1, ,17, ,
0, ,16, ,
0, ,16, ,
0, ,17, ,
-2, ,17, ,
-4, ,17, ,
-5, ,17, ,
-7, ,17, ,
-8, ,17, ,
-11, ,17, ,
-12, ,17, ,
-14, ,17, ,
-14, ,17, ,
-14, ,17, ,
-14, ,17, ,
-14, ,17, ,
-13, ,17, ,
-12, ,17, ,
-12, ,17, ,
-12, ,17, ,
-12, ,17, ,
-13, ,17, ,
-14, ,17, ,
-15, ,17, ,
-16, ,17, ,
-21, ,17, ,
-24, ,16, ,
-26, ,16, ,
-29, ,16, ,
-32, ,17, ,
-32, ,17, ,
-32, ,17, ,
-31, ,17, ,
-28, ,17, ,
-26, ,17, ,
-24, ,17, ,
-22, ,17, ,
-18, ,17, ,
-16, ,16, ,
-15, ,16, ,
-14, ,16, ,
-15, ,17, ,
-16, ,17, ,
-16, ,17, ,
-17, ,17, ,
-20, ,17, ,
-22, ,17, ,
-24, ,17, ,
-25, ,17, ,
-27, ,17, ,
-28, ,17, ,
-29, ,17, ,
-29, ,17, ,
-28, ,17, ,
-28, ,17, ,
-28, ,17, ,
-26, ,17, ,
-24, ,17, ,
-23, ,17, ,
-21, ,17, ,
-18, ,17, ,
-15, ,17, ,
-12, ,17, ,
-10, ,17, ,
-7, ,16, ,
-1, ,16, ,
1, ,17, ,
4, ,17, ,
7, ,17, ,
12, ,17, ,
14, ,17, ,
15, ,17, ,
17, ,17, ,
18, ,17, ,
18, ,17, ,
18, ,17, ,
17, ,17, ,
15, ,17, ,
14, ,17, ,
12, ,17, ,
10, ,17, ,
6, ,17, ,
5, ,17, ,
2, ,17, ,
1, ,17, ,
-2, ,17, ,
-2, ,17, ,
-2, ,17, ,
-2, ,17, ,
-1, ,17, ,
1, ,17, ,
2, ,17, ,
3, ,17, ,
6, ,17, ,
7, ,17, ,
8, ,17, ,
9, ,17, ,
10, ,17, ,
11, ,17, ,
11, ,17, ,
11, ,17, ,
10, ,17, ,
9, ,17, ,
9, ,17, ,
8, ,17, ,
6, ,17, ,
5, ,17, ,
3, ,17, ,
2, ,17, ,
-1, ,17, ,
-3, ,17, ,
-4, ,17, ,
-6, ,17, ,
-8, ,17, ,
-9, ,17, ,
-10, ,17, ,
-11, ,17, ,
-11, ,17, ,
-11, ,17, ,
-12, ,17, ,
-12, ,17, ,
-11, ,17, ,
-11, ,17, ,
-11, ,16, ,
-11, ,16, ,
-11, ,16, ,
-11, ,17, ,
-10, ,17, ,
-10, ,17, ,
-10, ,17, ,
-10, ,17, ,
-10, ,17, ,
-10, ,17, ,
-11, ,17, ,
-11, ,17, ,
-12, ,17, ,
-13, ,16, ,
-14, ,16, ,
-16, ,17, ,
-17, ,17, ,
-19, ,17, ,
-22, ,17, ,
-23, ,17, ,
-24, ,17, ,
-24, ,17, ,
-24, ,17, ,
-23, ,17, ,
-22, ,16, ,
-22, ,16, ,
-20, ,16, ,
-18, ,17, ,
-17, ,17, ,
-15, ,17, ,
-12, ,17, ,
-11, ,17, ,
-10, ,17, ,
-8, ,17, ,
-6, ,17, ,
-4, ,17, ,
-3, ,17, ,
-1, ,17, ,
1, ,17, ,
2, ,17, ,
4, ,17, ,
4, ,17, ,
6, ,17, ,
6, ,17, ,
6, ,17, ,
6, ,17, ,
5, ,17, ,
4, ,17, ,
2, ,17, ,
1, ,17, ,
-1, ,17, ,
-3, ,17, ,
-5, ,17, ,
-6, ,16, ,
-9, ,16, ,
-9, ,17, ,
-11, ,17, ,
-12, ,17, ,
-14, ,17, ,
-14, ,17, ,
-15, ,17, ,
-15, ,17, ,
-15, ,17, ,
-15, ,17, ,
-15, ,17, ,
-15, ,17, ,
-14, ,17, ,
-14, ,17, ,
-14, ,17, ,
-13, ,17, ,
-13, ,17, ,
-13, ,17, ,
-13, ,17, ,
-13, ,17, ,
-13, ,17, ,
-13, ,17, ,
-13, ,17, ,
-13, ,17, ,
-11, ,17, ,
-10, ,17, ,
-9, ,17, ,
-7, ,17, ,
-4, ,17, ,
-2, ,17, ,
0, ,17, ,
3, ,17, ,
7, ,17, ,
9, ,17, ,
11, ,17, ,
13, ,17, ,
17, ,17, ,
19, ,17, ,
19, ,17, ,
20, ,17, ,
22, ,17, ,
22, ,17, ,
23, ,17, ,
22, ,17, ,
21, ,17, ,
20, ,17, ,
19, ,17, ,
18, ,17, ,
15, ,17, ,
13, ,17, ,
11, ,17, ,
9, ,17, ,
4, ,17, ,
2, ,17, ,
-1, ,17, ,
-3, ,17, ,
-7, ,17, ,
-10, ,17, ,
-10, ,17, ,
-11, ,17, ,
-13, ,17, ,
-13, ,16, ,
-13, ,16, ,
-12, ,16, ,
-11, ,17, ,
-10, ,17, ,
-9, ,17, ,
-8, ,17, ,
-6, ,17, ,
-4, ,17, ,
-3, ,17, ,
-2, ,17, ,
-1, ,17, ,
-2, ,17, ,
-2, ,17, ,
-3, ,17, ,
-5, ,17, ,
-6, ,17, ,
-7, ,17, ,
-8, ,16, ,
-13, ,16, ,
-14, ,17, ,
-16, ,16, ,
-18, ,16, ,
-22, ,16, ,
-24, ,17, ,
-25, ,17, ,
-26, ,17, ,
-27, ,17, ,
-27, ,17, ,
-27, ,17, ,
-27, ,17, ,
-27, ,17, ,
-27, ,17, ,
-25, ,17, ,
-25, ,17, ,
-23, ,17, ,
-22, ,17, ,
-20, ,17, ,
-19, ,17, ,
-16, ,17, ,
-14, ,17, ,
-12, ,17, ,
-11, ,17, ,
-8, ,17, ,
-7, ,17, ,
-7, ,17, ,
-6, ,17, ,
-7, ,17, ,
-7, ,17, ,
-9, ,17, ,
-9, ,17, ,
-12, ,17, ,
-13, ,17, ,
-14, ,17, ,
-16, ,17, ,
-18, ,17, ,
-18, ,17, ,
-19, ,17, ,
-19, ,17, ,
-18, ,17, ,
-18, ,17, ,
-16, ,17, ,
-15, ,17, ,
-12, ,17, ,
-10, ,17, ,
-8, ,17, ,
-6, ,17, ,
-2, ,17, ,
0, ,17, ,
2, ,17, ,
3, ,17, ,
7, ,17, ,
9, ,16, ,
9, ,16, ,
11, ,16, ,
13, ,17, ,
13, ,17, ,
13, ,17, ,
13, ,17, ,
12, ,17, ,
12, ,17, ,
11, ,17, ,
11, ,17, ,
9, ,16, ,
8, ,16, ,
6, ,16, ,
5, ,16, ,
3, ,16, ,
3, ,17, ,
2, ,17, ,
2, ,17, ,
1, ,17, ,
1, ,17, ,
1, ,17, ,
2, ,17, ,
3, ,17, ,
3, ,17, ,
4, ,17, ,
6, ,17, ,
8, ,17, ,
8, ,17, ,
10, ,17, ,
10, ,17, ,
12, ,17, ,
13, ,17, ,
13, ,17, ,
14, ,17, ,
13, ,17, ,
12, ,17, ,
12, ,17, ,
11, ,17, ,
8, ,17, ,
7, ,17, ,
6, ,17, ,
5, ,16, ,
1, ,16, ,
-1, ,17, ,
-1, ,17, ,
-4, ,17, ,
-6, ,16, ,
-7, ,16, ,
-9, ,17, ,
-9, ,17, ,
-9, ,17, ,
-10, ,17, ,
-10, ,17, ,
-10, ,17, ,
-9, ,17, ,
-9, ,17, ,
-9, ,17, ,
-9, ,17, ,
-9, ,17, ,
-10, ,17, ,
-10, ,17, ,
-12, ,17, ,
-13, ,17, ,
-14, ,17, ,
-16, ,17, ,
-18, ,17, ,
-21, ,17, ,
-23, ,17, ,
-24, ,17, ,
-25, ,17, ,
-28, ,17, ,
-28, ,17, ,
-28, ,17, ,
-28, ,16, ,
-27, ,16, ,
-27, ,17, ,
-25, ,16, ,
-25, ,16, ,
-20, ,16, ,
-18, ,17, ,
-16, ,17, ,
-14, ,17, ,
-9, ,17, ,
-8, ,17, ,
-6, ,17, ,
-4, ,17, ,
-2, ,17, ,
-1, ,17, ,
-2, ,17, ,
-2, ,17, ,
-3, ,17, ,
-3, ,17, ,
-4, ,17, ,
-5, ,17, ,
-7, ,17, ,
-7, ,17, ,
-8, ,17, ,
-8, ,17, ,
-8, ,17, ,
-9, ,17, ,
-9, ,17, ,
-9, ,17, ,
-8, ,16, ,
-8, ,16, ,
-7, ,17, ,
-7, ,17, ,
-6, ,17, ,
-6, ,17, ,
-5, ,17, ,
-5, ,17, ,
-4, ,17, ,
-4, ,17, ,
-4, ,17, ,
-3, ,17, ,
-3, ,17, ,
-3, ,17, ,
-2, ,17, ,
-2, ,17, ,
-1, ,17, ,
-1, ,17, ,
-1, ,17, ,
-1, ,16, ,
-1, ,16, ,
-1, ,17, ,
-1, ,16, ,
-1, ,16, ,
0, ,16, ,
0, ,17, ,
0, ,17, ,
0, ,17, ,
1, ,17, ,
1, ,17, ,
1, ,17, ,
2, ,17, ,
2, ,17, ,
2, ,17, ,
3, ,17, ,
3, ,17, ,
3, ,17, ,
3, ,17, ,
3, ,17, ,
3, ,17, ,
2, ,17, ,
2, ,17, ,
1, ,17, ,
1, ,17, ,
0, ,17, ,
-1, ,17, ,
-1, ,17, ,
-2, ,17, ,
-3, ,17, ,
-3, ,17, ,
-4, ,17, ,
-4, ,17, ,
-4, ,17, ,
-4, ,17, ,
-4, ,17, ,
-4, ,17, ,
-4, ,17, ,
-3, ,17, ,
-2, ,17, ,
-1, ,17, ,
1, ,17, ,
1, ,17, ,
3, ,17, ,
3, ,17, ,
5, ,16, ,
7, ,16, ,
6, ,17, ,
7, ,16, ,
8, ,16, ,
7, ,17, ,
7, ,17, ,
7, ,17, ,
6, ,17, ,
5, ,17, ,
4, ,17, ,
4, ,17, ,
1, ,17, ,
-1, ,17, ,
-2, ,17, ,
-3, ,17, ,
-6, ,17, ,
-7, ,17, ,
-8, ,17, ,
-9, ,17, ,
-11, ,17, ,
-11, ,17, ,
-11, ,17, ,
-11, ,17, ,
-10, ,17, ,
-9, ,17, ,
-9, ,17, ,
-8, ,17, ,
-6, ,17, ,
-5, ,17, ,
-4, ,17, ,
-3, ,17, ,
-3, ,17, ,
-2, ,17, ,
-1, ,17, ,
-1, ,17, ,
-1, ,17, ,
-2, ,17, ,
-2, ,17, ,
-2, ,17, ,
-3, ,17, ,
-3, ,17, ,
-3, ,17, ,
-3, ,17, ,
-3, ,17, ,
-3, ,17, ,
-2, ,17, ,
-2, ,17, ,
-1, ,17, ,
0, ,17, ,
0, ,17, ,
1, ,17, ,
2, ,17, ,
1, ,17, ,
1, ,17, ,
0, ,17, ,
-1, ,17, ,
-1, ,16, ,
-3, ,16, ,
-4, ,16, ,
-6, ,17, ,
-7, ,17, ,
-8, ,17, ,
-10, ,17, ,
-11, ,17, ,
-11, ,17, ,
-11, ,17, ,
-11, ,17, ,
-10, ,17, ,
-9, ,17, ,
-7, ,17, ,
-7, ,17, ,
-4, ,17, ,
-2, ,17, ,
-1, ,17, ,
1, ,17, ,
3, ,17, ,
4, ,17, ,
6, ,17, ,
6, ,17, ,
7, ,16, ,
8, ,16, ,
8, ,17, ,
8, ,17, ,
7, ,17, ,
6, ,17, ,
6, ,17, ,
5, ,17, ,
4, ,17, ,
3, ,17, ,
2, ,17, ,
2, ,17, ,
0, ,17, ,
-1, ,16, ,
-1, ,16, ,
-2, ,17, ,
-4, ,17, ,
-4, ,17, ,
-4, ,17, ,
-3, ,16, ,
-3, ,16, ,
-3, ,17, ,
-1, ,17, ,
-2, ,17, ,
1, ,17, ,
2, ,17, ,
3, ,17, ,
4, ,17, ,
7, ,17, ,
7, ,17, ,
8, ,17, ,
8, ,17, ,
7, ,17, ,
7, ,17, ,
6, ,17, ,
6, ,17, ,
4, ,17, ,
2, ,17, ,
1, ,17, ,
-1, ,17, ,
-4, ,17, ,
-5, ,17, ,
-7, ,17, ,
-9, ,17, ,
-12, ,17, ,
-14, ,17, ,
-15, ,17, ,
-16, ,17, ,
-18, ,17, ,
-18, ,17, ,
-19, ,17, ,
-19, ,16, ,
-18, ,16, ,
-18, ,17, ,
-17, ,17, ,
-16, ,17, ,
-12, ,17, ,
-10, ,17, ,
-9, ,17, ,
-6, ,17, ,
-1, ,17, ,
1, ,17, ,
4, ,17, ,
5, ,17, ,
8, ,17, ,
10, ,17, ,
10, ,17, ,
10, ,17, ,
10, ,17, ,
8, ,17, ,
8, ,17, ,
6, ,17, ,
3, ,17, ,
2, ,17, ,
1, ,17, ,
0, ,17, ,
-2, ,17, ,
-3, ,17, ,
-3, ,17, ,
-3, ,17, ,
-2, ,16, ,
-2, ,16, ,
-1, ,16, ,
0, ,17, ,
2, ,17, ,
3, ,17, ,
5, ,17, ,
5, ,17, ,
7, ,17, ,
8, ,17, ,
9, ,17, ,
9, ,17, ,
9, ,17, ,
9, ,17, ,
9, ,17, ,
8, ,17, ,
7, ,17, ,
7, ,17, ,
6, ,17, ,
6, ,16, ,
4, ,16, ,
3, ,17, ,
2, ,16, ,
0, ,16, ,
-2, ,16, ,
-2, ,17, ,
-4, ,17, ,
-5, ,17, ,
-6, ,17, ,
-7, ,16, ,
-7, ,16, ,
-8, ,17, ,
-9, ,17, ,
-9, ,17, ,
-9, ,17, ,
-9, ,17, ,
-9, ,17, ,
-9, ,17, ,
-9, ,16, ,
-9, ,16, ,
-9, ,16, ,
-10, ,17, ,
-10, ,17, ,
-10, ,17, ,
-9, ,17, ,
-9, ,17, ,
-9, ,17, ,
-9, ,17, ,
-9, ,17, ,
-8, ,17, ,
-8, ,17, ,
-6, ,17, ,
-5, ,17, ,
-4, ,17, ,
-3, ,17, ,
-2, ,17, ,
-1, ,17, ,
0, ,16, ,
1, ,16, ,
1, ,16, ,
0, ,17, ,
0, ,17, ,
-1, ,17, ,
-2, ,17, ,
-5, ,17, ,
-6, ,17, ,
-8, ,17, ,
-8, ,17, ,
-11, ,17, ,
-13, ,17, ,
-14, ,17, ,
-15, ,17, ,
-15, ,17, ,
-15, ,17, ,
-14, ,17, ,
-13, ,17, ,
-9, ,17, ,
-8, ,16, ,
-5, ,16, ,
-3, ,17, ,
4, ,17, ,
7, ,17, ,
10, ,17, ,
13, ,17, ,
17, ,17, ,
20, ,17, ,
22, ,17, ,
22, ,17, ,
23, ,17, ,
23, ,16, ,
21, ,16, ,
21, ,16, ,
17, ,17, ,
15, ,17, ,
12, ,17, ,
10, ,17, ,
3, ,16, ,
0, ,16, ,
-3, ,17, ,
-6, ,17, ,
-12, ,17, ,
-14, ,17, ,
-16, ,17, ,
-18, ,17, ,
-20, ,17, ,
-20, ,17, ,
-20, ,17, ,
-19, ,17, ,
-18, ,17, ,
-17, ,16, ,
-15, ,16, ,
-14, ,17, ,
-11, ,17, ,
-8, ,17, ,
-7, ,17, ,
-5, ,17, ,
-2, ,17, ,
-1, ,17, ,
0, ,17, ,
1, ,17, ,
0, ,17, ,
0, ,17, ,
-1, ,17, ,
-2, ,17, ,
-3, ,17, ,
-4, ,17, ,
-5, ,17, ,
-7, ,17, ,
-9, ,17, ,
-10, ,17, ,
-12, ,17, ,
-12, ,17, ,
-13, ,17, ,
-14, ,17, ,
-14, ,17, ,
-14, ,17, ,
-13, ,17, ,
-12, ,17, ,
-12, ,17, ,
-11, ,17, ,
-7, ,17, ,
-5, ,16, ,
-3, ,16, ,
-1, ,16, ,
4, ,17, ,
7, ,17, ,
9, ,17, ,
12, ,16, ,
17, ,16, ,
18, ,17, ,
20, ,17, ,
21, ,17, ,
23, ,17, ,
23, ,17, ,
22, ,17, ,
22, ,17, ,
20, ,17, ,
18, ,17, ,
17, ,17, ,
14, ,17, ,
10, ,17, ,
8, ,17, ,
6, ,17, ,
4, ,16, ,
0, ,16, ,
-2, ,17, ,
-3, ,17, ,
-5, ,17, ,
-7, ,17, ,
-8, ,17, ,
-8, ,17, ,
-8, ,17, ,
-8, ,17, ,
-8, ,17, ,
-8, ,17, ,
-8, ,17, ,
-8, ,16, ,
-8, ,16, ,
-9, ,17, ,
-9, ,16, ,
-9, ,16, ,
-9, ,17, ,
-9, ,16, ,
-9, ,16, ,
-9, ,16, ,
-9, ,17, ,
-9, ,17, ,
-8, ,17, ,
-7, ,17, ,
-7, ,17, ,
-7, ,17, ,
-6, ,17, ,
-4, ,17, ,
-3, ,17, ,
-2, ,17, ,
-1, ,17, ,
1, ,17, ,
2, ,17, ,
3, ,17, ,
3, ,17, ,
4, ,17, ,
4, ,17, ,
4, ,17, ,
5, ,17, ,
4, ,17, ,
4, ,16, ,
4, ,16, ,
4, ,17, ,
4, ,17, ,
4, ,17, ,
5, ,17, ,
5, ,17, ,
6, ,17, ,
6, ,17, ,
7, ,17, ,
7, ,17, ,
8, ,17, ,
9, ,17, ,
9, ,17, ,
10, ,17, ,
9, ,17, ,
8, ,17, ,
8, ,17, ,
7, ,17, ,
6, ,16, ,
5, ,16, ,
3, ,17, ,
2, ,17, ,
-2, ,17, ,
-3, ,17, ,
-4, ,16, ,
-7, ,16, ,
-9, ,16, ,
-10, ,17, ,
-12, ,17, ,
-12, ,17, ,
-12, ,17, ,
-12, ,17, ,
-12, ,17, ,
-12, ,17, ,
-12, ,17, ,
-10, ,17, ,
-9, ,17, ,
-9, ,17, ,
-6, ,17, ,
-6, ,17, ,
-4, ,17, ,
-3, ,17, ,
-1, ,17, ,
1, ,16, ,
1, ,16, ,
3, ,16, ,
5, ,17, ,
5, ,17, ,
7, ,17, ,
7, ,17, ,
9, ,17, ,
10, ,17, ,
10, ,17, ,
10, ,17, ,
10, ,17, ,
9, ,16, ,
9, ,16, ,
8, ,17, ,
7, ,17, ,
7, ,17, ,
5, ,17, ,
5, ,16, ,
3, ,16, ,
2, ,17, ,
1, ,17, ,
0, ,17, ,
-1, ,17, ,
-2, ,17, ,
-3, ,17, ,
-3, ,17, ,
-5, ,17, ,
-6, ,17, ,
-6, ,17, ,
-8, ,17, ,
-9, ,17, ,
-9, ,17, ,
-10, ,17, ,
-10, ,17, ,
-10, ,17, ,
-10, ,17, ,
-9, ,17, ,
-9, ,17, ,
-9, ,16, ,
-7, ,16, ,
-7, ,17, ,
-6, ,17, ,
-4, ,17, ,
-3, ,17, ,
-1, ,17, ,
-1, ,17, ,
1, ,17, ,
2, ,17, ,
2, ,17, ,
2, ,17, ,
4, ,17, ,
4, ,17, ,
4, ,17, ,
4, ,17, ,
5, ,17, ,
5, ,17, ,
5, ,17, ,
5, ,16, ,
5, ,16, ,
5, ,17, ,
5, ,16, ,
5, ,16, ,
5, ,16, ,
5, ,17, ,
5, ,17, ,
5, ,17, ,
4, ,17, ,
2, ,17, ,
2, ,17, ,
1, ,17, ,
-2, ,16, ,
-3, ,16, ,
-4, ,17, ,
-4, ,17, ,
-7, ,17, ,
-8, ,17, ,
-9, ,17, ,
-10, ,17, ,
-10, ,17, ,
-10, ,16, ,
-10, ,16, ,
-9, ,16, ,
-8, ,17, ,
-7, ,17, ,
-6, ,17, ,
-5, ,17, ,
-3, ,17, ,
-1, ,17, ,
0, ,17, ,
1, ,17, ,
4, ,17, ,
5, ,17, ,
6, ,17, ,
6, ,17, ,
8, ,17, ,
8, ,17, ,
8, ,17, ,
8, ,17, ,
8, ,17, ,
8, ,17, ,
8, ,17, ,
7, ,17, ,
6, ,17, ,
6, ,17, ,
5, ,17, ,
5, ,17, ,
3, ,17, ,
3, ,17, ,
2, ,17, ,
2, ,17, ,
1, ,17, ,
1, ,16, ,
1, ,16, ,
0, ,16, ,
0, ,17, ,
0, ,17, ,
0, ,17, ,
0, ,17, ,
0, ,17, ,
0, ,17, ,
0, ,17, ,
0, ,17, ,
0, ,17, ,
0, ,17, ,
0, ,17, ,
0, ,17, ,
0, ,17, ,
-1, ,17, ,
-1, ,17, ,
-1, ,17, ,
-2, ,17, ,
-2, ,17, ,
-2, ,17, ,
-3, ,17, ,
-3, ,17, ,
-3, ,17, ,
-3, ,17, ,
-2, ,16, ,
-2, ,16, ,
-1, ,17, ,
-1, ,17, ,
-1, ,17, ,
1, ,17, ,
2, ,17, ,
1, ,17, ,
3, ,17, ,
4, ,17, ,
4, ,17, ,
5, ,17, ,
4, ,17, ,
4, ,17, ,
5, ,17, ,
4, ,17, ,
4, ,17, ,
3, ,17, ,
2, ,17, ,
2, ,17, ,
0, ,17, ,
-2, ,17, ,
-2, ,17, ,
-3, ,17, ,
-4, ,17, ,
-5, ,17, ,
-6, ,17, ,
-6, ,17, ,
-7, ,17, ,
-7, ,17, ,
-7, ,17, ,
-7, ,17, ,
-7, ,17, ,
-6, ,17, ,
-6, ,17, ,
-5, ,17, ,
-6, ,17, ,
-4, ,17, ,
-3, ,17, ,
-3, ,17, ,
-2, ,17, ,
1, ,17, ,
1, ,17, ,
1, ,17, ,
2, ,17, ,
3, ,17, ,
5, ,17, ,
5, ,17, ,
6, ,17, ,
6, ,17, ,
6, ,17, ,
6, ,17, ,
6, ,17, ,
6, ,17, ,
7, ,17, ,
7, ,17, ,
7, ,17, ,
6, ,17, ,
5, ,17, ,
5, ,17, ,
5, ,17, ,
4, ,17, ,
3, ,17, ,
3, ,17, ,
2, ,17, ,
1, ,17, ,
0, ,17, ,
0, ,17, ,
-1, ,17, ,
-3, ,17, ,
-3, ,17, ,
-3, ,17, ,
-4, ,17, ,
-4, ,17, ,
-4, ,17, ,
-3, ,17, ,
-3, ,17, ,
-1, ,17, ,
0, ,17, ,
0, ,17, ,
2, ,17, ,
4, ,17, ,
5, ,17, ,
6, ,17, ,
6, ,17, ,
7, ,17, ,
7, ,17, ,
6, ,17, ,
6, ,17, ,
5, ,17, ,
3, ,17, ,
2, ,17, ,
0, ,17, ,
-3, ,16, ,
-5, ,16, ,
-6, ,17, ,
-7, ,16, ,
-11, ,16, ,
-12, ,17, ,
-12, ,16, ,
-13, ,16, ,
-13, ,16, ,
-13, ,17, ,
-13, ,17, ,
-13, ,17, ,
-11, ,17, ,
-11, ,17, ,
-9, ,17, ,
-8, ,17, ,
-7, ,17, ,
-6, ,17, ,
-5, ,17, ,
-4, ,17, ,
-2, ,17, ,
-2, ,17, ,
-1, ,17, ,
-1, ,17, ,
-1, ,17, ,
0, ,17, ,
0, ,17, ,
0, ,17, ,
1, ,17, ,
1, ,17, ,
2, ,17, ,
2, ,16, ,
3, ,16, ,
4, ,16, ,
4, ,17, ,
5, ,17, ,
5, ,17, ,
5, ,17, ,
6, ,17, ,
6, ,17, ,
6, ,17, ,
7, ,17, ,
6, ,17, ,
6, ,16, ,
6, ,16, ,
6, ,17, ,
6, ,17, ,
5, ,17, ,
4, ,17, ,
4, ,17, ,
3, ,17, ,
3, ,17, ,
2, ,17, ,
2, ,17, ,
2, ,17, ,
2, ,17, ,
1, ,17, ,
1, ,17, ,
1, ,17, ,
1, ,17, ,
1, ,17, ,
1, ,16, ,
1, ,16, ,
1, ,17, ,
1, ,17, ,
1, ,17, ,
1, ,17, ,
1, ,16, ,
1, ,16, ,
0, ,17, ,
0, ,17, ,
0, ,17, ,
0, ,17, ,
0, ,16, ,
-1, ,16, ,
-1, ,16, ,
-2, ,17, ,
-2, ,17, ,
-2, ,17, ,
-4, ,17, ,
-4, ,17, ,
-5, ,17, ,
-5, ,17, ,
-6, ,17, ,
-6, ,17, ,
-7, ,17, ,
-7, ,17, ,
-7, ,17, ,
-6, ,17, ,
-5, ,17, ,
-5, ,17, ,
-5, ,17, ,
-3, ,17, ,
-3, ,17, ,
-2, ,17, ,
-1, ,17, ,
1, ,17, ,
2, ,17, ,
2, ,17, ,
3, ,17, ,
4, ,17, ,
4, ,17, ,
4, ,17, ,
4, ,17, ,
3, ,17, ,
3, ,17, ,
3, ,17, ,
3, ,17, ,
2, ,17, ,
1, ,16, ,
1, ,16, ,
1, ,17, ,
1, ,17, ,
1, ,17, ,
1, ,17, ,
1, ,16, ,
1, ,16, ,
1, ,17, ,
1, ,17, ,
1, ,17, ,
1, ,17, ,
1, ,17, ,
1, ,17, ,
1, ,17, ,
0, ,17, ,
-1, ,16, ,
-1, ,16, ,
-2, ,17, ,
-3, ,17, ,
-3, ,17, ,
-5, ,17, ,
-5, ,17, ,
-6, ,17, ,
-7, ,17, ,
-7, ,17, ,
-7, ,17, ,
-6, ,17, ,
