raw_data/75% Glycerol, Impulsion 2Hz, Sonde 5MHz, Rampe 0.7Hz/temp0000041.CSV

Format,1.0B,
Memory Length,10000,Memory Length,10000,
IntpDistance,0,IntpDistance,0,
Trigger Address,159,Trigger Address,159,
Trigger Level,2.720E-01,Trigger Level,2.720E-01,
Source,CH1,Source,CH2,
Vertical Units,V,Vertical Units,V,
Vertical Units Div,0,Vertical Units Div,0,
Vertical Units Extend Div,16,Vertical Units Extend Div,16,
Label,,Label,,
Probe Type,0,Probe Type,0,
Probe Ratio,1.000e+00,Probe Ratio,1.000e+00,
Vertical Scale,5.000e-01,Vertical Scale,2.000e+00,
Vertical Position,0.000e+00,Vertical Position,0.000e+00,
Horizontal Units,S,Horizontal Units,S,
Horizontal Scale,5.000E-06,Horizontal Scale,5.000E-06,
Horizontal Position,2.420E-05,Horizontal Position,2.420E-05,
Horizontal Mode,Main,Horizontal Mode,Main,
SincET Mode,Real Time,SincET Mode,Real Time,
Sampling Period,5.000e-09,Sampling Period,5.000e-09,
Horizontal Old Scale,5.000E-06,Horizontal Old Scale,5.000E-06,
Horizontal Old Position,2.420E-05,Horizontal Old Position,2.420E-05,
Firmware,V1.32,Firmware,V1.32,
Mode,Fast,Mode,Fast,
Waveform Data,,Waveform Data,,
1, ,41, ,
1, ,41, ,
1, ,41, ,
1, ,41, ,
1, ,41, ,
1, ,40, ,
1, ,40, ,
1, ,40, ,
1, ,41, ,
1, ,41, ,
1, ,41, ,
0, ,41, ,
0, ,40, ,
0, ,40, ,
1, ,40, ,
1, ,41, ,
1, ,41, ,
1, ,41, ,
1, ,40, ,
1, ,40, ,
1, ,41, ,
0, ,41, ,
0, ,41, ,
1, ,41, ,
1, ,41, ,
1, ,41, ,
1, ,41, ,
1, ,41, ,
1, ,41, ,
1, ,41, ,
1, ,41, ,
0, ,41, ,
0, ,40, ,
1, ,40, ,
0, ,41, ,
0, ,40, ,
0, ,40, ,
0, ,40, ,
1, ,40, ,
1, ,40, ,
0, ,41, ,
0, ,40, ,
0, ,40, ,
1, ,40, ,
1, ,40, ,
1, ,40, ,
1, ,40, ,
1, ,40, ,
0, ,41, ,
0, ,41, ,
0, ,41, ,
1, ,41, ,
1, ,41, ,
1, ,41, ,
1, ,41, ,
1, ,41, ,
1, ,40, ,
0, ,40, ,
0, ,40, ,
0, ,41, ,
0, ,40, ,
0, ,40, ,
1, ,40, ,
1, ,41, ,
0, ,41, ,
0, ,41, ,
0, ,41, ,
1, ,41, ,
1, ,41, ,
1, ,41, ,
1, ,41, ,
1, ,41, ,
1, ,41, ,
1, ,41, ,
1, ,41, ,
1, ,41, ,
1, ,40, ,
1, ,40, ,
1, ,41, ,
1, ,41, ,
1, ,40, ,
1, ,40, ,
1, ,41, ,
1, ,41, ,
1, ,41, ,
1, ,41, ,
1, ,41, ,
1, ,41, ,
0, ,40, ,
0, ,40, ,
0, ,40, ,
1, ,41, ,
1, ,41, ,
1, ,41, ,
1, ,41, ,
0, ,41, ,
0, ,40, ,
0, ,40, ,
1, ,40, ,
1, ,40, ,
1, ,41, ,
1, ,41, ,
1, ,41, ,
1, ,41, ,
1, ,41, ,
1, ,40, ,
1, ,40, ,
1, ,40, ,
1, ,41, ,
1, ,41, ,
1, ,41, ,
0, ,41, ,
0, ,40, ,
1, ,40, ,
0, ,40, ,
0, ,40, ,
1, ,40, ,
1, ,41, ,
1, ,41, ,
1, ,41, ,
1, ,40, ,
1, ,40, ,
1, ,40, ,
1, ,41, ,
1, ,40, ,
1, ,40, ,
1, ,41, ,
1, ,41, ,
1, ,41, ,
1, ,41, ,
1, ,41, ,
1, ,41, ,
1, ,41, ,
1, ,41, ,
1, ,41, ,
1, ,40, ,
0, ,40, ,
0, ,41, ,
0, ,41, ,
1, ,41, ,
1, ,40, ,
1, ,40, ,
1, ,40, ,
1, ,41, ,
1, ,41, ,
1, ,41, ,
1, ,41, ,
1, ,41, ,
1, ,41, ,
1, ,41, ,
1, ,41, ,
1, ,41, ,
0, ,40, ,
0, ,40, ,
0, ,40, ,
1, ,41, ,
1, ,41, ,
1, ,41, ,
1, ,41, ,
1, ,40, ,
1, ,40, ,
1, ,41, ,
1, ,41, ,
1, ,40, ,
1, ,40, ,
1, ,40, ,
0, ,40, ,
-1, ,40, ,
2, ,41, ,
18, ,40, ,
46, ,40, ,
125, ,40, ,
124, ,41, ,
121, ,41, ,
99, ,41, ,
-4, ,41, ,
5, ,40, ,
55, ,40, ,
108, ,40, ,
125, ,40, ,
125, ,41, ,
125, ,41, ,
125, ,40, ,
125, ,40, ,
124, ,40, ,
124, ,40, ,
121, ,40, ,
110, ,41, ,
106, ,40, ,
102, ,40, ,
100, ,41, ,
94, ,41, ,
90, ,41, ,
86, ,41, ,
82, ,40, ,
76, ,40, ,
75, ,41, ,
72, ,41, ,
69, ,41, ,
63, ,41, ,
61, ,41, ,
59, ,40, ,
56, ,40, ,
52, ,40, ,
50, ,40, ,
47, ,40, ,
45, ,41, ,
42, ,41, ,
39, ,41, ,
38, ,41, ,
36, ,41, ,
33, ,41, ,
31, ,41, ,
30, ,41, ,
29, ,41, ,
26, ,41, ,
25, ,40, ,
25, ,40, ,
23, ,40, ,
21, ,40, ,
21, ,41, ,
20, ,41, ,
18, ,41, ,
17, ,41, ,
16, ,41, ,
15, ,41, ,
14, ,40, ,
13, ,40, ,
12, ,40, ,
11, ,40, ,
11, ,40, ,
10, ,40, ,
9, ,41, ,
9, ,40, ,
8, ,40, ,
7, ,40, ,
7, ,41, ,
6, ,41, ,
6, ,41, ,
6, ,40, ,
5, ,40, ,
5, ,40, ,
4, ,40, ,
4, ,41, ,
3, ,41, ,
3, ,41, ,
3, ,40, ,
2, ,40, ,
2, ,40, ,
2, ,41, ,
2, ,41, ,
1, ,41, ,
1, ,40, ,
1, ,40, ,
1, ,41, ,
1, ,41, ,
1, ,41, ,
1, ,41, ,
0, ,41, ,
0, ,40, ,
0, ,40, ,
0, ,41, ,
0, ,41, ,
0, ,41, ,
-1, ,41, ,
-1, ,40, ,
-1, ,40, ,
-1, ,40, ,
0, ,40, ,
-1, ,40, ,
-1, ,40, ,
-1, ,40, ,
-1, ,41, ,
-1, ,41, ,
-1, ,41, ,
-1, ,41, ,
-1, ,41, ,
-1, ,40, ,
-1, ,40, ,
-1, ,40, ,
-1, ,41, ,
-1, ,41, ,
-1, ,41, ,
-1, ,41, ,
-1, ,41, ,
-1, ,40, ,
-1, ,40, ,
-1, ,40, ,
-1, ,41, ,
-1, ,41, ,
-1, ,41, ,
-1, ,41, ,
-1, ,41, ,
-1, ,41, ,
-1, ,41, ,
-1, ,41, ,
-1, ,40, ,
-1, ,40, ,
-1, ,40, ,
-2, ,41, ,
-1, ,40, ,
-2, ,40, ,
-1, ,40, ,
-1, ,40, ,
-1, ,40, ,
-1, ,40, ,
-1, ,41, ,
-1, ,40, ,
-1, ,40, ,
-1, ,40, ,
0, ,40, ,
0, ,40, ,
-1, ,41, ,
-1, ,41, ,
-1, ,41, ,
-1, ,41, ,
0, ,41, ,
-1, ,41, ,
-1, ,41, ,
0, ,41, ,
-1, ,40, ,
-1, ,40, ,
-1, ,41, ,
0, ,41, ,
0, ,41, ,
0, ,41, ,
0, ,41, ,
0, ,40, ,
0, ,40, ,
0, ,40, ,
0, ,40, ,
0, ,40, ,
0, ,40, ,
0, ,40, ,
0, ,41, ,
0, ,40, ,
0, ,40, ,
0, ,40, ,
0, ,41, ,
0, ,41, ,
0, ,41, ,
0, ,41, ,
0, ,41, ,
0, ,41, ,
0, ,41, ,
0, ,41, ,
0, ,40, ,
0, ,40, ,
0, ,41, ,
0, ,41, ,
0, ,41, ,
0, ,41, ,
0, ,40, ,
0, ,40, ,
0, ,40, ,
0, ,40, ,
0, ,40, ,
0, ,40, ,
0, ,41, ,
0, ,41, ,
0, ,40, ,
0, ,40, ,
0, ,40, ,
0, ,40, ,
0, ,40, ,
0, ,40, ,
0, ,40, ,
0, ,40, ,
0, ,40, ,
0, ,40, ,
0, ,41, ,
0, ,41, ,
0, ,41, ,
0, ,41, ,
0, ,40, ,
0, ,40, ,
0, ,40, ,
0, ,40, ,
0, ,40, ,
0, ,40, ,
0, ,40, ,
0, ,40, ,
0, ,40, ,
0, ,41, ,
0, ,40, ,
0, ,40, ,
0, ,40, ,
0, ,40, ,
0, ,40, ,
0, ,41, ,
1, ,40, ,
0, ,40, ,
0, ,41, ,
0, ,41, ,
0, ,41, ,
0, ,41, ,
0, ,41, ,
0, ,41, ,
0, ,41, ,
1, ,41, ,
0, ,41, ,
0, ,41, ,
0, ,41, ,
0, ,40, ,
0, ,40, ,
0, ,40, ,
1, ,40, ,
1, ,40, ,
0, ,41, ,
0, ,41, ,
0, ,41, ,
1, ,41, ,
1, ,41, ,
0, ,41, ,
0, ,41, ,
1, ,41, ,
0, ,41, ,
0, ,41, ,
0, ,40, ,
1, ,40, ,
1, ,41, ,
1, ,41, ,
1, ,41, ,
1, ,41, ,
0, ,41, ,
0, ,41, ,
0, ,41, ,
0, ,41, ,
0, ,41, ,
0, ,41, ,
0, ,41, ,
0, ,41, ,
0, ,41, ,
0, ,41, ,
0, ,41, ,
0, ,40, ,
0, ,40, ,
0, ,40, ,
0, ,40, ,
0, ,40, ,
-1, ,41, ,
-1, ,41, ,
-2, ,41, ,
-3, ,41, ,
-3, ,41, ,
-4, ,41, ,
-4, ,41, ,
-4, ,41, ,
-3, ,41, ,
-3, ,41, ,
-3, ,41, ,
-1, ,41, ,
-1, ,41, ,
0, ,40, ,
0, ,40, ,
1, ,40, ,
1, ,41, ,
1, ,41, ,
1, ,40, ,
1, ,40, ,
1, ,41, ,
0, ,41, ,
0, ,41, ,
-1, ,40, ,
-2, ,40, ,
-2, ,41, ,
-2, ,41, ,
-2, ,40, ,
-2, ,40, ,
-2, ,40, ,
-1, ,41, ,
0, ,41, ,
0, ,41, ,
0, ,41, ,
0, ,41, ,
1, ,40, ,
2, ,40, ,
2, ,41, ,
2, ,41, ,
2, ,41, ,
2, ,40, ,
2, ,40, ,
1, ,41, ,
1, ,41, ,
1, ,41, ,
1, ,41, ,
1, ,41, ,
1, ,40, ,
1, ,40, ,
1, ,41, ,
1, ,41, ,
1, ,41, ,
2, ,41, ,
2, ,41, ,
2, ,40, ,
2, ,40, ,
1, ,40, ,
1, ,40, ,
1, ,40, ,
1, ,41, ,
1, ,41, ,
0, ,41, ,
0, ,41, ,
0, ,41, ,
0, ,41, ,
0, ,41, ,
-1, ,41, ,
-1, ,41, ,
0, ,40, ,
0, ,40, ,
1, ,40, ,
1, ,40, ,
1, ,40, ,
1, ,40, ,
1, ,41, ,
1, ,41, ,
2, ,41, ,
1, ,41, ,
2, ,40, ,
1, ,40, ,
0, ,40, ,
0, ,40, ,
-1, ,40, ,
-2, ,41, ,
-3, ,41, ,
-5, ,40, ,
-6, ,40, ,
-8, ,40, ,
-9, ,41, ,
-10, ,41, ,
-11, ,41, ,
-12, ,40, ,
-11, ,40, ,
-11, ,41, ,
-11, ,41, ,
-10, ,41, ,
-10, ,41, ,
-10, ,41, ,
-10, ,41, ,
-11, ,41, ,
-12, ,41, ,
-14, ,41, ,
-15, ,41, ,
-18, ,41, ,
-21, ,41, ,
-23, ,41, ,
-25, ,41, ,
-27, ,41, ,
-27, ,41, ,
-27, ,40, ,
-26, ,40, ,
-24, ,40, ,
-23, ,41, ,
-21, ,41, ,
-20, ,41, ,
-18, ,41, ,
-18, ,40, ,
-18, ,40, ,
-18, ,40, ,
-19, ,41, ,
-21, ,41, ,
-23, ,41, ,
-24, ,41, ,
-26, ,41, ,
-27, ,41, ,
-29, ,41, ,
-29, ,41, ,
-30, ,41, ,
-30, ,41, ,
-29, ,41, ,
-29, ,40, ,
-28, ,40, ,
-26, ,41, ,
-25, ,41, ,
-25, ,41, ,
-22, ,41, ,
-22, ,40, ,
-20, ,40, ,
-19, ,40, ,
-16, ,40, ,
-13, ,41, ,
-12, ,41, ,
-9, ,40, ,
-4, ,40, ,
-2, ,41, ,
1, ,40, ,
3, ,40, ,
8, ,40, ,
11, ,40, ,
12, ,40, ,
13, ,41, ,
16, ,41, ,
16, ,41, ,
16, ,41, ,
15, ,41, ,
14, ,40, ,
13, ,40, ,
12, ,41, ,
11, ,41, ,
8, ,41, ,
7, ,41, ,
6, ,41, ,
5, ,41, ,
5, ,41, ,
5, ,40, ,
5, ,40, ,
6, ,40, ,
8, ,40, ,
9, ,40, ,
11, ,41, ,
12, ,41, ,
13, ,41, ,
13, ,41, ,
13, ,40, ,
14, ,40, ,
13, ,40, ,
13, ,41, ,
12, ,40, ,
11, ,40, ,
8, ,40, ,
8, ,41, ,
6, ,40, ,
5, ,40, ,
3, ,40, ,
0, ,40, ,
-1, ,40, ,
-2, ,40, ,
-4, ,40, ,
-4, ,40, ,
-5, ,40, ,
-5, ,40, ,
-5, ,41, ,
-5, ,41, ,
-5, ,41, ,
-5, ,41, ,
-6, ,41, ,
-7, ,40, ,
-8, ,40, ,
-8, ,40, ,
-10, ,40, ,
-12, ,40, ,
-13, ,41, ,
-15, ,41, ,
-18, ,40, ,
-20, ,40, ,
-21, ,41, ,
-22, ,41, ,
-24, ,41, ,
-25, ,41, ,
-25, ,41, ,
-25, ,41, ,
-25, ,40, ,
-25, ,40, ,
-25, ,41, ,
-25, ,41, ,
-25, ,41, ,
-25, ,41, ,
-25, ,41, ,
-25, ,40, ,
-23, ,40, ,
-22, ,41, ,
-21, ,41, ,
-19, ,41, ,
-16, ,40, ,
-14, ,40, ,
-11, ,41, ,
-10, ,41, ,
-7, ,41, ,
-6, ,41, ,
-4, ,41, ,
-3, ,41, ,
-2, ,40, ,
-1, ,40, ,
-1, ,40, ,
-1, ,40, ,
0, ,40, ,
1, ,40, ,
1, ,40, ,
2, ,40, ,
2, ,40, ,
2, ,41, ,
3, ,41, ,
3, ,41, ,
4, ,41, ,
4, ,40, ,
3, ,40, ,
3, ,41, ,
3, ,41, ,
2, ,41, ,
2, ,41, ,
1, ,41, ,
0, ,41, ,
-1, ,41, ,
-1, ,41, ,
-2, ,41, ,
-3, ,41, ,
-5, ,41, ,
-6, ,41, ,
-7, ,41, ,
-9, ,40, ,
-10, ,40, ,
-12, ,41, ,
-13, ,41, ,
-15, ,40, ,
-16, ,40, ,
-16, ,41, ,
-16, ,40, ,
-16, ,40, ,
-15, ,40, ,
-16, ,41, ,
-14, ,41, ,
-14, ,41, ,
-13, ,41, ,
-12, ,41, ,
-12, ,41, ,
-10, ,41, ,
-8, ,40, ,
-8, ,40, ,
-6, ,41, ,
-3, ,41, ,
-2, ,40, ,
0, ,40, ,
2, ,40, ,
4, ,40, ,
6, ,40, ,
7, ,41, ,
8, ,41, ,
9, ,41, ,
9, ,41, ,
10, ,41, ,
10, ,40, ,
10, ,40, ,
10, ,41, ,
9, ,41, ,
9, ,41, ,
9, ,41, ,
8, ,41, ,
8, ,41, ,
8, ,41, ,
9, ,40, ,
9, ,40, ,
9, ,40, ,
10, ,40, ,
10, ,40, ,
10, ,41, ,
10, ,41, ,
10, ,40, ,
9, ,40, ,
9, ,41, ,
7, ,41, ,
7, ,41, ,
4, ,41, ,
2, ,41, ,
1, ,41, ,
-1, ,41, ,
-5, ,41, ,
-7, ,41, ,
-10, ,41, ,
-11, ,41, ,
-15, ,41, ,
-17, ,41, ,
-18, ,41, ,
-20, ,41, ,
-21, ,41, ,
-21, ,41, ,
-21, ,41, ,
-21, ,41, ,
-20, ,40, ,
-19, ,40, ,
-18, ,41, ,
-17, ,41, ,
-15, ,41, ,
-13, ,41, ,
-13, ,41, ,
-11, ,41, ,
-9, ,41, ,
-8, ,40, ,
-7, ,40, ,
-7, ,40, ,
-6, ,40, ,
-6, ,40, ,
-6, ,40, ,
-6, ,40, ,
-7, ,41, ,
-9, ,41, ,
-9, ,41, ,
-10, ,41, ,
-12, ,41, ,
-13, ,41, ,
-14, ,41, ,
-15, ,41, ,
-17, ,41, ,
-19, ,40, ,
-19, ,40, ,
-20, ,40, ,
-21, ,41, ,
-21, ,40, ,
-22, ,40, ,
-22, ,40, ,
-21, ,40, ,
-21, ,40, ,
-21, ,40, ,
-21, ,41, ,
-20, ,41, ,
-20, ,41, ,
-20, ,41, ,
-19, ,41, ,
-18, ,41, ,
-16, ,41, ,
-14, ,41, ,
-12, ,41, ,
-9, ,41, ,
-6, ,41, ,
-4, ,41, ,
-2, ,41, ,
3, ,41, ,
4, ,41, ,
6, ,41, ,
7, ,41, ,
8, ,40, ,
8, ,40, ,
7, ,41, ,
7, ,40, ,
6, ,40, ,
4, ,41, ,
3, ,41, ,
1, ,41, ,
-2, ,41, ,
-3, ,41, ,
-5, ,41, ,
-6, ,41, ,
-7, ,41, ,
-8, ,41, ,
-8, ,41, ,
-8, ,41, ,
-7, ,40, ,
-7, ,40, ,
-6, ,40, ,
-5, ,40, ,
-3, ,40, ,
-2, ,40, ,
-1, ,40, ,
1, ,40, ,
3, ,40, ,
6, ,40, ,
7, ,41, ,
9, ,41, ,
12, ,41, ,
13, ,41, ,
15, ,41, ,
16, ,41, ,
18, ,40, ,
20, ,40, ,
19, ,41, ,
20, ,41, ,
19, ,41, ,
18, ,41, ,
18, ,41, ,
16, ,41, ,
14, ,40, ,
12, ,40, ,
10, ,41, ,
8, ,41, ,
4, ,41, ,
2, ,41, ,
1, ,41, ,
-2, ,41, ,
-4, ,40, ,
-5, ,40, ,
-5, ,41, ,
-5, ,40, ,
-5, ,40, ,
-6, ,41, ,
-5, ,40, ,
-5, ,40, ,
-4, ,40, ,
-4, ,41, ,
-5, ,41, ,
-5, ,41, ,
-5, ,41, ,
-5, ,40, ,
-5, ,40, ,
-6, ,41, ,
-7, ,40, ,
-7, ,40, ,
-8, ,41, ,
-8, ,40, ,
-9, ,40, ,
-10, ,41, ,
-10, ,40, ,
-11, ,40, ,
-12, ,40, ,
-13, ,40, ,
-14, ,40, ,
-15, ,40, ,
-18, ,41, ,
-19, ,40, ,
-20, ,40, ,
-22, ,41, ,
-24, ,41, ,
-25, ,40, ,
-25, ,40, ,
-26, ,40, ,
-26, ,40, ,
-26, ,41, ,
-25, ,40, ,
-25, ,40, ,
-23, ,40, ,
-21, ,40, ,
-19, ,40, ,
-17, ,40, ,
-13, ,41, ,
-11, ,40, ,
-8, ,40, ,
-6, ,41, ,
-2, ,40, ,
-1, ,40, ,
0, ,41, ,
2, ,41, ,
4, ,40, ,
4, ,40, ,
4, ,41, ,
4, ,41, ,
3, ,41, ,
2, ,40, ,
0, ,40, ,
0, ,40, ,
-2, ,40, ,
-4, ,40, ,
-6, ,41, ,
-7, ,41, ,
-10, ,41, ,
-12, ,41, ,
-13, ,40, ,
-15, ,40, ,
-18, ,40, ,
-18, ,40, ,
-18, ,40, ,
-18, ,40, ,
-18, ,41, ,
-16, ,40, ,
-16, ,40, ,
-14, ,40, ,
-10, ,40, ,
-9, ,40, ,
-7, ,40, ,
-5, ,40, ,
-1, ,41, ,
1, ,41, ,
2, ,41, ,
4, ,40, ,
6, ,40, ,
7, ,41, ,
8, ,41, ,
8, ,41, ,
8, ,41, ,
8, ,40, ,
8, ,40, ,
7, ,41, ,
7, ,41, ,
6, ,41, ,
6, ,41, ,
6, ,41, ,
6, ,40, ,
6, ,40, ,
6, ,41, ,
5, ,41, ,
5, ,41, ,
5, ,41, ,
5, ,40, ,
4, ,40, ,
3, ,40, ,
3, ,40, ,
3, ,40, ,
3, ,40, ,
1, ,41, ,
1, ,40, ,
0, ,40, ,
0, ,40, ,
-1, ,41, ,
-1, ,41, ,
-2, ,41, ,
-2, ,40, ,
-3, ,40, ,
-4, ,41, ,
-4, ,41, ,
-5, ,40, ,
-5, ,40, ,
-5, ,40, ,
-5, ,40, ,
-5, ,40, ,
-5, ,41, ,
-5, ,40, ,
-4, ,40, ,
-4, ,41, ,
-4, ,41, ,
-3, ,41, ,
-3, ,41, ,
-3, ,41, ,
-2, ,41, ,
-2, ,40, ,
-1, ,40, ,
-1, ,40, ,
0, ,41, ,
0, ,41, ,
0, ,40, ,
1, ,40, ,
1, ,40, ,
1, ,40, ,
1, ,40, ,
1, ,40, ,
0, ,40, ,
0, ,41, ,
-1, ,41, ,
-1, ,41, ,
-1, ,41, ,
-2, ,41, ,
-2, ,41, ,
-2, ,41, ,
-2, ,41, ,
-2, ,40, ,
-2, ,40, ,
-2, ,40, ,
-2, ,40, ,
-2, ,41, ,
-2, ,41, ,
-2, ,41, ,
-1, ,41, ,
-1, ,40, ,
-1, ,40, ,
0, ,41, ,
0, ,41, ,
0, ,41, ,
0, ,41, ,
0, ,41, ,
0, ,41, ,
0, ,41, ,
-1, ,41, ,
-1, ,41, ,
-2, ,41, ,
-3, ,40, ,
-3, ,40, ,
-4, ,41, ,
-6, ,41, ,
-6, ,41, ,
-7, ,41, ,
-7, ,41, ,
-8, ,41, ,
-9, ,41, ,
-9, ,41, ,
-9, ,41, ,
-8, ,41, ,
-8, ,41, ,
-7, ,41, ,
-6, ,41, ,
-4, ,40, ,
-3, ,40, ,
-2, ,41, ,
-1, ,41, ,
1, ,40, ,
2, ,40, ,
2, ,40, ,
3, ,40, ,
4, ,40, ,
4, ,41, ,
4, ,40, ,
4, ,40, ,
3, ,40, ,
3, ,40, ,
2, ,40, ,
2, ,40, ,
1, ,41, ,
0, ,41, ,
-1, ,41, ,
-2, ,41, ,
-3, ,40, ,
-3, ,40, ,
-4, ,41, ,
-4, ,41, ,
-4, ,41, ,
-4, ,41, ,
-3, ,41, ,
-3, ,41, ,
-2, ,41, ,
-1, ,41, ,
-1, ,41, ,
0, ,41, ,
3, ,40, ,
3, ,40, ,
4, ,41, ,
5, ,41, ,
6, ,41, ,
8, ,41, ,
8, ,41, ,
8, ,40, ,
8, ,40, ,
8, ,41, ,
7, ,40, ,
6, ,40, ,
5, ,40, ,
4, ,40, ,
2, ,40, ,
1, ,40, ,
-3, ,40, ,
-5, ,40, ,
-6, ,40, ,
-8, ,40, ,
-11, ,40, ,
-12, ,41, ,
-13, ,41, ,
-13, ,41, ,
-13, ,41, ,
-13, ,41, ,
-12, ,41, ,
-11, ,41, ,
-10, ,41, ,
-8, ,40, ,
-7, ,40, ,
-5, ,40, ,
-2, ,41, ,
-1, ,41, ,
1, ,41, ,
1, ,41, ,
3, ,41, ,
4, ,41, ,
4, ,40, ,
4, ,40, ,
5, ,40, ,
4, ,40, ,
4, ,40, ,
4, ,40, ,
4, ,40, ,
4, ,40, ,
3, ,40, ,
3, ,41, ,
3, ,41, ,
2, ,41, ,
2, ,41, ,
1, ,41, ,
0, ,40, ,
0, ,40, ,
-1, ,41, ,
-1, ,40, ,
-2, ,40, ,
-3, ,40, ,
-3, ,40, ,
-3, ,40, ,
-3, ,41, ,
-3, ,41, ,
-3, ,40, ,
-3, ,40, ,
-2, ,40, ,
-2, ,41, ,
-1, ,41, ,
-1, ,41, ,
1, ,41, ,
2, ,40, ,
2, ,40, ,
3, ,40, ,
3, ,41, ,
3, ,41, ,
3, ,41, ,
2, ,41, ,
1, ,41, ,
1, ,40, ,
-1, ,40, ,
-2, ,40, ,
-2, ,41, ,
-4, ,41, ,
-4, ,41, ,
-5, ,41, ,
-5, ,41, ,
-4, ,41, ,
-4, ,41, ,
-3, ,41, ,
-2, ,41, ,
0, ,41, ,
1, ,41, ,
2, ,41, ,
5, ,41, ,
6, ,40, ,
7, ,40, ,
9, ,40, ,
9, ,41, ,
9, ,41, ,
9, ,41, ,
8, ,41, ,
6, ,41, ,
4, ,41, ,
2, ,41, ,
2, ,40, ,
-3, ,40, ,
-6, ,41, ,
-8, ,41, ,
-11, ,41, ,
-13, ,41, ,
-15, ,41, ,
-16, ,40, ,
-17, ,40, ,
-17, ,40, ,
-17, ,41, ,
-16, ,41, ,
-15, ,41, ,
-13, ,40, ,
-11, ,40, ,
-10, ,40, ,
-8, ,40, ,
-6, ,41, ,
-5, ,40, ,
-3, ,40, ,
-3, ,40, ,
-1, ,41, ,
0, ,40, ,
0, ,40, ,
0, ,40, ,
0, ,40, ,
0, ,40, ,
0, ,41, ,
0, ,41, ,
0, ,41, ,
1, ,41, ,
1, ,40, ,
1, ,40, ,
1, ,40, ,
1, ,40, ,
1, ,40, ,
1, ,40, ,
1, ,40, ,
1, ,41, ,
1, ,41, ,
1, ,41, ,
0, ,41, ,
-1, ,41, ,
-1, ,41, ,
-2, ,41, ,
-2, ,41, ,
-2, ,41, ,
-3, ,41, ,
-3, ,41, ,
-4, ,41, ,
-4, ,40, ,
-4, ,40, ,
-4, ,40, ,
-4, ,40, ,
-4, ,41, ,
-4, ,40, ,
-3, ,40, ,
-3, ,40, ,
-3, ,41, ,
-2, ,41, ,
-2, ,41, ,
-1, ,40, ,
-1, ,40, ,
-1, ,40, ,
1, ,40, ,
1, ,40, ,
2, ,41, ,
3, ,41, ,
3, ,41, ,
4, ,41, ,
4, ,40, ,
4, ,40, ,
5, ,40, ,
5, ,41, ,
4, ,41, ,
4, ,41, ,
4, ,40, ,
3, ,40, ,
2, ,41, ,
1, ,40, ,
1, ,40, ,
-1, ,40, ,
-2, ,41, ,
-3, ,41, ,
-4, ,41, ,
-6, ,41, ,
-7, ,40, ,
-7, ,40, ,
-7, ,40, ,
-8, ,40, ,
-8, ,40, ,
-8, ,40, ,
-9, ,40, ,
-9, ,40, ,
-9, ,41, ,
-9, ,41, ,
-8, ,41, ,
-8, ,41, ,
-8, ,41, ,
-7, ,41, ,
-7, ,41, ,
-6, ,41, ,
-6, ,41, ,
-5, ,41, ,
-5, ,41, ,
-4, ,41, ,
-4, ,41, ,
-4, ,41, ,
-4, ,41, ,
-3, ,41, ,
-3, ,41, ,
-3, ,41, ,
-3, ,41, ,
-3, ,40, ,
-3, ,40, ,
-3, ,40, ,
-3, ,40, ,
-1, ,40, ,
0, ,41, ,
-1, ,41, ,
1, ,41, ,
2, ,41, ,
3, ,41, ,
5, ,41, ,
6, ,41, ,
8, ,41, ,
9, ,40, ,
9, ,40, ,
10, ,41, ,
11, ,41, ,
11, ,41, ,
11, ,41, ,
11, ,41, ,
12, ,41, ,
12, ,41, ,
12, ,41, ,
12, ,41, ,
11, ,40, ,
10, ,40, ,
10, ,40, ,
9, ,41, ,
8, ,41, ,
8, ,41, ,
7, ,41, ,
7, ,41, ,
4, ,41, ,
3, ,41, ,
2, ,41, ,
0, ,40, ,
-2, ,40, ,
-3, ,41, ,
-4, ,41, ,
-6, ,41, ,
-7, ,41, ,
-8, ,41, ,
-8, ,41, ,
-9, ,40, ,
-9, ,40, ,
-9, ,40, ,
-9, ,41, ,
-8, ,41, ,
-8, ,41, ,
-8, ,41, ,
-7, ,41, ,
-7, ,41, ,
-5, ,41, ,
-5, ,40, ,
-5, ,40, ,
-4, ,41, ,
-3, ,40, ,
-3, ,40, ,
-3, ,40, ,
-3, ,41, ,
-2, ,40, ,
-1, ,40, ,
-1, ,40, ,
-1, ,41, ,
0, ,41, ,
1, ,41, ,
1, ,40, ,
1, ,40, ,
1, ,40, ,
1, ,40, ,
1, ,40, ,
1, ,40, ,
1, ,41, ,
0, ,41, ,
0, ,41, ,
0, ,41, ,
0, ,41, ,
0, ,41, ,
0, ,41, ,
1, ,41, ,
1, ,41, ,
1, ,40, ,
2, ,40, ,
2, ,40, ,
3, ,41, ,
4, ,40, ,
4, ,40, ,
5, ,41, ,
7, ,41, ,
7, ,41, ,
8, ,41, ,
8, ,41, ,
8, ,41, ,
9, ,41, ,
9, ,41, ,
9, ,41, ,
9, ,41, ,
8, ,40, ,
8, ,40, ,
7, ,40, ,
5, ,40, ,
5, ,40, ,
4, ,40, ,
3, ,40, ,
1, ,41, ,
-1, ,41, ,
-1, ,41, ,
-2, ,41, ,
-5, ,40, ,
-5, ,40, ,
-6, ,41, ,
-6, ,41, ,
-8, ,41, ,
-9, ,41, ,
-9, ,41, ,
-9, ,41, ,
-10, ,41, ,
-10, ,41, ,
-10, ,41, ,
-9, ,41, ,
-9, ,41, ,
-10, ,41, ,
-9, ,41, ,
-8, ,40, ,
-8, ,40, ,
-7, ,40, ,
-7, ,41, ,
-6, ,41, ,
-5, ,41, ,
-4, ,41, ,
-3, ,40, ,
-3, ,40, ,
-2, ,40, ,
0, ,41, ,
0, ,41, ,
2, ,41, ,
3, ,41, ,
3, ,41, ,
4, ,41, ,
4, ,41, ,
5, ,41, ,
6, ,41, ,
6, ,41, ,
7, ,41, ,
6, ,41, ,
6, ,41, ,
6, ,41, ,
6, ,41, ,
5, ,41, ,
4, ,41, ,
3, ,41, ,
3, ,41, ,
1, ,41, ,
0, ,40, ,
0, ,40, ,
-1, ,40, ,
-2, ,40, ,
-2, ,41, ,
-2, ,40, ,
-2, ,40, ,
-2, ,40, ,
-2, ,41, ,
-1, ,41, ,
-1, ,41, ,
0, ,41, ,
1, ,41, ,
1, ,41, ,
2, ,41, ,
3, ,41, ,
3, ,40, ,
4, ,40, ,
4, ,40, ,
5, ,41, ,
5, ,41, ,
5, ,40, ,
5, ,40, ,
5, ,40, ,
4, ,40, ,
4, ,40, ,
3, ,40, ,
2, ,41, ,
1, ,41, ,
0, ,40, ,
-1, ,40, ,
-2, ,40, ,
-4, ,40, ,
-4, ,40, ,
-5, ,41, ,
-7, ,41, ,
-8, ,41, ,
-8, ,41, ,
-9, ,41, ,
-9, ,41, ,
-9, ,41, ,
-9, ,41, ,
-9, ,41, ,
-7, ,41, ,
-6, ,41, ,
-6, ,41, ,
-4, ,41, ,
-1, ,41, ,
0, ,41, ,
2, ,41, ,
3, ,40, ,
5, ,40, ,
7, ,41, ,
8, ,41, ,
9, ,41, ,
10, ,41, ,
10, ,41, ,
10, ,41, ,
10, ,41, ,
9, ,41, ,
9, ,40, ,
8, ,40, ,
8, ,41, ,
7, ,41, ,
5, ,41, ,
4, ,41, ,
4, ,41, ,
2, ,41, ,
1, ,41, ,
0, ,41, ,
0, ,41, ,
-1, ,41, ,
-2, ,40, ,
-2, ,40, ,
-4, ,40, ,
-4, ,41, ,
-4, ,41, ,
-5, ,41, ,
-5, ,41, ,
-5, ,40, ,
-5, ,40, ,
-5, ,41, ,
-5, ,40, ,
-5, ,40, ,
-5, ,40, ,
-4, ,40, ,
-4, ,41, ,
-3, ,41, ,
-3, ,41, ,
-2, ,40, ,
-2, ,40, ,
-1, ,40, ,
0, ,40, ,
1, ,40, ,
2, ,40, ,
3, ,40, ,
4, ,40, ,
4, ,40, ,
5, ,41, ,
6, ,40, ,
7, ,40, ,
8, ,40, ,
8, ,40, ,
9, ,40, ,
9, ,40, ,
9, ,40, ,
9, ,40, ,
8, ,41, ,
8, ,40, ,
7, ,40, ,
7, ,40, ,
6, ,41, ,
4, ,40, ,
3, ,40, ,
1, ,41, ,
-1, ,41, ,
-2, ,40, ,
-4, ,40, ,
-5, ,41, ,
-7, ,40, ,
-8, ,40, ,
-8, ,41, ,
-9, ,41, ,
-9, ,41, ,
-8, ,40, ,
-8, ,40, ,
-7, ,40, ,
-5, ,41, ,
-5, ,40, ,
-3, ,40, ,
-2, ,41, ,
0, ,40, ,
2, ,40, ,
3, ,40, ,
4, ,40, ,
4, ,40, ,
4, ,41, ,
4, ,41, ,
4, ,41, ,
3, ,41, ,
3, ,40, ,
2, ,40, ,
1, ,40, ,
0, ,40, ,
0, ,40, ,
0, ,41, ,
0, ,41, ,
0, ,40, ,
0, ,40, ,
1, ,41, ,
2, ,40, ,
3, ,40, ,
3, ,41, ,
4, ,41, ,
4, ,41, ,
5, ,40, ,
5, ,40, ,
5, ,41, ,
5, ,41, ,
4, ,40, ,
4, ,40, ,
4, ,40, ,
3, ,40, ,
2, ,41, ,
1, ,41, ,
0, ,41, ,
0, ,41, ,
-2, ,41, ,
-3, ,41, ,
-3, ,40, ,
-4, ,40, ,
-5, ,40, ,
-5, ,41, ,
-6, ,41, ,
-6, ,41, ,
-6, ,41, ,
-7, ,40, ,
-7, ,40, ,
-7, ,41, ,
-7, ,40, ,
-6, ,40, ,
-6, ,41, ,
-6, ,41, ,
-5, ,41, ,
-5, ,41, ,
-3, ,40, ,
-3, ,40, ,
-2, ,40, ,
-1, ,40, ,
-1, ,40, ,
0, ,40, ,
2, ,40, ,
2, ,40, ,
2, ,41, ,
2, ,41, ,
3, ,41, ,
4, ,41, ,
3, ,41, ,
4, ,41, ,
4, ,41, ,
3, ,41, ,
3, ,41, ,
2, ,41, ,
2, ,41, ,
2, ,40, ,
1, ,40, ,
1, ,40, ,
0, ,40, ,
0, ,40, ,
0, ,41, ,
-1, ,41, ,
-1, ,41, ,
0, ,41, ,
0, ,40, ,
0, ,40, ,
0, ,40, ,
1, ,40, ,
1, ,40, ,
1, ,40, ,
2, ,41, ,
2, ,41, ,
2, ,41, ,
2, ,41, ,
2, ,41, ,
2, ,41, ,
2, ,41, ,
2, ,40, ,
2, ,40, ,
2, ,41, ,
1, ,41, ,
1, ,41, ,
1, ,40, ,
1, ,40, ,
1, ,41, ,
1, ,41, ,
1, ,41, ,
1, ,40, ,
0, ,40, ,
0, ,41, ,
1, ,40, ,
0, ,40, ,
0, ,40, ,
0, ,40, ,
0, ,40, ,
0, ,40, ,
-1, ,41, ,
-1, ,41, ,
-1, ,41, ,
-1, ,41, ,
-1, ,41, ,
-1, ,40, ,
-1, ,40, ,
0, ,41, ,
0, ,41, ,
1, ,41, ,
2, ,41, ,
2, ,40, ,
3, ,40, ,
3, ,41, ,
5, ,41, ,
5, ,41, ,
5, ,41, ,
6, ,41, ,
6, ,41, ,
5, ,40, ,
5, ,40, ,
4, ,40, ,
2, ,40, ,
1, ,41, ,
0, ,41, ,
-1, ,41, ,
-3, ,41, ,
-5, ,41, ,
-6, ,41, ,
-8, ,40, ,
-11, ,40, ,
-11, ,40, ,
-11, ,41, ,
-12, ,41, ,
-12, ,41, ,
-12, ,41, ,
-10, ,41, ,
-10, ,41, ,
-8, ,41, ,
-6, ,41, ,
-6, ,41, ,
-4, ,41, ,
0, ,41, ,
1, ,40, ,
3, ,40, ,
3, ,41, ,
5, ,41, ,
7, ,41, ,
7, ,41, ,
7, ,41, ,
7, ,41, ,
7, ,40, ,
7, ,40, ,
6, ,40, ,
5, ,41, ,
5, ,41, ,
5, ,40, ,
5, ,40, ,
4, ,40, ,
4, ,40, ,
4, ,40, ,
4, ,40, ,
4, ,40, ,
4, ,40, ,
4, ,41, ,
4, ,40, ,
4, ,40, ,
4, ,40, ,
4, ,40, ,
4, ,40, ,
4, ,40, ,
5, ,41, ,
5, ,41, ,
5, ,41, ,
6, ,41, ,
6, ,40, ,
6, ,40, ,
6, ,40, ,
6, ,40, ,
6, ,41, ,
5, ,41, ,
5, ,41, ,
4, ,41, ,
3, ,40, ,
3, ,40, ,
2, ,40, ,
