raw_data/75% Glycerol, Impulsion 2Hz, Sonde 5MHz, Rampe 0.7Hz/temp0000089.CSV

Format,1.0B,
Memory Length,10000,Memory Length,10000,
IntpDistance,0,IntpDistance,0,
Trigger Address,159,Trigger Address,159,
Trigger Level,2.720E-01,Trigger Level,2.720E-01,
Source,CH1,Source,CH2,
Vertical Units,V,Vertical Units,V,
Vertical Units Div,0,Vertical Units Div,0,
Vertical Units Extend Div,16,Vertical Units Extend Div,16,
Label,,Label,,
Probe Type,0,Probe Type,0,
Probe Ratio,1.000e+00,Probe Ratio,1.000e+00,
Vertical Scale,5.000e-01,Vertical Scale,2.000e+00,
Vertical Position,0.000e+00,Vertical Position,0.000e+00,
Horizontal Units,S,Horizontal Units,S,
Horizontal Scale,5.000E-06,Horizontal Scale,5.000E-06,
Horizontal Position,2.420E-05,Horizontal Position,2.420E-05,
Horizontal Mode,Main,Horizontal Mode,Main,
SincET Mode,Real Time,SincET Mode,Real Time,
Sampling Period,5.000e-09,Sampling Period,5.000e-09,
Horizontal Old Scale,5.000E-06,Horizontal Old Scale,5.000E-06,
Horizontal Old Position,2.420E-05,Horizontal Old Position,2.420E-05,
Firmware,V1.32,Firmware,V1.32,
Mode,Fast,Mode,Fast,
Waveform Data,,Waveform Data,,
0, ,17, ,
1, ,17, ,
0, ,17, ,
0, ,17, ,
0, ,17, ,
0, ,17, ,
0, ,17, ,
0, ,17, ,
0, ,17, ,
0, ,17, ,
0, ,17, ,
0, ,17, ,
0, ,17, ,
0, ,17, ,
0, ,18, ,
0, ,18, ,
0, ,17, ,
0, ,17, ,
0, ,17, ,
0, ,18, ,
0, ,18, ,
0, ,17, ,
0, ,17, ,
0, ,17, ,
0, ,18, ,
0, ,17, ,
0, ,17, ,
1, ,17, ,
1, ,17, ,
1, ,17, ,
1, ,17, ,
0, ,17, ,
0, ,18, ,
0, ,18, ,
0, ,18, ,
0, ,17, ,
0, ,17, ,
0, ,18, ,
0, ,17, ,
0, ,17, ,
0, ,17, ,
0, ,18, ,
0, ,18, ,
0, ,18, ,
0, ,18, ,
0, ,18, ,
0, ,18, ,
0, ,17, ,
0, ,17, ,
0, ,18, ,
0, ,18, ,
0, ,17, ,
0, ,17, ,
0, ,17, ,
0, ,17, ,
0, ,17, ,
0, ,18, ,
1, ,17, ,
0, ,17, ,
1, ,17, ,
0, ,17, ,
0, ,18, ,
0, ,18, ,
0, ,18, ,
1, ,18, ,
1, ,18, ,
0, ,18, ,
0, ,18, ,
0, ,18, ,
1, ,17, ,
1, ,17, ,
0, ,17, ,
0, ,18, ,
1, ,17, ,
0, ,17, ,
0, ,17, ,
0, ,17, ,
0, ,18, ,
0, ,18, ,
0, ,18, ,
0, ,17, ,
0, ,17, ,
0, ,17, ,
0, ,18, ,
0, ,18, ,
0, ,17, ,
0, ,17, ,
0, ,17, ,
0, ,18, ,
1, ,18, ,
0, ,17, ,
0, ,17, ,
0, ,17, ,
0, ,17, ,
1, ,18, ,
1, ,17, ,
1, ,17, ,
1, ,18, ,
0, ,18, ,
0, ,18, ,
0, ,17, ,
0, ,17, ,
0, ,17, ,
0, ,17, ,
0, ,18, ,
0, ,17, ,
0, ,17, ,
1, ,18, ,
0, ,17, ,
0, ,17, ,
1, ,17, ,
0, ,17, ,
0, ,18, ,
1, ,18, ,
0, ,17, ,
0, ,17, ,
0, ,17, ,
0, ,18, ,
0, ,17, ,
0, ,17, ,
0, ,17, ,
0, ,18, ,
0, ,18, ,
0, ,18, ,
0, ,17, ,
0, ,17, ,
0, ,17, ,
0, ,18, ,
0, ,18, ,
0, ,17, ,
0, ,17, ,
1, ,17, ,
0, ,17, ,
0, ,17, ,
0, ,18, ,
0, ,18, ,
0, ,18, ,
1, ,17, ,
1, ,17, ,
0, ,17, ,
0, ,17, ,
0, ,17, ,
0, ,17, ,
0, ,17, ,
0, ,17, ,
0, ,17, ,
0, ,17, ,
0, ,17, ,
0, ,17, ,
1, ,17, ,
1, ,17, ,
0, ,17, ,
0, ,17, ,
0, ,17, ,
0, ,17, ,
0, ,17, ,
0, ,17, ,
0, ,17, ,
0, ,18, ,
0, ,17, ,
0, ,17, ,
0, ,17, ,
1, ,17, ,
0, ,17, ,
1, ,17, ,
-1, ,17, ,
0, ,17, ,
-1, ,17, ,
10, ,17, ,
69, ,17, ,
109, ,17, ,
124, ,18, ,
123, ,17, ,
65, ,17, ,
9, ,17, ,
-6, ,17, ,
31, ,17, ,
125, ,17, ,
125, ,17, ,
125, ,17, ,
125, ,17, ,
125, ,17, ,
125, ,17, ,
124, ,17, ,
124, ,17, ,
118, ,18, ,
112, ,18, ,
108, ,18, ,
104, ,18, ,
98, ,18, ,
95, ,18, ,
91, ,17, ,
88, ,17, ,
81, ,18, ,
77, ,17, ,
75, ,17, ,
72, ,17, ,
67, ,17, ,
64, ,17, ,
61, ,17, ,
59, ,17, ,
54, ,17, ,
52, ,17, ,
50, ,18, ,
47, ,17, ,
44, ,17, ,
42, ,17, ,
40, ,17, ,
39, ,17, ,
35, ,18, ,
33, ,18, ,
32, ,17, ,
30, ,17, ,
27, ,18, ,
26, ,18, ,
25, ,18, ,
25, ,18, ,
23, ,17, ,
21, ,17, ,
21, ,17, ,
19, ,17, ,
17, ,17, ,
17, ,17, ,
16, ,17, ,
15, ,17, ,
14, ,17, ,
13, ,17, ,
12, ,17, ,
11, ,17, ,
10, ,17, ,
9, ,17, ,
9, ,17, ,
8, ,17, ,
8, ,17, ,
7, ,17, ,
7, ,17, ,
6, ,18, ,
5, ,18, ,
5, ,18, ,
4, ,18, ,
4, ,18, ,
4, ,18, ,
3, ,17, ,
3, ,17, ,
3, ,17, ,
2, ,18, ,
2, ,18, ,
2, ,18, ,
2, ,18, ,
1, ,18, ,
1, ,18, ,
1, ,18, ,
1, ,17, ,
0, ,17, ,
0, ,17, ,
0, ,17, ,
0, ,18, ,
0, ,17, ,
0, ,17, ,
0, ,17, ,
0, ,17, ,
-1, ,17, ,
-1, ,17, ,
-1, ,17, ,
-1, ,18, ,
-1, ,17, ,
-1, ,17, ,
-1, ,17, ,
-2, ,17, ,
-2, ,17, ,
-1, ,17, ,
-1, ,17, ,
-1, ,17, ,
-1, ,18, ,
-1, ,18, ,
-1, ,18, ,
-1, ,18, ,
-2, ,18, ,
-2, ,18, ,
-2, ,17, ,
-2, ,17, ,
-1, ,17, ,
-2, ,17, ,
-2, ,17, ,
-2, ,17, ,
-1, ,17, ,
-1, ,17, ,
-1, ,17, ,
-1, ,18, ,
-2, ,18, ,
-2, ,18, ,
-1, ,18, ,
-1, ,18, ,
-1, ,17, ,
-1, ,17, ,
-1, ,17, ,
-1, ,17, ,
-1, ,17, ,
-1, ,17, ,
-1, ,17, ,
-1, ,17, ,
-1, ,17, ,
-1, ,18, ,
-1, ,17, ,
-1, ,17, ,
-1, ,17, ,
-1, ,17, ,
-1, ,17, ,
-1, ,17, ,
-1, ,17, ,
-1, ,17, ,
-1, ,17, ,
-1, ,18, ,
-1, ,18, ,
-1, ,17, ,
-1, ,17, ,
-1, ,17, ,
-1, ,17, ,
-1, ,17, ,
-1, ,18, ,
-1, ,18, ,
-1, ,18, ,
-1, ,18, ,
-1, ,18, ,
-1, ,17, ,
0, ,17, ,
0, ,17, ,
-1, ,17, ,
-1, ,18, ,
-1, ,18, ,
-1, ,18, ,
-1, ,18, ,
-1, ,18, ,
0, ,17, ,
0, ,17, ,
0, ,17, ,
0, ,17, ,
0, ,17, ,
0, ,17, ,
0, ,17, ,
0, ,17, ,
0, ,17, ,
0, ,17, ,
0, ,17, ,
0, ,18, ,
0, ,17, ,
0, ,17, ,
0, ,18, ,
0, ,17, ,
0, ,17, ,
0, ,18, ,
0, ,17, ,
0, ,17, ,
0, ,18, ,
0, ,18, ,
0, ,18, ,
0, ,17, ,
0, ,17, ,
0, ,17, ,
-1, ,17, ,
0, ,17, ,
0, ,17, ,
0, ,17, ,
0, ,17, ,
0, ,18, ,
0, ,18, ,
0, ,18, ,
0, ,17, ,
0, ,17, ,
0, ,18, ,
0, ,17, ,
0, ,17, ,
0, ,17, ,
0, ,17, ,
0, ,18, ,
0, ,17, ,
0, ,17, ,
0, ,17, ,
0, ,17, ,
0, ,17, ,
0, ,17, ,
0, ,17, ,
0, ,17, ,
0, ,17, ,
0, ,18, ,
0, ,18, ,
0, ,17, ,
0, ,17, ,
0, ,17, ,
0, ,17, ,
0, ,17, ,
0, ,17, ,
0, ,17, ,
0, ,17, ,
0, ,17, ,
0, ,17, ,
0, ,17, ,
0, ,18, ,
1, ,18, ,
0, ,18, ,
0, ,18, ,
0, ,17, ,
0, ,17, ,
0, ,18, ,
0, ,18, ,
0, ,17, ,
0, ,17, ,
0, ,17, ,
0, ,18, ,
0, ,18, ,
0, ,18, ,
0, ,18, ,
0, ,17, ,
0, ,17, ,
0, ,17, ,
0, ,17, ,
1, ,17, ,
0, ,17, ,
0, ,17, ,
0, ,18, ,
0, ,18, ,
0, ,18, ,
0, ,18, ,
0, ,18, ,
0, ,18, ,
0, ,17, ,
0, ,17, ,
0, ,17, ,
0, ,17, ,
0, ,17, ,
0, ,18, ,
0, ,18, ,
0, ,18, ,
0, ,18, ,
0, ,18, ,
0, ,18, ,
0, ,18, ,
0, ,18, ,
0, ,18, ,
-1, ,18, ,
-1, ,18, ,
-2, ,17, ,
-3, ,17, ,
-4, ,17, ,
-5, ,18, ,
-8, ,18, ,
-8, ,18, ,
-8, ,17, ,
-7, ,17, ,
-6, ,17, ,
-6, ,18, ,
-4, ,18, ,
-4, ,17, ,
-3, ,17, ,
-2, ,18, ,
-2, ,18, ,
-2, ,18, ,
-1, ,18, ,
-1, ,18, ,
-1, ,18, ,
-1, ,18, ,
-1, ,17, ,
-1, ,17, ,
-1, ,17, ,
-1, ,17, ,
-1, ,18, ,
-1, ,17, ,
0, ,17, ,
-1, ,17, ,
1, ,18, ,
2, ,17, ,
2, ,17, ,
3, ,17, ,
3, ,17, ,
3, ,17, ,
3, ,18, ,
3, ,17, ,
3, ,17, ,
3, ,18, ,
3, ,17, ,
3, ,17, ,
2, ,17, ,
2, ,17, ,
2, ,17, ,
2, ,17, ,
2, ,18, ,
2, ,18, ,
1, ,18, ,
1, ,18, ,
1, ,18, ,
2, ,17, ,
2, ,17, ,
2, ,17, ,
2, ,17, ,
2, ,18, ,
2, ,18, ,
2, ,17, ,
2, ,17, ,
1, ,17, ,
1, ,18, ,
1, ,18, ,
0, ,18, ,
0, ,18, ,
-1, ,18, ,
-1, ,18, ,
-1, ,17, ,
-1, ,17, ,
-1, ,18, ,
-1, ,18, ,
0, ,18, ,
0, ,18, ,
0, ,18, ,
0, ,18, ,
1, ,18, ,
1, ,17, ,
1, ,17, ,
1, ,17, ,
1, ,17, ,
1, ,17, ,
1, ,17, ,
1, ,17, ,
0, ,18, ,
0, ,18, ,
0, ,17, ,
-2, ,17, ,
-3, ,18, ,
-3, ,17, ,
-4, ,17, ,
-5, ,17, ,
-8, ,18, ,
-11, ,18, ,
-12, ,18, ,
-14, ,18, ,
-18, ,18, ,
-20, ,18, ,
-23, ,18, ,
-25, ,18, ,
-28, ,18, ,
-31, ,18, ,
-32, ,18, ,
-35, ,17, ,
-37, ,17, ,
-38, ,17, ,
-38, ,18, ,
-38, ,18, ,
-36, ,18, ,
-35, ,18, ,
-33, ,18, ,
-31, ,18, ,
-26, ,18, ,
-24, ,18, ,
-22, ,18, ,
-19, ,18, ,
-15, ,18, ,
-14, ,18, ,
-13, ,18, ,
-13, ,18, ,
-14, ,17, ,
-14, ,17, ,
-15, ,17, ,
-16, ,17, ,
-17, ,17, ,
-19, ,17, ,
-19, ,17, ,
-20, ,17, ,
-20, ,18, ,
-19, ,18, ,
-19, ,17, ,
-18, ,17, ,
-17, ,17, ,
-15, ,17, ,
-14, ,18, ,
-13, ,18, ,
-10, ,18, ,
-9, ,18, ,
-7, ,18, ,
-6, ,18, ,
-4, ,18, ,
-3, ,18, ,
-1, ,18, ,
0, ,18, ,
3, ,17, ,
5, ,17, ,
6, ,17, ,
8, ,17, ,
10, ,17, ,
11, ,17, ,
12, ,17, ,
12, ,17, ,
12, ,17, ,
11, ,18, ,
11, ,17, ,
10, ,17, ,
8, ,18, ,
7, ,17, ,
6, ,17, ,
5, ,17, ,
1, ,17, ,
1, ,17, ,
0, ,17, ,
0, ,18, ,
1, ,18, ,
1, ,18, ,
1, ,18, ,
2, ,17, ,
3, ,17, ,
5, ,18, ,
6, ,17, ,
6, ,17, ,
6, ,18, ,
5, ,18, ,
5, ,18, ,
4, ,18, ,
3, ,17, ,
1, ,17, ,
-1, ,17, ,
-1, ,17, ,
-5, ,17, ,
-7, ,17, ,
-8, ,18, ,
-10, ,18, ,
-11, ,17, ,
-11, ,17, ,
-11, ,17, ,
-11, ,18, ,
-9, ,18, ,
-8, ,18, ,
-8, ,18, ,
-6, ,18, ,
-4, ,17, ,
-2, ,17, ,
-1, ,17, ,
0, ,18, ,
1, ,18, ,
1, ,18, ,
1, ,18, ,
-1, ,17, ,
-2, ,17, ,
-3, ,18, ,
-6, ,18, ,
-6, ,17, ,
-10, ,17, ,
-13, ,17, ,
-15, ,17, ,
-17, ,17, ,
-20, ,17, ,
-21, ,18, ,
-22, ,18, ,
-22, ,18, ,
-21, ,18, ,
-21, ,18, ,
-21, ,18, ,
-21, ,18, ,
-20, ,17, ,
-19, ,17, ,
-19, ,18, ,
-19, ,18, ,
-17, ,18, ,
-16, ,18, ,
-15, ,18, ,
-13, ,18, ,
-9, ,17, ,
-7, ,17, ,
-5, ,17, ,
-2, ,17, ,
0, ,18, ,
2, ,18, ,
4, ,18, ,
3, ,18, ,
2, ,17, ,
2, ,17, ,
1, ,17, ,
0, ,18, ,
-3, ,18, ,
-4, ,18, ,
-6, ,18, ,
-9, ,18, ,
-11, ,18, ,
-13, ,18, ,
-14, ,18, ,
-14, ,18, ,
-14, ,17, ,
-15, ,17, ,
-13, ,18, ,
-13, ,18, ,
-11, ,18, ,
-8, ,18, ,
-7, ,17, ,
-5, ,17, ,
0, ,17, ,
2, ,17, ,
4, ,18, ,
6, ,17, ,
10, ,17, ,
11, ,17, ,
12, ,17, ,
12, ,18, ,
10, ,17, ,
9, ,17, ,
8, ,17, ,
6, ,17, ,
1, ,17, ,
-1, ,18, ,
-5, ,17, ,
-8, ,17, ,
-14, ,17, ,
-17, ,17, ,
-20, ,18, ,
-23, ,18, ,
-27, ,18, ,
-28, ,18, ,
-31, ,18, ,
-31, ,18, ,
-31, ,18, ,
-31, ,18, ,
-29, ,18, ,
-29, ,18, ,
-25, ,17, ,
-22, ,17, ,
-20, ,18, ,
-16, ,18, ,
-9, ,17, ,
-7, ,17, ,
-3, ,17, ,
0, ,17, ,
5, ,18, ,
7, ,17, ,
9, ,17, ,
11, ,17, ,
13, ,18, ,
13, ,18, ,
13, ,18, ,
13, ,17, ,
13, ,17, ,
13, ,17, ,
12, ,18, ,
12, ,18, ,
12, ,17, ,
11, ,17, ,
12, ,17, ,
12, ,17, ,
13, ,17, ,
14, ,17, ,
14, ,17, ,
14, ,18, ,
15, ,17, ,
15, ,17, ,
15, ,17, ,
15, ,17, ,
14, ,17, ,
13, ,18, ,
12, ,18, ,
11, ,18, ,
8, ,17, ,
5, ,17, ,
4, ,17, ,
1, ,17, ,
-4, ,17, ,
-6, ,17, ,
-9, ,17, ,
-11, ,18, ,
-14, ,17, ,
-16, ,17, ,
-17, ,17, ,
-17, ,18, ,
-17, ,18, ,
-17, ,18, ,
-16, ,18, ,
-15, ,18, ,
-13, ,17, ,
-11, ,17, ,
-9, ,17, ,
-9, ,17, ,
-6, ,18, ,
-4, ,18, ,
-4, ,18, ,
-3, ,18, ,
-2, ,18, ,
-3, ,18, ,
-3, ,18, ,
-4, ,18, ,
-7, ,18, ,
-8, ,18, ,
-10, ,17, ,
-11, ,17, ,
-15, ,17, ,
-17, ,17, ,
-20, ,18, ,
-23, ,17, ,
-26, ,17, ,
-28, ,17, ,
-30, ,17, ,
-31, ,18, ,
-33, ,17, ,
-35, ,17, ,
-35, ,18, ,
-35, ,17, ,
-35, ,17, ,
-34, ,18, ,
-34, ,17, ,
-34, ,17, ,
-32, ,18, ,
-32, ,17, ,
-31, ,17, ,
-31, ,17, ,
-29, ,17, ,
-28, ,18, ,
-27, ,17, ,
-26, ,17, ,
-24, ,17, ,
-23, ,17, ,
-21, ,18, ,
-20, ,18, ,
-17, ,17, ,
-15, ,17, ,
-12, ,17, ,
-11, ,18, ,
-6, ,18, ,
-4, ,17, ,
-2, ,17, ,
0, ,17, ,
4, ,18, ,
7, ,18, ,
9, ,17, ,
11, ,17, ,
15, ,18, ,
17, ,18, ,
19, ,18, ,
21, ,17, ,
23, ,17, ,
24, ,17, ,
25, ,17, ,
25, ,17, ,
25, ,18, ,
25, ,18, ,
25, ,18, ,
25, ,18, ,
24, ,18, ,
23, ,18, ,
23, ,18, ,
23, ,18, ,
21, ,18, ,
20, ,18, ,
20, ,18, ,
18, ,18, ,
16, ,18, ,
16, ,17, ,
14, ,17, ,
13, ,17, ,
11, ,17, ,
9, ,17, ,
8, ,18, ,
6, ,18, ,
3, ,18, ,
2, ,17, ,
0, ,17, ,
-1, ,17, ,
-3, ,17, ,
-3, ,17, ,
-3, ,18, ,
-4, ,17, ,
-4, ,17, ,
-4, ,17, ,
-4, ,17, ,
-4, ,18, ,
-3, ,17, ,
-3, ,17, ,
-3, ,18, ,
-4, ,18, ,
-4, ,17, ,
-4, ,17, ,
-5, ,17, ,
-6, ,17, ,
-8, ,17, ,
-10, ,17, ,
-11, ,17, ,
-12, ,18, ,
-15, ,18, ,
-16, ,18, ,
-18, ,18, ,
-19, ,18, ,
-21, ,18, ,
-22, ,18, ,
-23, ,18, ,
-23, ,18, ,
-23, ,17, ,
-23, ,17, ,
-23, ,17, ,
-22, ,17, ,
-21, ,18, ,
-21, ,18, ,
-20, ,18, ,
-20, ,18, ,
-19, ,18, ,
-17, ,18, ,
-17, ,18, ,
-16, ,18, ,
-16, ,17, ,
-16, ,17, ,
-15, ,17, ,
-15, ,18, ,
-15, ,18, ,
-15, ,18, ,
-15, ,18, ,
-15, ,18, ,
-14, ,18, ,
-14, ,18, ,
-13, ,18, ,
-14, ,17, ,
-12, ,17, ,
-10, ,17, ,
-9, ,17, ,
-7, ,18, ,
-4, ,18, ,
-3, ,18, ,
-1, ,18, ,
0, ,18, ,
3, ,17, ,
5, ,17, ,
6, ,17, ,
7, ,17, ,
8, ,17, ,
8, ,17, ,
8, ,18, ,
7, ,17, ,
6, ,17, ,
5, ,17, ,
4, ,17, ,
2, ,18, ,
0, ,17, ,
-2, ,17, ,
-3, ,17, ,
-4, ,17, ,
-7, ,18, ,
-8, ,18, ,
-9, ,18, ,
-9, ,18, ,
-9, ,17, ,
-9, ,17, ,
-9, ,18, ,
-9, ,18, ,
-9, ,17, ,
-8, ,17, ,
-8, ,17, ,
-8, ,17, ,
-9, ,18, ,
-9, ,17, ,
-8, ,17, ,
-9, ,17, ,
-9, ,17, ,
-9, ,18, ,
-10, ,18, ,
-10, ,18, ,
-9, ,17, ,
-9, ,17, ,
-7, ,17, ,
-8, ,17, ,
-6, ,17, ,
-4, ,17, ,
-4, ,17, ,
-2, ,18, ,
0, ,18, ,
1, ,17, ,
2, ,17, ,
3, ,17, ,
5, ,17, ,
7, ,17, ,
7, ,17, ,
8, ,17, ,
8, ,17, ,
8, ,18, ,
8, ,18, ,
8, ,18, ,
7, ,17, ,
7, ,17, ,
6, ,17, ,
5, ,18, ,
4, ,18, ,
2, ,18, ,
1, ,18, ,
0, ,18, ,
-3, ,18, ,
-3, ,18, ,
-5, ,17, ,
-6, ,17, ,
-8, ,17, ,
-9, ,17, ,
-9, ,18, ,
-9, ,18, ,
-9, ,18, ,
-8, ,18, ,
-8, ,17, ,
-8, ,17, ,
-5, ,17, ,
-5, ,17, ,
-3, ,18, ,
-3, ,18, ,
0, ,18, ,
1, ,18, ,
2, ,18, ,
3, ,18, ,
5, ,17, ,
5, ,17, ,
5, ,17, ,
5, ,17, ,
4, ,17, ,
4, ,18, ,
3, ,18, ,
2, ,18, ,
1, ,18, ,
0, ,18, ,
-1, ,18, ,
-2, ,18, ,
-4, ,18, ,
-4, ,18, ,
-5, ,17, ,
-5, ,17, ,
-6, ,18, ,
-6, ,17, ,
-6, ,17, ,
-6, ,17, ,
-6, ,17, ,
-6, ,17, ,
-6, ,17, ,
-5, ,17, ,
-5, ,17, ,
-4, ,17, ,
-3, ,17, ,
-3, ,18, ,
-2, ,17, ,
-1, ,17, ,
0, ,17, ,
1, ,17, ,
2, ,18, ,
2, ,18, ,
3, ,18, ,
3, ,17, ,
4, ,17, ,
4, ,17, ,
3, ,17, ,
3, ,18, ,
2, ,18, ,
0, ,17, ,
0, ,17, ,
-2, ,17, ,
-3, ,18, ,
-4, ,18, ,
-6, ,18, ,
-6, ,18, ,
-8, ,17, ,
-9, ,17, ,
-9, ,18, ,
-9, ,17, ,
-9, ,17, ,
-8, ,18, ,
-8, ,17, ,
-7, ,17, ,
-5, ,18, ,
-6, ,18, ,
-4, ,18, ,
-3, ,18, ,
-2, ,17, ,
0, ,17, ,
0, ,17, ,
2, ,17, ,
3, ,17, ,
3, ,17, ,
5, ,18, ,
4, ,18, ,
4, ,18, ,
5, ,17, ,
4, ,17, ,
4, ,17, ,
3, ,18, ,
2, ,17, ,
2, ,17, ,
1, ,17, ,
-1, ,17, ,
-2, ,17, ,
-3, ,17, ,
-3, ,18, ,
-5, ,17, ,
-5, ,17, ,
-5, ,18, ,
-5, ,18, ,
-5, ,17, ,
-5, ,17, ,
-5, ,18, ,
-4, ,18, ,
-2, ,18, ,
-2, ,18, ,
-1, ,18, ,
0, ,18, ,
2, ,18, ,
4, ,18, ,
4, ,18, ,
5, ,18, ,
6, ,18, ,
6, ,17, ,
6, ,17, ,
5, ,17, ,
4, ,17, ,
3, ,18, ,
2, ,18, ,
1, ,18, ,
-2, ,18, ,
-3, ,18, ,
-4, ,18, ,
-7, ,18, ,
-9, ,18, ,
-10, ,18, ,
-11, ,17, ,
-12, ,17, ,
-13, ,17, ,
-13, ,17, ,
-12, ,17, ,
-12, ,17, ,
-11, ,17, ,
-9, ,18, ,
-9, ,18, ,
-8, ,18, ,
-5, ,18, ,
-3, ,18, ,
-2, ,18, ,
-1, ,18, ,
2, ,18, ,
3, ,17, ,
4, ,17, ,
6, ,17, ,
7, ,18, ,
7, ,18, ,
8, ,17, ,
8, ,17, ,
8, ,17, ,
8, ,17, ,
7, ,17, ,
7, ,18, ,
6, ,18, ,
4, ,17, ,
4, ,17, ,
2, ,17, ,
1, ,18, ,
1, ,18, ,
-1, ,18, ,
-1, ,18, ,
-2, ,17, ,
-2, ,17, ,
-2, ,17, ,
-2, ,17, ,
-2, ,17, ,
-2, ,17, ,
-2, ,17, ,
-1, ,17, ,
0, ,18, ,
0, ,18, ,
0, ,18, ,
0, ,18, ,
1, ,17, ,
1, ,17, ,
1, ,17, ,
1, ,18, ,
0, ,17, ,
-1, ,17, ,
-1, ,17, ,
-2, ,18, ,
-4, ,17, ,
-4, ,17, ,
-6, ,17, ,
-6, ,17, ,
-7, ,17, ,
-9, ,17, ,
-9, ,17, ,
-9, ,17, ,
-9, ,17, ,
-9, ,17, ,
-8, ,17, ,
-8, ,17, ,
-6, ,18, ,
-6, ,17, ,
-5, ,17, ,
-5, ,17, ,
-3, ,17, ,
-1, ,17, ,
-1, ,18, ,
0, ,18, ,
2, ,18, ,
2, ,18, ,
2, ,18, ,
2, ,18, ,
2, ,18, ,
2, ,18, ,
1, ,18, ,
1, ,18, ,
-1, ,17, ,
-2, ,17, ,
-2, ,17, ,
-3, ,17, ,
-4, ,17, ,
-4, ,17, ,
-5, ,18, ,
-5, ,18, ,
-5, ,17, ,
-5, ,17, ,
-5, ,17, ,
-5, ,17, ,
-5, ,17, ,
-4, ,18, ,
-4, ,18, ,
-3, ,18, ,
-2, ,17, ,
-2, ,17, ,
0, ,18, ,
0, ,18, ,
1, ,18, ,
3, ,18, ,
3, ,17, ,
4, ,17, ,
4, ,18, ,
4, ,18, ,
4, ,18, ,
3, ,18, ,
2, ,18, ,
2, ,18, ,
1, ,18, ,
1, ,17, ,
-1, ,17, ,
-2, ,17, ,
-2, ,17, ,
-3, ,17, ,
-5, ,18, ,
-5, ,18, ,
-5, ,18, ,
-5, ,18, ,
-6, ,18, ,
-6, ,18, ,
-5, ,18, ,
-5, ,18, ,
-5, ,17, ,
-5, ,17, ,
-5, ,17, ,
-4, ,17, ,
-4, ,18, ,
-4, ,18, ,
-3, ,18, ,
-3, ,18, ,
-3, ,18, ,
-3, ,18, ,
-3, ,18, ,
-3, ,18, ,
-3, ,18, ,
-3, ,18, ,
-3, ,18, ,
-3, ,18, ,
-3, ,18, ,
-3, ,18, ,
-3, ,17, ,
-3, ,17, ,
-3, ,17, ,
-3, ,17, ,
-3, ,17, ,
-3, ,17, ,
-3, ,17, ,
-3, ,17, ,
-3, ,17, ,
-3, ,17, ,
-3, ,17, ,
-3, ,17, ,
-3, ,17, ,
-4, ,17, ,
-4, ,17, ,
-3, ,17, ,
-4, ,17, ,
-4, ,18, ,
-4, ,17, ,
-5, ,17, ,
-5, ,18, ,
-5, ,18, ,
-5, ,17, ,
-5, ,17, ,
-6, ,17, ,
-6, ,17, ,
-7, ,18, ,
-8, ,18, ,
-8, ,18, ,
-9, ,17, ,
-10, ,17, ,
-10, ,18, ,
-10, ,18, ,
-10, ,18, ,
-10, ,17, ,
-10, ,17, ,
-9, ,17, ,
-8, ,18, ,
-6, ,18, ,
-4, ,18, ,
-2, ,18, ,
0, ,18, ,
4, ,18, ,
5, ,18, ,
7, ,18, ,
9, ,18, ,
12, ,17, ,
14, ,17, ,
14, ,17, ,
16, ,17, ,
16, ,17, ,
15, ,17, ,
15, ,18, ,
14, ,18, ,
13, ,18, ,
13, ,18, ,
11, ,18, ,
10, ,18, ,
8, ,17, ,
6, ,17, ,
5, ,18, ,
4, ,18, ,
3, ,18, ,
1, ,18, ,
0, ,18, ,
0, ,18, ,
-1, ,18, ,
-2, ,18, ,
-2, ,18, ,
-3, ,18, ,
-3, ,17, ,
-3, ,17, ,
-5, ,17, ,
-6, ,17, ,
-7, ,17, ,
-9, ,18, ,
-9, ,18, ,
-10, ,18, ,
-11, ,17, ,
-12, ,17, ,
-13, ,17, ,
-13, ,18, ,
-14, ,17, ,
-14, ,17, ,
-14, ,18, ,
-14, ,18, ,
-12, ,18, ,
-10, ,18, ,
-9, ,17, ,
-7, ,17, ,
-3, ,18, ,
-1, ,17, ,
1, ,17, ,
3, ,17, ,
7, ,18, ,
8, ,18, ,
9, ,18, ,
11, ,18, ,
12, ,18, ,
12, ,17, ,
12, ,17, ,
11, ,17, ,
9, ,17, ,
9, ,18, ,
7, ,18, ,
6, ,18, ,
4, ,18, ,
2, ,18, ,
1, ,18, ,
0, ,18, ,
-1, ,17, ,
-1, ,17, ,
-1, ,17, ,
-1, ,17, ,
1, ,17, ,
0, ,18, ,
2, ,18, ,
2, ,18, ,
4, ,17, ,
5, ,17, ,
6, ,18, ,
6, ,18, ,
7, ,18, ,
7, ,17, ,
7, ,17, ,
6, ,17, ,
5, ,18, ,
5, ,18, ,
4, ,18, ,
4, ,18, ,
1, ,17, ,
0, ,17, ,
-1, ,18, ,
-3, ,18, ,
-6, ,18, ,
-6, ,18, ,
-8, ,18, ,
-9, ,18, ,
-10, ,17, ,
-11, ,17, ,
-11, ,17, ,
-12, ,17, ,
-12, ,17, ,
-11, ,17, ,
-11, ,17, ,
-10, ,18, ,
-9, ,17, ,
-9, ,17, ,
-7, ,18, ,
-7, ,18, ,
-5, ,18, ,
-4, ,18, ,
-4, ,17, ,
-3, ,17, ,
-2, ,18, ,
-1, ,18, ,
-1, ,18, ,
-1, ,18, ,
0, ,18, ,
0, ,18, ,
0, ,18, ,
0, ,18, ,
0, ,17, ,
0, ,17, ,
1, ,18, ,
1, ,18, ,
1, ,17, ,
1, ,17, ,
1, ,17, ,
2, ,18, ,
2, ,18, ,
2, ,18, ,
3, ,18, ,
3, ,18, ,
4, ,18, ,
6, ,18, ,
6, ,18, ,
7, ,18, ,
8, ,17, ,
9, ,17, ,
9, ,17, ,
9, ,17, ,
9, ,17, ,
8, ,18, ,
8, ,18, ,
7, ,18, ,
7, ,17, ,
5, ,17, ,
4, ,18, ,
3, ,18, ,
1, ,17, ,
0, ,17, ,
-1, ,17, ,
-2, ,18, ,
-5, ,17, ,
-6, ,17, ,
-7, ,18, ,
-8, ,18, ,
-10, ,17, ,
-11, ,17, ,
-12, ,17, ,
-12, ,17, ,
-13, ,18, ,
-13, ,18, ,
-13, ,18, ,
-13, ,17, ,
-12, ,17, ,
-11, ,18, ,
-10, ,18, ,
-9, ,18, ,
-6, ,17, ,
-6, ,17, ,
-3, ,17, ,
-3, ,17, ,
0, ,17, ,
3, ,17, ,
4, ,17, ,
5, ,17, ,
8, ,18, ,
8, ,17, ,
9, ,17, ,
9, ,17, ,
10, ,17, ,
10, ,17, ,
9, ,17, ,
9, ,17, ,
8, ,18, ,
8, ,18, ,
7, ,17, ,
7, ,17, ,
5, ,17, ,
5, ,17, ,
4, ,17, ,
4, ,17, ,
2, ,17, ,
1, ,17, ,
1, ,17, ,
0, ,17, ,
-2, ,17, ,
-2, ,17, ,
-3, ,18, ,
-3, ,18, ,
-4, ,17, ,
-4, ,17, ,
-4, ,18, ,
-4, ,18, ,
-4, ,17, ,
-3, ,17, ,
-3, ,17, ,
-3, ,17, ,
-1, ,17, ,
-1, ,17, ,
0, ,18, ,
0, ,17, ,
1, ,17, ,
2, ,17, ,
2, ,17, ,
2, ,17, ,
3, ,17, ,
2, ,17, ,
2, ,17, ,
1, ,17, ,
1, ,17, ,
1, ,17, ,
0, ,17, ,
0, ,18, ,
-1, ,18, ,
-2, ,17, ,
-2, ,17, ,
-3, ,17, ,
-3, ,17, ,
-4, ,17, ,
-4, ,17, ,
-4, ,17, ,
-4, ,17, ,
-4, ,17, ,
-4, ,18, ,
-4, ,17, ,
-4, ,17, ,
-4, ,17, ,
-3, ,17, ,
-3, ,17, ,
-2, ,17, ,
-1, ,17, ,
-1, ,17, ,
-1, ,17, ,
0, ,17, ,
1, ,18, ,
1, ,18, ,
2, ,18, ,
2, ,17, ,
2, ,17, ,
3, ,17, ,
3, ,17, ,
3, ,17, ,
4, ,18, ,
4, ,17, ,
4, ,17, ,
5, ,18, ,
5, ,18, ,
6, ,18, ,
6, ,18, ,
6, ,17, ,
6, ,17, ,
6, ,17, ,
6, ,17, ,
6, ,18, ,
5, ,18, ,
5, ,18, ,
3, ,18, ,
2, ,18, ,
2, ,18, ,
1, ,18, ,
0, ,18, ,
-2, ,17, ,
-3, ,17, ,
-3, ,18, ,
-4, ,18, ,
-4, ,17, ,
-4, ,17, ,
-4, ,17, ,
-4, ,18, ,
-3, ,17, ,
-3, ,17, ,
-2, ,17, ,
-2, ,17, ,
-1, ,17, ,
0, ,18, ,
0, ,18, ,
0, ,17, ,
1, ,17, ,
1, ,17, ,
1, ,17, ,
1, ,17, ,
1, ,18, ,
2, ,17, ,
2, ,17, ,
2, ,17, ,
2, ,17, ,
2, ,17, ,
2, ,17, ,
2, ,17, ,
2, ,17, ,
2, ,17, ,
1, ,17, ,
1, ,17, ,
1, ,18, ,
0, ,18, ,
0, ,18, ,
0, ,17, ,
-1, ,17, ,
-1, ,17, ,
-1, ,17, ,
-1, ,17, ,
0, ,17, ,
0, ,17, ,
0, ,17, ,
0, ,17, ,
0, ,18, ,
0, ,18, ,
0, ,17, ,
0, ,17, ,
0, ,17, ,
0, ,18, ,
0, ,18, ,
-1, ,18, ,
-2, ,17, ,
-2, ,17, ,
-3, ,17, ,
-3, ,18, ,
-6, ,18, ,
-6, ,18, ,
-7, ,18, ,
-8, ,18, ,
-8, ,18, ,
-8, ,17, ,
-8, ,17, ,
-7, ,17, ,
-6, ,18, ,
-5, ,18, ,
-4, ,18, ,
-3, ,17, ,
0, ,17, ,
2, ,17, ,
2, ,17, ,
4, ,17, ,
7, ,17, ,
7, ,17, ,
8, ,17, ,
9, ,18, ,
9, ,18, ,
9, ,18, ,
8, ,17, ,
8, ,17, ,
7, ,18, ,
6, ,18, ,
4, ,17, ,
2, ,17, ,
0, ,17, ,
0, ,17, ,
-2, ,17, ,
-3, ,18, ,
-5, ,17, ,
-6, ,17, ,
-7, ,17, ,
-7, ,17, ,
-8, ,17, ,
-7, ,17, ,
-7, ,17, ,
-7, ,17, ,
-6, ,18, ,
-7, ,18, ,
-6, ,17, ,
-6, ,17, ,
-5, ,18, ,
-4, ,17, ,
-4, ,17, ,
-4, ,17, ,
-3, ,18, ,
-4, ,17, ,
-3, ,17, ,
-3, ,17, ,
-2, ,17, ,
-2, ,18, ,
-3, ,17, ,
-2, ,17, ,
-2, ,18, ,
-2, ,17, ,
-1, ,17, ,
-1, ,17, ,
1, ,17, ,
1, ,17, ,
2, ,17, ,
3, ,18, ,
4, ,17, ,
4, ,17, ,
5, ,17, ,
5, ,18, ,
6, ,18, ,
7, ,18, ,
7, ,17, ,
7, ,17, ,
8, ,18, ,
7, ,18, ,
7, ,18, ,
7, ,18, ,
8, ,17, ,
8, ,17, ,
7, ,17, ,
7, ,18, ,
6, ,18, ,
6, ,18, ,
6, ,17, ,
5, ,17, ,
4, ,18, ,
4, ,18, ,
3, ,18, ,
3, ,17, ,
2, ,17, ,
1, ,17, ,
1, ,18, ,
-1, ,18, ,
-2, ,18, ,
-2, ,17, ,
-2, ,17, ,
-2, ,17, ,
-3, ,17, ,
-3, ,17, ,
-3, ,17, ,
-4, ,17, ,
-5, ,17, ,
-5, ,18, ,
-5, ,18, ,
-5, ,18, ,
-6, ,18, ,
-7, ,18, ,
-7, ,17, ,
-8, ,17, ,
-9, ,17, ,
-9, ,17, ,
-10, ,17, ,
-10, ,18, ,
-11, ,17, ,
-11, ,17, ,
-11, ,18, ,
-11, ,18, ,
-11, ,17, ,
-10, ,17, ,
-11, ,18, ,
-9, ,18, ,
-7, ,18, ,
-7, ,18, ,
-6, ,18, ,
-5, ,17, ,
-3, ,17, ,
-1, ,17, ,
1, ,17, ,
2, ,17, ,
5, ,17, ,
6, ,17, ,
8, ,18, ,
9, ,17, ,
11, ,17, ,
12, ,18, ,
13, ,18, ,
13, ,17, ,
14, ,17, ,
13, ,18, ,
13, ,18, ,
12, ,18, ,
11, ,17, ,
11, ,17, ,
10, ,17, ,
10, ,18, ,
8, ,18, ,
6, ,18, ,
6, ,18, ,
4, ,18, ,
