raw_data/75% Glycerol, Impulsion 2Hz, Sonde 5MHz, Rampe 0.7Hz/temp0000249.CSV

Format,1.0B,
Memory Length,10000,Memory Length,10000,
IntpDistance,0,IntpDistance,0,
Trigger Address,159,Trigger Address,159,
Trigger Level,2.720E-01,Trigger Level,2.720E-01,
Source,CH1,Source,CH2,
Vertical Units,V,Vertical Units,V,
Vertical Units Div,0,Vertical Units Div,0,
Vertical Units Extend Div,16,Vertical Units Extend Div,16,
Label,,Label,,
Probe Type,0,Probe Type,0,
Probe Ratio,1.000e+00,Probe Ratio,1.000e+00,
Vertical Scale,5.000e-01,Vertical Scale,2.000e+00,
Vertical Position,0.000e+00,Vertical Position,0.000e+00,
Horizontal Units,S,Horizontal Units,S,
Horizontal Scale,5.000E-06,Horizontal Scale,5.000E-06,
Horizontal Position,2.420E-05,Horizontal Position,2.420E-05,
Horizontal Mode,Main,Horizontal Mode,Main,
SincET Mode,Real Time,SincET Mode,Real Time,
Sampling Period,5.000e-09,Sampling Period,5.000e-09,
Horizontal Old Scale,5.000E-06,Horizontal Old Scale,5.000E-06,
Horizontal Old Position,2.420E-05,Horizontal Old Position,2.420E-05,
Firmware,V1.32,Firmware,V1.32,
Mode,Fast,Mode,Fast,
Waveform Data,,Waveform Data,,
1, ,-42, ,
1, ,-42, ,
1, ,-42, ,
1, ,-42, ,
1, ,-42, ,
1, ,-42, ,
1, ,-42, ,
1, ,-42, ,
1, ,-42, ,
1, ,-42, ,
1, ,-42, ,
1, ,-42, ,
1, ,-42, ,
1, ,-42, ,
1, ,-42, ,
1, ,-41, ,
1, ,-42, ,
1, ,-42, ,
1, ,-42, ,
1, ,-42, ,
1, ,-42, ,
1, ,-42, ,
1, ,-42, ,
1, ,-42, ,
1, ,-42, ,
1, ,-42, ,
1, ,-42, ,
1, ,-42, ,
1, ,-42, ,
1, ,-42, ,
1, ,-42, ,
1, ,-42, ,
1, ,-42, ,
1, ,-42, ,
1, ,-42, ,
1, ,-42, ,
1, ,-42, ,
1, ,-42, ,
1, ,-42, ,
1, ,-42, ,
1, ,-42, ,
1, ,-42, ,
1, ,-42, ,
1, ,-42, ,
1, ,-42, ,
1, ,-42, ,
1, ,-42, ,
1, ,-42, ,
1, ,-42, ,
1, ,-42, ,
1, ,-42, ,
1, ,-42, ,
1, ,-42, ,
1, ,-42, ,
1, ,-42, ,
1, ,-42, ,
1, ,-42, ,
1, ,-42, ,
1, ,-42, ,
1, ,-41, ,
1, ,-41, ,
1, ,-41, ,
1, ,-42, ,
1, ,-42, ,
1, ,-42, ,
1, ,-42, ,
1, ,-42, ,
1, ,-42, ,
1, ,-42, ,
1, ,-42, ,
0, ,-42, ,
1, ,-42, ,
1, ,-42, ,
1, ,-42, ,
1, ,-42, ,
1, ,-42, ,
1, ,-42, ,
1, ,-42, ,
1, ,-41, ,
1, ,-42, ,
1, ,-42, ,
1, ,-42, ,
1, ,-42, ,
1, ,-42, ,
1, ,-42, ,
1, ,-42, ,
1, ,-42, ,
1, ,-41, ,
1, ,-41, ,
1, ,-41, ,
1, ,-42, ,
1, ,-42, ,
1, ,-42, ,
1, ,-42, ,
1, ,-42, ,
1, ,-42, ,
1, ,-42, ,
1, ,-42, ,
1, ,-42, ,
1, ,-42, ,
1, ,-42, ,
1, ,-42, ,
1, ,-42, ,
1, ,-42, ,
1, ,-42, ,
1, ,-42, ,
1, ,-42, ,
1, ,-42, ,
1, ,-42, ,
1, ,-42, ,
1, ,-42, ,
1, ,-42, ,
1, ,-42, ,
1, ,-42, ,
1, ,-42, ,
1, ,-42, ,
1, ,-42, ,
1, ,-42, ,
1, ,-42, ,
1, ,-42, ,
1, ,-42, ,
1, ,-41, ,
1, ,-42, ,
1, ,-42, ,
1, ,-42, ,
1, ,-42, ,
0, ,-42, ,
0, ,-42, ,
1, ,-42, ,
1, ,-42, ,
1, ,-42, ,
1, ,-42, ,
1, ,-42, ,
1, ,-42, ,
1, ,-42, ,
1, ,-42, ,
1, ,-42, ,
1, ,-42, ,
1, ,-42, ,
1, ,-42, ,
1, ,-42, ,
1, ,-42, ,
1, ,-42, ,
1, ,-42, ,
1, ,-42, ,
1, ,-41, ,
1, ,-42, ,
1, ,-42, ,
1, ,-42, ,
1, ,-42, ,
1, ,-42, ,
1, ,-42, ,
1, ,-42, ,
1, ,-42, ,
1, ,-42, ,
1, ,-42, ,
1, ,-42, ,
1, ,-42, ,
1, ,-42, ,
1, ,-42, ,
1, ,-42, ,
1, ,-42, ,
2, ,-42, ,
1, ,-42, ,
0, ,-42, ,
0, ,-42, ,
0, ,-42, ,
1, ,-42, ,
38, ,-42, ,
75, ,-42, ,
116, ,-42, ,
124, ,-42, ,
110, ,-42, ,
56, ,-42, ,
3, ,-42, ,
-2, ,-42, ,
95, ,-42, ,
125, ,-42, ,
125, ,-42, ,
125, ,-42, ,
125, ,-42, ,
125, ,-42, ,
125, ,-42, ,
124, ,-42, ,
123, ,-42, ,
117, ,-41, ,
111, ,-42, ,
107, ,-42, ,
101, ,-42, ,
98, ,-42, ,
94, ,-42, ,
91, ,-42, ,
83, ,-42, ,
80, ,-42, ,
78, ,-41, ,
75, ,-42, ,
69, ,-42, ,
67, ,-42, ,
64, ,-41, ,
62, ,-42, ,
57, ,-42, ,
54, ,-42, ,
52, ,-42, ,
49, ,-42, ,
46, ,-42, ,
44, ,-42, ,
42, ,-42, ,
40, ,-42, ,
37, ,-42, ,
35, ,-42, ,
34, ,-42, ,
32, ,-42, ,
29, ,-42, ,
28, ,-42, ,
26, ,-41, ,
25, ,-41, ,
24, ,-41, ,
23, ,-41, ,
22, ,-42, ,
20, ,-42, ,
19, ,-41, ,
18, ,-42, ,
17, ,-42, ,
17, ,-41, ,
15, ,-42, ,
13, ,-42, ,
13, ,-42, ,
12, ,-42, ,
11, ,-42, ,
11, ,-42, ,
10, ,-42, ,
9, ,-42, ,
8, ,-42, ,
8, ,-42, ,
8, ,-42, ,
7, ,-42, ,
6, ,-42, ,
6, ,-42, ,
5, ,-42, ,
5, ,-42, ,
5, ,-42, ,
4, ,-41, ,
4, ,-42, ,
4, ,-42, ,
3, ,-42, ,
3, ,-42, ,
3, ,-42, ,
2, ,-42, ,
2, ,-42, ,
2, ,-42, ,
2, ,-42, ,
2, ,-42, ,
1, ,-42, ,
1, ,-42, ,
0, ,-42, ,
0, ,-42, ,
1, ,-42, ,
0, ,-42, ,
0, ,-42, ,
0, ,-42, ,
0, ,-42, ,
0, ,-42, ,
-1, ,-42, ,
-1, ,-42, ,
0, ,-42, ,
-1, ,-42, ,
-1, ,-42, ,
-1, ,-42, ,
-1, ,-42, ,
-1, ,-42, ,
-1, ,-42, ,
-1, ,-41, ,
-1, ,-42, ,
-1, ,-42, ,
-1, ,-42, ,
-1, ,-42, ,
-1, ,-42, ,
-1, ,-42, ,
-1, ,-41, ,
-1, ,-42, ,
-1, ,-42, ,
-1, ,-42, ,
-1, ,-42, ,
-1, ,-42, ,
-1, ,-42, ,
-1, ,-42, ,
-1, ,-42, ,
-1, ,-42, ,
-1, ,-42, ,
-1, ,-42, ,
-1, ,-42, ,
-1, ,-42, ,
-1, ,-42, ,
-1, ,-42, ,
-1, ,-42, ,
-1, ,-42, ,
-1, ,-42, ,
-1, ,-42, ,
-1, ,-42, ,
-1, ,-42, ,
-1, ,-41, ,
-1, ,-42, ,
0, ,-42, ,
-1, ,-42, ,
-1, ,-42, ,
-1, ,-42, ,
-1, ,-42, ,
-1, ,-41, ,
-1, ,-41, ,
-1, ,-41, ,
-1, ,-41, ,
-1, ,-42, ,
-1, ,-42, ,
-1, ,-42, ,
0, ,-42, ,
0, ,-42, ,
-1, ,-42, ,
0, ,-42, ,
-1, ,-41, ,
0, ,-41, ,
0, ,-42, ,
0, ,-42, ,
0, ,-42, ,
0, ,-42, ,
0, ,-42, ,
0, ,-42, ,
0, ,-42, ,
0, ,-42, ,
0, ,-42, ,
-1, ,-42, ,
0, ,-42, ,
-1, ,-42, ,
0, ,-42, ,
0, ,-42, ,
0, ,-42, ,
0, ,-42, ,
0, ,-42, ,
0, ,-42, ,
0, ,-42, ,
0, ,-42, ,
0, ,-42, ,
0, ,-42, ,
0, ,-42, ,
0, ,-42, ,
0, ,-42, ,
0, ,-42, ,
0, ,-42, ,
0, ,-42, ,
0, ,-42, ,
0, ,-42, ,
0, ,-42, ,
1, ,-42, ,
0, ,-42, ,
0, ,-42, ,
0, ,-42, ,
0, ,-42, ,
0, ,-42, ,
0, ,-42, ,
0, ,-42, ,
0, ,-42, ,
0, ,-42, ,
0, ,-42, ,
0, ,-42, ,
1, ,-42, ,
1, ,-41, ,
1, ,-42, ,
0, ,-42, ,
0, ,-42, ,
1, ,-42, ,
1, ,-42, ,
1, ,-42, ,
0, ,-42, ,
0, ,-42, ,
1, ,-42, ,
0, ,-41, ,
0, ,-42, ,
1, ,-42, ,
0, ,-42, ,
0, ,-42, ,
0, ,-42, ,
1, ,-42, ,
1, ,-42, ,
0, ,-42, ,
0, ,-41, ,
1, ,-42, ,
0, ,-42, ,
0, ,-42, ,
0, ,-42, ,
0, ,-42, ,
0, ,-42, ,
0, ,-42, ,
0, ,-42, ,
0, ,-42, ,
0, ,-42, ,
0, ,-42, ,
0, ,-42, ,
0, ,-42, ,
0, ,-42, ,
1, ,-42, ,
0, ,-42, ,
0, ,-42, ,
1, ,-42, ,
1, ,-42, ,
0, ,-42, ,
0, ,-42, ,
0, ,-42, ,
0, ,-42, ,
1, ,-41, ,
1, ,-42, ,
0, ,-42, ,
1, ,-42, ,
0, ,-42, ,
0, ,-41, ,
0, ,-42, ,
1, ,-42, ,
1, ,-41, ,
1, ,-42, ,
1, ,-42, ,
1, ,-42, ,
1, ,-42, ,
1, ,-42, ,
1, ,-42, ,
1, ,-42, ,
1, ,-42, ,
1, ,-42, ,
0, ,-42, ,
0, ,-42, ,
0, ,-42, ,
0, ,-42, ,
0, ,-42, ,
0, ,-42, ,
1, ,-42, ,
0, ,-42, ,
0, ,-42, ,
0, ,-42, ,
-1, ,-42, ,
-2, ,-42, ,
-3, ,-42, ,
-5, ,-42, ,
-8, ,-41, ,
-15, ,-41, ,
-21, ,-41, ,
-26, ,-42, ,
-32, ,-42, ,
-36, ,-42, ,
-33, ,-42, ,
-29, ,-42, ,
-23, ,-42, ,
-10, ,-42, ,
-5, ,-42, ,
-1, ,-42, ,
0, ,-42, ,
4, ,-42, ,
6, ,-42, ,
7, ,-42, ,
8, ,-42, ,
9, ,-42, ,
8, ,-42, ,
8, ,-42, ,
8, ,-42, ,
8, ,-42, ,
8, ,-42, ,
8, ,-42, ,
8, ,-41, ,
7, ,-42, ,
6, ,-42, ,
6, ,-42, ,
6, ,-42, ,
6, ,-42, ,
6, ,-42, ,
6, ,-42, ,
6, ,-42, ,
5, ,-42, ,
5, ,-42, ,
6, ,-42, ,
5, ,-42, ,
5, ,-42, ,
5, ,-42, ,
5, ,-41, ,
5, ,-42, ,
4, ,-42, ,
4, ,-42, ,
4, ,-42, ,
3, ,-42, ,
3, ,-42, ,
4, ,-42, ,
3, ,-41, ,
3, ,-42, ,
3, ,-42, ,
3, ,-41, ,
3, ,-42, ,
3, ,-42, ,
3, ,-42, ,
3, ,-42, ,
3, ,-42, ,
3, ,-42, ,
2, ,-42, ,
2, ,-42, ,
2, ,-42, ,
1, ,-42, ,
1, ,-42, ,
1, ,-42, ,
0, ,-42, ,
0, ,-42, ,
0, ,-42, ,
0, ,-41, ,
0, ,-42, ,
0, ,-42, ,
0, ,-42, ,
1, ,-42, ,
1, ,-42, ,
1, ,-42, ,
1, ,-42, ,
1, ,-42, ,
0, ,-42, ,
0, ,-42, ,
-1, ,-42, ,
-1, ,-42, ,
-3, ,-42, ,
-4, ,-42, ,
-6, ,-42, ,
-9, ,-42, ,
-11, ,-42, ,
-13, ,-42, ,
-18, ,-42, ,
-18, ,-42, ,
-18, ,-42, ,
-18, ,-42, ,
-16, ,-42, ,
-15, ,-42, ,
-13, ,-42, ,
-12, ,-42, ,
-8, ,-42, ,
-6, ,-42, ,
-4, ,-42, ,
-3, ,-42, ,
-1, ,-42, ,
-1, ,-41, ,
0, ,-42, ,
-1, ,-42, ,
-2, ,-42, ,
-3, ,-42, ,
-4, ,-42, ,
-4, ,-42, ,
-6, ,-42, ,
-8, ,-42, ,
-9, ,-42, ,
-11, ,-42, ,
-12, ,-42, ,
-12, ,-42, ,
-14, ,-42, ,
-14, ,-42, ,
-15, ,-42, ,
-17, ,-41, ,
-18, ,-42, ,
-19, ,-42, ,
-23, ,-42, ,
-25, ,-41, ,
-28, ,-41, ,
-30, ,-41, ,
-36, ,-41, ,
-39, ,-41, ,
-41, ,-42, ,
-42, ,-42, ,
-44, ,-42, ,
-44, ,-42, ,
-43, ,-42, ,
-42, ,-42, ,
-38, ,-42, ,
-37, ,-41, ,
-34, ,-42, ,
-31, ,-42, ,
-25, ,-41, ,
-23, ,-42, ,
-21, ,-42, ,
-18, ,-42, ,
-14, ,-42, ,
-12, ,-42, ,
-11, ,-42, ,
-9, ,-42, ,
-6, ,-42, ,
-5, ,-42, ,
-4, ,-42, ,
-3, ,-42, ,
0, ,-42, ,
1, ,-42, ,
2, ,-42, ,
4, ,-42, ,
6, ,-42, ,
7, ,-42, ,
8, ,-42, ,
9, ,-42, ,
10, ,-42, ,
10, ,-42, ,
11, ,-42, ,
11, ,-42, ,
10, ,-42, ,
10, ,-42, ,
10, ,-42, ,
10, ,-42, ,
11, ,-42, ,
11, ,-42, ,
11, ,-42, ,
11, ,-42, ,
12, ,-42, ,
13, ,-42, ,
13, ,-42, ,
15, ,-42, ,
16, ,-42, ,
16, ,-42, ,
17, ,-42, ,
16, ,-42, ,
16, ,-42, ,
16, ,-42, ,
15, ,-42, ,
14, ,-42, ,
12, ,-42, ,
10, ,-42, ,
9, ,-42, ,
7, ,-42, ,
3, ,-41, ,
1, ,-42, ,
-2, ,-42, ,
-4, ,-42, ,
-9, ,-42, ,
-11, ,-42, ,
-12, ,-42, ,
-14, ,-42, ,
-15, ,-42, ,
-15, ,-42, ,
-15, ,-42, ,
-14, ,-42, ,
-13, ,-42, ,
-13, ,-42, ,
-12, ,-42, ,
-12, ,-42, ,
-10, ,-41, ,
-9, ,-42, ,
-9, ,-42, ,
-9, ,-42, ,
-10, ,-42, ,
-10, ,-41, ,
-10, ,-42, ,
-10, ,-42, ,
-10, ,-42, ,
-9, ,-42, ,
-9, ,-42, ,
-9, ,-42, ,
-8, ,-42, ,
-8, ,-42, ,
-7, ,-42, ,
-6, ,-42, ,
-6, ,-41, ,
-6, ,-41, ,
-7, ,-41, ,
-7, ,-42, ,
-9, ,-42, ,
-9, ,-42, ,
-10, ,-42, ,
-12, ,-42, ,
-13, ,-42, ,
-13, ,-42, ,
-14, ,-42, ,
-14, ,-42, ,
-15, ,-42, ,
-15, ,-42, ,
-15, ,-42, ,
-15, ,-42, ,
-15, ,-42, ,
-14, ,-42, ,
-15, ,-42, ,
-13, ,-42, ,
-12, ,-42, ,
-11, ,-42, ,
-10, ,-42, ,
-10, ,-42, ,
-8, ,-42, ,
-7, ,-42, ,
-6, ,-42, ,
-5, ,-42, ,
-4, ,-42, ,
-4, ,-42, ,
-4, ,-42, ,
-5, ,-42, ,
-6, ,-42, ,
-7, ,-42, ,
-8, ,-42, ,
-8, ,-42, ,
-10, ,-42, ,
-11, ,-42, ,
-11, ,-42, ,
-11, ,-42, ,
-12, ,-42, ,
-12, ,-42, ,
-12, ,-42, ,
-13, ,-42, ,
-13, ,-42, ,
-14, ,-42, ,
-14, ,-42, ,
-14, ,-42, ,
-15, ,-42, ,
-15, ,-42, ,
-15, ,-42, ,
-14, ,-42, ,
-14, ,-42, ,
-14, ,-42, ,
-12, ,-42, ,
-12, ,-42, ,
-10, ,-42, ,
-9, ,-42, ,
-8, ,-42, ,
-7, ,-42, ,
-4, ,-42, ,
-3, ,-42, ,
-1, ,-42, ,
0, ,-42, ,
4, ,-41, ,
6, ,-42, ,
7, ,-42, ,
9, ,-42, ,
13, ,-42, ,
14, ,-42, ,
15, ,-42, ,
16, ,-42, ,
17, ,-42, ,
17, ,-42, ,
16, ,-41, ,
16, ,-42, ,
14, ,-42, ,
13, ,-42, ,
12, ,-42, ,
11, ,-42, ,
9, ,-42, ,
7, ,-42, ,
6, ,-42, ,
6, ,-42, ,
5, ,-42, ,
5, ,-42, ,
5, ,-42, ,
5, ,-42, ,
5, ,-42, ,
5, ,-42, ,
5, ,-42, ,
5, ,-41, ,
5, ,-42, ,
4, ,-42, ,
4, ,-42, ,
3, ,-42, ,
2, ,-42, ,
1, ,-42, ,
0, ,-42, ,
-1, ,-42, ,
-3, ,-42, ,
-5, ,-42, ,
-6, ,-42, ,
-6, ,-42, ,
-7, ,-42, ,
-7, ,-42, ,
-7, ,-42, ,
-7, ,-42, ,
-6, ,-42, ,
-6, ,-42, ,
-6, ,-42, ,
-5, ,-42, ,
-6, ,-42, ,
-6, ,-42, ,
-6, ,-42, ,
-6, ,-41, ,
-8, ,-41, ,
-10, ,-41, ,
-10, ,-42, ,
-13, ,-42, ,
-16, ,-42, ,
-17, ,-42, ,
-19, ,-42, ,
-21, ,-42, ,
-24, ,-42, ,
-25, ,-42, ,
-25, ,-42, ,
-26, ,-42, ,
-26, ,-42, ,
-25, ,-42, ,
-25, ,-42, ,
-25, ,-42, ,
-23, ,-42, ,
-22, ,-42, ,
-21, ,-42, ,
-20, ,-42, ,
-17, ,-42, ,
-16, ,-42, ,
-16, ,-42, ,
-14, ,-42, ,
-12, ,-42, ,
-12, ,-42, ,
-12, ,-42, ,
-12, ,-42, ,
-12, ,-41, ,
-12, ,-41, ,
-13, ,-41, ,
-13, ,-42, ,
-15, ,-42, ,
-16, ,-42, ,
-17, ,-42, ,
-18, ,-42, ,
-19, ,-42, ,
-20, ,-42, ,
-20, ,-42, ,
-20, ,-42, ,
-20, ,-42, ,
-20, ,-42, ,
-19, ,-42, ,
-18, ,-42, ,
-15, ,-42, ,
-13, ,-42, ,
-12, ,-42, ,
-9, ,-42, ,
-5, ,-42, ,
-3, ,-42, ,
0, ,-42, ,
2, ,-42, ,
7, ,-41, ,
9, ,-42, ,
11, ,-42, ,
13, ,-42, ,
17, ,-42, ,
17, ,-41, ,
19, ,-41, ,
19, ,-42, ,
20, ,-42, ,
19, ,-42, ,
18, ,-42, ,
18, ,-42, ,
15, ,-42, ,
13, ,-42, ,
12, ,-42, ,
10, ,-42, ,
6, ,-42, ,
5, ,-42, ,
3, ,-42, ,
2, ,-42, ,
1, ,-42, ,
1, ,-42, ,
1, ,-42, ,
1, ,-42, ,
2, ,-41, ,
2, ,-42, ,
3, ,-42, ,
4, ,-41, ,
6, ,-42, ,
6, ,-42, ,
6, ,-42, ,
6, ,-42, ,
6, ,-42, ,
6, ,-42, ,
6, ,-42, ,
6, ,-42, ,
5, ,-42, ,
4, ,-42, ,
4, ,-42, ,
3, ,-42, ,
2, ,-42, ,
2, ,-42, ,
1, ,-42, ,
1, ,-42, ,
1, ,-42, ,
0, ,-42, ,
0, ,-42, ,
0, ,-42, ,
0, ,-42, ,
0, ,-42, ,
-1, ,-42, ,
-1, ,-42, ,
-2, ,-42, ,
-4, ,-42, ,
-4, ,-42, ,
-6, ,-42, ,
-8, ,-42, ,
-9, ,-42, ,
-10, ,-42, ,
-11, ,-41, ,
-14, ,-42, ,
-16, ,-42, ,
-16, ,-42, ,
-18, ,-42, ,
-19, ,-42, ,
-19, ,-42, ,
-20, ,-42, ,
-20, ,-42, ,
-20, ,-42, ,
-20, ,-42, ,
-20, ,-42, ,
-20, ,-42, ,
-18, ,-42, ,
-17, ,-42, ,
-16, ,-42, ,
-15, ,-42, ,
-14, ,-42, ,
-13, ,-42, ,
-12, ,-42, ,
-11, ,-42, ,
-11, ,-42, ,
-9, ,-42, ,
-9, ,-42, ,
-9, ,-42, ,
-9, ,-42, ,
-9, ,-42, ,
-9, ,-42, ,
-9, ,-42, ,
-8, ,-42, ,
-8, ,-42, ,
-8, ,-42, ,
-8, ,-42, ,
-8, ,-42, ,
-8, ,-42, ,
-8, ,-42, ,
-8, ,-42, ,
-7, ,-42, ,
-7, ,-42, ,
-6, ,-41, ,
-6, ,-42, ,
-3, ,-42, ,
-3, ,-42, ,
-2, ,-42, ,
0, ,-42, ,
1, ,-42, ,
3, ,-42, ,
3, ,-42, ,
4, ,-42, ,
4, ,-42, ,
4, ,-42, ,
4, ,-42, ,
3, ,-42, ,
1, ,-42, ,
0, ,-42, ,
-3, ,-42, ,
-4, ,-42, ,
-7, ,-42, ,
-9, ,-41, ,
-11, ,-42, ,
-13, ,-42, ,
-16, ,-42, ,
-17, ,-42, ,
-18, ,-42, ,
-18, ,-41, ,
-18, ,-42, ,
-18, ,-42, ,
-17, ,-42, ,
-16, ,-42, ,
-14, ,-42, ,
-12, ,-42, ,
-11, ,-41, ,
-10, ,-41, ,
-7, ,-41, ,
-6, ,-41, ,
-4, ,-42, ,
-4, ,-42, ,
-1, ,-42, ,
0, ,-42, ,
1, ,-42, ,
3, ,-42, ,
5, ,-42, ,
6, ,-42, ,
7, ,-42, ,
7, ,-42, ,
10, ,-42, ,
11, ,-42, ,
12, ,-42, ,
13, ,-42, ,
15, ,-42, ,
14, ,-42, ,
15, ,-42, ,
14, ,-42, ,
13, ,-42, ,
13, ,-42, ,
12, ,-42, ,
11, ,-42, ,
8, ,-42, ,
5, ,-42, ,
4, ,-42, ,
1, ,-42, ,
-3, ,-42, ,
-5, ,-42, ,
-8, ,-42, ,
-9, ,-42, ,
-12, ,-42, ,
-12, ,-42, ,
-12, ,-42, ,
-12, ,-42, ,
-12, ,-42, ,
-11, ,-42, ,
-10, ,-42, ,
-8, ,-42, ,
-6, ,-42, ,
-4, ,-42, ,
-3, ,-42, ,
-1, ,-42, ,
2, ,-42, ,
3, ,-42, ,
4, ,-41, ,
5, ,-42, ,
6, ,-42, ,
6, ,-42, ,
6, ,-42, ,
6, ,-42, ,
5, ,-42, ,
4, ,-42, ,
3, ,-42, ,
2, ,-42, ,
-1, ,-42, ,
-2, ,-42, ,
-2, ,-42, ,
-4, ,-42, ,
-7, ,-42, ,
-8, ,-42, ,
-9, ,-42, ,
-10, ,-41, ,
-11, ,-41, ,
-11, ,-41, ,
-11, ,-42, ,
-11, ,-42, ,
-11, ,-42, ,
-11, ,-42, ,
-10, ,-42, ,
-8, ,-42, ,
-6, ,-42, ,
-5, ,-42, ,
-3, ,-42, ,
-2, ,-42, ,
2, ,-42, ,
3, ,-42, ,
4, ,-42, ,
5, ,-42, ,
7, ,-42, ,
7, ,-41, ,
8, ,-42, ,
8, ,-42, ,
6, ,-42, ,
6, ,-42, ,
5, ,-42, ,
5, ,-42, ,
2, ,-42, ,
1, ,-42, ,
1, ,-42, ,
-1, ,-42, ,
-3, ,-42, ,
-3, ,-42, ,
-5, ,-42, ,
-5, ,-42, ,
-6, ,-42, ,
-7, ,-42, ,
-7, ,-42, ,
-7, ,-42, ,
-7, ,-42, ,
-7, ,-42, ,
-7, ,-42, ,
-7, ,-42, ,
-7, ,-42, ,
-7, ,-42, ,
-7, ,-42, ,
-7, ,-42, ,
-6, ,-42, ,
-5, ,-42, ,
-5, ,-42, ,
-5, ,-42, ,
-3, ,-42, ,
-1, ,-42, ,
-1, ,-42, ,
1, ,-42, ,
2, ,-42, ,
4, ,-42, ,
5, ,-42, ,
6, ,-42, ,
7, ,-42, ,
8, ,-42, ,
8, ,-42, ,
8, ,-42, ,
8, ,-41, ,
8, ,-42, ,
8, ,-42, ,
8, ,-42, ,
7, ,-42, ,
6, ,-41, ,
6, ,-42, ,
5, ,-42, ,
2, ,-42, ,
1, ,-42, ,
0, ,-42, ,
0, ,-41, ,
-2, ,-42, ,
-4, ,-42, ,
-4, ,-42, ,
-6, ,-42, ,
-7, ,-42, ,
-7, ,-42, ,
-7, ,-42, ,
-7, ,-42, ,
-7, ,-42, ,
-7, ,-42, ,
-6, ,-42, ,
-6, ,-42, ,
-5, ,-41, ,
-3, ,-42, ,
-3, ,-42, ,
-1, ,-42, ,
0, ,-42, ,
1, ,-42, ,
2, ,-42, ,
2, ,-42, ,
3, ,-42, ,
3, ,-42, ,
3, ,-42, ,
3, ,-42, ,
2, ,-42, ,
1, ,-42, ,
1, ,-42, ,
0, ,-42, ,
-1, ,-42, ,
-2, ,-42, ,
-2, ,-42, ,
-3, ,-42, ,
-5, ,-42, ,
-7, ,-42, ,
-7, ,-42, ,
-8, ,-42, ,
-10, ,-42, ,
-11, ,-42, ,
-12, ,-42, ,
-12, ,-42, ,
-12, ,-42, ,
-12, ,-42, ,
-12, ,-42, ,
-12, ,-42, ,
-11, ,-42, ,
-10, ,-42, ,
-9, ,-42, ,
-7, ,-42, ,
-5, ,-42, ,
-4, ,-42, ,
-2, ,-42, ,
-1, ,-42, ,
2, ,-42, ,
4, ,-42, ,
5, ,-42, ,
7, ,-42, ,
10, ,-42, ,
10, ,-42, ,
12, ,-42, ,
12, ,-42, ,
13, ,-42, ,
13, ,-42, ,
13, ,-42, ,
13, ,-42, ,
12, ,-42, ,
11, ,-42, ,
11, ,-42, ,
11, ,-42, ,
10, ,-42, ,
9, ,-42, ,
8, ,-42, ,
8, ,-42, ,
6, ,-42, ,
5, ,-42, ,
4, ,-42, ,
4, ,-42, ,
2, ,-42, ,
2, ,-42, ,
1, ,-42, ,
0, ,-42, ,
-2, ,-42, ,
-2, ,-42, ,
-3, ,-42, ,
-4, ,-42, ,
-5, ,-42, ,
-6, ,-42, ,
-8, ,-42, ,
-8, ,-42, ,
-9, ,-42, ,
-10, ,-42, ,
-10, ,-42, ,
-11, ,-42, ,
-11, ,-42, ,
-10, ,-42, ,
-10, ,-42, ,
-10, ,-42, ,
-9, ,-42, ,
-8, ,-42, ,
-7, ,-42, ,
-7, ,-42, ,
-6, ,-42, ,
-5, ,-42, ,
-5, ,-41, ,
-4, ,-42, ,
-3, ,-42, ,
-3, ,-42, ,
-3, ,-42, ,
-3, ,-42, ,
-4, ,-42, ,
-5, ,-42, ,
-6, ,-42, ,
-6, ,-41, ,
-8, ,-42, ,
-8, ,-42, ,
-9, ,-42, ,
-10, ,-42, ,
-12, ,-42, ,
-12, ,-42, ,
-12, ,-42, ,
-12, ,-42, ,
-12, ,-42, ,
-12, ,-41, ,
-11, ,-42, ,
-11, ,-42, ,
-10, ,-42, ,
-9, ,-42, ,
-9, ,-42, ,
-7, ,-42, ,
-5, ,-42, ,
-4, ,-41, ,
-3, ,-42, ,
-2, ,-42, ,
0, ,-42, ,
2, ,-42, ,
3, ,-42, ,
5, ,-42, ,
7, ,-42, ,
9, ,-42, ,
11, ,-42, ,
12, ,-42, ,
15, ,-42, ,
17, ,-42, ,
18, ,-42, ,
19, ,-42, ,
19, ,-41, ,
19, ,-41, ,
18, ,-42, ,
18, ,-42, ,
15, ,-42, ,
15, ,-42, ,
12, ,-42, ,
11, ,-42, ,
7, ,-42, ,
4, ,-42, ,
3, ,-42, ,
0, ,-41, ,
-3, ,-41, ,
-5, ,-42, ,
-7, ,-42, ,
-8, ,-42, ,
-10, ,-42, ,
-11, ,-42, ,
-11, ,-42, ,
-11, ,-42, ,
-11, ,-42, ,
-10, ,-42, ,
-10, ,-42, ,
-10, ,-42, ,
-9, ,-42, ,
-9, ,-42, ,
-9, ,-42, ,
-8, ,-42, ,
-8, ,-42, ,
-8, ,-42, ,
-8, ,-42, ,
-7, ,-42, ,
-7, ,-42, ,
-7, ,-42, ,
-6, ,-42, ,
-6, ,-42, ,
-6, ,-42, ,
-5, ,-42, ,
-5, ,-41, ,
-5, ,-42, ,
-5, ,-42, ,
-5, ,-42, ,
-5, ,-42, ,
-5, ,-42, ,
-5, ,-42, ,
-4, ,-42, ,
-4, ,-42, ,
-4, ,-42, ,
-4, ,-42, ,
-5, ,-42, ,
-5, ,-42, ,
-5, ,-42, ,
-6, ,-41, ,
-6, ,-42, ,
-7, ,-42, ,
-7, ,-42, ,
-8, ,-42, ,
-9, ,-42, ,
-9, ,-42, ,
-10, ,-42, ,
-10, ,-42, ,
-10, ,-42, ,
-10, ,-42, ,
-10, ,-42, ,
-9, ,-42, ,
-9, ,-42, ,
-7, ,-42, ,
-6, ,-42, ,
-4, ,-42, ,
-2, ,-42, ,
0, ,-42, ,
2, ,-42, ,
6, ,-42, ,
7, ,-42, ,
10, ,-42, ,
11, ,-42, ,
15, ,-42, ,
17, ,-42, ,
18, ,-42, ,
19, ,-42, ,
21, ,-42, ,
22, ,-42, ,
23, ,-42, ,
22, ,-42, ,
21, ,-42, ,
21, ,-42, ,
20, ,-41, ,
19, ,-42, ,
17, ,-42, ,
15, ,-42, ,
13, ,-42, ,
11, ,-42, ,
6, ,-42, ,
4, ,-42, ,
1, ,-42, ,
-1, ,-41, ,
-5, ,-42, ,
-8, ,-42, ,
-10, ,-42, ,
-11, ,-42, ,
-13, ,-42, ,
-13, ,-42, ,
-13, ,-41, ,
-13, ,-42, ,
-11, ,-42, ,
-11, ,-41, ,
-9, ,-42, ,
-8, ,-42, ,
-5, ,-42, ,
-4, ,-42, ,
-3, ,-42, ,
-2, ,-42, ,
0, ,-42, ,
0, ,-42, ,
0, ,-42, ,
0, ,-42, ,
-1, ,-42, ,
-2, ,-42, ,
-2, ,-42, ,
-3, ,-42, ,
-3, ,-42, ,
-4, ,-42, ,
-4, ,-42, ,
-5, ,-42, ,
-5, ,-41, ,
-4, ,-42, ,
-4, ,-42, ,
-4, ,-42, ,
-3, ,-42, ,
-3, ,-42, ,
-2, ,-42, ,
-1, ,-42, ,
0, ,-42, ,
1, ,-42, ,
0, ,-42, ,
1, ,-42, ,
2, ,-42, ,
2, ,-42, ,
2, ,-42, ,
1, ,-42, ,
1, ,-42, ,
1, ,-42, ,
0, ,-42, ,
0, ,-42, ,
1, ,-42, ,
1, ,-42, ,
1, ,-42, ,
1, ,-42, ,
1, ,-42, ,
2, ,-42, ,
2, ,-42, ,
2, ,-42, ,
3, ,-42, ,
3, ,-42, ,
4, ,-42, ,
4, ,-42, ,
4, ,-42, ,
4, ,-42, ,
4, ,-42, ,
4, ,-42, ,
4, ,-42, ,
4, ,-42, ,
4, ,-42, ,
4, ,-42, ,
4, ,-42, ,
4, ,-42, ,
4, ,-42, ,
4, ,-42, ,
4, ,-42, ,
4, ,-42, ,
4, ,-42, ,
4, ,-42, ,
4, ,-42, ,
4, ,-42, ,
3, ,-42, ,
3, ,-41, ,
3, ,-42, ,
1, ,-42, ,
1, ,-42, ,
0, ,-42, ,
-1, ,-42, ,
-1, ,-42, ,
-2, ,-42, ,
-3, ,-42, ,
-4, ,-42, ,
-5, ,-42, ,
-6, ,-42, ,
-7, ,-42, ,
-7, ,-42, ,
-7, ,-42, ,
-7, ,-42, ,
-7, ,-42, ,
-6, ,-42, ,
-6, ,-42, ,
-5, ,-42, ,
-4, ,-42, ,
-3, ,-42, ,
-1, ,-42, ,
-1, ,-42, ,
0, ,-42, ,
2, ,-42, ,
2, ,-42, ,
2, ,-42, ,
2, ,-42, ,
1, ,-42, ,
1, ,-42, ,
0, ,-42, ,
0, ,-42, ,
-2, ,-42, ,
-3, ,-42, ,
-3, ,-42, ,
-5, ,-42, ,
-6, ,-42, ,
-7, ,-42, ,
-8, ,-42, ,
-8, ,-42, ,
-8, ,-42, ,
-8, ,-42, ,
-8, ,-42, ,
-7, ,-42, ,
-6, ,-42, ,
-5, ,-42, ,
-3, ,-42, ,
-2, ,-42, ,
1, ,-42, ,
2, ,-42, ,
4, ,-42, ,
4, ,-42, ,
8, ,-42, ,
9, ,-42, ,
9, ,-42, ,
11, ,-42, ,
12, ,-42, ,
12, ,-42, ,
12, ,-42, ,
12, ,-42, ,
10, ,-42, ,
9, ,-42, ,
8, ,-42, ,
8, ,-42, ,
5, ,-42, ,
3, ,-42, ,
1, ,-42, ,
0, ,-42, ,
-4, ,-42, ,
-5, ,-42, ,
-6, ,-42, ,
-8, ,-42, ,
-8, ,-42, ,
-8, ,-42, ,
-8, ,-42, ,
-7, ,-42, ,
-7, ,-42, ,
-5, ,-42, ,
-4, ,-42, ,
-3, ,-42, ,
0, ,-42, ,
1, ,-42, ,
2, ,-42, ,
2, ,-42, ,
4, ,-42, ,
4, ,-42, ,
4, ,-42, ,
4, ,-42, ,
4, ,-42, ,
3, ,-42, ,
2, ,-42, ,
2, ,-42, ,
1, ,-42, ,
0, ,-42, ,
0, ,-42, ,
-1, ,-42, ,
-1, ,-42, ,
-1, ,-42, ,
-1, ,-42, ,
-1, ,-42, ,
0, ,-42, ,
0, ,-42, ,
0, ,-42, ,
0, ,-42, ,
1, ,-42, ,
1, ,-41, ,
1, ,-42, ,
1, ,-42, ,
1, ,-42, ,
1, ,-42, ,
0, ,-42, ,
0, ,-41, ,
1, ,-41, ,
0, ,-42, ,
0, ,-42, ,
0, ,-42, ,
1, ,-42, ,
1, ,-42, ,
1, ,-42, ,
2, ,-42, ,
2, ,-42, ,
2, ,-42, ,
3, ,-42, ,
3, ,-42, ,
3, ,-42, ,
3, ,-42, ,
3, ,-42, ,
4, ,-41, ,
4, ,-42, ,
4, ,-42, ,
5, ,-42, ,
5, ,-42, ,
5, ,-42, ,
5, ,-42, ,
5, ,-42, ,
5, ,-42, ,
5, ,-42, ,
5, ,-41, ,
5, ,-42, ,
4, ,-42, ,
3, ,-42, ,
3, ,-42, ,
2, ,-42, ,
2, ,-42, ,
1, ,-42, ,
0, ,-42, ,
-1, ,-42, ,
-1, ,-42, ,
-2, ,-42, ,
-3, ,-42, ,
-3, ,-42, ,
-4, ,-42, ,
-4, ,-42, ,
-5, ,-42, ,
-5, ,-42, ,
-5, ,-42, ,
-5, ,-42, ,
-5, ,-42, ,
-4, ,-42, ,
-4, ,-42, ,
-4, ,-42, ,
-4, ,-42, ,
-3, ,-42, ,
-3, ,-42, ,
-2, ,-42, ,
-1, ,-42, ,
-1, ,-41, ,
-1, ,-42, ,
1, ,-42, ,
2, ,-42, ,
2, ,-42, ,
2, ,-42, ,
3, ,-42, ,
4, ,-42, ,
4, ,-42, ,
4, ,-42, ,
4, ,-42, ,
3, ,-42, ,
3, ,-42, ,
3, ,-42, ,
2, ,-42, ,
2, ,-42, ,
1, ,-42, ,
1, ,-42, ,
0, ,-42, ,
0, ,-42, ,
0, ,-42, ,
0, ,-42, ,
0, ,-42, ,
0, ,-42, ,
0, ,-42, ,
0, ,-42, ,
1, ,-42, ,
1, ,-42, ,
2, ,-42, ,
2, ,-42, ,
2, ,-42, ,
2, ,-42, ,
2, ,-42, ,
2, ,-42, ,
1, ,-42, ,
1, ,-42, ,
0, ,-42, ,
0, ,-42, ,
-1, ,-42, ,
-2, ,-42, ,
-2, ,-42, ,
-3, ,-42, ,
-4, ,-42, ,
-4, ,-42, ,
-5, ,-42, ,
