raw_data/75% Glycerol, Impulsion 2Hz, Sonde 5MHz, Rampe 0.7Hz/temp0000071.CSV

Format,1.0B,
Memory Length,10000,Memory Length,10000,
IntpDistance,0,IntpDistance,0,
Trigger Address,159,Trigger Address,159,
Trigger Level,2.720E-01,Trigger Level,2.720E-01,
Source,CH1,Source,CH2,
Vertical Units,V,Vertical Units,V,
Vertical Units Div,0,Vertical Units Div,0,
Vertical Units Extend Div,16,Vertical Units Extend Div,16,
Label,,Label,,
Probe Type,0,Probe Type,0,
Probe Ratio,1.000e+00,Probe Ratio,1.000e+00,
Vertical Scale,5.000e-01,Vertical Scale,2.000e+00,
Vertical Position,0.000e+00,Vertical Position,0.000e+00,
Horizontal Units,S,Horizontal Units,S,
Horizontal Scale,5.000E-06,Horizontal Scale,5.000E-06,
Horizontal Position,2.420E-05,Horizontal Position,2.420E-05,
Horizontal Mode,Main,Horizontal Mode,Main,
SincET Mode,Real Time,SincET Mode,Real Time,
Sampling Period,5.000e-09,Sampling Period,5.000e-09,
Horizontal Old Scale,5.000E-06,Horizontal Old Scale,5.000E-06,
Horizontal Old Position,2.420E-05,Horizontal Old Position,2.420E-05,
Firmware,V1.32,Firmware,V1.32,
Mode,Fast,Mode,Fast,
Waveform Data,,Waveform Data,,
1, ,41, ,
1, ,41, ,
0, ,41, ,
0, ,41, ,
0, ,41, ,
1, ,41, ,
1, ,41, ,
0, ,41, ,
0, ,41, ,
0, ,41, ,
0, ,41, ,
0, ,41, ,
0, ,41, ,
0, ,41, ,
0, ,41, ,
0, ,41, ,
1, ,41, ,
0, ,41, ,
0, ,41, ,
0, ,40, ,
0, ,40, ,
0, ,40, ,
0, ,41, ,
0, ,41, ,
0, ,41, ,
0, ,41, ,
1, ,41, ,
1, ,41, ,
1, ,41, ,
1, ,41, ,
1, ,41, ,
0, ,41, ,
0, ,41, ,
0, ,41, ,
0, ,41, ,
0, ,41, ,
0, ,41, ,
0, ,41, ,
0, ,41, ,
0, ,41, ,
0, ,41, ,
1, ,41, ,
0, ,41, ,
0, ,41, ,
0, ,41, ,
0, ,41, ,
1, ,41, ,
1, ,41, ,
1, ,41, ,
0, ,41, ,
0, ,41, ,
1, ,41, ,
0, ,41, ,
0, ,41, ,
1, ,41, ,
1, ,41, ,
1, ,41, ,
0, ,41, ,
0, ,41, ,
0, ,41, ,
0, ,41, ,
0, ,41, ,
0, ,41, ,
0, ,41, ,
0, ,41, ,
0, ,41, ,
0, ,41, ,
0, ,41, ,
0, ,41, ,
0, ,41, ,
0, ,41, ,
0, ,41, ,
0, ,41, ,
0, ,41, ,
0, ,41, ,
1, ,41, ,
1, ,41, ,
0, ,41, ,
0, ,41, ,
0, ,41, ,
0, ,41, ,
0, ,41, ,
0, ,41, ,
1, ,41, ,
0, ,41, ,
0, ,41, ,
1, ,41, ,
1, ,41, ,
1, ,41, ,
1, ,41, ,
0, ,41, ,
0, ,41, ,
0, ,41, ,
0, ,41, ,
0, ,41, ,
0, ,41, ,
0, ,41, ,
1, ,41, ,
0, ,41, ,
0, ,41, ,
0, ,41, ,
0, ,41, ,
1, ,41, ,
0, ,41, ,
0, ,41, ,
0, ,41, ,
0, ,41, ,
0, ,41, ,
0, ,41, ,
1, ,41, ,
1, ,41, ,
1, ,41, ,
1, ,41, ,
0, ,41, ,
0, ,41, ,
0, ,41, ,
0, ,41, ,
1, ,41, ,
1, ,41, ,
0, ,41, ,
0, ,41, ,
0, ,41, ,
0, ,41, ,
0, ,41, ,
0, ,41, ,
0, ,41, ,
0, ,41, ,
0, ,41, ,
1, ,41, ,
0, ,41, ,
0, ,41, ,
0, ,41, ,
0, ,41, ,
0, ,41, ,
1, ,41, ,
0, ,41, ,
0, ,41, ,
0, ,41, ,
1, ,41, ,
1, ,41, ,
0, ,41, ,
1, ,41, ,
1, ,41, ,
0, ,41, ,
0, ,41, ,
0, ,41, ,
0, ,41, ,
0, ,41, ,
0, ,41, ,
1, ,41, ,
1, ,41, ,
0, ,41, ,
0, ,41, ,
0, ,41, ,
0, ,41, ,
0, ,41, ,
0, ,41, ,
0, ,41, ,
1, ,41, ,
1, ,41, ,
1, ,41, ,
0, ,41, ,
0, ,41, ,
-1, ,41, ,
-1, ,41, ,
0, ,41, ,
-2, ,41, ,
5, ,41, ,
24, ,41, ,
96, ,41, ,
125, ,41, ,
123, ,41, ,
120, ,41, ,
24, ,41, ,
-7, ,41, ,
17, ,41, ,
70, ,41, ,
125, ,41, ,
125, ,41, ,
125, ,41, ,
125, ,40, ,
125, ,40, ,
125, ,40, ,
124, ,41, ,
124, ,41, ,
113, ,41, ,
108, ,41, ,
106, ,41, ,
102, ,41, ,
95, ,41, ,
93, ,41, ,
88, ,41, ,
85, ,41, ,
79, ,41, ,
75, ,41, ,
73, ,41, ,
71, ,41, ,
65, ,41, ,
63, ,41, ,
59, ,41, ,
57, ,41, ,
53, ,41, ,
50, ,41, ,
49, ,41, ,
46, ,41, ,
42, ,41, ,
41, ,41, ,
38, ,41, ,
37, ,41, ,
34, ,41, ,
32, ,41, ,
31, ,41, ,
30, ,41, ,
26, ,41, ,
25, ,41, ,
25, ,41, ,
24, ,41, ,
22, ,41, ,
20, ,41, ,
20, ,41, ,
19, ,41, ,
17, ,41, ,
16, ,41, ,
15, ,41, ,
15, ,41, ,
13, ,41, ,
12, ,41, ,
12, ,41, ,
11, ,41, ,
10, ,41, ,
9, ,41, ,
9, ,41, ,
9, ,41, ,
7, ,41, ,
6, ,41, ,
6, ,41, ,
6, ,41, ,
5, ,41, ,
5, ,41, ,
4, ,41, ,
4, ,41, ,
4, ,41, ,
3, ,41, ,
3, ,41, ,
2, ,41, ,
2, ,41, ,
2, ,41, ,
2, ,41, ,
2, ,41, ,
1, ,41, ,
1, ,41, ,
1, ,41, ,
1, ,41, ,
1, ,41, ,
1, ,41, ,
0, ,41, ,
0, ,41, ,
0, ,41, ,
0, ,41, ,
0, ,41, ,
-1, ,41, ,
-1, ,41, ,
0, ,41, ,
-1, ,41, ,
-1, ,41, ,
-1, ,41, ,
-1, ,41, ,
-1, ,41, ,
-1, ,41, ,
-1, ,41, ,
-1, ,41, ,
-1, ,41, ,
-1, ,41, ,
-1, ,41, ,
-2, ,41, ,
-2, ,41, ,
-2, ,41, ,
-1, ,41, ,
-1, ,41, ,
-1, ,41, ,
-1, ,41, ,
-1, ,41, ,
-2, ,41, ,
-2, ,41, ,
-2, ,41, ,
-1, ,41, ,
-1, ,41, ,
-1, ,41, ,
-1, ,41, ,
-1, ,41, ,
-1, ,41, ,
-1, ,41, ,
-1, ,41, ,
-2, ,41, ,
-1, ,41, ,
-1, ,41, ,
-1, ,41, ,
-1, ,41, ,
-1, ,41, ,
-1, ,41, ,
-1, ,41, ,
-1, ,41, ,
-1, ,41, ,
-1, ,41, ,
-1, ,41, ,
-1, ,41, ,
-1, ,41, ,
-1, ,41, ,
-1, ,41, ,
-1, ,41, ,
-1, ,41, ,
-1, ,41, ,
-1, ,41, ,
-1, ,41, ,
-1, ,41, ,
-1, ,41, ,
-1, ,41, ,
-1, ,41, ,
-1, ,41, ,
-1, ,41, ,
-1, ,41, ,
-1, ,41, ,
-1, ,41, ,
-1, ,41, ,
-1, ,41, ,
-1, ,41, ,
-1, ,41, ,
-1, ,41, ,
0, ,41, ,
0, ,41, ,
0, ,41, ,
0, ,41, ,
0, ,41, ,
0, ,41, ,
0, ,41, ,
0, ,41, ,
0, ,41, ,
0, ,41, ,
0, ,41, ,
0, ,41, ,
0, ,41, ,
0, ,41, ,
0, ,41, ,
-1, ,41, ,
-1, ,41, ,
0, ,41, ,
0, ,41, ,
0, ,41, ,
0, ,41, ,
0, ,41, ,
0, ,41, ,
0, ,41, ,
0, ,41, ,
0, ,41, ,
0, ,41, ,
0, ,41, ,
0, ,41, ,
0, ,41, ,
0, ,41, ,
0, ,41, ,
0, ,41, ,
0, ,41, ,
0, ,41, ,
0, ,41, ,
0, ,41, ,
0, ,41, ,
0, ,41, ,
0, ,41, ,
0, ,41, ,
0, ,41, ,
0, ,41, ,
0, ,41, ,
0, ,41, ,
0, ,41, ,
0, ,41, ,
0, ,41, ,
0, ,41, ,
0, ,41, ,
0, ,41, ,
0, ,41, ,
0, ,41, ,
0, ,41, ,
0, ,41, ,
0, ,41, ,
0, ,41, ,
0, ,41, ,
0, ,41, ,
0, ,41, ,
0, ,41, ,
0, ,41, ,
0, ,41, ,
0, ,41, ,
0, ,41, ,
0, ,41, ,
0, ,41, ,
0, ,41, ,
0, ,41, ,
0, ,41, ,
0, ,41, ,
0, ,41, ,
0, ,41, ,
0, ,41, ,
0, ,41, ,
0, ,41, ,
0, ,41, ,
0, ,41, ,
0, ,41, ,
0, ,41, ,
0, ,41, ,
0, ,41, ,
0, ,41, ,
0, ,41, ,
0, ,41, ,
0, ,41, ,
1, ,41, ,
0, ,41, ,
0, ,41, ,
0, ,41, ,
0, ,41, ,
1, ,41, ,
1, ,41, ,
0, ,41, ,
0, ,41, ,
0, ,41, ,
0, ,41, ,
0, ,41, ,
0, ,41, ,
0, ,41, ,
0, ,41, ,
0, ,41, ,
0, ,41, ,
0, ,41, ,
0, ,41, ,
0, ,41, ,
0, ,41, ,
0, ,41, ,
0, ,41, ,
-1, ,41, ,
-1, ,41, ,
-2, ,41, ,
-2, ,41, ,
-4, ,41, ,
-5, ,41, ,
-7, ,41, ,
-8, ,41, ,
-9, ,41, ,
-9, ,41, ,
-9, ,41, ,
-8, ,41, ,
-6, ,40, ,
-5, ,40, ,
-3, ,41, ,
-3, ,41, ,
-2, ,41, ,
-1, ,41, ,
-1, ,41, ,
-1, ,41, ,
-1, ,41, ,
-1, ,41, ,
-1, ,41, ,
-2, ,41, ,
-3, ,41, ,
-3, ,41, ,
-3, ,41, ,
-3, ,41, ,
-3, ,41, ,
-3, ,41, ,
-1, ,41, ,
-1, ,41, ,
1, ,41, ,
1, ,41, ,
2, ,41, ,
3, ,41, ,
4, ,41, ,
3, ,41, ,
3, ,41, ,
3, ,41, ,
4, ,41, ,
4, ,41, ,
4, ,41, ,
4, ,41, ,
3, ,41, ,
3, ,41, ,
3, ,41, ,
3, ,41, ,
3, ,41, ,
2, ,41, ,
2, ,41, ,
2, ,41, ,
2, ,41, ,
2, ,41, ,
2, ,41, ,
2, ,41, ,
2, ,41, ,
2, ,41, ,
2, ,41, ,
2, ,41, ,
2, ,41, ,
1, ,41, ,
1, ,41, ,
0, ,41, ,
-1, ,41, ,
-1, ,41, ,
-1, ,41, ,
-1, ,41, ,
-1, ,41, ,
-1, ,41, ,
-1, ,41, ,
-1, ,41, ,
0, ,41, ,
0, ,41, ,
0, ,41, ,
0, ,41, ,
1, ,41, ,
1, ,41, ,
1, ,41, ,
1, ,41, ,
1, ,41, ,
1, ,41, ,
1, ,41, ,
1, ,41, ,
0, ,41, ,
-1, ,41, ,
-1, ,41, ,
-2, ,41, ,
-3, ,41, ,
-3, ,41, ,
-4, ,41, ,
-4, ,41, ,
-6, ,41, ,
-7, ,41, ,
-7, ,41, ,
-8, ,41, ,
-10, ,41, ,
-10, ,41, ,
-11, ,41, ,
-12, ,41, ,
-14, ,41, ,
-16, ,41, ,
-18, ,41, ,
-20, ,41, ,
-24, ,41, ,
-26, ,41, ,
-29, ,41, ,
-31, ,41, ,
-35, ,41, ,
-37, ,41, ,
-37, ,41, ,
-37, ,41, ,
-36, ,41, ,
-36, ,41, ,
-36, ,41, ,
-35, ,41, ,
-35, ,41, ,
-35, ,41, ,
-35, ,41, ,
-35, ,41, ,
-35, ,41, ,
-35, ,41, ,
-35, ,41, ,
-35, ,41, ,
-33, ,41, ,
-32, ,41, ,
-30, ,41, ,
-28, ,41, ,
-24, ,41, ,
-21, ,41, ,
-19, ,41, ,
-15, ,41, ,
-9, ,41, ,
-6, ,41, ,
-3, ,41, ,
-1, ,41, ,
3, ,41, ,
5, ,41, ,
5, ,41, ,
6, ,41, ,
7, ,41, ,
7, ,41, ,
7, ,41, ,
6, ,41, ,
6, ,41, ,
6, ,41, ,
6, ,41, ,
6, ,41, ,
6, ,41, ,
6, ,41, ,
6, ,41, ,
5, ,41, ,
5, ,41, ,
4, ,41, ,
4, ,41, ,
4, ,41, ,
4, ,41, ,
3, ,41, ,
3, ,41, ,
3, ,41, ,
3, ,41, ,
4, ,41, ,
4, ,41, ,
4, ,41, ,
6, ,41, ,
7, ,41, ,
8, ,41, ,
8, ,41, ,
10, ,41, ,
11, ,41, ,
11, ,41, ,
12, ,41, ,
11, ,41, ,
10, ,41, ,
10, ,41, ,
9, ,41, ,
7, ,41, ,
6, ,41, ,
5, ,41, ,
4, ,41, ,
2, ,41, ,
0, ,41, ,
-1, ,41, ,
-3, ,41, ,
-4, ,41, ,
-5, ,41, ,
-6, ,41, ,
-6, ,41, ,
-6, ,41, ,
-6, ,41, ,
-6, ,41, ,
-6, ,41, ,
-5, ,41, ,
-4, ,41, ,
-4, ,41, ,
-4, ,41, ,
-3, ,41, ,
-3, ,41, ,
-2, ,41, ,
-3, ,41, ,
-3, ,41, ,
-3, ,41, ,
-4, ,41, ,
-4, ,41, ,
-6, ,41, ,
-7, ,41, ,
-8, ,41, ,
-10, ,41, ,
-12, ,41, ,
-14, ,41, ,
-15, ,41, ,
-17, ,41, ,
-21, ,41, ,
-23, ,41, ,
-24, ,41, ,
-26, ,41, ,
-30, ,41, ,
-32, ,41, ,
-33, ,41, ,
-34, ,41, ,
-34, ,41, ,
-34, ,41, ,
-32, ,41, ,
-30, ,41, ,
-26, ,41, ,
-23, ,41, ,
-21, ,41, ,
-17, ,41, ,
-11, ,41, ,
-8, ,41, ,
-6, ,41, ,
-4, ,41, ,
0, ,41, ,
2, ,41, ,
3, ,41, ,
3, ,41, ,
4, ,41, ,
3, ,41, ,
3, ,41, ,
2, ,41, ,
1, ,41, ,
0, ,41, ,
0, ,41, ,
-1, ,41, ,
-4, ,41, ,
-5, ,41, ,
-5, ,41, ,
-7, ,41, ,
-9, ,41, ,
-9, ,41, ,
-9, ,41, ,
-9, ,41, ,
-9, ,41, ,
-9, ,41, ,
-8, ,41, ,
-8, ,41, ,
-6, ,41, ,
-5, ,41, ,
-4, ,41, ,
-3, ,41, ,
-1, ,41, ,
-1, ,41, ,
0, ,41, ,
0, ,41, ,
1, ,41, ,
1, ,41, ,
1, ,41, ,
1, ,41, ,
1, ,41, ,
1, ,41, ,
1, ,41, ,
0, ,41, ,
-1, ,41, ,
-1, ,41, ,
-3, ,41, ,
-3, ,41, ,
-5, ,41, ,
-6, ,41, ,
-7, ,41, ,
-9, ,41, ,
-10, ,41, ,
-11, ,41, ,
-12, ,41, ,
-12, ,41, ,
-11, ,41, ,
-11, ,41, ,
-10, ,41, ,
-9, ,41, ,
-7, ,41, ,
-5, ,41, ,
-4, ,41, ,
-2, ,41, ,
2, ,41, ,
3, ,41, ,
6, ,41, ,
6, ,41, ,
10, ,41, ,
11, ,41, ,
12, ,41, ,
13, ,41, ,
13, ,41, ,
12, ,41, ,
11, ,41, ,
10, ,41, ,
8, ,41, ,
7, ,41, ,
5, ,41, ,
3, ,41, ,
0, ,41, ,
-2, ,41, ,
-3, ,41, ,
-5, ,41, ,
-7, ,41, ,
-7, ,41, ,
-7, ,41, ,
-6, ,41, ,
-6, ,41, ,
-6, ,41, ,
-4, ,41, ,
-3, ,41, ,
0, ,41, ,
2, ,41, ,
3, ,41, ,
4, ,41, ,
6, ,41, ,
7, ,41, ,
8, ,41, ,
8, ,41, ,
8, ,41, ,
7, ,41, ,
6, ,41, ,
6, ,41, ,
2, ,41, ,
1, ,41, ,
-2, ,41, ,
-4, ,41, ,
-9, ,41, ,
-11, ,41, ,
-13, ,41, ,
-16, ,41, ,
-20, ,41, ,
-22, ,41, ,
-24, ,41, ,
-25, ,41, ,
-27, ,41, ,
-28, ,41, ,
-30, ,41, ,
-30, ,41, ,
-32, ,41, ,
-33, ,41, ,
-33, ,41, ,
-34, ,41, ,
-35, ,41, ,
-35, ,41, ,
-36, ,41, ,
-36, ,41, ,
-35, ,41, ,
-35, ,41, ,
-34, ,41, ,
-34, ,41, ,
-31, ,41, ,
-29, ,41, ,
-28, ,41, ,
-27, ,41, ,
-24, ,41, ,
-23, ,41, ,
-20, ,41, ,
-19, ,41, ,
-15, ,41, ,
-12, ,41, ,
-11, ,41, ,
-9, ,41, ,
-5, ,41, ,
-3, ,41, ,
0, ,41, ,
0, ,41, ,
5, ,41, ,
6, ,41, ,
8, ,41, ,
10, ,41, ,
12, ,41, ,
13, ,41, ,
14, ,41, ,
14, ,41, ,
15, ,41, ,
16, ,41, ,
16, ,41, ,
16, ,41, ,
15, ,41, ,
14, ,41, ,
14, ,41, ,
12, ,41, ,
10, ,41, ,
10, ,41, ,
8, ,41, ,
7, ,41, ,
4, ,41, ,
3, ,41, ,
2, ,41, ,
1, ,41, ,
-1, ,41, ,
-1, ,41, ,
-1, ,41, ,
-1, ,41, ,
0, ,41, ,
0, ,41, ,
1, ,41, ,
2, ,41, ,
5, ,41, ,
7, ,41, ,
8, ,41, ,
9, ,41, ,
12, ,41, ,
12, ,41, ,
13, ,41, ,
13, ,41, ,
13, ,41, ,
13, ,41, ,
12, ,41, ,
12, ,41, ,
10, ,41, ,
8, ,41, ,
8, ,41, ,
6, ,41, ,
2, ,41, ,
1, ,40, ,
-1, ,40, ,
-3, ,41, ,
-6, ,41, ,
-8, ,41, ,
-9, ,41, ,
-11, ,41, ,
-11, ,41, ,
-11, ,41, ,
-11, ,41, ,
-10, ,41, ,
-10, ,41, ,
-9, ,41, ,
-8, ,41, ,
-8, ,41, ,
-6, ,41, ,
-5, ,41, ,
-5, ,41, ,
-3, ,41, ,
-4, ,41, ,
-4, ,41, ,
-4, ,41, ,
-5, ,41, ,
-7, ,41, ,
-7, ,41, ,
-9, ,41, ,
-11, ,41, ,
-15, ,41, ,
-17, ,41, ,
-19, ,41, ,
-22, ,41, ,
-25, ,41, ,
-25, ,41, ,
-27, ,41, ,
-28, ,41, ,
-29, ,41, ,
-29, ,41, ,
-28, ,41, ,
-28, ,41, ,
-26, ,41, ,
-25, ,41, ,
-23, ,41, ,
-21, ,41, ,
-16, ,41, ,
-13, ,41, ,
-11, ,41, ,
-9, ,41, ,
-3, ,41, ,
-1, ,41, ,
1, ,41, ,
3, ,41, ,
6, ,41, ,
7, ,41, ,
7, ,41, ,
6, ,41, ,
5, ,41, ,
5, ,41, ,
4, ,41, ,
2, ,41, ,
-1, ,41, ,
-4, ,41, ,
-5, ,41, ,
-8, ,41, ,
-12, ,41, ,
-14, ,41, ,
-16, ,41, ,
-18, ,41, ,
-19, ,41, ,
-20, ,41, ,
-20, ,41, ,
-20, ,41, ,
-19, ,41, ,
-18, ,41, ,
-16, ,41, ,
-14, ,41, ,
-11, ,41, ,
-9, ,41, ,
-6, ,41, ,
-5, ,41, ,
-1, ,41, ,
2, ,41, ,
4, ,41, ,
6, ,41, ,
9, ,41, ,
9, ,41, ,
11, ,41, ,
11, ,41, ,
12, ,41, ,
12, ,41, ,
12, ,41, ,
11, ,41, ,
10, ,41, ,
10, ,41, ,
9, ,41, ,
7, ,41, ,
6, ,41, ,
5, ,41, ,
3, ,41, ,
2, ,41, ,
-1, ,41, ,
-2, ,41, ,
-3, ,41, ,
-5, ,41, ,
-7, ,41, ,
-7, ,41, ,
-8, ,41, ,
-9, ,41, ,
-9, ,41, ,
-8, ,41, ,
-8, ,41, ,
-8, ,41, ,
-6, ,41, ,
-5, ,41, ,
-5, ,41, ,
-4, ,41, ,
-1, ,41, ,
-1, ,41, ,
1, ,41, ,
1, ,41, ,
2, ,41, ,
3, ,41, ,
3, ,41, ,
2, ,41, ,
2, ,41, ,
1, ,41, ,
1, ,41, ,
0, ,41, ,
-2, ,41, ,
-2, ,41, ,
-4, ,41, ,
-4, ,41, ,
-6, ,41, ,
-7, ,41, ,
-8, ,41, ,
-8, ,41, ,
-7, ,41, ,
-7, ,41, ,
-7, ,41, ,
-6, ,41, ,
-6, ,41, ,
-4, ,41, ,
-3, ,41, ,
-3, ,41, ,
0, ,41, ,
1, ,41, ,
1, ,41, ,
2, ,41, ,
4, ,41, ,
5, ,41, ,
5, ,41, ,
5, ,41, ,
5, ,41, ,
5, ,41, ,
4, ,41, ,
4, ,41, ,
4, ,41, ,
2, ,41, ,
2, ,41, ,
1, ,41, ,
-1, ,41, ,
-1, ,41, ,
-3, ,41, ,
-3, ,41, ,
-5, ,41, ,
-6, ,41, ,
-6, ,41, ,
-8, ,41, ,
-8, ,41, ,
-8, ,41, ,
-9, ,41, ,
-9, ,41, ,
-8, ,41, ,
-8, ,41, ,
-8, ,41, ,
-8, ,41, ,
-8, ,41, ,
-8, ,41, ,
-8, ,41, ,
-8, ,41, ,
-8, ,41, ,
-8, ,41, ,
-8, ,41, ,
-8, ,41, ,
-7, ,41, ,
-6, ,41, ,
-6, ,41, ,
-5, ,41, ,
-3, ,41, ,
-3, ,41, ,
-1, ,41, ,
-1, ,41, ,
2, ,41, ,
4, ,41, ,
5, ,41, ,
6, ,41, ,
8, ,41, ,
8, ,41, ,
9, ,41, ,
9, ,41, ,
9, ,41, ,
9, ,41, ,
9, ,41, ,
8, ,41, ,
8, ,41, ,
8, ,41, ,
7, ,41, ,
6, ,41, ,
5, ,41, ,
4, ,41, ,
3, ,41, ,
2, ,41, ,
1, ,41, ,
-1, ,41, ,
-2, ,41, ,
-3, ,41, ,
-5, ,41, ,
-6, ,41, ,
-7, ,41, ,
-7, ,41, ,
-7, ,41, ,
-8, ,41, ,
-8, ,41, ,
-8, ,41, ,
-8, ,41, ,
-6, ,41, ,
-6, ,41, ,
-5, ,41, ,
-3, ,41, ,
-2, ,41, ,
-1, ,41, ,
0, ,41, ,
1, ,41, ,
3, ,41, ,
3, ,41, ,
4, ,41, ,
4, ,41, ,
3, ,41, ,
3, ,41, ,
2, ,41, ,
1, ,41, ,
1, ,41, ,
-2, ,41, ,
-2, ,41, ,
-5, ,41, ,
-7, ,41, ,
-8, ,41, ,
-9, ,41, ,
-11, ,41, ,
-11, ,41, ,
-11, ,41, ,
-11, ,41, ,
-11, ,41, ,
-10, ,41, ,
-8, ,41, ,
-8, ,41, ,
-5, ,41, ,
-3, ,41, ,
-2, ,41, ,
0, ,41, ,
2, ,41, ,
4, ,41, ,
6, ,41, ,
6, ,41, ,
8, ,41, ,
8, ,41, ,
8, ,41, ,
8, ,41, ,
7, ,41, ,
5, ,41, ,
5, ,41, ,
3, ,41, ,
2, ,41, ,
1, ,41, ,
-1, ,41, ,
-2, ,41, ,
-5, ,41, ,
-6, ,41, ,
-7, ,41, ,
-8, ,41, ,
-9, ,41, ,
-9, ,41, ,
-9, ,41, ,
-9, ,41, ,
-9, ,41, ,
-8, ,41, ,
-7, ,41, ,
-7, ,41, ,
-5, ,41, ,
-4, ,41, ,
-4, ,41, ,
-2, ,41, ,
1, ,41, ,
1, ,41, ,
3, ,41, ,
3, ,41, ,
5, ,41, ,
6, ,41, ,
7, ,41, ,
7, ,41, ,
8, ,41, ,
7, ,40, ,
7, ,40, ,
6, ,41, ,
5, ,41, ,
4, ,41, ,
2, ,41, ,
1, ,41, ,
-1, ,41, ,
-3, ,41, ,
-4, ,41, ,
-5, ,41, ,
-7, ,41, ,
-8, ,41, ,
-9, ,41, ,
-9, ,41, ,
-8, ,41, ,
-8, ,41, ,
-8, ,41, ,
-7, ,41, ,
-5, ,41, ,
-3, ,41, ,
-2, ,41, ,
-1, ,41, ,
3, ,41, ,
3, ,41, ,
5, ,41, ,
6, ,41, ,
8, ,41, ,
9, ,41, ,
9, ,41, ,
9, ,41, ,
8, ,41, ,
7, ,41, ,
7, ,40, ,
5, ,40, ,
2, ,41, ,
1, ,41, ,
-1, ,41, ,
-3, ,41, ,
-6, ,41, ,
-8, ,41, ,
-11, ,41, ,
-12, ,41, ,
-16, ,41, ,
-17, ,41, ,
-18, ,41, ,
-18, ,41, ,
-18, ,41, ,
-18, ,41, ,
-17, ,41, ,
-17, ,41, ,
-14, ,40, ,
-12, ,40, ,
-11, ,41, ,
-8, ,41, ,
-4, ,41, ,
-2, ,41, ,
1, ,41, ,
3, ,41, ,
7, ,41, ,
9, ,41, ,
10, ,41, ,
12, ,41, ,
12, ,41, ,
11, ,41, ,
11, ,41, ,
10, ,41, ,
7, ,41, ,
6, ,41, ,
3, ,41, ,
1, ,41, ,
-3, ,41, ,
-6, ,41, ,
-8, ,41, ,
-10, ,41, ,
-14, ,41, ,
-15, ,41, ,
-15, ,41, ,
-15, ,41, ,
-15, ,41, ,
-15, ,41, ,
-14, ,41, ,
-13, ,41, ,
-10, ,41, ,
-8, ,41, ,
-7, ,41, ,
-5, ,41, ,
-2, ,41, ,
-1, ,41, ,
0, ,41, ,
1, ,41, ,
3, ,41, ,
4, ,41, ,
4, ,41, ,
5, ,41, ,
6, ,41, ,
6, ,41, ,
6, ,41, ,
6, ,41, ,
5, ,41, ,
5, ,41, ,
4, ,41, ,
3, ,41, ,
2, ,41, ,
1, ,41, ,
0, ,41, ,
-2, ,41, ,
-4, ,41, ,
-6, ,41, ,
-7, ,41, ,
-8, ,41, ,
-11, ,41, ,
-11, ,41, ,
-11, ,41, ,
-12, ,41, ,
-12, ,41, ,
-10, ,41, ,
-11, ,41, ,
-9, ,41, ,
-7, ,41, ,
-6, ,41, ,
-5, ,41, ,
-4, ,41, ,
-1, ,41, ,
1, ,41, ,
1, ,41, ,
3, ,41, ,
4, ,41, ,
4, ,41, ,
4, ,41, ,
3, ,41, ,
3, ,41, ,
3, ,41, ,
2, ,41, ,
2, ,41, ,
2, ,41, ,
1, ,41, ,
1, ,41, ,
0, ,41, ,
0, ,41, ,
0, ,41, ,
0, ,41, ,
0, ,41, ,
-1, ,41, ,
-1, ,41, ,
0, ,41, ,
0, ,41, ,
1, ,41, ,
1, ,41, ,
1, ,41, ,
2, ,41, ,
3, ,41, ,
3, ,41, ,
4, ,41, ,
4, ,41, ,
4, ,41, ,
5, ,41, ,
5, ,41, ,
6, ,41, ,
6, ,41, ,
5, ,41, ,
5, ,41, ,
5, ,41, ,
5, ,41, ,
4, ,41, ,
4, ,41, ,
4, ,41, ,
3, ,41, ,
2, ,41, ,
1, ,41, ,
0, ,41, ,
-1, ,41, ,
-1, ,41, ,
-2, ,41, ,
-2, ,41, ,
-2, ,41, ,
-3, ,41, ,
-3, ,41, ,
-3, ,41, ,
-3, ,41, ,
-3, ,41, ,
-3, ,41, ,
-3, ,41, ,
-2, ,41, ,
-2, ,41, ,
-2, ,41, ,
-1, ,41, ,
-1, ,41, ,
0, ,41, ,
0, ,41, ,
1, ,41, ,
1, ,41, ,
0, ,41, ,
0, ,41, ,
-1, ,41, ,
-2, ,41, ,
-2, ,41, ,
-4, ,41, ,
-4, ,41, ,
-7, ,41, ,
-8, ,41, ,
-9, ,41, ,
-11, ,41, ,
-12, ,41, ,
-12, ,41, ,
-13, ,41, ,
-13, ,41, ,
-12, ,41, ,
-12, ,41, ,
-11, ,41, ,
-10, ,41, ,
-7, ,41, ,
-5, ,41, ,
-3, ,41, ,
-1, ,41, ,
4, ,41, ,
5, ,41, ,
7, ,41, ,
9, ,41, ,
12, ,41, ,
14, ,41, ,
14, ,41, ,
16, ,41, ,
17, ,41, ,
17, ,41, ,
16, ,41, ,
16, ,41, ,
14, ,41, ,
13, ,41, ,
11, ,41, ,
10, ,41, ,
7, ,41, ,
6, ,41, ,
4, ,41, ,
2, ,41, ,
-2, ,41, ,
-3, ,41, ,
-5, ,41, ,
-6, ,41, ,
-10, ,41, ,
-11, ,41, ,
-11, ,41, ,
-12, ,41, ,
-13, ,41, ,
-13, ,41, ,
-13, ,41, ,
-12, ,41, ,
-10, ,41, ,
-10, ,41, ,
-8, ,41, ,
-7, ,41, ,
-3, ,41, ,
-1, ,41, ,
1, ,41, ,
3, ,41, ,
6, ,41, ,
6, ,41, ,
8, ,41, ,
9, ,41, ,
10, ,41, ,
10, ,41, ,
9, ,41, ,
9, ,41, ,
8, ,41, ,
5, ,41, ,
5, ,41, ,
3, ,41, ,
0, ,41, ,
-1, ,41, ,
-3, ,40, ,
-4, ,40, ,
-7, ,41, ,
-7, ,41, ,
-8, ,41, ,
-8, ,41, ,
-8, ,41, ,
-7, ,41, ,
-7, ,41, ,
-6, ,41, ,
-4, ,40, ,
-4, ,40, ,
-3, ,41, ,
-2, ,41, ,
-1, ,41, ,
1, ,41, ,
1, ,41, ,
2, ,41, ,
2, ,41, ,
2, ,41, ,
2, ,41, ,
2, ,41, ,
1, ,41, ,
0, ,41, ,
-1, ,41, ,
-1, ,41, ,
-3, ,41, ,
-4, ,41, ,
-5, ,41, ,
-6, ,41, ,
-6, ,41, ,
-6, ,41, ,
-6, ,41, ,
-6, ,41, ,
-5, ,41, ,
-4, ,41, ,
-3, ,41, ,
-1, ,41, ,
1, ,41, ,
3, ,41, ,
4, ,41, ,
5, ,41, ,
8, ,41, ,
9, ,41, ,
11, ,41, ,
11, ,41, ,
11, ,41, ,
11, ,41, ,
10, ,41, ,
10, ,41, ,
7, ,41, ,
5, ,41, ,
4, ,41, ,
2, ,41, ,
-1, ,41, ,
-3, ,41, ,
-5, ,41, ,
-7, ,41, ,
-10, ,41, ,
-11, ,41, ,
-11, ,41, ,
-12, ,41, ,
-12, ,41, ,
-11, ,41, ,
-11, ,41, ,
-10, ,41, ,
-8, ,41, ,
-6, ,41, ,
-4, ,41, ,
-3, ,41, ,
0, ,41, ,
3, ,41, ,
4, ,41, ,
6, ,41, ,
9, ,41, ,
9, ,41, ,
10, ,41, ,
9, ,41, ,
8, ,41, ,
8, ,41, ,
7, ,41, ,
7, ,41, ,
4, ,41, ,
2, ,41, ,
0, ,41, ,
-1, ,41, ,
-4, ,41, ,
-5, ,41, ,
-6, ,41, ,
-6, ,41, ,
-6, ,41, ,
-6, ,41, ,
-5, ,41, ,
-5, ,41, ,
-4, ,41, ,
-3, ,41, ,
-1, ,41, ,
0, ,41, ,
2, ,41, ,
4, ,41, ,
4, ,41, ,
5, ,41, ,
7, ,41, ,
7, ,41, ,
7, ,41, ,
7, ,41, ,
7, ,41, ,
7, ,41, ,
7, ,41, ,
7, ,41, ,
6, ,41, ,
6, ,41, ,
6, ,41, ,
6, ,41, ,
6, ,41, ,
6, ,41, ,
6, ,41, ,
6, ,41, ,
6, ,41, ,
6, ,41, ,
6, ,41, ,
5, ,41, ,
4, ,41, ,
3, ,41, ,
3, ,41, ,
1, ,41, ,
-1, ,41, ,
-2, ,41, ,
-4, ,41, ,
-5, ,41, ,
-8, ,41, ,
-9, ,41, ,
-10, ,41, ,
-11, ,41, ,
-12, ,41, ,
-12, ,41, ,
-12, ,41, ,
-12, ,41, ,
-9, ,41, ,
-9, ,41, ,
-8, ,41, ,
-6, ,41, ,
-3, ,41, ,
-1, ,41, ,
0, ,41, ,
2, ,41, ,
4, ,41, ,
4, ,41, ,
6, ,41, ,
6, ,41, ,
5, ,41, ,
5, ,41, ,
4, ,41, ,
4, ,41, ,
3, ,41, ,
1, ,41, ,
0, ,41, ,
-1, ,41, ,
-4, ,41, ,
-5, ,41, ,
-6, ,41, ,
-6, ,41, ,
-7, ,41, ,
-7, ,41, ,
-7, ,41, ,
-7, ,41, ,
-5, ,41, ,
-4, ,41, ,
-4, ,41, ,
-2, ,41, ,
1, ,41, ,
1, ,41, ,
4, ,40, ,
5, ,40, ,
7, ,40, ,
9, ,41, ,
9, ,41, ,
10, ,41, ,
11, ,41, ,
10, ,41, ,
10, ,41, ,
9, ,41, ,
8, ,41, ,
7, ,41, ,
5, ,41, ,
4, ,41, ,
2, ,41, ,
0, ,41, ,
-1, ,41, ,
-3, ,41, ,
-5, ,41, ,
-6, ,41, ,
-6, ,41, ,
-7, ,41, ,
-7, ,41, ,
-8, ,41, ,
-8, ,41, ,
-8, ,41, ,
-7, ,41, ,
-6, ,41, ,
-6, ,41, ,
-5, ,41, ,
-4, ,41, ,
-4, ,41, ,
-3, ,41, ,
-3, ,41, ,
-2, ,41, ,
-1, ,41, ,
-1, ,41, ,
0, ,41, ,
0, ,41, ,
1, ,41, ,
1, ,41, ,
1, ,41, ,
2, ,41, ,
3, ,41, ,
3, ,41, ,
3, ,41, ,
4, ,40, ,
4, ,40, ,
5, ,41, ,
5, ,41, ,
6, ,41, ,
6, ,41, ,
6, ,41, ,
6, ,41, ,
6, ,41, ,
5, ,41, ,
5, ,41, ,
4, ,41, ,
2, ,41, ,
2, ,41, ,
1, ,41, ,
0, ,41, ,
-1, ,41, ,
-3, ,41, ,
-3, ,41, ,
-5, ,41, ,
-7, ,41, ,
-7, ,41, ,
-8, ,41, ,
-9, ,41, ,
-9, ,41, ,
-10, ,41, ,
-10, ,41, ,
-10, ,41, ,
-9, ,41, ,
-9, ,41, ,
-8, ,41, ,
-8, ,41, ,
-7, ,41, ,
-8, ,41, ,
-6, ,41, ,
-6, ,41, ,
-4, ,41, ,
-3, ,41, ,
-2, ,41, ,
-1, ,41, ,
1, ,41, ,
1, ,41, ,
3, ,41, ,
3, ,41, ,
5, ,41, ,
6, ,41, ,
7, ,41, ,
8, ,41, ,
10, ,41, ,
10, ,41, ,
10, ,41, ,
11, ,41, ,
11, ,41, ,
11, ,41, ,
11, ,41, ,
11, ,41, ,
10, ,41, ,
10, ,41, ,
9, ,41, ,
9, ,41, ,
7, ,41, ,
6, ,41, ,
5, ,41, ,
4, ,41, ,
2, ,41, ,
2, ,41, ,
0, ,41, ,
-1, ,41, ,
-4, ,41, ,
-4, ,41, ,
-5, ,41, ,
-5, ,41, ,
-6, ,41, ,
-7, ,41, ,
-7, ,41, ,
-7, ,41, ,
-8, ,41, ,
-8, ,41, ,
-8, ,41, ,
-8, ,41, ,
-8, ,41, ,
-8, ,41, ,
-7, ,41, ,
-7, ,41, ,
-7, ,41, ,
-6, ,41, ,
-6, ,41, ,
-5, ,41, ,
-5, ,41, ,
-4, ,41, ,
-3, ,41, ,
-3, ,41, ,
-2, ,41, ,
-1, ,41, ,
-1, ,41, ,
0, ,41, ,
2, ,41, ,
2, ,41, ,
2, ,41, ,
2, ,41, ,
3, ,41, ,
3, ,41, ,
3, ,41, ,
3, ,41, ,
3, ,41, ,
2, ,41, ,
2, ,41, ,
2, ,41, ,
1, ,41, ,
0, ,41, ,
0, ,41, ,
0, ,41, ,
-1, ,41, ,
-1, ,41, ,
-1, ,41, ,
-1, ,41, ,
-1, ,41, ,
-1, ,41, ,
-1, ,41, ,
-1, ,41, ,
-1, ,41, ,
0, ,41, ,
0, ,41, ,
0, ,41, ,
1, ,41, ,
2, ,41, ,
2, ,41, ,
3, ,41, ,
5, ,41, ,
