raw_data/75% Glycerol, Impulsion 2Hz, Sonde 5MHz, Rampe 0.7Hz/temp0000329.CSV

Format,1.0B,
Memory Length,10000,Memory Length,10000,
IntpDistance,0,IntpDistance,0,
Trigger Address,159,Trigger Address,159,
Trigger Level,2.720E-01,Trigger Level,2.720E-01,
Source,CH1,Source,CH2,
Vertical Units,V,Vertical Units,V,
Vertical Units Div,0,Vertical Units Div,0,
Vertical Units Extend Div,16,Vertical Units Extend Div,16,
Label,,Label,,
Probe Type,0,Probe Type,0,
Probe Ratio,1.000e+00,Probe Ratio,1.000e+00,
Vertical Scale,5.000e-01,Vertical Scale,2.000e+00,
Vertical Position,0.000e+00,Vertical Position,0.000e+00,
Horizontal Units,S,Horizontal Units,S,
Horizontal Scale,5.000E-06,Horizontal Scale,5.000E-06,
Horizontal Position,2.420E-05,Horizontal Position,2.420E-05,
Horizontal Mode,Main,Horizontal Mode,Main,
SincET Mode,Real Time,SincET Mode,Real Time,
Sampling Period,5.000e-09,Sampling Period,5.000e-09,
Horizontal Old Scale,5.000E-06,Horizontal Old Scale,5.000E-06,
Horizontal Old Position,2.420E-05,Horizontal Old Position,2.420E-05,
Firmware,V1.32,Firmware,V1.32,
Mode,Fast,Mode,Fast,
Waveform Data,,Waveform Data,,
1, ,-20, ,
1, ,-20, ,
1, ,-20, ,
1, ,-20, ,
1, ,-20, ,
1, ,-20, ,
1, ,-20, ,
1, ,-20, ,
1, ,-20, ,
1, ,-20, ,
1, ,-20, ,
1, ,-20, ,
1, ,-20, ,
1, ,-20, ,
1, ,-20, ,
1, ,-20, ,
1, ,-20, ,
0, ,-20, ,
1, ,-20, ,
1, ,-20, ,
1, ,-20, ,
1, ,-20, ,
1, ,-20, ,
1, ,-20, ,
1, ,-20, ,
1, ,-20, ,
1, ,-20, ,
1, ,-20, ,
1, ,-20, ,
1, ,-20, ,
1, ,-20, ,
1, ,-20, ,
1, ,-20, ,
1, ,-20, ,
1, ,-20, ,
1, ,-20, ,
1, ,-20, ,
1, ,-20, ,
1, ,-20, ,
1, ,-20, ,
1, ,-20, ,
1, ,-20, ,
1, ,-20, ,
1, ,-20, ,
1, ,-20, ,
1, ,-20, ,
0, ,-20, ,
0, ,-20, ,
1, ,-20, ,
1, ,-20, ,
1, ,-20, ,
1, ,-20, ,
1, ,-20, ,
1, ,-20, ,
0, ,-20, ,
0, ,-20, ,
1, ,-20, ,
0, ,-20, ,
0, ,-20, ,
0, ,-20, ,
1, ,-20, ,
1, ,-20, ,
1, ,-20, ,
1, ,-20, ,
0, ,-20, ,
0, ,-20, ,
1, ,-20, ,
1, ,-20, ,
1, ,-20, ,
1, ,-20, ,
1, ,-20, ,
1, ,-20, ,
1, ,-20, ,
1, ,-20, ,
1, ,-20, ,
1, ,-20, ,
1, ,-20, ,
1, ,-20, ,
1, ,-20, ,
1, ,-20, ,
1, ,-20, ,
0, ,-20, ,
0, ,-20, ,
0, ,-20, ,
1, ,-20, ,
1, ,-20, ,
1, ,-20, ,
1, ,-20, ,
1, ,-20, ,
1, ,-20, ,
1, ,-20, ,
1, ,-20, ,
1, ,-20, ,
1, ,-20, ,
1, ,-20, ,
1, ,-20, ,
1, ,-20, ,
1, ,-20, ,
1, ,-20, ,
1, ,-20, ,
1, ,-20, ,
1, ,-20, ,
1, ,-20, ,
1, ,-20, ,
1, ,-20, ,
1, ,-20, ,
1, ,-20, ,
1, ,-20, ,
1, ,-20, ,
1, ,-20, ,
1, ,-20, ,
1, ,-20, ,
1, ,-20, ,
1, ,-20, ,
1, ,-20, ,
1, ,-20, ,
1, ,-20, ,
1, ,-20, ,
1, ,-20, ,
1, ,-20, ,
0, ,-20, ,
0, ,-20, ,
0, ,-20, ,
0, ,-20, ,
1, ,-20, ,
1, ,-20, ,
1, ,-20, ,
1, ,-20, ,
1, ,-20, ,
1, ,-20, ,
1, ,-20, ,
1, ,-20, ,
1, ,-20, ,
1, ,-20, ,
1, ,-20, ,
1, ,-20, ,
1, ,-20, ,
1, ,-20, ,
1, ,-20, ,
1, ,-20, ,
0, ,-20, ,
0, ,-20, ,
1, ,-20, ,
1, ,-20, ,
1, ,-20, ,
1, ,-20, ,
1, ,-20, ,
1, ,-20, ,
1, ,-20, ,
1, ,-20, ,
1, ,-20, ,
1, ,-20, ,
1, ,-20, ,
0, ,-20, ,
1, ,-20, ,
0, ,-20, ,
1, ,-20, ,
1, ,-20, ,
1, ,-20, ,
1, ,-20, ,
1, ,-20, ,
1, ,-20, ,
0, ,-20, ,
0, ,-20, ,
-1, ,-20, ,
0, ,-20, ,
-2, ,-20, ,
5, ,-20, ,
56, ,-20, ,
96, ,-20, ,
125, ,-20, ,
123, ,-20, ,
84, ,-20, ,
25, ,-20, ,
-7, ,-20, ,
16, ,-20, ,
119, ,-20, ,
125, ,-20, ,
125, ,-20, ,
125, ,-20, ,
125, ,-20, ,
125, ,-20, ,
125, ,-20, ,
124, ,-20, ,
120, ,-20, ,
113, ,-20, ,
109, ,-20, ,
105, ,-20, ,
99, ,-20, ,
96, ,-20, ,
92, ,-20, ,
89, ,-20, ,
82, ,-20, ,
78, ,-20, ,
76, ,-20, ,
74, ,-20, ,
68, ,-20, ,
65, ,-20, ,
62, ,-20, ,
60, ,-20, ,
56, ,-20, ,
53, ,-20, ,
51, ,-20, ,
49, ,-20, ,
45, ,-20, ,
43, ,-20, ,
41, ,-20, ,
40, ,-20, ,
36, ,-20, ,
34, ,-20, ,
33, ,-20, ,
31, ,-20, ,
28, ,-20, ,
27, ,-20, ,
26, ,-20, ,
25, ,-20, ,
23, ,-20, ,
22, ,-20, ,
21, ,-20, ,
20, ,-20, ,
18, ,-20, ,
18, ,-20, ,
17, ,-20, ,
16, ,-20, ,
14, ,-20, ,
13, ,-20, ,
13, ,-20, ,
12, ,-20, ,
11, ,-20, ,
10, ,-20, ,
10, ,-20, ,
9, ,-20, ,
8, ,-20, ,
7, ,-20, ,
7, ,-20, ,
6, ,-20, ,
5, ,-20, ,
5, ,-20, ,
5, ,-20, ,
5, ,-20, ,
5, ,-20, ,
4, ,-20, ,
4, ,-20, ,
3, ,-20, ,
3, ,-20, ,
3, ,-20, ,
2, ,-20, ,
2, ,-20, ,
2, ,-20, ,
2, ,-20, ,
2, ,-20, ,
1, ,-20, ,
1, ,-20, ,
1, ,-20, ,
1, ,-20, ,
1, ,-20, ,
0, ,-20, ,
0, ,-20, ,
0, ,-20, ,
0, ,-20, ,
0, ,-20, ,
0, ,-20, ,
0, ,-20, ,
0, ,-20, ,
0, ,-20, ,
-1, ,-20, ,
-1, ,-20, ,
-1, ,-20, ,
-1, ,-20, ,
-1, ,-20, ,
-1, ,-20, ,
-1, ,-20, ,
-1, ,-20, ,
-1, ,-20, ,
-1, ,-20, ,
-1, ,-20, ,
-1, ,-20, ,
-1, ,-20, ,
-1, ,-20, ,
-1, ,-20, ,
-1, ,-20, ,
-1, ,-20, ,
-1, ,-20, ,
-1, ,-20, ,
-1, ,-20, ,
-1, ,-20, ,
-1, ,-20, ,
-1, ,-20, ,
-1, ,-20, ,
-1, ,-20, ,
-1, ,-20, ,
-1, ,-20, ,
-1, ,-20, ,
-1, ,-20, ,
-1, ,-20, ,
-1, ,-20, ,
-1, ,-20, ,
-1, ,-20, ,
-1, ,-20, ,
-1, ,-20, ,
-1, ,-20, ,
-1, ,-20, ,
-1, ,-20, ,
-1, ,-20, ,
-1, ,-20, ,
-1, ,-20, ,
-1, ,-20, ,
-1, ,-20, ,
-1, ,-20, ,
0, ,-20, ,
-1, ,-20, ,
-1, ,-20, ,
-1, ,-20, ,
-1, ,-20, ,
0, ,-20, ,
-1, ,-20, ,
-1, ,-20, ,
0, ,-20, ,
-1, ,-20, ,
-1, ,-20, ,
0, ,-20, ,
0, ,-20, ,
0, ,-20, ,
0, ,-20, ,
0, ,-20, ,
0, ,-20, ,
0, ,-20, ,
0, ,-20, ,
0, ,-20, ,
0, ,-20, ,
0, ,-20, ,
0, ,-20, ,
0, ,-20, ,
0, ,-20, ,
0, ,-20, ,
0, ,-20, ,
0, ,-20, ,
0, ,-20, ,
0, ,-20, ,
0, ,-20, ,
0, ,-20, ,
0, ,-20, ,
0, ,-20, ,
0, ,-20, ,
0, ,-20, ,
0, ,-20, ,
0, ,-20, ,
0, ,-20, ,
0, ,-20, ,
0, ,-20, ,
0, ,-20, ,
0, ,-20, ,
1, ,-20, ,
0, ,-20, ,
0, ,-20, ,
0, ,-20, ,
0, ,-20, ,
0, ,-20, ,
0, ,-20, ,
0, ,-20, ,
0, ,-20, ,
0, ,-20, ,
0, ,-20, ,
0, ,-20, ,
0, ,-20, ,
1, ,-20, ,
1, ,-20, ,
1, ,-20, ,
0, ,-20, ,
0, ,-20, ,
1, ,-20, ,
0, ,-20, ,
0, ,-20, ,
0, ,-20, ,
0, ,-20, ,
0, ,-20, ,
0, ,-20, ,
0, ,-20, ,
0, ,-20, ,
0, ,-20, ,
0, ,-20, ,
1, ,-20, ,
0, ,-20, ,
1, ,-20, ,
1, ,-20, ,
0, ,-20, ,
0, ,-20, ,
0, ,-20, ,
0, ,-20, ,
0, ,-20, ,
0, ,-20, ,
0, ,-20, ,
0, ,-20, ,
0, ,-20, ,
1, ,-20, ,
1, ,-20, ,
1, ,-20, ,
1, ,-20, ,
1, ,-20, ,
1, ,-20, ,
1, ,-20, ,
1, ,-20, ,
1, ,-20, ,
1, ,-20, ,
0, ,-20, ,
0, ,-20, ,
0, ,-20, ,
0, ,-20, ,
0, ,-20, ,
0, ,-20, ,
0, ,-20, ,
0, ,-20, ,
0, ,-20, ,
0, ,-20, ,
0, ,-20, ,
1, ,-20, ,
1, ,-20, ,
1, ,-20, ,
1, ,-20, ,
1, ,-20, ,
1, ,-20, ,
1, ,-20, ,
1, ,-20, ,
1, ,-20, ,
1, ,-20, ,
1, ,-20, ,
1, ,-20, ,
1, ,-20, ,
1, ,-20, ,
1, ,-20, ,
1, ,-20, ,
1, ,-20, ,
1, ,-20, ,
0, ,-20, ,
0, ,-20, ,
0, ,-20, ,
-1, ,-20, ,
-1, ,-20, ,
-2, ,-20, ,
-3, ,-20, ,
-6, ,-20, ,
-8, ,-20, ,
-10, ,-20, ,
-13, ,-20, ,
-17, ,-20, ,
-15, ,-20, ,
-15, ,-20, ,
-12, ,-20, ,
-7, ,-20, ,
-5, ,-20, ,
-2, ,-20, ,
-1, ,-20, ,
1, ,-20, ,
2, ,-20, ,
3, ,-20, ,
4, ,-20, ,
4, ,-20, ,
4, ,-20, ,
4, ,-20, ,
4, ,-20, ,
3, ,-20, ,
3, ,-20, ,
2, ,-20, ,
2, ,-20, ,
2, ,-20, ,
1, ,-20, ,
0, ,-20, ,
0, ,-20, ,
0, ,-20, ,
1, ,-20, ,
1, ,-20, ,
1, ,-20, ,
2, ,-20, ,
2, ,-20, ,
2, ,-20, ,
2, ,-20, ,
2, ,-20, ,
2, ,-20, ,
2, ,-20, ,
2, ,-20, ,
2, ,-20, ,
2, ,-20, ,
2, ,-20, ,
2, ,-20, ,
2, ,-20, ,
2, ,-20, ,
2, ,-20, ,
2, ,-20, ,
3, ,-20, ,
2, ,-20, ,
2, ,-20, ,
2, ,-20, ,
3, ,-20, ,
3, ,-20, ,
3, ,-20, ,
3, ,-20, ,
3, ,-20, ,
2, ,-20, ,
2, ,-20, ,
2, ,-20, ,
1, ,-20, ,
1, ,-20, ,
1, ,-20, ,
1, ,-20, ,
0, ,-20, ,
0, ,-20, ,
0, ,-20, ,
0, ,-20, ,
0, ,-20, ,
0, ,-20, ,
1, ,-20, ,
1, ,-20, ,
1, ,-20, ,
1, ,-20, ,
1, ,-20, ,
1, ,-20, ,
0, ,-20, ,
0, ,-20, ,
-1, ,-20, ,
-2, ,-20, ,
-3, ,-20, ,
-4, ,-20, ,
-5, ,-20, ,
-6, ,-20, ,
-9, ,-20, ,
-9, ,-20, ,
-10, ,-20, ,
-10, ,-20, ,
-9, ,-20, ,
-9, ,-20, ,
-8, ,-20, ,
-8, ,-20, ,
-5, ,-20, ,
-4, ,-20, ,
-4, ,-20, ,
-4, ,-20, ,
-4, ,-20, ,
-4, ,-20, ,
-5, ,-20, ,
-6, ,-20, ,
-9, ,-20, ,
-11, ,-20, ,
-13, ,-20, ,
-15, ,-20, ,
-23, ,-20, ,
-25, ,-20, ,
-28, ,-20, ,
-31, ,-20, ,
-33, ,-20, ,
-34, ,-20, ,
-34, ,-20, ,
-35, ,-20, ,
-35, ,-20, ,
-36, ,-20, ,
-36, ,-20, ,
-37, ,-20, ,
-39, ,-20, ,
-40, ,-20, ,
-42, ,-20, ,
-42, ,-20, ,
-43, ,-20, ,
-43, ,-20, ,
-42, ,-20, ,
-42, ,-20, ,
-37, ,-20, ,
-34, ,-20, ,
-30, ,-20, ,
-26, ,-20, ,
-18, ,-20, ,
-14, ,-20, ,
-10, ,-20, ,
-7, ,-20, ,
-1, ,-20, ,
3, ,-20, ,
4, ,-20, ,
6, ,-20, ,
8, ,-20, ,
7, ,-20, ,
8, ,-20, ,
8, ,-20, ,
8, ,-20, ,
8, ,-20, ,
7, ,-20, ,
7, ,-20, ,
8, ,-20, ,
9, ,-20, ,
9, ,-20, ,
9, ,-20, ,
11, ,-20, ,
11, ,-20, ,
12, ,-20, ,
12, ,-20, ,
13, ,-20, ,
13, ,-20, ,
13, ,-20, ,
12, ,-20, ,
12, ,-20, ,
12, ,-20, ,
11, ,-20, ,
11, ,-20, ,
10, ,-20, ,
9, ,-20, ,
8, ,-20, ,
7, ,-20, ,
6, ,-20, ,
6, ,-20, ,
5, ,-20, ,
5, ,-20, ,
3, ,-20, ,
3, ,-20, ,
2, ,-20, ,
0, ,-20, ,
-2, ,-20, ,
-3, ,-20, ,
-4, ,-20, ,
-5, ,-20, ,
-7, ,-20, ,
-8, ,-20, ,
-9, ,-20, ,
-10, ,-20, ,
-11, ,-20, ,
-11, ,-20, ,
-11, ,-20, ,
-11, ,-20, ,
-11, ,-20, ,
-10, ,-20, ,
-10, ,-20, ,
-10, ,-20, ,
-9, ,-20, ,
-8, ,-20, ,
-8, ,-20, ,
-7, ,-20, ,
-7, ,-20, ,
-7, ,-20, ,
-7, ,-20, ,
-7, ,-20, ,
-8, ,-20, ,
-8, ,-20, ,
-9, ,-20, ,
-10, ,-20, ,
-11, ,-20, ,
-12, ,-20, ,
-12, ,-20, ,
-12, ,-20, ,
-11, ,-20, ,
-11, ,-20, ,
-10, ,-20, ,
-9, ,-20, ,
-7, ,-20, ,
-6, ,-20, ,
-5, ,-20, ,
-4, ,-20, ,
-3, ,-20, ,
-3, ,-20, ,
-3, ,-20, ,
-4, ,-20, ,
-4, ,-20, ,
-5, ,-20, ,
-5, ,-20, ,
-6, ,-20, ,
-8, ,-20, ,
-8, ,-20, ,
-9, ,-20, ,
-9, ,-20, ,
-10, ,-20, ,
-10, ,-20, ,
-11, ,-20, ,
-11, ,-20, ,
-11, ,-20, ,
-11, ,-20, ,
-12, ,-20, ,
-12, ,-20, ,
-12, ,-20, ,
-12, ,-20, ,
-12, ,-20, ,
-12, ,-20, ,
-11, ,-20, ,
-10, ,-20, ,
-10, ,-20, ,
-10, ,-20, ,
-9, ,-20, ,
-8, ,-20, ,
-8, ,-20, ,
-8, ,-20, ,
-7, ,-20, ,
-5, ,-20, ,
-5, ,-20, ,
-4, ,-20, ,
-2, ,-20, ,
-1, ,-20, ,
1, ,-20, ,
2, ,-20, ,
3, ,-20, ,
3, ,-20, ,
2, ,-20, ,
2, ,-20, ,
0, ,-20, ,
-2, ,-20, ,
-4, ,-20, ,
-7, ,-20, ,
-12, ,-20, ,
-14, ,-20, ,
-17, ,-20, ,
-20, ,-20, ,
-24, ,-20, ,
-25, ,-20, ,
-26, ,-20, ,
-26, ,-20, ,
-26, ,-20, ,
-25, ,-20, ,
-25, ,-20, ,
-24, ,-20, ,
-21, ,-20, ,
-20, ,-20, ,
-17, ,-20, ,
-15, ,-20, ,
-9, ,-20, ,
-7, ,-20, ,
-5, ,-20, ,
-2, ,-20, ,
3, ,-20, ,
6, ,-20, ,
9, ,-20, ,
11, ,-20, ,
16, ,-20, ,
18, ,-20, ,
19, ,-20, ,
21, ,-20, ,
23, ,-20, ,
24, ,-20, ,
24, ,-20, ,
23, ,-20, ,
22, ,-20, ,
22, ,-20, ,
21, ,-20, ,
20, ,-20, ,
17, ,-20, ,
15, ,-20, ,
13, ,-20, ,
10, ,-20, ,
7, ,-20, ,
6, ,-20, ,
3, ,-20, ,
2, ,-20, ,
0, ,-20, ,
0, ,-20, ,
0, ,-20, ,
0, ,-20, ,
1, ,-20, ,
1, ,-20, ,
2, ,-20, ,
4, ,-20, ,
5, ,-20, ,
5, ,-20, ,
5, ,-20, ,
5, ,-20, ,
5, ,-20, ,
5, ,-20, ,
4, ,-20, ,
3, ,-20, ,
0, ,-20, ,
-3, ,-20, ,
-4, ,-20, ,
-7, ,-20, ,
-12, ,-20, ,
-15, ,-20, ,
-18, ,-20, ,
-20, ,-20, ,
-25, ,-20, ,
-27, ,-20, ,
-29, ,-20, ,
-31, ,-20, ,
-34, ,-20, ,
-34, ,-20, ,
-34, ,-20, ,
-33, ,-20, ,
-31, ,-20, ,
-31, ,-20, ,
-29, ,-20, ,
-28, ,-20, ,
-25, ,-20, ,
-22, ,-20, ,
-20, ,-20, ,
-18, ,-20, ,
-15, ,-20, ,
-14, ,-20, ,
-13, ,-20, ,
-13, ,-20, ,
-13, ,-20, ,
-13, ,-20, ,
-14, ,-20, ,
-14, ,-20, ,
-16, ,-20, ,
-17, ,-20, ,
-18, ,-20, ,
-19, ,-20, ,
-20, ,-20, ,
-20, ,-20, ,
-20, ,-20, ,
-19, ,-20, ,
-18, ,-20, ,
-17, ,-20, ,
-16, ,-20, ,
-14, ,-20, ,
-11, ,-20, ,
-9, ,-20, ,
-6, ,-20, ,
-4, ,-20, ,
0, ,-20, ,
2, ,-20, ,
5, ,-20, ,
6, ,-20, ,
9, ,-20, ,
11, ,-20, ,
12, ,-20, ,
12, ,-20, ,
12, ,-20, ,
11, ,-20, ,
11, ,-20, ,
9, ,-20, ,
7, ,-20, ,
6, ,-20, ,
4, ,-20, ,
2, ,-20, ,
0, ,-20, ,
-2, ,-20, ,
-3, ,-20, ,
-4, ,-20, ,
-4, ,-20, ,
-4, ,-20, ,
-4, ,-20, ,
-4, ,-20, ,
-3, ,-20, ,
-3, ,-20, ,
-2, ,-20, ,
-2, ,-20, ,
-1, ,-20, ,
0, ,-20, ,
0, ,-20, ,
1, ,-20, ,
1, ,-20, ,
1, ,-20, ,
1, ,-20, ,
1, ,-20, ,
1, ,-20, ,
1, ,-20, ,
1, ,-20, ,
1, ,-20, ,
1, ,-20, ,
1, ,-20, ,
1, ,-20, ,
1, ,-20, ,
2, ,-20, ,
2, ,-20, ,
2, ,-20, ,
3, ,-20, ,
4, ,-20, ,
4, ,-20, ,
4, ,-20, ,
4, ,-20, ,
5, ,-20, ,
6, ,-20, ,
6, ,-20, ,
6, ,-20, ,
7, ,-20, ,
7, ,-20, ,
7, ,-20, ,
7, ,-20, ,
7, ,-20, ,
7, ,-20, ,
6, ,-20, ,
6, ,-20, ,
6, ,-20, ,
5, ,-20, ,
4, ,-20, ,
3, ,-20, ,
1, ,-20, ,
0, ,-20, ,
-1, ,-20, ,
-2, ,-20, ,
-5, ,-20, ,
-6, ,-20, ,
-7, ,-20, ,
-9, ,-20, ,
-12, ,-20, ,
-13, ,-20, ,
-15, ,-20, ,
-15, ,-20, ,
-18, ,-20, ,
-19, ,-20, ,
-20, ,-20, ,
-21, ,-20, ,
-21, ,-20, ,
-21, ,-20, ,
-21, ,-20, ,
-21, ,-20, ,
-20, ,-20, ,
-20, ,-20, ,
-20, ,-20, ,
-19, ,-20, ,
-18, ,-20, ,
-18, ,-20, ,
-17, ,-20, ,
-17, ,-20, ,
-16, ,-20, ,
-16, ,-20, ,
-15, ,-20, ,
-14, ,-20, ,
-13, ,-20, ,
-12, ,-20, ,
-11, ,-20, ,
-10, ,-20, ,
-9, ,-20, ,
-8, ,-20, ,
-6, ,-20, ,
-6, ,-20, ,
-4, ,-20, ,
-3, ,-20, ,
-2, ,-20, ,
-2, ,-20, ,
-1, ,-20, ,
-1, ,-20, ,
-1, ,-20, ,
-1, ,-20, ,
-2, ,-20, ,
-2, ,-20, ,
-3, ,-20, ,
-3, ,-20, ,
-5, ,-20, ,
-6, ,-20, ,
-6, ,-20, ,
-8, ,-20, ,
-9, ,-20, ,
-10, ,-20, ,
-11, ,-20, ,
-11, ,-20, ,
-12, ,-20, ,
-13, ,-20, ,
-13, ,-20, ,
-13, ,-20, ,
-13, ,-20, ,
-12, ,-20, ,
-11, ,-20, ,
-10, ,-20, ,
-7, ,-20, ,
-5, ,-20, ,
-3, ,-20, ,
-1, ,-20, ,
3, ,-20, ,
5, ,-20, ,
7, ,-20, ,
9, ,-20, ,
12, ,-20, ,
13, ,-20, ,
14, ,-20, ,
14, ,-20, ,
13, ,-20, ,
13, ,-20, ,
11, ,-20, ,
10, ,-20, ,
7, ,-20, ,
4, ,-20, ,
2, ,-20, ,
0, ,-20, ,
-4, ,-20, ,
-6, ,-20, ,
-7, ,-20, ,
-9, ,-20, ,
-10, ,-20, ,
-10, ,-20, ,
-10, ,-20, ,
-10, ,-20, ,
-10, ,-20, ,
-9, ,-20, ,
-8, ,-20, ,
-8, ,-20, ,
-6, ,-20, ,
-5, ,-20, ,
-4, ,-20, ,
-4, ,-20, ,
-2, ,-20, ,
-1, ,-20, ,
-1, ,-20, ,
0, ,-20, ,
1, ,-20, ,
1, ,-20, ,
2, ,-20, ,
3, ,-20, ,
4, ,-20, ,
4, ,-20, ,
5, ,-20, ,
5, ,-20, ,
5, ,-20, ,
5, ,-20, ,
5, ,-20, ,
4, ,-20, ,
4, ,-20, ,
3, ,-20, ,
3, ,-20, ,
2, ,-20, ,
1, ,-20, ,
0, ,-20, ,
0, ,-20, ,
-1, ,-20, ,
-2, ,-20, ,
-2, ,-20, ,
-2, ,-20, ,
-2, ,-20, ,
-3, ,-20, ,
-4, ,-20, ,
-4, ,-20, ,
-4, ,-20, ,
-4, ,-20, ,
-4, ,-20, ,
-4, ,-20, ,
-4, ,-20, ,
-4, ,-20, ,
-4, ,-20, ,
-4, ,-20, ,
-4, ,-20, ,
-4, ,-20, ,
-4, ,-20, ,
-4, ,-20, ,
-4, ,-20, ,
-4, ,-20, ,
-4, ,-20, ,
-4, ,-20, ,
-5, ,-20, ,
-5, ,-20, ,
-4, ,-20, ,
-4, ,-20, ,
-4, ,-20, ,
-4, ,-20, ,
-3, ,-20, ,
-3, ,-20, ,
-2, ,-20, ,
-1, ,-20, ,
-1, ,-20, ,
0, ,-20, ,
1, ,-20, ,
2, ,-20, ,
2, ,-20, ,
2, ,-20, ,
2, ,-20, ,
2, ,-20, ,
2, ,-20, ,
2, ,-20, ,
2, ,-20, ,
2, ,-20, ,
1, ,-20, ,
1, ,-20, ,
0, ,-20, ,
0, ,-20, ,
0, ,-20, ,
0, ,-20, ,
0, ,-20, ,
-1, ,-20, ,
-2, ,-20, ,
-2, ,-20, ,
-2, ,-20, ,
-2, ,-20, ,
-2, ,-20, ,
-3, ,-20, ,
-3, ,-20, ,
-3, ,-20, ,
-3, ,-20, ,
-3, ,-20, ,
-3, ,-20, ,
-3, ,-20, ,
-3, ,-20, ,
-3, ,-20, ,
-3, ,-20, ,
-3, ,-20, ,
-3, ,-20, ,
-3, ,-20, ,
-3, ,-20, ,
-2, ,-20, ,
-1, ,-20, ,
-1, ,-20, ,
-1, ,-20, ,
0, ,-20, ,
0, ,-20, ,
0, ,-20, ,
0, ,-20, ,
1, ,-20, ,
1, ,-20, ,
1, ,-20, ,
1, ,-20, ,
1, ,-20, ,
1, ,-20, ,
1, ,-20, ,
1, ,-20, ,
0, ,-20, ,
0, ,-20, ,
0, ,-20, ,
0, ,-20, ,
-1, ,-20, ,
-2, ,-20, ,
-2, ,-20, ,
-3, ,-20, ,
-3, ,-20, ,
-3, ,-20, ,
-3, ,-20, ,
-3, ,-20, ,
-3, ,-20, ,
-3, ,-20, ,
-2, ,-20, ,
-2, ,-20, ,
-1, ,-20, ,
0, ,-20, ,
0, ,-20, ,
1, ,-20, ,
2, ,-20, ,
2, ,-20, ,
3, ,-20, ,
3, ,-20, ,
3, ,-20, ,
3, ,-20, ,
3, ,-20, ,
3, ,-20, ,
2, ,-20, ,
1, ,-20, ,
1, ,-20, ,
1, ,-20, ,
0, ,-20, ,
-1, ,-20, ,
-1, ,-20, ,
-2, ,-20, ,
-3, ,-20, ,
-4, ,-20, ,
-4, ,-20, ,
-5, ,-20, ,
-6, ,-20, ,
-6, ,-20, ,
-6, ,-20, ,
-6, ,-20, ,
-7, ,-20, ,
-7, ,-20, ,
-7, ,-20, ,
-7, ,-20, ,
-6, ,-20, ,
-5, ,-20, ,
-5, ,-20, ,
-4, ,-20, ,
-1, ,-20, ,
0, ,-20, ,
1, ,-20, ,
2, ,-20, ,
5, ,-20, ,
6, ,-20, ,
6, ,-20, ,
7, ,-20, ,
8, ,-20, ,
7, ,-20, ,
7, ,-20, ,
6, ,-20, ,
5, ,-20, ,
4, ,-20, ,
3, ,-20, ,
2, ,-20, ,
0, ,-20, ,
-1, ,-20, ,
-2, ,-20, ,
-3, ,-20, ,
-4, ,-20, ,
-5, ,-20, ,
-5, ,-20, ,
-6, ,-20, ,
-6, ,-20, ,
-6, ,-20, ,
-6, ,-20, ,
-6, ,-20, ,
-5, ,-20, ,
-4, ,-20, ,
-4, ,-20, ,
-4, ,-20, ,
-2, ,-20, ,
-2, ,-20, ,
-1, ,-20, ,
-1, ,-20, ,
1, ,-20, ,
1, ,-20, ,
3, ,-20, ,
4, ,-20, ,
5, ,-20, ,
6, ,-20, ,
7, ,-20, ,
7, ,-20, ,
8, ,-20, ,
8, ,-20, ,
8, ,-20, ,
8, ,-20, ,
7, ,-20, ,
6, ,-20, ,
4, ,-20, ,
3, ,-20, ,
0, ,-20, ,
-2, ,-20, ,
-4, ,-20, ,
-6, ,-20, ,
-10, ,-20, ,
-12, ,-20, ,
-14, ,-20, ,
-15, ,-20, ,
-17, ,-20, ,
-17, ,-20, ,
-17, ,-20, ,
-17, ,-20, ,
-14, ,-20, ,
-13, ,-20, ,
-12, ,-20, ,
-10, ,-20, ,
-6, ,-20, ,
-4, ,-20, ,
-3, ,-20, ,
-1, ,-20, ,
1, ,-20, ,
2, ,-20, ,
2, ,-20, ,
1, ,-20, ,
0, ,-20, ,
0, ,-20, ,
-1, ,-20, ,
-2, ,-20, ,
-5, ,-20, ,
-7, ,-20, ,
-8, ,-20, ,
-9, ,-20, ,
-10, ,-20, ,
-10, ,-20, ,
-10, ,-20, ,
-9, ,-20, ,
-8, ,-20, ,
-7, ,-20, ,
-6, ,-20, ,
-5, ,-20, ,
-2, ,-20, ,
-1, ,-20, ,
1, ,-20, ,
2, ,-20, ,
5, ,-20, ,
6, ,-20, ,
6, ,-20, ,
7, ,-20, ,
8, ,-20, ,
9, ,-20, ,
9, ,-20, ,
9, ,-20, ,
9, ,-20, ,
8, ,-20, ,
8, ,-20, ,
6, ,-20, ,
4, ,-20, ,
4, ,-20, ,
3, ,-20, ,
1, ,-20, ,
-1, ,-20, ,
-2, ,-20, ,
-4, ,-20, ,
-5, ,-20, ,
-7, ,-20, ,
-7, ,-20, ,
-7, ,-20, ,
-7, ,-20, ,
-7, ,-20, ,
-7, ,-20, ,
-6, ,-20, ,
-6, ,-20, ,
-5, ,-20, ,
-4, ,-20, ,
-4, ,-20, ,
-2, ,-20, ,
-1, ,-20, ,
0, ,-20, ,
0, ,-20, ,
1, ,-20, ,
2, ,-20, ,
2, ,-20, ,
2, ,-20, ,
2, ,-20, ,
2, ,-20, ,
2, ,-20, ,
2, ,-20, ,
1, ,-20, ,
0, ,-20, ,
-1, ,-20, ,
-2, ,-20, ,
-3, ,-20, ,
-4, ,-20, ,
-6, ,-20, ,
-6, ,-20, ,
-8, ,-20, ,
-10, ,-20, ,
-10, ,-20, ,
-11, ,-20, ,
-12, ,-20, ,
-12, ,-20, ,
-12, ,-20, ,
-12, ,-20, ,
-12, ,-20, ,
-11, ,-20, ,
-10, ,-20, ,
-9, ,-20, ,
-8, ,-20, ,
-5, ,-20, ,
-4, ,-20, ,
-2, ,-20, ,
-1, ,-20, ,
2, ,-20, ,
4, ,-20, ,
5, ,-20, ,
7, ,-20, ,
9, ,-20, ,
10, ,-20, ,
11, ,-20, ,
11, ,-20, ,
11, ,-20, ,
11, ,-20, ,
10, ,-20, ,
10, ,-20, ,
8, ,-20, ,
7, ,-20, ,
7, ,-20, ,
5, ,-20, ,
3, ,-20, ,
2, ,-20, ,
1, ,-20, ,
1, ,-20, ,
-1, ,-20, ,
-1, ,-20, ,
-1, ,-20, ,
-1, ,-20, ,
-1, ,-20, ,
-1, ,-20, ,
0, ,-20, ,
0, ,-20, ,
1, ,-20, ,
1, ,-20, ,
2, ,-20, ,
2, ,-20, ,
3, ,-20, ,
3, ,-20, ,
3, ,-20, ,
4, ,-20, ,
4, ,-20, ,
4, ,-20, ,
4, ,-20, ,
4, ,-20, ,
3, ,-20, ,
3, ,-20, ,
2, ,-20, ,
2, ,-20, ,
1, ,-20, ,
0, ,-20, ,
0, ,-20, ,
-1, ,-20, ,
-3, ,-20, ,
-3, ,-20, ,
-4, ,-20, ,
-5, ,-20, ,
-6, ,-20, ,
-6, ,-20, ,
-7, ,-20, ,
-7, ,-20, ,
-7, ,-20, ,
-6, ,-20, ,
-6, ,-20, ,
-5, ,-20, ,
-3, ,-20, ,
-3, ,-20, ,
-2, ,-20, ,
-2, ,-20, ,
1, ,-20, ,
1, ,-20, ,
2, ,-20, ,
2, ,-20, ,
3, ,-20, ,
2, ,-20, ,
2, ,-20, ,
1, ,-20, ,
1, ,-20, ,
1, ,-20, ,
0, ,-20, ,
-1, ,-20, ,
-1, ,-20, ,
-2, ,-20, ,
-2, ,-20, ,
-2, ,-20, ,
-2, ,-20, ,
-2, ,-20, ,
-2, ,-20, ,
-2, ,-20, ,
-1, ,-20, ,
0, ,-20, ,
0, ,-20, ,
1, ,-20, ,
2, ,-20, ,
3, ,-20, ,
3, ,-20, ,
4, ,-20, ,
4, ,-20, ,
4, ,-20, ,
4, ,-20, ,
4, ,-20, ,
4, ,-20, ,
3, ,-20, ,
3, ,-20, ,
2, ,-20, ,
1, ,-20, ,
1, ,-20, ,
0, ,-20, ,
0, ,-20, ,
-1, ,-20, ,
-1, ,-20, ,
-2, ,-20, ,
-2, ,-20, ,
-2, ,-20, ,
-2, ,-20, ,
-1, ,-20, ,
-2, ,-20, ,
-1, ,-20, ,
-1, ,-20, ,
0, ,-20, ,
1, ,-20, ,
1, ,-20, ,
2, ,-20, ,
2, ,-20, ,
2, ,-20, ,
2, ,-20, ,
2, ,-20, ,
1, ,-20, ,
1, ,-20, ,
1, ,-20, ,
0, ,-20, ,
0, ,-20, ,
-2, ,-20, ,
-3, ,-20, ,
-4, ,-20, ,
-4, ,-20, ,
-5, ,-20, ,
-6, ,-20, ,
-7, ,-20, ,
-7, ,-20, ,
-7, ,-20, ,
-6, ,-20, ,
-6, ,-20, ,
-6, ,-20, ,
-6, ,-20, ,
-3, ,-20, ,
-3, ,-20, ,
-2, ,-20, ,
0, ,-20, ,
2, ,-20, ,
4, ,-20, ,
4, ,-20, ,
6, ,-20, ,
7, ,-20, ,
7, ,-20, ,
6, ,-20, ,
6, ,-20, ,
5, ,-20, ,
4, ,-20, ,
4, ,-20, ,
2, ,-20, ,
0, ,-20, ,
-1, ,-20, ,
-1, ,-20, ,
-2, ,-20, ,
-2, ,-20, ,
-2, ,-20, ,
-3, ,-20, ,
-2, ,-20, ,
-1, ,-20, ,
0, ,-20, ,
1, ,-20, ,
1, ,-20, ,
3, ,-20, ,
3, ,-20, ,
4, ,-20, ,
5, ,-20, ,
5, ,-20, ,
4, ,-20, ,
4, ,-20, ,
3, ,-20, ,
2, ,-20, ,
1, ,-20, ,
0, ,-20, ,
0, ,-20, ,
-3, ,-20, ,
-4, ,-20, ,
-5, ,-20, ,
-6, ,-20, ,
-8, ,-20, ,
-9, ,-20, ,
-10, ,-20, ,
-10, ,-20, ,
-9, ,-20, ,
-9, ,-20, ,
-9, ,-20, ,
-8, ,-20, ,
-7, ,-20, ,
-5, ,-20, ,
-4, ,-20, ,
-3, ,-20, ,
1, ,-20, ,
2, ,-20, ,
4, ,-20, ,
5, ,-20, ,
8, ,-20, ,
9, ,-20, ,
9, ,-20, ,
10, ,-20, ,
11, ,-20, ,
10, ,-20, ,
10, ,-20, ,
9, ,-20, ,
7, ,-20, ,
6, ,-20, ,
6, ,-20, ,
4, ,-20, ,
2, ,-20, ,
1, ,-20, ,
0, ,-20, ,
-1, ,-20, ,
-1, ,-20, ,
-1, ,-20, ,
-1, ,-20, ,
-1, ,-20, ,
0, ,-20, ,
1, ,-20, ,
1, ,-20, ,
2, ,-20, ,
3, ,-20, ,
4, ,-20, ,
4, ,-20, ,
4, ,-20, ,
4, ,-20, ,
4, ,-20, ,
4, ,-20, ,
3, ,-20, ,
2, ,-20, ,
2, ,-20, ,
1, ,-20, ,
0, ,-20, ,
-1, ,-20, ,
-2, ,-20, ,
-3, ,-20, ,
-4, ,-20, ,
-5, ,-20, ,
-6, ,-20, ,
-6, ,-20, ,
-7, ,-20, ,
-7, ,-20, ,
-7, ,-20, ,
-6, ,-20, ,
-6, ,-20, ,
-5, ,-20, ,
-4, ,-20, ,
-4, ,-20, ,
-3, ,-20, ,
-1, ,-20, ,
0, ,-20, ,
1, ,-20, ,
2, ,-20, ,
3, ,-20, ,
4, ,-20, ,
5, ,-20, ,
6, ,-20, ,
7, ,-20, ,
7, ,-20, ,
7, ,-20, ,
6, ,-20, ,
6, ,-20, ,
6, ,-20, ,
5, ,-20, ,
5, ,-20, ,
5, ,-20, ,
4, ,-20, ,
4, ,-20, ,
4, ,-20, ,
4, ,-20, ,
4, ,-20, ,
3, ,-20, ,
3, ,-20, ,
3, ,-20, ,
2, ,-20, ,
2, ,-20, ,
1, ,-20, ,
0, ,-20, ,
0, ,-20, ,
-1, ,-20, ,
-1, ,-20, ,
-2, ,-20, ,
-2, ,-20, ,
-2, ,-20, ,
-3, ,-20, ,
-3, ,-20, ,
-2, ,-20, ,
-2, ,-20, ,
-2, ,-20, ,
-1, ,-20, ,
-2, ,-20, ,
0, ,-20, ,
0, ,-20, ,
0, ,-20, ,
0, ,-20, ,
-1, ,-20, ,
-1, ,-20, ,
-1, ,-20, ,
-3, ,-20, ,
-4, ,-20, ,
-5, ,-20, ,
-6, ,-20, ,
-7, ,-20, ,
-8, ,-20, ,
-8, ,-20, ,
-8, ,-20, ,
-8, ,-20, ,
-8, ,-20, ,
-8, ,-20, ,
-8, ,-20, ,
-7, ,-20, ,
-7, ,-20, ,
-7, ,-20, ,
-5, ,-20, ,
-4, ,-20, ,
-3, ,-20, ,
-2, ,-20, ,
-1, ,-20, ,
