raw_data/75% Glycerol, Impulsion 2Hz, Sonde 5MHz, Rampe 0.7Hz/temp0000006.CSV

Format,1.0B,
Memory Length,10000,Memory Length,10000,
IntpDistance,0,IntpDistance,0,
Trigger Address,159,Trigger Address,159,
Trigger Level,2.720E-01,Trigger Level,2.720E-01,
Source,CH1,Source,CH2,
Vertical Units,V,Vertical Units,V,
Vertical Units Div,0,Vertical Units Div,0,
Vertical Units Extend Div,16,Vertical Units Extend Div,16,
Label,,Label,,
Probe Type,0,Probe Type,0,
Probe Ratio,1.000e+00,Probe Ratio,1.000e+00,
Vertical Scale,5.000e-01,Vertical Scale,2.000e+00,
Vertical Position,0.000e+00,Vertical Position,0.000e+00,
Horizontal Units,S,Horizontal Units,S,
Horizontal Scale,5.000E-06,Horizontal Scale,5.000E-06,
Horizontal Position,2.420E-05,Horizontal Position,2.420E-05,
Horizontal Mode,Main,Horizontal Mode,Main,
SincET Mode,Real Time,SincET Mode,Real Time,
Sampling Period,5.000e-09,Sampling Period,5.000e-09,
Horizontal Old Scale,5.000E-06,Horizontal Old Scale,5.000E-06,
Horizontal Old Position,2.420E-05,Horizontal Old Position,2.420E-05,
Firmware,V1.32,Firmware,V1.32,
Mode,Fast,Mode,Fast,
Waveform Data,,Waveform Data,,
0, ,-3, ,
1, ,-3, ,
1, ,-3, ,
1, ,-3, ,
1, ,-3, ,
0, ,-3, ,
0, ,-3, ,
0, ,-3, ,
0, ,-3, ,
1, ,-3, ,
1, ,-3, ,
1, ,-3, ,
1, ,-3, ,
1, ,-3, ,
1, ,-3, ,
1, ,-3, ,
1, ,-3, ,
1, ,-3, ,
1, ,-3, ,
1, ,-3, ,
1, ,-3, ,
1, ,-3, ,
1, ,-3, ,
1, ,-3, ,
1, ,-3, ,
1, ,-3, ,
1, ,-3, ,
1, ,-3, ,
1, ,-3, ,
1, ,-3, ,
1, ,-3, ,
1, ,-3, ,
0, ,-3, ,
0, ,-3, ,
1, ,-3, ,
1, ,-3, ,
1, ,-3, ,
1, ,-3, ,
1, ,-3, ,
1, ,-3, ,
1, ,-3, ,
1, ,-3, ,
1, ,-3, ,
1, ,-3, ,
1, ,-3, ,
1, ,-3, ,
1, ,-3, ,
1, ,-3, ,
1, ,-3, ,
1, ,-3, ,
1, ,-3, ,
1, ,-3, ,
1, ,-3, ,
1, ,-3, ,
1, ,-3, ,
1, ,-3, ,
1, ,-3, ,
1, ,-3, ,
1, ,-3, ,
1, ,-3, ,
1, ,-3, ,
1, ,-3, ,
1, ,-3, ,
1, ,-3, ,
1, ,-3, ,
1, ,-3, ,
1, ,-3, ,
1, ,-3, ,
1, ,-3, ,
1, ,-3, ,
0, ,-3, ,
1, ,-3, ,
0, ,-3, ,
1, ,-3, ,
1, ,-3, ,
1, ,-3, ,
1, ,-3, ,
1, ,-3, ,
1, ,-3, ,
1, ,-3, ,
1, ,-3, ,
1, ,-3, ,
1, ,-3, ,
1, ,-3, ,
1, ,-3, ,
1, ,-3, ,
1, ,-3, ,
1, ,-3, ,
0, ,-3, ,
0, ,-3, ,
1, ,-3, ,
1, ,-3, ,
1, ,-3, ,
1, ,-3, ,
1, ,-3, ,
1, ,-3, ,
1, ,-3, ,
1, ,-3, ,
1, ,-3, ,
1, ,-3, ,
0, ,-3, ,
0, ,-3, ,
1, ,-3, ,
0, ,-3, ,
0, ,-3, ,
1, ,-3, ,
1, ,-3, ,
1, ,-3, ,
1, ,-3, ,
1, ,-3, ,
1, ,-3, ,
1, ,-3, ,
1, ,-3, ,
1, ,-3, ,
1, ,-3, ,
1, ,-3, ,
1, ,-3, ,
1, ,-3, ,
1, ,-3, ,
1, ,-3, ,
1, ,-3, ,
1, ,-3, ,
1, ,-3, ,
1, ,-3, ,
1, ,-3, ,
1, ,-3, ,
1, ,-3, ,
1, ,-3, ,
1, ,-3, ,
1, ,-3, ,
1, ,-3, ,
1, ,-3, ,
1, ,-3, ,
1, ,-3, ,
1, ,-3, ,
1, ,-3, ,
1, ,-3, ,
1, ,-3, ,
1, ,-3, ,
1, ,-3, ,
1, ,-3, ,
1, ,-3, ,
1, ,-3, ,
1, ,-3, ,
1, ,-3, ,
1, ,-3, ,
1, ,-3, ,
0, ,-3, ,
0, ,-3, ,
1, ,-3, ,
0, ,-3, ,
0, ,-3, ,
0, ,-3, ,
1, ,-3, ,
1, ,-3, ,
1, ,-3, ,
1, ,-3, ,
1, ,-3, ,
1, ,-3, ,
1, ,-3, ,
1, ,-3, ,
1, ,-3, ,
1, ,-3, ,
1, ,-3, ,
0, ,-3, ,
-1, ,-3, ,
0, ,-3, ,
-1, ,-3, ,
2, ,-3, ,
50, ,-3, ,
92, ,-3, ,
125, ,-3, ,
124, ,-3, ,
92, ,-3, ,
31, ,-3, ,
-6, ,-3, ,
10, ,-3, ,
113, ,-3, ,
125, ,-3, ,
125, ,-3, ,
125, ,-3, ,
125, ,-3, ,
125, ,-3, ,
125, ,-3, ,
124, ,-3, ,
120, ,-3, ,
115, ,-3, ,
109, ,-3, ,
105, ,-3, ,
100, ,-3, ,
96, ,-3, ,
93, ,-3, ,
89, ,-3, ,
82, ,-3, ,
79, ,-3, ,
76, ,-3, ,
74, ,-3, ,
68, ,-3, ,
66, ,-3, ,
63, ,-3, ,
60, ,-3, ,
55, ,-3, ,
53, ,-3, ,
51, ,-3, ,
49, ,-3, ,
45, ,-3, ,
43, ,-3, ,
41, ,-3, ,
39, ,-3, ,
36, ,-3, ,
35, ,-3, ,
33, ,-3, ,
31, ,-3, ,
29, ,-3, ,
27, ,-3, ,
25, ,-3, ,
25, ,-3, ,
23, ,-3, ,
23, ,-3, ,
21, ,-3, ,
20, ,-3, ,
18, ,-3, ,
17, ,-3, ,
17, ,-3, ,
16, ,-3, ,
14, ,-3, ,
14, ,-3, ,
13, ,-3, ,
12, ,-3, ,
11, ,-3, ,
10, ,-3, ,
9, ,-3, ,
9, ,-3, ,
8, ,-3, ,
7, ,-3, ,
7, ,-3, ,
7, ,-3, ,
6, ,-3, ,
6, ,-3, ,
5, ,-3, ,
5, ,-3, ,
4, ,-3, ,
4, ,-3, ,
4, ,-3, ,
3, ,-3, ,
3, ,-3, ,
2, ,-3, ,
2, ,-3, ,
2, ,-3, ,
2, ,-3, ,
2, ,-3, ,
1, ,-3, ,
1, ,-3, ,
1, ,-3, ,
1, ,-3, ,
1, ,-3, ,
0, ,-3, ,
0, ,-3, ,
0, ,-3, ,
0, ,-3, ,
0, ,-3, ,
0, ,-3, ,
0, ,-3, ,
0, ,-3, ,
-1, ,-3, ,
-1, ,-3, ,
-1, ,-3, ,
-1, ,-3, ,
0, ,-3, ,
-1, ,-3, ,
-1, ,-3, ,
-1, ,-3, ,
-1, ,-3, ,
-1, ,-3, ,
-1, ,-3, ,
-1, ,-3, ,
-1, ,-3, ,
-1, ,-3, ,
-1, ,-3, ,
-1, ,-3, ,
-1, ,-3, ,
-1, ,-3, ,
-1, ,-3, ,
-1, ,-3, ,
-1, ,-3, ,
-1, ,-3, ,
-1, ,-3, ,
-1, ,-3, ,
-1, ,-3, ,
-1, ,-3, ,
-1, ,-3, ,
-1, ,-3, ,
-1, ,-3, ,
-1, ,-3, ,
-1, ,-3, ,
-1, ,-3, ,
-1, ,-3, ,
-1, ,-3, ,
-1, ,-3, ,
-1, ,-3, ,
-1, ,-3, ,
-1, ,-3, ,
-1, ,-3, ,
-1, ,-3, ,
-1, ,-3, ,
-1, ,-3, ,
-1, ,-3, ,
-1, ,-3, ,
-1, ,-3, ,
-1, ,-3, ,
-1, ,-3, ,
-1, ,-3, ,
-1, ,-3, ,
-1, ,-3, ,
-1, ,-3, ,
-1, ,-3, ,
0, ,-3, ,
0, ,-3, ,
-1, ,-3, ,
-1, ,-3, ,
-1, ,-3, ,
-1, ,-3, ,
0, ,-3, ,
0, ,-3, ,
0, ,-3, ,
0, ,-3, ,
-1, ,-3, ,
-1, ,-3, ,
-1, ,-3, ,
0, ,-3, ,
0, ,-3, ,
0, ,-3, ,
0, ,-3, ,
0, ,-3, ,
-1, ,-3, ,
0, ,-3, ,
0, ,-3, ,
0, ,-3, ,
0, ,-3, ,
0, ,-3, ,
0, ,-3, ,
0, ,-3, ,
0, ,-3, ,
0, ,-3, ,
0, ,-3, ,
0, ,-3, ,
0, ,-3, ,
0, ,-3, ,
0, ,-3, ,
0, ,-3, ,
0, ,-3, ,
0, ,-3, ,
0, ,-3, ,
0, ,-3, ,
0, ,-3, ,
0, ,-3, ,
0, ,-3, ,
0, ,-3, ,
0, ,-3, ,
0, ,-3, ,
0, ,-3, ,
0, ,-3, ,
0, ,-3, ,
0, ,-3, ,
0, ,-3, ,
0, ,-3, ,
0, ,-3, ,
1, ,-3, ,
0, ,-3, ,
0, ,-3, ,
0, ,-3, ,
0, ,-3, ,
0, ,-3, ,
0, ,-3, ,
0, ,-3, ,
0, ,-3, ,
0, ,-3, ,
0, ,-3, ,
0, ,-3, ,
0, ,-3, ,
0, ,-3, ,
1, ,-3, ,
0, ,-3, ,
0, ,-3, ,
0, ,-3, ,
0, ,-3, ,
0, ,-3, ,
0, ,-3, ,
0, ,-3, ,
1, ,-3, ,
0, ,-3, ,
0, ,-3, ,
0, ,-3, ,
1, ,-3, ,
1, ,-3, ,
1, ,-3, ,
1, ,-3, ,
1, ,-3, ,
1, ,-3, ,
1, ,-3, ,
0, ,-3, ,
0, ,-3, ,
1, ,-3, ,
1, ,-3, ,
1, ,-3, ,
0, ,-3, ,
0, ,-3, ,
0, ,-3, ,
0, ,-3, ,
1, ,-3, ,
1, ,-3, ,
1, ,-3, ,
1, ,-3, ,
1, ,-3, ,
1, ,-3, ,
1, ,-3, ,
1, ,-3, ,
1, ,-3, ,
1, ,-3, ,
1, ,-3, ,
1, ,-3, ,
1, ,-3, ,
1, ,-3, ,
1, ,-3, ,
1, ,-3, ,
1, ,-3, ,
1, ,-3, ,
1, ,-3, ,
1, ,-3, ,
0, ,-3, ,
0, ,-3, ,
0, ,-3, ,
0, ,-3, ,
0, ,-3, ,
0, ,-3, ,
0, ,-3, ,
-1, ,-3, ,
-1, ,-3, ,
-2, ,-3, ,
-2, ,-3, ,
-3, ,-3, ,
-5, ,-3, ,
-6, ,-3, ,
-8, ,-3, ,
-9, ,-3, ,
-11, ,-3, ,
-11, ,-3, ,
-10, ,-3, ,
-9, ,-3, ,
-5, ,-3, ,
-3, ,-3, ,
-3, ,-3, ,
-1, ,-3, ,
0, ,-3, ,
1, ,-3, ,
2, ,-3, ,
2, ,-3, ,
2, ,-3, ,
2, ,-3, ,
2, ,-3, ,
2, ,-3, ,
1, ,-3, ,
1, ,-3, ,
1, ,-3, ,
0, ,-3, ,
-1, ,-3, ,
-1, ,-3, ,
-1, ,-3, ,
-1, ,-3, ,
0, ,-3, ,
1, ,-3, ,
1, ,-3, ,
1, ,-3, ,
2, ,-3, ,
3, ,-3, ,
3, ,-3, ,
3, ,-3, ,
3, ,-3, ,
3, ,-3, ,
3, ,-3, ,
3, ,-3, ,
3, ,-3, ,
3, ,-3, ,
3, ,-3, ,
2, ,-3, ,
2, ,-3, ,
1, ,-3, ,
1, ,-3, ,
1, ,-3, ,
2, ,-3, ,
2, ,-3, ,
2, ,-3, ,
2, ,-3, ,
2, ,-3, ,
2, ,-3, ,
2, ,-3, ,
2, ,-3, ,
1, ,-3, ,
1, ,-3, ,
1, ,-3, ,
1, ,-3, ,
0, ,-3, ,
0, ,-3, ,
0, ,-3, ,
-1, ,-3, ,
-1, ,-3, ,
-1, ,-3, ,
-1, ,-3, ,
-1, ,-3, ,
0, ,-3, ,
0, ,-3, ,
0, ,-3, ,
0, ,-3, ,
1, ,-3, ,
1, ,-3, ,
1, ,-3, ,
1, ,-3, ,
1, ,-3, ,
1, ,-3, ,
0, ,-3, ,
0, ,-3, ,
-1, ,-3, ,
-2, ,-3, ,
-3, ,-3, ,
-3, ,-3, ,
-5, ,-3, ,
-7, ,-3, ,
-7, ,-3, ,
-8, ,-3, ,
-10, ,-3, ,
-10, ,-3, ,
-11, ,-3, ,
-11, ,-3, ,
-11, ,-3, ,
-11, ,-3, ,
-11, ,-3, ,
-11, ,-3, ,
-11, ,-3, ,
-11, ,-3, ,
-12, ,-3, ,
-12, ,-3, ,
-14, ,-3, ,
-15, ,-3, ,
-16, ,-3, ,
-17, ,-3, ,
-20, ,-3, ,
-20, ,-3, ,
-21, ,-3, ,
-21, ,-3, ,
-21, ,-3, ,
-21, ,-3, ,
-21, ,-3, ,
-21, ,-3, ,
-22, ,-3, ,
-23, ,-3, ,
-23, ,-3, ,
-25, ,-3, ,
-27, ,-3, ,
-29, ,-3, ,
-31, ,-3, ,
-33, ,-3, ,
-37, ,-3, ,
-39, ,-3, ,
-40, ,-3, ,
-41, ,-3, ,
-40, ,-3, ,
-39, ,-3, ,
-39, ,-3, ,
-36, ,-3, ,
-32, ,-3, ,
-28, ,-3, ,
-25, ,-3, ,
-23, ,-3, ,
-16, ,-3, ,
-14, ,-3, ,
-10, ,-3, ,
-7, ,-3, ,
-3, ,-3, ,
-1, ,-3, ,
1, ,-3, ,
4, ,-3, ,
7, ,-3, ,
8, ,-3, ,
10, ,-3, ,
11, ,-3, ,
13, ,-3, ,
13, ,-3, ,
14, ,-3, ,
14, ,-3, ,
14, ,-3, ,
14, ,-3, ,
13, ,-3, ,
13, ,-3, ,
11, ,-3, ,
10, ,-3, ,
10, ,-3, ,
9, ,-3, ,
7, ,-3, ,
6, ,-3, ,
5, ,-3, ,
3, ,-3, ,
2, ,-3, ,
2, ,-3, ,
2, ,-3, ,
2, ,-3, ,
2, ,-3, ,
2, ,-3, ,
2, ,-3, ,
1, ,-3, ,
1, ,-3, ,
1, ,-3, ,
1, ,-3, ,
1, ,-3, ,
1, ,-3, ,
1, ,-3, ,
1, ,-3, ,
2, ,-3, ,
2, ,-3, ,
3, ,-3, ,
3, ,-3, ,
4, ,-3, ,
6, ,-3, ,
7, ,-3, ,
7, ,-3, ,
8, ,-3, ,
9, ,-3, ,
9, ,-3, ,
8, ,-3, ,
8, ,-3, ,
7, ,-3, ,
5, ,-3, ,
5, ,-3, ,
3, ,-3, ,
-1, ,-3, ,
-4, ,-3, ,
-7, ,-3, ,
-9, ,-3, ,
-14, ,-3, ,
-18, ,-3, ,
-21, ,-3, ,
-24, ,-3, ,
-28, ,-3, ,
-30, ,-3, ,
-31, ,-3, ,
-32, ,-3, ,
-32, ,-3, ,
-32, ,-3, ,
-30, ,-3, ,
-30, ,-3, ,
-26, ,-3, ,
-24, ,-3, ,
-22, ,-3, ,
-20, ,-3, ,
-16, ,-3, ,
-13, ,-3, ,
-11, ,-3, ,
-10, ,-3, ,
-7, ,-3, ,
-5, ,-3, ,
-3, ,-3, ,
-1, ,-3, ,
1, ,-3, ,
3, ,-3, ,
4, ,-3, ,
4, ,-3, ,
5, ,-3, ,
5, ,-3, ,
4, ,-3, ,
4, ,-3, ,
1, ,-3, ,
-1, ,-3, ,
-1, ,-3, ,
-3, ,-3, ,
-7, ,-3, ,
-8, ,-3, ,
-10, ,-3, ,
-11, ,-3, ,
-14, ,-3, ,
-14, ,-3, ,
-14, ,-3, ,
-14, ,-3, ,
-13, ,-3, ,
-13, ,-3, ,
-11, ,-3, ,
-10, ,-3, ,
-8, ,-3, ,
-7, ,-3, ,
-5, ,-3, ,
-4, ,-3, ,
-1, ,-3, ,
0, ,-3, ,
1, ,-3, ,
1, ,-3, ,
2, ,-3, ,
2, ,-3, ,
2, ,-3, ,
0, ,-3, ,
-2, ,-3, ,
-3, ,-3, ,
-5, ,-3, ,
-6, ,-3, ,
-10, ,-3, ,
-12, ,-3, ,
-14, ,-3, ,
-16, ,-3, ,
-17, ,-3, ,
-17, ,-3, ,
-17, ,-3, ,
-17, ,-3, ,
-16, ,-3, ,
-16, ,-3, ,
-15, ,-3, ,
-13, ,-3, ,
-11, ,-3, ,
-9, ,-3, ,
-8, ,-3, ,
-7, ,-3, ,
-3, ,-3, ,
-2, ,-3, ,
-1, ,-3, ,
0, ,-3, ,
2, ,-3, ,
3, ,-3, ,
3, ,-3, ,
3, ,-3, ,
2, ,-3, ,
2, ,-3, ,
2, ,-3, ,
0, ,-3, ,
-1, ,-3, ,
-1, ,-3, ,
-2, ,-3, ,
-2, ,-3, ,
-2, ,-3, ,
-1, ,-3, ,
-1, ,-3, ,
0, ,-3, ,
3, ,-3, ,
4, ,-3, ,
6, ,-3, ,
8, ,-3, ,
12, ,-3, ,
14, ,-3, ,
16, ,-3, ,
16, ,-3, ,
19, ,-3, ,
19, ,-3, ,
19, ,-3, ,
19, ,-3, ,
18, ,-3, ,
16, ,-3, ,
16, ,-3, ,
14, ,-3, ,
10, ,-3, ,
8, ,-3, ,
6, ,-3, ,
4, ,-3, ,
-1, ,-3, ,
-3, ,-3, ,
-6, ,-3, ,
-7, ,-3, ,
-11, ,-3, ,
-12, ,-3, ,
-14, ,-3, ,
-15, ,-3, ,
-16, ,-3, ,
-17, ,-3, ,
-17, ,-3, ,
-17, ,-3, ,
-17, ,-3, ,
-16, ,-3, ,
-16, ,-3, ,
-16, ,-3, ,
-15, ,-3, ,
-15, ,-3, ,
-15, ,-3, ,
-15, ,-3, ,
-15, ,-3, ,
-15, ,-3, ,
-16, ,-3, ,
-16, ,-3, ,
-17, ,-3, ,
-17, ,-3, ,
-18, ,-3, ,
-19, ,-3, ,
-20, ,-3, ,
-20, ,-3, ,
-22, ,-3, ,
-22, ,-3, ,
-23, ,-3, ,
-23, ,-3, ,
-23, ,-3, ,
-23, ,-3, ,
-23, ,-3, ,
-22, ,-3, ,
-22, ,-3, ,
-21, ,-3, ,
-19, ,-3, ,
-18, ,-3, ,
-16, ,-3, ,
-16, ,-3, ,
-13, ,-3, ,
-13, ,-3, ,
-12, ,-3, ,
-11, ,-3, ,
-10, ,-3, ,
-10, ,-3, ,
-10, ,-3, ,
-10, ,-3, ,
-11, ,-3, ,
-11, ,-3, ,
-12, ,-3, ,
-12, ,-3, ,
-13, ,-3, ,
-14, ,-3, ,
-14, ,-3, ,
-14, ,-3, ,
-15, ,-3, ,
-14, ,-3, ,
-15, ,-3, ,
-14, ,-3, ,
-13, ,-3, ,
-11, ,-3, ,
-9, ,-3, ,
-8, ,-3, ,
-3, ,-3, ,
-1, ,-3, ,
0, ,-3, ,
4, ,-3, ,
9, ,-3, ,
10, ,-3, ,
13, ,-3, ,
14, ,-3, ,
17, ,-3, ,
19, ,-3, ,
19, ,-3, ,
20, ,-3, ,
21, ,-3, ,
21, ,-3, ,
20, ,-3, ,
20, ,-3, ,
19, ,-3, ,
19, ,-3, ,
17, ,-3, ,
17, ,-3, ,
15, ,-3, ,
14, ,-3, ,
13, ,-3, ,
12, ,-3, ,
10, ,-3, ,
9, ,-3, ,
8, ,-3, ,
8, ,-3, ,
6, ,-3, ,
6, ,-3, ,
5, ,-3, ,
5, ,-3, ,
6, ,-3, ,
6, ,-3, ,
6, ,-3, ,
7, ,-3, ,
8, ,-3, ,
8, ,-3, ,
9, ,-3, ,
9, ,-3, ,
8, ,-3, ,
8, ,-3, ,
8, ,-3, ,
8, ,-3, ,
6, ,-3, ,
5, ,-3, ,
4, ,-3, ,
2, ,-3, ,
-2, ,-3, ,
-4, ,-3, ,
-7, ,-3, ,
-9, ,-3, ,
-15, ,-3, ,
-19, ,-3, ,
-21, ,-3, ,
-24, ,-3, ,
-29, ,-3, ,
-30, ,-3, ,
-32, ,-3, ,
-34, ,-3, ,
-35, ,-3, ,
-35, ,-3, ,
-35, ,-3, ,
-34, ,-3, ,
-32, ,-3, ,
-30, ,-3, ,
-29, ,-3, ,
-27, ,-3, ,
-24, ,-3, ,
-22, ,-3, ,
-20, ,-3, ,
-18, ,-3, ,
-14, ,-3, ,
-13, ,-3, ,
-11, ,-3, ,
-10, ,-3, ,
-8, ,-3, ,
-8, ,-3, ,
-7, ,-3, ,
-7, ,-3, ,
-7, ,-3, ,
-6, ,-3, ,
-5, ,-3, ,
-4, ,-3, ,
-3, ,-3, ,
-3, ,-3, ,
-2, ,-3, ,
-1, ,-3, ,
1, ,-3, ,
2, ,-3, ,
2, ,-3, ,
3, ,-3, ,
3, ,-3, ,
4, ,-3, ,
3, ,-3, ,
3, ,-3, ,
2, ,-3, ,
2, ,-3, ,
1, ,-3, ,
1, ,-3, ,
-1, ,-3, ,
-2, ,-3, ,
-3, ,-3, ,
-3, ,-3, ,
-5, ,-3, ,
-5, ,-3, ,
-6, ,-3, ,
-7, ,-3, ,
-8, ,-3, ,
-9, ,-3, ,
-9, ,-3, ,
-10, ,-3, ,
-10, ,-3, ,
-11, ,-3, ,
-11, ,-3, ,
-11, ,-3, ,
-11, ,-3, ,
-11, ,-3, ,
-10, ,-3, ,
-10, ,-3, ,
-9, ,-3, ,
-9, ,-3, ,
-8, ,-3, ,
-7, ,-3, ,
-6, ,-3, ,
-6, ,-3, ,
-5, ,-3, ,
-4, ,-3, ,
-3, ,-3, ,
-2, ,-3, ,
-2, ,-3, ,
-2, ,-3, ,
-1, ,-3, ,
-1, ,-3, ,
-2, ,-3, ,
-2, ,-3, ,
-1, ,-3, ,
-1, ,-3, ,
-1, ,-3, ,
0, ,-3, ,
0, ,-3, ,
0, ,-3, ,
0, ,-3, ,
0, ,-3, ,
2, ,-3, ,
3, ,-3, ,
3, ,-3, ,
4, ,-3, ,
5, ,-3, ,
6, ,-3, ,
6, ,-3, ,
7, ,-3, ,
8, ,-3, ,
9, ,-3, ,
9, ,-3, ,
9, ,-3, ,
8, ,-3, ,
8, ,-3, ,
8, ,-3, ,
6, ,-3, ,
5, ,-3, ,
5, ,-3, ,
4, ,-3, ,
4, ,-3, ,
3, ,-3, ,
2, ,-3, ,
2, ,-3, ,
0, ,-3, ,
-1, ,-3, ,
-2, ,-3, ,
-3, ,-3, ,
-3, ,-3, ,
-5, ,-3, ,
-6, ,-3, ,
-6, ,-3, ,
-7, ,-3, ,
-8, ,-3, ,
-8, ,-3, ,
-8, ,-3, ,
-8, ,-3, ,
-7, ,-3, ,
-7, ,-3, ,
-6, ,-3, ,
-6, ,-3, ,
-4, ,-3, ,
-3, ,-3, ,
-3, ,-3, ,
-1, ,-3, ,
0, ,-3, ,
1, ,-3, ,
2, ,-3, ,
2, ,-3, ,
1, ,-3, ,
1, ,-3, ,
0, ,-3, ,
0, ,-3, ,
-2, ,-3, ,
-4, ,-3, ,
-5, ,-3, ,
-6, ,-3, ,
-10, ,-3, ,
-10, ,-3, ,
-12, ,-3, ,
-14, ,-3, ,
-15, ,-3, ,
-15, ,-3, ,
-15, ,-3, ,
-15, ,-3, ,
-14, ,-3, ,
-12, ,-3, ,
-11, ,-3, ,
-10, ,-3, ,
-7, ,-3, ,
-6, ,-3, ,
-4, ,-3, ,
-3, ,-3, ,
0, ,-3, ,
2, ,-3, ,
3, ,-3, ,
4, ,-3, ,
5, ,-3, ,
6, ,-3, ,
6, ,-3, ,
5, ,-3, ,
4, ,-3, ,
4, ,-3, ,
3, ,-3, ,
2, ,-3, ,
1, ,-3, ,
-1, ,-3, ,
-1, ,-3, ,
-2, ,-3, ,
-2, ,-3, ,
-2, ,-3, ,
-2, ,-3, ,
-1, ,-3, ,
-1, ,-3, ,
0, ,-3, ,
2, ,-3, ,
3, ,-3, ,
6, ,-3, ,
8, ,-3, ,
9, ,-3, ,
11, ,-3, ,
13, ,-3, ,
14, ,-3, ,
14, ,-3, ,
14, ,-3, ,
14, ,-3, ,
13, ,-3, ,
12, ,-3, ,
11, ,-3, ,
8, ,-3, ,
6, ,-3, ,
4, ,-3, ,
2, ,-3, ,
-4, ,-3, ,
-5, ,-3, ,
-9, ,-3, ,
-10, ,-3, ,
-14, ,-3, ,
-17, ,-3, ,
-18, ,-3, ,
-19, ,-3, ,
-20, ,-3, ,
-20, ,-3, ,
-20, ,-3, ,
-19, ,-3, ,
-17, ,-3, ,
-15, ,-3, ,
-13, ,-3, ,
-12, ,-3, ,
-7, ,-3, ,
-5, ,-3, ,
-3, ,-3, ,
-1, ,-3, ,
3, ,-3, ,
4, ,-3, ,
6, ,-3, ,
6, ,-3, ,
8, ,-3, ,
8, ,-3, ,
7, ,-3, ,
7, ,-3, ,
6, ,-3, ,
5, ,-3, ,
5, ,-3, ,
4, ,-3, ,
3, ,-3, ,
1, ,-3, ,
1, ,-3, ,
0, ,-3, ,
-1, ,-3, ,
-2, ,-3, ,
-3, ,-3, ,
-4, ,-3, ,
-4, ,-3, ,
-5, ,-3, ,
-5, ,-3, ,
-5, ,-3, ,
-5, ,-3, ,
-5, ,-3, ,
-5, ,-3, ,
-4, ,-3, ,
-3, ,-3, ,
-2, ,-3, ,
-2, ,-3, ,
-1, ,-3, ,
1, ,-3, ,
2, ,-3, ,
3, ,-3, ,
3, ,-3, ,
6, ,-3, ,
7, ,-3, ,
7, ,-3, ,
7, ,-3, ,
8, ,-3, ,
7, ,-3, ,
7, ,-3, ,
7, ,-3, ,
7, ,-3, ,
5, ,-3, ,
5, ,-3, ,
4, ,-3, ,
2, ,-3, ,
0, ,-3, ,
0, ,-3, ,
-2, ,-3, ,
-5, ,-3, ,
-6, ,-3, ,
-7, ,-3, ,
-8, ,-3, ,
-10, ,-3, ,
-11, ,-3, ,
-11, ,-3, ,
-11, ,-3, ,
-11, ,-3, ,
-11, ,-3, ,
-11, ,-3, ,
-10, ,-3, ,
-8, ,-3, ,
-8, ,-3, ,
-6, ,-3, ,
-5, ,-3, ,
-3, ,-3, ,
-1, ,-3, ,
-1, ,-3, ,
0, ,-3, ,
1, ,-3, ,
1, ,-3, ,
1, ,-3, ,
1, ,-3, ,
0, ,-3, ,
0, ,-3, ,
0, ,-3, ,
-1, ,-3, ,
-1, ,-3, ,
-1, ,-3, ,
-2, ,-3, ,
-2, ,-3, ,
-2, ,-3, ,
-2, ,-3, ,
-2, ,-3, ,
-2, ,-3, ,
-2, ,-3, ,
-2, ,-3, ,
-2, ,-3, ,
-2, ,-3, ,
-1, ,-3, ,
-1, ,-3, ,
-1, ,-3, ,
0, ,-3, ,
1, ,-3, ,
1, ,-3, ,
1, ,-3, ,
2, ,-3, ,
3, ,-3, ,
4, ,-3, ,
4, ,-3, ,
5, ,-3, ,
5, ,-3, ,
5, ,-3, ,
5, ,-3, ,
4, ,-3, ,
3, ,-3, ,
3, ,-3, ,
2, ,-3, ,
2, ,-3, ,
0, ,-3, ,
-1, ,-3, ,
-1, ,-3, ,
-2, ,-3, ,
-3, ,-3, ,
-3, ,-3, ,
-3, ,-3, ,
-3, ,-3, ,
-3, ,-3, ,
-3, ,-3, ,
-2, ,-3, ,
-2, ,-3, ,
-1, ,-3, ,
-1, ,-3, ,
-1, ,-3, ,
-1, ,-3, ,
-1, ,-3, ,
-2, ,-3, ,
-2, ,-3, ,
-4, ,-3, ,
-6, ,-3, ,
-6, ,-3, ,
-7, ,-3, ,
-9, ,-3, ,
-12, ,-3, ,
-13, ,-3, ,
-14, ,-3, ,
-16, ,-3, ,
-17, ,-3, ,
-17, ,-3, ,
-17, ,-3, ,
-16, ,-3, ,
-15, ,-3, ,
-14, ,-3, ,
-12, ,-3, ,
-11, ,-3, ,
-8, ,-3, ,
-6, ,-3, ,
-5, ,-3, ,
-2, ,-3, ,
0, ,-3, ,
1, ,-3, ,
3, ,-3, ,
4, ,-3, ,
5, ,-3, ,
6, ,-3, ,
5, ,-3, ,
5, ,-3, ,
4, ,-3, ,
3, ,-3, ,
2, ,-3, ,
1, ,-3, ,
0, ,-3, ,
-1, ,-3, ,
-2, ,-3, ,
-3, ,-3, ,
-4, ,-3, ,
-4, ,-3, ,
-5, ,-3, ,
-5, ,-3, ,
-4, ,-3, ,
-4, ,-3, ,
-4, ,-3, ,
-3, ,-3, ,
-2, ,-3, ,
-2, ,-3, ,
-1, ,-3, ,
0, ,-3, ,
2, ,-3, ,
2, ,-3, ,
3, ,-3, ,
3, ,-3, ,
4, ,-3, ,
4, ,-3, ,
4, ,-3, ,
5, ,-3, ,
5, ,-3, ,
5, ,-3, ,
5, ,-3, ,
5, ,-3, ,
4, ,-3, ,
3, ,-3, ,
3, ,-3, ,
2, ,-3, ,
1, ,-3, ,
1, ,-3, ,
0, ,-3, ,
-1, ,-3, ,
-1, ,-3, ,
-2, ,-3, ,
-2, ,-3, ,
-2, ,-3, ,
-2, ,-3, ,
-2, ,-3, ,
-1, ,-3, ,
-1, ,-3, ,
0, ,-3, ,
0, ,-3, ,
1, ,-3, ,
1, ,-3, ,
3, ,-3, ,
3, ,-3, ,
3, ,-3, ,
3, ,-3, ,
3, ,-3, ,
2, ,-3, ,
2, ,-3, ,
0, ,-3, ,
-1, ,-3, ,
-2, ,-3, ,
-3, ,-3, ,
-3, ,-3, ,
-5, ,-3, ,
-6, ,-3, ,
-6, ,-3, ,
-6, ,-3, ,
-7, ,-3, ,
-7, ,-3, ,
-7, ,-3, ,
-6, ,-3, ,
-6, ,-3, ,
-5, ,-3, ,
-4, ,-3, ,
-5, ,-3, ,
-3, ,-3, ,
-2, ,-3, ,
-2, ,-3, ,
-2, ,-3, ,
0, ,-3, ,
0, ,-3, ,
1, ,-3, ,
1, ,-3, ,
1, ,-3, ,
2, ,-3, ,
2, ,-3, ,
2, ,-3, ,
2, ,-3, ,
2, ,-3, ,
3, ,-3, ,
3, ,-3, ,
3, ,-3, ,
3, ,-3, ,
3, ,-3, ,
3, ,-3, ,
3, ,-3, ,
3, ,-3, ,
3, ,-3, ,
3, ,-3, ,
3, ,-3, ,
4, ,-3, ,
4, ,-3, ,
4, ,-3, ,
4, ,-3, ,
4, ,-3, ,
4, ,-3, ,
4, ,-3, ,
3, ,-3, ,
3, ,-3, ,
3, ,-3, ,
3, ,-3, ,
3, ,-3, ,
2, ,-3, ,
2, ,-3, ,
2, ,-3, ,
3, ,-3, ,
3, ,-3, ,
3, ,-3, ,
2, ,-3, ,
2, ,-3, ,
2, ,-3, ,
2, ,-3, ,
1, ,-3, ,
0, ,-3, ,
0, ,-3, ,
-1, ,-3, ,
-1, ,-3, ,
-2, ,-3, ,
-2, ,-3, ,
-3, ,-3, ,
-3, ,-3, ,
-4, ,-3, ,
-4, ,-3, ,
-4, ,-3, ,
-5, ,-3, ,
-5, ,-3, ,
-5, ,-3, ,
-5, ,-3, ,
-5, ,-3, ,
-4, ,-3, ,
-4, ,-3, ,
-3, ,-3, ,
-2, ,-3, ,
-1, ,-3, ,
-1, ,-3, ,
-1, ,-3, ,
0, ,-3, ,
0, ,-3, ,
1, ,-3, ,
1, ,-3, ,
1, ,-3, ,
0, ,-3, ,
0, ,-3, ,
0, ,-3, ,
-1, ,-3, ,
-2, ,-3, ,
-2, ,-3, ,
-3, ,-3, ,
-4, ,-3, ,
-5, ,-3, ,
-5, ,-3, ,
-5, ,-3, ,
-5, ,-3, ,
-5, ,-3, ,
-5, ,-3, ,
-5, ,-3, ,
-5, ,-3, ,
-4, ,-3, ,
-4, ,-3, ,
-4, ,-3, ,
-3, ,-3, ,
-2, ,-3, ,
-1, ,-3, ,
0, ,-3, ,
0, ,-3, ,
2, ,-3, ,
2, ,-3, ,
3, ,-3, ,
4, ,-3, ,
5, ,-3, ,
6, ,-3, ,
6, ,-3, ,
7, ,-3, ,
8, ,-3, ,
8, ,-3, ,
9, ,-3, ,
9, ,-3, ,
10, ,-3, ,
10, ,-3, ,
10, ,-3, ,
10, ,-3, ,
8, ,-3, ,
8, ,-3, ,
8, ,-3, ,
7, ,-3, ,
5, ,-3, ,
4, ,-3, ,
3, ,-3, ,
2, ,-3, ,
-1, ,-3, ,
-2, ,-3, ,
-2, ,-3, ,
-4, ,-3, ,
-7, ,-3, ,
-8, ,-3, ,
-9, ,-3, ,
-10, ,-3, ,
-11, ,-3, ,
-12, ,-3, ,
-12, ,-3, ,
-13, ,-3, ,
-13, ,-3, ,
-13, ,-3, ,
-13, ,-3, ,
-13, ,-3, ,
-12, ,-3, ,
-12, ,-3, ,
-11, ,-3, ,
-10, ,-3, ,
-8, ,-3, ,
-7, ,-3, ,
-5, ,-3, ,
-4, ,-3, ,
-1, ,-3, ,
1, ,-3, ,
3, ,-3, ,
4, ,-3, ,
6, ,-3, ,
8, ,-3, ,
9, ,-3, ,
10, ,-3, ,
11, ,-3, ,
12, ,-3, ,
12, ,-3, ,
12, ,-3, ,
12, ,-3, ,
12, ,-3, ,
11, ,-3, ,
11, ,-3, ,
10, ,-3, ,
9, ,-3, ,
9, ,-3, ,
8, ,-3, ,
7, ,-3, ,
6, ,-3, ,
6, ,-3, ,
5, ,-3, ,
4, ,-3, ,
2, ,-3, ,
2, ,-3, ,
1, ,-3, ,
-1, ,-3, ,
-2, ,-3, ,
-3, ,-3, ,
-4, ,-3, ,
-6, ,-3, ,
-7, ,-3, ,
-7, ,-3, ,
-8, ,-3, ,
-8, ,-3, ,
-8, ,-3, ,
-8, ,-3, ,
-7, ,-3, ,
-5, ,-3, ,
-4, ,-3, ,
-3, ,-3, ,
-2, ,-3, ,
0, ,-3, ,
2, ,-3, ,
3, ,-3, ,
3, ,-3, ,
5, ,-3, ,
5, ,-3, ,
6, ,-3, ,
5, ,-3, ,
4, ,-3, ,
4, ,-3, ,
2, ,-3, ,
1, ,-3, ,
0, ,-3, ,
-2, ,-3, ,
-3, ,-3, ,
-5, ,-3, ,
-6, ,-3, ,
-6, ,-3, ,
-7, ,-3, ,
-7, ,-3, ,
-7, ,-3, ,
-6, ,-3, ,
-6, ,-3, ,
-5, ,-3, ,
-4, ,-3, ,
-3, ,-3, ,
-2, ,-3, ,
-1, ,-3, ,
2, ,-3, ,
3, ,-3, ,
4, ,-3, ,
5, ,-3, ,
7, ,-3, ,
8, ,-3, ,
9, ,-3, ,
10, ,-3, ,
11, ,-3, ,
11, ,-3, ,
12, ,-3, ,
12, ,-3, ,
12, ,-3, ,
12, ,-3, ,
11, ,-3, ,
11, ,-3, ,
9, ,-3, ,
8, ,-3, ,
7, ,-3, ,
6, ,-3, ,
3, ,-3, ,
3, ,-3, ,
0, ,-3, ,
-1, ,-3, ,
-3, ,-3, ,
-4, ,-3, ,
-4, ,-3, ,
-6, ,-3, ,
-7, ,-3, ,
-7, ,-3, ,
-7, ,-3, ,
-7, ,-3, ,
-7, ,-3, ,
-7, ,-3, ,
-7, ,-3, ,
-7, ,-3, ,
-6, ,-3, ,
-6, ,-3, ,
-5, ,-3, ,
-5, ,-3, ,
-5, ,-3, ,
-4, ,-3, ,
-4, ,-3, ,
-5, ,-3, ,
-5, ,-3, ,
-4, ,-3, ,
-4, ,-3, ,
-4, ,-3, ,
-4, ,-3, ,
-4, ,-3, ,
-4, ,-3, ,
-4, ,-3, ,
-3, ,-3, ,
-3, ,-3, ,
-3, ,-3, ,
-2, ,-3, ,
-1, ,-3, ,
0, ,-3, ,
0, ,-3, ,
1, ,-3, ,
2, ,-3, ,
3, ,-3, ,
3, ,-3, ,
3, ,-3, ,
5, ,-3, ,
5, ,-3, ,
5, ,-3, ,
6, ,-3, ,
7, ,-3, ,
8, ,-3, ,
8, ,-3, ,
9, ,-3, ,
9, ,-3, ,
10, ,-3, ,
10, ,-3, ,
9, ,-3, ,
9, ,-3, ,
8, ,-3, ,
8, ,-3, ,
7, ,-3, ,
5, ,-3, ,
3, ,-3, ,
2, ,-3, ,
0, ,-3, ,
-3, ,-3, ,
-5, ,-3, ,
-6, ,-3, ,
-8, ,-3, ,
-9, ,-3, ,
-10, ,-3, ,
-10, ,-3, ,
-9, ,-3, ,
-8, ,-3, ,
-7, ,-3, ,
-7, ,-3, ,
-5, ,-3, ,
-2, ,-3, ,
-2, ,-3, ,
0, ,-3, ,
1, ,-3, ,
3, ,-3, ,
3, ,-3, ,
4, ,-3, ,
4, ,-3, ,
3, ,-3, ,
2, ,-3, ,
2, ,-3, ,
1, ,-3, ,
0, ,-3, ,
0, ,-3, ,
-1, ,-3, ,
-1, ,-3, ,
-2, ,-3, ,
-2, ,-3, ,
-2, ,-3, ,
-2, ,-3, ,
-2, ,-3, ,
-1, ,-3, ,
-1, ,-3, ,
-1, ,-3, ,
0, ,-3, ,
-1, ,-3, ,
-1, ,-3, ,
-1, ,-3, ,
-1, ,-3, ,
-1, ,-3, ,
-1, ,-3, ,
-1, ,-3, ,
-1, ,-3, ,
-1, ,-3, ,
-1, ,-3, ,
-1, ,-3, ,
-1, ,-3, ,
-1, ,-3, ,
-1, ,-3, ,
-1, ,-3, ,
-1, ,-3, ,
-1, ,-3, ,
-1, ,-3, ,
-1, ,-3, ,
-1, ,-3, ,
0, ,-3, ,
-1, ,-3, ,
-1, ,-3, ,
-1, ,-3, ,
-1, ,-3, ,
-1, ,-3, ,
-1, ,-3, ,
-1, ,-3, ,
-2, ,-3, ,
-2, ,-3, ,
-2, ,-3, ,
-2, ,-3, ,
-2, ,-3, ,
-2, ,-3, ,
-2, ,-3, ,
-2, ,-3, ,
-2, ,-3, ,
-2, ,-3, ,
-1, ,-3, ,
-1, ,-3, ,
0, ,-3, ,
0, ,-3, ,
0, ,-3, ,
1, ,-3, ,
2, ,-3, ,
2, ,-3, ,
2, ,-3, ,
4, ,-3, ,
3, ,-3, ,
5, ,-3, ,
5, ,-3, ,
6, ,-3, ,
7, ,-3, ,
7, ,-3, ,
8, ,-3, ,
9, ,-3, ,
10, ,-3, ,
10, ,-3, ,
10, ,-3, ,
10, ,-3, ,
10, ,-3, ,
9, ,-3, ,
9, ,-3, ,
8, ,-3, ,
6, ,-3, ,
6, ,-3, ,
5, ,-3, ,
2, ,-3, ,
2, ,-3, ,
0, ,-3, ,
0, ,-3, ,
-2, ,-3, ,
-3, ,-3, ,
-3, ,-3, ,
-3, ,-3, ,
-3, ,-3, ,
-3, ,-3, ,
-3, ,-3, ,
-3, ,-3, ,
-2, ,-3, ,
-2, ,-3, ,
-2, ,-3, ,
-2, ,-3, ,
-1, ,-3, ,
-1, ,-3, ,
-2, ,-3, ,
-2, ,-3, ,
-2, ,-3, ,
-3, ,-3, ,
-3, ,-3, ,
-4, ,-3, ,
-4, ,-3, ,
-4, ,-3, ,
-5, ,-3, ,
-5, ,-3, ,
-5, ,-3, ,
-5, ,-3, ,
