raw_data/75% Glycerol, Impulsion 2Hz, Sonde 5MHz, Rampe 0.7Hz/temp0000042.CSV

Format,1.0B,
Memory Length,10000,Memory Length,10000,
IntpDistance,0,IntpDistance,0,
Trigger Address,159,Trigger Address,159,
Trigger Level,2.720E-01,Trigger Level,2.720E-01,
Source,CH1,Source,CH2,
Vertical Units,V,Vertical Units,V,
Vertical Units Div,0,Vertical Units Div,0,
Vertical Units Extend Div,16,Vertical Units Extend Div,16,
Label,,Label,,
Probe Type,0,Probe Type,0,
Probe Ratio,1.000e+00,Probe Ratio,1.000e+00,
Vertical Scale,5.000e-01,Vertical Scale,2.000e+00,
Vertical Position,0.000e+00,Vertical Position,0.000e+00,
Horizontal Units,S,Horizontal Units,S,
Horizontal Scale,5.000E-06,Horizontal Scale,5.000E-06,
Horizontal Position,2.420E-05,Horizontal Position,2.420E-05,
Horizontal Mode,Main,Horizontal Mode,Main,
SincET Mode,Real Time,SincET Mode,Real Time,
Sampling Period,5.000e-09,Sampling Period,5.000e-09,
Horizontal Old Scale,5.000E-06,Horizontal Old Scale,5.000E-06,
Horizontal Old Position,2.420E-05,Horizontal Old Position,2.420E-05,
Firmware,V1.32,Firmware,V1.32,
Mode,Fast,Mode,Fast,
Waveform Data,,Waveform Data,,
1, ,30, ,
1, ,30, ,
1, ,30, ,
0, ,30, ,
0, ,30, ,
0, ,30, ,
0, ,30, ,
1, ,30, ,
0, ,30, ,
0, ,30, ,
1, ,30, ,
1, ,30, ,
1, ,30, ,
0, ,30, ,
0, ,30, ,
0, ,30, ,
0, ,30, ,
0, ,30, ,
0, ,30, ,
0, ,30, ,
0, ,30, ,
0, ,30, ,
0, ,30, ,
0, ,30, ,
0, ,30, ,
0, ,30, ,
0, ,30, ,
0, ,30, ,
0, ,30, ,
1, ,30, ,
0, ,30, ,
0, ,30, ,
0, ,30, ,
0, ,30, ,
0, ,30, ,
0, ,30, ,
1, ,30, ,
1, ,30, ,
0, ,30, ,
0, ,29, ,
0, ,29, ,
0, ,30, ,
1, ,30, ,
1, ,30, ,
1, ,30, ,
1, ,30, ,
1, ,30, ,
1, ,30, ,
1, ,30, ,
0, ,30, ,
0, ,30, ,
0, ,30, ,
0, ,30, ,
0, ,30, ,
0, ,30, ,
1, ,30, ,
0, ,30, ,
0, ,30, ,
1, ,30, ,
0, ,29, ,
0, ,29, ,
1, ,30, ,
0, ,30, ,
0, ,30, ,
0, ,30, ,
0, ,30, ,
0, ,30, ,
0, ,30, ,
0, ,30, ,
0, ,30, ,
0, ,30, ,
1, ,30, ,
0, ,30, ,
0, ,30, ,
0, ,30, ,
0, ,30, ,
0, ,30, ,
0, ,29, ,
0, ,29, ,
0, ,30, ,
0, ,30, ,
0, ,29, ,
0, ,29, ,
1, ,30, ,
1, ,30, ,
1, ,30, ,
1, ,30, ,
1, ,30, ,
1, ,30, ,
1, ,30, ,
1, ,30, ,
0, ,30, ,
0, ,30, ,
0, ,30, ,
0, ,30, ,
0, ,30, ,
0, ,29, ,
0, ,29, ,
0, ,30, ,
0, ,30, ,
1, ,30, ,
0, ,30, ,
0, ,29, ,
0, ,29, ,
0, ,29, ,
0, ,30, ,
0, ,30, ,
0, ,30, ,
1, ,30, ,
1, ,30, ,
1, ,30, ,
1, ,30, ,
1, ,30, ,
0, ,30, ,
0, ,30, ,
0, ,30, ,
1, ,30, ,
1, ,29, ,
1, ,29, ,
1, ,30, ,
0, ,30, ,
0, ,30, ,
1, ,30, ,
1, ,30, ,
0, ,30, ,
0, ,30, ,
0, ,30, ,
0, ,30, ,
0, ,30, ,
0, ,30, ,
1, ,30, ,
1, ,30, ,
1, ,30, ,
1, ,30, ,
0, ,30, ,
0, ,30, ,
0, ,30, ,
1, ,30, ,
1, ,29, ,
0, ,29, ,
0, ,29, ,
0, ,30, ,
0, ,30, ,
0, ,30, ,
0, ,30, ,
1, ,30, ,
1, ,30, ,
1, ,30, ,
1, ,30, ,
1, ,30, ,
1, ,30, ,
1, ,30, ,
1, ,30, ,
1, ,30, ,
1, ,30, ,
0, ,30, ,
0, ,30, ,
1, ,30, ,
0, ,30, ,
0, ,30, ,
0, ,30, ,
0, ,30, ,
1, ,30, ,
1, ,30, ,
1, ,30, ,
0, ,30, ,
-1, ,30, ,
0, ,30, ,
12, ,30, ,
72, ,30, ,
113, ,30, ,
124, ,30, ,
122, ,30, ,
60, ,30, ,
6, ,30, ,
-4, ,30, ,
36, ,29, ,
125, ,29, ,
125, ,30, ,
125, ,30, ,
125, ,30, ,
125, ,30, ,
125, ,30, ,
124, ,30, ,
124, ,30, ,
117, ,29, ,
111, ,29, ,
107, ,29, ,
104, ,30, ,
98, ,30, ,
94, ,30, ,
91, ,30, ,
87, ,30, ,
81, ,29, ,
77, ,29, ,
75, ,29, ,
72, ,29, ,
67, ,30, ,
64, ,30, ,
62, ,30, ,
59, ,30, ,
54, ,30, ,
52, ,30, ,
50, ,30, ,
48, ,30, ,
44, ,30, ,
42, ,30, ,
40, ,30, ,
38, ,30, ,
35, ,29, ,
34, ,29, ,
32, ,29, ,
31, ,29, ,
28, ,30, ,
26, ,30, ,
25, ,30, ,
25, ,30, ,
22, ,30, ,
22, ,30, ,
21, ,30, ,
20, ,30, ,
18, ,30, ,
17, ,30, ,
16, ,30, ,
15, ,30, ,
14, ,30, ,
13, ,30, ,
12, ,29, ,
12, ,29, ,
11, ,30, ,
10, ,30, ,
9, ,30, ,
9, ,30, ,
8, ,30, ,
7, ,30, ,
7, ,30, ,
6, ,30, ,
6, ,30, ,
5, ,30, ,
5, ,30, ,
4, ,30, ,
4, ,30, ,
4, ,30, ,
3, ,29, ,
3, ,29, ,
3, ,30, ,
2, ,30, ,
2, ,30, ,
2, ,30, ,
2, ,30, ,
1, ,29, ,
1, ,29, ,
1, ,29, ,
1, ,30, ,
0, ,30, ,
0, ,30, ,
0, ,30, ,
0, ,30, ,
0, ,30, ,
0, ,30, ,
0, ,30, ,
0, ,30, ,
-1, ,30, ,
-1, ,30, ,
-1, ,30, ,
-1, ,30, ,
-1, ,30, ,
-1, ,30, ,
-1, ,30, ,
-1, ,30, ,
-1, ,30, ,
-1, ,30, ,
-1, ,30, ,
-2, ,30, ,
-2, ,30, ,
-2, ,30, ,
-1, ,30, ,
-1, ,30, ,
-2, ,30, ,
-2, ,30, ,
-2, ,30, ,
-2, ,30, ,
-2, ,30, ,
-2, ,30, ,
-1, ,30, ,
-1, ,30, ,
-1, ,30, ,
-1, ,30, ,
-1, ,30, ,
-1, ,29, ,
-1, ,29, ,
-1, ,30, ,
-1, ,30, ,
-1, ,30, ,
-1, ,29, ,
-1, ,29, ,
-2, ,29, ,
-2, ,30, ,
-1, ,30, ,
-1, ,30, ,
-1, ,30, ,
-1, ,30, ,
-1, ,29, ,
-1, ,29, ,
-1, ,29, ,
-1, ,30, ,
-1, ,30, ,
-1, ,30, ,
-1, ,30, ,
-1, ,30, ,
-1, ,30, ,
-1, ,30, ,
-1, ,30, ,
-1, ,30, ,
-1, ,30, ,
-1, ,30, ,
-1, ,30, ,
-1, ,30, ,
-1, ,30, ,
-1, ,30, ,
-1, ,30, ,
-1, ,30, ,
-1, ,30, ,
-1, ,30, ,
0, ,30, ,
-1, ,30, ,
-1, ,30, ,
0, ,30, ,
-1, ,30, ,
-1, ,30, ,
-1, ,30, ,
-1, ,30, ,
-1, ,30, ,
0, ,30, ,
0, ,30, ,
0, ,30, ,
0, ,30, ,
0, ,30, ,
0, ,30, ,
0, ,30, ,
0, ,30, ,
0, ,29, ,
0, ,29, ,
0, ,30, ,
0, ,30, ,
0, ,30, ,
0, ,30, ,
0, ,30, ,
0, ,30, ,
0, ,30, ,
0, ,30, ,
0, ,30, ,
0, ,30, ,
0, ,30, ,
0, ,30, ,
0, ,30, ,
0, ,30, ,
0, ,30, ,
0, ,30, ,
0, ,30, ,
0, ,30, ,
0, ,30, ,
0, ,30, ,
0, ,30, ,
0, ,30, ,
1, ,30, ,
0, ,30, ,
0, ,30, ,
0, ,30, ,
0, ,30, ,
0, ,30, ,
0, ,30, ,
0, ,30, ,
0, ,30, ,
0, ,30, ,
0, ,30, ,
0, ,30, ,
0, ,30, ,
0, ,30, ,
0, ,30, ,
0, ,30, ,
0, ,30, ,
0, ,29, ,
0, ,29, ,
0, ,29, ,
0, ,30, ,
0, ,30, ,
0, ,29, ,
0, ,29, ,
0, ,30, ,
0, ,30, ,
0, ,30, ,
0, ,30, ,
0, ,30, ,
0, ,30, ,
1, ,30, ,
1, ,30, ,
0, ,30, ,
0, ,30, ,
0, ,30, ,
0, ,30, ,
0, ,29, ,
0, ,29, ,
0, ,29, ,
0, ,30, ,
0, ,30, ,
0, ,30, ,
0, ,30, ,
0, ,30, ,
0, ,30, ,
0, ,30, ,
0, ,30, ,
0, ,30, ,
0, ,30, ,
1, ,30, ,
1, ,30, ,
1, ,30, ,
1, ,30, ,
1, ,30, ,
1, ,30, ,
1, ,30, ,
1, ,30, ,
1, ,30, ,
1, ,30, ,
1, ,30, ,
1, ,30, ,
1, ,30, ,
0, ,30, ,
0, ,30, ,
0, ,29, ,
0, ,29, ,
0, ,30, ,
0, ,30, ,
-1, ,29, ,
-1, ,29, ,
-1, ,30, ,
-1, ,30, ,
-2, ,30, ,
-3, ,30, ,
-3, ,30, ,
-4, ,30, ,
-7, ,30, ,
-8, ,30, ,
-11, ,30, ,
-12, ,30, ,
-12, ,29, ,
-11, ,29, ,
-9, ,30, ,
-8, ,30, ,
-4, ,30, ,
-2, ,30, ,
-1, ,30, ,
0, ,30, ,
2, ,30, ,
2, ,30, ,
2, ,30, ,
3, ,30, ,
3, ,30, ,
3, ,30, ,
3, ,30, ,
3, ,30, ,
2, ,30, ,
1, ,30, ,
1, ,30, ,
1, ,30, ,
0, ,30, ,
-1, ,30, ,
-1, ,30, ,
-1, ,30, ,
0, ,30, ,
0, ,30, ,
0, ,30, ,
1, ,30, ,
1, ,30, ,
2, ,30, ,
2, ,30, ,
2, ,30, ,
3, ,30, ,
3, ,30, ,
3, ,30, ,
3, ,29, ,
2, ,29, ,
2, ,30, ,
2, ,30, ,
2, ,30, ,
2, ,30, ,
2, ,30, ,
2, ,30, ,
2, ,30, ,
2, ,30, ,
2, ,30, ,
2, ,30, ,
2, ,30, ,
2, ,30, ,
2, ,30, ,
2, ,30, ,
1, ,30, ,
1, ,30, ,
1, ,30, ,
0, ,30, ,
0, ,30, ,
0, ,30, ,
-1, ,30, ,
-1, ,30, ,
-1, ,30, ,
0, ,30, ,
0, ,30, ,
0, ,30, ,
1, ,30, ,
1, ,30, ,
1, ,30, ,
1, ,30, ,
1, ,30, ,
2, ,30, ,
2, ,30, ,
2, ,30, ,
2, ,30, ,
1, ,30, ,
1, ,30, ,
0, ,30, ,
0, ,30, ,
-1, ,30, ,
-2, ,30, ,
-3, ,30, ,
-5, ,30, ,
-8, ,29, ,
-10, ,29, ,
-12, ,29, ,
-14, ,30, ,
-17, ,29, ,
-18, ,29, ,
-18, ,30, ,
-17, ,30, ,
-16, ,30, ,
-16, ,29, ,
-14, ,29, ,
-14, ,29, ,
-12, ,30, ,
-12, ,30, ,
-12, ,30, ,
-13, ,30, ,
-14, ,30, ,
-16, ,30, ,
-17, ,30, ,
-19, ,30, ,
-23, ,30, ,
-24, ,30, ,
-26, ,30, ,
-26, ,30, ,
-26, ,30, ,
-26, ,30, ,
-25, ,30, ,
-25, ,30, ,
-25, ,30, ,
-25, ,30, ,
-25, ,30, ,
-25, ,30, ,
-25, ,30, ,
-25, ,30, ,
-26, ,30, ,
-26, ,30, ,
-26, ,29, ,
-26, ,29, ,
-26, ,30, ,
-25, ,30, ,
-25, ,30, ,
-23, ,30, ,
-21, ,30, ,
-20, ,29, ,
-16, ,29, ,
-13, ,29, ,
-11, ,29, ,
-8, ,30, ,
-4, ,30, ,
-3, ,30, ,
-1, ,30, ,
-1, ,30, ,
1, ,30, ,
1, ,30, ,
1, ,30, ,
2, ,30, ,
2, ,30, ,
2, ,30, ,
3, ,30, ,
2, ,30, ,
3, ,30, ,
3, ,30, ,
3, ,30, ,
3, ,30, ,
3, ,30, ,
3, ,30, ,
3, ,30, ,
2, ,30, ,
1, ,30, ,
1, ,30, ,
0, ,30, ,
0, ,30, ,
-1, ,30, ,
-1, ,29, ,
-1, ,29, ,
-1, ,29, ,
-1, ,30, ,
0, ,30, ,
0, ,30, ,
2, ,30, ,
3, ,30, ,
4, ,30, ,
6, ,30, ,
6, ,30, ,
8, ,29, ,
9, ,29, ,
9, ,29, ,
9, ,30, ,
9, ,30, ,
8, ,30, ,
8, ,30, ,
7, ,30, ,
5, ,30, ,
5, ,30, ,
4, ,30, ,
3, ,30, ,
0, ,30, ,
-1, ,30, ,
-2, ,30, ,
-3, ,30, ,
-6, ,30, ,
-6, ,30, ,
-7, ,29, ,
-8, ,29, ,
-8, ,30, ,
-8, ,30, ,
-8, ,30, ,
-8, ,30, ,
-8, ,30, ,
-7, ,30, ,
-7, ,30, ,
-7, ,30, ,
-7, ,29, ,
-8, ,29, ,
-8, ,30, ,
-10, ,30, ,
-11, ,30, ,
-11, ,30, ,
-12, ,30, ,
-13, ,30, ,
-14, ,30, ,
-16, ,30, ,
-16, ,30, ,
-17, ,30, ,
-17, ,29, ,
-18, ,29, ,
-18, ,29, ,
-19, ,30, ,
-20, ,30, ,
-20, ,30, ,
-20, ,30, ,
-20, ,30, ,
-20, ,30, ,
-20, ,30, ,
-19, ,30, ,
-18, ,30, ,
-15, ,30, ,
-13, ,30, ,
-12, ,29, ,
-9, ,29, ,
-6, ,30, ,
-4, ,30, ,
-3, ,30, ,
-1, ,30, ,
2, ,30, ,
2, ,30, ,
4, ,30, ,
4, ,30, ,
5, ,30, ,
5, ,30, ,
6, ,30, ,
6, ,30, ,
6, ,30, ,
5, ,30, ,
5, ,30, ,
4, ,30, ,
2, ,30, ,
1, ,30, ,
0, ,30, ,
-1, ,30, ,
-5, ,30, ,
-7, ,30, ,
-8, ,30, ,
-10, ,30, ,
-14, ,30, ,
-15, ,30, ,
-17, ,30, ,
-19, ,30, ,
-22, ,30, ,
-23, ,30, ,
-24, ,30, ,
-25, ,30, ,
-28, ,30, ,
-28, ,30, ,
-29, ,30, ,
-29, ,30, ,
-29, ,30, ,
-29, ,30, ,
-28, ,30, ,
-27, ,30, ,
-25, ,30, ,
-23, ,30, ,
-21, ,30, ,
-17, ,30, ,
-11, ,30, ,
-9, ,30, ,
-6, ,30, ,
-3, ,30, ,
3, ,30, ,
6, ,30, ,
8, ,30, ,
11, ,30, ,
15, ,30, ,
17, ,30, ,
19, ,30, ,
20, ,29, ,
22, ,29, ,
23, ,29, ,
22, ,29, ,
22, ,29, ,
22, ,30, ,
21, ,30, ,
21, ,30, ,
20, ,30, ,
18, ,30, ,
16, ,30, ,
16, ,29, ,
15, ,29, ,
12, ,30, ,
11, ,30, ,
10, ,30, ,
8, ,30, ,
6, ,30, ,
6, ,30, ,
4, ,30, ,
3, ,30, ,
2, ,30, ,
0, ,30, ,
-1, ,30, ,
-2, ,30, ,
-4, ,29, ,
-4, ,29, ,
-6, ,29, ,
-6, ,29, ,
-8, ,30, ,
-9, ,30, ,
-10, ,30, ,
-12, ,29, ,
-13, ,29, ,
-14, ,30, ,
-15, ,30, ,
-15, ,30, ,
-16, ,30, ,
-16, ,30, ,
-16, ,30, ,
-16, ,30, ,
-15, ,30, ,
-13, ,30, ,
-13, ,30, ,
-11, ,30, ,
-9, ,30, ,
-8, ,30, ,
-7, ,30, ,
-6, ,30, ,
-6, ,30, ,
-6, ,30, ,
-6, ,30, ,
-6, ,30, ,
-7, ,30, ,
-9, ,30, ,
-10, ,30, ,
-12, ,30, ,
-16, ,30, ,
-18, ,30, ,
-19, ,30, ,
-20, ,30, ,
-22, ,30, ,
-23, ,30, ,
-23, ,30, ,
-22, ,30, ,
-22, ,29, ,
-21, ,29, ,
-19, ,29, ,
-18, ,30, ,
-14, ,30, ,
-13, ,30, ,
-11, ,30, ,
-10, ,30, ,
-7, ,30, ,
-6, ,30, ,
-5, ,30, ,
-4, ,30, ,
-5, ,30, ,
-5, ,30, ,
-6, ,30, ,
-7, ,30, ,
-10, ,30, ,
-11, ,30, ,
-13, ,30, ,
-14, ,30, ,
-18, ,30, ,
-19, ,30, ,
-21, ,30, ,
-23, ,30, ,
-25, ,30, ,
-25, ,30, ,
-25, ,30, ,
-25, ,30, ,
-24, ,30, ,
-23, ,30, ,
-22, ,30, ,
-21, ,30, ,
-17, ,30, ,
-15, ,30, ,
-13, ,30, ,
-12, ,30, ,
-7, ,30, ,
-4, ,30, ,
-2, ,30, ,
0, ,29, ,
5, ,29, ,
7, ,30, ,
9, ,30, ,
11, ,30, ,
13, ,30, ,
14, ,30, ,
15, ,30, ,
16, ,30, ,
16, ,30, ,
15, ,30, ,
15, ,30, ,
15, ,30, ,
14, ,30, ,
14, ,30, ,
15, ,30, ,
15, ,30, ,
15, ,30, ,
16, ,30, ,
16, ,30, ,
17, ,30, ,
17, ,30, ,
18, ,30, ,
18, ,30, ,
17, ,29, ,
17, ,29, ,
16, ,30, ,
16, ,29, ,
14, ,29, ,
12, ,30, ,
10, ,30, ,
8, ,30, ,
6, ,30, ,
2, ,30, ,
0, ,30, ,
-2, ,30, ,
-4, ,30, ,
-7, ,29, ,
-8, ,29, ,
-9, ,30, ,
-10, ,30, ,
-12, ,30, ,
-12, ,30, ,
-12, ,30, ,
-12, ,30, ,
-12, ,30, ,
-13, ,30, ,
-13, ,30, ,
-13, ,30, ,
-13, ,30, ,
-13, ,30, ,
-13, ,30, ,
-13, ,30, ,
-13, ,30, ,
-14, ,30, ,
-14, ,30, ,
-14, ,30, ,
-14, ,30, ,
-13, ,30, ,
-13, ,30, ,
-12, ,29, ,
-10, ,29, ,
-11, ,30, ,
-9, ,30, ,
-8, ,30, ,
-6, ,30, ,
-5, ,30, ,
-5, ,30, ,
-3, ,30, ,
-2, ,30, ,
-2, ,30, ,
-2, ,30, ,
-2, ,30, ,
-3, ,29, ,
-4, ,29, ,
-4, ,30, ,
-5, ,30, ,
-8, ,30, ,
-10, ,30, ,
-11, ,30, ,
-13, ,30, ,
-17, ,30, ,
-18, ,30, ,
-20, ,30, ,
-21, ,30, ,
-24, ,30, ,
-25, ,30, ,
-25, ,30, ,
-26, ,30, ,
-26, ,30, ,
-26, ,30, ,
-26, ,30, ,
-25, ,30, ,
-24, ,30, ,
-22, ,30, ,
-20, ,30, ,
-19, ,29, ,
-13, ,29, ,
-11, ,30, ,
-9, ,30, ,
-6, ,30, ,
-1, ,30, ,
1, ,30, ,
3, ,30, ,
4, ,30, ,
6, ,30, ,
7, ,30, ,
7, ,30, ,
7, ,30, ,
6, ,30, ,
5, ,30, ,
5, ,30, ,
4, ,30, ,
2, ,30, ,
2, ,30, ,
1, ,30, ,
1, ,30, ,
1, ,30, ,
1, ,30, ,
0, ,30, ,
0, ,30, ,
1, ,29, ,
2, ,29, ,
2, ,29, ,
2, ,30, ,
2, ,29, ,
2, ,29, ,
2, ,30, ,
2, ,30, ,
1, ,30, ,
0, ,30, ,
-1, ,30, ,
-1, ,30, ,
-3, ,30, ,
-4, ,30, ,
-6, ,30, ,
-7, ,30, ,
-9, ,30, ,
-10, ,30, ,
-11, ,29, ,
-11, ,29, ,
-12, ,30, ,
-12, ,30, ,
-12, ,30, ,
-12, ,30, ,
-11, ,30, ,
-10, ,30, ,
-9, ,30, ,
-8, ,30, ,
-6, ,30, ,
-6, ,30, ,
-4, ,30, ,
-3, ,30, ,
-1, ,30, ,
1, ,30, ,
2, ,30, ,
3, ,30, ,
6, ,30, ,
7, ,30, ,
8, ,30, ,
9, ,30, ,
11, ,30, ,
12, ,30, ,
13, ,30, ,
14, ,30, ,
15, ,30, ,
16, ,30, ,
16, ,30, ,
15, ,30, ,
14, ,30, ,
13, ,30, ,
12, ,29, ,
11, ,29, ,
7, ,30, ,
5, ,30, ,
3, ,30, ,
0, ,30, ,
-4, ,30, ,
-6, ,30, ,
-8, ,30, ,
-10, ,30, ,
-12, ,30, ,
-14, ,30, ,
-14, ,30, ,
-14, ,30, ,
-14, ,30, ,
-13, ,30, ,
-13, ,29, ,
-13, ,29, ,
-12, ,30, ,
-11, ,30, ,
-10, ,30, ,
-10, ,30, ,
-10, ,30, ,
-10, ,29, ,
-10, ,29, ,
-10, ,29, ,
-11, ,30, ,
-12, ,30, ,
-12, ,30, ,
-12, ,30, ,
-12, ,30, ,
-12, ,30, ,
-12, ,30, ,
-12, ,30, ,
-9, ,30, ,
-8, ,30, ,
-7, ,30, ,
-6, ,30, ,
-2, ,30, ,
0, ,30, ,
1, ,30, ,
3, ,30, ,
5, ,30, ,
7, ,30, ,
7, ,30, ,
8, ,30, ,
8, ,30, ,
8, ,30, ,
8, ,29, ,
8, ,29, ,
8, ,29, ,
7, ,29, ,
7, ,30, ,
7, ,30, ,
6, ,30, ,
7, ,30, ,
7, ,30, ,
7, ,30, ,
6, ,30, ,
5, ,30, ,
5, ,30, ,
4, ,30, ,
3, ,30, ,
2, ,30, ,
1, ,30, ,
0, ,30, ,
-3, ,30, ,
-4, ,29, ,
-5, ,29, ,
-7, ,29, ,
-9, ,30, ,
-9, ,30, ,
-9, ,30, ,
-9, ,30, ,
-9, ,30, ,
-9, ,30, ,
-9, ,30, ,
-9, ,30, ,
-7, ,29, ,
-6, ,29, ,
-5, ,30, ,
-4, ,30, ,
-1, ,30, ,
-1, ,30, ,
0, ,30, ,
1, ,30, ,
2, ,29, ,
2, ,29, ,
2, ,29, ,
2, ,30, ,
1, ,30, ,
1, ,30, ,
1, ,30, ,
0, ,30, ,
-1, ,30, ,
-1, ,30, ,
-1, ,29, ,
-1, ,29, ,
-1, ,30, ,
-2, ,30, ,
-2, ,30, ,
-2, ,30, ,
-2, ,29, ,
-2, ,29, ,
-2, ,29, ,
-2, ,30, ,
-2, ,30, ,
-2, ,30, ,
-2, ,30, ,
-2, ,30, ,
-2, ,30, ,
-2, ,30, ,
-2, ,30, ,
-2, ,30, ,
-2, ,30, ,
-2, ,30, ,
-2, ,30, ,
-2, ,30, ,
-1, ,30, ,
-1, ,30, ,
0, ,30, ,
1, ,30, ,
1, ,30, ,
1, ,30, ,
2, ,30, ,
2, ,30, ,
2, ,30, ,
2, ,30, ,
2, ,30, ,
2, ,30, ,
1, ,29, ,
1, ,29, ,
1, ,30, ,
1, ,30, ,
0, ,30, ,
-1, ,30, ,
-1, ,30, ,
-1, ,30, ,
-2, ,30, ,
-2, ,30, ,
-2, ,30, ,
-2, ,30, ,
-2, ,30, ,
-2, ,30, ,
-2, ,30, ,
-1, ,30, ,
0, ,30, ,
0, ,30, ,
0, ,30, ,
1, ,30, ,
1, ,30, ,
1, ,30, ,
1, ,30, ,
1, ,30, ,
1, ,29, ,
0, ,29, ,
0, ,30, ,
-1, ,30, ,
-2, ,29, ,
-3, ,29, ,
-4, ,29, ,
-4, ,30, ,
-6, ,30, ,
-7, ,30, ,
-7, ,30, ,
-8, ,29, ,
-8, ,29, ,
-8, ,30, ,
-8, ,30, ,
-7, ,30, ,
-6, ,30, ,
-5, ,30, ,
-4, ,30, ,
-4, ,30, ,
-3, ,30, ,
-2, ,30, ,
-1, ,30, ,
-1, ,30, ,
1, ,30, ,
1, ,30, ,
1, ,30, ,
1, ,30, ,
1, ,30, ,
1, ,30, ,
1, ,30, ,
1, ,30, ,
2, ,30, ,
2, ,30, ,
2, ,30, ,
3, ,30, ,
4, ,30, ,
4, ,30, ,
5, ,30, ,
5, ,29, ,
6, ,29, ,
5, ,29, ,
5, ,30, ,
4, ,30, ,
3, ,30, ,
2, ,30, ,
1, ,30, ,
-1, ,30, ,
-4, ,30, ,
-7, ,30, ,
-9, ,30, ,
-11, ,30, ,
-14, ,30, ,
-16, ,30, ,
-19, ,30, ,
-19, ,30, ,
-20, ,30, ,
-19, ,30, ,
-19, ,30, ,
-19, ,30, ,
-16, ,29, ,
-14, ,29, ,
-12, ,30, ,
-9, ,30, ,
-4, ,30, ,
-1, ,30, ,
2, ,30, ,
5, ,30, ,
10, ,30, ,
13, ,30, ,
14, ,30, ,
16, ,30, ,
18, ,29, ,
18, ,29, ,
18, ,30, ,
17, ,30, ,
16, ,29, ,
16, ,29, ,
14, ,29, ,
13, ,30, ,
9, ,30, ,
8, ,30, ,
6, ,30, ,
3, ,29, ,
-1, ,29, ,
-3, ,29, ,
-5, ,30, ,
-6, ,30, ,
-9, ,30, ,
-11, ,30, ,
-12, ,30, ,
-13, ,30, ,
-15, ,30, ,
-15, ,30, ,
-15, ,30, ,
-14, ,30, ,
-13, ,30, ,
-13, ,30, ,
-11, ,30, ,
-10, ,30, ,
-7, ,30, ,
-6, ,30, ,
-5, ,30, ,
-4, ,30, ,
-2, ,30, ,
-1, ,30, ,
-1, ,30, ,
-1, ,30, ,
-2, ,29, ,
-3, ,29, ,
-5, ,30, ,
-5, ,30, ,
-9, ,30, ,
-11, ,30, ,
-13, ,30, ,
-15, ,30, ,
-19, ,30, ,
-19, ,30, ,
-21, ,30, ,
-22, ,30, ,
-22, ,30, ,
-22, ,30, ,
-21, ,30, ,
-20, ,30, ,
-16, ,30, ,
-14, ,30, ,
-11, ,29, ,
-8, ,29, ,
-2, ,29, ,
1, ,29, ,
4, ,29, ,
7, ,30, ,
12, ,30, ,
15, ,30, ,
16, ,30, ,
17, ,30, ,
19, ,30, ,
19, ,29, ,
18, ,29, ,
18, ,29, ,
15, ,30, ,
14, ,30, ,
12, ,30, ,
11, ,30, ,
7, ,30, ,
5, ,30, ,
4, ,30, ,
2, ,30, ,
-2, ,30, ,
-3, ,30, ,
-4, ,29, ,
-4, ,29, ,
-5, ,30, ,
-5, ,30, ,
-5, ,30, ,
-5, ,30, ,
-3, ,30, ,
-2, ,30, ,
-1, ,30, ,
0, ,30, ,
3, ,30, ,
4, ,30, ,
6, ,30, ,
7, ,30, ,
9, ,30, ,
9, ,30, ,
9, ,29, ,
9, ,29, ,
9, ,29, ,
7, ,29, ,
7, ,29, ,
5, ,29, ,
3, ,30, ,
1, ,30, ,
-1, ,30, ,
-2, ,30, ,
-6, ,30, ,
-8, ,30, ,
-9, ,30, ,
-11, ,30, ,
-12, ,30, ,
-12, ,30, ,
-12, ,29, ,
-12, ,29, ,
-11, ,30, ,
-10, ,30, ,
-9, ,30, ,
-7, ,30, ,
-4, ,29, ,
-1, ,29, ,
0, ,29, ,
3, ,30, ,
6, ,30, ,
8, ,30, ,
10, ,30, ,
10, ,30, ,
12, ,29, ,
12, ,29, ,
11, ,30, ,
11, ,30, ,
9, ,30, ,
7, ,30, ,
6, ,30, ,
4, ,30, ,
0, ,30, ,
-2, ,29, ,
-4, ,29, ,
-6, ,29, ,
-9, ,30, ,
-10, ,30, ,
-11, ,30, ,
-12, ,29, ,
-12, ,29, ,
-12, ,30, ,
-12, ,30, ,
-11, ,30, ,
-9, ,30, ,
-8, ,30, ,
-6, ,30, ,
-5, ,30, ,
-2, ,30, ,
0, ,30, ,
1, ,30, ,
3, ,30, ,
6, ,30, ,
7, ,30, ,
8, ,30, ,
8, ,30, ,
8, ,30, ,
8, ,30, ,
7, ,30, ,
7, ,30, ,
6, ,30, ,
4, ,30, ,
2, ,30, ,
1, ,30, ,
-2, ,29, ,
-4, ,29, ,
-6, ,29, ,
-7, ,30, ,
-10, ,29, ,
-10, ,29, ,
-11, ,29, ,
-11, ,30, ,
-11, ,30, ,
-9, ,30, ,
-9, ,29, ,
-7, ,29, ,
-5, ,30, ,
-4, ,30, ,
-2, ,30, ,
-2, ,30, ,
2, ,30, ,
4, ,30, ,
5, ,30, ,
7, ,30, ,
8, ,30, ,
9, ,30, ,
10, ,30, ,
10, ,30, ,
10, ,30, ,
11, ,30, ,
10, ,30, ,
10, ,30, ,
9, ,30, ,
8, ,30, ,
7, ,30, ,
6, ,30, ,
4, ,30, ,
3, ,30, ,
2, ,30, ,
1, ,30, ,
-2, ,30, ,
-3, ,30, ,
-3, ,30, ,
-4, ,30, ,
-5, ,30, ,
-5, ,30, ,
-5, ,30, ,
-5, ,30, ,
-5, ,30, ,
-5, ,30, ,
-5, ,30, ,
-5, ,30, ,
-5, ,30, ,
-4, ,30, ,
-5, ,29, ,
-5, ,29, ,
-5, ,30, ,
-5, ,30, ,
-5, ,30, ,
-5, ,30, ,
-6, ,30, ,
-6, ,30, ,
-6, ,29, ,
-5, ,29, ,
-4, ,30, ,
-4, ,29, ,
-3, ,29, ,
-3, ,29, ,
-2, ,30, ,
-1, ,30, ,
0, ,30, ,
0, ,30, ,
1, ,30, ,
1, ,30, ,
2, ,30, ,
2, ,30, ,
2, ,30, ,
2, ,30, ,
2, ,30, ,
2, ,30, ,
2, ,30, ,
1, ,30, ,
1, ,30, ,
1, ,30, ,
1, ,30, ,
1, ,30, ,
1, ,30, ,
1, ,30, ,
1, ,30, ,
1, ,30, ,
1, ,30, ,
1, ,30, ,
1, ,30, ,
1, ,30, ,
1, ,30, ,
1, ,30, ,
2, ,30, ,
2, ,30, ,
2, ,30, ,
2, ,30, ,
2, ,30, ,
4, ,30, ,
4, ,30, ,
4, ,30, ,
5, ,30, ,
5, ,30, ,
6, ,30, ,
6, ,30, ,
6, ,30, ,
6, ,30, ,
5, ,30, ,
5, ,30, ,
4, ,30, ,
3, ,30, ,
3, ,30, ,
2, ,30, ,
0, ,30, ,
-1, ,30, ,
-2, ,30, ,
-3, ,30, ,
-5, ,30, ,
-6, ,30, ,
-7, ,30, ,
-8, ,30, ,
-9, ,30, ,
-9, ,30, ,
-9, ,30, ,
-9, ,30, ,
-8, ,30, ,
-8, ,30, ,
-8, ,30, ,
-7, ,30, ,
-5, ,30, ,
-3, ,30, ,
-3, ,30, ,
-1, ,30, ,
1, ,30, ,
2, ,30, ,
3, ,30, ,
4, ,30, ,
4, ,30, ,
5, ,30, ,
5, ,29, ,
5, ,29, ,
6, ,30, ,
5, ,30, ,
5, ,30, ,
4, ,30, ,
4, ,30, ,
3, ,30, ,
3, ,30, ,
3, ,30, ,
2, ,30, ,
1, ,30, ,
1, ,30, ,
1, ,30, ,
0, ,30, ,
0, ,30, ,
0, ,30, ,
0, ,30, ,
0, ,30, ,
0, ,30, ,
0, ,30, ,
0, ,30, ,
0, ,30, ,
0, ,30, ,
1, ,30, ,
1, ,30, ,
1, ,30, ,
1, ,30, ,
1, ,30, ,
1, ,30, ,
1, ,30, ,
1, ,30, ,
1, ,30, ,
1, ,30, ,
0, ,30, ,
-1, ,30, ,
-1, ,30, ,
-1, ,30, ,
-2, ,30, ,
-2, ,30, ,
-2, ,30, ,
-2, ,30, ,
-2, ,30, ,
-2, ,30, ,
-2, ,30, ,
-2, ,30, ,
0, ,30, ,
1, ,30, ,
2, ,30, ,
2, ,30, ,
5, ,30, ,
5, ,30, ,
7, ,30, ,
8, ,30, ,
10, ,30, ,
11, ,30, ,
11, ,30, ,
12, ,30, ,
11, ,30, ,
11, ,30, ,
10, ,30, ,
9, ,30, ,
7, ,30, ,
5, ,30, ,
3, ,30, ,
2, ,29, ,
-2, ,29, ,
-5, ,30, ,
-6, ,30, ,
-8, ,30, ,
-12, ,30, ,
-13, ,30, ,
-15, ,30, ,
-15, ,30, ,
-15, ,30, ,
-15, ,30, ,
-15, ,30, ,
-15, ,30, ,
-13, ,30, ,
-11, ,30, ,
-11, ,30, ,
-9, ,30, ,
-5, ,30, ,
-4, ,30, ,
-2, ,30, ,
0, ,30, ,
3, ,30, ,
4, ,30, ,
5, ,30, ,
6, ,30, ,
7, ,30, ,
7, ,30, ,
7, ,30, ,
7, ,30, ,
6, ,30, ,
6, ,30, ,
5, ,30, ,
4, ,30, ,
3, ,29, ,
2, ,29, ,
2, ,29, ,
1, ,29, ,
0, ,30, ,
0, ,30, ,
0, ,30, ,
0, ,30, ,
0, ,30, ,
0, ,30, ,
0, ,30, ,
0, ,29, ,
0, ,29, ,
0, ,30, ,
0, ,30, ,
0, ,30, ,
0, ,30, ,
0, ,30, ,
0, ,30, ,
0, ,30, ,
0, ,30, ,
1, ,30, ,
1, ,30, ,
1, ,30, ,
1, ,30, ,
1, ,30, ,
1, ,30, ,
0, ,30, ,
0, ,30, ,
0, ,30, ,
0, ,30, ,
0, ,30, ,
0, ,30, ,
0, ,30, ,
-1, ,30, ,
-1, ,30, ,
-2, ,30, ,
-2, ,30, ,
-2, ,30, ,
-3, ,30, ,
-3, ,30, ,
-4, ,30, ,
-4, ,30, ,
-5, ,30, ,
-5, ,30, ,
-6, ,30, ,
-6, ,30, ,
-6, ,30, ,
-7, ,30, ,
-7, ,30, ,
-7, ,30, ,
-8, ,30, ,
-8, ,30, ,
-7, ,30, ,
-7, ,30, ,
-6, ,30, ,
-5, ,30, ,
-4, ,30, ,
-2, ,30, ,
-1, ,30, ,
1, ,29, ,
3, ,29, ,
4, ,30, ,
5, ,30, ,
8, ,30, ,
8, ,29, ,
10, ,29, ,
10, ,29, ,
10, ,30, ,
10, ,30, ,
10, ,30, ,
10, ,30, ,
9, ,30, ,
8, ,30, ,
8, ,30, ,
7, ,30, ,
5, ,30, ,
4, ,30, ,
4, ,30, ,
2, ,30, ,
1, ,30, ,
1, ,30, ,
1, ,30, ,
0, ,30, ,
-1, ,30, ,
-1, ,30, ,
-1, ,30, ,
-1, ,30, ,
-1, ,30, ,
-2, ,30, ,
-2, ,30, ,
-2, ,30, ,
-2, ,30, ,
-2, ,30, ,
-2, ,30, ,
-2, ,30, ,
-2, ,30, ,
-3, ,30, ,
-4, ,30, ,
-4, ,30, ,
-5, ,30, ,
-6, ,30, ,
-6, ,30, ,
-7, ,30, ,
-7, ,30, ,
-7, ,30, ,
-7, ,30, ,
-7, ,30, ,
-7, ,29, ,
-6, ,29, ,
-7, ,30, ,
-5, ,30, ,
-4, ,30, ,
-3, ,30, ,
-2, ,30, ,
-1, ,30, ,
1, ,30, ,
2, ,30, ,
3, ,30, ,
4, ,30, ,
6, ,30, ,
7, ,30, ,
7, ,30, ,
7, ,30, ,
8, ,30, ,
8, ,30, ,
7, ,30, ,
7, ,30, ,
6, ,30, ,
5, ,29, ,
4, ,29, ,
3, ,29, ,
1, ,30, ,
-1, ,30, ,
-2, ,30, ,
-3, ,30, ,
-5, ,30, ,
-6, ,30, ,
-6, ,30, ,
-7, ,30, ,
-8, ,30, ,
-8, ,30, ,
-8, ,30, ,
-8, ,30, ,
-8, ,30, ,
-7, ,30, ,
-6, ,30, ,
-5, ,30, ,
