raw_data/75% Glycerol, Impulsion 2Hz, Sonde 5MHz, Rampe 0.7Hz/temp0000053.CSV

Format,1.0B,
Memory Length,10000,Memory Length,10000,
IntpDistance,0,IntpDistance,0,
Trigger Address,159,Trigger Address,159,
Trigger Level,2.720E-01,Trigger Level,2.720E-01,
Source,CH1,Source,CH2,
Vertical Units,V,Vertical Units,V,
Vertical Units Div,0,Vertical Units Div,0,
Vertical Units Extend Div,16,Vertical Units Extend Div,16,
Label,,Label,,
Probe Type,0,Probe Type,0,
Probe Ratio,1.000e+00,Probe Ratio,1.000e+00,
Vertical Scale,5.000e-01,Vertical Scale,2.000e+00,
Vertical Position,0.000e+00,Vertical Position,0.000e+00,
Horizontal Units,S,Horizontal Units,S,
Horizontal Scale,5.000E-06,Horizontal Scale,5.000E-06,
Horizontal Position,2.420E-05,Horizontal Position,2.420E-05,
Horizontal Mode,Main,Horizontal Mode,Main,
SincET Mode,Real Time,SincET Mode,Real Time,
Sampling Period,5.000e-09,Sampling Period,5.000e-09,
Horizontal Old Scale,5.000E-06,Horizontal Old Scale,5.000E-06,
Horizontal Old Position,2.420E-05,Horizontal Old Position,2.420E-05,
Firmware,V1.32,Firmware,V1.32,
Mode,Fast,Mode,Fast,
Waveform Data,,Waveform Data,,
0, ,8, ,
0, ,8, ,
1, ,9, ,
1, ,9, ,
1, ,9, ,
0, ,9, ,
0, ,8, ,
1, ,8, ,
0, ,8, ,
0, ,8, ,
0, ,8, ,
0, ,8, ,
1, ,8, ,
1, ,8, ,
0, ,8, ,
0, ,9, ,
0, ,9, ,
1, ,9, ,
1, ,9, ,
1, ,8, ,
1, ,8, ,
1, ,9, ,
1, ,9, ,
1, ,8, ,
1, ,8, ,
0, ,8, ,
0, ,8, ,
0, ,8, ,
1, ,9, ,
1, ,9, ,
1, ,9, ,
1, ,9, ,
1, ,9, ,
0, ,9, ,
0, ,9, ,
0, ,8, ,
1, ,8, ,
1, ,9, ,
1, ,8, ,
1, ,8, ,
1, ,9, ,
1, ,8, ,
1, ,8, ,
1, ,8, ,
1, ,8, ,
1, ,8, ,
0, ,8, ,
0, ,9, ,
0, ,8, ,
0, ,8, ,
1, ,9, ,
1, ,8, ,
1, ,8, ,
0, ,8, ,
0, ,9, ,
1, ,9, ,
1, ,9, ,
1, ,8, ,
1, ,8, ,
1, ,8, ,
0, ,8, ,
0, ,8, ,
1, ,8, ,
1, ,9, ,
1, ,9, ,
1, ,9, ,
1, ,9, ,
0, ,8, ,
0, ,8, ,
1, ,9, ,
1, ,9, ,
1, ,9, ,
1, ,9, ,
1, ,8, ,
1, ,8, ,
0, ,8, ,
0, ,9, ,
1, ,9, ,
1, ,9, ,
1, ,9, ,
1, ,9, ,
0, ,9, ,
0, ,9, ,
0, ,8, ,
0, ,8, ,
1, ,8, ,
0, ,8, ,
0, ,8, ,
0, ,9, ,
1, ,9, ,
1, ,9, ,
1, ,9, ,
1, ,9, ,
1, ,8, ,
1, ,8, ,
1, ,8, ,
1, ,8, ,
1, ,8, ,
1, ,9, ,
0, ,9, ,
0, ,9, ,
1, ,9, ,
1, ,8, ,
1, ,8, ,
1, ,8, ,
1, ,8, ,
1, ,8, ,
0, ,8, ,
0, ,8, ,
1, ,8, ,
0, ,8, ,
0, ,9, ,
0, ,8, ,
0, ,8, ,
1, ,8, ,
0, ,8, ,
0, ,8, ,
0, ,8, ,
0, ,8, ,
1, ,8, ,
1, ,9, ,
0, ,9, ,
0, ,9, ,
0, ,9, ,
0, ,8, ,
1, ,8, ,
1, ,8, ,
1, ,9, ,
0, ,9, ,
0, ,9, ,
0, ,9, ,
0, ,9, ,
0, ,8, ,
0, ,8, ,
0, ,8, ,
0, ,9, ,
0, ,9, ,
0, ,8, ,
1, ,8, ,
0, ,8, ,
0, ,8, ,
0, ,8, ,
0, ,8, ,
0, ,8, ,
0, ,8, ,
0, ,8, ,
1, ,9, ,
0, ,8, ,
0, ,8, ,
0, ,9, ,
0, ,8, ,
0, ,8, ,
0, ,8, ,
0, ,8, ,
0, ,8, ,
0, ,8, ,
1, ,8, ,
0, ,8, ,
0, ,8, ,
0, ,9, ,
0, ,8, ,
1, ,8, ,
0, ,8, ,
0, ,8, ,
0, ,9, ,
1, ,9, ,
-2, ,8, ,
6, ,8, ,
25, ,9, ,
99, ,9, ,
125, ,9, ,
123, ,8, ,
120, ,8, ,
19, ,8, ,
-8, ,8, ,
21, ,9, ,
75, ,8, ,
125, ,8, ,
125, ,9, ,
125, ,8, ,
125, ,8, ,
125, ,8, ,
125, ,8, ,
124, ,8, ,
124, ,8, ,
113, ,9, ,
108, ,8, ,
104, ,8, ,
102, ,9, ,
96, ,9, ,
92, ,8, ,
89, ,8, ,
84, ,9, ,
78, ,8, ,
75, ,8, ,
73, ,8, ,
71, ,8, ,
65, ,8, ,
62, ,8, ,
60, ,9, ,
57, ,9, ,
52, ,8, ,
50, ,8, ,
48, ,8, ,
46, ,8, ,
42, ,8, ,
40, ,8, ,
39, ,8, ,
36, ,9, ,
34, ,8, ,
33, ,8, ,
31, ,8, ,
29, ,8, ,
27, ,8, ,
25, ,8, ,
25, ,8, ,
24, ,8, ,
21, ,8, ,
21, ,8, ,
20, ,8, ,
20, ,9, ,
18, ,9, ,
16, ,9, ,
16, ,9, ,
15, ,8, ,
13, ,8, ,
13, ,8, ,
12, ,8, ,
11, ,8, ,
10, ,8, ,
9, ,9, ,
9, ,9, ,
8, ,9, ,
7, ,8, ,
7, ,8, ,
6, ,8, ,
6, ,8, ,
6, ,9, ,
5, ,9, ,
5, ,9, ,
4, ,8, ,
4, ,8, ,
4, ,9, ,
3, ,8, ,
3, ,8, ,
2, ,9, ,
2, ,8, ,
2, ,8, ,
2, ,9, ,
1, ,9, ,
1, ,9, ,
1, ,9, ,
1, ,8, ,
1, ,8, ,
0, ,8, ,
0, ,9, ,
0, ,9, ,
0, ,9, ,
0, ,9, ,
-1, ,8, ,
-1, ,8, ,
-1, ,9, ,
-1, ,8, ,
-1, ,8, ,
-1, ,9, ,
-1, ,9, ,
-1, ,8, ,
-1, ,8, ,
-1, ,8, ,
-1, ,9, ,
-2, ,8, ,
-2, ,8, ,
-2, ,8, ,
-2, ,8, ,
-2, ,9, ,
-2, ,8, ,
-1, ,8, ,
-1, ,9, ,
-1, ,8, ,
-1, ,8, ,
-1, ,9, ,
-1, ,8, ,
-1, ,8, ,
-2, ,8, ,
-2, ,8, ,
-1, ,8, ,
-1, ,8, ,
-1, ,9, ,
-1, ,8, ,
-1, ,8, ,
-1, ,9, ,
-1, ,9, ,
-1, ,8, ,
-2, ,8, ,
-2, ,8, ,
-2, ,8, ,
-2, ,8, ,
-1, ,8, ,
-1, ,8, ,
-1, ,8, ,
-1, ,9, ,
-1, ,9, ,
-1, ,8, ,
-1, ,8, ,
-1, ,9, ,
-1, ,8, ,
-1, ,8, ,
-1, ,8, ,
-1, ,8, ,
-1, ,9, ,
-1, ,9, ,
-1, ,9, ,
-1, ,8, ,
-1, ,8, ,
-1, ,8, ,
-1, ,8, ,
-1, ,8, ,
-1, ,8, ,
-1, ,8, ,
-1, ,9, ,
-1, ,8, ,
-1, ,8, ,
-1, ,8, ,
-1, ,8, ,
-1, ,8, ,
0, ,9, ,
-1, ,8, ,
-1, ,8, ,
-1, ,8, ,
-1, ,8, ,
0, ,8, ,
0, ,8, ,
0, ,9, ,
0, ,9, ,
0, ,9, ,
0, ,9, ,
0, ,8, ,
0, ,8, ,
0, ,9, ,
0, ,8, ,
0, ,8, ,
0, ,9, ,
0, ,8, ,
0, ,8, ,
0, ,9, ,
0, ,8, ,
0, ,8, ,
0, ,8, ,
0, ,8, ,
0, ,8, ,
0, ,8, ,
0, ,8, ,
0, ,8, ,
0, ,8, ,
0, ,8, ,
0, ,8, ,
0, ,8, ,
0, ,8, ,
0, ,8, ,
0, ,8, ,
0, ,9, ,
0, ,9, ,
0, ,9, ,
0, ,9, ,
0, ,8, ,
0, ,8, ,
0, ,8, ,
0, ,8, ,
0, ,8, ,
0, ,8, ,
0, ,8, ,
0, ,8, ,
0, ,8, ,
0, ,8, ,
0, ,8, ,
0, ,8, ,
0, ,9, ,
0, ,8, ,
0, ,8, ,
0, ,8, ,
0, ,8, ,
0, ,8, ,
0, ,8, ,
0, ,9, ,
0, ,8, ,
0, ,8, ,
0, ,8, ,
0, ,8, ,
0, ,8, ,
0, ,8, ,
0, ,8, ,
0, ,9, ,
0, ,8, ,
0, ,8, ,
0, ,8, ,
0, ,8, ,
0, ,8, ,
0, ,8, ,
0, ,8, ,
0, ,9, ,
0, ,8, ,
1, ,8, ,
1, ,9, ,
0, ,8, ,
0, ,8, ,
0, ,9, ,
0, ,9, ,
0, ,9, ,
0, ,8, ,
0, ,8, ,
0, ,9, ,
0, ,8, ,
0, ,8, ,
0, ,8, ,
0, ,8, ,
1, ,8, ,
1, ,9, ,
1, ,9, ,
1, ,9, ,
1, ,8, ,
1, ,8, ,
1, ,9, ,
0, ,9, ,
0, ,8, ,
0, ,8, ,
0, ,8, ,
0, ,8, ,
0, ,8, ,
0, ,8, ,
0, ,8, ,
0, ,8, ,
1, ,8, ,
0, ,8, ,
0, ,8, ,
0, ,9, ,
0, ,8, ,
0, ,8, ,
-1, ,8, ,
-2, ,8, ,
-2, ,8, ,
-3, ,8, ,
-5, ,8, ,
-6, ,8, ,
-9, ,8, ,
-9, ,8, ,
-11, ,8, ,
-10, ,8, ,
-9, ,8, ,
-8, ,8, ,
-5, ,8, ,
-3, ,9, ,
-3, ,8, ,
-1, ,8, ,
0, ,8, ,
0, ,8, ,
1, ,8, ,
1, ,8, ,
1, ,8, ,
1, ,8, ,
1, ,8, ,
1, ,8, ,
0, ,8, ,
-1, ,8, ,
-2, ,8, ,
-2, ,9, ,
-2, ,9, ,
-2, ,9, ,
-2, ,9, ,
-1, ,9, ,
0, ,9, ,
1, ,8, ,
1, ,8, ,
1, ,8, ,
3, ,8, ,
3, ,8, ,
3, ,8, ,
3, ,8, ,
3, ,8, ,
3, ,8, ,
3, ,8, ,
3, ,9, ,
3, ,8, ,
3, ,8, ,
2, ,8, ,
2, ,8, ,
2, ,9, ,
2, ,8, ,
2, ,8, ,
2, ,8, ,
2, ,8, ,
3, ,8, ,
2, ,8, ,
2, ,9, ,
3, ,9, ,
2, ,9, ,
2, ,9, ,
2, ,8, ,
1, ,8, ,
1, ,8, ,
1, ,8, ,
1, ,8, ,
0, ,8, ,
0, ,8, ,
0, ,9, ,
-1, ,8, ,
-1, ,8, ,
-1, ,8, ,
-1, ,8, ,
0, ,8, ,
0, ,9, ,
0, ,9, ,
1, ,9, ,
1, ,8, ,
1, ,8, ,
1, ,9, ,
1, ,8, ,
1, ,8, ,
1, ,9, ,
0, ,8, ,
0, ,8, ,
-1, ,9, ,
-2, ,9, ,
-3, ,8, ,
-4, ,8, ,
-5, ,8, ,
-9, ,8, ,
-11, ,8, ,
-12, ,8, ,
-14, ,8, ,
-17, ,8, ,
-17, ,8, ,
-18, ,8, ,
-18, ,9, ,
-17, ,9, ,
-17, ,9, ,
-16, ,8, ,
-16, ,8, ,
-16, ,8, ,
-16, ,9, ,
-17, ,9, ,
-17, ,9, ,
-20, ,8, ,
-21, ,8, ,
-22, ,8, ,
-24, ,8, ,
-25, ,8, ,
-25, ,9, ,
-25, ,8, ,
-24, ,8, ,
-21, ,8, ,
-20, ,9, ,
-19, ,9, ,
-17, ,9, ,
-15, ,8, ,
-14, ,8, ,
-13, ,8, ,
-13, ,8, ,
-13, ,8, ,
-14, ,8, ,
-14, ,9, ,
-16, ,8, ,
-18, ,8, ,
-18, ,8, ,
-19, ,8, ,
-20, ,8, ,
-21, ,9, ,
-21, ,8, ,
-21, ,8, ,
-22, ,9, ,
-22, ,8, ,
-22, ,8, ,
-22, ,8, ,
-22, ,8, ,
-22, ,8, ,
-22, ,8, ,
-22, ,9, ,
-22, ,8, ,
-21, ,8, ,
-19, ,8, ,
-18, ,8, ,
-17, ,8, ,
-13, ,8, ,
-11, ,8, ,
-8, ,8, ,
-6, ,8, ,
-1, ,8, ,
2, ,8, ,
4, ,8, ,
6, ,8, ,
9, ,8, ,
10, ,9, ,
10, ,9, ,
10, ,8, ,
10, ,8, ,
10, ,8, ,
9, ,8, ,
8, ,8, ,
6, ,8, ,
5, ,8, ,
4, ,8, ,
4, ,8, ,
2, ,8, ,
2, ,8, ,
2, ,8, ,
3, ,8, ,
4, ,9, ,
5, ,8, ,
6, ,8, ,
7, ,8, ,
10, ,8, ,
11, ,8, ,
12, ,8, ,
13, ,8, ,
14, ,9, ,
14, ,8, ,
15, ,8, ,
15, ,9, ,
14, ,8, ,
13, ,8, ,
13, ,8, ,
12, ,8, ,
10, ,8, ,
8, ,8, ,
6, ,8, ,
4, ,8, ,
0, ,8, ,
-2, ,8, ,
-4, ,8, ,
-6, ,8, ,
-8, ,8, ,
-10, ,8, ,
-10, ,8, ,
-11, ,8, ,
-11, ,8, ,
-10, ,8, ,
-10, ,8, ,
-10, ,8, ,
-10, ,8, ,
-11, ,8, ,
-11, ,9, ,
-11, ,9, ,
-12, ,8, ,
-13, ,8, ,
-15, ,8, ,
-15, ,8, ,
-17, ,8, ,
-19, ,8, ,
-20, ,8, ,
-21, ,8, ,
-24, ,8, ,
-24, ,8, ,
-25, ,8, ,
-25, ,8, ,
-26, ,8, ,
-27, ,8, ,
-27, ,8, ,
-27, ,8, ,
-26, ,8, ,
-25, ,8, ,
-25, ,8, ,
-23, ,8, ,
-19, ,8, ,
-17, ,8, ,
-15, ,8, ,
-13, ,8, ,
-8, ,8, ,
-7, ,8, ,
-5, ,8, ,
-4, ,8, ,
-2, ,9, ,
-1, ,9, ,
-1, ,9, ,
-1, ,8, ,
0, ,8, ,
0, ,8, ,
0, ,8, ,
0, ,9, ,
0, ,9, ,
0, ,8, ,
0, ,8, ,
0, ,8, ,
-1, ,8, ,
-2, ,8, ,
-2, ,8, ,
-2, ,8, ,
-3, ,9, ,
-3, ,9, ,
-3, ,9, ,
-3, ,8, ,
-3, ,8, ,
-3, ,9, ,
-3, ,8, ,
-3, ,8, ,
-4, ,8, ,
-4, ,8, ,
-4, ,8, ,
-5, ,9, ,
-6, ,8, ,
-6, ,8, ,
-7, ,8, ,
-8, ,8, ,
-9, ,8, ,
-10, ,8, ,
-10, ,8, ,
-11, ,9, ,
-11, ,9, ,
-11, ,9, ,
-11, ,9, ,
-11, ,9, ,
-11, ,9, ,
-11, ,8, ,
-11, ,8, ,
-11, ,8, ,
-11, ,8, ,
-10, ,8, ,
-10, ,8, ,
-9, ,8, ,
-8, ,8, ,
-7, ,8, ,
-6, ,8, ,
-5, ,8, ,
-2, ,8, ,
0, ,8, ,
1, ,8, ,
3, ,9, ,
7, ,8, ,
9, ,8, ,
10, ,8, ,
12, ,8, ,
13, ,9, ,
16, ,9, ,
16, ,9, ,
17, ,8, ,
18, ,8, ,
18, ,8, ,
18, ,8, ,
17, ,9, ,
16, ,9, ,
15, ,9, ,
14, ,8, ,
13, ,8, ,
11, ,8, ,
8, ,8, ,
6, ,8, ,
4, ,9, ,
0, ,9, ,
-2, ,9, ,
-4, ,9, ,
-7, ,8, ,
-11, ,8, ,
-13, ,8, ,
-14, ,8, ,
-16, ,8, ,
-18, ,8, ,
-18, ,8, ,
-19, ,8, ,
-19, ,8, ,
-18, ,8, ,
-17, ,8, ,
-17, ,8, ,
-17, ,9, ,
-14, ,8, ,
-12, ,8, ,
-11, ,8, ,
-9, ,8, ,
-6, ,8, ,
-6, ,8, ,
-4, ,8, ,
-4, ,8, ,
-2, ,8, ,
-2, ,8, ,
-2, ,8, ,
-2, ,8, ,
-3, ,8, ,
-4, ,8, ,
-4, ,8, ,
-5, ,8, ,
-7, ,8, ,
-8, ,9, ,
-10, ,9, ,
-11, ,8, ,
-13, ,8, ,
-14, ,8, ,
-15, ,9, ,
-16, ,8, ,
-17, ,8, ,
-18, ,8, ,
-18, ,8, ,
-18, ,8, ,
-18, ,8, ,
-18, ,8, ,
-18, ,8, ,
-18, ,8, ,
-17, ,8, ,
-17, ,8, ,
-16, ,8, ,
-16, ,8, ,
-15, ,8, ,
-15, ,8, ,
-15, ,8, ,
-15, ,8, ,
-16, ,8, ,
-16, ,9, ,
-17, ,8, ,
-17, ,8, ,
-19, ,9, ,
-19, ,8, ,
-20, ,8, ,
-20, ,9, ,
-20, ,9, ,
-20, ,9, ,
-20, ,8, ,
-19, ,8, ,
-18, ,8, ,
-17, ,8, ,
-16, ,8, ,
-15, ,8, ,
-12, ,8, ,
-11, ,9, ,
-10, ,8, ,
-8, ,8, ,
-5, ,8, ,
-4, ,8, ,
-2, ,8, ,
-1, ,8, ,
2, ,8, ,
4, ,9, ,
5, ,8, ,
7, ,8, ,
9, ,8, ,
10, ,8, ,
11, ,9, ,
11, ,8, ,
12, ,8, ,
13, ,8, ,
12, ,8, ,
12, ,8, ,
12, ,9, ,
12, ,9, ,
12, ,9, ,
12, ,8, ,
11, ,8, ,
11, ,8, ,
11, ,8, ,
11, ,8, ,
11, ,8, ,
11, ,8, ,
11, ,8, ,
11, ,8, ,
11, ,8, ,
11, ,9, ,
11, ,9, ,
11, ,8, ,
10, ,8, ,
9, ,8, ,
9, ,8, ,
8, ,8, ,
7, ,8, ,
6, ,8, ,
5, ,8, ,
5, ,8, ,
3, ,8, ,
2, ,8, ,
1, ,8, ,
0, ,8, ,
0, ,8, ,
0, ,9, ,
0, ,8, ,
0, ,8, ,
1, ,8, ,
1, ,8, ,
1, ,8, ,
1, ,8, ,
2, ,8, ,
1, ,8, ,
1, ,8, ,
0, ,8, ,
-1, ,9, ,
-2, ,9, ,
-3, ,9, ,
-5, ,8, ,
-7, ,8, ,
-9, ,8, ,
-11, ,8, ,
-12, ,8, ,
-16, ,9, ,
-19, ,9, ,
-21, ,8, ,
-22, ,8, ,
-25, ,9, ,
-25, ,8, ,
-27, ,8, ,
-28, ,8, ,
-28, ,8, ,
-29, ,8, ,
-28, ,9, ,
-28, ,8, ,
-26, ,8, ,
-25, ,8, ,
-24, ,8, ,
-23, ,8, ,
-19, ,8, ,
-18, ,8, ,
-16, ,8, ,
-15, ,9, ,
-11, ,8, ,
-9, ,8, ,
-8, ,8, ,
-7, ,8, ,
-4, ,8, ,
-4, ,8, ,
-4, ,9, ,
-4, ,8, ,
-4, ,8, ,
-4, ,9, ,
-5, ,8, ,
-5, ,8, ,
-6, ,9, ,
-6, ,9, ,
-6, ,9, ,
-7, ,9, ,
-7, ,8, ,
-7, ,8, ,
-7, ,8, ,
-6, ,8, ,
-6, ,8, ,
-6, ,8, ,
-6, ,9, ,
-6, ,8, ,
-5, ,8, ,
-5, ,8, ,
-6, ,9, ,
-6, ,9, ,
-7, ,9, ,
-8, ,8, ,
-8, ,8, ,
-9, ,8, ,
-10, ,8, ,
-10, ,8, ,
-10, ,8, ,
-10, ,9, ,
-10, ,8, ,
-10, ,8, ,
-9, ,8, ,
-9, ,8, ,
-9, ,8, ,
-7, ,9, ,
-7, ,8, ,
-6, ,8, ,
-4, ,8, ,
-4, ,8, ,
-3, ,8, ,
-2, ,8, ,
0, ,8, ,
1, ,9, ,
2, ,8, ,
4, ,8, ,
5, ,8, ,
6, ,8, ,
7, ,8, ,
7, ,8, ,
7, ,8, ,
8, ,8, ,
8, ,8, ,
8, ,8, ,
8, ,8, ,
8, ,8, ,
8, ,8, ,
7, ,8, ,
6, ,9, ,
6, ,9, ,
5, ,9, ,
5, ,8, ,
5, ,8, ,
4, ,8, ,
4, ,8, ,
4, ,8, ,
5, ,8, ,
5, ,8, ,
5, ,8, ,
5, ,8, ,
5, ,9, ,
5, ,9, ,
5, ,8, ,
6, ,8, ,
5, ,9, ,
5, ,8, ,
4, ,8, ,
4, ,8, ,
2, ,8, ,
1, ,8, ,
0, ,9, ,
-1, ,8, ,
-4, ,8, ,
-4, ,8, ,
-7, ,8, ,
-7, ,8, ,
-10, ,8, ,
-12, ,9, ,
-12, ,9, ,
-13, ,9, ,
-15, ,8, ,
-15, ,8, ,
-15, ,8, ,
-15, ,8, ,
-14, ,8, ,
-14, ,8, ,
-14, ,8, ,
-14, ,9, ,
-12, ,9, ,
-10, ,9, ,
-9, ,8, ,
-8, ,8, ,
-5, ,8, ,
-4, ,8, ,
-2, ,8, ,
-1, ,8, ,
1, ,9, ,
2, ,9, ,
3, ,9, ,
4, ,9, ,
4, ,8, ,
3, ,8, ,
4, ,8, ,
1, ,8, ,
0, ,8, ,
0, ,9, ,
-2, ,8, ,
-2, ,8, ,
-4, ,9, ,
-6, ,8, ,
-6, ,8, ,
-6, ,9, ,
-6, ,8, ,
-6, ,8, ,
-6, ,8, ,
-6, ,9, ,
-5, ,9, ,
-4, ,9, ,
-3, ,9, ,
-3, ,9, ,
-2, ,9, ,
-2, ,9, ,
-1, ,8, ,
-1, ,8, ,
0, ,8, ,
0, ,8, ,
0, ,8, ,
0, ,9, ,
1, ,8, ,
2, ,8, ,
2, ,8, ,
3, ,8, ,
4, ,8, ,
4, ,8, ,
5, ,9, ,
5, ,8, ,
5, ,8, ,
6, ,9, ,
6, ,9, ,
6, ,8, ,
7, ,8, ,
7, ,8, ,
7, ,8, ,
7, ,9, ,
6, ,8, ,
6, ,8, ,
6, ,8, ,
5, ,8, ,
4, ,8, ,
4, ,8, ,
3, ,8, ,
1, ,8, ,
0, ,8, ,
-1, ,8, ,
-3, ,8, ,
-4, ,8, ,
-6, ,8, ,
-7, ,8, ,
-8, ,8, ,
-9, ,9, ,
-11, ,9, ,
-11, ,9, ,
-11, ,9, ,
-11, ,8, ,
-10, ,8, ,
-10, ,8, ,
-10, ,8, ,
-9, ,9, ,
-8, ,8, ,
-6, ,8, ,
-5, ,8, ,
-5, ,8, ,
-2, ,8, ,
-1, ,8, ,
0, ,8, ,
1, ,9, ,
3, ,8, ,
4, ,8, ,
4, ,8, ,
5, ,8, ,
5, ,9, ,
5, ,9, ,
5, ,9, ,
4, ,8, ,
2, ,8, ,
2, ,9, ,
0, ,8, ,
-1, ,8, ,
-3, ,8, ,
-5, ,8, ,
-6, ,8, ,
-7, ,9, ,
-9, ,8, ,
-9, ,8, ,
-9, ,8, ,
-9, ,8, ,
-9, ,8, ,
-9, ,8, ,
-7, ,8, ,
-7, ,8, ,
-5, ,8, ,
-4, ,9, ,
-3, ,9, ,
-1, ,9, ,
2, ,9, ,
3, ,9, ,
4, ,9, ,
4, ,8, ,
5, ,8, ,
6, ,9, ,
6, ,9, ,
6, ,9, ,
6, ,9, ,
4, ,8, ,
4, ,8, ,
3, ,9, ,
1, ,9, ,
1, ,9, ,
0, ,8, ,
-1, ,8, ,
-3, ,9, ,
-3, ,9, ,
-4, ,9, ,
-5, ,9, ,
-6, ,9, ,
-6, ,9, ,
-7, ,9, ,
-7, ,8, ,
-7, ,8, ,
-7, ,8, ,
-7, ,9, ,
-7, ,8, ,
-6, ,8, ,
-4, ,9, ,
-4, ,9, ,
-2, ,8, ,
1, ,8, ,
2, ,8, ,
3, ,9, ,
5, ,9, ,
8, ,9, ,
10, ,9, ,
9, ,8, ,
12, ,8, ,
12, ,8, ,
12, ,8, ,
13, ,8, ,
12, ,8, ,
11, ,8, ,
10, ,9, ,
8, ,8, ,
7, ,8, ,
4, ,8, ,
2, ,8, ,
1, ,8, ,
-1, ,8, ,
-5, ,8, ,
-6, ,8, ,
-8, ,8, ,
-8, ,9, ,
-10, ,9, ,
-11, ,8, ,
-11, ,8, ,
-11, ,8, ,
-11, ,8, ,
-10, ,8, ,
-10, ,8, ,
-9, ,8, ,
-7, ,8, ,
-6, ,8, ,
-5, ,8, ,
-5, ,9, ,
-3, ,9, ,
-2, ,9, ,
-2, ,9, ,
-2, ,8, ,
-2, ,8, ,
-2, ,8, ,
-2, ,9, ,
-3, ,9, ,
-4, ,9, ,
-4, ,9, ,
-6, ,9, ,
-6, ,8, ,
-8, ,8, ,
-10, ,8, ,
-10, ,9, ,
-12, ,8, ,
-13, ,8, ,
-13, ,8, ,
-14, ,8, ,
-14, ,9, ,
-13, ,9, ,
-13, ,9, ,
-12, ,9, ,
-12, ,8, ,
-10, ,8, ,
-9, ,9, ,
-9, ,9, ,
-7, ,9, ,
-3, ,9, ,
-3, ,8, ,
-1, ,8, ,
0, ,9, ,
4, ,9, ,
5, ,9, ,
7, ,8, ,
8, ,8, ,
10, ,8, ,
10, ,8, ,
11, ,8, ,
11, ,8, ,
10, ,8, ,
10, ,9, ,
9, ,8, ,
9, ,8, ,
7, ,9, ,
6, ,9, ,
5, ,9, ,
3, ,9, ,
2, ,8, ,
1, ,8, ,
0, ,8, ,
0, ,8, ,
-1, ,8, ,
0, ,8, ,
0, ,9, ,
0, ,8, ,
0, ,8, ,
1, ,9, ,
1, ,9, ,
1, ,9, ,
1, ,9, ,
1, ,9, ,
0, ,9, ,
0, ,9, ,
-2, ,8, ,
-3, ,8, ,
-5, ,8, ,
-6, ,8, ,
-9, ,8, ,
-11, ,8, ,
-12, ,9, ,
-13, ,8, ,
-16, ,8, ,
-16, ,9, ,
-18, ,8, ,
-18, ,8, ,
-17, ,9, ,
-17, ,9, ,
-16, ,9, ,
-16, ,8, ,
-14, ,8, ,
-12, ,9, ,
-10, ,9, ,
-8, ,8, ,
-6, ,8, ,
-5, ,8, ,
-3, ,9, ,
-2, ,8, ,
0, ,8, ,
1, ,8, ,
1, ,8, ,
2, ,8, ,
3, ,9, ,
4, ,9, ,
4, ,9, ,
4, ,9, ,
6, ,9, ,
6, ,9, ,
7, ,8, ,
8, ,8, ,
9, ,8, ,
9, ,8, ,
9, ,9, ,
9, ,9, ,
9, ,9, ,
9, ,9, ,
8, ,9, ,
8, ,9, ,
7, ,9, ,
6, ,9, ,
5, ,9, ,
5, ,9, ,
3, ,8, ,
3, ,8, ,
2, ,8, ,
2, ,9, ,
1, ,9, ,
0, ,9, ,
0, ,9, ,
0, ,9, ,
-1, ,9, ,
-1, ,9, ,
-2, ,9, ,
-2, ,9, ,
-3, ,9, ,
-4, ,9, ,
-4, ,9, ,
-5, ,9, ,
-6, ,8, ,
-7, ,8, ,
-7, ,8, ,
-7, ,8, ,
-8, ,8, ,
-8, ,8, ,
-8, ,9, ,
-8, ,9, ,
-8, ,9, ,
-8, ,8, ,
-8, ,8, ,
-7, ,8, ,
-7, ,9, ,
-6, ,9, ,
-6, ,9, ,
-6, ,8, ,
-5, ,8, ,
-4, ,8, ,
-3, ,8, ,
-2, ,8, ,
0, ,8, ,
0, ,8, ,
2, ,8, ,
3, ,9, ,
5, ,9, ,
7, ,9, ,
7, ,9, ,
8, ,8, ,
10, ,8, ,
10, ,8, ,
11, ,8, ,
11, ,8, ,
13, ,8, ,
13, ,9, ,
13, ,9, ,
12, ,8, ,
12, ,8, ,
11, ,8, ,
11, ,8, ,
10, ,9, ,
8, ,9, ,
8, ,9, ,
6, ,9, ,
5, ,9, ,
4, ,9, ,
1, ,8, ,
0, ,8, ,
-1, ,9, ,
-4, ,9, ,
-5, ,8, ,
-6, ,8, ,
-7, ,8, ,
-9, ,8, ,
-10, ,8, ,
-10, ,9, ,
-11, ,8, ,
-11, ,8, ,
-11, ,8, ,
-10, ,8, ,
-10, ,8, ,
-9, ,9, ,
-8, ,8, ,
-7, ,8, ,
-7, ,8, ,
-5, ,8, ,
-5, ,8, ,
-5, ,8, ,
-4, ,8, ,
-4, ,8, ,
-4, ,8, ,
-4, ,8, ,
-4, ,8, ,
-4, ,8, ,
-3, ,8, ,
-3, ,8, ,
-2, ,8, ,
-1, ,8, ,
-1, ,8, ,
1, ,9, ,
1, ,9, ,
3, ,9, ,
5, ,9, ,
6, ,9, ,
8, ,8, ,
9, ,8, ,
10, ,8, ,
11, ,9, ,
12, ,8, ,
12, ,8, ,
12, ,9, ,
11, ,9, ,
11, ,8, ,
9, ,8, ,
8, ,8, ,
6, ,8, ,
5, ,8, ,
2, ,9, ,
1, ,9, ,
-1, ,8, ,
-3, ,8, ,
-6, ,9, ,
-8, ,9, ,
-9, ,9, ,
-10, ,8, ,
-12, ,8, ,
-13, ,8, ,
-14, ,9, ,
-14, ,9, ,
-13, ,9, ,
-13, ,8, ,
-12, ,8, ,
-12, ,9, ,
-10, ,9, ,
-8, ,9, ,
-7, ,9, ,
-5, ,9, ,
-1, ,9, ,
0, ,9, ,
3, ,8, ,
3, ,8, ,
7, ,8, ,
9, ,9, ,
9, ,9, ,
9, ,8, ,
11, ,8, ,
10, ,9, ,
10, ,8, ,
9, ,8, ,
7, ,8, ,
7, ,8, ,
5, ,8, ,
5, ,9, ,
1, ,9, ,
0, ,9, ,
0, ,9, ,
-3, ,8, ,
-4, ,8, ,
-5, ,8, ,
-6, ,8, ,
-6, ,8, ,
-6, ,9, ,
-7, ,8, ,
-7, ,8, ,
-7, ,8, ,
-6, ,8, ,
-6, ,8, ,
-5, ,8, ,
-4, ,8, ,
-3, ,8, ,
-2, ,8, ,
-1, ,8, ,
0, ,8, ,
2, ,8, ,
3, ,8, ,
3, ,8, ,
4, ,8, ,
6, ,9, ,
6, ,8, ,
6, ,8, ,
6, ,8, ,
6, ,8, ,
6, ,9, ,
5, ,9, ,
5, ,9, ,
4, ,9, ,
3, ,9, ,
2, ,9, ,
1, ,8, ,
0, ,8, ,
0, ,8, ,
-1, ,9, ,
-1, ,9, ,
-2, ,9, ,
-2, ,9, ,
-2, ,9, ,
-1, ,9, ,
-1, ,8, ,
-1, ,8, ,
-1, ,8, ,
-2, ,8, ,
-2, ,8, ,
-2, ,8, ,
-2, ,8, ,
-3, ,8, ,
-4, ,8, ,
-5, ,9, ,
-6, ,8, ,
-6, ,8, ,
-6, ,8, ,
-7, ,8, ,
-7, ,9, ,
-7, ,9, ,
-7, ,9, ,
-6, ,9, ,
-6, ,9, ,
-5, ,8, ,
-4, ,8, ,
-2, ,8, ,
-1, ,8, ,
0, ,8, ,
3, ,8, ,
5, ,8, ,
6, ,8, ,
8, ,9, ,
11, ,9, ,
11, ,8, ,
12, ,8, ,
13, ,8, ,
14, ,8, ,
14, ,9, ,
15, ,9, ,
15, ,8, ,
14, ,8, ,
13, ,8, ,
12, ,9, ,
11, ,8, ,
8, ,8, ,
7, ,9, ,
5, ,8, ,
3, ,8, ,
0, ,9, ,
-2, ,9, ,
-4, ,8, ,
-5, ,8, ,
-9, ,8, ,
-9, ,8, ,
-11, ,8, ,
-11, ,9, ,
-13, ,9, ,
-13, ,9, ,
-13, ,9, ,
-13, ,8, ,
-12, ,8, ,
-10, ,8, ,
-10, ,9, ,
-9, ,9, ,
-6, ,9, ,
-5, ,9, ,
-4, ,8, ,
-3, ,8, ,
0, ,8, ,
2, ,8, ,
3, ,8, ,
4, ,8, ,
6, ,8, ,
6, ,8, ,
8, ,9, ,
8, ,8, ,
8, ,8, ,
8, ,8, ,
7, ,8, ,
7, ,8, ,
6, ,9, ,
5, ,9, ,
4, ,9, ,
3, ,9, ,
1, ,8, ,
1, ,8, ,
0, ,8, ,
0, ,8, ,
-2, ,8, ,
-3, ,8, ,
-3, ,9, ,
-3, ,8, ,
-2, ,8, ,
-2, ,8, ,
-2, ,9, ,
-2, ,8, ,
-1, ,8, ,
-1, ,8, ,
0, ,8, ,
0, ,8, ,
1, ,8, ,
1, ,8, ,
1, ,8, ,
1, ,8, ,
1, ,8, ,
1, ,8, ,
1, ,8, ,
0, ,9, ,
0, ,9, ,
0, ,9, ,
-1, ,9, ,
-1, ,9, ,
-1, ,9, ,
-1, ,9, ,
-1, ,9, ,
0, ,9, ,
0, ,8, ,
1, ,8, ,
1, ,8, ,
2, ,9, ,
2, ,9, ,
3, ,9, ,
3, ,9, ,
3, ,8, ,
3, ,8, ,
3, ,8, ,
2, ,8, ,
2, ,8, ,
1, ,9, ,
0, ,8, ,
0, ,8, ,
-1, ,8, ,
-3, ,8, ,
-3, ,8, ,
-4, ,8, ,
-5, ,9, ,
-7, ,9, ,
-8, ,8, ,
-9, ,8, ,
-9, ,9, ,
-9, ,9, ,
-9, ,9, ,
-9, ,9, ,
-9, ,8, ,
-7, ,8, ,
-7, ,9, ,
-6, ,9, ,
-4, ,9, ,
-2, ,8, ,
0, ,8, ,
1, ,8, ,
3, ,8, ,
5, ,8, ,
7, ,8, ,
8, ,8, ,
8, ,8, ,
9, ,8, ,
10, ,8, ,
10, ,8, ,
10, ,8, ,
10, ,8, ,
8, ,9, ,
8, ,8, ,
7, ,8, ,
5, ,8, ,
5, ,8, ,
3, ,8, ,
2, ,8, ,
-1, ,8, ,
-2, ,8, ,
-2, ,8, ,
-4, ,8, ,
-6, ,8, ,
-7, ,8, ,
-8, ,9, ,
-8, ,9, ,
-8, ,9, ,
-9, ,8, ,
-9, ,8, ,
-9, ,9, ,
-8, ,8, ,
-8, ,8, ,
-7, ,8, ,
-6, ,8, ,
-5, ,9, ,
-5, ,9, ,
-3, ,9, ,
-2, ,9, ,
-1, ,8, ,
0, ,8, ,
1, ,8, ,
2, ,8, ,
4, ,9, ,
4, ,8, ,
4, ,8, ,
5, ,9, ,
5, ,9, ,
5, ,9, ,
5, ,8, ,
5, ,8, ,
5, ,8, ,
4, ,8, ,
4, ,9, ,
3, ,8, ,
3, ,8, ,
2, ,8, ,
2, ,8, ,
1, ,8, ,
0, ,9, ,
-1, ,9, ,
-2, ,9, ,
-2, ,8, ,
-4, ,8, ,
-4, ,9, ,
-4, ,9, ,
-4, ,8, ,
-4, ,8, ,
-4, ,8, ,
-4, ,8, ,
-4, ,9, ,
-3, ,8, ,
-2, ,8, ,
-1, ,8, ,
1, ,8, ,
2, ,9, ,
3, ,8, ,
4, ,8, ,
5, ,8, ,
6, ,8, ,
6, ,8, ,
6, ,8, ,
6, ,8, ,
5, ,8, ,
4, ,8, ,
4, ,9, ,
3, ,9, ,
2, ,8, ,
2, ,8, ,
1, ,8, ,
0, ,9, ,
-1, ,9, ,
-1, ,8, ,
-1, ,8, ,
-1, ,9, ,
-1, ,9, ,
-1, ,9, ,
-1, ,8, ,
0, ,8, ,
0, ,8, ,
1, ,8, ,
1, ,9, ,
2, ,8, ,
3, ,8, ,
3, ,8, ,
3, ,8, ,
3, ,9, ,
3, ,9, ,
2, ,9, ,
2, ,9, ,
1, ,8, ,
0, ,8, ,
-1, ,8, ,
-2, ,8, ,
-3, ,8, ,
-5, ,9, ,
-6, ,9, ,
-7, ,9, ,
-8, ,8, ,
-9, ,8, ,
-10, ,9, ,
-10, ,8, ,
-10, ,8, ,
-9, ,8, ,
-9, ,8, ,
-9, ,9, ,
-9, ,8, ,
-7, ,8, ,
-6, ,9, ,
-5, ,9, ,
-3, ,8, ,
-1, ,8, ,
0, ,8, ,
1, ,8, ,
2, ,9, ,
3, ,9, ,
5, ,9, ,
6, ,8, ,
6, ,8, ,
7, ,9, ,
8, ,9, ,
8, ,9, ,
8, ,9, ,
9, ,8, ,
9, ,8, ,
8, ,8, ,
8, ,8, ,
8, ,9, ,
7, ,9, ,
7, ,9, ,
6, ,8, ,
5, ,8, ,
5, ,9, ,
4, ,9, ,
4, ,9, ,
3, ,9, ,
1, ,9, ,
1, ,9, ,
0, ,8, ,
0, ,8, ,
-1, ,8, ,
-1, ,8, ,
-1, ,9, ,
-1, ,9, ,
-1, ,9, ,
-2, ,9, ,
-2, ,9, ,
-2, ,9, ,
-2, ,9, ,
-2, ,9, ,
-2, ,8, ,
-2, ,8, ,
-2, ,8, ,
-2, ,8, ,
-2, ,9, ,
-1, ,8, ,
-1, ,8, ,
-1, ,8, ,
0, ,8, ,
0, ,8, ,
1, ,8, ,
1, ,9, ,
1, ,9, ,
1, ,9, ,
2, ,9, ,
2, ,8, ,
2, ,8, ,
3, ,9, ,
3, ,8, ,
3, ,8, ,
3, ,8, ,
3, ,8, ,
3, ,8, ,
3, ,8, ,
3, ,8, ,
2, ,8, ,
2, ,8, ,
2, ,9, ,
1, ,8, ,
1, ,8, ,
0, ,8, ,
0, ,9, ,
0, ,8, ,
-1, ,8, ,
-1, ,8, ,
-1, ,8, ,
-1, ,8, ,
-1, ,8, ,
0, ,9, ,
0, ,9, ,
0, ,8, ,
1, ,8, ,
2, ,8, ,
2, ,9, ,
2, ,9, ,
3, ,8, ,
3, ,8, ,
3, ,8, ,
3, ,8, ,
3, ,8, ,
2, ,8, ,
2, ,8, ,
2, ,9, ,
1, ,9, ,
1, ,9, ,
0, ,8, ,
0, ,8, ,
-1, ,8, ,
-1, ,8, ,
-1, ,8, ,
-1, ,8, ,
0, ,8, ,
0, ,8, ,
0, ,8, ,
1, ,9, ,
2, ,9, ,
2, ,8, ,
4, ,8, ,
4, ,9, ,
5, ,9, ,
6, ,9, ,
7, ,9, ,
7, ,9, ,
8, ,9, ,
8, ,9, ,
8, ,9, ,
8, ,8, ,
7, ,8, ,
6, ,9, ,
6, ,9, ,
5, ,8, ,
3, ,8, ,
2, ,8, ,
1, ,9, ,
0, ,9, ,
-2, ,8, ,
-3, ,8, ,
-4, ,8, ,
-4, ,8, ,
-6, ,8, ,
-7, ,8, ,
-7, ,9, ,
-7, ,8, ,
-8, ,8, ,
-8, ,8, ,
-8, ,9, ,
-7, ,9, ,
-7, ,9, ,
-7, ,9, ,
-6, ,9, ,
-6, ,9, ,
-4, ,8, ,
-4, ,8, ,
-4, ,8, ,
-2, ,8, ,
-1, ,9, ,
-1, ,8, ,
-1, ,8, ,
0, ,9, ,
1, ,8, ,
2, ,8, ,
2, ,8, ,
3, ,8, ,
4, ,8, ,
4, ,8, ,
5, ,8, ,
5, ,8, ,
6, ,8, ,
6, ,8, ,
6, ,8, ,
7, ,8, ,
7, ,9, ,
6, ,9, ,
6, ,9, ,
5, ,8, ,
4, ,8, ,
4, ,8, ,
3, ,8, ,
3, ,9, ,
2, ,9, ,
1, ,8, ,
1, ,8, ,
0, ,8, ,
0, ,8, ,
0, ,8, ,
0, ,8, ,
0, ,8, ,
0, ,8, ,
0, ,8, ,
0, ,9, ,
0, ,8, ,
1, ,8, ,
1, ,9, ,
1, ,9, ,
1, ,8, ,
1, ,8, ,
2, ,8, ,
