raw_data/75% Glycerol, Impulsion 2Hz, Sonde 5MHz, Rampe 0.7Hz/temp0000154.CSV

Format,1.0B,
Memory Length,10000,Memory Length,10000,
IntpDistance,0,IntpDistance,0,
Trigger Address,159,Trigger Address,159,
Trigger Level,2.720E-01,Trigger Level,2.720E-01,
Source,CH1,Source,CH2,
Vertical Units,V,Vertical Units,V,
Vertical Units Div,0,Vertical Units Div,0,
Vertical Units Extend Div,16,Vertical Units Extend Div,16,
Label,,Label,,
Probe Type,0,Probe Type,0,
Probe Ratio,1.000e+00,Probe Ratio,1.000e+00,
Vertical Scale,5.000e-01,Vertical Scale,2.000e+00,
Vertical Position,0.000e+00,Vertical Position,0.000e+00,
Horizontal Units,S,Horizontal Units,S,
Horizontal Scale,5.000E-06,Horizontal Scale,5.000E-06,
Horizontal Position,2.420E-05,Horizontal Position,2.420E-05,
Horizontal Mode,Main,Horizontal Mode,Main,
SincET Mode,Real Time,SincET Mode,Real Time,
Sampling Period,5.000e-09,Sampling Period,5.000e-09,
Horizontal Old Scale,5.000E-06,Horizontal Old Scale,5.000E-06,
Horizontal Old Position,2.420E-05,Horizontal Old Position,2.420E-05,
Firmware,V1.32,Firmware,V1.32,
Mode,Fast,Mode,Fast,
Waveform Data,,Waveform Data,,
1, ,-23, ,
1, ,-23, ,
1, ,-23, ,
1, ,-23, ,
1, ,-23, ,
1, ,-23, ,
1, ,-23, ,
1, ,-23, ,
1, ,-23, ,
1, ,-23, ,
1, ,-23, ,
1, ,-23, ,
1, ,-23, ,
1, ,-23, ,
1, ,-23, ,
1, ,-23, ,
1, ,-23, ,
1, ,-23, ,
1, ,-23, ,
1, ,-23, ,
1, ,-23, ,
1, ,-23, ,
0, ,-23, ,
0, ,-23, ,
0, ,-23, ,
1, ,-23, ,
1, ,-23, ,
1, ,-23, ,
0, ,-23, ,
0, ,-23, ,
1, ,-23, ,
1, ,-23, ,
1, ,-23, ,
1, ,-23, ,
0, ,-23, ,
0, ,-23, ,
0, ,-23, ,
1, ,-23, ,
1, ,-23, ,
1, ,-23, ,
1, ,-23, ,
1, ,-23, ,
1, ,-23, ,
1, ,-23, ,
0, ,-23, ,
0, ,-23, ,
1, ,-23, ,
1, ,-23, ,
1, ,-23, ,
1, ,-23, ,
1, ,-23, ,
1, ,-23, ,
1, ,-23, ,
1, ,-23, ,
1, ,-23, ,
1, ,-23, ,
1, ,-23, ,
1, ,-23, ,
0, ,-23, ,
0, ,-23, ,
0, ,-23, ,
1, ,-23, ,
1, ,-23, ,
0, ,-23, ,
0, ,-23, ,
0, ,-23, ,
1, ,-23, ,
1, ,-23, ,
1, ,-23, ,
1, ,-23, ,
1, ,-23, ,
1, ,-23, ,
1, ,-23, ,
1, ,-23, ,
1, ,-23, ,
1, ,-23, ,
1, ,-23, ,
1, ,-23, ,
1, ,-23, ,
0, ,-23, ,
0, ,-23, ,
0, ,-23, ,
1, ,-23, ,
1, ,-23, ,
1, ,-23, ,
1, ,-23, ,
1, ,-23, ,
0, ,-23, ,
1, ,-23, ,
0, ,-23, ,
1, ,-23, ,
1, ,-23, ,
1, ,-23, ,
1, ,-23, ,
1, ,-23, ,
1, ,-23, ,
1, ,-23, ,
1, ,-23, ,
1, ,-23, ,
1, ,-23, ,
1, ,-23, ,
1, ,-23, ,
1, ,-23, ,
1, ,-23, ,
1, ,-23, ,
1, ,-23, ,
1, ,-23, ,
1, ,-23, ,
1, ,-23, ,
1, ,-23, ,
1, ,-23, ,
1, ,-23, ,
1, ,-23, ,
1, ,-23, ,
1, ,-23, ,
1, ,-23, ,
1, ,-23, ,
1, ,-23, ,
1, ,-23, ,
1, ,-23, ,
1, ,-23, ,
0, ,-23, ,
0, ,-23, ,
1, ,-23, ,
1, ,-23, ,
1, ,-23, ,
1, ,-23, ,
1, ,-23, ,
1, ,-23, ,
1, ,-23, ,
1, ,-23, ,
1, ,-23, ,
1, ,-23, ,
1, ,-23, ,
1, ,-23, ,
0, ,-23, ,
0, ,-23, ,
0, ,-23, ,
1, ,-23, ,
1, ,-23, ,
1, ,-23, ,
1, ,-23, ,
1, ,-23, ,
1, ,-23, ,
1, ,-23, ,
1, ,-23, ,
1, ,-23, ,
1, ,-23, ,
1, ,-23, ,
1, ,-23, ,
1, ,-23, ,
1, ,-23, ,
1, ,-23, ,
1, ,-23, ,
1, ,-23, ,
1, ,-23, ,
1, ,-23, ,
1, ,-23, ,
1, ,-23, ,
1, ,-23, ,
1, ,-23, ,
1, ,-23, ,
1, ,-23, ,
1, ,-23, ,
1, ,-23, ,
0, ,-23, ,
0, ,-23, ,
0, ,-23, ,
9, ,-23, ,
31, ,-23, ,
107, ,-23, ,
125, ,-23, ,
123, ,-23, ,
119, ,-23, ,
11, ,-23, ,
-6, ,-23, ,
29, ,-23, ,
84, ,-23, ,
125, ,-23, ,
125, ,-23, ,
125, ,-23, ,
125, ,-23, ,
125, ,-23, ,
124, ,-23, ,
124, ,-23, ,
123, ,-23, ,
113, ,-23, ,
109, ,-23, ,
105, ,-23, ,
102, ,-23, ,
95, ,-23, ,
92, ,-23, ,
88, ,-23, ,
84, ,-23, ,
78, ,-23, ,
76, ,-23, ,
73, ,-23, ,
70, ,-23, ,
65, ,-23, ,
62, ,-23, ,
60, ,-23, ,
57, ,-23, ,
52, ,-23, ,
50, ,-23, ,
48, ,-23, ,
46, ,-23, ,
42, ,-23, ,
41, ,-23, ,
39, ,-23, ,
37, ,-23, ,
34, ,-23, ,
33, ,-23, ,
31, ,-23, ,
29, ,-23, ,
27, ,-23, ,
25, ,-23, ,
25, ,-23, ,
24, ,-23, ,
22, ,-23, ,
22, ,-23, ,
20, ,-23, ,
19, ,-23, ,
17, ,-23, ,
16, ,-23, ,
16, ,-23, ,
15, ,-23, ,
14, ,-23, ,
13, ,-23, ,
12, ,-23, ,
12, ,-23, ,
10, ,-23, ,
9, ,-23, ,
9, ,-23, ,
8, ,-23, ,
8, ,-23, ,
8, ,-23, ,
7, ,-23, ,
7, ,-23, ,
5, ,-23, ,
5, ,-23, ,
5, ,-23, ,
4, ,-23, ,
4, ,-23, ,
4, ,-23, ,
3, ,-23, ,
3, ,-23, ,
3, ,-23, ,
2, ,-23, ,
2, ,-23, ,
2, ,-23, ,
2, ,-23, ,
2, ,-23, ,
1, ,-23, ,
1, ,-23, ,
1, ,-23, ,
1, ,-23, ,
1, ,-23, ,
0, ,-23, ,
0, ,-23, ,
0, ,-23, ,
0, ,-23, ,
0, ,-23, ,
0, ,-23, ,
0, ,-23, ,
0, ,-23, ,
-1, ,-23, ,
-1, ,-23, ,
0, ,-23, ,
-1, ,-23, ,
-1, ,-23, ,
-1, ,-23, ,
-1, ,-23, ,
-1, ,-23, ,
-1, ,-23, ,
-1, ,-23, ,
-1, ,-23, ,
-1, ,-23, ,
-1, ,-23, ,
-1, ,-23, ,
-1, ,-23, ,
-1, ,-23, ,
-1, ,-23, ,
-1, ,-23, ,
-1, ,-23, ,
-1, ,-23, ,
-1, ,-23, ,
-1, ,-23, ,
-1, ,-23, ,
-1, ,-23, ,
-1, ,-23, ,
-1, ,-23, ,
-1, ,-23, ,
-1, ,-23, ,
-1, ,-23, ,
-1, ,-23, ,
-1, ,-23, ,
-1, ,-23, ,
-1, ,-23, ,
-1, ,-23, ,
-1, ,-23, ,
-1, ,-23, ,
-1, ,-23, ,
-1, ,-23, ,
-1, ,-23, ,
-1, ,-23, ,
-1, ,-23, ,
-1, ,-23, ,
-1, ,-23, ,
-1, ,-23, ,
-1, ,-23, ,
-1, ,-23, ,
-1, ,-23, ,
0, ,-23, ,
-1, ,-23, ,
-1, ,-23, ,
0, ,-23, ,
-1, ,-23, ,
-1, ,-23, ,
-1, ,-23, ,
0, ,-23, ,
-1, ,-23, ,
-1, ,-23, ,
-1, ,-23, ,
-1, ,-23, ,
-1, ,-23, ,
0, ,-23, ,
0, ,-23, ,
0, ,-23, ,
0, ,-23, ,
0, ,-23, ,
0, ,-23, ,
0, ,-23, ,
0, ,-23, ,
0, ,-23, ,
0, ,-23, ,
0, ,-23, ,
0, ,-23, ,
0, ,-23, ,
0, ,-23, ,
0, ,-23, ,
0, ,-23, ,
0, ,-23, ,
0, ,-23, ,
0, ,-23, ,
0, ,-23, ,
0, ,-23, ,
0, ,-23, ,
0, ,-23, ,
0, ,-23, ,
0, ,-23, ,
0, ,-23, ,
0, ,-23, ,
0, ,-23, ,
0, ,-23, ,
0, ,-23, ,
0, ,-23, ,
0, ,-23, ,
0, ,-23, ,
0, ,-23, ,
0, ,-23, ,
0, ,-23, ,
0, ,-23, ,
0, ,-23, ,
0, ,-23, ,
0, ,-23, ,
1, ,-23, ,
0, ,-23, ,
0, ,-23, ,
0, ,-23, ,
0, ,-23, ,
0, ,-23, ,
0, ,-23, ,
0, ,-23, ,
0, ,-23, ,
1, ,-23, ,
0, ,-23, ,
0, ,-23, ,
0, ,-23, ,
0, ,-23, ,
1, ,-23, ,
0, ,-23, ,
0, ,-23, ,
0, ,-23, ,
0, ,-23, ,
0, ,-23, ,
0, ,-23, ,
0, ,-23, ,
1, ,-23, ,
0, ,-23, ,
0, ,-23, ,
0, ,-23, ,
0, ,-23, ,
0, ,-23, ,
0, ,-23, ,
0, ,-23, ,
1, ,-23, ,
0, ,-23, ,
0, ,-23, ,
1, ,-23, ,
0, ,-23, ,
0, ,-23, ,
0, ,-23, ,
0, ,-23, ,
0, ,-23, ,
0, ,-23, ,
0, ,-23, ,
0, ,-23, ,
0, ,-23, ,
0, ,-23, ,
0, ,-23, ,
0, ,-23, ,
0, ,-23, ,
1, ,-23, ,
1, ,-23, ,
1, ,-23, ,
1, ,-23, ,
1, ,-23, ,
1, ,-23, ,
1, ,-23, ,
1, ,-23, ,
1, ,-23, ,
1, ,-23, ,
1, ,-23, ,
0, ,-23, ,
0, ,-23, ,
0, ,-23, ,
1, ,-23, ,
1, ,-23, ,
1, ,-23, ,
1, ,-23, ,
1, ,-23, ,
1, ,-23, ,
1, ,-23, ,
1, ,-23, ,
0, ,-23, ,
0, ,-23, ,
0, ,-23, ,
0, ,-23, ,
-1, ,-23, ,
-2, ,-23, ,
-2, ,-23, ,
-3, ,-23, ,
-7, ,-23, ,
-8, ,-23, ,
-10, ,-23, ,
-11, ,-23, ,
-11, ,-23, ,
-10, ,-23, ,
-7, ,-23, ,
-6, ,-23, ,
-3, ,-23, ,
-2, ,-23, ,
-1, ,-23, ,
0, ,-23, ,
2, ,-23, ,
2, ,-23, ,
2, ,-23, ,
3, ,-23, ,
3, ,-23, ,
3, ,-23, ,
2, ,-23, ,
3, ,-23, ,
2, ,-23, ,
1, ,-23, ,
1, ,-23, ,
0, ,-23, ,
0, ,-23, ,
0, ,-23, ,
0, ,-23, ,
0, ,-23, ,
1, ,-23, ,
1, ,-23, ,
1, ,-23, ,
1, ,-23, ,
2, ,-23, ,
2, ,-23, ,
3, ,-23, ,
3, ,-23, ,
2, ,-23, ,
2, ,-23, ,
2, ,-23, ,
1, ,-23, ,
1, ,-23, ,
1, ,-23, ,
0, ,-23, ,
0, ,-23, ,
0, ,-23, ,
-1, ,-23, ,
-1, ,-23, ,
-1, ,-23, ,
0, ,-23, ,
0, ,-23, ,
0, ,-23, ,
1, ,-23, ,
1, ,-23, ,
1, ,-23, ,
1, ,-23, ,
1, ,-23, ,
1, ,-23, ,
1, ,-23, ,
1, ,-23, ,
1, ,-23, ,
1, ,-23, ,
1, ,-23, ,
1, ,-23, ,
1, ,-23, ,
2, ,-23, ,
2, ,-23, ,
2, ,-23, ,
2, ,-23, ,
2, ,-23, ,
2, ,-23, ,
2, ,-23, ,
2, ,-23, ,
3, ,-23, ,
2, ,-23, ,
2, ,-23, ,
2, ,-23, ,
2, ,-23, ,
1, ,-23, ,
1, ,-23, ,
0, ,-23, ,
-1, ,-23, ,
-2, ,-23, ,
-3, ,-23, ,
-4, ,-23, ,
-5, ,-23, ,
-6, ,-23, ,
-7, ,-23, ,
-9, ,-23, ,
-9, ,-23, ,
-8, ,-23, ,
-9, ,-23, ,
-10, ,-23, ,
-9, ,-23, ,
-10, ,-23, ,
-10, ,-23, ,
-11, ,-23, ,
-12, ,-23, ,
-13, ,-23, ,
-15, ,-23, ,
-16, ,-23, ,
-21, ,-23, ,
-23, ,-23, ,
-25, ,-23, ,
-27, ,-23, ,
-31, ,-23, ,
-31, ,-23, ,
-31, ,-23, ,
-30, ,-23, ,
-28, ,-23, ,
-28, ,-23, ,
-27, ,-23, ,
-26, ,-23, ,
-25, ,-23, ,
-25, ,-23, ,
-26, ,-23, ,
-27, ,-23, ,
-28, ,-23, ,
-30, ,-23, ,
-31, ,-23, ,
-32, ,-23, ,
-33, ,-23, ,
-33, ,-23, ,
-32, ,-23, ,
-32, ,-23, ,
-28, ,-23, ,
-26, ,-23, ,
-25, ,-23, ,
-22, ,-23, ,
-17, ,-23, ,
-13, ,-23, ,
-10, ,-23, ,
-8, ,-23, ,
-5, ,-23, ,
-4, ,-23, ,
-3, ,-23, ,
-3, ,-23, ,
-4, ,-23, ,
-4, ,-23, ,
-5, ,-23, ,
-5, ,-23, ,
-6, ,-23, ,
-6, ,-23, ,
-6, ,-23, ,
-6, ,-23, ,
-5, ,-23, ,
-3, ,-23, ,
-2, ,-23, ,
-1, ,-23, ,
2, ,-23, ,
4, ,-23, ,
6, ,-23, ,
7, ,-23, ,
11, ,-23, ,
13, ,-23, ,
13, ,-23, ,
15, ,-23, ,
16, ,-23, ,
16, ,-23, ,
17, ,-23, ,
16, ,-23, ,
15, ,-23, ,
15, ,-23, ,
14, ,-23, ,
14, ,-23, ,
13, ,-23, ,
12, ,-23, ,
11, ,-23, ,
10, ,-23, ,
8, ,-23, ,
8, ,-23, ,
6, ,-23, ,
6, ,-23, ,
4, ,-23, ,
4, ,-23, ,
4, ,-23, ,
4, ,-23, ,
4, ,-23, ,
4, ,-23, ,
4, ,-23, ,
4, ,-23, ,
5, ,-23, ,
5, ,-23, ,
5, ,-23, ,
5, ,-23, ,
4, ,-23, ,
4, ,-23, ,
3, ,-23, ,
3, ,-23, ,
1, ,-23, ,
0, ,-23, ,
-1, ,-23, ,
-3, ,-23, ,
-6, ,-23, ,
-8, ,-23, ,
-11, ,-23, ,
-13, ,-23, ,
-18, ,-23, ,
-20, ,-23, ,
-23, ,-23, ,
-25, ,-23, ,
-28, ,-23, ,
-29, ,-23, ,
-29, ,-23, ,
-29, ,-23, ,
-28, ,-23, ,
-27, ,-23, ,
-26, ,-23, ,
-25, ,-23, ,
-23, ,-23, ,
-21, ,-23, ,
-19, ,-23, ,
-17, ,-23, ,
-15, ,-23, ,
-14, ,-23, ,
-13, ,-23, ,
-12, ,-23, ,
-12, ,-23, ,
-11, ,-23, ,
-11, ,-23, ,
-11, ,-23, ,
-10, ,-23, ,
-9, ,-23, ,
-9, ,-23, ,
-9, ,-23, ,
-8, ,-23, ,
-7, ,-23, ,
-7, ,-23, ,
-7, ,-23, ,
-5, ,-23, ,
-5, ,-23, ,
-4, ,-23, ,
-3, ,-23, ,
-2, ,-23, ,
-1, ,-23, ,
0, ,-23, ,
1, ,-23, ,
3, ,-23, ,
3, ,-23, ,
4, ,-23, ,
4, ,-23, ,
3, ,-23, ,
3, ,-23, ,
2, ,-23, ,
2, ,-23, ,
0, ,-23, ,
-1, ,-23, ,
-2, ,-23, ,
-3, ,-23, ,
-5, ,-23, ,
-7, ,-23, ,
-7, ,-23, ,
-8, ,-23, ,
-10, ,-23, ,
-11, ,-23, ,
-13, ,-23, ,
-14, ,-23, ,
-16, ,-23, ,
-17, ,-23, ,
-17, ,-23, ,
-18, ,-23, ,
-18, ,-23, ,
-18, ,-23, ,
-17, ,-23, ,
-17, ,-23, ,
-14, ,-23, ,
-12, ,-23, ,
-11, ,-23, ,
-9, ,-23, ,
-5, ,-23, ,
-4, ,-23, ,
-2, ,-23, ,
-1, ,-23, ,
1, ,-23, ,
2, ,-23, ,
3, ,-23, ,
3, ,-23, ,
3, ,-23, ,
2, ,-23, ,
2, ,-23, ,
0, ,-23, ,
-1, ,-23, ,
-1, ,-23, ,
-2, ,-23, ,
-2, ,-23, ,
-3, ,-23, ,
-3, ,-23, ,
-3, ,-23, ,
-2, ,-23, ,
-1, ,-23, ,
0, ,-23, ,
0, ,-23, ,
2, ,-23, ,
5, ,-23, ,
6, ,-23, ,
7, ,-23, ,
8, ,-23, ,
11, ,-23, ,
13, ,-23, ,
13, ,-23, ,
15, ,-23, ,
16, ,-23, ,
15, ,-23, ,
15, ,-23, ,
15, ,-23, ,
14, ,-23, ,
14, ,-23, ,
13, ,-23, ,
12, ,-23, ,
10, ,-23, ,
8, ,-23, ,
8, ,-23, ,
5, ,-23, ,
2, ,-23, ,
0, ,-23, ,
-3, ,-23, ,
-4, ,-23, ,
-8, ,-23, ,
-10, ,-23, ,
-11, ,-23, ,
-13, ,-23, ,
-15, ,-23, ,
-15, ,-23, ,
-15, ,-23, ,
-15, ,-23, ,
-14, ,-23, ,
-13, ,-23, ,
-12, ,-23, ,
-11, ,-23, ,
-10, ,-23, ,
-8, ,-23, ,
-8, ,-23, ,
-8, ,-23, ,
-7, ,-23, ,
-8, ,-23, ,
-8, ,-23, ,
-9, ,-23, ,
-11, ,-23, ,
-12, ,-23, ,
-14, ,-23, ,
-15, ,-23, ,
-19, ,-23, ,
-21, ,-23, ,
-22, ,-23, ,
-24, ,-23, ,
-25, ,-23, ,
-26, ,-23, ,
-27, ,-23, ,
-27, ,-23, ,
-27, ,-23, ,
-27, ,-23, ,
-27, ,-23, ,
-26, ,-23, ,
-25, ,-23, ,
-25, ,-23, ,
-24, ,-23, ,
-23, ,-23, ,
-21, ,-23, ,
-21, ,-23, ,
-19, ,-23, ,
-19, ,-23, ,
-17, ,-23, ,
-17, ,-23, ,
-17, ,-23, ,
-16, ,-23, ,
-15, ,-23, ,
-15, ,-23, ,
-14, ,-23, ,
-14, ,-23, ,
-13, ,-23, ,
-13, ,-23, ,
-11, ,-23, ,
-10, ,-23, ,
-8, ,-23, ,
-7, ,-23, ,
-6, ,-23, ,
-5, ,-23, ,
-3, ,-23, ,
-1, ,-23, ,
0, ,-23, ,
2, ,-23, ,
5, ,-23, ,
5, ,-23, ,
7, ,-23, ,
8, ,-23, ,
10, ,-23, ,
11, ,-23, ,
11, ,-23, ,
11, ,-23, ,
11, ,-23, ,
10, ,-23, ,
10, ,-23, ,
9, ,-23, ,
8, ,-23, ,
7, ,-23, ,
6, ,-23, ,
5, ,-23, ,
4, ,-23, ,
4, ,-23, ,
4, ,-23, ,
4, ,-23, ,
4, ,-23, ,
5, ,-23, ,
6, ,-23, ,
7, ,-23, ,
10, ,-23, ,
11, ,-23, ,
12, ,-23, ,
13, ,-23, ,
16, ,-23, ,
17, ,-23, ,
18, ,-23, ,
19, ,-23, ,
21, ,-23, ,
21, ,-23, ,
21, ,-23, ,
21, ,-23, ,
20, ,-23, ,
19, ,-23, ,
18, ,-23, ,
18, ,-23, ,
15, ,-23, ,
13, ,-23, ,
11, ,-23, ,
9, ,-23, ,
5, ,-23, ,
3, ,-23, ,
0, ,-23, ,
-1, ,-23, ,
-5, ,-23, ,
-8, ,-23, ,
-10, ,-23, ,
-12, ,-23, ,
-15, ,-23, ,
-17, ,-23, ,
-19, ,-23, ,
-19, ,-23, ,
-22, ,-23, ,
-23, ,-23, ,
-24, ,-23, ,
-25, ,-23, ,
-25, ,-23, ,
-25, ,-23, ,
-25, ,-23, ,
-25, ,-23, ,
-25, ,-23, ,
-25, ,-23, ,
-25, ,-23, ,
-25, ,-23, ,
-25, ,-23, ,
-24, ,-23, ,
-24, ,-23, ,
-23, ,-23, ,
-21, ,-23, ,
-19, ,-23, ,
-18, ,-23, ,
-17, ,-23, ,
-15, ,-23, ,
-13, ,-23, ,
-12, ,-23, ,
-11, ,-23, ,
-9, ,-23, ,
-8, ,-23, ,
-8, ,-23, ,
-7, ,-23, ,
-6, ,-23, ,
-5, ,-23, ,
-5, ,-23, ,
-5, ,-23, ,
-5, ,-23, ,
-5, ,-23, ,
-5, ,-23, ,
-5, ,-23, ,
-5, ,-23, ,
-5, ,-23, ,
-5, ,-23, ,
-5, ,-23, ,
-5, ,-23, ,
-6, ,-23, ,
-6, ,-23, ,
-6, ,-23, ,
-5, ,-23, ,
-5, ,-23, ,
-5, ,-23, ,
-5, ,-23, ,
-4, ,-23, ,
-5, ,-23, ,
-5, ,-23, ,
-5, ,-23, ,
-4, ,-23, ,
-4, ,-23, ,
-4, ,-23, ,
-4, ,-23, ,
-4, ,-23, ,
-4, ,-23, ,
-4, ,-23, ,
-5, ,-23, ,
-5, ,-23, ,
-5, ,-23, ,
-6, ,-23, ,
-6, ,-23, ,
-6, ,-23, ,
-7, ,-23, ,
-7, ,-23, ,
-7, ,-23, ,
-6, ,-23, ,
-6, ,-23, ,
-6, ,-23, ,
-6, ,-23, ,
-4, ,-23, ,
-4, ,-23, ,
-3, ,-23, ,
-2, ,-23, ,
1, ,-23, ,
1, ,-23, ,
2, ,-23, ,
4, ,-23, ,
6, ,-23, ,
7, ,-23, ,
7, ,-23, ,
8, ,-23, ,
9, ,-23, ,
9, ,-23, ,
9, ,-23, ,
9, ,-23, ,
9, ,-23, ,
9, ,-23, ,
9, ,-23, ,
8, ,-23, ,
7, ,-23, ,
6, ,-23, ,
5, ,-23, ,
5, ,-23, ,
3, ,-23, ,
2, ,-23, ,
2, ,-23, ,
0, ,-23, ,
-1, ,-23, ,
-1, ,-23, ,
-2, ,-23, ,
-3, ,-23, ,
-4, ,-23, ,
-5, ,-23, ,
-5, ,-23, ,
-5, ,-23, ,
-6, ,-23, ,
-6, ,-23, ,
-6, ,-23, ,
-6, ,-23, ,
-7, ,-23, ,
-7, ,-23, ,
-7, ,-23, ,
-8, ,-23, ,
-8, ,-23, ,
-8, ,-23, ,
-8, ,-23, ,
-8, ,-23, ,
-9, ,-23, ,
-9, ,-23, ,
-8, ,-23, ,
-8, ,-23, ,
-7, ,-23, ,
-6, ,-23, ,
-6, ,-23, ,
-5, ,-23, ,
-3, ,-23, ,
-2, ,-23, ,
0, ,-23, ,
1, ,-23, ,
2, ,-23, ,
3, ,-23, ,
4, ,-23, ,
5, ,-23, ,
5, ,-23, ,
5, ,-23, ,
4, ,-23, ,
4, ,-23, ,
2, ,-23, ,
2, ,-23, ,
0, ,-23, ,
-1, ,-23, ,
-3, ,-23, ,
-4, ,-23, ,
-5, ,-23, ,
-6, ,-23, ,
-8, ,-23, ,
-8, ,-23, ,
-8, ,-23, ,
-8, ,-23, ,
-8, ,-23, ,
-8, ,-23, ,
-7, ,-23, ,
-6, ,-23, ,
-5, ,-23, ,
-4, ,-23, ,
-2, ,-23, ,
-1, ,-23, ,
2, ,-23, ,
3, ,-23, ,
5, ,-23, ,
5, ,-23, ,
7, ,-23, ,
8, ,-23, ,
9, ,-23, ,
10, ,-23, ,
10, ,-23, ,
10, ,-23, ,
10, ,-23, ,
10, ,-23, ,
9, ,-23, ,
9, ,-23, ,
8, ,-23, ,
7, ,-23, ,
5, ,-23, ,
3, ,-23, ,
2, ,-23, ,
0, ,-23, ,
-4, ,-23, ,
-6, ,-23, ,
-8, ,-23, ,
-9, ,-23, ,
-13, ,-23, ,
-15, ,-23, ,
-15, ,-23, ,
-17, ,-23, ,
-18, ,-23, ,
-18, ,-23, ,
-18, ,-23, ,
-18, ,-23, ,
-17, ,-23, ,
-16, ,-23, ,
-15, ,-23, ,
-14, ,-23, ,
-12, ,-23, ,
-10, ,-23, ,
-9, ,-23, ,
-7, ,-23, ,
-4, ,-23, ,
-3, ,-23, ,
-2, ,-23, ,
-1, ,-23, ,
2, ,-23, ,
4, ,-23, ,
4, ,-23, ,
6, ,-23, ,
7, ,-23, ,
7, ,-23, ,
8, ,-23, ,
8, ,-23, ,
8, ,-23, ,
9, ,-23, ,
9, ,-23, ,
9, ,-23, ,
9, ,-23, ,
9, ,-23, ,
9, ,-23, ,
9, ,-23, ,
9, ,-23, ,
9, ,-23, ,
8, ,-23, ,
8, ,-23, ,
7, ,-23, ,
6, ,-23, ,
6, ,-23, ,
5, ,-23, ,
3, ,-23, ,
3, ,-23, ,
1, ,-23, ,
1, ,-23, ,
-1, ,-23, ,
-3, ,-23, ,
-3, ,-23, ,
-4, ,-23, ,
-6, ,-23, ,
-6, ,-23, ,
-7, ,-23, ,
-8, ,-23, ,
-8, ,-23, ,
-8, ,-23, ,
-8, ,-23, ,
-8, ,-23, ,
-8, ,-23, ,
-8, ,-23, ,
-8, ,-23, ,
-7, ,-23, ,
-7, ,-23, ,
-7, ,-23, ,
-7, ,-23, ,
-6, ,-23, ,
-6, ,-23, ,
-5, ,-23, ,
-5, ,-23, ,
-4, ,-23, ,
-3, ,-23, ,
-3, ,-23, ,
-1, ,-23, ,
-1, ,-23, ,
1, ,-23, ,
2, ,-23, ,
3, ,-23, ,
5, ,-23, ,
7, ,-23, ,
8, ,-23, ,
9, ,-23, ,
9, ,-23, ,
10, ,-23, ,
11, ,-23, ,
10, ,-23, ,
10, ,-23, ,
9, ,-23, ,
9, ,-23, ,
8, ,-23, ,
7, ,-23, ,
3, ,-23, ,
3, ,-23, ,
1, ,-23, ,
-1, ,-23, ,
-3, ,-23, ,
-5, ,-23, ,
-6, ,-23, ,
-8, ,-23, ,
-9, ,-23, ,
-10, ,-23, ,
-11, ,-23, ,
-11, ,-23, ,
-11, ,-23, ,
-11, ,-23, ,
-11, ,-23, ,
-11, ,-23, ,
-10, ,-23, ,
-10, ,-23, ,
-9, ,-23, ,
-9, ,-23, ,
-7, ,-23, ,
-7, ,-23, ,
-6, ,-23, ,
-6, ,-23, ,
-3, ,-23, ,
-3, ,-23, ,
-2, ,-23, ,
-1, ,-23, ,
1, ,-23, ,
0, ,-23, ,
2, ,-23, ,
2, ,-23, ,
2, ,-23, ,
2, ,-23, ,
2, ,-23, ,
3, ,-23, ,
2, ,-23, ,
2, ,-23, ,
2, ,-23, ,
1, ,-23, ,
1, ,-23, ,
1, ,-23, ,
0, ,-23, ,
0, ,-23, ,
1, ,-23, ,
1, ,-23, ,
1, ,-23, ,
1, ,-23, ,
1, ,-23, ,
1, ,-23, ,
1, ,-23, ,
1, ,-23, ,
1, ,-23, ,
0, ,-23, ,
0, ,-23, ,
0, ,-23, ,
-1, ,-23, ,
-1, ,-23, ,
-2, ,-23, ,
-2, ,-23, ,
-3, ,-23, ,
-3, ,-23, ,
-3, ,-23, ,
-4, ,-23, ,
-4, ,-23, ,
-4, ,-23, ,
-4, ,-23, ,
-4, ,-23, ,
-4, ,-23, ,
-4, ,-23, ,
-4, ,-23, ,
-4, ,-23, ,
-5, ,-23, ,
-5, ,-23, ,
-6, ,-23, ,
-6, ,-23, ,
-6, ,-23, ,
-7, ,-23, ,
-7, ,-23, ,
-7, ,-23, ,
-8, ,-23, ,
-8, ,-23, ,
-8, ,-23, ,
-7, ,-23, ,
-7, ,-23, ,
-6, ,-23, ,
-5, ,-23, ,
-5, ,-23, ,
-3, ,-23, ,
-2, ,-23, ,
-1, ,-23, ,
0, ,-23, ,
1, ,-23, ,
2, ,-23, ,
2, ,-23, ,
3, ,-23, ,
3, ,-23, ,
3, ,-23, ,
2, ,-23, ,
2, ,-23, ,
2, ,-23, ,
1, ,-23, ,
0, ,-23, ,
0, ,-23, ,
0, ,-23, ,
0, ,-23, ,
0, ,-23, ,
0, ,-23, ,
0, ,-23, ,
1, ,-23, ,
1, ,-23, ,
1, ,-23, ,
3, ,-23, ,
3, ,-23, ,
4, ,-23, ,
5, ,-23, ,
5, ,-23, ,
5, ,-23, ,
5, ,-23, ,
4, ,-23, ,
2, ,-23, ,
2, ,-23, ,
1, ,-23, ,
0, ,-23, ,
-3, ,-23, ,
-5, ,-23, ,
-6, ,-23, ,
-9, ,-23, ,
-12, ,-23, ,
-13, ,-23, ,
-15, ,-23, ,
-15, ,-23, ,
-17, ,-23, ,
-17, ,-23, ,
-17, ,-23, ,
-17, ,-23, ,
-16, ,-23, ,
-15, ,-23, ,
-14, ,-23, ,
-12, ,-23, ,
-9, ,-23, ,
-7, ,-23, ,
-5, ,-23, ,
-4, ,-23, ,
0, ,-23, ,
2, ,-23, ,
3, ,-23, ,
4, ,-23, ,
7, ,-23, ,
7, ,-23, ,
8, ,-23, ,
7, ,-23, ,
7, ,-23, ,
7, ,-23, ,
6, ,-23, ,
6, ,-23, ,
5, ,-23, ,
4, ,-23, ,
3, ,-23, ,
3, ,-23, ,
2, ,-23, ,
2, ,-23, ,
2, ,-23, ,
2, ,-23, ,
3, ,-23, ,
3, ,-23, ,
4, ,-23, ,
4, ,-23, ,
6, ,-23, ,
7, ,-23, ,
7, ,-23, ,
8, ,-23, ,
9, ,-23, ,
9, ,-23, ,
10, ,-23, ,
9, ,-23, ,
9, ,-23, ,
9, ,-23, ,
8, ,-23, ,
8, ,-23, ,
7, ,-23, ,
6, ,-23, ,
5, ,-23, ,
4, ,-23, ,
3, ,-23, ,
3, ,-23, ,
2, ,-23, ,
2, ,-23, ,
1, ,-23, ,
0, ,-23, ,
-1, ,-23, ,
-2, ,-23, ,
-4, ,-23, ,
-4, ,-23, ,
-6, ,-23, ,
-7, ,-23, ,
-8, ,-23, ,
-10, ,-23, ,
-11, ,-23, ,
-12, ,-23, ,
-13, ,-23, ,
-13, ,-23, ,
-13, ,-23, ,
-13, ,-23, ,
-12, ,-23, ,
-11, ,-23, ,
-9, ,-23, ,
-9, ,-23, ,
-5, ,-23, ,
-2, ,-23, ,
-1, ,-23, ,
2, ,-23, ,
5, ,-23, ,
6, ,-23, ,
7, ,-23, ,
8, ,-23, ,
8, ,-23, ,
7, ,-23, ,
7, ,-23, ,
6, ,-23, ,
4, ,-23, ,
2, ,-23, ,
1, ,-23, ,
0, ,-23, ,
-2, ,-23, ,
-2, ,-23, ,
-4, ,-23, ,
-4, ,-23, ,
-4, ,-23, ,
-4, ,-23, ,
-3, ,-23, ,
-2, ,-23, ,
0, ,-23, ,
1, ,-23, ,
3, ,-23, ,
4, ,-23, ,
6, ,-23, ,
7, ,-23, ,
8, ,-23, ,
8, ,-23, ,
8, ,-23, ,
8, ,-23, ,
7, ,-23, ,
7, ,-23, ,
6, ,-23, ,
5, ,-23, ,
4, ,-23, ,
2, ,-23, ,
0, ,-23, ,
0, ,-23, ,
-2, ,-23, ,
-2, ,-23, ,
-4, ,-23, ,
-5, ,-23, ,
-5, ,-23, ,
-6, ,-23, ,
-7, ,-23, ,
-7, ,-23, ,
-7, ,-23, ,
-7, ,-23, ,
-8, ,-23, ,
-8, ,-23, ,
-7, ,-23, ,
-7, ,-23, ,
-6, ,-23, ,
-5, ,-23, ,
-4, ,-23, ,
-3, ,-23, ,
-1, ,-23, ,
-1, ,-23, ,
1, ,-23, ,
1, ,-23, ,
3, ,-23, ,
3, ,-23, ,
4, ,-23, ,
5, ,-23, ,
5, ,-23, ,
4, ,-23, ,
4, ,-23, ,
3, ,-23, ,
2, ,-23, ,
1, ,-23, ,
0, ,-23, ,
0, ,-23, ,
-2, ,-23, ,
-3, ,-23, ,
-3, ,-23, ,
-4, ,-23, ,
-5, ,-23, ,
-5, ,-23, ,
-5, ,-23, ,
-5, ,-23, ,
-4, ,-23, ,
-4, ,-23, ,
-3, ,-23, ,
-3, ,-23, ,
-2, ,-23, ,
-1, ,-23, ,
0, ,-23, ,
1, ,-23, ,
3, ,-23, ,
3, ,-23, ,
5, ,-23, ,
5, ,-23, ,
6, ,-23, ,
7, ,-23, ,
8, ,-23, ,
8, ,-23, ,
7, ,-23, ,
7, ,-23, ,
7, ,-23, ,
6, ,-23, ,
5, ,-23, ,
5, ,-23, ,
4, ,-23, ,
3, ,-23, ,
1, ,-23, ,
0, ,-23, ,
-1, ,-23, ,
-2, ,-23, ,
-4, ,-23, ,
-5, ,-23, ,
-6, ,-23, ,
-6, ,-23, ,
-6, ,-23, ,
-6, ,-23, ,
-6, ,-23, ,
-6, ,-23, ,
-4, ,-23, ,
-3, ,-23, ,
-2, ,-23, ,
-1, ,-23, ,
1, ,-23, ,
1, ,-23, ,
3, ,-23, ,
3, ,-23, ,
5, ,-23, ,
6, ,-23, ,
7, ,-23, ,
7, ,-23, ,
6, ,-23, ,
6, ,-23, ,
5, ,-23, ,
5, ,-23, ,
3, ,-23, ,
2, ,-23, ,
1, ,-23, ,
0, ,-23, ,
-2, ,-23, ,
-4, ,-23, ,
-4, ,-23, ,
-6, ,-23, ,
-7, ,-23, ,
-8, ,-23, ,
-9, ,-23, ,
-9, ,-23, ,
-9, ,-23, ,
-9, ,-23, ,
-8, ,-23, ,
-8, ,-23, ,
-7, ,-23, ,
-6, ,-23, ,
-5, ,-23, ,
-4, ,-23, ,
-2, ,-23, ,
-2, ,-23, ,
0, ,-23, ,
0, ,-23, ,
2, ,-23, ,
3, ,-23, ,
3, ,-23, ,
5, ,-23, ,
6, ,-23, ,
6, ,-23, ,
8, ,-23, ,
7, ,-23, ,
9, ,-23, ,
9, ,-23, ,
9, ,-23, ,
10, ,-23, ,
10, ,-23, ,
10, ,-23, ,
10, ,-23, ,
9, ,-23, ,
8, ,-23, ,
8, ,-23, ,
7, ,-23, ,
6, ,-23, ,
5, ,-23, ,
3, ,-23, ,
3, ,-23, ,
1, ,-23, ,
-1, ,-23, ,
-1, ,-23, ,
-2, ,-23, ,
-2, ,-23, ,
-3, ,-23, ,
-3, ,-23, ,
-4, ,-23, ,
-4, ,-23, ,
-4, ,-23, ,
-4, ,-23, ,
-4, ,-23, ,
-4, ,-23, ,
-3, ,-23, ,
-3, ,-23, ,
-3, ,-23, ,
-3, ,-23, ,
-2, ,-23, ,
-2, ,-23, ,
-2, ,-23, ,
-1, ,-23, ,
0, ,-23, ,
0, ,-23, ,
1, ,-23, ,
1, ,-23, ,
2, ,-23, ,
2, ,-23, ,
2, ,-23, ,
3, ,-23, ,
3, ,-23, ,
3, ,-23, ,
3, ,-23, ,
2, ,-23, ,
1, ,-23, ,
1, ,-23, ,
1, ,-23, ,
1, ,-23, ,
0, ,-23, ,
-1, ,-23, ,
-1, ,-23, ,
-1, ,-23, ,
-1, ,-23, ,
0, ,-23, ,
0, ,-23, ,
0, ,-23, ,
1, ,-23, ,
1, ,-23, ,
2, ,-23, ,
2, ,-23, ,
2, ,-23, ,
3, ,-23, ,
3, ,-23, ,
3, ,-23, ,
3, ,-23, ,
3, ,-23, ,
3, ,-23, ,
2, ,-23, ,
1, ,-23, ,
1, ,-23, ,
0, ,-23, ,
0, ,-23, ,
-2, ,-23, ,
-2, ,-23, ,
-3, ,-23, ,
-3, ,-23, ,
-4, ,-23, ,
-5, ,-23, ,
-5, ,-23, ,
-5, ,-23, ,
-5, ,-23, ,
-5, ,-23, ,
-5, ,-23, ,
-5, ,-23, ,
-5, ,-23, ,
-4, ,-23, ,
-4, ,-23, ,
-3, ,-23, ,
-2, ,-23, ,
-2, ,-23, ,
-1, ,-23, ,
-1, ,-23, ,
1, ,-23, ,
1, ,-23, ,
