raw_data/75% Glycerol, Impulsion 2Hz, Sonde 5MHz, Rampe 0.7Hz/temp0000121.CSV

Format,1.0B,
Memory Length,10000,Memory Length,10000,
IntpDistance,0,IntpDistance,0,
Trigger Address,159,Trigger Address,159,
Trigger Level,2.720E-01,Trigger Level,2.720E-01,
Source,CH1,Source,CH2,
Vertical Units,V,Vertical Units,V,
Vertical Units Div,0,Vertical Units Div,0,
Vertical Units Extend Div,16,Vertical Units Extend Div,16,
Label,,Label,,
Probe Type,0,Probe Type,0,
Probe Ratio,1.000e+00,Probe Ratio,1.000e+00,
Vertical Scale,5.000e-01,Vertical Scale,2.000e+00,
Vertical Position,0.000e+00,Vertical Position,0.000e+00,
Horizontal Units,S,Horizontal Units,S,
Horizontal Scale,5.000E-06,Horizontal Scale,5.000E-06,
Horizontal Position,2.420E-05,Horizontal Position,2.420E-05,
Horizontal Mode,Main,Horizontal Mode,Main,
SincET Mode,Real Time,SincET Mode,Real Time,
Sampling Period,5.000e-09,Sampling Period,5.000e-09,
Horizontal Old Scale,5.000E-06,Horizontal Old Scale,5.000E-06,
Horizontal Old Position,2.420E-05,Horizontal Old Position,2.420E-05,
Firmware,V1.32,Firmware,V1.32,
Mode,Fast,Mode,Fast,
Waveform Data,,Waveform Data,,
0, ,0, ,
0, ,0, ,
0, ,0, ,
0, ,0, ,
0, ,0, ,
1, ,0, ,
0, ,0, ,
0, ,0, ,
0, ,0, ,
0, ,0, ,
0, ,0, ,
0, ,0, ,
1, ,0, ,
1, ,0, ,
0, ,0, ,
0, ,0, ,
0, ,0, ,
0, ,0, ,
0, ,0, ,
0, ,0, ,
0, ,0, ,
1, ,0, ,
1, ,0, ,
1, ,0, ,
1, ,0, ,
0, ,0, ,
0, ,0, ,
0, ,0, ,
0, ,0, ,
0, ,0, ,
0, ,0, ,
0, ,0, ,
0, ,0, ,
0, ,0, ,
0, ,0, ,
0, ,0, ,
0, ,0, ,
0, ,0, ,
0, ,0, ,
1, ,0, ,
0, ,0, ,
0, ,0, ,
0, ,0, ,
0, ,0, ,
1, ,0, ,
1, ,0, ,
1, ,0, ,
1, ,0, ,
0, ,0, ,
0, ,0, ,
0, ,0, ,
0, ,0, ,
0, ,0, ,
0, ,0, ,
0, ,0, ,
0, ,0, ,
1, ,0, ,
0, ,0, ,
0, ,0, ,
0, ,0, ,
0, ,0, ,
0, ,0, ,
0, ,0, ,
0, ,0, ,
0, ,0, ,
0, ,0, ,
0, ,0, ,
0, ,0, ,
0, ,0, ,
0, ,0, ,
0, ,0, ,
0, ,0, ,
0, ,0, ,
0, ,0, ,
0, ,0, ,
0, ,0, ,
0, ,0, ,
1, ,0, ,
0, ,0, ,
0, ,0, ,
0, ,0, ,
0, ,0, ,
0, ,0, ,
0, ,0, ,
1, ,0, ,
0, ,0, ,
0, ,0, ,
0, ,0, ,
0, ,0, ,
0, ,0, ,
1, ,0, ,
0, ,0, ,
0, ,0, ,
0, ,0, ,
0, ,0, ,
0, ,0, ,
0, ,0, ,
0, ,0, ,
0, ,0, ,
0, ,0, ,
0, ,0, ,
0, ,0, ,
0, ,0, ,
0, ,0, ,
0, ,0, ,
0, ,0, ,
0, ,0, ,
0, ,0, ,
0, ,0, ,
0, ,0, ,
0, ,0, ,
0, ,0, ,
0, ,0, ,
0, ,0, ,
0, ,0, ,
0, ,0, ,
0, ,0, ,
0, ,0, ,
0, ,0, ,
0, ,0, ,
0, ,0, ,
0, ,0, ,
0, ,0, ,
0, ,0, ,
0, ,0, ,
0, ,0, ,
0, ,0, ,
1, ,0, ,
0, ,0, ,
0, ,0, ,
0, ,0, ,
0, ,0, ,
1, ,0, ,
1, ,0, ,
1, ,0, ,
0, ,0, ,
0, ,0, ,
0, ,0, ,
0, ,0, ,
0, ,0, ,
0, ,0, ,
0, ,0, ,
0, ,0, ,
1, ,0, ,
1, ,0, ,
0, ,0, ,
0, ,0, ,
0, ,0, ,
0, ,0, ,
0, ,0, ,
0, ,0, ,
0, ,0, ,
1, ,0, ,
0, ,0, ,
0, ,0, ,
0, ,0, ,
0, ,0, ,
0, ,0, ,
0, ,0, ,
0, ,0, ,
0, ,0, ,
0, ,0, ,
0, ,0, ,
0, ,0, ,
-1, ,0, ,
0, ,0, ,
-3, ,0, ,
4, ,0, ,
52, ,0, ,
93, ,0, ,
125, ,0, ,
124, ,0, ,
89, ,0, ,
28, ,0, ,
-7, ,0, ,
12, ,0, ,
115, ,0, ,
125, ,0, ,
125, ,0, ,
125, ,0, ,
125, ,0, ,
125, ,0, ,
125, ,0, ,
124, ,0, ,
120, ,0, ,
114, ,0, ,
109, ,0, ,
105, ,0, ,
99, ,0, ,
97, ,0, ,
93, ,0, ,
89, ,0, ,
82, ,0, ,
78, ,0, ,
76, ,0, ,
74, ,0, ,
68, ,0, ,
65, ,0, ,
62, ,0, ,
60, ,0, ,
56, ,0, ,
52, ,0, ,
51, ,0, ,
48, ,0, ,
44, ,0, ,
43, ,0, ,
41, ,0, ,
39, ,0, ,
36, ,0, ,
34, ,0, ,
33, ,0, ,
31, ,0, ,
28, ,0, ,
27, ,0, ,
25, ,0, ,
25, ,0, ,
23, ,0, ,
22, ,0, ,
21, ,0, ,
19, ,0, ,
18, ,0, ,
17, ,0, ,
16, ,0, ,
16, ,0, ,
14, ,0, ,
13, ,0, ,
12, ,0, ,
12, ,0, ,
10, ,0, ,
10, ,0, ,
9, ,0, ,
9, ,0, ,
8, ,0, ,
7, ,0, ,
7, ,0, ,
7, ,0, ,
6, ,0, ,
5, ,0, ,
5, ,0, ,
5, ,0, ,
4, ,0, ,
4, ,0, ,
3, ,0, ,
3, ,0, ,
2, ,0, ,
2, ,0, ,
2, ,0, ,
2, ,0, ,
1, ,0, ,
1, ,0, ,
1, ,0, ,
1, ,0, ,
1, ,0, ,
1, ,0, ,
0, ,0, ,
0, ,0, ,
0, ,0, ,
0, ,0, ,
0, ,0, ,
-1, ,0, ,
-1, ,0, ,
-1, ,0, ,
-1, ,0, ,
-1, ,0, ,
-1, ,0, ,
-1, ,0, ,
-1, ,0, ,
-1, ,0, ,
-1, ,0, ,
-1, ,0, ,
-2, ,0, ,
-1, ,0, ,
-1, ,0, ,
-1, ,0, ,
-1, ,0, ,
-2, ,0, ,
-2, ,0, ,
-1, ,0, ,
-1, ,0, ,
-1, ,0, ,
-1, ,0, ,
-2, ,0, ,
-2, ,0, ,
-2, ,0, ,
-2, ,0, ,
-2, ,0, ,
-2, ,0, ,
-1, ,0, ,
-1, ,0, ,
-2, ,0, ,
-2, ,0, ,
-2, ,0, ,
-1, ,0, ,
-1, ,0, ,
-1, ,0, ,
-1, ,0, ,
-1, ,0, ,
-1, ,0, ,
-1, ,0, ,
-1, ,0, ,
-1, ,0, ,
-1, ,0, ,
-1, ,0, ,
-1, ,0, ,
-1, ,0, ,
-1, ,0, ,
-1, ,0, ,
-1, ,0, ,
-1, ,0, ,
-1, ,0, ,
-1, ,0, ,
-1, ,0, ,
-1, ,0, ,
-1, ,0, ,
-1, ,0, ,
-1, ,0, ,
-1, ,0, ,
-1, ,0, ,
-1, ,0, ,
-1, ,0, ,
-1, ,0, ,
-1, ,0, ,
-1, ,0, ,
-1, ,0, ,
-1, ,0, ,
-1, ,0, ,
-1, ,0, ,
-1, ,0, ,
-1, ,0, ,
-1, ,0, ,
0, ,0, ,
0, ,0, ,
-1, ,0, ,
-1, ,0, ,
-1, ,0, ,
0, ,0, ,
0, ,0, ,
0, ,0, ,
0, ,0, ,
0, ,0, ,
0, ,0, ,
0, ,0, ,
0, ,0, ,
0, ,0, ,
0, ,0, ,
0, ,0, ,
0, ,0, ,
0, ,0, ,
0, ,0, ,
0, ,0, ,
0, ,0, ,
0, ,0, ,
0, ,0, ,
0, ,0, ,
0, ,0, ,
0, ,0, ,
0, ,0, ,
0, ,0, ,
0, ,0, ,
0, ,0, ,
0, ,0, ,
0, ,0, ,
0, ,0, ,
0, ,0, ,
0, ,0, ,
0, ,0, ,
0, ,0, ,
0, ,0, ,
0, ,0, ,
0, ,0, ,
0, ,0, ,
0, ,0, ,
0, ,0, ,
0, ,0, ,
0, ,0, ,
0, ,0, ,
0, ,0, ,
0, ,0, ,
0, ,0, ,
0, ,0, ,
0, ,0, ,
0, ,0, ,
0, ,0, ,
0, ,0, ,
0, ,0, ,
0, ,0, ,
0, ,0, ,
0, ,0, ,
0, ,0, ,
0, ,0, ,
-1, ,0, ,
0, ,0, ,
0, ,0, ,
0, ,0, ,
0, ,0, ,
0, ,0, ,
0, ,0, ,
0, ,0, ,
0, ,0, ,
0, ,0, ,
0, ,0, ,
0, ,0, ,
0, ,0, ,
0, ,0, ,
0, ,0, ,
0, ,0, ,
0, ,0, ,
0, ,0, ,
0, ,0, ,
0, ,0, ,
0, ,0, ,
0, ,0, ,
0, ,0, ,
0, ,0, ,
0, ,0, ,
0, ,0, ,
1, ,0, ,
0, ,0, ,
0, ,0, ,
0, ,0, ,
1, ,0, ,
1, ,0, ,
1, ,0, ,
1, ,0, ,
0, ,0, ,
0, ,0, ,
1, ,0, ,
0, ,0, ,
0, ,0, ,
0, ,0, ,
0, ,0, ,
0, ,0, ,
0, ,0, ,
0, ,0, ,
0, ,0, ,
0, ,0, ,
0, ,0, ,
0, ,0, ,
-1, ,0, ,
-1, ,0, ,
-3, ,0, ,
-5, ,0, ,
-6, ,0, ,
-8, ,0, ,
-11, ,0, ,
-11, ,0, ,
-11, ,0, ,
-11, ,0, ,
-7, ,0, ,
-6, ,0, ,
-4, ,0, ,
-3, ,0, ,
-1, ,0, ,
0, ,0, ,
0, ,0, ,
1, ,0, ,
1, ,0, ,
1, ,0, ,
1, ,0, ,
0, ,0, ,
-1, ,0, ,
-1, ,0, ,
-2, ,0, ,
-3, ,0, ,
-4, ,0, ,
-5, ,0, ,
-4, ,0, ,
-5, ,0, ,
-3, ,0, ,
-1, ,0, ,
-1, ,0, ,
0, ,0, ,
2, ,0, ,
2, ,0, ,
3, ,0, ,
3, ,0, ,
3, ,0, ,
4, ,0, ,
4, ,0, ,
4, ,0, ,
4, ,0, ,
4, ,0, ,
4, ,0, ,
3, ,0, ,
3, ,0, ,
3, ,0, ,
3, ,0, ,
3, ,0, ,
3, ,0, ,
3, ,0, ,
3, ,0, ,
3, ,0, ,
3, ,0, ,
3, ,0, ,
3, ,0, ,
3, ,0, ,
2, ,0, ,
1, ,0, ,
1, ,0, ,
0, ,0, ,
-1, ,0, ,
-1, ,0, ,
-2, ,0, ,
-2, ,0, ,
-2, ,0, ,
-2, ,0, ,
-2, ,0, ,
-2, ,0, ,
-1, ,0, ,
0, ,0, ,
0, ,0, ,
0, ,0, ,
1, ,0, ,
1, ,0, ,
1, ,0, ,
1, ,0, ,
1, ,0, ,
1, ,0, ,
1, ,0, ,
1, ,0, ,
0, ,0, ,
-1, ,0, ,
-1, ,0, ,
-2, ,0, ,
-4, ,0, ,
-4, ,0, ,
-6, ,0, ,
-7, ,0, ,
-8, ,0, ,
-9, ,0, ,
-9, ,0, ,
-10, ,0, ,
-11, ,0, ,
-11, ,0, ,
-11, ,0, ,
-11, ,0, ,
-13, ,0, ,
-14, ,0, ,
-16, ,0, ,
-18, ,0, ,
-23, ,0, ,
-25, ,0, ,
-30, ,0, ,
-34, ,0, ,
-40, ,0, ,
-42, ,0, ,
-43, ,0, ,
-43, ,0, ,
-42, ,0, ,
-40, ,0, ,
-38, ,0, ,
-35, ,0, ,
-30, ,0, ,
-27, ,0, ,
-25, ,0, ,
-23, ,0, ,
-18, ,0, ,
-16, ,0, ,
-16, ,0, ,
-14, ,0, ,
-12, ,0, ,
-11, ,0, ,
-10, ,0, ,
-10, ,0, ,
-8, ,0, ,
-6, ,0, ,
-6, ,0, ,
-5, ,0, ,
-2, ,0, ,
-2, ,0, ,
-1, ,0, ,
0, ,0, ,
0, ,0, ,
0, ,0, ,
-1, ,0, ,
-1, ,0, ,
-4, ,0, ,
-6, ,0, ,
-7, ,0, ,
-9, ,0, ,
-12, ,0, ,
-13, ,0, ,
-15, ,0, ,
-16, ,0, ,
-16, ,0, ,
-16, ,0, ,
-16, ,0, ,
-15, ,0, ,
-13, ,0, ,
-11, ,0, ,
-9, ,0, ,
-8, ,0, ,
-3, ,0, ,
0, ,0, ,
3, ,0, ,
5, ,0, ,
10, ,0, ,
12, ,0, ,
14, ,0, ,
16, ,0, ,
18, ,0, ,
19, ,0, ,
19, ,0, ,
19, ,0, ,
19, ,0, ,
18, ,0, ,
17, ,0, ,
17, ,0, ,
15, ,0, ,
12, ,0, ,
10, ,0, ,
7, ,0, ,
1, ,0, ,
-1, ,0, ,
-4, ,0, ,
-7, ,0, ,
-11, ,0, ,
-13, ,0, ,
-14, ,0, ,
-15, ,0, ,
-15, ,0, ,
-14, ,0, ,
-14, ,0, ,
-13, ,0, ,
-10, ,0, ,
-8, ,0, ,
-6, ,0, ,
-5, ,0, ,
-1, ,0, ,
1, ,0, ,
2, ,0, ,
4, ,0, ,
5, ,0, ,
5, ,0, ,
5, ,0, ,
4, ,0, ,
2, ,0, ,
1, ,0, ,
0, ,0, ,
-2, ,0, ,
-5, ,0, ,
-8, ,0, ,
-10, ,0, ,
-13, ,0, ,
-16, ,0, ,
-17, ,0, ,
-18, ,0, ,
-19, ,0, ,
-19, ,0, ,
-19, ,0, ,
-19, ,0, ,
-19, ,0, ,
-19, ,0, ,
-18, ,0, ,
-18, ,0, ,
-18, ,0, ,
-18, ,0, ,
-18, ,0, ,
-17, ,0, ,
-17, ,0, ,
-16, ,0, ,
-15, ,0, ,
-14, ,0, ,
-14, ,0, ,
-12, ,0, ,
-12, ,0, ,
-10, ,0, ,
-11, ,0, ,
-9, ,0, ,
-8, ,0, ,
-8, ,0, ,
-8, ,0, ,
-6, ,0, ,
-5, ,0, ,
-4, ,0, ,
-3, ,0, ,
-2, ,0, ,
-1, ,0, ,
0, ,0, ,
2, ,0, ,
3, ,0, ,
3, ,0, ,
5, ,0, ,
5, ,0, ,
6, ,0, ,
6, ,0, ,
6, ,0, ,
6, ,0, ,
6, ,0, ,
6, ,0, ,
5, ,0, ,
5, ,0, ,
3, ,0, ,
3, ,0, ,
1, ,0, ,
0, ,0, ,
-5, ,0, ,
-8, ,0, ,
-11, ,0, ,
-14, ,0, ,
-21, ,0, ,
-23, ,0, ,
-25, ,0, ,
-27, ,0, ,
-31, ,0, ,
-31, ,0, ,
-31, ,0, ,
-31, ,0, ,
-29, ,0, ,
-27, ,0, ,
-26, ,0, ,
-23, ,0, ,
-18, ,0, ,
-15, ,0, ,
-11, ,0, ,
-8, ,0, ,
-3, ,0, ,
1, ,0, ,
2, ,0, ,
4, ,0, ,
8, ,0, ,
8, ,0, ,
9, ,0, ,
9, ,0, ,
8, ,0, ,
8, ,0, ,
7, ,0, ,
6, ,0, ,
4, ,0, ,
3, ,0, ,
2, ,0, ,
1, ,0, ,
1, ,0, ,
1, ,0, ,
1, ,0, ,
1, ,0, ,
2, ,0, ,
2, ,0, ,
4, ,0, ,
6, ,0, ,
8, ,0, ,
9, ,0, ,
10, ,0, ,
12, ,0, ,
14, ,0, ,
14, ,0, ,
15, ,0, ,
14, ,0, ,
14, ,0, ,
14, ,0, ,
13, ,0, ,
12, ,0, ,
10, ,0, ,
8, ,0, ,
7, ,0, ,
5, ,0, ,
2, ,0, ,
1, ,0, ,
0, ,0, ,
-1, ,0, ,
-4, ,0, ,
-4, ,0, ,
-4, ,0, ,
-6, ,0, ,
-6, ,0, ,
-6, ,0, ,
-7, ,0, ,
-7, ,0, ,
-8, ,0, ,
-9, ,0, ,
-10, ,0, ,
-11, ,0, ,
-13, ,0, ,
-14, ,0, ,
-16, ,0, ,
-17, ,0, ,
-19, ,0, ,
-21, ,0, ,
-22, ,0, ,
-22, ,0, ,
-24, ,0, ,
-24, ,0, ,
-24, ,0, ,
-24, ,0, ,
-25, ,0, ,
-25, ,0, ,
-25, ,0, ,
-25, ,0, ,
-25, ,0, ,
-25, ,0, ,
-26, ,0, ,
-27, ,0, ,
-28, ,0, ,
-29, ,0, ,
-29, ,0, ,
-30, ,0, ,
-30, ,0, ,
-30, ,0, ,
-30, ,0, ,
-29, ,0, ,
-27, ,0, ,
-27, ,0, ,
-26, ,0, ,
-24, ,0, ,
-21, ,0, ,
-18, ,0, ,
-16, ,0, ,
-14, ,0, ,
-9, ,0, ,
-8, ,0, ,
-5, ,0, ,
-3, ,0, ,
0, ,0, ,
1, ,0, ,
1, ,0, ,
2, ,0, ,
3, ,0, ,
3, ,0, ,
3, ,0, ,
3, ,0, ,
3, ,0, ,
4, ,0, ,
4, ,0, ,
5, ,0, ,
7, ,0, ,
8, ,0, ,
8, ,0, ,
10, ,0, ,
12, ,0, ,
14, ,0, ,
14, ,0, ,
15, ,0, ,
17, ,0, ,
17, ,0, ,
18, ,0, ,
18, ,0, ,
17, ,0, ,
16, ,0, ,
16, ,0, ,
16, ,0, ,
14, ,0, ,
13, ,0, ,
13, ,0, ,
11, ,0, ,
9, ,0, ,
9, ,0, ,
8, ,0, ,
6, ,0, ,
5, ,0, ,
3, ,0, ,
2, ,0, ,
1, ,0, ,
-2, ,0, ,
-2, ,0, ,
-3, ,0, ,
-4, ,0, ,
-5, ,0, ,
-5, ,0, ,
-4, ,0, ,
-4, ,0, ,
-4, ,0, ,
-4, ,0, ,
-4, ,0, ,
-3, ,0, ,
-2, ,0, ,
-2, ,0, ,
-2, ,0, ,
-2, ,0, ,
-2, ,0, ,
-2, ,0, ,
-3, ,0, ,
-3, ,0, ,
-4, ,0, ,
-6, ,0, ,
-6, ,0, ,
-7, ,0, ,
-10, ,0, ,
-10, ,0, ,
-12, ,0, ,
-12, ,0, ,
-13, ,0, ,
-14, ,0, ,
-14, ,0, ,
-14, ,0, ,
-14, ,0, ,
-14, ,0, ,
-14, ,0, ,
-13, ,0, ,
-13, ,0, ,
-12, ,0, ,
-12, ,0, ,
-12, ,0, ,
-11, ,0, ,
-11, ,0, ,
-11, ,0, ,
-12, ,0, ,
-12, ,0, ,
-12, ,0, ,
-13, ,0, ,
-13, ,0, ,
-15, ,0, ,
-15, ,0, ,
-15, ,0, ,
-15, ,0, ,
-15, ,0, ,
-15, ,0, ,
-14, ,0, ,
-14, ,0, ,
-12, ,0, ,
-10, ,0, ,
-10, ,0, ,
-9, ,0, ,
-6, ,0, ,
-5, ,0, ,
-4, ,0, ,
-3, ,0, ,
-2, ,0, ,
-2, ,0, ,
-3, ,0, ,
-3, ,0, ,
-3, ,0, ,
-4, ,0, ,
-5, ,0, ,
-6, ,0, ,
-9, ,0, ,
-10, ,0, ,
-11, ,0, ,
-12, ,0, ,
-14, ,0, ,
-16, ,0, ,
-16, ,0, ,
-17, ,0, ,
-17, ,0, ,
-17, ,0, ,
-17, ,0, ,
-16, ,0, ,
-15, ,0, ,
-13, ,0, ,
-12, ,0, ,
-11, ,0, ,
-7, ,0, ,
-4, ,0, ,
-2, ,0, ,
1, ,0, ,
6, ,0, ,
8, ,0, ,
10, ,0, ,
13, ,0, ,
16, ,0, ,
18, ,0, ,
18, ,0, ,
18, ,0, ,
18, ,0, ,
16, ,0, ,
15, ,0, ,
12, ,0, ,
7, ,0, ,
4, ,0, ,
0, ,0, ,
-2, ,0, ,
-9, ,0, ,
-12, ,0, ,
-14, ,0, ,
-17, ,0, ,
-19, ,0, ,
-19, ,0, ,
-19, ,0, ,
-18, ,0, ,
-17, ,0, ,
-16, ,0, ,
-13, ,0, ,
-12, ,0, ,
-8, ,0, ,
-5, ,0, ,
-3, ,0, ,
-1, ,0, ,
3, ,0, ,
3, ,0, ,
5, ,0, ,
6, ,0, ,
8, ,0, ,
9, ,0, ,
9, ,0, ,
9, ,0, ,
10, ,0, ,
10, ,0, ,
10, ,0, ,
9, ,0, ,
8, ,0, ,
8, ,0, ,
7, ,0, ,
7, ,0, ,
5, ,0, ,
3, ,0, ,
2, ,0, ,
0, ,0, ,
-3, ,0, ,
-4, ,0, ,
-6, ,0, ,
-8, ,0, ,
-11, ,0, ,
-13, ,0, ,
-14, ,0, ,
-15, ,0, ,
-15, ,0, ,
-15, ,0, ,
-15, ,0, ,
-14, ,0, ,
-13, ,0, ,
-12, ,0, ,
-11, ,0, ,
-10, ,0, ,
-5, ,0, ,
-3, ,0, ,
-2, ,0, ,
1, ,0, ,
5, ,0, ,
7, ,0, ,
9, ,0, ,
10, ,0, ,
13, ,0, ,
14, ,0, ,
14, ,0, ,
14, ,0, ,
14, ,0, ,
13, ,0, ,
12, ,0, ,
11, ,0, ,
9, ,0, ,
7, ,0, ,
5, ,0, ,
5, ,0, ,
0, ,0, ,
-2, ,0, ,
-4, ,0, ,
-6, ,0, ,
-9, ,0, ,
-10, ,0, ,
-13, ,0, ,
-14, ,0, ,
-16, ,0, ,
-18, ,0, ,
-19, ,0, ,
-19, ,0, ,
-20, ,0, ,
-19, ,0, ,
-19, ,0, ,
-19, ,0, ,
-17, ,0, ,
-16, ,0, ,
-13, ,0, ,
-12, ,0, ,
-7, ,0, ,
-4, ,0, ,
-2, ,0, ,
2, ,0, ,
7, ,0, ,
9, ,0, ,
11, ,0, ,
12, ,0, ,
15, ,0, ,
15, ,0, ,
14, ,0, ,
14, ,0, ,
13, ,0, ,
11, ,0, ,
10, ,0, ,
8, ,0, ,
5, ,0, ,
3, ,0, ,
2, ,0, ,
0, ,0, ,
-3, ,0, ,
-5, ,0, ,
-5, ,0, ,
-6, ,0, ,
-8, ,0, ,
-8, ,0, ,
-9, ,0, ,
-9, ,0, ,
-9, ,0, ,
-10, ,0, ,
-10, ,0, ,
-10, ,0, ,
-9, ,0, ,
-9, ,0, ,
-9, ,0, ,
-8, ,0, ,
-7, ,0, ,
-7, ,0, ,
-7, ,0, ,
-5, ,0, ,
-5, ,0, ,
-3, ,0, ,
-2, ,0, ,
-1, ,0, ,
0, ,0, ,
0, ,0, ,
1, ,0, ,
1, ,0, ,
1, ,0, ,
1, ,0, ,
1, ,0, ,
1, ,0, ,
2, ,0, ,
1, ,0, ,
2, ,0, ,
1, ,0, ,
3, ,0, ,
3, ,0, ,
5, ,0, ,
7, ,0, ,
8, ,0, ,
9, ,0, ,
10, ,0, ,
10, ,0, ,
11, ,0, ,
11, ,0, ,
11, ,0, ,
10, ,0, ,
9, ,0, ,
7, ,0, ,
6, ,0, ,
5, ,0, ,
1, ,0, ,
0, ,0, ,
-3, ,0, ,
-5, ,0, ,
-10, ,0, ,
-11, ,0, ,
-12, ,0, ,
-15, ,0, ,
-17, ,0, ,
-17, ,0, ,
-17, ,0, ,
-17, ,0, ,
-16, ,0, ,
-16, ,0, ,
-15, ,0, ,
-14, ,0, ,
-12, ,0, ,
-10, ,0, ,
-8, ,0, ,
-6, ,0, ,
-3, ,0, ,
-1, ,0, ,
1, ,0, ,
2, ,0, ,
6, ,0, ,
8, ,0, ,
8, ,0, ,
9, ,0, ,
10, ,0, ,
11, ,0, ,
11, ,0, ,
10, ,0, ,
9, ,0, ,
8, ,0, ,
8, ,0, ,
7, ,0, ,
5, ,0, ,
3, ,0, ,
2, ,0, ,
0, ,0, ,
-2, ,0, ,
-3, ,0, ,
-5, ,0, ,
-5, ,0, ,
-6, ,0, ,
-7, ,0, ,
-7, ,0, ,
-7, ,0, ,
-6, ,0, ,
-6, ,0, ,
-6, ,0, ,
-5, ,0, ,
-4, ,0, ,
-3, ,0, ,
-3, ,0, ,
-3, ,0, ,
-2, ,0, ,
-2, ,0, ,
-2, ,0, ,
-2, ,0, ,
-2, ,0, ,
-2, ,0, ,
-2, ,0, ,
-3, ,0, ,
-3, ,0, ,
-3, ,0, ,
-3, ,0, ,
-3, ,0, ,
-3, ,0, ,
-3, ,0, ,
-2, ,0, ,
-2, ,0, ,
-1, ,0, ,
0, ,0, ,
0, ,0, ,
0, ,0, ,
0, ,0, ,
0, ,0, ,
0, ,0, ,
0, ,0, ,
-1, ,0, ,
-1, ,0, ,
-1, ,0, ,
-1, ,0, ,
-1, ,0, ,
-1, ,0, ,
-1, ,0, ,
-1, ,0, ,
-1, ,0, ,
-1, ,0, ,
-1, ,0, ,
-1, ,0, ,
-1, ,0, ,
-2, ,0, ,
-2, ,0, ,
-3, ,0, ,
-4, ,0, ,
-4, ,0, ,
-5, ,0, ,
-6, ,0, ,
-7, ,0, ,
-7, ,0, ,
-7, ,0, ,
-7, ,0, ,
-8, ,0, ,
-8, ,0, ,
-8, ,0, ,
-7, ,0, ,
-7, ,0, ,
-7, ,0, ,
-6, ,0, ,
-6, ,0, ,
-5, ,0, ,
-5, ,0, ,
-5, ,0, ,
-4, ,0, ,
-4, ,0, ,
-4, ,0, ,
-3, ,0, ,
-3, ,0, ,
-3, ,0, ,
-2, ,0, ,
-2, ,0, ,
-1, ,0, ,
-1, ,0, ,
-1, ,0, ,
0, ,0, ,
0, ,0, ,
1, ,0, ,
2, ,0, ,
2, ,0, ,
2, ,0, ,
3, ,0, ,
3, ,0, ,
2, ,0, ,
2, ,0, ,
1, ,0, ,
1, ,0, ,
0, ,0, ,
0, ,0, ,
-1, ,0, ,
-2, ,0, ,
-2, ,0, ,
-3, ,0, ,
-4, ,0, ,
-4, ,0, ,
-4, ,0, ,
-4, ,0, ,
-4, ,0, ,
-5, ,0, ,
-5, ,0, ,
-5, ,0, ,
-4, ,0, ,
-4, ,0, ,
-5, ,0, ,
-5, ,0, ,
-5, ,0, ,
-5, ,0, ,
-5, ,0, ,
-6, ,0, ,
-6, ,0, ,
-5, ,0, ,
-5, ,0, ,
-5, ,0, ,
-4, ,0, ,
-4, ,0, ,
-3, ,0, ,
-3, ,0, ,
-1, ,0, ,
0, ,0, ,
0, ,0, ,
1, ,0, ,
2, ,0, ,
2, ,0, ,
3, ,0, ,
3, ,0, ,
3, ,0, ,
3, ,0, ,
2, ,0, ,
2, ,0, ,
1, ,0, ,
0, ,0, ,
0, ,0, ,
0, ,0, ,
-1, ,0, ,
-1, ,0, ,
-1, ,0, ,
-1, ,0, ,
0, ,0, ,
0, ,0, ,
1, ,0, ,
1, ,0, ,
3, ,0, ,
4, ,0, ,
4, ,0, ,
6, ,0, ,
8, ,0, ,
8, ,0, ,
9, ,0, ,
9, ,0, ,
8, ,0, ,
8, ,0, ,
7, ,0, ,
7, ,0, ,
5, ,0, ,
4, ,0, ,
3, ,0, ,
1, ,0, ,
-2, ,0, ,
-3, ,0, ,
-5, ,0, ,
-5, ,0, ,
-7, ,0, ,
-8, ,0, ,
-8, ,0, ,
-9, ,0, ,
-8, ,0, ,
-8, ,0, ,
-8, ,0, ,
-7, ,0, ,
-6, ,0, ,
-6, ,0, ,
-5, ,0, ,
-5, ,0, ,
-3, ,0, ,
-3, ,0, ,
-2, ,0, ,
-1, ,0, ,
0, ,0, ,
0, ,0, ,
1, ,0, ,
1, ,0, ,
2, ,0, ,
2, ,0, ,
2, ,0, ,
2, ,0, ,
2, ,0, ,
1, ,0, ,
0, ,0, ,
-1, ,0, ,
-2, ,0, ,
-2, ,0, ,
-4, ,0, ,
-4, ,0, ,
-5, ,0, ,
-5, ,0, ,
-5, ,0, ,
-5, ,0, ,
-4, ,0, ,
-3, ,0, ,
-1, ,0, ,
0, ,0, ,
3, ,0, ,
5, ,0, ,
7, ,0, ,
9, ,0, ,
13, ,0, ,
14, ,0, ,
15, ,0, ,
16, ,0, ,
16, ,0, ,
15, ,0, ,
14, ,0, ,
13, ,0, ,
10, ,0, ,
8, ,0, ,
6, ,0, ,
4, ,0, ,
0, ,0, ,
-1, ,0, ,
-3, ,0, ,
-5, ,0, ,
-6, ,0, ,
-6, ,0, ,
-6, ,0, ,
-6, ,0, ,
-6, ,0, ,
-6, ,0, ,
-6, ,0, ,
-6, ,0, ,
-5, ,0, ,
-5, ,0, ,
-5, ,0, ,
-5, ,0, ,
-6, ,0, ,
-6, ,0, ,
-6, ,0, ,
-7, ,0, ,
-8, ,0, ,
-8, ,0, ,
-8, ,0, ,
-8, ,0, ,
-7, ,0, ,
-7, ,0, ,
-7, ,0, ,
-7, ,0, ,
-6, ,0, ,
-5, ,0, ,
-4, ,0, ,
-4, ,0, ,
-3, ,0, ,
-3, ,0, ,
-2, ,0, ,
-2, ,0, ,
-1, ,0, ,
-1, ,0, ,
-1, ,0, ,
-1, ,0, ,
-1, ,0, ,
-1, ,0, ,
-1, ,0, ,
-1, ,0, ,
-1, ,0, ,
-1, ,0, ,
-1, ,0, ,
-1, ,0, ,
-1, ,0, ,
-1, ,0, ,
-1, ,0, ,
-1, ,0, ,
0, ,0, ,
0, ,0, ,
1, ,0, ,
2, ,0, ,
3, ,0, ,
3, ,0, ,
5, ,0, ,
5, ,0, ,
7, ,0, ,
9, ,0, ,
10, ,0, ,
11, ,0, ,
12, ,0, ,
12, ,0, ,
13, ,0, ,
13, ,0, ,
12, ,0, ,
11, ,0, ,
10, ,0, ,
9, ,0, ,
8, ,0, ,
6, ,0, ,
6, ,0, ,
4, ,0, ,
1, ,0, ,
0, ,0, ,
-1, ,0, ,
-3, ,0, ,
-5, ,0, ,
-6, ,0, ,
-7, ,0, ,
-8, ,0, ,
-9, ,0, ,
-9, ,0, ,
-10, ,0, ,
-10, ,0, ,
-10, ,0, ,
-10, ,0, ,
-10, ,0, ,
-10, ,0, ,
-9, ,0, ,
-9, ,0, ,
-8, ,0, ,
-7, ,0, ,
-7, ,0, ,
-6, ,0, ,
-6, ,0, ,
-6, ,0, ,
-5, ,0, ,
-4, ,0, ,
-4, ,0, ,
-3, ,0, ,
-2, ,0, ,
-2, ,0, ,
-2, ,0, ,
-2, ,0, ,
-1, ,0, ,
0, ,0, ,
0, ,0, ,
0, ,0, ,
1, ,0, ,
2, ,0, ,
3, ,0, ,
3, ,0, ,
4, ,0, ,
5, ,0, ,
5, ,0, ,
5, ,0, ,
6, ,0, ,
6, ,0, ,
6, ,0, ,
6, ,0, ,
7, ,0, ,
7, ,0, ,
8, ,0, ,
8, ,0, ,
9, ,0, ,
9, ,0, ,
9, ,0, ,
9, ,0, ,
9, ,0, ,
10, ,0, ,
9, ,0, ,
9, ,0, ,
8, ,0, ,
7, ,0, ,
7, ,0, ,
6, ,0, ,
3, ,0, ,
2, ,0, ,
1, ,0, ,
0, ,0, ,
-2, ,0, ,
-4, ,0, ,
-4, ,0, ,
-6, ,0, ,
-7, ,0, ,
-7, ,0, ,
-7, ,0, ,
-7, ,0, ,
-6, ,0, ,
-6, ,0, ,
-6, ,0, ,
-5, ,0, ,
-3, ,0, ,
-3, ,0, ,
-2, ,0, ,
-2, ,0, ,
-1, ,0, ,
-1, ,0, ,
0, ,0, ,
0, ,0, ,
-1, ,0, ,
-1, ,0, ,
-1, ,0, ,
-1, ,0, ,
-2, ,0, ,
-2, ,0, ,
-2, ,0, ,
-2, ,0, ,
-2, ,0, ,
-1, ,0, ,
-1, ,0, ,
-1, ,0, ,
-1, ,0, ,
-1, ,0, ,
0, ,0, ,
0, ,0, ,
0, ,0, ,
0, ,0, ,
0, ,0, ,
0, ,0, ,
-1, ,0, ,
-2, ,0, ,
-2, ,0, ,
-2, ,0, ,
-3, ,0, ,
-3, ,0, ,
-4, ,0, ,
-4, ,0, ,
-3, ,0, ,
-3, ,0, ,
-3, ,0, ,
-3, ,0, ,
-2, ,0, ,
-1, ,0, ,
-1, ,0, ,
0, ,0, ,
2, ,0, ,
3, ,0, ,
4, ,0, ,
4, ,0, ,
7, ,0, ,
9, ,0, ,
9, ,0, ,
9, ,0, ,
11, ,0, ,
11, ,0, ,
13, ,0, ,
13, ,0, ,
13, ,0, ,
13, ,0, ,
12, ,0, ,
12, ,0, ,
11, ,0, ,
10, ,0, ,
9, ,0, ,
8, ,0, ,
6, ,0, ,
5, ,0, ,
4, ,0, ,
2, ,0, ,
0, ,0, ,
-2, ,0, ,
-3, ,0, ,
-4, ,0, ,
-7, ,0, ,
-7, ,0, ,
-8, ,0, ,
-9, ,0, ,
-11, ,0, ,
-12, ,0, ,
-12, ,0, ,
-13, ,0, ,
-13, ,0, ,
-14, ,0, ,
-14, ,0, ,
-15, ,0, ,
-15, ,0, ,
-15, ,0, ,
-15, ,0, ,
-15, ,0, ,
-14, ,0, ,
-13, ,0, ,
-13, ,0, ,
-12, ,0, ,
-10, ,0, ,
-10, ,0, ,
-9, ,0, ,
-7, ,0, ,
-5, ,0, ,
-3, ,0, ,
-1, ,0, ,
0, ,0, ,
3, ,0, ,
4, ,0, ,
6, ,0, ,
7, ,0, ,
10, ,0, ,
11, ,0, ,
11, ,0, ,
12, ,0, ,
12, ,0, ,
12, ,0, ,
12, ,0, ,
11, ,0, ,
10, ,0, ,
9, ,0, ,
8, ,0, ,
7, ,0, ,
6, ,0, ,
5, ,0, ,
4, ,0, ,
3, ,0, ,
2, ,0, ,
2, ,0, ,
2, ,0, ,
2, ,0, ,
2, ,0, ,
2, ,0, ,
2, ,0, ,
2, ,0, ,
2, ,0, ,
2, ,0, ,
2, ,0, ,
2, ,0, ,
1, ,0, ,
0, ,0, ,
-1, ,0, ,
-2, ,0, ,
-3, ,0, ,
-4, ,0, ,
-5, ,0, ,
-5, ,0, ,
-6, ,0, ,
-7, ,0, ,
-7, ,0, ,
-7, ,0, ,
-6, ,0, ,
-6, ,0, ,
-6, ,0, ,
-5, ,0, ,
-3, ,0, ,
-3, ,0, ,
-2, ,0, ,
-1, ,0, ,
0, ,0, ,
1, ,0, ,
1, ,0, ,
1, ,0, ,
1, ,0, ,
0, ,0, ,
0, ,0, ,
-1, ,0, ,
-3, ,0, ,
-3, ,0, ,
-5, ,0, ,
-5, ,0, ,
-7, ,0, ,
-8, ,0, ,
-8, ,0, ,
-9, ,0, ,
-9, ,0, ,
-8, ,0, ,
-8, ,0, ,
-7, ,0, ,
-6, ,0, ,
-5, ,0, ,
-4, ,0, ,
-3, ,0, ,
0, ,0, ,
1, ,0, ,
3, ,0, ,
4, ,0, ,
5, ,0, ,
7, ,0, ,
8, ,0, ,
8, ,0, ,
9, ,0, ,
9, ,0, ,
9, ,0, ,
9, ,0, ,
8, ,0, ,
7, ,0, ,
7, ,0, ,
6, ,0, ,
5, ,0, ,
4, ,0, ,
4, ,0, ,
2, ,0, ,
1, ,0, ,
1, ,0, ,
1, ,0, ,
1, ,0, ,
1, ,0, ,
1, ,0, ,
1, ,0, ,
1, ,0, ,
1, ,0, ,
2, ,0, ,
2, ,0, ,
2, ,0, ,
3, ,0, ,
4, ,0, ,
4, ,0, ,
5, ,0, ,
6, ,0, ,
6, ,0, ,
6, ,0, ,
6, ,0, ,
6, ,0, ,
6, ,0, ,
5, ,0, ,
5, ,0, ,
4, ,0, ,
2, ,0, ,
2, ,0, ,
1, ,0, ,
-1, ,0, ,
-2, ,0, ,
-4, ,0, ,
-4, ,0, ,
-7, ,0, ,
-9, ,0, ,
-9, ,0, ,
-10, ,0, ,
-12, ,0, ,
-13, ,0, ,
-13, ,0, ,
-13, ,0, ,
-13, ,0, ,
-13, ,0, ,
-13, ,0, ,
-13, ,0, ,
-12, ,0, ,
-11, ,0, ,
-11, ,0, ,
-10, ,0, ,
-8, ,0, ,
-6, ,0, ,
-5, ,0, ,
-4, ,0, ,
-1, ,0, ,
0, ,0, ,
1, ,0, ,
2, ,0, ,
5, ,0, ,
6, ,0, ,
7, ,0, ,
8, ,0, ,
10, ,0, ,
11, ,0, ,
11, ,0, ,
12, ,0, ,
12, ,0, ,
12, ,0, ,
12, ,0, ,
12, ,0, ,
11, ,0, ,
11, ,0, ,
10, ,0, ,
10, ,0, ,
8, ,0, ,
7, ,0, ,
7, ,0, ,
6, ,0, ,
3, ,0, ,
3, ,0, ,
1, ,0, ,
1, ,0, ,
-1, ,0, ,
-2, ,0, ,
-3, ,0, ,
-4, ,0, ,
-4, ,0, ,
-4, ,0, ,
-4, ,0, ,
-4, ,0, ,
-4, ,0, ,
-4, ,0, ,
-3, ,0, ,
-3, ,0, ,
-3, ,0, ,
-2, ,0, ,
-1, ,0, ,
-1, ,0, ,
0, ,0, ,
0, ,0, ,
0, ,0, ,
0, ,0, ,
1, ,0, ,
1, ,0, ,
1, ,0, ,
1, ,0, ,
0, ,0, ,
0, ,0, ,
0, ,0, ,
0, ,0, ,
0, ,0, ,
-1, ,0, ,
-1, ,0, ,
-1, ,0, ,
-1, ,0, ,
-1, ,0, ,
-1, ,0, ,
-1, ,0, ,
-1, ,0, ,
0, ,0, ,
0, ,0, ,
0, ,0, ,
2, ,0, ,
2, ,0, ,
3, ,0, ,
4, ,0, ,
5, ,0, ,
7, ,0, ,
7, ,0, ,
8, ,0, ,
9, ,0, ,
9, ,0, ,
10, ,0, ,
10, ,0, ,
9, ,0, ,
9, ,0, ,
8, ,0, ,
8, ,0, ,
7, ,0, ,
5, ,0, ,
5, ,0, ,
4, ,0, ,
2, ,0, ,
1, ,0, ,
0, ,0, ,
0, ,0, ,
-1, ,0, ,
-1, ,0, ,
-1, ,0, ,
-2, ,0, ,
-2, ,0, ,
-2, ,0, ,
-2, ,0, ,
-2, ,0, ,
-2, ,0, ,
-2, ,0, ,
-2, ,0, ,
-2, ,0, ,
-2, ,0, ,
-2, ,0, ,
-3, ,0, ,
-3, ,0, ,
-3, ,0, ,
-3, ,0, ,
-3, ,0, ,
-4, ,0, ,
-4, ,0, ,
-4, ,0, ,
-4, ,0, ,
-4, ,0, ,
-4, ,0, ,
-5, ,0, ,
-4, ,0, ,
-4, ,0, ,
-4, ,0, ,
-4, ,0, ,
-4, ,0, ,
-4, ,0, ,
-4, ,0, ,
-4, ,0, ,
-4, ,0, ,
-4, ,0, ,
-4, ,0, ,
-4, ,0, ,
-3, ,0, ,
-3, ,0, ,
-2, ,0, ,
-2, ,0, ,
-2, ,0, ,
-1, ,0, ,
-1, ,0, ,
0, ,0, ,
1, ,0, ,
1, ,0, ,
2, ,0, ,
3, ,0, ,
3, ,0, ,
4, ,0, ,
5, ,0, ,
6, ,0, ,
6, ,0, ,
7, ,0, ,
8, ,0, ,
9, ,0, ,
9, ,0, ,
10, ,0, ,
