raw_data/75% Glycerol, Impulsion 2Hz, Sonde 5MHz, Rampe 0.7Hz/temp0000375.CSV

Format,1.0B,
Memory Length,10000,Memory Length,10000,
IntpDistance,0,IntpDistance,0,
Trigger Address,159,Trigger Address,159,
Trigger Level,2.720E-01,Trigger Level,2.720E-01,
Source,CH1,Source,CH2,
Vertical Units,V,Vertical Units,V,
Vertical Units Div,0,Vertical Units Div,0,
Vertical Units Extend Div,16,Vertical Units Extend Div,16,
Label,,Label,,
Probe Type,0,Probe Type,0,
Probe Ratio,1.000e+00,Probe Ratio,1.000e+00,
Vertical Scale,5.000e-01,Vertical Scale,2.000e+00,
Vertical Position,0.000e+00,Vertical Position,0.000e+00,
Horizontal Units,S,Horizontal Units,S,
Horizontal Scale,5.000E-06,Horizontal Scale,5.000E-06,
Horizontal Position,2.420E-05,Horizontal Position,2.420E-05,
Horizontal Mode,Main,Horizontal Mode,Main,
SincET Mode,Real Time,SincET Mode,Real Time,
Sampling Period,5.000e-09,Sampling Period,5.000e-09,
Horizontal Old Scale,5.000E-06,Horizontal Old Scale,5.000E-06,
Horizontal Old Position,2.420E-05,Horizontal Old Position,2.420E-05,
Firmware,V1.32,Firmware,V1.32,
Mode,Fast,Mode,Fast,
Waveform Data,,Waveform Data,,
0, ,-32, ,
0, ,-31, ,
1, ,-31, ,
0, ,-32, ,
0, ,-32, ,
0, ,-32, ,
1, ,-32, ,
1, ,-32, ,
0, ,-31, ,
0, ,-31, ,
1, ,-31, ,
1, ,-31, ,
1, ,-31, ,
0, ,-31, ,
0, ,-31, ,
1, ,-31, ,
1, ,-31, ,
1, ,-31, ,
0, ,-32, ,
0, ,-32, ,
1, ,-31, ,
1, ,-32, ,
1, ,-32, ,
1, ,-32, ,
1, ,-32, ,
1, ,-32, ,
1, ,-32, ,
1, ,-31, ,
1, ,-31, ,
0, ,-31, ,
0, ,-31, ,
1, ,-31, ,
1, ,-31, ,
1, ,-31, ,
0, ,-31, ,
0, ,-31, ,
1, ,-31, ,
1, ,-31, ,
1, ,-31, ,
1, ,-31, ,
1, ,-31, ,
1, ,-31, ,
1, ,-31, ,
1, ,-31, ,
0, ,-31, ,
0, ,-31, ,
1, ,-31, ,
1, ,-31, ,
1, ,-31, ,
1, ,-31, ,
0, ,-32, ,
0, ,-32, ,
0, ,-31, ,
0, ,-31, ,
1, ,-31, ,
1, ,-31, ,
1, ,-31, ,
1, ,-31, ,
1, ,-32, ,
1, ,-32, ,
1, ,-31, ,
1, ,-31, ,
1, ,-31, ,
1, ,-31, ,
1, ,-31, ,
1, ,-31, ,
0, ,-31, ,
0, ,-31, ,
1, ,-31, ,
1, ,-32, ,
1, ,-32, ,
1, ,-32, ,
1, ,-32, ,
1, ,-32, ,
1, ,-32, ,
1, ,-31, ,
1, ,-31, ,
0, ,-31, ,
0, ,-31, ,
1, ,-32, ,
0, ,-32, ,
0, ,-31, ,
1, ,-32, ,
1, ,-32, ,
1, ,-31, ,
0, ,-32, ,
0, ,-32, ,
1, ,-32, ,
1, ,-31, ,
0, ,-31, ,
0, ,-31, ,
0, ,-31, ,
0, ,-32, ,
0, ,-32, ,
1, ,-31, ,
1, ,-31, ,
1, ,-31, ,
0, ,-31, ,
0, ,-31, ,
1, ,-31, ,
1, ,-31, ,
1, ,-32, ,
1, ,-32, ,
1, ,-32, ,
0, ,-32, ,
0, ,-32, ,
1, ,-32, ,
1, ,-31, ,
1, ,-31, ,
1, ,-31, ,
1, ,-31, ,
1, ,-31, ,
1, ,-31, ,
1, ,-31, ,
1, ,-31, ,
1, ,-31, ,
1, ,-31, ,
1, ,-31, ,
1, ,-31, ,
1, ,-31, ,
1, ,-31, ,
0, ,-31, ,
0, ,-31, ,
1, ,-31, ,
1, ,-32, ,
1, ,-32, ,
1, ,-31, ,
1, ,-31, ,
1, ,-31, ,
1, ,-31, ,
1, ,-32, ,
1, ,-32, ,
1, ,-31, ,
0, ,-31, ,
0, ,-31, ,
1, ,-31, ,
0, ,-32, ,
0, ,-32, ,
1, ,-32, ,
1, ,-31, ,
1, ,-31, ,
1, ,-31, ,
1, ,-31, ,
1, ,-32, ,
1, ,-32, ,
1, ,-31, ,
1, ,-31, ,
0, ,-31, ,
0, ,-31, ,
0, ,-32, ,
0, ,-32, ,
1, ,-32, ,
1, ,-32, ,
1, ,-32, ,
1, ,-32, ,
1, ,-31, ,
1, ,-32, ,
1, ,-32, ,
1, ,-31, ,
1, ,-31, ,
1, ,-31, ,
1, ,-31, ,
1, ,-31, ,
0, ,-31, ,
1, ,-31, ,
0, ,-31, ,
-1, ,-31, ,
1, ,-31, ,
17, ,-32, ,
45, ,-32, ,
123, ,-32, ,
124, ,-31, ,
121, ,-31, ,
101, ,-32, ,
-3, ,-32, ,
3, ,-32, ,
52, ,-31, ,
106, ,-31, ,
125, ,-31, ,
125, ,-31, ,
125, ,-31, ,
125, ,-31, ,
125, ,-31, ,
124, ,-31, ,
124, ,-31, ,
121, ,-31, ,
110, ,-31, ,
106, ,-31, ,
103, ,-31, ,
100, ,-31, ,
93, ,-31, ,
90, ,-31, ,
86, ,-31, ,
83, ,-31, ,
77, ,-31, ,
75, ,-31, ,
72, ,-31, ,
68, ,-32, ,
63, ,-32, ,
60, ,-32, ,
58, ,-31, ,
56, ,-31, ,
52, ,-31, ,
49, ,-31, ,
47, ,-31, ,
45, ,-31, ,
41, ,-31, ,
40, ,-31, ,
38, ,-31, ,
36, ,-31, ,
34, ,-31, ,
31, ,-31, ,
30, ,-32, ,
29, ,-32, ,
26, ,-31, ,
25, ,-31, ,
24, ,-32, ,
23, ,-32, ,
22, ,-32, ,
21, ,-31, ,
19, ,-31, ,
18, ,-31, ,
17, ,-31, ,
16, ,-31, ,
15, ,-31, ,
14, ,-31, ,
13, ,-31, ,
12, ,-31, ,
11, ,-31, ,
10, ,-31, ,
9, ,-31, ,
9, ,-31, ,
8, ,-32, ,
8, ,-32, ,
7, ,-32, ,
7, ,-31, ,
6, ,-31, ,
6, ,-31, ,
5, ,-31, ,
5, ,-31, ,
5, ,-31, ,
5, ,-31, ,
4, ,-31, ,
3, ,-31, ,
3, ,-31, ,
3, ,-31, ,
2, ,-31, ,
2, ,-31, ,
2, ,-32, ,
2, ,-32, ,
1, ,-32, ,
1, ,-32, ,
1, ,-31, ,
1, ,-31, ,
1, ,-31, ,
0, ,-32, ,
0, ,-32, ,
0, ,-31, ,
0, ,-31, ,
0, ,-31, ,
0, ,-32, ,
0, ,-32, ,
-1, ,-32, ,
-1, ,-32, ,
-1, ,-32, ,
-1, ,-32, ,
-1, ,-32, ,
-1, ,-31, ,
-1, ,-31, ,
-1, ,-31, ,
-1, ,-31, ,
-1, ,-31, ,
-1, ,-31, ,
-1, ,-31, ,
-1, ,-31, ,
-1, ,-31, ,
-1, ,-31, ,
-2, ,-31, ,
-2, ,-31, ,
-1, ,-31, ,
-1, ,-31, ,
-1, ,-31, ,
-1, ,-31, ,
-1, ,-31, ,
-1, ,-32, ,
-1, ,-32, ,
-2, ,-32, ,
-2, ,-32, ,
-2, ,-31, ,
-1, ,-31, ,
-1, ,-31, ,
-1, ,-31, ,
-1, ,-31, ,
-1, ,-31, ,
-1, ,-31, ,
-1, ,-31, ,
-1, ,-32, ,
-1, ,-32, ,
-1, ,-32, ,
-1, ,-31, ,
-1, ,-32, ,
-1, ,-32, ,
-1, ,-31, ,
-1, ,-32, ,
-1, ,-32, ,
-1, ,-31, ,
-1, ,-31, ,
-1, ,-31, ,
-1, ,-31, ,
-1, ,-31, ,
-1, ,-31, ,
-1, ,-31, ,
0, ,-31, ,
-1, ,-31, ,
-1, ,-31, ,
-1, ,-31, ,
-1, ,-32, ,
-1, ,-32, ,
-1, ,-31, ,
-1, ,-31, ,
-1, ,-31, ,
0, ,-31, ,
0, ,-31, ,
0, ,-31, ,
0, ,-32, ,
0, ,-32, ,
0, ,-31, ,
0, ,-31, ,
-1, ,-31, ,
-1, ,-31, ,
0, ,-31, ,
0, ,-31, ,
0, ,-32, ,
0, ,-32, ,
0, ,-31, ,
0, ,-32, ,
0, ,-32, ,
0, ,-32, ,
0, ,-32, ,
0, ,-31, ,
0, ,-31, ,
0, ,-31, ,
0, ,-31, ,
0, ,-31, ,
0, ,-31, ,
0, ,-31, ,
0, ,-31, ,
0, ,-31, ,
0, ,-31, ,
0, ,-31, ,
0, ,-31, ,
0, ,-31, ,
0, ,-32, ,
0, ,-32, ,
0, ,-32, ,
0, ,-31, ,
0, ,-31, ,
0, ,-31, ,
0, ,-31, ,
0, ,-31, ,
0, ,-32, ,
0, ,-32, ,
0, ,-32, ,
0, ,-31, ,
0, ,-32, ,
0, ,-32, ,
0, ,-31, ,
0, ,-31, ,
0, ,-31, ,
0, ,-31, ,
0, ,-32, ,
0, ,-32, ,
0, ,-31, ,
0, ,-31, ,
0, ,-31, ,
1, ,-31, ,
0, ,-32, ,
0, ,-32, ,
0, ,-32, ,
0, ,-31, ,
0, ,-31, ,
0, ,-31, ,
0, ,-31, ,
0, ,-32, ,
0, ,-32, ,
0, ,-31, ,
0, ,-32, ,
0, ,-32, ,
0, ,-31, ,
0, ,-32, ,
0, ,-32, ,
0, ,-32, ,
0, ,-32, ,
0, ,-32, ,
0, ,-32, ,
0, ,-31, ,
0, ,-32, ,
0, ,-32, ,
0, ,-32, ,
0, ,-32, ,
0, ,-32, ,
1, ,-31, ,
0, ,-31, ,
0, ,-31, ,
1, ,-31, ,
0, ,-32, ,
0, ,-32, ,
0, ,-32, ,
0, ,-32, ,
0, ,-32, ,
0, ,-32, ,
0, ,-31, ,
0, ,-31, ,
0, ,-31, ,
1, ,-31, ,
1, ,-31, ,
1, ,-32, ,
1, ,-32, ,
1, ,-32, ,
1, ,-31, ,
1, ,-31, ,
1, ,-31, ,
1, ,-31, ,
1, ,-31, ,
0, ,-32, ,
0, ,-32, ,
1, ,-32, ,
1, ,-31, ,
0, ,-31, ,
0, ,-31, ,
0, ,-31, ,
0, ,-31, ,
0, ,-31, ,
0, ,-31, ,
0, ,-31, ,
0, ,-31, ,
0, ,-31, ,
-1, ,-32, ,
-2, ,-32, ,
-3, ,-32, ,
-4, ,-31, ,
-5, ,-31, ,
-10, ,-31, ,
-13, ,-31, ,
-14, ,-31, ,
-15, ,-31, ,
-14, ,-31, ,
-11, ,-31, ,
-9, ,-31, ,
-7, ,-31, ,
-2, ,-32, ,
-1, ,-32, ,
0, ,-31, ,
1, ,-32, ,
2, ,-32, ,
3, ,-32, ,
4, ,-32, ,
4, ,-32, ,
4, ,-32, ,
4, ,-31, ,
3, ,-31, ,
3, ,-31, ,
2, ,-31, ,
2, ,-31, ,
1, ,-31, ,
1, ,-31, ,
0, ,-32, ,
0, ,-32, ,
0, ,-31, ,
0, ,-31, ,
1, ,-31, ,
1, ,-31, ,
1, ,-31, ,
1, ,-31, ,
2, ,-31, ,
2, ,-31, ,
2, ,-31, ,
2, ,-32, ,
2, ,-32, ,
2, ,-32, ,
2, ,-32, ,
2, ,-31, ,
2, ,-31, ,
2, ,-31, ,
2, ,-32, ,
2, ,-32, ,
2, ,-32, ,
3, ,-32, ,
3, ,-32, ,
3, ,-32, ,
3, ,-32, ,
4, ,-31, ,
4, ,-31, ,
4, ,-31, ,
4, ,-31, ,
3, ,-32, ,
3, ,-32, ,
3, ,-31, ,
3, ,-31, ,
3, ,-31, ,
3, ,-31, ,
3, ,-32, ,
3, ,-32, ,
3, ,-32, ,
2, ,-32, ,
2, ,-32, ,
1, ,-32, ,
0, ,-31, ,
-1, ,-31, ,
-4, ,-31, ,
-14, ,-31, ,
-23, ,-31, ,
-34, ,-31, ,
-46, ,-31, ,
-73, ,-32, ,
-83, ,-32, ,
-94, ,-31, ,
-102, ,-31, ,
-111, ,-31, ,
-113, ,-31, ,
-114, ,-31, ,
-114, ,-31, ,
-114, ,-31, ,
-114, ,-31, ,
-113, ,-31, ,
-111, ,-31, ,
-83, ,-31, ,
-63, ,-32, ,
-45, ,-32, ,
-30, ,-31, ,
0, ,-31, ,
15, ,-31, ,
28, ,-31, ,
40, ,-31, ,
53, ,-31, ,
56, ,-31, ,
57, ,-31, ,
58, ,-31, ,
57, ,-31, ,
56, ,-31, ,
56, ,-31, ,
55, ,-31, ,
52, ,-31, ,
51, ,-32, ,
49, ,-32, ,
47, ,-31, ,
45, ,-31, ,
43, ,-31, ,
41, ,-32, ,
40, ,-32, ,
37, ,-32, ,
36, ,-32, ,
34, ,-32, ,
33, ,-32, ,
25, ,-32, ,
19, ,-31, ,
8, ,-31, ,
-9, ,-31, ,
-53, ,-31, ,
-75, ,-31, ,
-93, ,-31, ,
-106, ,-31, ,
-115, ,-32, ,
-115, ,-32, ,
-115, ,-31, ,
-115, ,-31, ,
-115, ,-31, ,
-113, ,-31, ,
-109, ,-32, ,
-95, ,-32, ,
-61, ,-32, ,
-50, ,-31, ,
-40, ,-32, ,
-31, ,-32, ,
-13, ,-31, ,
-3, ,-32, ,
5, ,-32, ,
14, ,-31, ,
26, ,-31, ,
31, ,-31, ,
37, ,-31, ,
41, ,-32, ,
47, ,-32, ,
48, ,-32, ,
47, ,-31, ,
46, ,-31, ,
41, ,-31, ,
36, ,-31, ,
31, ,-31, ,
25, ,-31, ,
8, ,-31, ,
-1, ,-31, ,
-11, ,-31, ,
-20, ,-31, ,
-34, ,-31, ,
-40, ,-31, ,
-45, ,-31, ,
-48, ,-31, ,
-49, ,-31, ,
-47, ,-31, ,
-43, ,-32, ,
-38, ,-32, ,
-23, ,-32, ,
-12, ,-32, ,
-1, ,-31, ,
10, ,-31, ,
30, ,-31, ,
39, ,-31, ,
47, ,-31, ,
54, ,-31, ,
63, ,-31, ,
65, ,-31, ,
65, ,-31, ,
65, ,-31, ,
64, ,-31, ,
63, ,-31, ,
62, ,-32, ,
61, ,-32, ,
56, ,-32, ,
54, ,-31, ,
52, ,-32, ,
49, ,-32, ,
42, ,-31, ,
38, ,-31, ,
33, ,-31, ,
28, ,-31, ,
17, ,-31, ,
11, ,-31, ,
5, ,-32, ,
0, ,-32, ,
-7, ,-31, ,
-9, ,-31, ,
-9, ,-31, ,
-9, ,-31, ,
-7, ,-31, ,
-5, ,-31, ,
-3, ,-32, ,
-1, ,-32, ,
4, ,-31, ,
7, ,-31, ,
8, ,-31, ,
11, ,-31, ,
14, ,-31, ,
15, ,-31, ,
16, ,-31, ,
16, ,-32, ,
15, ,-32, ,
15, ,-32, ,
13, ,-31, ,
12, ,-31, ,
6, ,-31, ,
2, ,-31, ,
-3, ,-31, ,
-9, ,-31, ,
-21, ,-31, ,
-27, ,-31, ,
-33, ,-31, ,
-39, ,-31, ,
-48, ,-31, ,
-51, ,-31, ,
-53, ,-31, ,
-53, ,-32, ,
-53, ,-32, ,
-51, ,-32, ,
-50, ,-31, ,
-47, ,-31, ,
-43, ,-31, ,
-42, ,-31, ,
-40, ,-31, ,
-40, ,-31, ,
-41, ,-31, ,
-41, ,-31, ,
-43, ,-31, ,
-44, ,-31, ,
-45, ,-31, ,
-45, ,-31, ,
-45, ,-31, ,
-45, ,-32, ,
-41, ,-32, ,
-39, ,-32, ,
-36, ,-31, ,
-32, ,-31, ,
-24, ,-31, ,
-20, ,-31, ,
-15, ,-31, ,
-10, ,-31, ,
-1, ,-31, ,
3, ,-32, ,
7, ,-32, ,
10, ,-31, ,
16, ,-31, ,
19, ,-31, ,
21, ,-31, ,
23, ,-31, ,
26, ,-31, ,
27, ,-31, ,
28, ,-31, ,
29, ,-31, ,
28, ,-31, ,
28, ,-31, ,
27, ,-32, ,
26, ,-32, ,
25, ,-31, ,
23, ,-31, ,
21, ,-31, ,
18, ,-31, ,
13, ,-31, ,
10, ,-31, ,
7, ,-31, ,
4, ,-31, ,
-2, ,-31, ,
-4, ,-31, ,
-6, ,-31, ,
-7, ,-31, ,
-8, ,-31, ,
-8, ,-31, ,
-7, ,-31, ,
-6, ,-31, ,
-3, ,-31, ,
-1, ,-31, ,
1, ,-31, ,
3, ,-31, ,
7, ,-31, ,
9, ,-31, ,
11, ,-31, ,
11, ,-32, ,
12, ,-32, ,
12, ,-32, ,
11, ,-31, ,
10, ,-31, ,
7, ,-31, ,
5, ,-31, ,
3, ,-31, ,
1, ,-31, ,
-4, ,-31, ,
-5, ,-32, ,
-7, ,-32, ,
-9, ,-31, ,
-12, ,-31, ,
-14, ,-31, ,
-15, ,-32, ,
-17, ,-32, ,
-18, ,-31, ,
-18, ,-31, ,
-19, ,-31, ,
-19, ,-31, ,
-19, ,-31, ,
-17, ,-31, ,
-17, ,-31, ,
-15, ,-31, ,
-11, ,-31, ,
-9, ,-31, ,
-6, ,-31, ,
-3, ,-31, ,
4, ,-31, ,
7, ,-31, ,
10, ,-31, ,
14, ,-31, ,
21, ,-31, ,
24, ,-31, ,
26, ,-31, ,
29, ,-31, ,
31, ,-31, ,
30, ,-31, ,
30, ,-32, ,
29, ,-32, ,
25, ,-31, ,
23, ,-32, ,
19, ,-32, ,
15, ,-31, ,
3, ,-31, ,
-4, ,-31, ,
-11, ,-31, ,
-19, ,-32, ,
-33, ,-32, ,
-40, ,-32, ,
-47, ,-31, ,
-53, ,-31, ,
-63, ,-31, ,
-66, ,-31, ,
-68, ,-31, ,
-69, ,-32, ,
-69, ,-32, ,
-65, ,-32, ,
-63, ,-32, ,
-59, ,-31, ,
-48, ,-32, ,
-42, ,-32, ,
-35, ,-31, ,
-29, ,-31, ,
-15, ,-31, ,
-8, ,-31, ,
-2, ,-31, ,
4, ,-31, ,
14, ,-31, ,
18, ,-31, ,
22, ,-32, ,
23, ,-32, ,
25, ,-31, ,
24, ,-31, ,
24, ,-31, ,
23, ,-31, ,
19, ,-31, ,
16, ,-31, ,
13, ,-31, ,
9, ,-31, ,
2, ,-31, ,
-1, ,-31, ,
-5, ,-31, ,
-7, ,-31, ,
-12, ,-31, ,
-13, ,-31, ,
-14, ,-31, ,
-14, ,-31, ,
-14, ,-31, ,
-14, ,-31, ,
-14, ,-31, ,
-14, ,-31, ,
-15, ,-31, ,
-15, ,-31, ,
-16, ,-31, ,
-17, ,-32, ,
-19, ,-32, ,
-20, ,-32, ,
-21, ,-31, ,
-22, ,-31, ,
-25, ,-32, ,
-25, ,-32, ,
-25, ,-31, ,
-25, ,-31, ,
-22, ,-31, ,
-20, ,-31, ,
-18, ,-31, ,
-15, ,-31, ,
-8, ,-31, ,
-4, ,-31, ,
1, ,-31, ,
5, ,-31, ,
13, ,-31, ,
16, ,-31, ,
18, ,-32, ,
21, ,-32, ,
21, ,-32, ,
21, ,-31, ,
20, ,-31, ,
18, ,-31, ,
13, ,-31, ,
10, ,-31, ,
7, ,-31, ,
4, ,-31, ,
-3, ,-31, ,
-5, ,-31, ,
-8, ,-31, ,
-9, ,-32, ,
-9, ,-32, ,
-9, ,-32, ,
-8, ,-31, ,
-6, ,-31, ,
-1, ,-31, ,
2, ,-31, ,
6, ,-32, ,
9, ,-32, ,
16, ,-31, ,
19, ,-31, ,
21, ,-31, ,
24, ,-31, ,
25, ,-32, ,
26, ,-32, ,
25, ,-31, ,
25, ,-32, ,
24, ,-32, ,
22, ,-32, ,
20, ,-31, ,
19, ,-31, ,
13, ,-31, ,
10, ,-31, ,
7, ,-32, ,
4, ,-32, ,
-3, ,-31, ,
-4, ,-32, ,
-8, ,-32, ,
-10, ,-31, ,
-15, ,-32, ,
-17, ,-32, ,
-19, ,-31, ,
-21, ,-31, ,
-25, ,-31, ,
-25, ,-31, ,
-26, ,-31, ,
-26, ,-31, ,
-26, ,-31, ,
-26, ,-31, ,
-25, ,-31, ,
-24, ,-32, ,
-20, ,-32, ,
-17, ,-32, ,
-13, ,-31, ,
-11, ,-31, ,
-4, ,-31, ,
-1, ,-31, ,
3, ,-31, ,
4, ,-31, ,
7, ,-31, ,
8, ,-32, ,
7, ,-32, ,
6, ,-31, ,
1, ,-31, ,
-2, ,-31, ,
-5, ,-32, ,
-9, ,-32, ,
-18, ,-31, ,
-22, ,-31, ,
-26, ,-31, ,
-28, ,-31, ,
-34, ,-31, ,
-34, ,-31, ,
-34, ,-31, ,
-34, ,-31, ,
-31, ,-31, ,
-27, ,-31, ,
-25, ,-31, ,
-21, ,-31, ,
-11, ,-31, ,
-7, ,-31, ,
-2, ,-32, ,
2, ,-32, ,
8, ,-31, ,
11, ,-32, ,
12, ,-32, ,
12, ,-31, ,
11, ,-31, ,
9, ,-31, ,
8, ,-31, ,
5, ,-31, ,
0, ,-31, ,
-3, ,-31, ,
-6, ,-31, ,
-8, ,-31, ,
-13, ,-31, ,
-15, ,-31, ,
-16, ,-31, ,
-17, ,-31, ,
-17, ,-31, ,
-15, ,-31, ,
-14, ,-31, ,
-13, ,-31, ,
-9, ,-31, ,
-7, ,-31, ,
-5, ,-31, ,
-4, ,-31, ,
-2, ,-31, ,
-1, ,-31, ,
-2, ,-31, ,
-2, ,-31, ,
-4, ,-31, ,
-6, ,-31, ,
-7, ,-31, ,
-10, ,-31, ,
-14, ,-31, ,
-16, ,-31, ,
-18, ,-31, ,
-20, ,-31, ,
-23, ,-32, ,
-23, ,-32, ,
-23, ,-31, ,
-23, ,-31, ,
-22, ,-31, ,
-19, ,-31, ,
-17, ,-32, ,
-14, ,-32, ,
-7, ,-32, ,
-5, ,-32, ,
-1, ,-32, ,
2, ,-32, ,
8, ,-31, ,
11, ,-32, ,
14, ,-32, ,
16, ,-31, ,
19, ,-32, ,
20, ,-32, ,
21, ,-31, ,
21, ,-31, ,
20, ,-32, ,
19, ,-32, ,
18, ,-31, ,
17, ,-31, ,
13, ,-31, ,
12, ,-31, ,
10, ,-31, ,
8, ,-31, ,
5, ,-31, ,
4, ,-31, ,
4, ,-31, ,
5, ,-31, ,
6, ,-32, ,
7, ,-32, ,
9, ,-31, ,
12, ,-31, ,
17, ,-31, ,
21, ,-31, ,
24, ,-31, ,
26, ,-31, ,
32, ,-31, ,
33, ,-31, ,
34, ,-31, ,
34, ,-31, ,
32, ,-31, ,
29, ,-31, ,
26, ,-31, ,
23, ,-31, ,
12, ,-32, ,
5, ,-32, ,
-1, ,-31, ,
-8, ,-31, ,
-20, ,-31, ,
-25, ,-31, ,
-30, ,-31, ,
-34, ,-31, ,
-40, ,-31, ,
-42, ,-31, ,
-42, ,-31, ,
-42, ,-31, ,
-41, ,-31, ,
-39, ,-31, ,
-38, ,-31, ,
-35, ,-31, ,
-31, ,-31, ,
-29, ,-31, ,
-27, ,-31, ,
-26, ,-31, ,
-25, ,-31, ,
-24, ,-31, ,
-24, ,-32, ,
-23, ,-32, ,
-21, ,-32, ,
-20, ,-31, ,
-18, ,-31, ,
-17, ,-31, ,
-13, ,-31, ,
-10, ,-31, ,
-8, ,-31, ,
-5, ,-31, ,
0, ,-32, ,
2, ,-32, ,
4, ,-32, ,
7, ,-32, ,
9, ,-31, ,
11, ,-31, ,
12, ,-31, ,
12, ,-31, ,
13, ,-31, ,
13, ,-31, ,
13, ,-31, ,
13, ,-31, ,
14, ,-31, ,
15, ,-31, ,
15, ,-31, ,
17, ,-31, ,
18, ,-32, ,
20, ,-32, ,
20, ,-31, ,
21, ,-31, ,
21, ,-31, ,
21, ,-31, ,
20, ,-32, ,
19, ,-32, ,
16, ,-32, ,
14, ,-31, ,
12, ,-31, ,
9, ,-31, ,
5, ,-31, ,
3, ,-31, ,
2, ,-31, ,
0, ,-31, ,
-1, ,-31, ,
-1, ,-31, ,
-1, ,-31, ,
0, ,-31, ,
3, ,-31, ,
4, ,-31, ,
5, ,-31, ,
8, ,-31, ,
10, ,-31, ,
10, ,-31, ,
10, ,-31, ,
10, ,-31, ,
8, ,-31, ,
6, ,-31, ,
4, ,-31, ,
1, ,-31, ,
-4, ,-31, ,
-7, ,-31, ,
-11, ,-31, ,
-14, ,-32, ,
-19, ,-32, ,
-21, ,-32, ,
-23, ,-31, ,
-25, ,-31, ,
-26, ,-31, ,
-26, ,-31, ,
-25, ,-31, ,
-25, ,-31, ,
-25, ,-31, ,
-24, ,-32, ,
-23, ,-32, ,
-22, ,-32, ,
-19, ,-32, ,
-18, ,-31, ,
-17, ,-31, ,
-16, ,-31, ,
-13, ,-31, ,
-12, ,-31, ,
-12, ,-31, ,
-11, ,-31, ,
-10, ,-31, ,
-9, ,-31, ,
-8, ,-31, ,
-8, ,-31, ,
-7, ,-31, ,
-6, ,-31, ,
-5, ,-31, ,
-4, ,-31, ,
-1, ,-32, ,
0, ,-32, ,
1, ,-31, ,
4, ,-31, ,
8, ,-31, ,
9, ,-31, ,
12, ,-31, ,
14, ,-31, ,
18, ,-31, ,
21, ,-31, ,
23, ,-32, ,
25, ,-32, ,
27, ,-31, ,
29, ,-31, ,
29, ,-31, ,
29, ,-31, ,
28, ,-32, ,
27, ,-32, ,
26, ,-31, ,
25, ,-31, ,
21, ,-31, ,
19, ,-31, ,
17, ,-31, ,
14, ,-31, ,
8, ,-31, ,
6, ,-31, ,
3, ,-32, ,
1, ,-32, ,
-3, ,-31, ,
-4, ,-31, ,
-6, ,-31, ,
-7, ,-31, ,
-9, ,-31, ,
-9, ,-31, ,
-9, ,-31, ,
-9, ,-31, ,
-8, ,-31, ,
-8, ,-31, ,
-7, ,-32, ,
-7, ,-32, ,
-6, ,-32, ,
-6, ,-31, ,
-6, ,-31, ,
-7, ,-32, ,
-9, ,-32, ,
-9, ,-32, ,
-10, ,-32, ,
-11, ,-31, ,
-14, ,-31, ,
-16, ,-31, ,
-17, ,-31, ,
-20, ,-31, ,
-23, ,-31, ,
-25, ,-31, ,
-26, ,-31, ,
-27, ,-31, ,
-28, ,-31, ,
-28, ,-31, ,
-28, ,-31, ,
-28, ,-31, ,
-26, ,-31, ,
-25, ,-31, ,
-23, ,-31, ,
-21, ,-31, ,
-15, ,-31, ,
-12, ,-31, ,
-9, ,-31, ,
-6, ,-31, ,
0, ,-31, ,
3, ,-31, ,
5, ,-31, ,
7, ,-31, ,
11, ,-31, ,
13, ,-31, ,
14, ,-31, ,
15, ,-31, ,
16, ,-31, ,
16, ,-31, ,
15, ,-31, ,
15, ,-31, ,
14, ,-31, ,
13, ,-31, ,
12, ,-31, ,
11, ,-32, ,
10, ,-32, ,
9, ,-32, ,
8, ,-32, ,
7, ,-32, ,
5, ,-32, ,
4, ,-31, ,
3, ,-32, ,
1, ,-32, ,
0, ,-31, ,
0, ,-32, ,
-1, ,-32, ,
-1, ,-31, ,
-1, ,-31, ,
0, ,-31, ,
0, ,-31, ,
0, ,-32, ,
3, ,-32, ,
3, ,-32, ,
5, ,-31, ,
6, ,-31, ,
9, ,-31, ,
10, ,-31, ,
10, ,-31, ,
10, ,-31, ,
9, ,-31, ,
8, ,-31, ,
7, ,-31, ,
5, ,-31, ,
0, ,-31, ,
-4, ,-31, ,
-7, ,-31, ,
-11, ,-31, ,
-18, ,-31, ,
-21, ,-31, ,
-24, ,-31, ,
-25, ,-31, ,
-26, ,-31, ,
-26, ,-31, ,
-25, ,-31, ,
-25, ,-31, ,
-19, ,-31, ,
-15, ,-31, ,
-11, ,-31, ,
-7, ,-31, ,
1, ,-31, ,
5, ,-31, ,
8, ,-31, ,
11, ,-32, ,
15, ,-32, ,
17, ,-32, ,
16, ,-31, ,
16, ,-31, ,
13, ,-31, ,
11, ,-31, ,
10, ,-31, ,
7, ,-31, ,
1, ,-31, ,
-1, ,-32, ,
-3, ,-32, ,
-6, ,-31, ,
-8, ,-32, ,
-9, ,-32, ,
-9, ,-31, ,
-9, ,-31, ,
-9, ,-31, ,
-9, ,-31, ,
-8, ,-32, ,
-7, ,-32, ,
-5, ,-32, ,
-4, ,-31, ,
-4, ,-31, ,
-3, ,-31, ,
-2, ,-31, ,
-2, ,-31, ,
-2, ,-31, ,
-2, ,-31, ,
-3, ,-32, ,
-3, ,-32, ,
-4, ,-31, ,
-4, ,-31, ,
-5, ,-31, ,
-5, ,-31, ,
-6, ,-32, ,
-6, ,-32, ,
-6, ,-32, ,
-7, ,-31, ,
-7, ,-32, ,
-7, ,-32, ,
-7, ,-31, ,
-6, ,-31, ,
-6, ,-32, ,
-6, ,-32, ,
-6, ,-31, ,
-5, ,-31, ,
-4, ,-31, ,
-4, ,-31, ,
-1, ,-31, ,
-1, ,-32, ,
1, ,-32, ,
2, ,-31, ,
5, ,-31, ,
6, ,-31, ,
7, ,-31, ,
7, ,-31, ,
7, ,-31, ,
6, ,-31, ,
6, ,-31, ,
5, ,-31, ,
2, ,-31, ,
-1, ,-31, ,
-2, ,-31, ,
-5, ,-31, ,
-9, ,-31, ,
-12, ,-31, ,
-14, ,-31, ,
-15, ,-31, ,
-17, ,-31, ,
-17, ,-31, ,
-17, ,-31, ,
-17, ,-31, ,
-14, ,-31, ,
-12, ,-32, ,
-9, ,-32, ,
-6, ,-31, ,
1, ,-31, ,
4, ,-31, ,
8, ,-31, ,
12, ,-31, ,
19, ,-31, ,
22, ,-31, ,
25, ,-32, ,
27, ,-32, ,
31, ,-32, ,
31, ,-31, ,
32, ,-31, ,
31, ,-31, ,
30, ,-31, ,
29, ,-31, ,
27, ,-31, ,
25, ,-31, ,
20, ,-31, ,
17, ,-31, ,
13, ,-31, ,
10, ,-31, ,
3, ,-31, ,
-1, ,-32, ,
-5, ,-32, ,
-8, ,-31, ,
-15, ,-31, ,
-18, ,-31, ,
-21, ,-31, ,
-23, ,-32, ,
-25, ,-32, ,
-25, ,-32, ,
-25, ,-31, ,
-25, ,-31, ,
-24, ,-31, ,
-24, ,-31, ,
-22, ,-31, ,
-19, ,-31, ,
-15, ,-31, ,
-11, ,-31, ,
-8, ,-32, ,
-4, ,-32, ,
2, ,-32, ,
5, ,-31, ,
8, ,-31, ,
11, ,-31, ,
16, ,-31, ,
18, ,-32, ,
19, ,-32, ,
21, ,-31, ,
21, ,-31, ,
19, ,-31, ,
18, ,-31, ,
17, ,-31, ,
13, ,-31, ,
11, ,-31, ,
8, ,-31, ,
7, ,-31, ,
1, ,-31, ,
-2, ,-31, ,
-4, ,-31, ,
-6, ,-31, ,
-8, ,-31, ,
-8, ,-31, ,
-8, ,-31, ,
-8, ,-31, ,
-7, ,-31, ,
-6, ,-31, ,
-5, ,-32, ,
-4, ,-32, ,
-2, ,-31, ,
-2, ,-31, ,
-2, ,-31, ,
-2, ,-31, ,
-3, ,-31, ,
-4, ,-31, ,
-5, ,-31, ,
-6, ,-31, ,
-9, ,-31, ,
-10, ,-32, ,
-12, ,-32, ,
-13, ,-31, ,
-13, ,-32, ,
-14, ,-32, ,
-12, ,-31, ,
-12, ,-31, ,
-10, ,-31, ,
-8, ,-31, ,
-6, ,-31, ,
-3, ,-31, ,
1, ,-31, ,
4, ,-31, ,
6, ,-31, ,
8, ,-31, ,
11, ,-31, ,
12, ,-31, ,
12, ,-31, ,
12, ,-31, ,
11, ,-32, ,
10, ,-32, ,
9, ,-31, ,
7, ,-31, ,
4, ,-31, ,
3, ,-31, ,
1, ,-32, ,
0, ,-32, ,
-3, ,-32, ,
-4, ,-31, ,
-5, ,-31, ,
-7, ,-31, ,
-8, ,-31, ,
-8, ,-32, ,
-9, ,-32, ,
-9, ,-32, ,
-10, ,-32, ,
-10, ,-31, ,
-10, ,-31, ,
-11, ,-32, ,
-11, ,-32, ,
-12, ,-32, ,
-12, ,-31, ,
-12, ,-31, ,
-12, ,-31, ,
-12, ,-31, ,
-12, ,-31, ,
-12, ,-31, ,
-11, ,-31, ,
-10, ,-31, ,
-10, ,-31, ,
-9, ,-31, ,
-6, ,-31, ,
-5, ,-31, ,
-3, ,-31, ,
-1, ,-31, ,
3, ,-31, ,
5, ,-31, ,
6, ,-32, ,
9, ,-32, ,
13, ,-32, ,
15, ,-31, ,
17, ,-31, ,
18, ,-31, ,
22, ,-31, ,
23, ,-31, ,
24, ,-31, ,
25, ,-31, ,
25, ,-31, ,
25, ,-31, ,
25, ,-31, ,
25, ,-31, ,
23, ,-31, ,
22, ,-31, ,
20, ,-32, ,
18, ,-32, ,
13, ,-32, ,
10, ,-31, ,
8, ,-32, ,
5, ,-32, ,
-2, ,-31, ,
-5, ,-32, ,
-9, ,-32, ,
-11, ,-31, ,
-17, ,-31, ,
-19, ,-31, ,
-21, ,-31, ,
-22, ,-31, ,
-22, ,-31, ,
-22, ,-31, ,
-21, ,-31, ,
-20, ,-31, ,
-17, ,-31, ,
-15, ,-31, ,
-13, ,-31, ,
-10, ,-31, ,
-5, ,-31, ,
-2, ,-32, ,
-1, ,-32, ,
2, ,-31, ,
5, ,-32, ,
6, ,-32, ,
7, ,-31, ,
8, ,-32, ,
8, ,-32, ,
8, ,-32, ,
8, ,-32, ,
7, ,-32, ,
7, ,-32, ,
6, ,-31, ,
6, ,-31, ,
6, ,-31, ,
7, ,-31, ,
6, ,-31, ,
6, ,-31, ,
6, ,-31, ,
6, ,-31, ,
6, ,-31, ,
6, ,-31, ,
5, ,-31, ,
3, ,-31, ,
3, ,-31, ,
2, ,-31, ,
2, ,-31, ,
0, ,-31, ,
-1, ,-31, ,
-1, ,-31, ,
-2, ,-31, ,
-3, ,-31, ,
-3, ,-31, ,
-3, ,-31, ,
-2, ,-31, ,
-2, ,-31, ,
-1, ,-31, ,
-1, ,-31, ,
-1, ,-31, ,
0, ,-31, ,
0, ,-31, ,
1, ,-31, ,
1, ,-31, ,
0, ,-31, ,
0, ,-31, ,
-1, ,-31, ,
-1, ,-31, ,
-4, ,-31, ,
-4, ,-31, ,
-5, ,-31, ,
-7, ,-31, ,
-9, ,-31, ,
-10, ,-31, ,
-11, ,-31, ,
-12, ,-31, ,
-13, ,-31, ,
-13, ,-31, ,
-13, ,-31, ,
-12, ,-31, ,
-12, ,-31, ,
-11, ,-31, ,
-10, ,-31, ,
-9, ,-31, ,
-6, ,-31, ,
-5, ,-31, ,
-3, ,-31, ,
-2, ,-31, ,
2, ,-32, ,
4, ,-32, ,
5, ,-31, ,
7, ,-32, ,
9, ,-32, ,
11, ,-32, ,
11, ,-31, ,
12, ,-31, ,
12, ,-32, ,
12, ,-32, ,
12, ,-31, ,
12, ,-31, ,
11, ,-31, ,
10, ,-31, ,
10, ,-31, ,
9, ,-31, ,
8, ,-32, ,
7, ,-32, ,
6, ,-31, ,
6, ,-32, ,
6, ,-32, ,
6, ,-32, ,
5, ,-31, ,
5, ,-31, ,
5, ,-31, ,
5, ,-31, ,
