raw_data/75% Glycerol, Impulsion 2Hz, Sonde 5MHz, Rampe 0.7Hz/temp0000117.CSV

Format,1.0B,
Memory Length,10000,Memory Length,10000,
IntpDistance,0,IntpDistance,0,
Trigger Address,159,Trigger Address,159,
Trigger Level,2.720E-01,Trigger Level,2.720E-01,
Source,CH1,Source,CH2,
Vertical Units,V,Vertical Units,V,
Vertical Units Div,0,Vertical Units Div,0,
Vertical Units Extend Div,16,Vertical Units Extend Div,16,
Label,,Label,,
Probe Type,0,Probe Type,0,
Probe Ratio,1.000e+00,Probe Ratio,1.000e+00,
Vertical Scale,5.000e-01,Vertical Scale,2.000e+00,
Vertical Position,0.000e+00,Vertical Position,0.000e+00,
Horizontal Units,S,Horizontal Units,S,
Horizontal Scale,5.000E-06,Horizontal Scale,5.000E-06,
Horizontal Position,2.420E-05,Horizontal Position,2.420E-05,
Horizontal Mode,Main,Horizontal Mode,Main,
SincET Mode,Real Time,SincET Mode,Real Time,
Sampling Period,5.000e-09,Sampling Period,5.000e-09,
Horizontal Old Scale,5.000E-06,Horizontal Old Scale,5.000E-06,
Horizontal Old Position,2.420E-05,Horizontal Old Position,2.420E-05,
Firmware,V1.32,Firmware,V1.32,
Mode,Fast,Mode,Fast,
Waveform Data,,Waveform Data,,
1, ,42, ,
1, ,42, ,
0, ,42, ,
0, ,42, ,
0, ,42, ,
1, ,42, ,
1, ,42, ,
1, ,42, ,
1, ,42, ,
1, ,42, ,
0, ,42, ,
0, ,42, ,
0, ,42, ,
1, ,42, ,
1, ,42, ,
1, ,42, ,
1, ,42, ,
1, ,42, ,
1, ,42, ,
1, ,42, ,
0, ,42, ,
0, ,42, ,
1, ,42, ,
1, ,42, ,
1, ,42, ,
1, ,42, ,
1, ,42, ,
1, ,42, ,
1, ,42, ,
1, ,42, ,
1, ,42, ,
0, ,42, ,
0, ,42, ,
0, ,42, ,
1, ,42, ,
1, ,42, ,
0, ,42, ,
1, ,42, ,
1, ,42, ,
1, ,42, ,
1, ,42, ,
1, ,42, ,
1, ,42, ,
1, ,42, ,
1, ,42, ,
1, ,42, ,
1, ,42, ,
1, ,42, ,
1, ,42, ,
1, ,42, ,
1, ,42, ,
1, ,42, ,
1, ,42, ,
1, ,42, ,
1, ,42, ,
0, ,42, ,
0, ,42, ,
0, ,42, ,
1, ,42, ,
1, ,42, ,
1, ,42, ,
1, ,42, ,
1, ,42, ,
1, ,42, ,
1, ,42, ,
0, ,42, ,
0, ,42, ,
1, ,42, ,
1, ,42, ,
1, ,42, ,
1, ,42, ,
1, ,42, ,
1, ,42, ,
1, ,42, ,
1, ,42, ,
1, ,42, ,
1, ,42, ,
1, ,42, ,
1, ,42, ,
1, ,42, ,
1, ,42, ,
1, ,42, ,
1, ,42, ,
1, ,42, ,
1, ,42, ,
1, ,42, ,
1, ,42, ,
1, ,42, ,
1, ,42, ,
1, ,42, ,
1, ,42, ,
1, ,42, ,
1, ,42, ,
1, ,42, ,
1, ,42, ,
1, ,42, ,
1, ,42, ,
1, ,42, ,
1, ,42, ,
1, ,42, ,
1, ,42, ,
1, ,42, ,
1, ,42, ,
0, ,42, ,
1, ,42, ,
0, ,42, ,
1, ,42, ,
1, ,42, ,
1, ,42, ,
1, ,42, ,
1, ,42, ,
1, ,42, ,
1, ,42, ,
1, ,42, ,
1, ,42, ,
1, ,42, ,
1, ,42, ,
1, ,42, ,
1, ,42, ,
1, ,42, ,
1, ,42, ,
1, ,42, ,
0, ,42, ,
0, ,42, ,
0, ,42, ,
1, ,42, ,
1, ,42, ,
1, ,42, ,
1, ,42, ,
0, ,42, ,
0, ,42, ,
1, ,42, ,
1, ,42, ,
1, ,42, ,
1, ,42, ,
1, ,42, ,
1, ,42, ,
1, ,42, ,
1, ,42, ,
1, ,42, ,
1, ,42, ,
1, ,42, ,
1, ,42, ,
0, ,42, ,
1, ,42, ,
1, ,42, ,
1, ,42, ,
1, ,42, ,
1, ,42, ,
1, ,42, ,
1, ,42, ,
1, ,42, ,
1, ,42, ,
1, ,42, ,
0, ,42, ,
1, ,42, ,
1, ,42, ,
1, ,42, ,
1, ,42, ,
1, ,42, ,
1, ,42, ,
1, ,42, ,
1, ,42, ,
1, ,42, ,
2, ,42, ,
0, ,42, ,
0, ,42, ,
0, ,42, ,
12, ,42, ,
35, ,42, ,
112, ,42, ,
124, ,42, ,
122, ,42, ,
114, ,42, ,
6, ,42, ,
-4, ,42, ,
37, ,42, ,
91, ,42, ,
125, ,42, ,
125, ,42, ,
125, ,42, ,
125, ,42, ,
125, ,42, ,
124, ,42, ,
124, ,42, ,
122, ,42, ,
112, ,42, ,
108, ,42, ,
104, ,42, ,
102, ,42, ,
95, ,42, ,
91, ,42, ,
88, ,42, ,
84, ,42, ,
77, ,42, ,
75, ,42, ,
73, ,42, ,
69, ,42, ,
64, ,42, ,
61, ,42, ,
60, ,42, ,
56, ,42, ,
52, ,42, ,
50, ,42, ,
47, ,42, ,
46, ,42, ,
42, ,42, ,
40, ,42, ,
39, ,42, ,
36, ,42, ,
33, ,42, ,
32, ,42, ,
30, ,42, ,
29, ,42, ,
26, ,42, ,
25, ,42, ,
25, ,42, ,
24, ,42, ,
22, ,42, ,
21, ,42, ,
20, ,42, ,
19, ,42, ,
17, ,42, ,
16, ,42, ,
15, ,42, ,
14, ,42, ,
13, ,42, ,
13, ,42, ,
12, ,42, ,
11, ,42, ,
10, ,42, ,
9, ,42, ,
8, ,42, ,
8, ,42, ,
7, ,42, ,
7, ,42, ,
6, ,42, ,
6, ,42, ,
6, ,42, ,
5, ,42, ,
5, ,42, ,
4, ,42, ,
4, ,42, ,
4, ,42, ,
3, ,42, ,
3, ,42, ,
3, ,42, ,
2, ,42, ,
2, ,42, ,
2, ,42, ,
1, ,42, ,
1, ,42, ,
1, ,42, ,
1, ,42, ,
1, ,42, ,
1, ,42, ,
1, ,42, ,
0, ,42, ,
0, ,42, ,
0, ,42, ,
0, ,42, ,
0, ,42, ,
0, ,42, ,
0, ,42, ,
0, ,42, ,
-1, ,42, ,
-1, ,42, ,
-1, ,42, ,
-1, ,42, ,
-1, ,42, ,
0, ,42, ,
-1, ,42, ,
-1, ,42, ,
-1, ,42, ,
-1, ,42, ,
-1, ,42, ,
-1, ,42, ,
-1, ,42, ,
-1, ,42, ,
-1, ,42, ,
-1, ,42, ,
-1, ,42, ,
-1, ,42, ,
-1, ,42, ,
-1, ,42, ,
-1, ,42, ,
-1, ,42, ,
-1, ,42, ,
-1, ,42, ,
-1, ,42, ,
-1, ,42, ,
-1, ,42, ,
-1, ,42, ,
-1, ,42, ,
-1, ,42, ,
-1, ,42, ,
-1, ,42, ,
-1, ,42, ,
-1, ,42, ,
-1, ,42, ,
-1, ,42, ,
-1, ,42, ,
-1, ,42, ,
-1, ,42, ,
-1, ,42, ,
-1, ,42, ,
-1, ,42, ,
-1, ,42, ,
-1, ,42, ,
-1, ,42, ,
-1, ,42, ,
-1, ,42, ,
0, ,42, ,
-1, ,42, ,
-1, ,42, ,
-1, ,42, ,
-1, ,42, ,
0, ,42, ,
0, ,42, ,
-1, ,42, ,
-1, ,42, ,
-1, ,42, ,
-1, ,42, ,
-1, ,42, ,
0, ,42, ,
0, ,42, ,
0, ,42, ,
0, ,42, ,
0, ,42, ,
0, ,42, ,
0, ,42, ,
0, ,42, ,
0, ,42, ,
0, ,42, ,
0, ,42, ,
0, ,42, ,
0, ,42, ,
0, ,42, ,
0, ,42, ,
0, ,42, ,
0, ,42, ,
0, ,42, ,
0, ,42, ,
0, ,42, ,
0, ,42, ,
0, ,42, ,
0, ,42, ,
0, ,42, ,
0, ,42, ,
0, ,42, ,
0, ,42, ,
0, ,42, ,
0, ,42, ,
0, ,42, ,
0, ,42, ,
0, ,42, ,
0, ,42, ,
0, ,42, ,
0, ,42, ,
0, ,42, ,
0, ,42, ,
0, ,42, ,
0, ,42, ,
0, ,42, ,
0, ,42, ,
0, ,42, ,
0, ,42, ,
0, ,42, ,
0, ,42, ,
0, ,42, ,
0, ,42, ,
0, ,42, ,
0, ,42, ,
0, ,42, ,
0, ,42, ,
0, ,42, ,
0, ,42, ,
1, ,42, ,
0, ,42, ,
0, ,42, ,
0, ,42, ,
1, ,42, ,
1, ,42, ,
1, ,42, ,
0, ,42, ,
0, ,42, ,
0, ,42, ,
0, ,42, ,
0, ,42, ,
0, ,42, ,
0, ,42, ,
0, ,42, ,
0, ,42, ,
0, ,42, ,
1, ,42, ,
1, ,42, ,
1, ,42, ,
1, ,42, ,
1, ,42, ,
1, ,42, ,
1, ,42, ,
0, ,42, ,
0, ,42, ,
0, ,42, ,
0, ,42, ,
1, ,42, ,
0, ,42, ,
0, ,42, ,
1, ,42, ,
1, ,42, ,
0, ,42, ,
0, ,42, ,
0, ,42, ,
0, ,42, ,
1, ,42, ,
0, ,42, ,
0, ,42, ,
0, ,42, ,
1, ,42, ,
1, ,42, ,
1, ,42, ,
1, ,42, ,
0, ,42, ,
0, ,42, ,
1, ,42, ,
1, ,42, ,
0, ,42, ,
0, ,42, ,
0, ,42, ,
0, ,42, ,
0, ,42, ,
0, ,42, ,
0, ,42, ,
0, ,42, ,
0, ,42, ,
0, ,42, ,
0, ,42, ,
0, ,42, ,
0, ,42, ,
-1, ,42, ,
-1, ,42, ,
-1, ,42, ,
-3, ,42, ,
-3, ,42, ,
-4, ,42, ,
-5, ,42, ,
-5, ,42, ,
-5, ,42, ,
-4, ,42, ,
-4, ,42, ,
-3, ,42, ,
-2, ,42, ,
-1, ,42, ,
0, ,42, ,
0, ,42, ,
0, ,42, ,
1, ,42, ,
1, ,42, ,
0, ,42, ,
0, ,42, ,
-1, ,42, ,
-1, ,42, ,
-2, ,42, ,
-2, ,42, ,
-3, ,42, ,
-4, ,42, ,
-4, ,42, ,
-3, ,42, ,
-3, ,42, ,
-2, ,42, ,
-1, ,42, ,
0, ,42, ,
1, ,42, ,
1, ,42, ,
1, ,42, ,
3, ,42, ,
3, ,42, ,
3, ,42, ,
3, ,42, ,
3, ,42, ,
3, ,42, ,
3, ,42, ,
2, ,42, ,
2, ,42, ,
2, ,42, ,
2, ,42, ,
1, ,42, ,
1, ,42, ,
1, ,42, ,
1, ,42, ,
1, ,42, ,
1, ,42, ,
1, ,42, ,
1, ,42, ,
2, ,42, ,
2, ,42, ,
2, ,42, ,
1, ,42, ,
1, ,42, ,
1, ,42, ,
1, ,42, ,
1, ,42, ,
0, ,42, ,
0, ,42, ,
0, ,42, ,
0, ,42, ,
0, ,42, ,
1, ,42, ,
1, ,42, ,
1, ,42, ,
2, ,42, ,
2, ,42, ,
2, ,42, ,
2, ,42, ,
2, ,42, ,
2, ,42, ,
2, ,42, ,
2, ,42, ,
2, ,42, ,
1, ,42, ,
0, ,42, ,
0, ,42, ,
-2, ,42, ,
-3, ,42, ,
-5, ,42, ,
-6, ,42, ,
-10, ,42, ,
-13, ,42, ,
-15, ,42, ,
-17, ,42, ,
-20, ,42, ,
-20, ,42, ,
-20, ,42, ,
-19, ,42, ,
-18, ,42, ,
-17, ,42, ,
-15, ,42, ,
-16, ,42, ,
-14, ,42, ,
-14, ,42, ,
-14, ,42, ,
-15, ,42, ,
-16, ,42, ,
-17, ,42, ,
-18, ,42, ,
-19, ,42, ,
-21, ,42, ,
-21, ,42, ,
-21, ,42, ,
-21, ,42, ,
-21, ,42, ,
-21, ,42, ,
-21, ,42, ,
-22, ,42, ,
-23, ,42, ,
-24, ,42, ,
-25, ,42, ,
-25, ,42, ,
-28, ,42, ,
-30, ,42, ,
-32, ,42, ,
-34, ,42, ,
-34, ,42, ,
-34, ,42, ,
-34, ,42, ,
-32, ,42, ,
-29, ,42, ,
-27, ,42, ,
-25, ,42, ,
-22, ,42, ,
-16, ,42, ,
-13, ,42, ,
-10, ,42, ,
-8, ,42, ,
-3, ,42, ,
-2, ,42, ,
0, ,42, ,
1, ,42, ,
2, ,42, ,
3, ,42, ,
3, ,42, ,
4, ,42, ,
4, ,42, ,
4, ,42, ,
5, ,42, ,
5, ,42, ,
6, ,42, ,
7, ,42, ,
7, ,42, ,
8, ,42, ,
8, ,42, ,
8, ,42, ,
9, ,42, ,
9, ,42, ,
10, ,42, ,
10, ,42, ,
10, ,42, ,
10, ,42, ,
10, ,42, ,
10, ,42, ,
9, ,42, ,
9, ,42, ,
9, ,42, ,
9, ,42, ,
8, ,42, ,
8, ,42, ,
8, ,42, ,
7, ,42, ,
7, ,42, ,
5, ,42, ,
4, ,42, ,
4, ,42, ,
2, ,42, ,
2, ,42, ,
0, ,42, ,
-1, ,42, ,
-2, ,42, ,
-3, ,42, ,
-3, ,42, ,
-2, ,42, ,
-2, ,42, ,
-2, ,42, ,
-1, ,42, ,
0, ,42, ,
1, ,42, ,
1, ,42, ,
3, ,42, ,
3, ,42, ,
3, ,42, ,
4, ,42, ,
3, ,42, ,
3, ,42, ,
2, ,42, ,
1, ,42, ,
-2, ,42, ,
-4, ,42, ,
-7, ,42, ,
-8, ,42, ,
-15, ,42, ,
-19, ,42, ,
-21, ,42, ,
-25, ,42, ,
-30, ,42, ,
-31, ,42, ,
-34, ,42, ,
-35, ,42, ,
-35, ,42, ,
-35, ,42, ,
-33, ,42, ,
-32, ,42, ,
-27, ,42, ,
-25, ,42, ,
-23, ,42, ,
-20, ,42, ,
-14, ,42, ,
-11, ,42, ,
-9, ,42, ,
-7, ,42, ,
-3, ,42, ,
-1, ,42, ,
0, ,42, ,
2, ,42, ,
4, ,42, ,
5, ,42, ,
5, ,42, ,
4, ,42, ,
2, ,42, ,
2, ,42, ,
0, ,42, ,
-1, ,42, ,
-4, ,42, ,
-6, ,42, ,
-7, ,42, ,
-9, ,42, ,
-11, ,42, ,
-11, ,42, ,
-11, ,42, ,
-11, ,42, ,
-11, ,42, ,
-10, ,42, ,
-9, ,42, ,
-9, ,42, ,
-6, ,42, ,
-5, ,42, ,
-4, ,42, ,
-3, ,42, ,
0, ,42, ,
0, ,42, ,
1, ,42, ,
2, ,42, ,
4, ,42, ,
4, ,42, ,
4, ,42, ,
4, ,42, ,
4, ,42, ,
3, ,42, ,
3, ,42, ,
2, ,42, ,
-1, ,42, ,
-2, ,42, ,
-4, ,42, ,
-6, ,42, ,
-10, ,42, ,
-11, ,42, ,
-13, ,42, ,
-15, ,42, ,
-17, ,42, ,
-18, ,42, ,
-19, ,42, ,
-19, ,42, ,
-20, ,42, ,
-20, ,42, ,
-20, ,42, ,
-21, ,42, ,
-21, ,42, ,
-20, ,42, ,
-20, ,42, ,
-19, ,42, ,
-18, ,42, ,
-17, ,42, ,
-15, ,42, ,
-14, ,42, ,
-9, ,42, ,
-6, ,42, ,
-5, ,42, ,
-1, ,42, ,
4, ,42, ,
7, ,42, ,
10, ,42, ,
11, ,42, ,
17, ,42, ,
18, ,42, ,
20, ,42, ,
21, ,42, ,
23, ,42, ,
23, ,42, ,
23, ,42, ,
23, ,42, ,
21, ,42, ,
21, ,42, ,
19, ,42, ,
17, ,42, ,
15, ,42, ,
12, ,42, ,
11, ,42, ,
9, ,42, ,
5, ,42, ,
3, ,42, ,
2, ,42, ,
0, ,42, ,
-3, ,42, ,
-4, ,42, ,
-4, ,42, ,
-6, ,42, ,
-7, ,42, ,
-7, ,42, ,
-7, ,42, ,
-7, ,42, ,
-6, ,42, ,
-6, ,42, ,
-6, ,42, ,
-5, ,42, ,
-5, ,42, ,
-4, ,42, ,
-4, ,42, ,
-4, ,42, ,
-4, ,42, ,
-4, ,42, ,
-4, ,42, ,
-5, ,42, ,
-7, ,42, ,
-7, ,42, ,
-9, ,42, ,
-10, ,42, ,
-13, ,42, ,
-14, ,42, ,
-15, ,42, ,
-17, ,42, ,
-19, ,42, ,
-21, ,42, ,
-21, ,42, ,
-22, ,42, ,
-23, ,42, ,
-23, ,42, ,
-23, ,42, ,
-23, ,42, ,
-23, ,42, ,
-23, ,42, ,
-23, ,42, ,
-22, ,42, ,
-22, ,42, ,
-22, ,42, ,
-21, ,42, ,
-21, ,42, ,
-20, ,42, ,
-20, ,42, ,
-20, ,42, ,
-19, ,42, ,
-19, ,42, ,
-19, ,42, ,
-19, ,42, ,
-19, ,42, ,
-20, ,42, ,
-20, ,42, ,
-20, ,42, ,
-20, ,42, ,
-21, ,42, ,
-21, ,42, ,
-21, ,42, ,
-21, ,42, ,
-20, ,42, ,
-19, ,42, ,
-18, ,42, ,
-17, ,42, ,
-14, ,42, ,
-12, ,42, ,
-10, ,42, ,
-9, ,42, ,
-5, ,42, ,
-2, ,42, ,
-1, ,42, ,
1, ,42, ,
4, ,42, ,
6, ,42, ,
7, ,42, ,
8, ,42, ,
10, ,42, ,
11, ,42, ,
12, ,42, ,
12, ,42, ,
13, ,42, ,
13, ,42, ,
13, ,42, ,
13, ,42, ,
12, ,42, ,
12, ,42, ,
12, ,42, ,
13, ,42, ,
14, ,42, ,
14, ,42, ,
15, ,42, ,
15, ,42, ,
16, ,42, ,
18, ,42, ,
17, ,42, ,
18, ,42, ,
18, ,42, ,
18, ,42, ,
18, ,42, ,
17, ,42, ,
16, ,42, ,
15, ,42, ,
14, ,42, ,
14, ,42, ,
11, ,42, ,
10, ,42, ,
8, ,42, ,
6, ,42, ,
3, ,42, ,
2, ,42, ,
-1, ,42, ,
-1, ,42, ,
-4, ,42, ,
-6, ,42, ,
-6, ,42, ,
-8, ,42, ,
-9, ,42, ,
-9, ,42, ,
-9, ,42, ,
-9, ,42, ,
-10, ,42, ,
-10, ,42, ,
-10, ,42, ,
-10, ,42, ,
-10, ,42, ,
-10, ,42, ,
-11, ,42, ,
-11, ,42, ,
-11, ,42, ,
-11, ,42, ,
-11, ,42, ,
-12, ,42, ,
-12, ,42, ,
-12, ,42, ,
-12, ,42, ,
-12, ,42, ,
-12, ,42, ,
-13, ,42, ,
-12, ,42, ,
-12, ,42, ,
-13, ,42, ,
-13, ,42, ,
-14, ,42, ,
-14, ,42, ,
-14, ,42, ,
-15, ,42, ,
-15, ,42, ,
-16, ,42, ,
-17, ,42, ,
-17, ,42, ,
-17, ,42, ,
-17, ,42, ,
-17, ,42, ,
-18, ,42, ,
-18, ,42, ,
-18, ,42, ,
-17, ,42, ,
-15, ,42, ,
-15, ,42, ,
-14, ,42, ,
-11, ,42, ,
-11, ,42, ,
-8, ,42, ,
-7, ,42, ,
-5, ,42, ,
-4, ,42, ,
-3, ,42, ,
-1, ,42, ,
0, ,42, ,
0, ,42, ,
0, ,42, ,
0, ,42, ,
1, ,42, ,
1, ,42, ,
0, ,42, ,
0, ,42, ,
-2, ,42, ,
-3, ,42, ,
-3, ,42, ,
-5, ,42, ,
-7, ,42, ,
-8, ,42, ,
-9, ,42, ,
-10, ,42, ,
-12, ,42, ,
-13, ,42, ,
-13, ,42, ,
-13, ,42, ,
-13, ,42, ,
-12, ,42, ,
-12, ,42, ,
-10, ,42, ,
-8, ,42, ,
-7, ,42, ,
-5, ,42, ,
-4, ,42, ,
-1, ,42, ,
1, ,42, ,
2, ,42, ,
4, ,42, ,
6, ,42, ,
6, ,42, ,
7, ,42, ,
7, ,42, ,
7, ,42, ,
6, ,42, ,
6, ,42, ,
5, ,42, ,
4, ,42, ,
3, ,42, ,
3, ,42, ,
1, ,42, ,
0, ,42, ,
-1, ,42, ,
-2, ,42, ,
-2, ,42, ,
-3, ,42, ,
-4, ,42, ,
-4, ,42, ,
-4, ,42, ,
-4, ,42, ,
-4, ,42, ,
-4, ,42, ,
-3, ,42, ,
-3, ,42, ,
-3, ,42, ,
-3, ,42, ,
-3, ,42, ,
-2, ,42, ,
-1, ,42, ,
-1, ,42, ,
-1, ,42, ,
1, ,42, ,
1, ,42, ,
1, ,42, ,
1, ,42, ,
2, ,42, ,
2, ,42, ,
1, ,42, ,
1, ,42, ,
0, ,42, ,
-1, ,42, ,
-1, ,42, ,
-3, ,42, ,
-3, ,42, ,
-4, ,42, ,
-4, ,42, ,
-4, ,42, ,
-4, ,42, ,
-4, ,42, ,
-4, ,42, ,
-4, ,42, ,
-3, ,42, ,
-1, ,42, ,
-1, ,42, ,
0, ,42, ,
1, ,42, ,
1, ,42, ,
3, ,42, ,
3, ,42, ,
3, ,42, ,
3, ,42, ,
3, ,42, ,
3, ,42, ,
2, ,42, ,
1, ,42, ,
1, ,42, ,
0, ,42, ,
-1, ,42, ,
-2, ,42, ,
-3, ,42, ,
-3, ,42, ,
-5, ,42, ,
-6, ,42, ,
-7, ,42, ,
-8, ,42, ,
-8, ,42, ,
-8, ,42, ,
-8, ,42, ,
-8, ,42, ,
-7, ,42, ,
-7, ,42, ,
-5, ,42, ,
-4, ,42, ,
-2, ,42, ,
0, ,42, ,
1, ,42, ,
4, ,42, ,
6, ,42, ,
7, ,42, ,
8, ,42, ,
8, ,42, ,
8, ,42, ,
8, ,42, ,
7, ,42, ,
7, ,42, ,
5, ,42, ,
3, ,42, ,
2, ,42, ,
0, ,42, ,
-3, ,42, ,
-3, ,42, ,
-5, ,42, ,
-6, ,42, ,
-7, ,42, ,
-8, ,42, ,
-8, ,42, ,
-8, ,42, ,
-8, ,42, ,
-7, ,42, ,
-7, ,42, ,
-6, ,42, ,
-4, ,42, ,
-4, ,42, ,
-2, ,42, ,
-2, ,42, ,
0, ,42, ,
1, ,42, ,
2, ,42, ,
4, ,42, ,
5, ,42, ,
5, ,42, ,
6, ,42, ,
5, ,42, ,
4, ,42, ,
4, ,42, ,
3, ,42, ,
3, ,42, ,
0, ,42, ,
-2, ,42, ,
-3, ,42, ,
-5, ,42, ,
-9, ,42, ,
-11, ,42, ,
-12, ,42, ,
-13, ,42, ,
-16, ,42, ,
-17, ,42, ,
-17, ,42, ,
-17, ,42, ,
-16, ,42, ,
-15, ,42, ,
-14, ,42, ,
-13, ,42, ,
-10, ,42, ,
-8, ,42, ,
-6, ,42, ,
-4, ,42, ,
-1, ,42, ,
2, ,42, ,
3, ,42, ,
5, ,42, ,
8, ,42, ,
8, ,42, ,
10, ,42, ,
11, ,42, ,
12, ,42, ,
14, ,42, ,
13, ,42, ,
13, ,42, ,
13, ,42, ,
12, ,42, ,
12, ,42, ,
10, ,42, ,
9, ,42, ,
8, ,42, ,
6, ,42, ,
6, ,42, ,
3, ,42, ,
2, ,42, ,
0, ,42, ,
-1, ,42, ,
-3, ,42, ,
-3, ,42, ,
-3, ,42, ,
-3, ,42, ,
-2, ,42, ,
-2, ,42, ,
-1, ,42, ,
0, ,42, ,
1, ,42, ,
3, ,42, ,
3, ,42, ,
5, ,42, ,
6, ,42, ,
6, ,42, ,
6, ,42, ,
6, ,42, ,
6, ,42, ,
6, ,42, ,
5, ,42, ,
4, ,42, ,
3, ,42, ,
1, ,42, ,
0, ,42, ,
-1, ,42, ,
-4, ,42, ,
-6, ,42, ,
-8, ,42, ,
-9, ,42, ,
-12, ,42, ,
-13, ,42, ,
-14, ,42, ,
-16, ,42, ,
-19, ,42, ,
-19, ,42, ,
-20, ,42, ,
-20, ,42, ,
-20, ,42, ,
-20, ,42, ,
-19, ,42, ,
-18, ,42, ,
-16, ,42, ,
-14, ,42, ,
-13, ,42, ,
-12, ,42, ,
-9, ,42, ,
-7, ,42, ,
-6, ,42, ,
-4, ,42, ,
-1, ,42, ,
0, ,42, ,
1, ,42, ,
2, ,42, ,
4, ,42, ,
5, ,42, ,
6, ,42, ,
7, ,42, ,
7, ,42, ,
8, ,42, ,
8, ,42, ,
9, ,42, ,
10, ,42, ,
10, ,42, ,
11, ,42, ,
11, ,42, ,
12, ,42, ,
12, ,42, ,
12, ,42, ,
12, ,42, ,
13, ,42, ,
12, ,42, ,
12, ,42, ,
12, ,42, ,
12, ,42, ,
12, ,42, ,
11, ,42, ,
11, ,42, ,
10, ,42, ,
9, ,42, ,
9, ,42, ,
7, ,42, ,
5, ,42, ,
4, ,42, ,
2, ,42, ,
1, ,42, ,
-2, ,42, ,
-5, ,42, ,
-7, ,42, ,
-9, ,42, ,
-13, ,42, ,
-15, ,42, ,
-17, ,42, ,
-17, ,42, ,
-21, ,42, ,
-22, ,42, ,
-22, ,42, ,
-22, ,42, ,
-22, ,42, ,
-21, ,42, ,
-21, ,42, ,
-21, ,42, ,
-18, ,42, ,
-18, ,42, ,
-15, ,42, ,
-14, ,42, ,
-11, ,42, ,
-9, ,42, ,
-8, ,42, ,
-5, ,42, ,
-3, ,42, ,
-1, ,42, ,
1, ,42, ,
1, ,42, ,
3, ,42, ,
4, ,42, ,
3, ,42, ,
3, ,42, ,
3, ,42, ,
2, ,42, ,
2, ,42, ,
0, ,42, ,
-1, ,42, ,
-2, ,42, ,
-3, ,42, ,
-4, ,42, ,
-6, ,42, ,
-6, ,42, ,
-6, ,42, ,
-7, ,42, ,
-7, ,42, ,
-7, ,42, ,
-7, ,42, ,
-6, ,42, ,
-5, ,42, ,
-3, ,42, ,
-2, ,42, ,
-1, ,42, ,
2, ,42, ,
4, ,42, ,
5, ,42, ,
7, ,42, ,
10, ,42, ,
10, ,42, ,
11, ,42, ,
12, ,42, ,
12, ,42, ,
12, ,42, ,
11, ,42, ,
11, ,42, ,
9, ,42, ,
7, ,42, ,
6, ,42, ,
4, ,42, ,
0, ,42, ,
-1, ,42, ,
-3, ,42, ,
-4, ,42, ,
-7, ,42, ,
-8, ,42, ,
-8, ,42, ,
-9, ,42, ,
-9, ,42, ,
-8, ,42, ,
-8, ,42, ,
-7, ,42, ,
-5, ,42, ,
-5, ,42, ,
-4, ,42, ,
-3, ,42, ,
-1, ,42, ,
-1, ,42, ,
-1, ,42, ,
0, ,42, ,
0, ,42, ,
-1, ,42, ,
-1, ,42, ,
-2, ,42, ,
-3, ,42, ,
-3, ,42, ,
-5, ,42, ,
-5, ,42, ,
-6, ,42, ,
-7, ,42, ,
-7, ,42, ,
-7, ,42, ,
-6, ,42, ,
-6, ,42, ,
-5, ,42, ,
-4, ,42, ,
-3, ,42, ,
-3, ,42, ,
-2, ,42, ,
-1, ,42, ,
1, ,42, ,
3, ,42, ,
3, ,42, ,
4, ,42, ,
5, ,42, ,
5, ,42, ,
5, ,42, ,
5, ,42, ,
4, ,42, ,
4, ,42, ,
3, ,42, ,
3, ,42, ,
1, ,42, ,
1, ,42, ,
0, ,42, ,
-1, ,42, ,
-3, ,42, ,
-4, ,42, ,
-4, ,42, ,
-5, ,42, ,
-6, ,42, ,
-6, ,42, ,
-6, ,42, ,
-6, ,42, ,
-6, ,42, ,
-4, ,42, ,
-4, ,42, ,
-3, ,42, ,
0, ,42, ,
0, ,42, ,
3, ,42, ,
3, ,42, ,
6, ,42, ,
8, ,42, ,
8, ,42, ,
10, ,42, ,
11, ,42, ,
11, ,42, ,
11, ,42, ,
11, ,42, ,
9, ,42, ,
9, ,42, ,
8, ,42, ,
8, ,42, ,
6, ,42, ,
4, ,42, ,
3, ,42, ,
2, ,42, ,
0, ,42, ,
-1, ,42, ,
-1, ,42, ,
-2, ,42, ,
-2, ,42, ,
-2, ,42, ,
-2, ,42, ,
-2, ,42, ,
-1, ,42, ,
0, ,42, ,
0, ,42, ,
1, ,42, ,
2, ,42, ,
2, ,42, ,
2, ,42, ,
2, ,42, ,
2, ,42, ,
1, ,42, ,
1, ,42, ,
0, ,42, ,
-1, ,42, ,
-3, ,42, ,
-3, ,42, ,
-4, ,42, ,
-6, ,42, ,
-7, ,42, ,
-8, ,42, ,
-8, ,42, ,
-9, ,42, ,
-9, ,42, ,
-9, ,42, ,
-9, ,42, ,
-9, ,42, ,
-8, ,42, ,
-8, ,42, ,
-7, ,42, ,
-6, ,42, ,
-6, ,42, ,
-5, ,42, ,
-4, ,42, ,
-3, ,42, ,
-2, ,42, ,
-2, ,42, ,
-1, ,42, ,
0, ,42, ,
1, ,42, ,
2, ,42, ,
2, ,42, ,
3, ,42, ,
6, ,42, ,
6, ,42, ,
6, ,42, ,
8, ,42, ,
8, ,42, ,
9, ,42, ,
10, ,42, ,
10, ,42, ,
10, ,42, ,
9, ,42, ,
8, ,42, ,
7, ,42, ,
6, ,42, ,
5, ,42, ,
3, ,42, ,
0, ,42, ,
-1, ,42, ,
-3, ,42, ,
-4, ,42, ,
-5, ,42, ,
-6, ,42, ,
-6, ,42, ,
-6, ,42, ,
-5, ,42, ,
-4, ,42, ,
-4, ,42, ,
-2, ,42, ,
0, ,42, ,
1, ,42, ,
2, ,42, ,
2, ,42, ,
4, ,42, ,
5, ,42, ,
5, ,42, ,
5, ,42, ,
5, ,42, ,
4, ,42, ,
4, ,42, ,
2, ,42, ,
0, ,42, ,
0, ,42, ,
-1, ,42, ,
-2, ,42, ,
-3, ,42, ,
-5, ,42, ,
-5, ,42, ,
-5, ,42, ,
-5, ,42, ,
-5, ,42, ,
-5, ,42, ,
-5, ,42, ,
-4, ,42, ,
-5, ,42, ,
-3, ,42, ,
-3, ,42, ,
-1, ,42, ,
0, ,42, ,
1, ,42, ,
2, ,42, ,
3, ,42, ,
3, ,42, ,
3, ,42, ,
3, ,42, ,
3, ,42, ,
2, ,42, ,
1, ,42, ,
0, ,42, ,
-1, ,42, ,
-3, ,42, ,
-3, ,42, ,
-4, ,42, ,
-6, ,42, ,
-6, ,42, ,
-6, ,42, ,
-6, ,42, ,
-6, ,42, ,
-6, ,42, ,
-5, ,42, ,
-5, ,42, ,
-3, ,42, ,
-3, ,42, ,
-2, ,42, ,
-1, ,42, ,
0, ,42, ,
1, ,42, ,
1, ,42, ,
2, ,42, ,
2, ,42, ,
2, ,42, ,
1, ,42, ,
1, ,42, ,
0, ,42, ,
-1, ,42, ,
-1, ,42, ,
-1, ,42, ,
-2, ,42, ,
-2, ,42, ,
-2, ,42, ,
-1, ,42, ,
-1, ,42, ,
-1, ,42, ,
0, ,42, ,
1, ,42, ,
2, ,42, ,
3, ,42, ,
4, ,42, ,
6, ,42, ,
8, ,42, ,
9, ,42, ,
11, ,42, ,
11, ,42, ,
13, ,42, ,
14, ,42, ,
15, ,42, ,
15, ,42, ,
15, ,42, ,
15, ,42, ,
15, ,42, ,
14, ,42, ,
12, ,42, ,
12, ,42, ,
10, ,42, ,
8, ,42, ,
6, ,42, ,
4, ,42, ,
3, ,42, ,
1, ,42, ,
-2, ,42, ,
-3, ,42, ,
-5, ,42, ,
-5, ,42, ,
-7, ,42, ,
-9, ,42, ,
-9, ,42, ,
-10, ,42, ,
-10, ,42, ,
-10, ,42, ,
-10, ,42, ,
-10, ,42, ,
-9, ,42, ,
-9, ,42, ,
-8, ,42, ,
-8, ,42, ,
-6, ,42, ,
-5, ,42, ,
-4, ,42, ,
-3, ,42, ,
1, ,42, ,
0, ,42, ,
2, ,42, ,
3, ,42, ,
4, ,42, ,
5, ,42, ,
5, ,42, ,
5, ,42, ,
4, ,42, ,
3, ,42, ,
3, ,42, ,
1, ,42, ,
0, ,42, ,
0, ,42, ,
-2, ,42, ,
-2, ,42, ,
-4, ,42, ,
-4, ,42, ,
-4, ,42, ,
-4, ,42, ,
-4, ,42, ,
-4, ,42, ,
-3, ,42, ,
-3, ,42, ,
-1, ,42, ,
-1, ,42, ,
1, ,42, ,
1, ,42, ,
3, ,42, ,
4, ,42, ,
4, ,42, ,
6, ,42, ,
6, ,42, ,
6, ,42, ,
6, ,42, ,
6, ,42, ,
6, ,42, ,
6, ,42, ,
6, ,42, ,
5, ,42, ,
4, ,42, ,
4, ,42, ,
3, ,42, ,
2, ,42, ,
1, ,42, ,
1, ,42, ,
1, ,42, ,
1, ,42, ,
0, ,42, ,
-1, ,42, ,
-1, ,42, ,
-1, ,42, ,
-1, ,42, ,
-1, ,42, ,
-1, ,42, ,
-1, ,42, ,
-1, ,42, ,
-2, ,42, ,
-2, ,42, ,
-2, ,42, ,
-3, ,42, ,
-3, ,42, ,
-4, ,42, ,
-4, ,42, ,
-5, ,42, ,
-6, ,42, ,
-6, ,42, ,
-6, ,42, ,
-6, ,42, ,
-6, ,42, ,
-6, ,42, ,
-6, ,42, ,
-5, ,42, ,
-5, ,42, ,
-3, ,42, ,
-3, ,42, ,
-1, ,42, ,
0, ,42, ,
1, ,42, ,
2, ,42, ,
4, ,42, ,
5, ,42, ,
5, ,42, ,
6, ,42, ,
6, ,42, ,
7, ,42, ,
6, ,42, ,
6, ,42, ,
5, ,42, ,
4, ,42, ,
4, ,42, ,
2, ,42, ,
1, ,42, ,
1, ,42, ,
-1, ,42, ,
-1, ,42, ,
-3, ,42, ,
-4, ,42, ,
-4, ,42, ,
-4, ,42, ,
-5, ,42, ,
-5, ,42, ,
-5, ,42, ,
-4, ,42, ,
-4, ,42, ,
-3, ,42, ,
-3, ,42, ,
-3, ,42, ,
-2, ,42, ,
-1, ,42, ,
0, ,42, ,
0, ,42, ,
2, ,42, ,
2, ,42, ,
2, ,42, ,
3, ,42, ,
3, ,42, ,
4, ,42, ,
4, ,42, ,
3, ,42, ,
3, ,42, ,
3, ,42, ,
3, ,42, ,
2, ,42, ,
1, ,42, ,
1, ,42, ,
1, ,42, ,
1, ,42, ,
1, ,42, ,
1, ,42, ,
1, ,42, ,
1, ,42, ,
1, ,42, ,
1, ,42, ,
2, ,42, ,
2, ,42, ,
3, ,42, ,
4, ,42, ,
4, ,42, ,
4, ,42, ,
4, ,42, ,
4, ,42, ,
4, ,42, ,
4, ,42, ,
3, ,42, ,
2, ,42, ,
2, ,42, ,
1, ,42, ,
0, ,42, ,
0, ,42, ,
-1, ,42, ,
-1, ,42, ,
-3, ,42, ,
-4, ,42, ,
-5, ,42, ,
-5, ,42, ,
-5, ,42, ,
-5, ,42, ,
-6, ,42, ,
-6, ,42, ,
-5, ,42, ,
-5, ,42, ,
-5, ,42, ,
-5, ,42, ,
-4, ,42, ,
-3, ,42, ,
-3, ,42, ,
-3, ,42, ,
-2, ,42, ,
-2, ,42, ,
-1, ,42, ,
-1, ,42, ,
0, ,42, ,
0, ,42, ,
0, ,42, ,
1, ,42, ,
1, ,42, ,
1, ,42, ,
1, ,42, ,
1, ,42, ,
2, ,42, ,
2, ,42, ,
2, ,42, ,
2, ,42, ,
2, ,42, ,
1, ,42, ,
1, ,42, ,
1, ,42, ,
1, ,42, ,
1, ,42, ,
1, ,42, ,
1, ,42, ,
1, ,42, ,
1, ,42, ,
1, ,42, ,
1, ,42, ,
1, ,42, ,
1, ,42, ,
1, ,42, ,
1, ,42, ,
2, ,42, ,
2, ,42, ,
2, ,42, ,
2, ,42, ,
3, ,42, ,
3, ,42, ,
3, ,42, ,
3, ,42, ,
4, ,42, ,
4, ,42, ,
4, ,42, ,
4, ,42, ,
3, ,42, ,
3, ,42, ,
3, ,42, ,
3, ,42, ,
3, ,42, ,
3, ,42, ,
3, ,42, ,
3, ,42, ,
