raw_data/75% Glycerol, Impulsion 2Hz, Sonde 5MHz, Rampe 0.7Hz/temp0000163.CSV

Format,1.0B,
Memory Length,10000,Memory Length,10000,
IntpDistance,0,IntpDistance,0,
Trigger Address,159,Trigger Address,159,
Trigger Level,2.720E-01,Trigger Level,2.720E-01,
Source,CH1,Source,CH2,
Vertical Units,V,Vertical Units,V,
Vertical Units Div,0,Vertical Units Div,0,
Vertical Units Extend Div,16,Vertical Units Extend Div,16,
Label,,Label,,
Probe Type,0,Probe Type,0,
Probe Ratio,1.000e+00,Probe Ratio,1.000e+00,
Vertical Scale,5.000e-01,Vertical Scale,2.000e+00,
Vertical Position,0.000e+00,Vertical Position,0.000e+00,
Horizontal Units,S,Horizontal Units,S,
Horizontal Scale,5.000E-06,Horizontal Scale,5.000E-06,
Horizontal Position,2.420E-05,Horizontal Position,2.420E-05,
Horizontal Mode,Main,Horizontal Mode,Main,
SincET Mode,Real Time,SincET Mode,Real Time,
Sampling Period,5.000e-09,Sampling Period,5.000e-09,
Horizontal Old Scale,5.000E-06,Horizontal Old Scale,5.000E-06,
Horizontal Old Position,2.420E-05,Horizontal Old Position,2.420E-05,
Firmware,V1.32,Firmware,V1.32,
Mode,Fast,Mode,Fast,
Waveform Data,,Waveform Data,,
1, ,40, ,
1, ,40, ,
1, ,40, ,
1, ,40, ,
1, ,40, ,
1, ,40, ,
0, ,40, ,
0, ,40, ,
0, ,40, ,
0, ,40, ,
0, ,40, ,
1, ,40, ,
1, ,40, ,
1, ,40, ,
0, ,40, ,
0, ,40, ,
1, ,40, ,
1, ,40, ,
1, ,40, ,
1, ,40, ,
0, ,40, ,
0, ,40, ,
0, ,40, ,
0, ,40, ,
0, ,40, ,
0, ,40, ,
0, ,40, ,
1, ,40, ,
1, ,40, ,
1, ,40, ,
1, ,40, ,
0, ,40, ,
0, ,40, ,
0, ,40, ,
0, ,40, ,
1, ,40, ,
0, ,40, ,
0, ,40, ,
0, ,40, ,
1, ,40, ,
1, ,40, ,
1, ,40, ,
1, ,40, ,
1, ,40, ,
1, ,40, ,
1, ,40, ,
1, ,40, ,
1, ,40, ,
1, ,40, ,
0, ,40, ,
0, ,40, ,
1, ,40, ,
1, ,40, ,
1, ,40, ,
1, ,40, ,
1, ,40, ,
0, ,40, ,
0, ,40, ,
0, ,40, ,
1, ,40, ,
1, ,40, ,
1, ,40, ,
1, ,40, ,
0, ,40, ,
0, ,40, ,
0, ,40, ,
1, ,40, ,
1, ,40, ,
0, ,40, ,
0, ,40, ,
0, ,40, ,
1, ,40, ,
1, ,40, ,
0, ,40, ,
0, ,40, ,
0, ,40, ,
0, ,40, ,
0, ,40, ,
0, ,40, ,
0, ,40, ,
1, ,40, ,
0, ,40, ,
0, ,40, ,
0, ,40, ,
0, ,40, ,
1, ,40, ,
1, ,40, ,
0, ,40, ,
0, ,40, ,
0, ,40, ,
1, ,40, ,
0, ,40, ,
0, ,40, ,
1, ,40, ,
0, ,40, ,
0, ,40, ,
0, ,40, ,
0, ,40, ,
1, ,40, ,
1, ,40, ,
0, ,40, ,
0, ,40, ,
0, ,40, ,
0, ,40, ,
0, ,40, ,
0, ,40, ,
1, ,40, ,
1, ,40, ,
1, ,40, ,
1, ,40, ,
1, ,40, ,
0, ,40, ,
0, ,40, ,
0, ,40, ,
0, ,40, ,
1, ,40, ,
1, ,40, ,
1, ,40, ,
0, ,40, ,
0, ,40, ,
1, ,40, ,
1, ,40, ,
1, ,40, ,
1, ,40, ,
1, ,40, ,
1, ,40, ,
0, ,40, ,
0, ,40, ,
1, ,40, ,
0, ,40, ,
0, ,40, ,
1, ,40, ,
1, ,40, ,
0, ,40, ,
0, ,40, ,
1, ,40, ,
1, ,40, ,
0, ,40, ,
0, ,40, ,
1, ,40, ,
1, ,40, ,
1, ,40, ,
0, ,40, ,
0, ,40, ,
0, ,40, ,
0, ,40, ,
0, ,40, ,
1, ,40, ,
1, ,40, ,
1, ,40, ,
1, ,40, ,
1, ,40, ,
1, ,40, ,
1, ,40, ,
1, ,40, ,
1, ,40, ,
0, ,40, ,
0, ,40, ,
0, ,40, ,
0, ,40, ,
0, ,40, ,
0, ,40, ,
1, ,40, ,
0, ,40, ,
-1, ,40, ,
-1, ,40, ,
0, ,40, ,
7, ,40, ,
27, ,40, ,
61, ,40, ,
102, ,40, ,
123, ,40, ,
120, ,40, ,
77, ,40, ,
18, ,40, ,
22, ,40, ,
76, ,40, ,
125, ,40, ,
125, ,40, ,
125, ,40, ,
125, ,40, ,
125, ,40, ,
125, ,40, ,
124, ,40, ,
124, ,40, ,
119, ,40, ,
113, ,40, ,
105, ,40, ,
101, ,40, ,
99, ,40, ,
95, ,40, ,
88, ,40, ,
85, ,40, ,
81, ,40, ,
78, ,40, ,
73, ,40, ,
70, ,40, ,
68, ,40, ,
65, ,40, ,
60, ,40, ,
57, ,40, ,
55, ,40, ,
53, ,40, ,
48, ,40, ,
46, ,40, ,
44, ,40, ,
42, ,40, ,
39, ,40, ,
37, ,40, ,
35, ,40, ,
34, ,40, ,
31, ,40, ,
29, ,40, ,
28, ,40, ,
26, ,40, ,
25, ,40, ,
24, ,40, ,
22, ,40, ,
22, ,40, ,
20, ,40, ,
19, ,40, ,
18, ,40, ,
17, ,40, ,
15, ,40, ,
15, ,40, ,
13, ,40, ,
13, ,40, ,
12, ,40, ,
11, ,40, ,
11, ,40, ,
10, ,40, ,
9, ,40, ,
9, ,40, ,
7, ,40, ,
7, ,40, ,
6, ,40, ,
5, ,40, ,
5, ,40, ,
5, ,40, ,
4, ,40, ,
4, ,40, ,
4, ,40, ,
4, ,40, ,
3, ,40, ,
3, ,40, ,
3, ,40, ,
2, ,40, ,
2, ,40, ,
2, ,40, ,
1, ,40, ,
1, ,40, ,
1, ,40, ,
1, ,40, ,
1, ,40, ,
1, ,40, ,
0, ,40, ,
0, ,40, ,
0, ,40, ,
0, ,40, ,
0, ,40, ,
-1, ,40, ,
-1, ,40, ,
-1, ,40, ,
-1, ,40, ,
-1, ,40, ,
-1, ,40, ,
-1, ,40, ,
-1, ,40, ,
-1, ,40, ,
-1, ,40, ,
-1, ,40, ,
-1, ,40, ,
-1, ,40, ,
-1, ,40, ,
-1, ,40, ,
-2, ,40, ,
-2, ,40, ,
-1, ,40, ,
-1, ,40, ,
-1, ,40, ,
-1, ,40, ,
-2, ,40, ,
-2, ,40, ,
-1, ,40, ,
-1, ,40, ,
-1, ,40, ,
-1, ,40, ,
-1, ,40, ,
-1, ,40, ,
-1, ,40, ,
-1, ,40, ,
-1, ,40, ,
-1, ,40, ,
-1, ,40, ,
-2, ,40, ,
-2, ,40, ,
-1, ,40, ,
-1, ,40, ,
-1, ,40, ,
-1, ,40, ,
-1, ,40, ,
-1, ,40, ,
-1, ,40, ,
-1, ,40, ,
-1, ,40, ,
-1, ,40, ,
-1, ,40, ,
-1, ,40, ,
-1, ,40, ,
-1, ,40, ,
-1, ,40, ,
-1, ,40, ,
-1, ,40, ,
-1, ,40, ,
-1, ,40, ,
-1, ,40, ,
-1, ,40, ,
-1, ,40, ,
-1, ,40, ,
-1, ,40, ,
0, ,40, ,
0, ,40, ,
0, ,40, ,
0, ,40, ,
-1, ,40, ,
-1, ,40, ,
-1, ,40, ,
0, ,40, ,
0, ,40, ,
0, ,40, ,
0, ,40, ,
-1, ,40, ,
-1, ,40, ,
-1, ,40, ,
0, ,40, ,
0, ,40, ,
0, ,40, ,
0, ,40, ,
0, ,40, ,
0, ,40, ,
0, ,40, ,
0, ,40, ,
0, ,40, ,
0, ,40, ,
0, ,40, ,
0, ,40, ,
0, ,40, ,
-1, ,40, ,
-1, ,40, ,
0, ,40, ,
0, ,40, ,
0, ,40, ,
0, ,40, ,
0, ,40, ,
0, ,40, ,
0, ,40, ,
0, ,40, ,
0, ,40, ,
0, ,40, ,
0, ,40, ,
0, ,40, ,
0, ,40, ,
0, ,40, ,
0, ,40, ,
0, ,40, ,
0, ,40, ,
0, ,40, ,
0, ,40, ,
0, ,40, ,
0, ,40, ,
0, ,40, ,
0, ,40, ,
0, ,40, ,
0, ,40, ,
0, ,40, ,
0, ,40, ,
0, ,40, ,
0, ,40, ,
0, ,40, ,
0, ,40, ,
0, ,40, ,
0, ,40, ,
0, ,40, ,
0, ,40, ,
0, ,40, ,
0, ,40, ,
0, ,40, ,
0, ,40, ,
0, ,40, ,
0, ,40, ,
0, ,40, ,
0, ,40, ,
0, ,40, ,
0, ,40, ,
0, ,40, ,
0, ,40, ,
0, ,40, ,
0, ,40, ,
0, ,40, ,
0, ,40, ,
0, ,40, ,
0, ,40, ,
0, ,40, ,
0, ,40, ,
0, ,40, ,
0, ,40, ,
0, ,40, ,
0, ,40, ,
0, ,40, ,
0, ,40, ,
0, ,40, ,
0, ,40, ,
0, ,40, ,
0, ,40, ,
0, ,40, ,
1, ,40, ,
1, ,40, ,
0, ,40, ,
0, ,40, ,
1, ,40, ,
1, ,40, ,
1, ,40, ,
1, ,40, ,
1, ,40, ,
1, ,40, ,
1, ,40, ,
1, ,40, ,
1, ,40, ,
0, ,40, ,
0, ,40, ,
0, ,40, ,
0, ,40, ,
0, ,40, ,
0, ,40, ,
0, ,40, ,
0, ,40, ,
0, ,40, ,
-1, ,40, ,
-1, ,40, ,
-3, ,40, ,
-3, ,40, ,
-5, ,40, ,
-6, ,40, ,
-9, ,40, ,
-10, ,40, ,
-10, ,40, ,
-10, ,40, ,
-7, ,40, ,
-5, ,40, ,
-4, ,40, ,
-2, ,40, ,
0, ,40, ,
0, ,40, ,
1, ,40, ,
1, ,40, ,
2, ,40, ,
2, ,40, ,
2, ,40, ,
2, ,40, ,
2, ,40, ,
1, ,40, ,
1, ,40, ,
0, ,40, ,
-1, ,40, ,
-1, ,40, ,
-2, ,40, ,
-2, ,40, ,
-2, ,40, ,
-2, ,40, ,
-1, ,40, ,
-1, ,40, ,
0, ,40, ,
1, ,40, ,
1, ,40, ,
2, ,40, ,
2, ,40, ,
2, ,40, ,
2, ,40, ,
2, ,40, ,
2, ,40, ,
2, ,40, ,
1, ,40, ,
1, ,40, ,
2, ,40, ,
1, ,40, ,
1, ,40, ,
0, ,40, ,
0, ,40, ,
1, ,40, ,
1, ,40, ,
1, ,40, ,
1, ,40, ,
1, ,40, ,
2, ,40, ,
2, ,40, ,
2, ,40, ,
2, ,40, ,
2, ,40, ,
2, ,40, ,
2, ,40, ,
1, ,40, ,
1, ,40, ,
1, ,40, ,
1, ,40, ,
2, ,40, ,
2, ,40, ,
2, ,40, ,
2, ,40, ,
2, ,40, ,
2, ,40, ,
2, ,40, ,
2, ,40, ,
2, ,40, ,
2, ,40, ,
2, ,40, ,
2, ,40, ,
2, ,40, ,
1, ,40, ,
1, ,40, ,
0, ,40, ,
-1, ,40, ,
-2, ,40, ,
-2, ,40, ,
-5, ,40, ,
-7, ,40, ,
-9, ,40, ,
-10, ,40, ,
-14, ,40, ,
-16, ,40, ,
-17, ,40, ,
-17, ,40, ,
-18, ,40, ,
-18, ,40, ,
-17, ,40, ,
-17, ,40, ,
-17, ,40, ,
-17, ,40, ,
-17, ,40, ,
-18, ,40, ,
-19, ,40, ,
-20, ,40, ,
-22, ,40, ,
-23, ,40, ,
-25, ,40, ,
-26, ,40, ,
-27, ,40, ,
-27, ,40, ,
-26, ,40, ,
-26, ,40, ,
-25, ,40, ,
-25, ,40, ,
-24, ,40, ,
-24, ,40, ,
-25, ,40, ,
-25, ,40, ,
-25, ,40, ,
-27, ,40, ,
-28, ,40, ,
-30, ,40, ,
-33, ,40, ,
-33, ,40, ,
-33, ,40, ,
-33, ,40, ,
-31, ,40, ,
-29, ,40, ,
-26, ,40, ,
-24, ,40, ,
-17, ,40, ,
-13, ,40, ,
-10, ,40, ,
-6, ,40, ,
0, ,40, ,
2, ,40, ,
4, ,40, ,
4, ,40, ,
4, ,40, ,
4, ,40, ,
3, ,40, ,
2, ,40, ,
0, ,40, ,
-1, ,40, ,
-3, ,40, ,
-4, ,40, ,
-4, ,40, ,
-3, ,40, ,
-2, ,40, ,
-1, ,40, ,
1, ,40, ,
2, ,40, ,
4, ,40, ,
6, ,40, ,
10, ,40, ,
11, ,40, ,
12, ,40, ,
14, ,40, ,
14, ,40, ,
14, ,40, ,
14, ,40, ,
13, ,40, ,
11, ,40, ,
10, ,40, ,
8, ,40, ,
6, ,40, ,
3, ,40, ,
1, ,40, ,
1, ,40, ,
-1, ,40, ,
-2, ,40, ,
-2, ,40, ,
-1, ,40, ,
-1, ,40, ,
0, ,40, ,
0, ,40, ,
1, ,40, ,
1, ,40, ,
3, ,40, ,
4, ,40, ,
4, ,40, ,
5, ,40, ,
6, ,40, ,
5, ,40, ,
5, ,40, ,
5, ,40, ,
5, ,40, ,
4, ,40, ,
3, ,40, ,
3, ,40, ,
1, ,40, ,
1, ,40, ,
0, ,40, ,
-1, ,40, ,
-2, ,40, ,
-3, ,40, ,
-4, ,40, ,
-5, ,40, ,
-7, ,40, ,
-9, ,40, ,
-10, ,40, ,
-12, ,40, ,
-16, ,40, ,
-17, ,40, ,
-20, ,40, ,
-22, ,40, ,
-25, ,40, ,
-26, ,40, ,
-26, ,40, ,
-27, ,40, ,
-27, ,40, ,
-26, ,40, ,
-26, ,40, ,
-25, ,40, ,
-25, ,40, ,
-25, ,40, ,
-24, ,40, ,
-23, ,40, ,
-22, ,40, ,
-21, ,40, ,
-21, ,40, ,
-19, ,40, ,
-17, ,40, ,
-16, ,40, ,
-14, ,40, ,
-13, ,40, ,
-10, ,40, ,
-9, ,40, ,
-7, ,40, ,
-6, ,40, ,
-3, ,40, ,
-2, ,40, ,
0, ,40, ,
1, ,40, ,
3, ,40, ,
5, ,40, ,
6, ,40, ,
7, ,40, ,
9, ,40, ,
9, ,40, ,
11, ,40, ,
11, ,40, ,
11, ,40, ,
11, ,40, ,
10, ,40, ,
10, ,40, ,
7, ,40, ,
5, ,40, ,
4, ,40, ,
2, ,40, ,
-2, ,40, ,
-3, ,40, ,
-5, ,40, ,
-5, ,40, ,
-6, ,40, ,
-6, ,40, ,
-5, ,40, ,
-5, ,40, ,
-2, ,40, ,
-1, ,40, ,
1, ,40, ,
4, ,40, ,
7, ,40, ,
8, ,40, ,
9, ,40, ,
10, ,40, ,
9, ,40, ,
8, ,40, ,
6, ,40, ,
3, ,40, ,
-4, ,40, ,
-10, ,40, ,
-16, ,40, ,
-22, ,40, ,
-36, ,40, ,
-43, ,40, ,
-50, ,40, ,
-56, ,40, ,
-67, ,40, ,
-71, ,40, ,
-72, ,40, ,
-72, ,40, ,
-68, ,40, ,
-63, ,40, ,
-57, ,40, ,
-50, ,40, ,
-32, ,40, ,
-24, ,40, ,
-15, ,40, ,
-6, ,40, ,
9, ,40, ,
16, ,40, ,
20, ,40, ,
25, ,40, ,
29, ,40, ,
30, ,40, ,
32, ,40, ,
32, ,40, ,
34, ,40, ,
34, ,40, ,
34, ,40, ,
36, ,40, ,
39, ,40, ,
42, ,40, ,
44, ,40, ,
47, ,40, ,
51, ,40, ,
54, ,40, ,
54, ,40, ,
54, ,40, ,
53, ,40, ,
51, ,40, ,
48, ,40, ,
44, ,40, ,
27, ,40, ,
16, ,40, ,
0, ,40, ,
-18, ,40, ,
-56, ,40, ,
-75, ,40, ,
-90, ,40, ,
-104, ,40, ,
-116, ,40, ,
-116, ,40, ,
-116, ,40, ,
-116, ,40, ,
-117, ,40, ,
-118, ,40, ,
-117, ,40, ,
-117, ,40, ,
-75, ,40, ,
-25, ,40, ,
16, ,40, ,
42, ,40, ,
79, ,40, ,
90, ,40, ,
99, ,40, ,
103, ,40, ,
101, ,40, ,
100, ,40, ,
97, ,40, ,
95, ,40, ,
90, ,40, ,
88, ,40, ,
85, ,40, ,
81, ,40, ,
76, ,40, ,
73, ,40, ,
66, ,40, ,
54, ,40, ,
2, ,40, ,
-42, ,40, ,
-88, ,40, ,
-120, ,40, ,
-119, ,40, ,
-116, ,40, ,
-116, ,40, ,
-117, ,40, ,
-118, ,40, ,
-118, ,40, ,
-119, ,40, ,
-119, ,40, ,
-120, ,40, ,
-120, ,40, ,
-120, ,40, ,
-120, ,40, ,
-121, ,40, ,
-121, ,40, ,
-119, ,40, ,
-113, ,40, ,
69, ,40, ,
118, ,40, ,
119, ,40, ,
107, ,40, ,
83, ,40, ,
77, ,40, ,
68, ,40, ,
55, ,40, ,
16, ,40, ,
-5, ,40, ,
-23, ,40, ,
-39, ,40, ,
-61, ,40, ,
-69, ,40, ,
-73, ,40, ,
-74, ,40, ,
-66, ,40, ,
-55, ,40, ,
-42, ,40, ,
-27, ,40, ,
8, ,40, ,
25, ,40, ,
41, ,40, ,
57, ,40, ,
80, ,40, ,
89, ,40, ,
96, ,40, ,
101, ,40, ,
106, ,40, ,
105, ,40, ,
105, ,40, ,
103, ,40, ,
98, ,40, ,
96, ,40, ,
92, ,40, ,
90, ,40, ,
85, ,40, ,
82, ,40, ,
81, ,40, ,
78, ,40, ,
74, ,40, ,
73, ,40, ,
69, ,40, ,
65, ,40, ,
56, ,40, ,
51, ,40, ,
43, ,40, ,
35, ,40, ,
16, ,40, ,
6, ,40, ,
-5, ,40, ,
-15, ,40, ,
-33, ,40, ,
-42, ,40, ,
-50, ,40, ,
-57, ,40, ,
-68, ,40, ,
-71, ,40, ,
-74, ,40, ,
-76, ,40, ,
-77, ,40, ,
-77, ,40, ,
-76, ,40, ,
-75, ,40, ,
-73, ,40, ,
-70, ,40, ,
-68, ,40, ,
-65, ,40, ,
-58, ,40, ,
-55, ,40, ,
-50, ,40, ,
-46, ,40, ,
-39, ,40, ,
-35, ,40, ,
-33, ,40, ,
-31, ,40, ,
-30, ,40, ,
-30, ,40, ,
-31, ,40, ,
-33, ,40, ,
-37, ,40, ,
-39, ,40, ,
-41, ,40, ,
-43, ,40, ,
-44, ,40, ,
-43, ,40, ,
-42, ,40, ,
-38, ,40, ,
-29, ,40, ,
-22, ,40, ,
-13, ,40, ,
-3, ,40, ,
18, ,40, ,
27, ,40, ,
38, ,40, ,
47, ,40, ,
63, ,40, ,
70, ,40, ,
74, ,40, ,
77, ,40, ,
78, ,40, ,
77, ,40, ,
75, ,40, ,
71, ,40, ,
59, ,40, ,
52, ,40, ,
42, ,40, ,
32, ,40, ,
12, ,40, ,
2, ,40, ,
-8, ,40, ,
-16, ,40, ,
-29, ,40, ,
-34, ,40, ,
-37, ,40, ,
-38, ,40, ,
-37, ,40, ,
-36, ,40, ,
-33, ,40, ,
-29, ,40, ,
-22, ,40, ,
-18, ,40, ,
-15, ,40, ,
-11, ,40, ,
-5, ,40, ,
-3, ,40, ,
-1, ,40, ,
0, ,40, ,
1, ,40, ,
0, ,40, ,
0, ,40, ,
-1, ,40, ,
-2, ,40, ,
-3, ,40, ,
-4, ,40, ,
-4, ,40, ,
-5, ,40, ,
-5, ,40, ,
-6, ,40, ,
-6, ,40, ,
-6, ,40, ,
-8, ,40, ,
-8, ,40, ,
-9, ,40, ,
-11, ,40, ,
-12, ,40, ,
-13, ,40, ,
-14, ,40, ,
-16, ,40, ,
-18, ,40, ,
-19, ,40, ,
-21, ,40, ,
-23, ,40, ,
-24, ,40, ,
-25, ,40, ,
-25, ,40, ,
-25, ,40, ,
-25, ,40, ,
-25, ,40, ,
-25, ,40, ,
-25, ,40, ,
-23, ,40, ,
-22, ,40, ,
-21, ,40, ,
-15, ,40, ,
-13, ,40, ,
-9, ,40, ,
-6, ,40, ,
1, ,40, ,
6, ,40, ,
10, ,40, ,
15, ,40, ,
22, ,40, ,
25, ,40, ,
28, ,40, ,
30, ,40, ,
34, ,40, ,
35, ,40, ,
35, ,40, ,
35, ,40, ,
34, ,40, ,
32, ,40, ,
30, ,40, ,
29, ,40, ,
24, ,40, ,
22, ,40, ,
19, ,40, ,
16, ,40, ,
10, ,40, ,
7, ,40, ,
5, ,40, ,
2, ,40, ,
-2, ,40, ,
-4, ,40, ,
-6, ,40, ,
-7, ,40, ,
-10, ,40, ,
-11, ,40, ,
-13, ,40, ,
-14, ,40, ,
-16, ,40, ,
-17, ,40, ,
-18, ,40, ,
-18, ,40, ,
-18, ,40, ,
-18, ,40, ,
-18, ,40, ,
-18, ,40, ,
-18, ,40, ,
-16, ,40, ,
-15, ,40, ,
-13, ,40, ,
-10, ,40, ,
-9, ,40, ,
-7, ,40, ,
-5, ,40, ,
-1, ,40, ,
0, ,40, ,
1, ,40, ,
3, ,40, ,
3, ,40, ,
3, ,40, ,
2, ,40, ,
2, ,40, ,
0, ,40, ,
-1, ,40, ,
-3, ,40, ,
-5, ,40, ,
-9, ,40, ,
-11, ,40, ,
-13, ,40, ,
-14, ,40, ,
-18, ,40, ,
-18, ,40, ,
-18, ,40, ,
-18, ,40, ,
-17, ,40, ,
-16, ,40, ,
-15, ,40, ,
-14, ,40, ,
-10, ,40, ,
-7, ,40, ,
-6, ,40, ,
-4, ,40, ,
-2, ,40, ,
0, ,40, ,
1, ,40, ,
1, ,40, ,
3, ,40, ,
4, ,40, ,
5, ,40, ,
5, ,40, ,
5, ,40, ,
5, ,40, ,
6, ,40, ,
6, ,40, ,
7, ,40, ,
7, ,40, ,
7, ,40, ,
7, ,40, ,
7, ,40, ,
7, ,40, ,
7, ,40, ,
6, ,40, ,
5, ,40, ,
4, ,40, ,
3, ,40, ,
3, ,40, ,
2, ,40, ,
1, ,40, ,
1, ,40, ,
1, ,40, ,
2, ,40, ,
3, ,40, ,
3, ,40, ,
3, ,40, ,
5, ,40, ,
5, ,40, ,
5, ,40, ,
6, ,40, ,
6, ,40, ,
6, ,40, ,
5, ,40, ,
5, ,40, ,
4, ,40, ,
3, ,40, ,
2, ,40, ,
1, ,40, ,
0, ,40, ,
-1, ,40, ,
-1, ,40, ,
-2, ,40, ,
-1, ,40, ,
-2, ,40, ,
-2, ,40, ,
-2, ,40, ,
-1, ,40, ,
-1, ,40, ,
-1, ,40, ,
-1, ,40, ,
-1, ,40, ,
-1, ,40, ,
-1, ,40, ,
-1, ,40, ,
-2, ,40, ,
-2, ,40, ,
-3, ,40, ,
-3, ,40, ,
-4, ,40, ,
-5, ,40, ,
-5, ,40, ,
-6, ,40, ,
-7, ,40, ,
-8, ,40, ,
-9, ,40, ,
-9, ,40, ,
-11, ,40, ,
-12, ,40, ,
-13, ,40, ,
-13, ,40, ,
-14, ,40, ,
-14, ,40, ,
-13, ,40, ,
-13, ,40, ,
-12, ,40, ,
-12, ,40, ,
-11, ,40, ,
-11, ,40, ,
-9, ,40, ,
-7, ,40, ,
-7, ,40, ,
-6, ,40, ,
-3, ,40, ,
-3, ,40, ,
-1, ,40, ,
-1, ,40, ,
0, ,40, ,
0, ,40, ,
0, ,40, ,
0, ,40, ,
0, ,40, ,
-1, ,40, ,
-1, ,40, ,
-1, ,40, ,
-1, ,40, ,
-1, ,40, ,
-1, ,40, ,
0, ,40, ,
2, ,40, ,
2, ,40, ,
3, ,40, ,
5, ,40, ,
8, ,40, ,
10, ,40, ,
12, ,40, ,
14, ,40, ,
17, ,40, ,
19, ,40, ,
21, ,40, ,
21, ,40, ,
22, ,40, ,
22, ,40, ,
21, ,40, ,
21, ,40, ,
18, ,40, ,
16, ,40, ,
13, ,40, ,
10, ,40, ,
3, ,40, ,
-1, ,40, ,
-5, ,40, ,
-8, ,40, ,
-15, ,40, ,
-19, ,40, ,
-22, ,40, ,
-25, ,40, ,
-28, ,40, ,
-28, ,40, ,
-28, ,40, ,
-27, ,40, ,
-25, ,40, ,
-25, ,40, ,
-22, ,40, ,
-20, ,40, ,
-14, ,40, ,
-11, ,40, ,
-9, ,40, ,
-5, ,40, ,
0, ,40, ,
1, ,40, ,
3, ,40, ,
4, ,40, ,
5, ,40, ,
4, ,40, ,
4, ,40, ,
3, ,40, ,
1, ,40, ,
-1, ,40, ,
-3, ,40, ,
-4, ,40, ,
-8, ,40, ,
-9, ,40, ,
-11, ,40, ,
-11, ,40, ,
-12, ,40, ,
-12, ,40, ,
-11, ,40, ,
-11, ,40, ,
-9, ,40, ,
-7, ,40, ,
-6, ,40, ,
-4, ,40, ,
-1, ,40, ,
2, ,40, ,
4, ,40, ,
5, ,40, ,
9, ,40, ,
11, ,40, ,
13, ,40, ,
13, ,40, ,
15, ,40, ,
15, ,40, ,
14, ,40, ,
14, ,40, ,
12, ,40, ,
11, ,40, ,
10, ,40, ,
9, ,40, ,
6, ,40, ,
5, ,40, ,
4, ,40, ,
3, ,40, ,
2, ,40, ,
2, ,40, ,
2, ,40, ,
3, ,40, ,
5, ,40, ,
6, ,40, ,
7, ,40, ,
8, ,40, ,
11, ,40, ,
12, ,40, ,
12, ,40, ,
12, ,40, ,
12, ,40, ,
11, ,40, ,
10, ,40, ,
8, ,40, ,
4, ,40, ,
2, ,40, ,
-1, ,40, ,
-4, ,40, ,
-11, ,40, ,
-15, ,40, ,
-18, ,40, ,
-22, ,40, ,
-28, ,40, ,
-32, ,40, ,
-35, ,40, ,
-38, ,40, ,
-43, ,40, ,
-46, ,40, ,
-48, ,40, ,
-50, ,40, ,
-51, ,40, ,
-51, ,40, ,
-51, ,40, ,
-50, ,40, ,
-46, ,40, ,
-44, ,40, ,
-40, ,40, ,
-35, ,40, ,
-25, ,40, ,
-17, ,40, ,
-10, ,40, ,
-2, ,40, ,
13, ,40, ,
20, ,40, ,
27, ,40, ,
33, ,40, ,
44, ,40, ,
49, ,40, ,
51, ,40, ,
53, ,40, ,
53, ,40, ,
51, ,40, ,
49, ,40, ,
46, ,40, ,
35, ,40, ,
29, ,40, ,
24, ,40, ,
16, ,40, ,
2, ,40, ,
-5, ,40, ,
-11, ,40, ,
-17, ,40, ,
-25, ,40, ,
-25, ,40, ,
-25, ,40, ,
-25, ,40, ,
-20, ,40, ,
-16, ,40, ,
-11, ,40, ,
-6, ,40, ,
5, ,40, ,
11, ,40, ,
15, ,40, ,
19, ,40, ,
25, ,40, ,
25, ,40, ,
25, ,40, ,
24, ,40, ,
21, ,40, ,
18, ,40, ,
14, ,40, ,
10, ,40, ,
2, ,40, ,
-1, ,40, ,
-5, ,40, ,
-8, ,40, ,
-12, ,40, ,
-12, ,40, ,
-12, ,40, ,
-11, ,40, ,
-9, ,40, ,
-7, ,40, ,
-5, ,40, ,
-3, ,40, ,
1, ,40, ,
3, ,40, ,
4, ,40, ,
6, ,40, ,
5, ,40, ,
5, ,40, ,
4, ,40, ,
2, ,40, ,
-2, ,40, ,
-4, ,40, ,
-7, ,40, ,
-9, ,40, ,
-15, ,40, ,
-19, ,40, ,
-21, ,40, ,
-24, ,40, ,
-28, ,40, ,
-29, ,40, ,
-31, ,40, ,
-31, ,40, ,
-31, ,40, ,
-30, ,40, ,
-27, ,40, ,
-25, ,40, ,
-19, ,40, ,
-14, ,40, ,
-8, ,40, ,
-3, ,40, ,
9, ,40, ,
14, ,40, ,
20, ,40, ,
24, ,40, ,
32, ,40, ,
35, ,40, ,
36, ,40, ,
37, ,40, ,
35, ,40, ,
32, ,40, ,
29, ,40, ,
25, ,40, ,
13, ,40, ,
8, ,40, ,
0, ,40, ,
-6, ,40, ,
-18, ,40, ,
-23, ,40, ,
-27, ,40, ,
-30, ,40, ,
-31, ,40, ,
-30, ,40, ,
-28, ,40, ,
-25, ,40, ,
-16, ,40, ,
-10, ,40, ,
-2, ,40, ,
4, ,40, ,
18, ,40, ,
25, ,40, ,
29, ,40, ,
34, ,40, ,
40, ,40, ,
40, ,40, ,
40, ,40, ,
39, ,40, ,
33, ,40, ,
30, ,40, ,
25, ,40, ,
21, ,40, ,
10, ,40, ,
3, ,40, ,
-2, ,40, ,
-8, ,40, ,
-18, ,40, ,
-21, ,40, ,
-25, ,40, ,
-27, ,40, ,
-33, ,40, ,
-34, ,40, ,
-35, ,40, ,
-36, ,40, ,
-36, ,40, ,
-36, ,40, ,
-36, ,40, ,
-35, ,40, ,
-32, ,40, ,
-30, ,40, ,
-28, ,40, ,
-25, ,40, ,
-19, ,40, ,
-13, ,40, ,
-8, ,40, ,
-2, ,40, ,
11, ,40, ,
17, ,40, ,
24, ,40, ,
29, ,40, ,
40, ,40, ,
45, ,40, ,
48, ,40, ,
51, ,40, ,
51, ,40, ,
50, ,40, ,
49, ,40, ,
44, ,40, ,
33, ,40, ,
26, ,40, ,
20, ,40, ,
12, ,40, ,
-5, ,40, ,
-13, ,40, ,
-20, ,40, ,
-27, ,40, ,
-38, ,40, ,
-41, ,40, ,
-44, ,40, ,
-46, ,40, ,
-45, ,40, ,
-44, ,40, ,
-42, ,40, ,
-39, ,40, ,
-32, ,40, ,
-27, ,40, ,
-24, ,40, ,
-19, ,40, ,
-12, ,40, ,
-8, ,40, ,
-5, ,40, ,
-2, ,40, ,
4, ,40, ,
7, ,40, ,
9, ,40, ,
11, ,40, ,
16, ,40, ,
17, ,40, ,
19, ,40, ,
20, ,40, ,
22, ,40, ,
24, ,40, ,
24, ,40, ,
25, ,40, ,
25, ,40, ,
23, ,40, ,
23, ,40, ,
22, ,40, ,
19, ,40, ,
17, ,40, ,
14, ,40, ,
12, ,40, ,
7, ,40, ,
3, ,40, ,
1, ,40, ,
-1, ,40, ,
-6, ,40, ,
-8, ,40, ,
-10, ,40, ,
-11, ,40, ,
-13, ,40, ,
-13, ,40, ,
-13, ,40, ,
-12, ,40, ,
-11, ,40, ,
-9, ,40, ,
-9, ,40, ,
-7, ,40, ,
-3, ,40, ,
-1, ,40, ,
2, ,40, ,
4, ,40, ,
7, ,40, ,
10, ,40, ,
11, ,40, ,
13, ,40, ,
14, ,40, ,
14, ,40, ,
14, ,40, ,
13, ,40, ,
11, ,40, ,
9, ,40, ,
8, ,40, ,
5, ,40, ,
0, ,40, ,
-3, ,40, ,
-7, ,40, ,
-10, ,40, ,
-15, ,40, ,
-17, ,40, ,
-20, ,40, ,
-21, ,40, ,
-24, ,40, ,
-24, ,40, ,
-23, ,40, ,
-23, ,40, ,
-22, ,40, ,
-19, ,40, ,
-18, ,40, ,
-14, ,40, ,
-9, ,40, ,
-6, ,40, ,
-3, ,40, ,
0, ,40, ,
5, ,40, ,
8, ,40, ,
10, ,40, ,
12, ,40, ,
13, ,40, ,
14, ,40, ,
13, ,40, ,
13, ,40, ,
11, ,40, ,
10, ,40, ,
8, ,40, ,
7, ,40, ,
5, ,40, ,
3, ,40, ,
2, ,40, ,
2, ,40, ,
2, ,40, ,
2, ,40, ,
2, ,40, ,
3, ,40, ,
4, ,40, ,
4, ,40, ,
6, ,40, ,
6, ,40, ,
8, ,40, ,
8, ,40, ,
9, ,40, ,
9, ,40, ,
11, ,40, ,
11, ,40, ,
11, ,40, ,
11, ,40, ,
12, ,40, ,
13, ,40, ,
12, ,40, ,
12, ,40, ,
12, ,40, ,
11, ,40, ,
10, ,40, ,
9, ,40, ,
6, ,40, ,
4, ,40, ,
1, ,40, ,
-1, ,40, ,
-8, ,40, ,
-12, ,40, ,
-15, ,40, ,
-19, ,40, ,
-25, ,40, ,
-27, ,40, ,
-30, ,40, ,
-31, ,40, ,
-32, ,40, ,
-32, ,40, ,
-31, ,40, ,
-29, ,40, ,
-25, ,40, ,
-22, ,40, ,
-19, ,40, ,
-16, ,40, ,
-8, ,40, ,
-5, ,40, ,
-1, ,40, ,
3, ,40, ,
9, ,40, ,
12, ,40, ,
14, ,40, ,
16, ,40, ,
19, ,40, ,
20, ,40, ,
21, ,40, ,
20, ,40, ,
20, ,40, ,
20, ,40, ,
18, ,40, ,
18, ,40, ,
16, ,40, ,
14, ,40, ,
13, ,40, ,
11, ,40, ,
8, ,40, ,
7, ,40, ,
5, ,40, ,
4, ,40, ,
1, ,40, ,
-1, ,40, ,
-2, ,40, ,
-4, ,40, ,
-6, ,40, ,
-7, ,40, ,
-8, ,40, ,
-9, ,40, ,
-9, ,40, ,
-9, ,40, ,
-9, ,40, ,
-9, ,40, ,
-8, ,40, ,
-7, ,40, ,
-6, ,40, ,
-4, ,40, ,
-1, ,40, ,
1, ,40, ,
3, ,40, ,
5, ,40, ,
8, ,40, ,
10, ,40, ,
11, ,40, ,
12, ,40, ,
12, ,40, ,
11, ,40, ,
11, ,40, ,
9, ,40, ,
6, ,40, ,
4, ,40, ,
2, ,40, ,
-1, ,40, ,
-6, ,40, ,
-9, ,40, ,
-10, ,40, ,
-12, ,40, ,
-16, ,40, ,
-16, ,40, ,
-16, ,40, ,
-16, ,40, ,
-15, ,40, ,
-14, ,40, ,
-13, ,40, ,
-11, ,40, ,
-8, ,40, ,
-6, ,40, ,
-4, ,40, ,
-2, ,40, ,
1, ,40, ,
1, ,40, ,
4, ,40, ,
5, ,40, ,
5, ,40, ,
6, ,40, ,
6, ,40, ,
6, ,40, ,
7, ,40, ,
6, ,40, ,
6, ,40, ,
5, ,40, ,
4, ,40, ,
3, ,40, ,
3, ,40, ,
2, ,40, ,
0, ,40, ,
-1, ,40, ,
-1, ,40, ,
-3, ,40, ,
-4, ,40, ,
-4, ,40, ,
-4, ,40, ,
-4, ,40, ,
-3, ,40, ,
-3, ,40, ,
-2, ,40, ,
-1, ,40, ,
1, ,40, ,
3, ,40, ,
4, ,40, ,
5, ,40, ,
8, ,40, ,
9, ,40, ,
10, ,40, ,
10, ,40, ,
10, ,40, ,
10, ,40, ,
9, ,40, ,
8, ,40, ,
6, ,40, ,
3, ,40, ,
2, ,40, ,
0, ,40, ,
-4, ,40, ,
-6, ,40, ,
-7, ,40, ,
-8, ,40, ,
-11, ,40, ,
-12, ,40, ,
-12, ,40, ,
-12, ,40, ,
-12, ,40, ,
-11, ,40, ,
-11, ,40, ,
-11, ,40, ,
-9, ,40, ,
-7, ,40, ,
-7, ,40, ,
-5, ,40, ,
-3, ,40, ,
-2, ,40, ,
-1, ,40, ,
1, ,40, ,
2, ,40, ,
3, ,40, ,
3, ,40, ,
4, ,40, ,
5, ,40, ,
6, ,40, ,
6, ,40, ,
