raw_data/75% Glycerol, Impulsion 2Hz, Sonde 5MHz, Rampe 0.7Hz/temp0000384.CSV

Format,1.0B,
Memory Length,10000,Memory Length,10000,
IntpDistance,0,IntpDistance,0,
Trigger Address,159,Trigger Address,159,
Trigger Level,2.720E-01,Trigger Level,2.720E-01,
Source,CH1,Source,CH2,
Vertical Units,V,Vertical Units,V,
Vertical Units Div,0,Vertical Units Div,0,
Vertical Units Extend Div,16,Vertical Units Extend Div,16,
Label,,Label,,
Probe Type,0,Probe Type,0,
Probe Ratio,1.000e+00,Probe Ratio,1.000e+00,
Vertical Scale,5.000e-01,Vertical Scale,2.000e+00,
Vertical Position,0.000e+00,Vertical Position,0.000e+00,
Horizontal Units,S,Horizontal Units,S,
Horizontal Scale,5.000E-06,Horizontal Scale,5.000E-06,
Horizontal Position,2.420E-05,Horizontal Position,2.420E-05,
Horizontal Mode,Main,Horizontal Mode,Main,
SincET Mode,Real Time,SincET Mode,Real Time,
Sampling Period,5.000e-09,Sampling Period,5.000e-09,
Horizontal Old Scale,5.000E-06,Horizontal Old Scale,5.000E-06,
Horizontal Old Position,2.420E-05,Horizontal Old Position,2.420E-05,
Firmware,V1.32,Firmware,V1.32,
Mode,Fast,Mode,Fast,
Waveform Data,,Waveform Data,,
0, ,19, ,
1, ,19, ,
1, ,19, ,
1, ,19, ,
1, ,20, ,
1, ,20, ,
1, ,20, ,
1, ,19, ,
1, ,19, ,
1, ,20, ,
1, ,19, ,
0, ,19, ,
0, ,19, ,
1, ,19, ,
1, ,19, ,
1, ,19, ,
1, ,19, ,
1, ,19, ,
1, ,19, ,
1, ,19, ,
1, ,19, ,
1, ,19, ,
1, ,20, ,
1, ,20, ,
0, ,20, ,
0, ,20, ,
0, ,19, ,
0, ,19, ,
0, ,19, ,
1, ,20, ,
0, ,20, ,
0, ,19, ,
1, ,19, ,
1, ,19, ,
1, ,19, ,
1, ,20, ,
1, ,20, ,
1, ,20, ,
0, ,20, ,
0, ,20, ,
1, ,19, ,
1, ,19, ,
1, ,19, ,
1, ,20, ,
0, ,19, ,
0, ,19, ,
0, ,20, ,
1, ,20, ,
1, ,19, ,
1, ,19, ,
1, ,19, ,
1, ,19, ,
1, ,19, ,
1, ,19, ,
1, ,19, ,
1, ,19, ,
1, ,19, ,
1, ,19, ,
1, ,20, ,
1, ,20, ,
0, ,19, ,
1, ,19, ,
1, ,20, ,
1, ,20, ,
1, ,19, ,
1, ,19, ,
1, ,19, ,
1, ,19, ,
0, ,20, ,
0, ,20, ,
0, ,20, ,
1, ,20, ,
1, ,20, ,
1, ,20, ,
1, ,20, ,
1, ,20, ,
1, ,19, ,
1, ,19, ,
0, ,19, ,
0, ,19, ,
1, ,19, ,
0, ,20, ,
0, ,20, ,
1, ,20, ,
1, ,20, ,
1, ,20, ,
1, ,20, ,
0, ,19, ,
0, ,19, ,
0, ,19, ,
1, ,19, ,
1, ,20, ,
0, ,19, ,
0, ,19, ,
0, ,19, ,
1, ,20, ,
1, ,20, ,
1, ,20, ,
1, ,20, ,
1, ,20, ,
1, ,19, ,
1, ,19, ,
1, ,19, ,
1, ,19, ,
1, ,20, ,
1, ,19, ,
1, ,19, ,
1, ,19, ,
1, ,19, ,
1, ,19, ,
1, ,19, ,
1, ,19, ,
1, ,19, ,
1, ,19, ,
1, ,20, ,
1, ,20, ,
1, ,20, ,
1, ,20, ,
1, ,19, ,
1, ,19, ,
0, ,19, ,
0, ,19, ,
0, ,19, ,
1, ,19, ,
1, ,19, ,
1, ,19, ,
1, ,19, ,
1, ,19, ,
1, ,20, ,
1, ,20, ,
1, ,19, ,
1, ,19, ,
1, ,19, ,
1, ,19, ,
1, ,19, ,
1, ,19, ,
1, ,19, ,
1, ,19, ,
1, ,19, ,
1, ,19, ,
1, ,20, ,
1, ,20, ,
1, ,20, ,
0, ,19, ,
1, ,19, ,
0, ,19, ,
0, ,19, ,
1, ,20, ,
1, ,20, ,
0, ,19, ,
0, ,19, ,
1, ,19, ,
1, ,19, ,
1, ,19, ,
1, ,19, ,
1, ,19, ,
0, ,19, ,
0, ,19, ,
0, ,19, ,
1, ,20, ,
1, ,19, ,
1, ,19, ,
0, ,19, ,
0, ,19, ,
0, ,19, ,
-1, ,19, ,
0, ,19, ,
3, ,19, ,
20, ,20, ,
51, ,20, ,
91, ,20, ,
124, ,20, ,
121, ,19, ,
93, ,19, ,
32, ,19, ,
10, ,20, ,
62, ,20, ,
113, ,19, ,
125, ,19, ,
125, ,19, ,
125, ,20, ,
125, ,19, ,
125, ,19, ,
124, ,19, ,
124, ,19, ,
120, ,19, ,
115, ,19, ,
106, ,20, ,
102, ,20, ,
100, ,20, ,
96, ,20, ,
89, ,20, ,
86, ,19, ,
82, ,19, ,
79, ,19, ,
74, ,19, ,
71, ,19, ,
69, ,19, ,
65, ,20, ,
60, ,20, ,
58, ,19, ,
55, ,19, ,
54, ,19, ,
49, ,20, ,
46, ,19, ,
45, ,19, ,
43, ,19, ,
39, ,19, ,
38, ,19, ,
36, ,19, ,
35, ,19, ,
31, ,19, ,
29, ,19, ,
28, ,19, ,
27, ,19, ,
25, ,19, ,
25, ,20, ,
23, ,19, ,
22, ,19, ,
20, ,19, ,
19, ,19, ,
19, ,20, ,
17, ,20, ,
15, ,20, ,
15, ,19, ,
14, ,19, ,
13, ,19, ,
12, ,20, ,
11, ,19, ,
11, ,19, ,
10, ,19, ,
9, ,20, ,
9, ,20, ,
8, ,20, ,
8, ,20, ,
7, ,19, ,
6, ,19, ,
6, ,20, ,
5, ,20, ,
5, ,20, ,
5, ,19, ,
4, ,19, ,
4, ,19, ,
3, ,20, ,
3, ,20, ,
3, ,19, ,
2, ,19, ,
2, ,19, ,
2, ,20, ,
2, ,20, ,
2, ,20, ,
1, ,20, ,
1, ,20, ,
1, ,20, ,
1, ,20, ,
0, ,19, ,
0, ,19, ,
0, ,20, ,
0, ,19, ,
0, ,19, ,
0, ,19, ,
0, ,19, ,
0, ,19, ,
-1, ,19, ,
-1, ,20, ,
-1, ,20, ,
-1, ,19, ,
-1, ,19, ,
-1, ,19, ,
-1, ,20, ,
-1, ,20, ,
-1, ,20, ,
-1, ,20, ,
-2, ,20, ,
-2, ,19, ,
-1, ,19, ,
-1, ,19, ,
-1, ,19, ,
-1, ,19, ,
-1, ,20, ,
-1, ,19, ,
-1, ,19, ,
-1, ,19, ,
-1, ,19, ,
-1, ,19, ,
-1, ,19, ,
-1, ,19, ,
-1, ,20, ,
-1, ,20, ,
-1, ,20, ,
-1, ,19, ,
-1, ,19, ,
-1, ,19, ,
-1, ,20, ,
-1, ,20, ,
-1, ,19, ,
-1, ,19, ,
-1, ,19, ,
-1, ,19, ,
-1, ,20, ,
-1, ,19, ,
-1, ,19, ,
-1, ,19, ,
-1, ,19, ,
-1, ,19, ,
-1, ,19, ,
-1, ,19, ,
-1, ,19, ,
-1, ,20, ,
-1, ,19, ,
-1, ,19, ,
-1, ,19, ,
-1, ,20, ,
-1, ,20, ,
-1, ,20, ,
-1, ,20, ,
-1, ,20, ,
-1, ,20, ,
0, ,20, ,
0, ,20, ,
0, ,19, ,
-1, ,19, ,
-1, ,19, ,
-1, ,19, ,
-1, ,20, ,
0, ,19, ,
0, ,19, ,
-1, ,19, ,
-1, ,19, ,
-1, ,19, ,
0, ,19, ,
0, ,19, ,
0, ,19, ,
0, ,19, ,
0, ,19, ,
0, ,19, ,
0, ,19, ,
0, ,20, ,
0, ,20, ,
0, ,20, ,
0, ,19, ,
0, ,19, ,
0, ,20, ,
0, ,20, ,
0, ,19, ,
0, ,19, ,
0, ,19, ,
0, ,19, ,
0, ,19, ,
0, ,19, ,
0, ,19, ,
0, ,20, ,
0, ,19, ,
0, ,19, ,
0, ,19, ,
0, ,20, ,
0, ,19, ,
0, ,19, ,
0, ,19, ,
0, ,19, ,
0, ,19, ,
0, ,19, ,
0, ,19, ,
1, ,19, ,
0, ,19, ,
0, ,19, ,
0, ,19, ,
0, ,19, ,
0, ,19, ,
0, ,20, ,
0, ,20, ,
0, ,20, ,
0, ,19, ,
0, ,19, ,
0, ,19, ,
0, ,19, ,
0, ,19, ,
0, ,19, ,
0, ,19, ,
1, ,20, ,
0, ,19, ,
0, ,19, ,
0, ,20, ,
0, ,20, ,
0, ,19, ,
0, ,19, ,
0, ,19, ,
0, ,19, ,
0, ,20, ,
0, ,20, ,
0, ,20, ,
0, ,19, ,
0, ,19, ,
0, ,20, ,
1, ,19, ,
1, ,19, ,
1, ,19, ,
1, ,19, ,
1, ,19, ,
1, ,19, ,
1, ,19, ,
1, ,20, ,
1, ,19, ,
1, ,19, ,
0, ,19, ,
0, ,19, ,
0, ,19, ,
0, ,19, ,
0, ,19, ,
0, ,20, ,
1, ,19, ,
0, ,19, ,
0, ,20, ,
0, ,20, ,
0, ,20, ,
0, ,20, ,
1, ,20, ,
1, ,19, ,
1, ,19, ,
0, ,19, ,
0, ,20, ,
1, ,19, ,
1, ,19, ,
0, ,19, ,
0, ,20, ,
0, ,19, ,
0, ,19, ,
0, ,19, ,
0, ,20, ,
0, ,19, ,
0, ,19, ,
0, ,19, ,
0, ,19, ,
-1, ,19, ,
-1, ,19, ,
-1, ,19, ,
-1, ,19, ,
-2, ,19, ,
-2, ,19, ,
-4, ,19, ,
-4, ,20, ,
-5, ,20, ,
-6, ,20, ,
-9, ,20, ,
-9, ,19, ,
-9, ,19, ,
-9, ,20, ,
-7, ,19, ,
-5, ,19, ,
-4, ,19, ,
-2, ,19, ,
0, ,20, ,
0, ,20, ,
1, ,20, ,
1, ,20, ,
3, ,20, ,
3, ,20, ,
3, ,20, ,
3, ,20, ,
3, ,20, ,
2, ,20, ,
2, ,20, ,
1, ,20, ,
0, ,19, ,
-1, ,19, ,
-1, ,19, ,
-1, ,19, ,
-1, ,19, ,
-1, ,20, ,
0, ,19, ,
0, ,19, ,
1, ,19, ,
2, ,19, ,
2, ,19, ,
3, ,19, ,
3, ,20, ,
3, ,19, ,
3, ,19, ,
3, ,20, ,
3, ,20, ,
3, ,20, ,
3, ,20, ,
3, ,20, ,
2, ,19, ,
2, ,19, ,
2, ,19, ,
2, ,19, ,
2, ,19, ,
2, ,20, ,
2, ,20, ,
2, ,19, ,
1, ,19, ,
1, ,20, ,
1, ,20, ,
1, ,20, ,
1, ,19, ,
1, ,19, ,
0, ,20, ,
0, ,20, ,
-1, ,19, ,
-1, ,19, ,
-1, ,19, ,
-1, ,19, ,
-1, ,19, ,
-1, ,20, ,
-1, ,20, ,
-1, ,19, ,
0, ,19, ,
0, ,20, ,
1, ,20, ,
1, ,20, ,
1, ,20, ,
2, ,20, ,
2, ,20, ,
2, ,20, ,
2, ,19, ,
2, ,19, ,
2, ,19, ,
1, ,19, ,
0, ,19, ,
0, ,20, ,
-1, ,20, ,
-2, ,19, ,
-5, ,19, ,
-6, ,19, ,
-8, ,19, ,
-10, ,20, ,
-14, ,20, ,
-15, ,20, ,
-17, ,19, ,
-18, ,19, ,
-19, ,19, ,
-19, ,20, ,
-18, ,20, ,
-17, ,20, ,
-16, ,19, ,
-15, ,19, ,
-14, ,20, ,
-13, ,19, ,
-13, ,19, ,
-13, ,19, ,
-13, ,19, ,
-14, ,20, ,
-15, ,19, ,
-16, ,19, ,
-16, ,19, ,
-16, ,19, ,
-16, ,19, ,
-16, ,20, ,
-16, ,20, ,
-16, ,20, ,
-17, ,20, ,
-17, ,20, ,
-18, ,20, ,
-19, ,20, ,
-21, ,20, ,
-23, ,20, ,
-25, ,20, ,
-26, ,20, ,
-32, ,19, ,
-34, ,19, ,
-36, ,20, ,
-38, ,20, ,
-39, ,20, ,
-39, ,19, ,
-38, ,19, ,
-37, ,20, ,
-34, ,20, ,
-32, ,20, ,
-29, ,20, ,
-26, ,19, ,
-22, ,19, ,
-19, ,20, ,
-17, ,19, ,
-15, ,19, ,
-11, ,19, ,
-9, ,19, ,
-8, ,19, ,
-6, ,19, ,
-5, ,19, ,
-4, ,19, ,
-3, ,19, ,
-2, ,19, ,
1, ,19, ,
2, ,19, ,
4, ,19, ,
5, ,19, ,
8, ,20, ,
10, ,19, ,
11, ,19, ,
12, ,20, ,
15, ,20, ,
16, ,20, ,
17, ,20, ,
17, ,20, ,
18, ,19, ,
19, ,19, ,
20, ,19, ,
20, ,19, ,
20, ,19, ,
20, ,20, ,
19, ,20, ,
19, ,19, ,
18, ,19, ,
17, ,20, ,
17, ,19, ,
16, ,19, ,
14, ,19, ,
13, ,19, ,
12, ,19, ,
10, ,19, ,
7, ,19, ,
5, ,19, ,
3, ,19, ,
0, ,19, ,
-4, ,19, ,
-5, ,20, ,
-7, ,20, ,
-8, ,20, ,
-11, ,20, ,
-11, ,19, ,
-11, ,19, ,
-11, ,19, ,
-10, ,19, ,
-10, ,19, ,
-10, ,19, ,
-9, ,19, ,
-8, ,19, ,
-7, ,20, ,
-7, ,19, ,
-7, ,19, ,
-6, ,19, ,
-6, ,20, ,
-6, ,20, ,
-6, ,19, ,
-7, ,19, ,
-9, ,19, ,
-9, ,19, ,
-10, ,19, ,
-12, ,19, ,
-12, ,20, ,
-14, ,20, ,
-15, ,19, ,
-17, ,19, ,
-18, ,19, ,
-18, ,19, ,
-18, ,19, ,
-18, ,19, ,
-18, ,19, ,
-18, ,19, ,
-18, ,19, ,
-18, ,19, ,
-18, ,19, ,
-18, ,19, ,
-19, ,20, ,
-20, ,19, ,
-20, ,19, ,
-20, ,20, ,
-20, ,20, ,
-20, ,19, ,
-20, ,19, ,
-19, ,19, ,
-18, ,19, ,
-16, ,19, ,
-15, ,19, ,
-13, ,19, ,
-11, ,19, ,
-8, ,20, ,
-6, ,20, ,
-4, ,19, ,
-2, ,19, ,
1, ,19, ,
2, ,19, ,
4, ,19, ,
5, ,19, ,
6, ,19, ,
6, ,20, ,
6, ,19, ,
5, ,19, ,
4, ,19, ,
4, ,19, ,
3, ,19, ,
2, ,19, ,
-1, ,20, ,
-2, ,19, ,
-2, ,19, ,
-4, ,20, ,
-5, ,20, ,
-5, ,20, ,
-5, ,20, ,
-5, ,20, ,
-5, ,20, ,
-5, ,20, ,
-5, ,20, ,
-5, ,20, ,
-6, ,20, ,
-6, ,20, ,
-7, ,19, ,
-8, ,19, ,
-10, ,19, ,
-12, ,19, ,
-14, ,19, ,
-16, ,19, ,
-20, ,19, ,
-21, ,19, ,
-23, ,20, ,
-23, ,19, ,
-25, ,19, ,
-25, ,20, ,
-24, ,19, ,
-24, ,19, ,
-23, ,19, ,
-22, ,19, ,
-21, ,19, ,
-19, ,19, ,
-15, ,20, ,
-12, ,19, ,
-10, ,19, ,
-7, ,19, ,
-1, ,19, ,
2, ,19, ,
5, ,20, ,
8, ,19, ,
13, ,19, ,
15, ,20, ,
17, ,19, ,
19, ,19, ,
21, ,19, ,
23, ,19, ,
23, ,19, ,
23, ,19, ,
22, ,20, ,
22, ,20, ,
21, ,20, ,
21, ,20, ,
19, ,20, ,
19, ,20, ,
18, ,20, ,
18, ,20, ,
15, ,20, ,
14, ,19, ,
13, ,19, ,
12, ,20, ,
10, ,20, ,
8, ,20, ,
7, ,20, ,
5, ,20, ,
3, ,20, ,
1, ,19, ,
-1, ,19, ,
-3, ,20, ,
-6, ,19, ,
-7, ,19, ,
-8, ,20, ,
-9, ,19, ,
-12, ,19, ,
-12, ,19, ,
-13, ,19, ,
-13, ,20, ,
-13, ,19, ,
-12, ,19, ,
-13, ,19, ,
-11, ,19, ,
-10, ,20, ,
-10, ,20, ,
-10, ,19, ,
-10, ,19, ,
-10, ,19, ,
-10, ,19, ,
-11, ,19, ,
-11, ,19, ,
-13, ,19, ,
-14, ,20, ,
-15, ,20, ,
-17, ,20, ,
-20, ,19, ,
-20, ,19, ,
-22, ,19, ,
-23, ,19, ,
-24, ,19, ,
-24, ,19, ,
-24, ,19, ,
-24, ,19, ,
-23, ,19, ,
-23, ,19, ,
-23, ,20, ,
-22, ,20, ,
-21, ,19, ,
-20, ,19, ,
-19, ,20, ,
-19, ,20, ,
-17, ,20, ,
-16, ,19, ,
-16, ,19, ,
-15, ,19, ,
-13, ,20, ,
-13, ,19, ,
-12, ,19, ,
-11, ,19, ,
-10, ,19, ,
-9, ,20, ,
-9, ,20, ,
-9, ,19, ,
-10, ,19, ,
-10, ,19, ,
-11, ,19, ,
-12, ,19, ,
-13, ,19, ,
-15, ,19, ,
-15, ,20, ,
-16, ,19, ,
-16, ,19, ,
-16, ,20, ,
-16, ,19, ,
-16, ,19, ,
-14, ,19, ,
-13, ,19, ,
-11, ,19, ,
-9, ,19, ,
-5, ,19, ,
-2, ,19, ,
1, ,19, ,
3, ,20, ,
8, ,20, ,
11, ,20, ,
13, ,19, ,
15, ,19, ,
17, ,19, ,
17, ,20, ,
17, ,20, ,
17, ,20, ,
14, ,19, ,
14, ,19, ,
11, ,20, ,
9, ,19, ,
4, ,19, ,
1, ,19, ,
-1, ,19, ,
-4, ,19, ,
-8, ,19, ,
-10, ,19, ,
-11, ,19, ,
-12, ,19, ,
-11, ,19, ,
-11, ,20, ,
-10, ,19, ,
-9, ,19, ,
-4, ,19, ,
-1, ,20, ,
1, ,20, ,
5, ,19, ,
12, ,19, ,
14, ,19, ,
18, ,19, ,
21, ,19, ,
25, ,19, ,
27, ,19, ,
28, ,19, ,
29, ,19, ,
29, ,20, ,
27, ,19, ,
26, ,19, ,
25, ,19, ,
20, ,19, ,
18, ,19, ,
14, ,19, ,
11, ,19, ,
3, ,20, ,
-1, ,20, ,
-4, ,20, ,
-9, ,20, ,
-15, ,20, ,
-18, ,20, ,
-21, ,20, ,
-24, ,19, ,
-26, ,19, ,
-28, ,19, ,
-28, ,20, ,
-28, ,20, ,
-27, ,19, ,
-26, ,19, ,
-25, ,19, ,
-25, ,19, ,
-22, ,20, ,
-20, ,20, ,
-18, ,20, ,
-17, ,20, ,
-14, ,20, ,
-13, ,19, ,
-12, ,19, ,
-11, ,19, ,
-11, ,20, ,
-11, ,20, ,
-11, ,20, ,
-11, ,20, ,
-11, ,19, ,
-11, ,19, ,
-11, ,19, ,
-10, ,19, ,
-10, ,19, ,
-10, ,19, ,
-8, ,20, ,
-8, ,19, ,
-7, ,19, ,
-6, ,19, ,
-5, ,19, ,
-4, ,19, ,
-3, ,20, ,
-2, ,19, ,
-2, ,19, ,
-2, ,20, ,
-2, ,20, ,
-2, ,20, ,
-3, ,20, ,
-3, ,19, ,
-4, ,19, ,
-5, ,19, ,
-6, ,19, ,
-7, ,19, ,
-7, ,19, ,
-8, ,20, ,
-8, ,20, ,
-8, ,19, ,
-8, ,19, ,
-8, ,19, ,
-8, ,19, ,
-8, ,20, ,
-8, ,19, ,
-8, ,19, ,
-8, ,20, ,
-9, ,20, ,
-9, ,19, ,
-8, ,19, ,
-9, ,19, ,
-9, ,19, ,
-9, ,19, ,
-9, ,19, ,
-9, ,19, ,
-9, ,19, ,
-9, ,19, ,
-9, ,19, ,
-9, ,19, ,
-9, ,20, ,
-9, ,19, ,
-8, ,19, ,
-8, ,19, ,
-8, ,19, ,
-8, ,19, ,
-8, ,19, ,
-8, ,19, ,
-8, ,20, ,
-8, ,19, ,
-7, ,19, ,
-8, ,20, ,
-6, ,20, ,
-6, ,20, ,
-5, ,19, ,
-4, ,19, ,
-4, ,20, ,
-2, ,20, ,
-2, ,20, ,
-1, ,20, ,
0, ,20, ,
2, ,20, ,
3, ,20, ,
4, ,19, ,
4, ,19, ,
5, ,19, ,
7, ,20, ,
7, ,20, ,
8, ,20, ,
9, ,20, ,
9, ,20, ,
10, ,20, ,
10, ,20, ,
9, ,20, ,
8, ,19, ,
8, ,19, ,
7, ,19, ,
4, ,20, ,
3, ,20, ,
2, ,19, ,
0, ,19, ,
-3, ,19, ,
-4, ,19, ,
-6, ,19, ,
-6, ,19, ,
-7, ,19, ,
-7, ,20, ,
-7, ,20, ,
-7, ,20, ,
-5, ,19, ,
-3, ,19, ,
-2, ,20, ,
0, ,20, ,
3, ,20, ,
6, ,20, ,
8, ,19, ,
9, ,19, ,
12, ,19, ,
13, ,19, ,
14, ,19, ,
14, ,19, ,
13, ,19, ,
12, ,19, ,
12, ,19, ,
10, ,19, ,
6, ,20, ,
5, ,20, ,
3, ,20, ,
0, ,19, ,
-5, ,19, ,
-7, ,20, ,
-9, ,19, ,
-11, ,19, ,
-14, ,19, ,
-15, ,19, ,
-15, ,19, ,
-15, ,19, ,
-14, ,20, ,
-15, ,20, ,
-13, ,20, ,
-12, ,20, ,
-10, ,19, ,
-8, ,19, ,
-7, ,20, ,
-6, ,20, ,
-4, ,19, ,
-3, ,19, ,
-2, ,19, ,
-2, ,20, ,
-2, ,20, ,
-2, ,20, ,
-3, ,20, ,
-3, ,20, ,
-4, ,20, ,
-6, ,20, ,
-6, ,20, ,
-7, ,20, ,
-9, ,20, ,
-9, ,19, ,
-10, ,19, ,
-10, ,19, ,
-10, ,20, ,
-10, ,20, ,
-10, ,19, ,
-10, ,19, ,
-8, ,19, ,
-7, ,20, ,
-6, ,19, ,
-5, ,19, ,
-2, ,19, ,
0, ,20, ,
2, ,20, ,
3, ,20, ,
7, ,19, ,
9, ,19, ,
10, ,20, ,
11, ,19, ,
14, ,19, ,
14, ,19, ,
15, ,19, ,
15, ,19, ,
15, ,20, ,
15, ,19, ,
14, ,19, ,
12, ,19, ,
9, ,20, ,
7, ,20, ,
5, ,20, ,
3, ,20, ,
-2, ,20, ,
-3, ,19, ,
-6, ,19, ,
-7, ,20, ,
-11, ,20, ,
-13, ,20, ,
-14, ,19, ,
-14, ,19, ,
-14, ,19, ,
-13, ,19, ,
-13, ,19, ,
-12, ,19, ,
-10, ,19, ,
-10, ,19, ,
-8, ,19, ,
-7, ,19, ,
-6, ,19, ,
-4, ,19, ,
-4, ,20, ,
-4, ,19, ,
-4, ,19, ,
-5, ,19, ,
-5, ,19, ,
-6, ,19, ,
-7, ,19, ,
-7, ,19, ,
-7, ,19, ,
-8, ,19, ,
-8, ,19, ,
-8, ,20, ,
-7, ,19, ,
-6, ,19, ,
-5, ,19, ,
-3, ,19, ,
-1, ,19, ,
0, ,20, ,
4, ,20, ,
7, ,20, ,
9, ,19, ,
10, ,19, ,
14, ,19, ,
15, ,19, ,
16, ,19, ,
17, ,20, ,
16, ,20, ,
16, ,20, ,
15, ,20, ,
14, ,20, ,
11, ,19, ,
9, ,19, ,
7, ,20, ,
4, ,20, ,
0, ,20, ,
-2, ,19, ,
-4, ,19, ,
-6, ,20, ,
-9, ,20, ,
-10, ,20, ,
-10, ,20, ,
-9, ,20, ,
-8, ,20, ,
-7, ,19, ,
-6, ,19, ,
-4, ,20, ,
-1, ,19, ,
1, ,19, ,
3, ,20, ,
5, ,20, ,
8, ,20, ,
9, ,20, ,
10, ,20, ,
10, ,20, ,
9, ,20, ,
9, ,19, ,
8, ,19, ,
7, ,19, ,
3, ,19, ,
0, ,19, ,
-1, ,19, ,
-4, ,20, ,
-9, ,20, ,
-11, ,19, ,
-13, ,19, ,
-15, ,20, ,
-19, ,20, ,
-19, ,20, ,
-19, ,20, ,
-19, ,20, ,
-19, ,20, ,
-18, ,20, ,
-17, ,20, ,
-16, ,20, ,
-12, ,20, ,
-10, ,20, ,
-7, ,20, ,
-5, ,20, ,
-1, ,20, ,
2, ,19, ,
4, ,19, ,
6, ,20, ,
8, ,20, ,
9, ,20, ,
10, ,19, ,
10, ,19, ,
9, ,19, ,
9, ,20, ,
8, ,20, ,
7, ,19, ,
5, ,19, ,
3, ,20, ,
2, ,20, ,
1, ,20, ,
-2, ,20, ,
-2, ,20, ,
-3, ,20, ,
-3, ,19, ,
-3, ,19, ,
-3, ,20, ,
-3, ,20, ,
-3, ,20, ,
-2, ,20, ,
-1, ,19, ,
-1, ,19, ,
0, ,19, ,
1, ,20, ,
1, ,20, ,
2, ,20, ,
2, ,20, ,
1, ,19, ,
1, ,19, ,
0, ,20, ,
0, ,19, ,
-1, ,19, ,
-2, ,19, ,
-2, ,20, ,
-4, ,20, ,
-6, ,19, ,
-6, ,19, ,
-7, ,19, ,
-8, ,19, ,
-9, ,20, ,
-11, ,19, ,
-11, ,19, ,
-11, ,19, ,
-11, ,19, ,
-11, ,19, ,
-11, ,20, ,
-10, ,20, ,
-8, ,20, ,
-8, ,20, ,
-6, ,20, ,
-6, ,20, ,
-3, ,20, ,
-1, ,20, ,
0, ,20, ,
2, ,20, ,
5, ,20, ,
6, ,20, ,
7, ,20, ,
8, ,20, ,
7, ,20, ,
7, ,19, ,
6, ,19, ,
6, ,19, ,
4, ,19, ,
2, ,19, ,
1, ,19, ,
-1, ,19, ,
-4, ,19, ,
-6, ,19, ,
-8, ,19, ,
-9, ,19, ,
-11, ,20, ,
-11, ,19, ,
-12, ,19, ,
-12, ,19, ,
-11, ,19, ,
-10, ,19, ,
-9, ,19, ,
-8, ,19, ,
-6, ,20, ,
-5, ,20, ,
-4, ,20, ,
-3, ,20, ,
-1, ,20, ,
1, ,20, ,
1, ,19, ,
1, ,19, ,
2, ,19, ,
2, ,20, ,
2, ,20, ,
1, ,19, ,
0, ,19, ,
-1, ,19, ,
-1, ,20, ,
-2, ,20, ,
-4, ,20, ,
-4, ,20, ,
-5, ,20, ,
-6, ,20, ,
-7, ,20, ,
-7, ,19, ,
-7, ,19, ,
-6, ,19, ,
-5, ,20, ,
-5, ,20, ,
-4, ,20, ,
-4, ,20, ,
-2, ,19, ,
-1, ,19, ,
1, ,20, ,
1, ,19, ,
3, ,19, ,
4, ,19, ,
5, ,19, ,
5, ,19, ,
6, ,19, ,
6, ,20, ,
6, ,20, ,
5, ,20, ,
4, ,20, ,
4, ,19, ,
4, ,19, ,
3, ,20, ,
2, ,20, ,
2, ,19, ,
2, ,19, ,
2, ,20, ,
2, ,20, ,
1, ,19, ,
1, ,19, ,
1, ,19, ,
1, ,19, ,
1, ,19, ,
1, ,20, ,
1, ,20, ,
1, ,20, ,
0, ,20, ,
0, ,20, ,
-1, ,20, ,
-2, ,19, ,
-2, ,19, ,
-3, ,20, ,
-4, ,19, ,
-5, ,19, ,
-6, ,20, ,
-6, ,19, ,
-6, ,19, ,
-7, ,19, ,
-7, ,20, ,
-7, ,20, ,
-7, ,19, ,
-7, ,19, ,
-7, ,20, ,
-7, ,20, ,
-7, ,20, ,
-6, ,20, ,
-5, ,20, ,
-4, ,19, ,
-4, ,19, ,
-2, ,19, ,
-1, ,20, ,
1, ,20, ,
1, ,20, ,
4, ,20, ,
5, ,19, ,
6, ,19, ,
7, ,19, ,
9, ,20, ,
10, ,19, ,
10, ,19, ,
10, ,20, ,
10, ,19, ,
10, ,19, ,
9, ,20, ,
9, ,19, ,
7, ,19, ,
6, ,19, ,
5, ,19, ,
4, ,19, ,
1, ,19, ,
1, ,20, ,
-1, ,19, ,
-2, ,19, ,
-3, ,19, ,
-3, ,19, ,
-4, ,19, ,
-4, ,19, ,
-5, ,20, ,
-5, ,19, ,
-5, ,19, ,
-5, ,19, ,
-4, ,20, ,
-4, ,20, ,
-4, ,19, ,
-4, ,19, ,
-4, ,19, ,
-4, ,20, ,
-4, ,20, ,
-3, ,20, ,
-2, ,20, ,
-2, ,19, ,
-1, ,19, ,
-1, ,20, ,
1, ,20, ,
1, ,19, ,
2, ,19, ,
3, ,19, ,
5, ,19, ,
5, ,20, ,
5, ,19, ,
6, ,19, ,
7, ,19, ,
7, ,19, ,
7, ,19, ,
7, ,19, ,
7, ,20, ,
7, ,20, ,
6, ,19, ,
6, ,19, ,
5, ,19, ,
4, ,19, ,
4, ,19, ,
3, ,19, ,
1, ,19, ,
1, ,19, ,
0, ,19, ,
-1, ,19, ,
-3, ,19, ,
-4, ,19, ,
-5, ,20, ,
-6, ,19, ,
-7, ,19, ,
-7, ,19, ,
-7, ,19, ,
-7, ,19, ,
-7, ,20, ,
-7, ,20, ,
-7, ,19, ,
-7, ,19, ,
-6, ,19, ,
-5, ,20, ,
-4, ,19, ,
-4, ,19, ,
-2, ,19, ,
-1, ,19, ,
-1, ,20, ,
-1, ,20, ,
0, ,20, ,
0, ,19, ,
0, ,19, ,
0, ,19, ,
0, ,19, ,
0, ,20, ,
0, ,20, ,
0, ,20, ,
-1, ,20, ,
-2, ,20, ,
-2, ,20, ,
-2, ,20, ,
-3, ,19, ,
-3, ,19, ,
-3, ,20, ,
-3, ,20, ,
-3, ,20, ,
-3, ,19, ,
-3, ,19, ,
-3, ,19, ,
-2, ,19, ,
-1, ,20, ,
-1, ,20, ,
0, ,19, ,
2, ,19, ,
2, ,19, ,
3, ,20, ,
3, ,20, ,
6, ,20, ,
7, ,20, ,
8, ,20, ,
9, ,20, ,
10, ,20, ,
10, ,19, ,
11, ,19, ,
11, ,20, ,
10, ,20, ,
10, ,19, ,
9, ,19, ,
8, ,20, ,
5, ,20, ,
4, ,19, ,
2, ,19, ,
0, ,20, ,
-3, ,20, ,
-5, ,20, ,
-7, ,19, ,
-8, ,19, ,
-11, ,19, ,
-12, ,19, ,
-14, ,19, ,
-14, ,19, ,
-15, ,19, ,
-15, ,19, ,
-14, ,19, ,
-13, ,19, ,
-13, ,20, ,
-12, ,20, ,
-10, ,20, ,
-9, ,19, ,
-6, ,19, ,
-3, ,19, ,
-2, ,19, ,
0, ,19, ,
4, ,20, ,
6, ,19, ,
8, ,19, ,
9, ,20, ,
11, ,20, ,
12, ,20, ,
13, ,20, ,
13, ,19, ,
12, ,19, ,
11, ,19, ,
10, ,19, ,
9, ,19, ,
7, ,19, ,
6, ,19, ,
4, ,19, ,
2, ,19, ,
-1, ,20, ,
-2, ,19, ,
-3, ,19, ,
-5, ,20, ,
-6, ,20, ,
-6, ,20, ,
-6, ,19, ,
-6, ,19, ,
-5, ,19, ,
-5, ,20, ,
-4, ,19, ,
-3, ,19, ,
-1, ,19, ,
0, ,20, ,
1, ,20, ,
3, ,20, ,
5, ,20, ,
5, ,19, ,
6, ,19, ,
7, ,19, ,
8, ,20, ,
8, ,20, ,
8, ,20, ,
8, ,20, ,
7, ,20, ,
5, ,20, ,
5, ,19, ,
4, ,19, ,
2, ,19, ,
1, ,19, ,
0, ,19, ,
-1, ,19, ,
-4, ,19, ,
-4, ,19, ,
-5, ,19, ,
-5, ,19, ,
-5, ,19, ,
-5, ,19, ,
-4, ,20, ,
-4, ,20, ,
-3, ,19, ,
-2, ,19, ,
-1, ,20, ,
-1, ,20, ,
0, ,20, ,
2, ,19, ,
2, ,19, ,
2, ,19, ,
2, ,19, ,
1, ,20, ,
1, ,20, ,
0, ,20, ,
-1, ,19, ,
-1, ,19, ,
-1, ,19, ,
-1, ,19, ,
-2, ,19, ,
-2, ,20, ,
-2, ,19, ,
-2, ,19, ,
-2, ,19, ,
-1, ,19, ,
0, ,19, ,
0, ,19, ,
2, ,20, ,
3, ,19, ,
3, ,19, ,
4, ,20, ,
5, ,20, ,
6, ,19, ,
6, ,19, ,
7, ,19, ,
7, ,19, ,
7, ,20, ,
7, ,19, ,
7, ,19, ,
6, ,19, ,
6, ,20, ,
5, ,20, ,
5, ,20, ,
4, ,20, ,
3, ,20, ,
2, ,19, ,
1, ,19, ,
-1, ,19, ,
-2, ,19, ,
-3, ,20, ,
-5, ,20, ,
-7, ,20, ,
-9, ,20, ,
-9, ,19, ,
-11, ,19, ,
-13, ,19, ,
-13, ,19, ,
-13, ,19, ,
-13, ,19, ,
-12, ,20, ,
-13, ,19, ,
-11, ,19, ,
-11, ,20, ,
-10, ,19, ,
-8, ,19, ,
-7, ,19, ,
-6, ,20, ,
-3, ,20, ,
-1, ,20, ,
1, ,19, ,
2, ,19, ,
5, ,19, ,
7, ,19, ,
9, ,19, ,
10, ,19, ,
13, ,20, ,
13, ,20, ,
15, ,20, ,
15, ,20, ,
16, ,19, ,
16, ,19, ,
16, ,20, ,
15, ,19, ,
14, ,19, ,
13, ,19, ,
12, ,19, ,
11, ,20, ,
8, ,20, ,
7, ,19, ,
6, ,19, ,
4, ,19, ,
2, ,20, ,
0, ,20, ,
0, ,20, ,
-2, ,20, ,
-3, ,20, ,
-4, ,20, ,
-5, ,20, ,
-5, ,19, ,
-7, ,19, ,
-8, ,20, ,
-8, ,20, ,
-9, ,20, ,
-10, ,19, ,
-10, ,19, ,
-11, ,20, ,
-11, ,20, ,
-11, ,20, ,
-12, ,20, ,
-12, ,20, ,
-12, ,20, ,
-12, ,20, ,
-11, ,20, ,
-11, ,20, ,
-11, ,20, ,
-11, ,20, ,
-10, ,20, ,
-9, ,20, ,
-9, ,20, ,
-8, ,19, ,
-6, ,19, ,
-6, ,19, ,
-5, ,19, ,
-2, ,20, ,
-1, ,19, ,
0, ,19, ,
2, ,20, ,
5, ,19, ,
7, ,19, ,
9, ,19, ,
11, ,19, ,
13, ,19, ,
14, ,20, ,
15, ,20, ,
16, ,20, ,
16, ,20, ,
15, ,20, ,
15, ,20, ,
14, ,20, ,
11, ,20, ,
11, ,20, ,
8, ,20, ,
6, ,20, ,
3, ,20, ,
1, ,20, ,
-1, ,20, ,
-2, ,20, ,
-5, ,20, ,
-6, ,20, ,
-7, ,20, ,
-8, ,20, ,
-8, ,19, ,
-8, ,19, ,
-8, ,19, ,
-8, ,19, ,
-8, ,20, ,
-7, ,19, ,
-5, ,19, ,
-5, ,19, ,
-3, ,19, ,
-2, ,19, ,
-1, ,19, ,
0, ,20, ,
2, ,20, ,
2, ,20, ,
3, ,20, ,
2, ,20, ,
4, ,20, ,
4, ,20, ,
3, ,20, ,
3, ,20, ,
3, ,20, ,
2, ,19, ,
2, ,19, ,
2, ,20, ,
1, ,20, ,
1, ,19, ,
1, ,19, ,
1, ,19, ,
1, ,20, ,
1, ,20, ,
1, ,20, ,
1, ,20, ,
1, ,20, ,
1, ,20, ,
1, ,20, ,
1, ,20, ,
1, ,20, ,
0, ,19, ,
0, ,19, ,
0, ,20, ,
0, ,19, ,
-1, ,19, ,
-1, ,20, ,
-2, ,19, ,
-2, ,19, ,
-2, ,20, ,
-2, ,19, ,
-2, ,19, ,
-2, ,19, ,
-2, ,20, ,
-2, ,20, ,
-1, ,20, ,
-1, ,20, ,
-1, ,19, ,
0, ,19, ,
0, ,19, ,
1, ,19, ,
1, ,20, ,
1, ,20, ,
1, ,20, ,
1, ,20, ,
1, ,19, ,
1, ,19, ,
0, ,19, ,
-1, ,19, ,
-1, ,19, ,
-2, ,19, ,
-2, ,20, ,
-3, ,20, ,
-3, ,19, ,
-4, ,19, ,
-4, ,20, ,
-4, ,20, ,
