raw_data/75% Glycerol, Impulsion 2Hz, Sonde 5MHz, Rampe 0.7Hz/temp0000146.CSV

Format,1.0B,
Memory Length,10000,Memory Length,10000,
IntpDistance,0,IntpDistance,0,
Trigger Address,159,Trigger Address,159,
Trigger Level,2.720E-01,Trigger Level,2.720E-01,
Source,CH1,Source,CH2,
Vertical Units,V,Vertical Units,V,
Vertical Units Div,0,Vertical Units Div,0,
Vertical Units Extend Div,16,Vertical Units Extend Div,16,
Label,,Label,,
Probe Type,0,Probe Type,0,
Probe Ratio,1.000e+00,Probe Ratio,1.000e+00,
Vertical Scale,5.000e-01,Vertical Scale,2.000e+00,
Vertical Position,0.000e+00,Vertical Position,0.000e+00,
Horizontal Units,S,Horizontal Units,S,
Horizontal Scale,5.000E-06,Horizontal Scale,5.000E-06,
Horizontal Position,2.420E-05,Horizontal Position,2.420E-05,
Horizontal Mode,Main,Horizontal Mode,Main,
SincET Mode,Real Time,SincET Mode,Real Time,
Sampling Period,5.000e-09,Sampling Period,5.000e-09,
Horizontal Old Scale,5.000E-06,Horizontal Old Scale,5.000E-06,
Horizontal Old Position,2.420E-05,Horizontal Old Position,2.420E-05,
Firmware,V1.32,Firmware,V1.32,
Mode,Fast,Mode,Fast,
Waveform Data,,Waveform Data,,
1, ,20, ,
1, ,20, ,
1, ,20, ,
1, ,21, ,
1, ,21, ,
1, ,20, ,
1, ,20, ,
1, ,20, ,
1, ,20, ,
1, ,20, ,
1, ,20, ,
1, ,20, ,
1, ,21, ,
0, ,21, ,
0, ,21, ,
1, ,20, ,
1, ,20, ,
1, ,21, ,
1, ,20, ,
1, ,20, ,
1, ,20, ,
1, ,20, ,
1, ,20, ,
1, ,20, ,
1, ,21, ,
1, ,21, ,
1, ,21, ,
1, ,21, ,
1, ,21, ,
1, ,21, ,
1, ,21, ,
1, ,20, ,
1, ,20, ,
0, ,21, ,
1, ,20, ,
1, ,20, ,
1, ,21, ,
1, ,20, ,
1, ,20, ,
1, ,20, ,
1, ,20, ,
1, ,20, ,
1, ,20, ,
1, ,21, ,
1, ,20, ,
1, ,20, ,
1, ,20, ,
1, ,21, ,
0, ,21, ,
0, ,21, ,
1, ,21, ,
1, ,21, ,
1, ,21, ,
1, ,21, ,
1, ,21, ,
1, ,21, ,
0, ,20, ,
0, ,20, ,
1, ,20, ,
1, ,20, ,
1, ,20, ,
1, ,20, ,
1, ,20, ,
1, ,20, ,
1, ,21, ,
1, ,21, ,
0, ,20, ,
0, ,20, ,
1, ,21, ,
1, ,21, ,
1, ,21, ,
1, ,21, ,
1, ,21, ,
1, ,21, ,
1, ,20, ,
1, ,20, ,
1, ,21, ,
1, ,21, ,
1, ,21, ,
1, ,21, ,
1, ,21, ,
1, ,21, ,
1, ,20, ,
1, ,20, ,
1, ,20, ,
1, ,21, ,
1, ,21, ,
1, ,21, ,
1, ,20, ,
1, ,20, ,
0, ,20, ,
0, ,21, ,
1, ,20, ,
1, ,20, ,
1, ,20, ,
1, ,21, ,
1, ,21, ,
1, ,21, ,
1, ,21, ,
1, ,21, ,
1, ,20, ,
0, ,20, ,
0, ,20, ,
0, ,20, ,
0, ,21, ,
1, ,21, ,
1, ,21, ,
1, ,21, ,
1, ,21, ,
1, ,20, ,
1, ,20, ,
1, ,20, ,
0, ,21, ,
1, ,21, ,
1, ,21, ,
1, ,20, ,
1, ,20, ,
1, ,20, ,
1, ,21, ,
1, ,20, ,
1, ,20, ,
1, ,21, ,
1, ,20, ,
1, ,20, ,
1, ,21, ,
1, ,21, ,
1, ,21, ,
1, ,21, ,
0, ,21, ,
0, ,21, ,
1, ,21, ,
1, ,20, ,
1, ,20, ,
1, ,21, ,
0, ,21, ,
0, ,21, ,
1, ,20, ,
1, ,20, ,
1, ,20, ,
1, ,21, ,
1, ,20, ,
1, ,20, ,
1, ,20, ,
1, ,21, ,
1, ,20, ,
1, ,20, ,
1, ,20, ,
1, ,20, ,
1, ,21, ,
1, ,20, ,
1, ,20, ,
1, ,20, ,
1, ,20, ,
1, ,20, ,
1, ,20, ,
1, ,21, ,
1, ,21, ,
1, ,20, ,
1, ,20, ,
1, ,20, ,
1, ,20, ,
1, ,20, ,
1, ,21, ,
0, ,21, ,
0, ,20, ,
-1, ,20, ,
0, ,20, ,
-2, ,20, ,
6, ,21, ,
25, ,21, ,
100, ,21, ,
125, ,21, ,
123, ,21, ,
120, ,21, ,
19, ,21, ,
-7, ,21, ,
21, ,21, ,
75, ,21, ,
125, ,21, ,
125, ,21, ,
125, ,21, ,
125, ,20, ,
125, ,20, ,
125, ,20, ,
124, ,21, ,
124, ,21, ,
113, ,21, ,
109, ,21, ,
105, ,20, ,
102, ,20, ,
95, ,21, ,
93, ,20, ,
88, ,20, ,
85, ,21, ,
79, ,21, ,
75, ,21, ,
74, ,21, ,
70, ,21, ,
65, ,21, ,
63, ,21, ,
60, ,20, ,
58, ,20, ,
53, ,20, ,
51, ,21, ,
49, ,21, ,
47, ,20, ,
42, ,20, ,
41, ,20, ,
39, ,20, ,
37, ,21, ,
34, ,21, ,
32, ,21, ,
31, ,21, ,
30, ,20, ,
26, ,20, ,
25, ,20, ,
25, ,20, ,
24, ,20, ,
22, ,20, ,
21, ,21, ,
20, ,20, ,
19, ,20, ,
17, ,21, ,
16, ,21, ,
16, ,21, ,
15, ,21, ,
14, ,21, ,
13, ,21, ,
12, ,21, ,
11, ,21, ,
10, ,21, ,
10, ,21, ,
9, ,21, ,
9, ,21, ,
7, ,21, ,
7, ,21, ,
7, ,21, ,
6, ,21, ,
5, ,21, ,
5, ,20, ,
5, ,20, ,
4, ,21, ,
4, ,21, ,
4, ,21, ,
3, ,21, ,
3, ,20, ,
3, ,20, ,
2, ,20, ,
2, ,21, ,
2, ,21, ,
1, ,21, ,
1, ,21, ,
1, ,21, ,
1, ,21, ,
1, ,21, ,
1, ,21, ,
0, ,21, ,
0, ,21, ,
0, ,21, ,
0, ,21, ,
0, ,21, ,
0, ,20, ,
-1, ,20, ,
-1, ,20, ,
-1, ,21, ,
0, ,21, ,
-1, ,21, ,
-1, ,21, ,
-1, ,21, ,
-1, ,21, ,
-1, ,21, ,
-1, ,21, ,
-1, ,21, ,
-1, ,21, ,
-1, ,21, ,
-1, ,21, ,
-1, ,20, ,
-1, ,20, ,
-1, ,20, ,
-1, ,20, ,
-1, ,21, ,
-1, ,21, ,
-1, ,21, ,
-1, ,21, ,
-1, ,21, ,
-1, ,21, ,
-1, ,21, ,
-1, ,21, ,
-1, ,21, ,
-1, ,21, ,
-1, ,21, ,
-1, ,21, ,
-1, ,21, ,
-1, ,21, ,
-1, ,21, ,
-1, ,21, ,
-1, ,20, ,
-1, ,20, ,
-1, ,20, ,
-1, ,21, ,
-1, ,21, ,
-1, ,21, ,
-1, ,21, ,
-1, ,20, ,
-1, ,20, ,
-1, ,20, ,
-1, ,20, ,
-1, ,21, ,
-1, ,21, ,
-1, ,21, ,
-1, ,21, ,
-1, ,21, ,
-1, ,20, ,
-1, ,20, ,
0, ,20, ,
-1, ,21, ,
-1, ,20, ,
-1, ,20, ,
0, ,21, ,
0, ,20, ,
0, ,20, ,
0, ,21, ,
0, ,21, ,
0, ,21, ,
0, ,21, ,
0, ,21, ,
0, ,21, ,
0, ,21, ,
0, ,20, ,
0, ,20, ,
0, ,20, ,
0, ,21, ,
0, ,21, ,
0, ,21, ,
0, ,21, ,
0, ,21, ,
0, ,20, ,
0, ,20, ,
0, ,21, ,
0, ,21, ,
0, ,21, ,
0, ,21, ,
0, ,21, ,
0, ,21, ,
0, ,20, ,
0, ,20, ,
0, ,20, ,
0, ,21, ,
0, ,20, ,
0, ,20, ,
0, ,20, ,
0, ,21, ,
0, ,21, ,
0, ,21, ,
0, ,21, ,
0, ,21, ,
1, ,21, ,
0, ,21, ,
0, ,21, ,
0, ,21, ,
0, ,21, ,
0, ,21, ,
1, ,21, ,
1, ,21, ,
1, ,21, ,
1, ,21, ,
0, ,21, ,
0, ,21, ,
0, ,21, ,
0, ,21, ,
0, ,20, ,
0, ,20, ,
0, ,21, ,
0, ,21, ,
0, ,21, ,
1, ,21, ,
0, ,20, ,
0, ,20, ,
0, ,20, ,
0, ,21, ,
0, ,20, ,
0, ,20, ,
0, ,21, ,
0, ,20, ,
0, ,20, ,
0, ,20, ,
1, ,20, ,
0, ,21, ,
0, ,21, ,
0, ,21, ,
0, ,21, ,
0, ,21, ,
0, ,21, ,
0, ,20, ,
1, ,20, ,
1, ,20, ,
1, ,21, ,
1, ,21, ,
1, ,21, ,
1, ,21, ,
1, ,20, ,
1, ,20, ,
1, ,20, ,
1, ,20, ,
1, ,21, ,
1, ,21, ,
1, ,21, ,
0, ,21, ,
0, ,21, ,
0, ,21, ,
1, ,21, ,
0, ,21, ,
0, ,20, ,
0, ,20, ,
1, ,21, ,
1, ,21, ,
1, ,21, ,
1, ,21, ,
1, ,20, ,
1, ,20, ,
1, ,21, ,
1, ,21, ,
1, ,21, ,
1, ,21, ,
1, ,20, ,
1, ,20, ,
0, ,20, ,
0, ,21, ,
0, ,21, ,
0, ,21, ,
0, ,21, ,
0, ,20, ,
0, ,20, ,
0, ,21, ,
1, ,21, ,
0, ,21, ,
0, ,21, ,
0, ,21, ,
-1, ,21, ,
-1, ,21, ,
-2, ,21, ,
-2, ,21, ,
-6, ,20, ,
-8, ,20, ,
-11, ,21, ,
-14, ,21, ,
-18, ,21, ,
-17, ,21, ,
-16, ,21, ,
-14, ,21, ,
-9, ,20, ,
-6, ,20, ,
-4, ,21, ,
-3, ,20, ,
0, ,20, ,
1, ,20, ,
1, ,21, ,
3, ,20, ,
3, ,20, ,
4, ,20, ,
4, ,21, ,
4, ,21, ,
4, ,21, ,
4, ,21, ,
4, ,21, ,
4, ,21, ,
4, ,20, ,
4, ,20, ,
4, ,21, ,
4, ,21, ,
4, ,21, ,
4, ,21, ,
4, ,21, ,
4, ,21, ,
4, ,21, ,
4, ,21, ,
4, ,21, ,
4, ,21, ,
3, ,21, ,
3, ,21, ,
3, ,20, ,
3, ,20, ,
2, ,21, ,
1, ,21, ,
1, ,21, ,
1, ,21, ,
1, ,21, ,
1, ,21, ,
1, ,21, ,
1, ,21, ,
2, ,21, ,
2, ,21, ,
2, ,21, ,
2, ,20, ,
2, ,20, ,
2, ,20, ,
2, ,21, ,
2, ,21, ,
2, ,20, ,
1, ,20, ,
1, ,21, ,
1, ,21, ,
1, ,21, ,
1, ,21, ,
0, ,21, ,
0, ,21, ,
1, ,21, ,
0, ,21, ,
0, ,20, ,
0, ,20, ,
0, ,21, ,
1, ,20, ,
0, ,20, ,
0, ,21, ,
0, ,21, ,
0, ,21, ,
0, ,21, ,
-1, ,20, ,
-2, ,20, ,
-2, ,20, ,
-4, ,20, ,
-4, ,20, ,
-7, ,20, ,
-9, ,21, ,
-10, ,21, ,
-13, ,21, ,
-14, ,21, ,
-15, ,20, ,
-15, ,20, ,
-14, ,21, ,
-13, ,20, ,
-13, ,20, ,
-11, ,20, ,
-11, ,20, ,
-8, ,21, ,
-7, ,21, ,
-6, ,20, ,
-5, ,20, ,
-6, ,20, ,
-6, ,21, ,
-7, ,21, ,
-8, ,21, ,
-11, ,21, ,
-12, ,21, ,
-16, ,21, ,
-18, ,21, ,
-23, ,21, ,
-26, ,21, ,
-27, ,20, ,
-28, ,20, ,
-28, ,21, ,
-27, ,21, ,
-27, ,21, ,
-26, ,21, ,
-24, ,21, ,
-22, ,21, ,
-21, ,21, ,
-20, ,20, ,
-17, ,20, ,
-17, ,20, ,
-16, ,21, ,
-15, ,21, ,
-14, ,21, ,
-14, ,21, ,
-14, ,21, ,
-13, ,20, ,
-13, ,20, ,
-13, ,20, ,
-13, ,20, ,
-12, ,21, ,
-12, ,21, ,
-13, ,21, ,
-13, ,21, ,
-14, ,21, ,
-15, ,21, ,
-15, ,21, ,
-17, ,21, ,
-18, ,21, ,
-20, ,21, ,
-21, ,21, ,
-22, ,21, ,
-23, ,21, ,
-23, ,21, ,
-23, ,20, ,
-22, ,20, ,
-21, ,21, ,
-18, ,21, ,
-17, ,21, ,
-15, ,21, ,
-13, ,21, ,
-7, ,21, ,
-4, ,21, ,
-2, ,21, ,
1, ,21, ,
7, ,20, ,
9, ,20, ,
12, ,20, ,
13, ,20, ,
17, ,20, ,
19, ,20, ,
20, ,21, ,
21, ,21, ,
22, ,21, ,
22, ,21, ,
22, ,20, ,
21, ,20, ,
20, ,20, ,
20, ,20, ,
18, ,20, ,
18, ,20, ,
14, ,21, ,
12, ,21, ,
11, ,21, ,
8, ,21, ,
6, ,21, ,
5, ,21, ,
3, ,20, ,
3, ,20, ,
2, ,20, ,
2, ,21, ,
2, ,21, ,
2, ,21, ,
2, ,21, ,
1, ,21, ,
1, ,21, ,
1, ,21, ,
0, ,21, ,
-1, ,21, ,
-1, ,21, ,
-2, ,21, ,
-3, ,21, ,
-3, ,21, ,
-5, ,21, ,
-5, ,21, ,
-7, ,21, ,
-8, ,21, ,
-8, ,21, ,
-10, ,21, ,
-13, ,21, ,
-14, ,21, ,
-16, ,21, ,
-18, ,21, ,
-20, ,21, ,
-22, ,21, ,
-23, ,21, ,
-25, ,21, ,
-25, ,21, ,
-25, ,21, ,
-25, ,21, ,
-25, ,21, ,
-24, ,21, ,
-23, ,21, ,
-21, ,21, ,
-21, ,21, ,
-19, ,21, ,
-18, ,21, ,
-17, ,21, ,
-16, ,21, ,
-15, ,21, ,
-14, ,21, ,
-14, ,21, ,
-13, ,20, ,
-12, ,20, ,
-10, ,20, ,
-11, ,21, ,
-9, ,21, ,
-9, ,21, ,
-9, ,21, ,
-8, ,20, ,
-8, ,20, ,
-8, ,21, ,
-8, ,21, ,
-8, ,21, ,
-7, ,21, ,
-6, ,21, ,
-5, ,21, ,
-4, ,21, ,
-4, ,21, ,
-1, ,21, ,
0, ,21, ,
2, ,20, ,
3, ,20, ,
5, ,20, ,
5, ,21, ,
6, ,21, ,
6, ,21, ,
5, ,21, ,
5, ,21, ,
4, ,21, ,
4, ,21, ,
2, ,21, ,
1, ,21, ,
1, ,21, ,
-1, ,21, ,
-3, ,21, ,
-5, ,21, ,
-6, ,21, ,
-8, ,21, ,
-11, ,21, ,
-13, ,21, ,
-14, ,21, ,
-16, ,21, ,
-18, ,21, ,
-19, ,21, ,
-20, ,21, ,
-20, ,21, ,
-20, ,21, ,
-20, ,20, ,
-20, ,20, ,
-19, ,21, ,
-18, ,20, ,
-16, ,20, ,
-16, ,20, ,
-14, ,20, ,
-10, ,20, ,
-9, ,21, ,
-7, ,20, ,
-5, ,20, ,
0, ,20, ,
2, ,20, ,
3, ,20, ,
6, ,21, ,
9, ,21, ,
10, ,21, ,
11, ,21, ,
11, ,21, ,
11, ,20, ,
11, ,20, ,
10, ,20, ,
10, ,20, ,
9, ,20, ,
8, ,21, ,
8, ,21, ,
7, ,21, ,
7, ,21, ,
7, ,21, ,
7, ,21, ,
7, ,21, ,
9, ,20, ,
9, ,20, ,
10, ,21, ,
10, ,20, ,
12, ,20, ,
13, ,20, ,
13, ,20, ,
13, ,20, ,
13, ,20, ,
13, ,21, ,
13, ,21, ,
12, ,21, ,
10, ,21, ,
10, ,21, ,
9, ,21, ,
7, ,21, ,
4, ,21, ,
3, ,21, ,
2, ,21, ,
-1, ,21, ,
-5, ,21, ,
-6, ,21, ,
-9, ,20, ,
-11, ,20, ,
-15, ,20, ,
-18, ,21, ,
-20, ,21, ,
-22, ,21, ,
-25, ,21, ,
-25, ,21, ,
-28, ,21, ,
-28, ,21, ,
-28, ,21, ,
-28, ,21, ,
-27, ,21, ,
-27, ,21, ,
-25, ,21, ,
-24, ,21, ,
-23, ,21, ,
-21, ,20, ,
-19, ,20, ,
-17, ,20, ,
-16, ,21, ,
-15, ,21, ,
-14, ,21, ,
-13, ,21, ,
-13, ,21, ,
-13, ,21, ,
-13, ,21, ,
-15, ,20, ,
-15, ,20, ,
-16, ,20, ,
-17, ,20, ,
-17, ,20, ,
-17, ,21, ,
-17, ,21, ,
-17, ,21, ,
-18, ,21, ,
-18, ,21, ,
-18, ,21, ,
-17, ,21, ,
-17, ,20, ,
-16, ,20, ,
-16, ,20, ,
-16, ,20, ,
-16, ,21, ,
-15, ,21, ,
-15, ,21, ,
-15, ,21, ,
-14, ,21, ,
-14, ,20, ,
-13, ,20, ,
-11, ,20, ,
-10, ,20, ,
-8, ,21, ,
-7, ,21, ,
-4, ,21, ,
-2, ,21, ,
0, ,21, ,
1, ,21, ,
4, ,21, ,
6, ,21, ,
7, ,21, ,
8, ,21, ,
10, ,21, ,
10, ,21, ,
12, ,21, ,
12, ,21, ,
13, ,21, ,
13, ,21, ,
14, ,21, ,
14, ,20, ,
14, ,20, ,
14, ,20, ,
13, ,21, ,
13, ,21, ,
12, ,21, ,
12, ,21, ,
11, ,21, ,
10, ,20, ,
8, ,20, ,
8, ,20, ,
7, ,20, ,
6, ,21, ,
3, ,20, ,
3, ,20, ,
2, ,20, ,
1, ,20, ,
-1, ,21, ,
-1, ,21, ,
-2, ,21, ,
-2, ,21, ,
-2, ,21, ,
-2, ,21, ,
-2, ,20, ,
-2, ,20, ,
-1, ,20, ,
0, ,20, ,
0, ,21, ,
1, ,21, ,
2, ,21, ,
2, ,21, ,
3, ,21, ,
3, ,21, ,
3, ,21, ,
3, ,21, ,
3, ,20, ,
3, ,20, ,
2, ,21, ,
0, ,21, ,
0, ,21, ,
-1, ,21, ,
-3, ,21, ,
-4, ,21, ,
-5, ,21, ,
-5, ,21, ,
-7, ,21, ,
-8, ,21, ,
-8, ,21, ,
-9, ,21, ,
-9, ,21, ,
-9, ,21, ,
-9, ,21, ,
-9, ,21, ,
-9, ,21, ,
-9, ,21, ,
-9, ,21, ,
-9, ,21, ,
-9, ,21, ,
-9, ,20, ,
-9, ,20, ,
-10, ,21, ,
-11, ,21, ,
-12, ,21, ,
-12, ,21, ,
-13, ,21, ,
-15, ,21, ,
-16, ,21, ,
-17, ,21, ,
-18, ,21, ,
-18, ,20, ,
-19, ,20, ,
-19, ,21, ,
-19, ,20, ,
-19, ,20, ,
-19, ,20, ,
-19, ,21, ,
-18, ,21, ,
-17, ,21, ,
-16, ,21, ,
-15, ,21, ,
-15, ,21, ,
-12, ,21, ,
-11, ,20, ,
-11, ,20, ,
-10, ,21, ,
-9, ,21, ,
-9, ,20, ,
-9, ,20, ,
-9, ,20, ,
-9, ,21, ,
-9, ,21, ,
-9, ,21, ,
-9, ,21, ,
-9, ,21, ,
-9, ,21, ,
-9, ,21, ,
-9, ,21, ,
-9, ,21, ,
-8, ,21, ,
-8, ,20, ,
-7, ,20, ,
-5, ,21, ,
-4, ,21, ,
-3, ,20, ,
-2, ,20, ,
1, ,21, ,
2, ,21, ,
4, ,21, ,
5, ,21, ,
8, ,20, ,
9, ,20, ,
10, ,20, ,
11, ,20, ,
13, ,20, ,
14, ,21, ,
14, ,21, ,
15, ,21, ,
14, ,21, ,
13, ,21, ,
12, ,21, ,
11, ,20, ,
8, ,20, ,
7, ,20, ,
5, ,20, ,
3, ,20, ,
-1, ,20, ,
-3, ,21, ,
-5, ,21, ,
-7, ,21, ,
-11, ,21, ,
-12, ,20, ,
-14, ,20, ,
-15, ,20, ,
-16, ,20, ,
-17, ,21, ,
-17, ,21, ,
-17, ,20, ,
-16, ,20, ,
-15, ,20, ,
-15, ,21, ,
-13, ,21, ,
-12, ,21, ,
-10, ,21, ,
-9, ,21, ,
-9, ,21, ,
-7, ,21, ,
-5, ,20, ,
-4, ,20, ,
-4, ,21, ,
-2, ,20, ,
-1, ,20, ,
-1, ,21, ,
-1, ,21, ,
0, ,21, ,
1, ,21, ,
1, ,21, ,
1, ,21, ,
1, ,21, ,
2, ,21, ,
2, ,21, ,
1, ,21, ,
1, ,21, ,
2, ,21, ,
2, ,20, ,
2, ,20, ,
2, ,20, ,
2, ,21, ,
2, ,21, ,
2, ,21, ,
3, ,21, ,
3, ,21, ,
3, ,21, ,
4, ,21, ,
4, ,21, ,
4, ,21, ,
4, ,21, ,
4, ,21, ,
4, ,21, ,
4, ,21, ,
4, ,21, ,
4, ,21, ,
3, ,20, ,
3, ,20, ,
2, ,21, ,
2, ,21, ,
2, ,21, ,
2, ,21, ,
1, ,21, ,
1, ,21, ,
1, ,21, ,
0, ,21, ,
0, ,21, ,
0, ,21, ,
-1, ,21, ,
-1, ,21, ,
-2, ,21, ,
-3, ,21, ,
-4, ,21, ,
-4, ,21, ,
-5, ,21, ,
-5, ,21, ,
-6, ,21, ,
-6, ,21, ,
-6, ,21, ,
-6, ,21, ,
-6, ,21, ,
-6, ,21, ,
-5, ,21, ,
-5, ,21, ,
-4, ,21, ,
-3, ,20, ,
-3, ,20, ,
-3, ,20, ,
-2, ,20, ,
-2, ,20, ,
-1, ,21, ,
-1, ,20, ,
-1, ,20, ,
-1, ,20, ,
-2, ,20, ,
-2, ,20, ,
-2, ,20, ,
-2, ,21, ,
-2, ,21, ,
-2, ,21, ,
-2, ,21, ,
-2, ,20, ,
-2, ,20, ,
-2, ,20, ,
-2, ,20, ,
-1, ,21, ,
-1, ,21, ,
-1, ,21, ,
1, ,21, ,
1, ,20, ,
2, ,20, ,
2, ,20, ,
3, ,20, ,
3, ,20, ,
3, ,21, ,
3, ,20, ,
2, ,20, ,
2, ,20, ,
1, ,21, ,
0, ,21, ,
-2, ,21, ,
-3, ,21, ,
-4, ,21, ,
-6, ,20, ,
-8, ,20, ,
-8, ,20, ,
-9, ,20, ,
-10, ,20, ,
-10, ,20, ,
-10, ,21, ,
-9, ,21, ,
-9, ,21, ,
-8, ,21, ,
-8, ,21, ,
-7, ,20, ,
-6, ,20, ,
-4, ,20, ,
-3, ,21, ,
-3, ,21, ,
-2, ,21, ,
-1, ,21, ,
-1, ,20, ,
-1, ,20, ,
-1, ,21, ,
-1, ,21, ,
-1, ,21, ,
-1, ,21, ,
-1, ,21, ,
-1, ,21, ,
-1, ,21, ,
-1, ,21, ,
0, ,21, ,
0, ,20, ,
1, ,20, ,
2, ,21, ,
2, ,21, ,
4, ,20, ,
5, ,20, ,
6, ,20, ,
7, ,20, ,
8, ,20, ,
9, ,21, ,
10, ,21, ,
10, ,21, ,
10, ,21, ,
10, ,20, ,
10, ,20, ,
10, ,21, ,
9, ,21, ,
8, ,21, ,
8, ,21, ,
6, ,21, ,
5, ,21, ,
4, ,21, ,
3, ,21, ,
3, ,21, ,
1, ,21, ,
0, ,21, ,
-1, ,21, ,
-2, ,21, ,
-3, ,21, ,
-3, ,21, ,
-3, ,20, ,
-2, ,20, ,
-2, ,20, ,
-2, ,20, ,
-2, ,21, ,
-2, ,20, ,
-1, ,20, ,
0, ,20, ,
0, ,21, ,
0, ,21, ,
0, ,21, ,
-1, ,20, ,
-1, ,20, ,
-2, ,21, ,
-4, ,21, ,
-6, ,21, ,
-7, ,20, ,
-9, ,20, ,
-12, ,21, ,
-14, ,21, ,
-15, ,21, ,
-17, ,21, ,
-18, ,21, ,
-18, ,21, ,
-18, ,20, ,
-18, ,20, ,
-16, ,20, ,
-16, ,21, ,
-15, ,21, ,
-14, ,20, ,
-11, ,20, ,
-8, ,20, ,
-7, ,20, ,
-5, ,21, ,
-2, ,21, ,
-1, ,21, ,
0, ,21, ,
2, ,21, ,
3, ,21, ,
5, ,21, ,
5, ,21, ,
6, ,21, ,
8, ,21, ,
7, ,21, ,
9, ,20, ,
9, ,20, ,
10, ,20, ,
11, ,21, ,
11, ,21, ,
12, ,21, ,
11, ,21, ,
10, ,21, ,
10, ,21, ,
10, ,21, ,
9, ,21, ,
8, ,21, ,
7, ,20, ,
6, ,20, ,
3, ,20, ,
2, ,21, ,
1, ,21, ,
-1, ,21, ,
-2, ,21, ,
-4, ,21, ,
-5, ,20, ,
-6, ,20, ,
-6, ,20, ,
-6, ,20, ,
-6, ,20, ,
-6, ,20, ,
-6, ,21, ,
-6, ,21, ,
-4, ,21, ,
-4, ,21, ,
-2, ,21, ,
-1, ,21, ,
1, ,21, ,
1, ,21, ,
2, ,21, ,
3, ,21, ,
3, ,20, ,
3, ,20, ,
2, ,20, ,
1, ,20, ,
0, ,21, ,
-2, ,21, ,
-5, ,21, ,
-6, ,21, ,
-8, ,21, ,
-10, ,21, ,
-14, ,21, ,
-16, ,21, ,
-16, ,21, ,
-18, ,21, ,
-18, ,21, ,
-18, ,21, ,
-18, ,21, ,
-18, ,21, ,
-16, ,21, ,
-15, ,21, ,
-14, ,21, ,
-12, ,20, ,
-10, ,20, ,
-8, ,20, ,
-7, ,21, ,
-5, ,21, ,
-3, ,21, ,
-2, ,21, ,
0, ,21, ,
0, ,21, ,
1, ,21, ,
3, ,21, ,
3, ,20, ,
4, ,20, ,
6, ,21, ,
6, ,21, ,
7, ,21, ,
7, ,21, ,
9, ,21, ,
10, ,21, ,
10, ,21, ,
11, ,21, ,
11, ,21, ,
10, ,21, ,
10, ,20, ,
9, ,20, ,
7, ,20, ,
6, ,20, ,
5, ,20, ,
3, ,21, ,
1, ,21, ,
-2, ,21, ,
-4, ,21, ,
-6, ,21, ,
-9, ,21, ,
-10, ,21, ,
-11, ,21, ,
-13, ,21, ,
-13, ,21, ,
-13, ,21, ,
-13, ,20, ,
-13, ,20, ,
-12, ,21, ,
-10, ,21, ,
-10, ,21, ,
-8, ,21, ,
-4, ,21, ,
-3, ,21, ,
-2, ,21, ,
0, ,20, ,
3, ,20, ,
5, ,20, ,
5, ,21, ,
7, ,21, ,
8, ,20, ,
8, ,20, ,
8, ,20, ,
8, ,20, ,
7, ,20, ,
6, ,20, ,
5, ,20, ,
4, ,21, ,
2, ,21, ,
1, ,21, ,
-1, ,20, ,
-2, ,20, ,
-4, ,20, ,
-5, ,20, ,
-6, ,21, ,
-6, ,21, ,
-6, ,21, ,
-6, ,21, ,
-6, ,20, ,
-6, ,20, ,
-5, ,21, ,
-4, ,20, ,
-3, ,20, ,
-3, ,21, ,
-1, ,21, ,
-1, ,21, ,
0, ,20, ,
0, ,20, ,
1, ,21, ,
1, ,21, ,
1, ,20, ,
2, ,20, ,
2, ,20, ,
2, ,20, ,
3, ,21, ,
2, ,21, ,
2, ,21, ,
3, ,21, ,
2, ,20, ,
2, ,20, ,
3, ,20, ,
3, ,21, ,
2, ,21, ,
2, ,20, ,
2, ,20, ,
1, ,20, ,
1, ,21, ,
0, ,21, ,
-1, ,21, ,
-1, ,21, ,
-2, ,20, ,
-2, ,20, ,
-3, ,20, ,
-3, ,21, ,
-3, ,21, ,
-3, ,21, ,
-2, ,21, ,
-2, ,20, ,
-2, ,20, ,
-2, ,21, ,
-1, ,21, ,
0, ,21, ,
0, ,21, ,
0, ,20, ,
1, ,20, ,
1, ,20, ,
2, ,21, ,
2, ,21, ,
2, ,21, ,
3, ,20, ,
2, ,20, ,
2, ,21, ,
3, ,21, ,
3, ,21, ,
3, ,20, ,
3, ,20, ,
3, ,21, ,
3, ,21, ,
3, ,21, ,
3, ,21, ,
2, ,20, ,
2, ,20, ,
2, ,21, ,
2, ,21, ,
1, ,21, ,
1, ,21, ,
1, ,20, ,
1, ,20, ,
0, ,21, ,
0, ,20, ,
1, ,20, ,
1, ,20, ,
1, ,20, ,
1, ,20, ,
1, ,21, ,
2, ,21, ,
2, ,21, ,
2, ,21, ,
2, ,21, ,
2, ,21, ,
2, ,21, ,
1, ,21, ,
1, ,21, ,
1, ,21, ,
1, ,20, ,
1, ,20, ,
1, ,20, ,
1, ,20, ,
1, ,20, ,
1, ,20, ,
1, ,21, ,
1, ,21, ,
1, ,21, ,
1, ,21, ,
2, ,21, ,
2, ,21, ,
1, ,21, ,
1, ,20, ,
0, ,20, ,
0, ,20, ,
-1, ,20, ,
-2, ,21, ,
-3, ,21, ,
-4, ,20, ,
-6, ,20, ,
-6, ,20, ,
-7, ,21, ,
-7, ,21, ,
-8, ,21, ,
-9, ,21, ,
-9, ,20, ,
-9, ,20, ,
-8, ,21, ,
-7, ,21, ,
-7, ,21, ,
-5, ,21, ,
-3, ,21, ,
-3, ,20, ,
0, ,20, ,
1, ,21, ,
2, ,21, ,
3, ,21, ,
4, ,20, ,
4, ,20, ,
5, ,20, ,
5, ,21, ,
5, ,21, ,
4, ,21, ,
3, ,21, ,
3, ,20, ,
2, ,20, ,
2, ,21, ,
1, ,21, ,
1, ,21, ,
1, ,21, ,
0, ,21, ,
-1, ,20, ,
-1, ,20, ,
-1, ,21, ,
-2, ,21, ,
-3, ,21, ,
-4, ,21, ,
-4, ,21, ,
-5, ,20, ,
-7, ,20, ,
-7, ,20, ,
-8, ,21, ,
-8, ,21, ,
-8, ,21, ,
-8, ,21, ,
-8, ,21, ,
-8, ,21, ,
-6, ,21, ,
-5, ,21, ,
-4, ,21, ,
-2, ,21, ,
1, ,21, ,
2, ,21, ,
5, ,20, ,
6, ,20, ,
9, ,20, ,
10, ,20, ,
11, ,20, ,
12, ,21, ,
12, ,20, ,
12, ,20, ,
12, ,21, ,
10, ,21, ,
9, ,21, ,
8, ,21, ,
6, ,21, ,
5, ,21, ,
2, ,20, ,
1, ,20, ,
1, ,21, ,
-1, ,21, ,
-2, ,21, ,
-2, ,21, ,
-2, ,21, ,
-1, ,21, ,
-1, ,21, ,
-1, ,21, ,
0, ,20, ,
0, ,20, ,
1, ,21, ,
1, ,21, ,
2, ,21, ,
2, ,21, ,
2, ,21, ,
2, ,21, ,
3, ,21, ,
3, ,21, ,
3, ,21, ,
3, ,21, ,
3, ,21, ,
3, ,21, ,
2, ,21, ,
2, ,21, ,
1, ,21, ,
0, ,20, ,
0, ,20, ,
0, ,20, ,
-2, ,21, ,
-2, ,21, ,
-3, ,21, ,
-4, ,21, ,
-4, ,21, ,
-6, ,21, ,
-6, ,21, ,
-7, ,20, ,
-7, ,20, ,
-7, ,21, ,
-7, ,21, ,
-7, ,21, ,
-7, ,21, ,
-7, ,21, ,
-6, ,20, ,
-5, ,20, ,
-5, ,20, ,
-4, ,20, ,
-3, ,20, ,
-3, ,21, ,
-2, ,20, ,
-1, ,20, ,
0, ,21, ,
1, ,21, ,
1, ,20, ,
2, ,20, ,
3, ,20, ,
3, ,21, ,
4, ,21, ,
4, ,21, ,
4, ,21, ,
4, ,21, ,
4, ,21, ,
4, ,21, ,
4, ,21, ,
4, ,21, ,
4, ,21, ,
4, ,21, ,
5, ,21, ,
5, ,21, ,
5, ,21, ,
5, ,21, ,
5, ,20, ,
4, ,20, ,
4, ,20, ,
4, ,21, ,
4, ,21, ,
4, ,21, ,
4, ,21, ,
4, ,21, ,
3, ,21, ,
3, ,21, ,
2, ,20, ,
2, ,20, ,
2, ,21, ,
2, ,20, ,
2, ,20, ,
2, ,21, ,
2, ,21, ,
2, ,21, ,
3, ,21, ,
2, ,20, ,
3, ,20, ,
3, ,20, ,
3, ,21, ,
3, ,21, ,
3, ,21, ,
3, ,21, ,
3, ,21, ,
2, ,21, ,
2, ,21, ,
2, ,20, ,
1, ,20, ,
1, ,20, ,
0, ,20, ,
-1, ,20, ,
-1, ,21, ,
-1, ,21, ,
-2, ,21, ,
-2, ,21, ,
-3, ,20, ,
-3, ,20, ,
-4, ,20, ,
-5, ,21, ,
-5, ,20, ,
-6, ,20, ,
-6, ,21, ,
-6, ,20, ,
-7, ,20, ,
-7, ,21, ,
-7, ,21, ,
-7, ,21, ,
-7, ,21, ,
-7, ,21, ,
-6, ,21, ,
-6, ,21, ,
-5, ,21, ,
-5, ,20, ,
-3, ,20, ,
-2, ,20, ,
-1, ,20, ,
-2, ,20, ,
0, ,21, ,
1, ,20, ,
1, ,20, ,
1, ,21, ,
2, ,21, ,
2, ,21, ,
2, ,21, ,
2, ,21, ,
2, ,21, ,
2, ,21, ,
3, ,20, ,
3, ,20, ,
4, ,20, ,
4, ,21, ,
4, ,21, ,
4, ,21, ,
6, ,21, ,
6, ,21, ,
6, ,20, ,
7, ,20, ,
7, ,20, ,
6, ,21, ,
6, ,21, ,
5, ,21, ,
4, ,21, ,
3, ,21, ,
2, ,21, ,
1, ,21, ,
-1, ,21, ,
-2, ,21, ,
-3, ,20, ,
-5, ,20, ,
-7, ,20, ,
-7, ,21, ,
-7, ,21, ,
-7, ,21, ,
-8, ,20, ,
-8, ,20, ,
-7, ,21, ,
-7, ,21, ,
-6, ,21, ,
-5, ,21, ,
-5, ,21, ,
-3, ,21, ,
-2, ,21, ,
-1, ,21, ,
1, ,20, ,
1, ,20, ,
4, ,21, ,
5, ,20, ,
6, ,20, ,
7, ,21, ,
8, ,21, ,
8, ,21, ,
9, ,21, ,
8, ,21, ,
7, ,20, ,
7, ,20, ,
6, ,20, ,
5, ,20, ,
2, ,20, ,
1, ,20, ,
0, ,20, ,
-1, ,21, ,
-4, ,21, ,
-4, ,20, ,
-6, ,20, ,
-6, ,20, ,
-5, ,20, ,
-5, ,20, ,
-5, ,21, ,
-4, ,21, ,
-3, ,21, ,
-2, ,21, ,
-1, ,21, ,
0, ,21, ,
2, ,21, ,
3, ,21, ,
3, ,21, ,
3, ,21, ,
4, ,21, ,
4, ,21, ,
4, ,20, ,
4, ,20, ,
3, ,21, ,
2, ,21, ,
2, ,21, ,
1, ,21, ,
0, ,21, ,
0, ,21, ,
-1, ,20, ,
-1, ,20, ,
-2, ,21, ,
-3, ,21, ,
-3, ,21, ,
-4, ,21, ,
-5, ,21, ,
-5, ,21, ,
-6, ,21, ,
-6, ,21, ,
-6, ,21, ,
-7, ,21, ,
-6, ,21, ,
-6, ,20, ,
-6, ,20, ,
-6, ,20, ,
-6, ,21, ,
-5, ,21, ,
-4, ,21, ,
-3, ,21, ,
-1, ,21, ,
-2, ,21, ,
0, ,21, ,
1, ,20, ,
2, ,20, ,
3, ,21, ,
4, ,21, ,
4, ,21, ,
5, ,21, ,
5, ,21, ,
5, ,21, ,
5, ,21, ,
5, ,21, ,
4, ,21, ,
4, ,21, ,
4, ,21, ,
4, ,21, ,
4, ,20, ,
4, ,20, ,
5, ,20, ,
4, ,21, ,
4, ,21, ,
5, ,21, ,
5, ,21, ,
5, ,21, ,
5, ,21, ,
5, ,21, ,
5, ,21, ,
5, ,21, ,
4, ,21, ,
4, ,21, ,
3, ,21, ,
3, ,20, ,
3, ,20, ,
2, ,21, ,
2, ,21, ,
1, ,21, ,
1, ,21, ,
0, ,20, ,
0, ,20, ,
0, ,20, ,
-1, ,20, ,
-2, ,20, ,
-2, ,20, ,
-2, ,21, ,
-2, ,21, ,
-2, ,21, ,
-2, ,21, ,
-3, ,21, ,
-3, ,21, ,
-3, ,21, ,
-3, ,20, ,
-3, ,20, ,
-3, ,21, ,
-3, ,20, ,
-4, ,20, ,
-4, ,21, ,
