raw_data/75% Glycerol, Impulsion 2Hz, Sonde 5MHz, Rampe 0.7Hz/temp0000362.CSV

Format,1.0B,
Memory Length,10000,Memory Length,10000,
IntpDistance,0,IntpDistance,0,
Trigger Address,159,Trigger Address,159,
Trigger Level,2.720E-01,Trigger Level,2.720E-01,
Source,CH1,Source,CH2,
Vertical Units,V,Vertical Units,V,
Vertical Units Div,0,Vertical Units Div,0,
Vertical Units Extend Div,16,Vertical Units Extend Div,16,
Label,,Label,,
Probe Type,0,Probe Type,0,
Probe Ratio,1.000e+00,Probe Ratio,1.000e+00,
Vertical Scale,5.000e-01,Vertical Scale,2.000e+00,
Vertical Position,0.000e+00,Vertical Position,0.000e+00,
Horizontal Units,S,Horizontal Units,S,
Horizontal Scale,5.000E-06,Horizontal Scale,5.000E-06,
Horizontal Position,2.420E-05,Horizontal Position,2.420E-05,
Horizontal Mode,Main,Horizontal Mode,Main,
SincET Mode,Real Time,SincET Mode,Real Time,
Sampling Period,5.000e-09,Sampling Period,5.000e-09,
Horizontal Old Scale,5.000E-06,Horizontal Old Scale,5.000E-06,
Horizontal Old Position,2.420E-05,Horizontal Old Position,2.420E-05,
Firmware,V1.32,Firmware,V1.32,
Mode,Fast,Mode,Fast,
Waveform Data,,Waveform Data,,
0, ,-1, ,
0, ,-1, ,
0, ,-1, ,
0, ,0, ,
1, ,0, ,
1, ,0, ,
0, ,0, ,
0, ,0, ,
1, ,0, ,
1, ,0, ,
1, ,-1, ,
1, ,-1, ,
1, ,-1, ,
1, ,-1, ,
1, ,0, ,
0, ,-1, ,
0, ,-1, ,
0, ,-1, ,
0, ,0, ,
0, ,0, ,
0, ,-1, ,
1, ,-1, ,
1, ,-1, ,
0, ,-1, ,
0, ,0, ,
1, ,-1, ,
0, ,-1, ,
0, ,-1, ,
0, ,-1, ,
0, ,0, ,
1, ,-1, ,
1, ,-1, ,
1, ,-1, ,
1, ,-1, ,
1, ,-1, ,
1, ,0, ,
1, ,0, ,
1, ,0, ,
0, ,-1, ,
0, ,-1, ,
1, ,-1, ,
1, ,0, ,
1, ,0, ,
1, ,0, ,
1, ,-1, ,
0, ,-1, ,
0, ,-1, ,
1, ,-1, ,
1, ,-1, ,
1, ,-1, ,
0, ,-1, ,
0, ,0, ,
1, ,-1, ,
1, ,-1, ,
1, ,-1, ,
0, ,-1, ,
0, ,-1, ,
1, ,0, ,
1, ,0, ,
1, ,0, ,
1, ,-1, ,
0, ,-1, ,
0, ,-1, ,
1, ,-1, ,
0, ,-1, ,
0, ,-1, ,
0, ,-1, ,
1, ,-1, ,
1, ,-1, ,
1, ,-1, ,
1, ,-1, ,
1, ,-1, ,
1, ,0, ,
1, ,-1, ,
0, ,-1, ,
0, ,-1, ,
1, ,0, ,
1, ,0, ,
1, ,-1, ,
0, ,-1, ,
0, ,-1, ,
1, ,-1, ,
1, ,0, ,
0, ,-1, ,
0, ,-1, ,
0, ,-1, ,
0, ,-1, ,
1, ,-1, ,
0, ,0, ,
0, ,-1, ,
0, ,-1, ,
1, ,-1, ,
1, ,-1, ,
0, ,-1, ,
0, ,-1, ,
0, ,-1, ,
0, ,-1, ,
0, ,-1, ,
0, ,-1, ,
0, ,0, ,
1, ,-1, ,
1, ,-1, ,
1, ,-1, ,
0, ,-1, ,
0, ,0, ,
1, ,-1, ,
1, ,-1, ,
1, ,0, ,
1, ,0, ,
1, ,-1, ,
1, ,-1, ,
0, ,-1, ,
0, ,-1, ,
0, ,-1, ,
0, ,0, ,
1, ,-1, ,
1, ,-1, ,
1, ,-1, ,
1, ,0, ,
1, ,0, ,
1, ,0, ,
1, ,-1, ,
1, ,-1, ,
1, ,0, ,
1, ,0, ,
1, ,-1, ,
1, ,-1, ,
1, ,0, ,
0, ,0, ,
0, ,0, ,
0, ,0, ,
0, ,0, ,
0, ,-1, ,
0, ,-1, ,
1, ,-1, ,
0, ,-1, ,
0, ,0, ,
0, ,-1, ,
0, ,-1, ,
1, ,0, ,
1, ,-1, ,
0, ,-1, ,
0, ,0, ,
1, ,-1, ,
0, ,-1, ,
0, ,-1, ,
0, ,-1, ,
1, ,-1, ,
1, ,-1, ,
0, ,0, ,
0, ,-1, ,
0, ,-1, ,
0, ,-1, ,
1, ,0, ,
0, ,0, ,
0, ,0, ,
0, ,-1, ,
0, ,-1, ,
0, ,-1, ,
0, ,0, ,
1, ,0, ,
1, ,0, ,
1, ,0, ,
1, ,-1, ,
1, ,-1, ,
1, ,-1, ,
0, ,-1, ,
-1, ,-1, ,
1, ,0, ,
17, ,0, ,
45, ,-1, ,
124, ,-1, ,
124, ,-1, ,
121, ,-1, ,
100, ,-1, ,
-4, ,-1, ,
4, ,-1, ,
54, ,-1, ,
106, ,-1, ,
125, ,-1, ,
125, ,-1, ,
125, ,-1, ,
125, ,-1, ,
125, ,-1, ,
124, ,-1, ,
124, ,-1, ,
121, ,-1, ,
110, ,-1, ,
107, ,-1, ,
103, ,-1, ,
101, ,0, ,
94, ,0, ,
90, ,0, ,
86, ,0, ,
82, ,-1, ,
76, ,-1, ,
75, ,-1, ,
71, ,0, ,
69, ,-1, ,
63, ,-1, ,
60, ,-1, ,
58, ,-1, ,
55, ,-1, ,
51, ,0, ,
49, ,0, ,
46, ,0, ,
45, ,0, ,
41, ,-1, ,
39, ,-1, ,
38, ,-1, ,
36, ,-1, ,
33, ,0, ,
32, ,0, ,
30, ,0, ,
28, ,-1, ,
26, ,-1, ,
25, ,0, ,
24, ,0, ,
23, ,0, ,
21, ,-1, ,
21, ,-1, ,
19, ,-1, ,
18, ,0, ,
17, ,0, ,
16, ,-1, ,
15, ,-1, ,
14, ,-1, ,
13, ,0, ,
12, ,0, ,
11, ,0, ,
11, ,-1, ,
10, ,-1, ,
9, ,0, ,
9, ,0, ,
8, ,0, ,
7, ,0, ,
7, ,-1, ,
6, ,-1, ,
6, ,0, ,
5, ,0, ,
4, ,0, ,
4, ,-1, ,
4, ,-1, ,
4, ,-1, ,
3, ,-1, ,
3, ,-1, ,
3, ,-1, ,
2, ,-1, ,
2, ,-1, ,
2, ,-1, ,
2, ,-1, ,
1, ,0, ,
1, ,0, ,
1, ,-1, ,
1, ,-1, ,
1, ,-1, ,
1, ,0, ,
1, ,-1, ,
0, ,-1, ,
0, ,-1, ,
0, ,-1, ,
-1, ,0, ,
-1, ,-1, ,
-1, ,-1, ,
-1, ,0, ,
-1, ,0, ,
-1, ,0, ,
-1, ,0, ,
-1, ,-1, ,
-1, ,-1, ,
-1, ,0, ,
-1, ,-1, ,
-1, ,-1, ,
-1, ,-1, ,
-1, ,0, ,
-1, ,0, ,
-1, ,0, ,
-1, ,0, ,
-1, ,0, ,
-1, ,0, ,
-1, ,0, ,
-1, ,0, ,
-1, ,-1, ,
-1, ,-1, ,
-1, ,-1, ,
-1, ,0, ,
-1, ,0, ,
-1, ,0, ,
-1, ,0, ,
-1, ,-1, ,
-2, ,-1, ,
-2, ,-1, ,
-1, ,-1, ,
-1, ,-1, ,
-1, ,-1, ,
-2, ,-1, ,
-2, ,0, ,
-2, ,-1, ,
-2, ,-1, ,
-1, ,0, ,
-1, ,-1, ,
-1, ,-1, ,
-1, ,0, ,
-1, ,0, ,
-1, ,0, ,
-1, ,0, ,
-1, ,0, ,
-1, ,-1, ,
-1, ,-1, ,
-1, ,-1, ,
-1, ,-1, ,
-1, ,-1, ,
-1, ,0, ,
-1, ,-1, ,
-1, ,-1, ,
-1, ,0, ,
-1, ,-1, ,
-1, ,-1, ,
-1, ,-1, ,
-1, ,-1, ,
-1, ,-1, ,
-1, ,-1, ,
-1, ,-1, ,
0, ,-1, ,
0, ,-1, ,
0, ,-1, ,
-1, ,0, ,
-1, ,0, ,
0, ,0, ,
0, ,-1, ,
0, ,-1, ,
0, ,-1, ,
0, ,-1, ,
-1, ,-1, ,
-1, ,0, ,
0, ,0, ,
0, ,0, ,
0, ,-1, ,
0, ,-1, ,
0, ,-1, ,
0, ,-1, ,
0, ,0, ,
0, ,-1, ,
0, ,-1, ,
0, ,0, ,
0, ,-1, ,
0, ,-1, ,
0, ,0, ,
0, ,0, ,
0, ,0, ,
0, ,0, ,
0, ,-1, ,
0, ,-1, ,
0, ,-1, ,
0, ,-1, ,
0, ,-1, ,
0, ,-1, ,
0, ,-1, ,
0, ,0, ,
0, ,0, ,
0, ,0, ,
0, ,0, ,
0, ,0, ,
0, ,0, ,
0, ,-1, ,
0, ,-1, ,
0, ,0, ,
0, ,-1, ,
0, ,-1, ,
0, ,-1, ,
0, ,-1, ,
0, ,-1, ,
0, ,-1, ,
0, ,-1, ,
0, ,-1, ,
0, ,-1, ,
0, ,0, ,
0, ,0, ,
0, ,0, ,
0, ,0, ,
0, ,-1, ,
0, ,-1, ,
0, ,0, ,
0, ,-1, ,
0, ,-1, ,
0, ,-1, ,
0, ,0, ,
0, ,0, ,
0, ,0, ,
0, ,0, ,
0, ,-1, ,
0, ,-1, ,
0, ,-1, ,
0, ,-1, ,
0, ,-1, ,
0, ,-1, ,
0, ,-1, ,
0, ,-1, ,
1, ,-1, ,
0, ,-1, ,
0, ,0, ,
0, ,0, ,
0, ,-1, ,
0, ,-1, ,
0, ,-1, ,
0, ,0, ,
0, ,0, ,
0, ,0, ,
0, ,0, ,
0, ,0, ,
0, ,0, ,
0, ,0, ,
0, ,0, ,
0, ,0, ,
0, ,-1, ,
0, ,-1, ,
0, ,-1, ,
0, ,-1, ,
0, ,-1, ,
1, ,-1, ,
1, ,-1, ,
1, ,-1, ,
1, ,0, ,
1, ,0, ,
0, ,0, ,
0, ,-1, ,
0, ,-1, ,
0, ,0, ,
0, ,0, ,
0, ,0, ,
0, ,-1, ,
0, ,-1, ,
0, ,-1, ,
1, ,-1, ,
0, ,-1, ,
0, ,-1, ,
0, ,-1, ,
0, ,0, ,
-1, ,-1, ,
-2, ,-1, ,
-2, ,-1, ,
-3, ,0, ,
-5, ,0, ,
-9, ,0, ,
-12, ,0, ,
-16, ,0, ,
-17, ,-1, ,
-18, ,-1, ,
-16, ,-1, ,
-13, ,-1, ,
-10, ,-1, ,
-5, ,-1, ,
-3, ,-1, ,
-1, ,0, ,
0, ,0, ,
2, ,0, ,
3, ,0, ,
3, ,-1, ,
3, ,-1, ,
4, ,-1, ,
4, ,-1, ,
4, ,0, ,
4, ,0, ,
3, ,0, ,
2, ,0, ,
2, ,-1, ,
1, ,-1, ,
0, ,-1, ,
0, ,-1, ,
0, ,-1, ,
1, ,0, ,
1, ,0, ,
2, ,-1, ,
2, ,-1, ,
2, ,-1, ,
3, ,-1, ,
3, ,-1, ,
3, ,-1, ,
3, ,0, ,
4, ,-1, ,
4, ,-1, ,
4, ,-1, ,
4, ,-1, ,
4, ,-1, ,
4, ,-1, ,
4, ,-1, ,
4, ,-1, ,
3, ,-1, ,
3, ,0, ,
3, ,0, ,
3, ,0, ,
3, ,0, ,
3, ,-1, ,
3, ,-1, ,
3, ,0, ,
2, ,-1, ,
2, ,-1, ,
2, ,-1, ,
2, ,-1, ,
1, ,0, ,
1, ,-1, ,
1, ,-1, ,
1, ,-1, ,
0, ,-1, ,
0, ,0, ,
-1, ,0, ,
-1, ,0, ,
-1, ,0, ,
0, ,0, ,
0, ,0, ,
0, ,0, ,
0, ,0, ,
0, ,0, ,
0, ,-1, ,
0, ,-1, ,
0, ,-1, ,
0, ,-1, ,
0, ,-1, ,
-1, ,0, ,
-2, ,0, ,
-2, ,0, ,
-2, ,0, ,
-4, ,0, ,
-5, ,0, ,
-5, ,0, ,
-7, ,-1, ,
-8, ,-1, ,
-9, ,0, ,
-10, ,0, ,
-10, ,0, ,
-10, ,-1, ,
-10, ,-1, ,
-9, ,-1, ,
-9, ,-1, ,
-9, ,-1, ,
-9, ,-1, ,
-10, ,0, ,
-10, ,-1, ,
-11, ,-1, ,
-12, ,0, ,
-13, ,0, ,
-15, ,0, ,
-16, ,-1, ,
-21, ,-1, ,
-22, ,0, ,
-24, ,-1, ,
-25, ,-1, ,
-26, ,-1, ,
-25, ,-1, ,
-25, ,0, ,
-24, ,0, ,
-21, ,0, ,
-21, ,0, ,
-19, ,-1, ,
-19, ,-1, ,
-19, ,-1, ,
-19, ,-1, ,
-20, ,-1, ,
-21, ,-1, ,
-25, ,0, ,
-26, ,0, ,
-28, ,-1, ,
-30, ,-1, ,
-35, ,0, ,
-36, ,-1, ,
-37, ,-1, ,
-37, ,-1, ,
-36, ,-1, ,
-35, ,0, ,
-33, ,0, ,
-32, ,0, ,
-27, ,0, ,
-25, ,-1, ,
-23, ,-1, ,
-20, ,0, ,
-14, ,-1, ,
-12, ,-1, ,
-10, ,-1, ,
-8, ,-1, ,
-4, ,-1, ,
-2, ,-1, ,
0, ,0, ,
1, ,-1, ,
5, ,-1, ,
6, ,-1, ,
8, ,0, ,
9, ,0, ,
12, ,0, ,
13, ,-1, ,
14, ,-1, ,
14, ,-1, ,
14, ,-1, ,
14, ,-1, ,
14, ,-1, ,
13, ,-1, ,
12, ,-1, ,
11, ,-1, ,
10, ,-1, ,
10, ,0, ,
7, ,0, ,
6, ,0, ,
6, ,0, ,
6, ,0, ,
6, ,-1, ,
6, ,-1, ,
6, ,-1, ,
7, ,0, ,
10, ,-1, ,
10, ,-1, ,
11, ,-1, ,
12, ,-1, ,
14, ,-1, ,
14, ,-1, ,
15, ,0, ,
14, ,-1, ,
14, ,-1, ,
13, ,-1, ,
13, ,-1, ,
12, ,-1, ,
9, ,0, ,
9, ,0, ,
6, ,0, ,
5, ,0, ,
2, ,-1, ,
-1, ,-1, ,
-2, ,-1, ,
-4, ,0, ,
-8, ,0, ,
-9, ,0, ,
-11, ,0, ,
-11, ,-1, ,
-13, ,-1, ,
-13, ,0, ,
-13, ,-1, ,
-14, ,-1, ,
-15, ,0, ,
-15, ,0, ,
-16, ,0, ,
-16, ,-1, ,
-17, ,-1, ,
-18, ,-1, ,
-19, ,-1, ,
-20, ,-1, ,
-21, ,-1, ,
-21, ,-1, ,
-21, ,0, ,
-21, ,-1, ,
-20, ,-1, ,
-19, ,-1, ,
-19, ,-1, ,
-19, ,-1, ,
-19, ,-1, ,
-19, ,-1, ,
-19, ,-1, ,
-20, ,-1, ,
-21, ,-1, ,
-22, ,-1, ,
-23, ,-1, ,
-25, ,-1, ,
-26, ,-1, ,
-27, ,-1, ,
-27, ,0, ,
-27, ,0, ,
-27, ,-1, ,
-26, ,-1, ,
-25, ,-1, ,
-25, ,-1, ,
-21, ,0, ,
-19, ,0, ,
-16, ,0, ,
-14, ,-1, ,
-8, ,-1, ,
-6, ,0, ,
-3, ,-1, ,
0, ,-1, ,
5, ,-1, ,
7, ,-1, ,
9, ,0, ,
11, ,-1, ,
14, ,-1, ,
15, ,-1, ,
15, ,0, ,
15, ,-1, ,
14, ,-1, ,
13, ,-1, ,
12, ,-1, ,
10, ,-1, ,
7, ,-1, ,
5, ,-1, ,
3, ,-1, ,
2, ,-1, ,
-1, ,0, ,
-2, ,-1, ,
-3, ,-1, ,
-4, ,-1, ,
-3, ,-1, ,
-3, ,0, ,
-3, ,-1, ,
-4, ,-1, ,
-4, ,0, ,
-4, ,0, ,
-5, ,0, ,
-5, ,0, ,
-6, ,0, ,
-8, ,0, ,
-8, ,0, ,
-9, ,-1, ,
-11, ,-1, ,
-12, ,-1, ,
-14, ,0, ,
-15, ,-1, ,
-18, ,-1, ,
-19, ,0, ,
-19, ,-1, ,
-20, ,-1, ,
-20, ,0, ,
-20, ,-1, ,
-20, ,-1, ,
-19, ,-1, ,
-17, ,-1, ,
-16, ,-1, ,
-14, ,-1, ,
-12, ,0, ,
-7, ,0, ,
-5, ,0, ,
-2, ,0, ,
0, ,0, ,
6, ,0, ,
8, ,0, ,
11, ,0, ,
12, ,-1, ,
16, ,-1, ,
18, ,-1, ,
19, ,-1, ,
20, ,0, ,
21, ,0, ,
21, ,-1, ,
20, ,-1, ,
20, ,-1, ,
18, ,0, ,
16, ,0, ,
15, ,0, ,
13, ,0, ,
9, ,0, ,
7, ,0, ,
5, ,-1, ,
3, ,-1, ,
0, ,-1, ,
0, ,-1, ,
-1, ,-1, ,
-1, ,0, ,
-1, ,0, ,
-1, ,0, ,
-1, ,0, ,
0, ,-1, ,
1, ,-1, ,
1, ,-1, ,
2, ,0, ,
2, ,-1, ,
1, ,-1, ,
0, ,-1, ,
0, ,-1, ,
-1, ,0, ,
-3, ,0, ,
-4, ,-1, ,
-6, ,-1, ,
-7, ,-1, ,
-11, ,-1, ,
-12, ,-1, ,
-14, ,-1, ,
-16, ,-1, ,
-19, ,-1, ,
-21, ,-1, ,
-22, ,-1, ,
-24, ,0, ,
-25, ,-1, ,
-27, ,-1, ,
-27, ,-1, ,
-29, ,0, ,
-30, ,0, ,
-30, ,-1, ,
-30, ,-1, ,
-29, ,-1, ,
-28, ,-1, ,
-27, ,-1, ,
-26, ,-1, ,
-25, ,-1, ,
-23, ,-1, ,
-21, ,-1, ,
-20, ,0, ,
-17, ,0, ,
-14, ,0, ,
-12, ,0, ,
-11, ,-1, ,
-10, ,-1, ,
-8, ,0, ,
-8, ,0, ,
-8, ,0, ,
-8, ,-1, ,
-9, ,-1, ,
-10, ,-1, ,
-10, ,-1, ,
-11, ,-1, ,
-13, ,-1, ,
-13, ,-1, ,
-15, ,-1, ,
-15, ,0, ,
-16, ,0, ,
-16, ,0, ,
-16, ,0, ,
-16, ,-1, ,
-14, ,-1, ,
-13, ,-1, ,
-12, ,-1, ,
-11, ,0, ,
-8, ,-1, ,
-6, ,-1, ,
-4, ,-1, ,
-2, ,-1, ,
1, ,-1, ,
3, ,-1, ,
4, ,-1, ,
6, ,-1, ,
8, ,-1, ,
9, ,-1, ,
11, ,-1, ,
11, ,-1, ,
12, ,0, ,
12, ,-1, ,
11, ,-1, ,
11, ,0, ,
9, ,-1, ,
8, ,-1, ,
7, ,-1, ,
5, ,-1, ,
3, ,-1, ,
1, ,-1, ,
0, ,-1, ,
-1, ,-1, ,
-2, ,-1, ,
-2, ,0, ,
-2, ,-1, ,
-1, ,-1, ,
0, ,0, ,
1, ,-1, ,
3, ,-1, ,
5, ,-1, ,
8, ,-1, ,
9, ,-1, ,
11, ,-1, ,
12, ,-1, ,
13, ,-1, ,
14, ,-1, ,
14, ,-1, ,
13, ,-1, ,
12, ,-1, ,
12, ,-1, ,
10, ,-1, ,
9, ,0, ,
6, ,-1, ,
4, ,-1, ,
3, ,-1, ,
1, ,-1, ,
-1, ,-1, ,
-4, ,0, ,
-4, ,0, ,
-6, ,-1, ,
-8, ,-1, ,
-9, ,-1, ,
-10, ,0, ,
-10, ,0, ,
-11, ,-1, ,
-12, ,-1, ,
-12, ,-1, ,
-12, ,0, ,
-13, ,-1, ,
-13, ,-1, ,
-13, ,-1, ,
-12, ,0, ,
-11, ,0, ,
-10, ,0, ,
-9, ,-1, ,
-8, ,-1, ,
-6, ,0, ,
-5, ,-1, ,
-3, ,-1, ,
-2, ,-1, ,
-1, ,-1, ,
-1, ,0, ,
-1, ,-1, ,
-1, ,-1, ,
-3, ,0, ,
-3, ,-1, ,
-5, ,-1, ,
-7, ,-1, ,
-10, ,-1, ,
-13, ,-1, ,
-15, ,-1, ,
-17, ,-1, ,
-21, ,-1, ,
-23, ,-1, ,
-25, ,0, ,
-25, ,0, ,
-26, ,0, ,
-26, ,0, ,
-25, ,-1, ,
-25, ,-1, ,
-25, ,-1, ,
-23, ,-1, ,
-22, ,-1, ,
-20, ,0, ,
-16, ,0, ,
-14, ,-1, ,
-13, ,-1, ,
-11, ,0, ,
-7, ,0, ,
-5, ,-1, ,
-4, ,-1, ,
-3, ,-1, ,
0, ,-1, ,
0, ,0, ,
1, ,0, ,
1, ,-1, ,
2, ,-1, ,
2, ,-1, ,
1, ,0, ,
1, ,0, ,
-1, ,-1, ,
-2, ,-1, ,
-3, ,-1, ,
-4, ,-1, ,
-5, ,-1, ,
-5, ,-1, ,
-6, ,-1, ,
-6, ,-1, ,
-6, ,-1, ,
-5, ,-1, ,
-5, ,-1, ,
-4, ,-1, ,
-3, ,-1, ,
-1, ,-1, ,
0, ,-1, ,
1, ,-1, ,
4, ,-1, ,
5, ,-1, ,
7, ,-1, ,
7, ,-1, ,
8, ,-1, ,
9, ,-1, ,
8, ,-1, ,
8, ,-1, ,
6, ,-1, ,
5, ,0, ,
4, ,-1, ,
1, ,-1, ,
-2, ,0, ,
-3, ,-1, ,
-6, ,-1, ,
-8, ,0, ,
-11, ,-1, ,
-13, ,-1, ,
-15, ,-1, ,
-16, ,-1, ,
-19, ,-1, ,
-19, ,-1, ,
-19, ,-1, ,
-19, ,0, ,
-18, ,-1, ,
-17, ,-1, ,
-16, ,-1, ,
-15, ,-1, ,
-12, ,-1, ,
-10, ,0, ,
-10, ,0, ,
-7, ,-1, ,
-4, ,-1, ,
-3, ,0, ,
-1, ,0, ,
0, ,-1, ,
3, ,-1, ,
4, ,-1, ,
4, ,-1, ,
6, ,-1, ,
7, ,-1, ,
7, ,0, ,
8, ,0, ,
8, ,0, ,
9, ,0, ,
9, ,0, ,
9, ,0, ,
9, ,-1, ,
8, ,-1, ,
7, ,-1, ,
7, ,-1, ,
6, ,-1, ,
5, ,-1, ,
5, ,-1, ,
4, ,-1, ,
4, ,-1, ,
3, ,-1, ,
2, ,-1, ,
2, ,-1, ,
2, ,0, ,
1, ,0, ,
1, ,-1, ,
1, ,-1, ,
2, ,0, ,
2, ,-1, ,
2, ,-1, ,
2, ,-1, ,
2, ,0, ,
2, ,0, ,
2, ,0, ,
2, ,0, ,
2, ,-1, ,
1, ,-1, ,
0, ,-1, ,
0, ,-1, ,
0, ,-1, ,
-1, ,-1, ,
-1, ,-1, ,
-2, ,-1, ,
-2, ,0, ,
-4, ,0, ,
-5, ,-1, ,
-5, ,-1, ,
-6, ,0, ,
-7, ,0, ,
-7, ,-1, ,
-7, ,-1, ,
-7, ,0, ,
-8, ,-1, ,
-8, ,-1, ,
-8, ,-1, ,
-8, ,-1, ,
-8, ,0, ,
-7, ,0, ,
-7, ,0, ,
-7, ,-1, ,
-7, ,-1, ,
-7, ,-1, ,
-6, ,-1, ,
-6, ,-1, ,
-7, ,-1, ,
-8, ,-1, ,
-8, ,-1, ,
-9, ,-1, ,
-10, ,-1, ,
-10, ,0, ,
-11, ,0, ,
-12, ,-1, ,
-12, ,-1, ,
-13, ,-1, ,
-13, ,-1, ,
-13, ,-1, ,
-12, ,-1, ,
-12, ,-1, ,
-11, ,-1, ,
-10, ,-1, ,
-7, ,-1, ,
-5, ,-1, ,
-3, ,0, ,
0, ,-1, ,
4, ,-1, ,
7, ,0, ,
9, ,0, ,
11, ,-1, ,
15, ,-1, ,
17, ,-1, ,
17, ,-1, ,
18, ,-1, ,
17, ,-1, ,
16, ,-1, ,
16, ,-1, ,
14, ,-1, ,
12, ,-1, ,
11, ,-1, ,
9, ,-1, ,
8, ,-1, ,
5, ,-1, ,
4, ,-1, ,
3, ,-1, ,
2, ,-1, ,
0, ,0, ,
0, ,-1, ,
-1, ,-1, ,
-1, ,0, ,
-1, ,-1, ,
-2, ,-1, ,
-2, ,-1, ,
-3, ,-1, ,
-4, ,-1, ,
-5, ,-1, ,
-6, ,-1, ,
-6, ,-1, ,
-9, ,-1, ,
-10, ,0, ,
-11, ,0, ,
-12, ,-1, ,
-13, ,-1, ,
-13, ,-1, ,
-14, ,-1, ,
-13, ,0, ,
-13, ,-1, ,
-13, ,-1, ,
-12, ,-1, ,
-11, ,-1, ,
-9, ,-1, ,
-7, ,-1, ,
-6, ,0, ,
-4, ,-1, ,
-1, ,-1, ,
0, ,-1, ,
2, ,-1, ,
3, ,-1, ,
6, ,-1, ,
7, ,-1, ,
7, ,-1, ,
9, ,-1, ,
9, ,-1, ,
9, ,-1, ,
9, ,-1, ,
8, ,-1, ,
7, ,-1, ,
5, ,-1, ,
4, ,-1, ,
3, ,-1, ,
0, ,-1, ,
-2, ,-1, ,
-3, ,-1, ,
-5, ,-1, ,
-8, ,0, ,
-8, ,-1, ,
-9, ,-1, ,
-9, ,-1, ,
-9, ,-1, ,
-9, ,-1, ,
-9, ,-1, ,
-8, ,-1, ,
-7, ,-1, ,
-6, ,-1, ,
-5, ,0, ,
-4, ,-1, ,
-2, ,-1, ,
0, ,-1, ,
1, ,-1, ,
2, ,-1, ,
3, ,0, ,
5, ,-1, ,
5, ,-1, ,
6, ,0, ,
7, ,-1, ,
7, ,-1, ,
7, ,-1, ,
7, ,-1, ,
6, ,-1, ,
6, ,-1, ,
6, ,-1, ,
6, ,0, ,
4, ,0, ,
4, ,0, ,
3, ,-1, ,
3, ,-1, ,
1, ,-1, ,
1, ,-1, ,
0, ,-1, ,
0, ,-1, ,
-1, ,-1, ,
-2, ,-1, ,
-2, ,-1, ,
-2, ,-1, ,
-3, ,-1, ,
-4, ,-1, ,
-4, ,0, ,
-4, ,-1, ,
-4, ,-1, ,
-4, ,-1, ,
-4, ,-1, ,
-5, ,-1, ,
-5, ,0, ,
-5, ,-1, ,
-5, ,-1, ,
-5, ,0, ,
-5, ,-1, ,
-5, ,-1, ,
-5, ,-1, ,
-5, ,-1, ,
-4, ,-1, ,
-4, ,-1, ,
-4, ,-1, ,
-4, ,-1, ,
-4, ,-1, ,
-4, ,-1, ,
-4, ,-1, ,
-4, ,-1, ,
-5, ,0, ,
-6, ,0, ,
-6, ,0, ,
-7, ,0, ,
-9, ,-1, ,
-10, ,-1, ,
-10, ,-1, ,
-11, ,-1, ,
-12, ,-1, ,
-12, ,-1, ,
-12, ,-1, ,
-12, ,-1, ,
-11, ,-1, ,
-11, ,-1, ,
-9, ,-1, ,
-9, ,-1, ,
-6, ,-1, ,
-4, ,-1, ,
-2, ,-1, ,
0, ,-1, ,
4, ,-1, ,
6, ,-1, ,
8, ,-1, ,
10, ,-1, ,
12, ,-1, ,
13, ,-1, ,
14, ,-1, ,
14, ,-1, ,
14, ,-1, ,
14, ,-1, ,
13, ,-1, ,
13, ,-1, ,
11, ,-1, ,
10, ,-1, ,
9, ,-1, ,
8, ,0, ,
5, ,0, ,
4, ,0, ,
3, ,0, ,
1, ,-1, ,
-2, ,-1, ,
-3, ,-1, ,
-5, ,0, ,
-6, ,-1, ,
-10, ,-1, ,
-11, ,-1, ,
-13, ,-1, ,
-14, ,0, ,
-15, ,0, ,
-15, ,0, ,
-16, ,-1, ,
-15, ,-1, ,
-14, ,-1, ,
-14, ,0, ,
-13, ,-1, ,
-12, ,-1, ,
-10, ,-1, ,
-9, ,-1, ,
-8, ,0, ,
-6, ,-1, ,
-5, ,-1, ,
-4, ,0, ,
-3, ,-1, ,
-3, ,-1, ,
-2, ,-1, ,
-1, ,-1, ,
-1, ,0, ,
-1, ,0, ,
0, ,0, ,
-1, ,0, ,
-1, ,0, ,
-1, ,0, ,
0, ,0, ,
0, ,-1, ,
0, ,-1, ,
0, ,0, ,
-1, ,0, ,
-2, ,0, ,
-2, ,0, ,
-3, ,-1, ,
-3, ,-1, ,
-4, ,-1, ,
-4, ,-1, ,
-5, ,0, ,
-5, ,-1, ,
-5, ,-1, ,
-5, ,-1, ,
-5, ,-1, ,
-5, ,-1, ,
-4, ,-1, ,
-4, ,-1, ,
-3, ,-1, ,
-1, ,-1, ,
0, ,0, ,
1, ,-1, ,
2, ,-1, ,
4, ,-1, ,
5, ,-1, ,
6, ,-1, ,
7, ,-1, ,
7, ,-1, ,
8, ,-1, ,
8, ,-1, ,
7, ,-1, ,
6, ,-1, ,
6, ,-1, ,
5, ,0, ,
4, ,-1, ,
2, ,-1, ,
1, ,0, ,
0, ,-1, ,
-1, ,-1, ,
-3, ,-1, ,
-3, ,-1, ,
-5, ,-1, ,
-5, ,0, ,
-5, ,-1, ,
-5, ,-1, ,
-5, ,-1, ,
-5, ,-1, ,
-5, ,-1, ,
-4, ,-1, ,
-4, ,-1, ,
-2, ,-1, ,
-1, ,-1, ,
0, ,0, ,
1, ,0, ,
2, ,-1, ,
4, ,-1, ,
5, ,-1, ,
6, ,-1, ,
7, ,-1, ,
8, ,-1, ,
7, ,-1, ,
7, ,-1, ,
6, ,-1, ,
5, ,-1, ,
5, ,-1, ,
3, ,-1, ,
3, ,0, ,
1, ,0, ,
0, ,0, ,
-1, ,-1, ,
-2, ,-1, ,
-3, ,-1, ,
-3, ,-1, ,
-4, ,0, ,
-4, ,0, ,
-4, ,0, ,
-4, ,0, ,
-4, ,0, ,
-4, ,-1, ,
-3, ,-1, ,
-3, ,-1, ,
-2, ,-1, ,
-1, ,-1, ,
0, ,-1, ,
0, ,-1, ,
0, ,-1, ,
0, ,0, ,
1, ,0, ,
2, ,-1, ,
2, ,-1, ,
2, ,-1, ,
2, ,-1, ,
2, ,-1, ,
2, ,-1, ,
2, ,-1, ,
2, ,-1, ,
1, ,-1, ,
1, ,-1, ,
0, ,-1, ,
-1, ,-1, ,
-1, ,-1, ,
-2, ,0, ,
-2, ,-1, ,
-2, ,-1, ,
-2, ,-1, ,
-2, ,-1, ,
-2, ,0, ,
-1, ,-1, ,
-1, ,-1, ,
0, ,-1, ,
0, ,-1, ,
2, ,-1, ,
3, ,-1, ,
2, ,-1, ,
3, ,-1, ,
4, ,-1, ,
4, ,-1, ,
3, ,-1, ,
3, ,-1, ,
2, ,-1, ,
2, ,-1, ,
0, ,-1, ,
0, ,0, ,
-2, ,0, ,
-4, ,0, ,
-5, ,0, ,
-6, ,-1, ,
-7, ,-1, ,
-7, ,-1, ,
-7, ,-1, ,
-7, ,0, ,
-6, ,-1, ,
-7, ,-1, ,
-5, ,-1, ,
-5, ,-1, ,
-2, ,-1, ,
-1, ,-1, ,
0, ,0, ,
1, ,-1, ,
3, ,-1, ,
5, ,-1, ,
6, ,-1, ,
6, ,0, ,
8, ,0, ,
8, ,-1, ,
8, ,-1, ,
8, ,-1, ,
7, ,-1, ,
7, ,0, ,
6, ,0, ,
6, ,-1, ,
4, ,-1, ,
4, ,-1, ,
3, ,-1, ,
2, ,0, ,
1, ,0, ,
-1, ,0, ,
-1, ,0, ,
-2, ,0, ,
-3, ,0, ,
-4, ,0, ,
-5, ,0, ,
-5, ,-1, ,
-5, ,-1, ,
-6, ,0, ,
-6, ,-1, ,
-6, ,-1, ,
-5, ,-1, ,
-5, ,-1, ,
-5, ,-1, ,
-4, ,0, ,
-4, ,-1, ,
-4, ,-1, ,
-4, ,-1, ,
-3, ,-1, ,
-3, ,0, ,
-3, ,0, ,
-3, ,-1, ,
-4, ,-1, ,
-4, ,-1, ,
-4, ,-1, ,
-4, ,-1, ,
-4, ,-1, ,
-3, ,-1, ,
-3, ,-1, ,
-3, ,-1, ,
-2, ,-1, ,
-1, ,0, ,
-1, ,0, ,
0, ,-1, ,
1, ,-1, ,
2, ,-1, ,
3, ,-1, ,
3, ,-1, ,
4, ,-1, ,
4, ,-1, ,
3, ,-1, ,
3, ,-1, ,
3, ,0, ,
2, ,0, ,
1, ,-1, ,
0, ,-1, ,
0, ,-1, ,
-1, ,0, ,
-2, ,-1, ,
-2, ,-1, ,
-2, ,-1, ,
-2, ,-1, ,
-1, ,-1, ,
-2, ,-1, ,
0, ,-1, ,
1, ,-1, ,
2, ,-1, ,
4, ,0, ,
3, ,0, ,
7, ,0, ,
8, ,-1, ,
9, ,-1, ,
10, ,-1, ,
12, ,-1, ,
12, ,-1, ,
12, ,-1, ,
11, ,0, ,
10, ,-1, ,
10, ,-1, ,
8, ,-1, ,
7, ,-1, ,
4, ,-1, ,
2, ,-1, ,
1, ,-1, ,
-2, ,-1, ,
-5, ,-1, ,
-6, ,-1, ,
-9, ,-1, ,
-10, ,0, ,
-13, ,-1, ,
-14, ,-1, ,
-14, ,-1, ,
-14, ,-1, ,
-14, ,0, ,
-14, ,0, ,
-13, ,0, ,
-12, ,0, ,
-11, ,-1, ,
-10, ,-1, ,
-9, ,-1, ,
-8, ,-1, ,
-6, ,-1, ,
-4, ,0, ,
-3, ,0, ,
-2, ,-1, ,
0, ,-1, ,
1, ,-1, ,
2, ,-1, ,
2, ,-1, ,
3, ,-1, ,
3, ,-1, ,
3, ,0, ,
3, ,-1, ,
3, ,-1, ,
2, ,-1, ,
2, ,0, ,
2, ,0, ,
3, ,-1, ,
3, ,-1, ,
3, ,-1, ,
3, ,-1, ,
4, ,0, ,
5, ,0, ,
6, ,-1, ,
7, ,-1, ,
8, ,-1, ,
10, ,-1, ,
11, ,0, ,
12, ,0, ,
14, ,0, ,
14, ,0, ,
15, ,-1, ,
15, ,-1, ,
15, ,-1, ,
15, ,-1, ,
14, ,0, ,
14, ,-1, ,
11, ,-1, ,
10, ,-1, ,
9, ,-1, ,
7, ,-1, ,
4, ,-1, ,
2, ,-1, ,
1, ,0, ,
0, ,0, ,
-3, ,0, ,
-4, ,0, ,
-6, ,0, ,
-7, ,-1, ,
-8, ,-1, ,
-8, ,-1, ,
-9, ,-1, ,
-9, ,0, ,
-9, ,-1, ,
-10, ,-1, ,
-9, ,-1, ,
-9, ,-1, ,
-8, ,-1, ,
-7, ,-1, ,
-7, ,0, ,
-6, ,-1, ,
-5, ,-1, ,
-5, ,0, ,
-4, ,-1, ,
-4, ,-1, ,
-3, ,0, ,
-2, ,-1, ,
-2, ,-1, ,
-1, ,-1, ,
0, ,-1, ,
0, ,-1, ,
0, ,-1, ,
0, ,-1, ,
0, ,-1, ,
1, ,-1, ,
1, ,0, ,
1, ,-1, ,
1, ,-1, ,
0, ,-1, ,
0, ,0, ,
-1, ,-1, ,
-1, ,-1, ,
-2, ,-1, ,
-2, ,-1, ,
-2, ,-1, ,
-3, ,-1, ,
-3, ,-1, ,
-3, ,-1, ,
-3, ,-1, ,
-3, ,0, ,
-3, ,-1, ,
-3, ,-1, ,
-3, ,0, ,
-3, ,-1, ,
-2, ,-1, ,
-2, ,-1, ,
-2, ,-1, ,
-2, ,-1, ,
-1, ,-1, ,
-1, ,-1, ,
-1, ,-1, ,
0, ,-1, ,
0, ,-1, ,
0, ,-1, ,
0, ,0, ,
2, ,-1, ,
2, ,-1, ,
3, ,-1, ,
4, ,-1, ,
5, ,-1, ,
6, ,-1, ,
7, ,-1, ,
7, ,-1, ,
8, ,0, ,
9, ,-1, ,
10, ,-1, ,
10, ,-1, ,
10, ,-1, ,
9, ,0, ,
9, ,-1, ,
8, ,-1, ,
7, ,-1, ,
6, ,-1, ,
5, ,-1, ,
3, ,-1, ,
1, ,-1, ,
-2, ,-1, ,
-2, ,-1, ,
-4, ,-1, ,
-7, ,-1, ,
-7, ,-1, ,
-9, ,0, ,
-9, ,0, ,
-9, ,0, ,
-9, ,0, ,
-8, ,0, ,
-8, ,-1, ,
-6, ,-1, ,
-5, ,-1, ,
-5, ,0, ,
-3, ,0, ,
-1, ,0, ,
0, ,0, ,
1, ,-1, ,
1, ,-1, ,
2, ,0, ,
3, ,-1, ,
3, ,-1, ,
3, ,-1, ,
3, ,-1, ,
3, ,-1, ,
3, ,-1, ,
3, ,-1, ,
2, ,-1, ,
2, ,-1, ,
2, ,-1, ,
2, ,-1, ,
2, ,-1, ,
2, ,0, ,
2, ,0, ,
1, ,-1, ,
0, ,-1, ,
0, ,-1, ,
-1, ,-1, ,
-1, ,-1, ,
-1, ,-1, ,
-2, ,-1, ,
-2, ,-1, ,
-3, ,-1, ,
-4, ,-1, ,
-4, ,-1, ,
-5, ,-1, ,
-5, ,0, ,
-5, ,0, ,
-5, ,0, ,
-5, ,0, ,
-5, ,-1, ,
-4, ,-1, ,
-4, ,-1, ,
-4, ,-1, ,
-3, ,-1, ,
-2, ,-1, ,
-1, ,-1, ,
-1, ,-1, ,
-1, ,-1, ,
1, ,-1, ,
1, ,-1, ,
2, ,-1, ,
2, ,-1, ,
3, ,-1, ,
4, ,-1, ,
4, ,-1, ,
4, ,0, ,
5, ,-1, ,
5, ,-1, ,
5, ,-1, ,
5, ,0, ,
4, ,-1, ,
3, ,-1, ,
3, ,-1, ,
2, ,-1, ,
1, ,0, ,
1, ,0, ,
0, ,0, ,
0, ,-1, ,
-1, ,-1, ,
-2, ,-1, ,
-2, ,-1, ,
-2, ,-1, ,
-3, ,-1, ,
-3, ,-1, ,
-3, ,-1, ,
-2, ,0, ,
-2, ,0, ,
-2, ,0, ,
-1, ,0, ,
-1, ,-1, ,
0, ,-1, ,
0, ,-1, ,
1, ,0, ,
1, ,-1, ,
1, ,-1, ,
1, ,-1, ,
1, ,-1, ,
1, ,-1, ,
1, ,0, ,
1, ,-1, ,
0, ,-1, ,
0, ,-1, ,
0, ,-1, ,
0, ,-1, ,
0, ,-1, ,
0, ,-1, ,
0, ,-1, ,
0, ,-1, ,
0, ,0, ,
0, ,-1, ,
0, ,-1, ,
1, ,-1, ,
1, ,-1, ,
1, ,-1, ,
1, ,0, ,
2, ,0, ,
2, ,0, ,
2, ,-1, ,
3, ,-1, ,
3, ,0, ,
3, ,-1, ,
3, ,-1, ,
3, ,-1, ,
3, ,-1, ,
2, ,-1, ,
2, ,-1, ,
2, ,-1, ,
1, ,0, ,
1, ,-1, ,
0, ,-1, ,
-1, ,0, ,
-1, ,-1, ,
-2, ,-1, ,
-2, ,0, ,
-3, ,0, ,
-3, ,-1, ,
-3, ,-1, ,
-4, ,-1, ,
-4, ,-1, ,
-4, ,-1, ,
-4, ,0, ,
-4, ,0, ,
-4, ,0, ,
-4, ,0, ,
-4, ,0, ,
-4, ,-1, ,
-3, ,-1, ,
-3, ,0, ,
-3, ,0, ,
-3, ,0, ,
-2, ,-1, ,
-2, ,-1, ,
-1, ,-1, ,
-1, ,0, ,
0, ,0, ,
0, ,0, ,
1, ,0, ,
1, ,-1, ,
2, ,-1, ,
2, ,-1, ,
2, ,-1, ,
2, ,-1, ,
3, ,-1, ,
3, ,-1, ,
3, ,-1, ,
3, ,0, ,
4, ,-1, ,
4, ,-1, ,
5, ,-1, ,
5, ,-1, ,
5, ,0, ,
6, ,-1, ,
5, ,-1, ,
6, ,-1, ,
6, ,-1, ,
6, ,-1, ,
6, ,-1, ,
6, ,-1, ,
7, ,0, ,
6, ,-1, ,
6, ,-1, ,
6, ,0, ,
5, ,-1, ,
