raw_data/75% Glycerol, Impulsion 2Hz, Sonde 5MHz, Rampe 0.7Hz/temp0000325.CSV

Format,1.0B,
Memory Length,10000,Memory Length,10000,
IntpDistance,0,IntpDistance,0,
Trigger Address,159,Trigger Address,159,
Trigger Level,2.720E-01,Trigger Level,2.720E-01,
Source,CH1,Source,CH2,
Vertical Units,V,Vertical Units,V,
Vertical Units Div,0,Vertical Units Div,0,
Vertical Units Extend Div,16,Vertical Units Extend Div,16,
Label,,Label,,
Probe Type,0,Probe Type,0,
Probe Ratio,1.000e+00,Probe Ratio,1.000e+00,
Vertical Scale,5.000e-01,Vertical Scale,2.000e+00,
Vertical Position,0.000e+00,Vertical Position,0.000e+00,
Horizontal Units,S,Horizontal Units,S,
Horizontal Scale,5.000E-06,Horizontal Scale,5.000E-06,
Horizontal Position,2.420E-05,Horizontal Position,2.420E-05,
Horizontal Mode,Main,Horizontal Mode,Main,
SincET Mode,Real Time,SincET Mode,Real Time,
Sampling Period,5.000e-09,Sampling Period,5.000e-09,
Horizontal Old Scale,5.000E-06,Horizontal Old Scale,5.000E-06,
Horizontal Old Position,2.420E-05,Horizontal Old Position,2.420E-05,
Firmware,V1.32,Firmware,V1.32,
Mode,Fast,Mode,Fast,
Waveform Data,,Waveform Data,,
0, ,-21, ,
0, ,-21, ,
0, ,-21, ,
1, ,-21, ,
0, ,-21, ,
0, ,-21, ,
0, ,-21, ,
0, ,-21, ,
0, ,-21, ,
0, ,-21, ,
1, ,-21, ,
1, ,-21, ,
1, ,-21, ,
1, ,-21, ,
0, ,-21, ,
0, ,-21, ,
0, ,-21, ,
0, ,-21, ,
0, ,-21, ,
1, ,-21, ,
0, ,-21, ,
0, ,-21, ,
0, ,-21, ,
0, ,-21, ,
1, ,-21, ,
0, ,-21, ,
1, ,-21, ,
1, ,-21, ,
0, ,-21, ,
1, ,-21, ,
0, ,-21, ,
0, ,-21, ,
1, ,-21, ,
1, ,-21, ,
1, ,-21, ,
0, ,-21, ,
0, ,-21, ,
0, ,-21, ,
0, ,-21, ,
1, ,-21, ,
1, ,-21, ,
0, ,-21, ,
0, ,-21, ,
1, ,-21, ,
1, ,-21, ,
1, ,-21, ,
0, ,-21, ,
0, ,-21, ,
1, ,-21, ,
1, ,-21, ,
1, ,-21, ,
1, ,-21, ,
1, ,-21, ,
0, ,-21, ,
0, ,-21, ,
1, ,-21, ,
1, ,-21, ,
1, ,-21, ,
1, ,-21, ,
1, ,-21, ,
1, ,-21, ,
1, ,-21, ,
0, ,-21, ,
0, ,-21, ,
0, ,-21, ,
0, ,-21, ,
1, ,-21, ,
0, ,-21, ,
0, ,-21, ,
0, ,-21, ,
0, ,-21, ,
0, ,-21, ,
1, ,-21, ,
0, ,-21, ,
0, ,-21, ,
1, ,-21, ,
0, ,-21, ,
0, ,-21, ,
0, ,-21, ,
0, ,-21, ,
0, ,-21, ,
0, ,-21, ,
0, ,-21, ,
1, ,-21, ,
0, ,-21, ,
0, ,-21, ,
0, ,-21, ,
0, ,-21, ,
0, ,-21, ,
0, ,-21, ,
0, ,-21, ,
0, ,-21, ,
0, ,-21, ,
0, ,-21, ,
0, ,-21, ,
1, ,-21, ,
1, ,-21, ,
1, ,-21, ,
1, ,-21, ,
1, ,-21, ,
1, ,-21, ,
1, ,-21, ,
1, ,-21, ,
1, ,-21, ,
1, ,-21, ,
1, ,-21, ,
1, ,-21, ,
0, ,-21, ,
0, ,-21, ,
1, ,-21, ,
1, ,-21, ,
1, ,-21, ,
1, ,-21, ,
1, ,-21, ,
1, ,-21, ,
1, ,-21, ,
1, ,-21, ,
1, ,-21, ,
0, ,-21, ,
0, ,-21, ,
0, ,-21, ,
0, ,-21, ,
0, ,-21, ,
1, ,-21, ,
1, ,-21, ,
1, ,-21, ,
1, ,-21, ,
1, ,-21, ,
1, ,-21, ,
0, ,-21, ,
0, ,-21, ,
0, ,-21, ,
0, ,-21, ,
1, ,-21, ,
1, ,-21, ,
1, ,-21, ,
1, ,-21, ,
0, ,-21, ,
0, ,-21, ,
1, ,-21, ,
1, ,-21, ,
1, ,-21, ,
1, ,-21, ,
0, ,-21, ,
0, ,-21, ,
0, ,-21, ,
0, ,-21, ,
0, ,-21, ,
0, ,-21, ,
0, ,-21, ,
0, ,-21, ,
0, ,-21, ,
0, ,-21, ,
0, ,-21, ,
0, ,-21, ,
0, ,-21, ,
0, ,-21, ,
1, ,-21, ,
1, ,-21, ,
0, ,-21, ,
0, ,-21, ,
0, ,-21, ,
0, ,-21, ,
-1, ,-21, ,
-1, ,-21, ,
-1, ,-21, ,
0, ,-21, ,
5, ,-21, ,
24, ,-21, ,
56, ,-21, ,
96, ,-21, ,
123, ,-21, ,
120, ,-21, ,
84, ,-21, ,
25, ,-21, ,
15, ,-21, ,
70, ,-21, ,
118, ,-21, ,
125, ,-21, ,
125, ,-21, ,
125, ,-21, ,
125, ,-21, ,
125, ,-21, ,
124, ,-21, ,
124, ,-21, ,
119, ,-21, ,
114, ,-21, ,
105, ,-21, ,
102, ,-21, ,
99, ,-21, ,
96, ,-21, ,
89, ,-21, ,
85, ,-21, ,
82, ,-21, ,
79, ,-21, ,
74, ,-21, ,
70, ,-21, ,
68, ,-21, ,
65, ,-21, ,
60, ,-21, ,
58, ,-21, ,
55, ,-21, ,
53, ,-21, ,
49, ,-21, ,
46, ,-21, ,
44, ,-21, ,
42, ,-21, ,
39, ,-21, ,
38, ,-21, ,
35, ,-21, ,
34, ,-21, ,
31, ,-21, ,
29, ,-21, ,
28, ,-21, ,
26, ,-21, ,
25, ,-22, ,
24, ,-22, ,
23, ,-21, ,
22, ,-21, ,
20, ,-21, ,
19, ,-21, ,
18, ,-21, ,
17, ,-21, ,
15, ,-21, ,
15, ,-21, ,
14, ,-21, ,
13, ,-21, ,
12, ,-21, ,
11, ,-21, ,
11, ,-21, ,
10, ,-21, ,
9, ,-21, ,
9, ,-21, ,
7, ,-21, ,
7, ,-21, ,
7, ,-21, ,
6, ,-21, ,
6, ,-21, ,
5, ,-21, ,
5, ,-21, ,
5, ,-21, ,
4, ,-21, ,
4, ,-21, ,
3, ,-21, ,
3, ,-21, ,
3, ,-21, ,
2, ,-21, ,
2, ,-21, ,
2, ,-21, ,
2, ,-21, ,
2, ,-21, ,
1, ,-21, ,
1, ,-21, ,
1, ,-21, ,
0, ,-21, ,
0, ,-21, ,
0, ,-21, ,
0, ,-21, ,
0, ,-21, ,
0, ,-21, ,
0, ,-21, ,
0, ,-21, ,
-1, ,-21, ,
-1, ,-21, ,
-1, ,-21, ,
-1, ,-21, ,
-1, ,-21, ,
-1, ,-21, ,
-1, ,-21, ,
-1, ,-21, ,
-1, ,-21, ,
-2, ,-21, ,
-1, ,-21, ,
-1, ,-21, ,
-1, ,-21, ,
-1, ,-21, ,
-1, ,-21, ,
-1, ,-21, ,
-1, ,-21, ,
-1, ,-21, ,
-1, ,-21, ,
-1, ,-21, ,
-1, ,-21, ,
-1, ,-21, ,
-1, ,-21, ,
-1, ,-21, ,
-2, ,-21, ,
-2, ,-21, ,
-1, ,-21, ,
-2, ,-21, ,
-2, ,-21, ,
-1, ,-21, ,
-1, ,-21, ,
-1, ,-21, ,
-1, ,-21, ,
-1, ,-21, ,
-1, ,-21, ,
-1, ,-21, ,
-1, ,-21, ,
-1, ,-21, ,
-2, ,-21, ,
-2, ,-21, ,
-2, ,-21, ,
-1, ,-21, ,
-1, ,-21, ,
-1, ,-21, ,
-1, ,-21, ,
-1, ,-21, ,
-1, ,-21, ,
-1, ,-21, ,
-1, ,-21, ,
-1, ,-21, ,
-1, ,-21, ,
-1, ,-21, ,
-1, ,-21, ,
-1, ,-21, ,
-1, ,-21, ,
-1, ,-21, ,
-1, ,-21, ,
-1, ,-21, ,
-1, ,-21, ,
-1, ,-21, ,
0, ,-21, ,
0, ,-21, ,
-1, ,-21, ,
-1, ,-21, ,
-1, ,-21, ,
0, ,-21, ,
0, ,-21, ,
0, ,-21, ,
0, ,-21, ,
0, ,-21, ,
0, ,-21, ,
0, ,-21, ,
0, ,-21, ,
-1, ,-21, ,
-1, ,-21, ,
0, ,-21, ,
0, ,-21, ,
0, ,-21, ,
0, ,-21, ,
0, ,-21, ,
0, ,-21, ,
0, ,-21, ,
0, ,-21, ,
0, ,-21, ,
0, ,-21, ,
0, ,-21, ,
0, ,-21, ,
0, ,-21, ,
0, ,-21, ,
0, ,-21, ,
0, ,-21, ,
0, ,-21, ,
0, ,-21, ,
0, ,-21, ,
0, ,-21, ,
0, ,-21, ,
0, ,-21, ,
0, ,-21, ,
0, ,-21, ,
0, ,-21, ,
0, ,-22, ,
0, ,-22, ,
0, ,-21, ,
1, ,-21, ,
0, ,-21, ,
0, ,-21, ,
0, ,-21, ,
0, ,-21, ,
0, ,-21, ,
0, ,-21, ,
0, ,-21, ,
0, ,-21, ,
0, ,-21, ,
0, ,-21, ,
0, ,-21, ,
0, ,-21, ,
0, ,-21, ,
0, ,-21, ,
0, ,-21, ,
0, ,-21, ,
0, ,-21, ,
0, ,-21, ,
0, ,-21, ,
0, ,-21, ,
0, ,-21, ,
0, ,-21, ,
0, ,-21, ,
0, ,-21, ,
0, ,-21, ,
0, ,-21, ,
0, ,-21, ,
0, ,-21, ,
0, ,-21, ,
0, ,-21, ,
0, ,-21, ,
0, ,-21, ,
0, ,-21, ,
0, ,-21, ,
0, ,-21, ,
0, ,-21, ,
1, ,-21, ,
1, ,-21, ,
0, ,-21, ,
0, ,-21, ,
0, ,-21, ,
0, ,-21, ,
0, ,-21, ,
0, ,-21, ,
0, ,-21, ,
0, ,-21, ,
0, ,-21, ,
0, ,-21, ,
0, ,-21, ,
0, ,-21, ,
0, ,-21, ,
0, ,-21, ,
0, ,-21, ,
0, ,-21, ,
0, ,-21, ,
0, ,-21, ,
0, ,-21, ,
0, ,-21, ,
0, ,-21, ,
0, ,-21, ,
0, ,-21, ,
0, ,-21, ,
0, ,-21, ,
0, ,-21, ,
0, ,-21, ,
0, ,-21, ,
0, ,-21, ,
0, ,-22, ,
0, ,-22, ,
1, ,-21, ,
0, ,-21, ,
0, ,-21, ,
-1, ,-21, ,
-1, ,-21, ,
-1, ,-21, ,
-2, ,-21, ,
-3, ,-22, ,
-5, ,-22, ,
-5, ,-21, ,
-5, ,-21, ,
-6, ,-21, ,
-5, ,-21, ,
-4, ,-21, ,
-3, ,-21, ,
-2, ,-21, ,
-1, ,-21, ,
-1, ,-21, ,
0, ,-21, ,
0, ,-21, ,
1, ,-21, ,
1, ,-21, ,
1, ,-21, ,
1, ,-21, ,
1, ,-21, ,
1, ,-21, ,
1, ,-21, ,
0, ,-21, ,
0, ,-21, ,
0, ,-21, ,
-1, ,-21, ,
-2, ,-21, ,
-2, ,-21, ,
-2, ,-21, ,
-1, ,-21, ,
-1, ,-21, ,
0, ,-21, ,
0, ,-21, ,
0, ,-21, ,
1, ,-21, ,
2, ,-21, ,
2, ,-21, ,
2, ,-21, ,
1, ,-21, ,
1, ,-21, ,
2, ,-21, ,
1, ,-21, ,
1, ,-21, ,
1, ,-21, ,
1, ,-21, ,
1, ,-21, ,
1, ,-21, ,
1, ,-21, ,
1, ,-21, ,
1, ,-21, ,
1, ,-21, ,
1, ,-21, ,
1, ,-21, ,
1, ,-21, ,
1, ,-21, ,
1, ,-21, ,
1, ,-21, ,
1, ,-21, ,
0, ,-21, ,
0, ,-21, ,
0, ,-21, ,
0, ,-21, ,
-1, ,-21, ,
-2, ,-21, ,
-2, ,-21, ,
-2, ,-21, ,
-2, ,-21, ,
-2, ,-21, ,
-2, ,-21, ,
-1, ,-21, ,
-1, ,-21, ,
-1, ,-21, ,
0, ,-21, ,
0, ,-21, ,
1, ,-21, ,
1, ,-21, ,
1, ,-21, ,
1, ,-21, ,
1, ,-21, ,
0, ,-21, ,
0, ,-21, ,
-1, ,-21, ,
-1, ,-21, ,
-2, ,-21, ,
-3, ,-21, ,
-3, ,-21, ,
-4, ,-21, ,
-5, ,-21, ,
-5, ,-21, ,
-6, ,-21, ,
-6, ,-21, ,
-6, ,-21, ,
-6, ,-21, ,
-6, ,-21, ,
-6, ,-21, ,
-7, ,-21, ,
-7, ,-21, ,
-9, ,-21, ,
-9, ,-21, ,
-11, ,-21, ,
-14, ,-21, ,
-16, ,-21, ,
-19, ,-21, ,
-25, ,-21, ,
-27, ,-21, ,
-31, ,-21, ,
-32, ,-21, ,
-34, ,-21, ,
-35, ,-21, ,
-33, ,-21, ,
-33, ,-21, ,
-30, ,-22, ,
-28, ,-22, ,
-28, ,-21, ,
-26, ,-21, ,
-25, ,-21, ,
-25, ,-21, ,
-25, ,-21, ,
-25, ,-21, ,
-26, ,-21, ,
-27, ,-21, ,
-27, ,-21, ,
-28, ,-21, ,
-28, ,-21, ,
-27, ,-21, ,
-26, ,-21, ,
-26, ,-21, ,
-25, ,-21, ,
-23, ,-21, ,
-21, ,-21, ,
-20, ,-21, ,
-16, ,-21, ,
-15, ,-21, ,
-14, ,-21, ,
-13, ,-21, ,
-11, ,-21, ,
-11, ,-21, ,
-10, ,-21, ,
-8, ,-21, ,
-7, ,-21, ,
-7, ,-21, ,
-6, ,-21, ,
-5, ,-21, ,
-1, ,-21, ,
1, ,-21, ,
3, ,-21, ,
5, ,-21, ,
9, ,-21, ,
10, ,-21, ,
12, ,-21, ,
13, ,-21, ,
14, ,-21, ,
14, ,-21, ,
14, ,-21, ,
14, ,-21, ,
12, ,-21, ,
11, ,-21, ,
10, ,-21, ,
8, ,-21, ,
6, ,-21, ,
6, ,-21, ,
5, ,-21, ,
4, ,-21, ,
3, ,-21, ,
3, ,-21, ,
3, ,-21, ,
3, ,-21, ,
4, ,-21, ,
5, ,-21, ,
5, ,-21, ,
6, ,-21, ,
7, ,-21, ,
7, ,-21, ,
7, ,-21, ,
7, ,-21, ,
7, ,-21, ,
7, ,-21, ,
7, ,-21, ,
7, ,-21, ,
6, ,-21, ,
5, ,-21, ,
5, ,-21, ,
4, ,-21, ,
3, ,-21, ,
2, ,-21, ,
2, ,-21, ,
1, ,-22, ,
-1, ,-22, ,
-3, ,-21, ,
-3, ,-21, ,
-5, ,-21, ,
-6, ,-21, ,
-7, ,-21, ,
-9, ,-21, ,
-10, ,-21, ,
-11, ,-21, ,
-13, ,-21, ,
-14, ,-21, ,
-16, ,-21, ,
-19, ,-21, ,
-20, ,-21, ,
-21, ,-21, ,
-22, ,-21, ,
-24, ,-21, ,
-25, ,-21, ,
-25, ,-21, ,
-25, ,-21, ,
-25, ,-21, ,
-24, ,-21, ,
-24, ,-21, ,
-22, ,-21, ,
-20, ,-21, ,
-20, ,-21, ,
-19, ,-21, ,
-19, ,-21, ,
-17, ,-21, ,
-16, ,-21, ,
-16, ,-21, ,
-15, ,-21, ,
-14, ,-21, ,
-14, ,-21, ,
-12, ,-21, ,
-12, ,-21, ,
-10, ,-21, ,
-9, ,-21, ,
-9, ,-21, ,
-7, ,-21, ,
-6, ,-21, ,
-6, ,-21, ,
-5, ,-21, ,
-5, ,-21, ,
-3, ,-21, ,
-2, ,-21, ,
-2, ,-21, ,
-1, ,-21, ,
2, ,-21, ,
1, ,-21, ,
3, ,-21, ,
3, ,-21, ,
4, ,-21, ,
4, ,-21, ,
3, ,-21, ,
3, ,-21, ,
2, ,-21, ,
1, ,-21, ,
0, ,-21, ,
-1, ,-21, ,
-3, ,-21, ,
-3, ,-21, ,
-4, ,-21, ,
-4, ,-21, ,
-5, ,-21, ,
-5, ,-21, ,
-5, ,-21, ,
-6, ,-21, ,
-6, ,-21, ,
-6, ,-21, ,
-7, ,-21, ,
-8, ,-21, ,
-10, ,-21, ,
-10, ,-21, ,
-12, ,-21, ,
-14, ,-21, ,
-16, ,-21, ,
-17, ,-21, ,
-17, ,-21, ,
-18, ,-21, ,
-18, ,-21, ,
-18, ,-21, ,
-17, ,-21, ,
-17, ,-21, ,
-15, ,-21, ,
-13, ,-21, ,
-12, ,-21, ,
-10, ,-21, ,
-7, ,-21, ,
-6, ,-21, ,
-4, ,-21, ,
-2, ,-21, ,
1, ,-21, ,
3, ,-21, ,
3, ,-21, ,
5, ,-21, ,
5, ,-21, ,
4, ,-21, ,
4, ,-21, ,
3, ,-21, ,
1, ,-21, ,
1, ,-21, ,
-1, ,-21, ,
-2, ,-21, ,
-4, ,-21, ,
-4, ,-21, ,
-4, ,-21, ,
-4, ,-21, ,
-3, ,-21, ,
-1, ,-21, ,
0, ,-21, ,
2, ,-21, ,
6, ,-21, ,
9, ,-21, ,
11, ,-21, ,
13, ,-21, ,
18, ,-21, ,
20, ,-21, ,
22, ,-21, ,
23, ,-21, ,
25, ,-21, ,
25, ,-21, ,
25, ,-21, ,
25, ,-21, ,
22, ,-21, ,
22, ,-21, ,
19, ,-21, ,
18, ,-21, ,
13, ,-21, ,
10, ,-21, ,
8, ,-21, ,
4, ,-21, ,
-2, ,-21, ,
-3, ,-21, ,
-7, ,-21, ,
-9, ,-21, ,
-13, ,-21, ,
-15, ,-21, ,
-16, ,-21, ,
-18, ,-21, ,
-19, ,-21, ,
-19, ,-21, ,
-19, ,-21, ,
-19, ,-21, ,
-19, ,-21, ,
-19, ,-21, ,
-19, ,-21, ,
-20, ,-21, ,
-21, ,-21, ,
-21, ,-21, ,
-22, ,-21, ,
-23, ,-21, ,
-24, ,-21, ,
-25, ,-21, ,
-25, ,-21, ,
-28, ,-21, ,
-30, ,-21, ,
-31, ,-21, ,
-34, ,-21, ,
-35, ,-21, ,
-37, ,-21, ,
-38, ,-21, ,
-38, ,-21, ,
-38, ,-21, ,
-37, ,-21, ,
-36, ,-21, ,
-35, ,-21, ,
-33, ,-21, ,
-29, ,-21, ,
-27, ,-21, ,
-25, ,-21, ,
-23, ,-21, ,
-18, ,-21, ,
-15, ,-21, ,
-13, ,-21, ,
-10, ,-21, ,
-7, ,-21, ,
-6, ,-21, ,
-4, ,-21, ,
-4, ,-21, ,
-2, ,-21, ,
-2, ,-21, ,
-2, ,-21, ,
-2, ,-21, ,
-2, ,-21, ,
-3, ,-21, ,
-3, ,-21, ,
-3, ,-21, ,
-3, ,-21, ,
-4, ,-22, ,
-4, ,-22, ,
-4, ,-22, ,
-4, ,-21, ,
-3, ,-21, ,
-2, ,-21, ,
-1, ,-21, ,
2, ,-21, ,
4, ,-21, ,
6, ,-21, ,
8, ,-21, ,
13, ,-21, ,
16, ,-21, ,
18, ,-21, ,
20, ,-21, ,
25, ,-21, ,
25, ,-21, ,
26, ,-21, ,
28, ,-21, ,
27, ,-21, ,
27, ,-21, ,
26, ,-21, ,
25, ,-21, ,
23, ,-21, ,
21, ,-21, ,
18, ,-21, ,
17, ,-21, ,
12, ,-21, ,
9, ,-21, ,
7, ,-21, ,
5, ,-21, ,
0, ,-21, ,
0, ,-21, ,
-2, ,-21, ,
-3, ,-21, ,
-4, ,-21, ,
-4, ,-21, ,
-4, ,-21, ,
-4, ,-21, ,
-4, ,-21, ,
-4, ,-21, ,
-4, ,-21, ,
-4, ,-21, ,
-4, ,-21, ,
-4, ,-21, ,
-5, ,-21, ,
-5, ,-21, ,
-7, ,-21, ,
-8, ,-21, ,
-8, ,-21, ,
-9, ,-21, ,
-11, ,-21, ,
-12, ,-21, ,
-13, ,-21, ,
-14, ,-21, ,
-17, ,-21, ,
-17, ,-21, ,
-18, ,-21, ,
-18, ,-21, ,
-19, ,-21, ,
-19, ,-21, ,
-19, ,-21, ,
-19, ,-21, ,
-17, ,-21, ,
-15, ,-21, ,
-15, ,-21, ,
-13, ,-21, ,
-10, ,-21, ,
-9, ,-21, ,
-6, ,-21, ,
-5, ,-21, ,
-2, ,-21, ,
-1, ,-21, ,
-1, ,-21, ,
-1, ,-21, ,
-1, ,-21, ,
-2, ,-21, ,
-3, ,-21, ,
-4, ,-21, ,
-7, ,-21, ,
-8, ,-21, ,
-10, ,-21, ,
-12, ,-21, ,
-15, ,-21, ,
-16, ,-21, ,
-17, ,-21, ,
-18, ,-21, ,
-18, ,-21, ,
-17, ,-21, ,
-17, ,-21, ,
-16, ,-21, ,
-13, ,-21, ,
-13, ,-21, ,
-10, ,-21, ,
-10, ,-21, ,
-6, ,-21, ,
-4, ,-21, ,
-3, ,-21, ,
-2, ,-21, ,
0, ,-21, ,
1, ,-21, ,
2, ,-21, ,
2, ,-21, ,
1, ,-21, ,
1, ,-21, ,
0, ,-21, ,
0, ,-21, ,
-1, ,-21, ,
-3, ,-21, ,
-4, ,-21, ,
-5, ,-21, ,
-8, ,-21, ,
-9, ,-21, ,
-10, ,-21, ,
-11, ,-21, ,
-13, ,-21, ,
-14, ,-21, ,
-14, ,-21, ,
-15, ,-21, ,
-14, ,-21, ,
-13, ,-21, ,
-13, ,-21, ,
-12, ,-21, ,
-10, ,-21, ,
-9, ,-21, ,
-7, ,-21, ,
-6, ,-21, ,
-4, ,-21, ,
-2, ,-21, ,
-1, ,-21, ,
0, ,-21, ,
1, ,-21, ,
2, ,-21, ,
2, ,-21, ,
2, ,-21, ,
2, ,-21, ,
2, ,-21, ,
2, ,-21, ,
2, ,-21, ,
2, ,-21, ,
1, ,-21, ,
1, ,-21, ,
1, ,-21, ,
0, ,-21, ,
0, ,-21, ,
-1, ,-21, ,
-1, ,-21, ,
-1, ,-21, ,
-2, ,-21, ,
-2, ,-21, ,
-3, ,-21, ,
-3, ,-21, ,
-3, ,-21, ,
-3, ,-21, ,
-3, ,-21, ,
-3, ,-21, ,
-3, ,-21, ,
-3, ,-21, ,
-3, ,-21, ,
-3, ,-21, ,
-3, ,-21, ,
-3, ,-21, ,
-3, ,-21, ,
-2, ,-21, ,
-2, ,-21, ,
-2, ,-21, ,
-2, ,-21, ,
-1, ,-21, ,
-1, ,-21, ,
-1, ,-21, ,
-1, ,-21, ,
0, ,-21, ,
1, ,-21, ,
2, ,-21, ,
2, ,-21, ,
3, ,-21, ,
4, ,-21, ,
4, ,-21, ,
5, ,-21, ,
4, ,-21, ,
4, ,-21, ,
4, ,-21, ,
4, ,-21, ,
3, ,-21, ,
3, ,-21, ,
2, ,-21, ,
1, ,-21, ,
-1, ,-21, ,
-2, ,-21, ,
-3, ,-21, ,
-4, ,-21, ,
-6, ,-21, ,
-8, ,-21, ,
-9, ,-21, ,
-9, ,-21, ,
-10, ,-21, ,
-10, ,-21, ,
-10, ,-21, ,
-10, ,-21, ,
-8, ,-21, ,
-7, ,-21, ,
-6, ,-21, ,
-4, ,-21, ,
-1, ,-21, ,
-1, ,-21, ,
2, ,-21, ,
2, ,-21, ,
5, ,-21, ,
6, ,-21, ,
7, ,-21, ,
8, ,-21, ,
8, ,-21, ,
8, ,-21, ,
7, ,-21, ,
7, ,-21, ,
5, ,-21, ,
5, ,-21, ,
4, ,-21, ,
3, ,-21, ,
2, ,-21, ,
1, ,-21, ,
0, ,-21, ,
-1, ,-21, ,
-2, ,-21, ,
-3, ,-21, ,
-3, ,-21, ,
-4, ,-21, ,
-4, ,-21, ,
-5, ,-21, ,
-5, ,-21, ,
-6, ,-21, ,
-7, ,-21, ,
-7, ,-21, ,
-8, ,-21, ,
-8, ,-21, ,
-8, ,-21, ,
-9, ,-21, ,
-9, ,-21, ,
-10, ,-21, ,
-10, ,-21, ,
-9, ,-21, ,
-10, ,-21, ,
-10, ,-21, ,
-10, ,-21, ,
-10, ,-21, ,
-9, ,-21, ,
-9, ,-21, ,
-8, ,-21, ,
-7, ,-21, ,
-6, ,-21, ,
-6, ,-21, ,
-5, ,-21, ,
-5, ,-21, ,
-3, ,-21, ,
-3, ,-21, ,
-1, ,-21, ,
0, ,-21, ,
0, ,-21, ,
2, ,-21, ,
4, ,-21, ,
6, ,-21, ,
8, ,-21, ,
9, ,-21, ,
12, ,-21, ,
13, ,-21, ,
14, ,-21, ,
15, ,-21, ,
15, ,-21, ,
15, ,-21, ,
14, ,-21, ,
13, ,-21, ,
11, ,-21, ,
9, ,-21, ,
6, ,-21, ,
5, ,-21, ,
-1, ,-21, ,
-5, ,-21, ,
-6, ,-21, ,
-10, ,-21, ,
-15, ,-21, ,
-17, ,-21, ,
-20, ,-21, ,
-21, ,-21, ,
-23, ,-21, ,
-23, ,-21, ,
-23, ,-21, ,
-23, ,-21, ,
-21, ,-21, ,
-19, ,-21, ,
-18, ,-21, ,
-15, ,-21, ,
-10, ,-21, ,
-8, ,-21, ,
-5, ,-21, ,
-1, ,-21, ,
4, ,-21, ,
7, ,-21, ,
9, ,-21, ,
11, ,-21, ,
15, ,-21, ,
15, ,-21, ,
16, ,-21, ,
16, ,-21, ,
15, ,-21, ,
14, ,-21, ,
12, ,-21, ,
12, ,-21, ,
7, ,-21, ,
5, ,-21, ,
2, ,-21, ,
0, ,-21, ,
-4, ,-22, ,
-6, ,-22, ,
-7, ,-21, ,
-8, ,-21, ,
-9, ,-21, ,
-9, ,-21, ,
-8, ,-21, ,
-8, ,-21, ,
-6, ,-21, ,
-4, ,-21, ,
-2, ,-21, ,
-1, ,-21, ,
3, ,-21, ,
4, ,-21, ,
6, ,-21, ,
7, ,-21, ,
9, ,-21, ,
9, ,-21, ,
10, ,-21, ,
10, ,-21, ,
9, ,-21, ,
7, ,-21, ,
7, ,-21, ,
5, ,-21, ,
4, ,-21, ,
2, ,-21, ,
0, ,-21, ,
-1, ,-21, ,
-4, ,-21, ,
-5, ,-21, ,
-6, ,-21, ,
-7, ,-21, ,
-8, ,-21, ,
-9, ,-21, ,
-9, ,-21, ,
-9, ,-21, ,
-8, ,-21, ,
-8, ,-21, ,
-7, ,-21, ,
-6, ,-21, ,
-5, ,-21, ,
-4, ,-21, ,
-3, ,-21, ,
-2, ,-21, ,
-1, ,-21, ,
-1, ,-21, ,
0, ,-21, ,
0, ,-21, ,
0, ,-21, ,
0, ,-21, ,
0, ,-21, ,
0, ,-21, ,
-1, ,-21, ,
-1, ,-21, ,
-1, ,-21, ,
-1, ,-21, ,
-2, ,-21, ,
-2, ,-21, ,
-2, ,-21, ,
-2, ,-21, ,
-2, ,-21, ,
-3, ,-21, ,
-3, ,-21, ,
-3, ,-21, ,
-3, ,-21, ,
-3, ,-21, ,
-3, ,-21, ,
-3, ,-21, ,
-3, ,-21, ,
-3, ,-21, ,
-2, ,-21, ,
-2, ,-21, ,
-1, ,-21, ,
-1, ,-21, ,
-1, ,-21, ,
0, ,-21, ,
1, ,-21, ,
1, ,-21, ,
1, ,-21, ,
0, ,-21, ,
-1, ,-21, ,
-1, ,-21, ,
-2, ,-21, ,
-3, ,-21, ,
-5, ,-21, ,
-6, ,-21, ,
-7, ,-21, ,
-9, ,-21, ,
-10, ,-21, ,
-10, ,-21, ,
-11, ,-21, ,
-11, ,-21, ,
-10, ,-21, ,
-10, ,-21, ,
-9, ,-21, ,
-8, ,-21, ,
-6, ,-21, ,
-5, ,-21, ,
-3, ,-21, ,
-2, ,-21, ,
1, ,-21, ,
2, ,-21, ,
3, ,-21, ,
4, ,-21, ,
6, ,-21, ,
6, ,-21, ,
5, ,-21, ,
5, ,-21, ,
5, ,-22, ,
4, ,-22, ,
3, ,-22, ,
2, ,-21, ,
0, ,-21, ,
-1, ,-21, ,
-2, ,-21, ,
-3, ,-21, ,
-5, ,-21, ,
-7, ,-21, ,
-7, ,-21, ,
-8, ,-21, ,
-8, ,-21, ,
-8, ,-21, ,
-8, ,-21, ,
-8, ,-21, ,
-7, ,-21, ,
-7, ,-21, ,
-6, ,-21, ,
-5, ,-21, ,
-4, ,-21, ,
-2, ,-21, ,
-1, ,-21, ,
0, ,-21, ,
2, ,-21, ,
2, ,-21, ,
2, ,-21, ,
3, ,-21, ,
2, ,-21, ,
2, ,-21, ,
1, ,-21, ,
1, ,-21, ,
-2, ,-21, ,
-3, ,-21, ,
-3, ,-21, ,
-5, ,-21, ,
-8, ,-21, ,
-8, ,-21, ,
-9, ,-21, ,
-9, ,-21, ,
-9, ,-21, ,
-9, ,-21, ,
-9, ,-21, ,
-8, ,-21, ,
-7, ,-21, ,
-5, ,-21, ,
-3, ,-21, ,
-1, ,-21, ,
1, ,-21, ,
3, ,-21, ,
5, ,-21, ,
6, ,-21, ,
8, ,-21, ,
8, ,-21, ,
7, ,-21, ,
7, ,-21, ,
5, ,-21, ,
4, ,-21, ,
3, ,-21, ,
1, ,-21, ,
-3, ,-21, ,
-5, ,-21, ,
-6, ,-21, ,
-8, ,-21, ,
-10, ,-21, ,
-11, ,-21, ,
-11, ,-21, ,
-11, ,-21, ,
-10, ,-21, ,
-8, ,-21, ,
-7, ,-21, ,
-5, ,-21, ,
-1, ,-21, ,
0, ,-21, ,
3, ,-21, ,
5, ,-21, ,
9, ,-21, ,
10, ,-21, ,
11, ,-21, ,
13, ,-21, ,
13, ,-21, ,
12, ,-21, ,
12, ,-21, ,
11, ,-21, ,
9, ,-21, ,
8, ,-21, ,
6, ,-21, ,
5, ,-21, ,
2, ,-21, ,
0, ,-21, ,
-1, ,-21, ,
-3, ,-21, ,
-6, ,-21, ,
-7, ,-21, ,
-9, ,-21, ,
-9, ,-21, ,
-9, ,-21, ,
-9, ,-21, ,
-9, ,-21, ,
-9, ,-21, ,
-7, ,-21, ,
-5, ,-21, ,
-4, ,-21, ,
-3, ,-21, ,
1, ,-21, ,
2, ,-21, ,
4, ,-21, ,
5, ,-21, ,
8, ,-21, ,
9, ,-21, ,
10, ,-21, ,
11, ,-21, ,
10, ,-21, ,
10, ,-21, ,
9, ,-21, ,
8, ,-21, ,
7, ,-21, ,
5, ,-21, ,
4, ,-21, ,
3, ,-21, ,
1, ,-21, ,
-1, ,-21, ,
-2, ,-21, ,
-3, ,-21, ,
-4, ,-21, ,
-4, ,-21, ,
-4, ,-21, ,
-4, ,-21, ,
-4, ,-21, ,
-4, ,-21, ,
-4, ,-21, ,
-4, ,-21, ,
-4, ,-21, ,
-3, ,-21, ,
-3, ,-21, ,
-2, ,-21, ,
-1, ,-21, ,
-1, ,-21, ,
-1, ,-21, ,
-1, ,-21, ,
-1, ,-21, ,
0, ,-21, ,
0, ,-21, ,
0, ,-21, ,
0, ,-21, ,
-1, ,-21, ,
-1, ,-21, ,
-2, ,-21, ,
-3, ,-21, ,
-3, ,-21, ,
-3, ,-21, ,
-3, ,-21, ,
-4, ,-21, ,
-5, ,-21, ,
-5, ,-21, ,
-5, ,-21, ,
-6, ,-21, ,
-6, ,-21, ,
-6, ,-21, ,
-6, ,-21, ,
-5, ,-21, ,
-5, ,-21, ,
-5, ,-21, ,
-5, ,-21, ,
-5, ,-21, ,
-4, ,-21, ,
-4, ,-21, ,
-4, ,-21, ,
-3, ,-21, ,
-3, ,-21, ,
-2, ,-21, ,
-2, ,-21, ,
-1, ,-21, ,
0, ,-21, ,
0, ,-21, ,
1, ,-21, ,
4, ,-21, ,
4, ,-21, ,
6, ,-21, ,
7, ,-21, ,
10, ,-21, ,
11, ,-21, ,
12, ,-21, ,
13, ,-21, ,
16, ,-21, ,
16, ,-21, ,
17, ,-21, ,
17, ,-21, ,
16, ,-21, ,
16, ,-21, ,
15, ,-21, ,
14, ,-21, ,
12, ,-21, ,
9, ,-21, ,
8, ,-21, ,
5, ,-21, ,
-1, ,-21, ,
-3, ,-21, ,
-6, ,-21, ,
-8, ,-21, ,
-13, ,-21, ,
-15, ,-21, ,
-16, ,-21, ,
-17, ,-21, ,
-17, ,-21, ,
-17, ,-21, ,
-17, ,-21, ,
-16, ,-21, ,
-13, ,-21, ,
-13, ,-21, ,
-11, ,-21, ,
-10, ,-21, ,
-6, ,-21, ,
-4, ,-21, ,
-4, ,-21, ,
-2, ,-21, ,
0, ,-21, ,
0, ,-21, ,
0, ,-21, ,
0, ,-21, ,
-1, ,-21, ,
-2, ,-21, ,
-3, ,-21, ,
-3, ,-21, ,
-4, ,-21, ,
-4, ,-21, ,
-4, ,-21, ,
-5, ,-21, ,
-5, ,-21, ,
-4, ,-21, ,
-4, ,-21, ,
-4, ,-21, ,
-2, ,-21, ,
-2, ,-21, ,
-1, ,-21, ,
0, ,-21, ,
2, ,-21, ,
3, ,-21, ,
4, ,-21, ,
5, ,-21, ,
7, ,-21, ,
6, ,-21, ,
7, ,-21, ,
7, ,-21, ,
7, ,-21, ,
7, ,-21, ,
7, ,-21, ,
8, ,-21, ,
8, ,-21, ,
7, ,-21, ,
7, ,-21, ,
6, ,-21, ,
6, ,-21, ,
5, ,-21, ,
5, ,-21, ,
4, ,-21, ,
3, ,-21, ,
3, ,-21, ,
3, ,-21, ,
3, ,-21, ,
2, ,-21, ,
2, ,-21, ,
2, ,-21, ,
2, ,-21, ,
2, ,-21, ,
2, ,-21, ,
2, ,-22, ,
1, ,-22, ,
0, ,-21, ,
0, ,-21, ,
-1, ,-21, ,
-1, ,-21, ,
-3, ,-21, ,
-4, ,-21, ,
-4, ,-21, ,
-6, ,-21, ,
-7, ,-21, ,
-7, ,-21, ,
-7, ,-21, ,
-7, ,-21, ,
-7, ,-21, ,
-6, ,-21, ,
-6, ,-21, ,
-5, ,-21, ,
-4, ,-21, ,
-2, ,-21, ,
-1, ,-21, ,
0, ,-21, ,
2, ,-21, ,
3, ,-21, ,
5, ,-21, ,
5, ,-21, ,
6, ,-21, ,
7, ,-21, ,
7, ,-21, ,
6, ,-21, ,
5, ,-21, ,
4, ,-21, ,
4, ,-21, ,
3, ,-21, ,
1, ,-21, ,
0, ,-21, ,
-1, ,-21, ,
-2, ,-21, ,
-4, ,-21, ,
-5, ,-21, ,
-5, ,-21, ,
-6, ,-21, ,
-6, ,-21, ,
-6, ,-21, ,
-6, ,-21, ,
-5, ,-21, ,
-4, ,-21, ,
-4, ,-21, ,
-2, ,-21, ,
-2, ,-21, ,
1, ,-21, ,
3, ,-21, ,
3, ,-21, ,
5, ,-21, ,
7, ,-21, ,
8, ,-21, ,
10, ,-21, ,
10, ,-21, ,
11, ,-21, ,
12, ,-21, ,
11, ,-21, ,
11, ,-21, ,
10, ,-21, ,
9, ,-21, ,
8, ,-21, ,
8, ,-21, ,
4, ,-21, ,
3, ,-21, ,
2, ,-21, ,
0, ,-21, ,
-3, ,-21, ,
-5, ,-21, ,
-6, ,-21, ,
-8, ,-21, ,
-10, ,-21, ,
-11, ,-21, ,
-12, ,-21, ,
-12, ,-21, ,
-12, ,-21, ,
-11, ,-21, ,
-11, ,-21, ,
-11, ,-21, ,
-9, ,-21, ,
-8, ,-21, ,
-7, ,-21, ,
-5, ,-21, ,
-3, ,-21, ,
-1, ,-21, ,
0, ,-21, ,
2, ,-21, ,
3, ,-22, ,
5, ,-22, ,
5, ,-21, ,
6, ,-21, ,
6, ,-21, ,
6, ,-21, ,
7, ,-22, ,
6, ,-22, ,
5, ,-21, ,
5, ,-21, ,
4, ,-21, ,
3, ,-21, ,
2, ,-21, ,
1, ,-21, ,
0, ,-21, ,
-1, ,-21, ,
-3, ,-21, ,
-3, ,-21, ,
-4, ,-21, ,
-4, ,-21, ,
-5, ,-21, ,
-5, ,-21, ,
-5, ,-21, ,
-5, ,-21, ,
-5, ,-21, ,
