raw_data/75% Glycerol, Impulsion 2Hz, Sonde 5MHz, Rampe 0.7Hz/temp0000169.CSV

Format,1.0B,
Memory Length,10000,Memory Length,10000,
IntpDistance,0,IntpDistance,0,
Trigger Address,159,Trigger Address,159,
Trigger Level,2.720E-01,Trigger Level,2.720E-01,
Source,CH1,Source,CH2,
Vertical Units,V,Vertical Units,V,
Vertical Units Div,0,Vertical Units Div,0,
Vertical Units Extend Div,16,Vertical Units Extend Div,16,
Label,,Label,,
Probe Type,0,Probe Type,0,
Probe Ratio,1.000e+00,Probe Ratio,1.000e+00,
Vertical Scale,5.000e-01,Vertical Scale,2.000e+00,
Vertical Position,0.000e+00,Vertical Position,0.000e+00,
Horizontal Units,S,Horizontal Units,S,
Horizontal Scale,5.000E-06,Horizontal Scale,5.000E-06,
Horizontal Position,2.420E-05,Horizontal Position,2.420E-05,
Horizontal Mode,Main,Horizontal Mode,Main,
SincET Mode,Real Time,SincET Mode,Real Time,
Sampling Period,5.000e-09,Sampling Period,5.000e-09,
Horizontal Old Scale,5.000E-06,Horizontal Old Scale,5.000E-06,
Horizontal Old Position,2.420E-05,Horizontal Old Position,2.420E-05,
Firmware,V1.32,Firmware,V1.32,
Mode,Fast,Mode,Fast,
Waveform Data,,Waveform Data,,
1, ,-19, ,
1, ,-19, ,
1, ,-19, ,
1, ,-19, ,
1, ,-19, ,
1, ,-19, ,
1, ,-19, ,
1, ,-19, ,
1, ,-19, ,
1, ,-19, ,
0, ,-19, ,
0, ,-19, ,
0, ,-19, ,
1, ,-19, ,
1, ,-19, ,
1, ,-19, ,
1, ,-19, ,
1, ,-19, ,
1, ,-19, ,
1, ,-19, ,
1, ,-19, ,
1, ,-19, ,
1, ,-19, ,
1, ,-19, ,
1, ,-19, ,
1, ,-19, ,
1, ,-19, ,
1, ,-19, ,
1, ,-19, ,
1, ,-19, ,
1, ,-19, ,
1, ,-19, ,
1, ,-19, ,
1, ,-19, ,
1, ,-19, ,
1, ,-19, ,
1, ,-19, ,
1, ,-19, ,
1, ,-19, ,
1, ,-19, ,
1, ,-19, ,
1, ,-19, ,
1, ,-19, ,
1, ,-19, ,
1, ,-19, ,
1, ,-19, ,
1, ,-19, ,
1, ,-19, ,
1, ,-19, ,
1, ,-19, ,
1, ,-19, ,
1, ,-19, ,
1, ,-19, ,
1, ,-19, ,
1, ,-19, ,
1, ,-19, ,
1, ,-19, ,
1, ,-19, ,
1, ,-19, ,
1, ,-19, ,
1, ,-19, ,
1, ,-19, ,
1, ,-19, ,
0, ,-19, ,
0, ,-19, ,
1, ,-19, ,
1, ,-19, ,
1, ,-19, ,
1, ,-19, ,
1, ,-19, ,
1, ,-19, ,
1, ,-19, ,
1, ,-19, ,
1, ,-19, ,
1, ,-19, ,
1, ,-19, ,
1, ,-19, ,
1, ,-19, ,
1, ,-19, ,
1, ,-19, ,
1, ,-19, ,
1, ,-19, ,
1, ,-19, ,
1, ,-19, ,
1, ,-19, ,
1, ,-19, ,
1, ,-19, ,
0, ,-19, ,
0, ,-19, ,
1, ,-19, ,
1, ,-19, ,
1, ,-19, ,
1, ,-19, ,
1, ,-19, ,
1, ,-19, ,
1, ,-19, ,
1, ,-19, ,
1, ,-19, ,
1, ,-19, ,
1, ,-19, ,
0, ,-19, ,
0, ,-19, ,
1, ,-19, ,
0, ,-19, ,
0, ,-19, ,
1, ,-19, ,
1, ,-19, ,
1, ,-19, ,
1, ,-19, ,
1, ,-19, ,
1, ,-19, ,
1, ,-19, ,
1, ,-19, ,
1, ,-19, ,
1, ,-19, ,
1, ,-19, ,
1, ,-19, ,
1, ,-19, ,
1, ,-19, ,
1, ,-19, ,
1, ,-19, ,
1, ,-19, ,
0, ,-19, ,
0, ,-19, ,
0, ,-19, ,
1, ,-19, ,
1, ,-19, ,
1, ,-19, ,
1, ,-19, ,
1, ,-19, ,
1, ,-19, ,
1, ,-19, ,
1, ,-19, ,
1, ,-19, ,
1, ,-19, ,
1, ,-19, ,
1, ,-19, ,
1, ,-19, ,
0, ,-19, ,
0, ,-19, ,
0, ,-19, ,
1, ,-19, ,
1, ,-19, ,
0, ,-19, ,
0, ,-19, ,
1, ,-19, ,
1, ,-19, ,
0, ,-19, ,
0, ,-19, ,
1, ,-19, ,
1, ,-19, ,
1, ,-19, ,
1, ,-19, ,
0, ,-19, ,
0, ,-19, ,
1, ,-19, ,
0, ,-19, ,
0, ,-19, ,
1, ,-19, ,
1, ,-19, ,
0, ,-19, ,
0, ,-19, ,
1, ,-19, ,
0, ,-19, ,
0, ,-19, ,
0, ,-19, ,
-1, ,-19, ,
4, ,-19, ,
22, ,-19, ,
94, ,-19, ,
125, ,-19, ,
124, ,-19, ,
121, ,-19, ,
28, ,-19, ,
-7, ,-19, ,
14, ,-19, ,
66, ,-19, ,
125, ,-19, ,
125, ,-19, ,
125, ,-19, ,
125, ,-19, ,
125, ,-19, ,
125, ,-19, ,
124, ,-19, ,
124, ,-19, ,
115, ,-19, ,
109, ,-19, ,
106, ,-19, ,
102, ,-19, ,
96, ,-19, ,
93, ,-19, ,
89, ,-19, ,
86, ,-19, ,
80, ,-19, ,
75, ,-19, ,
74, ,-19, ,
71, ,-19, ,
65, ,-19, ,
63, ,-19, ,
60, ,-19, ,
58, ,-19, ,
53, ,-19, ,
51, ,-19, ,
49, ,-19, ,
47, ,-19, ,
43, ,-19, ,
41, ,-19, ,
39, ,-19, ,
38, ,-19, ,
34, ,-19, ,
33, ,-19, ,
32, ,-19, ,
30, ,-19, ,
27, ,-19, ,
26, ,-19, ,
25, ,-19, ,
24, ,-19, ,
22, ,-19, ,
21, ,-19, ,
21, ,-19, ,
19, ,-19, ,
17, ,-19, ,
17, ,-19, ,
16, ,-19, ,
15, ,-19, ,
14, ,-19, ,
13, ,-19, ,
12, ,-19, ,
11, ,-19, ,
10, ,-19, ,
10, ,-19, ,
9, ,-19, ,
9, ,-19, ,
8, ,-19, ,
7, ,-19, ,
6, ,-19, ,
6, ,-19, ,
6, ,-19, ,
5, ,-19, ,
5, ,-19, ,
5, ,-19, ,
4, ,-19, ,
4, ,-19, ,
4, ,-19, ,
3, ,-19, ,
3, ,-19, ,
3, ,-19, ,
2, ,-19, ,
2, ,-19, ,
2, ,-19, ,
1, ,-19, ,
1, ,-19, ,
1, ,-19, ,
0, ,-19, ,
0, ,-19, ,
0, ,-19, ,
0, ,-19, ,
0, ,-19, ,
0, ,-19, ,
0, ,-19, ,
0, ,-19, ,
0, ,-19, ,
0, ,-19, ,
-1, ,-19, ,
-1, ,-19, ,
0, ,-19, ,
-1, ,-19, ,
-1, ,-19, ,
-1, ,-19, ,
-1, ,-19, ,
-1, ,-19, ,
-1, ,-19, ,
-1, ,-19, ,
-1, ,-19, ,
-1, ,-19, ,
-1, ,-19, ,
-1, ,-19, ,
-1, ,-19, ,
-1, ,-19, ,
-1, ,-19, ,
-1, ,-19, ,
-1, ,-19, ,
-1, ,-19, ,
-1, ,-19, ,
-1, ,-19, ,
-1, ,-19, ,
-1, ,-19, ,
-2, ,-19, ,
-1, ,-19, ,
-1, ,-19, ,
-1, ,-19, ,
-1, ,-19, ,
-1, ,-19, ,
-1, ,-19, ,
-1, ,-19, ,
-1, ,-19, ,
-1, ,-19, ,
-1, ,-19, ,
-1, ,-19, ,
-1, ,-19, ,
-1, ,-19, ,
-1, ,-19, ,
-1, ,-19, ,
-1, ,-19, ,
-1, ,-19, ,
-1, ,-19, ,
-1, ,-19, ,
-1, ,-19, ,
-1, ,-19, ,
-1, ,-19, ,
-1, ,-19, ,
-1, ,-19, ,
-1, ,-19, ,
-1, ,-19, ,
-1, ,-19, ,
-1, ,-19, ,
-1, ,-19, ,
-1, ,-19, ,
0, ,-19, ,
0, ,-19, ,
0, ,-19, ,
0, ,-19, ,
0, ,-19, ,
0, ,-19, ,
0, ,-19, ,
0, ,-19, ,
0, ,-19, ,
0, ,-19, ,
0, ,-19, ,
0, ,-19, ,
0, ,-19, ,
0, ,-19, ,
0, ,-19, ,
0, ,-19, ,
0, ,-19, ,
0, ,-19, ,
0, ,-19, ,
0, ,-19, ,
0, ,-19, ,
0, ,-19, ,
0, ,-19, ,
0, ,-19, ,
0, ,-19, ,
0, ,-19, ,
0, ,-19, ,
0, ,-19, ,
0, ,-19, ,
0, ,-19, ,
0, ,-19, ,
0, ,-19, ,
0, ,-19, ,
0, ,-19, ,
0, ,-19, ,
1, ,-19, ,
0, ,-19, ,
0, ,-19, ,
0, ,-19, ,
0, ,-19, ,
1, ,-19, ,
0, ,-19, ,
0, ,-19, ,
0, ,-19, ,
0, ,-19, ,
0, ,-19, ,
0, ,-19, ,
0, ,-19, ,
0, ,-19, ,
0, ,-19, ,
0, ,-19, ,
0, ,-19, ,
0, ,-19, ,
1, ,-19, ,
0, ,-19, ,
0, ,-19, ,
0, ,-19, ,
0, ,-19, ,
0, ,-19, ,
1, ,-19, ,
0, ,-19, ,
0, ,-19, ,
0, ,-19, ,
0, ,-19, ,
1, ,-19, ,
0, ,-19, ,
0, ,-19, ,
1, ,-19, ,
0, ,-19, ,
0, ,-19, ,
0, ,-19, ,
0, ,-19, ,
0, ,-19, ,
0, ,-19, ,
0, ,-19, ,
0, ,-19, ,
0, ,-19, ,
1, ,-19, ,
1, ,-19, ,
0, ,-19, ,
0, ,-19, ,
0, ,-19, ,
1, ,-19, ,
1, ,-19, ,
0, ,-19, ,
0, ,-19, ,
0, ,-19, ,
0, ,-19, ,
0, ,-19, ,
0, ,-19, ,
0, ,-19, ,
0, ,-19, ,
0, ,-19, ,
0, ,-19, ,
0, ,-19, ,
1, ,-19, ,
1, ,-19, ,
0, ,-19, ,
0, ,-19, ,
0, ,-19, ,
0, ,-19, ,
1, ,-19, ,
1, ,-19, ,
1, ,-19, ,
1, ,-19, ,
0, ,-19, ,
0, ,-19, ,
0, ,-19, ,
0, ,-19, ,
1, ,-19, ,
0, ,-19, ,
0, ,-19, ,
1, ,-19, ,
0, ,-19, ,
0, ,-19, ,
0, ,-19, ,
0, ,-19, ,
0, ,-19, ,
0, ,-19, ,
-1, ,-19, ,
-1, ,-19, ,
-2, ,-19, ,
-2, ,-19, ,
-4, ,-19, ,
-6, ,-19, ,
-8, ,-19, ,
-9, ,-19, ,
-9, ,-19, ,
-9, ,-19, ,
-8, ,-19, ,
-6, ,-19, ,
-3, ,-19, ,
-2, ,-19, ,
-1, ,-19, ,
-1, ,-19, ,
1, ,-19, ,
1, ,-19, ,
1, ,-19, ,
2, ,-19, ,
2, ,-19, ,
1, ,-19, ,
1, ,-19, ,
1, ,-19, ,
0, ,-19, ,
0, ,-19, ,
-1, ,-19, ,
-1, ,-19, ,
-2, ,-19, ,
-2, ,-19, ,
-1, ,-19, ,
-1, ,-19, ,
-1, ,-19, ,
0, ,-19, ,
0, ,-19, ,
0, ,-19, ,
1, ,-19, ,
2, ,-19, ,
2, ,-19, ,
2, ,-19, ,
2, ,-19, ,
2, ,-19, ,
2, ,-19, ,
2, ,-19, ,
2, ,-19, ,
2, ,-19, ,
2, ,-19, ,
2, ,-19, ,
2, ,-19, ,
2, ,-19, ,
2, ,-19, ,
2, ,-19, ,
2, ,-19, ,
2, ,-19, ,
2, ,-19, ,
2, ,-19, ,
3, ,-19, ,
3, ,-19, ,
3, ,-19, ,
3, ,-19, ,
3, ,-19, ,
2, ,-19, ,
2, ,-19, ,
2, ,-19, ,
1, ,-19, ,
1, ,-19, ,
1, ,-19, ,
1, ,-19, ,
1, ,-19, ,
1, ,-19, ,
1, ,-19, ,
1, ,-19, ,
1, ,-19, ,
1, ,-19, ,
1, ,-19, ,
1, ,-19, ,
1, ,-19, ,
0, ,-19, ,
0, ,-19, ,
-1, ,-19, ,
-2, ,-19, ,
-2, ,-19, ,
-3, ,-19, ,
-4, ,-19, ,
-7, ,-19, ,
-9, ,-19, ,
-9, ,-19, ,
-12, ,-19, ,
-13, ,-19, ,
-13, ,-19, ,
-13, ,-19, ,
-12, ,-19, ,
-11, ,-19, ,
-10, ,-19, ,
-9, ,-19, ,
-8, ,-19, ,
-7, ,-19, ,
-6, ,-19, ,
-6, ,-19, ,
-6, ,-19, ,
-6, ,-19, ,
-8, ,-19, ,
-8, ,-19, ,
-10, ,-19, ,
-14, ,-19, ,
-17, ,-19, ,
-20, ,-19, ,
-22, ,-19, ,
-28, ,-19, ,
-29, ,-19, ,
-29, ,-19, ,
-29, ,-19, ,
-28, ,-19, ,
-27, ,-19, ,
-26, ,-19, ,
-25, ,-19, ,
-23, ,-19, ,
-22, ,-19, ,
-22, ,-19, ,
-23, ,-19, ,
-24, ,-19, ,
-24, ,-19, ,
-25, ,-19, ,
-25, ,-19, ,
-27, ,-19, ,
-28, ,-19, ,
-28, ,-19, ,
-28, ,-19, ,
-27, ,-19, ,
-25, ,-19, ,
-25, ,-19, ,
-25, ,-19, ,
-21, ,-19, ,
-20, ,-19, ,
-18, ,-19, ,
-17, ,-19, ,
-14, ,-19, ,
-13, ,-19, ,
-12, ,-19, ,
-11, ,-19, ,
-9, ,-19, ,
-8, ,-19, ,
-7, ,-19, ,
-6, ,-19, ,
-4, ,-19, ,
-1, ,-19, ,
0, ,-19, ,
3, ,-19, ,
7, ,-19, ,
8, ,-19, ,
10, ,-19, ,
12, ,-19, ,
14, ,-19, ,
16, ,-19, ,
16, ,-19, ,
16, ,-19, ,
16, ,-19, ,
15, ,-19, ,
15, ,-19, ,
13, ,-19, ,
11, ,-19, ,
9, ,-19, ,
8, ,-19, ,
6, ,-19, ,
3, ,-19, ,
2, ,-19, ,
1, ,-19, ,
1, ,-19, ,
0, ,-19, ,
1, ,-19, ,
1, ,-19, ,
2, ,-19, ,
3, ,-19, ,
3, ,-19, ,
4, ,-19, ,
4, ,-19, ,
6, ,-19, ,
6, ,-19, ,
6, ,-19, ,
6, ,-19, ,
7, ,-19, ,
7, ,-19, ,
7, ,-19, ,
6, ,-19, ,
5, ,-19, ,
5, ,-19, ,
4, ,-19, ,
4, ,-19, ,
2, ,-19, ,
1, ,-19, ,
1, ,-19, ,
0, ,-19, ,
-3, ,-19, ,
-4, ,-19, ,
-5, ,-19, ,
-7, ,-19, ,
-9, ,-19, ,
-11, ,-19, ,
-12, ,-19, ,
-14, ,-19, ,
-17, ,-19, ,
-20, ,-19, ,
-22, ,-19, ,
-23, ,-19, ,
-25, ,-19, ,
-26, ,-19, ,
-27, ,-19, ,
-27, ,-19, ,
-26, ,-19, ,
-25, ,-19, ,
-25, ,-19, ,
-24, ,-19, ,
-21, ,-19, ,
-20, ,-19, ,
-18, ,-19, ,
-17, ,-19, ,
-14, ,-19, ,
-13, ,-19, ,
-12, ,-19, ,
-12, ,-19, ,
-11, ,-19, ,
-10, ,-19, ,
-10, ,-19, ,
-10, ,-19, ,
-9, ,-19, ,
-8, ,-19, ,
-8, ,-19, ,
-7, ,-19, ,
-7, ,-19, ,
-7, ,-19, ,
-7, ,-19, ,
-7, ,-19, ,
-7, ,-19, ,
-7, ,-19, ,
-7, ,-19, ,
-7, ,-19, ,
-7, ,-19, ,
-7, ,-19, ,
-6, ,-19, ,
-5, ,-19, ,
-5, ,-19, ,
-4, ,-19, ,
-4, ,-19, ,
-4, ,-19, ,
-3, ,-19, ,
-2, ,-19, ,
-1, ,-19, ,
-1, ,-19, ,
0, ,-19, ,
1, ,-19, ,
1, ,-19, ,
2, ,-19, ,
4, ,-19, ,
5, ,-19, ,
7, ,-19, ,
8, ,-19, ,
10, ,-19, ,
11, ,-19, ,
11, ,-19, ,
11, ,-19, ,
10, ,-19, ,
9, ,-19, ,
8, ,-19, ,
6, ,-19, ,
1, ,-19, ,
-1, ,-19, ,
-4, ,-19, ,
-8, ,-19, ,
-15, ,-19, ,
-18, ,-19, ,
-21, ,-19, ,
-23, ,-19, ,
-26, ,-19, ,
-28, ,-19, ,
-29, ,-19, ,
-29, ,-19, ,
-28, ,-19, ,
-27, ,-19, ,
-25, ,-19, ,
-25, ,-19, ,
-20, ,-19, ,
-17, ,-19, ,
-13, ,-19, ,
-11, ,-19, ,
-5, ,-19, ,
-3, ,-19, ,
-1, ,-19, ,
2, ,-19, ,
5, ,-19, ,
7, ,-19, ,
8, ,-19, ,
8, ,-19, ,
10, ,-19, ,
10, ,-19, ,
10, ,-19, ,
10, ,-19, ,
9, ,-19, ,
9, ,-19, ,
8, ,-19, ,
8, ,-19, ,
8, ,-19, ,
8, ,-19, ,
8, ,-19, ,
7, ,-19, ,
7, ,-19, ,
8, ,-19, ,
8, ,-19, ,
8, ,-19, ,
9, ,-19, ,
9, ,-19, ,
10, ,-19, ,
11, ,-19, ,
12, ,-19, ,
12, ,-19, ,
13, ,-19, ,
13, ,-19, ,
13, ,-19, ,
12, ,-19, ,
12, ,-19, ,
11, ,-19, ,
8, ,-19, ,
7, ,-19, ,
5, ,-19, ,
3, ,-19, ,
-1, ,-19, ,
-4, ,-19, ,
-6, ,-19, ,
-8, ,-19, ,
-13, ,-19, ,
-15, ,-19, ,
-17, ,-19, ,
-19, ,-19, ,
-21, ,-19, ,
-22, ,-19, ,
-23, ,-19, ,
-23, ,-19, ,
-23, ,-19, ,
-22, ,-19, ,
-22, ,-19, ,
-21, ,-19, ,
-19, ,-19, ,
-18, ,-19, ,
-17, ,-19, ,
-17, ,-19, ,
-16, ,-19, ,
-16, ,-19, ,
-17, ,-19, ,
-17, ,-19, ,
-19, ,-19, ,
-20, ,-19, ,
-21, ,-19, ,
-24, ,-19, ,
-26, ,-19, ,
-27, ,-19, ,
-29, ,-19, ,
-30, ,-19, ,
-32, ,-19, ,
-32, ,-19, ,
-32, ,-19, ,
-31, ,-19, ,
-30, ,-19, ,
-28, ,-19, ,
-27, ,-19, ,
-25, ,-19, ,
-22, ,-19, ,
-20, ,-19, ,
-18, ,-19, ,
-15, ,-19, ,
-12, ,-19, ,
-10, ,-19, ,
-8, ,-19, ,
-6, ,-19, ,
-3, ,-19, ,
-2, ,-19, ,
-1, ,-19, ,
0, ,-19, ,
2, ,-19, ,
2, ,-19, ,
2, ,-19, ,
2, ,-19, ,
2, ,-19, ,
2, ,-19, ,
2, ,-19, ,
1, ,-19, ,
1, ,-19, ,
2, ,-19, ,
2, ,-19, ,
2, ,-19, ,
3, ,-19, ,
4, ,-19, ,
5, ,-19, ,
6, ,-19, ,
7, ,-19, ,
8, ,-19, ,
8, ,-19, ,
10, ,-19, ,
11, ,-19, ,
12, ,-19, ,
13, ,-19, ,
13, ,-19, ,
13, ,-19, ,
13, ,-19, ,
12, ,-19, ,
12, ,-19, ,
11, ,-19, ,
11, ,-19, ,
11, ,-19, ,
10, ,-19, ,
9, ,-19, ,
9, ,-19, ,
9, ,-19, ,
9, ,-19, ,
8, ,-19, ,
8, ,-19, ,
8, ,-19, ,
8, ,-19, ,
8, ,-19, ,
8, ,-19, ,
8, ,-19, ,
8, ,-19, ,
7, ,-19, ,
7, ,-19, ,
6, ,-19, ,
6, ,-19, ,
5, ,-19, ,
5, ,-19, ,
4, ,-19, ,
4, ,-19, ,
3, ,-19, ,
3, ,-19, ,
3, ,-19, ,
2, ,-19, ,
1, ,-19, ,
1, ,-19, ,
0, ,-19, ,
-1, ,-19, ,
-2, ,-19, ,
-4, ,-19, ,
-5, ,-19, ,
-7, ,-19, ,
-10, ,-19, ,
-13, ,-19, ,
-15, ,-19, ,
-17, ,-19, ,
-22, ,-19, ,
-24, ,-19, ,
-25, ,-19, ,
-27, ,-19, ,
-28, ,-19, ,
-28, ,-19, ,
-28, ,-19, ,
-28, ,-19, ,
-26, ,-19, ,
-25, ,-19, ,
-23, ,-19, ,
-22, ,-19, ,
-17, ,-19, ,
-13, ,-19, ,
-12, ,-19, ,
-10, ,-19, ,
-6, ,-19, ,
-5, ,-19, ,
-4, ,-19, ,
-4, ,-19, ,
-5, ,-19, ,
-5, ,-19, ,
-7, ,-19, ,
-7, ,-19, ,
-11, ,-19, ,
-12, ,-19, ,
-14, ,-19, ,
-16, ,-19, ,
-19, ,-19, ,
-20, ,-19, ,
-21, ,-19, ,
-22, ,-19, ,
-23, ,-19, ,
-23, ,-19, ,
-23, ,-19, ,
-22, ,-19, ,
-20, ,-19, ,
-18, ,-19, ,
-16, ,-19, ,
-15, ,-19, ,
-10, ,-19, ,
-8, ,-19, ,
-4, ,-19, ,
-2, ,-19, ,
4, ,-19, ,
6, ,-19, ,
9, ,-19, ,
11, ,-19, ,
14, ,-19, ,
15, ,-19, ,
17, ,-19, ,
16, ,-19, ,
16, ,-19, ,
15, ,-19, ,
15, ,-19, ,
14, ,-19, ,
11, ,-19, ,
9, ,-19, ,
7, ,-19, ,
6, ,-19, ,
2, ,-19, ,
0, ,-19, ,
-2, ,-19, ,
-4, ,-19, ,
-7, ,-19, ,
-9, ,-19, ,
-10, ,-19, ,
-12, ,-19, ,
-14, ,-19, ,
-15, ,-19, ,
-17, ,-19, ,
-17, ,-19, ,
-17, ,-19, ,
-17, ,-19, ,
-17, ,-19, ,
-17, ,-19, ,
-16, ,-19, ,
-16, ,-19, ,
-15, ,-19, ,
-13, ,-19, ,
-11, ,-19, ,
-10, ,-19, ,
-9, ,-19, ,
-7, ,-19, ,
-5, ,-19, ,
-3, ,-19, ,
-2, ,-19, ,
-1, ,-19, ,
2, ,-19, ,
2, ,-19, ,
4, ,-19, ,
5, ,-19, ,
6, ,-19, ,
8, ,-19, ,
8, ,-19, ,
9, ,-19, ,
11, ,-19, ,
11, ,-19, ,
12, ,-19, ,
12, ,-19, ,
13, ,-19, ,
13, ,-19, ,
12, ,-19, ,
12, ,-19, ,
12, ,-19, ,
11, ,-19, ,
10, ,-19, ,
9, ,-19, ,
8, ,-19, ,
8, ,-19, ,
6, ,-19, ,
5, ,-19, ,
4, ,-19, ,
2, ,-19, ,
2, ,-19, ,
1, ,-19, ,
0, ,-19, ,
-1, ,-19, ,
-2, ,-19, ,
-2, ,-19, ,
-4, ,-19, ,
-4, ,-19, ,
-5, ,-19, ,
-6, ,-19, ,
-8, ,-19, ,
-9, ,-19, ,
-10, ,-19, ,
-11, ,-19, ,
-14, ,-19, ,
-16, ,-19, ,
-16, ,-19, ,
-17, ,-19, ,
-18, ,-19, ,
-17, ,-19, ,
-17, ,-19, ,
-17, ,-19, ,
-16, ,-19, ,
-15, ,-19, ,
-13, ,-19, ,
-12, ,-19, ,
-8, ,-19, ,
-6, ,-19, ,
-4, ,-19, ,
-2, ,-19, ,
2, ,-19, ,
3, ,-19, ,
4, ,-19, ,
5, ,-19, ,
7, ,-19, ,
7, ,-19, ,
6, ,-19, ,
6, ,-19, ,
5, ,-19, ,
5, ,-19, ,
4, ,-19, ,
4, ,-19, ,
4, ,-19, ,
4, ,-19, ,
4, ,-19, ,
4, ,-19, ,
4, ,-19, ,
4, ,-19, ,
5, ,-19, ,
5, ,-19, ,
6, ,-19, ,
6, ,-19, ,
6, ,-19, ,
6, ,-19, ,
5, ,-19, ,
5, ,-19, ,
4, ,-19, ,
3, ,-19, ,
1, ,-19, ,
0, ,-19, ,
-2, ,-19, ,
-3, ,-19, ,
-6, ,-19, ,
-8, ,-19, ,
-9, ,-19, ,
-10, ,-19, ,
-12, ,-19, ,
-13, ,-19, ,
-14, ,-19, ,
-14, ,-19, ,
-14, ,-19, ,
-15, ,-19, ,
-14, ,-19, ,
-14, ,-19, ,
-13, ,-19, ,
-12, ,-19, ,
-12, ,-19, ,
-10, ,-19, ,
-8, ,-19, ,
-7, ,-19, ,
-5, ,-19, ,
-4, ,-19, ,
-1, ,-19, ,
1, ,-19, ,
3, ,-19, ,
4, ,-19, ,
7, ,-19, ,
8, ,-19, ,
9, ,-19, ,
9, ,-19, ,
10, ,-19, ,
10, ,-19, ,
9, ,-19, ,
9, ,-19, ,
8, ,-19, ,
7, ,-19, ,
7, ,-19, ,
5, ,-19, ,
3, ,-19, ,
3, ,-19, ,
2, ,-19, ,
1, ,-19, ,
0, ,-19, ,
0, ,-19, ,
0, ,-19, ,
0, ,-19, ,
0, ,-19, ,
0, ,-19, ,
0, ,-19, ,
0, ,-19, ,
0, ,-19, ,
0, ,-19, ,
0, ,-19, ,
-1, ,-19, ,
-2, ,-19, ,
-2, ,-19, ,
-2, ,-19, ,
-3, ,-19, ,
-3, ,-19, ,
-4, ,-19, ,
-4, ,-19, ,
-4, ,-19, ,
-5, ,-19, ,
-5, ,-19, ,
-5, ,-19, ,
-5, ,-19, ,
-5, ,-19, ,
-5, ,-19, ,
-5, ,-19, ,
-5, ,-19, ,
-5, ,-19, ,
-5, ,-19, ,
-5, ,-19, ,
-4, ,-19, ,
-4, ,-19, ,
-4, ,-19, ,
-3, ,-19, ,
-3, ,-19, ,
-2, ,-19, ,
-2, ,-19, ,
-2, ,-19, ,
-1, ,-19, ,
0, ,-19, ,
0, ,-19, ,
0, ,-19, ,
1, ,-19, ,
1, ,-19, ,
1, ,-19, ,
1, ,-19, ,
1, ,-19, ,
1, ,-19, ,
1, ,-19, ,
1, ,-19, ,
1, ,-19, ,
2, ,-19, ,
2, ,-19, ,
3, ,-19, ,
4, ,-19, ,
6, ,-19, ,
6, ,-19, ,
7, ,-19, ,
8, ,-19, ,
9, ,-19, ,
10, ,-19, ,
10, ,-19, ,
10, ,-19, ,
10, ,-19, ,
10, ,-19, ,
9, ,-19, ,
8, ,-19, ,
5, ,-19, ,
4, ,-19, ,
2, ,-19, ,
1, ,-19, ,
-3, ,-19, ,
-4, ,-19, ,
-5, ,-19, ,
-8, ,-19, ,
-10, ,-19, ,
-11, ,-19, ,
-12, ,-19, ,
-13, ,-19, ,
-13, ,-19, ,
-13, ,-19, ,
-13, ,-19, ,
-12, ,-19, ,
-12, ,-19, ,
-11, ,-19, ,
-11, ,-19, ,
-10, ,-19, ,
-8, ,-19, ,
-7, ,-19, ,
-6, ,-19, ,
-5, ,-19, ,
-3, ,-19, ,
-2, ,-19, ,
-2, ,-19, ,
-1, ,-19, ,
-1, ,-19, ,
-1, ,-19, ,
-1, ,-19, ,
-2, ,-19, ,
-3, ,-19, ,
-3, ,-19, ,
-4, ,-19, ,
-4, ,-19, ,
-6, ,-19, ,
-6, ,-19, ,
-7, ,-19, ,
-8, ,-19, ,
-9, ,-19, ,
-9, ,-19, ,
-9, ,-19, ,
-9, ,-19, ,
-8, ,-19, ,
-8, ,-19, ,
-7, ,-19, ,
-6, ,-19, ,
-4, ,-19, ,
-2, ,-19, ,
-1, ,-19, ,
1, ,-19, ,
4, ,-19, ,
5, ,-19, ,
6, ,-19, ,
8, ,-19, ,
10, ,-19, ,
12, ,-19, ,
12, ,-19, ,
13, ,-19, ,
14, ,-19, ,
14, ,-19, ,
13, ,-19, ,
13, ,-19, ,
11, ,-19, ,
10, ,-19, ,
9, ,-19, ,
8, ,-19, ,
5, ,-19, ,
3, ,-19, ,
2, ,-19, ,
0, ,-19, ,
-4, ,-19, ,
-5, ,-19, ,
-7, ,-19, ,
-8, ,-19, ,
-11, ,-19, ,
-13, ,-19, ,
-13, ,-19, ,
-14, ,-19, ,
-15, ,-19, ,
-15, ,-19, ,
-16, ,-19, ,
-16, ,-19, ,
-16, ,-19, ,
-16, ,-19, ,
-15, ,-19, ,
-15, ,-19, ,
-14, ,-19, ,
-12, ,-19, ,
-11, ,-19, ,
-10, ,-19, ,
-6, ,-19, ,
-5, ,-19, ,
-2, ,-19, ,
-1, ,-19, ,
3, ,-19, ,
6, ,-19, ,
7, ,-19, ,
9, ,-19, ,
11, ,-19, ,
12, ,-19, ,
12, ,-19, ,
11, ,-19, ,
10, ,-19, ,
9, ,-19, ,
8, ,-19, ,
7, ,-19, ,
2, ,-19, ,
0, ,-19, ,
-2, ,-19, ,
-5, ,-19, ,
-9, ,-19, ,
-11, ,-19, ,
-12, ,-19, ,
-14, ,-19, ,
-15, ,-19, ,
-15, ,-19, ,
-14, ,-19, ,
-14, ,-19, ,
-13, ,-19, ,
-11, ,-19, ,
-11, ,-19, ,
-8, ,-19, ,
-6, ,-19, ,
-4, ,-19, ,
-2, ,-19, ,
-2, ,-19, ,
1, ,-19, ,
2, ,-19, ,
3, ,-19, ,
4, ,-19, ,
6, ,-19, ,
6, ,-19, ,
6, ,-19, ,
6, ,-19, ,
6, ,-19, ,
6, ,-19, ,
6, ,-19, ,
6, ,-19, ,
5, ,-19, ,
5, ,-19, ,
5, ,-19, ,
5, ,-19, ,
4, ,-19, ,
4, ,-19, ,
3, ,-19, ,
3, ,-19, ,
3, ,-19, ,
2, ,-19, ,
2, ,-19, ,
1, ,-19, ,
0, ,-19, ,
-1, ,-19, ,
-1, ,-19, ,
-2, ,-19, ,
-2, ,-19, ,
-2, ,-19, ,
-2, ,-19, ,
-2, ,-19, ,
-2, ,-19, ,
-1, ,-19, ,
-1, ,-19, ,
0, ,-19, ,
1, ,-19, ,
1, ,-19, ,
2, ,-19, ,
3, ,-19, ,
4, ,-19, ,
5, ,-19, ,
5, ,-19, ,
5, ,-19, ,
6, ,-19, ,
6, ,-19, ,
6, ,-19, ,
5, ,-19, ,
4, ,-19, ,
4, ,-19, ,
2, ,-19, ,
2, ,-19, ,
0, ,-19, ,
-1, ,-19, ,
-3, ,-19, ,
-4, ,-19, ,
-6, ,-19, ,
-7, ,-19, ,
-9, ,-19, ,
-9, ,-19, ,
-11, ,-19, ,
-12, ,-19, ,
-12, ,-19, ,
-12, ,-19, ,
-12, ,-19, ,
-12, ,-19, ,
-12, ,-19, ,
-10, ,-19, ,
-9, ,-19, ,
-8, ,-19, ,
-6, ,-19, ,
-4, ,-19, ,
-1, ,-19, ,
1, ,-19, ,
3, ,-19, ,
5, ,-19, ,
9, ,-19, ,
10, ,-19, ,
11, ,-19, ,
12, ,-19, ,
14, ,-19, ,
14, ,-19, ,
13, ,-19, ,
13, ,-19, ,
12, ,-19, ,
10, ,-19, ,
10, ,-19, ,
8, ,-19, ,
5, ,-19, ,
4, ,-19, ,
2, ,-19, ,
2, ,-19, ,
0, ,-19, ,
-1, ,-19, ,
-2, ,-19, ,
-2, ,-19, ,
-2, ,-19, ,
-2, ,-19, ,
-1, ,-19, ,
-1, ,-19, ,
1, ,-19, ,
1, ,-19, ,
3, ,-19, ,
3, ,-19, ,
4, ,-19, ,
5, ,-19, ,
5, ,-19, ,
5, ,-19, ,
5, ,-19, ,
4, ,-19, ,
4, ,-19, ,
3, ,-19, ,
1, ,-19, ,
1, ,-19, ,
-1, ,-19, ,
-2, ,-19, ,
-4, ,-19, ,
-5, ,-19, ,
-5, ,-19, ,
-7, ,-19, ,
-9, ,-19, ,
-9, ,-19, ,
-10, ,-19, ,
-10, ,-19, ,
-10, ,-19, ,
-11, ,-19, ,
-11, ,-19, ,
-11, ,-19, ,
-12, ,-19, ,
-12, ,-19, ,
-12, ,-19, ,
-12, ,-19, ,
-11, ,-19, ,
-11, ,-19, ,
-10, ,-19, ,
-10, ,-19, ,
-8, ,-19, ,
-6, ,-19, ,
-6, ,-19, ,
-4, ,-19, ,
-2, ,-19, ,
-1, ,-19, ,
1, ,-19, ,
1, ,-19, ,
5, ,-19, ,
6, ,-19, ,
7, ,-19, ,
8, ,-19, ,
9, ,-19, ,
10, ,-19, ,
10, ,-19, ,
9, ,-19, ,
9, ,-19, ,
9, ,-19, ,
9, ,-19, ,
8, ,-19, ,
7, ,-19, ,
6, ,-19, ,
6, ,-19, ,
5, ,-19, ,
5, ,-19, ,
5, ,-19, ,
4, ,-19, ,
4, ,-19, ,
3, ,-19, ,
3, ,-19, ,
3, ,-19, ,
1, ,-19, ,
0, ,-19, ,
0, ,-19, ,
-1, ,-19, ,
-1, ,-19, ,
-1, ,-19, ,
-2, ,-19, ,
-3, ,-19, ,
-3, ,-19, ,
-4, ,-19, ,
-4, ,-19, ,
-4, ,-19, ,
-4, ,-19, ,
-3, ,-19, ,
-3, ,-19, ,
-2, ,-19, ,
-3, ,-19, ,
-1, ,-19, ,
-1, ,-19, ,
-1, ,-19, ,
0, ,-19, ,
1, ,-19, ,
0, ,-19, ,
1, ,-19, ,
1, ,-19, ,
0, ,-19, ,
0, ,-19, ,
-1, ,-19, ,
-2, ,-19, ,
-3, ,-19, ,
-4, ,-19, ,
-4, ,-19, ,
-5, ,-19, ,
-6, ,-19, ,
-6, ,-19, ,
-6, ,-19, ,
-6, ,-19, ,
-6, ,-19, ,
-6, ,-19, ,
-5, ,-19, ,
-5, ,-19, ,
-3, ,-19, ,
-2, ,-19, ,
-1, ,-19, ,
0, ,-19, ,
2, ,-19, ,
3, ,-19, ,
4, ,-19, ,
5, ,-19, ,
8, ,-19, ,
9, ,-19, ,
10, ,-19, ,
11, ,-19, ,
12, ,-19, ,
12, ,-19, ,
13, ,-19, ,
12, ,-19, ,
11, ,-19, ,
11, ,-19, ,
10, ,-19, ,
10, ,-19, ,
8, ,-19, ,
6, ,-19, ,
5, ,-19, ,
3, ,-19, ,
1, ,-19, ,
-1, ,-19, ,
-2, ,-19, ,
-3, ,-19, ,
-5, ,-19, ,
-6, ,-19, ,
-6, ,-19, ,
-6, ,-19, ,
-5, ,-19, ,
-5, ,-19, ,
-4, ,-19, ,
-3, ,-19, ,
-2, ,-19, ,
-1, ,-19, ,
1, ,-19, ,
1, ,-19, ,
3, ,-19, ,
4, ,-19, ,
4, ,-19, ,
5, ,-19, ,
4, ,-19, ,
4, ,-19, ,
3, ,-19, ,
2, ,-19, ,
1, ,-19, ,
0, ,-19, ,
-2, ,-19, ,
-3, ,-19, ,
-6, ,-19, ,
-8, ,-19, ,
-9, ,-19, ,
-11, ,-19, ,
-12, ,-19, ,
-12, ,-19, ,
-12, ,-19, ,
-12, ,-19, ,
-11, ,-19, ,
-10, ,-19, ,
-10, ,-19, ,
-8, ,-19, ,
-5, ,-19, ,
-3, ,-19, ,
-2, ,-19, ,
0, ,-19, ,
3, ,-19, ,
5, ,-19, ,
7, ,-19, ,
8, ,-19, ,
9, ,-19, ,
9, ,-19, ,
9, ,-19, ,
9, ,-19, ,
8, ,-19, ,
8, ,-19, ,
7, ,-19, ,
6, ,-19, ,
5, ,-19, ,
4, ,-19, ,
4, ,-19, ,
3, ,-19, ,
3, ,-19, ,
2, ,-19, ,
2, ,-19, ,
2, ,-19, ,
2, ,-19, ,
3, ,-19, ,
3, ,-19, ,
3, ,-19, ,
4, ,-19, ,
4, ,-19, ,
4, ,-19, ,
4, ,-19, ,
4, ,-19, ,
5, ,-19, ,
4, ,-19, ,
5, ,-19, ,
5, ,-19, ,
4, ,-19, ,
4, ,-19, ,
4, ,-19, ,
3, ,-19, ,
3, ,-19, ,
2, ,-19, ,
1, ,-19, ,
-1, ,-19, ,
-2, ,-19, ,
-3, ,-19, ,
-4, ,-19, ,
-6, ,-19, ,
-6, ,-19, ,
-7, ,-19, ,
-7, ,-19, ,
-8, ,-19, ,
-8, ,-19, ,
-7, ,-19, ,
-7, ,-19, ,
