raw_data/75% Glycerol, Impulsion 2Hz, Sonde 5MHz, Rampe 0.7Hz/temp0000360.CSV

Format,1.0B,
Memory Length,10000,Memory Length,10000,
IntpDistance,0,IntpDistance,0,
Trigger Address,159,Trigger Address,159,
Trigger Level,2.720E-01,Trigger Level,2.720E-01,
Source,CH1,Source,CH2,
Vertical Units,V,Vertical Units,V,
Vertical Units Div,0,Vertical Units Div,0,
Vertical Units Extend Div,16,Vertical Units Extend Div,16,
Label,,Label,,
Probe Type,0,Probe Type,0,
Probe Ratio,1.000e+00,Probe Ratio,1.000e+00,
Vertical Scale,5.000e-01,Vertical Scale,2.000e+00,
Vertical Position,0.000e+00,Vertical Position,0.000e+00,
Horizontal Units,S,Horizontal Units,S,
Horizontal Scale,5.000E-06,Horizontal Scale,5.000E-06,
Horizontal Position,2.420E-05,Horizontal Position,2.420E-05,
Horizontal Mode,Main,Horizontal Mode,Main,
SincET Mode,Real Time,SincET Mode,Real Time,
Sampling Period,5.000e-09,Sampling Period,5.000e-09,
Horizontal Old Scale,5.000E-06,Horizontal Old Scale,5.000E-06,
Horizontal Old Position,2.420E-05,Horizontal Old Position,2.420E-05,
Firmware,V1.32,Firmware,V1.32,
Mode,Fast,Mode,Fast,
Waveform Data,,Waveform Data,,
1, ,-22, ,
1, ,-22, ,
1, ,-23, ,
0, ,-23, ,
0, ,-22, ,
1, ,-22, ,
1, ,-22, ,
1, ,-22, ,
0, ,-23, ,
0, ,-23, ,
1, ,-22, ,
1, ,-23, ,
0, ,-23, ,
0, ,-23, ,
0, ,-23, ,
0, ,-22, ,
0, ,-23, ,
0, ,-23, ,
1, ,-23, ,
1, ,-23, ,
1, ,-23, ,
1, ,-22, ,
0, ,-23, ,
0, ,-23, ,
1, ,-23, ,
1, ,-23, ,
1, ,-22, ,
0, ,-23, ,
0, ,-23, ,
0, ,-23, ,
0, ,-23, ,
1, ,-23, ,
1, ,-23, ,
0, ,-23, ,
0, ,-23, ,
0, ,-23, ,
0, ,-23, ,
1, ,-23, ,
1, ,-23, ,
1, ,-23, ,
1, ,-23, ,
1, ,-22, ,
1, ,-22, ,
0, ,-22, ,
1, ,-22, ,
1, ,-23, ,
0, ,-23, ,
0, ,-23, ,
1, ,-23, ,
1, ,-22, ,
1, ,-22, ,
1, ,-23, ,
0, ,-23, ,
0, ,-23, ,
0, ,-23, ,
1, ,-23, ,
1, ,-23, ,
1, ,-23, ,
1, ,-22, ,
1, ,-22, ,
0, ,-22, ,
0, ,-23, ,
0, ,-23, ,
1, ,-22, ,
0, ,-22, ,
0, ,-22, ,
1, ,-22, ,
0, ,-22, ,
1, ,-22, ,
1, ,-23, ,
0, ,-23, ,
0, ,-22, ,
0, ,-22, ,
0, ,-22, ,
1, ,-23, ,
0, ,-23, ,
0, ,-23, ,
1, ,-23, ,
1, ,-23, ,
1, ,-23, ,
1, ,-23, ,
1, ,-23, ,
1, ,-23, ,
1, ,-23, ,
1, ,-22, ,
1, ,-23, ,
1, ,-23, ,
1, ,-22, ,
1, ,-22, ,
1, ,-22, ,
1, ,-22, ,
1, ,-22, ,
0, ,-22, ,
0, ,-22, ,
0, ,-23, ,
0, ,-23, ,
1, ,-23, ,
0, ,-23, ,
0, ,-22, ,
0, ,-23, ,
0, ,-23, ,
1, ,-23, ,
0, ,-23, ,
0, ,-23, ,
1, ,-23, ,
0, ,-23, ,
1, ,-23, ,
0, ,-23, ,
0, ,-23, ,
0, ,-23, ,
0, ,-23, ,
1, ,-23, ,
1, ,-23, ,
1, ,-23, ,
1, ,-22, ,
1, ,-23, ,
1, ,-23, ,
1, ,-23, ,
0, ,-23, ,
0, ,-23, ,
1, ,-23, ,
0, ,-23, ,
0, ,-23, ,
0, ,-23, ,
0, ,-23, ,
0, ,-23, ,
0, ,-23, ,
1, ,-22, ,
1, ,-23, ,
1, ,-23, ,
1, ,-23, ,
1, ,-23, ,
1, ,-22, ,
1, ,-23, ,
1, ,-23, ,
1, ,-23, ,
1, ,-23, ,
1, ,-22, ,
1, ,-22, ,
0, ,-23, ,
1, ,-23, ,
1, ,-23, ,
1, ,-23, ,
1, ,-23, ,
0, ,-23, ,
0, ,-22, ,
1, ,-23, ,
0, ,-23, ,
0, ,-23, ,
1, ,-23, ,
1, ,-22, ,
1, ,-22, ,
1, ,-23, ,
1, ,-23, ,
1, ,-22, ,
1, ,-23, ,
0, ,-23, ,
0, ,-23, ,
0, ,-22, ,
1, ,-22, ,
1, ,-23, ,
0, ,-23, ,
1, ,-22, ,
0, ,-22, ,
-1, ,-23, ,
-1, ,-23, ,
-1, ,-23, ,
0, ,-23, ,
29, ,-23, ,
64, ,-23, ,
105, ,-23, ,
125, ,-22, ,
120, ,-23, ,
74, ,-23, ,
14, ,-23, ,
-8, ,-23, ,
80, ,-23, ,
125, ,-22, ,
125, ,-23, ,
125, ,-23, ,
125, ,-22, ,
125, ,-23, ,
125, ,-23, ,
125, ,-22, ,
124, ,-22, ,
118, ,-22, ,
113, ,-22, ,
107, ,-23, ,
101, ,-23, ,
99, ,-23, ,
95, ,-23, ,
92, ,-23, ,
85, ,-23, ,
81, ,-23, ,
78, ,-23, ,
75, ,-22, ,
70, ,-22, ,
67, ,-22, ,
65, ,-23, ,
62, ,-23, ,
57, ,-22, ,
55, ,-22, ,
52, ,-22, ,
50, ,-22, ,
46, ,-23, ,
45, ,-23, ,
42, ,-23, ,
40, ,-23, ,
38, ,-23, ,
35, ,-23, ,
34, ,-23, ,
32, ,-23, ,
29, ,-22, ,
28, ,-22, ,
27, ,-22, ,
25, ,-22, ,
24, ,-23, ,
23, ,-23, ,
22, ,-23, ,
20, ,-22, ,
19, ,-23, ,
18, ,-23, ,
17, ,-22, ,
16, ,-23, ,
15, ,-23, ,
13, ,-23, ,
13, ,-23, ,
12, ,-23, ,
11, ,-22, ,
10, ,-23, ,
10, ,-23, ,
9, ,-23, ,
9, ,-23, ,
8, ,-23, ,
8, ,-23, ,
6, ,-23, ,
6, ,-23, ,
6, ,-23, ,
5, ,-23, ,
5, ,-22, ,
4, ,-23, ,
4, ,-23, ,
4, ,-22, ,
3, ,-23, ,
3, ,-23, ,
3, ,-23, ,
2, ,-23, ,
2, ,-22, ,
2, ,-23, ,
1, ,-23, ,
1, ,-22, ,
1, ,-23, ,
1, ,-23, ,
1, ,-23, ,
1, ,-23, ,
1, ,-23, ,
0, ,-23, ,
0, ,-22, ,
0, ,-23, ,
0, ,-23, ,
0, ,-23, ,
0, ,-23, ,
-1, ,-23, ,
-1, ,-23, ,
-1, ,-23, ,
-1, ,-23, ,
-1, ,-23, ,
-1, ,-22, ,
-1, ,-22, ,
-1, ,-23, ,
-1, ,-23, ,
-1, ,-22, ,
-1, ,-22, ,
-1, ,-22, ,
-1, ,-22, ,
-1, ,-22, ,
-1, ,-22, ,
-1, ,-23, ,
-1, ,-23, ,
-1, ,-23, ,
-1, ,-23, ,
-1, ,-22, ,
-1, ,-22, ,
-1, ,-23, ,
-1, ,-23, ,
-1, ,-23, ,
-1, ,-22, ,
-1, ,-22, ,
-1, ,-23, ,
-1, ,-23, ,
-1, ,-23, ,
-2, ,-23, ,
-2, ,-23, ,
-1, ,-23, ,
-1, ,-23, ,
-1, ,-23, ,
-1, ,-22, ,
-1, ,-22, ,
-1, ,-22, ,
-1, ,-23, ,
-1, ,-23, ,
-1, ,-23, ,
-1, ,-22, ,
-1, ,-22, ,
-1, ,-22, ,
-1, ,-22, ,
-1, ,-23, ,
-1, ,-23, ,
-1, ,-22, ,
-1, ,-23, ,
-1, ,-23, ,
-1, ,-22, ,
-1, ,-22, ,
-1, ,-22, ,
-1, ,-22, ,
-1, ,-22, ,
0, ,-22, ,
-1, ,-22, ,
-1, ,-23, ,
-1, ,-23, ,
0, ,-23, ,
0, ,-23, ,
0, ,-23, ,
0, ,-23, ,
0, ,-23, ,
0, ,-23, ,
0, ,-23, ,
0, ,-22, ,
0, ,-22, ,
0, ,-22, ,
0, ,-22, ,
0, ,-23, ,
0, ,-23, ,
0, ,-23, ,
0, ,-23, ,
0, ,-22, ,
0, ,-23, ,
0, ,-23, ,
0, ,-23, ,
0, ,-23, ,
0, ,-22, ,
0, ,-23, ,
0, ,-23, ,
0, ,-23, ,
0, ,-23, ,
0, ,-23, ,
0, ,-23, ,
0, ,-23, ,
0, ,-23, ,
0, ,-23, ,
0, ,-23, ,
0, ,-22, ,
0, ,-22, ,
0, ,-23, ,
0, ,-23, ,
0, ,-23, ,
0, ,-23, ,
0, ,-23, ,
0, ,-23, ,
0, ,-23, ,
0, ,-23, ,
0, ,-23, ,
0, ,-22, ,
0, ,-22, ,
0, ,-22, ,
0, ,-22, ,
0, ,-22, ,
0, ,-22, ,
0, ,-23, ,
0, ,-23, ,
0, ,-22, ,
0, ,-23, ,
0, ,-23, ,
1, ,-23, ,
0, ,-23, ,
0, ,-23, ,
0, ,-23, ,
0, ,-23, ,
0, ,-22, ,
0, ,-22, ,
0, ,-22, ,
0, ,-22, ,
0, ,-23, ,
0, ,-23, ,
0, ,-23, ,
0, ,-22, ,
0, ,-23, ,
0, ,-23, ,
0, ,-23, ,
0, ,-22, ,
0, ,-23, ,
0, ,-23, ,
0, ,-23, ,
0, ,-23, ,
0, ,-22, ,
0, ,-22, ,
0, ,-22, ,
0, ,-23, ,
0, ,-23, ,
1, ,-23, ,
1, ,-23, ,
1, ,-22, ,
1, ,-23, ,
1, ,-23, ,
1, ,-23, ,
1, ,-23, ,
0, ,-23, ,
0, ,-22, ,
0, ,-23, ,
0, ,-23, ,
0, ,-23, ,
0, ,-23, ,
0, ,-23, ,
0, ,-23, ,
1, ,-23, ,
1, ,-23, ,
0, ,-23, ,
0, ,-23, ,
1, ,-23, ,
1, ,-23, ,
1, ,-23, ,
1, ,-23, ,
0, ,-23, ,
0, ,-23, ,
0, ,-23, ,
0, ,-23, ,
0, ,-22, ,
0, ,-23, ,
0, ,-23, ,
0, ,-23, ,
0, ,-23, ,
0, ,-23, ,
0, ,-23, ,
0, ,-22, ,
0, ,-23, ,
-1, ,-23, ,
-2, ,-23, ,
-2, ,-23, ,
-3, ,-23, ,
-4, ,-23, ,
-7, ,-23, ,
-9, ,-23, ,
-12, ,-23, ,
-16, ,-23, ,
-21, ,-22, ,
-21, ,-23, ,
-20, ,-23, ,
-17, ,-23, ,
-10, ,-23, ,
-8, ,-23, ,
-4, ,-23, ,
-2, ,-23, ,
0, ,-22, ,
2, ,-23, ,
3, ,-23, ,
4, ,-23, ,
5, ,-23, ,
5, ,-23, ,
5, ,-23, ,
5, ,-23, ,
6, ,-22, ,
6, ,-22, ,
6, ,-23, ,
6, ,-23, ,
5, ,-23, ,
4, ,-22, ,
5, ,-22, ,
5, ,-22, ,
4, ,-22, ,
4, ,-23, ,
4, ,-23, ,
4, ,-23, ,
4, ,-23, ,
3, ,-22, ,
3, ,-22, ,
3, ,-23, ,
3, ,-23, ,
3, ,-23, ,
3, ,-23, ,
3, ,-23, ,
3, ,-23, ,
2, ,-22, ,
2, ,-23, ,
1, ,-23, ,
1, ,-23, ,
1, ,-23, ,
1, ,-22, ,
1, ,-22, ,
1, ,-23, ,
1, ,-23, ,
1, ,-23, ,
1, ,-23, ,
1, ,-23, ,
1, ,-23, ,
1, ,-23, ,
1, ,-23, ,
1, ,-23, ,
0, ,-22, ,
0, ,-22, ,
0, ,-23, ,
-2, ,-23, ,
-2, ,-23, ,
-3, ,-23, ,
-3, ,-23, ,
-2, ,-23, ,
-2, ,-23, ,
-2, ,-23, ,
-2, ,-23, ,
-1, ,-23, ,
0, ,-23, ,
0, ,-23, ,
1, ,-23, ,
1, ,-23, ,
1, ,-23, ,
2, ,-23, ,
2, ,-23, ,
2, ,-23, ,
2, ,-23, ,
2, ,-22, ,
2, ,-22, ,
2, ,-22, ,
1, ,-22, ,
1, ,-22, ,
0, ,-22, ,
-1, ,-22, ,
-1, ,-22, ,
-2, ,-23, ,
-2, ,-23, ,
-4, ,-23, ,
-6, ,-23, ,
-7, ,-23, ,
-8, ,-23, ,
-10, ,-22, ,
-11, ,-22, ,
-13, ,-22, ,
-14, ,-22, ,
-18, ,-23, ,
-20, ,-23, ,
-22, ,-23, ,
-25, ,-22, ,
-29, ,-22, ,
-32, ,-22, ,
-35, ,-23, ,
-36, ,-23, ,
-37, ,-23, ,
-37, ,-23, ,
-36, ,-23, ,
-35, ,-23, ,
-30, ,-22, ,
-27, ,-23, ,
-25, ,-23, ,
-23, ,-22, ,
-19, ,-23, ,
-17, ,-23, ,
-16, ,-23, ,
-17, ,-23, ,
-18, ,-22, ,
-19, ,-22, ,
-21, ,-23, ,
-23, ,-23, ,
-27, ,-23, ,
-29, ,-23, ,
-31, ,-23, ,
-33, ,-23, ,
-34, ,-23, ,
-34, ,-23, ,
-33, ,-23, ,
-32, ,-22, ,
-29, ,-23, ,
-27, ,-23, ,
-25, ,-23, ,
-23, ,-23, ,
-18, ,-23, ,
-16, ,-23, ,
-14, ,-23, ,
-13, ,-23, ,
-8, ,-23, ,
-7, ,-23, ,
-6, ,-22, ,
-4, ,-22, ,
-1, ,-22, ,
1, ,-22, ,
4, ,-23, ,
6, ,-23, ,
11, ,-23, ,
13, ,-22, ,
16, ,-22, ,
18, ,-23, ,
22, ,-23, ,
23, ,-23, ,
23, ,-23, ,
25, ,-23, ,
24, ,-23, ,
24, ,-23, ,
24, ,-23, ,
22, ,-23, ,
20, ,-22, ,
18, ,-22, ,
16, ,-23, ,
15, ,-23, ,
10, ,-23, ,
8, ,-23, ,
6, ,-22, ,
4, ,-23, ,
0, ,-23, ,
0, ,-23, ,
-2, ,-23, ,
-2, ,-23, ,
-3, ,-23, ,
-3, ,-23, ,
-3, ,-23, ,
-2, ,-23, ,
-1, ,-22, ,
0, ,-22, ,
0, ,-23, ,
1, ,-23, ,
1, ,-23, ,
2, ,-22, ,
2, ,-23, ,
2, ,-23, ,
3, ,-23, ,
3, ,-23, ,
3, ,-23, ,
3, ,-23, ,
2, ,-23, ,
1, ,-23, ,
1, ,-23, ,
0, ,-23, ,
-2, ,-23, ,
-3, ,-23, ,
-4, ,-23, ,
-4, ,-22, ,
-6, ,-23, ,
-8, ,-23, ,
-8, ,-23, ,
-9, ,-23, ,
-12, ,-23, ,
-12, ,-23, ,
-14, ,-23, ,
-15, ,-23, ,
-17, ,-23, ,
-18, ,-23, ,
-18, ,-23, ,
-18, ,-23, ,
-18, ,-23, ,
-18, ,-23, ,
-17, ,-23, ,
-16, ,-22, ,
-13, ,-23, ,
-13, ,-23, ,
-11, ,-22, ,
-11, ,-23, ,
-9, ,-23, ,
-9, ,-23, ,
-10, ,-23, ,
-10, ,-23, ,
-12, ,-23, ,
-14, ,-23, ,
-15, ,-23, ,
-17, ,-23, ,
-20, ,-23, ,
-22, ,-23, ,
-23, ,-23, ,
-24, ,-23, ,
-26, ,-23, ,
-27, ,-23, ,
-27, ,-23, ,
-28, ,-23, ,
-27, ,-23, ,
-26, ,-23, ,
-25, ,-23, ,
-25, ,-23, ,
-21, ,-23, ,
-19, ,-23, ,
-17, ,-22, ,
-13, ,-23, ,
-7, ,-23, ,
-4, ,-23, ,
-2, ,-22, ,
2, ,-22, ,
6, ,-23, ,
8, ,-23, ,
11, ,-23, ,
11, ,-23, ,
12, ,-23, ,
12, ,-23, ,
12, ,-23, ,
12, ,-23, ,
11, ,-23, ,
10, ,-23, ,
10, ,-23, ,
9, ,-23, ,
8, ,-22, ,
8, ,-22, ,
7, ,-23, ,
7, ,-23, ,
5, ,-22, ,
4, ,-23, ,
3, ,-23, ,
1, ,-23, ,
-3, ,-23, ,
-4, ,-23, ,
-7, ,-23, ,
-8, ,-22, ,
-12, ,-23, ,
-14, ,-23, ,
-15, ,-23, ,
-17, ,-23, ,
-19, ,-23, ,
-20, ,-23, ,
-20, ,-23, ,
-20, ,-22, ,
-20, ,-23, ,
-20, ,-23, ,
-18, ,-23, ,
-18, ,-22, ,
-16, ,-22, ,
-13, ,-23, ,
-12, ,-23, ,
-10, ,-23, ,
-6, ,-23, ,
-5, ,-23, ,
-3, ,-22, ,
-1, ,-23, ,
2, ,-23, ,
3, ,-23, ,
4, ,-23, ,
4, ,-22, ,
5, ,-23, ,
6, ,-23, ,
6, ,-22, ,
6, ,-23, ,
6, ,-23, ,
6, ,-23, ,
5, ,-23, ,
6, ,-23, ,
7, ,-23, ,
7, ,-23, ,
7, ,-23, ,
7, ,-23, ,
8, ,-23, ,
8, ,-23, ,
9, ,-23, ,
9, ,-23, ,
10, ,-23, ,
10, ,-23, ,
11, ,-22, ,
11, ,-22, ,
12, ,-23, ,
12, ,-23, ,
12, ,-23, ,
12, ,-23, ,
11, ,-23, ,
11, ,-23, ,
11, ,-22, ,
10, ,-23, ,
8, ,-23, ,
8, ,-23, ,
7, ,-23, ,
6, ,-23, ,
3, ,-23, ,
1, ,-23, ,
0, ,-23, ,
-3, ,-23, ,
-7, ,-23, ,
-8, ,-23, ,
-11, ,-23, ,
-13, ,-23, ,
-16, ,-23, ,
-18, ,-22, ,
-19, ,-23, ,
-20, ,-23, ,
-22, ,-23, ,
-23, ,-23, ,
-24, ,-23, ,
-24, ,-22, ,
-23, ,-22, ,
-23, ,-22, ,
-23, ,-23, ,
-23, ,-23, ,
-22, ,-23, ,
-22, ,-23, ,
-22, ,-23, ,
-21, ,-23, ,
-21, ,-23, ,
-22, ,-23, ,
-22, ,-23, ,
-23, ,-23, ,
-24, ,-23, ,
-25, ,-22, ,
-25, ,-23, ,
-26, ,-23, ,
-28, ,-23, ,
-29, ,-22, ,
-30, ,-23, ,
-32, ,-23, ,
-33, ,-22, ,
-33, ,-23, ,
-33, ,-23, ,
-33, ,-23, ,
-31, ,-22, ,
-30, ,-22, ,
-28, ,-23, ,
-26, ,-23, ,
-23, ,-23, ,
-20, ,-23, ,
-17, ,-22, ,
-13, ,-22, ,
-7, ,-22, ,
-3, ,-22, ,
1, ,-22, ,
2, ,-23, ,
9, ,-23, ,
11, ,-23, ,
13, ,-23, ,
15, ,-23, ,
18, ,-23, ,
18, ,-23, ,
18, ,-23, ,
19, ,-23, ,
18, ,-23, ,
17, ,-23, ,
16, ,-23, ,
16, ,-23, ,
14, ,-23, ,
13, ,-23, ,
12, ,-23, ,
11, ,-23, ,
9, ,-23, ,
8, ,-23, ,
5, ,-23, ,
5, ,-23, ,
3, ,-23, ,
1, ,-23, ,
1, ,-23, ,
-1, ,-23, ,
-2, ,-22, ,
-2, ,-23, ,
-2, ,-23, ,
-1, ,-23, ,
0, ,-23, ,
0, ,-23, ,
1, ,-22, ,
2, ,-23, ,
4, ,-23, ,
5, ,-23, ,
6, ,-23, ,
6, ,-23, ,
7, ,-23, ,
6, ,-23, ,
6, ,-23, ,
5, ,-23, ,
3, ,-22, ,
2, ,-23, ,
0, ,-23, ,
-1, ,-23, ,
-4, ,-23, ,
-6, ,-23, ,
-7, ,-23, ,
-9, ,-23, ,
-10, ,-23, ,
-11, ,-23, ,
-12, ,-23, ,
-12, ,-23, ,
-10, ,-23, ,
-10, ,-23, ,
-10, ,-23, ,
-8, ,-23, ,
-7, ,-23, ,
-4, ,-23, ,
-3, ,-23, ,
-2, ,-23, ,
1, ,-23, ,
2, ,-23, ,
3, ,-23, ,
4, ,-23, ,
6, ,-23, ,
7, ,-23, ,
7, ,-23, ,
8, ,-23, ,
8, ,-23, ,
8, ,-23, ,
8, ,-23, ,
7, ,-23, ,
5, ,-22, ,
5, ,-23, ,
4, ,-23, ,
3, ,-23, ,
0, ,-23, ,
-2, ,-23, ,
-4, ,-23, ,
-6, ,-23, ,
-9, ,-23, ,
-10, ,-23, ,
-13, ,-23, ,
-14, ,-23, ,
-17, ,-23, ,
-19, ,-22, ,
-20, ,-22, ,
-21, ,-22, ,
-22, ,-22, ,
-22, ,-22, ,
-22, ,-22, ,
-22, ,-22, ,
-22, ,-23, ,
-21, ,-23, ,
-21, ,-23, ,
-21, ,-23, ,
-20, ,-23, ,
-19, ,-23, ,
-19, ,-23, ,
-19, ,-23, ,
-19, ,-23, ,
-19, ,-23, ,
-19, ,-23, ,
-19, ,-23, ,
-19, ,-23, ,
-18, ,-23, ,
-18, ,-23, ,
-18, ,-23, ,
-17, ,-23, ,
-17, ,-23, ,
-15, ,-23, ,
-15, ,-23, ,
-13, ,-23, ,
-11, ,-23, ,
-10, ,-23, ,
-8, ,-23, ,
-5, ,-23, ,
-4, ,-22, ,
-2, ,-23, ,
-1, ,-23, ,
1, ,-22, ,
2, ,-23, ,
3, ,-23, ,
4, ,-23, ,
5, ,-23, ,
5, ,-23, ,
5, ,-23, ,
4, ,-23, ,
4, ,-23, ,
4, ,-23, ,
3, ,-23, ,
3, ,-23, ,
3, ,-23, ,
2, ,-23, ,
2, ,-22, ,
2, ,-22, ,
2, ,-22, ,
2, ,-22, ,
2, ,-23, ,
2, ,-23, ,
2, ,-23, ,
3, ,-23, ,
3, ,-23, ,
3, ,-23, ,
3, ,-23, ,
4, ,-22, ,
4, ,-23, ,
4, ,-23, ,
5, ,-23, ,
5, ,-23, ,
5, ,-23, ,
5, ,-23, ,
4, ,-23, ,
4, ,-23, ,
4, ,-23, ,
4, ,-22, ,
2, ,-22, ,
2, ,-23, ,
2, ,-23, ,
1, ,-23, ,
0, ,-23, ,
-1, ,-23, ,
-2, ,-22, ,
-3, ,-22, ,
-5, ,-22, ,
-7, ,-22, ,
-8, ,-23, ,
-9, ,-23, ,
-11, ,-22, ,
-13, ,-23, ,
-14, ,-23, ,
-14, ,-23, ,
-16, ,-23, ,
-17, ,-23, ,
-17, ,-23, ,
-17, ,-23, ,
-17, ,-23, ,
-16, ,-23, ,
-16, ,-23, ,
-15, ,-23, ,
-13, ,-23, ,
-12, ,-22, ,
-10, ,-22, ,
-8, ,-22, ,
-5, ,-22, ,
-3, ,-23, ,
-1, ,-23, ,
1, ,-22, ,
5, ,-23, ,
7, ,-23, ,
8, ,-23, ,
9, ,-23, ,
12, ,-23, ,
13, ,-23, ,
13, ,-23, ,
13, ,-23, ,
12, ,-23, ,
11, ,-23, ,
11, ,-22, ,
10, ,-22, ,
8, ,-22, ,
7, ,-22, ,
5, ,-23, ,
4, ,-23, ,
1, ,-23, ,
-1, ,-23, ,
-2, ,-22, ,
-4, ,-23, ,
-6, ,-23, ,
-6, ,-23, ,
-8, ,-22, ,
-9, ,-22, ,
-9, ,-22, ,
-9, ,-22, ,
-9, ,-23, ,
-9, ,-23, ,
-8, ,-23, ,
-8, ,-23, ,
-7, ,-23, ,
-4, ,-23, ,
-2, ,-23, ,
0, ,-23, ,
1, ,-22, ,
3, ,-23, ,
6, ,-23, ,
8, ,-23, ,
9, ,-22, ,
10, ,-23, ,
10, ,-23, ,
10, ,-23, ,
10, ,-23, ,
9, ,-23, ,
6, ,-23, ,
5, ,-23, ,
4, ,-23, ,
2, ,-23, ,
-1, ,-23, ,
-2, ,-23, ,
-3, ,-23, ,
-5, ,-23, ,
-7, ,-23, ,
-7, ,-23, ,
-7, ,-23, ,
-7, ,-23, ,
-6, ,-23, ,
-6, ,-23, ,
-5, ,-23, ,
-5, ,-23, ,
-4, ,-23, ,
-3, ,-23, ,
-2, ,-23, ,
-1, ,-23, ,
-1, ,-23, ,
-1, ,-23, ,
-1, ,-23, ,
-1, ,-23, ,
-1, ,-23, ,
-2, ,-23, ,
-3, ,-22, ,
-3, ,-22, ,
-5, ,-22, ,
-6, ,-22, ,
-6, ,-23, ,
-8, ,-23, ,
-9, ,-23, ,
-10, ,-23, ,
-11, ,-23, ,
-12, ,-22, ,
-14, ,-23, ,
-15, ,-23, ,
-15, ,-23, ,
-15, ,-23, ,
-15, ,-23, ,
-13, ,-23, ,
-13, ,-23, ,
-12, ,-23, ,
-9, ,-23, ,
-7, ,-23, ,
-4, ,-23, ,
-2, ,-23, ,
4, ,-23, ,
6, ,-23, ,
9, ,-23, ,
12, ,-22, ,
16, ,-23, ,
19, ,-23, ,
20, ,-22, ,
21, ,-23, ,
21, ,-23, ,
20, ,-23, ,
19, ,-23, ,
18, ,-23, ,
15, ,-23, ,
12, ,-23, ,
10, ,-23, ,
7, ,-23, ,
1, ,-23, ,
-2, ,-23, ,
-4, ,-23, ,
-6, ,-23, ,
-11, ,-23, ,
-13, ,-23, ,
-14, ,-23, ,
-15, ,-23, ,
-16, ,-23, ,
-15, ,-23, ,
-16, ,-23, ,
-14, ,-22, ,
-13, ,-22, ,
-11, ,-22, ,
-10, ,-22, ,
-8, ,-22, ,
-4, ,-22, ,
-2, ,-23, ,
0, ,-23, ,
2, ,-23, ,
6, ,-23, ,
7, ,-23, ,
9, ,-23, ,
10, ,-22, ,
10, ,-22, ,
10, ,-22, ,
10, ,-22, ,
10, ,-23, ,
8, ,-23, ,
6, ,-23, ,
5, ,-22, ,
3, ,-22, ,
-1, ,-22, ,
-2, ,-23, ,
-4, ,-23, ,
-5, ,-23, ,
-9, ,-23, ,
-10, ,-23, ,
-11, ,-23, ,
-13, ,-23, ,
-13, ,-23, ,
-12, ,-23, ,
-12, ,-23, ,
-12, ,-23, ,
-10, ,-23, ,
-9, ,-23, ,
-7, ,-22, ,
-6, ,-23, ,
-3, ,-23, ,
-2, ,-23, ,
0, ,-23, ,
1, ,-23, ,
3, ,-23, ,
3, ,-23, ,
3, ,-23, ,
3, ,-23, ,
2, ,-23, ,
1, ,-23, ,
0, ,-23, ,
0, ,-22, ,
-3, ,-23, ,
-4, ,-23, ,
-5, ,-23, ,
-6, ,-23, ,
-7, ,-22, ,
-7, ,-23, ,
-7, ,-23, ,
-7, ,-23, ,
-5, ,-23, ,
-5, ,-23, ,
-3, ,-23, ,
-2, ,-23, ,
1, ,-23, ,
4, ,-23, ,
4, ,-23, ,
6, ,-23, ,
10, ,-23, ,
11, ,-22, ,
12, ,-22, ,
13, ,-23, ,
14, ,-23, ,
13, ,-23, ,
13, ,-23, ,
12, ,-23, ,
10, ,-23, ,
9, ,-23, ,
8, ,-22, ,
5, ,-23, ,
3, ,-23, ,
1, ,-23, ,
-1, ,-22, ,
-2, ,-22, ,
-4, ,-23, ,
-5, ,-23, ,
-6, ,-23, ,
-7, ,-23, ,
-8, ,-22, ,
-8, ,-23, ,
-8, ,-23, ,
-8, ,-23, ,
-8, ,-23, ,
-8, ,-23, ,
-7, ,-22, ,
-7, ,-22, ,
-6, ,-22, ,
-6, ,-23, ,
-6, ,-23, ,
-5, ,-23, ,
-6, ,-23, ,
-6, ,-23, ,
-6, ,-23, ,
-7, ,-23, ,
-8, ,-23, ,
-9, ,-23, ,
-11, ,-23, ,
-12, ,-23, ,
-14, ,-23, ,
-15, ,-23, ,
-16, ,-22, ,
-17, ,-23, ,
-17, ,-23, ,
-17, ,-23, ,
-17, ,-22, ,
-16, ,-23, ,
-14, ,-23, ,
-13, ,-23, ,
-12, ,-23, ,
-10, ,-23, ,
-6, ,-22, ,
-3, ,-22, ,
-1, ,-23, ,
1, ,-23, ,
5, ,-23, ,
7, ,-23, ,
9, ,-23, ,
10, ,-23, ,
13, ,-23, ,
13, ,-23, ,
13, ,-23, ,
13, ,-23, ,
12, ,-23, ,
11, ,-22, ,
10, ,-22, ,
9, ,-23, ,
7, ,-23, ,
6, ,-23, ,
5, ,-23, ,
3, ,-23, ,
1, ,-23, ,
0, ,-23, ,
0, ,-22, ,
-1, ,-23, ,
-3, ,-23, ,
-3, ,-23, ,
-4, ,-23, ,
-4, ,-23, ,
-5, ,-23, ,
-6, ,-23, ,
-6, ,-23, ,
-6, ,-23, ,
-6, ,-23, ,
-6, ,-23, ,
-7, ,-23, ,
-7, ,-22, ,
-6, ,-23, ,
-6, ,-23, ,
-5, ,-23, ,
-5, ,-23, ,
-5, ,-23, ,
-4, ,-23, ,
-4, ,-22, ,
-3, ,-23, ,
-3, ,-23, ,
-4, ,-23, ,
-4, ,-23, ,
-4, ,-23, ,
-5, ,-23, ,
-5, ,-23, ,
-6, ,-23, ,
-6, ,-23, ,
-7, ,-23, ,
-8, ,-22, ,
-8, ,-22, ,
-8, ,-23, ,
-8, ,-23, ,
-8, ,-23, ,
-8, ,-23, ,
-7, ,-23, ,
-6, ,-23, ,
-5, ,-23, ,
-5, ,-23, ,
-4, ,-23, ,
-1, ,-23, ,
0, ,-23, ,
1, ,-23, ,
2, ,-22, ,
4, ,-23, ,
4, ,-23, ,
5, ,-22, ,
5, ,-23, ,
7, ,-23, ,
7, ,-23, ,
7, ,-23, ,
8, ,-23, ,
8, ,-23, ,
8, ,-23, ,
8, ,-23, ,
8, ,-23, ,
8, ,-23, ,
7, ,-23, ,
8, ,-22, ,
8, ,-22, ,
7, ,-23, ,
7, ,-23, ,
7, ,-22, ,
6, ,-23, ,
5, ,-23, ,
5, ,-23, ,
4, ,-23, ,
3, ,-22, ,
2, ,-22, ,
0, ,-22, ,
0, ,-23, ,
-1, ,-23, ,
-4, ,-23, ,
-4, ,-23, ,
-5, ,-23, ,
-5, ,-23, ,
-6, ,-23, ,
-7, ,-22, ,
-7, ,-23, ,
-7, ,-23, ,
-6, ,-23, ,
-5, ,-23, ,
-5, ,-23, ,
-4, ,-23, ,
-2, ,-23, ,
-2, ,-23, ,
-1, ,-22, ,
0, ,-22, ,
1, ,-22, ,
3, ,-23, ,
4, ,-23, ,
4, ,-22, ,
5, ,-22, ,
5, ,-22, ,
6, ,-22, ,
6, ,-22, ,
5, ,-22, ,
5, ,-22, ,
5, ,-23, ,
4, ,-23, ,
3, ,-23, ,
2, ,-23, ,
2, ,-23, ,
2, ,-23, ,
0, ,-22, ,
0, ,-23, ,
-1, ,-23, ,
-1, ,-22, ,
-3, ,-23, ,
-3, ,-23, ,
-4, ,-22, ,
-4, ,-23, ,
-6, ,-23, ,
-6, ,-23, ,
-7, ,-23, ,
-7, ,-23, ,
-8, ,-23, ,
-8, ,-23, ,
-7, ,-23, ,
-7, ,-23, ,
-6, ,-23, ,
-5, ,-23, ,
-5, ,-22, ,
-3, ,-22, ,
-2, ,-22, ,
-1, ,-22, ,
1, ,-22, ,
1, ,-23, ,
3, ,-23, ,
3, ,-23, ,
3, ,-23, ,
3, ,-23, ,
3, ,-23, ,
2, ,-22, ,
2, ,-23, ,
1, ,-23, ,
0, ,-23, ,
0, ,-23, ,
-1, ,-22, ,
-1, ,-22, ,
-2, ,-23, ,
-2, ,-23, ,
-2, ,-23, ,
-1, ,-23, ,
0, ,-23, ,
0, ,-23, ,
1, ,-23, ,
1, ,-23, ,
4, ,-23, ,
4, ,-22, ,
4, ,-23, ,
5, ,-23, ,
5, ,-23, ,
6, ,-23, ,
5, ,-22, ,
5, ,-22, ,
4, ,-23, ,
3, ,-23, ,
2, ,-23, ,
1, ,-23, ,
0, ,-22, ,
-1, ,-23, ,
-2, ,-23, ,
-2, ,-23, ,
-3, ,-23, ,
-4, ,-23, ,
-4, ,-23, ,
-4, ,-23, ,
-4, ,-22, ,
-4, ,-23, ,
-4, ,-23, ,
-3, ,-22, ,
-3, ,-23, ,
-3, ,-23, ,
-2, ,-23, ,
-2, ,-23, ,
-1, ,-23, ,
0, ,-23, ,
0, ,-23, ,
0, ,-23, ,
1, ,-23, ,
2, ,-23, ,
2, ,-23, ,
2, ,-23, ,
3, ,-22, ,
3, ,-23, ,
3, ,-23, ,
4, ,-22, ,
4, ,-23, ,
3, ,-23, ,
3, ,-22, ,
3, ,-23, ,
2, ,-23, ,
1, ,-23, ,
1, ,-22, ,
1, ,-22, ,
0, ,-22, ,
-1, ,-22, ,
-1, ,-23, ,
-2, ,-23, ,
-2, ,-23, ,
-2, ,-23, ,
-3, ,-23, ,
-3, ,-23, ,
-3, ,-22, ,
-4, ,-23, ,
-4, ,-23, ,
-4, ,-23, ,
-4, ,-23, ,
-4, ,-23, ,
-4, ,-23, ,
-4, ,-23, ,
-4, ,-23, ,
-5, ,-23, ,
-5, ,-23, ,
-5, ,-23, ,
-5, ,-22, ,
-5, ,-22, ,
-5, ,-22, ,
-4, ,-22, ,
-4, ,-23, ,
-4, ,-23, ,
-2, ,-22, ,
-3, ,-23, ,
-1, ,-23, ,
0, ,-23, ,
1, ,-23, ,
2, ,-23, ,
4, ,-23, ,
4, ,-23, ,
5, ,-22, ,
6, ,-22, ,
6, ,-22, ,
6, ,-23, ,
6, ,-23, ,
6, ,-23, ,
5, ,-23, ,
5, ,-23, ,
4, ,-22, ,
4, ,-22, ,
3, ,-22, ,
2, ,-22, ,
2, ,-22, ,
2, ,-23, ,
1, ,-23, ,
1, ,-23, ,
1, ,-23, ,
1, ,-23, ,
1, ,-23, ,
2, ,-23, ,
2, ,-23, ,
2, ,-23, ,
3, ,-23, ,
3, ,-23, ,
4, ,-22, ,
4, ,-23, ,
5, ,-23, ,
5, ,-23, ,
5, ,-23, ,
5, ,-23, ,
4, ,-23, ,
4, ,-23, ,
4, ,-23, ,
4, ,-23, ,
2, ,-23, ,
2, ,-23, ,
1, ,-23, ,
1, ,-23, ,
0, ,-23, ,
-1, ,-23, ,
-1, ,-22, ,
-2, ,-22, ,
-3, ,-23, ,
-4, ,-23, ,
-4, ,-23, ,
-4, ,-23, ,
-5, ,-23, ,
-5, ,-22, ,
-5, ,-22, ,
-5, ,-22, ,
-5, ,-22, ,
-5, ,-23, ,
-5, ,-23, ,
-5, ,-22, ,
-5, ,-23, ,
-5, ,-23, ,
-4, ,-23, ,
-4, ,-23, ,
-3, ,-23, ,
-3, ,-23, ,
-3, ,-23, ,
-2, ,-23, ,
0, ,-23, ,
0, ,-22, ,
1, ,-23, ,
2, ,-23, ,
2, ,-23, ,
4, ,-22, ,
5, ,-22, ,
6, ,-22, ,
7, ,-23, ,
7, ,-23, ,
7, ,-23, ,
7, ,-22, ,
6, ,-22, ,
6, ,-22, ,
5, ,-23, ,
5, ,-23, ,
4, ,-23, ,
3, ,-23, ,
1, ,-22, ,
1, ,-23, ,
-1, ,-23, ,
-2, ,-23, ,
-3, ,-22, ,
-3, ,-22, ,
-3, ,-23, ,
-4, ,-23, ,
-4, ,-23, ,
-4, ,-23, ,
-2, ,-23, ,
-2, ,-23, ,
-1, ,-22, ,
0, ,-22, ,
2, ,-22, ,
3, ,-23, ,
4, ,-23, ,
5, ,-23, ,
7, ,-23, ,
8, ,-23, ,
8, ,-23, ,
8, ,-23, ,
8, ,-23, ,
7, ,-23, ,
7, ,-22, ,
6, ,-22, ,
5, ,-22, ,
4, ,-22, ,
2, ,-23, ,
1, ,-23, ,
-2, ,-23, ,
-3, ,-23, ,
-4, ,-22, ,
-6, ,-23, ,
-8, ,-23, ,
-9, ,-23, ,
-10, ,-23, ,
-10, ,-23, ,
-11, ,-23, ,
-11, ,-23, ,
-11, ,-23, ,
-11, ,-23, ,
-10, ,-23, ,
-9, ,-23, ,
-8, ,-22, ,
-7, ,-22, ,
-4, ,-23, ,
-4, ,-23, ,
-2, ,-23, ,
-1, ,-23, ,
2, ,-23, ,
