raw_data/75% Glycerol, Impulsion 2Hz, Sonde 5MHz, Rampe 0.7Hz/temp0000026.CSV

Format,1.0B,
Memory Length,10000,Memory Length,10000,
IntpDistance,0,IntpDistance,0,
Trigger Address,159,Trigger Address,159,
Trigger Level,2.720E-01,Trigger Level,2.720E-01,
Source,CH1,Source,CH2,
Vertical Units,V,Vertical Units,V,
Vertical Units Div,0,Vertical Units Div,0,
Vertical Units Extend Div,16,Vertical Units Extend Div,16,
Label,,Label,,
Probe Type,0,Probe Type,0,
Probe Ratio,1.000e+00,Probe Ratio,1.000e+00,
Vertical Scale,5.000e-01,Vertical Scale,2.000e+00,
Vertical Position,0.000e+00,Vertical Position,0.000e+00,
Horizontal Units,S,Horizontal Units,S,
Horizontal Scale,5.000E-06,Horizontal Scale,5.000E-06,
Horizontal Position,2.420E-05,Horizontal Position,2.420E-05,
Horizontal Mode,Main,Horizontal Mode,Main,
SincET Mode,Real Time,SincET Mode,Real Time,
Sampling Period,5.000e-09,Sampling Period,5.000e-09,
Horizontal Old Scale,5.000E-06,Horizontal Old Scale,5.000E-06,
Horizontal Old Position,2.420E-05,Horizontal Old Position,2.420E-05,
Firmware,V1.32,Firmware,V1.32,
Mode,Fast,Mode,Fast,
Waveform Data,,Waveform Data,,
1, ,37, ,
1, ,37, ,
1, ,37, ,
1, ,37, ,
1, ,37, ,
1, ,37, ,
1, ,37, ,
1, ,37, ,
0, ,37, ,
0, ,37, ,
1, ,37, ,
1, ,37, ,
1, ,37, ,
1, ,37, ,
1, ,37, ,
1, ,37, ,
1, ,37, ,
1, ,37, ,
1, ,37, ,
1, ,37, ,
1, ,37, ,
1, ,37, ,
1, ,37, ,
1, ,37, ,
1, ,37, ,
1, ,37, ,
1, ,37, ,
1, ,37, ,
1, ,37, ,
1, ,37, ,
1, ,37, ,
1, ,37, ,
1, ,37, ,
1, ,37, ,
1, ,37, ,
1, ,37, ,
0, ,37, ,
1, ,37, ,
0, ,37, ,
1, ,37, ,
1, ,37, ,
1, ,37, ,
1, ,37, ,
1, ,37, ,
1, ,37, ,
1, ,37, ,
1, ,37, ,
1, ,37, ,
1, ,37, ,
1, ,37, ,
1, ,37, ,
1, ,37, ,
1, ,37, ,
1, ,37, ,
0, ,37, ,
0, ,37, ,
1, ,37, ,
0, ,37, ,
0, ,37, ,
0, ,37, ,
1, ,37, ,
1, ,37, ,
1, ,37, ,
1, ,37, ,
1, ,37, ,
1, ,37, ,
1, ,37, ,
0, ,37, ,
0, ,37, ,
1, ,37, ,
0, ,37, ,
0, ,37, ,
1, ,37, ,
1, ,37, ,
1, ,37, ,
1, ,37, ,
1, ,37, ,
1, ,37, ,
1, ,37, ,
1, ,37, ,
1, ,37, ,
1, ,37, ,
1, ,37, ,
0, ,37, ,
0, ,37, ,
1, ,37, ,
1, ,37, ,
1, ,37, ,
1, ,37, ,
0, ,37, ,
0, ,37, ,
0, ,37, ,
1, ,37, ,
1, ,37, ,
1, ,37, ,
1, ,37, ,
1, ,37, ,
1, ,37, ,
0, ,37, ,
0, ,37, ,
1, ,37, ,
1, ,37, ,
1, ,37, ,
1, ,37, ,
0, ,37, ,
0, ,37, ,
1, ,37, ,
1, ,37, ,
1, ,37, ,
1, ,37, ,
1, ,37, ,
1, ,37, ,
1, ,37, ,
1, ,37, ,
1, ,37, ,
1, ,37, ,
1, ,37, ,
1, ,37, ,
1, ,37, ,
1, ,37, ,
1, ,37, ,
1, ,37, ,
1, ,37, ,
1, ,37, ,
1, ,37, ,
1, ,37, ,
1, ,37, ,
1, ,37, ,
1, ,37, ,
0, ,37, ,
0, ,37, ,
0, ,37, ,
1, ,37, ,
1, ,37, ,
1, ,37, ,
1, ,37, ,
1, ,37, ,
1, ,37, ,
1, ,37, ,
1, ,37, ,
1, ,37, ,
1, ,37, ,
0, ,37, ,
0, ,37, ,
1, ,37, ,
1, ,37, ,
1, ,37, ,
1, ,37, ,
0, ,37, ,
0, ,37, ,
0, ,37, ,
1, ,37, ,
1, ,37, ,
1, ,37, ,
1, ,37, ,
1, ,37, ,
1, ,37, ,
1, ,37, ,
1, ,37, ,
1, ,37, ,
1, ,37, ,
1, ,37, ,
1, ,37, ,
1, ,37, ,
-1, ,37, ,
-1, ,37, ,
-1, ,37, ,
0, ,37, ,
33, ,37, ,
69, ,37, ,
110, ,37, ,
124, ,37, ,
117, ,37, ,
66, ,37, ,
9, ,37, ,
-5, ,37, ,
86, ,37, ,
125, ,37, ,
125, ,37, ,
125, ,37, ,
125, ,37, ,
125, ,37, ,
125, ,37, ,
125, ,37, ,
124, ,37, ,
117, ,37, ,
112, ,37, ,
108, ,37, ,
101, ,37, ,
99, ,37, ,
95, ,37, ,
92, ,37, ,
85, ,37, ,
81, ,37, ,
78, ,37, ,
75, ,37, ,
70, ,37, ,
68, ,37, ,
64, ,37, ,
62, ,37, ,
57, ,37, ,
55, ,37, ,
52, ,37, ,
50, ,37, ,
46, ,37, ,
44, ,37, ,
42, ,37, ,
41, ,37, ,
37, ,37, ,
36, ,37, ,
34, ,37, ,
32, ,37, ,
29, ,37, ,
28, ,37, ,
26, ,37, ,
25, ,37, ,
24, ,37, ,
23, ,37, ,
22, ,37, ,
20, ,37, ,
19, ,37, ,
18, ,37, ,
17, ,37, ,
16, ,37, ,
15, ,37, ,
14, ,37, ,
13, ,37, ,
12, ,37, ,
11, ,37, ,
11, ,37, ,
10, ,37, ,
10, ,37, ,
9, ,37, ,
8, ,37, ,
8, ,37, ,
7, ,37, ,
6, ,37, ,
6, ,37, ,
5, ,37, ,
5, ,37, ,
4, ,37, ,
4, ,37, ,
4, ,37, ,
3, ,37, ,
3, ,37, ,
3, ,37, ,
3, ,37, ,
3, ,37, ,
2, ,37, ,
2, ,37, ,
2, ,37, ,
1, ,37, ,
1, ,37, ,
1, ,37, ,
1, ,37, ,
1, ,37, ,
1, ,37, ,
1, ,37, ,
0, ,37, ,
0, ,37, ,
0, ,37, ,
0, ,37, ,
0, ,37, ,
0, ,37, ,
0, ,37, ,
-1, ,37, ,
-1, ,37, ,
-1, ,37, ,
-1, ,37, ,
-1, ,37, ,
-1, ,37, ,
-1, ,37, ,
-1, ,37, ,
-1, ,37, ,
-1, ,37, ,
-1, ,37, ,
-1, ,37, ,
-1, ,37, ,
-1, ,37, ,
-1, ,37, ,
-1, ,37, ,
-1, ,37, ,
-1, ,37, ,
-1, ,37, ,
-1, ,37, ,
-1, ,37, ,
-1, ,37, ,
-1, ,37, ,
-1, ,37, ,
-1, ,37, ,
-1, ,37, ,
-1, ,37, ,
-1, ,37, ,
-1, ,37, ,
-1, ,37, ,
-1, ,37, ,
-1, ,37, ,
-1, ,37, ,
-1, ,37, ,
-1, ,37, ,
-1, ,37, ,
-1, ,37, ,
-1, ,37, ,
-1, ,37, ,
0, ,37, ,
-1, ,37, ,
-1, ,37, ,
-1, ,37, ,
-1, ,37, ,
-1, ,37, ,
-1, ,37, ,
-1, ,37, ,
-1, ,37, ,
-1, ,37, ,
-1, ,37, ,
-1, ,37, ,
-1, ,37, ,
-1, ,37, ,
-1, ,37, ,
0, ,37, ,
0, ,37, ,
-1, ,37, ,
0, ,37, ,
0, ,37, ,
-1, ,37, ,
-1, ,37, ,
-1, ,37, ,
0, ,37, ,
0, ,37, ,
0, ,37, ,
0, ,37, ,
0, ,37, ,
0, ,37, ,
0, ,37, ,
0, ,37, ,
0, ,37, ,
0, ,37, ,
0, ,37, ,
0, ,37, ,
0, ,37, ,
0, ,37, ,
0, ,37, ,
0, ,37, ,
0, ,37, ,
0, ,37, ,
0, ,37, ,
0, ,37, ,
0, ,37, ,
0, ,37, ,
0, ,37, ,
0, ,37, ,
0, ,37, ,
0, ,37, ,
0, ,37, ,
0, ,37, ,
0, ,37, ,
0, ,37, ,
0, ,37, ,
0, ,37, ,
0, ,37, ,
1, ,37, ,
0, ,37, ,
0, ,37, ,
0, ,37, ,
0, ,37, ,
0, ,37, ,
0, ,37, ,
0, ,37, ,
0, ,37, ,
0, ,37, ,
0, ,37, ,
0, ,37, ,
0, ,37, ,
0, ,37, ,
0, ,37, ,
1, ,37, ,
0, ,37, ,
0, ,37, ,
1, ,37, ,
0, ,37, ,
0, ,37, ,
1, ,37, ,
0, ,37, ,
0, ,37, ,
1, ,37, ,
1, ,37, ,
1, ,37, ,
0, ,37, ,
0, ,37, ,
1, ,37, ,
1, ,37, ,
1, ,37, ,
0, ,37, ,
0, ,37, ,
0, ,37, ,
0, ,37, ,
0, ,37, ,
0, ,37, ,
0, ,37, ,
1, ,37, ,
1, ,37, ,
0, ,37, ,
0, ,37, ,
0, ,37, ,
1, ,37, ,
1, ,37, ,
1, ,37, ,
1, ,37, ,
0, ,37, ,
0, ,37, ,
0, ,37, ,
0, ,37, ,
1, ,37, ,
1, ,37, ,
1, ,37, ,
1, ,37, ,
1, ,37, ,
1, ,37, ,
1, ,37, ,
1, ,37, ,
0, ,37, ,
0, ,37, ,
0, ,37, ,
1, ,37, ,
1, ,37, ,
0, ,37, ,
0, ,37, ,
0, ,37, ,
0, ,37, ,
0, ,37, ,
0, ,37, ,
0, ,37, ,
0, ,37, ,
0, ,37, ,
0, ,37, ,
-1, ,37, ,
-1, ,37, ,
-1, ,37, ,
-2, ,37, ,
-2, ,37, ,
-4, ,37, ,
-7, ,37, ,
-9, ,37, ,
-11, ,37, ,
-15, ,37, ,
-16, ,37, ,
-16, ,37, ,
-14, ,37, ,
-9, ,37, ,
-6, ,37, ,
-4, ,37, ,
-3, ,37, ,
0, ,37, ,
1, ,37, ,
2, ,37, ,
3, ,37, ,
4, ,37, ,
4, ,37, ,
4, ,37, ,
4, ,37, ,
4, ,37, ,
4, ,37, ,
4, ,37, ,
4, ,37, ,
3, ,37, ,
3, ,37, ,
3, ,37, ,
3, ,37, ,
3, ,37, ,
3, ,37, ,
3, ,37, ,
3, ,37, ,
3, ,37, ,
3, ,37, ,
4, ,37, ,
3, ,37, ,
3, ,37, ,
3, ,37, ,
2, ,37, ,
2, ,37, ,
2, ,37, ,
1, ,37, ,
1, ,37, ,
1, ,37, ,
0, ,37, ,
0, ,37, ,
0, ,37, ,
0, ,37, ,
0, ,37, ,
0, ,37, ,
1, ,37, ,
1, ,37, ,
1, ,37, ,
1, ,37, ,
1, ,37, ,
2, ,37, ,
2, ,37, ,
2, ,37, ,
2, ,37, ,
2, ,37, ,
1, ,37, ,
1, ,37, ,
1, ,37, ,
1, ,37, ,
0, ,37, ,
0, ,37, ,
0, ,37, ,
0, ,37, ,
1, ,37, ,
1, ,37, ,
1, ,37, ,
1, ,37, ,
1, ,37, ,
1, ,37, ,
1, ,37, ,
1, ,37, ,
0, ,37, ,
0, ,37, ,
0, ,37, ,
0, ,37, ,
-1, ,37, ,
-1, ,37, ,
-2, ,37, ,
-3, ,37, ,
-4, ,37, ,
-5, ,37, ,
-5, ,37, ,
-6, ,37, ,
-7, ,37, ,
-8, ,37, ,
-8, ,37, ,
-9, ,37, ,
-10, ,37, ,
-10, ,37, ,
-11, ,37, ,
-11, ,37, ,
-13, ,37, ,
-14, ,37, ,
-15, ,37, ,
-18, ,37, ,
-21, ,37, ,
-23, ,37, ,
-25, ,37, ,
-27, ,37, ,
-30, ,37, ,
-30, ,37, ,
-30, ,37, ,
-30, ,37, ,
-28, ,37, ,
-25, ,37, ,
-24, ,37, ,
-22, ,37, ,
-17, ,37, ,
-16, ,37, ,
-15, ,37, ,
-14, ,37, ,
-13, ,37, ,
-13, ,37, ,
-14, ,37, ,
-15, ,37, ,
-18, ,37, ,
-19, ,37, ,
-21, ,37, ,
-23, ,37, ,
-25, ,37, ,
-26, ,37, ,
-28, ,37, ,
-28, ,37, ,
-29, ,37, ,
-29, ,37, ,
-29, ,37, ,
-29, ,37, ,
-28, ,37, ,
-27, ,37, ,
-26, ,37, ,
-25, ,37, ,
-22, ,37, ,
-21, ,37, ,
-18, ,37, ,
-16, ,37, ,
-11, ,37, ,
-7, ,37, ,
-4, ,37, ,
-1, ,37, ,
7, ,37, ,
8, ,37, ,
12, ,37, ,
14, ,37, ,
18, ,37, ,
20, ,37, ,
21, ,37, ,
22, ,37, ,
22, ,37, ,
21, ,37, ,
21, ,37, ,
19, ,37, ,
17, ,37, ,
15, ,37, ,
14, ,37, ,
12, ,37, ,
9, ,37, ,
7, ,37, ,
5, ,37, ,
4, ,37, ,
3, ,37, ,
3, ,37, ,
3, ,37, ,
3, ,37, ,
2, ,37, ,
2, ,37, ,
3, ,37, ,
3, ,37, ,
3, ,37, ,
4, ,37, ,
4, ,37, ,
4, ,37, ,
4, ,37, ,
4, ,37, ,
4, ,37, ,
4, ,37, ,
4, ,37, ,
3, ,37, ,
3, ,37, ,
2, ,37, ,
1, ,37, ,
0, ,37, ,
-1, ,37, ,
-3, ,37, ,
-6, ,37, ,
-7, ,37, ,
-10, ,37, ,
-11, ,37, ,
-15, ,37, ,
-18, ,37, ,
-20, ,37, ,
-22, ,37, ,
-25, ,37, ,
-26, ,37, ,
-28, ,37, ,
-28, ,37, ,
-30, ,37, ,
-31, ,37, ,
-30, ,37, ,
-31, ,37, ,
-29, ,37, ,
-28, ,37, ,
-26, ,37, ,
-25, ,37, ,
-20, ,37, ,
-18, ,37, ,
-14, ,37, ,
-12, ,37, ,
-7, ,37, ,
-3, ,37, ,
-2, ,37, ,
1, ,37, ,
4, ,37, ,
5, ,37, ,
7, ,37, ,
8, ,37, ,
10, ,37, ,
10, ,37, ,
9, ,37, ,
9, ,37, ,
9, ,37, ,
8, ,37, ,
7, ,37, ,
4, ,37, ,
0, ,37, ,
-1, ,37, ,
-4, ,37, ,
-6, ,37, ,
-9, ,37, ,
-11, ,37, ,
-13, ,37, ,
-14, ,37, ,
-14, ,37, ,
-14, ,37, ,
-14, ,37, ,
-14, ,37, ,
-11, ,37, ,
-11, ,37, ,
-9, ,37, ,
-8, ,37, ,
-6, ,37, ,
-4, ,37, ,
-4, ,37, ,
-2, ,37, ,
-1, ,37, ,
-1, ,37, ,
0, ,37, ,
0, ,37, ,
0, ,37, ,
-1, ,37, ,
-1, ,37, ,
-2, ,37, ,
-3, ,37, ,
-6, ,37, ,
-7, ,37, ,
-9, ,37, ,
-13, ,37, ,
-15, ,37, ,
-17, ,37, ,
-18, ,37, ,
-21, ,37, ,
-23, ,37, ,
-24, ,37, ,
-24, ,37, ,
-24, ,37, ,
-24, ,37, ,
-24, ,37, ,
-23, ,37, ,
-21, ,37, ,
-19, ,37, ,
-17, ,37, ,
-16, ,37, ,
-10, ,37, ,
-8, ,37, ,
-5, ,37, ,
-3, ,37, ,
3, ,37, ,
5, ,37, ,
7, ,37, ,
9, ,37, ,
12, ,37, ,
14, ,37, ,
14, ,37, ,
14, ,37, ,
14, ,37, ,
14, ,37, ,
14, ,37, ,
13, ,37, ,
12, ,37, ,
12, ,37, ,
11, ,37, ,
11, ,37, ,
11, ,37, ,
11, ,37, ,
11, ,37, ,
11, ,37, ,
11, ,37, ,
11, ,37, ,
10, ,37, ,
10, ,37, ,
10, ,37, ,
9, ,37, ,
9, ,37, ,
8, ,37, ,
7, ,37, ,
7, ,37, ,
5, ,37, ,
5, ,37, ,
3, ,37, ,
2, ,37, ,
1, ,37, ,
0, ,37, ,
-2, ,37, ,
-2, ,37, ,
-4, ,37, ,
-5, ,37, ,
-7, ,37, ,
-8, ,37, ,
-9, ,37, ,
-11, ,37, ,
-13, ,37, ,
-14, ,37, ,
-16, ,37, ,
-17, ,37, ,
-19, ,37, ,
-20, ,37, ,
-21, ,37, ,
-21, ,37, ,
-21, ,37, ,
-21, ,37, ,
-21, ,37, ,
-20, ,37, ,
-18, ,37, ,
-17, ,37, ,
-16, ,37, ,
-16, ,37, ,
-13, ,37, ,
-12, ,37, ,
-11, ,37, ,
-10, ,37, ,
-10, ,37, ,
-10, ,37, ,
-10, ,37, ,
-11, ,37, ,
-13, ,37, ,
-13, ,37, ,
-14, ,37, ,
-16, ,37, ,
-18, ,37, ,
-20, ,37, ,
-21, ,37, ,
-22, ,37, ,
-22, ,36, ,
-22, ,36, ,
-22, ,36, ,
-22, ,37, ,
-21, ,37, ,
-21, ,37, ,
-19, ,37, ,
-19, ,37, ,
-17, ,37, ,
-16, ,37, ,
-16, ,37, ,
-14, ,37, ,
-13, ,37, ,
-12, ,37, ,
-12, ,37, ,
-12, ,37, ,
-11, ,37, ,
-10, ,37, ,
-10, ,37, ,
-9, ,37, ,
-9, ,37, ,
-9, ,37, ,
-8, ,37, ,
-8, ,37, ,
-7, ,37, ,
-5, ,37, ,
-4, ,37, ,
-3, ,37, ,
-1, ,37, ,
0, ,37, ,
2, ,37, ,
3, ,37, ,
5, ,37, ,
6, ,37, ,
7, ,37, ,
7, ,37, ,
8, ,37, ,
8, ,37, ,
8, ,37, ,
8, ,37, ,
8, ,37, ,
8, ,37, ,
8, ,37, ,
9, ,37, ,
11, ,37, ,
11, ,37, ,
12, ,37, ,
13, ,37, ,
15, ,37, ,
16, ,37, ,
17, ,37, ,
18, ,37, ,
19, ,37, ,
19, ,37, ,
19, ,37, ,
18, ,37, ,
17, ,37, ,
17, ,37, ,
16, ,37, ,
16, ,37, ,
14, ,37, ,
13, ,37, ,
12, ,37, ,
11, ,37, ,
9, ,37, ,
8, ,37, ,
7, ,37, ,
7, ,37, ,
5, ,37, ,
3, ,37, ,
3, ,37, ,
1, ,37, ,
-1, ,37, ,
-2, ,37, ,
-5, ,37, ,
-6, ,37, ,
-10, ,37, ,
-11, ,37, ,
-13, ,37, ,
-16, ,37, ,
-18, ,37, ,
-19, ,37, ,
-21, ,37, ,
-21, ,37, ,
-21, ,37, ,
-21, ,37, ,
-21, ,37, ,
-21, ,37, ,
-20, ,37, ,
-19, ,37, ,
-19, ,37, ,
-18, ,37, ,
-17, ,37, ,
-18, ,37, ,
-18, ,37, ,
-18, ,37, ,
-19, ,37, ,
-19, ,37, ,
-20, ,37, ,
-20, ,37, ,
-20, ,37, ,
-20, ,37, ,
-21, ,37, ,
-21, ,37, ,
-20, ,37, ,
-19, ,37, ,
-19, ,37, ,
-18, ,37, ,
-17, ,37, ,
-15, ,37, ,
-14, ,37, ,
-13, ,37, ,
-9, ,37, ,
-8, ,37, ,
-6, ,37, ,
-5, ,37, ,
-3, ,37, ,
-2, ,37, ,
-2, ,37, ,
-2, ,37, ,
-1, ,37, ,
-2, ,37, ,
-2, ,37, ,
-2, ,37, ,
-3, ,37, ,
-3, ,37, ,
-4, ,37, ,
-4, ,37, ,
-3, ,37, ,
-3, ,37, ,
-3, ,37, ,
-3, ,37, ,
-2, ,37, ,
-1, ,37, ,
0, ,37, ,
0, ,37, ,
2, ,37, ,
3, ,37, ,
3, ,37, ,
5, ,37, ,
6, ,37, ,
6, ,37, ,
6, ,37, ,
6, ,37, ,
5, ,37, ,
5, ,37, ,
4, ,37, ,
3, ,37, ,
1, ,37, ,
0, ,37, ,
-1, ,37, ,
-3, ,37, ,
-7, ,37, ,
-8, ,37, ,
-10, ,37, ,
-12, ,37, ,
-15, ,37, ,
-16, ,37, ,
-17, ,37, ,
-17, ,37, ,
-16, ,37, ,
-16, ,37, ,
-15, ,37, ,
-14, ,37, ,
-11, ,36, ,
-10, ,36, ,
-8, ,37, ,
-6, ,37, ,
-2, ,37, ,
0, ,37, ,
2, ,37, ,
4, ,37, ,
6, ,37, ,
7, ,37, ,
8, ,37, ,
8, ,37, ,
7, ,37, ,
7, ,37, ,
6, ,37, ,
5, ,37, ,
2, ,37, ,
1, ,37, ,
0, ,37, ,
-2, ,37, ,
-4, ,37, ,
-4, ,37, ,
-5, ,37, ,
-5, ,37, ,
-4, ,37, ,
-4, ,37, ,
-3, ,37, ,
-2, ,37, ,
-1, ,37, ,
1, ,37, ,
2, ,37, ,
3, ,37, ,
5, ,37, ,
6, ,37, ,
7, ,37, ,
7, ,37, ,
6, ,37, ,
6, ,37, ,
4, ,37, ,
4, ,37, ,
1, ,37, ,
0, ,37, ,
-2, ,37, ,
-4, ,37, ,
-8, ,37, ,
-9, ,37, ,
-11, ,37, ,
-12, ,37, ,
-14, ,37, ,
-14, ,37, ,
-14, ,37, ,
-14, ,37, ,
-12, ,37, ,
-10, ,37, ,
-9, ,37, ,
-7, ,37, ,
-3, ,37, ,
0, ,37, ,
2, ,37, ,
4, ,37, ,
9, ,37, ,
11, ,37, ,
12, ,37, ,
14, ,37, ,
15, ,37, ,
15, ,37, ,
15, ,37, ,
14, ,37, ,
12, ,37, ,
12, ,37, ,
10, ,37, ,
9, ,37, ,
6, ,37, ,
5, ,37, ,
3, ,37, ,
1, ,37, ,
-1, ,37, ,
-2, ,37, ,
-3, ,37, ,
-4, ,37, ,
-5, ,37, ,
-6, ,37, ,
-6, ,37, ,
-7, ,37, ,
-7, ,37, ,
-7, ,37, ,
-7, ,37, ,
-7, ,37, ,
-7, ,37, ,
-7, ,37, ,
-7, ,37, ,
-8, ,37, ,
-9, ,37, ,
-9, ,37, ,
-10, ,37, ,
-10, ,37, ,
-12, ,37, ,
-14, ,37, ,
-14, ,37, ,
-16, ,37, ,
-17, ,37, ,
-17, ,37, ,
-18, ,37, ,
-18, ,37, ,
-17, ,37, ,
-17, ,37, ,
-15, ,37, ,
-15, ,37, ,
-11, ,37, ,
-9, ,37, ,
-7, ,37, ,
-4, ,37, ,
1, ,37, ,
4, ,37, ,
8, ,37, ,
9, ,37, ,
14, ,37, ,
16, ,37, ,
17, ,37, ,
18, ,37, ,
18, ,37, ,
17, ,37, ,
17, ,37, ,
16, ,37, ,
13, ,37, ,
12, ,37, ,
10, ,37, ,
8, ,37, ,
4, ,37, ,
2, ,37, ,
1, ,37, ,
-1, ,37, ,
-4, ,37, ,
-4, ,37, ,
-4, ,37, ,
-4, ,37, ,
-4, ,37, ,
-3, ,37, ,
-3, ,37, ,
-3, ,37, ,
-1, ,37, ,
0, ,37, ,
1, ,37, ,
1, ,37, ,
2, ,37, ,
2, ,37, ,
2, ,37, ,
1, ,37, ,
1, ,37, ,
1, ,37, ,
-1, ,37, ,
-1, ,37, ,
-2, ,37, ,
-3, ,37, ,
-3, ,37, ,
-5, ,37, ,
-8, ,37, ,
-9, ,37, ,
-10, ,37, ,
-10, ,37, ,
-13, ,37, ,
-14, ,37, ,
-14, ,37, ,
-15, ,37, ,
-15, ,37, ,
-14, ,37, ,
-14, ,37, ,
-13, ,37, ,
-11, ,37, ,
-9, ,37, ,
-7, ,37, ,
-6, ,37, ,
-2, ,37, ,
1, ,37, ,
2, ,37, ,
5, ,37, ,
9, ,37, ,
10, ,37, ,
12, ,37, ,
12, ,37, ,
14, ,37, ,
14, ,37, ,
13, ,37, ,
13, ,37, ,
11, ,37, ,
10, ,37, ,
9, ,37, ,
7, ,37, ,
4, ,37, ,
3, ,37, ,
2, ,37, ,
0, ,37, ,
-2, ,37, ,
-3, ,37, ,
-4, ,37, ,
-4, ,37, ,
-4, ,37, ,
-3, ,37, ,
-3, ,37, ,
-3, ,37, ,
-2, ,37, ,
-2, ,37, ,
-1, ,37, ,
-1, ,37, ,
1, ,37, ,
2, ,37, ,
2, ,37, ,
2, ,37, ,
3, ,37, ,
3, ,37, ,
3, ,37, ,
3, ,37, ,
2, ,37, ,
2, ,37, ,
1, ,37, ,
1, ,37, ,
0, ,37, ,
-1, ,37, ,
-2, ,37, ,
-2, ,37, ,
-4, ,37, ,
-4, ,37, ,
-5, ,37, ,
-6, ,37, ,
-7, ,37, ,
-7, ,37, ,
-7, ,37, ,
-7, ,37, ,
-7, ,37, ,
-6, ,37, ,
-6, ,37, ,
-5, ,37, ,
-4, ,37, ,
-2, ,37, ,
-2, ,37, ,
-2, ,37, ,
-1, ,37, ,
-1, ,37, ,
-2, ,37, ,
-2, ,37, ,
-3, ,37, ,
-5, ,37, ,
-6, ,37, ,
-8, ,37, ,
-11, ,37, ,
-12, ,37, ,
-14, ,37, ,
-15, ,37, ,
-17, ,37, ,
-17, ,37, ,
-17, ,37, ,
-16, ,37, ,
-15, ,37, ,
-15, ,37, ,
-13, ,37, ,
-12, ,37, ,
-8, ,37, ,
-6, ,37, ,
-4, ,37, ,
-3, ,37, ,
1, ,37, ,
2, ,37, ,
3, ,37, ,
5, ,37, ,
7, ,37, ,
7, ,37, ,
7, ,37, ,
7, ,37, ,
7, ,37, ,
7, ,37, ,
7, ,37, ,
7, ,37, ,
7, ,37, ,
7, ,37, ,
7, ,37, ,
7, ,37, ,
8, ,37, ,
8, ,37, ,
8, ,37, ,
8, ,37, ,
9, ,37, ,
8, ,37, ,
8, ,37, ,
8, ,37, ,
7, ,37, ,
6, ,37, ,
6, ,37, ,
5, ,37, ,
4, ,37, ,
2, ,37, ,
2, ,37, ,
0, ,37, ,
-2, ,37, ,
-2, ,37, ,
-4, ,37, ,
-5, ,37, ,
-7, ,37, ,
-8, ,37, ,
-9, ,37, ,
-10, ,37, ,
-11, ,37, ,
-11, ,37, ,
-12, ,37, ,
-12, ,37, ,
-11, ,37, ,
-12, ,37, ,
-12, ,37, ,
-12, ,37, ,
-11, ,37, ,
-11, ,37, ,
-11, ,37, ,
-11, ,37, ,
-10, ,37, ,
-10, ,37, ,
-9, ,37, ,
-8, ,37, ,
-8, ,37, ,
-7, ,37, ,
-6, ,37, ,
-6, ,37, ,
-5, ,37, ,
-5, ,37, ,
-5, ,37, ,
-5, ,37, ,
-4, ,37, ,
-4, ,37, ,
-3, ,37, ,
-3, ,37, ,
-2, ,37, ,
-1, ,37, ,
0, ,37, ,
0, ,37, ,
2, ,37, ,
4, ,37, ,
5, ,37, ,
6, ,37, ,
8, ,37, ,
9, ,37, ,
10, ,37, ,
11, ,37, ,
12, ,37, ,
12, ,37, ,
12, ,37, ,
12, ,37, ,
12, ,37, ,
11, ,37, ,
11, ,37, ,
10, ,37, ,
8, ,37, ,
7, ,37, ,
6, ,37, ,
5, ,37, ,
3, ,37, ,
2, ,37, ,
1, ,37, ,
-1, ,37, ,
-3, ,37, ,
-4, ,37, ,
-5, ,37, ,
-6, ,37, ,
-8, ,37, ,
-9, ,37, ,
-10, ,37, ,
-10, ,37, ,
-11, ,37, ,
-11, ,37, ,
-11, ,37, ,
-11, ,37, ,
-10, ,37, ,
-10, ,37, ,
-9, ,37, ,
-9, ,37, ,
-6, ,37, ,
-5, ,37, ,
-5, ,37, ,
-3, ,37, ,
-1, ,37, ,
0, ,37, ,
1, ,37, ,
2, ,37, ,
3, ,37, ,
3, ,37, ,
3, ,37, ,
4, ,37, ,
5, ,37, ,
4, ,37, ,
4, ,37, ,
4, ,37, ,
5, ,37, ,
5, ,37, ,
5, ,37, ,
5, ,37, ,
5, ,37, ,
5, ,37, ,
6, ,37, ,
6, ,37, ,
6, ,37, ,
6, ,37, ,
6, ,37, ,
6, ,37, ,
5, ,37, ,
5, ,37, ,
4, ,37, ,
3, ,37, ,
2, ,37, ,
2, ,37, ,
0, ,37, ,
0, ,37, ,
-1, ,37, ,
-2, ,37, ,
-3, ,37, ,
-3, ,37, ,
-3, ,37, ,
-3, ,37, ,
-3, ,37, ,
-3, ,37, ,
-1, ,37, ,
-1, ,37, ,
-1, ,37, ,
0, ,37, ,
1, ,37, ,
2, ,37, ,
2, ,37, ,
2, ,37, ,
3, ,37, ,
2, ,37, ,
2, ,37, ,
2, ,37, ,
0, ,37, ,
0, ,37, ,
-1, ,37, ,
-1, ,37, ,
-3, ,37, ,
-4, ,37, ,
-4, ,37, ,
-6, ,37, ,
-6, ,37, ,
-6, ,37, ,
-6, ,37, ,
-6, ,37, ,
-5, ,37, ,
-6, ,37, ,
-4, ,37, ,
-4, ,37, ,
-3, ,37, ,
-1, ,37, ,
0, ,37, ,
1, ,37, ,
4, ,37, ,
5, ,37, ,
6, ,37, ,
7, ,37, ,
9, ,37, ,
11, ,37, ,
11, ,37, ,
11, ,37, ,
10, ,37, ,
9, ,37, ,
9, ,37, ,
8, ,37, ,
5, ,37, ,
4, ,37, ,
2, ,37, ,
0, ,37, ,
-4, ,37, ,
-6, ,37, ,
-7, ,37, ,
-9, ,37, ,
-11, ,37, ,
-12, ,37, ,
-12, ,37, ,
-12, ,37, ,
-12, ,37, ,
-13, ,37, ,
-11, ,37, ,
-11, ,37, ,
-9, ,37, ,
-8, ,37, ,
-7, ,37, ,
-5, ,37, ,
-3, ,37, ,
-2, ,37, ,
0, ,37, ,
0, ,37, ,
2, ,37, ,
4, ,37, ,
4, ,37, ,
5, ,37, ,
6, ,37, ,
6, ,37, ,
7, ,37, ,
6, ,37, ,
5, ,37, ,
5, ,37, ,
4, ,37, ,
4, ,37, ,
2, ,37, ,
0, ,37, ,
0, ,37, ,
-2, ,37, ,
-3, ,37, ,
-3, ,37, ,
-4, ,37, ,
-4, ,37, ,
-3, ,37, ,
-3, ,37, ,
-3, ,37, ,
-3, ,37, ,
-2, ,37, ,
-1, ,37, ,
-1, ,37, ,
0, ,37, ,
2, ,37, ,
2, ,37, ,
3, ,37, ,
3, ,37, ,
3, ,37, ,
3, ,37, ,
2, ,37, ,
2, ,37, ,
1, ,37, ,
0, ,37, ,
-1, ,37, ,
-1, ,37, ,
-2, ,37, ,
-2, ,37, ,
-3, ,37, ,
-3, ,37, ,
-2, ,37, ,
-2, ,37, ,
-1, ,37, ,
-1, ,37, ,
0, ,37, ,
1, ,37, ,
1, ,37, ,
2, ,37, ,
4, ,37, ,
4, ,37, ,
5, ,37, ,
6, ,37, ,
8, ,37, ,
8, ,37, ,
8, ,37, ,
8, ,37, ,
9, ,37, ,
8, ,37, ,
8, ,37, ,
7, ,37, ,
7, ,37, ,
7, ,37, ,
6, ,37, ,
6, ,37, ,
5, ,37, ,
3, ,37, ,
3, ,37, ,
2, ,37, ,
0, ,37, ,
0, ,37, ,
-2, ,37, ,
-2, ,37, ,
-3, ,36, ,
-3, ,36, ,
-4, ,36, ,
-4, ,37, ,
-5, ,37, ,
-5, ,37, ,
-5, ,37, ,
-5, ,37, ,
-4, ,37, ,
-4, ,37, ,
-3, ,37, ,
-3, ,37, ,
-2, ,37, ,
-2, ,37, ,
-3, ,37, ,
-3, ,37, ,
-2, ,37, ,
-3, ,37, ,
-3, ,37, ,
-3, ,37, ,
-4, ,37, ,
-4, ,37, ,
-4, ,37, ,
-4, ,37, ,
-5, ,37, ,
-5, ,37, ,
-4, ,37, ,
-4, ,37, ,
-4, ,37, ,
-3, ,37, ,
-3, ,37, ,
-2, ,37, ,
0, ,37, ,
0, ,37, ,
1, ,37, ,
1, ,37, ,
4, ,37, ,
5, ,37, ,
6, ,37, ,
7, ,37, ,
9, ,37, ,
9, ,37, ,
10, ,37, ,
10, ,37, ,
11, ,37, ,
11, ,37, ,
11, ,37, ,
11, ,37, ,
10, ,37, ,
9, ,37, ,
9, ,37, ,
8, ,37, ,
7, ,37, ,
7, ,37, ,
6, ,37, ,
5, ,37, ,
3, ,37, ,
2, ,37, ,
2, ,37, ,
1, ,37, ,
0, ,37, ,
-1, ,37, ,
-2, ,37, ,
-3, ,37, ,
-4, ,37, ,
-6, ,37, ,
-6, ,37, ,
-7, ,37, ,
-9, ,37, ,
-10, ,37, ,
-11, ,37, ,
-11, ,37, ,
-12, ,37, ,
-12, ,37, ,
-12, ,37, ,
-12, ,37, ,
-12, ,37, ,
-11, ,37, ,
-11, ,37, ,
-9, ,37, ,
-8, ,37, ,
-7, ,37, ,
-6, ,37, ,
-5, ,37, ,
-2, ,37, ,
-1, ,37, ,
0, ,37, ,
1, ,37, ,
4, ,37, ,
4, ,37, ,
6, ,37, ,
6, ,37, ,
7, ,37, ,
8, ,37, ,
9, ,37, ,
9, ,37, ,
9, ,37, ,
9, ,37, ,
9, ,37, ,
9, ,37, ,
8, ,37, ,
8, ,37, ,
6, ,37, ,
6, ,37, ,
5, ,37, ,
5, ,37, ,
4, ,37, ,
4, ,37, ,
3, ,37, ,
3, ,37, ,
3, ,37, ,
3, ,37, ,
4, ,37, ,
3, ,37, ,
3, ,37, ,
3, ,37, ,
3, ,37, ,
3, ,37, ,
3, ,37, ,
3, ,37, ,
2, ,37, ,
1, ,37, ,
0, ,37, ,
-1, ,37, ,
-3, ,37, ,
-4, ,37, ,
-4, ,37, ,
-6, ,37, ,
-8, ,37, ,
-8, ,37, ,
-8, ,37, ,
-10, ,37, ,
-10, ,37, ,
-10, ,37, ,
-10, ,37, ,
-10, ,37, ,
-9, ,37, ,
-9, ,37, ,
-8, ,37, ,
-8, ,37, ,
-7, ,37, ,
-5, ,37, ,
-4, ,37, ,
-3, ,37, ,
-1, ,37, ,
-1, ,37, ,
0, ,37, ,
0, ,37, ,
2, ,37, ,
3, ,37, ,
3, ,37, ,
4, ,37, ,
5, ,37, ,
4, ,37, ,
5, ,37, ,
5, ,37, ,
5, ,37, ,
5, ,37, ,
5, ,37, ,
5, ,37, ,
5, ,37, ,
5, ,37, ,
5, ,37, ,
5, ,37, ,
5, ,37, ,
4, ,37, ,
4, ,37, ,
4, ,37, ,
3, ,37, ,
3, ,37, ,
3, ,37, ,
2, ,37, ,
1, ,37, ,
1, ,37, ,
0, ,37, ,
0, ,37, ,
-1, ,37, ,
-2, ,37, ,
-2, ,37, ,
-2, ,37, ,
-3, ,37, ,
-3, ,37, ,
-3, ,37, ,
-3, ,37, ,
-3, ,37, ,
-3, ,37, ,
-3, ,37, ,
-3, ,37, ,
-3, ,37, ,
-2, ,37, ,
-2, ,37, ,
-1, ,37, ,
0, ,37, ,
0, ,37, ,
1, ,37, ,
1, ,37, ,
2, ,37, ,
3, ,37, ,
3, ,37, ,
4, ,37, ,
4, ,37, ,
4, ,37, ,
3, ,37, ,
3, ,37, ,
2, ,37, ,
2, ,36, ,
1, ,36, ,
0, ,36, ,
-2, ,37, ,
-3, ,37, ,
-4, ,37, ,
-4, ,37, ,
-6, ,37, ,
-7, ,37, ,
-8, ,37, ,
-8, ,37, ,
-8, ,37, ,
-9, ,37, ,
-9, ,37, ,
-9, ,37, ,
-8, ,37, ,
-8, ,37, ,
-8, ,37, ,
-7, ,37, ,
-6, ,37, ,
-5, ,37, ,
-4, ,37, ,
-4, ,37, ,
-1, ,37, ,
0, ,37, ,
1, ,37, ,
3, ,37, ,
6, ,37, ,
7, ,37, ,
9, ,37, ,
11, ,37, ,
13, ,36, ,
14, ,36, ,
15, ,36, ,
16, ,37, ,
17, ,37, ,
16, ,37, ,
16, ,37, ,
15, ,37, ,
14, ,37, ,
13, ,37, ,
11, ,37, ,
9, ,37, ,
7, ,37, ,
5, ,37, ,
