raw_data/75% Glycerol, Impulsion 2Hz, Sonde 5MHz, Rampe 0.7Hz/temp0000063.CSV

Format,1.0B,
Memory Length,10000,Memory Length,10000,
IntpDistance,0,IntpDistance,0,
Trigger Address,159,Trigger Address,159,
Trigger Level,2.720E-01,Trigger Level,2.720E-01,
Source,CH1,Source,CH2,
Vertical Units,V,Vertical Units,V,
Vertical Units Div,0,Vertical Units Div,0,
Vertical Units Extend Div,16,Vertical Units Extend Div,16,
Label,,Label,,
Probe Type,0,Probe Type,0,
Probe Ratio,1.000e+00,Probe Ratio,1.000e+00,
Vertical Scale,5.000e-01,Vertical Scale,2.000e+00,
Vertical Position,0.000e+00,Vertical Position,0.000e+00,
Horizontal Units,S,Horizontal Units,S,
Horizontal Scale,5.000E-06,Horizontal Scale,5.000E-06,
Horizontal Position,2.420E-05,Horizontal Position,2.420E-05,
Horizontal Mode,Main,Horizontal Mode,Main,
SincET Mode,Real Time,SincET Mode,Real Time,
Sampling Period,5.000e-09,Sampling Period,5.000e-09,
Horizontal Old Scale,5.000E-06,Horizontal Old Scale,5.000E-06,
Horizontal Old Position,2.420E-05,Horizontal Old Position,2.420E-05,
Firmware,V1.32,Firmware,V1.32,
Mode,Fast,Mode,Fast,
Waveform Data,,Waveform Data,,
1, ,-35, ,
1, ,-35, ,
1, ,-35, ,
1, ,-35, ,
1, ,-35, ,
1, ,-35, ,
1, ,-35, ,
1, ,-35, ,
1, ,-35, ,
1, ,-35, ,
1, ,-35, ,
1, ,-35, ,
1, ,-35, ,
1, ,-35, ,
1, ,-35, ,
1, ,-35, ,
1, ,-35, ,
1, ,-35, ,
0, ,-35, ,
1, ,-35, ,
0, ,-35, ,
1, ,-35, ,
1, ,-35, ,
0, ,-35, ,
0, ,-35, ,
1, ,-35, ,
1, ,-35, ,
1, ,-35, ,
0, ,-35, ,
0, ,-35, ,
1, ,-35, ,
1, ,-35, ,
1, ,-35, ,
1, ,-35, ,
1, ,-35, ,
1, ,-35, ,
1, ,-35, ,
1, ,-35, ,
1, ,-35, ,
1, ,-35, ,
1, ,-35, ,
1, ,-35, ,
1, ,-35, ,
1, ,-35, ,
1, ,-35, ,
1, ,-35, ,
1, ,-35, ,
1, ,-35, ,
1, ,-35, ,
1, ,-35, ,
1, ,-35, ,
1, ,-35, ,
1, ,-35, ,
1, ,-35, ,
1, ,-35, ,
1, ,-35, ,
1, ,-35, ,
1, ,-35, ,
0, ,-35, ,
1, ,-35, ,
0, ,-35, ,
0, ,-35, ,
0, ,-35, ,
0, ,-35, ,
1, ,-35, ,
1, ,-35, ,
0, ,-35, ,
0, ,-35, ,
0, ,-35, ,
1, ,-35, ,
1, ,-35, ,
0, ,-35, ,
0, ,-35, ,
1, ,-35, ,
1, ,-35, ,
1, ,-35, ,
1, ,-35, ,
1, ,-35, ,
1, ,-35, ,
1, ,-35, ,
1, ,-35, ,
1, ,-35, ,
0, ,-35, ,
0, ,-35, ,
0, ,-35, ,
1, ,-35, ,
1, ,-35, ,
1, ,-35, ,
1, ,-35, ,
1, ,-35, ,
1, ,-35, ,
1, ,-35, ,
1, ,-35, ,
1, ,-35, ,
1, ,-35, ,
1, ,-35, ,
1, ,-35, ,
1, ,-35, ,
1, ,-35, ,
1, ,-35, ,
1, ,-35, ,
1, ,-35, ,
1, ,-35, ,
1, ,-35, ,
1, ,-35, ,
0, ,-35, ,
0, ,-35, ,
0, ,-35, ,
0, ,-35, ,
1, ,-35, ,
1, ,-35, ,
0, ,-35, ,
1, ,-35, ,
1, ,-35, ,
1, ,-35, ,
1, ,-35, ,
1, ,-35, ,
1, ,-35, ,
1, ,-35, ,
0, ,-35, ,
0, ,-35, ,
1, ,-35, ,
1, ,-35, ,
1, ,-35, ,
1, ,-35, ,
0, ,-35, ,
0, ,-35, ,
0, ,-35, ,
1, ,-35, ,
1, ,-35, ,
0, ,-35, ,
0, ,-35, ,
0, ,-35, ,
1, ,-35, ,
1, ,-35, ,
1, ,-35, ,
1, ,-35, ,
1, ,-35, ,
1, ,-35, ,
1, ,-35, ,
1, ,-35, ,
1, ,-35, ,
1, ,-35, ,
1, ,-35, ,
1, ,-35, ,
1, ,-35, ,
1, ,-35, ,
1, ,-35, ,
1, ,-35, ,
1, ,-35, ,
1, ,-35, ,
1, ,-35, ,
1, ,-35, ,
1, ,-35, ,
1, ,-35, ,
0, ,-35, ,
0, ,-35, ,
1, ,-35, ,
1, ,-35, ,
1, ,-35, ,
1, ,-35, ,
1, ,-35, ,
0, ,-35, ,
0, ,-35, ,
0, ,-35, ,
0, ,-35, ,
-2, ,-35, ,
4, ,-35, ,
23, ,-35, ,
95, ,-35, ,
125, ,-35, ,
123, ,-35, ,
120, ,-35, ,
26, ,-35, ,
-7, ,-35, ,
15, ,-35, ,
68, ,-35, ,
125, ,-35, ,
125, ,-35, ,
125, ,-35, ,
125, ,-35, ,
125, ,-35, ,
125, ,-35, ,
124, ,-35, ,
124, ,-35, ,
115, ,-35, ,
109, ,-35, ,
106, ,-35, ,
102, ,-35, ,
96, ,-35, ,
93, ,-35, ,
88, ,-35, ,
86, ,-35, ,
79, ,-35, ,
76, ,-35, ,
74, ,-35, ,
71, ,-35, ,
65, ,-35, ,
63, ,-35, ,
60, ,-35, ,
59, ,-35, ,
53, ,-35, ,
51, ,-35, ,
49, ,-35, ,
46, ,-35, ,
43, ,-35, ,
41, ,-35, ,
39, ,-35, ,
38, ,-35, ,
35, ,-35, ,
33, ,-35, ,
32, ,-35, ,
29, ,-35, ,
27, ,-35, ,
25, ,-35, ,
25, ,-35, ,
24, ,-35, ,
22, ,-35, ,
22, ,-35, ,
20, ,-35, ,
19, ,-35, ,
17, ,-35, ,
17, ,-35, ,
16, ,-35, ,
15, ,-35, ,
14, ,-35, ,
12, ,-35, ,
12, ,-35, ,
11, ,-35, ,
10, ,-35, ,
10, ,-35, ,
9, ,-35, ,
9, ,-35, ,
7, ,-35, ,
7, ,-35, ,
7, ,-35, ,
6, ,-35, ,
6, ,-35, ,
5, ,-35, ,
5, ,-35, ,
4, ,-35, ,
4, ,-35, ,
4, ,-35, ,
4, ,-35, ,
3, ,-35, ,
2, ,-35, ,
2, ,-35, ,
2, ,-35, ,
2, ,-35, ,
1, ,-35, ,
1, ,-35, ,
1, ,-35, ,
1, ,-35, ,
1, ,-35, ,
1, ,-35, ,
1, ,-35, ,
1, ,-35, ,
0, ,-35, ,
0, ,-35, ,
0, ,-35, ,
0, ,-35, ,
-1, ,-35, ,
-1, ,-35, ,
-1, ,-35, ,
-1, ,-35, ,
0, ,-35, ,
-1, ,-35, ,
-1, ,-35, ,
-1, ,-35, ,
-1, ,-35, ,
-1, ,-35, ,
-1, ,-35, ,
-1, ,-35, ,
-1, ,-35, ,
-1, ,-35, ,
-1, ,-35, ,
-1, ,-35, ,
-1, ,-35, ,
-1, ,-35, ,
-1, ,-35, ,
-1, ,-35, ,
-1, ,-35, ,
-1, ,-35, ,
-1, ,-35, ,
-1, ,-35, ,
-1, ,-35, ,
-1, ,-35, ,
-1, ,-35, ,
-1, ,-35, ,
-1, ,-35, ,
-1, ,-35, ,
-1, ,-35, ,
-1, ,-35, ,
-1, ,-35, ,
-1, ,-35, ,
-1, ,-35, ,
-1, ,-35, ,
-1, ,-35, ,
-1, ,-35, ,
-1, ,-35, ,
-1, ,-35, ,
-1, ,-35, ,
-1, ,-35, ,
-1, ,-35, ,
-1, ,-35, ,
-1, ,-35, ,
-1, ,-35, ,
-1, ,-35, ,
-1, ,-35, ,
-1, ,-35, ,
-1, ,-35, ,
-1, ,-35, ,
-1, ,-35, ,
-1, ,-35, ,
-1, ,-35, ,
-1, ,-35, ,
-1, ,-35, ,
0, ,-35, ,
-1, ,-35, ,
-1, ,-35, ,
-1, ,-35, ,
-1, ,-35, ,
-1, ,-35, ,
-1, ,-35, ,
-1, ,-35, ,
0, ,-35, ,
0, ,-35, ,
0, ,-35, ,
0, ,-35, ,
0, ,-35, ,
-1, ,-35, ,
0, ,-35, ,
-1, ,-35, ,
0, ,-35, ,
0, ,-35, ,
-1, ,-35, ,
-1, ,-35, ,
0, ,-35, ,
0, ,-35, ,
0, ,-35, ,
0, ,-35, ,
0, ,-35, ,
0, ,-35, ,
0, ,-35, ,
0, ,-35, ,
0, ,-35, ,
0, ,-35, ,
0, ,-35, ,
0, ,-35, ,
0, ,-35, ,
0, ,-35, ,
0, ,-35, ,
0, ,-35, ,
0, ,-35, ,
0, ,-35, ,
0, ,-35, ,
0, ,-35, ,
0, ,-35, ,
0, ,-35, ,
0, ,-35, ,
0, ,-35, ,
0, ,-35, ,
0, ,-35, ,
0, ,-35, ,
0, ,-35, ,
0, ,-35, ,
0, ,-35, ,
0, ,-35, ,
0, ,-35, ,
0, ,-35, ,
0, ,-35, ,
1, ,-35, ,
1, ,-35, ,
0, ,-35, ,
0, ,-35, ,
0, ,-35, ,
1, ,-35, ,
1, ,-35, ,
0, ,-35, ,
0, ,-35, ,
0, ,-35, ,
1, ,-35, ,
1, ,-35, ,
0, ,-35, ,
0, ,-35, ,
0, ,-35, ,
0, ,-35, ,
1, ,-35, ,
0, ,-35, ,
0, ,-35, ,
0, ,-35, ,
0, ,-35, ,
0, ,-35, ,
0, ,-35, ,
0, ,-35, ,
1, ,-35, ,
1, ,-35, ,
1, ,-35, ,
1, ,-35, ,
1, ,-35, ,
1, ,-35, ,
1, ,-35, ,
0, ,-35, ,
0, ,-35, ,
0, ,-35, ,
0, ,-35, ,
0, ,-35, ,
0, ,-35, ,
0, ,-35, ,
1, ,-35, ,
0, ,-35, ,
0, ,-35, ,
0, ,-35, ,
0, ,-35, ,
1, ,-35, ,
1, ,-35, ,
1, ,-35, ,
1, ,-35, ,
1, ,-35, ,
1, ,-35, ,
1, ,-35, ,
0, ,-35, ,
0, ,-35, ,
0, ,-35, ,
0, ,-35, ,
0, ,-35, ,
0, ,-35, ,
0, ,-35, ,
0, ,-35, ,
0, ,-35, ,
0, ,-35, ,
0, ,-35, ,
0, ,-35, ,
0, ,-35, ,
-1, ,-35, ,
-1, ,-35, ,
-1, ,-35, ,
-3, ,-35, ,
-3, ,-35, ,
-4, ,-35, ,
-6, ,-35, ,
-10, ,-35, ,
-13, ,-35, ,
-16, ,-35, ,
-18, ,-35, ,
-17, ,-35, ,
-15, ,-35, ,
-13, ,-35, ,
-9, ,-35, ,
-4, ,-35, ,
-2, ,-35, ,
-1, ,-35, ,
0, ,-35, ,
2, ,-35, ,
3, ,-35, ,
4, ,-35, ,
4, ,-35, ,
5, ,-35, ,
5, ,-35, ,
5, ,-35, ,
4, ,-35, ,
4, ,-35, ,
4, ,-35, ,
3, ,-35, ,
3, ,-35, ,
3, ,-35, ,
2, ,-35, ,
2, ,-35, ,
2, ,-35, ,
3, ,-35, ,
3, ,-35, ,
3, ,-35, ,
3, ,-35, ,
4, ,-35, ,
3, ,-35, ,
3, ,-35, ,
3, ,-35, ,
3, ,-35, ,
3, ,-35, ,
2, ,-35, ,
2, ,-35, ,
2, ,-35, ,
2, ,-35, ,
2, ,-35, ,
1, ,-35, ,
1, ,-35, ,
2, ,-35, ,
2, ,-35, ,
2, ,-35, ,
1, ,-35, ,
1, ,-35, ,
2, ,-35, ,
2, ,-35, ,
1, ,-35, ,
1, ,-35, ,
1, ,-35, ,
2, ,-35, ,
1, ,-35, ,
0, ,-35, ,
0, ,-35, ,
-1, ,-35, ,
-2, ,-35, ,
-2, ,-35, ,
-3, ,-35, ,
-3, ,-35, ,
-2, ,-35, ,
-2, ,-35, ,
-1, ,-35, ,
-1, ,-35, ,
0, ,-35, ,
1, ,-35, ,
1, ,-35, ,
1, ,-35, ,
2, ,-35, ,
2, ,-35, ,
2, ,-35, ,
2, ,-35, ,
1, ,-35, ,
1, ,-35, ,
1, ,-35, ,
1, ,-35, ,
1, ,-35, ,
0, ,-35, ,
0, ,-35, ,
-1, ,-35, ,
-2, ,-35, ,
-2, ,-35, ,
-3, ,-35, ,
-3, ,-35, ,
-5, ,-35, ,
-5, ,-35, ,
-6, ,-35, ,
-7, ,-35, ,
-8, ,-35, ,
-9, ,-35, ,
-10, ,-35, ,
-11, ,-35, ,
-14, ,-35, ,
-17, ,-35, ,
-19, ,-35, ,
-22, ,-35, ,
-27, ,-35, ,
-30, ,-35, ,
-34, ,-35, ,
-35, ,-35, ,
-36, ,-35, ,
-35, ,-35, ,
-33, ,-35, ,
-32, ,-35, ,
-26, ,-35, ,
-24, ,-35, ,
-21, ,-35, ,
-18, ,-35, ,
-14, ,-35, ,
-12, ,-35, ,
-11, ,-35, ,
-12, ,-35, ,
-13, ,-35, ,
-13, ,-35, ,
-16, ,-35, ,
-17, ,-35, ,
-22, ,-35, ,
-25, ,-35, ,
-26, ,-35, ,
-28, ,-35, ,
-32, ,-35, ,
-33, ,-35, ,
-34, ,-35, ,
-34, ,-35, ,
-34, ,-35, ,
-33, ,-35, ,
-32, ,-35, ,
-32, ,-35, ,
-29, ,-35, ,
-28, ,-35, ,
-26, ,-35, ,
-25, ,-35, ,
-22, ,-35, ,
-19, ,-35, ,
-16, ,-35, ,
-13, ,-35, ,
-8, ,-35, ,
-4, ,-35, ,
-2, ,-35, ,
2, ,-35, ,
7, ,-35, ,
9, ,-35, ,
12, ,-35, ,
13, ,-35, ,
15, ,-35, ,
15, ,-35, ,
14, ,-35, ,
14, ,-35, ,
13, ,-35, ,
12, ,-35, ,
10, ,-35, ,
9, ,-35, ,
8, ,-35, ,
8, ,-35, ,
8, ,-35, ,
8, ,-35, ,
10, ,-35, ,
11, ,-35, ,
12, ,-35, ,
13, ,-35, ,
18, ,-35, ,
20, ,-35, ,
21, ,-35, ,
22, ,-35, ,
24, ,-35, ,
24, ,-35, ,
24, ,-35, ,
23, ,-35, ,
22, ,-35, ,
22, ,-35, ,
20, ,-35, ,
20, ,-35, ,
16, ,-35, ,
14, ,-35, ,
12, ,-35, ,
9, ,-35, ,
4, ,-35, ,
2, ,-35, ,
-2, ,-35, ,
-4, ,-35, ,
-9, ,-35, ,
-12, ,-35, ,
-13, ,-35, ,
-16, ,-35, ,
-19, ,-35, ,
-20, ,-35, ,
-21, ,-35, ,
-22, ,-35, ,
-23, ,-35, ,
-24, ,-35, ,
-24, ,-35, ,
-25, ,-35, ,
-25, ,-35, ,
-25, ,-35, ,
-25, ,-35, ,
-25, ,-35, ,
-25, ,-35, ,
-25, ,-35, ,
-25, ,-35, ,
-25, ,-35, ,
-22, ,-35, ,
-20, ,-35, ,
-19, ,-35, ,
-17, ,-35, ,
-13, ,-35, ,
-12, ,-35, ,
-10, ,-35, ,
-9, ,-35, ,
-8, ,-35, ,
-8, ,-35, ,
-8, ,-35, ,
-8, ,-35, ,
-8, ,-35, ,
-9, ,-35, ,
-9, ,-35, ,
-9, ,-35, ,
-9, ,-35, ,
-8, ,-35, ,
-8, ,-35, ,
-8, ,-35, ,
-7, ,-35, ,
-6, ,-35, ,
-6, ,-35, ,
-6, ,-35, ,
-5, ,-35, ,
-4, ,-35, ,
-4, ,-35, ,
-4, ,-35, ,
-3, ,-35, ,
-3, ,-35, ,
-3, ,-35, ,
-2, ,-35, ,
-2, ,-35, ,
-2, ,-35, ,
-3, ,-35, ,
-3, ,-35, ,
-4, ,-35, ,
-4, ,-35, ,
-4, ,-35, ,
-5, ,-35, ,
-6, ,-35, ,
-6, ,-35, ,
-6, ,-35, ,
-6, ,-35, ,
-6, ,-35, ,
-6, ,-35, ,
-6, ,-35, ,
-6, ,-35, ,
-5, ,-35, ,
-5, ,-35, ,
-4, ,-35, ,
-4, ,-35, ,
-4, ,-35, ,
-4, ,-35, ,
-4, ,-35, ,
-4, ,-35, ,
-3, ,-35, ,
-3, ,-35, ,
-3, ,-35, ,
-3, ,-35, ,
-2, ,-35, ,
-2, ,-35, ,
-1, ,-35, ,
-1, ,-35, ,
-2, ,-35, ,
-2, ,-35, ,
-3, ,-35, ,
-3, ,-35, ,
-4, ,-35, ,
-5, ,-35, ,
-5, ,-35, ,
-7, ,-35, ,
-8, ,-35, ,
-8, ,-35, ,
-9, ,-35, ,
-9, ,-35, ,
-9, ,-35, ,
-9, ,-35, ,
-9, ,-35, ,
-8, ,-35, ,
-7, ,-35, ,
-6, ,-35, ,
-6, ,-35, ,
-5, ,-35, ,
-4, ,-35, ,
-3, ,-35, ,
-1, ,-35, ,
-1, ,-35, ,
1, ,-35, ,
2, ,-35, ,
3, ,-35, ,
4, ,-35, ,
7, ,-35, ,
7, ,-35, ,
8, ,-35, ,
8, ,-35, ,
9, ,-35, ,
10, ,-35, ,
10, ,-35, ,
10, ,-35, ,
10, ,-35, ,
10, ,-35, ,
9, ,-35, ,
9, ,-35, ,
8, ,-35, ,
8, ,-35, ,
7, ,-35, ,
7, ,-35, ,
6, ,-35, ,
6, ,-35, ,
5, ,-35, ,
5, ,-35, ,
4, ,-35, ,
3, ,-35, ,
2, ,-35, ,
2, ,-35, ,
0, ,-35, ,
-1, ,-35, ,
-2, ,-35, ,
-3, ,-35, ,
-5, ,-35, ,
-6, ,-35, ,
-7, ,-35, ,
-8, ,-35, ,
-11, ,-35, ,
-12, ,-35, ,
-14, ,-35, ,
-15, ,-35, ,
-17, ,-35, ,
-18, ,-35, ,
-19, ,-35, ,
-19, ,-35, ,
-19, ,-35, ,
-20, ,-35, ,
-20, ,-35, ,
-20, ,-35, ,
-21, ,-35, ,
-21, ,-35, ,
-21, ,-35, ,
-21, ,-35, ,
-23, ,-35, ,
-24, ,-35, ,
-25, ,-35, ,
-25, ,-35, ,
-27, ,-35, ,
-27, ,-35, ,
-29, ,-35, ,
-29, ,-35, ,
-30, ,-35, ,
-30, ,-35, ,
-30, ,-35, ,
-29, ,-35, ,
-29, ,-35, ,
-27, ,-35, ,
-26, ,-35, ,
-26, ,-35, ,
-23, ,-35, ,
-22, ,-35, ,
-19, ,-35, ,
-18, ,-35, ,
-15, ,-35, ,
-14, ,-35, ,
-12, ,-35, ,
-11, ,-35, ,
-9, ,-35, ,
-8, ,-35, ,
-6, ,-35, ,
-6, ,-35, ,
-4, ,-35, ,
-3, ,-35, ,
-2, ,-35, ,
-1, ,-35, ,
1, ,-35, ,
2, ,-35, ,
3, ,-35, ,
5, ,-35, ,
7, ,-35, ,
9, ,-35, ,
11, ,-35, ,
12, ,-35, ,
15, ,-35, ,
16, ,-35, ,
17, ,-35, ,
17, ,-35, ,
18, ,-35, ,
17, ,-35, ,
16, ,-35, ,
16, ,-35, ,
14, ,-35, ,
13, ,-35, ,
12, ,-35, ,
10, ,-35, ,
8, ,-35, ,
7, ,-35, ,
6, ,-35, ,
6, ,-35, ,
7, ,-35, ,
7, ,-35, ,
8, ,-35, ,
8, ,-35, ,
9, ,-35, ,
10, ,-35, ,
11, ,-35, ,
12, ,-35, ,
13, ,-35, ,
13, ,-35, ,
14, ,-35, ,
13, ,-35, ,
13, ,-35, ,
13, ,-35, ,
12, ,-35, ,
12, ,-35, ,
10, ,-35, ,
9, ,-35, ,
8, ,-35, ,
7, ,-35, ,
5, ,-35, ,
4, ,-35, ,
3, ,-35, ,
2, ,-35, ,
-2, ,-35, ,
-3, ,-35, ,
-4, ,-35, ,
-5, ,-35, ,
-9, ,-35, ,
-11, ,-35, ,
-13, ,-35, ,
-14, ,-35, ,
-17, ,-35, ,
-20, ,-35, ,
-21, ,-35, ,
-22, ,-35, ,
-24, ,-35, ,
-25, ,-35, ,
-25, ,-35, ,
-25, ,-35, ,
-25, ,-35, ,
-25, ,-35, ,
-25, ,-35, ,
-25, ,-35, ,
-24, ,-35, ,
-23, ,-35, ,
-23, ,-35, ,
-22, ,-35, ,
-21, ,-35, ,
-21, ,-35, ,
-21, ,-35, ,
-21, ,-35, ,
-21, ,-35, ,
-20, ,-35, ,
-20, ,-35, ,
-19, ,-35, ,
-18, ,-35, ,
-18, ,-35, ,
-16, ,-35, ,
-15, ,-35, ,
-12, ,-35, ,
-11, ,-35, ,
-9, ,-35, ,
-7, ,-35, ,
-4, ,-35, ,
-2, ,-35, ,
-1, ,-35, ,
1, ,-35, ,
3, ,-35, ,
5, ,-35, ,
6, ,-35, ,
7, ,-35, ,
7, ,-35, ,
7, ,-35, ,
7, ,-35, ,
6, ,-35, ,
5, ,-35, ,
4, ,-35, ,
3, ,-35, ,
3, ,-35, ,
1, ,-35, ,
0, ,-35, ,
0, ,-35, ,
-2, ,-35, ,
-3, ,-35, ,
-3, ,-35, ,
-4, ,-35, ,
-4, ,-35, ,
-4, ,-35, ,
-4, ,-35, ,
-4, ,-35, ,
-4, ,-35, ,
-4, ,-35, ,
-3, ,-35, ,
-3, ,-35, ,
-3, ,-35, ,
-2, ,-35, ,
-2, ,-35, ,
-2, ,-35, ,
-2, ,-35, ,
-2, ,-35, ,
-2, ,-35, ,
-3, ,-35, ,
-3, ,-35, ,
-4, ,-35, ,
-4, ,-35, ,
-4, ,-35, ,
-5, ,-35, ,
-6, ,-35, ,
-7, ,-35, ,
-8, ,-35, ,
-9, ,-35, ,
-10, ,-35, ,
-11, ,-35, ,
-12, ,-35, ,
-13, ,-35, ,
-14, ,-35, ,
-14, ,-35, ,
-14, ,-35, ,
-14, ,-35, ,
-13, ,-35, ,
-13, ,-35, ,
-12, ,-35, ,
-11, ,-35, ,
-9, ,-35, ,
-7, ,-35, ,
-6, ,-35, ,
-5, ,-35, ,
-1, ,-35, ,
-1, ,-35, ,
2, ,-35, ,
3, ,-35, ,
5, ,-35, ,
6, ,-35, ,
6, ,-35, ,
7, ,-35, ,
7, ,-35, ,
6, ,-35, ,
6, ,-35, ,
6, ,-35, ,
5, ,-35, ,
5, ,-35, ,
5, ,-35, ,
5, ,-35, ,
5, ,-35, ,
5, ,-35, ,
5, ,-35, ,
4, ,-35, ,
4, ,-35, ,
4, ,-35, ,
4, ,-35, ,
5, ,-35, ,
4, ,-35, ,
3, ,-35, ,
3, ,-35, ,
2, ,-35, ,
1, ,-35, ,
1, ,-35, ,
0, ,-35, ,
0, ,-35, ,
-1, ,-35, ,
-2, ,-35, ,
-3, ,-35, ,
-3, ,-35, ,
-4, ,-35, ,
-4, ,-35, ,
-5, ,-35, ,
-5, ,-35, ,
-5, ,-35, ,
-5, ,-35, ,
-5, ,-35, ,
-5, ,-35, ,
-4, ,-35, ,
-3, ,-35, ,
-3, ,-35, ,
-2, ,-35, ,
0, ,-35, ,
0, ,-35, ,
2, ,-35, ,
2, ,-35, ,
4, ,-35, ,
4, ,-35, ,
3, ,-35, ,
3, ,-35, ,
2, ,-35, ,
0, ,-35, ,
-1, ,-35, ,
-3, ,-35, ,
-6, ,-35, ,
-8, ,-35, ,
-10, ,-35, ,
-11, ,-35, ,
-13, ,-35, ,
-16, ,-35, ,
-16, ,-35, ,
-16, ,-35, ,
-15, ,-35, ,
-14, ,-35, ,
-14, ,-35, ,
-12, ,-35, ,
-8, ,-35, ,
-7, ,-35, ,
-4, ,-35, ,
-1, ,-35, ,
2, ,-35, ,
5, ,-35, ,
7, ,-35, ,
9, ,-35, ,
11, ,-35, ,
13, ,-35, ,
13, ,-35, ,
13, ,-35, ,
12, ,-35, ,
12, ,-35, ,
11, ,-35, ,
10, ,-35, ,
8, ,-35, ,
6, ,-35, ,
4, ,-35, ,
1, ,-35, ,
-3, ,-35, ,
-4, ,-35, ,
-6, ,-35, ,
-7, ,-35, ,
-10, ,-35, ,
-12, ,-35, ,
-12, ,-35, ,
-12, ,-35, ,
-11, ,-35, ,
-10, ,-35, ,
-10, ,-35, ,
-8, ,-35, ,
-4, ,-35, ,
-2, ,-35, ,
0, ,-35, ,
1, ,-35, ,
5, ,-35, ,
7, ,-35, ,
9, ,-35, ,
11, ,-35, ,
12, ,-35, ,
12, ,-35, ,
12, ,-35, ,
11, ,-35, ,
10, ,-35, ,
9, ,-35, ,
7, ,-35, ,
6, ,-35, ,
3, ,-35, ,
1, ,-35, ,
-1, ,-35, ,
-2, ,-35, ,
-6, ,-35, ,
-8, ,-35, ,
-10, ,-35, ,
-11, ,-35, ,
-14, ,-35, ,
-15, ,-35, ,
-16, ,-35, ,
-17, ,-35, ,
-17, ,-35, ,
-17, ,-35, ,
-16, ,-35, ,
-16, ,-35, ,
-14, ,-35, ,
-13, ,-35, ,
-12, ,-35, ,
-10, ,-35, ,
-6, ,-35, ,
-4, ,-35, ,
-2, ,-35, ,
0, ,-35, ,
4, ,-35, ,
5, ,-35, ,
7, ,-35, ,
8, ,-35, ,
9, ,-35, ,
9, ,-35, ,
9, ,-35, ,
8, ,-35, ,
7, ,-35, ,
6, ,-35, ,
5, ,-35, ,
4, ,-35, ,
2, ,-35, ,
2, ,-35, ,
2, ,-35, ,
2, ,-35, ,
2, ,-35, ,
2, ,-35, ,
3, ,-35, ,
3, ,-35, ,
4, ,-35, ,
4, ,-35, ,
4, ,-35, ,
5, ,-35, ,
5, ,-35, ,
5, ,-35, ,
5, ,-35, ,
5, ,-35, ,
4, ,-35, ,
3, ,-35, ,
1, ,-35, ,
1, ,-35, ,
-1, ,-35, ,
-3, ,-35, ,
-4, ,-35, ,
-6, ,-35, ,
-8, ,-35, ,
-9, ,-35, ,
-11, ,-35, ,
-11, ,-35, ,
-13, ,-35, ,
-13, ,-35, ,
-13, ,-35, ,
-13, ,-35, ,
-13, ,-35, ,
-11, ,-35, ,
-11, ,-35, ,
-9, ,-35, ,
-7, ,-35, ,
-5, ,-35, ,
-4, ,-35, ,
-3, ,-35, ,
1, ,-35, ,
3, ,-35, ,
3, ,-35, ,
6, ,-35, ,
8, ,-35, ,
9, ,-35, ,
10, ,-35, ,
10, ,-35, ,
10, ,-35, ,
11, ,-35, ,
10, ,-35, ,
10, ,-35, ,
9, ,-35, ,
8, ,-35, ,
7, ,-35, ,
5, ,-35, ,
2, ,-35, ,
2, ,-35, ,
0, ,-35, ,
-2, ,-35, ,
-5, ,-35, ,
-7, ,-35, ,
-8, ,-35, ,
-9, ,-35, ,
-11, ,-35, ,
-11, ,-35, ,
-11, ,-35, ,
-11, ,-35, ,
-10, ,-35, ,
-10, ,-35, ,
-8, ,-35, ,
-8, ,-35, ,
-6, ,-35, ,
-4, ,-35, ,
-3, ,-35, ,
-1, ,-35, ,
2, ,-35, ,
2, ,-35, ,
3, ,-35, ,
4, ,-35, ,
5, ,-35, ,
5, ,-35, ,
5, ,-35, ,
4, ,-35, ,
3, ,-35, ,
2, ,-35, ,
2, ,-35, ,
0, ,-35, ,
-2, ,-35, ,
-3, ,-35, ,
-4, ,-35, ,
-5, ,-35, ,
-6, ,-35, ,
-7, ,-35, ,
-7, ,-35, ,
-7, ,-35, ,
-7, ,-35, ,
-7, ,-35, ,
-7, ,-35, ,
-7, ,-35, ,
-6, ,-35, ,
-5, ,-35, ,
-5, ,-35, ,
-4, ,-35, ,
-3, ,-35, ,
-2, ,-35, ,
-2, ,-35, ,
-2, ,-35, ,
-2, ,-35, ,
-2, ,-35, ,
-1, ,-35, ,
-1, ,-35, ,
-1, ,-35, ,
0, ,-35, ,
-1, ,-35, ,
-1, ,-35, ,
-1, ,-35, ,
-1, ,-35, ,
-1, ,-35, ,
-1, ,-35, ,
-2, ,-35, ,
-2, ,-35, ,
-3, ,-35, ,
-3, ,-35, ,
-5, ,-35, ,
-6, ,-35, ,
-7, ,-35, ,
-8, ,-35, ,
-10, ,-35, ,
-11, ,-35, ,
-12, ,-35, ,
-12, ,-35, ,
-12, ,-35, ,
-12, ,-35, ,
-11, ,-35, ,
-11, ,-35, ,
-9, ,-35, ,
-8, ,-35, ,
-8, ,-35, ,
-5, ,-35, ,
-2, ,-35, ,
-1, ,-35, ,
0, ,-35, ,
1, ,-35, ,
5, ,-35, ,
5, ,-35, ,
6, ,-35, ,
7, ,-35, ,
8, ,-35, ,
8, ,-35, ,
8, ,-35, ,
8, ,-35, ,
7, ,-35, ,
7, ,-35, ,
6, ,-35, ,
5, ,-35, ,
4, ,-35, ,
2, ,-35, ,
2, ,-35, ,
0, ,-35, ,
-1, ,-35, ,
-2, ,-35, ,
-3, ,-35, ,
-3, ,-35, ,
-3, ,-35, ,
-3, ,-35, ,
-2, ,-35, ,
-2, ,-35, ,
0, ,-35, ,
1, ,-35, ,
2, ,-35, ,
3, ,-35, ,
5, ,-35, ,
5, ,-35, ,
6, ,-35, ,
7, ,-35, ,
7, ,-35, ,
7, ,-35, ,
6, ,-35, ,
6, ,-35, ,
5, ,-35, ,
4, ,-35, ,
3, ,-35, ,
2, ,-35, ,
-1, ,-35, ,
-2, ,-35, ,
-4, ,-35, ,
-5, ,-35, ,
-7, ,-35, ,
-9, ,-35, ,
-9, ,-35, ,
-10, ,-35, ,
-12, ,-35, ,
-12, ,-35, ,
-13, ,-35, ,
-13, ,-35, ,
-12, ,-35, ,
-12, ,-35, ,
-12, ,-35, ,
-12, ,-35, ,
-10, ,-35, ,
-9, ,-35, ,
-9, ,-35, ,
-8, ,-35, ,
-5, ,-35, ,
-4, ,-35, ,
-2, ,-35, ,
-1, ,-35, ,
1, ,-35, ,
3, ,-35, ,
4, ,-35, ,
6, ,-35, ,
6, ,-35, ,
7, ,-35, ,
8, ,-35, ,
8, ,-35, ,
8, ,-35, ,
8, ,-35, ,
7, ,-35, ,
7, ,-35, ,
6, ,-35, ,
6, ,-35, ,
6, ,-35, ,
6, ,-35, ,
5, ,-35, ,
5, ,-35, ,
5, ,-35, ,
6, ,-35, ,
6, ,-35, ,
6, ,-35, ,
6, ,-35, ,
6, ,-35, ,
6, ,-35, ,
6, ,-35, ,
5, ,-35, ,
5, ,-35, ,
4, ,-35, ,
4, ,-35, ,
3, ,-35, ,
2, ,-35, ,
0, ,-35, ,
-1, ,-35, ,
-1, ,-35, ,
-2, ,-35, ,
-3, ,-35, ,
-3, ,-35, ,
-2, ,-35, ,
-2, ,-35, ,
-2, ,-35, ,
-1, ,-35, ,
-1, ,-35, ,
0, ,-35, ,
2, ,-35, ,
3, ,-35, ,
4, ,-35, ,
4, ,-35, ,
5, ,-35, ,
5, ,-35, ,
4, ,-35, ,
4, ,-35, ,
3, ,-35, ,
2, ,-35, ,
1, ,-35, ,
-1, ,-35, ,
-3, ,-35, ,
-4, ,-35, ,
-6, ,-35, ,
-8, ,-35, ,
-10, ,-35, ,
-11, ,-35, ,
-12, ,-35, ,
-13, ,-35, ,
-14, ,-35, ,
-14, ,-35, ,
-14, ,-35, ,
-14, ,-35, ,
-14, ,-35, ,
-14, ,-35, ,
-13, ,-35, ,
-13, ,-35, ,
-11, ,-35, ,
-9, ,-35, ,
-8, ,-35, ,
-7, ,-35, ,
-4, ,-35, ,
-2, ,-35, ,
0, ,-35, ,
1, ,-35, ,
5, ,-35, ,
8, ,-35, ,
9, ,-35, ,
12, ,-35, ,
14, ,-35, ,
15, ,-35, ,
16, ,-35, ,
16, ,-35, ,
16, ,-35, ,
16, ,-35, ,
14, ,-35, ,
14, ,-35, ,
12, ,-35, ,
10, ,-35, ,
9, ,-35, ,
7, ,-35, ,
4, ,-35, ,
3, ,-35, ,
1, ,-35, ,
-1, ,-35, ,
-4, ,-35, ,
-5, ,-35, ,
-6, ,-35, ,
-7, ,-35, ,
-7, ,-35, ,
-7, ,-35, ,
-7, ,-35, ,
-7, ,-35, ,
-6, ,-35, ,
-6, ,-35, ,
-6, ,-35, ,
-5, ,-35, ,
-4, ,-35, ,
-2, ,-35, ,
-2, ,-35, ,
-1, ,-35, ,
0, ,-35, ,
0, ,-35, ,
0, ,-35, ,
0, ,-35, ,
0, ,-35, ,
1, ,-35, ,
0, ,-35, ,
1, ,-35, ,
1, ,-35, ,
0, ,-35, ,
0, ,-35, ,
0, ,-35, ,
1, ,-35, ,
1, ,-35, ,
2, ,-35, ,
2, ,-35, ,
2, ,-35, ,
2, ,-35, ,
2, ,-35, ,
2, ,-35, ,
1, ,-35, ,
1, ,-35, ,
0, ,-35, ,
0, ,-35, ,
-1, ,-35, ,
-2, ,-35, ,
-2, ,-35, ,
-4, ,-35, ,
-5, ,-35, ,
-6, ,-35, ,
-6, ,-35, ,
-6, ,-35, ,
-7, ,-35, ,
-6, ,-35, ,
-6, ,-35, ,
-6, ,-35, ,
-6, ,-35, ,
-5, ,-35, ,
-4, ,-35, ,
-4, ,-35, ,
-2, ,-35, ,
-2, ,-35, ,
-1, ,-35, ,
-1, ,-35, ,
0, ,-35, ,
2, ,-35, ,
2, ,-35, ,
2, ,-35, ,
4, ,-35, ,
3, ,-35, ,
5, ,-35, ,
5, ,-35, ,
6, ,-35, ,
6, ,-35, ,
6, ,-35, ,
6, ,-35, ,
6, ,-35, ,
6, ,-35, ,
5, ,-35, ,
5, ,-35, ,
4, ,-35, ,
3, ,-35, ,
3, ,-35, ,
2, ,-35, ,
0, ,-35, ,
-1, ,-35, ,
-1, ,-35, ,
-2, ,-35, ,
-2, ,-35, ,
-2, ,-35, ,
-2, ,-35, ,
-2, ,-35, ,
-1, ,-35, ,
-1, ,-35, ,
1, ,-35, ,
1, ,-35, ,
2, ,-35, ,
3, ,-35, ,
3, ,-35, ,
5, ,-35, ,
6, ,-35, ,
6, ,-35, ,
6, ,-35, ,
6, ,-35, ,
6, ,-35, ,
6, ,-35, ,
6, ,-35, ,
6, ,-35, ,
5, ,-35, ,
4, ,-35, ,
4, ,-35, ,
4, ,-35, ,
3, ,-35, ,
3, ,-35, ,
2, ,-35, ,
2, ,-35, ,
1, ,-35, ,
1, ,-35, ,
1, ,-35, ,
0, ,-35, ,
-1, ,-35, ,
-1, ,-35, ,
-2, ,-35, ,
-2, ,-35, ,
-3, ,-35, ,
-4, ,-35, ,
-4, ,-35, ,
-4, ,-35, ,
-4, ,-35, ,
-4, ,-35, ,
-4, ,-35, ,
-4, ,-35, ,
-3, ,-35, ,
-3, ,-35, ,
-2, ,-35, ,
-2, ,-35, ,
-1, ,-35, ,
0, ,-35, ,
0, ,-35, ,
1, ,-35, ,
1, ,-35, ,
1, ,-35, ,
1, ,-35, ,
1, ,-35, ,
0, ,-35, ,
0, ,-35, ,
0, ,-35, ,
0, ,-35, ,
0, ,-35, ,
-1, ,-35, ,
-1, ,-35, ,
-1, ,-35, ,
0, ,-35, ,
0, ,-35, ,
0, ,-35, ,
0, ,-35, ,
1, ,-35, ,
1, ,-35, ,
1, ,-35, ,
1, ,-35, ,
2, ,-35, ,
2, ,-35, ,
2, ,-35, ,
1, ,-35, ,
1, ,-35, ,
0, ,-35, ,
0, ,-35, ,
-1, ,-35, ,
-2, ,-35, ,
-2, ,-35, ,
-3, ,-35, ,
-4, ,-35, ,
-5, ,-35, ,
-5, ,-35, ,
-6, ,-35, ,
-6, ,-35, ,
-6, ,-35, ,
-6, ,-35, ,
-5, ,-35, ,
-5, ,-35, ,
-4, ,-35, ,
-3, ,-35, ,
-2, ,-35, ,
-2, ,-35, ,
0, ,-35, ,
2, ,-35, ,
2, ,-35, ,
4, ,-35, ,
6, ,-35, ,
6, ,-35, ,
7, ,-35, ,
8, ,-35, ,
