raw_data/75% Glycerol, Impulsion 2Hz, Sonde 5MHz, Rampe 0.7Hz/temp0000156.CSV

Format,1.0B,
Memory Length,10000,Memory Length,10000,
IntpDistance,0,IntpDistance,0,
Trigger Address,159,Trigger Address,159,
Trigger Level,2.720E-01,Trigger Level,2.720E-01,
Source,CH1,Source,CH2,
Vertical Units,V,Vertical Units,V,
Vertical Units Div,0,Vertical Units Div,0,
Vertical Units Extend Div,16,Vertical Units Extend Div,16,
Label,,Label,,
Probe Type,0,Probe Type,0,
Probe Ratio,1.000e+00,Probe Ratio,1.000e+00,
Vertical Scale,5.000e-01,Vertical Scale,2.000e+00,
Vertical Position,0.000e+00,Vertical Position,0.000e+00,
Horizontal Units,S,Horizontal Units,S,
Horizontal Scale,5.000E-06,Horizontal Scale,5.000E-06,
Horizontal Position,2.420E-05,Horizontal Position,2.420E-05,
Horizontal Mode,Main,Horizontal Mode,Main,
SincET Mode,Real Time,SincET Mode,Real Time,
Sampling Period,5.000e-09,Sampling Period,5.000e-09,
Horizontal Old Scale,5.000E-06,Horizontal Old Scale,5.000E-06,
Horizontal Old Position,2.420E-05,Horizontal Old Position,2.420E-05,
Firmware,V1.32,Firmware,V1.32,
Mode,Fast,Mode,Fast,
Waveform Data,,Waveform Data,,
0, ,-40, ,
0, ,-40, ,
0, ,-40, ,
0, ,-40, ,
0, ,-40, ,
0, ,-40, ,
0, ,-40, ,
0, ,-40, ,
0, ,-40, ,
1, ,-40, ,
1, ,-40, ,
1, ,-40, ,
1, ,-40, ,
0, ,-40, ,
0, ,-40, ,
0, ,-40, ,
0, ,-40, ,
0, ,-40, ,
0, ,-40, ,
0, ,-40, ,
0, ,-40, ,
0, ,-40, ,
0, ,-40, ,
1, ,-40, ,
1, ,-40, ,
1, ,-39, ,
0, ,-40, ,
0, ,-40, ,
0, ,-40, ,
0, ,-40, ,
0, ,-40, ,
0, ,-39, ,
0, ,-40, ,
1, ,-40, ,
0, ,-40, ,
0, ,-40, ,
0, ,-40, ,
0, ,-40, ,
1, ,-40, ,
1, ,-40, ,
1, ,-40, ,
1, ,-40, ,
1, ,-40, ,
1, ,-40, ,
0, ,-40, ,
0, ,-40, ,
0, ,-40, ,
0, ,-40, ,
0, ,-40, ,
0, ,-40, ,
0, ,-40, ,
0, ,-40, ,
0, ,-40, ,
0, ,-40, ,
1, ,-40, ,
1, ,-40, ,
0, ,-40, ,
0, ,-40, ,
0, ,-40, ,
1, ,-40, ,
0, ,-40, ,
0, ,-40, ,
0, ,-40, ,
0, ,-40, ,
0, ,-40, ,
0, ,-40, ,
0, ,-40, ,
0, ,-40, ,
1, ,-40, ,
0, ,-40, ,
0, ,-40, ,
0, ,-40, ,
0, ,-40, ,
0, ,-40, ,
0, ,-40, ,
1, ,-40, ,
0, ,-40, ,
0, ,-40, ,
1, ,-40, ,
0, ,-40, ,
0, ,-40, ,
0, ,-40, ,
0, ,-40, ,
0, ,-40, ,
0, ,-40, ,
0, ,-40, ,
0, ,-40, ,
0, ,-40, ,
0, ,-40, ,
0, ,-40, ,
0, ,-40, ,
0, ,-40, ,
1, ,-40, ,
1, ,-40, ,
1, ,-40, ,
1, ,-40, ,
0, ,-40, ,
0, ,-40, ,
0, ,-40, ,
0, ,-40, ,
0, ,-40, ,
0, ,-40, ,
0, ,-40, ,
0, ,-40, ,
0, ,-40, ,
0, ,-40, ,
0, ,-40, ,
0, ,-40, ,
1, ,-39, ,
0, ,-40, ,
0, ,-40, ,
0, ,-40, ,
0, ,-40, ,
0, ,-40, ,
0, ,-40, ,
0, ,-40, ,
1, ,-40, ,
0, ,-40, ,
0, ,-40, ,
0, ,-40, ,
0, ,-40, ,
0, ,-39, ,
0, ,-40, ,
1, ,-40, ,
0, ,-40, ,
0, ,-40, ,
0, ,-40, ,
0, ,-40, ,
1, ,-40, ,
1, ,-40, ,
1, ,-40, ,
1, ,-40, ,
1, ,-40, ,
0, ,-40, ,
0, ,-40, ,
0, ,-40, ,
0, ,-40, ,
0, ,-40, ,
0, ,-40, ,
0, ,-40, ,
0, ,-40, ,
0, ,-40, ,
0, ,-40, ,
0, ,-40, ,
0, ,-40, ,
0, ,-40, ,
0, ,-40, ,
0, ,-40, ,
0, ,-40, ,
0, ,-40, ,
0, ,-40, ,
0, ,-40, ,
1, ,-40, ,
1, ,-40, ,
0, ,-40, ,
0, ,-40, ,
0, ,-40, ,
0, ,-40, ,
0, ,-40, ,
0, ,-40, ,
0, ,-40, ,
0, ,-40, ,
0, ,-40, ,
0, ,-40, ,
-1, ,-40, ,
-1, ,-40, ,
-2, ,-40, ,
3, ,-40, ,
52, ,-40, ,
93, ,-40, ,
125, ,-40, ,
124, ,-40, ,
89, ,-40, ,
28, ,-40, ,
-7, ,-40, ,
12, ,-40, ,
115, ,-40, ,
125, ,-40, ,
125, ,-40, ,
125, ,-40, ,
125, ,-40, ,
125, ,-40, ,
125, ,-40, ,
124, ,-40, ,
120, ,-40, ,
114, ,-40, ,
109, ,-40, ,
105, ,-40, ,
100, ,-40, ,
96, ,-40, ,
93, ,-40, ,
88, ,-39, ,
81, ,-40, ,
79, ,-40, ,
76, ,-40, ,
74, ,-40, ,
68, ,-40, ,
65, ,-40, ,
63, ,-39, ,
59, ,-40, ,
55, ,-40, ,
53, ,-40, ,
50, ,-40, ,
48, ,-40, ,
45, ,-40, ,
43, ,-40, ,
41, ,-40, ,
39, ,-40, ,
36, ,-40, ,
34, ,-40, ,
32, ,-40, ,
31, ,-40, ,
28, ,-40, ,
27, ,-40, ,
25, ,-40, ,
25, ,-40, ,
23, ,-40, ,
22, ,-40, ,
21, ,-40, ,
20, ,-40, ,
18, ,-40, ,
17, ,-40, ,
17, ,-40, ,
15, ,-40, ,
14, ,-40, ,
13, ,-40, ,
13, ,-40, ,
12, ,-40, ,
10, ,-40, ,
10, ,-40, ,
10, ,-40, ,
9, ,-40, ,
7, ,-40, ,
7, ,-40, ,
7, ,-40, ,
7, ,-40, ,
6, ,-40, ,
5, ,-40, ,
5, ,-40, ,
4, ,-40, ,
4, ,-40, ,
4, ,-40, ,
3, ,-40, ,
3, ,-40, ,
3, ,-40, ,
2, ,-40, ,
2, ,-40, ,
2, ,-40, ,
1, ,-40, ,
1, ,-40, ,
1, ,-40, ,
1, ,-40, ,
1, ,-40, ,
0, ,-40, ,
0, ,-40, ,
0, ,-40, ,
0, ,-40, ,
0, ,-40, ,
0, ,-40, ,
0, ,-40, ,
-1, ,-40, ,
-1, ,-40, ,
0, ,-39, ,
-1, ,-40, ,
-1, ,-40, ,
-1, ,-40, ,
-1, ,-40, ,
-1, ,-40, ,
-1, ,-40, ,
-1, ,-40, ,
-1, ,-40, ,
-1, ,-40, ,
-1, ,-40, ,
-1, ,-40, ,
-1, ,-40, ,
-1, ,-40, ,
-1, ,-40, ,
-2, ,-40, ,
-2, ,-40, ,
-2, ,-40, ,
-1, ,-40, ,
-1, ,-40, ,
-1, ,-40, ,
-1, ,-40, ,
-2, ,-40, ,
-2, ,-40, ,
-2, ,-40, ,
-2, ,-40, ,
-2, ,-40, ,
-1, ,-40, ,
-1, ,-40, ,
-1, ,-40, ,
-1, ,-40, ,
-1, ,-40, ,
-1, ,-39, ,
-1, ,-40, ,
-1, ,-40, ,
-1, ,-40, ,
-1, ,-40, ,
-1, ,-40, ,
-1, ,-40, ,
-1, ,-40, ,
-1, ,-40, ,
-1, ,-39, ,
-1, ,-40, ,
-1, ,-40, ,
-1, ,-40, ,
-1, ,-40, ,
-1, ,-40, ,
-1, ,-40, ,
-1, ,-40, ,
-1, ,-40, ,
-1, ,-40, ,
-1, ,-40, ,
-1, ,-40, ,
0, ,-40, ,
-1, ,-40, ,
-1, ,-40, ,
-1, ,-40, ,
-1, ,-40, ,
-1, ,-40, ,
-1, ,-40, ,
-1, ,-40, ,
-1, ,-40, ,
-1, ,-40, ,
-1, ,-40, ,
-1, ,-40, ,
-1, ,-40, ,
0, ,-40, ,
0, ,-40, ,
0, ,-40, ,
0, ,-40, ,
-1, ,-40, ,
-1, ,-40, ,
0, ,-40, ,
-1, ,-40, ,
-1, ,-40, ,
0, ,-40, ,
0, ,-40, ,
0, ,-40, ,
0, ,-40, ,
0, ,-40, ,
0, ,-39, ,
0, ,-40, ,
0, ,-40, ,
0, ,-40, ,
0, ,-40, ,
0, ,-40, ,
0, ,-40, ,
-1, ,-40, ,
-1, ,-40, ,
-1, ,-40, ,
0, ,-40, ,
0, ,-40, ,
0, ,-40, ,
0, ,-40, ,
0, ,-40, ,
0, ,-40, ,
0, ,-40, ,
0, ,-40, ,
0, ,-40, ,
0, ,-40, ,
0, ,-40, ,
0, ,-40, ,
0, ,-40, ,
0, ,-40, ,
0, ,-40, ,
0, ,-40, ,
0, ,-40, ,
0, ,-40, ,
0, ,-40, ,
0, ,-40, ,
0, ,-40, ,
0, ,-40, ,
0, ,-39, ,
0, ,-40, ,
0, ,-40, ,
0, ,-40, ,
0, ,-40, ,
0, ,-40, ,
0, ,-40, ,
0, ,-40, ,
0, ,-40, ,
0, ,-40, ,
0, ,-40, ,
0, ,-40, ,
0, ,-40, ,
0, ,-40, ,
0, ,-40, ,
0, ,-40, ,
0, ,-40, ,
0, ,-40, ,
0, ,-40, ,
0, ,-40, ,
0, ,-40, ,
0, ,-40, ,
0, ,-40, ,
0, ,-40, ,
0, ,-40, ,
0, ,-40, ,
0, ,-40, ,
0, ,-40, ,
0, ,-40, ,
0, ,-40, ,
0, ,-40, ,
0, ,-40, ,
0, ,-40, ,
0, ,-40, ,
0, ,-40, ,
0, ,-40, ,
0, ,-40, ,
0, ,-40, ,
0, ,-40, ,
0, ,-40, ,
0, ,-40, ,
0, ,-40, ,
0, ,-40, ,
0, ,-40, ,
1, ,-40, ,
1, ,-40, ,
1, ,-40, ,
1, ,-40, ,
1, ,-40, ,
1, ,-40, ,
1, ,-40, ,
1, ,-40, ,
1, ,-40, ,
1, ,-40, ,
0, ,-40, ,
0, ,-40, ,
1, ,-40, ,
1, ,-40, ,
0, ,-40, ,
0, ,-40, ,
0, ,-40, ,
0, ,-40, ,
-1, ,-40, ,
-1, ,-40, ,
-1, ,-39, ,
-2, ,-40, ,
-4, ,-40, ,
-6, ,-40, ,
-9, ,-40, ,
-11, ,-40, ,
-13, ,-40, ,
-13, ,-40, ,
-12, ,-40, ,
-11, ,-39, ,
-6, ,-40, ,
-5, ,-40, ,
-3, ,-40, ,
-2, ,-40, ,
0, ,-40, ,
1, ,-40, ,
1, ,-39, ,
1, ,-40, ,
2, ,-40, ,
2, ,-40, ,
2, ,-40, ,
2, ,-40, ,
1, ,-40, ,
0, ,-40, ,
0, ,-40, ,
-1, ,-40, ,
-2, ,-40, ,
-2, ,-40, ,
-2, ,-40, ,
-2, ,-40, ,
-1, ,-40, ,
0, ,-40, ,
0, ,-40, ,
0, ,-40, ,
2, ,-40, ,
3, ,-40, ,
3, ,-40, ,
3, ,-40, ,
3, ,-40, ,
3, ,-40, ,
3, ,-40, ,
3, ,-40, ,
2, ,-40, ,
2, ,-40, ,
2, ,-40, ,
2, ,-40, ,
2, ,-40, ,
1, ,-40, ,
2, ,-40, ,
2, ,-40, ,
2, ,-40, ,
2, ,-40, ,
2, ,-40, ,
2, ,-40, ,
2, ,-40, ,
2, ,-40, ,
2, ,-40, ,
2, ,-39, ,
2, ,-40, ,
2, ,-40, ,
1, ,-40, ,
1, ,-40, ,
1, ,-40, ,
1, ,-40, ,
1, ,-40, ,
0, ,-39, ,
0, ,-40, ,
0, ,-40, ,
0, ,-40, ,
1, ,-40, ,
1, ,-40, ,
1, ,-40, ,
1, ,-40, ,
1, ,-40, ,
1, ,-40, ,
2, ,-40, ,
2, ,-40, ,
2, ,-40, ,
1, ,-40, ,
0, ,-40, ,
0, ,-40, ,
-1, ,-40, ,
-2, ,-40, ,
-3, ,-40, ,
-4, ,-40, ,
-5, ,-40, ,
-8, ,-40, ,
-10, ,-40, ,
-12, ,-40, ,
-13, ,-40, ,
-14, ,-40, ,
-14, ,-40, ,
-14, ,-40, ,
-13, ,-40, ,
-12, ,-40, ,
-12, ,-40, ,
-11, ,-40, ,
-11, ,-40, ,
-10, ,-40, ,
-10, ,-40, ,
-11, ,-40, ,
-11, ,-40, ,
-13, ,-40, ,
-14, ,-40, ,
-16, ,-40, ,
-18, ,-40, ,
-22, ,-40, ,
-23, ,-40, ,
-25, ,-40, ,
-25, ,-40, ,
-27, ,-40, ,
-28, ,-40, ,
-29, ,-40, ,
-29, ,-40, ,
-30, ,-40, ,
-31, ,-40, ,
-32, ,-40, ,
-32, ,-40, ,
-34, ,-40, ,
-35, ,-40, ,
-35, ,-40, ,
-35, ,-40, ,
-34, ,-40, ,
-32, ,-40, ,
-32, ,-40, ,
-30, ,-40, ,
-25, ,-40, ,
-24, ,-40, ,
-21, ,-40, ,
-19, ,-39, ,
-13, ,-40, ,
-11, ,-40, ,
-9, ,-40, ,
-8, ,-40, ,
-5, ,-40, ,
-5, ,-40, ,
-5, ,-40, ,
-6, ,-40, ,
-6, ,-40, ,
-7, ,-40, ,
-7, ,-40, ,
-7, ,-40, ,
-6, ,-40, ,
-6, ,-40, ,
-5, ,-39, ,
-3, ,-40, ,
0, ,-40, ,
3, ,-40, ,
4, ,-40, ,
6, ,-40, ,
9, ,-40, ,
11, ,-40, ,
12, ,-40, ,
13, ,-39, ,
14, ,-40, ,
13, ,-40, ,
13, ,-40, ,
12, ,-40, ,
11, ,-40, ,
9, ,-40, ,
8, ,-39, ,
6, ,-40, ,
3, ,-40, ,
2, ,-40, ,
0, ,-40, ,
-1, ,-40, ,
-1, ,-40, ,
-1, ,-40, ,
0, ,-40, ,
0, ,-40, ,
3, ,-40, ,
3, ,-40, ,
5, ,-40, ,
6, ,-39, ,
8, ,-40, ,
9, ,-40, ,
9, ,-40, ,
9, ,-40, ,
9, ,-40, ,
9, ,-40, ,
8, ,-40, ,
8, ,-40, ,
7, ,-40, ,
6, ,-40, ,
5, ,-40, ,
4, ,-40, ,
2, ,-40, ,
1, ,-40, ,
0, ,-40, ,
-1, ,-40, ,
-3, ,-40, ,
-4, ,-40, ,
-4, ,-40, ,
-5, ,-40, ,
-6, ,-40, ,
-6, ,-40, ,
-8, ,-40, ,
-8, ,-40, ,
-11, ,-40, ,
-12, ,-40, ,
-14, ,-40, ,
-17, ,-40, ,
-21, ,-40, ,
-23, ,-40, ,
-25, ,-40, ,
-25, ,-40, ,
-27, ,-40, ,
-27, ,-40, ,
-27, ,-40, ,
-27, ,-40, ,
-25, ,-40, ,
-24, ,-40, ,
-23, ,-40, ,
-21, ,-40, ,
-17, ,-40, ,
-16, ,-40, ,
-14, ,-40, ,
-13, ,-40, ,
-11, ,-40, ,
-9, ,-40, ,
-8, ,-40, ,
-7, ,-40, ,
-5, ,-40, ,
-4, ,-40, ,
-4, ,-40, ,
-4, ,-40, ,
-2, ,-40, ,
-3, ,-40, ,
-3, ,-40, ,
-4, ,-40, ,
-5, ,-40, ,
-6, ,-40, ,
-7, ,-40, ,
-8, ,-40, ,
-9, ,-40, ,
-10, ,-40, ,
-11, ,-40, ,
-12, ,-40, ,
-12, ,-40, ,
-12, ,-40, ,
-11, ,-40, ,
-11, ,-40, ,
-11, ,-40, ,
-9, ,-40, ,
-9, ,-40, ,
-8, ,-40, ,
-5, ,-40, ,
-4, ,-40, ,
-3, ,-40, ,
-2, ,-40, ,
1, ,-40, ,
1, ,-40, ,
2, ,-40, ,
3, ,-40, ,
4, ,-40, ,
4, ,-40, ,
3, ,-40, ,
3, ,-40, ,
1, ,-40, ,
0, ,-40, ,
-2, ,-40, ,
-3, ,-40, ,
-7, ,-39, ,
-9, ,-40, ,
-10, ,-40, ,
-12, ,-40, ,
-14, ,-40, ,
-14, ,-40, ,
-14, ,-40, ,
-14, ,-40, ,
-14, ,-40, ,
-14, ,-40, ,
-13, ,-40, ,
-13, ,-40, ,
-12, ,-40, ,
-12, ,-40, ,
-11, ,-40, ,
-11, ,-40, ,
-10, ,-39, ,
-9, ,-40, ,
-9, ,-40, ,
-9, ,-40, ,
-8, ,-40, ,
-7, ,-40, ,
-7, ,-40, ,
-7, ,-40, ,
-5, ,-40, ,
-4, ,-40, ,
-3, ,-40, ,
-2, ,-40, ,
1, ,-40, ,
2, ,-40, ,
4, ,-40, ,
6, ,-40, ,
9, ,-40, ,
11, ,-40, ,
13, ,-40, ,
14, ,-39, ,
17, ,-40, ,
18, ,-40, ,
19, ,-40, ,
20, ,-40, ,
21, ,-40, ,
21, ,-40, ,
21, ,-40, ,
20, ,-40, ,
18, ,-40, ,
17, ,-40, ,
16, ,-40, ,
14, ,-40, ,
11, ,-40, ,
8, ,-40, ,
6, ,-40, ,
4, ,-40, ,
-1, ,-40, ,
-4, ,-40, ,
-6, ,-40, ,
-9, ,-40, ,
-14, ,-40, ,
-16, ,-40, ,
-18, ,-40, ,
-21, ,-40, ,
-21, ,-40, ,
-21, ,-40, ,
-21, ,-40, ,
-21, ,-40, ,
-19, ,-40, ,
-18, ,-40, ,
-16, ,-40, ,
-15, ,-40, ,
-11, ,-40, ,
-9, ,-40, ,
-8, ,-40, ,
-7, ,-40, ,
-5, ,-40, ,
-5, ,-40, ,
-5, ,-40, ,
-6, ,-40, ,
-8, ,-40, ,
-9, ,-40, ,
-11, ,-40, ,
-12, ,-40, ,
-16, ,-40, ,
-18, ,-40, ,
-19, ,-40, ,
-20, ,-40, ,
-23, ,-40, ,
-23, ,-40, ,
-23, ,-40, ,
-23, ,-40, ,
-23, ,-40, ,
-23, ,-40, ,
-23, ,-40, ,
-23, ,-40, ,
-22, ,-40, ,
-21, ,-40, ,
-21, ,-40, ,
-21, ,-40, ,
-20, ,-40, ,
-20, ,-40, ,
-20, ,-40, ,
-20, ,-40, ,
-19, ,-40, ,
-18, ,-40, ,
-18, ,-40, ,
-18, ,-40, ,
-17, ,-40, ,
-16, ,-40, ,
-15, ,-40, ,
-15, ,-40, ,
-12, ,-40, ,
-12, ,-39, ,
-10, ,-40, ,
-9, ,-40, ,
-5, ,-40, ,
-5, ,-40, ,
-4, ,-40, ,
-3, ,-40, ,
0, ,-40, ,
1, ,-40, ,
1, ,-40, ,
1, ,-40, ,
1, ,-40, ,
0, ,-40, ,
0, ,-40, ,
-1, ,-40, ,
-2, ,-40, ,
-2, ,-40, ,
-2, ,-40, ,
-2, ,-40, ,
-2, ,-39, ,
-2, ,-40, ,
-2, ,-40, ,
-1, ,-40, ,
1, ,-40, ,
3, ,-40, ,
4, ,-40, ,
6, ,-40, ,
10, ,-40, ,
12, ,-40, ,
15, ,-40, ,
16, ,-40, ,
19, ,-40, ,
21, ,-40, ,
22, ,-40, ,
23, ,-40, ,
23, ,-40, ,
22, ,-40, ,
22, ,-40, ,
20, ,-40, ,
18, ,-40, ,
17, ,-40, ,
14, ,-40, ,
12, ,-40, ,
8, ,-40, ,
6, ,-40, ,
5, ,-40, ,
3, ,-40, ,
-1, ,-40, ,
-1, ,-40, ,
-2, ,-40, ,
-2, ,-40, ,
-4, ,-40, ,
-4, ,-40, ,
-4, ,-40, ,
-4, ,-40, ,
-4, ,-40, ,
-4, ,-40, ,
-5, ,-40, ,
-5, ,-40, ,
-6, ,-40, ,
-7, ,-40, ,
-7, ,-40, ,
-8, ,-40, ,
-10, ,-40, ,
-10, ,-40, ,
-12, ,-40, ,
-12, ,-40, ,
-14, ,-40, ,
-15, ,-40, ,
-15, ,-40, ,
-15, ,-40, ,
-15, ,-40, ,
-15, ,-40, ,
-14, ,-40, ,
-13, ,-40, ,
-12, ,-40, ,
-11, ,-40, ,
-11, ,-40, ,
-10, ,-40, ,
-9, ,-40, ,
-8, ,-39, ,
-9, ,-40, ,
-9, ,-40, ,
-10, ,-40, ,
-11, ,-40, ,
-12, ,-40, ,
-13, ,-39, ,
-16, ,-40, ,
-18, ,-40, ,
-19, ,-40, ,
-20, ,-40, ,
-23, ,-40, ,
-24, ,-40, ,
-24, ,-40, ,
-24, ,-40, ,
-23, ,-40, ,
-23, ,-40, ,
-22, ,-40, ,
-20, ,-40, ,
-16, ,-40, ,
-15, ,-40, ,
-13, ,-40, ,
-10, ,-40, ,
-7, ,-40, ,
-4, ,-40, ,
-3, ,-40, ,
-1, ,-40, ,
2, ,-40, ,
3, ,-40, ,
4, ,-40, ,
4, ,-40, ,
4, ,-40, ,
4, ,-40, ,
4, ,-40, ,
3, ,-40, ,
2, ,-40, ,
1, ,-40, ,
1, ,-40, ,
-1, ,-40, ,
-3, ,-40, ,
-3, ,-40, ,
-4, ,-40, ,
-5, ,-40, ,
-6, ,-40, ,
-7, ,-40, ,
-7, ,-40, ,
-7, ,-39, ,
-7, ,-40, ,
-7, ,-40, ,
-7, ,-40, ,
-6, ,-40, ,
-5, ,-40, ,
-5, ,-40, ,
-4, ,-40, ,
-4, ,-40, ,
-3, ,-40, ,
-2, ,-40, ,
-2, ,-40, ,
-1, ,-40, ,
0, ,-40, ,
0, ,-40, ,
0, ,-40, ,
-1, ,-40, ,
-2, ,-40, ,
-3, ,-40, ,
-3, ,-40, ,
-4, ,-40, ,
-6, ,-39, ,
-8, ,-39, ,
-9, ,-39, ,
-10, ,-40, ,
-13, ,-40, ,
-14, ,-40, ,
-14, ,-40, ,
-14, ,-40, ,
-15, ,-40, ,
-15, ,-40, ,
-14, ,-40, ,
-14, ,-40, ,
-11, ,-40, ,
-9, ,-40, ,
-8, ,-40, ,
-6, ,-40, ,
-2, ,-40, ,
-1, ,-40, ,
2, ,-40, ,
3, ,-40, ,
7, ,-40, ,
8, ,-40, ,
9, ,-40, ,
11, ,-40, ,
12, ,-40, ,
12, ,-40, ,
13, ,-40, ,
13, ,-40, ,
12, ,-40, ,
12, ,-40, ,
11, ,-40, ,
11, ,-40, ,
9, ,-40, ,
8, ,-40, ,
8, ,-40, ,
6, ,-39, ,
4, ,-40, ,
3, ,-40, ,
1, ,-40, ,
0, ,-40, ,
-3, ,-40, ,
-5, ,-40, ,
-5, ,-39, ,
-6, ,-40, ,
-7, ,-40, ,
-7, ,-39, ,
-7, ,-40, ,
-7, ,-40, ,
-6, ,-40, ,
-6, ,-40, ,
-5, ,-40, ,
-4, ,-40, ,
-2, ,-40, ,
-1, ,-40, ,
0, ,-40, ,
1, ,-40, ,
2, ,-40, ,
2, ,-40, ,
2, ,-40, ,
2, ,-40, ,
1, ,-40, ,
1, ,-39, ,
-1, ,-40, ,
-1, ,-40, ,
-4, ,-40, ,
-5, ,-40, ,
-6, ,-40, ,
-8, ,-39, ,
-10, ,-40, ,
-10, ,-40, ,
-11, ,-40, ,
-11, ,-40, ,
-11, ,-40, ,
-11, ,-40, ,
-10, ,-40, ,
-10, ,-40, ,
-8, ,-40, ,
-7, ,-40, ,
-6, ,-40, ,
-5, ,-40, ,
-3, ,-40, ,
-2, ,-40, ,
-1, ,-40, ,
0, ,-40, ,
1, ,-40, ,
1, ,-40, ,
1, ,-40, ,
1, ,-40, ,
1, ,-40, ,
0, ,-40, ,
0, ,-39, ,
0, ,-40, ,
0, ,-40, ,
0, ,-39, ,
0, ,-40, ,
0, ,-40, ,
0, ,-39, ,
0, ,-39, ,
1, ,-40, ,
1, ,-40, ,
1, ,-39, ,
1, ,-39, ,
1, ,-39, ,
2, ,-40, ,
2, ,-40, ,
2, ,-40, ,
2, ,-40, ,
2, ,-40, ,
1, ,-40, ,
1, ,-40, ,
1, ,-40, ,
1, ,-40, ,
0, ,-39, ,
-1, ,-40, ,
-1, ,-40, ,
-2, ,-39, ,
-3, ,-40, ,
-3, ,-40, ,
-4, ,-40, ,
-4, ,-40, ,
-4, ,-40, ,
-5, ,-40, ,
-5, ,-40, ,
-5, ,-40, ,
-5, ,-40, ,
-5, ,-40, ,
-5, ,-40, ,
-5, ,-40, ,
-4, ,-40, ,
-4, ,-40, ,
-3, ,-40, ,
-3, ,-40, ,
-1, ,-40, ,
0, ,-40, ,
1, ,-40, ,
1, ,-40, ,
3, ,-40, ,
4, ,-40, ,
4, ,-40, ,
4, ,-40, ,
5, ,-40, ,
5, ,-40, ,
4, ,-40, ,
4, ,-40, ,
2, ,-40, ,
2, ,-40, ,
0, ,-40, ,
-1, ,-40, ,
-4, ,-40, ,
-5, ,-40, ,
-6, ,-40, ,
-7, ,-40, ,
-9, ,-40, ,
-9, ,-40, ,
-10, ,-39, ,
-10, ,-40, ,
-11, ,-40, ,
-10, ,-40, ,
-11, ,-40, ,
-9, ,-40, ,
-8, ,-40, ,
-8, ,-40, ,
-6, ,-40, ,
-7, ,-40, ,
-5, ,-40, ,
-4, ,-40, ,
-3, ,-40, ,
-1, ,-40, ,
0, ,-40, ,
1, ,-40, ,
1, ,-40, ,
2, ,-40, ,
3, ,-40, ,
4, ,-40, ,
4, ,-40, ,
5, ,-40, ,
5, ,-40, ,
5, ,-40, ,
5, ,-40, ,
4, ,-40, ,
3, ,-40, ,
3, ,-40, ,
2, ,-40, ,
2, ,-40, ,
1, ,-40, ,
0, ,-40, ,
0, ,-40, ,
-1, ,-40, ,
-1, ,-40, ,
-1, ,-40, ,
-1, ,-40, ,
0, ,-40, ,
1, ,-39, ,
1, ,-40, ,
2, ,-40, ,
2, ,-40, ,
4, ,-40, ,
6, ,-40, ,
6, ,-40, ,
8, ,-40, ,
9, ,-40, ,
9, ,-40, ,
9, ,-39, ,
9, ,-40, ,
9, ,-40, ,
9, ,-40, ,
8, ,-40, ,
7, ,-40, ,
5, ,-40, ,
3, ,-40, ,
2, ,-40, ,
0, ,-40, ,
-4, ,-40, ,
-5, ,-40, ,
-7, ,-40, ,
-9, ,-40, ,
-12, ,-40, ,
-13, ,-40, ,
-15, ,-40, ,
-15, ,-40, ,
-16, ,-40, ,
-15, ,-40, ,
-15, ,-40, ,
-15, ,-40, ,
-13, ,-40, ,
-13, ,-40, ,
-11, ,-40, ,
-10, ,-40, ,
-8, ,-40, ,
-7, ,-40, ,
-6, ,-40, ,
-4, ,-40, ,
-3, ,-40, ,
-2, ,-40, ,
-1, ,-40, ,
-1, ,-40, ,
0, ,-40, ,
0, ,-40, ,
0, ,-40, ,
0, ,-40, ,
0, ,-40, ,
-1, ,-40, ,
-1, ,-40, ,
-1, ,-40, ,
-2, ,-40, ,
-2, ,-40, ,
-2, ,-40, ,
-2, ,-40, ,
-2, ,-40, ,
-2, ,-40, ,
-2, ,-39, ,
-2, ,-40, ,
-2, ,-40, ,
-2, ,-40, ,
-2, ,-40, ,
-1, ,-40, ,
0, ,-40, ,
0, ,-40, ,
0, ,-40, ,
0, ,-40, ,
1, ,-40, ,
1, ,-40, ,
0, ,-40, ,
0, ,-40, ,
0, ,-40, ,
0, ,-40, ,
-1, ,-40, ,
-1, ,-40, ,
-2, ,-40, ,
-2, ,-40, ,
-3, ,-40, ,
-3, ,-40, ,
-4, ,-40, ,
-6, ,-40, ,
-6, ,-40, ,
-6, ,-39, ,
-7, ,-40, ,
-7, ,-40, ,
-8, ,-40, ,
-8, ,-40, ,
-8, ,-40, ,
-9, ,-40, ,
-9, ,-40, ,
-9, ,-40, ,
-9, ,-40, ,
-8, ,-39, ,
-8, ,-40, ,
-8, ,-40, ,
-6, ,-39, ,
-6, ,-40, ,
-5, ,-40, ,
-4, ,-40, ,
-2, ,-40, ,
-1, ,-40, ,
0, ,-40, ,
1, ,-40, ,
2, ,-40, ,
2, ,-40, ,
3, ,-40, ,
3, ,-40, ,
3, ,-40, ,
4, ,-40, ,
4, ,-40, ,
4, ,-40, ,
3, ,-40, ,
3, ,-40, ,
3, ,-40, ,
3, ,-39, ,
3, ,-40, ,
3, ,-40, ,
3, ,-40, ,
3, ,-40, ,
4, ,-40, ,
3, ,-40, ,
3, ,-40, ,
3, ,-40, ,
4, ,-40, ,
4, ,-40, ,
4, ,-40, ,
4, ,-40, ,
3, ,-40, ,
2, ,-40, ,
2, ,-40, ,
2, ,-40, ,
1, ,-40, ,
0, ,-40, ,
-1, ,-40, ,
-1, ,-40, ,
-3, ,-40, ,
-4, ,-40, ,
-5, ,-40, ,
-6, ,-40, ,
-7, ,-40, ,
-8, ,-40, ,
-9, ,-40, ,
-9, ,-40, ,
-10, ,-40, ,
-10, ,-40, ,
-10, ,-40, ,
-10, ,-40, ,
-10, ,-40, ,
-10, ,-40, ,
-9, ,-40, ,
-9, ,-40, ,
-8, ,-40, ,
-8, ,-40, ,
-8, ,-40, ,
-7, ,-40, ,
-6, ,-40, ,
-5, ,-40, ,
-5, ,-40, ,
-5, ,-40, ,
-4, ,-40, ,
-4, ,-40, ,
-3, ,-40, ,
-3, ,-40, ,
-1, ,-40, ,
0, ,-40, ,
0, ,-40, ,
0, ,-40, ,
1, ,-40, ,
1, ,-40, ,
2, ,-40, ,
2, ,-40, ,
3, ,-40, ,
4, ,-40, ,
4, ,-40, ,
5, ,-40, ,
6, ,-40, ,
7, ,-40, ,
7, ,-40, ,
7, ,-40, ,
8, ,-40, ,
8, ,-40, ,
8, ,-40, ,
8, ,-40, ,
8, ,-40, ,
7, ,-40, ,
7, ,-40, ,
7, ,-40, ,
6, ,-40, ,
4, ,-40, ,
4, ,-40, ,
3, ,-40, ,
3, ,-40, ,
2, ,-40, ,
2, ,-40, ,
1, ,-40, ,
1, ,-40, ,
1, ,-40, ,
1, ,-40, ,
1, ,-40, ,
1, ,-40, ,
1, ,-40, ,
1, ,-40, ,
1, ,-40, ,
1, ,-40, ,
1, ,-40, ,
1, ,-40, ,
1, ,-40, ,
0, ,-40, ,
0, ,-40, ,
-1, ,-40, ,
-2, ,-40, ,
-3, ,-40, ,
-4, ,-40, ,
-4, ,-40, ,
-5, ,-40, ,
-7, ,-40, ,
-8, ,-40, ,
-9, ,-40, ,
-9, ,-40, ,
-10, ,-40, ,
-10, ,-40, ,
-10, ,-40, ,
-10, ,-40, ,
-8, ,-40, ,
-8, ,-40, ,
-6, ,-40, ,
-5, ,-40, ,
-3, ,-40, ,
-1, ,-40, ,
0, ,-40, ,
1, ,-40, ,
4, ,-40, ,
5, ,-40, ,
6, ,-40, ,
7, ,-40, ,
7, ,-40, ,
7, ,-40, ,
6, ,-40, ,
6, ,-40, ,
4, ,-40, ,
3, ,-40, ,
2, ,-40, ,
2, ,-40, ,
-1, ,-40, ,
-1, ,-40, ,
-2, ,-40, ,
-2, ,-40, ,
-2, ,-40, ,
-2, ,-40, ,
-2, ,-40, ,
-2, ,-40, ,
-1, ,-40, ,
-1, ,-40, ,
-1, ,-40, ,
1, ,-40, ,
1, ,-40, ,
1, ,-40, ,
2, ,-40, ,
2, ,-40, ,
4, ,-40, ,
4, ,-40, ,
4, ,-40, ,
4, ,-40, ,
4, ,-40, ,
4, ,-40, ,
5, ,-40, ,
4, ,-40, ,
4, ,-40, ,
4, ,-40, ,
4, ,-40, ,
4, ,-40, ,
3, ,-40, ,
2, ,-40, ,
2, ,-40, ,
0, ,-40, ,
-1, ,-40, ,
-2, ,-40, ,
-3, ,-40, ,
-4, ,-40, ,
-6, ,-40, ,
-7, ,-40, ,
-8, ,-40, ,
-10, ,-40, ,
-12, ,-40, ,
-12, ,-40, ,
-13, ,-40, ,
-13, ,-40, ,
-13, ,-40, ,
-13, ,-40, ,
-12, ,-40, ,
-12, ,-40, ,
-11, ,-40, ,
-9, ,-40, ,
-8, ,-40, ,
-7, ,-40, ,
-4, ,-40, ,
-4, ,-40, ,
-1, ,-40, ,
-1, ,-40, ,
2, ,-40, ,
5, ,-40, ,
5, ,-40, ,
7, ,-40, ,
9, ,-40, ,
9, ,-40, ,
10, ,-40, ,
10, ,-40, ,
10, ,-40, ,
9, ,-40, ,
9, ,-40, ,
8, ,-40, ,
7, ,-40, ,
5, ,-40, ,
4, ,-40, ,
4, ,-40, ,
2, ,-40, ,
2, ,-40, ,
1, ,-40, ,
0, ,-40, ,
-1, ,-40, ,
-1, ,-40, ,
-1, ,-40, ,
-2, ,-40, ,
-3, ,-40, ,
-3, ,-40, ,
-3, ,-40, ,
-4, ,-40, ,
-4, ,-40, ,
-4, ,-40, ,
-4, ,-40, ,
-4, ,-40, ,
-4, ,-40, ,
-3, ,-40, ,
-3, ,-40, ,
-3, ,-40, ,
-2, ,-40, ,
-2, ,-40, ,
-1, ,-40, ,
0, ,-40, ,
1, ,-40, ,
2, ,-40, ,
2, ,-40, ,
3, ,-40, ,
3, ,-40, ,
3, ,-40, ,
3, ,-40, ,
3, ,-40, ,
2, ,-40, ,
1, ,-40, ,
1, ,-40, ,
0, ,-40, ,
0, ,-40, ,
-1, ,-40, ,
-1, ,-40, ,
-1, ,-40, ,
0, ,-40, ,
0, ,-40, ,
1, ,-40, ,
2, ,-40, ,
3, ,-40, ,
3, ,-40, ,
4, ,-40, ,
5, ,-40, ,
5, ,-40, ,
4, ,-40, ,
4, ,-40, ,
4, ,-40, ,
3, ,-40, ,
2, ,-40, ,
2, ,-40, ,
0, ,-40, ,
-1, ,-40, ,
-3, ,-40, ,
-4, ,-40, ,
-4, ,-40, ,
-5, ,-40, ,
-6, ,-40, ,
-6, ,-40, ,
-6, ,-40, ,
-6, ,-40, ,
-5, ,-40, ,
-5, ,-40, ,
-4, ,-40, ,
-3, ,-40, ,
-2, ,-40, ,
-1, ,-40, ,
-1, ,-40, ,
0, ,-40, ,
2, ,-40, ,
2, ,-40, ,
3, ,-40, ,
3, ,-40, ,
3, ,-40, ,
3, ,-40, ,
3, ,-40, ,
2, ,-40, ,
2, ,-40, ,
1, ,-40, ,
1, ,-40, ,
0, ,-40, ,
-1, ,-40, ,
-1, ,-40, ,
-1, ,-40, ,
-1, ,-40, ,
-1, ,-40, ,
-1, ,-40, ,
0, ,-40, ,
1, ,-40, ,
1, ,-40, ,
1, ,-40, ,
2, ,-40, ,
3, ,-40, ,
4, ,-40, ,
5, ,-40, ,
5, ,-40, ,
6, ,-40, ,
6, ,-40, ,
7, ,-40, ,
7, ,-40, ,
8, ,-40, ,
8, ,-40, ,
7, ,-40, ,
7, ,-40, ,
6, ,-40, ,
6, ,-40, ,
5, ,-39, ,
4, ,-40, ,
3, ,-40, ,
3, ,-40, ,
2, ,-40, ,
1, ,-40, ,
-1, ,-40, ,
-2, ,-40, ,
-3, ,-40, ,
-4, ,-40, ,
-6, ,-40, ,
-7, ,-40, ,
-8, ,-40, ,
-8, ,-40, ,
-8, ,-40, ,
-9, ,-40, ,
-9, ,-40, ,
-9, ,-40, ,
-8, ,-40, ,
-8, ,-40, ,
-8, ,-40, ,
-7, ,-40, ,
-6, ,-40, ,
-6, ,-40, ,
-5, ,-40, ,
-5, ,-39, ,
-4, ,-40, ,
-3, ,-40, ,
-3, ,-40, ,
-3, ,-40, ,
-3, ,-40, ,
-3, ,-40, ,
-3, ,-40, ,
-3, ,-40, ,
-3, ,-40, ,
-3, ,-39, ,
-3, ,-40, ,
-3, ,-40, ,
-3, ,-40, ,
-3, ,-40, ,
-2, ,-40, ,
-2, ,-39, ,
0, ,-40, ,
1, ,-40, ,
1, ,-40, ,
3, ,-40, ,
5, ,-40, ,
6, ,-40, ,
