raw_data/75% Glycerol, Impulsion 2Hz, Sonde 5MHz, Rampe 0.7Hz/temp0000342.CSV

Format,1.0B,
Memory Length,10000,Memory Length,10000,
IntpDistance,0,IntpDistance,0,
Trigger Address,159,Trigger Address,159,
Trigger Level,2.720E-01,Trigger Level,2.720E-01,
Source,CH1,Source,CH2,
Vertical Units,V,Vertical Units,V,
Vertical Units Div,0,Vertical Units Div,0,
Vertical Units Extend Div,16,Vertical Units Extend Div,16,
Label,,Label,,
Probe Type,0,Probe Type,0,
Probe Ratio,1.000e+00,Probe Ratio,1.000e+00,
Vertical Scale,5.000e-01,Vertical Scale,2.000e+00,
Vertical Position,0.000e+00,Vertical Position,0.000e+00,
Horizontal Units,S,Horizontal Units,S,
Horizontal Scale,5.000E-06,Horizontal Scale,5.000E-06,
Horizontal Position,2.420E-05,Horizontal Position,2.420E-05,
Horizontal Mode,Main,Horizontal Mode,Main,
SincET Mode,Real Time,SincET Mode,Real Time,
Sampling Period,5.000e-09,Sampling Period,5.000e-09,
Horizontal Old Scale,5.000E-06,Horizontal Old Scale,5.000E-06,
Horizontal Old Position,2.420E-05,Horizontal Old Position,2.420E-05,
Firmware,V1.32,Firmware,V1.32,
Mode,Fast,Mode,Fast,
Waveform Data,,Waveform Data,,
0, ,-38, ,
0, ,-38, ,
0, ,-38, ,
0, ,-38, ,
0, ,-38, ,
1, ,-38, ,
0, ,-38, ,
0, ,-38, ,
0, ,-38, ,
1, ,-38, ,
1, ,-38, ,
0, ,-38, ,
0, ,-38, ,
1, ,-38, ,
1, ,-38, ,
1, ,-38, ,
1, ,-38, ,
1, ,-38, ,
1, ,-38, ,
0, ,-38, ,
0, ,-38, ,
0, ,-38, ,
0, ,-38, ,
0, ,-38, ,
0, ,-38, ,
1, ,-38, ,
1, ,-38, ,
0, ,-38, ,
1, ,-38, ,
1, ,-38, ,
1, ,-38, ,
1, ,-38, ,
1, ,-38, ,
1, ,-38, ,
1, ,-38, ,
1, ,-38, ,
1, ,-38, ,
1, ,-38, ,
1, ,-38, ,
0, ,-38, ,
0, ,-38, ,
1, ,-38, ,
1, ,-38, ,
0, ,-38, ,
0, ,-38, ,
1, ,-38, ,
0, ,-38, ,
0, ,-38, ,
0, ,-38, ,
1, ,-38, ,
1, ,-38, ,
1, ,-38, ,
1, ,-38, ,
1, ,-38, ,
1, ,-38, ,
1, ,-38, ,
1, ,-38, ,
1, ,-38, ,
1, ,-38, ,
0, ,-38, ,
0, ,-38, ,
1, ,-38, ,
1, ,-38, ,
1, ,-38, ,
1, ,-38, ,
1, ,-38, ,
1, ,-38, ,
1, ,-38, ,
1, ,-38, ,
1, ,-38, ,
0, ,-38, ,
0, ,-38, ,
0, ,-38, ,
1, ,-38, ,
1, ,-38, ,
0, ,-38, ,
0, ,-38, ,
1, ,-38, ,
0, ,-38, ,
1, ,-38, ,
0, ,-38, ,
1, ,-38, ,
1, ,-38, ,
1, ,-38, ,
1, ,-38, ,
0, ,-38, ,
0, ,-38, ,
0, ,-38, ,
0, ,-38, ,
0, ,-38, ,
0, ,-38, ,
0, ,-38, ,
1, ,-38, ,
1, ,-38, ,
0, ,-38, ,
1, ,-38, ,
1, ,-38, ,
0, ,-38, ,
0, ,-38, ,
0, ,-38, ,
0, ,-38, ,
1, ,-38, ,
1, ,-38, ,
1, ,-38, ,
1, ,-38, ,
1, ,-38, ,
1, ,-38, ,
0, ,-38, ,
0, ,-38, ,
1, ,-38, ,
1, ,-38, ,
1, ,-38, ,
0, ,-38, ,
0, ,-38, ,
1, ,-38, ,
1, ,-38, ,
1, ,-38, ,
0, ,-38, ,
0, ,-38, ,
0, ,-38, ,
0, ,-38, ,
1, ,-38, ,
1, ,-38, ,
1, ,-38, ,
1, ,-38, ,
1, ,-38, ,
0, ,-38, ,
0, ,-38, ,
0, ,-38, ,
0, ,-38, ,
0, ,-38, ,
1, ,-38, ,
1, ,-38, ,
1, ,-38, ,
1, ,-38, ,
1, ,-38, ,
1, ,-38, ,
1, ,-38, ,
1, ,-38, ,
1, ,-38, ,
1, ,-38, ,
0, ,-38, ,
0, ,-38, ,
1, ,-38, ,
1, ,-38, ,
1, ,-38, ,
1, ,-38, ,
0, ,-38, ,
0, ,-38, ,
1, ,-38, ,
0, ,-38, ,
0, ,-38, ,
0, ,-38, ,
1, ,-38, ,
1, ,-38, ,
0, ,-38, ,
0, ,-38, ,
1, ,-38, ,
1, ,-38, ,
1, ,-38, ,
0, ,-38, ,
0, ,-38, ,
0, ,-38, ,
0, ,-38, ,
0, ,-38, ,
0, ,-38, ,
-2, ,-38, ,
4, ,-38, ,
21, ,-38, ,
93, ,-38, ,
125, ,-38, ,
124, ,-38, ,
121, ,-38, ,
29, ,-38, ,
-7, ,-38, ,
12, ,-38, ,
63, ,-38, ,
125, ,-38, ,
125, ,-38, ,
125, ,-38, ,
125, ,-38, ,
125, ,-38, ,
125, ,-38, ,
124, ,-38, ,
124, ,-38, ,
114, ,-38, ,
110, ,-38, ,
105, ,-38, ,
103, ,-38, ,
97, ,-38, ,
92, ,-38, ,
89, ,-38, ,
85, ,-38, ,
79, ,-38, ,
76, ,-38, ,
73, ,-38, ,
71, ,-38, ,
65, ,-38, ,
63, ,-38, ,
60, ,-38, ,
57, ,-38, ,
53, ,-38, ,
51, ,-38, ,
48, ,-38, ,
46, ,-38, ,
43, ,-38, ,
41, ,-38, ,
39, ,-38, ,
37, ,-38, ,
34, ,-38, ,
33, ,-38, ,
31, ,-38, ,
30, ,-38, ,
27, ,-38, ,
25, ,-38, ,
25, ,-38, ,
24, ,-38, ,
22, ,-38, ,
21, ,-38, ,
20, ,-38, ,
19, ,-38, ,
18, ,-38, ,
16, ,-38, ,
15, ,-38, ,
15, ,-38, ,
13, ,-38, ,
13, ,-38, ,
12, ,-38, ,
12, ,-38, ,
10, ,-38, ,
9, ,-38, ,
9, ,-38, ,
8, ,-38, ,
7, ,-38, ,
7, ,-38, ,
7, ,-38, ,
6, ,-38, ,
5, ,-38, ,
5, ,-38, ,
5, ,-38, ,
5, ,-38, ,
4, ,-38, ,
4, ,-38, ,
3, ,-38, ,
3, ,-38, ,
3, ,-38, ,
2, ,-38, ,
2, ,-38, ,
2, ,-38, ,
1, ,-38, ,
1, ,-38, ,
1, ,-38, ,
1, ,-38, ,
1, ,-38, ,
1, ,-38, ,
1, ,-38, ,
0, ,-38, ,
0, ,-38, ,
0, ,-38, ,
0, ,-38, ,
0, ,-38, ,
0, ,-38, ,
-1, ,-38, ,
-1, ,-38, ,
-1, ,-38, ,
-1, ,-38, ,
-1, ,-38, ,
-1, ,-38, ,
-1, ,-38, ,
-1, ,-38, ,
-1, ,-38, ,
-1, ,-38, ,
-1, ,-38, ,
-1, ,-38, ,
-1, ,-38, ,
-1, ,-38, ,
-1, ,-38, ,
-1, ,-38, ,
-1, ,-38, ,
-1, ,-38, ,
-1, ,-38, ,
-1, ,-38, ,
-1, ,-38, ,
-1, ,-38, ,
-1, ,-38, ,
-1, ,-38, ,
-1, ,-38, ,
-1, ,-38, ,
-1, ,-38, ,
-1, ,-38, ,
-1, ,-38, ,
-1, ,-38, ,
-1, ,-38, ,
-1, ,-38, ,
-1, ,-38, ,
-1, ,-38, ,
-1, ,-38, ,
-1, ,-38, ,
-1, ,-38, ,
-1, ,-38, ,
-1, ,-38, ,
-1, ,-38, ,
-1, ,-38, ,
-1, ,-38, ,
-1, ,-38, ,
-1, ,-38, ,
-1, ,-38, ,
-1, ,-38, ,
-1, ,-38, ,
-1, ,-38, ,
-1, ,-38, ,
-1, ,-38, ,
-1, ,-38, ,
-1, ,-38, ,
-1, ,-38, ,
-1, ,-38, ,
-1, ,-38, ,
0, ,-38, ,
0, ,-38, ,
0, ,-38, ,
-1, ,-38, ,
-1, ,-38, ,
-1, ,-38, ,
-1, ,-38, ,
-1, ,-38, ,
0, ,-38, ,
0, ,-38, ,
0, ,-38, ,
0, ,-38, ,
0, ,-38, ,
0, ,-38, ,
-1, ,-38, ,
-1, ,-38, ,
-1, ,-38, ,
-1, ,-38, ,
0, ,-38, ,
0, ,-38, ,
0, ,-38, ,
0, ,-38, ,
0, ,-38, ,
0, ,-38, ,
0, ,-38, ,
0, ,-38, ,
0, ,-38, ,
0, ,-38, ,
0, ,-38, ,
0, ,-38, ,
0, ,-38, ,
0, ,-38, ,
0, ,-38, ,
0, ,-38, ,
0, ,-38, ,
0, ,-38, ,
0, ,-38, ,
0, ,-38, ,
0, ,-38, ,
0, ,-38, ,
0, ,-38, ,
0, ,-38, ,
0, ,-38, ,
0, ,-38, ,
0, ,-38, ,
0, ,-38, ,
0, ,-38, ,
0, ,-38, ,
1, ,-38, ,
0, ,-38, ,
0, ,-38, ,
0, ,-38, ,
0, ,-38, ,
0, ,-38, ,
0, ,-38, ,
0, ,-38, ,
0, ,-38, ,
0, ,-38, ,
0, ,-38, ,
0, ,-38, ,
0, ,-38, ,
0, ,-38, ,
0, ,-38, ,
0, ,-38, ,
0, ,-38, ,
0, ,-38, ,
0, ,-38, ,
0, ,-38, ,
0, ,-38, ,
0, ,-38, ,
0, ,-38, ,
0, ,-38, ,
0, ,-38, ,
0, ,-38, ,
0, ,-38, ,
0, ,-38, ,
0, ,-38, ,
0, ,-38, ,
0, ,-38, ,
0, ,-38, ,
0, ,-38, ,
1, ,-38, ,
1, ,-38, ,
1, ,-38, ,
0, ,-38, ,
0, ,-38, ,
0, ,-38, ,
0, ,-38, ,
0, ,-38, ,
0, ,-38, ,
0, ,-38, ,
0, ,-38, ,
0, ,-38, ,
0, ,-38, ,
0, ,-38, ,
0, ,-38, ,
1, ,-38, ,
0, ,-38, ,
0, ,-38, ,
0, ,-38, ,
0, ,-38, ,
1, ,-38, ,
1, ,-38, ,
1, ,-38, ,
0, ,-38, ,
0, ,-38, ,
0, ,-38, ,
0, ,-38, ,
1, ,-38, ,
0, ,-38, ,
0, ,-38, ,
0, ,-38, ,
0, ,-38, ,
0, ,-38, ,
0, ,-38, ,
0, ,-38, ,
0, ,-38, ,
-1, ,-38, ,
-1, ,-38, ,
-1, ,-38, ,
-2, ,-38, ,
-3, ,-38, ,
-3, ,-38, ,
-5, ,-38, ,
-9, ,-38, ,
-11, ,-38, ,
-14, ,-38, ,
-17, ,-38, ,
-16, ,-38, ,
-15, ,-38, ,
-13, ,-38, ,
-9, ,-38, ,
-5, ,-38, ,
-3, ,-38, ,
-2, ,-38, ,
0, ,-38, ,
1, ,-38, ,
2, ,-38, ,
3, ,-38, ,
3, ,-38, ,
4, ,-38, ,
4, ,-38, ,
4, ,-38, ,
4, ,-38, ,
3, ,-38, ,
3, ,-38, ,
3, ,-38, ,
3, ,-38, ,
3, ,-38, ,
3, ,-38, ,
3, ,-38, ,
3, ,-38, ,
3, ,-38, ,
3, ,-38, ,
3, ,-38, ,
3, ,-38, ,
3, ,-38, ,
3, ,-38, ,
3, ,-38, ,
3, ,-38, ,
3, ,-38, ,
3, ,-38, ,
3, ,-38, ,
3, ,-38, ,
2, ,-38, ,
2, ,-38, ,
2, ,-38, ,
2, ,-38, ,
1, ,-38, ,
1, ,-38, ,
1, ,-38, ,
1, ,-38, ,
1, ,-38, ,
1, ,-38, ,
1, ,-38, ,
1, ,-38, ,
2, ,-38, ,
1, ,-38, ,
1, ,-38, ,
1, ,-38, ,
0, ,-38, ,
0, ,-38, ,
0, ,-38, ,
-1, ,-38, ,
-1, ,-38, ,
-2, ,-38, ,
-2, ,-38, ,
-2, ,-38, ,
-2, ,-38, ,
-2, ,-38, ,
-2, ,-38, ,
-1, ,-38, ,
0, ,-38, ,
0, ,-38, ,
0, ,-38, ,
1, ,-38, ,
1, ,-38, ,
1, ,-38, ,
1, ,-38, ,
1, ,-38, ,
0, ,-38, ,
0, ,-38, ,
-1, ,-38, ,
-1, ,-38, ,
-4, ,-38, ,
-3, ,-38, ,
-6, ,-38, ,
-7, ,-38, ,
-9, ,-38, ,
-10, ,-38, ,
-10, ,-38, ,
-10, ,-38, ,
-10, ,-38, ,
-9, ,-38, ,
-8, ,-38, ,
-7, ,-38, ,
-6, ,-38, ,
-5, ,-38, ,
-4, ,-38, ,
-4, ,-38, ,
-4, ,-38, ,
-4, ,-38, ,
-5, ,-38, ,
-6, ,-38, ,
-8, ,-38, ,
-10, ,-38, ,
-12, ,-38, ,
-14, ,-38, ,
-19, ,-38, ,
-20, ,-38, ,
-23, ,-38, ,
-24, ,-38, ,
-24, ,-38, ,
-24, ,-38, ,
-24, ,-38, ,
-24, ,-38, ,
-24, ,-38, ,
-24, ,-38, ,
-25, ,-38, ,
-25, ,-38, ,
-28, ,-38, ,
-31, ,-38, ,
-32, ,-38, ,
-35, ,-38, ,
-39, ,-38, ,
-41, ,-38, ,
-42, ,-38, ,
-42, ,-38, ,
-41, ,-38, ,
-41, ,-38, ,
-39, ,-38, ,
-37, ,-38, ,
-33, ,-38, ,
-30, ,-38, ,
-28, ,-38, ,
-25, ,-38, ,
-21, ,-38, ,
-19, ,-38, ,
-17, ,-38, ,
-15, ,-38, ,
-11, ,-38, ,
-9, ,-38, ,
-8, ,-38, ,
-7, ,-38, ,
-3, ,-38, ,
-1, ,-38, ,
1, ,-38, ,
2, ,-38, ,
5, ,-38, ,
7, ,-38, ,
9, ,-38, ,
10, ,-38, ,
13, ,-38, ,
13, ,-38, ,
13, ,-38, ,
14, ,-38, ,
13, ,-38, ,
13, ,-38, ,
13, ,-38, ,
13, ,-38, ,
12, ,-38, ,
12, ,-38, ,
12, ,-38, ,
12, ,-38, ,
12, ,-38, ,
13, ,-38, ,
13, ,-38, ,
14, ,-38, ,
16, ,-38, ,
17, ,-38, ,
18, ,-38, ,
18, ,-38, ,
19, ,-38, ,
18, ,-38, ,
18, ,-38, ,
17, ,-38, ,
16, ,-38, ,
14, ,-38, ,
13, ,-38, ,
12, ,-38, ,
8, ,-38, ,
6, ,-38, ,
3, ,-38, ,
1, ,-38, ,
-2, ,-38, ,
-5, ,-38, ,
-6, ,-38, ,
-8, ,-38, ,
-9, ,-38, ,
-9, ,-38, ,
-9, ,-38, ,
-9, ,-38, ,
-8, ,-38, ,
-9, ,-38, ,
-7, ,-38, ,
-7, ,-38, ,
-7, ,-38, ,
-7, ,-38, ,
-8, ,-38, ,
-8, ,-38, ,
-10, ,-38, ,
-12, ,-38, ,
-13, ,-38, ,
-14, ,-38, ,
-18, ,-38, ,
-19, ,-38, ,
-21, ,-38, ,
-22, ,-38, ,
-24, ,-38, ,
-25, ,-38, ,
-25, ,-38, ,
-25, ,-38, ,
-25, ,-38, ,
-25, ,-38, ,
-25, ,-38, ,
-25, ,-38, ,
-26, ,-38, ,
-27, ,-38, ,
-27, ,-38, ,
-27, ,-38, ,
-27, ,-38, ,
-27, ,-38, ,
-25, ,-38, ,
-25, ,-38, ,
-22, ,-38, ,
-20, ,-38, ,
-17, ,-38, ,
-14, ,-38, ,
-8, ,-38, ,
-6, ,-38, ,
-3, ,-38, ,
0, ,-38, ,
5, ,-38, ,
7, ,-38, ,
9, ,-38, ,
10, ,-38, ,
12, ,-38, ,
12, ,-38, ,
11, ,-38, ,
11, ,-38, ,
9, ,-38, ,
7, ,-38, ,
7, ,-38, ,
5, ,-38, ,
1, ,-38, ,
-1, ,-38, ,
-3, ,-38, ,
-4, ,-38, ,
-7, ,-38, ,
-8, ,-38, ,
-8, ,-38, ,
-8, ,-38, ,
-8, ,-38, ,
-6, ,-38, ,
-5, ,-38, ,
-4, ,-38, ,
-3, ,-38, ,
-3, ,-38, ,
-2, ,-38, ,
-3, ,-38, ,
-4, ,-38, ,
-5, ,-38, ,
-7, ,-38, ,
-8, ,-38, ,
-12, ,-38, ,
-15, ,-38, ,
-17, ,-38, ,
-20, ,-38, ,
-23, ,-38, ,
-25, ,-38, ,
-25, ,-38, ,
-25, ,-38, ,
-25, ,-38, ,
-25, ,-38, ,
-23, ,-38, ,
-22, ,-38, ,
-19, ,-38, ,
-16, ,-38, ,
-13, ,-38, ,
-10, ,-38, ,
-3, ,-38, ,
-1, ,-38, ,
3, ,-38, ,
6, ,-38, ,
11, ,-38, ,
14, ,-38, ,
16, ,-38, ,
18, ,-38, ,
21, ,-38, ,
22, ,-38, ,
22, ,-38, ,
22, ,-38, ,
21, ,-38, ,
21, ,-38, ,
20, ,-38, ,
19, ,-38, ,
17, ,-38, ,
15, ,-38, ,
14, ,-38, ,
12, ,-38, ,
9, ,-38, ,
8, ,-38, ,
6, ,-38, ,
5, ,-38, ,
2, ,-38, ,
1, ,-38, ,
1, ,-38, ,
0, ,-38, ,
-1, ,-38, ,
-1, ,-38, ,
-2, ,-38, ,
-2, ,-38, ,
-3, ,-38, ,
-4, ,-38, ,
-4, ,-38, ,
-5, ,-38, ,
-6, ,-38, ,
-7, ,-38, ,
-8, ,-38, ,
-9, ,-38, ,
-11, ,-38, ,
-12, ,-38, ,
-13, ,-38, ,
-14, ,-38, ,
-14, ,-38, ,
-14, ,-38, ,
-14, ,-38, ,
-14, ,-38, ,
-12, ,-38, ,
-12, ,-38, ,
-11, ,-38, ,
-9, ,-38, ,
-7, ,-38, ,
-5, ,-38, ,
-4, ,-38, ,
-3, ,-38, ,
-1, ,-38, ,
-1, ,-38, ,
-1, ,-38, ,
-1, ,-38, ,
-2, ,-38, ,
-3, ,-38, ,
-4, ,-38, ,
-5, ,-38, ,
-7, ,-38, ,
-10, ,-38, ,
-12, ,-38, ,
-14, ,-38, ,
-20, ,-38, ,
-22, ,-38, ,
-25, ,-38, ,
-26, ,-38, ,
-31, ,-38, ,
-33, ,-38, ,
-35, ,-38, ,
-37, ,-38, ,
-39, ,-38, ,
-39, ,-38, ,
-39, ,-38, ,
-39, ,-38, ,
-38, ,-38, ,
-36, ,-38, ,
-34, ,-38, ,
-33, ,-38, ,
-27, ,-38, ,
-25, ,-38, ,
-23, ,-38, ,
-20, ,-38, ,
-14, ,-38, ,
-12, ,-38, ,
-9, ,-38, ,
-6, ,-38, ,
-2, ,-38, ,
1, ,-38, ,
2, ,-38, ,
3, ,-38, ,
7, ,-38, ,
8, ,-38, ,
9, ,-38, ,
10, ,-38, ,
11, ,-38, ,
12, ,-38, ,
11, ,-38, ,
12, ,-38, ,
11, ,-38, ,
10, ,-38, ,
10, ,-38, ,
9, ,-38, ,
8, ,-38, ,
7, ,-38, ,
5, ,-38, ,
5, ,-38, ,
3, ,-38, ,
1, ,-38, ,
1, ,-38, ,
-1, ,-38, ,
-2, ,-38, ,
-2, ,-38, ,
-2, ,-38, ,
-2, ,-38, ,
-1, ,-38, ,
-2, ,-38, ,
0, ,-38, ,
0, ,-38, ,
1, ,-38, ,
3, ,-38, ,
3, ,-38, ,
4, ,-38, ,
7, ,-38, ,
7, ,-38, ,
8, ,-38, ,
8, ,-38, ,
10, ,-38, ,
11, ,-38, ,
12, ,-38, ,
14, ,-38, ,
15, ,-38, ,
16, ,-38, ,
17, ,-38, ,
18, ,-38, ,
19, ,-38, ,
20, ,-38, ,
20, ,-38, ,
19, ,-38, ,
18, ,-38, ,
17, ,-38, ,
15, ,-38, ,
13, ,-38, ,
9, ,-38, ,
6, ,-38, ,
3, ,-38, ,
0, ,-38, ,
-7, ,-38, ,
-10, ,-38, ,
-13, ,-38, ,
-16, ,-38, ,
-21, ,-38, ,
-23, ,-38, ,
-25, ,-38, ,
-25, ,-38, ,
-27, ,-38, ,
-27, ,-38, ,
-27, ,-38, ,
-28, ,-38, ,
-26, ,-38, ,
-25, ,-38, ,
-24, ,-38, ,
-22, ,-38, ,
-19, ,-38, ,
-17, ,-38, ,
-14, ,-38, ,
-13, ,-38, ,
-10, ,-38, ,
-7, ,-38, ,
-6, ,-38, ,
-5, ,-38, ,
-3, ,-38, ,
-3, ,-38, ,
-3, ,-38, ,
-4, ,-38, ,
-7, ,-38, ,
-8, ,-38, ,
-10, ,-38, ,
-12, ,-38, ,
-17, ,-38, ,
-20, ,-38, ,
-22, ,-38, ,
-25, ,-38, ,
-27, ,-38, ,
-27, ,-38, ,
-28, ,-38, ,
-27, ,-38, ,
-25, ,-38, ,
-24, ,-38, ,
-22, ,-38, ,
-19, ,-38, ,
-11, ,-38, ,
-7, ,-38, ,
-4, ,-38, ,
1, ,-38, ,
7, ,-38, ,
10, ,-38, ,
13, ,-38, ,
15, ,-38, ,
18, ,-38, ,
19, ,-38, ,
19, ,-38, ,
19, ,-38, ,
18, ,-38, ,
16, ,-38, ,
15, ,-38, ,
13, ,-38, ,
8, ,-38, ,
7, ,-38, ,
3, ,-38, ,
1, ,-38, ,
-4, ,-38, ,
-8, ,-38, ,
-9, ,-38, ,
-13, ,-38, ,
-17, ,-38, ,
-20, ,-38, ,
-22, ,-38, ,
-24, ,-38, ,
-25, ,-38, ,
-25, ,-38, ,
-25, ,-38, ,
-25, ,-38, ,
-24, ,-38, ,
-24, ,-38, ,
-22, ,-38, ,
-20, ,-38, ,
-17, ,-38, ,
-15, ,-38, ,
-12, ,-38, ,
-11, ,-38, ,
-7, ,-38, ,
-4, ,-38, ,
-3, ,-38, ,
0, ,-38, ,
2, ,-38, ,
2, ,-38, ,
4, ,-38, ,
4, ,-38, ,
5, ,-38, ,
5, ,-38, ,
5, ,-38, ,
6, ,-38, ,
6, ,-38, ,
6, ,-38, ,
7, ,-38, ,
7, ,-38, ,
8, ,-38, ,
8, ,-38, ,
9, ,-38, ,
9, ,-38, ,
9, ,-38, ,
9, ,-38, ,
9, ,-38, ,
9, ,-38, ,
7, ,-38, ,
7, ,-38, ,
7, ,-38, ,
7, ,-38, ,
5, ,-38, ,
4, ,-38, ,
3, ,-38, ,
2, ,-38, ,
1, ,-38, ,
0, ,-38, ,
-2, ,-38, ,
-2, ,-38, ,
-3, ,-38, ,
-4, ,-38, ,
-4, ,-38, ,
-5, ,-38, ,
-5, ,-38, ,
-5, ,-38, ,
-6, ,-38, ,
-6, ,-38, ,
-5, ,-38, ,
-5, ,-38, ,
-5, ,-38, ,
-5, ,-38, ,
-4, ,-38, ,
-4, ,-38, ,
-4, ,-38, ,
-3, ,-38, ,
-2, ,-38, ,
-2, ,-38, ,
-1, ,-38, ,
-2, ,-38, ,
-1, ,-38, ,
-1, ,-38, ,
-1, ,-38, ,
-1, ,-38, ,
0, ,-38, ,
0, ,-38, ,
0, ,-38, ,
0, ,-38, ,
2, ,-38, ,
2, ,-38, ,
2, ,-38, ,
3, ,-38, ,
4, ,-38, ,
4, ,-38, ,
5, ,-38, ,
4, ,-38, ,
4, ,-38, ,
4, ,-38, ,
3, ,-38, ,
2, ,-38, ,
1, ,-38, ,
-1, ,-38, ,
-1, ,-38, ,
-3, ,-38, ,
-5, ,-38, ,
-6, ,-38, ,
-7, ,-38, ,
-8, ,-38, ,
-10, ,-38, ,
-11, ,-38, ,
-11, ,-38, ,
-11, ,-38, ,
-12, ,-38, ,
-12, ,-38, ,
-12, ,-38, ,
-12, ,-38, ,
-12, ,-38, ,
-12, ,-38, ,
-11, ,-38, ,
-11, ,-38, ,
-11, ,-38, ,
-10, ,-38, ,
-10, ,-38, ,
-10, ,-38, ,
-9, ,-38, ,
-9, ,-38, ,
-8, ,-38, ,
-8, ,-38, ,
-7, ,-38, ,
-6, ,-38, ,
-6, ,-38, ,
-5, ,-38, ,
-2, ,-38, ,
-1, ,-38, ,
1, ,-38, ,
1, ,-38, ,
5, ,-38, ,
6, ,-38, ,
8, ,-38, ,
8, ,-38, ,
11, ,-38, ,
12, ,-38, ,
13, ,-38, ,
13, ,-38, ,
14, ,-38, ,
14, ,-38, ,
13, ,-38, ,
13, ,-38, ,
11, ,-38, ,
10, ,-38, ,
10, ,-38, ,
8, ,-38, ,
6, ,-38, ,
6, ,-38, ,
3, ,-38, ,
2, ,-38, ,
0, ,-38, ,
-2, ,-38, ,
-3, ,-38, ,
-4, ,-38, ,
-6, ,-38, ,
-6, ,-38, ,
-7, ,-38, ,
-7, ,-38, ,
-6, ,-38, ,
-6, ,-38, ,
-5, ,-38, ,
-5, ,-38, ,
-3, ,-38, ,
-2, ,-38, ,
-2, ,-38, ,
-1, ,-38, ,
1, ,-38, ,
1, ,-38, ,
1, ,-38, ,
1, ,-38, ,
0, ,-38, ,
-1, ,-38, ,
-1, ,-38, ,
-2, ,-38, ,
-4, ,-38, ,
-6, ,-38, ,
-7, ,-38, ,
-9, ,-38, ,
-12, ,-38, ,
-13, ,-38, ,
-14, ,-38, ,
-15, ,-38, ,
-15, ,-38, ,
-15, ,-38, ,
-15, ,-38, ,
-14, ,-38, ,
-11, ,-38, ,
-10, ,-38, ,
-8, ,-38, ,
-4, ,-38, ,
1, ,-38, ,
3, ,-38, ,
6, ,-38, ,
8, ,-38, ,
13, ,-38, ,
16, ,-38, ,
17, ,-38, ,
19, ,-38, ,
20, ,-38, ,
19, ,-38, ,
19, ,-38, ,
18, ,-38, ,
15, ,-38, ,
13, ,-38, ,
11, ,-38, ,
9, ,-38, ,
3, ,-38, ,
1, ,-38, ,
-2, ,-38, ,
-5, ,-38, ,
-10, ,-38, ,
-11, ,-38, ,
-14, ,-38, ,
-15, ,-38, ,
-17, ,-38, ,
-19, ,-38, ,
-19, ,-38, ,
-19, ,-38, ,
-18, ,-38, ,
-17, ,-38, ,
-17, ,-38, ,
-16, ,-38, ,
-13, ,-38, ,
-12, ,-38, ,
-10, ,-38, ,
-9, ,-38, ,
-5, ,-38, ,
-4, ,-38, ,
-2, ,-38, ,
-1, ,-38, ,
3, ,-38, ,
3, ,-38, ,
4, ,-38, ,
4, ,-38, ,
5, ,-38, ,
6, ,-38, ,
5, ,-38, ,
5, ,-38, ,
4, ,-38, ,
3, ,-38, ,
3, ,-38, ,
2, ,-38, ,
2, ,-38, ,
2, ,-38, ,
2, ,-38, ,
2, ,-38, ,
3, ,-38, ,
3, ,-38, ,
4, ,-38, ,
4, ,-38, ,
5, ,-38, ,
6, ,-38, ,
7, ,-38, ,
7, ,-38, ,
8, ,-38, ,
7, ,-38, ,
7, ,-38, ,
7, ,-38, ,
6, ,-38, ,
6, ,-38, ,
4, ,-38, ,
4, ,-38, ,
3, ,-38, ,
1, ,-38, ,
0, ,-38, ,
-1, ,-38, ,
-3, ,-38, ,
-3, ,-38, ,
-5, ,-38, ,
-5, ,-38, ,
-7, ,-38, ,
-7, ,-38, ,
-7, ,-38, ,
-8, ,-38, ,
-8, ,-38, ,
-9, ,-38, ,
-9, ,-38, ,
-9, ,-38, ,
-9, ,-38, ,
-9, ,-38, ,
-9, ,-38, ,
-9, ,-38, ,
-8, ,-38, ,
-8, ,-38, ,
-8, ,-38, ,
-7, ,-38, ,
-7, ,-38, ,
-8, ,-38, ,
-8, ,-38, ,
-8, ,-38, ,
-8, ,-38, ,
-8, ,-38, ,
-8, ,-38, ,
-9, ,-38, ,
-10, ,-38, ,
-10, ,-38, ,
-10, ,-38, ,
-9, ,-38, ,
-10, ,-38, ,
-10, ,-38, ,
-10, ,-38, ,
-10, ,-38, ,
-10, ,-38, ,
-9, ,-38, ,
-9, ,-38, ,
-9, ,-38, ,
-7, ,-38, ,
-7, ,-38, ,
-6, ,-38, ,
-6, ,-38, ,
-4, ,-38, ,
-3, ,-38, ,
-2, ,-38, ,
-1, ,-38, ,
2, ,-38, ,
3, ,-38, ,
4, ,-38, ,
6, ,-38, ,
9, ,-38, ,
10, ,-38, ,
12, ,-38, ,
12, ,-38, ,
14, ,-38, ,
16, ,-38, ,
16, ,-38, ,
16, ,-38, ,
15, ,-38, ,
14, ,-38, ,
14, ,-38, ,
13, ,-38, ,
9, ,-38, ,
8, ,-38, ,
6, ,-38, ,
4, ,-38, ,
-1, ,-38, ,
-3, ,-38, ,
-4, ,-38, ,
-7, ,-38, ,
-11, ,-38, ,
-12, ,-38, ,
-14, ,-38, ,
-14, ,-38, ,
-14, ,-38, ,
-14, ,-38, ,
-13, ,-38, ,
-13, ,-38, ,
-11, ,-38, ,
-9, ,-38, ,
-8, ,-38, ,
-6, ,-38, ,
-4, ,-38, ,
-4, ,-38, ,
-2, ,-38, ,
-1, ,-38, ,
1, ,-38, ,
1, ,-38, ,
1, ,-38, ,
2, ,-38, ,
1, ,-38, ,
1, ,-38, ,
1, ,-38, ,
0, ,-38, ,
-1, ,-38, ,
-1, ,-38, ,
-2, ,-38, ,
-2, ,-38, ,
-4, ,-38, ,
-5, ,-38, ,
-5, ,-38, ,
-6, ,-38, ,
-7, ,-38, ,
-8, ,-38, ,
-8, ,-38, ,
-9, ,-38, ,
-9, ,-38, ,
-9, ,-38, ,
-10, ,-38, ,
-10, ,-38, ,
-9, ,-38, ,
-9, ,-38, ,
-9, ,-38, ,
-8, ,-38, ,
-7, ,-38, ,
-7, ,-38, ,
-5, ,-38, ,
-4, ,-38, ,
-2, ,-38, ,
0, ,-38, ,
1, ,-38, ,
3, ,-38, ,
6, ,-38, ,
6, ,-38, ,
8, ,-38, ,
9, ,-38, ,
12, ,-38, ,
13, ,-38, ,
14, ,-38, ,
15, ,-38, ,
16, ,-38, ,
17, ,-38, ,
17, ,-38, ,
17, ,-38, ,
17, ,-38, ,
17, ,-38, ,
16, ,-38, ,
16, ,-38, ,
14, ,-38, ,
12, ,-38, ,
12, ,-38, ,
10, ,-38, ,
8, ,-38, ,
6, ,-38, ,
4, ,-38, ,
3, ,-38, ,
0, ,-38, ,
-1, ,-38, ,
-2, ,-38, ,
-4, ,-38, ,
-7, ,-38, ,
-7, ,-38, ,
-9, ,-38, ,
-9, ,-38, ,
-9, ,-38, ,
-9, ,-38, ,
-9, ,-38, ,
-9, ,-38, ,
-8, ,-38, ,
-8, ,-38, ,
-8, ,-38, ,
-7, ,-38, ,
-5, ,-38, ,
-5, ,-38, ,
-4, ,-38, ,
-3, ,-38, ,
-2, ,-38, ,
0, ,-38, ,
0, ,-38, ,
1, ,-38, ,
1, ,-38, ,
1, ,-38, ,
1, ,-38, ,
1, ,-38, ,
-1, ,-38, ,
-1, ,-38, ,
-2, ,-38, ,
-2, ,-38, ,
-3, ,-38, ,
-5, ,-38, ,
-5, ,-38, ,
-6, ,-38, ,
-7, ,-38, ,
-8, ,-38, ,
-8, ,-38, ,
-8, ,-38, ,
-8, ,-38, ,
-8, ,-38, ,
-7, ,-38, ,
-7, ,-38, ,
-6, ,-38, ,
-6, ,-38, ,
-6, ,-38, ,
-5, ,-38, ,
-4, ,-38, ,
-3, ,-38, ,
-2, ,-38, ,
-2, ,-38, ,
-1, ,-38, ,
0, ,-38, ,
0, ,-38, ,
1, ,-38, ,
2, ,-38, ,
3, ,-38, ,
4, ,-38, ,
4, ,-38, ,
5, ,-38, ,
6, ,-38, ,
6, ,-38, ,
6, ,-38, ,
6, ,-38, ,
6, ,-38, ,
6, ,-38, ,
5, ,-38, ,
4, ,-38, ,
4, ,-38, ,
4, ,-38, ,
3, ,-38, ,
2, ,-38, ,
2, ,-38, ,
1, ,-38, ,
1, ,-38, ,
2, ,-38, ,
2, ,-38, ,
2, ,-38, ,
3, ,-38, ,
4, ,-38, ,
4, ,-38, ,
5, ,-38, ,
5, ,-38, ,
6, ,-38, ,
8, ,-38, ,
8, ,-38, ,
9, ,-38, ,
9, ,-38, ,
8, ,-38, ,
8, ,-38, ,
7, ,-38, ,
6, ,-38, ,
6, ,-38, ,
4, ,-38, ,
4, ,-38, ,
2, ,-38, ,
0, ,-38, ,
-1, ,-38, ,
-3, ,-38, ,
-6, ,-38, ,
-7, ,-38, ,
-8, ,-38, ,
-9, ,-38, ,
-11, ,-38, ,
-13, ,-38, ,
-13, ,-38, ,
-13, ,-38, ,
-14, ,-38, ,
-13, ,-38, ,
-13, ,-38, ,
-13, ,-38, ,
-12, ,-38, ,
-12, ,-38, ,
-11, ,-38, ,
-10, ,-38, ,
-8, ,-38, ,
-7, ,-38, ,
-6, ,-38, ,
-5, ,-38, ,
-3, ,-38, ,
-1, ,-38, ,
0, ,-38, ,
0, ,-38, ,
2, ,-38, ,
3, ,-38, ,
3, ,-38, ,
4, ,-38, ,
4, ,-38, ,
3, ,-38, ,
3, ,-38, ,
2, ,-38, ,
1, ,-38, ,
0, ,-38, ,
-1, ,-38, ,
-2, ,-38, ,
-3, ,-38, ,
-3, ,-38, ,
-3, ,-38, ,
-3, ,-38, ,
-3, ,-38, ,
-2, ,-38, ,
-2, ,-38, ,
-1, ,-38, ,
1, ,-38, ,
2, ,-38, ,
3, ,-38, ,
3, ,-38, ,
6, ,-38, ,
7, ,-38, ,
7, ,-38, ,
8, ,-38, ,
9, ,-38, ,
9, ,-38, ,
10, ,-38, ,
9, ,-38, ,
9, ,-38, ,
9, ,-38, ,
8, ,-38, ,
8, ,-38, ,
7, ,-38, ,
6, ,-38, ,
5, ,-38, ,
5, ,-38, ,
4, ,-38, ,
4, ,-38, ,
2, ,-38, ,
2, ,-38, ,
2, ,-38, ,
1, ,-38, ,
0, ,-38, ,
0, ,-38, ,
-1, ,-38, ,
-1, ,-38, ,
-2, ,-38, ,
-2, ,-38, ,
-3, ,-38, ,
-4, ,-38, ,
-4, ,-38, ,
-4, ,-38, ,
-4, ,-38, ,
-4, ,-38, ,
-4, ,-38, ,
-4, ,-38, ,
-4, ,-38, ,
-4, ,-38, ,
-4, ,-38, ,
-4, ,-38, ,
-3, ,-38, ,
-2, ,-38, ,
-2, ,-38, ,
-1, ,-38, ,
0, ,-38, ,
1, ,-38, ,
2, ,-38, ,
3, ,-38, ,
4, ,-38, ,
5, ,-38, ,
5, ,-38, ,
6, ,-38, ,
6, ,-38, ,
5, ,-38, ,
5, ,-38, ,
4, ,-38, ,
3, ,-38, ,
2, ,-38, ,
2, ,-38, ,
1, ,-38, ,
-2, ,-38, ,
-3, ,-38, ,
-3, ,-38, ,
-4, ,-38, ,
-5, ,-38, ,
-5, ,-38, ,
-6, ,-38, ,
-6, ,-38, ,
-6, ,-38, ,
-6, ,-38, ,
-6, ,-38, ,
-5, ,-38, ,
-4, ,-38, ,
-3, ,-38, ,
-3, ,-38, ,
-1, ,-38, ,
0, ,-38, ,
1, ,-38, ,
2, ,-38, ,
2, ,-38, ,
3, ,-38, ,
5, ,-38, ,
5, ,-38, ,
5, ,-38, ,
6, ,-38, ,
6, ,-38, ,
5, ,-38, ,
5, ,-38, ,
4, ,-38, ,
4, ,-38, ,
3, ,-38, ,
2, ,-38, ,
1, ,-38, ,
0, ,-38, ,
-1, ,-38, ,
-2, ,-38, ,
-2, ,-38, ,
-2, ,-38, ,
-2, ,-38, ,
-2, ,-38, ,
-1, ,-38, ,
-1, ,-38, ,
-1, ,-38, ,
0, ,-38, ,
2, ,-38, ,
3, ,-38, ,
3, ,-38, ,
4, ,-38, ,
5, ,-38, ,
5, ,-38, ,
5, ,-38, ,
5, ,-38, ,
4, ,-38, ,
3, ,-38, ,
2, ,-38, ,
2, ,-38, ,
0, ,-38, ,
-1, ,-38, ,
-2, ,-38, ,
