raw_data/75% Glycerol, Impulsion 2Hz, Sonde 5MHz, Rampe 0.7Hz/temp0000183.CSV

Format,1.0B,
Memory Length,10000,Memory Length,10000,
IntpDistance,0,IntpDistance,0,
Trigger Address,159,Trigger Address,159,
Trigger Level,2.720E-01,Trigger Level,2.720E-01,
Source,CH1,Source,CH2,
Vertical Units,V,Vertical Units,V,
Vertical Units Div,0,Vertical Units Div,0,
Vertical Units Extend Div,16,Vertical Units Extend Div,16,
Label,,Label,,
Probe Type,0,Probe Type,0,
Probe Ratio,1.000e+00,Probe Ratio,1.000e+00,
Vertical Scale,5.000e-01,Vertical Scale,2.000e+00,
Vertical Position,0.000e+00,Vertical Position,0.000e+00,
Horizontal Units,S,Horizontal Units,S,
Horizontal Scale,5.000E-06,Horizontal Scale,5.000E-06,
Horizontal Position,2.420E-05,Horizontal Position,2.420E-05,
Horizontal Mode,Main,Horizontal Mode,Main,
SincET Mode,Real Time,SincET Mode,Real Time,
Sampling Period,5.000e-09,Sampling Period,5.000e-09,
Horizontal Old Scale,5.000E-06,Horizontal Old Scale,5.000E-06,
Horizontal Old Position,2.420E-05,Horizontal Old Position,2.420E-05,
Firmware,V1.32,Firmware,V1.32,
Mode,Fast,Mode,Fast,
Waveform Data,,Waveform Data,,
1, ,-2, ,
1, ,-2, ,
1, ,-2, ,
1, ,-2, ,
1, ,-2, ,
1, ,-2, ,
1, ,-2, ,
1, ,-2, ,
1, ,-2, ,
1, ,-2, ,
1, ,-2, ,
1, ,-2, ,
1, ,-2, ,
1, ,-2, ,
1, ,-2, ,
1, ,-2, ,
1, ,-2, ,
1, ,-2, ,
0, ,-2, ,
0, ,-2, ,
1, ,-2, ,
1, ,-2, ,
1, ,-2, ,
1, ,-2, ,
1, ,-2, ,
1, ,-2, ,
1, ,-2, ,
1, ,-2, ,
1, ,-2, ,
1, ,-2, ,
1, ,-2, ,
1, ,-2, ,
1, ,-2, ,
1, ,-2, ,
1, ,-2, ,
1, ,-2, ,
0, ,-2, ,
1, ,-2, ,
1, ,-2, ,
1, ,-2, ,
1, ,-2, ,
1, ,-2, ,
1, ,-2, ,
1, ,-2, ,
1, ,-2, ,
1, ,-2, ,
1, ,-2, ,
1, ,-2, ,
1, ,-2, ,
1, ,-2, ,
1, ,-2, ,
1, ,-2, ,
1, ,-2, ,
1, ,-2, ,
1, ,-2, ,
1, ,-2, ,
1, ,-2, ,
1, ,-2, ,
1, ,-2, ,
1, ,-2, ,
1, ,-2, ,
1, ,-2, ,
1, ,-2, ,
1, ,-3, ,
1, ,-3, ,
1, ,-3, ,
1, ,-2, ,
1, ,-2, ,
1, ,-2, ,
1, ,-2, ,
1, ,-2, ,
1, ,-2, ,
1, ,-2, ,
1, ,-2, ,
1, ,-2, ,
1, ,-2, ,
1, ,-2, ,
1, ,-2, ,
1, ,-2, ,
1, ,-2, ,
1, ,-2, ,
1, ,-2, ,
1, ,-2, ,
1, ,-2, ,
1, ,-2, ,
1, ,-2, ,
1, ,-2, ,
1, ,-2, ,
1, ,-2, ,
1, ,-2, ,
1, ,-2, ,
1, ,-2, ,
1, ,-2, ,
1, ,-2, ,
1, ,-2, ,
1, ,-2, ,
1, ,-2, ,
1, ,-2, ,
1, ,-2, ,
1, ,-2, ,
1, ,-2, ,
1, ,-2, ,
0, ,-2, ,
0, ,-2, ,
0, ,-2, ,
0, ,-2, ,
1, ,-2, ,
1, ,-2, ,
0, ,-2, ,
1, ,-2, ,
1, ,-2, ,
0, ,-2, ,
0, ,-2, ,
0, ,-2, ,
0, ,-2, ,
1, ,-2, ,
1, ,-2, ,
0, ,-2, ,
0, ,-2, ,
1, ,-2, ,
1, ,-2, ,
1, ,-2, ,
1, ,-2, ,
1, ,-2, ,
1, ,-2, ,
1, ,-2, ,
1, ,-2, ,
1, ,-2, ,
1, ,-2, ,
1, ,-2, ,
1, ,-2, ,
1, ,-2, ,
1, ,-2, ,
1, ,-2, ,
1, ,-2, ,
1, ,-2, ,
1, ,-2, ,
1, ,-2, ,
1, ,-2, ,
1, ,-2, ,
1, ,-2, ,
1, ,-3, ,
1, ,-3, ,
1, ,-2, ,
1, ,-2, ,
1, ,-2, ,
1, ,-2, ,
1, ,-2, ,
1, ,-2, ,
1, ,-2, ,
1, ,-2, ,
1, ,-2, ,
1, ,-2, ,
1, ,-2, ,
1, ,-3, ,
1, ,-3, ,
1, ,-2, ,
1, ,-2, ,
1, ,-2, ,
0, ,-2, ,
0, ,-2, ,
0, ,-2, ,
1, ,-2, ,
1, ,-2, ,
0, ,-2, ,
0, ,-2, ,
0, ,-2, ,
9, ,-2, ,
30, ,-2, ,
66, ,-2, ,
107, ,-2, ,
123, ,-2, ,
119, ,-2, ,
70, ,-2, ,
12, ,-2, ,
28, ,-2, ,
84, ,-2, ,
125, ,-2, ,
125, ,-2, ,
125, ,-2, ,
125, ,-2, ,
125, ,-2, ,
125, ,-2, ,
124, ,-2, ,
124, ,-2, ,
118, ,-2, ,
113, ,-2, ,
105, ,-2, ,
101, ,-2, ,
99, ,-2, ,
95, ,-2, ,
88, ,-2, ,
85, ,-2, ,
81, ,-2, ,
79, ,-2, ,
73, ,-2, ,
70, ,-2, ,
67, ,-2, ,
64, ,-2, ,
59, ,-2, ,
57, ,-2, ,
55, ,-2, ,
52, ,-2, ,
48, ,-2, ,
45, ,-2, ,
44, ,-2, ,
42, ,-2, ,
39, ,-2, ,
37, ,-2, ,
35, ,-2, ,
34, ,-2, ,
31, ,-2, ,
30, ,-2, ,
28, ,-2, ,
26, ,-2, ,
25, ,-2, ,
24, ,-2, ,
22, ,-2, ,
22, ,-2, ,
20, ,-2, ,
19, ,-2, ,
18, ,-2, ,
17, ,-2, ,
15, ,-2, ,
15, ,-2, ,
14, ,-2, ,
13, ,-2, ,
12, ,-2, ,
11, ,-2, ,
11, ,-2, ,
10, ,-2, ,
9, ,-2, ,
9, ,-2, ,
8, ,-2, ,
8, ,-2, ,
7, ,-2, ,
6, ,-2, ,
6, ,-2, ,
5, ,-2, ,
5, ,-2, ,
4, ,-2, ,
4, ,-2, ,
4, ,-2, ,
4, ,-2, ,
3, ,-2, ,
3, ,-2, ,
3, ,-2, ,
2, ,-2, ,
2, ,-2, ,
2, ,-2, ,
2, ,-2, ,
1, ,-2, ,
1, ,-2, ,
1, ,-2, ,
1, ,-2, ,
1, ,-2, ,
1, ,-2, ,
0, ,-2, ,
0, ,-2, ,
0, ,-2, ,
0, ,-2, ,
0, ,-2, ,
0, ,-2, ,
0, ,-2, ,
0, ,-2, ,
-1, ,-2, ,
-1, ,-2, ,
0, ,-2, ,
0, ,-2, ,
-1, ,-2, ,
-1, ,-2, ,
-1, ,-2, ,
-1, ,-2, ,
-1, ,-2, ,
-1, ,-2, ,
-1, ,-2, ,
-1, ,-2, ,
-1, ,-2, ,
-1, ,-2, ,
-1, ,-2, ,
-1, ,-2, ,
-1, ,-2, ,
-1, ,-2, ,
-1, ,-2, ,
-1, ,-2, ,
-1, ,-2, ,
-1, ,-2, ,
-1, ,-2, ,
-1, ,-2, ,
-1, ,-2, ,
-1, ,-2, ,
-1, ,-2, ,
-1, ,-2, ,
-1, ,-2, ,
-1, ,-2, ,
-1, ,-2, ,
-1, ,-2, ,
-1, ,-2, ,
-1, ,-2, ,
-1, ,-2, ,
-1, ,-2, ,
-1, ,-2, ,
-1, ,-2, ,
-1, ,-2, ,
-1, ,-2, ,
-1, ,-2, ,
-1, ,-2, ,
-1, ,-2, ,
-1, ,-2, ,
-1, ,-2, ,
-1, ,-2, ,
-1, ,-2, ,
-1, ,-2, ,
0, ,-2, ,
0, ,-2, ,
-1, ,-2, ,
-1, ,-2, ,
-1, ,-2, ,
-1, ,-2, ,
0, ,-2, ,
0, ,-2, ,
0, ,-2, ,
0, ,-2, ,
0, ,-2, ,
-1, ,-2, ,
-1, ,-2, ,
-1, ,-2, ,
0, ,-2, ,
0, ,-2, ,
0, ,-2, ,
-1, ,-2, ,
-1, ,-2, ,
0, ,-2, ,
0, ,-2, ,
0, ,-2, ,
0, ,-2, ,
0, ,-2, ,
0, ,-2, ,
0, ,-2, ,
0, ,-2, ,
0, ,-2, ,
0, ,-2, ,
0, ,-2, ,
0, ,-2, ,
0, ,-2, ,
0, ,-2, ,
0, ,-2, ,
0, ,-3, ,
0, ,-3, ,
0, ,-3, ,
0, ,-2, ,
0, ,-2, ,
0, ,-2, ,
0, ,-2, ,
0, ,-2, ,
0, ,-2, ,
0, ,-2, ,
1, ,-2, ,
1, ,-2, ,
1, ,-2, ,
0, ,-2, ,
0, ,-2, ,
0, ,-2, ,
1, ,-2, ,
1, ,-2, ,
1, ,-2, ,
0, ,-2, ,
0, ,-2, ,
1, ,-2, ,
0, ,-2, ,
0, ,-2, ,
0, ,-2, ,
0, ,-2, ,
1, ,-2, ,
0, ,-2, ,
0, ,-2, ,
1, ,-2, ,
0, ,-2, ,
0, ,-2, ,
1, ,-2, ,
0, ,-2, ,
0, ,-2, ,
0, ,-2, ,
1, ,-2, ,
1, ,-2, ,
0, ,-2, ,
0, ,-2, ,
1, ,-2, ,
0, ,-2, ,
0, ,-2, ,
0, ,-2, ,
0, ,-2, ,
0, ,-2, ,
0, ,-2, ,
1, ,-2, ,
0, ,-2, ,
0, ,-2, ,
0, ,-2, ,
0, ,-2, ,
0, ,-2, ,
1, ,-2, ,
0, ,-2, ,
0, ,-2, ,
1, ,-2, ,
0, ,-2, ,
0, ,-2, ,
0, ,-2, ,
0, ,-2, ,
0, ,-2, ,
0, ,-2, ,
0, ,-2, ,
0, ,-2, ,
0, ,-2, ,
0, ,-2, ,
0, ,-2, ,
1, ,-2, ,
1, ,-2, ,
1, ,-2, ,
1, ,-2, ,
1, ,-2, ,
0, ,-2, ,
1, ,-2, ,
1, ,-2, ,
0, ,-2, ,
0, ,-2, ,
0, ,-2, ,
0, ,-3, ,
0, ,-3, ,
0, ,-2, ,
0, ,-2, ,
0, ,-2, ,
0, ,-2, ,
1, ,-2, ,
0, ,-2, ,
0, ,-2, ,
0, ,-2, ,
0, ,-2, ,
0, ,-2, ,
0, ,-2, ,
-2, ,-2, ,
-2, ,-2, ,
-3, ,-2, ,
-4, ,-2, ,
-6, ,-2, ,
-9, ,-2, ,
-9, ,-2, ,
-9, ,-2, ,
-8, ,-2, ,
-6, ,-2, ,
-5, ,-2, ,
-3, ,-2, ,
-2, ,-2, ,
0, ,-2, ,
0, ,-2, ,
1, ,-2, ,
1, ,-2, ,
2, ,-2, ,
2, ,-2, ,
2, ,-3, ,
2, ,-3, ,
2, ,-2, ,
2, ,-2, ,
2, ,-2, ,
1, ,-2, ,
1, ,-2, ,
1, ,-2, ,
1, ,-2, ,
1, ,-2, ,
1, ,-2, ,
1, ,-2, ,
1, ,-2, ,
2, ,-2, ,
2, ,-2, ,
2, ,-2, ,
2, ,-2, ,
2, ,-2, ,
2, ,-2, ,
2, ,-2, ,
2, ,-2, ,
2, ,-2, ,
1, ,-2, ,
1, ,-2, ,
0, ,-2, ,
0, ,-2, ,
0, ,-2, ,
0, ,-2, ,
-1, ,-2, ,
-1, ,-2, ,
0, ,-2, ,
0, ,-2, ,
0, ,-2, ,
0, ,-2, ,
0, ,-2, ,
1, ,-2, ,
1, ,-2, ,
1, ,-2, ,
1, ,-2, ,
1, ,-2, ,
0, ,-2, ,
-1, ,-2, ,
-1, ,-2, ,
-1, ,-2, ,
-1, ,-2, ,
-1, ,-2, ,
-1, ,-2, ,
-1, ,-2, ,
0, ,-2, ,
0, ,-2, ,
0, ,-2, ,
1, ,-2, ,
1, ,-2, ,
1, ,-2, ,
2, ,-2, ,
2, ,-2, ,
2, ,-2, ,
3, ,-2, ,
2, ,-2, ,
2, ,-2, ,
2, ,-2, ,
1, ,-2, ,
1, ,-2, ,
0, ,-2, ,
0, ,-2, ,
-2, ,-2, ,
-2, ,-2, ,
-3, ,-2, ,
-4, ,-2, ,
-6, ,-2, ,
-6, ,-2, ,
-7, ,-2, ,
-7, ,-2, ,
-7, ,-2, ,
-7, ,-2, ,
-7, ,-2, ,
-8, ,-2, ,
-8, ,-2, ,
-7, ,-2, ,
-8, ,-2, ,
-9, ,-2, ,
-10, ,-2, ,
-12, ,-2, ,
-13, ,-3, ,
-16, ,-3, ,
-21, ,-2, ,
-24, ,-2, ,
-26, ,-2, ,
-28, ,-2, ,
-32, ,-2, ,
-32, ,-2, ,
-32, ,-2, ,
-32, ,-2, ,
-31, ,-2, ,
-31, ,-2, ,
-30, ,-2, ,
-30, ,-2, ,
-30, ,-2, ,
-30, ,-2, ,
-31, ,-2, ,
-32, ,-2, ,
-34, ,-2, ,
-35, ,-2, ,
-35, ,-2, ,
-35, ,-2, ,
-35, ,-2, ,
-35, ,-2, ,
-33, ,-2, ,
-32, ,-2, ,
-28, ,-2, ,
-26, ,-2, ,
-25, ,-2, ,
-22, ,-3, ,
-17, ,-3, ,
-14, ,-2, ,
-12, ,-2, ,
-10, ,-2, ,
-6, ,-2, ,
-5, ,-2, ,
-4, ,-2, ,
-2, ,-2, ,
-1, ,-2, ,
0, ,-2, ,
2, ,-2, ,
3, ,-2, ,
5, ,-2, ,
7, ,-2, ,
8, ,-2, ,
9, ,-2, ,
12, ,-2, ,
13, ,-2, ,
14, ,-2, ,
14, ,-2, ,
15, ,-2, ,
15, ,-2, ,
15, ,-2, ,
15, ,-3, ,
14, ,-3, ,
12, ,-2, ,
12, ,-2, ,
11, ,-2, ,
9, ,-2, ,
8, ,-2, ,
6, ,-2, ,
5, ,-2, ,
4, ,-2, ,
2, ,-2, ,
2, ,-2, ,
2, ,-2, ,
1, ,-2, ,
1, ,-2, ,
1, ,-2, ,
1, ,-2, ,
0, ,-2, ,
0, ,-2, ,
0, ,-2, ,
0, ,-2, ,
0, ,-2, ,
1, ,-2, ,
1, ,-2, ,
2, ,-2, ,
2, ,-2, ,
2, ,-2, ,
2, ,-2, ,
2, ,-2, ,
2, ,-2, ,
2, ,-2, ,
1, ,-2, ,
1, ,-2, ,
0, ,-2, ,
0, ,-2, ,
-1, ,-2, ,
-1, ,-2, ,
-2, ,-2, ,
-2, ,-2, ,
-4, ,-2, ,
-4, ,-3, ,
-5, ,-3, ,
-6, ,-2, ,
-6, ,-2, ,
-7, ,-2, ,
-9, ,-2, ,
-10, ,-2, ,
-11, ,-2, ,
-11, ,-2, ,
-13, ,-3, ,
-14, ,-3, ,
-14, ,-3, ,
-14, ,-2, ,
-14, ,-2, ,
-14, ,-2, ,
-13, ,-2, ,
-13, ,-2, ,
-12, ,-2, ,
-12, ,-2, ,
-11, ,-2, ,
-11, ,-2, ,
-11, ,-2, ,
-10, ,-3, ,
-10, ,-3, ,
-9, ,-2, ,
-9, ,-3, ,
-9, ,-3, ,
-9, ,-3, ,
-9, ,-2, ,
-10, ,-2, ,
-11, ,-2, ,
-12, ,-2, ,
-12, ,-2, ,
-15, ,-2, ,
-16, ,-2, ,
-17, ,-2, ,
-19, ,-2, ,
-22, ,-2, ,
-22, ,-2, ,
-22, ,-2, ,
-22, ,-2, ,
-22, ,-2, ,
-20, ,-2, ,
-20, ,-2, ,
-19, ,-2, ,
-16, ,-2, ,
-14, ,-2, ,
-13, ,-2, ,
-11, ,-2, ,
-9, ,-2, ,
-8, ,-2, ,
-7, ,-2, ,
-6, ,-2, ,
-5, ,-2, ,
-4, ,-2, ,
-5, ,-2, ,
-4, ,-2, ,
-3, ,-2, ,
-3, ,-2, ,
-3, ,-2, ,
-3, ,-2, ,
-2, ,-2, ,
-3, ,-2, ,
-3, ,-2, ,
-3, ,-2, ,
-3, ,-2, ,
-3, ,-2, ,
-3, ,-2, ,
-2, ,-2, ,
-2, ,-2, ,
-2, ,-2, ,
-1, ,-2, ,
0, ,-2, ,
2, ,-3, ,
2, ,-3, ,
3, ,-3, ,
4, ,-2, ,
4, ,-2, ,
4, ,-2, ,
3, ,-2, ,
3, ,-2, ,
2, ,-2, ,
1, ,-2, ,
1, ,-2, ,
-1, ,-2, ,
-2, ,-2, ,
-4, ,-2, ,
-4, ,-2, ,
-5, ,-2, ,
-5, ,-2, ,
-5, ,-2, ,
-5, ,-2, ,
-5, ,-2, ,
-4, ,-2, ,
-2, ,-2, ,
-2, ,-2, ,
0, ,-2, ,
3, ,-2, ,
5, ,-2, ,
7, ,-2, ,
8, ,-2, ,
12, ,-2, ,
14, ,-2, ,
15, ,-2, ,
16, ,-2, ,
18, ,-2, ,
17, ,-2, ,
17, ,-2, ,
16, ,-2, ,
14, ,-2, ,
13, ,-2, ,
11, ,-2, ,
9, ,-3, ,
4, ,-3, ,
1, ,-2, ,
-1, ,-2, ,
-4, ,-2, ,
-9, ,-2, ,
-11, ,-2, ,
-12, ,-2, ,
-14, ,-2, ,
-16, ,-2, ,
-16, ,-2, ,
-16, ,-2, ,
-16, ,-2, ,
-14, ,-2, ,
-12, ,-2, ,
-11, ,-2, ,
-8, ,-3, ,
-4, ,-3, ,
-3, ,-2, ,
-1, ,-2, ,
0, ,-2, ,
1, ,-2, ,
1, ,-2, ,
1, ,-2, ,
0, ,-2, ,
-2, ,-2, ,
-4, ,-2, ,
-6, ,-2, ,
-9, ,-2, ,
-14, ,-2, ,
-16, ,-2, ,
-20, ,-2, ,
-22, ,-3, ,
-26, ,-3, ,
-28, ,-3, ,
-30, ,-2, ,
-31, ,-2, ,
-32, ,-2, ,
-32, ,-2, ,
-32, ,-2, ,
-32, ,-2, ,
-31, ,-2, ,
-30, ,-2, ,
-29, ,-2, ,
-28, ,-2, ,
-25, ,-2, ,
-24, ,-2, ,
-22, ,-2, ,
-20, ,-2, ,
-16, ,-2, ,
-15, ,-2, ,
-13, ,-2, ,
-12, ,-2, ,
-10, ,-2, ,
-9, ,-2, ,
-8, ,-2, ,
-7, ,-2, ,
-7, ,-2, ,
-7, ,-2, ,
-7, ,-2, ,
-7, ,-2, ,
-7, ,-2, ,
-7, ,-2, ,
-7, ,-2, ,
-6, ,-2, ,
-5, ,-2, ,
-5, ,-2, ,
-3, ,-2, ,
-2, ,-2, ,
0, ,-2, ,
1, ,-2, ,
2, ,-2, ,
4, ,-2, ,
6, ,-3, ,
7, ,-3, ,
7, ,-3, ,
8, ,-2, ,
8, ,-2, ,
8, ,-2, ,
8, ,-2, ,
8, ,-2, ,
7, ,-2, ,
7, ,-2, ,
6, ,-2, ,
6, ,-2, ,
4, ,-2, ,
3, ,-2, ,
2, ,-2, ,
2, ,-2, ,
0, ,-2, ,
-1, ,-2, ,
-1, ,-2, ,
-1, ,-2, ,
-1, ,-2, ,
-1, ,-2, ,
-1, ,-2, ,
0, ,-2, ,
1, ,-2, ,
2, ,-2, ,
3, ,-2, ,
3, ,-2, ,
6, ,-2, ,
7, ,-2, ,
8, ,-2, ,
9, ,-2, ,
11, ,-2, ,
11, ,-2, ,
12, ,-2, ,
12, ,-2, ,
11, ,-2, ,
11, ,-2, ,
10, ,-2, ,
10, ,-2, ,
7, ,-2, ,
5, ,-2, ,
4, ,-2, ,
2, ,-2, ,
-1, ,-2, ,
-2, ,-3, ,
-3, ,-3, ,
-4, ,-2, ,
-6, ,-2, ,
-6, ,-2, ,
-6, ,-2, ,
-6, ,-2, ,
-6, ,-2, ,
-6, ,-2, ,
-6, ,-2, ,
-5, ,-2, ,
-4, ,-2, ,
-4, ,-2, ,
-4, ,-2, ,
-4, ,-2, ,
-3, ,-2, ,
-3, ,-2, ,
-4, ,-2, ,
-4, ,-2, ,
-5, ,-2, ,
-6, ,-2, ,
-6, ,-2, ,
-8, ,-2, ,
-9, ,-2, ,
-10, ,-2, ,
-11, ,-2, ,
-12, ,-2, ,
-14, ,-2, ,
-15, ,-2, ,
-16, ,-2, ,
-16, ,-2, ,
-17, ,-2, ,
-17, ,-2, ,
-17, ,-2, ,
-17, ,-2, ,
-17, ,-2, ,
-17, ,-2, ,
-17, ,-2, ,
-17, ,-2, ,
-17, ,-2, ,
-16, ,-2, ,
-16, ,-2, ,
-16, ,-2, ,
-16, ,-2, ,
-16, ,-2, ,
-16, ,-2, ,
-16, ,-2, ,
-15, ,-2, ,
-15, ,-2, ,
-15, ,-2, ,
-15, ,-2, ,
-15, ,-2, ,
-15, ,-2, ,
-15, ,-2, ,
-15, ,-2, ,
-14, ,-2, ,
-13, ,-2, ,
-13, ,-2, ,
-12, ,-2, ,
-11, ,-2, ,
-11, ,-2, ,
-11, ,-2, ,
-11, ,-2, ,
-11, ,-2, ,
-11, ,-2, ,
-11, ,-2, ,
-12, ,-2, ,
-12, ,-2, ,
-10, ,-2, ,
-10, ,-2, ,
-10, ,-2, ,
-7, ,-2, ,
-5, ,-2, ,
-3, ,-2, ,
-1, ,-3, ,
4, ,-3, ,
7, ,-2, ,
9, ,-2, ,
12, ,-2, ,
16, ,-2, ,
19, ,-2, ,
20, ,-2, ,
22, ,-2, ,
22, ,-3, ,
22, ,-3, ,
22, ,-3, ,
20, ,-2, ,
17, ,-2, ,
16, ,-2, ,
13, ,-2, ,
11, ,-2, ,
6, ,-2, ,
3, ,-2, ,
2, ,-2, ,
-1, ,-2, ,
-4, ,-2, ,
-5, ,-2, ,
-7, ,-2, ,
-7, ,-2, ,
-8, ,-2, ,
-8, ,-2, ,
-8, ,-2, ,
-8, ,-2, ,
-8, ,-2, ,
-7, ,-2, ,
-6, ,-2, ,
-6, ,-2, ,
-6, ,-2, ,
-7, ,-2, ,
-7, ,-2, ,
-7, ,-2, ,
-7, ,-2, ,
-7, ,-2, ,
-8, ,-2, ,
-8, ,-2, ,
-8, ,-2, ,
-9, ,-2, ,
-9, ,-2, ,
-9, ,-2, ,
-8, ,-2, ,
-8, ,-2, ,
-8, ,-2, ,
-8, ,-3, ,
-7, ,-3, ,
-7, ,-2, ,
-6, ,-3, ,
-6, ,-3, ,
-5, ,-2, ,
-4, ,-2, ,
-4, ,-2, ,
-4, ,-2, ,
-3, ,-2, ,
-3, ,-2, ,
-2, ,-2, ,
-2, ,-2, ,
-1, ,-2, ,
-1, ,-2, ,
0, ,-2, ,
0, ,-2, ,
2, ,-2, ,
2, ,-2, ,
2, ,-2, ,
2, ,-2, ,
3, ,-2, ,
4, ,-2, ,
4, ,-2, ,
4, ,-2, ,
4, ,-3, ,
4, ,-3, ,
4, ,-3, ,
5, ,-2, ,
6, ,-2, ,
7, ,-2, ,
7, ,-2, ,
7, ,-3, ,
9, ,-3, ,
9, ,-2, ,
11, ,-2, ,
11, ,-2, ,
12, ,-2, ,
13, ,-2, ,
13, ,-2, ,
13, ,-2, ,
12, ,-2, ,
11, ,-2, ,
11, ,-2, ,
9, ,-3, ,
6, ,-3, ,
4, ,-3, ,
2, ,-2, ,
0, ,-2, ,
-6, ,-2, ,
-9, ,-2, ,
-12, ,-2, ,
-14, ,-2, ,
-19, ,-2, ,
-21, ,-2, ,
-23, ,-2, ,
-24, ,-2, ,
-25, ,-2, ,
-25, ,-2, ,
-25, ,-2, ,
-25, ,-2, ,
-24, ,-2, ,
-22, ,-2, ,
-20, ,-2, ,
-19, ,-3, ,
-15, ,-3, ,
-12, ,-2, ,
-10, ,-2, ,
-8, ,-2, ,
-4, ,-2, ,
-2, ,-2, ,
0, ,-2, ,
2, ,-2, ,
6, ,-2, ,
7, ,-2, ,
8, ,-2, ,
10, ,-2, ,
11, ,-2, ,
12, ,-2, ,
12, ,-2, ,
12, ,-2, ,
12, ,-2, ,
11, ,-2, ,
11, ,-2, ,
10, ,-2, ,
8, ,-2, ,
7, ,-2, ,
6, ,-2, ,
5, ,-2, ,
2, ,-2, ,
0, ,-2, ,
0, ,-2, ,
-1, ,-2, ,
-2, ,-2, ,
-2, ,-2, ,
-1, ,-2, ,
-1, ,-2, ,
0, ,-2, ,
1, ,-2, ,
2, ,-2, ,
2, ,-2, ,
4, ,-2, ,
6, ,-2, ,
6, ,-2, ,
7, ,-3, ,
7, ,-3, ,
6, ,-2, ,
6, ,-2, ,
5, ,-2, ,
4, ,-2, ,
4, ,-2, ,
2, ,-2, ,
1, ,-2, ,
-2, ,-2, ,
-3, ,-2, ,
-5, ,-3, ,
-7, ,-3, ,
-9, ,-2, ,
-9, ,-2, ,
-11, ,-2, ,
-12, ,-2, ,
-12, ,-2, ,
-12, ,-2, ,
-12, ,-2, ,
-12, ,-2, ,
-11, ,-2, ,
-11, ,-2, ,
-10, ,-2, ,
-10, ,-2, ,
-8, ,-2, ,
-7, ,-2, ,
-5, ,-2, ,
-5, ,-2, ,
-3, ,-2, ,
-1, ,-2, ,
-1, ,-2, ,
1, ,-2, ,
3, ,-2, ,
4, ,-2, ,
4, ,-2, ,
4, ,-2, ,
6, ,-2, ,
6, ,-2, ,
6, ,-2, ,
6, ,-2, ,
6, ,-2, ,
6, ,-2, ,
5, ,-2, ,
5, ,-2, ,
5, ,-2, ,
4, ,-2, ,
4, ,-2, ,
3, ,-2, ,
2, ,-2, ,
1, ,-2, ,
1, ,-2, ,
0, ,-2, ,
-1, ,-2, ,
-1, ,-2, ,
-3, ,-2, ,
-3, ,-2, ,
-5, ,-2, ,
-6, ,-2, ,
-7, ,-2, ,
-8, ,-2, ,
-9, ,-2, ,
-10, ,-2, ,
-11, ,-2, ,
-11, ,-2, ,
-11, ,-2, ,
-11, ,-2, ,
-11, ,-2, ,
-10, ,-2, ,
-10, ,-2, ,
-8, ,-2, ,
-8, ,-2, ,
-6, ,-2, ,
-4, ,-2, ,
-3, ,-2, ,
-2, ,-2, ,
-1, ,-2, ,
1, ,-2, ,
2, ,-2, ,
2, ,-2, ,
3, ,-2, ,
4, ,-2, ,
4, ,-2, ,
4, ,-2, ,
4, ,-2, ,
5, ,-2, ,
5, ,-2, ,
5, ,-2, ,
6, ,-2, ,
7, ,-2, ,
7, ,-2, ,
8, ,-2, ,
8, ,-2, ,
10, ,-2, ,
11, ,-2, ,
11, ,-2, ,
11, ,-2, ,
11, ,-2, ,
11, ,-2, ,
10, ,-2, ,
10, ,-2, ,
7, ,-2, ,
7, ,-2, ,
5, ,-2, ,
3, ,-2, ,
0, ,-2, ,
-2, ,-2, ,
-4, ,-2, ,
-6, ,-2, ,
-9, ,-2, ,
-10, ,-2, ,
-11, ,-2, ,
-12, ,-2, ,
-13, ,-2, ,
-13, ,-2, ,
-13, ,-2, ,
-13, ,-2, ,
-13, ,-2, ,
-12, ,-2, ,
-12, ,-2, ,
-11, ,-2, ,
-10, ,-2, ,
-10, ,-2, ,
-10, ,-2, ,
-9, ,-2, ,
-10, ,-2, ,
-10, ,-2, ,
-11, ,-2, ,
-11, ,-2, ,
-11, ,-2, ,
-12, ,-2, ,
-12, ,-2, ,
-12, ,-2, ,
-12, ,-2, ,
-11, ,-2, ,
-11, ,-2, ,
-11, ,-2, ,
-9, ,-2, ,
-8, ,-2, ,
-7, ,-2, ,
-5, ,-2, ,
-3, ,-2, ,
0, ,-2, ,
1, ,-2, ,
3, ,-2, ,
6, ,-3, ,
8, ,-3, ,
10, ,-3, ,
11, ,-2, ,
13, ,-2, ,
14, ,-2, ,
14, ,-2, ,
15, ,-2, ,
15, ,-2, ,
15, ,-2, ,
14, ,-2, ,
14, ,-2, ,
12, ,-2, ,
10, ,-2, ,
9, ,-2, ,
7, ,-3, ,
3, ,-3, ,
2, ,-2, ,
-1, ,-2, ,
-3, ,-2, ,
-7, ,-2, ,
-8, ,-2, ,
-9, ,-2, ,
-11, ,-2, ,
-12, ,-2, ,
-12, ,-2, ,
-12, ,-2, ,
-12, ,-2, ,
-12, ,-2, ,
-11, ,-2, ,
-11, ,-2, ,
-9, ,-2, ,
-8, ,-2, ,
-7, ,-2, ,
-6, ,-2, ,
-6, ,-2, ,
-4, ,-2, ,
-3, ,-2, ,
-3, ,-2, ,
-3, ,-2, ,
-2, ,-2, ,
-3, ,-2, ,
-3, ,-2, ,
-3, ,-2, ,
-4, ,-2, ,
-4, ,-2, ,
-5, ,-2, ,
-5, ,-2, ,
-6, ,-2, ,
-6, ,-2, ,
-7, ,-2, ,
-7, ,-3, ,
-8, ,-3, ,
-8, ,-3, ,
-8, ,-2, ,
-7, ,-2, ,
-6, ,-3, ,
-5, ,-3, ,
-4, ,-3, ,
-3, ,-2, ,
0, ,-2, ,
2, ,-2, ,
3, ,-2, ,
5, ,-2, ,
8, ,-2, ,
9, ,-2, ,
10, ,-2, ,
11, ,-2, ,
12, ,-2, ,
12, ,-2, ,
12, ,-2, ,
11, ,-2, ,
10, ,-2, ,
8, ,-2, ,
7, ,-2, ,
5, ,-2, ,
2, ,-2, ,
0, ,-2, ,
-2, ,-2, ,
-4, ,-2, ,
-7, ,-2, ,
-8, ,-2, ,
-9, ,-2, ,
-10, ,-2, ,
-10, ,-2, ,
-10, ,-2, ,
-10, ,-2, ,
-10, ,-2, ,
-8, ,-2, ,
-7, ,-2, ,
-6, ,-2, ,
-5, ,-2, ,
-3, ,-2, ,
-1, ,-2, ,
0, ,-2, ,
1, ,-2, ,
4, ,-2, ,
4, ,-2, ,
5, ,-2, ,
5, ,-2, ,
7, ,-2, ,
7, ,-2, ,
7, ,-2, ,
8, ,-2, ,
8, ,-2, ,
7, ,-2, ,
7, ,-2, ,
7, ,-2, ,
8, ,-2, ,
7, ,-2, ,
7, ,-2, ,
7, ,-2, ,
7, ,-2, ,
7, ,-2, ,
7, ,-2, ,
6, ,-2, ,
6, ,-2, ,
6, ,-2, ,
4, ,-2, ,
4, ,-2, ,
3, ,-2, ,
1, ,-2, ,
1, ,-3, ,
0, ,-3, ,
-3, ,-2, ,
-4, ,-2, ,
-5, ,-2, ,
-5, ,-2, ,
-8, ,-2, ,
-8, ,-2, ,
-9, ,-2, ,
-10, ,-2, ,
-10, ,-2, ,
-10, ,-2, ,
-9, ,-2, ,
-9, ,-2, ,
-8, ,-2, ,
-8, ,-2, ,
-6, ,-2, ,
-6, ,-2, ,
-4, ,-2, ,
-2, ,-2, ,
0, ,-2, ,
1, ,-2, ,
4, ,-2, ,
5, ,-2, ,
6, ,-2, ,
7, ,-2, ,
8, ,-2, ,
9, ,-3, ,
9, ,-3, ,
10, ,-2, ,
9, ,-2, ,
9, ,-2, ,
8, ,-2, ,
7, ,-2, ,
6, ,-2, ,
6, ,-2, ,
4, ,-2, ,
4, ,-2, ,
1, ,-2, ,
0, ,-2, ,
0, ,-2, ,
-2, ,-2, ,
-4, ,-2, ,
-4, ,-2, ,
-5, ,-2, ,
-6, ,-2, ,
-8, ,-2, ,
-9, ,-2, ,
-9, ,-2, ,
-10, ,-2, ,
-11, ,-2, ,
-11, ,-2, ,
-11, ,-2, ,
-11, ,-2, ,
-11, ,-2, ,
-10, ,-2, ,
-10, ,-2, ,
-10, ,-2, ,
-9, ,-2, ,
-8, ,-2, ,
-8, ,-2, ,
-7, ,-2, ,
-5, ,-2, ,
-5, ,-2, ,
-3, ,-2, ,
-2, ,-2, ,
-1, ,-2, ,
0, ,-2, ,
2, ,-2, ,
2, ,-2, ,
5, ,-2, ,
6, ,-2, ,
7, ,-2, ,
8, ,-2, ,
11, ,-2, ,
12, ,-2, ,
13, ,-2, ,
14, ,-2, ,
15, ,-2, ,
15, ,-2, ,
15, ,-2, ,
15, ,-2, ,
15, ,-2, ,
14, ,-2, ,
14, ,-2, ,
13, ,-2, ,
11, ,-2, ,
9, ,-2, ,
8, ,-2, ,
6, ,-2, ,
3, ,-2, ,
2, ,-2, ,
0, ,-2, ,
-2, ,-2, ,
-4, ,-2, ,
-6, ,-2, ,
-7, ,-2, ,
-8, ,-2, ,
-10, ,-2, ,
-11, ,-2, ,
-11, ,-2, ,
-11, ,-2, ,
-11, ,-2, ,
-11, ,-2, ,
-10, ,-2, ,
-10, ,-2, ,
-8, ,-2, ,
-8, ,-2, ,
-7, ,-2, ,
-6, ,-2, ,
-4, ,-2, ,
-3, ,-2, ,
-2, ,-2, ,
-1, ,-2, ,
0, ,-2, ,
0, ,-2, ,
0, ,-2, ,
0, ,-2, ,
0, ,-2, ,
-1, ,-2, ,
-1, ,-2, ,
-2, ,-2, ,
-4, ,-2, ,
-4, ,-2, ,
-4, ,-2, ,
-4, ,-2, ,
-5, ,-2, ,
-5, ,-2, ,
-4, ,-2, ,
-4, ,-2, ,
-3, ,-2, ,
-3, ,-2, ,
-2, ,-2, ,
-1, ,-2, ,
0, ,-2, ,
1, ,-2, ,
2, ,-2, ,
2, ,-2, ,
3, ,-2, ,
4, ,-2, ,
4, ,-2, ,
4, ,-2, ,
4, ,-2, ,
4, ,-2, ,
4, ,-2, ,
4, ,-2, ,
4, ,-2, ,
4, ,-2, ,
4, ,-2, ,
4, ,-2, ,
4, ,-2, ,
5, ,-2, ,
5, ,-2, ,
5, ,-2, ,
6, ,-2, ,
7, ,-2, ,
7, ,-2, ,
7, ,-2, ,
9, ,-2, ,
9, ,-2, ,
10, ,-3, ,
10, ,-3, ,
10, ,-2, ,
10, ,-2, ,
10, ,-2, ,
9, ,-2, ,
8, ,-2, ,
8, ,-2, ,
7, ,-2, ,
6, ,-2, ,
4, ,-2, ,
3, ,-2, ,
1, ,-2, ,
0, ,-2, ,
-3, ,-2, ,
-5, ,-2, ,
-6, ,-2, ,
-8, ,-2, ,
-10, ,-2, ,
-11, ,-2, ,
-12, ,-2, ,
-12, ,-2, ,
-12, ,-2, ,
-12, ,-2, ,
-11, ,-2, ,
-10, ,-2, ,
-9, ,-2, ,
-8, ,-2, ,
-7, ,-2, ,
-6, ,-2, ,
-3, ,-2, ,
-3, ,-2, ,
0, ,-2, ,
0, ,-2, ,
2, ,-2, ,
3, ,-2, ,
4, ,-2, ,
4, ,-2, ,
6, ,-2, ,
6, ,-2, ,
6, ,-2, ,
5, ,-2, ,
6, ,-2, ,
6, ,-2, ,
5, ,-2, ,
5, ,-2, ,
4, ,-2, ,
3, ,-2, ,
3, ,-2, ,
2, ,-2, ,
1, ,-2, ,
0, ,-3, ,
0, ,-3, ,
0, ,-2, ,
-1, ,-2, ,
-1, ,-2, ,
-1, ,-2, ,
-1, ,-2, ,
0, ,-2, ,
0, ,-2, ,
0, ,-2, ,
1, ,-2, ,
2, ,-2, ,
3, ,-2, ,
4, ,-2, ,
4, ,-2, ,
5, ,-2, ,
6, ,-2, ,
6, ,-2, ,
6, ,-2, ,
7, ,-2, ,
7, ,-2, ,
7, ,-2, ,
6, ,-2, ,
6, ,-2, ,
6, ,-2, ,
6, ,-2, ,
6, ,-2, ,
5, ,-2, ,
4, ,-2, ,
4, ,-2, ,
3, ,-2, ,
2, ,-2, ,
1, ,-2, ,
0, ,-2, ,
0, ,-2, ,
-3, ,-2, ,
-4, ,-2, ,
-5, ,-2, ,
-7, ,-2, ,
-9, ,-2, ,
-10, ,-2, ,
-11, ,-2, ,
-13, ,-2, ,
-14, ,-2, ,
-15, ,-2, ,
-15, ,-2, ,
-15, ,-2, ,
-15, ,-2, ,
-14, ,-2, ,
-13, ,-2, ,
-12, ,-2, ,
-10, ,-2, ,
-8, ,-2, ,
-6, ,-2, ,
-5, ,-2, ,
-1, ,-3, ,
1, ,-3, ,
2, ,-3, ,
4, ,-2, ,
7, ,-2, ,
8, ,-2, ,
10, ,-2, ,
10, ,-2, ,
11, ,-2, ,
11, ,-3, ,
12, ,-3, ,
12, ,-2, ,
11, ,-2, ,
10, ,-2, ,
9, ,-2, ,
9, ,-2, ,
7, ,-2, ,
7, ,-2, ,
6, ,-2, ,
4, ,-3, ,
3, ,-3, ,
2, ,-2, ,
2, ,-2, ,
0, ,-2, ,
-2, ,-2, ,
-2, ,-2, ,
-2, ,-3, ,
-3, ,-3, ,
-3, ,-2, ,
-4, ,-2, ,
-4, ,-2, ,
-4, ,-2, ,
-4, ,-2, ,
-3, ,-2, ,
-3, ,-2, ,
-3, ,-2, ,
-2, ,-2, ,
-2, ,-2, ,
-2, ,-3, ,
-2, ,-3, ,
-1, ,-2, ,
-1, ,-2, ,
-1, ,-2, ,
-1, ,-2, ,
0, ,-2, ,
0, ,-2, ,
0, ,-2, ,
0, ,-2, ,
0, ,-2, ,
0, ,-2, ,
0, ,-2, ,
0, ,-2, ,
0, ,-2, ,
0, ,-2, ,
0, ,-2, ,
0, ,-2, ,
0, ,-2, ,
0, ,-2, ,
0, ,-2, ,
0, ,-2, ,
0, ,-2, ,
0, ,-2, ,
0, ,-2, ,
-1, ,-2, ,
-1, ,-2, ,
-1, ,-2, ,
-1, ,-2, ,
-1, ,-2, ,
-1, ,-2, ,
-1, ,-2, ,
-1, ,-2, ,
-1, ,-2, ,
-2, ,-2, ,
-2, ,-2, ,
-2, ,-2, ,
-2, ,-2, ,
-2, ,-2, ,
-2, ,-2, ,
-2, ,-2, ,
-2, ,-3, ,
-2, ,-3, ,
-2, ,-3, ,
-2, ,-2, ,
-1, ,-3, ,
0, ,-3, ,
0, ,-2, ,
1, ,-2, ,
1, ,-2, ,
2, ,-2, ,
3, ,-2, ,
3, ,-2, ,
4, ,-2, ,
5, ,-2, ,
5, ,-2, ,
6, ,-2, ,
6, ,-2, ,
6, ,-2, ,
6, ,-2, ,
6, ,-2, ,
6, ,-2, ,
6, ,-2, ,
6, ,-2, ,
6, ,-2, ,
6, ,-2, ,
6, ,-2, ,
6, ,-2, ,
5, ,-2, ,
5, ,-2, ,
5, ,-2, ,
4, ,-2, ,
4, ,-2, ,
4, ,-2, ,
3, ,-2, ,
3, ,-2, ,
2, ,-2, ,
2, ,-2, ,
2, ,-2, ,
1, ,-2, ,
1, ,-2, ,
0, ,-2, ,
-1, ,-2, ,
-2, ,-2, ,
-3, ,-2, ,
-3, ,-2, ,
-5, ,-2, ,
-5, ,-2, ,
-6, ,-2, ,
-7, ,-2, ,
-9, ,-2, ,
-9, ,-2, ,
-10, ,-2, ,
-10, ,-2, ,
-11, ,-2, ,
-11, ,-2, ,
-11, ,-2, ,
-12, ,-2, ,
-12, ,-2, ,
-11, ,-3, ,
-11, ,-3, ,
-11, ,-2, ,
-9, ,-2, ,
-9, ,-2, ,
-8, ,-2, ,
-8, ,-2, ,
-6, ,-2, ,
-5, ,-2, ,
-4, ,-2, ,
-3, ,-2, ,
