raw_data/75% Glycerol, Impulsion 2Hz, Sonde 5MHz, Rampe 0.7Hz/temp0000293.CSV

Format,1.0B,
Memory Length,10000,Memory Length,10000,
IntpDistance,0,IntpDistance,0,
Trigger Address,159,Trigger Address,159,
Trigger Level,2.720E-01,Trigger Level,2.720E-01,
Source,CH1,Source,CH2,
Vertical Units,V,Vertical Units,V,
Vertical Units Div,0,Vertical Units Div,0,
Vertical Units Extend Div,16,Vertical Units Extend Div,16,
Label,,Label,,
Probe Type,0,Probe Type,0,
Probe Ratio,1.000e+00,Probe Ratio,1.000e+00,
Vertical Scale,5.000e-01,Vertical Scale,2.000e+00,
Vertical Position,0.000e+00,Vertical Position,0.000e+00,
Horizontal Units,S,Horizontal Units,S,
Horizontal Scale,5.000E-06,Horizontal Scale,5.000E-06,
Horizontal Position,2.420E-05,Horizontal Position,2.420E-05,
Horizontal Mode,Main,Horizontal Mode,Main,
SincET Mode,Real Time,SincET Mode,Real Time,
Sampling Period,5.000e-09,Sampling Period,5.000e-09,
Horizontal Old Scale,5.000E-06,Horizontal Old Scale,5.000E-06,
Horizontal Old Position,2.420E-05,Horizontal Old Position,2.420E-05,
Firmware,V1.32,Firmware,V1.32,
Mode,Fast,Mode,Fast,
Waveform Data,,Waveform Data,,
1, ,-14, ,
1, ,-14, ,
1, ,-14, ,
0, ,-14, ,
0, ,-14, ,
0, ,-15, ,
1, ,-15, ,
1, ,-15, ,
1, ,-14, ,
1, ,-14, ,
0, ,-14, ,
0, ,-14, ,
0, ,-14, ,
1, ,-14, ,
1, ,-14, ,
1, ,-14, ,
1, ,-14, ,
1, ,-14, ,
1, ,-14, ,
1, ,-14, ,
0, ,-14, ,
0, ,-14, ,
1, ,-14, ,
1, ,-15, ,
1, ,-15, ,
1, ,-15, ,
1, ,-15, ,
0, ,-14, ,
0, ,-15, ,
0, ,-15, ,
1, ,-14, ,
1, ,-14, ,
0, ,-14, ,
0, ,-14, ,
1, ,-14, ,
0, ,-14, ,
0, ,-14, ,
0, ,-14, ,
1, ,-14, ,
1, ,-14, ,
1, ,-14, ,
1, ,-14, ,
1, ,-14, ,
1, ,-14, ,
1, ,-15, ,
1, ,-15, ,
1, ,-14, ,
1, ,-14, ,
1, ,-14, ,
1, ,-14, ,
1, ,-14, ,
0, ,-14, ,
0, ,-14, ,
0, ,-14, ,
1, ,-14, ,
1, ,-14, ,
1, ,-15, ,
1, ,-15, ,
1, ,-15, ,
0, ,-14, ,
0, ,-14, ,
0, ,-14, ,
1, ,-14, ,
1, ,-14, ,
1, ,-14, ,
1, ,-14, ,
1, ,-14, ,
1, ,-14, ,
1, ,-14, ,
1, ,-14, ,
1, ,-14, ,
1, ,-14, ,
1, ,-14, ,
1, ,-14, ,
1, ,-14, ,
1, ,-14, ,
1, ,-14, ,
1, ,-15, ,
1, ,-15, ,
1, ,-15, ,
0, ,-15, ,
0, ,-14, ,
1, ,-15, ,
1, ,-15, ,
1, ,-15, ,
1, ,-15, ,
1, ,-14, ,
1, ,-14, ,
1, ,-15, ,
1, ,-15, ,
1, ,-15, ,
0, ,-14, ,
0, ,-14, ,
0, ,-14, ,
1, ,-14, ,
1, ,-15, ,
1, ,-15, ,
0, ,-14, ,
0, ,-14, ,
1, ,-14, ,
1, ,-14, ,
1, ,-14, ,
1, ,-14, ,
1, ,-14, ,
0, ,-14, ,
0, ,-14, ,
1, ,-14, ,
1, ,-14, ,
1, ,-14, ,
0, ,-14, ,
0, ,-14, ,
1, ,-14, ,
1, ,-14, ,
1, ,-14, ,
0, ,-15, ,
0, ,-15, ,
0, ,-14, ,
0, ,-15, ,
1, ,-15, ,
1, ,-15, ,
1, ,-14, ,
1, ,-14, ,
1, ,-15, ,
1, ,-15, ,
1, ,-14, ,
0, ,-14, ,
0, ,-14, ,
1, ,-15, ,
1, ,-15, ,
1, ,-15, ,
0, ,-15, ,
0, ,-14, ,
1, ,-14, ,
1, ,-15, ,
0, ,-15, ,
0, ,-15, ,
0, ,-14, ,
1, ,-14, ,
0, ,-14, ,
0, ,-14, ,
1, ,-14, ,
1, ,-14, ,
1, ,-14, ,
1, ,-15, ,
0, ,-15, ,
0, ,-14, ,
1, ,-15, ,
0, ,-15, ,
0, ,-14, ,
0, ,-14, ,
1, ,-14, ,
1, ,-14, ,
1, ,-14, ,
1, ,-14, ,
1, ,-14, ,
1, ,-14, ,
1, ,-14, ,
0, ,-14, ,
0, ,-14, ,
1, ,-15, ,
1, ,-15, ,
1, ,-14, ,
1, ,-15, ,
1, ,-15, ,
2, ,-14, ,
0, ,-14, ,
-1, ,-14, ,
1, ,-14, ,
16, ,-14, ,
43, ,-14, ,
122, ,-14, ,
124, ,-14, ,
122, ,-14, ,
102, ,-14, ,
-2, ,-14, ,
2, ,-15, ,
51, ,-15, ,
104, ,-15, ,
125, ,-14, ,
125, ,-15, ,
125, ,-15, ,
125, ,-14, ,
125, ,-14, ,
124, ,-14, ,
124, ,-15, ,
122, ,-15, ,
111, ,-15, ,
106, ,-14, ,
103, ,-14, ,
100, ,-14, ,
94, ,-14, ,
90, ,-14, ,
86, ,-14, ,
83, ,-14, ,
76, ,-14, ,
74, ,-14, ,
72, ,-14, ,
68, ,-15, ,
64, ,-15, ,
62, ,-15, ,
58, ,-14, ,
56, ,-14, ,
52, ,-14, ,
49, ,-14, ,
47, ,-14, ,
45, ,-14, ,
41, ,-14, ,
39, ,-14, ,
38, ,-14, ,
37, ,-14, ,
33, ,-14, ,
31, ,-14, ,
30, ,-14, ,
29, ,-14, ,
26, ,-14, ,
25, ,-15, ,
25, ,-15, ,
24, ,-14, ,
22, ,-14, ,
20, ,-14, ,
19, ,-14, ,
18, ,-14, ,
17, ,-14, ,
16, ,-15, ,
15, ,-15, ,
14, ,-14, ,
13, ,-14, ,
12, ,-14, ,
12, ,-14, ,
10, ,-14, ,
9, ,-14, ,
9, ,-14, ,
8, ,-15, ,
8, ,-15, ,
7, ,-15, ,
7, ,-14, ,
6, ,-15, ,
6, ,-15, ,
5, ,-14, ,
5, ,-15, ,
4, ,-15, ,
4, ,-14, ,
4, ,-14, ,
3, ,-14, ,
3, ,-14, ,
3, ,-14, ,
2, ,-14, ,
2, ,-14, ,
2, ,-15, ,
2, ,-15, ,
1, ,-15, ,
1, ,-14, ,
1, ,-14, ,
1, ,-14, ,
1, ,-14, ,
0, ,-15, ,
0, ,-15, ,
0, ,-14, ,
0, ,-14, ,
0, ,-14, ,
0, ,-14, ,
0, ,-14, ,
-1, ,-14, ,
-1, ,-14, ,
-1, ,-14, ,
-1, ,-14, ,
-1, ,-14, ,
-1, ,-14, ,
-1, ,-15, ,
-1, ,-15, ,
-1, ,-14, ,
-1, ,-14, ,
-1, ,-14, ,
-1, ,-14, ,
-1, ,-15, ,
-1, ,-15, ,
-1, ,-14, ,
-1, ,-15, ,
-1, ,-15, ,
-1, ,-15, ,
-1, ,-15, ,
-1, ,-15, ,
-1, ,-15, ,
-1, ,-14, ,
-1, ,-14, ,
-1, ,-14, ,
-1, ,-14, ,
-1, ,-14, ,
-1, ,-14, ,
-2, ,-14, ,
-2, ,-14, ,
-2, ,-14, ,
-1, ,-14, ,
-1, ,-14, ,
-1, ,-14, ,
-1, ,-14, ,
-1, ,-14, ,
-1, ,-14, ,
-1, ,-14, ,
-1, ,-14, ,
-1, ,-14, ,
-1, ,-14, ,
-1, ,-14, ,
-1, ,-14, ,
-1, ,-14, ,
0, ,-14, ,
-1, ,-14, ,
-1, ,-14, ,
-1, ,-14, ,
-1, ,-14, ,
-1, ,-14, ,
-1, ,-14, ,
-1, ,-14, ,
-1, ,-14, ,
-1, ,-14, ,
-1, ,-14, ,
-1, ,-15, ,
-1, ,-15, ,
0, ,-14, ,
0, ,-14, ,
-1, ,-14, ,
-1, ,-14, ,
-1, ,-15, ,
0, ,-15, ,
-1, ,-14, ,
-1, ,-14, ,
0, ,-14, ,
-1, ,-15, ,
-1, ,-15, ,
-1, ,-14, ,
0, ,-14, ,
0, ,-14, ,
0, ,-14, ,
0, ,-14, ,
0, ,-14, ,
0, ,-14, ,
0, ,-14, ,
0, ,-14, ,
0, ,-14, ,
0, ,-14, ,
0, ,-14, ,
0, ,-15, ,
0, ,-15, ,
0, ,-15, ,
0, ,-14, ,
0, ,-14, ,
0, ,-15, ,
0, ,-15, ,
0, ,-14, ,
0, ,-14, ,
0, ,-14, ,
0, ,-14, ,
0, ,-14, ,
0, ,-14, ,
0, ,-15, ,
0, ,-15, ,
0, ,-14, ,
0, ,-15, ,
0, ,-15, ,
0, ,-15, ,
0, ,-14, ,
0, ,-14, ,
0, ,-15, ,
0, ,-15, ,
0, ,-14, ,
0, ,-14, ,
0, ,-14, ,
0, ,-14, ,
0, ,-14, ,
0, ,-14, ,
0, ,-14, ,
0, ,-14, ,
0, ,-14, ,
0, ,-14, ,
0, ,-14, ,
0, ,-14, ,
0, ,-14, ,
0, ,-14, ,
0, ,-14, ,
0, ,-14, ,
0, ,-14, ,
0, ,-14, ,
0, ,-14, ,
0, ,-14, ,
0, ,-14, ,
0, ,-14, ,
0, ,-15, ,
0, ,-15, ,
0, ,-14, ,
0, ,-15, ,
0, ,-15, ,
0, ,-15, ,
0, ,-14, ,
0, ,-15, ,
0, ,-15, ,
0, ,-15, ,
0, ,-14, ,
0, ,-15, ,
1, ,-15, ,
1, ,-15, ,
1, ,-15, ,
1, ,-14, ,
0, ,-15, ,
0, ,-15, ,
0, ,-15, ,
0, ,-15, ,
0, ,-15, ,
0, ,-15, ,
0, ,-15, ,
0, ,-15, ,
0, ,-15, ,
0, ,-15, ,
0, ,-14, ,
0, ,-14, ,
0, ,-14, ,
1, ,-14, ,
0, ,-14, ,
0, ,-14, ,
1, ,-15, ,
1, ,-15, ,
1, ,-14, ,
0, ,-14, ,
0, ,-14, ,
1, ,-14, ,
1, ,-14, ,
1, ,-14, ,
1, ,-14, ,
1, ,-14, ,
1, ,-15, ,
1, ,-15, ,
1, ,-14, ,
1, ,-14, ,
0, ,-14, ,
0, ,-14, ,
1, ,-15, ,
0, ,-15, ,
0, ,-14, ,
0, ,-14, ,
-1, ,-14, ,
-2, ,-14, ,
-3, ,-14, ,
-4, ,-14, ,
-8, ,-14, ,
-11, ,-14, ,
-14, ,-15, ,
-16, ,-15, ,
-16, ,-14, ,
-15, ,-14, ,
-13, ,-15, ,
-10, ,-15, ,
-5, ,-15, ,
-3, ,-14, ,
-1, ,-14, ,
-1, ,-14, ,
1, ,-14, ,
2, ,-14, ,
2, ,-14, ,
3, ,-14, ,
3, ,-14, ,
3, ,-14, ,
3, ,-14, ,
2, ,-15, ,
2, ,-15, ,
2, ,-15, ,
1, ,-15, ,
1, ,-15, ,
1, ,-15, ,
1, ,-14, ,
2, ,-14, ,
2, ,-14, ,
2, ,-14, ,
2, ,-14, ,
3, ,-14, ,
3, ,-14, ,
3, ,-14, ,
3, ,-14, ,
3, ,-14, ,
4, ,-14, ,
3, ,-14, ,
2, ,-14, ,
2, ,-14, ,
2, ,-14, ,
2, ,-14, ,
1, ,-15, ,
1, ,-15, ,
1, ,-14, ,
1, ,-14, ,
1, ,-14, ,
1, ,-14, ,
1, ,-14, ,
2, ,-14, ,
2, ,-14, ,
2, ,-15, ,
2, ,-15, ,
3, ,-14, ,
3, ,-14, ,
3, ,-15, ,
3, ,-15, ,
3, ,-15, ,
2, ,-14, ,
2, ,-14, ,
2, ,-14, ,
2, ,-14, ,
2, ,-14, ,
1, ,-14, ,
1, ,-14, ,
1, ,-14, ,
1, ,-14, ,
1, ,-14, ,
0, ,-14, ,
0, ,-14, ,
1, ,-15, ,
0, ,-15, ,
0, ,-15, ,
0, ,-15, ,
0, ,-15, ,
0, ,-14, ,
0, ,-14, ,
-1, ,-14, ,
-1, ,-14, ,
-2, ,-14, ,
-2, ,-14, ,
-3, ,-14, ,
-4, ,-14, ,
-5, ,-15, ,
-6, ,-15, ,
-7, ,-14, ,
-8, ,-14, ,
-8, ,-14, ,
-8, ,-14, ,
-9, ,-15, ,
-9, ,-15, ,
-9, ,-15, ,
-9, ,-15, ,
-9, ,-15, ,
-10, ,-15, ,
-10, ,-14, ,
-11, ,-14, ,
-12, ,-14, ,
-14, ,-14, ,
-16, ,-14, ,
-18, ,-14, ,
-23, ,-14, ,
-25, ,-14, ,
-28, ,-14, ,
-29, ,-14, ,
-32, ,-14, ,
-32, ,-14, ,
-31, ,-14, ,
-31, ,-14, ,
-30, ,-14, ,
-28, ,-14, ,
-28, ,-14, ,
-27, ,-14, ,
-27, ,-15, ,
-27, ,-15, ,
-28, ,-14, ,
-28, ,-14, ,
-31, ,-14, ,
-33, ,-14, ,
-34, ,-14, ,
-35, ,-14, ,
-37, ,-15, ,
-37, ,-15, ,
-36, ,-14, ,
-35, ,-14, ,
-32, ,-14, ,
-29, ,-14, ,
-26, ,-15, ,
-25, ,-15, ,
-17, ,-15, ,
-14, ,-14, ,
-10, ,-15, ,
-7, ,-15, ,
-2, ,-14, ,
1, ,-14, ,
4, ,-14, ,
6, ,-14, ,
10, ,-14, ,
11, ,-14, ,
13, ,-14, ,
14, ,-14, ,
16, ,-14, ,
17, ,-14, ,
17, ,-14, ,
18, ,-14, ,
18, ,-14, ,
18, ,-14, ,
18, ,-14, ,
17, ,-14, ,
16, ,-14, ,
15, ,-14, ,
13, ,-14, ,
12, ,-14, ,
9, ,-14, ,
7, ,-14, ,
5, ,-14, ,
3, ,-15, ,
-2, ,-15, ,
-3, ,-15, ,
-5, ,-14, ,
-6, ,-14, ,
-8, ,-14, ,
-8, ,-14, ,
-8, ,-14, ,
-8, ,-14, ,
-7, ,-14, ,
-7, ,-14, ,
-5, ,-14, ,
-3, ,-14, ,
0, ,-14, ,
1, ,-14, ,
2, ,-14, ,
3, ,-14, ,
5, ,-14, ,
6, ,-14, ,
7, ,-14, ,
7, ,-14, ,
8, ,-14, ,
8, ,-14, ,
8, ,-14, ,
7, ,-14, ,
5, ,-14, ,
4, ,-15, ,
3, ,-15, ,
2, ,-14, ,
-1, ,-15, ,
-3, ,-15, ,
-5, ,-14, ,
-7, ,-14, ,
-10, ,-14, ,
-10, ,-14, ,
-12, ,-15, ,
-13, ,-15, ,
-15, ,-15, ,
-15, ,-14, ,
-16, ,-14, ,
-16, ,-15, ,
-17, ,-15, ,
-16, ,-15, ,
-16, ,-14, ,
-16, ,-14, ,
-16, ,-14, ,
-15, ,-14, ,
-14, ,-14, ,
-14, ,-14, ,
-11, ,-14, ,
-9, ,-14, ,
-9, ,-14, ,
-6, ,-14, ,
-4, ,-14, ,
-3, ,-14, ,
-2, ,-14, ,
-1, ,-14, ,
-1, ,-14, ,
-2, ,-14, ,
-2, ,-14, ,
-3, ,-14, ,
-5, ,-14, ,
-6, ,-14, ,
-7, ,-14, ,
-9, ,-15, ,
-11, ,-15, ,
-12, ,-15, ,
-15, ,-15, ,
-16, ,-15, ,
-19, ,-15, ,
-21, ,-14, ,
-21, ,-14, ,
-23, ,-14, ,
-24, ,-14, ,
-23, ,-14, ,
-24, ,-14, ,
-22, ,-14, ,
-21, ,-14, ,
-20, ,-14, ,
-17, ,-14, ,
-16, ,-14, ,
-12, ,-15, ,
-9, ,-15, ,
-8, ,-14, ,
-6, ,-14, ,
-2, ,-14, ,
-1, ,-14, ,
1, ,-14, ,
2, ,-14, ,
4, ,-15, ,
5, ,-15, ,
6, ,-14, ,
6, ,-14, ,
8, ,-14, ,
8, ,-14, ,
8, ,-14, ,
8, ,-15, ,
7, ,-15, ,
7, ,-15, ,
6, ,-14, ,
5, ,-14, ,
2, ,-14, ,
0, ,-14, ,
-1, ,-14, ,
-4, ,-14, ,
-8, ,-14, ,
-10, ,-14, ,
-13, ,-14, ,
-14, ,-14, ,
-18, ,-14, ,
-20, ,-14, ,
-21, ,-14, ,
-22, ,-14, ,
-23, ,-14, ,
-23, ,-14, ,
-23, ,-14, ,
-23, ,-14, ,
-21, ,-14, ,
-21, ,-14, ,
-19, ,-14, ,
-18, ,-14, ,
-15, ,-14, ,
-13, ,-15, ,
-12, ,-15, ,
-9, ,-14, ,
-6, ,-15, ,
-3, ,-15, ,
-2, ,-14, ,
0, ,-15, ,
4, ,-15, ,
6, ,-15, ,
7, ,-14, ,
8, ,-14, ,
12, ,-14, ,
13, ,-14, ,
13, ,-14, ,
15, ,-14, ,
17, ,-14, ,
17, ,-14, ,
18, ,-14, ,
18, ,-14, ,
18, ,-14, ,
18, ,-14, ,
17, ,-14, ,
17, ,-14, ,
15, ,-14, ,
14, ,-14, ,
14, ,-15, ,
13, ,-15, ,
11, ,-15, ,
9, ,-14, ,
9, ,-15, ,
7, ,-15, ,
6, ,-14, ,
5, ,-14, ,
4, ,-14, ,
3, ,-14, ,
1, ,-14, ,
1, ,-14, ,
0, ,-14, ,
-1, ,-14, ,
-2, ,-14, ,
-2, ,-15, ,
-3, ,-15, ,
-3, ,-14, ,
-4, ,-15, ,
-4, ,-15, ,
-5, ,-14, ,
-5, ,-14, ,
-6, ,-14, ,
-7, ,-14, ,
-7, ,-14, ,
-9, ,-14, ,
-11, ,-14, ,
-12, ,-14, ,
-13, ,-14, ,
-16, ,-14, ,
-19, ,-14, ,
-21, ,-14, ,
-23, ,-15, ,
-24, ,-15, ,
-27, ,-15, ,
-28, ,-14, ,
-30, ,-14, ,
-30, ,-14, ,
-31, ,-14, ,
-31, ,-14, ,
-31, ,-14, ,
-30, ,-14, ,
-30, ,-14, ,
-30, ,-15, ,
-28, ,-15, ,
-28, ,-14, ,
-27, ,-14, ,
-27, ,-14, ,
-27, ,-15, ,
-26, ,-15, ,
-26, ,-15, ,
-25, ,-14, ,
-25, ,-15, ,
-25, ,-15, ,
-24, ,-14, ,
-24, ,-14, ,
-23, ,-14, ,
-22, ,-14, ,
-20, ,-15, ,
-18, ,-15, ,
-17, ,-14, ,
-16, ,-14, ,
-13, ,-14, ,
-12, ,-14, ,
-10, ,-14, ,
-9, ,-14, ,
-5, ,-14, ,
-3, ,-14, ,
-1, ,-14, ,
1, ,-14, ,
5, ,-14, ,
7, ,-14, ,
8, ,-14, ,
10, ,-14, ,
13, ,-14, ,
14, ,-14, ,
15, ,-14, ,
15, ,-14, ,
16, ,-14, ,
16, ,-14, ,
15, ,-14, ,
15, ,-14, ,
14, ,-14, ,
12, ,-14, ,
11, ,-15, ,
10, ,-15, ,
7, ,-14, ,
6, ,-14, ,
4, ,-14, ,
3, ,-14, ,
0, ,-14, ,
-1, ,-14, ,
-1, ,-14, ,
-1, ,-14, ,
-1, ,-15, ,
0, ,-15, ,
1, ,-14, ,
2, ,-15, ,
5, ,-15, ,
6, ,-15, ,
8, ,-14, ,
9, ,-14, ,
13, ,-14, ,
14, ,-14, ,
15, ,-14, ,
15, ,-14, ,
15, ,-14, ,
14, ,-14, ,
14, ,-14, ,
13, ,-14, ,
10, ,-14, ,
9, ,-14, ,
7, ,-15, ,
6, ,-15, ,
3, ,-15, ,
0, ,-15, ,
-1, ,-14, ,
-2, ,-14, ,
-4, ,-14, ,
-5, ,-15, ,
-6, ,-15, ,
-6, ,-15, ,
-6, ,-14, ,
-7, ,-14, ,
-7, ,-14, ,
-7, ,-14, ,
-7, ,-14, ,
-7, ,-14, ,
-8, ,-14, ,
-8, ,-14, ,
-9, ,-14, ,
-11, ,-14, ,
-11, ,-14, ,
-12, ,-14, ,
-14, ,-14, ,
-15, ,-14, ,
-16, ,-14, ,
-16, ,-14, ,
-17, ,-14, ,
-17, ,-14, ,
-16, ,-14, ,
-16, ,-14, ,
-15, ,-15, ,
-14, ,-15, ,
-13, ,-14, ,
-12, ,-14, ,
-10, ,-14, ,
-8, ,-14, ,
-7, ,-15, ,
-5, ,-15, ,
-4, ,-14, ,
-3, ,-14, ,
-3, ,-14, ,
-3, ,-14, ,
-4, ,-14, ,
-4, ,-14, ,
-5, ,-14, ,
-6, ,-14, ,
-9, ,-14, ,
-10, ,-14, ,
-12, ,-14, ,
-14, ,-14, ,
-16, ,-14, ,
-17, ,-14, ,
-18, ,-15, ,
-18, ,-15, ,
-19, ,-14, ,
-18, ,-14, ,
-18, ,-14, ,
-18, ,-14, ,
-17, ,-15, ,
-16, ,-15, ,
-15, ,-14, ,
-15, ,-14, ,
-13, ,-14, ,
-12, ,-14, ,
-11, ,-14, ,
-11, ,-14, ,
-9, ,-14, ,
-9, ,-14, ,
-8, ,-14, ,
-7, ,-14, ,
-6, ,-14, ,
-5, ,-15, ,
-5, ,-15, ,
-4, ,-14, ,
-3, ,-14, ,
-2, ,-14, ,
-2, ,-14, ,
-2, ,-14, ,
-2, ,-14, ,
-2, ,-14, ,
-3, ,-14, ,
-3, ,-14, ,
-3, ,-14, ,
-4, ,-14, ,
-4, ,-14, ,
-5, ,-14, ,
-6, ,-14, ,
-6, ,-14, ,
-7, ,-14, ,
-7, ,-14, ,
-7, ,-15, ,
-7, ,-15, ,
-6, ,-14, ,
-6, ,-14, ,
-5, ,-14, ,
-4, ,-14, ,
-4, ,-15, ,
-2, ,-15, ,
0, ,-15, ,
1, ,-14, ,
2, ,-14, ,
3, ,-14, ,
4, ,-14, ,
6, ,-14, ,
6, ,-14, ,
7, ,-14, ,
8, ,-14, ,
8, ,-14, ,
8, ,-14, ,
8, ,-14, ,
8, ,-14, ,
8, ,-14, ,
7, ,-15, ,
7, ,-15, ,
7, ,-15, ,
6, ,-14, ,
6, ,-14, ,
5, ,-14, ,
4, ,-14, ,
4, ,-14, ,
3, ,-15, ,
3, ,-15, ,
1, ,-15, ,
0, ,-15, ,
-1, ,-14, ,
-2, ,-15, ,
-4, ,-15, ,
-4, ,-15, ,
-6, ,-14, ,
-6, ,-14, ,
-8, ,-14, ,
-8, ,-14, ,
-8, ,-15, ,
-9, ,-15, ,
-9, ,-14, ,
-8, ,-14, ,
-8, ,-14, ,
-7, ,-14, ,
-6, ,-15, ,
-5, ,-15, ,
-5, ,-14, ,
-4, ,-15, ,
-3, ,-15, ,
-1, ,-15, ,
-1, ,-14, ,
-1, ,-14, ,
1, ,-14, ,
1, ,-14, ,
1, ,-14, ,
1, ,-14, ,
1, ,-14, ,
0, ,-14, ,
0, ,-14, ,
0, ,-14, ,
-1, ,-14, ,
-2, ,-14, ,
-2, ,-15, ,
-2, ,-15, ,
-2, ,-14, ,
-2, ,-14, ,
-2, ,-14, ,
-2, ,-14, ,
-1, ,-14, ,
-1, ,-14, ,
0, ,-14, ,
0, ,-14, ,
1, ,-14, ,
1, ,-15, ,
1, ,-15, ,
2, ,-14, ,
1, ,-14, ,
0, ,-14, ,
0, ,-14, ,
-2, ,-14, ,
-4, ,-14, ,
-5, ,-14, ,
-6, ,-14, ,
-7, ,-14, ,
-10, ,-14, ,
-11, ,-14, ,
-12, ,-14, ,
-13, ,-14, ,
-14, ,-14, ,
-14, ,-14, ,
-13, ,-14, ,
-13, ,-14, ,
-12, ,-14, ,
-11, ,-14, ,
-10, ,-14, ,
-9, ,-15, ,
-6, ,-15, ,
-4, ,-15, ,
-2, ,-15, ,
-1, ,-14, ,
3, ,-14, ,
3, ,-14, ,
5, ,-14, ,
6, ,-14, ,
8, ,-14, ,
9, ,-14, ,
9, ,-14, ,
9, ,-14, ,
9, ,-14, ,
8, ,-14, ,
8, ,-14, ,
7, ,-15, ,
6, ,-15, ,
5, ,-15, ,
4, ,-15, ,
3, ,-15, ,
2, ,-15, ,
2, ,-14, ,
1, ,-14, ,
1, ,-14, ,
-1, ,-14, ,
-1, ,-14, ,
-1, ,-14, ,
-1, ,-14, ,
-1, ,-14, ,
-1, ,-14, ,
-1, ,-14, ,
-1, ,-14, ,
0, ,-14, ,
1, ,-14, ,
1, ,-14, ,
1, ,-14, ,
3, ,-14, ,
3, ,-14, ,
3, ,-14, ,
4, ,-14, ,
4, ,-14, ,
4, ,-14, ,
3, ,-14, ,
3, ,-14, ,
2, ,-14, ,
1, ,-14, ,
0, ,-14, ,
-1, ,-14, ,
-3, ,-14, ,
-3, ,-14, ,
-5, ,-14, ,
-6, ,-14, ,
-7, ,-14, ,
-8, ,-14, ,
-9, ,-14, ,
-9, ,-14, ,
-11, ,-14, ,
-11, ,-14, ,
-11, ,-14, ,
-12, ,-14, ,
-12, ,-14, ,
-11, ,-14, ,
-11, ,-14, ,
-11, ,-14, ,
-10, ,-14, ,
-10, ,-14, ,
-9, ,-14, ,
-8, ,-14, ,
-5, ,-15, ,
-5, ,-15, ,
-3, ,-14, ,
-2, ,-14, ,
1, ,-14, ,
2, ,-14, ,
4, ,-14, ,
5, ,-14, ,
7, ,-14, ,
8, ,-14, ,
9, ,-14, ,
9, ,-14, ,
9, ,-14, ,
9, ,-14, ,
7, ,-15, ,
7, ,-15, ,
5, ,-15, ,
4, ,-14, ,
3, ,-14, ,
1, ,-14, ,
-2, ,-14, ,
-3, ,-14, ,
-5, ,-14, ,
-6, ,-14, ,
-9, ,-15, ,
-9, ,-15, ,
-10, ,-15, ,
-10, ,-15, ,
-9, ,-14, ,
-8, ,-14, ,
-8, ,-14, ,
-7, ,-14, ,
-3, ,-14, ,
-2, ,-14, ,
1, ,-14, ,
3, ,-15, ,
7, ,-15, ,
9, ,-15, ,
10, ,-14, ,
12, ,-14, ,
13, ,-15, ,
14, ,-15, ,
14, ,-14, ,
12, ,-14, ,
11, ,-14, ,
10, ,-14, ,
9, ,-15, ,
7, ,-15, ,
3, ,-15, ,
1, ,-15, ,
-1, ,-15, ,
-4, ,-15, ,
-8, ,-14, ,
-9, ,-15, ,
-11, ,-15, ,
-13, ,-15, ,
-14, ,-14, ,
-14, ,-14, ,
-14, ,-14, ,
-14, ,-14, ,
-12, ,-14, ,
-11, ,-14, ,
-10, ,-14, ,
-8, ,-14, ,
-5, ,-14, ,
-3, ,-14, ,
-2, ,-14, ,
0, ,-14, ,
3, ,-14, ,
4, ,-14, ,
5, ,-14, ,
6, ,-14, ,
5, ,-15, ,
4, ,-15, ,
4, ,-15, ,
3, ,-15, ,
1, ,-15, ,
0, ,-15, ,
-2, ,-14, ,
-3, ,-14, ,
-6, ,-14, ,
-8, ,-14, ,
-9, ,-15, ,
-10, ,-15, ,
-12, ,-14, ,
-12, ,-15, ,
-11, ,-15, ,
-11, ,-14, ,
-10, ,-14, ,
-9, ,-14, ,
-7, ,-14, ,
-6, ,-14, ,
-3, ,-14, ,
-1, ,-15, ,
1, ,-15, ,
2, ,-14, ,
5, ,-14, ,
6, ,-14, ,
7, ,-14, ,
7, ,-14, ,
7, ,-14, ,
7, ,-15, ,
6, ,-15, ,
6, ,-14, ,
3, ,-14, ,
2, ,-14, ,
1, ,-14, ,
-1, ,-15, ,
-4, ,-15, ,
-4, ,-15, ,
-6, ,-14, ,
-7, ,-14, ,
-8, ,-14, ,
-9, ,-14, ,
-8, ,-14, ,
-9, ,-14, ,
-7, ,-14, ,
-7, ,-14, ,
-6, ,-14, ,
-5, ,-14, ,
-4, ,-15, ,
-2, ,-15, ,
-1, ,-15, ,
-1, ,-14, ,
1, ,-14, ,
1, ,-15, ,
1, ,-15, ,
1, ,-14, ,
1, ,-14, ,
0, ,-14, ,
0, ,-14, ,
-1, ,-14, ,
-2, ,-14, ,
-3, ,-14, ,
-3, ,-14, ,
-4, ,-14, ,
-5, ,-14, ,
-6, ,-14, ,
-7, ,-14, ,
-8, ,-14, ,
-8, ,-14, ,
-9, ,-14, ,
-9, ,-14, ,
-9, ,-14, ,
-8, ,-14, ,
-8, ,-14, ,
-7, ,-15, ,
-7, ,-15, ,
-6, ,-14, ,
-4, ,-14, ,
-4, ,-14, ,
-3, ,-14, ,
-1, ,-14, ,
0, ,-14, ,
1, ,-14, ,
2, ,-14, ,
3, ,-14, ,
4, ,-14, ,
4, ,-14, ,
4, ,-14, ,
4, ,-14, ,
3, ,-14, ,
3, ,-14, ,
2, ,-14, ,
1, ,-14, ,
0, ,-14, ,
0, ,-14, ,
-2, ,-14, ,
-4, ,-14, ,
-6, ,-14, ,
-7, ,-14, ,
-9, ,-15, ,
-12, ,-15, ,
-12, ,-15, ,
-12, ,-15, ,
-12, ,-15, ,
-12, ,-15, ,
-12, ,-14, ,
-11, ,-14, ,
-10, ,-14, ,
-7, ,-14, ,
-5, ,-15, ,
-3, ,-15, ,
-1, ,-14, ,
3, ,-14, ,
6, ,-14, ,
8, ,-14, ,
9, ,-14, ,
13, ,-14, ,
14, ,-14, ,
15, ,-14, ,
16, ,-14, ,
15, ,-14, ,
14, ,-14, ,
13, ,-15, ,
12, ,-15, ,
10, ,-14, ,
8, ,-14, ,
6, ,-14, ,
5, ,-14, ,
2, ,-15, ,
0, ,-15, ,
0, ,-14, ,
-2, ,-15, ,
-4, ,-15, ,
-4, ,-15, ,
-5, ,-15, ,
-4, ,-15, ,
-4, ,-15, ,
-4, ,-14, ,
-4, ,-14, ,
-4, ,-14, ,
-3, ,-14, ,
-3, ,-14, ,
-3, ,-14, ,
-2, ,-14, ,
-3, ,-14, ,
-3, ,-14, ,
-3, ,-14, ,
-3, ,-15, ,
-3, ,-15, ,
-3, ,-15, ,
-3, ,-14, ,
-3, ,-14, ,
-3, ,-14, ,
-3, ,-14, ,
-3, ,-15, ,
-2, ,-15, ,
-1, ,-14, ,
-1, ,-14, ,
-1, ,-14, ,
1, ,-14, ,
1, ,-14, ,
2, ,-14, ,
3, ,-14, ,
4, ,-15, ,
5, ,-15, ,
5, ,-15, ,
5, ,-14, ,
5, ,-14, ,
5, ,-14, ,
4, ,-14, ,
4, ,-15, ,
3, ,-15, ,
1, ,-15, ,
0, ,-15, ,
0, ,-15, ,
-1, ,-14, ,
-3, ,-15, ,
-4, ,-15, ,
-4, ,-14, ,
-5, ,-14, ,
-5, ,-14, ,
-4, ,-14, ,
-4, ,-14, ,
-3, ,-15, ,
-2, ,-15, ,
-1, ,-15, ,
2, ,-14, ,
2, ,-14, ,
5, ,-14, ,
6, ,-14, ,
7, ,-14, ,
8, ,-14, ,
8, ,-15, ,
7, ,-15, ,
7, ,-14, ,
6, ,-14, ,
3, ,-14, ,
3, ,-14, ,
1, ,-14, ,
-1, ,-14, ,
-4, ,-14, ,
-7, ,-14, ,
-8, ,-14, ,
-10, ,-15, ,
-13, ,-15, ,
-13, ,-15, ,
-13, ,-14, ,
-12, ,-14, ,
-11, ,-14, ,
-10, ,-14, ,
-9, ,-14, ,
-8, ,-15, ,
-4, ,-15, ,
-2, ,-15, ,
-1, ,-14, ,
2, ,-14, ,
5, ,-14, ,
6, ,-14, ,
8, ,-14, ,
9, ,-14, ,
9, ,-14, ,
9, ,-14, ,
9, ,-14, ,
9, ,-14, ,
8, ,-14, ,
6, ,-14, ,
6, ,-14, ,
4, ,-14, ,
3, ,-14, ,
2, ,-14, ,
0, ,-15, ,
0, ,-15, ,
0, ,-15, ,
0, ,-14, ,
0, ,-14, ,
0, ,-14, ,
1, ,-14, ,
2, ,-14, ,
2, ,-14, ,
2, ,-14, ,
3, ,-14, ,
3, ,-14, ,
3, ,-14, ,
2, ,-15, ,
2, ,-15, ,
2, ,-15, ,
0, ,-15, ,
0, ,-15, ,
-1, ,-15, ,
-3, ,-14, ,
-3, ,-14, ,
-4, ,-14, ,
-6, ,-14, ,
-6, ,-14, ,
-7, ,-14, ,
-7, ,-14, ,
-7, ,-14, ,
-8, ,-14, ,
-8, ,-14, ,
-8, ,-15, ,
-7, ,-15, ,
-7, ,-15, ,
-7, ,-14, ,
-7, ,-14, ,
-6, ,-14, ,
-6, ,-14, ,
-5, ,-14, ,
-5, ,-14, ,
-4, ,-14, ,
-4, ,-14, ,
-4, ,-14, ,
-2, ,-14, ,
-1, ,-15, ,
-1, ,-15, ,
0, ,-14, ,
0, ,-15, ,
1, ,-15, ,
2, ,-15, ,
2, ,-14, ,
3, ,-14, ,
4, ,-14, ,
4, ,-14, ,
5, ,-14, ,
5, ,-14, ,
6, ,-14, ,
6, ,-14, ,
5, ,-14, ,
5, ,-14, ,
5, ,-14, ,
5, ,-14, ,
5, ,-14, ,
4, ,-14, ,
3, ,-14, ,
3, ,-15, ,
2, ,-15, ,
2, ,-14, ,
2, ,-14, ,
2, ,-14, ,
3, ,-14, ,
3, ,-14, ,
3, ,-14, ,
3, ,-14, ,
4, ,-14, ,
5, ,-14, ,
5, ,-14, ,
6, ,-14, ,
7, ,-14, ,
7, ,-15, ,
7, ,-15, ,
7, ,-15, ,
6, ,-15, ,
6, ,-15, ,
5, ,-15, ,
4, ,-14, ,
3, ,-14, ,
2, ,-14, ,
-2, ,-14, ,
-2, ,-14, ,
-4, ,-14, ,
-5, ,-14, ,
-7, ,-15, ,
-8, ,-15, ,
-9, ,-14, ,
-10, ,-14, ,
-10, ,-14, ,
-10, ,-14, ,
-10, ,-14, ,
-10, ,-14, ,
-10, ,-14, ,
-10, ,-14, ,
-9, ,-14, ,
-9, ,-14, ,
-8, ,-14, ,
-7, ,-14, ,
-7, ,-14, ,
-6, ,-14, ,
-5, ,-14, ,
-4, ,-14, ,
-4, ,-14, ,
-3, ,-15, ,
-1, ,-15, ,
1, ,-15, ,
1, ,-14, ,
2, ,-14, ,
5, ,-14, ,
5, ,-14, ,
6, ,-15, ,
7, ,-15, ,
9, ,-14, ,
10, ,-15, ,
11, ,-15, ,
12, ,-14, ,
12, ,-14, ,
13, ,-14, ,
12, ,-14, ,
12, ,-15, ,
11, ,-15, ,
11, ,-15, ,
10, ,-15, ,
10, ,-14, ,
9, ,-14, ,
8, ,-14, ,
7, ,-15, ,
6, ,-15, ,
5, ,-15, ,
3, ,-15, ,
2, ,-14, ,
2, ,-14, ,
0, ,-14, ,
-1, ,-14, ,
-2, ,-14, ,
-3, ,-14, ,
-4, ,-14, ,
-4, ,-14, ,
-4, ,-15, ,
-5, ,-15, ,
-5, ,-15, ,
-5, ,-14, ,
-5, ,-14, ,
-5, ,-14, ,
-5, ,-14, ,
-5, ,-15, ,
-4, ,-15, ,
-4, ,-14, ,
-3, ,-14, ,
-3, ,-14, ,
-2, ,-15, ,
-2, ,-15, ,
-2, ,-15, ,
-2, ,-15, ,
-2, ,-14, ,
-2, ,-14, ,
-2, ,-14, ,
-2, ,-14, ,
-2, ,-14, ,
-3, ,-14, ,
-3, ,-14, ,
-3, ,-14, ,
-3, ,-14, ,
-3, ,-14, ,
-3, ,-15, ,
-2, ,-15, ,
-2, ,-15, ,
-2, ,-14, ,
0, ,-14, ,
0, ,-14, ,
1, ,-14, ,
2, ,-14, ,
3, ,-14, ,
4, ,-14, ,
5, ,-14, ,
6, ,-15, ,
6, ,-15, ,
7, ,-15, ,
7, ,-15, ,
6, ,-14, ,
6, ,-14, ,
5, ,-14, ,
5, ,-14, ,
3, ,-14, ,
2, ,-14, ,
1, ,-14, ,
0, ,-15, ,
-1, ,-15, ,
-3, ,-15, ,
-4, ,-14, ,
-5, ,-15, ,
-5, ,-15, ,
-6, ,-14, ,
-5, ,-14, ,
-6, ,-14, ,
-6, ,-14, ,
-5, ,-14, ,
-4, ,-14, ,
-3, ,-15, ,
