raw_data/75% Glycerol, Impulsion 2Hz, Sonde 5MHz, Rampe 0.7Hz/temp0000283.CSV

Format,1.0B,
Memory Length,10000,Memory Length,10000,
IntpDistance,0,IntpDistance,0,
Trigger Address,159,Trigger Address,159,
Trigger Level,2.720E-01,Trigger Level,2.720E-01,
Source,CH1,Source,CH2,
Vertical Units,V,Vertical Units,V,
Vertical Units Div,0,Vertical Units Div,0,
Vertical Units Extend Div,16,Vertical Units Extend Div,16,
Label,,Label,,
Probe Type,0,Probe Type,0,
Probe Ratio,1.000e+00,Probe Ratio,1.000e+00,
Vertical Scale,5.000e-01,Vertical Scale,2.000e+00,
Vertical Position,0.000e+00,Vertical Position,0.000e+00,
Horizontal Units,S,Horizontal Units,S,
Horizontal Scale,5.000E-06,Horizontal Scale,5.000E-06,
Horizontal Position,2.420E-05,Horizontal Position,2.420E-05,
Horizontal Mode,Main,Horizontal Mode,Main,
SincET Mode,Real Time,SincET Mode,Real Time,
Sampling Period,5.000e-09,Sampling Period,5.000e-09,
Horizontal Old Scale,5.000E-06,Horizontal Old Scale,5.000E-06,
Horizontal Old Position,2.420E-05,Horizontal Old Position,2.420E-05,
Firmware,V1.32,Firmware,V1.32,
Mode,Fast,Mode,Fast,
Waveform Data,,Waveform Data,,
1, ,-9, ,
1, ,-9, ,
0, ,-9, ,
0, ,-9, ,
0, ,-9, ,
0, ,-9, ,
1, ,-9, ,
0, ,-9, ,
0, ,-9, ,
0, ,-9, ,
1, ,-9, ,
1, ,-9, ,
1, ,-9, ,
0, ,-9, ,
0, ,-9, ,
1, ,-9, ,
0, ,-9, ,
0, ,-9, ,
0, ,-9, ,
0, ,-9, ,
1, ,-9, ,
1, ,-9, ,
1, ,-9, ,
0, ,-9, ,
0, ,-9, ,
0, ,-9, ,
0, ,-9, ,
0, ,-9, ,
1, ,-9, ,
0, ,-9, ,
0, ,-9, ,
0, ,-9, ,
0, ,-9, ,
0, ,-9, ,
0, ,-9, ,
0, ,-9, ,
0, ,-9, ,
0, ,-9, ,
0, ,-9, ,
1, ,-9, ,
0, ,-9, ,
0, ,-9, ,
0, ,-9, ,
1, ,-9, ,
1, ,-9, ,
0, ,-9, ,
0, ,-9, ,
1, ,-9, ,
1, ,-9, ,
1, ,-9, ,
1, ,-9, ,
0, ,-9, ,
0, ,-9, ,
0, ,-9, ,
1, ,-9, ,
1, ,-9, ,
0, ,-9, ,
0, ,-9, ,
0, ,-9, ,
1, ,-9, ,
1, ,-9, ,
1, ,-9, ,
1, ,-9, ,
1, ,-9, ,
1, ,-9, ,
1, ,-9, ,
1, ,-9, ,
1, ,-9, ,
1, ,-9, ,
1, ,-9, ,
1, ,-9, ,
1, ,-9, ,
1, ,-9, ,
1, ,-9, ,
1, ,-9, ,
1, ,-9, ,
1, ,-9, ,
0, ,-9, ,
0, ,-9, ,
1, ,-9, ,
0, ,-9, ,
0, ,-9, ,
0, ,-9, ,
0, ,-9, ,
0, ,-9, ,
0, ,-9, ,
0, ,-9, ,
0, ,-9, ,
1, ,-9, ,
1, ,-9, ,
1, ,-9, ,
0, ,-9, ,
0, ,-9, ,
0, ,-9, ,
1, ,-9, ,
0, ,-9, ,
0, ,-9, ,
1, ,-9, ,
1, ,-9, ,
0, ,-9, ,
0, ,-9, ,
0, ,-9, ,
1, ,-9, ,
1, ,-9, ,
0, ,-9, ,
0, ,-9, ,
0, ,-9, ,
0, ,-9, ,
0, ,-9, ,
0, ,-9, ,
0, ,-9, ,
0, ,-9, ,
1, ,-9, ,
1, ,-9, ,
1, ,-9, ,
1, ,-9, ,
1, ,-9, ,
1, ,-9, ,
1, ,-9, ,
0, ,-9, ,
0, ,-9, ,
0, ,-9, ,
1, ,-9, ,
1, ,-9, ,
0, ,-9, ,
0, ,-9, ,
0, ,-9, ,
0, ,-9, ,
1, ,-9, ,
1, ,-9, ,
1, ,-9, ,
0, ,-9, ,
0, ,-9, ,
0, ,-9, ,
0, ,-9, ,
1, ,-9, ,
1, ,-9, ,
1, ,-9, ,
1, ,-9, ,
1, ,-9, ,
1, ,-9, ,
0, ,-9, ,
0, ,-9, ,
1, ,-9, ,
0, ,-9, ,
0, ,-9, ,
0, ,-9, ,
1, ,-9, ,
1, ,-9, ,
1, ,-9, ,
1, ,-9, ,
1, ,-9, ,
0, ,-9, ,
0, ,-9, ,
0, ,-9, ,
1, ,-9, ,
1, ,-9, ,
1, ,-9, ,
1, ,-9, ,
1, ,-9, ,
1, ,-9, ,
1, ,-9, ,
1, ,-9, ,
0, ,-9, ,
-1, ,-9, ,
0, ,-9, ,
-2, ,-9, ,
22, ,-9, ,
52, ,-9, ,
93, ,-9, ,
125, ,-9, ,
121, ,-9, ,
88, ,-9, ,
28, ,-9, ,
-7, ,-9, ,
65, ,-9, ,
115, ,-9, ,
125, ,-9, ,
125, ,-9, ,
125, ,-9, ,
125, ,-9, ,
125, ,-9, ,
125, ,-9, ,
124, ,-9, ,
120, ,-9, ,
114, ,-9, ,
109, ,-9, ,
102, ,-9, ,
100, ,-9, ,
96, ,-9, ,
93, ,-9, ,
85, ,-9, ,
82, ,-9, ,
79, ,-9, ,
76, ,-9, ,
71, ,-9, ,
68, ,-9, ,
65, ,-9, ,
62, ,-9, ,
58, ,-9, ,
55, ,-9, ,
53, ,-9, ,
51, ,-9, ,
46, ,-9, ,
44, ,-9, ,
42, ,-9, ,
41, ,-9, ,
37, ,-9, ,
36, ,-9, ,
34, ,-9, ,
32, ,-9, ,
30, ,-9, ,
28, ,-9, ,
27, ,-9, ,
25, ,-9, ,
25, ,-9, ,
23, ,-9, ,
22, ,-9, ,
21, ,-9, ,
19, ,-9, ,
18, ,-9, ,
18, ,-9, ,
17, ,-9, ,
14, ,-9, ,
14, ,-9, ,
13, ,-9, ,
13, ,-9, ,
11, ,-9, ,
11, ,-9, ,
10, ,-9, ,
10, ,-9, ,
9, ,-9, ,
8, ,-9, ,
8, ,-9, ,
7, ,-9, ,
6, ,-9, ,
6, ,-9, ,
5, ,-9, ,
5, ,-9, ,
4, ,-9, ,
4, ,-9, ,
4, ,-9, ,
4, ,-9, ,
3, ,-9, ,
3, ,-9, ,
2, ,-9, ,
2, ,-9, ,
2, ,-9, ,
2, ,-9, ,
2, ,-9, ,
2, ,-9, ,
1, ,-9, ,
1, ,-9, ,
1, ,-9, ,
1, ,-9, ,
0, ,-9, ,
0, ,-9, ,
0, ,-9, ,
0, ,-9, ,
0, ,-9, ,
0, ,-9, ,
0, ,-9, ,
0, ,-9, ,
-1, ,-9, ,
-1, ,-9, ,
-1, ,-9, ,
-1, ,-9, ,
-1, ,-9, ,
-1, ,-9, ,
-1, ,-9, ,
-1, ,-9, ,
-1, ,-9, ,
-1, ,-9, ,
-1, ,-9, ,
-2, ,-9, ,
-1, ,-9, ,
-1, ,-9, ,
-1, ,-9, ,
-1, ,-9, ,
-1, ,-9, ,
-1, ,-9, ,
-1, ,-9, ,
-2, ,-9, ,
-2, ,-9, ,
-1, ,-9, ,
-1, ,-9, ,
-1, ,-9, ,
-1, ,-9, ,
-1, ,-9, ,
-1, ,-9, ,
-1, ,-9, ,
-1, ,-9, ,
-1, ,-9, ,
-1, ,-9, ,
-1, ,-9, ,
-1, ,-9, ,
-1, ,-9, ,
-1, ,-9, ,
-1, ,-9, ,
-1, ,-9, ,
-1, ,-9, ,
-1, ,-9, ,
-1, ,-9, ,
-1, ,-9, ,
-1, ,-9, ,
-1, ,-9, ,
-1, ,-9, ,
-1, ,-9, ,
-1, ,-9, ,
-1, ,-9, ,
-1, ,-9, ,
-1, ,-9, ,
-1, ,-9, ,
-1, ,-9, ,
-1, ,-9, ,
-1, ,-9, ,
-1, ,-9, ,
-1, ,-9, ,
0, ,-9, ,
-1, ,-9, ,
-1, ,-9, ,
-1, ,-9, ,
-1, ,-9, ,
-1, ,-9, ,
-1, ,-9, ,
-1, ,-9, ,
0, ,-9, ,
0, ,-9, ,
-1, ,-9, ,
-1, ,-9, ,
-1, ,-9, ,
0, ,-9, ,
0, ,-9, ,
0, ,-9, ,
0, ,-9, ,
0, ,-9, ,
0, ,-9, ,
0, ,-9, ,
0, ,-9, ,
0, ,-9, ,
0, ,-9, ,
0, ,-9, ,
0, ,-9, ,
0, ,-9, ,
0, ,-9, ,
0, ,-9, ,
0, ,-9, ,
0, ,-9, ,
0, ,-9, ,
0, ,-9, ,
0, ,-9, ,
0, ,-9, ,
0, ,-9, ,
0, ,-9, ,
0, ,-9, ,
0, ,-9, ,
0, ,-9, ,
0, ,-9, ,
0, ,-9, ,
0, ,-9, ,
0, ,-9, ,
0, ,-9, ,
0, ,-9, ,
0, ,-9, ,
0, ,-9, ,
0, ,-9, ,
0, ,-9, ,
0, ,-9, ,
0, ,-9, ,
0, ,-9, ,
0, ,-9, ,
0, ,-9, ,
0, ,-9, ,
0, ,-9, ,
0, ,-9, ,
1, ,-9, ,
0, ,-9, ,
0, ,-9, ,
0, ,-9, ,
0, ,-9, ,
0, ,-9, ,
0, ,-9, ,
0, ,-9, ,
0, ,-9, ,
0, ,-9, ,
0, ,-9, ,
0, ,-9, ,
1, ,-9, ,
0, ,-9, ,
0, ,-9, ,
0, ,-9, ,
0, ,-9, ,
0, ,-9, ,
0, ,-9, ,
0, ,-9, ,
0, ,-9, ,
1, ,-9, ,
1, ,-9, ,
1, ,-9, ,
1, ,-9, ,
0, ,-9, ,
0, ,-9, ,
0, ,-9, ,
0, ,-9, ,
0, ,-9, ,
-1, ,-9, ,
-1, ,-9, ,
-1, ,-9, ,
-2, ,-9, ,
-2, ,-9, ,
-2, ,-9, ,
-2, ,-9, ,
-2, ,-9, ,
-1, ,-9, ,
-1, ,-9, ,
0, ,-9, ,
0, ,-9, ,
0, ,-9, ,
0, ,-9, ,
1, ,-9, ,
1, ,-9, ,
1, ,-9, ,
1, ,-9, ,
1, ,-9, ,
1, ,-9, ,
1, ,-9, ,
1, ,-9, ,
1, ,-9, ,
1, ,-9, ,
1, ,-9, ,
2, ,-9, ,
1, ,-9, ,
1, ,-9, ,
1, ,-9, ,
1, ,-9, ,
1, ,-9, ,
1, ,-9, ,
0, ,-9, ,
0, ,-9, ,
-10, ,-9, ,
-29, ,-9, ,
-64, ,-9, ,
-104, ,-9, ,
-120, ,-9, ,
-115, ,-9, ,
-114, ,-9, ,
-114, ,-9, ,
-117, ,-9, ,
-117, ,-9, ,
-118, ,-9, ,
-120, ,-9, ,
-125, ,-9, ,
-125, ,-9, ,
-123, ,-9, ,
-114, ,-9, ,
62, ,-9, ,
90, ,-9, ,
83, ,-9, ,
74, ,-9, ,
69, ,-9, ,
69, ,-9, ,
62, ,-9, ,
44, ,-9, ,
-26, ,-9, ,
-72, ,-9, ,
-108, ,-9, ,
-123, ,-9, ,
-117, ,-9, ,
-116, ,-9, ,
-117, ,-9, ,
-117, ,-9, ,
-119, ,-9, ,
-119, ,-9, ,
-120, ,-9, ,
-121, ,-9, ,
-121, ,-9, ,
-116, ,-9, ,
-54, ,-9, ,
57, ,-9, ,
124, ,-9, ,
124, ,-9, ,
116, ,-9, ,
113, ,-9, ,
115, ,-9, ,
115, ,-9, ,
111, ,-9, ,
106, ,-9, ,
98, ,-9, ,
95, ,-9, ,
92, ,-9, ,
89, ,-9, ,
83, ,-9, ,
80, ,-9, ,
77, ,-9, ,
75, ,-9, ,
70, ,-9, ,
68, ,-9, ,
66, ,-9, ,
62, ,-9, ,
58, ,-9, ,
56, ,-9, ,
54, ,-9, ,
52, ,-9, ,
49, ,-9, ,
46, ,-9, ,
45, ,-9, ,
43, ,-9, ,
39, ,-9, ,
36, ,-9, ,
33, ,-9, ,
27, ,-9, ,
4, ,-9, ,
-14, ,-9, ,
-34, ,-9, ,
-56, ,-9, ,
-95, ,-9, ,
-108, ,-9, ,
-114, ,-9, ,
-116, ,-9, ,
-115, ,-9, ,
-116, ,-9, ,
-116, ,-9, ,
-117, ,-9, ,
-118, ,-9, ,
-118, ,-9, ,
-119, ,-9, ,
-119, ,-9, ,
-119, ,-9, ,
-119, ,-9, ,
-119, ,-9, ,
-116, ,-9, ,
-49, ,-9, ,
-12, ,-9, ,
12, ,-9, ,
25, ,-9, ,
46, ,-9, ,
55, ,-9, ,
63, ,-9, ,
68, ,-9, ,
71, ,-9, ,
70, ,-9, ,
68, ,-9, ,
65, ,-9, ,
56, ,-9, ,
51, ,-9, ,
45, ,-9, ,
38, ,-9, ,
27, ,-9, ,
24, ,-9, ,
20, ,-9, ,
16, ,-9, ,
10, ,-9, ,
7, ,-9, ,
6, ,-9, ,
3, ,-9, ,
3, ,-9, ,
3, ,-9, ,
4, ,-9, ,
6, ,-9, ,
12, ,-9, ,
17, ,-9, ,
23, ,-9, ,
28, ,-9, ,
41, ,-9, ,
47, ,-9, ,
52, ,-9, ,
57, ,-9, ,
62, ,-9, ,
63, ,-9, ,
62, ,-9, ,
62, ,-9, ,
60, ,-9, ,
59, ,-9, ,
57, ,-9, ,
56, ,-9, ,
50, ,-9, ,
47, ,-9, ,
44, ,-9, ,
39, ,-9, ,
29, ,-9, ,
24, ,-9, ,
16, ,-9, ,
8, ,-9, ,
-9, ,-9, ,
-18, ,-9, ,
-25, ,-9, ,
-30, ,-9, ,
-41, ,-9, ,
-45, ,-9, ,
-49, ,-9, ,
-51, ,-9, ,
-53, ,-9, ,
-54, ,-9, ,
-52, ,-9, ,
-53, ,-9, ,
-46, ,-9, ,
-41, ,-9, ,
-36, ,-9, ,
-29, ,-9, ,
-13, ,-9, ,
-5, ,-9, ,
4, ,-9, ,
12, ,-9, ,
26, ,-9, ,
33, ,-9, ,
36, ,-9, ,
41, ,-9, ,
45, ,-9, ,
45, ,-9, ,
45, ,-9, ,
44, ,-9, ,
41, ,-9, ,
39, ,-9, ,
36, ,-9, ,
32, ,-9, ,
24, ,-9, ,
18, ,-9, ,
12, ,-9, ,
5, ,-9, ,
-9, ,-9, ,
-15, ,-9, ,
-21, ,-9, ,
-25, ,-9, ,
-33, ,-9, ,
-36, ,-9, ,
-38, ,-9, ,
-40, ,-9, ,
-40, ,-9, ,
-40, ,-9, ,
-38, ,-9, ,
-37, ,-9, ,
-30, ,-9, ,
-27, ,-9, ,
-23, ,-9, ,
-19, ,-9, ,
-9, ,-9, ,
-4, ,-9, ,
0, ,-9, ,
6, ,-9, ,
13, ,-9, ,
16, ,-9, ,
20, ,-9, ,
21, ,-9, ,
25, ,-9, ,
25, ,-9, ,
25, ,-9, ,
25, ,-9, ,
24, ,-9, ,
22, ,-9, ,
20, ,-9, ,
17, ,-9, ,
11, ,-9, ,
8, ,-9, ,
5, ,-9, ,
1, ,-9, ,
-5, ,-9, ,
-8, ,-9, ,
-11, ,-9, ,
-14, ,-9, ,
-19, ,-9, ,
-21, ,-9, ,
-24, ,-9, ,
-25, ,-9, ,
-30, ,-9, ,
-33, ,-9, ,
-36, ,-9, ,
-39, ,-9, ,
-45, ,-9, ,
-47, ,-9, ,
-48, ,-9, ,
-49, ,-9, ,
-49, ,-9, ,
-46, ,-9, ,
-43, ,-9, ,
-39, ,-9, ,
-26, ,-9, ,
-18, ,-9, ,
-9, ,-9, ,
1, ,-9, ,
20, ,-9, ,
27, ,-9, ,
35, ,-9, ,
42, ,-9, ,
51, ,-9, ,
54, ,-9, ,
56, ,-9, ,
56, ,-9, ,
56, ,-9, ,
54, ,-9, ,
53, ,-9, ,
51, ,-9, ,
44, ,-9, ,
40, ,-9, ,
34, ,-9, ,
27, ,-9, ,
7, ,-9, ,
-6, ,-9, ,
-21, ,-9, ,
-34, ,-9, ,
-64, ,-9, ,
-77, ,-9, ,
-90, ,-9, ,
-102, ,-9, ,
-115, ,-9, ,
-115, ,-9, ,
-116, ,-9, ,
-116, ,-9, ,
-117, ,-9, ,
-117, ,-9, ,
-118, ,-9, ,
-118, ,-9, ,
-119, ,-9, ,
-119, ,-9, ,
-119, ,-9, ,
-117, ,-9, ,
-42, ,-9, ,
2, ,-9, ,
35, ,-9, ,
57, ,-9, ,
89, ,-9, ,
100, ,-9, ,
110, ,-9, ,
115, ,-9, ,
114, ,-9, ,
112, ,-9, ,
109, ,-9, ,
107, ,-9, ,
102, ,-9, ,
99, ,-9, ,
96, ,-9, ,
92, ,-9, ,
85, ,-9, ,
81, ,-9, ,
74, ,-9, ,
64, ,-9, ,
27, ,-9, ,
-1, ,-9, ,
-32, ,-9, ,
-63, ,-9, ,
-104, ,-9, ,
-114, ,-9, ,
-116, ,-9, ,
-116, ,-9, ,
-116, ,-9, ,
-115, ,-9, ,
-116, ,-9, ,
-113, ,-9, ,
-65, ,-9, ,
-32, ,-9, ,
-10, ,-9, ,
7, ,-9, ,
32, ,-9, ,
43, ,-9, ,
51, ,-9, ,
56, ,-9, ,
58, ,-9, ,
58, ,-9, ,
55, ,-9, ,
53, ,-9, ,
46, ,-9, ,
41, ,-9, ,
38, ,-9, ,
34, ,-9, ,
30, ,-9, ,
30, ,-9, ,
30, ,-9, ,
30, ,-9, ,
32, ,-9, ,
33, ,-9, ,
34, ,-9, ,
35, ,-9, ,
35, ,-9, ,
34, ,-9, ,
32, ,-9, ,
30, ,-9, ,
22, ,-9, ,
15, ,-9, ,
7, ,-9, ,
-3, ,-9, ,
-25, ,-9, ,
-38, ,-9, ,
-51, ,-9, ,
-62, ,-9, ,
-82, ,-9, ,
-91, ,-9, ,
-99, ,-9, ,
-105, ,-9, ,
-108, ,-9, ,
-108, ,-9, ,
-107, ,-9, ,
-105, ,-9, ,
-86, ,-9, ,
-75, ,-9, ,
-64, ,-9, ,
-52, ,-9, ,
-30, ,-9, ,
-21, ,-9, ,
-10, ,-9, ,
-1, ,-9, ,
13, ,-9, ,
18, ,-9, ,
22, ,-9, ,
25, ,-9, ,
29, ,-9, ,
30, ,-9, ,
31, ,-9, ,
31, ,-9, ,
31, ,-9, ,
30, ,-9, ,
30, ,-9, ,
28, ,-9, ,
26, ,-9, ,
25, ,-9, ,
24, ,-9, ,
21, ,-9, ,
15, ,-9, ,
12, ,-9, ,
10, ,-9, ,
6, ,-9, ,
0, ,-9, ,
-1, ,-9, ,
-4, ,-9, ,
-7, ,-9, ,
-9, ,-9, ,
-10, ,-9, ,
-10, ,-9, ,
-11, ,-9, ,
-12, ,-9, ,
-12, ,-9, ,
-14, ,-9, ,
-15, ,-9, ,
-18, ,-9, ,
-20, ,-9, ,
-21, ,-9, ,
-24, ,-9, ,
-24, ,-9, ,
-23, ,-9, ,
-24, ,-9, ,
-22, ,-9, ,
-15, ,-9, ,
-12, ,-9, ,
-7, ,-9, ,
-1, ,-9, ,
9, ,-9, ,
16, ,-9, ,
22, ,-9, ,
27, ,-9, ,
36, ,-9, ,
40, ,-9, ,
44, ,-9, ,
46, ,-9, ,
48, ,-9, ,
48, ,-9, ,
47, ,-9, ,
45, ,-9, ,
40, ,-9, ,
37, ,-9, ,
33, ,-9, ,
28, ,-9, ,
18, ,-9, ,
12, ,-9, ,
6, ,-9, ,
1, ,-9, ,
-12, ,-9, ,
-18, ,-9, ,
-23, ,-9, ,
-26, ,-9, ,
-33, ,-9, ,
-35, ,-9, ,
-35, ,-9, ,
-34, ,-9, ,
-30, ,-9, ,
-27, ,-9, ,
-24, ,-9, ,
-20, ,-9, ,
-10, ,-9, ,
-5, ,-9, ,
-1, ,-9, ,
4, ,-9, ,
11, ,-9, ,
13, ,-9, ,
14, ,-9, ,
14, ,-9, ,
13, ,-9, ,
13, ,-9, ,
11, ,-9, ,
10, ,-9, ,
8, ,-9, ,
7, ,-9, ,
7, ,-9, ,
7, ,-9, ,
9, ,-9, ,
11, ,-9, ,
13, ,-9, ,
14, ,-9, ,
16, ,-9, ,
16, ,-9, ,
16, ,-9, ,
15, ,-9, ,
9, ,-9, ,
5, ,-9, ,
-1, ,-9, ,
-8, ,-9, ,
-25, ,-9, ,
-34, ,-9, ,
-44, ,-9, ,
-55, ,-9, ,
-74, ,-9, ,
-82, ,-9, ,
-89, ,-9, ,
-96, ,-9, ,
-104, ,-9, ,
-106, ,-9, ,
-106, ,-9, ,
-106, ,-9, ,
-101, ,-9, ,
-94, ,-9, ,
-87, ,-9, ,
-78, ,-9, ,
-57, ,-9, ,
-47, ,-9, ,
-36, ,-9, ,
-25, ,-9, ,
-5, ,-9, ,
4, ,-9, ,
13, ,-9, ,
21, ,-9, ,
31, ,-9, ,
35, ,-9, ,
39, ,-9, ,
40, ,-9, ,
40, ,-9, ,
39, ,-9, ,
36, ,-9, ,
35, ,-9, ,
29, ,-9, ,
26, ,-9, ,
24, ,-9, ,
22, ,-9, ,
20, ,-9, ,
20, ,-9, ,
21, ,-9, ,
23, ,-9, ,
30, ,-9, ,
35, ,-9, ,
41, ,-9, ,
47, ,-9, ,
59, ,-9, ,
66, ,-9, ,
71, ,-9, ,
75, ,-9, ,
82, ,-9, ,
83, ,-9, ,
83, ,-9, ,
82, ,-9, ,
77, ,-9, ,
73, ,-9, ,
67, ,-9, ,
59, ,-9, ,
38, ,-9, ,
25, ,-9, ,
12, ,-9, ,
-3, ,-9, ,
-34, ,-9, ,
-49, ,-9, ,
-64, ,-9, ,
-77, ,-9, ,
-98, ,-9, ,
-107, ,-9, ,
-111, ,-9, ,
-114, ,-9, ,
-115, ,-9, ,
-115, ,-9, ,
-116, ,-9, ,
-116, ,-9, ,
-116, ,-9, ,
-115, ,-9, ,
-115, ,-9, ,
-113, ,-9, ,
-74, ,-9, ,
-49, ,-9, ,
-27, ,-9, ,
-12, ,-9, ,
19, ,-9, ,
33, ,-9, ,
47, ,-9, ,
58, ,-9, ,
75, ,-9, ,
80, ,-9, ,
84, ,-9, ,
86, ,-9, ,
85, ,-9, ,
82, ,-9, ,
78, ,-9, ,
72, ,-9, ,
56, ,-9, ,
47, ,-9, ,
37, ,-9, ,
27, ,-9, ,
7, ,-9, ,
-3, ,-9, ,
-11, ,-9, ,
-19, ,-9, ,
-29, ,-9, ,
-32, ,-9, ,
-33, ,-9, ,
-33, ,-9, ,
-29, ,-9, ,
-25, ,-9, ,
-21, ,-9, ,
-16, ,-9, ,
-4, ,-9, ,
2, ,-9, ,
7, ,-9, ,
12, ,-9, ,
19, ,-9, ,
21, ,-9, ,
21, ,-9, ,
19, ,-9, ,
14, ,-9, ,
9, ,-9, ,
3, ,-9, ,
-3, ,-9, ,
-19, ,-9, ,
-26, ,-9, ,
-35, ,-9, ,
-43, ,-9, ,
-55, ,-9, ,
-59, ,-9, ,
-63, ,-9, ,
-64, ,-9, ,
-62, ,-9, ,
-59, ,-9, ,
-53, ,-9, ,
-47, ,-9, ,
-28, ,-9, ,
-18, ,-9, ,
-7, ,-9, ,
3, ,-9, ,
22, ,-9, ,
29, ,-9, ,
36, ,-9, ,
41, ,-9, ,
45, ,-9, ,
45, ,-9, ,
43, ,-9, ,
41, ,-9, ,
32, ,-9, ,
26, ,-9, ,
22, ,-9, ,
15, ,-9, ,
3, ,-9, ,
-3, ,-9, ,
-7, ,-9, ,
-11, ,-9, ,
-17, ,-9, ,
-17, ,-9, ,
-17, ,-9, ,
-16, ,-9, ,
-12, ,-9, ,
-9, ,-9, ,
-7, ,-9, ,
-4, ,-9, ,
3, ,-9, ,
6, ,-9, ,
10, ,-9, ,
12, ,-9, ,
19, ,-9, ,
22, ,-9, ,
24, ,-9, ,
27, ,-9, ,
31, ,-9, ,
33, ,-9, ,
36, ,-9, ,
37, ,-9, ,
40, ,-9, ,
40, ,-9, ,
39, ,-9, ,
39, ,-9, ,
36, ,-9, ,
32, ,-9, ,
29, ,-9, ,
25, ,-9, ,
13, ,-9, ,
7, ,-9, ,
-1, ,-9, ,
-8, ,-9, ,
-23, ,-9, ,
-31, ,-9, ,
-37, ,-9, ,
-44, ,-9, ,
-54, ,-9, ,
-58, ,-9, ,
-60, ,-9, ,
-61, ,-9, ,
-60, ,-9, ,
-57, ,-9, ,
-54, ,-9, ,
-50, ,-9, ,
-38, ,-9, ,
-31, ,-9, ,
-25, ,-9, ,
-17, ,-9, ,
-4, ,-9, ,
3, ,-9, ,
8, ,-9, ,
13, ,-9, ,
20, ,-9, ,
23, ,-9, ,
23, ,-9, ,
23, ,-9, ,
22, ,-9, ,
20, ,-9, ,
18, ,-9, ,
15, ,-9, ,
8, ,-9, ,
4, ,-9, ,
1, ,-9, ,
-2, ,-9, ,
-7, ,-9, ,
-8, ,-9, ,
-8, ,-9, ,
-8, ,-9, ,
-6, ,-9, ,
-5, ,-9, ,
-1, ,-9, ,
1, ,-9, ,
8, ,-9, ,
10, ,-9, ,
12, ,-9, ,
14, ,-9, ,
17, ,-9, ,
18, ,-9, ,
17, ,-9, ,
17, ,-9, ,
15, ,-9, ,
12, ,-9, ,
10, ,-9, ,
6, ,-9, ,
0, ,-9, ,
-3, ,-9, ,
-6, ,-9, ,
-9, ,-9, ,
-15, ,-9, ,
-17, ,-9, ,
-20, ,-9, ,
-21, ,-9, ,
-24, ,-9, ,
-24, ,-9, ,
-24, ,-9, ,
-23, ,-9, ,
-22, ,-9, ,
-21, ,-9, ,
-19, ,-9, ,
-18, ,-9, ,
-12, ,-9, ,
-8, ,-9, ,
-5, ,-9, ,
-1, ,-9, ,
8, ,-9, ,
13, ,-9, ,
18, ,-9, ,
22, ,-9, ,
29, ,-9, ,
34, ,-9, ,
36, ,-9, ,
38, ,-9, ,
38, ,-9, ,
38, ,-9, ,
36, ,-9, ,
33, ,-9, ,
25, ,-9, ,
20, ,-9, ,
14, ,-9, ,
8, ,-9, ,
-4, ,-9, ,
-10, ,-9, ,
-15, ,-9, ,
-21, ,-9, ,
-26, ,-9, ,
-28, ,-9, ,
-29, ,-9, ,
-28, ,-9, ,
-26, ,-9, ,
-25, ,-9, ,
-23, ,-9, ,
-20, ,-9, ,
-15, ,-9, ,
-12, ,-9, ,
-9, ,-9, ,
-7, ,-9, ,
-5, ,-9, ,
-6, ,-9, ,
-6, ,-9, ,
-8, ,-9, ,
-11, ,-9, ,
-13, ,-9, ,
-16, ,-9, ,
-18, ,-9, ,
-23, ,-9, ,
-25, ,-9, ,
-25, ,-9, ,
-25, ,-9, ,
-25, ,-9, ,
-24, ,-9, ,
-21, ,-9, ,
-19, ,-9, ,
-11, ,-9, ,
-6, ,-9, ,
-1, ,-9, ,
4, ,-9, ,
15, ,-9, ,
21, ,-9, ,
25, ,-9, ,
29, ,-9, ,
35, ,-9, ,
37, ,-9, ,
38, ,-9, ,
37, ,-9, ,
35, ,-9, ,
33, ,-9, ,
29, ,-9, ,
25, ,-9, ,
18, ,-9, ,
13, ,-9, ,
8, ,-9, ,
3, ,-9, ,
-6, ,-9, ,
-9, ,-9, ,
-12, ,-9, ,
-15, ,-9, ,
-19, ,-9, ,
-19, ,-9, ,
-19, ,-9, ,
-19, ,-9, ,
-17, ,-9, ,
-17, ,-9, ,
-16, ,-9, ,
-16, ,-9, ,
-15, ,-9, ,
-16, ,-9, ,
-16, ,-9, ,
-17, ,-9, ,
-20, ,-9, ,
-21, ,-9, ,
-22, ,-9, ,
-24, ,-9, ,
-27, ,-9, ,
-29, ,-9, ,
-29, ,-9, ,
-32, ,-9, ,
-32, ,-9, ,
-32, ,-9, ,
-32, ,-9, ,
-31, ,-9, ,
-29, ,-9, ,
-27, ,-9, ,
-25, ,-9, ,
-24, ,-9, ,
-17, ,-9, ,
-14, ,-9, ,
-10, ,-9, ,
-6, ,-9, ,
2, ,-9, ,
7, ,-9, ,
11, ,-9, ,
15, ,-9, ,
24, ,-9, ,
27, ,-9, ,
30, ,-9, ,
34, ,-9, ,
39, ,-9, ,
40, ,-9, ,
41, ,-9, ,
41, ,-9, ,
40, ,-9, ,
40, ,-9, ,
38, ,-9, ,
36, ,-9, ,
31, ,-9, ,
27, ,-9, ,
24, ,-9, ,
20, ,-9, ,
12, ,-9, ,
8, ,-9, ,
3, ,-9, ,
-1, ,-9, ,
-9, ,-9, ,
-12, ,-9, ,
-15, ,-9, ,
-18, ,-9, ,
-21, ,-9, ,
-23, ,-9, ,
-23, ,-9, ,
-22, ,-9, ,
-21, ,-9, ,
-20, ,-9, ,
-19, ,-9, ,
-16, ,-9, ,
-11, ,-9, ,
-8, ,-9, ,
-6, ,-9, ,
-2, ,-9, ,
3, ,-9, ,
5, ,-9, ,
7, ,-9, ,
10, ,-9, ,
13, ,-9, ,
14, ,-9, ,
15, ,-9, ,
15, ,-9, ,
14, ,-9, ,
14, ,-9, ,
13, ,-9, ,
11, ,-9, ,
9, ,-9, ,
7, ,-9, ,
6, ,-9, ,
4, ,-9, ,
2, ,-9, ,
1, ,-9, ,
0, ,-9, ,
-1, ,-9, ,
-3, ,-9, ,
-4, ,-9, ,
-5, ,-9, ,
-6, ,-9, ,
-9, ,-9, ,
-11, ,-9, ,
-12, ,-9, ,
-14, ,-9, ,
-18, ,-9, ,
-19, ,-9, ,
-21, ,-9, ,
-22, ,-9, ,
-22, ,-9, ,
-21, ,-9, ,
-21, ,-9, ,
-20, ,-9, ,
-14, ,-9, ,
-12, ,-9, ,
-8, ,-9, ,
-4, ,-9, ,
4, ,-9, ,
8, ,-9, ,
11, ,-9, ,
15, ,-9, ,
20, ,-9, ,
22, ,-9, ,
23, ,-9, ,
22, ,-9, ,
21, ,-9, ,
19, ,-9, ,
16, ,-9, ,
13, ,-9, ,
5, ,-9, ,
2, ,-9, ,
-2, ,-9, ,
-6, ,-9, ,
-13, ,-9, ,
-15, ,-9, ,
-17, ,-9, ,
-19, ,-9, ,
-19, ,-9, ,
-19, ,-9, ,
-17, ,-9, ,
-16, ,-9, ,
-11, ,-9, ,
-9, ,-9, ,
-6, ,-9, ,
-4, ,-9, ,
1, ,-9, ,
3, ,-9, ,
5, ,-9, ,
7, ,-9, ,
9, ,-9, ,
9, ,-9, ,
9, ,-9, ,
8, ,-9, ,
7, ,-9, ,
7, ,-9, ,
4, ,-9, ,
4, ,-9, ,
2, ,-9, ,
0, ,-9, ,
-1, ,-9, ,
-2, ,-9, ,
-2, ,-9, ,
-2, ,-9, ,
-2, ,-9, ,
-1, ,-9, ,
0, ,-9, ,
1, ,-9, ,
4, ,-9, ,
5, ,-9, ,
9, ,-9, ,
12, ,-9, ,
13, ,-9, ,
15, ,-9, ,
20, ,-9, ,
21, ,-9, ,
22, ,-9, ,
24, ,-9, ,
24, ,-9, ,
23, ,-9, ,
23, ,-9, ,
22, ,-9, ,
18, ,-9, ,
15, ,-9, ,
12, ,-9, ,
7, ,-9, ,
-2, ,-9, ,
-7, ,-9, ,
-13, ,-9, ,
-19, ,-9, ,
-29, ,-9, ,
-35, ,-9, ,
-41, ,-9, ,
-45, ,-9, ,
-53, ,-9, ,
-57, ,-9, ,
-58, ,-9, ,
-59, ,-9, ,
-58, ,-9, ,
-58, ,-9, ,
-54, ,-9, ,
-51, ,-9, ,
-40, ,-9, ,
-34, ,-9, ,
-28, ,-9, ,
-20, ,-9, ,
-5, ,-9, ,
2, ,-9, ,
10, ,-9, ,
17, ,-9, ,
27, ,-9, ,
32, ,-9, ,
35, ,-9, ,
38, ,-9, ,
41, ,-9, ,
41, ,-9, ,
40, ,-9, ,
38, ,-9, ,
34, ,-9, ,
31, ,-9, ,
28, ,-9, ,
25, ,-9, ,
19, ,-9, ,
15, ,-9, ,
13, ,-9, ,
10, ,-9, ,
7, ,-9, ,
6, ,-9, ,
6, ,-9, ,
7, ,-9, ,
8, ,-9, ,
9, ,-9, ,
11, ,-9, ,
13, ,-9, ,
15, ,-9, ,
16, ,-9, ,
16, ,-9, ,
16, ,-9, ,
15, ,-9, ,
13, ,-9, ,
10, ,-9, ,
8, ,-9, ,
0, ,-9, ,
-4, ,-9, ,
-9, ,-9, ,
-13, ,-9, ,
-23, ,-9, ,
-27, ,-9, ,
-30, ,-9, ,
-33, ,-9, ,
-36, ,-9, ,
-35, ,-9, ,
-35, ,-9, ,
-33, ,-9, ,
-27, ,-9, ,
-24, ,-9, ,
-19, ,-9, ,
-14, ,-9, ,
-3, ,-9, ,
3, ,-9, ,
8, ,-9, ,
13, ,-9, ,
19, ,-9, ,
22, ,-9, ,
24, ,-9, ,
23, ,-9, ,
22, ,-9, ,
20, ,-9, ,
18, ,-9, ,
15, ,-9, ,
9, ,-9, ,
5, ,-9, ,
2, ,-9, ,
-1, ,-9, ,
-6, ,-9, ,
-8, ,-9, ,
-9, ,-9, ,
-9, ,-9, ,
-8, ,-9, ,
-7, ,-9, ,
-5, ,-9, ,
-3, ,-9, ,
3, ,-9, ,
7, ,-9, ,
11, ,-9, ,
14, ,-9, ,
22, ,-9, ,
24, ,-9, ,
26, ,-9, ,
29, ,-9, ,
31, ,-9, ,
32, ,-9, ,
32, ,-9, ,
31, ,-9, ,
27, ,-9, ,
25, ,-9, ,
23, ,-9, ,
18, ,-9, ,
8, ,-9, ,
3, ,-9, ,
-3, ,-9, ,
-9, ,-9, ,
-20, ,-9, ,
-25, ,-9, ,
-30, ,-9, ,
-35, ,-9, ,
-42, ,-9, ,
-45, ,-9, ,
-46, ,-9, ,
-46, ,-9, ,
-45, ,-9, ,
-43, ,-9, ,
-41, ,-9, ,
-37, ,-9, ,
-29, ,-9, ,
-25, ,-9, ,
-20, ,-9, ,
-14, ,-9, ,
-3, ,-9, ,
2, ,-9, ,
8, ,-9, ,
12, ,-9, ,
20, ,-9, ,
24, ,-9, ,
25, ,-9, ,
27, ,-9, ,
28, ,-9, ,
28, ,-9, ,
27, ,-9, ,
26, ,-9, ,
23, ,-9, ,
21, ,-9, ,
18, ,-9, ,
15, ,-9, ,
10, ,-9, ,
7, ,-9, ,
4, ,-9, ,
2, ,-9, ,
-2, ,-9, ,
-2, ,-9, ,
-3, ,-9, ,
-3, ,-9, ,
-3, ,-9, ,
-3, ,-9, ,
-2, ,-9, ,
-2, ,-9, ,
-3, ,-9, ,
-3, ,-9, ,
-4, ,-9, ,
-5, ,-9, ,
-8, ,-9, ,
-10, ,-9, ,
-12, ,-9, ,
-14, ,-9, ,
-19, ,-9, ,
-22, ,-9, ,
-25, ,-9, ,
-26, ,-9, ,
-28, ,-9, ,
-28, ,-9, ,
-28, ,-9, ,
-27, ,-9, ,
-25, ,-9, ,
-22, ,-9, ,
-19, ,-9, ,
-15, ,-9, ,
-5, ,-9, ,
0, ,-9, ,
4, ,-9, ,
9, ,-9, ,
17, ,-9, ,
22, ,-9, ,
25, ,-9, ,
26, ,-9, ,
29, ,-9, ,
30, ,-9, ,
30, ,-9, ,
29, ,-9, ,
27, ,-9, ,
26, ,-9, ,
24, ,-9, ,
22, ,-9, ,
17, ,-9, ,
15, ,-9, ,
12, ,-9, ,
10, ,-9, ,
7, ,-9, ,
6, ,-9, ,
5, ,-9, ,
4, ,-9, ,
4, ,-9, ,
4, ,-9, ,
4, ,-9, ,
3, ,-9, ,
3, ,-9, ,
3, ,-9, ,
2, ,-9, ,
2, ,-9, ,
0, ,-9, ,
-1, ,-9, ,
-3, ,-9, ,
-5, ,-9, ,
-10, ,-9, ,
-13, ,-9, ,
-16, ,-9, ,
-18, ,-9, ,
-24, ,-9, ,
-26, ,-9, ,
-28, ,-9, ,
-30, ,-9, ,
-32, ,-9, ,
-31, ,-9, ,
-31, ,-9, ,
-31, ,-9, ,
-27, ,-9, ,
-25, ,-9, ,
-23, ,-9, ,
-20, ,-9, ,
-14, ,-9, ,
-10, ,-9, ,
-7, ,-9, ,
-3, ,-9, ,
3, ,-9, ,
5, ,-9, ,
9, ,-9, ,
10, ,-9, ,
14, ,-9, ,
15, ,-9, ,
16, ,-9, ,
17, ,-9, ,
17, ,-9, ,
17, ,-9, ,
17, ,-9, ,
16, ,-9, ,
15, ,-9, ,
15, ,-9, ,
14, ,-9, ,
14, ,-9, ,
12, ,-9, ,
11, ,-9, ,
11, ,-9, ,
10, ,-9, ,
9, ,-9, ,
8, ,-9, ,
8, ,-9, ,
8, ,-9, ,
8, ,-9, ,
8, ,-9, ,
8, ,-9, ,
9, ,-9, ,
9, ,-9, ,
9, ,-9, ,
9, ,-9, ,
9, ,-9, ,
8, ,-9, ,
7, ,-9, ,
6, ,-9, ,
6, ,-9, ,
3, ,-9, ,
3, ,-9, ,
1, ,-9, ,
-1, ,-9, ,
-3, ,-9, ,
-4, ,-9, ,
-6, ,-9, ,
-7, ,-9, ,
-8, ,-9, ,
-8, ,-9, ,
-8, ,-9, ,
-8, ,-9, ,
-7, ,-9, ,
-7, ,-9, ,
-7, ,-9, ,
-7, ,-9, ,
-7, ,-9, ,
-7, ,-9, ,
-7, ,-9, ,
-7, ,-9, ,
-8, ,-9, ,
-9, ,-9, ,
-9, ,-9, ,
-9, ,-9, ,
-9, ,-9, ,
-9, ,-9, ,
-8, ,-9, ,
-8, ,-9, ,
-5, ,-9, ,
-4, ,-9, ,
