raw_data/75% Glycerol, Impulsion 2Hz, Sonde 5MHz, Rampe 0.7Hz/temp0000236.CSV

Format,1.0B,
Memory Length,10000,Memory Length,10000,
IntpDistance,0,IntpDistance,0,
Trigger Address,159,Trigger Address,159,
Trigger Level,2.720E-01,Trigger Level,2.720E-01,
Source,CH1,Source,CH2,
Vertical Units,V,Vertical Units,V,
Vertical Units Div,0,Vertical Units Div,0,
Vertical Units Extend Div,16,Vertical Units Extend Div,16,
Label,,Label,,
Probe Type,0,Probe Type,0,
Probe Ratio,1.000e+00,Probe Ratio,1.000e+00,
Vertical Scale,5.000e-01,Vertical Scale,2.000e+00,
Vertical Position,0.000e+00,Vertical Position,0.000e+00,
Horizontal Units,S,Horizontal Units,S,
Horizontal Scale,5.000E-06,Horizontal Scale,5.000E-06,
Horizontal Position,2.420E-05,Horizontal Position,2.420E-05,
Horizontal Mode,Main,Horizontal Mode,Main,
SincET Mode,Real Time,SincET Mode,Real Time,
Sampling Period,5.000e-09,Sampling Period,5.000e-09,
Horizontal Old Scale,5.000E-06,Horizontal Old Scale,5.000E-06,
Horizontal Old Position,2.420E-05,Horizontal Old Position,2.420E-05,
Firmware,V1.32,Firmware,V1.32,
Mode,Fast,Mode,Fast,
Waveform Data,,Waveform Data,,
0, ,-12, ,
0, ,-13, ,
0, ,-13, ,
0, ,-13, ,
0, ,-13, ,
1, ,-13, ,
0, ,-13, ,
0, ,-13, ,
1, ,-13, ,
0, ,-13, ,
0, ,-13, ,
0, ,-12, ,
0, ,-12, ,
0, ,-13, ,
0, ,-13, ,
0, ,-12, ,
0, ,-13, ,
0, ,-13, ,
0, ,-12, ,
0, ,-13, ,
1, ,-13, ,
0, ,-12, ,
0, ,-12, ,
0, ,-13, ,
0, ,-13, ,
0, ,-12, ,
0, ,-12, ,
0, ,-12, ,
0, ,-12, ,
1, ,-13, ,
0, ,-13, ,
0, ,-12, ,
1, ,-13, ,
1, ,-13, ,
1, ,-13, ,
1, ,-13, ,
0, ,-13, ,
0, ,-13, ,
0, ,-13, ,
1, ,-13, ,
0, ,-13, ,
0, ,-12, ,
1, ,-12, ,
1, ,-13, ,
0, ,-13, ,
0, ,-12, ,
0, ,-13, ,
0, ,-13, ,
0, ,-13, ,
0, ,-13, ,
0, ,-13, ,
0, ,-13, ,
0, ,-13, ,
0, ,-12, ,
0, ,-13, ,
1, ,-13, ,
1, ,-13, ,
0, ,-13, ,
0, ,-13, ,
0, ,-13, ,
0, ,-13, ,
0, ,-13, ,
0, ,-13, ,
0, ,-13, ,
0, ,-12, ,
0, ,-13, ,
0, ,-13, ,
0, ,-13, ,
1, ,-13, ,
1, ,-12, ,
1, ,-13, ,
1, ,-13, ,
0, ,-13, ,
0, ,-12, ,
1, ,-13, ,
0, ,-13, ,
0, ,-13, ,
0, ,-12, ,
0, ,-13, ,
0, ,-13, ,
0, ,-13, ,
1, ,-13, ,
1, ,-13, ,
1, ,-12, ,
0, ,-12, ,
0, ,-12, ,
0, ,-13, ,
0, ,-13, ,
1, ,-13, ,
1, ,-12, ,
1, ,-12, ,
0, ,-12, ,
0, ,-12, ,
1, ,-13, ,
0, ,-13, ,
0, ,-12, ,
1, ,-12, ,
1, ,-12, ,
1, ,-12, ,
1, ,-13, ,
0, ,-13, ,
0, ,-13, ,
0, ,-13, ,
0, ,-12, ,
0, ,-13, ,
0, ,-13, ,
0, ,-12, ,
0, ,-12, ,
0, ,-13, ,
0, ,-13, ,
0, ,-13, ,
0, ,-12, ,
1, ,-13, ,
0, ,-13, ,
0, ,-12, ,
0, ,-12, ,
1, ,-12, ,
1, ,-13, ,
1, ,-13, ,
1, ,-12, ,
0, ,-12, ,
0, ,-13, ,
1, ,-13, ,
1, ,-13, ,
1, ,-12, ,
1, ,-12, ,
1, ,-13, ,
0, ,-13, ,
0, ,-13, ,
0, ,-13, ,
0, ,-12, ,
0, ,-12, ,
0, ,-12, ,
1, ,-13, ,
0, ,-13, ,
0, ,-13, ,
1, ,-13, ,
0, ,-12, ,
0, ,-12, ,
0, ,-12, ,
0, ,-12, ,
1, ,-13, ,
0, ,-13, ,
0, ,-13, ,
0, ,-13, ,
0, ,-13, ,
0, ,-13, ,
0, ,-13, ,
0, ,-13, ,
0, ,-13, ,
0, ,-13, ,
0, ,-13, ,
0, ,-13, ,
0, ,-13, ,
1, ,-12, ,
1, ,-13, ,
0, ,-13, ,
0, ,-13, ,
0, ,-13, ,
0, ,-12, ,
0, ,-12, ,
0, ,-12, ,
1, ,-12, ,
0, ,-12, ,
0, ,-12, ,
0, ,-13, ,
-1, ,-13, ,
0, ,-13, ,
36, ,-13, ,
74, ,-12, ,
113, ,-13, ,
124, ,-13, ,
112, ,-13, ,
58, ,-13, ,
5, ,-13, ,
-3, ,-13, ,
93, ,-13, ,
125, ,-13, ,
125, ,-12, ,
125, ,-12, ,
125, ,-13, ,
125, ,-13, ,
125, ,-13, ,
124, ,-13, ,
123, ,-13, ,
117, ,-13, ,
111, ,-13, ,
107, ,-13, ,
100, ,-12, ,
98, ,-12, ,
94, ,-12, ,
91, ,-12, ,
83, ,-12, ,
81, ,-13, ,
78, ,-13, ,
75, ,-12, ,
69, ,-12, ,
67, ,-13, ,
64, ,-13, ,
62, ,-13, ,
57, ,-13, ,
54, ,-13, ,
52, ,-13, ,
49, ,-13, ,
45, ,-12, ,
43, ,-12, ,
41, ,-12, ,
40, ,-12, ,
36, ,-12, ,
35, ,-13, ,
34, ,-13, ,
31, ,-13, ,
28, ,-13, ,
28, ,-13, ,
26, ,-13, ,
25, ,-13, ,
24, ,-13, ,
22, ,-13, ,
21, ,-12, ,
20, ,-13, ,
18, ,-13, ,
18, ,-12, ,
17, ,-12, ,
16, ,-12, ,
14, ,-13, ,
14, ,-13, ,
13, ,-13, ,
12, ,-13, ,
11, ,-13, ,
11, ,-13, ,
9, ,-13, ,
9, ,-13, ,
8, ,-13, ,
7, ,-13, ,
7, ,-13, ,
6, ,-13, ,
6, ,-13, ,
6, ,-12, ,
5, ,-12, ,
5, ,-12, ,
4, ,-12, ,
4, ,-13, ,
4, ,-13, ,
3, ,-13, ,
3, ,-13, ,
3, ,-13, ,
2, ,-13, ,
2, ,-12, ,
2, ,-12, ,
1, ,-13, ,
1, ,-13, ,
1, ,-13, ,
1, ,-12, ,
1, ,-13, ,
0, ,-13, ,
0, ,-13, ,
0, ,-13, ,
0, ,-13, ,
0, ,-13, ,
0, ,-12, ,
-1, ,-12, ,
-1, ,-12, ,
-1, ,-12, ,
-1, ,-13, ,
-1, ,-13, ,
-1, ,-13, ,
-1, ,-13, ,
-1, ,-13, ,
-1, ,-12, ,
-1, ,-13, ,
-1, ,-13, ,
-1, ,-13, ,
-1, ,-13, ,
-1, ,-13, ,
-2, ,-13, ,
-2, ,-13, ,
-1, ,-13, ,
-1, ,-13, ,
-1, ,-12, ,
-1, ,-13, ,
-1, ,-13, ,
-1, ,-12, ,
-1, ,-12, ,
-1, ,-12, ,
-2, ,-12, ,
-2, ,-13, ,
-2, ,-13, ,
-2, ,-12, ,
-2, ,-12, ,
-2, ,-13, ,
-2, ,-13, ,
-2, ,-13, ,
-1, ,-13, ,
-1, ,-13, ,
-2, ,-13, ,
-2, ,-13, ,
-1, ,-13, ,
-1, ,-13, ,
-1, ,-13, ,
-1, ,-13, ,
-1, ,-12, ,
-1, ,-13, ,
-1, ,-13, ,
-1, ,-13, ,
-1, ,-13, ,
-1, ,-13, ,
-1, ,-12, ,
-1, ,-13, ,
-1, ,-13, ,
-1, ,-13, ,
-1, ,-13, ,
-1, ,-13, ,
-1, ,-13, ,
-1, ,-13, ,
-1, ,-13, ,
-1, ,-13, ,
-1, ,-13, ,
-1, ,-13, ,
-1, ,-13, ,
-1, ,-12, ,
-1, ,-12, ,
-1, ,-13, ,
-1, ,-13, ,
-1, ,-13, ,
-1, ,-13, ,
0, ,-13, ,
0, ,-13, ,
0, ,-12, ,
-1, ,-13, ,
-1, ,-13, ,
-1, ,-13, ,
-1, ,-13, ,
0, ,-13, ,
0, ,-13, ,
0, ,-13, ,
0, ,-13, ,
0, ,-13, ,
-1, ,-12, ,
-1, ,-12, ,
-1, ,-13, ,
0, ,-13, ,
0, ,-12, ,
0, ,-13, ,
0, ,-13, ,
0, ,-13, ,
0, ,-12, ,
0, ,-13, ,
0, ,-13, ,
0, ,-13, ,
0, ,-13, ,
0, ,-13, ,
0, ,-13, ,
0, ,-13, ,
0, ,-13, ,
0, ,-12, ,
0, ,-12, ,
0, ,-12, ,
0, ,-12, ,
0, ,-13, ,
0, ,-13, ,
0, ,-13, ,
0, ,-13, ,
0, ,-13, ,
0, ,-13, ,
0, ,-12, ,
0, ,-13, ,
0, ,-13, ,
0, ,-13, ,
0, ,-12, ,
0, ,-12, ,
0, ,-12, ,
0, ,-13, ,
0, ,-13, ,
1, ,-12, ,
0, ,-12, ,
0, ,-12, ,
0, ,-13, ,
0, ,-13, ,
0, ,-13, ,
0, ,-13, ,
0, ,-13, ,
0, ,-12, ,
0, ,-12, ,
0, ,-12, ,
0, ,-13, ,
0, ,-13, ,
0, ,-12, ,
0, ,-13, ,
0, ,-13, ,
0, ,-13, ,
0, ,-13, ,
0, ,-13, ,
0, ,-13, ,
0, ,-13, ,
0, ,-12, ,
0, ,-13, ,
0, ,-13, ,
0, ,-13, ,
0, ,-13, ,
0, ,-12, ,
0, ,-13, ,
0, ,-13, ,
0, ,-12, ,
0, ,-13, ,
0, ,-13, ,
0, ,-13, ,
0, ,-13, ,
0, ,-13, ,
0, ,-13, ,
0, ,-12, ,
1, ,-12, ,
0, ,-12, ,
0, ,-12, ,
0, ,-13, ,
0, ,-13, ,
0, ,-13, ,
0, ,-13, ,
0, ,-13, ,
0, ,-13, ,
0, ,-13, ,
0, ,-13, ,
0, ,-13, ,
0, ,-12, ,
0, ,-12, ,
0, ,-13, ,
0, ,-13, ,
0, ,-13, ,
0, ,-13, ,
0, ,-13, ,
0, ,-12, ,
0, ,-13, ,
0, ,-13, ,
-1, ,-13, ,
-1, ,-13, ,
-2, ,-12, ,
-2, ,-13, ,
-4, ,-13, ,
-4, ,-13, ,
-6, ,-13, ,
-7, ,-13, ,
-12, ,-13, ,
-15, ,-12, ,
-18, ,-12, ,
-21, ,-12, ,
-22, ,-13, ,
-20, ,-13, ,
-17, ,-13, ,
-12, ,-13, ,
-5, ,-13, ,
-3, ,-12, ,
-1, ,-12, ,
0, ,-13, ,
2, ,-13, ,
4, ,-13, ,
4, ,-13, ,
5, ,-12, ,
5, ,-12, ,
5, ,-13, ,
5, ,-13, ,
5, ,-13, ,
5, ,-13, ,
4, ,-12, ,
4, ,-12, ,
4, ,-12, ,
3, ,-13, ,
3, ,-13, ,
3, ,-13, ,
2, ,-13, ,
2, ,-13, ,
3, ,-13, ,
3, ,-12, ,
3, ,-12, ,
4, ,-13, ,
4, ,-13, ,
4, ,-13, ,
4, ,-13, ,
4, ,-13, ,
4, ,-12, ,
4, ,-12, ,
4, ,-12, ,
3, ,-13, ,
3, ,-13, ,
3, ,-12, ,
2, ,-12, ,
2, ,-13, ,
2, ,-13, ,
2, ,-13, ,
1, ,-13, ,
1, ,-13, ,
1, ,-13, ,
1, ,-13, ,
1, ,-13, ,
1, ,-12, ,
1, ,-13, ,
0, ,-13, ,
0, ,-12, ,
0, ,-13, ,
-1, ,-13, ,
-1, ,-13, ,
-2, ,-13, ,
-2, ,-13, ,
-2, ,-12, ,
-3, ,-13, ,
-3, ,-13, ,
-2, ,-13, ,
-2, ,-12, ,
-2, ,-12, ,
-1, ,-13, ,
0, ,-13, ,
0, ,-13, ,
0, ,-13, ,
1, ,-13, ,
2, ,-13, ,
2, ,-13, ,
2, ,-12, ,
2, ,-13, ,
2, ,-13, ,
1, ,-13, ,
1, ,-13, ,
1, ,-13, ,
0, ,-13, ,
-1, ,-12, ,
-2, ,-12, ,
-3, ,-12, ,
-5, ,-12, ,
-6, ,-13, ,
-7, ,-13, ,
-8, ,-13, ,
-8, ,-13, ,
-8, ,-13, ,
-8, ,-13, ,
-8, ,-13, ,
-7, ,-13, ,
-6, ,-13, ,
-6, ,-13, ,
-5, ,-13, ,
-5, ,-13, ,
-6, ,-13, ,
-6, ,-13, ,
-7, ,-13, ,
-10, ,-13, ,
-12, ,-13, ,
-14, ,-13, ,
-16, ,-13, ,
-23, ,-13, ,
-25, ,-13, ,
-27, ,-13, ,
-29, ,-13, ,
-30, ,-13, ,
-30, ,-12, ,
-29, ,-12, ,
-29, ,-12, ,
-26, ,-13, ,
-26, ,-13, ,
-25, ,-12, ,
-25, ,-13, ,
-25, ,-13, ,
-26, ,-13, ,
-27, ,-13, ,
-28, ,-12, ,
-32, ,-13, ,
-34, ,-13, ,
-35, ,-12, ,
-37, ,-12, ,
-37, ,-12, ,
-37, ,-12, ,
-37, ,-13, ,
-35, ,-13, ,
-32, ,-13, ,
-30, ,-13, ,
-27, ,-13, ,
-25, ,-13, ,
-21, ,-13, ,
-18, ,-13, ,
-16, ,-13, ,
-14, ,-13, ,
-10, ,-13, ,
-9, ,-13, ,
-6, ,-12, ,
-5, ,-13, ,
-1, ,-13, ,
1, ,-12, ,
2, ,-12, ,
5, ,-12, ,
9, ,-13, ,
10, ,-13, ,
12, ,-12, ,
13, ,-12, ,
17, ,-12, ,
18, ,-13, ,
19, ,-13, ,
19, ,-12, ,
18, ,-12, ,
18, ,-13, ,
17, ,-13, ,
16, ,-13, ,
15, ,-12, ,
14, ,-12, ,
12, ,-12, ,
11, ,-12, ,
9, ,-13, ,
7, ,-13, ,
7, ,-13, ,
6, ,-13, ,
5, ,-13, ,
5, ,-12, ,
5, ,-12, ,
4, ,-12, ,
3, ,-13, ,
3, ,-13, ,
3, ,-12, ,
2, ,-13, ,
1, ,-13, ,
0, ,-13, ,
-1, ,-13, ,
-2, ,-12, ,
-4, ,-12, ,
-4, ,-13, ,
-4, ,-13, ,
-5, ,-13, ,
-5, ,-13, ,
-4, ,-13, ,
-4, ,-13, ,
-3, ,-13, ,
-2, ,-13, ,
-2, ,-13, ,
0, ,-13, ,
0, ,-13, ,
2, ,-13, ,
3, ,-13, ,
3, ,-13, ,
3, ,-12, ,
2, ,-12, ,
1, ,-12, ,
0, ,-12, ,
-1, ,-12, ,
-4, ,-12, ,
-6, ,-13, ,
-9, ,-13, ,
-10, ,-13, ,
-17, ,-13, ,
-19, ,-13, ,
-22, ,-12, ,
-25, ,-12, ,
-29, ,-12, ,
-30, ,-12, ,
-31, ,-12, ,
-31, ,-13, ,
-29, ,-13, ,
-29, ,-12, ,
-27, ,-13, ,
-26, ,-13, ,
-22, ,-13, ,
-19, ,-12, ,
-17, ,-12, ,
-14, ,-12, ,
-10, ,-13, ,
-8, ,-13, ,
-6, ,-12, ,
-4, ,-13, ,
0, ,-13, ,
1, ,-13, ,
3, ,-12, ,
4, ,-12, ,
4, ,-12, ,
3, ,-13, ,
3, ,-13, ,
2, ,-13, ,
0, ,-13, ,
-1, ,-12, ,
-3, ,-13, ,
-5, ,-13, ,
-8, ,-13, ,
-10, ,-13, ,
-10, ,-12, ,
-12, ,-13, ,
-14, ,-13, ,
-14, ,-13, ,
-14, ,-13, ,
-14, ,-13, ,
-14, ,-13, ,
-14, ,-13, ,
-13, ,-12, ,
-13, ,-13, ,
-11, ,-13, ,
-10, ,-12, ,
-9, ,-12, ,
-8, ,-12, ,
-7, ,-13, ,
-5, ,-13, ,
-4, ,-13, ,
-4, ,-13, ,
-3, ,-13, ,
-2, ,-13, ,
-2, ,-13, ,
-2, ,-13, ,
-3, ,-13, ,
-4, ,-13, ,
-5, ,-13, ,
-6, ,-13, ,
-9, ,-13, ,
-9, ,-13, ,
-11, ,-13, ,
-11, ,-12, ,
-11, ,-13, ,
-11, ,-13, ,
-11, ,-12, ,
-11, ,-13, ,
-8, ,-13, ,
-6, ,-12, ,
-6, ,-13, ,
-4, ,-13, ,
0, ,-13, ,
1, ,-13, ,
3, ,-12, ,
4, ,-13, ,
5, ,-13, ,
6, ,-12, ,
7, ,-12, ,
7, ,-12, ,
7, ,-12, ,
6, ,-12, ,
6, ,-12, ,
4, ,-13, ,
2, ,-13, ,
2, ,-12, ,
0, ,-13, ,
-1, ,-13, ,
-4, ,-13, ,
-6, ,-13, ,
-6, ,-13, ,
-8, ,-13, ,
-8, ,-13, ,
-7, ,-13, ,
-7, ,-13, ,
-7, ,-12, ,
-6, ,-12, ,
-5, ,-13, ,
-4, ,-13, ,
-3, ,-13, ,
-1, ,-13, ,
1, ,-13, ,
1, ,-13, ,
2, ,-13, ,
4, ,-13, ,
5, ,-13, ,
6, ,-13, ,
6, ,-13, ,
7, ,-13, ,
7, ,-13, ,
7, ,-13, ,
7, ,-13, ,
6, ,-13, ,
6, ,-13, ,
5, ,-12, ,
4, ,-13, ,
3, ,-13, ,
3, ,-12, ,
1, ,-13, ,
1, ,-13, ,
-1, ,-13, ,
-2, ,-13, ,
-2, ,-13, ,
-3, ,-13, ,
-4, ,-12, ,
-4, ,-12, ,
-4, ,-13, ,
-4, ,-13, ,
-4, ,-13, ,
-4, ,-12, ,
-4, ,-12, ,
-4, ,-12, ,
-5, ,-12, ,
-5, ,-12, ,
-6, ,-13, ,
-6, ,-13, ,
-8, ,-13, ,
-10, ,-13, ,
-11, ,-12, ,
-14, ,-13, ,
-17, ,-13, ,
-19, ,-13, ,
-22, ,-13, ,
-24, ,-12, ,
-27, ,-13, ,
-28, ,-13, ,
-30, ,-12, ,
-32, ,-12, ,
-33, ,-13, ,
-33, ,-13, ,
-33, ,-13, ,
-33, ,-13, ,
-30, ,-13, ,
-30, ,-13, ,
-28, ,-13, ,
-27, ,-13, ,
-25, ,-13, ,
-23, ,-12, ,
-22, ,-12, ,
-20, ,-12, ,
-19, ,-13, ,
-17, ,-13, ,
-16, ,-13, ,
-16, ,-13, ,
-16, ,-13, ,
-16, ,-13, ,
-16, ,-13, ,
-16, ,-13, ,
-15, ,-13, ,
-15, ,-13, ,
-15, ,-13, ,
-14, ,-13, ,
-13, ,-13, ,
-12, ,-12, ,
-11, ,-12, ,
-9, ,-12, ,
-7, ,-13, ,
-6, ,-13, ,
-4, ,-12, ,
-3, ,-13, ,
0, ,-13, ,
2, ,-13, ,
3, ,-13, ,
5, ,-13, ,
8, ,-13, ,
9, ,-12, ,
11, ,-12, ,
12, ,-12, ,
15, ,-12, ,
17, ,-13, ,
17, ,-13, ,
18, ,-12, ,
19, ,-12, ,
19, ,-13, ,
19, ,-13, ,
18, ,-12, ,
18, ,-12, ,
18, ,-12, ,
17, ,-12, ,
17, ,-12, ,
16, ,-13, ,
14, ,-13, ,
14, ,-13, ,
13, ,-13, ,
11, ,-13, ,
11, ,-13, ,
9, ,-13, ,
9, ,-12, ,
7, ,-12, ,
6, ,-12, ,
5, ,-12, ,
4, ,-13, ,
3, ,-13, ,
2, ,-13, ,
2, ,-13, ,
2, ,-13, ,
2, ,-13, ,
2, ,-13, ,
2, ,-12, ,
2, ,-13, ,
2, ,-13, ,
2, ,-13, ,
2, ,-13, ,
1, ,-13, ,
0, ,-13, ,
-1, ,-13, ,
-2, ,-13, ,
-4, ,-13, ,
-7, ,-13, ,
-7, ,-12, ,
-11, ,-13, ,
-12, ,-13, ,
-15, ,-13, ,
-17, ,-12, ,
-18, ,-12, ,
-19, ,-12, ,
-20, ,-12, ,
-20, ,-13, ,
-20, ,-13, ,
-19, ,-13, ,
-18, ,-13, ,
-18, ,-12, ,
-17, ,-12, ,
-16, ,-13, ,
-13, ,-13, ,
-12, ,-13, ,
-11, ,-13, ,
-10, ,-12, ,
-9, ,-12, ,
-9, ,-12, ,
-8, ,-12, ,
-9, ,-13, ,
-10, ,-13, ,
-10, ,-13, ,
-11, ,-13, ,
-11, ,-12, ,
-13, ,-13, ,
-14, ,-13, ,
-15, ,-13, ,
-16, ,-13, ,
-17, ,-12, ,
-19, ,-12, ,
-20, ,-13, ,
-20, ,-13, ,
-21, ,-13, ,
-21, ,-13, ,
-21, ,-12, ,
-21, ,-13, ,
-19, ,-13, ,
-18, ,-13, ,
-17, ,-13, ,
-16, ,-12, ,
-13, ,-13, ,
-11, ,-13, ,
-9, ,-13, ,
-7, ,-13, ,
-4, ,-13, ,
-2, ,-13, ,
-2, ,-13, ,
0, ,-13, ,
1, ,-13, ,
1, ,-12, ,
1, ,-12, ,
1, ,-13, ,
0, ,-13, ,
-1, ,-13, ,
-2, ,-13, ,
-3, ,-12, ,
-3, ,-13, ,
-4, ,-13, ,
-4, ,-12, ,
-4, ,-12, ,
-4, ,-12, ,
-3, ,-12, ,
-3, ,-13, ,
-2, ,-13, ,
1, ,-13, ,
3, ,-13, ,
4, ,-13, ,
5, ,-13, ,
9, ,-13, ,
10, ,-13, ,
12, ,-13, ,
13, ,-13, ,
15, ,-13, ,
15, ,-12, ,
15, ,-12, ,
14, ,-13, ,
13, ,-13, ,
12, ,-13, ,
10, ,-13, ,
9, ,-12, ,
5, ,-13, ,
2, ,-13, ,
0, ,-13, ,
-2, ,-13, ,
-7, ,-13, ,
-9, ,-13, ,
-11, ,-13, ,
-13, ,-13, ,
-16, ,-13, ,
-18, ,-13, ,
-19, ,-13, ,
-20, ,-13, ,
-21, ,-13, ,
-21, ,-12, ,
-21, ,-13, ,
-21, ,-13, ,
-20, ,-13, ,
-19, ,-13, ,
-19, ,-12, ,
-19, ,-12, ,
-16, ,-12, ,
-14, ,-13, ,
-13, ,-13, ,
-12, ,-13, ,
-9, ,-13, ,
-8, ,-13, ,
-6, ,-13, ,
-5, ,-13, ,
-2, ,-13, ,
0, ,-13, ,
0, ,-13, ,
2, ,-13, ,
3, ,-13, ,
3, ,-12, ,
3, ,-12, ,
3, ,-12, ,
2, ,-12, ,
2, ,-13, ,
2, ,-13, ,
1, ,-12, ,
1, ,-12, ,
0, ,-13, ,
0, ,-13, ,
0, ,-13, ,
0, ,-13, ,
1, ,-13, ,
1, ,-13, ,
3, ,-13, ,
5, ,-13, ,
6, ,-13, ,
8, ,-13, ,
9, ,-13, ,
12, ,-12, ,
14, ,-12, ,
15, ,-12, ,
17, ,-12, ,
18, ,-13, ,
18, ,-13, ,
18, ,-13, ,
17, ,-13, ,
16, ,-13, ,
15, ,-12, ,
13, ,-13, ,
12, ,-13, ,
8, ,-13, ,
6, ,-13, ,
4, ,-13, ,
2, ,-13, ,
-3, ,-13, ,
-5, ,-12, ,
-6, ,-12, ,
-8, ,-12, ,
-10, ,-13, ,
-12, ,-13, ,
-13, ,-13, ,
-13, ,-13, ,
-14, ,-13, ,
-14, ,-13, ,
-15, ,-13, ,
-15, ,-13, ,
-15, ,-13, ,
-16, ,-13, ,
-16, ,-13, ,
-16, ,-13, ,
-16, ,-13, ,
-16, ,-12, ,
-16, ,-12, ,
-16, ,-12, ,
-16, ,-12, ,
-16, ,-12, ,
-15, ,-12, ,
-15, ,-13, ,
-13, ,-13, ,
-11, ,-13, ,
-10, ,-13, ,
-8, ,-13, ,
-4, ,-13, ,
-2, ,-13, ,
0, ,-13, ,
2, ,-13, ,
6, ,-12, ,
8, ,-13, ,
9, ,-13, ,
11, ,-13, ,
12, ,-13, ,
13, ,-13, ,
12, ,-13, ,
12, ,-13, ,
11, ,-12, ,
11, ,-12, ,
9, ,-12, ,
9, ,-12, ,
6, ,-13, ,
5, ,-13, ,
4, ,-13, ,
2, ,-13, ,
0, ,-13, ,
-1, ,-13, ,
-2, ,-13, ,
-3, ,-13, ,
-4, ,-13, ,
-5, ,-13, ,
-5, ,-13, ,
-6, ,-13, ,
-6, ,-12, ,
-6, ,-12, ,
-6, ,-13, ,
-6, ,-13, ,
-5, ,-13, ,
-5, ,-12, ,
-5, ,-12, ,
-5, ,-12, ,
-5, ,-12, ,
-5, ,-13, ,
-5, ,-13, ,
-5, ,-12, ,
-5, ,-13, ,
-5, ,-13, ,
-5, ,-13, ,
-5, ,-13, ,
-4, ,-12, ,
-4, ,-12, ,
-4, ,-13, ,
-3, ,-13, ,
-2, ,-13, ,
-2, ,-13, ,
-1, ,-13, ,
-1, ,-13, ,
0, ,-12, ,
1, ,-13, ,
1, ,-13, ,
2, ,-12, ,
1, ,-13, ,
1, ,-13, ,
2, ,-13, ,
3, ,-13, ,
3, ,-13, ,
4, ,-13, ,
4, ,-13, ,
5, ,-13, ,
6, ,-13, ,
6, ,-12, ,
7, ,-12, ,
7, ,-13, ,
8, ,-13, ,
7, ,-13, ,
7, ,-13, ,
7, ,-12, ,
6, ,-13, ,
5, ,-13, ,
5, ,-12, ,
4, ,-13, ,
2, ,-13, ,
2, ,-13, ,
1, ,-13, ,
0, ,-13, ,
-2, ,-13, ,
-3, ,-13, ,
-4, ,-13, ,
-4, ,-13, ,
-6, ,-13, ,
-8, ,-12, ,
-9, ,-13, ,
-9, ,-13, ,
-13, ,-13, ,
-14, ,-13, ,
-15, ,-12, ,
-17, ,-12, ,
-19, ,-12, ,
-19, ,-12, ,
-19, ,-13, ,
-19, ,-13, ,
-19, ,-13, ,
-18, ,-13, ,
-17, ,-13, ,
-15, ,-13, ,
-11, ,-12, ,
-8, ,-13, ,
-6, ,-13, ,
-3, ,-12, ,
3, ,-13, ,
5, ,-13, ,
7, ,-13, ,
9, ,-13, ,
13, ,-13, ,
14, ,-13, ,
15, ,-13, ,
15, ,-13, ,
15, ,-13, ,
14, ,-13, ,
14, ,-13, ,
13, ,-13, ,
11, ,-13, ,
9, ,-12, ,
8, ,-12, ,
7, ,-13, ,
4, ,-13, ,
3, ,-13, ,
1, ,-13, ,
0, ,-13, ,
-2, ,-12, ,
-3, ,-12, ,
-5, ,-13, ,
-5, ,-13, ,
-5, ,-13, ,
-5, ,-12, ,
-5, ,-12, ,
-4, ,-13, ,
-3, ,-13, ,
-2, ,-13, ,
-2, ,-13, ,
-1, ,-13, ,
1, ,-13, ,
1, ,-13, ,
2, ,-13, ,
2, ,-13, ,
2, ,-12, ,
1, ,-13, ,
1, ,-13, ,
0, ,-13, ,
-1, ,-13, ,
-3, ,-13, ,
-4, ,-13, ,
-5, ,-13, ,
-8, ,-12, ,
-9, ,-13, ,
-11, ,-13, ,
-11, ,-13, ,
-12, ,-13, ,
-13, ,-13, ,
-13, ,-13, ,
-13, ,-13, ,
-12, ,-13, ,
-11, ,-12, ,
-11, ,-13, ,
-10, ,-13, ,
-8, ,-13, ,
-7, ,-13, ,
-5, ,-13, ,
-4, ,-13, ,
-1, ,-13, ,
0, ,-12, ,
2, ,-12, ,
3, ,-12, ,
5, ,-12, ,
6, ,-13, ,
6, ,-13, ,
6, ,-13, ,
5, ,-13, ,
5, ,-13, ,
4, ,-13, ,
3, ,-13, ,
1, ,-13, ,
-1, ,-13, ,
-2, ,-13, ,
-4, ,-13, ,
-7, ,-12, ,
-8, ,-13, ,
-10, ,-13, ,
-11, ,-13, ,
-12, ,-13, ,
-13, ,-13, ,
-13, ,-13, ,
-13, ,-13, ,
-12, ,-13, ,
-10, ,-13, ,
-10, ,-13, ,
-9, ,-13, ,
-6, ,-13, ,
-5, ,-13, ,
-3, ,-13, ,
-2, ,-13, ,
0, ,-13, ,
2, ,-13, ,
3, ,-13, ,
4, ,-13, ,
5, ,-13, ,
5, ,-13, ,
6, ,-13, ,
6, ,-12, ,
5, ,-12, ,
5, ,-13, ,
4, ,-13, ,
4, ,-13, ,
2, ,-13, ,
1, ,-12, ,
-1, ,-13, ,
-1, ,-13, ,
-3, ,-13, ,
-4, ,-13, ,
-5, ,-13, ,
-5, ,-13, ,
-6, ,-13, ,
-6, ,-13, ,
-6, ,-13, ,
-6, ,-13, ,
-5, ,-13, ,
-4, ,-13, ,
-4, ,-13, ,
-4, ,-12, ,
-2, ,-12, ,
-2, ,-13, ,
-1, ,-13, ,
-1, ,-13, ,
-1, ,-13, ,
0, ,-13, ,
-1, ,-13, ,
-1, ,-13, ,
-2, ,-13, ,
-2, ,-13, ,
-2, ,-13, ,
-3, ,-13, ,
-3, ,-13, ,
-2, ,-13, ,
-2, ,-12, ,
-2, ,-12, ,
-1, ,-12, ,
-1, ,-13, ,
0, ,-13, ,
1, ,-13, ,
2, ,-13, ,
4, ,-13, ,
5, ,-13, ,
5, ,-13, ,
6, ,-13, ,
6, ,-13, ,
6, ,-12, ,
5, ,-13, ,
4, ,-13, ,
4, ,-13, ,
2, ,-13, ,
1, ,-13, ,
-1, ,-13, ,
-2, ,-13, ,
-4, ,-13, ,
-5, ,-13, ,
-7, ,-12, ,
-8, ,-12, ,
-9, ,-12, ,
-10, ,-12, ,
-10, ,-12, ,
-10, ,-12, ,
-10, ,-12, ,
-10, ,-13, ,
-10, ,-13, ,
-9, ,-12, ,
-9, ,-13, ,
-8, ,-13, ,
-6, ,-13, ,
-5, ,-13, ,
-4, ,-13, ,
-3, ,-13, ,
0, ,-13, ,
1, ,-13, ,
2, ,-13, ,
4, ,-12, ,
5, ,-13, ,
6, ,-13, ,
7, ,-12, ,
7, ,-13, ,
8, ,-13, ,
8, ,-12, ,
8, ,-12, ,
8, ,-13, ,
7, ,-13, ,
7, ,-13, ,
7, ,-13, ,
6, ,-13, ,
6, ,-13, ,
5, ,-13, ,
5, ,-13, ,
5, ,-13, ,
5, ,-13, ,
5, ,-13, ,
5, ,-12, ,
5, ,-13, ,
5, ,-13, ,
5, ,-12, ,
4, ,-12, ,
4, ,-12, ,
3, ,-13, ,
2, ,-13, ,
1, ,-13, ,
0, ,-13, ,
-2, ,-12, ,
-3, ,-12, ,
-4, ,-13, ,
-4, ,-13, ,
-6, ,-13, ,
-6, ,-13, ,
-6, ,-13, ,
-6, ,-13, ,
-6, ,-13, ,
-5, ,-13, ,
-5, ,-13, ,
-4, ,-12, ,
-2, ,-12, ,
-3, ,-13, ,
-1, ,-13, ,
-1, ,-13, ,
0, ,-12, ,
1, ,-12, ,
1, ,-12, ,
2, ,-12, ,
2, ,-13, ,
1, ,-13, ,
1, ,-13, ,
1, ,-13, ,
1, ,-13, ,
1, ,-12, ,
1, ,-13, ,
1, ,-13, ,
1, ,-13, ,
1, ,-13, ,
2, ,-13, ,
1, ,-13, ,
1, ,-13, ,
1, ,-12, ,
1, ,-12, ,
1, ,-12, ,
1, ,-13, ,
0, ,-13, ,
0, ,-12, ,
-1, ,-13, ,
-1, ,-13, ,
-1, ,-13, ,
-2, ,-13, ,
-2, ,-13, ,
-3, ,-13, ,
-3, ,-13, ,
-3, ,-13, ,
-4, ,-13, ,
-4, ,-13, ,
-4, ,-13, ,
-5, ,-13, ,
-5, ,-12, ,
-5, ,-13, ,
-5, ,-13, ,
-5, ,-12, ,
-6, ,-13, ,
-6, ,-13, ,
-6, ,-12, ,
-6, ,-13, ,
-6, ,-13, ,
-5, ,-13, ,
-5, ,-13, ,
-4, ,-13, ,
-4, ,-13, ,
-3, ,-13, ,
-2, ,-13, ,
-2, ,-13, ,
0, ,-12, ,
0, ,-13, ,
1, ,-13, ,
3, ,-12, ,
3, ,-13, ,
5, ,-13, ,
6, ,-13, ,
7, ,-13, ,
8, ,-12, ,
9, ,-12, ,
9, ,-12, ,
10, ,-12, ,
10, ,-12, ,
9, ,-12, ,
9, ,-13, ,
8, ,-13, ,
8, ,-13, ,
6, ,-13, ,
5, ,-12, ,
4, ,-12, ,
2, ,-13, ,
0, ,-13, ,
-1, ,-13, ,
-3, ,-13, ,
-4, ,-12, ,
-6, ,-13, ,
-8, ,-13, ,
-9, ,-13, ,
-10, ,-13, ,
-10, ,-12, ,
-10, ,-13, ,
-10, ,-13, ,
-10, ,-13, ,
-9, ,-13, ,
-9, ,-13, ,
-8, ,-13, ,
-7, ,-13, ,
-5, ,-13, ,
-3, ,-13, ,
-1, ,-13, ,
0, ,-13, ,
3, ,-13, ,
4, ,-13, ,
6, ,-13, ,
7, ,-13, ,
9, ,-13, ,
10, ,-13, ,
11, ,-13, ,
11, ,-13, ,
11, ,-13, ,
10, ,-13, ,
10, ,-12, ,
8, ,-13, ,
6, ,-13, ,
5, ,-12, ,
3, ,-12, ,
1, ,-12, ,
-3, ,-13, ,
-5, ,-13, ,
-6, ,-13, ,
-8, ,-13, ,
-11, ,-13, ,
-12, ,-13, ,
-13, ,-13, ,
-13, ,-13, ,
-14, ,-13, ,
-14, ,-13, ,
-13, ,-13, ,
-13, ,-13, ,
-11, ,-12, ,
-10, ,-13, ,
-9, ,-13, ,
-8, ,-13, ,
-5, ,-13, ,
-4, ,-13, ,
-2, ,-13, ,
-2, ,-13, ,
2, ,-12, ,
3, ,-12, ,
4, ,-12, ,
6, ,-12, ,
8, ,-13, ,
8, ,-13, ,
9, ,-13, ,
9, ,-12, ,
10, ,-13, ,
10, ,-13, ,
10, ,-13, ,
9, ,-13, ,
8, ,-13, ,
7, ,-13, ,
7, ,-13, ,
6, ,-12, ,
4, ,-12, ,
3, ,-13, ,
3, ,-13, ,
2, ,-13, ,
1, ,-13, ,
1, ,-13, ,
1, ,-12, ,
0, ,-13, ,
0, ,-13, ,
0, ,-13, ,
0, ,-13, ,
0, ,-13, ,
1, ,-13, ,
1, ,-13, ,
1, ,-13, ,
1, ,-13, ,
1, ,-12, ,
1, ,-12, ,
1, ,-13, ,
1, ,-13, ,
1, ,-13, ,
1, ,-12, ,
1, ,-12, ,
1, ,-13, ,
1, ,-13, ,
2, ,-13, ,
2, ,-13, ,
3, ,-13, ,
4, ,-13, ,
4, ,-13, ,
5, ,-13, ,
5, ,-13, ,
6, ,-12, ,
6, ,-13, ,
7, ,-13, ,
7, ,-13, ,
6, ,-13, ,
6, ,-13, ,
6, ,-13, ,
4, ,-13, ,
3, ,-13, ,
2, ,-13, ,
1, ,-13, ,
0, ,-13, ,
-2, ,-13, ,
-4, ,-12, ,
-5, ,-12, ,
-6, ,-13, ,
-7, ,-13, ,
-8, ,-13, ,
-8, ,-13, ,
-8, ,-13, ,
-8, ,-13, ,
-8, ,-13, ,
-7, ,-13, ,
-7, ,-13, ,
-5, ,-13, ,
-4, ,-13, ,
-3, ,-13, ,
-3, ,-13, ,
-1, ,-13, ,
0, ,-13, ,
0, ,-13, ,
0, ,-13, ,
0, ,-13, ,
0, ,-12, ,
0, ,-12, ,
-1, ,-12, ,
-2, ,-13, ,
-2, ,-13, ,
-2, ,-12, ,
-4, ,-13, ,
-5, ,-13, ,
-5, ,-12, ,
-5, ,-13, ,
-6, ,-13, ,
-6, ,-13, ,
-6, ,-12, ,
-5, ,-12, ,
-5, ,-13, ,
-4, ,-13, ,
-4, ,-13, ,
-3, ,-13, ,
-2, ,-13, ,
-1, ,-13, ,
0, ,-13, ,
0, ,-13, ,
1, ,-13, ,
2, ,-13, ,
2, ,-12, ,
2, ,-13, ,
3, ,-13, ,
3, ,-13, ,
3, ,-12, ,
3, ,-12, ,
3, ,-12, ,
4, ,-12, ,
4, ,-13, ,
4, ,-13, ,
5, ,-13, ,
6, ,-13, ,
6, ,-13, ,
7, ,-13, ,
7, ,-13, ,
8, ,-13, ,
