raw_data/75% Glycerol, Impulsion 2Hz, Sonde 5MHz, Rampe 0.7Hz/temp0000054.CSV

Format,1.0B,
Memory Length,10000,Memory Length,10000,
IntpDistance,0,IntpDistance,0,
Trigger Address,159,Trigger Address,159,
Trigger Level,2.720E-01,Trigger Level,2.720E-01,
Source,CH1,Source,CH2,
Vertical Units,V,Vertical Units,V,
Vertical Units Div,0,Vertical Units Div,0,
Vertical Units Extend Div,16,Vertical Units Extend Div,16,
Label,,Label,,
Probe Type,0,Probe Type,0,
Probe Ratio,1.000e+00,Probe Ratio,1.000e+00,
Vertical Scale,5.000e-01,Vertical Scale,2.000e+00,
Vertical Position,0.000e+00,Vertical Position,0.000e+00,
Horizontal Units,S,Horizontal Units,S,
Horizontal Scale,5.000E-06,Horizontal Scale,5.000E-06,
Horizontal Position,2.420E-05,Horizontal Position,2.420E-05,
Horizontal Mode,Main,Horizontal Mode,Main,
SincET Mode,Real Time,SincET Mode,Real Time,
Sampling Period,5.000e-09,Sampling Period,5.000e-09,
Horizontal Old Scale,5.000E-06,Horizontal Old Scale,5.000E-06,
Horizontal Old Position,2.420E-05,Horizontal Old Position,2.420E-05,
Firmware,V1.32,Firmware,V1.32,
Mode,Fast,Mode,Fast,
Waveform Data,,Waveform Data,,
0, ,20, ,
1, ,20, ,
1, ,20, ,
1, ,20, ,
1, ,20, ,
1, ,20, ,
1, ,20, ,
1, ,20, ,
1, ,20, ,
0, ,20, ,
0, ,20, ,
0, ,20, ,
0, ,20, ,
0, ,20, ,
0, ,20, ,
0, ,20, ,
1, ,20, ,
0, ,20, ,
0, ,20, ,
0, ,20, ,
0, ,20, ,
0, ,20, ,
0, ,20, ,
0, ,20, ,
0, ,20, ,
0, ,20, ,
0, ,20, ,
0, ,20, ,
0, ,20, ,
1, ,20, ,
0, ,20, ,
0, ,20, ,
1, ,20, ,
0, ,20, ,
0, ,20, ,
0, ,20, ,
0, ,20, ,
0, ,20, ,
0, ,20, ,
0, ,20, ,
0, ,20, ,
0, ,20, ,
1, ,20, ,
0, ,20, ,
0, ,20, ,
0, ,20, ,
0, ,20, ,
0, ,20, ,
1, ,20, ,
0, ,20, ,
0, ,20, ,
1, ,20, ,
0, ,20, ,
0, ,20, ,
0, ,20, ,
0, ,20, ,
0, ,20, ,
0, ,20, ,
1, ,20, ,
0, ,20, ,
0, ,20, ,
0, ,20, ,
0, ,20, ,
0, ,20, ,
0, ,20, ,
0, ,20, ,
0, ,20, ,
1, ,20, ,
0, ,20, ,
0, ,20, ,
0, ,20, ,
1, ,20, ,
1, ,20, ,
1, ,20, ,
1, ,20, ,
1, ,20, ,
0, ,20, ,
0, ,20, ,
0, ,20, ,
0, ,20, ,
0, ,20, ,
0, ,20, ,
0, ,20, ,
1, ,20, ,
1, ,20, ,
1, ,20, ,
1, ,20, ,
0, ,20, ,
0, ,20, ,
0, ,20, ,
1, ,20, ,
1, ,20, ,
1, ,20, ,
1, ,20, ,
1, ,20, ,
0, ,20, ,
0, ,20, ,
0, ,20, ,
0, ,20, ,
1, ,20, ,
0, ,20, ,
0, ,20, ,
0, ,20, ,
1, ,20, ,
1, ,20, ,
1, ,20, ,
1, ,20, ,
1, ,20, ,
1, ,20, ,
1, ,20, ,
0, ,20, ,
0, ,20, ,
1, ,20, ,
0, ,20, ,
0, ,20, ,
1, ,20, ,
0, ,20, ,
0, ,20, ,
0, ,20, ,
1, ,20, ,
1, ,20, ,
1, ,20, ,
1, ,20, ,
1, ,20, ,
1, ,20, ,
1, ,20, ,
1, ,20, ,
0, ,20, ,
0, ,20, ,
0, ,20, ,
1, ,20, ,
0, ,20, ,
0, ,20, ,
0, ,20, ,
0, ,20, ,
1, ,20, ,
1, ,20, ,
1, ,20, ,
0, ,20, ,
0, ,20, ,
1, ,20, ,
1, ,20, ,
0, ,20, ,
0, ,20, ,
0, ,20, ,
0, ,20, ,
0, ,20, ,
1, ,20, ,
1, ,20, ,
1, ,20, ,
0, ,20, ,
0, ,20, ,
1, ,20, ,
1, ,20, ,
1, ,20, ,
0, ,20, ,
0, ,20, ,
0, ,20, ,
0, ,20, ,
0, ,20, ,
0, ,20, ,
0, ,20, ,
1, ,20, ,
1, ,20, ,
0, ,20, ,
1, ,20, ,
-1, ,20, ,
15, ,20, ,
43, ,20, ,
80, ,20, ,
122, ,20, ,
122, ,20, ,
103, ,20, ,
45, ,20, ,
-1, ,20, ,
48, ,20, ,
103, ,20, ,
125, ,20, ,
125, ,20, ,
125, ,20, ,
125, ,20, ,
125, ,20, ,
125, ,20, ,
124, ,20, ,
122, ,20, ,
115, ,20, ,
110, ,20, ,
104, ,20, ,
100, ,20, ,
97, ,20, ,
93, ,20, ,
86, ,20, ,
83, ,20, ,
79, ,20, ,
77, ,20, ,
72, ,20, ,
68, ,20, ,
66, ,20, ,
63, ,20, ,
58, ,20, ,
56, ,20, ,
53, ,20, ,
51, ,20, ,
47, ,20, ,
44, ,20, ,
43, ,20, ,
41, ,20, ,
37, ,20, ,
36, ,20, ,
35, ,20, ,
33, ,20, ,
30, ,20, ,
28, ,20, ,
27, ,20, ,
25, ,20, ,
24, ,20, ,
23, ,20, ,
22, ,20, ,
22, ,20, ,
20, ,20, ,
18, ,20, ,
17, ,20, ,
17, ,20, ,
15, ,20, ,
14, ,20, ,
13, ,20, ,
13, ,20, ,
11, ,20, ,
11, ,20, ,
10, ,20, ,
9, ,20, ,
8, ,20, ,
8, ,20, ,
8, ,20, ,
7, ,20, ,
6, ,20, ,
5, ,20, ,
5, ,20, ,
5, ,20, ,
4, ,20, ,
4, ,20, ,
4, ,20, ,
4, ,20, ,
3, ,20, ,
2, ,20, ,
2, ,20, ,
2, ,20, ,
1, ,20, ,
1, ,20, ,
1, ,20, ,
1, ,20, ,
1, ,20, ,
1, ,20, ,
1, ,20, ,
1, ,20, ,
0, ,20, ,
0, ,20, ,
0, ,20, ,
0, ,20, ,
0, ,20, ,
-1, ,20, ,
-1, ,20, ,
-1, ,20, ,
-1, ,20, ,
-1, ,20, ,
-1, ,20, ,
-1, ,20, ,
-1, ,20, ,
-1, ,20, ,
-1, ,20, ,
-2, ,20, ,
-2, ,20, ,
-1, ,20, ,
-2, ,20, ,
-2, ,20, ,
-1, ,20, ,
-1, ,20, ,
-1, ,20, ,
-1, ,20, ,
-2, ,20, ,
-2, ,20, ,
-2, ,20, ,
-1, ,20, ,
-1, ,20, ,
-1, ,20, ,
-1, ,20, ,
-1, ,20, ,
-1, ,20, ,
-1, ,20, ,
-2, ,20, ,
-2, ,20, ,
-1, ,20, ,
-1, ,20, ,
-1, ,20, ,
-1, ,20, ,
-1, ,20, ,
-1, ,20, ,
-1, ,20, ,
-1, ,20, ,
-1, ,20, ,
-1, ,20, ,
-1, ,20, ,
-1, ,20, ,
-1, ,20, ,
-1, ,20, ,
-1, ,20, ,
-1, ,20, ,
-1, ,20, ,
-1, ,20, ,
-1, ,20, ,
-1, ,20, ,
-1, ,20, ,
-1, ,20, ,
-1, ,20, ,
-1, ,20, ,
-1, ,20, ,
-1, ,20, ,
-1, ,20, ,
-1, ,20, ,
-1, ,20, ,
-1, ,20, ,
-1, ,20, ,
-1, ,20, ,
0, ,20, ,
-1, ,20, ,
-1, ,20, ,
-1, ,20, ,
-1, ,20, ,
-1, ,20, ,
-1, ,20, ,
0, ,20, ,
0, ,20, ,
-1, ,20, ,
-1, ,20, ,
-1, ,20, ,
0, ,20, ,
0, ,20, ,
-1, ,20, ,
-1, ,20, ,
0, ,20, ,
0, ,20, ,
0, ,20, ,
0, ,20, ,
0, ,20, ,
0, ,20, ,
0, ,20, ,
0, ,20, ,
0, ,20, ,
0, ,20, ,
0, ,20, ,
0, ,20, ,
0, ,20, ,
0, ,20, ,
0, ,20, ,
0, ,20, ,
0, ,20, ,
0, ,20, ,
0, ,20, ,
0, ,20, ,
0, ,20, ,
0, ,20, ,
0, ,20, ,
0, ,20, ,
0, ,20, ,
0, ,20, ,
0, ,20, ,
0, ,20, ,
0, ,20, ,
0, ,20, ,
0, ,20, ,
0, ,20, ,
0, ,20, ,
0, ,20, ,
0, ,20, ,
0, ,20, ,
0, ,20, ,
0, ,20, ,
0, ,20, ,
0, ,20, ,
0, ,20, ,
0, ,20, ,
0, ,20, ,
0, ,20, ,
0, ,20, ,
0, ,20, ,
0, ,20, ,
0, ,20, ,
0, ,20, ,
0, ,20, ,
0, ,20, ,
0, ,20, ,
0, ,20, ,
0, ,20, ,
0, ,20, ,
0, ,20, ,
0, ,20, ,
0, ,20, ,
0, ,20, ,
1, ,20, ,
0, ,20, ,
0, ,20, ,
0, ,20, ,
0, ,20, ,
0, ,20, ,
0, ,20, ,
0, ,20, ,
0, ,20, ,
0, ,20, ,
0, ,20, ,
0, ,20, ,
0, ,20, ,
0, ,20, ,
0, ,20, ,
0, ,20, ,
0, ,20, ,
0, ,20, ,
0, ,20, ,
0, ,20, ,
0, ,20, ,
1, ,20, ,
1, ,20, ,
1, ,20, ,
0, ,20, ,
0, ,20, ,
0, ,20, ,
0, ,20, ,
0, ,20, ,
0, ,20, ,
0, ,20, ,
0, ,20, ,
0, ,20, ,
0, ,20, ,
0, ,20, ,
0, ,20, ,
0, ,20, ,
0, ,20, ,
-1, ,20, ,
-1, ,20, ,
-2, ,20, ,
-3, ,20, ,
-3, ,20, ,
-5, ,20, ,
-6, ,20, ,
-9, ,20, ,
-11, ,20, ,
-10, ,20, ,
-10, ,20, ,
-8, ,20, ,
-6, ,20, ,
-5, ,20, ,
-3, ,20, ,
-1, ,20, ,
-1, ,20, ,
0, ,20, ,
0, ,20, ,
1, ,20, ,
1, ,20, ,
1, ,20, ,
1, ,20, ,
0, ,20, ,
0, ,20, ,
-1, ,20, ,
-1, ,20, ,
-2, ,20, ,
-2, ,20, ,
-2, ,20, ,
-2, ,20, ,
-1, ,20, ,
0, ,20, ,
1, ,20, ,
1, ,20, ,
2, ,20, ,
2, ,20, ,
2, ,20, ,
3, ,20, ,
4, ,20, ,
3, ,20, ,
3, ,20, ,
3, ,20, ,
3, ,20, ,
3, ,20, ,
3, ,20, ,
3, ,20, ,
2, ,20, ,
1, ,20, ,
1, ,20, ,
1, ,20, ,
2, ,20, ,
1, ,20, ,
1, ,20, ,
1, ,20, ,
2, ,20, ,
2, ,20, ,
2, ,20, ,
2, ,20, ,
2, ,20, ,
2, ,20, ,
1, ,20, ,
1, ,20, ,
0, ,20, ,
0, ,20, ,
0, ,20, ,
-1, ,20, ,
-1, ,20, ,
-1, ,20, ,
-1, ,20, ,
-1, ,20, ,
-1, ,20, ,
-1, ,20, ,
0, ,20, ,
0, ,20, ,
0, ,20, ,
1, ,20, ,
1, ,20, ,
1, ,20, ,
1, ,20, ,
1, ,20, ,
0, ,20, ,
0, ,20, ,
0, ,20, ,
0, ,20, ,
-1, ,20, ,
-2, ,20, ,
-3, ,20, ,
-4, ,20, ,
-5, ,20, ,
-6, ,20, ,
-8, ,20, ,
-9, ,20, ,
-10, ,20, ,
-11, ,20, ,
-13, ,20, ,
-15, ,20, ,
-15, ,20, ,
-16, ,20, ,
-17, ,20, ,
-18, ,20, ,
-18, ,20, ,
-19, ,20, ,
-21, ,20, ,
-22, ,20, ,
-23, ,20, ,
-24, ,20, ,
-25, ,20, ,
-24, ,20, ,
-25, ,20, ,
-23, ,20, ,
-21, ,20, ,
-20, ,20, ,
-17, ,20, ,
-17, ,20, ,
-13, ,20, ,
-12, ,20, ,
-11, ,20, ,
-10, ,20, ,
-11, ,20, ,
-12, ,20, ,
-13, ,20, ,
-14, ,20, ,
-17, ,20, ,
-19, ,20, ,
-21, ,20, ,
-24, ,20, ,
-27, ,20, ,
-29, ,20, ,
-30, ,20, ,
-32, ,20, ,
-32, ,20, ,
-31, ,20, ,
-32, ,20, ,
-30, ,20, ,
-28, ,20, ,
-27, ,20, ,
-25, ,20, ,
-25, ,20, ,
-20, ,20, ,
-18, ,20, ,
-16, ,20, ,
-14, ,20, ,
-9, ,20, ,
-8, ,20, ,
-5, ,20, ,
-4, ,20, ,
0, ,20, ,
2, ,20, ,
3, ,20, ,
4, ,20, ,
6, ,20, ,
6, ,20, ,
6, ,20, ,
6, ,20, ,
6, ,20, ,
6, ,20, ,
5, ,20, ,
5, ,20, ,
4, ,20, ,
4, ,20, ,
4, ,20, ,
3, ,20, ,
4, ,20, ,
5, ,20, ,
5, ,20, ,
6, ,20, ,
8, ,20, ,
9, ,20, ,
10, ,20, ,
11, ,20, ,
12, ,20, ,
14, ,20, ,
15, ,20, ,
15, ,20, ,
16, ,20, ,
15, ,20, ,
15, ,20, ,
14, ,20, ,
12, ,20, ,
11, ,20, ,
10, ,20, ,
10, ,20, ,
7, ,20, ,
5, ,20, ,
4, ,20, ,
1, ,20, ,
-2, ,20, ,
-3, ,20, ,
-5, ,20, ,
-5, ,20, ,
-7, ,20, ,
-7, ,20, ,
-8, ,20, ,
-8, ,20, ,
-8, ,20, ,
-7, ,20, ,
-7, ,20, ,
-7, ,20, ,
-5, ,20, ,
-5, ,20, ,
-5, ,20, ,
-6, ,20, ,
-7, ,20, ,
-7, ,20, ,
-8, ,20, ,
-8, ,20, ,
-10, ,20, ,
-11, ,20, ,
-12, ,20, ,
-13, ,20, ,
-16, ,20, ,
-17, ,20, ,
-19, ,20, ,
-20, ,20, ,
-23, ,20, ,
-25, ,20, ,
-27, ,20, ,
-28, ,20, ,
-31, ,20, ,
-32, ,20, ,
-32, ,20, ,
-32, ,20, ,
-31, ,20, ,
-29, ,20, ,
-26, ,20, ,
-25, ,20, ,
-19, ,20, ,
-16, ,20, ,
-13, ,20, ,
-11, ,20, ,
-6, ,20, ,
-4, ,20, ,
-3, ,20, ,
-3, ,20, ,
-3, ,20, ,
-3, ,20, ,
-4, ,20, ,
-5, ,20, ,
-7, ,20, ,
-8, ,20, ,
-10, ,20, ,
-12, ,20, ,
-12, ,20, ,
-12, ,20, ,
-12, ,20, ,
-12, ,20, ,
-9, ,20, ,
-9, ,20, ,
-6, ,20, ,
-4, ,20, ,
1, ,20, ,
4, ,20, ,
7, ,20, ,
10, ,20, ,
14, ,20, ,
16, ,20, ,
19, ,20, ,
20, ,20, ,
20, ,20, ,
20, ,20, ,
19, ,20, ,
18, ,20, ,
14, ,20, ,
11, ,20, ,
8, ,20, ,
4, ,20, ,
-3, ,20, ,
-6, ,20, ,
-10, ,20, ,
-13, ,20, ,
-20, ,20, ,
-23, ,20, ,
-25, ,20, ,
-27, ,20, ,
-30, ,20, ,
-31, ,20, ,
-31, ,20, ,
-30, ,20, ,
-29, ,20, ,
-28, ,20, ,
-26, ,20, ,
-25, ,20, ,
-19, ,20, ,
-16, ,20, ,
-13, ,20, ,
-10, ,20, ,
-4, ,20, ,
-1, ,20, ,
2, ,20, ,
4, ,20, ,
9, ,20, ,
11, ,20, ,
12, ,20, ,
14, ,20, ,
17, ,20, ,
17, ,20, ,
18, ,20, ,
18, ,20, ,
17, ,20, ,
17, ,20, ,
16, ,20, ,
16, ,20, ,
13, ,20, ,
12, ,20, ,
11, ,20, ,
9, ,20, ,
7, ,20, ,
5, ,20, ,
4, ,20, ,
2, ,20, ,
0, ,20, ,
-1, ,20, ,
-1, ,20, ,
-2, ,20, ,
-2, ,20, ,
-2, ,20, ,
-3, ,20, ,
-3, ,20, ,
-2, ,20, ,
-2, ,20, ,
-2, ,20, ,
-2, ,20, ,
-2, ,20, ,
-2, ,20, ,
-2, ,20, ,
-2, ,20, ,
-2, ,20, ,
-3, ,20, ,
-3, ,20, ,
-4, ,20, ,
-6, ,20, ,
-6, ,20, ,
-7, ,20, ,
-7, ,20, ,
-10, ,20, ,
-11, ,20, ,
-12, ,20, ,
-14, ,20, ,
-16, ,20, ,
-17, ,20, ,
-18, ,20, ,
-19, ,20, ,
-20, ,20, ,
-21, ,20, ,
-22, ,20, ,
-22, ,20, ,
-23, ,20, ,
-23, ,20, ,
-23, ,20, ,
-23, ,20, ,
-23, ,20, ,
-22, ,20, ,
-22, ,20, ,
-22, ,20, ,
-21, ,20, ,
-21, ,20, ,
-21, ,20, ,
-21, ,20, ,
-21, ,20, ,
-21, ,20, ,
-21, ,20, ,
-22, ,20, ,
-22, ,20, ,
-22, ,20, ,
-23, ,20, ,
-23, ,20, ,
-23, ,20, ,
-24, ,20, ,
-24, ,20, ,
-24, ,20, ,
-23, ,20, ,
-22, ,20, ,
-22, ,20, ,
-21, ,20, ,
-18, ,20, ,
-16, ,20, ,
-15, ,20, ,
-14, ,20, ,
-10, ,20, ,
-8, ,20, ,
-7, ,20, ,
-5, ,20, ,
-2, ,20, ,
0, ,20, ,
1, ,20, ,
2, ,20, ,
5, ,20, ,
6, ,20, ,
8, ,20, ,
9, ,20, ,
13, ,20, ,
14, ,20, ,
16, ,20, ,
17, ,20, ,
20, ,20, ,
21, ,20, ,
21, ,20, ,
21, ,20, ,
22, ,20, ,
21, ,20, ,
21, ,20, ,
19, ,20, ,
18, ,20, ,
17, ,20, ,
16, ,20, ,
15, ,20, ,
13, ,20, ,
11, ,20, ,
10, ,20, ,
9, ,20, ,
8, ,20, ,
8, ,20, ,
7, ,20, ,
7, ,20, ,
7, ,20, ,
7, ,20, ,
8, ,20, ,
8, ,20, ,
9, ,20, ,
9, ,20, ,
8, ,20, ,
8, ,20, ,
8, ,20, ,
7, ,20, ,
7, ,20, ,
6, ,20, ,
5, ,20, ,
4, ,20, ,
3, ,20, ,
2, ,20, ,
0, ,20, ,
-2, ,20, ,
-2, ,20, ,
-5, ,20, ,
-7, ,20, ,
-8, ,20, ,
-10, ,20, ,
-11, ,20, ,
-14, ,20, ,
-16, ,20, ,
-17, ,20, ,
-19, ,20, ,
-22, ,20, ,
-22, ,20, ,
-24, ,20, ,
-24, ,20, ,
-25, ,20, ,
-25, ,20, ,
-25, ,20, ,
-25, ,20, ,
-25, ,20, ,
-24, ,20, ,
-24, ,20, ,
-23, ,20, ,
-21, ,20, ,
-20, ,20, ,
-20, ,20, ,
-19, ,20, ,
-18, ,20, ,
-17, ,20, ,
-16, ,20, ,
-16, ,20, ,
-15, ,20, ,
-14, ,20, ,
-13, ,20, ,
-13, ,20, ,
-12, ,20, ,
-11, ,20, ,
-10, ,20, ,
-10, ,20, ,
-9, ,20, ,
-8, ,20, ,
-7, ,20, ,
-7, ,20, ,
-7, ,20, ,
-6, ,20, ,
-6, ,20, ,
-6, ,20, ,
-7, ,20, ,
-8, ,20, ,
-8, ,20, ,
-9, ,20, ,
-11, ,20, ,
-11, ,20, ,
-13, ,20, ,
-13, ,20, ,
-13, ,20, ,
-13, ,20, ,
-13, ,20, ,
-13, ,20, ,
-12, ,20, ,
-11, ,20, ,
-10, ,20, ,
-8, ,20, ,
-4, ,20, ,
-2, ,20, ,
0, ,20, ,
2, ,20, ,
7, ,20, ,
9, ,20, ,
10, ,20, ,
12, ,20, ,
16, ,20, ,
16, ,20, ,
17, ,20, ,
17, ,20, ,
16, ,20, ,
16, ,20, ,
15, ,20, ,
14, ,20, ,
11, ,20, ,
9, ,20, ,
8, ,20, ,
5, ,20, ,
1, ,20, ,
-1, ,20, ,
-4, ,20, ,
-5, ,20, ,
-9, ,20, ,
-11, ,20, ,
-12, ,20, ,
-14, ,20, ,
-15, ,20, ,
-15, ,20, ,
-15, ,20, ,
-14, ,20, ,
-13, ,20, ,
-12, ,20, ,
-12, ,20, ,
-10, ,20, ,
-7, ,20, ,
-5, ,20, ,
-4, ,20, ,
-2, ,20, ,
1, ,20, ,
2, ,20, ,
3, ,20, ,
4, ,20, ,
3, ,20, ,
3, ,20, ,
2, ,20, ,
2, ,20, ,
0, ,20, ,
-1, ,20, ,
-1, ,20, ,
-4, ,20, ,
-6, ,20, ,
-6, ,20, ,
-8, ,20, ,
-8, ,20, ,
-8, ,20, ,
-8, ,20, ,
-8, ,20, ,
-8, ,20, ,
-7, ,20, ,
-5, ,20, ,
-4, ,20, ,
-3, ,20, ,
0, ,20, ,
1, ,20, ,
3, ,20, ,
3, ,20, ,
6, ,20, ,
7, ,20, ,
8, ,20, ,
8, ,20, ,
9, ,20, ,
8, ,20, ,
8, ,20, ,
7, ,20, ,
5, ,20, ,
4, ,20, ,
3, ,20, ,
1, ,20, ,
-1, ,20, ,
-3, ,20, ,
-4, ,20, ,
-5, ,20, ,
-7, ,20, ,
-8, ,20, ,
-8, ,20, ,
-8, ,20, ,
-8, ,20, ,
-8, ,20, ,
-7, ,20, ,
-7, ,20, ,
-7, ,20, ,
-7, ,20, ,
-6, ,20, ,
-5, ,20, ,
-5, ,20, ,
-4, ,20, ,
-4, ,20, ,
-4, ,20, ,
-3, ,20, ,
-2, ,20, ,
-2, ,20, ,
-2, ,20, ,
-2, ,20, ,
-2, ,20, ,
-1, ,20, ,
-1, ,20, ,
-1, ,20, ,
-1, ,20, ,
-2, ,20, ,
-2, ,20, ,
-2, ,20, ,
-3, ,20, ,
-3, ,20, ,
-4, ,20, ,
-4, ,20, ,
-4, ,20, ,
-4, ,20, ,
-3, ,20, ,
-2, ,20, ,
-2, ,20, ,
0, ,20, ,
0, ,20, ,
3, ,20, ,
4, ,20, ,
5, ,20, ,
6, ,20, ,
7, ,20, ,
8, ,20, ,
8, ,20, ,
8, ,20, ,
7, ,20, ,
7, ,20, ,
6, ,20, ,
5, ,20, ,
3, ,20, ,
1, ,20, ,
0, ,20, ,
-1, ,20, ,
-4, ,20, ,
-4, ,20, ,
-5, ,20, ,
-5, ,20, ,
-5, ,20, ,
-5, ,20, ,
-5, ,20, ,
-5, ,20, ,
-4, ,20, ,
-4, ,20, ,
-4, ,20, ,
-4, ,20, ,
-3, ,20, ,
-4, ,20, ,
-4, ,20, ,
-5, ,20, ,
-5, ,20, ,
-6, ,20, ,
-6, ,20, ,
-7, ,20, ,
-7, ,20, ,
-8, ,20, ,
-8, ,20, ,
-8, ,20, ,
-7, ,20, ,
-5, ,20, ,
-6, ,20, ,
-4, ,20, ,
-3, ,20, ,
-2, ,20, ,
0, ,20, ,
0, ,20, ,
2, ,20, ,
2, ,20, ,
3, ,20, ,
3, ,20, ,
3, ,20, ,
2, ,20, ,
2, ,20, ,
1, ,20, ,
1, ,20, ,
1, ,20, ,
0, ,20, ,
0, ,20, ,
-1, ,20, ,
-1, ,20, ,
-1, ,20, ,
-1, ,20, ,
-1, ,20, ,
0, ,20, ,
0, ,20, ,
1, ,20, ,
2, ,20, ,
2, ,20, ,
2, ,20, ,
2, ,20, ,
3, ,20, ,
3, ,20, ,
3, ,20, ,
3, ,20, ,
2, ,20, ,
2, ,20, ,
1, ,20, ,
0, ,20, ,
-2, ,20, ,
-2, ,20, ,
-3, ,20, ,
-3, ,20, ,
-5, ,20, ,
-5, ,20, ,
-5, ,20, ,
-6, ,20, ,
-6, ,20, ,
-5, ,20, ,
-5, ,20, ,
-4, ,20, ,
-3, ,20, ,
-2, ,20, ,
-1, ,20, ,
-1, ,20, ,
1, ,20, ,
2, ,20, ,
2, ,20, ,
2, ,20, ,
2, ,20, ,
1, ,20, ,
1, ,20, ,
0, ,20, ,
-1, ,20, ,
-2, ,20, ,
-3, ,20, ,
-4, ,20, ,
-5, ,20, ,
-6, ,20, ,
-6, ,20, ,
-6, ,20, ,
-6, ,20, ,
-6, ,20, ,
-5, ,20, ,
-4, ,20, ,
-3, ,20, ,
-1, ,20, ,
-1, ,20, ,
1, ,20, ,
3, ,20, ,
4, ,20, ,
5, ,20, ,
6, ,20, ,
7, ,20, ,
7, ,20, ,
7, ,20, ,
6, ,20, ,
5, ,20, ,
5, ,20, ,
4, ,20, ,
3, ,20, ,
1, ,20, ,
0, ,20, ,
-1, ,20, ,
-3, ,20, ,
-5, ,20, ,
-6, ,20, ,
-8, ,20, ,
-8, ,20, ,
-10, ,20, ,
-11, ,20, ,
-11, ,20, ,
-12, ,20, ,
-12, ,20, ,
-13, ,20, ,
-13, ,20, ,
-13, ,20, ,
-13, ,20, ,
-13, ,20, ,
-12, ,20, ,
-12, ,20, ,
-12, ,20, ,
-10, ,20, ,
-11, ,20, ,
-9, ,20, ,
-7, ,20, ,
-7, ,20, ,
-5, ,20, ,
-5, ,20, ,
-3, ,20, ,
-1, ,20, ,
-1, ,20, ,
1, ,20, ,
2, ,20, ,
3, ,20, ,
5, ,20, ,
5, ,20, ,
7, ,20, ,
7, ,20, ,
7, ,20, ,
8, ,20, ,
8, ,20, ,
7, ,20, ,
7, ,20, ,
6, ,20, ,
5, ,20, ,
5, ,20, ,
4, ,20, ,
4, ,20, ,
2, ,20, ,
1, ,20, ,
1, ,20, ,
-1, ,20, ,
-2, ,20, ,
-2, ,20, ,
-2, ,20, ,
-3, ,20, ,
-3, ,20, ,
-2, ,20, ,
-2, ,20, ,
-2, ,20, ,
-1, ,20, ,
0, ,20, ,
1, ,20, ,
1, ,20, ,
2, ,20, ,
2, ,20, ,
2, ,20, ,
1, ,20, ,
0, ,20, ,
0, ,20, ,
-2, ,20, ,
-3, ,20, ,
-6, ,20, ,
-9, ,20, ,
-10, ,20, ,
-13, ,20, ,
-17, ,20, ,
-18, ,20, ,
-20, ,20, ,
-21, ,20, ,
-23, ,20, ,
-23, ,20, ,
-23, ,20, ,
-23, ,20, ,
-21, ,20, ,
-20, ,20, ,
-19, ,20, ,
-16, ,20, ,
-11, ,20, ,
-9, ,20, ,
-7, ,20, ,
-4, ,20, ,
0, ,20, ,
4, ,20, ,
5, ,20, ,
7, ,20, ,
11, ,20, ,
11, ,20, ,
12, ,20, ,
13, ,20, ,
14, ,20, ,
15, ,20, ,
15, ,20, ,
16, ,20, ,
15, ,20, ,
15, ,20, ,
14, ,20, ,
14, ,20, ,
13, ,20, ,
12, ,20, ,
11, ,20, ,
11, ,20, ,
8, ,20, ,
5, ,20, ,
4, ,20, ,
2, ,20, ,
-1, ,20, ,
-3, ,20, ,
-5, ,20, ,
-7, ,20, ,
-9, ,20, ,
-10, ,20, ,
-11, ,20, ,
-12, ,20, ,
-12, ,20, ,
-11, ,20, ,
-11, ,20, ,
-11, ,20, ,
-10, ,20, ,
-9, ,20, ,
-7, ,20, ,
-7, ,20, ,
-4, ,20, ,
-3, ,20, ,
-2, ,20, ,
-1, ,20, ,
1, ,20, ,
1, ,20, ,
2, ,20, ,
2, ,20, ,
3, ,20, ,
4, ,20, ,
4, ,20, ,
4, ,20, ,
4, ,20, ,
3, ,20, ,
3, ,20, ,
3, ,20, ,
2, ,20, ,
2, ,20, ,
2, ,20, ,
2, ,20, ,
1, ,20, ,
0, ,20, ,
0, ,20, ,
0, ,20, ,
-1, ,20, ,
-1, ,20, ,
-1, ,20, ,
0, ,20, ,
-1, ,20, ,
-1, ,20, ,
-1, ,20, ,
0, ,20, ,
1, ,20, ,
1, ,20, ,
1, ,20, ,
1, ,20, ,
2, ,20, ,
2, ,20, ,
2, ,20, ,
2, ,20, ,
2, ,20, ,
2, ,20, ,
2, ,20, ,
1, ,20, ,
1, ,20, ,
0, ,20, ,
0, ,20, ,
0, ,20, ,
-1, ,20, ,
-1, ,20, ,
-1, ,20, ,
-1, ,20, ,
-1, ,20, ,
-2, ,20, ,
-1, ,20, ,
-2, ,20, ,
0, ,20, ,
0, ,20, ,
0, ,20, ,
1, ,20, ,
1, ,20, ,
1, ,20, ,
2, ,20, ,
2, ,20, ,
3, ,20, ,
3, ,20, ,
3, ,20, ,
3, ,20, ,
3, ,20, ,
2, ,20, ,
2, ,20, ,
1, ,20, ,
1, ,20, ,
2, ,20, ,
1, ,20, ,
1, ,20, ,
1, ,20, ,
0, ,20, ,
0, ,20, ,
0, ,20, ,
-1, ,20, ,
-1, ,20, ,
-2, ,20, ,
-2, ,20, ,
-3, ,20, ,
-4, ,20, ,
-4, ,20, ,
-6, ,20, ,
-7, ,20, ,
-7, ,20, ,
-8, ,20, ,
-8, ,20, ,
-8, ,20, ,
-9, ,20, ,
-9, ,20, ,
-9, ,20, ,
-8, ,20, ,
-8, ,20, ,
-7, ,20, ,
-6, ,20, ,
-5, ,20, ,
-4, ,20, ,
-3, ,20, ,
-2, ,20, ,
0, ,20, ,
1, ,20, ,
2, ,20, ,
2, ,20, ,
4, ,20, ,
4, ,20, ,
5, ,20, ,
5, ,20, ,
5, ,20, ,
5, ,20, ,
5, ,20, ,
6, ,20, ,
6, ,20, ,
6, ,20, ,
6, ,20, ,
6, ,20, ,
6, ,20, ,
6, ,20, ,
6, ,20, ,
6, ,20, ,
5, ,20, ,
4, ,20, ,
4, ,20, ,
3, ,20, ,
1, ,20, ,
1, ,20, ,
-1, ,20, ,
-1, ,20, ,
-3, ,20, ,
-4, ,20, ,
-5, ,20, ,
-6, ,20, ,
-8, ,20, ,
-8, ,20, ,
-9, ,20, ,
-9, ,20, ,
-9, ,20, ,
-9, ,20, ,
-9, ,20, ,
-9, ,20, ,
-8, ,20, ,
-7, ,20, ,
-8, ,20, ,
-7, ,20, ,
-6, ,20, ,
-6, ,20, ,
-5, ,20, ,
-5, ,20, ,
-4, ,20, ,
-2, ,20, ,
-1, ,20, ,
0, ,20, ,
1, ,20, ,
2, ,20, ,
3, ,20, ,
4, ,20, ,
5, ,20, ,
6, ,20, ,
6, ,20, ,
7, ,20, ,
7, ,20, ,
7, ,20, ,
7, ,20, ,
7, ,20, ,
7, ,20, ,
6, ,20, ,
6, ,20, ,
5, ,20, ,
5, ,20, ,
4, ,20, ,
4, ,20, ,
4, ,20, ,
4, ,20, ,
4, ,20, ,
4, ,20, ,
4, ,20, ,
4, ,20, ,
4, ,20, ,
5, ,20, ,
4, ,20, ,
4, ,20, ,
4, ,20, ,
3, ,20, ,
3, ,20, ,
2, ,20, ,
1, ,20, ,
0, ,20, ,
-1, ,20, ,
-2, ,20, ,
-3, ,20, ,
-3, ,20, ,
-3, ,20, ,
-4, ,20, ,
-4, ,20, ,
-3, ,20, ,
-3, ,20, ,
-2, ,20, ,
-1, ,20, ,
0, ,20, ,
0, ,20, ,
2, ,20, ,
2, ,20, ,
3, ,20, ,
3, ,20, ,
3, ,20, ,
3, ,20, ,
3, ,20, ,
2, ,20, ,
1, ,20, ,
-1, ,20, ,
-1, ,20, ,
-2, ,20, ,
-4, ,20, ,
-5, ,20, ,
-6, ,20, ,
-6, ,20, ,
-7, ,20, ,
-7, ,20, ,
-7, ,20, ,
-7, ,20, ,
-7, ,20, ,
-6, ,20, ,
-6, ,20, ,
-6, ,20, ,
-5, ,20, ,
-5, ,20, ,
-4, ,20, ,
-4, ,20, ,
-4, ,20, ,
-4, ,20, ,
-4, ,20, ,
-4, ,20, ,
-3, ,20, ,
-3, ,20, ,
-3, ,20, ,
-3, ,20, ,
-3, ,20, ,
-2, ,20, ,
-2, ,20, ,
-1, ,20, ,
1, ,20, ,
0, ,20, ,
2, ,20, ,
3, ,20, ,
4, ,20, ,
6, ,20, ,
7, ,20, ,
8, ,20, ,
10, ,20, ,
11, ,20, ,
12, ,20, ,
12, ,20, ,
13, ,20, ,
14, ,20, ,
14, ,20, ,
14, ,20, ,
13, ,20, ,
12, ,20, ,
12, ,20, ,
11, ,20, ,
8, ,20, ,
8, ,20, ,
7, ,20, ,
6, ,20, ,
3, ,20, ,
2, ,20, ,
1, ,20, ,
-1, ,20, ,
-3, ,20, ,
-3, ,20, ,
-4, ,20, ,
-4, ,20, ,
-4, ,20, ,
-4, ,20, ,
-4, ,20, ,
-4, ,20, ,
-4, ,20, ,
-3, ,20, ,
-3, ,20, ,
-3, ,20, ,
-3, ,20, ,
-3, ,20, ,
-3, ,20, ,
-3, ,20, ,
-3, ,20, ,
-3, ,20, ,
-4, ,20, ,
-4, ,20, ,
-5, ,20, ,
-6, ,20, ,
-6, ,20, ,
-6, ,20, ,
-7, ,20, ,
-7, ,20, ,
-7, ,20, ,
-7, ,20, ,
-6, ,20, ,
-6, ,20, ,
-6, ,20, ,
-6, ,20, ,
-4, ,20, ,
-3, ,20, ,
-2, ,20, ,
-1, ,20, ,
1, ,20, ,
1, ,20, ,
2, ,20, ,
3, ,20, ,
4, ,20, ,
4, ,20, ,
3, ,20, ,
3, ,20, ,
2, ,20, ,
2, ,20, ,
1, ,20, ,
0, ,20, ,
-2, ,20, ,
-2, ,20, ,
-3, ,20, ,
-3, ,20, ,
-4, ,20, ,
-4, ,20, ,
-4, ,20, ,
-4, ,20, ,
-4, ,20, ,
-3, ,20, ,
-3, ,20, ,
-1, ,20, ,
0, ,20, ,
1, ,20, ,
3, ,20, ,
3, ,20, ,
5, ,20, ,
5, ,20, ,
6, ,20, ,
6, ,20, ,
5, ,20, ,
5, ,20, ,
4, ,20, ,
4, ,20, ,
1, ,20, ,
1, ,20, ,
0, ,20, ,
-1, ,20, ,
-4, ,20, ,
-6, ,20, ,
-6, ,20, ,
-7, ,20, ,
-8, ,20, ,
-8, ,20, ,
-9, ,20, ,
-9, ,20, ,
-8, ,20, ,
-8, ,20, ,
-6, ,20, ,
-6, ,20, ,
-3, ,20, ,
-1, ,20, ,
0, ,20, ,
2, ,20, ,
5, ,20, ,
7, ,20, ,
9, ,20, ,
10, ,20, ,
13, ,20, ,
14, ,20, ,
14, ,20, ,
15, ,20, ,
14, ,20, ,
14, ,20, ,
14, ,20, ,
12, ,20, ,
10, ,20, ,
9, ,20, ,
7, ,20, ,
6, ,20, ,
2, ,20, ,
0, ,20, ,
-1, ,20, ,
-3, ,20, ,
-5, ,20, ,
-5, ,20, ,
-6, ,20, ,
-6, ,20, ,
-6, ,20, ,
-6, ,20, ,
-6, ,20, ,
-6, ,20, ,
-6, ,20, ,
-5, ,20, ,
-6, ,20, ,
-6, ,20, ,
-6, ,20, ,
-6, ,20, ,
-6, ,20, ,
-7, ,20, ,
-7, ,20, ,
-7, ,20, ,
-8, ,20, ,
-8, ,20, ,
-8, ,20, ,
-8, ,20, ,
-8, ,20, ,
-7, ,20, ,
-7, ,20, ,
-6, ,20, ,
-5, ,20, ,
-5, ,20, ,
-3, ,20, ,
-2, ,20, ,
-1, ,20, ,
0, ,20, ,
2, ,20, ,
3, ,20, ,
3, ,20, ,
4, ,20, ,
6, ,20, ,
6, ,20, ,
6, ,20, ,
6, ,20, ,
6, ,20, ,
6, ,20, ,
5, ,20, ,
5, ,20, ,
3, ,20, ,
2, ,20, ,
2, ,20, ,
0, ,20, ,
-1, ,20, ,
-2, ,20, ,
-3, ,20, ,
-3, ,20, ,
-3, ,20, ,
-3, ,20, ,
-3, ,20, ,
-3, ,20, ,
-2, ,20, ,
-1, ,20, ,
0, ,20, ,
1, ,20, ,
3, ,20, ,
4, ,20, ,
5, ,20, ,
6, ,20, ,
8, ,20, ,
8, ,20, ,
8, ,20, ,
