raw_data/75% Glycerol, Impulsion 2Hz, Sonde 5MHz, Rampe 0.7Hz/temp0000267.CSV

Format,1.0B,
Memory Length,10000,Memory Length,10000,
IntpDistance,0,IntpDistance,0,
Trigger Address,159,Trigger Address,159,
Trigger Level,2.720E-01,Trigger Level,2.720E-01,
Source,CH1,Source,CH2,
Vertical Units,V,Vertical Units,V,
Vertical Units Div,0,Vertical Units Div,0,
Vertical Units Extend Div,16,Vertical Units Extend Div,16,
Label,,Label,,
Probe Type,0,Probe Type,0,
Probe Ratio,1.000e+00,Probe Ratio,1.000e+00,
Vertical Scale,5.000e-01,Vertical Scale,2.000e+00,
Vertical Position,0.000e+00,Vertical Position,0.000e+00,
Horizontal Units,S,Horizontal Units,S,
Horizontal Scale,5.000E-06,Horizontal Scale,5.000E-06,
Horizontal Position,2.420E-05,Horizontal Position,2.420E-05,
Horizontal Mode,Main,Horizontal Mode,Main,
SincET Mode,Real Time,SincET Mode,Real Time,
Sampling Period,5.000e-09,Sampling Period,5.000e-09,
Horizontal Old Scale,5.000E-06,Horizontal Old Scale,5.000E-06,
Horizontal Old Position,2.420E-05,Horizontal Old Position,2.420E-05,
Firmware,V1.32,Firmware,V1.32,
Mode,Fast,Mode,Fast,
Waveform Data,,Waveform Data,,
1, ,-14, ,
1, ,-14, ,
1, ,-14, ,
1, ,-14, ,
1, ,-14, ,
1, ,-14, ,
1, ,-14, ,
1, ,-14, ,
1, ,-14, ,
1, ,-14, ,
1, ,-14, ,
1, ,-14, ,
1, ,-14, ,
1, ,-14, ,
1, ,-14, ,
0, ,-14, ,
0, ,-14, ,
1, ,-14, ,
1, ,-14, ,
1, ,-14, ,
1, ,-14, ,
1, ,-14, ,
1, ,-14, ,
1, ,-14, ,
1, ,-14, ,
1, ,-14, ,
1, ,-14, ,
1, ,-14, ,
1, ,-14, ,
1, ,-14, ,
1, ,-14, ,
1, ,-14, ,
1, ,-14, ,
1, ,-14, ,
1, ,-14, ,
1, ,-14, ,
1, ,-14, ,
0, ,-14, ,
0, ,-14, ,
0, ,-14, ,
0, ,-14, ,
1, ,-14, ,
0, ,-14, ,
0, ,-14, ,
1, ,-14, ,
1, ,-14, ,
1, ,-14, ,
1, ,-14, ,
1, ,-14, ,
1, ,-14, ,
1, ,-14, ,
1, ,-14, ,
1, ,-14, ,
0, ,-14, ,
1, ,-14, ,
1, ,-14, ,
0, ,-14, ,
0, ,-14, ,
0, ,-14, ,
0, ,-14, ,
1, ,-14, ,
1, ,-14, ,
1, ,-14, ,
1, ,-14, ,
1, ,-14, ,
1, ,-14, ,
1, ,-14, ,
1, ,-14, ,
1, ,-14, ,
1, ,-14, ,
1, ,-14, ,
1, ,-14, ,
1, ,-14, ,
1, ,-14, ,
1, ,-14, ,
1, ,-14, ,
1, ,-14, ,
1, ,-14, ,
1, ,-14, ,
1, ,-14, ,
1, ,-14, ,
1, ,-14, ,
1, ,-14, ,
0, ,-14, ,
0, ,-14, ,
0, ,-14, ,
1, ,-14, ,
1, ,-14, ,
1, ,-14, ,
1, ,-14, ,
1, ,-14, ,
1, ,-14, ,
1, ,-14, ,
1, ,-14, ,
1, ,-14, ,
1, ,-14, ,
1, ,-14, ,
1, ,-14, ,
1, ,-14, ,
1, ,-14, ,
1, ,-14, ,
1, ,-14, ,
1, ,-14, ,
1, ,-14, ,
1, ,-14, ,
1, ,-14, ,
1, ,-14, ,
1, ,-14, ,
1, ,-14, ,
1, ,-14, ,
1, ,-14, ,
1, ,-14, ,
1, ,-14, ,
1, ,-14, ,
1, ,-13, ,
0, ,-14, ,
1, ,-14, ,
1, ,-14, ,
1, ,-14, ,
1, ,-14, ,
1, ,-14, ,
1, ,-14, ,
1, ,-14, ,
1, ,-14, ,
1, ,-14, ,
1, ,-14, ,
1, ,-13, ,
1, ,-13, ,
1, ,-14, ,
1, ,-14, ,
1, ,-14, ,
1, ,-14, ,
1, ,-14, ,
1, ,-13, ,
1, ,-14, ,
1, ,-14, ,
1, ,-14, ,
1, ,-14, ,
1, ,-14, ,
1, ,-14, ,
1, ,-14, ,
1, ,-14, ,
1, ,-14, ,
1, ,-14, ,
1, ,-14, ,
1, ,-14, ,
1, ,-14, ,
1, ,-14, ,
1, ,-14, ,
1, ,-14, ,
1, ,-14, ,
1, ,-14, ,
1, ,-14, ,
1, ,-14, ,
1, ,-14, ,
1, ,-14, ,
1, ,-14, ,
1, ,-14, ,
1, ,-14, ,
1, ,-13, ,
1, ,-14, ,
1, ,-14, ,
0, ,-14, ,
0, ,-14, ,
1, ,-14, ,
0, ,-14, ,
1, ,-14, ,
2, ,-14, ,
19, ,-14, ,
50, ,-14, ,
89, ,-14, ,
124, ,-14, ,
121, ,-14, ,
94, ,-14, ,
33, ,-14, ,
9, ,-14, ,
59, ,-14, ,
111, ,-14, ,
125, ,-14, ,
125, ,-14, ,
125, ,-14, ,
125, ,-14, ,
125, ,-13, ,
124, ,-14, ,
124, ,-14, ,
121, ,-14, ,
115, ,-14, ,
106, ,-14, ,
103, ,-14, ,
100, ,-14, ,
97, ,-14, ,
90, ,-14, ,
86, ,-14, ,
83, ,-14, ,
79, ,-14, ,
74, ,-14, ,
72, ,-14, ,
68, ,-14, ,
66, ,-14, ,
61, ,-14, ,
58, ,-14, ,
57, ,-14, ,
53, ,-14, ,
49, ,-14, ,
47, ,-14, ,
45, ,-14, ,
43, ,-14, ,
40, ,-14, ,
37, ,-14, ,
36, ,-14, ,
34, ,-14, ,
31, ,-14, ,
31, ,-14, ,
28, ,-14, ,
27, ,-14, ,
25, ,-14, ,
24, ,-14, ,
24, ,-14, ,
22, ,-14, ,
20, ,-14, ,
19, ,-14, ,
18, ,-14, ,
18, ,-14, ,
16, ,-14, ,
15, ,-14, ,
14, ,-14, ,
14, ,-14, ,
13, ,-14, ,
12, ,-14, ,
11, ,-13, ,
11, ,-14, ,
9, ,-14, ,
8, ,-14, ,
8, ,-14, ,
7, ,-14, ,
7, ,-14, ,
7, ,-13, ,
6, ,-13, ,
6, ,-14, ,
5, ,-14, ,
5, ,-14, ,
4, ,-14, ,
4, ,-14, ,
4, ,-14, ,
3, ,-14, ,
3, ,-14, ,
2, ,-14, ,
2, ,-14, ,
2, ,-14, ,
2, ,-14, ,
1, ,-14, ,
1, ,-14, ,
1, ,-13, ,
1, ,-14, ,
1, ,-14, ,
0, ,-14, ,
0, ,-14, ,
0, ,-14, ,
0, ,-14, ,
0, ,-14, ,
0, ,-13, ,
0, ,-13, ,
0, ,-14, ,
-1, ,-14, ,
-1, ,-14, ,
-1, ,-14, ,
-1, ,-14, ,
-1, ,-14, ,
-1, ,-14, ,
-1, ,-14, ,
-1, ,-14, ,
-1, ,-14, ,
-1, ,-14, ,
-1, ,-14, ,
-1, ,-14, ,
-1, ,-14, ,
-1, ,-14, ,
-1, ,-14, ,
-1, ,-14, ,
-1, ,-14, ,
-1, ,-14, ,
-1, ,-14, ,
-1, ,-14, ,
-1, ,-14, ,
-1, ,-14, ,
-1, ,-14, ,
-1, ,-14, ,
-1, ,-14, ,
-1, ,-14, ,
-1, ,-14, ,
-1, ,-14, ,
-1, ,-14, ,
-1, ,-14, ,
-1, ,-14, ,
-1, ,-14, ,
-1, ,-14, ,
-1, ,-14, ,
-1, ,-14, ,
-1, ,-14, ,
-1, ,-14, ,
-1, ,-14, ,
-1, ,-14, ,
-1, ,-14, ,
-1, ,-14, ,
-1, ,-14, ,
-1, ,-14, ,
-1, ,-14, ,
-1, ,-14, ,
-1, ,-14, ,
-1, ,-14, ,
-1, ,-14, ,
-1, ,-14, ,
-1, ,-14, ,
-1, ,-14, ,
-1, ,-14, ,
-1, ,-14, ,
-1, ,-14, ,
-1, ,-14, ,
0, ,-14, ,
0, ,-14, ,
0, ,-14, ,
0, ,-14, ,
0, ,-14, ,
0, ,-14, ,
0, ,-14, ,
0, ,-14, ,
0, ,-14, ,
0, ,-14, ,
0, ,-14, ,
0, ,-14, ,
0, ,-14, ,
0, ,-14, ,
0, ,-14, ,
0, ,-14, ,
0, ,-14, ,
0, ,-14, ,
0, ,-14, ,
0, ,-14, ,
0, ,-14, ,
0, ,-14, ,
0, ,-14, ,
0, ,-14, ,
0, ,-14, ,
0, ,-14, ,
0, ,-14, ,
0, ,-14, ,
0, ,-14, ,
0, ,-14, ,
1, ,-14, ,
0, ,-14, ,
0, ,-14, ,
0, ,-14, ,
0, ,-14, ,
0, ,-14, ,
0, ,-14, ,
0, ,-14, ,
0, ,-14, ,
0, ,-14, ,
1, ,-14, ,
0, ,-14, ,
0, ,-14, ,
0, ,-14, ,
0, ,-14, ,
0, ,-14, ,
0, ,-14, ,
0, ,-14, ,
0, ,-14, ,
1, ,-14, ,
0, ,-14, ,
0, ,-14, ,
0, ,-14, ,
0, ,-14, ,
0, ,-14, ,
0, ,-14, ,
0, ,-14, ,
1, ,-14, ,
1, ,-14, ,
1, ,-14, ,
1, ,-14, ,
1, ,-14, ,
1, ,-13, ,
1, ,-13, ,
1, ,-14, ,
1, ,-14, ,
1, ,-14, ,
1, ,-14, ,
1, ,-14, ,
0, ,-14, ,
0, ,-14, ,
0, ,-14, ,
0, ,-14, ,
1, ,-14, ,
0, ,-14, ,
0, ,-14, ,
0, ,-14, ,
0, ,-14, ,
0, ,-14, ,
0, ,-14, ,
0, ,-14, ,
1, ,-14, ,
1, ,-14, ,
1, ,-14, ,
0, ,-14, ,
0, ,-14, ,
0, ,-14, ,
0, ,-14, ,
0, ,-14, ,
0, ,-14, ,
0, ,-14, ,
0, ,-13, ,
0, ,-13, ,
0, ,-14, ,
0, ,-14, ,
0, ,-14, ,
0, ,-14, ,
0, ,-14, ,
1, ,-14, ,
1, ,-14, ,
1, ,-14, ,
1, ,-14, ,
1, ,-14, ,
1, ,-14, ,
1, ,-14, ,
0, ,-14, ,
0, ,-14, ,
0, ,-14, ,
0, ,-14, ,
0, ,-14, ,
0, ,-14, ,
0, ,-14, ,
1, ,-14, ,
0, ,-14, ,
0, ,-14, ,
1, ,-14, ,
0, ,-14, ,
0, ,-14, ,
0, ,-14, ,
-1, ,-14, ,
-1, ,-14, ,
-3, ,-14, ,
-4, ,-14, ,
-6, ,-14, ,
-10, ,-14, ,
-17, ,-14, ,
-22, ,-14, ,
-25, ,-14, ,
-25, ,-14, ,
-22, ,-14, ,
-18, ,-14, ,
-14, ,-14, ,
-10, ,-14, ,
-4, ,-14, ,
-1, ,-14, ,
0, ,-14, ,
1, ,-14, ,
3, ,-14, ,
4, ,-14, ,
5, ,-14, ,
5, ,-14, ,
5, ,-14, ,
5, ,-14, ,
5, ,-14, ,
4, ,-14, ,
4, ,-14, ,
4, ,-14, ,
4, ,-14, ,
4, ,-14, ,
4, ,-14, ,
4, ,-14, ,
4, ,-14, ,
4, ,-14, ,
4, ,-14, ,
4, ,-14, ,
5, ,-14, ,
5, ,-14, ,
5, ,-14, ,
5, ,-14, ,
5, ,-14, ,
5, ,-14, ,
4, ,-13, ,
4, ,-14, ,
4, ,-14, ,
3, ,-14, ,
3, ,-14, ,
3, ,-14, ,
2, ,-14, ,
2, ,-14, ,
3, ,-14, ,
2, ,-14, ,
3, ,-14, ,
2, ,-14, ,
3, ,-14, ,
3, ,-14, ,
3, ,-14, ,
3, ,-14, ,
3, ,-13, ,
3, ,-14, ,
3, ,-14, ,
3, ,-14, ,
2, ,-14, ,
2, ,-14, ,
2, ,-14, ,
2, ,-14, ,
2, ,-14, ,
1, ,-14, ,
1, ,-14, ,
1, ,-14, ,
1, ,-14, ,
1, ,-14, ,
0, ,-14, ,
0, ,-14, ,
0, ,-14, ,
0, ,-14, ,
0, ,-14, ,
0, ,-14, ,
0, ,-14, ,
-1, ,-14, ,
-1, ,-13, ,
-2, ,-14, ,
-4, ,-14, ,
-5, ,-14, ,
-6, ,-14, ,
-9, ,-13, ,
-13, ,-13, ,
-15, ,-14, ,
-18, ,-14, ,
-20, ,-14, ,
-23, ,-14, ,
-23, ,-14, ,
-23, ,-14, ,
-22, ,-14, ,
-20, ,-14, ,
-18, ,-14, ,
-16, ,-13, ,
-13, ,-14, ,
-9, ,-14, ,
-8, ,-14, ,
-6, ,-14, ,
-6, ,-14, ,
-3, ,-14, ,
-3, ,-14, ,
-3, ,-14, ,
-3, ,-14, ,
-4, ,-13, ,
-6, ,-14, ,
-6, ,-14, ,
-7, ,-14, ,
-10, ,-14, ,
-10, ,-14, ,
-12, ,-14, ,
-13, ,-14, ,
-16, ,-14, ,
-17, ,-14, ,
-18, ,-14, ,
-20, ,-14, ,
-23, ,-14, ,
-25, ,-14, ,
-27, ,-14, ,
-29, ,-14, ,
-33, ,-14, ,
-35, ,-14, ,
-36, ,-14, ,
-37, ,-14, ,
-37, ,-14, ,
-36, ,-14, ,
-36, ,-14, ,
-34, ,-14, ,
-30, ,-14, ,
-28, ,-14, ,
-25, ,-14, ,
-24, ,-14, ,
-18, ,-14, ,
-15, ,-14, ,
-13, ,-14, ,
-11, ,-14, ,
-7, ,-14, ,
-6, ,-14, ,
-5, ,-14, ,
-4, ,-14, ,
-2, ,-14, ,
-2, ,-14, ,
-2, ,-13, ,
-1, ,-13, ,
-1, ,-14, ,
0, ,-14, ,
1, ,-14, ,
1, ,-14, ,
2, ,-14, ,
3, ,-14, ,
3, ,-14, ,
4, ,-14, ,
4, ,-14, ,
4, ,-14, ,
4, ,-14, ,
5, ,-14, ,
5, ,-14, ,
4, ,-14, ,
4, ,-14, ,
4, ,-14, ,
5, ,-14, ,
5, ,-14, ,
5, ,-14, ,
6, ,-14, ,
7, ,-14, ,
8, ,-14, ,
9, ,-14, ,
11, ,-14, ,
13, ,-14, ,
14, ,-14, ,
15, ,-14, ,
15, ,-14, ,
16, ,-14, ,
16, ,-14, ,
15, ,-14, ,
15, ,-14, ,
14, ,-13, ,
13, ,-14, ,
12, ,-14, ,
10, ,-14, ,
7, ,-14, ,
6, ,-14, ,
3, ,-14, ,
1, ,-14, ,
-2, ,-13, ,
-5, ,-14, ,
-6, ,-14, ,
-8, ,-14, ,
-10, ,-14, ,
-11, ,-14, ,
-12, ,-14, ,
-13, ,-14, ,
-14, ,-14, ,
-14, ,-14, ,
-14, ,-14, ,
-15, ,-14, ,
-15, ,-14, ,
-15, ,-14, ,
-15, ,-14, ,
-15, ,-14, ,
-14, ,-14, ,
-14, ,-14, ,
-14, ,-14, ,
-13, ,-14, ,
-13, ,-14, ,
-12, ,-14, ,
-11, ,-14, ,
-10, ,-14, ,
-8, ,-14, ,
-7, ,-14, ,
-6, ,-14, ,
-5, ,-14, ,
-5, ,-14, ,
-6, ,-14, ,
-6, ,-14, ,
-7, ,-14, ,
-9, ,-14, ,
-11, ,-14, ,
-13, ,-14, ,
-15, ,-14, ,
-18, ,-14, ,
-20, ,-14, ,
-20, ,-14, ,
-21, ,-14, ,
-22, ,-14, ,
-22, ,-14, ,
-22, ,-14, ,
-22, ,-14, ,
-22, ,-14, ,
-21, ,-14, ,
-21, ,-14, ,
-20, ,-14, ,
-19, ,-13, ,
-19, ,-14, ,
-17, ,-14, ,
-16, ,-14, ,
-14, ,-14, ,
-12, ,-14, ,
-11, ,-14, ,
-8, ,-14, ,
-5, ,-14, ,
-3, ,-14, ,
-1, ,-14, ,
0, ,-14, ,
3, ,-14, ,
5, ,-14, ,
6, ,-14, ,
7, ,-14, ,
9, ,-14, ,
9, ,-13, ,
10, ,-14, ,
10, ,-14, ,
9, ,-14, ,
9, ,-14, ,
8, ,-13, ,
8, ,-14, ,
6, ,-14, ,
5, ,-14, ,
4, ,-14, ,
2, ,-14, ,
-2, ,-14, ,
-4, ,-14, ,
-6, ,-14, ,
-8, ,-14, ,
-12, ,-14, ,
-13, ,-14, ,
-15, ,-14, ,
-16, ,-14, ,
-19, ,-14, ,
-20, ,-14, ,
-20, ,-13, ,
-21, ,-14, ,
-20, ,-14, ,
-20, ,-14, ,
-20, ,-14, ,
-19, ,-14, ,
-17, ,-14, ,
-15, ,-14, ,
-13, ,-14, ,
-11, ,-14, ,
-7, ,-14, ,
-4, ,-14, ,
-2, ,-14, ,
0, ,-14, ,
5, ,-14, ,
7, ,-13, ,
8, ,-14, ,
10, ,-14, ,
12, ,-14, ,
12, ,-14, ,
12, ,-14, ,
12, ,-14, ,
13, ,-14, ,
12, ,-14, ,
12, ,-14, ,
12, ,-14, ,
11, ,-14, ,
10, ,-14, ,
10, ,-14, ,
9, ,-14, ,
9, ,-13, ,
8, ,-14, ,
8, ,-14, ,
7, ,-14, ,
6, ,-14, ,
5, ,-14, ,
5, ,-14, ,
4, ,-14, ,
3, ,-14, ,
2, ,-14, ,
2, ,-14, ,
2, ,-14, ,
1, ,-13, ,
1, ,-14, ,
1, ,-14, ,
1, ,-14, ,
1, ,-14, ,
1, ,-14, ,
0, ,-14, ,
0, ,-14, ,
-1, ,-14, ,
-2, ,-14, ,
-2, ,-14, ,
-3, ,-14, ,
-5, ,-14, ,
-6, ,-13, ,
-8, ,-13, ,
-9, ,-14, ,
-12, ,-14, ,
-14, ,-14, ,
-16, ,-14, ,
-17, ,-14, ,
-20, ,-14, ,
-21, ,-14, ,
-22, ,-14, ,
-22, ,-14, ,
-23, ,-14, ,
-23, ,-14, ,
-22, ,-14, ,
-22, ,-14, ,
-21, ,-14, ,
-20, ,-14, ,
-19, ,-14, ,
-19, ,-14, ,
-18, ,-14, ,
-18, ,-14, ,
-17, ,-14, ,
-18, ,-14, ,
-18, ,-14, ,
-18, ,-14, ,
-20, ,-13, ,
-20, ,-13, ,
-21, ,-14, ,
-21, ,-14, ,
-21, ,-14, ,
-21, ,-14, ,
-20, ,-14, ,
-20, ,-14, ,
-20, ,-14, ,
-19, ,-14, ,
-16, ,-14, ,
-15, ,-14, ,
-14, ,-14, ,
-13, ,-14, ,
-10, ,-14, ,
-8, ,-14, ,
-7, ,-14, ,
-6, ,-14, ,
-5, ,-14, ,
-5, ,-14, ,
-4, ,-14, ,
-4, ,-14, ,
-5, ,-14, ,
-5, ,-14, ,
-7, ,-14, ,
-7, ,-14, ,
-8, ,-14, ,
-9, ,-14, ,
-10, ,-14, ,
-11, ,-14, ,
-12, ,-14, ,
-12, ,-14, ,
-12, ,-13, ,
-11, ,-13, ,
-11, ,-14, ,
-9, ,-14, ,
-7, ,-14, ,
-6, ,-14, ,
-2, ,-14, ,
1, ,-14, ,
3, ,-14, ,
5, ,-14, ,
9, ,-14, ,
11, ,-14, ,
12, ,-14, ,
13, ,-14, ,
15, ,-14, ,
16, ,-14, ,
16, ,-14, ,
17, ,-14, ,
16, ,-14, ,
16, ,-14, ,
16, ,-13, ,
15, ,-14, ,
15, ,-14, ,
15, ,-14, ,
14, ,-14, ,
14, ,-14, ,
13, ,-14, ,
12, ,-14, ,
12, ,-14, ,
12, ,-13, ,
11, ,-14, ,
10, ,-14, ,
10, ,-14, ,
9, ,-14, ,
8, ,-14, ,
7, ,-14, ,
7, ,-14, ,
6, ,-14, ,
5, ,-14, ,
5, ,-14, ,
4, ,-14, ,
4, ,-14, ,
3, ,-13, ,
2, ,-14, ,
2, ,-14, ,
1, ,-14, ,
-1, ,-14, ,
-1, ,-14, ,
-2, ,-14, ,
-2, ,-14, ,
-4, ,-14, ,
-5, ,-14, ,
-5, ,-14, ,
-7, ,-14, ,
-9, ,-14, ,
-9, ,-14, ,
-11, ,-14, ,
-11, ,-14, ,
-13, ,-14, ,
-15, ,-14, ,
-16, ,-14, ,
-17, ,-14, ,
-19, ,-14, ,
-21, ,-14, ,
-22, ,-14, ,
-23, ,-14, ,
-25, ,-14, ,
-25, ,-14, ,
-25, ,-14, ,
-25, ,-14, ,
-25, ,-13, ,
-25, ,-14, ,
-25, ,-14, ,
-24, ,-14, ,
-22, ,-14, ,
-20, ,-14, ,
-18, ,-14, ,
-17, ,-13, ,
-14, ,-14, ,
-12, ,-14, ,
-10, ,-14, ,
-9, ,-14, ,
-8, ,-14, ,
-7, ,-14, ,
-6, ,-14, ,
-6, ,-14, ,
-6, ,-14, ,
-6, ,-14, ,
-7, ,-14, ,
-7, ,-14, ,
-7, ,-14, ,
-7, ,-14, ,
-8, ,-13, ,
-8, ,-13, ,
-8, ,-13, ,
-8, ,-14, ,
-8, ,-14, ,
-8, ,-14, ,
-7, ,-14, ,
-7, ,-14, ,
-6, ,-14, ,
-7, ,-14, ,
-6, ,-14, ,
-5, ,-14, ,
-5, ,-14, ,
-4, ,-14, ,
-3, ,-14, ,
-3, ,-14, ,
-3, ,-14, ,
-2, ,-14, ,
-1, ,-14, ,
0, ,-14, ,
0, ,-14, ,
0, ,-14, ,
0, ,-14, ,
0, ,-13, ,
-1, ,-13, ,
-1, ,-14, ,
-2, ,-14, ,
-2, ,-14, ,
-3, ,-14, ,
-3, ,-14, ,
-3, ,-14, ,
-3, ,-14, ,
-3, ,-14, ,
-3, ,-14, ,
-3, ,-14, ,
-2, ,-14, ,
-2, ,-14, ,
-1, ,-14, ,
0, ,-14, ,
0, ,-14, ,
1, ,-14, ,
1, ,-14, ,
2, ,-14, ,
2, ,-14, ,
2, ,-14, ,
2, ,-14, ,
1, ,-14, ,
0, ,-14, ,
0, ,-14, ,
-1, ,-14, ,
-2, ,-14, ,
-2, ,-14, ,
-2, ,-14, ,
-1, ,-14, ,
-1, ,-14, ,
-1, ,-14, ,
-1, ,-14, ,
-1, ,-14, ,
0, ,-14, ,
0, ,-14, ,
0, ,-14, ,
0, ,-14, ,
-1, ,-14, ,
-2, ,-14, ,
-2, ,-14, ,
-2, ,-14, ,
-3, ,-14, ,
-4, ,-14, ,
-5, ,-14, ,
-5, ,-14, ,
-5, ,-14, ,
-6, ,-14, ,
-6, ,-13, ,
-6, ,-14, ,
-6, ,-14, ,
-6, ,-14, ,
-6, ,-14, ,
-5, ,-14, ,
-6, ,-14, ,
-6, ,-14, ,
-6, ,-14, ,
-6, ,-14, ,
-7, ,-14, ,
-7, ,-14, ,
-7, ,-14, ,
-7, ,-14, ,
-6, ,-14, ,
-6, ,-13, ,
-5, ,-14, ,
-5, ,-14, ,
-3, ,-14, ,
-1, ,-14, ,
0, ,-14, ,
1, ,-14, ,
4, ,-14, ,
5, ,-14, ,
7, ,-14, ,
7, ,-14, ,
9, ,-14, ,
9, ,-14, ,
9, ,-14, ,
10, ,-14, ,
10, ,-14, ,
10, ,-14, ,
9, ,-14, ,
9, ,-14, ,
9, ,-14, ,
9, ,-14, ,
9, ,-14, ,
9, ,-14, ,
8, ,-14, ,
7, ,-14, ,
7, ,-14, ,
7, ,-14, ,
5, ,-14, ,
5, ,-14, ,
4, ,-14, ,
4, ,-14, ,
1, ,-14, ,
0, ,-14, ,
-1, ,-14, ,
-3, ,-14, ,
-6, ,-14, ,
-7, ,-14, ,
-9, ,-14, ,
-9, ,-14, ,
-11, ,-14, ,
-13, ,-14, ,
-13, ,-14, ,
-14, ,-14, ,
-14, ,-14, ,
-13, ,-14, ,
-13, ,-14, ,
-12, ,-14, ,
-12, ,-14, ,
-11, ,-14, ,
-11, ,-13, ,
-11, ,-13, ,
-10, ,-14, ,
-9, ,-14, ,
-9, ,-13, ,
-9, ,-14, ,
-9, ,-14, ,
-9, ,-14, ,
-9, ,-14, ,
-10, ,-13, ,
-11, ,-14, ,
-11, ,-14, ,
-11, ,-14, ,
-10, ,-14, ,
-10, ,-14, ,
-9, ,-14, ,
-9, ,-14, ,
-9, ,-14, ,
-6, ,-14, ,
-5, ,-14, ,
-3, ,-14, ,
-2, ,-14, ,
2, ,-14, ,
4, ,-14, ,
5, ,-14, ,
7, ,-14, ,
10, ,-14, ,
12, ,-14, ,
14, ,-14, ,
15, ,-14, ,
17, ,-14, ,
17, ,-14, ,
18, ,-14, ,
18, ,-14, ,
17, ,-14, ,
16, ,-14, ,
16, ,-14, ,
15, ,-14, ,
12, ,-14, ,
11, ,-14, ,
9, ,-14, ,
7, ,-14, ,
4, ,-14, ,
3, ,-14, ,
0, ,-14, ,
-1, ,-14, ,
-4, ,-14, ,
-6, ,-14, ,
-8, ,-14, ,
-9, ,-14, ,
-11, ,-14, ,
-11, ,-14, ,
-12, ,-13, ,
-12, ,-13, ,
-12, ,-13, ,
-12, ,-14, ,
-11, ,-14, ,
-10, ,-14, ,
-8, ,-14, ,
-7, ,-14, ,
-6, ,-14, ,
-3, ,-14, ,
-1, ,-14, ,
0, ,-13, ,
2, ,-14, ,
2, ,-14, ,
3, ,-14, ,
3, ,-14, ,
2, ,-14, ,
2, ,-14, ,
1, ,-13, ,
-1, ,-13, ,
-2, ,-14, ,
-3, ,-14, ,
-6, ,-14, ,
-6, ,-14, ,
-8, ,-13, ,
-9, ,-14, ,
-10, ,-14, ,
-10, ,-14, ,
-10, ,-14, ,
-10, ,-14, ,
-8, ,-14, ,
-8, ,-14, ,
-8, ,-14, ,
-6, ,-14, ,
-4, ,-14, ,
-3, ,-14, ,
-2, ,-14, ,
-1, ,-14, ,
1, ,-14, ,
3, ,-14, ,
4, ,-14, ,
5, ,-14, ,
7, ,-14, ,
7, ,-14, ,
8, ,-14, ,
8, ,-14, ,
9, ,-14, ,
9, ,-14, ,
9, ,-14, ,
9, ,-14, ,
8, ,-14, ,
8, ,-14, ,
7, ,-14, ,
7, ,-13, ,
5, ,-14, ,
5, ,-14, ,
3, ,-13, ,
3, ,-14, ,
2, ,-14, ,
1, ,-13, ,
1, ,-14, ,
0, ,-14, ,
0, ,-14, ,
0, ,-14, ,
0, ,-14, ,
0, ,-14, ,
0, ,-14, ,
-1, ,-14, ,
-1, ,-14, ,
-2, ,-14, ,
-2, ,-14, ,
-3, ,-14, ,
-3, ,-14, ,
-4, ,-14, ,
-5, ,-14, ,
-6, ,-14, ,
-6, ,-14, ,
-7, ,-14, ,
-8, ,-14, ,
-8, ,-14, ,
-8, ,-14, ,
-8, ,-14, ,
-8, ,-14, ,
-8, ,-14, ,
-7, ,-14, ,
-7, ,-14, ,
-7, ,-14, ,
-5, ,-14, ,
-5, ,-14, ,
-5, ,-14, ,
-4, ,-14, ,
-4, ,-14, ,
-3, ,-14, ,
-3, ,-14, ,
-3, ,-14, ,
-3, ,-14, ,
-3, ,-14, ,
-3, ,-14, ,
-3, ,-14, ,
-3, ,-14, ,
-3, ,-14, ,
-3, ,-14, ,
-3, ,-14, ,
-3, ,-14, ,
-3, ,-14, ,
-3, ,-14, ,
-3, ,-14, ,
-4, ,-14, ,
-4, ,-14, ,
-4, ,-14, ,
-5, ,-14, ,
-5, ,-14, ,
-5, ,-14, ,
-4, ,-14, ,
-5, ,-14, ,
-5, ,-14, ,
-5, ,-14, ,
-4, ,-14, ,
-4, ,-14, ,
-3, ,-14, ,
-3, ,-14, ,
-2, ,-14, ,
-1, ,-14, ,
0, ,-14, ,
2, ,-14, ,
2, ,-14, ,
4, ,-14, ,
6, ,-14, ,
6, ,-14, ,
6, ,-14, ,
7, ,-14, ,
6, ,-14, ,
6, ,-14, ,
6, ,-14, ,
4, ,-14, ,
3, ,-14, ,
2, ,-14, ,
0, ,-14, ,
-2, ,-14, ,
-4, ,-14, ,
-6, ,-14, ,
-8, ,-14, ,
-10, ,-14, ,
-10, ,-14, ,
-11, ,-14, ,
-11, ,-14, ,
-10, ,-14, ,
-11, ,-14, ,
-9, ,-14, ,
-9, ,-14, ,
-7, ,-14, ,
-6, ,-14, ,
-5, ,-14, ,
-4, ,-14, ,
-3, ,-14, ,
-2, ,-13, ,
-1, ,-14, ,
-1, ,-14, ,
-1, ,-14, ,
0, ,-14, ,
-1, ,-14, ,
-1, ,-14, ,
-1, ,-13, ,
-1, ,-14, ,
-1, ,-14, ,
0, ,-14, ,
0, ,-14, ,
0, ,-14, ,
0, ,-14, ,
1, ,-14, ,
1, ,-14, ,
1, ,-13, ,
2, ,-14, ,
2, ,-14, ,
3, ,-14, ,
3, ,-14, ,
4, ,-14, ,
4, ,-14, ,
4, ,-14, ,
4, ,-14, ,
4, ,-14, ,
4, ,-14, ,
4, ,-14, ,
3, ,-14, ,
3, ,-14, ,
2, ,-14, ,
1, ,-14, ,
0, ,-14, ,
0, ,-14, ,
-2, ,-14, ,
-3, ,-14, ,
-3, ,-14, ,
-4, ,-14, ,
-4, ,-14, ,
-5, ,-13, ,
-6, ,-14, ,
-6, ,-14, ,
-7, ,-14, ,
-7, ,-14, ,
-7, ,-14, ,
-7, ,-14, ,
-7, ,-14, ,
-7, ,-14, ,
-7, ,-14, ,
-7, ,-14, ,
-7, ,-14, ,
-7, ,-14, ,
-6, ,-14, ,
-7, ,-14, ,
-7, ,-14, ,
-6, ,-14, ,
-6, ,-14, ,
-6, ,-14, ,
-6, ,-14, ,
-6, ,-14, ,
-5, ,-14, ,
-5, ,-14, ,
-5, ,-14, ,
-4, ,-14, ,
-4, ,-14, ,
-3, ,-14, ,
-3, ,-14, ,
-1, ,-14, ,
2, ,-14, ,
1, ,-14, ,
3, ,-14, ,
5, ,-14, ,
6, ,-14, ,
7, ,-14, ,
8, ,-14, ,
9, ,-14, ,
10, ,-14, ,
10, ,-14, ,
11, ,-14, ,
11, ,-14, ,
11, ,-14, ,
11, ,-14, ,
10, ,-14, ,
9, ,-14, ,
9, ,-14, ,
9, ,-14, ,
9, ,-14, ,
8, ,-14, ,
7, ,-14, ,
7, ,-14, ,
7, ,-14, ,
6, ,-14, ,
6, ,-14, ,
6, ,-14, ,
6, ,-14, ,
5, ,-14, ,
4, ,-14, ,
4, ,-14, ,
4, ,-14, ,
3, ,-14, ,
2, ,-14, ,
2, ,-14, ,
2, ,-14, ,
1, ,-14, ,
0, ,-14, ,
0, ,-14, ,
-1, ,-14, ,
-1, ,-14, ,
-1, ,-14, ,
-2, ,-14, ,
-2, ,-14, ,
-3, ,-14, ,
-4, ,-14, ,
-4, ,-14, ,
-4, ,-14, ,
-5, ,-14, ,
-6, ,-14, ,
-6, ,-14, ,
-7, ,-14, ,
-7, ,-14, ,
-8, ,-14, ,
-8, ,-14, ,
-8, ,-14, ,
-7, ,-14, ,
-7, ,-14, ,
-7, ,-14, ,
-7, ,-14, ,
-6, ,-14, ,
-6, ,-14, ,
-6, ,-14, ,
-6, ,-14, ,
-6, ,-14, ,
-5, ,-14, ,
-6, ,-14, ,
-6, ,-14, ,
-5, ,-14, ,
-5, ,-14, ,
-5, ,-14, ,
-5, ,-14, ,
-5, ,-14, ,
-5, ,-14, ,
-5, ,-14, ,
-5, ,-14, ,
-4, ,-14, ,
-4, ,-14, ,
-4, ,-13, ,
-4, ,-13, ,
-3, ,-14, ,
-2, ,-14, ,
-2, ,-14, ,
-1, ,-14, ,
1, ,-14, ,
1, ,-14, ,
2, ,-14, ,
2, ,-14, ,
5, ,-14, ,
7, ,-14, ,
7, ,-14, ,
8, ,-14, ,
11, ,-14, ,
11, ,-14, ,
12, ,-14, ,
13, ,-14, ,
13, ,-14, ,
13, ,-14, ,
13, ,-14, ,
13, ,-14, ,
12, ,-14, ,
11, ,-14, ,
10, ,-14, ,
9, ,-14, ,
8, ,-14, ,
7, ,-14, ,
7, ,-14, ,
6, ,-14, ,
5, ,-14, ,
4, ,-14, ,
3, ,-14, ,
2, ,-14, ,
1, ,-14, ,
1, ,-14, ,
0, ,-14, ,
-1, ,-14, ,
-2, ,-14, ,
-3, ,-14, ,
-4, ,-14, ,
-5, ,-14, ,
-7, ,-14, ,
-7, ,-14, ,
-9, ,-13, ,
-9, ,-14, ,
-9, ,-14, ,
-10, ,-14, ,
-10, ,-14, ,
-10, ,-14, ,
-9, ,-14, ,
-9, ,-14, ,
-9, ,-14, ,
-9, ,-14, ,
-8, ,-14, ,
-8, ,-14, ,
-8, ,-14, ,
-8, ,-14, ,
-8, ,-14, ,
-8, ,-14, ,
-8, ,-13, ,
-8, ,-14, ,
-9, ,-14, ,
-9, ,-14, ,
-8, ,-14, ,
-8, ,-13, ,
-8, ,-14, ,
-6, ,-14, ,
-7, ,-14, ,
-5, ,-14, ,
-3, ,-14, ,
-2, ,-14, ,
0, ,-14, ,
1, ,-14, ,
4, ,-14, ,
6, ,-14, ,
6, ,-14, ,
8, ,-14, ,
10, ,-14, ,
11, ,-14, ,
11, ,-14, ,
11, ,-14, ,
11, ,-14, ,
11, ,-14, ,
11, ,-14, ,
10, ,-14, ,
9, ,-14, ,
8, ,-14, ,
8, ,-14, ,
7, ,-14, ,
7, ,-14, ,
7, ,-14, ,
6, ,-14, ,
5, ,-14, ,
5, ,-14, ,
4, ,-14, ,
4, ,-14, ,
4, ,-14, ,
4, ,-14, ,
4, ,-14, ,
3, ,-14, ,
3, ,-14, ,
2, ,-13, ,
1, ,-14, ,
1, ,-14, ,
0, ,-14, ,
-1, ,-14, ,
-2, ,-14, ,
-3, ,-14, ,
-3, ,-14, ,
-5, ,-14, ,
-6, ,-14, ,
-6, ,-14, ,
-6, ,-14, ,
-6, ,-14, ,
-6, ,-14, ,
-6, ,-14, ,
-6, ,-14, ,
-5, ,-14, ,
-5, ,-14, ,
-4, ,-14, ,
-4, ,-14, ,
-2, ,-14, ,
-2, ,-14, ,
-2, ,-13, ,
-1, ,-14, ,
0, ,-14, ,
0, ,-14, ,
0, ,-14, ,
0, ,-14, ,
0, ,-14, ,
0, ,-14, ,
0, ,-14, ,
0, ,-14, ,
-1, ,-14, ,
-1, ,-14, ,
-1, ,-14, ,
-1, ,-14, ,
0, ,-14, ,
0, ,-14, ,
1, ,-14, ,
1, ,-14, ,
1, ,-14, ,
2, ,-13, ,
2, ,-14, ,
2, ,-14, ,
2, ,-14, ,
2, ,-14, ,
2, ,-14, ,
2, ,-14, ,
2, ,-14, ,
2, ,-14, ,
3, ,-14, ,
3, ,-14, ,
3, ,-14, ,
4, ,-14, ,
5, ,-14, ,
6, ,-14, ,
6, ,-14, ,
6, ,-14, ,
7, ,-14, ,
7, ,-14, ,
7, ,-14, ,
7, ,-14, ,
7, ,-14, ,
7, ,-14, ,
6, ,-14, ,
5, ,-14, ,
5, ,-14, ,
4, ,-14, ,
3, ,-14, ,
2, ,-14, ,
2, ,-14, ,
2, ,-14, ,
1, ,-14, ,
1, ,-14, ,
1, ,-14, ,
1, ,-14, ,
1, ,-14, ,
1, ,-14, ,
1, ,-14, ,
2, ,-14, ,
2, ,-14, ,
2, ,-14, ,
2, ,-14, ,
1, ,-14, ,
0, ,-14, ,
0, ,-14, ,
-1, ,-14, ,
-1, ,-14, ,
-3, ,-14, ,
-3, ,-13, ,
-4, ,-14, ,
-6, ,-14, ,
-7, ,-14, ,
-7, ,-14, ,
-8, ,-14, ,
-9, ,-14, ,
-10, ,-14, ,
-11, ,-13, ,
-11, ,-13, ,
-12, ,-13, ,
-12, ,-13, ,
-11, ,-14, ,
-11, ,-14, ,
-10, ,-14, ,
-9, ,-14, ,
-8, ,-13, ,
-7, ,-14, ,
-5, ,-14, ,
-3, ,-14, ,
-1, ,-14, ,
0, ,-14, ,
2, ,-14, ,
4, ,-14, ,
6, ,-14, ,
7, ,-14, ,
8, ,-13, ,
9, ,-14, ,
9, ,-14, ,
