raw_data/75% Glycerol, Impulsion 2Hz, Sonde 5MHz, Rampe 0.7Hz/temp0000260.CSV

Format,1.0B,
Memory Length,10000,Memory Length,10000,
IntpDistance,0,IntpDistance,0,
Trigger Address,159,Trigger Address,159,
Trigger Level,2.720E-01,Trigger Level,2.720E-01,
Source,CH1,Source,CH2,
Vertical Units,V,Vertical Units,V,
Vertical Units Div,0,Vertical Units Div,0,
Vertical Units Extend Div,16,Vertical Units Extend Div,16,
Label,,Label,,
Probe Type,0,Probe Type,0,
Probe Ratio,1.000e+00,Probe Ratio,1.000e+00,
Vertical Scale,5.000e-01,Vertical Scale,2.000e+00,
Vertical Position,0.000e+00,Vertical Position,0.000e+00,
Horizontal Units,S,Horizontal Units,S,
Horizontal Scale,5.000E-06,Horizontal Scale,5.000E-06,
Horizontal Position,2.420E-05,Horizontal Position,2.420E-05,
Horizontal Mode,Main,Horizontal Mode,Main,
SincET Mode,Real Time,SincET Mode,Real Time,
Sampling Period,5.000e-09,Sampling Period,5.000e-09,
Horizontal Old Scale,5.000E-06,Horizontal Old Scale,5.000E-06,
Horizontal Old Position,2.420E-05,Horizontal Old Position,2.420E-05,
Firmware,V1.32,Firmware,V1.32,
Mode,Fast,Mode,Fast,
Waveform Data,,Waveform Data,,
0, ,5, ,
0, ,5, ,
1, ,5, ,
1, ,5, ,
0, ,5, ,
0, ,5, ,
0, ,5, ,
0, ,5, ,
1, ,5, ,
0, ,5, ,
0, ,5, ,
0, ,5, ,
0, ,5, ,
1, ,5, ,
0, ,5, ,
0, ,5, ,
1, ,5, ,
0, ,5, ,
0, ,5, ,
0, ,5, ,
0, ,5, ,
0, ,5, ,
0, ,5, ,
0, ,5, ,
0, ,5, ,
0, ,5, ,
1, ,5, ,
1, ,5, ,
1, ,5, ,
0, ,5, ,
0, ,5, ,
0, ,5, ,
0, ,5, ,
0, ,5, ,
1, ,5, ,
1, ,5, ,
0, ,5, ,
0, ,5, ,
0, ,5, ,
0, ,5, ,
1, ,5, ,
1, ,5, ,
1, ,5, ,
1, ,5, ,
1, ,5, ,
1, ,5, ,
1, ,5, ,
1, ,5, ,
1, ,5, ,
0, ,5, ,
0, ,5, ,
1, ,5, ,
1, ,5, ,
1, ,5, ,
1, ,5, ,
0, ,5, ,
0, ,5, ,
0, ,5, ,
0, ,5, ,
1, ,5, ,
1, ,5, ,
0, ,5, ,
0, ,5, ,
0, ,5, ,
1, ,5, ,
0, ,5, ,
0, ,5, ,
1, ,5, ,
0, ,5, ,
0, ,5, ,
0, ,5, ,
1, ,5, ,
1, ,5, ,
1, ,5, ,
1, ,5, ,
1, ,5, ,
1, ,5, ,
1, ,5, ,
0, ,5, ,
0, ,5, ,
0, ,5, ,
0, ,5, ,
0, ,5, ,
0, ,5, ,
0, ,5, ,
0, ,5, ,
0, ,5, ,
0, ,5, ,
1, ,5, ,
1, ,5, ,
0, ,5, ,
0, ,5, ,
0, ,5, ,
0, ,5, ,
0, ,5, ,
1, ,5, ,
1, ,5, ,
0, ,5, ,
0, ,5, ,
1, ,5, ,
0, ,5, ,
0, ,5, ,
0, ,5, ,
1, ,5, ,
1, ,5, ,
0, ,5, ,
0, ,5, ,
0, ,5, ,
0, ,5, ,
1, ,5, ,
0, ,5, ,
0, ,5, ,
1, ,5, ,
1, ,5, ,
1, ,5, ,
0, ,5, ,
0, ,5, ,
1, ,5, ,
1, ,5, ,
0, ,5, ,
0, ,5, ,
0, ,5, ,
1, ,5, ,
1, ,5, ,
1, ,5, ,
0, ,5, ,
0, ,5, ,
0, ,5, ,
0, ,5, ,
0, ,5, ,
0, ,5, ,
1, ,5, ,
0, ,5, ,
0, ,5, ,
0, ,5, ,
1, ,5, ,
1, ,5, ,
0, ,5, ,
0, ,5, ,
1, ,5, ,
0, ,5, ,
0, ,5, ,
0, ,5, ,
0, ,5, ,
0, ,5, ,
0, ,5, ,
0, ,5, ,
1, ,5, ,
0, ,5, ,
0, ,5, ,
0, ,5, ,
1, ,5, ,
1, ,5, ,
0, ,5, ,
0, ,5, ,
1, ,5, ,
0, ,5, ,
0, ,5, ,
0, ,5, ,
0, ,5, ,
0, ,5, ,
0, ,5, ,
0, ,5, ,
0, ,5, ,
-1, ,5, ,
0, ,5, ,
-2, ,5, ,
22, ,5, ,
54, ,5, ,
94, ,5, ,
125, ,5, ,
120, ,5, ,
87, ,5, ,
26, ,5, ,
-8, ,5, ,
67, ,5, ,
117, ,5, ,
125, ,5, ,
125, ,5, ,
125, ,5, ,
125, ,5, ,
125, ,5, ,
125, ,5, ,
124, ,5, ,
120, ,5, ,
114, ,5, ,
109, ,5, ,
102, ,5, ,
99, ,5, ,
96, ,5, ,
93, ,5, ,
85, ,5, ,
82, ,5, ,
79, ,5, ,
76, ,5, ,
71, ,5, ,
68, ,5, ,
66, ,5, ,
62, ,5, ,
57, ,5, ,
55, ,5, ,
53, ,5, ,
51, ,5, ,
47, ,5, ,
45, ,5, ,
43, ,5, ,
41, ,5, ,
38, ,5, ,
36, ,5, ,
34, ,5, ,
33, ,5, ,
30, ,5, ,
28, ,5, ,
27, ,5, ,
25, ,5, ,
23, ,5, ,
23, ,5, ,
22, ,5, ,
21, ,5, ,
19, ,5, ,
18, ,5, ,
17, ,5, ,
16, ,5, ,
15, ,5, ,
14, ,5, ,
13, ,5, ,
12, ,5, ,
11, ,5, ,
11, ,5, ,
10, ,5, ,
9, ,5, ,
8, ,5, ,
8, ,5, ,
7, ,5, ,
7, ,5, ,
6, ,5, ,
5, ,5, ,
5, ,5, ,
5, ,5, ,
4, ,5, ,
4, ,5, ,
4, ,5, ,
3, ,5, ,
3, ,5, ,
2, ,5, ,
2, ,5, ,
2, ,5, ,
2, ,5, ,
1, ,5, ,
1, ,5, ,
1, ,5, ,
1, ,5, ,
1, ,5, ,
1, ,5, ,
1, ,5, ,
0, ,5, ,
0, ,5, ,
0, ,5, ,
0, ,5, ,
-1, ,5, ,
-1, ,5, ,
-1, ,5, ,
0, ,5, ,
-1, ,5, ,
-1, ,5, ,
-1, ,5, ,
-1, ,5, ,
-1, ,5, ,
-1, ,5, ,
-1, ,5, ,
-1, ,5, ,
-1, ,5, ,
-1, ,5, ,
-2, ,5, ,
-2, ,5, ,
-1, ,5, ,
-1, ,5, ,
-1, ,5, ,
-1, ,5, ,
-1, ,5, ,
-1, ,5, ,
-1, ,5, ,
-1, ,5, ,
-1, ,5, ,
-1, ,5, ,
-1, ,5, ,
-1, ,5, ,
-2, ,5, ,
-2, ,5, ,
-2, ,5, ,
-1, ,5, ,
-1, ,5, ,
-1, ,5, ,
-1, ,5, ,
-1, ,5, ,
-1, ,5, ,
-1, ,5, ,
-1, ,5, ,
-1, ,5, ,
-1, ,5, ,
-1, ,5, ,
-1, ,5, ,
-1, ,5, ,
-1, ,5, ,
-1, ,5, ,
-1, ,5, ,
-1, ,5, ,
-1, ,5, ,
-1, ,5, ,
-1, ,5, ,
-1, ,5, ,
-1, ,5, ,
-1, ,5, ,
-1, ,5, ,
-1, ,5, ,
-1, ,5, ,
-1, ,5, ,
-1, ,5, ,
-1, ,5, ,
-1, ,5, ,
0, ,5, ,
-1, ,5, ,
-1, ,5, ,
-1, ,5, ,
-1, ,5, ,
-1, ,5, ,
0, ,5, ,
0, ,5, ,
0, ,5, ,
0, ,5, ,
0, ,5, ,
-1, ,5, ,
-1, ,5, ,
0, ,5, ,
0, ,5, ,
0, ,5, ,
0, ,5, ,
0, ,5, ,
0, ,5, ,
0, ,5, ,
0, ,5, ,
0, ,5, ,
0, ,5, ,
0, ,5, ,
0, ,5, ,
0, ,5, ,
0, ,5, ,
0, ,5, ,
0, ,5, ,
0, ,5, ,
0, ,5, ,
0, ,5, ,
0, ,5, ,
0, ,5, ,
0, ,5, ,
0, ,5, ,
0, ,5, ,
0, ,5, ,
0, ,5, ,
0, ,5, ,
0, ,5, ,
0, ,5, ,
0, ,5, ,
0, ,5, ,
0, ,5, ,
0, ,5, ,
0, ,5, ,
0, ,5, ,
0, ,5, ,
0, ,5, ,
0, ,5, ,
0, ,5, ,
0, ,5, ,
0, ,5, ,
0, ,5, ,
0, ,5, ,
0, ,5, ,
0, ,5, ,
0, ,5, ,
0, ,5, ,
0, ,5, ,
0, ,5, ,
0, ,5, ,
0, ,5, ,
0, ,5, ,
0, ,5, ,
0, ,5, ,
0, ,5, ,
0, ,5, ,
0, ,5, ,
0, ,5, ,
0, ,5, ,
0, ,5, ,
0, ,5, ,
0, ,5, ,
0, ,5, ,
0, ,5, ,
0, ,5, ,
0, ,5, ,
0, ,5, ,
0, ,5, ,
0, ,5, ,
0, ,5, ,
0, ,5, ,
0, ,5, ,
0, ,5, ,
0, ,5, ,
0, ,5, ,
0, ,5, ,
0, ,5, ,
0, ,5, ,
0, ,5, ,
0, ,5, ,
0, ,5, ,
0, ,5, ,
0, ,5, ,
0, ,5, ,
0, ,5, ,
0, ,5, ,
0, ,5, ,
0, ,5, ,
0, ,5, ,
0, ,5, ,
0, ,5, ,
0, ,5, ,
0, ,5, ,
1, ,5, ,
0, ,5, ,
0, ,5, ,
0, ,5, ,
0, ,5, ,
0, ,5, ,
0, ,5, ,
0, ,5, ,
0, ,5, ,
0, ,5, ,
-1, ,5, ,
-1, ,5, ,
-2, ,5, ,
-5, ,5, ,
-6, ,5, ,
-9, ,5, ,
-13, ,5, ,
-20, ,5, ,
-23, ,5, ,
-23, ,5, ,
-22, ,5, ,
-16, ,5, ,
-11, ,5, ,
-8, ,5, ,
-5, ,5, ,
-1, ,5, ,
0, ,5, ,
1, ,5, ,
2, ,5, ,
4, ,5, ,
4, ,5, ,
4, ,5, ,
5, ,5, ,
4, ,5, ,
4, ,5, ,
4, ,5, ,
3, ,5, ,
3, ,5, ,
3, ,5, ,
2, ,5, ,
2, ,5, ,
3, ,5, ,
3, ,5, ,
3, ,5, ,
3, ,5, ,
4, ,5, ,
4, ,5, ,
4, ,5, ,
4, ,5, ,
4, ,5, ,
4, ,5, ,
4, ,5, ,
4, ,5, ,
3, ,5, ,
3, ,5, ,
3, ,5, ,
3, ,5, ,
3, ,5, ,
2, ,5, ,
2, ,5, ,
2, ,5, ,
2, ,5, ,
2, ,5, ,
2, ,5, ,
2, ,5, ,
2, ,5, ,
2, ,5, ,
2, ,5, ,
2, ,5, ,
2, ,5, ,
2, ,5, ,
2, ,5, ,
2, ,5, ,
1, ,5, ,
1, ,5, ,
1, ,5, ,
1, ,5, ,
1, ,5, ,
1, ,5, ,
1, ,5, ,
1, ,5, ,
1, ,5, ,
1, ,5, ,
1, ,5, ,
1, ,5, ,
1, ,5, ,
2, ,5, ,
1, ,5, ,
1, ,5, ,
0, ,5, ,
0, ,5, ,
-1, ,5, ,
-1, ,5, ,
-3, ,5, ,
-3, ,5, ,
-5, ,5, ,
-7, ,5, ,
-10, ,5, ,
-12, ,5, ,
-13, ,5, ,
-14, ,5, ,
-14, ,5, ,
-14, ,5, ,
-14, ,5, ,
-13, ,5, ,
-11, ,5, ,
-10, ,5, ,
-9, ,5, ,
-9, ,5, ,
-7, ,5, ,
-8, ,5, ,
-8, ,5, ,
-9, ,5, ,
-11, ,5, ,
-13, ,5, ,
-14, ,5, ,
-18, ,5, ,
-23, ,5, ,
-25, ,5, ,
-28, ,5, ,
-29, ,5, ,
-31, ,5, ,
-31, ,5, ,
-30, ,5, ,
-30, ,5, ,
-30, ,5, ,
-30, ,5, ,
-30, ,5, ,
-30, ,5, ,
-31, ,5, ,
-31, ,5, ,
-32, ,5, ,
-32, ,5, ,
-32, ,5, ,
-32, ,5, ,
-31, ,5, ,
-29, ,5, ,
-26, ,5, ,
-24, ,5, ,
-21, ,5, ,
-17, ,5, ,
-11, ,5, ,
-7, ,5, ,
-4, ,5, ,
0, ,5, ,
4, ,5, ,
6, ,5, ,
7, ,5, ,
7, ,5, ,
6, ,5, ,
6, ,5, ,
4, ,5, ,
3, ,5, ,
0, ,5, ,
-1, ,5, ,
-3, ,5, ,
-4, ,5, ,
-6, ,5, ,
-6, ,5, ,
-6, ,5, ,
-5, ,5, ,
-4, ,5, ,
-4, ,5, ,
-3, ,5, ,
-2, ,5, ,
0, ,5, ,
2, ,5, ,
2, ,5, ,
4, ,5, ,
6, ,5, ,
7, ,5, ,
9, ,5, ,
9, ,5, ,
10, ,5, ,
10, ,5, ,
11, ,5, ,
11, ,5, ,
11, ,5, ,
11, ,5, ,
11, ,5, ,
10, ,5, ,
9, ,5, ,
7, ,5, ,
6, ,5, ,
4, ,5, ,
-1, ,5, ,
-3, ,5, ,
-6, ,5, ,
-9, ,5, ,
-14, ,5, ,
-16, ,5, ,
-18, ,5, ,
-20, ,5, ,
-20, ,5, ,
-20, ,5, ,
-19, ,5, ,
-18, ,5, ,
-14, ,5, ,
-11, ,5, ,
-10, ,5, ,
-6, ,5, ,
0, ,5, ,
3, ,5, ,
6, ,5, ,
8, ,5, ,
12, ,5, ,
14, ,5, ,
15, ,5, ,
16, ,5, ,
15, ,5, ,
14, ,5, ,
13, ,5, ,
12, ,5, ,
7, ,5, ,
5, ,5, ,
2, ,5, ,
-1, ,5, ,
-7, ,5, ,
-10, ,5, ,
-12, ,5, ,
-16, ,5, ,
-21, ,5, ,
-22, ,5, ,
-24, ,5, ,
-24, ,5, ,
-25, ,5, ,
-25, ,5, ,
-25, ,5, ,
-25, ,5, ,
-23, ,5, ,
-22, ,5, ,
-20, ,5, ,
-19, ,5, ,
-15, ,5, ,
-14, ,5, ,
-12, ,5, ,
-11, ,5, ,
-8, ,5, ,
-8, ,5, ,
-8, ,5, ,
-9, ,5, ,
-10, ,5, ,
-11, ,5, ,
-12, ,5, ,
-12, ,5, ,
-14, ,5, ,
-14, ,5, ,
-14, ,5, ,
-14, ,5, ,
-13, ,5, ,
-13, ,5, ,
-12, ,5, ,
-12, ,5, ,
-10, ,5, ,
-9, ,5, ,
-9, ,5, ,
-9, ,5, ,
-10, ,5, ,
-10, ,5, ,
-10, ,5, ,
-10, ,5, ,
-10, ,5, ,
-10, ,5, ,
-10, ,5, ,
-10, ,5, ,
-8, ,5, ,
-8, ,5, ,
-5, ,5, ,
-4, ,5, ,
-1, ,5, ,
0, ,5, ,
1, ,5, ,
3, ,5, ,
4, ,5, ,
4, ,5, ,
3, ,5, ,
3, ,5, ,
2, ,5, ,
1, ,5, ,
0, ,5, ,
-2, ,5, ,
-5, ,5, ,
-6, ,5, ,
-8, ,5, ,
-9, ,5, ,
-11, ,5, ,
-11, ,5, ,
-11, ,5, ,
-10, ,5, ,
-10, ,5, ,
-9, ,5, ,
-7, ,5, ,
-7, ,5, ,
-4, ,5, ,
-2, ,5, ,
-2, ,5, ,
-1, ,5, ,
3, ,5, ,
3, ,5, ,
4, ,5, ,
5, ,5, ,
7, ,5, ,
8, ,5, ,
9, ,5, ,
10, ,5, ,
12, ,5, ,
13, ,5, ,
14, ,5, ,
14, ,5, ,
15, ,5, ,
16, ,5, ,
15, ,5, ,
15, ,5, ,
15, ,5, ,
13, ,5, ,
13, ,5, ,
11, ,5, ,
8, ,5, ,
6, ,5, ,
4, ,5, ,
3, ,5, ,
-2, ,5, ,
-4, ,5, ,
-5, ,5, ,
-7, ,5, ,
-10, ,5, ,
-11, ,5, ,
-12, ,5, ,
-13, ,5, ,
-14, ,5, ,
-15, ,5, ,
-15, ,5, ,
-15, ,5, ,
-15, ,5, ,
-15, ,5, ,
-15, ,5, ,
-15, ,5, ,
-14, ,5, ,
-15, ,5, ,
-13, ,5, ,
-13, ,5, ,
-12, ,5, ,
-11, ,5, ,
-11, ,5, ,
-10, ,5, ,
-9, ,5, ,
-8, ,5, ,
-7, ,5, ,
-8, ,5, ,
-8, ,5, ,
-8, ,5, ,
-9, ,5, ,
-9, ,5, ,
-10, ,5, ,
-12, ,5, ,
-12, ,5, ,
-14, ,5, ,
-17, ,5, ,
-18, ,5, ,
-19, ,5, ,
-20, ,5, ,
-22, ,5, ,
-24, ,5, ,
-24, ,5, ,
-24, ,5, ,
-24, ,5, ,
-24, ,5, ,
-24, ,5, ,
-23, ,5, ,
-22, ,5, ,
-21, ,5, ,
-19, ,5, ,
-19, ,5, ,
-16, ,5, ,
-14, ,5, ,
-13, ,5, ,
-12, ,5, ,
-11, ,5, ,
-10, ,5, ,
-9, ,5, ,
-8, ,5, ,
-7, ,5, ,
-6, ,5, ,
-6, ,5, ,
-5, ,5, ,
-3, ,5, ,
-3, ,5, ,
-2, ,5, ,
-1, ,5, ,
1, ,5, ,
2, ,5, ,
2, ,5, ,
3, ,5, ,
6, ,5, ,
6, ,5, ,
8, ,5, ,
8, ,5, ,
10, ,5, ,
11, ,5, ,
11, ,5, ,
11, ,5, ,
11, ,5, ,
10, ,5, ,
9, ,5, ,
8, ,5, ,
4, ,5, ,
3, ,5, ,
0, ,5, ,
-2, ,5, ,
-7, ,5, ,
-10, ,5, ,
-12, ,5, ,
-14, ,5, ,
-18, ,5, ,
-19, ,5, ,
-20, ,5, ,
-20, ,5, ,
-19, ,5, ,
-18, ,5, ,
-15, ,5, ,
-15, ,5, ,
-10, ,5, ,
-7, ,5, ,
-4, ,5, ,
-1, ,5, ,
6, ,5, ,
9, ,5, ,
12, ,5, ,
14, ,5, ,
20, ,5, ,
22, ,5, ,
24, ,5, ,
26, ,5, ,
27, ,5, ,
27, ,5, ,
28, ,5, ,
27, ,5, ,
26, ,5, ,
25, ,5, ,
25, ,5, ,
23, ,5, ,
19, ,5, ,
17, ,5, ,
15, ,5, ,
12, ,5, ,
7, ,5, ,
5, ,5, ,
1, ,5, ,
-1, ,5, ,
-7, ,5, ,
-10, ,5, ,
-12, ,5, ,
-15, ,5, ,
-20, ,5, ,
-22, ,5, ,
-25, ,5, ,
-25, ,5, ,
-28, ,5, ,
-31, ,5, ,
-32, ,5, ,
-32, ,5, ,
-32, ,5, ,
-32, ,5, ,
-32, ,5, ,
-31, ,5, ,
-29, ,5, ,
-27, ,5, ,
-25, ,5, ,
-25, ,5, ,
-20, ,5, ,
-17, ,5, ,
-15, ,5, ,
-13, ,5, ,
-9, ,5, ,
-7, ,5, ,
-6, ,5, ,
-5, ,5, ,
-4, ,5, ,
-3, ,5, ,
-4, ,5, ,
-4, ,5, ,
-6, ,5, ,
-7, ,5, ,
-7, ,5, ,
-8, ,5, ,
-9, ,5, ,
-10, ,5, ,
-10, ,5, ,
-10, ,5, ,
-10, ,5, ,
-10, ,5, ,
-10, ,5, ,
-10, ,5, ,
-9, ,5, ,
-9, ,5, ,
-8, ,5, ,
-9, ,5, ,
-9, ,5, ,
-9, ,5, ,
-9, ,5, ,
-10, ,5, ,
-11, ,5, ,
-11, ,5, ,
-12, ,5, ,
-13, ,5, ,
-14, ,5, ,
-14, ,5, ,
-13, ,5, ,
-13, ,5, ,
-12, ,5, ,
-11, ,5, ,
-11, ,5, ,
-9, ,5, ,
-7, ,5, ,
-5, ,5, ,
-3, ,5, ,
-2, ,5, ,
1, ,5, ,
3, ,5, ,
3, ,5, ,
4, ,5, ,
6, ,5, ,
7, ,5, ,
8, ,5, ,
8, ,5, ,
8, ,5, ,
9, ,5, ,
9, ,5, ,
9, ,5, ,
9, ,5, ,
9, ,5, ,
9, ,5, ,
9, ,5, ,
9, ,5, ,
9, ,5, ,
8, ,5, ,
8, ,5, ,
8, ,5, ,
7, ,5, ,
7, ,5, ,
5, ,5, ,
4, ,5, ,
2, ,5, ,
1, ,5, ,
0, ,5, ,
-3, ,5, ,
-3, ,5, ,
-4, ,5, ,
-5, ,5, ,
-7, ,5, ,
-7, ,5, ,
-7, ,5, ,
-6, ,5, ,
-6, ,5, ,
-6, ,5, ,
-5, ,5, ,
-5, ,5, ,
-3, ,5, ,
-3, ,5, ,
-3, ,5, ,
-2, ,5, ,
-2, ,5, ,
-2, ,5, ,
-2, ,5, ,
-2, ,5, ,
-3, ,5, ,
-3, ,5, ,
-4, ,5, ,
-4, ,5, ,
-5, ,5, ,
-5, ,5, ,
-5, ,5, ,
-5, ,5, ,
-6, ,5, ,
-5, ,5, ,
-5, ,5, ,
-5, ,5, ,
-5, ,5, ,
-5, ,5, ,
-6, ,5, ,
-6, ,5, ,
-6, ,5, ,
-6, ,5, ,
-6, ,5, ,
-6, ,5, ,
-7, ,5, ,
-7, ,5, ,
-6, ,5, ,
-6, ,5, ,
-5, ,5, ,
-5, ,5, ,
-4, ,5, ,
-3, ,5, ,
-1, ,5, ,
-1, ,5, ,
0, ,5, ,
0, ,5, ,
2, ,5, ,
2, ,5, ,
3, ,5, ,
3, ,5, ,
4, ,5, ,
3, ,5, ,
3, ,5, ,
3, ,5, ,
3, ,5, ,
2, ,5, ,
2, ,5, ,
3, ,5, ,
3, ,5, ,
2, ,5, ,
2, ,5, ,
2, ,5, ,
1, ,5, ,
1, ,5, ,
0, ,5, ,
0, ,5, ,
-1, ,5, ,
-2, ,5, ,
-3, ,5, ,
-4, ,5, ,
-5, ,5, ,
-5, ,5, ,
-6, ,5, ,
-6, ,5, ,
-7, ,5, ,
-7, ,5, ,
-7, ,5, ,
-7, ,5, ,
-6, ,5, ,
-4, ,5, ,
-4, ,5, ,
-3, ,5, ,
-1, ,5, ,
0, ,5, ,
2, ,5, ,
2, ,5, ,
4, ,5, ,
5, ,5, ,
6, ,5, ,
6, ,5, ,
7, ,5, ,
6, ,5, ,
6, ,5, ,
5, ,5, ,
3, ,5, ,
3, ,5, ,
2, ,5, ,
1, ,5, ,
0, ,5, ,
-2, ,5, ,
-2, ,5, ,
-4, ,5, ,
-5, ,5, ,
-6, ,5, ,
-7, ,5, ,
-8, ,5, ,
-9, ,5, ,
-10, ,5, ,
-10, ,5, ,
-10, ,5, ,
-10, ,5, ,
-10, ,5, ,
-9, ,5, ,
-9, ,5, ,
-7, ,5, ,
-7, ,5, ,
-5, ,5, ,
-4, ,5, ,
-1, ,5, ,
1, ,5, ,
3, ,5, ,
4, ,5, ,
6, ,5, ,
7, ,5, ,
8, ,5, ,
8, ,5, ,
7, ,5, ,
7, ,5, ,
6, ,5, ,
5, ,5, ,
4, ,5, ,
2, ,5, ,
1, ,5, ,
1, ,5, ,
-2, ,5, ,
-2, ,5, ,
-3, ,5, ,
-3, ,5, ,
-5, ,5, ,
-5, ,5, ,
-5, ,5, ,
-6, ,5, ,
-6, ,5, ,
-6, ,5, ,
-6, ,5, ,
-6, ,5, ,
-6, ,5, ,
-6, ,5, ,
-6, ,5, ,
-6, ,5, ,
-5, ,5, ,
-5, ,5, ,
-5, ,5, ,
-4, ,5, ,
-3, ,5, ,
-2, ,5, ,
-1, ,5, ,
-1, ,5, ,
1, ,5, ,
1, ,5, ,
2, ,5, ,
2, ,5, ,
4, ,5, ,
4, ,5, ,
4, ,5, ,
4, ,5, ,
4, ,5, ,
4, ,5, ,
4, ,5, ,
4, ,5, ,
4, ,5, ,
3, ,5, ,
3, ,5, ,
2, ,5, ,
1, ,5, ,
1, ,5, ,
0, ,5, ,
0, ,5, ,
-2, ,5, ,
-3, ,5, ,
-4, ,5, ,
-4, ,5, ,
-6, ,5, ,
-6, ,5, ,
-6, ,5, ,
-6, ,5, ,
-6, ,5, ,
-6, ,5, ,
-5, ,5, ,
-5, ,5, ,
-4, ,5, ,
-3, ,5, ,
-2, ,5, ,
-2, ,5, ,
0, ,5, ,
0, ,5, ,
1, ,5, ,
2, ,5, ,
3, ,5, ,
3, ,5, ,
3, ,5, ,
4, ,5, ,
3, ,5, ,
3, ,5, ,
3, ,5, ,
2, ,5, ,
1, ,5, ,
1, ,5, ,
0, ,5, ,
0, ,5, ,
-2, ,5, ,
-2, ,5, ,
-3, ,5, ,
-4, ,5, ,
-5, ,5, ,
-6, ,5, ,
-6, ,5, ,
-7, ,5, ,
-7, ,5, ,
-7, ,5, ,
-7, ,5, ,
-7, ,5, ,
-6, ,5, ,
-6, ,5, ,
-6, ,5, ,
-5, ,5, ,
-5, ,5, ,
-4, ,5, ,
-4, ,5, ,
-4, ,5, ,
-4, ,5, ,
-4, ,5, ,
-5, ,5, ,
-5, ,5, ,
-5, ,5, ,
-5, ,5, ,
-5, ,5, ,
-6, ,5, ,
-6, ,5, ,
-5, ,5, ,
-5, ,5, ,
-5, ,5, ,
-3, ,5, ,
-3, ,5, ,
-1, ,5, ,
-1, ,5, ,
2, ,5, ,
3, ,5, ,
3, ,5, ,
5, ,5, ,
7, ,5, ,
7, ,5, ,
8, ,5, ,
8, ,5, ,
8, ,5, ,
7, ,5, ,
7, ,5, ,
6, ,5, ,
5, ,5, ,
4, ,5, ,
4, ,5, ,
2, ,5, ,
0, ,5, ,
-1, ,5, ,
-2, ,5, ,
-3, ,5, ,
-5, ,5, ,
-6, ,5, ,
-7, ,5, ,
-7, ,5, ,
-9, ,5, ,
-9, ,5, ,
-10, ,5, ,
-10, ,5, ,
-10, ,5, ,
-11, ,5, ,
-11, ,5, ,
-12, ,5, ,
-10, ,5, ,
-10, ,5, ,
-9, ,5, ,
-8, ,5, ,
-7, ,5, ,
-6, ,5, ,
-5, ,5, ,
-5, ,5, ,
-5, ,5, ,
-4, ,5, ,
-5, ,5, ,
-5, ,5, ,
-6, ,5, ,
-7, ,5, ,
-7, ,5, ,
-9, ,5, ,
-10, ,5, ,
-10, ,5, ,
-11, ,5, ,
-11, ,5, ,
-11, ,5, ,
-11, ,5, ,
-10, ,5, ,
-10, ,5, ,
-8, ,5, ,
-6, ,5, ,
-5, ,5, ,
-3, ,5, ,
0, ,5, ,
2, ,5, ,
3, ,5, ,
5, ,5, ,
8, ,5, ,
8, ,5, ,
10, ,5, ,
11, ,5, ,
11, ,5, ,
11, ,5, ,
12, ,5, ,
12, ,5, ,
11, ,5, ,
11, ,5, ,
10, ,5, ,
9, ,5, ,
8, ,5, ,
7, ,5, ,
6, ,5, ,
5, ,5, ,
3, ,5, ,
2, ,5, ,
1, ,5, ,
1, ,5, ,
-1, ,5, ,
-2, ,5, ,
-2, ,5, ,
-3, ,5, ,
-4, ,5, ,
-4, ,5, ,
-4, ,5, ,
-4, ,5, ,
-4, ,5, ,
-5, ,5, ,
-4, ,5, ,
-4, ,5, ,
-4, ,5, ,
-4, ,5, ,
-4, ,5, ,
-4, ,5, ,
-3, ,5, ,
-3, ,5, ,
-3, ,5, ,
-3, ,5, ,
-2, ,5, ,
-1, ,5, ,
-1, ,5, ,
0, ,5, ,
2, ,5, ,
3, ,5, ,
4, ,5, ,
5, ,5, ,
7, ,5, ,
8, ,5, ,
8, ,5, ,
10, ,5, ,
10, ,5, ,
10, ,5, ,
10, ,5, ,
9, ,5, ,
7, ,5, ,
6, ,5, ,
5, ,5, ,
4, ,5, ,
2, ,5, ,
0, ,5, ,
-2, ,5, ,
-3, ,5, ,
-6, ,5, ,
-6, ,5, ,
-7, ,5, ,
-7, ,5, ,
-9, ,5, ,
-9, ,5, ,
-9, ,5, ,
-9, ,5, ,
-9, ,5, ,
-9, ,5, ,
-9, ,5, ,
-8, ,5, ,
-7, ,5, ,
-7, ,5, ,
-7, ,5, ,
-6, ,5, ,
-4, ,5, ,
-3, ,5, ,
-3, ,5, ,
-1, ,5, ,
0, ,5, ,
0, ,5, ,
1, ,5, ,
1, ,5, ,
2, ,5, ,
3, ,5, ,
3, ,5, ,
3, ,5, ,
3, ,5, ,
2, ,5, ,
2, ,5, ,
2, ,5, ,
2, ,5, ,
2, ,5, ,
2, ,5, ,
2, ,5, ,
3, ,5, ,
3, ,5, ,
3, ,5, ,
3, ,5, ,
4, ,5, ,
4, ,5, ,
4, ,5, ,
5, ,5, ,
6, ,5, ,
6, ,5, ,
6, ,5, ,
6, ,5, ,
5, ,5, ,
5, ,5, ,
5, ,5, ,
5, ,5, ,
3, ,5, ,
2, ,5, ,
1, ,5, ,
0, ,5, ,
-2, ,5, ,
-2, ,5, ,
-3, ,5, ,
-3, ,5, ,
-4, ,5, ,
-4, ,5, ,
-4, ,5, ,
-4, ,5, ,
-4, ,5, ,
-3, ,5, ,
-3, ,5, ,
-2, ,5, ,
-2, ,5, ,
-2, ,5, ,
-2, ,5, ,
-2, ,5, ,
-2, ,5, ,
-2, ,5, ,
-3, ,5, ,
-3, ,5, ,
-4, ,5, ,
-5, ,5, ,
-5, ,5, ,
-6, ,5, ,
-7, ,5, ,
-7, ,5, ,
-8, ,5, ,
-8, ,5, ,
-8, ,5, ,
-8, ,5, ,
-7, ,5, ,
-7, ,5, ,
-5, ,5, ,
-4, ,5, ,
-4, ,5, ,
-2, ,5, ,
0, ,5, ,
1, ,5, ,
2, ,5, ,
3, ,5, ,
4, ,5, ,
5, ,5, ,
5, ,5, ,
5, ,5, ,
6, ,5, ,
6, ,5, ,
6, ,5, ,
5, ,5, ,
5, ,5, ,
5, ,5, ,
5, ,5, ,
4, ,5, ,
4, ,5, ,
3, ,5, ,
3, ,5, ,
3, ,5, ,
2, ,5, ,
2, ,5, ,
2, ,5, ,
2, ,5, ,
1, ,5, ,
1, ,4, ,
1, ,4, ,
0, ,5, ,
0, ,5, ,
0, ,5, ,
-1, ,5, ,
-1, ,5, ,
-1, ,5, ,
-1, ,5, ,
-1, ,5, ,
-1, ,5, ,
-1, ,5, ,
-1, ,5, ,
-1, ,5, ,
-1, ,5, ,
0, ,5, ,
0, ,5, ,
0, ,5, ,
0, ,5, ,
0, ,5, ,
0, ,5, ,
0, ,5, ,
0, ,5, ,
-1, ,5, ,
-1, ,5, ,
-1, ,5, ,
-2, ,5, ,
-2, ,5, ,
-3, ,5, ,
-3, ,5, ,
-3, ,5, ,
-3, ,5, ,
-3, ,5, ,
-3, ,5, ,
-3, ,5, ,
-3, ,5, ,
-3, ,5, ,
-2, ,5, ,
-1, ,5, ,
-1, ,5, ,
-1, ,5, ,
0, ,5, ,
1, ,5, ,
2, ,5, ,
2, ,5, ,
2, ,5, ,
3, ,5, ,
3, ,5, ,
3, ,5, ,
3, ,5, ,
2, ,5, ,
2, ,5, ,
1, ,5, ,
1, ,5, ,
1, ,5, ,
0, ,5, ,
0, ,5, ,
0, ,5, ,
0, ,5, ,
0, ,5, ,
1, ,5, ,
1, ,5, ,
1, ,5, ,
2, ,5, ,
3, ,5, ,
3, ,5, ,
3, ,5, ,
5, ,5, ,
5, ,5, ,
6, ,5, ,
6, ,5, ,
6, ,5, ,
5, ,5, ,
5, ,5, ,
5, ,5, ,
4, ,5, ,
4, ,5, ,
4, ,5, ,
4, ,5, ,
4, ,5, ,
4, ,5, ,
4, ,5, ,
4, ,5, ,
3, ,5, ,
3, ,5, ,
3, ,5, ,
2, ,5, ,
1, ,5, ,
1, ,5, ,
0, ,5, ,
-1, ,5, ,
-3, ,5, ,
-3, ,5, ,
-5, ,5, ,
-6, ,5, ,
-8, ,5, ,
-8, ,5, ,
-9, ,5, ,
-9, ,5, ,
-9, ,5, ,
-9, ,5, ,
-9, ,5, ,
-8, ,5, ,
-7, ,5, ,
-6, ,5, ,
-5, ,5, ,
-4, ,5, ,
-2, ,5, ,
0, ,5, ,
0, ,5, ,
2, ,5, ,
3, ,5, ,
4, ,5, ,
5, ,5, ,
5, ,5, ,
5, ,5, ,
6, ,5, ,
6, ,5, ,
6, ,5, ,
6, ,5, ,
6, ,5, ,
5, ,5, ,
5, ,5, ,
4, ,5, ,
4, ,5, ,
4, ,5, ,
4, ,5, ,
2, ,5, ,
2, ,5, ,
2, ,5, ,
1, ,5, ,
1, ,5, ,
1, ,5, ,
0, ,5, ,
0, ,5, ,
0, ,5, ,
0, ,5, ,
0, ,5, ,
0, ,5, ,
0, ,5, ,
0, ,5, ,
0, ,5, ,
0, ,5, ,
0, ,5, ,
0, ,5, ,
-1, ,5, ,
-1, ,5, ,
-2, ,5, ,
-3, ,5, ,
-4, ,5, ,
-4, ,5, ,
-5, ,5, ,
-6, ,5, ,
-6, ,5, ,
-6, ,5, ,
-6, ,5, ,
-6, ,5, ,
-5, ,5, ,
-5, ,5, ,
-4, ,5, ,
-3, ,5, ,
-2, ,5, ,
-2, ,5, ,
1, ,5, ,
2, ,5, ,
3, ,5, ,
4, ,5, ,
6, ,5, ,
6, ,5, ,
7, ,5, ,
7, ,5, ,
6, ,5, ,
6, ,5, ,
5, ,5, ,
5, ,5, ,
2, ,5, ,
1, ,5, ,
-1, ,5, ,
-3, ,5, ,
-6, ,5, ,
-8, ,5, ,
-10, ,5, ,
-11, ,5, ,
-14, ,5, ,
-14, ,5, ,
-15, ,5, ,
-15, ,5, ,
-14, ,5, ,
-13, ,5, ,
-12, ,5, ,
-10, ,5, ,
-7, ,5, ,
-5, ,5, ,
-2, ,5, ,
0, ,5, ,
4, ,5, ,
7, ,5, ,
9, ,5, ,
11, ,5, ,
14, ,5, ,
15, ,5, ,
15, ,5, ,
15, ,5, ,
15, ,5, ,
15, ,5, ,
14, ,5, ,
14, ,5, ,
12, ,5, ,
10, ,5, ,
9, ,5, ,
8, ,5, ,
5, ,5, ,
4, ,5, ,
2, ,5, ,
1, ,5, ,
-1, ,5, ,
-2, ,5, ,
-3, ,5, ,
-4, ,5, ,
-5, ,5, ,
-5, ,5, ,
-6, ,5, ,
-6, ,5, ,
-6, ,5, ,
-6, ,5, ,
-6, ,5, ,
-6, ,5, ,
-5, ,5, ,
-5, ,5, ,
-5, ,5, ,
-5, ,5, ,
-5, ,5, ,
-5, ,5, ,
-5, ,5, ,
-5, ,5, ,
-5, ,5, ,
-5, ,5, ,
-5, ,5, ,
-5, ,5, ,
-4, ,5, ,
-4, ,5, ,
-3, ,5, ,
-3, ,5, ,
-1, ,5, ,
0, ,5, ,
0, ,5, ,
1, ,5, ,
3, ,5, ,
4, ,5, ,
4, ,5, ,
5, ,5, ,
5, ,5, ,
5, ,5, ,
5, ,5, ,
5, ,5, ,
4, ,5, ,
3, ,5, ,
2, ,5, ,
1, ,5, ,
0, ,5, ,
0, ,5, ,
-2, ,5, ,
-2, ,5, ,
-3, ,5, ,
-4, ,5, ,
-4, ,5, ,
-4, ,5, ,
-4, ,5, ,
-4, ,5, ,
-3, ,5, ,
-3, ,5, ,
-3, ,5, ,
-3, ,5, ,
-2, ,5, ,
-2, ,5, ,
-1, ,5, ,
0, ,5, ,
0, ,5, ,
0, ,5, ,
2, ,5, ,
1, ,5, ,
3, ,5, ,
3, ,5, ,
4, ,5, ,
4, ,5, ,
4, ,5, ,
5, ,5, ,
6, ,5, ,
6, ,5, ,
6, ,5, ,
6, ,5, ,
7, ,5, ,
7, ,5, ,
7, ,5, ,
7, ,5, ,
7, ,5, ,
6, ,5, ,
6, ,5, ,
5, ,5, ,
4, ,5, ,
4, ,5, ,
2, ,5, ,
2, ,5, ,
0, ,5, ,
-2, ,5, ,
-2, ,5, ,
-3, ,5, ,
-5, ,5, ,
-5, ,5, ,
-7, ,5, ,
-7, ,5, ,
-8, ,5, ,
-9, ,5, ,
-9, ,5, ,
-9, ,5, ,
-9, ,5, ,
-9, ,5, ,
-8, ,5, ,
-7, ,5, ,
-6, ,5, ,
-5, ,5, ,
-4, ,5, ,
-4, ,5, ,
-2, ,5, ,
-1, ,5, ,
-1, ,5, ,
0, ,5, ,
2, ,5, ,
3, ,5, ,
3, ,5, ,
3, ,5, ,
4, ,5, ,
5, ,5, ,
4, ,5, ,
4, ,5, ,
4, ,5, ,
3, ,5, ,
3, ,5, ,
2, ,5, ,
1, ,5, ,
1, ,5, ,
0, ,5, ,
0, ,5, ,
0, ,5, ,
0, ,5, ,
0, ,5, ,
0, ,5, ,
0, ,5, ,
0, ,5, ,
0, ,5, ,
0, ,5, ,
0, ,5, ,
1, ,5, ,
1, ,5, ,
1, ,5, ,
3, ,5, ,
4, ,5, ,
3, ,5, ,
5, ,5, ,
5, ,5, ,
6, ,5, ,
7, ,5, ,
7, ,5, ,
8, ,5, ,
8, ,5, ,
8, ,5, ,
8, ,5, ,
8, ,5, ,
7, ,5, ,
7, ,5, ,
7, ,5, ,
6, ,5, ,
6, ,5, ,
5, ,5, ,
5, ,5, ,
4, ,5, ,
3, ,5, ,
3, ,5, ,
2, ,5, ,
0, ,5, ,
-1, ,5, ,
-2, ,5, ,
-2, ,5, ,
-4, ,5, ,
-5, ,5, ,
-6, ,5, ,
-7, ,5, ,
-9, ,5, ,
-9, ,5, ,
-10, ,5, ,
-11, ,5, ,
-12, ,5, ,
-12, ,5, ,
-12, ,5, ,
-12, ,5, ,
-12, ,5, ,
-10, ,5, ,
-10, ,5, ,
-9, ,5, ,
-6, ,5, ,
-5, ,5, ,
-2, ,5, ,
-1, ,5, ,
3, ,5, ,
5, ,5, ,
7, ,5, ,
9, ,5, ,
12, ,5, ,
14, ,5, ,
15, ,5, ,
16, ,5, ,
18, ,5, ,
18, ,5, ,
18, ,5, ,
18, ,5, ,
17, ,5, ,
16, ,5, ,
16, ,5, ,
14, ,5, ,
12, ,5, ,
10, ,5, ,
8, ,5, ,
7, ,5, ,
3, ,5, ,
1, ,5, ,
-1, ,5, ,
-3, ,5, ,
-6, ,5, ,
-8, ,5, ,
-9, ,5, ,
-10, ,5, ,
-12, ,5, ,
-12, ,5, ,
-12, ,5, ,
-12, ,5, ,
-11, ,5, ,
-11, ,5, ,
-10, ,5, ,
-9, ,5, ,
-7, ,5, ,
-6, ,5, ,
-5, ,5, ,
-4, ,5, ,
-2, ,5, ,
-1, ,5, ,
0, ,5, ,
1, ,5, ,
2, ,5, ,
2, ,5, ,
3, ,5, ,
3, ,5, ,
3, ,5, ,
2, ,5, ,
2, ,5, ,
2, ,5, ,
1, ,5, ,
1, ,5, ,
1, ,5, ,
1, ,5, ,
1, ,5, ,
1, ,5, ,
1, ,5, ,
1, ,5, ,
2, ,5, ,
2, ,5, ,
3, ,5, ,
3, ,5, ,
4, ,5, ,
4, ,5, ,
4, ,5, ,
4, ,5, ,
4, ,5, ,
4, ,5, ,
4, ,5, ,
4, ,5, ,
3, ,5, ,
2, ,5, ,
2, ,5, ,
2, ,5, ,
0, ,5, ,
0, ,5, ,
0, ,5, ,
-1, ,5, ,
-1, ,5, ,
-2, ,5, ,
-2, ,5, ,
-2, ,5, ,
-3, ,5, ,
-3, ,5, ,
-3, ,5, ,
-3, ,5, ,
-4, ,5, ,
-4, ,5, ,
-4, ,5, ,
