raw_data/75% Glycerol, Impulsion 2Hz, Sonde 5MHz, Rampe 0.7Hz/temp0000043.CSV

Format,1.0B,
Memory Length,10000,Memory Length,10000,
IntpDistance,0,IntpDistance,0,
Trigger Address,159,Trigger Address,159,
Trigger Level,2.720E-01,Trigger Level,2.720E-01,
Source,CH1,Source,CH2,
Vertical Units,V,Vertical Units,V,
Vertical Units Div,0,Vertical Units Div,0,
Vertical Units Extend Div,16,Vertical Units Extend Div,16,
Label,,Label,,
Probe Type,0,Probe Type,0,
Probe Ratio,1.000e+00,Probe Ratio,1.000e+00,
Vertical Scale,5.000e-01,Vertical Scale,2.000e+00,
Vertical Position,0.000e+00,Vertical Position,0.000e+00,
Horizontal Units,S,Horizontal Units,S,
Horizontal Scale,5.000E-06,Horizontal Scale,5.000E-06,
Horizontal Position,2.420E-05,Horizontal Position,2.420E-05,
Horizontal Mode,Main,Horizontal Mode,Main,
SincET Mode,Real Time,SincET Mode,Real Time,
Sampling Period,5.000e-09,Sampling Period,5.000e-09,
Horizontal Old Scale,5.000E-06,Horizontal Old Scale,5.000E-06,
Horizontal Old Position,2.420E-05,Horizontal Old Position,2.420E-05,
Firmware,V1.32,Firmware,V1.32,
Mode,Fast,Mode,Fast,
Waveform Data,,Waveform Data,,
0, ,17, ,
0, ,17, ,
0, ,17, ,
0, ,17, ,
1, ,17, ,
0, ,17, ,
0, ,17, ,
1, ,17, ,
1, ,17, ,
1, ,17, ,
0, ,17, ,
0, ,17, ,
1, ,17, ,
1, ,17, ,
0, ,17, ,
0, ,17, ,
0, ,17, ,
1, ,17, ,
1, ,17, ,
1, ,17, ,
1, ,17, ,
1, ,17, ,
1, ,17, ,
1, ,17, ,
1, ,17, ,
1, ,17, ,
1, ,17, ,
1, ,17, ,
1, ,17, ,
1, ,17, ,
1, ,17, ,
1, ,17, ,
0, ,17, ,
1, ,17, ,
1, ,17, ,
0, ,17, ,
1, ,17, ,
0, ,17, ,
0, ,17, ,
0, ,17, ,
0, ,17, ,
1, ,17, ,
1, ,17, ,
0, ,17, ,
0, ,17, ,
0, ,17, ,
1, ,17, ,
1, ,17, ,
0, ,17, ,
0, ,17, ,
1, ,17, ,
1, ,17, ,
1, ,17, ,
0, ,17, ,
0, ,17, ,
1, ,17, ,
0, ,17, ,
0, ,17, ,
0, ,17, ,
0, ,17, ,
0, ,17, ,
0, ,17, ,
1, ,17, ,
1, ,17, ,
1, ,17, ,
1, ,17, ,
1, ,17, ,
0, ,17, ,
0, ,17, ,
0, ,17, ,
0, ,17, ,
0, ,17, ,
0, ,17, ,
0, ,17, ,
1, ,17, ,
1, ,17, ,
0, ,17, ,
0, ,17, ,
1, ,17, ,
1, ,17, ,
1, ,17, ,
1, ,17, ,
0, ,17, ,
0, ,17, ,
0, ,17, ,
0, ,17, ,
0, ,17, ,
0, ,17, ,
0, ,17, ,
0, ,17, ,
0, ,17, ,
0, ,17, ,
0, ,17, ,
0, ,17, ,
1, ,17, ,
1, ,17, ,
1, ,17, ,
1, ,17, ,
1, ,17, ,
0, ,17, ,
0, ,17, ,
0, ,17, ,
0, ,17, ,
1, ,17, ,
0, ,17, ,
0, ,17, ,
0, ,17, ,
0, ,17, ,
1, ,17, ,
1, ,17, ,
1, ,17, ,
1, ,17, ,
1, ,17, ,
1, ,17, ,
1, ,17, ,
1, ,17, ,
1, ,17, ,
0, ,17, ,
0, ,17, ,
1, ,17, ,
0, ,17, ,
0, ,17, ,
0, ,17, ,
0, ,17, ,
0, ,17, ,
0, ,17, ,
0, ,17, ,
1, ,17, ,
0, ,17, ,
0, ,17, ,
0, ,17, ,
0, ,17, ,
1, ,17, ,
1, ,17, ,
0, ,17, ,
0, ,17, ,
0, ,17, ,
1, ,17, ,
1, ,17, ,
0, ,17, ,
0, ,17, ,
0, ,17, ,
0, ,17, ,
0, ,17, ,
0, ,17, ,
0, ,17, ,
1, ,17, ,
1, ,17, ,
1, ,17, ,
1, ,17, ,
1, ,17, ,
1, ,17, ,
1, ,17, ,
1, ,17, ,
1, ,17, ,
1, ,17, ,
1, ,17, ,
1, ,17, ,
1, ,17, ,
1, ,17, ,
1, ,17, ,
1, ,17, ,
1, ,17, ,
0, ,17, ,
2, ,17, ,
-1, ,17, ,
-1, ,17, ,
0, ,17, ,
10, ,17, ,
32, ,17, ,
108, ,17, ,
124, ,17, ,
123, ,17, ,
118, ,17, ,
11, ,17, ,
-6, ,17, ,
30, ,17, ,
85, ,17, ,
125, ,17, ,
125, ,17, ,
125, ,17, ,
125, ,17, ,
125, ,17, ,
124, ,17, ,
124, ,17, ,
123, ,17, ,
112, ,17, ,
107, ,17, ,
105, ,17, ,
101, ,17, ,
95, ,17, ,
92, ,17, ,
88, ,17, ,
84, ,17, ,
78, ,17, ,
75, ,17, ,
73, ,17, ,
70, ,17, ,
64, ,17, ,
62, ,17, ,
59, ,17, ,
57, ,17, ,
52, ,17, ,
50, ,17, ,
48, ,17, ,
45, ,17, ,
42, ,17, ,
40, ,17, ,
38, ,17, ,
37, ,17, ,
34, ,17, ,
32, ,17, ,
31, ,17, ,
29, ,17, ,
26, ,17, ,
25, ,17, ,
24, ,17, ,
24, ,17, ,
22, ,17, ,
20, ,17, ,
20, ,17, ,
18, ,17, ,
17, ,17, ,
16, ,17, ,
15, ,17, ,
14, ,17, ,
13, ,17, ,
13, ,17, ,
12, ,17, ,
11, ,17, ,
10, ,17, ,
9, ,17, ,
8, ,17, ,
8, ,17, ,
7, ,17, ,
7, ,17, ,
7, ,17, ,
6, ,17, ,
5, ,17, ,
5, ,17, ,
4, ,17, ,
4, ,17, ,
3, ,17, ,
3, ,17, ,
3, ,17, ,
3, ,17, ,
3, ,17, ,
2, ,17, ,
2, ,17, ,
2, ,17, ,
2, ,17, ,
2, ,17, ,
1, ,17, ,
1, ,17, ,
0, ,17, ,
0, ,17, ,
0, ,17, ,
0, ,17, ,
0, ,17, ,
0, ,17, ,
0, ,17, ,
-1, ,17, ,
-1, ,17, ,
-1, ,17, ,
-1, ,17, ,
-1, ,17, ,
-1, ,17, ,
-1, ,17, ,
-1, ,17, ,
-1, ,17, ,
-1, ,17, ,
-1, ,17, ,
-1, ,17, ,
-1, ,17, ,
-1, ,17, ,
-1, ,17, ,
-1, ,17, ,
-1, ,17, ,
-1, ,17, ,
-2, ,17, ,
-2, ,17, ,
-2, ,17, ,
-2, ,17, ,
-1, ,17, ,
-1, ,17, ,
-1, ,17, ,
-1, ,17, ,
-1, ,17, ,
-2, ,17, ,
-2, ,17, ,
-1, ,17, ,
-1, ,17, ,
-1, ,17, ,
-2, ,17, ,
-2, ,17, ,
-1, ,17, ,
-1, ,17, ,
-1, ,17, ,
-1, ,17, ,
-1, ,17, ,
-1, ,17, ,
-1, ,17, ,
-2, ,17, ,
-2, ,17, ,
-2, ,17, ,
-1, ,17, ,
-1, ,17, ,
-1, ,17, ,
-1, ,17, ,
-1, ,17, ,
-1, ,17, ,
-1, ,17, ,
-1, ,17, ,
-1, ,17, ,
-1, ,17, ,
-1, ,17, ,
-1, ,17, ,
-1, ,17, ,
-1, ,17, ,
-1, ,17, ,
-1, ,17, ,
-1, ,17, ,
-1, ,17, ,
-1, ,17, ,
-1, ,17, ,
-1, ,17, ,
0, ,17, ,
0, ,17, ,
0, ,17, ,
0, ,17, ,
0, ,17, ,
0, ,17, ,
0, ,17, ,
0, ,17, ,
0, ,17, ,
0, ,17, ,
-1, ,17, ,
-1, ,17, ,
0, ,17, ,
0, ,17, ,
0, ,17, ,
0, ,17, ,
0, ,17, ,
0, ,17, ,
0, ,17, ,
0, ,17, ,
0, ,17, ,
0, ,17, ,
0, ,17, ,
0, ,17, ,
0, ,17, ,
0, ,17, ,
0, ,17, ,
0, ,17, ,
0, ,17, ,
0, ,17, ,
0, ,17, ,
0, ,17, ,
0, ,17, ,
0, ,17, ,
0, ,17, ,
0, ,17, ,
0, ,17, ,
0, ,17, ,
0, ,17, ,
0, ,17, ,
0, ,17, ,
0, ,17, ,
0, ,17, ,
0, ,17, ,
0, ,17, ,
0, ,17, ,
0, ,17, ,
0, ,17, ,
0, ,17, ,
0, ,17, ,
0, ,17, ,
0, ,17, ,
0, ,17, ,
0, ,17, ,
0, ,17, ,
0, ,17, ,
0, ,17, ,
0, ,17, ,
0, ,17, ,
0, ,17, ,
1, ,17, ,
0, ,17, ,
0, ,17, ,
0, ,17, ,
0, ,17, ,
0, ,17, ,
0, ,17, ,
0, ,17, ,
0, ,17, ,
0, ,17, ,
1, ,17, ,
0, ,17, ,
0, ,17, ,
1, ,17, ,
1, ,17, ,
1, ,17, ,
1, ,17, ,
0, ,17, ,
0, ,17, ,
0, ,17, ,
0, ,17, ,
0, ,17, ,
0, ,17, ,
0, ,17, ,
0, ,17, ,
0, ,17, ,
0, ,17, ,
0, ,17, ,
0, ,17, ,
0, ,17, ,
0, ,17, ,
0, ,17, ,
1, ,17, ,
0, ,17, ,
0, ,17, ,
0, ,17, ,
0, ,17, ,
0, ,17, ,
0, ,17, ,
0, ,17, ,
1, ,17, ,
0, ,17, ,
0, ,17, ,
0, ,17, ,
0, ,17, ,
0, ,17, ,
0, ,17, ,
0, ,17, ,
0, ,17, ,
0, ,17, ,
0, ,17, ,
0, ,17, ,
-1, ,17, ,
-2, ,17, ,
-3, ,17, ,
-3, ,17, ,
-6, ,17, ,
-8, ,17, ,
-9, ,17, ,
-10, ,17, ,
-10, ,17, ,
-9, ,17, ,
-8, ,17, ,
-7, ,17, ,
-4, ,17, ,
-2, ,17, ,
-1, ,17, ,
-1, ,17, ,
1, ,17, ,
2, ,17, ,
2, ,17, ,
2, ,17, ,
2, ,17, ,
2, ,17, ,
2, ,17, ,
1, ,17, ,
0, ,17, ,
0, ,17, ,
0, ,17, ,
-1, ,17, ,
-1, ,17, ,
-1, ,17, ,
-1, ,17, ,
-1, ,17, ,
0, ,17, ,
1, ,17, ,
1, ,17, ,
2, ,17, ,
3, ,17, ,
3, ,17, ,
3, ,17, ,
3, ,17, ,
3, ,17, ,
3, ,17, ,
3, ,17, ,
3, ,17, ,
2, ,17, ,
2, ,17, ,
2, ,17, ,
1, ,17, ,
1, ,17, ,
1, ,17, ,
1, ,17, ,
1, ,17, ,
1, ,17, ,
1, ,17, ,
2, ,17, ,
2, ,17, ,
2, ,17, ,
2, ,17, ,
2, ,17, ,
2, ,17, ,
2, ,17, ,
1, ,17, ,
1, ,17, ,
1, ,17, ,
1, ,17, ,
1, ,17, ,
0, ,17, ,
0, ,17, ,
1, ,17, ,
1, ,17, ,
1, ,17, ,
1, ,17, ,
1, ,17, ,
1, ,17, ,
1, ,17, ,
1, ,17, ,
1, ,17, ,
1, ,17, ,
1, ,17, ,
1, ,17, ,
0, ,17, ,
0, ,17, ,
-1, ,17, ,
-1, ,17, ,
-3, ,17, ,
-4, ,17, ,
-5, ,17, ,
-6, ,17, ,
-9, ,17, ,
-10, ,17, ,
-11, ,17, ,
-12, ,17, ,
-14, ,17, ,
-14, ,17, ,
-14, ,17, ,
-14, ,17, ,
-14, ,17, ,
-14, ,17, ,
-15, ,17, ,
-15, ,17, ,
-16, ,17, ,
-18, ,17, ,
-19, ,17, ,
-21, ,17, ,
-25, ,17, ,
-25, ,17, ,
-28, ,17, ,
-28, ,17, ,
-28, ,17, ,
-27, ,17, ,
-25, ,17, ,
-25, ,17, ,
-20, ,17, ,
-18, ,17, ,
-16, ,17, ,
-14, ,17, ,
-11, ,17, ,
-10, ,17, ,
-10, ,17, ,
-11, ,17, ,
-13, ,17, ,
-13, ,17, ,
-15, ,17, ,
-18, ,17, ,
-22, ,17, ,
-25, ,17, ,
-25, ,17, ,
-27, ,17, ,
-27, ,17, ,
-27, ,17, ,
-27, ,17, ,
-26, ,17, ,
-24, ,17, ,
-22, ,17, ,
-21, ,17, ,
-19, ,17, ,
-15, ,17, ,
-13, ,17, ,
-12, ,17, ,
-10, ,17, ,
-8, ,17, ,
-7, ,17, ,
-7, ,17, ,
-6, ,17, ,
-5, ,17, ,
-4, ,17, ,
-4, ,17, ,
-2, ,17, ,
-1, ,17, ,
0, ,17, ,
0, ,17, ,
0, ,17, ,
1, ,17, ,
1, ,17, ,
1, ,17, ,
2, ,17, ,
1, ,17, ,
1, ,17, ,
1, ,17, ,
0, ,17, ,
0, ,17, ,
0, ,17, ,
0, ,17, ,
1, ,17, ,
1, ,17, ,
2, ,17, ,
4, ,17, ,
4, ,17, ,
7, ,17, ,
9, ,17, ,
9, ,17, ,
11, ,17, ,
14, ,17, ,
14, ,17, ,
14, ,17, ,
14, ,17, ,
14, ,17, ,
14, ,17, ,
13, ,17, ,
13, ,17, ,
11, ,17, ,
10, ,17, ,
10, ,17, ,
8, ,17, ,
5, ,17, ,
5, ,17, ,
3, ,17, ,
3, ,17, ,
3, ,17, ,
2, ,17, ,
3, ,17, ,
3, ,17, ,
3, ,17, ,
4, ,17, ,
4, ,17, ,
4, ,17, ,
4, ,17, ,
3, ,17, ,
3, ,17, ,
1, ,17, ,
-2, ,17, ,
-3, ,17, ,
-7, ,17, ,
-9, ,17, ,
-15, ,17, ,
-18, ,17, ,
-21, ,17, ,
-25, ,17, ,
-29, ,17, ,
-31, ,17, ,
-33, ,17, ,
-34, ,17, ,
-34, ,17, ,
-34, ,17, ,
-34, ,17, ,
-34, ,17, ,
-33, ,17, ,
-31, ,17, ,
-31, ,17, ,
-30, ,17, ,
-28, ,17, ,
-28, ,17, ,
-26, ,17, ,
-25, ,17, ,
-24, ,17, ,
-23, ,17, ,
-22, ,17, ,
-21, ,17, ,
-18, ,17, ,
-19, ,17, ,
-17, ,17, ,
-17, ,17, ,
-14, ,17, ,
-13, ,17, ,
-12, ,17, ,
-10, ,17, ,
-6, ,17, ,
-4, ,17, ,
-1, ,17, ,
1, ,17, ,
6, ,17, ,
10, ,17, ,
12, ,17, ,
14, ,17, ,
19, ,17, ,
20, ,17, ,
22, ,17, ,
23, ,17, ,
24, ,17, ,
24, ,17, ,
23, ,17, ,
23, ,17, ,
21, ,17, ,
19, ,17, ,
17, ,17, ,
15, ,17, ,
9, ,17, ,
7, ,17, ,
3, ,17, ,
0, ,17, ,
-8, ,17, ,
-13, ,17, ,
-17, ,17, ,
-20, ,17, ,
-27, ,17, ,
-28, ,17, ,
-31, ,17, ,
-33, ,17, ,
-34, ,17, ,
-34, ,17, ,
-33, ,17, ,
-32, ,17, ,
-30, ,17, ,
-28, ,17, ,
-26, ,17, ,
-24, ,17, ,
-19, ,17, ,
-16, ,17, ,
-13, ,17, ,
-11, ,17, ,
-5, ,17, ,
-2, ,17, ,
0, ,17, ,
3, ,17, ,
8, ,17, ,
9, ,17, ,
11, ,17, ,
12, ,17, ,
13, ,17, ,
14, ,17, ,
15, ,17, ,
15, ,17, ,
14, ,17, ,
13, ,17, ,
13, ,17, ,
12, ,17, ,
11, ,17, ,
11, ,17, ,
11, ,17, ,
11, ,17, ,
11, ,17, ,
11, ,17, ,
11, ,17, ,
11, ,17, ,
12, ,17, ,
12, ,17, ,
12, ,17, ,
11, ,17, ,
10, ,17, ,
10, ,17, ,
9, ,17, ,
7, ,17, ,
4, ,17, ,
3, ,17, ,
1, ,17, ,
0, ,17, ,
-4, ,17, ,
-7, ,17, ,
-8, ,17, ,
-11, ,17, ,
-13, ,17, ,
-14, ,17, ,
-14, ,17, ,
-14, ,17, ,
-13, ,17, ,
-13, ,17, ,
-12, ,17, ,
-12, ,17, ,
-10, ,17, ,
-9, ,17, ,
-9, ,17, ,
-8, ,17, ,
-7, ,17, ,
-7, ,17, ,
-8, ,17, ,
-8, ,17, ,
-10, ,17, ,
-10, ,17, ,
-12, ,17, ,
-13, ,17, ,
-16, ,17, ,
-19, ,17, ,
-19, ,17, ,
-21, ,17, ,
-23, ,17, ,
-24, ,17, ,
-25, ,17, ,
-25, ,17, ,
-25, ,17, ,
-25, ,17, ,
-25, ,17, ,
-25, ,17, ,
-25, ,17, ,
-25, ,17, ,
-25, ,17, ,
-25, ,17, ,
-25, ,17, ,
-25, ,17, ,
-25, ,17, ,
-25, ,17, ,
-25, ,17, ,
-24, ,17, ,
-24, ,17, ,
-23, ,17, ,
-21, ,17, ,
-20, ,17, ,
-18, ,17, ,
-17, ,17, ,
-12, ,17, ,
-10, ,17, ,
-7, ,17, ,
-5, ,17, ,
1, ,17, ,
3, ,17, ,
6, ,17, ,
8, ,17, ,
11, ,17, ,
13, ,17, ,
14, ,17, ,
14, ,17, ,
13, ,17, ,
12, ,17, ,
11, ,17, ,
10, ,17, ,
7, ,17, ,
6, ,17, ,
5, ,17, ,
4, ,17, ,
2, ,17, ,
0, ,17, ,
0, ,17, ,
-1, ,17, ,
-1, ,17, ,
-1, ,17, ,
-1, ,17, ,
0, ,17, ,
0, ,17, ,
0, ,17, ,
0, ,17, ,
0, ,17, ,
1, ,17, ,
1, ,17, ,
1, ,17, ,
1, ,17, ,
2, ,17, ,
2, ,17, ,
2, ,17, ,
2, ,17, ,
2, ,17, ,
2, ,17, ,
2, ,17, ,
2, ,17, ,
2, ,17, ,
2, ,17, ,
3, ,17, ,
3, ,17, ,
4, ,17, ,
5, ,17, ,
5, ,17, ,
6, ,17, ,
7, ,17, ,
7, ,17, ,
8, ,17, ,
8, ,17, ,
9, ,17, ,
9, ,17, ,
9, ,17, ,
10, ,17, ,
10, ,17, ,
10, ,17, ,
10, ,17, ,
9, ,17, ,
8, ,17, ,
8, ,17, ,
7, ,17, ,
6, ,17, ,
4, ,17, ,
3, ,17, ,
1, ,17, ,
-1, ,17, ,
-5, ,17, ,
-7, ,17, ,
-10, ,17, ,
-12, ,17, ,
-17, ,17, ,
-18, ,17, ,
-20, ,17, ,
-22, ,17, ,
-23, ,17, ,
-23, ,17, ,
-23, ,17, ,
-23, ,17, ,
-22, ,17, ,
-21, ,17, ,
-19, ,17, ,
-18, ,17, ,
-15, ,17, ,
-13, ,17, ,
-12, ,17, ,
-11, ,17, ,
-10, ,17, ,
-10, ,17, ,
-10, ,17, ,
-11, ,17, ,
-13, ,17, ,
-13, ,17, ,
-15, ,17, ,
-16, ,17, ,
-18, ,17, ,
-20, ,17, ,
-20, ,17, ,
-21, ,17, ,
-21, ,17, ,
-21, ,17, ,
-21, ,17, ,
-20, ,17, ,
-18, ,17, ,
-17, ,17, ,
-15, ,17, ,
-14, ,17, ,
-11, ,17, ,
-9, ,17, ,
-8, ,17, ,
-7, ,17, ,
-5, ,17, ,
-5, ,17, ,
-5, ,17, ,
-5, ,17, ,
-5, ,17, ,
-5, ,17, ,
-5, ,17, ,
-5, ,17, ,
-5, ,17, ,
-5, ,17, ,
-5, ,17, ,
-5, ,17, ,
-4, ,17, ,
-3, ,17, ,
-2, ,17, ,
-1, ,17, ,
1, ,17, ,
2, ,17, ,
3, ,17, ,
4, ,17, ,
5, ,17, ,
6, ,17, ,
6, ,17, ,
6, ,17, ,
5, ,17, ,
4, ,17, ,
4, ,17, ,
2, ,17, ,
0, ,17, ,
-1, ,17, ,
-2, ,17, ,
-2, ,17, ,
-4, ,17, ,
-5, ,17, ,
-5, ,17, ,
-5, ,17, ,
-5, ,17, ,
-4, ,17, ,
-4, ,17, ,
-4, ,17, ,
-2, ,17, ,
-2, ,17, ,
-1, ,17, ,
0, ,17, ,
2, ,17, ,
3, ,17, ,
4, ,17, ,
5, ,17, ,
7, ,17, ,
7, ,17, ,
8, ,17, ,
8, ,17, ,
8, ,17, ,
8, ,17, ,
7, ,17, ,
8, ,17, ,
6, ,17, ,
5, ,17, ,
4, ,17, ,
3, ,17, ,
1, ,17, ,
-1, ,17, ,
-2, ,17, ,
-3, ,17, ,
-5, ,17, ,
-7, ,17, ,
-8, ,17, ,
-9, ,17, ,
-11, ,17, ,
-12, ,17, ,
-12, ,17, ,
-13, ,17, ,
-13, ,17, ,
-13, ,17, ,
-13, ,17, ,
-13, ,17, ,
-12, ,17, ,
-11, ,17, ,
-11, ,17, ,
-9, ,17, ,
-7, ,17, ,
-6, ,17, ,
-5, ,17, ,
-4, ,17, ,
-1, ,17, ,
0, ,17, ,
1, ,17, ,
2, ,17, ,
3, ,17, ,
3, ,17, ,
4, ,17, ,
4, ,17, ,
4, ,17, ,
5, ,17, ,
4, ,17, ,
4, ,17, ,
3, ,17, ,
3, ,17, ,
3, ,17, ,
2, ,17, ,
1, ,17, ,
1, ,17, ,
0, ,17, ,
0, ,17, ,
-1, ,17, ,
-2, ,17, ,
-2, ,17, ,
-3, ,17, ,
-4, ,17, ,
-4, ,17, ,
-5, ,17, ,
-5, ,17, ,
-5, ,17, ,
-5, ,17, ,
-5, ,17, ,
-5, ,17, ,
-4, ,17, ,
-3, ,17, ,
-3, ,17, ,
-3, ,17, ,
-1, ,17, ,
-1, ,17, ,
1, ,17, ,
1, ,17, ,
2, ,17, ,
3, ,17, ,
4, ,17, ,
5, ,17, ,
6, ,17, ,
6, ,17, ,
6, ,17, ,
6, ,17, ,
6, ,17, ,
5, ,17, ,
5, ,17, ,
4, ,17, ,
3, ,17, ,
2, ,17, ,
2, ,17, ,
0, ,17, ,
-1, ,17, ,
-3, ,17, ,
-4, ,17, ,
-5, ,17, ,
-6, ,17, ,
-7, ,17, ,
-7, ,17, ,
-8, ,17, ,
-8, ,17, ,
-8, ,17, ,
-8, ,17, ,
-8, ,17, ,
-8, ,17, ,
-7, ,17, ,
-7, ,17, ,
-7, ,17, ,
-7, ,17, ,
-6, ,17, ,
-7, ,17, ,
-7, ,17, ,
-7, ,17, ,
-7, ,17, ,
-7, ,17, ,
-8, ,17, ,
-8, ,17, ,
-9, ,17, ,
-9, ,17, ,
-9, ,17, ,
-8, ,17, ,
-8, ,17, ,
-7, ,17, ,
-7, ,17, ,
-6, ,17, ,
-4, ,17, ,
-4, ,17, ,
-2, ,17, ,
1, ,17, ,
2, ,17, ,
3, ,17, ,
4, ,17, ,
6, ,17, ,
8, ,17, ,
8, ,17, ,
10, ,17, ,
11, ,17, ,
11, ,17, ,
12, ,17, ,
12, ,17, ,
12, ,17, ,
13, ,17, ,
12, ,17, ,
12, ,17, ,
11, ,17, ,
10, ,17, ,
9, ,17, ,
8, ,17, ,
5, ,17, ,
5, ,17, ,
3, ,17, ,
2, ,17, ,
-1, ,17, ,
-3, ,17, ,
-4, ,17, ,
-6, ,17, ,
-8, ,17, ,
-8, ,17, ,
-9, ,17, ,
-9, ,17, ,
-9, ,17, ,
-9, ,17, ,
-9, ,17, ,
-8, ,17, ,
-8, ,17, ,
-7, ,17, ,
-6, ,17, ,
-5, ,17, ,
-4, ,17, ,
-3, ,17, ,
-1, ,17, ,
-1, ,17, ,
1, ,17, ,
3, ,17, ,
3, ,17, ,
4, ,17, ,
6, ,17, ,
6, ,17, ,
6, ,17, ,
6, ,17, ,
5, ,17, ,
4, ,17, ,
3, ,17, ,
2, ,17, ,
-1, ,17, ,
-2, ,17, ,
-4, ,17, ,
-6, ,17, ,
-9, ,17, ,
-10, ,17, ,
-12, ,17, ,
-13, ,17, ,
-14, ,17, ,
-14, ,17, ,
-14, ,17, ,
-14, ,17, ,
-12, ,17, ,
-10, ,17, ,
-9, ,17, ,
-7, ,17, ,
-4, ,17, ,
-3, ,17, ,
-1, ,17, ,
0, ,17, ,
3, ,17, ,
5, ,17, ,
5, ,17, ,
6, ,17, ,
7, ,17, ,
7, ,17, ,
7, ,17, ,
6, ,17, ,
5, ,17, ,
5, ,17, ,
4, ,17, ,
4, ,17, ,
3, ,17, ,
2, ,17, ,
1, ,17, ,
0, ,17, ,
-1, ,17, ,
-1, ,17, ,
-2, ,17, ,
-2, ,17, ,
-2, ,17, ,
-2, ,17, ,
-2, ,17, ,
-3, ,17, ,
-3, ,17, ,
-3, ,17, ,
-3, ,17, ,
-3, ,17, ,
-4, ,17, ,
-4, ,17, ,
-4, ,17, ,
-5, ,17, ,
-5, ,17, ,
-5, ,17, ,
-6, ,17, ,
-7, ,17, ,
-7, ,17, ,
-8, ,17, ,
-8, ,17, ,
-8, ,17, ,
-7, ,17, ,
-7, ,17, ,
-7, ,17, ,
-7, ,17, ,
-6, ,17, ,
-5, ,17, ,
-4, ,17, ,
-4, ,17, ,
-2, ,17, ,
-2, ,17, ,
-1, ,17, ,
0, ,17, ,
1, ,17, ,
0, ,17, ,
0, ,17, ,
0, ,17, ,
0, ,17, ,
0, ,17, ,
-1, ,17, ,
-1, ,17, ,
-1, ,17, ,
-2, ,17, ,
-2, ,17, ,
-4, ,17, ,
-4, ,17, ,
-5, ,17, ,
-5, ,17, ,
-5, ,17, ,
-6, ,17, ,
-6, ,17, ,
-5, ,17, ,
-5, ,17, ,
-4, ,17, ,
-4, ,17, ,
-3, ,17, ,
-3, ,17, ,
-1, ,17, ,
0, ,17, ,
0, ,17, ,
1, ,17, ,
2, ,17, ,
4, ,17, ,
4, ,17, ,
4, ,17, ,
4, ,17, ,
3, ,17, ,
3, ,17, ,
3, ,17, ,
2, ,17, ,
1, ,17, ,
0, ,17, ,
0, ,17, ,
-1, ,17, ,
-2, ,17, ,
-3, ,17, ,
-3, ,17, ,
-3, ,17, ,
-3, ,17, ,
-3, ,17, ,
-3, ,17, ,
-2, ,17, ,
-2, ,17, ,
-2, ,17, ,
-2, ,17, ,
-1, ,17, ,
-1, ,17, ,
-1, ,17, ,
0, ,17, ,
-1, ,17, ,
-2, ,17, ,
-2, ,17, ,
-3, ,17, ,
-4, ,17, ,
-4, ,17, ,
-5, ,17, ,
-5, ,17, ,
-6, ,17, ,
-6, ,17, ,
-6, ,17, ,
-6, ,17, ,
-6, ,17, ,
-5, ,17, ,
-5, ,17, ,
-5, ,17, ,
-4, ,17, ,
-4, ,17, ,
-3, ,17, ,
-4, ,17, ,
-2, ,17, ,
-1, ,17, ,
-2, ,17, ,
-1, ,17, ,
0, ,17, ,
0, ,17, ,
0, ,17, ,
0, ,17, ,
-1, ,17, ,
-1, ,17, ,
-1, ,17, ,
-2, ,17, ,
-3, ,17, ,
-3, ,17, ,
-3, ,17, ,
-4, ,17, ,
-4, ,17, ,
-4, ,17, ,
-5, ,17, ,
-5, ,17, ,
-4, ,17, ,
-4, ,17, ,
-3, ,17, ,
-3, ,17, ,
-2, ,17, ,
0, ,17, ,
0, ,17, ,
2, ,17, ,
4, ,17, ,
4, ,17, ,
6, ,17, ,
7, ,17, ,
9, ,17, ,
10, ,17, ,
11, ,17, ,
11, ,17, ,
12, ,17, ,
12, ,17, ,
12, ,17, ,
12, ,17, ,
11, ,17, ,
11, ,17, ,
10, ,17, ,
10, ,17, ,
9, ,17, ,
7, ,17, ,
7, ,17, ,
5, ,17, ,
3, ,17, ,
3, ,17, ,
2, ,17, ,
1, ,17, ,
-1, ,17, ,
-1, ,17, ,
-1, ,17, ,
-2, ,17, ,
-3, ,17, ,
-3, ,17, ,
-3, ,17, ,
-3, ,17, ,
-4, ,17, ,
-5, ,17, ,
-5, ,17, ,
-5, ,17, ,
-6, ,17, ,
-6, ,17, ,
-7, ,17, ,
-7, ,17, ,
-8, ,17, ,
-8, ,17, ,
-8, ,17, ,
-8, ,17, ,
-8, ,17, ,
-7, ,17, ,
-7, ,17, ,
-6, ,17, ,
-4, ,17, ,
-4, ,17, ,
-2, ,17, ,
-1, ,17, ,
1, ,17, ,
2, ,17, ,
2, ,17, ,
4, ,17, ,
6, ,17, ,
6, ,17, ,
6, ,17, ,
6, ,17, ,
7, ,17, ,
6, ,17, ,
6, ,17, ,
5, ,17, ,
4, ,17, ,
3, ,17, ,
2, ,17, ,
1, ,17, ,
-1, ,17, ,
-2, ,17, ,
-3, ,17, ,
-4, ,17, ,
-6, ,17, ,
-7, ,17, ,
-8, ,17, ,
-9, ,17, ,
-9, ,17, ,
-9, ,17, ,
-9, ,17, ,
-9, ,17, ,
-8, ,17, ,
-8, ,17, ,
-7, ,17, ,
-6, ,17, ,
-5, ,17, ,
-4, ,17, ,
-3, ,17, ,
-2, ,17, ,
0, ,17, ,
0, ,17, ,
1, ,17, ,
2, ,17, ,
3, ,17, ,
5, ,17, ,
5, ,17, ,
5, ,17, ,
7, ,17, ,
7, ,17, ,
8, ,17, ,
8, ,17, ,
9, ,17, ,
9, ,17, ,
10, ,17, ,
10, ,17, ,
11, ,17, ,
10, ,17, ,
10, ,17, ,
9, ,17, ,
8, ,17, ,
7, ,17, ,
6, ,17, ,
5, ,17, ,
3, ,17, ,
1, ,17, ,
0, ,17, ,
-1, ,17, ,
-4, ,17, ,
-4, ,17, ,
-6, ,17, ,
-6, ,17, ,
-7, ,17, ,
-7, ,17, ,
-7, ,17, ,
-7, ,17, ,
-7, ,17, ,
-7, ,17, ,
-7, ,17, ,
-6, ,17, ,
-6, ,17, ,
-6, ,17, ,
-6, ,17, ,
-7, ,17, ,
-7, ,17, ,
-7, ,17, ,
-8, ,17, ,
-8, ,17, ,
-7, ,17, ,
-7, ,17, ,
-7, ,17, ,
-7, ,17, ,
-6, ,17, ,
-6, ,17, ,
-6, ,17, ,
-5, ,17, ,
-3, ,17, ,
-3, ,17, ,
-1, ,17, ,
0, ,17, ,
1, ,17, ,
2, ,17, ,
3, ,17, ,
3, ,17, ,
5, ,17, ,
5, ,17, ,
6, ,17, ,
7, ,17, ,
8, ,17, ,
8, ,17, ,
8, ,17, ,
9, ,17, ,
9, ,17, ,
9, ,17, ,
10, ,17, ,
9, ,17, ,
8, ,17, ,
8, ,17, ,
7, ,17, ,
6, ,17, ,
5, ,17, ,
4, ,17, ,
3, ,17, ,
2, ,17, ,
0, ,17, ,
0, ,17, ,
-2, ,17, ,
-2, ,17, ,
-3, ,17, ,
-3, ,17, ,
-3, ,17, ,
-3, ,17, ,
-3, ,17, ,
-2, ,17, ,
-2, ,17, ,
-1, ,17, ,
0, ,17, ,
0, ,17, ,
1, ,17, ,
2, ,17, ,
2, ,17, ,
3, ,17, ,
3, ,17, ,
3, ,17, ,
4, ,17, ,
3, ,17, ,
3, ,17, ,
3, ,17, ,
3, ,17, ,
3, ,17, ,
2, ,17, ,
2, ,17, ,
1, ,17, ,
1, ,17, ,
1, ,17, ,
1, ,17, ,
0, ,17, ,
0, ,17, ,
-1, ,17, ,
-1, ,17, ,
-2, ,17, ,
-3, ,17, ,
-3, ,17, ,
-4, ,17, ,
-5, ,17, ,
-5, ,17, ,
-5, ,17, ,
-5, ,17, ,
-5, ,17, ,
-5, ,17, ,
-4, ,17, ,
-4, ,17, ,
-3, ,17, ,
-2, ,17, ,
-2, ,17, ,
0, ,17, ,
1, ,17, ,
1, ,17, ,
2, ,17, ,
2, ,17, ,
1, ,17, ,
1, ,17, ,
1, ,17, ,
1, ,17, ,
-1, ,17, ,
-2, ,17, ,
-2, ,17, ,
-3, ,17, ,
-3, ,17, ,
-3, ,17, ,
-4, ,17, ,
-4, ,17, ,
-3, ,17, ,
-3, ,17, ,
-2, ,17, ,
-2, ,17, ,
0, ,17, ,
1, ,17, ,
2, ,17, ,
3, ,17, ,
4, ,17, ,
5, ,17, ,
6, ,17, ,
6, ,17, ,
7, ,17, ,
7, ,17, ,
7, ,17, ,
8, ,17, ,
8, ,17, ,
8, ,17, ,
8, ,17, ,
9, ,17, ,
9, ,17, ,
9, ,17, ,
9, ,17, ,
9, ,17, ,
8, ,17, ,
8, ,17, ,
7, ,17, ,
6, ,17, ,
5, ,17, ,
4, ,17, ,
2, ,17, ,
2, ,17, ,
-1, ,17, ,
-3, ,17, ,
-4, ,17, ,
-5, ,17, ,
-8, ,17, ,
-9, ,17, ,
-10, ,17, ,
-10, ,17, ,
-12, ,17, ,
-12, ,17, ,
-12, ,17, ,
-12, ,17, ,
-12, ,17, ,
-11, ,17, ,
-10, ,17, ,
-9, ,17, ,
-8, ,17, ,
-7, ,17, ,
-6, ,17, ,
-5, ,17, ,
-3, ,17, ,
-2, ,17, ,
-2, ,17, ,
-1, ,17, ,
1, ,17, ,
1, ,17, ,
2, ,17, ,
1, ,17, ,
2, ,17, ,
3, ,17, ,
3, ,17, ,
4, ,17, ,
4, ,17, ,
4, ,17, ,
5, ,17, ,
5, ,17, ,
5, ,17, ,
6, ,17, ,
6, ,17, ,
6, ,17, ,
7, ,17, ,
7, ,17, ,
7, ,17, ,
7, ,17, ,
6, ,17, ,
6, ,17, ,
6, ,17, ,
5, ,17, ,
4, ,17, ,
3, ,17, ,
3, ,17, ,
2, ,17, ,
0, ,17, ,
-1, ,17, ,
-2, ,17, ,
-2, ,17, ,
-3, ,17, ,
-5, ,17, ,
-5, ,17, ,
-6, ,17, ,
-6, ,17, ,
-6, ,17, ,
-6, ,17, ,
-6, ,17, ,
-6, ,17, ,
-6, ,17, ,
-5, ,17, ,
-5, ,17, ,
-4, ,17, ,
-4, ,17, ,
-4, ,17, ,
-3, ,17, ,
-3, ,17, ,
-3, ,17, ,
-3, ,17, ,
-3, ,17, ,
-3, ,17, ,
-3, ,17, ,
-3, ,17, ,
-3, ,17, ,
-4, ,17, ,
-4, ,17, ,
-4, ,17, ,
-4, ,17, ,
-4, ,17, ,
-3, ,17, ,
-3, ,17, ,
-2, ,17, ,
-1, ,17, ,
0, ,17, ,
1, ,17, ,
2, ,17, ,
3, ,17, ,
5, ,17, ,
5, ,17, ,
6, ,17, ,
8, ,17, ,
7, ,17, ,
8, ,17, ,
8, ,17, ,
9, ,17, ,
9, ,17, ,
8, ,17, ,
8, ,17, ,
7, ,17, ,
6, ,17, ,
6, ,17, ,
5, ,17, ,
4, ,17, ,
4, ,17, ,
3, ,17, ,
2, ,17, ,
1, ,17, ,
-1, ,17, ,
-1, ,17, ,
-3, ,17, ,
-5, ,17, ,
-5, ,17, ,
-7, ,17, ,
-7, ,17, ,
-8, ,17, ,
-9, ,17, ,
-9, ,17, ,
-10, ,17, ,
-10, ,17, ,
-9, ,17, ,
-9, ,17, ,
-8, ,17, ,
-7, ,17, ,
-7, ,17, ,
-6, ,17, ,
-5, ,17, ,
-3, ,17, ,
-1, ,17, ,
0, ,17, ,
2, ,17, ,
5, ,17, ,
5, ,17, ,
7, ,17, ,
8, ,17, ,
10, ,17, ,
11, ,17, ,
11, ,17, ,
11, ,17, ,
11, ,17, ,
11, ,17, ,
10, ,17, ,
10, ,17, ,
8, ,17, ,
7, ,17, ,
7, ,17, ,
6, ,17, ,
3, ,17, ,
2, ,17, ,
0, ,17, ,
-1, ,17, ,
-3, ,17, ,
-4, ,17, ,
-4, ,17, ,
-5, ,17, ,
-6, ,17, ,
-6, ,17, ,
-5, ,17, ,
-5, ,17, ,
-5, ,17, ,
-5, ,17, ,
-5, ,17, ,
-4, ,17, ,
-4, ,17, ,
-3, ,17, ,
-2, ,17, ,
-2, ,17, ,
-1, ,17, ,
-1, ,17, ,
