raw_data/75% Glycerol, Impulsion 2Hz, Sonde 5MHz, Rampe 0.7Hz/temp0000057.CSV

Format,1.0B,
Memory Length,10000,Memory Length,10000,
IntpDistance,0,IntpDistance,0,
Trigger Address,159,Trigger Address,159,
Trigger Level,2.720E-01,Trigger Level,2.720E-01,
Source,CH1,Source,CH2,
Vertical Units,V,Vertical Units,V,
Vertical Units Div,0,Vertical Units Div,0,
Vertical Units Extend Div,16,Vertical Units Extend Div,16,
Label,,Label,,
Probe Type,0,Probe Type,0,
Probe Ratio,1.000e+00,Probe Ratio,1.000e+00,
Vertical Scale,5.000e-01,Vertical Scale,2.000e+00,
Vertical Position,0.000e+00,Vertical Position,0.000e+00,
Horizontal Units,S,Horizontal Units,S,
Horizontal Scale,5.000E-06,Horizontal Scale,5.000E-06,
Horizontal Position,2.420E-05,Horizontal Position,2.420E-05,
Horizontal Mode,Main,Horizontal Mode,Main,
SincET Mode,Real Time,SincET Mode,Real Time,
Sampling Period,5.000e-09,Sampling Period,5.000e-09,
Horizontal Old Scale,5.000E-06,Horizontal Old Scale,5.000E-06,
Horizontal Old Position,2.420E-05,Horizontal Old Position,2.420E-05,
Firmware,V1.32,Firmware,V1.32,
Mode,Fast,Mode,Fast,
Waveform Data,,Waveform Data,,
1, ,34, ,
1, ,34, ,
1, ,34, ,
0, ,34, ,
0, ,34, ,
0, ,34, ,
0, ,34, ,
0, ,34, ,
0, ,34, ,
0, ,34, ,
0, ,34, ,
0, ,34, ,
0, ,34, ,
0, ,34, ,
0, ,34, ,
1, ,34, ,
0, ,34, ,
0, ,34, ,
1, ,34, ,
1, ,34, ,
1, ,34, ,
1, ,34, ,
0, ,34, ,
0, ,34, ,
0, ,34, ,
1, ,34, ,
1, ,34, ,
1, ,34, ,
1, ,34, ,
1, ,34, ,
1, ,34, ,
1, ,34, ,
0, ,34, ,
0, ,34, ,
1, ,34, ,
1, ,34, ,
1, ,34, ,
1, ,34, ,
1, ,34, ,
0, ,34, ,
0, ,34, ,
0, ,34, ,
0, ,34, ,
0, ,34, ,
1, ,34, ,
1, ,34, ,
1, ,34, ,
1, ,34, ,
0, ,34, ,
0, ,34, ,
0, ,34, ,
0, ,34, ,
0, ,34, ,
0, ,34, ,
0, ,34, ,
0, ,34, ,
0, ,34, ,
0, ,34, ,
0, ,34, ,
0, ,34, ,
0, ,34, ,
0, ,34, ,
0, ,34, ,
1, ,34, ,
1, ,34, ,
1, ,34, ,
1, ,34, ,
1, ,34, ,
1, ,34, ,
1, ,34, ,
0, ,34, ,
0, ,34, ,
0, ,34, ,
1, ,34, ,
1, ,34, ,
0, ,34, ,
0, ,34, ,
0, ,34, ,
1, ,34, ,
0, ,34, ,
0, ,34, ,
0, ,34, ,
1, ,34, ,
1, ,34, ,
1, ,34, ,
1, ,34, ,
1, ,34, ,
0, ,34, ,
0, ,34, ,
0, ,34, ,
0, ,34, ,
0, ,34, ,
1, ,34, ,
1, ,34, ,
1, ,34, ,
1, ,34, ,
0, ,34, ,
0, ,34, ,
1, ,34, ,
0, ,34, ,
0, ,34, ,
0, ,34, ,
1, ,34, ,
1, ,34, ,
1, ,34, ,
1, ,34, ,
1, ,34, ,
1, ,34, ,
1, ,34, ,
0, ,34, ,
0, ,34, ,
0, ,34, ,
0, ,34, ,
0, ,34, ,
1, ,34, ,
1, ,34, ,
1, ,34, ,
1, ,34, ,
1, ,34, ,
1, ,34, ,
1, ,34, ,
1, ,34, ,
1, ,34, ,
1, ,34, ,
1, ,34, ,
0, ,34, ,
0, ,34, ,
1, ,34, ,
1, ,34, ,
1, ,34, ,
1, ,34, ,
1, ,34, ,
1, ,34, ,
1, ,34, ,
1, ,34, ,
1, ,34, ,
1, ,34, ,
1, ,34, ,
1, ,34, ,
1, ,34, ,
1, ,34, ,
1, ,34, ,
0, ,34, ,
0, ,34, ,
0, ,34, ,
1, ,34, ,
1, ,34, ,
1, ,34, ,
1, ,34, ,
0, ,34, ,
0, ,34, ,
0, ,34, ,
1, ,34, ,
1, ,34, ,
1, ,34, ,
1, ,34, ,
1, ,34, ,
0, ,34, ,
0, ,34, ,
1, ,34, ,
0, ,34, ,
0, ,34, ,
1, ,34, ,
0, ,34, ,
1, ,34, ,
-1, ,34, ,
0, ,34, ,
-1, ,34, ,
7, ,34, ,
28, ,34, ,
104, ,34, ,
125, ,34, ,
123, ,34, ,
120, ,34, ,
15, ,34, ,
-8, ,34, ,
25, ,34, ,
80, ,34, ,
125, ,34, ,
125, ,34, ,
125, ,34, ,
125, ,34, ,
125, ,34, ,
124, ,34, ,
124, ,34, ,
123, ,34, ,
113, ,34, ,
108, ,34, ,
105, ,34, ,
102, ,34, ,
95, ,34, ,
92, ,34, ,
88, ,34, ,
85, ,34, ,
78, ,34, ,
75, ,34, ,
73, ,34, ,
70, ,34, ,
65, ,34, ,
62, ,34, ,
60, ,34, ,
57, ,34, ,
52, ,34, ,
50, ,34, ,
48, ,34, ,
47, ,34, ,
42, ,34, ,
41, ,34, ,
39, ,34, ,
37, ,34, ,
34, ,34, ,
32, ,34, ,
31, ,34, ,
29, ,34, ,
27, ,34, ,
25, ,34, ,
24, ,34, ,
24, ,34, ,
22, ,34, ,
21, ,34, ,
20, ,34, ,
19, ,34, ,
17, ,34, ,
16, ,34, ,
15, ,34, ,
15, ,34, ,
13, ,34, ,
13, ,34, ,
12, ,34, ,
11, ,34, ,
10, ,34, ,
9, ,34, ,
8, ,34, ,
8, ,34, ,
8, ,34, ,
7, ,34, ,
7, ,34, ,
6, ,34, ,
5, ,34, ,
5, ,34, ,
4, ,34, ,
4, ,34, ,
4, ,34, ,
4, ,34, ,
3, ,34, ,
3, ,34, ,
2, ,34, ,
2, ,34, ,
2, ,34, ,
2, ,34, ,
1, ,34, ,
1, ,34, ,
1, ,34, ,
1, ,34, ,
0, ,34, ,
0, ,34, ,
0, ,34, ,
0, ,34, ,
0, ,34, ,
0, ,34, ,
0, ,34, ,
-1, ,34, ,
-1, ,34, ,
-1, ,34, ,
-1, ,34, ,
-1, ,34, ,
-1, ,34, ,
-1, ,34, ,
-1, ,34, ,
-1, ,34, ,
-1, ,34, ,
-1, ,34, ,
-1, ,34, ,
-1, ,34, ,
-1, ,34, ,
-1, ,34, ,
-1, ,34, ,
-1, ,34, ,
-1, ,34, ,
-1, ,34, ,
-1, ,34, ,
-1, ,34, ,
-1, ,34, ,
-1, ,34, ,
-1, ,34, ,
-1, ,34, ,
-2, ,34, ,
-2, ,34, ,
-2, ,34, ,
-1, ,34, ,
-1, ,34, ,
-2, ,34, ,
-2, ,34, ,
-2, ,34, ,
-1, ,34, ,
-1, ,34, ,
-1, ,34, ,
-1, ,34, ,
-1, ,34, ,
-1, ,34, ,
-1, ,34, ,
-1, ,34, ,
-1, ,34, ,
-1, ,34, ,
-1, ,34, ,
-1, ,34, ,
-1, ,34, ,
-1, ,34, ,
-1, ,34, ,
-1, ,34, ,
-1, ,34, ,
-1, ,34, ,
-1, ,34, ,
-1, ,34, ,
-1, ,34, ,
-1, ,34, ,
-1, ,34, ,
-1, ,34, ,
-1, ,34, ,
-1, ,34, ,
-1, ,34, ,
-1, ,34, ,
-1, ,34, ,
-1, ,34, ,
-1, ,34, ,
-1, ,34, ,
-1, ,34, ,
0, ,34, ,
0, ,34, ,
0, ,34, ,
-1, ,34, ,
-1, ,34, ,
0, ,34, ,
0, ,34, ,
0, ,34, ,
0, ,34, ,
0, ,34, ,
0, ,34, ,
0, ,34, ,
0, ,34, ,
0, ,34, ,
0, ,34, ,
0, ,34, ,
0, ,34, ,
0, ,34, ,
0, ,34, ,
0, ,34, ,
0, ,34, ,
0, ,34, ,
0, ,34, ,
0, ,34, ,
0, ,34, ,
0, ,34, ,
0, ,34, ,
0, ,34, ,
0, ,34, ,
0, ,34, ,
0, ,34, ,
0, ,34, ,
0, ,34, ,
0, ,34, ,
0, ,34, ,
0, ,34, ,
0, ,34, ,
0, ,34, ,
0, ,34, ,
0, ,34, ,
0, ,34, ,
0, ,34, ,
0, ,34, ,
0, ,34, ,
0, ,34, ,
0, ,34, ,
0, ,34, ,
0, ,34, ,
0, ,34, ,
0, ,34, ,
0, ,34, ,
0, ,34, ,
0, ,34, ,
0, ,34, ,
0, ,34, ,
0, ,34, ,
0, ,34, ,
0, ,34, ,
0, ,34, ,
0, ,34, ,
0, ,34, ,
0, ,34, ,
0, ,34, ,
0, ,34, ,
0, ,34, ,
0, ,34, ,
0, ,34, ,
0, ,34, ,
0, ,34, ,
0, ,34, ,
1, ,34, ,
1, ,34, ,
1, ,34, ,
1, ,34, ,
1, ,34, ,
0, ,34, ,
0, ,34, ,
0, ,34, ,
0, ,34, ,
0, ,34, ,
0, ,34, ,
0, ,34, ,
0, ,34, ,
0, ,34, ,
0, ,34, ,
0, ,34, ,
1, ,34, ,
0, ,34, ,
0, ,34, ,
0, ,34, ,
0, ,34, ,
1, ,34, ,
0, ,34, ,
0, ,34, ,
0, ,34, ,
0, ,34, ,
1, ,34, ,
1, ,34, ,
1, ,34, ,
0, ,34, ,
0, ,34, ,
0, ,34, ,
0, ,34, ,
0, ,34, ,
0, ,34, ,
0, ,34, ,
0, ,34, ,
0, ,34, ,
0, ,34, ,
0, ,34, ,
-1, ,34, ,
-1, ,34, ,
-2, ,34, ,
-2, ,34, ,
-4, ,34, ,
-6, ,34, ,
-9, ,34, ,
-11, ,34, ,
-13, ,34, ,
-13, ,34, ,
-12, ,34, ,
-11, ,34, ,
-8, ,34, ,
-5, ,34, ,
-4, ,34, ,
-1, ,34, ,
-1, ,34, ,
0, ,34, ,
1, ,34, ,
1, ,34, ,
2, ,34, ,
2, ,34, ,
2, ,34, ,
2, ,34, ,
2, ,34, ,
2, ,34, ,
1, ,34, ,
1, ,34, ,
1, ,34, ,
1, ,34, ,
1, ,34, ,
1, ,34, ,
1, ,34, ,
1, ,34, ,
3, ,34, ,
3, ,34, ,
3, ,34, ,
3, ,34, ,
3, ,34, ,
3, ,34, ,
3, ,34, ,
3, ,34, ,
3, ,34, ,
3, ,34, ,
3, ,34, ,
2, ,34, ,
2, ,34, ,
1, ,34, ,
1, ,34, ,
0, ,34, ,
0, ,34, ,
0, ,34, ,
0, ,34, ,
0, ,34, ,
0, ,34, ,
0, ,34, ,
1, ,34, ,
1, ,34, ,
2, ,34, ,
2, ,34, ,
2, ,34, ,
2, ,34, ,
1, ,34, ,
1, ,34, ,
1, ,34, ,
1, ,34, ,
1, ,34, ,
0, ,34, ,
1, ,34, ,
0, ,34, ,
0, ,34, ,
1, ,34, ,
0, ,34, ,
0, ,34, ,
1, ,34, ,
1, ,34, ,
1, ,34, ,
1, ,34, ,
0, ,34, ,
0, ,34, ,
0, ,34, ,
-1, ,34, ,
-1, ,34, ,
-2, ,34, ,
-3, ,34, ,
-3, ,34, ,
-5, ,34, ,
-6, ,34, ,
-6, ,34, ,
-7, ,34, ,
-7, ,34, ,
-8, ,34, ,
-8, ,34, ,
-7, ,34, ,
-7, ,34, ,
-7, ,34, ,
-7, ,34, ,
-6, ,34, ,
-6, ,34, ,
-7, ,34, ,
-7, ,34, ,
-8, ,34, ,
-10, ,34, ,
-11, ,34, ,
-13, ,34, ,
-19, ,34, ,
-21, ,34, ,
-23, ,34, ,
-25, ,34, ,
-29, ,34, ,
-29, ,34, ,
-28, ,34, ,
-28, ,34, ,
-25, ,34, ,
-24, ,34, ,
-23, ,34, ,
-21, ,34, ,
-19, ,34, ,
-18, ,34, ,
-19, ,34, ,
-19, ,34, ,
-21, ,34, ,
-23, ,34, ,
-24, ,34, ,
-25, ,34, ,
-30, ,34, ,
-32, ,34, ,
-34, ,34, ,
-35, ,34, ,
-36, ,34, ,
-36, ,34, ,
-36, ,34, ,
-35, ,34, ,
-32, ,34, ,
-31, ,34, ,
-28, ,34, ,
-26, ,34, ,
-23, ,34, ,
-20, ,34, ,
-18, ,34, ,
-16, ,34, ,
-11, ,34, ,
-9, ,34, ,
-7, ,34, ,
-5, ,34, ,
-1, ,34, ,
1, ,34, ,
3, ,34, ,
4, ,34, ,
7, ,34, ,
8, ,34, ,
8, ,34, ,
9, ,34, ,
9, ,34, ,
8, ,34, ,
8, ,34, ,
7, ,34, ,
6, ,34, ,
5, ,34, ,
5, ,34, ,
5, ,34, ,
5, ,34, ,
5, ,34, ,
6, ,34, ,
7, ,34, ,
9, ,34, ,
11, ,34, ,
13, ,34, ,
15, ,34, ,
18, ,34, ,
20, ,34, ,
20, ,34, ,
22, ,34, ,
22, ,34, ,
21, ,34, ,
21, ,34, ,
20, ,34, ,
18, ,34, ,
17, ,34, ,
15, ,34, ,
14, ,34, ,
10, ,34, ,
7, ,34, ,
4, ,34, ,
1, ,34, ,
-3, ,34, ,
-5, ,34, ,
-8, ,34, ,
-8, ,34, ,
-10, ,34, ,
-11, ,34, ,
-11, ,34, ,
-11, ,34, ,
-10, ,34, ,
-10, ,34, ,
-9, ,34, ,
-9, ,34, ,
-8, ,34, ,
-8, ,34, ,
-8, ,34, ,
-9, ,34, ,
-11, ,34, ,
-12, ,34, ,
-13, ,34, ,
-15, ,34, ,
-18, ,34, ,
-20, ,34, ,
-21, ,34, ,
-24, ,34, ,
-25, ,34, ,
-25, ,34, ,
-25, ,34, ,
-25, ,34, ,
-24, ,34, ,
-23, ,34, ,
-22, ,34, ,
-22, ,34, ,
-21, ,34, ,
-20, ,34, ,
-19, ,34, ,
-18, ,34, ,
-17, ,34, ,
-16, ,34, ,
-15, ,34, ,
-15, ,34, ,
-13, ,34, ,
-11, ,34, ,
-11, ,34, ,
-11, ,34, ,
-9, ,34, ,
-9, ,34, ,
-8, ,34, ,
-8, ,34, ,
-8, ,34, ,
-7, ,34, ,
-7, ,34, ,
-7, ,34, ,
-6, ,34, ,
-5, ,34, ,
-5, ,34, ,
-4, ,34, ,
-3, ,34, ,
-2, ,34, ,
-1, ,34, ,
0, ,34, ,
2, ,34, ,
2, ,34, ,
3, ,34, ,
3, ,34, ,
3, ,34, ,
3, ,34, ,
3, ,34, ,
3, ,34, ,
3, ,34, ,
3, ,34, ,
2, ,34, ,
2, ,34, ,
1, ,34, ,
1, ,34, ,
0, ,34, ,
0, ,34, ,
-1, ,34, ,
-2, ,34, ,
-3, ,34, ,
-5, ,34, ,
-6, ,34, ,
-7, ,34, ,
-7, ,34, ,
-8, ,34, ,
-9, ,34, ,
-10, ,34, ,
-11, ,34, ,
-12, ,34, ,
-13, ,34, ,
-14, ,34, ,
-15, ,34, ,
-16, ,34, ,
-17, ,34, ,
-17, ,34, ,
-17, ,34, ,
-17, ,34, ,
-15, ,34, ,
-14, ,34, ,
-14, ,34, ,
-11, ,34, ,
-8, ,34, ,
-5, ,34, ,
-3, ,34, ,
-1, ,34, ,
3, ,34, ,
6, ,34, ,
7, ,34, ,
9, ,34, ,
12, ,34, ,
13, ,34, ,
13, ,34, ,
14, ,34, ,
15, ,34, ,
15, ,34, ,
14, ,34, ,
14, ,34, ,
13, ,34, ,
13, ,34, ,
12, ,34, ,
11, ,34, ,
9, ,34, ,
8, ,34, ,
6, ,34, ,
5, ,34, ,
2, ,34, ,
0, ,34, ,
-2, ,34, ,
-4, ,34, ,
-7, ,34, ,
-8, ,34, ,
-9, ,34, ,
-10, ,34, ,
-12, ,34, ,
-12, ,34, ,
-12, ,34, ,
-12, ,34, ,
-11, ,34, ,
-9, ,34, ,
-9, ,34, ,
-7, ,34, ,
-5, ,34, ,
-4, ,34, ,
-3, ,34, ,
-2, ,34, ,
0, ,34, ,
1, ,34, ,
1, ,34, ,
1, ,34, ,
1, ,34, ,
0, ,34, ,
0, ,34, ,
-2, ,34, ,
-5, ,34, ,
-6, ,34, ,
-8, ,34, ,
-10, ,34, ,
-12, ,34, ,
-15, ,34, ,
-17, ,34, ,
-19, ,34, ,
-22, ,34, ,
-23, ,34, ,
-25, ,34, ,
-26, ,34, ,
-28, ,34, ,
-30, ,34, ,
-30, ,34, ,
-31, ,34, ,
-31, ,34, ,
-31, ,34, ,
-30, ,34, ,
-30, ,34, ,
-28, ,34, ,
-26, ,34, ,
-25, ,34, ,
-25, ,34, ,
-21, ,34, ,
-19, ,34, ,
-17, ,34, ,
-14, ,34, ,
-11, ,34, ,
-9, ,34, ,
-7, ,34, ,
-6, ,34, ,
-4, ,34, ,
-3, ,34, ,
-2, ,34, ,
-2, ,34, ,
-2, ,34, ,
-2, ,34, ,
-2, ,34, ,
-3, ,34, ,
-4, ,34, ,
-4, ,34, ,
-5, ,34, ,
-5, ,34, ,
-6, ,34, ,
-6, ,34, ,
-6, ,34, ,
-6, ,34, ,
-5, ,34, ,
-4, ,34, ,
-3, ,34, ,
-2, ,34, ,
1, ,34, ,
2, ,34, ,
3, ,34, ,
5, ,34, ,
7, ,34, ,
8, ,34, ,
9, ,34, ,
10, ,34, ,
11, ,34, ,
11, ,34, ,
11, ,34, ,
11, ,34, ,
10, ,34, ,
10, ,34, ,
9, ,34, ,
8, ,34, ,
7, ,34, ,
7, ,34, ,
6, ,34, ,
5, ,34, ,
4, ,34, ,
4, ,34, ,
4, ,34, ,
4, ,34, ,
4, ,34, ,
5, ,34, ,
5, ,34, ,
5, ,34, ,
6, ,34, ,
7, ,34, ,
7, ,34, ,
7, ,34, ,
8, ,34, ,
7, ,34, ,
8, ,34, ,
8, ,34, ,
7, ,34, ,
6, ,34, ,
5, ,34, ,
5, ,34, ,
4, ,34, ,
3, ,34, ,
2, ,34, ,
1, ,34, ,
-1, ,34, ,
-2, ,34, ,
-3, ,34, ,
-4, ,34, ,
-5, ,34, ,
-7, ,34, ,
-8, ,34, ,
-9, ,34, ,
-10, ,34, ,
-10, ,34, ,
-11, ,34, ,
-11, ,34, ,
-12, ,34, ,
-12, ,34, ,
-13, ,34, ,
-13, ,34, ,
-14, ,34, ,
-14, ,34, ,
-14, ,34, ,
-14, ,34, ,
-15, ,34, ,
-16, ,34, ,
-16, ,34, ,
-18, ,34, ,
-18, ,34, ,
-18, ,34, ,
-19, ,34, ,
-19, ,34, ,
-19, ,34, ,
-19, ,34, ,
-19, ,34, ,
-19, ,34, ,
-18, ,34, ,
-18, ,34, ,
-18, ,34, ,
-17, ,34, ,
-17, ,34, ,
-17, ,34, ,
-16, ,34, ,
-16, ,34, ,
-15, ,34, ,
-14, ,34, ,
-15, ,34, ,
-14, ,34, ,
-14, ,34, ,
-13, ,34, ,
-13, ,34, ,
-13, ,34, ,
-12, ,34, ,
-11, ,34, ,
-11, ,34, ,
-10, ,34, ,
-8, ,34, ,
-7, ,34, ,
-7, ,34, ,
-5, ,34, ,
-5, ,34, ,
-3, ,34, ,
-2, ,34, ,
-2, ,34, ,
0, ,34, ,
0, ,34, ,
0, ,34, ,
0, ,34, ,
1, ,34, ,
1, ,34, ,
1, ,34, ,
2, ,34, ,
2, ,34, ,
2, ,34, ,
3, ,34, ,
3, ,34, ,
4, ,34, ,
4, ,34, ,
4, ,34, ,
5, ,34, ,
5, ,34, ,
5, ,34, ,
5, ,34, ,
4, ,34, ,
4, ,34, ,
4, ,34, ,
4, ,34, ,
4, ,34, ,
3, ,34, ,
3, ,34, ,
3, ,34, ,
3, ,34, ,
2, ,34, ,
2, ,34, ,
2, ,34, ,
2, ,34, ,
1, ,34, ,
1, ,34, ,
1, ,34, ,
0, ,34, ,
-1, ,34, ,
-1, ,34, ,
-2, ,34, ,
-2, ,34, ,
-3, ,34, ,
-4, ,34, ,
-5, ,34, ,
-6, ,34, ,
-7, ,34, ,
-7, ,34, ,
-8, ,34, ,
-9, ,34, ,
-10, ,34, ,
-12, ,34, ,
-12, ,34, ,
-13, ,34, ,
-13, ,34, ,
-13, ,34, ,
-14, ,34, ,
-14, ,34, ,
-13, ,34, ,
-13, ,34, ,
-12, ,34, ,
-12, ,34, ,
-10, ,34, ,
-9, ,34, ,
-7, ,34, ,
-7, ,34, ,
-4, ,34, ,
-4, ,34, ,
-2, ,34, ,
-1, ,34, ,
1, ,34, ,
3, ,34, ,
3, ,34, ,
3, ,34, ,
4, ,34, ,
4, ,34, ,
5, ,34, ,
5, ,34, ,
4, ,34, ,
4, ,34, ,
4, ,34, ,
4, ,34, ,
3, ,34, ,
2, ,34, ,
2, ,34, ,
2, ,34, ,
2, ,34, ,
2, ,34, ,
3, ,34, ,
4, ,34, ,
5, ,34, ,
5, ,34, ,
7, ,34, ,
7, ,34, ,
9, ,34, ,
10, ,34, ,
11, ,34, ,
11, ,34, ,
11, ,34, ,
11, ,34, ,
11, ,34, ,
11, ,34, ,
10, ,34, ,
8, ,34, ,
6, ,34, ,
6, ,34, ,
2, ,34, ,
0, ,34, ,
-1, ,34, ,
-4, ,34, ,
-7, ,34, ,
-9, ,34, ,
-10, ,34, ,
-11, ,34, ,
-14, ,34, ,
-16, ,34, ,
-17, ,34, ,
-17, ,34, ,
-18, ,34, ,
-18, ,34, ,
-18, ,34, ,
-17, ,34, ,
-15, ,34, ,
-15, ,34, ,
-13, ,34, ,
-13, ,34, ,
-10, ,34, ,
-8, ,34, ,
-7, ,34, ,
-5, ,34, ,
-2, ,34, ,
-2, ,34, ,
0, ,34, ,
0, ,34, ,
2, ,34, ,
3, ,34, ,
2, ,34, ,
2, ,34, ,
2, ,34, ,
1, ,34, ,
1, ,34, ,
0, ,34, ,
-1, ,34, ,
-2, ,34, ,
-2, ,34, ,
-2, ,34, ,
-3, ,34, ,
-3, ,34, ,
-3, ,34, ,
-2, ,34, ,
-1, ,34, ,
0, ,34, ,
0, ,34, ,
1, ,34, ,
3, ,34, ,
4, ,34, ,
5, ,34, ,
6, ,34, ,
6, ,34, ,
7, ,34, ,
8, ,34, ,
8, ,34, ,
8, ,34, ,
8, ,34, ,
8, ,34, ,
7, ,34, ,
5, ,34, ,
5, ,34, ,
4, ,34, ,
4, ,34, ,
2, ,34, ,
0, ,34, ,
0, ,34, ,
-2, ,34, ,
-4, ,34, ,
-4, ,34, ,
-6, ,34, ,
-6, ,34, ,
-8, ,34, ,
-9, ,34, ,
-9, ,34, ,
-9, ,34, ,
-9, ,34, ,
-9, ,34, ,
-9, ,34, ,
-8, ,34, ,
-7, ,34, ,
-7, ,34, ,
-5, ,34, ,
-5, ,34, ,
-3, ,34, ,
-1, ,34, ,
0, ,34, ,
1, ,34, ,
2, ,34, ,
2, ,34, ,
3, ,34, ,
3, ,34, ,
4, ,34, ,
4, ,34, ,
4, ,34, ,
4, ,34, ,
4, ,34, ,
3, ,34, ,
3, ,34, ,
3, ,34, ,
3, ,34, ,
3, ,34, ,
2, ,34, ,
2, ,34, ,
2, ,34, ,
1, ,34, ,
1, ,34, ,
0, ,34, ,
-1, ,34, ,
-1, ,34, ,
-3, ,34, ,
-3, ,34, ,
-5, ,34, ,
-6, ,34, ,
-7, ,34, ,
-8, ,34, ,
-10, ,34, ,
-10, ,34, ,
-11, ,34, ,
-11, ,34, ,
-12, ,34, ,
-12, ,34, ,
-11, ,34, ,
-11, ,34, ,
-10, ,34, ,
-9, ,34, ,
-8, ,34, ,
-7, ,34, ,
-4, ,34, ,
-2, ,34, ,
-1, ,34, ,
0, ,34, ,
2, ,34, ,
4, ,34, ,
5, ,34, ,
6, ,34, ,
7, ,34, ,
7, ,34, ,
7, ,34, ,
7, ,34, ,
7, ,34, ,
6, ,34, ,
6, ,34, ,
6, ,34, ,
5, ,34, ,
4, ,34, ,
4, ,34, ,
3, ,34, ,
3, ,34, ,
2, ,34, ,
2, ,34, ,
1, ,34, ,
0, ,34, ,
-1, ,34, ,
-2, ,34, ,
-2, ,34, ,
-5, ,34, ,
-5, ,34, ,
-6, ,34, ,
-7, ,34, ,
-8, ,34, ,
-9, ,34, ,
-9, ,34, ,
-9, ,34, ,
-9, ,34, ,
-9, ,34, ,
-9, ,34, ,
-7, ,34, ,
-6, ,34, ,
-6, ,34, ,
-5, ,34, ,
-4, ,34, ,
-3, ,34, ,
-2, ,34, ,
-1, ,34, ,
0, ,34, ,
1, ,34, ,
1, ,34, ,
1, ,34, ,
1, ,34, ,
1, ,34, ,
1, ,34, ,
2, ,34, ,
1, ,34, ,
1, ,34, ,
2, ,34, ,
2, ,34, ,
2, ,34, ,
2, ,34, ,
2, ,34, ,
2, ,34, ,
2, ,34, ,
1, ,34, ,
1, ,34, ,
0, ,34, ,
0, ,34, ,
-2, ,34, ,
-2, ,34, ,
-3, ,34, ,
-4, ,34, ,
-5, ,34, ,
-6, ,34, ,
-7, ,34, ,
-8, ,34, ,
-9, ,34, ,
-9, ,34, ,
-10, ,34, ,
-10, ,34, ,
-10, ,34, ,
-10, ,34, ,
-10, ,34, ,
-10, ,34, ,
-9, ,34, ,
-8, ,34, ,
-8, ,34, ,
-6, ,34, ,
-5, ,34, ,
-4, ,34, ,
-3, ,34, ,
-4, ,34, ,
-2, ,34, ,
-2, ,34, ,
-2, ,34, ,
-2, ,34, ,
-1, ,34, ,
-1, ,34, ,
-1, ,34, ,
-1, ,34, ,
-1, ,34, ,
-1, ,34, ,
-1, ,34, ,
0, ,34, ,
0, ,34, ,
0, ,34, ,
1, ,34, ,
1, ,34, ,
3, ,34, ,
4, ,34, ,
3, ,34, ,
5, ,34, ,
5, ,34, ,
5, ,34, ,
5, ,34, ,
5, ,34, ,
4, ,34, ,
3, ,34, ,
3, ,34, ,
2, ,34, ,
0, ,34, ,
-2, ,34, ,
-3, ,34, ,
-4, ,34, ,
-6, ,34, ,
-7, ,34, ,
-8, ,34, ,
-9, ,34, ,
-10, ,34, ,
-10, ,34, ,
-10, ,34, ,
-10, ,34, ,
-9, ,34, ,
-8, ,34, ,
-8, ,34, ,
-7, ,34, ,
-5, ,34, ,
-5, ,34, ,
-4, ,34, ,
-3, ,34, ,
-2, ,34, ,
-1, ,34, ,
0, ,34, ,
1, ,34, ,
2, ,34, ,
2, ,34, ,
3, ,34, ,
3, ,34, ,
3, ,34, ,
4, ,34, ,
4, ,34, ,
4, ,34, ,
4, ,34, ,
4, ,34, ,
4, ,34, ,
3, ,34, ,
3, ,34, ,
3, ,34, ,
2, ,34, ,
2, ,34, ,
1, ,34, ,
1, ,34, ,
1, ,34, ,
1, ,34, ,
1, ,34, ,
1, ,34, ,
0, ,34, ,
0, ,34, ,
1, ,34, ,
1, ,34, ,
1, ,34, ,
1, ,34, ,
2, ,34, ,
3, ,34, ,
3, ,34, ,
4, ,34, ,
4, ,34, ,
5, ,34, ,
5, ,34, ,
5, ,34, ,
5, ,34, ,
5, ,34, ,
5, ,34, ,
5, ,34, ,
4, ,34, ,
4, ,34, ,
3, ,34, ,
2, ,34, ,
1, ,34, ,
0, ,34, ,
0, ,34, ,
-1, ,34, ,
-2, ,34, ,
-3, ,34, ,
-3, ,34, ,
-3, ,34, ,
-3, ,34, ,
-3, ,34, ,
-3, ,34, ,
-3, ,34, ,
-2, ,34, ,
-2, ,34, ,
-2, ,34, ,
-2, ,34, ,
-2, ,34, ,
-2, ,34, ,
-2, ,34, ,
-2, ,34, ,
-3, ,34, ,
-3, ,34, ,
-3, ,34, ,
-3, ,34, ,
-3, ,34, ,
-3, ,34, ,
-3, ,34, ,
-3, ,34, ,
-2, ,34, ,
-1, ,34, ,
-1, ,34, ,
-1, ,34, ,
0, ,34, ,
1, ,34, ,
1, ,34, ,
1, ,34, ,
2, ,34, ,
2, ,34, ,
2, ,34, ,
2, ,34, ,
2, ,34, ,
2, ,34, ,
2, ,34, ,
2, ,34, ,
2, ,34, ,
1, ,34, ,
1, ,34, ,
1, ,34, ,
2, ,34, ,
2, ,34, ,
2, ,34, ,
2, ,34, ,
1, ,34, ,
1, ,34, ,
1, ,34, ,
0, ,34, ,
-1, ,34, ,
-1, ,34, ,
-1, ,34, ,
-1, ,34, ,
-2, ,34, ,
-2, ,34, ,
-2, ,34, ,
-3, ,34, ,
-3, ,34, ,
-3, ,34, ,
-3, ,34, ,
-2, ,34, ,
-3, ,34, ,
-3, ,34, ,
-3, ,34, ,
-3, ,34, ,
-4, ,34, ,
-4, ,34, ,
-5, ,34, ,
-5, ,34, ,
-4, ,34, ,
-4, ,34, ,
-4, ,34, ,
-4, ,34, ,
-4, ,34, ,
-3, ,34, ,
-2, ,34, ,
-2, ,34, ,
1, ,34, ,
1, ,34, ,
2, ,34, ,
3, ,34, ,
4, ,34, ,
5, ,34, ,
6, ,34, ,
6, ,34, ,
6, ,34, ,
6, ,34, ,
6, ,34, ,
6, ,34, ,
5, ,34, ,
5, ,34, ,
4, ,34, ,
4, ,34, ,
3, ,34, ,
3, ,34, ,
3, ,34, ,
2, ,34, ,
1, ,34, ,
1, ,34, ,
0, ,34, ,
0, ,34, ,
-2, ,34, ,
-2, ,34, ,
-3, ,34, ,
-4, ,34, ,
-5, ,34, ,
-6, ,34, ,
-6, ,34, ,
-6, ,34, ,
-7, ,34, ,
-8, ,34, ,
-8, ,34, ,
-8, ,34, ,
-7, ,34, ,
-7, ,34, ,
-6, ,34, ,
-6, ,34, ,
-5, ,34, ,
-4, ,34, ,
-3, ,34, ,
-3, ,34, ,
-1, ,34, ,
1, ,34, ,
1, ,34, ,
2, ,34, ,
4, ,34, ,
4, ,34, ,
5, ,34, ,
6, ,34, ,
7, ,34, ,
7, ,34, ,
7, ,34, ,
7, ,34, ,
7, ,34, ,
7, ,34, ,
7, ,34, ,
6, ,34, ,
6, ,34, ,
5, ,34, ,
5, ,34, ,
4, ,34, ,
4, ,34, ,
3, ,34, ,
3, ,34, ,
3, ,34, ,
1, ,34, ,
1, ,34, ,
0, ,34, ,
-1, ,34, ,
-2, ,34, ,
-3, ,34, ,
-3, ,34, ,
-5, ,34, ,
-6, ,34, ,
-7, ,34, ,
-8, ,34, ,
-8, ,34, ,
-8, ,34, ,
-8, ,34, ,
-8, ,34, ,
-8, ,34, ,
-6, ,34, ,
-6, ,34, ,
-5, ,34, ,
-3, ,34, ,
-1, ,34, ,
0, ,34, ,
1, ,34, ,
3, ,34, ,
4, ,34, ,
6, ,34, ,
7, ,34, ,
8, ,34, ,
9, ,34, ,
8, ,34, ,
9, ,34, ,
9, ,34, ,
8, ,34, ,
8, ,34, ,
7, ,34, ,
7, ,34, ,
6, ,34, ,
5, ,34, ,
5, ,34, ,
4, ,34, ,
3, ,34, ,
2, ,34, ,
1, ,34, ,
0, ,34, ,
-1, ,34, ,
-2, ,34, ,
-3, ,34, ,
-4, ,34, ,
-5, ,34, ,
-5, ,34, ,
-7, ,34, ,
-7, ,34, ,
-7, ,34, ,
-7, ,34, ,
-7, ,34, ,
-7, ,34, ,
-6, ,34, ,
-5, ,34, ,
-5, ,34, ,
-4, ,34, ,
-2, ,34, ,
-1, ,34, ,
0, ,34, ,
0, ,34, ,
2, ,34, ,
3, ,34, ,
4, ,34, ,
5, ,34, ,
6, ,34, ,
6, ,34, ,
6, ,34, ,
6, ,34, ,
5, ,34, ,
5, ,34, ,
4, ,34, ,
4, ,34, ,
3, ,34, ,
1, ,34, ,
1, ,34, ,
0, ,34, ,
-1, ,34, ,
-2, ,34, ,
-2, ,34, ,
-2, ,34, ,
-2, ,34, ,
-2, ,34, ,
-2, ,34, ,
-2, ,34, ,
0, ,34, ,
1, ,34, ,
1, ,34, ,
2, ,34, ,
4, ,34, ,
5, ,34, ,
5, ,34, ,
6, ,34, ,
6, ,34, ,
7, ,34, ,
6, ,34, ,
6, ,34, ,
4, ,34, ,
3, ,34, ,
3, ,34, ,
1, ,34, ,
-1, ,34, ,
-3, ,34, ,
-4, ,34, ,
-6, ,34, ,
-8, ,34, ,
-9, ,34, ,
-10, ,34, ,
-11, ,34, ,
-11, ,34, ,
-10, ,34, ,
-10, ,34, ,
-10, ,34, ,
-8, ,34, ,
-7, ,34, ,
-6, ,34, ,
-5, ,34, ,
-3, ,34, ,
-1, ,34, ,
0, ,34, ,
1, ,34, ,
3, ,34, ,
4, ,34, ,
5, ,34, ,
5, ,34, ,
6, ,34, ,
6, ,34, ,
5, ,34, ,
5, ,34, ,
4, ,34, ,
4, ,34, ,
3, ,34, ,
2, ,34, ,
1, ,34, ,
0, ,34, ,
-1, ,34, ,
-1, ,34, ,
-2, ,34, ,
-2, ,34, ,
-2, ,34, ,
-2, ,34, ,
-2, ,34, ,
-1, ,34, ,
-1, ,34, ,
0, ,34, ,
1, ,34, ,
1, ,34, ,
2, ,34, ,
2, ,34, ,
3, ,34, ,
3, ,34, ,
3, ,34, ,
3, ,34, ,
2, ,34, ,
2, ,34, ,
2, ,34, ,
1, ,34, ,
1, ,34, ,
1, ,34, ,
0, ,34, ,
0, ,34, ,
-1, ,34, ,
-1, ,34, ,
-1, ,34, ,
-2, ,34, ,
-2, ,34, ,
-2, ,34, ,
-2, ,34, ,
-3, ,34, ,
-3, ,34, ,
-3, ,34, ,
-3, ,34, ,
-3, ,34, ,
-3, ,34, ,
-3, ,34, ,
-3, ,34, ,
-3, ,34, ,
-3, ,34, ,
-3, ,34, ,
-3, ,34, ,
-3, ,34, ,
-3, ,34, ,
-2, ,34, ,
-2, ,34, ,
-2, ,34, ,
-1, ,34, ,
-1, ,34, ,
-1, ,34, ,
0, ,34, ,
0, ,34, ,
1, ,34, ,
1, ,34, ,
2, ,34, ,
3, ,34, ,
3, ,34, ,
3, ,34, ,
3, ,34, ,
3, ,34, ,
3, ,34, ,
2, ,34, ,
2, ,34, ,
2, ,34, ,
1, ,34, ,
1, ,34, ,
0, ,34, ,
0, ,34, ,
0, ,34, ,
-1, ,34, ,
-1, ,34, ,
-2, ,34, ,
-2, ,34, ,
-2, ,34, ,
-2, ,34, ,
-1, ,34, ,
0, ,34, ,
0, ,34, ,
1, ,34, ,
3, ,34, ,
2, ,34, ,
4, ,34, ,
5, ,34, ,
6, ,34, ,
7, ,34, ,
7, ,34, ,
8, ,34, ,
9, ,34, ,
9, ,34, ,
9, ,34, ,
9, ,34, ,
8, ,34, ,
8, ,34, ,
7, ,34, ,
6, ,34, ,
5, ,34, ,
3, ,34, ,
2, ,34, ,
1, ,34, ,
-1, ,34, ,
-3, ,34, ,
-4, ,34, ,
-5, ,34, ,
-8, ,34, ,
-9, ,34, ,
-9, ,34, ,
-11, ,34, ,
-12, ,34, ,
-13, ,34, ,
-13, ,34, ,
-12, ,34, ,
-12, ,34, ,
-12, ,34, ,
-12, ,34, ,
-12, ,34, ,
-10, ,34, ,
-9, ,34, ,
-9, ,34, ,
-8, ,34, ,
-6, ,34, ,
-4, ,34, ,
-3, ,34, ,
-3, ,34, ,
0, ,34, ,
2, ,34, ,
2, ,34, ,
4, ,34, ,
6, ,34, ,
6, ,34, ,
7, ,34, ,
7, ,34, ,
8, ,34, ,
8, ,34, ,
8, ,34, ,
8, ,34, ,
9, ,34, ,
8, ,34, ,
8, ,34, ,
8, ,34, ,
9, ,34, ,
9, ,34, ,
