raw_data/75% Glycerol, Impulsion 2Hz, Sonde 5MHz, Rampe 0.7Hz/temp0000180.CSV

Format,1.0B,
Memory Length,10000,Memory Length,10000,
IntpDistance,0,IntpDistance,0,
Trigger Address,159,Trigger Address,159,
Trigger Level,2.720E-01,Trigger Level,2.720E-01,
Source,CH1,Source,CH2,
Vertical Units,V,Vertical Units,V,
Vertical Units Div,0,Vertical Units Div,0,
Vertical Units Extend Div,16,Vertical Units Extend Div,16,
Label,,Label,,
Probe Type,0,Probe Type,0,
Probe Ratio,1.000e+00,Probe Ratio,1.000e+00,
Vertical Scale,5.000e-01,Vertical Scale,2.000e+00,
Vertical Position,0.000e+00,Vertical Position,0.000e+00,
Horizontal Units,S,Horizontal Units,S,
Horizontal Scale,5.000E-06,Horizontal Scale,5.000E-06,
Horizontal Position,2.420E-05,Horizontal Position,2.420E-05,
Horizontal Mode,Main,Horizontal Mode,Main,
SincET Mode,Real Time,SincET Mode,Real Time,
Sampling Period,5.000e-09,Sampling Period,5.000e-09,
Horizontal Old Scale,5.000E-06,Horizontal Old Scale,5.000E-06,
Horizontal Old Position,2.420E-05,Horizontal Old Position,2.420E-05,
Firmware,V1.32,Firmware,V1.32,
Mode,Fast,Mode,Fast,
Waveform Data,,Waveform Data,,
1, ,32, ,
1, ,32, ,
1, ,32, ,
1, ,32, ,
1, ,32, ,
1, ,32, ,
1, ,32, ,
1, ,32, ,
1, ,32, ,
1, ,32, ,
1, ,32, ,
1, ,32, ,
1, ,32, ,
1, ,32, ,
1, ,32, ,
1, ,32, ,
0, ,32, ,
0, ,32, ,
0, ,32, ,
1, ,32, ,
1, ,32, ,
0, ,32, ,
0, ,32, ,
1, ,32, ,
1, ,32, ,
1, ,32, ,
1, ,32, ,
1, ,32, ,
0, ,32, ,
0, ,32, ,
0, ,32, ,
1, ,32, ,
1, ,32, ,
1, ,32, ,
0, ,32, ,
0, ,32, ,
1, ,32, ,
0, ,32, ,
0, ,32, ,
1, ,32, ,
1, ,32, ,
1, ,32, ,
1, ,32, ,
1, ,32, ,
1, ,32, ,
0, ,32, ,
0, ,32, ,
1, ,32, ,
1, ,32, ,
1, ,32, ,
1, ,32, ,
1, ,32, ,
1, ,32, ,
1, ,32, ,
1, ,32, ,
1, ,32, ,
1, ,32, ,
1, ,32, ,
1, ,32, ,
0, ,32, ,
1, ,32, ,
0, ,32, ,
1, ,32, ,
1, ,32, ,
0, ,32, ,
0, ,32, ,
0, ,32, ,
1, ,32, ,
1, ,32, ,
1, ,32, ,
1, ,32, ,
1, ,32, ,
1, ,32, ,
1, ,32, ,
0, ,32, ,
0, ,32, ,
1, ,32, ,
1, ,32, ,
1, ,32, ,
1, ,32, ,
1, ,32, ,
1, ,32, ,
1, ,32, ,
1, ,32, ,
1, ,32, ,
1, ,32, ,
1, ,32, ,
1, ,32, ,
1, ,32, ,
1, ,32, ,
1, ,32, ,
1, ,32, ,
1, ,32, ,
0, ,32, ,
0, ,32, ,
1, ,32, ,
1, ,32, ,
1, ,32, ,
1, ,32, ,
1, ,32, ,
1, ,32, ,
1, ,32, ,
1, ,32, ,
1, ,32, ,
1, ,32, ,
1, ,32, ,
1, ,32, ,
1, ,32, ,
1, ,32, ,
0, ,32, ,
0, ,32, ,
1, ,32, ,
1, ,32, ,
1, ,32, ,
1, ,32, ,
1, ,32, ,
1, ,32, ,
1, ,32, ,
1, ,32, ,
0, ,32, ,
0, ,32, ,
0, ,32, ,
0, ,32, ,
0, ,32, ,
0, ,32, ,
0, ,32, ,
0, ,32, ,
0, ,32, ,
0, ,32, ,
1, ,32, ,
0, ,32, ,
0, ,32, ,
0, ,32, ,
0, ,32, ,
1, ,32, ,
1, ,32, ,
1, ,32, ,
1, ,32, ,
1, ,32, ,
1, ,32, ,
1, ,32, ,
1, ,32, ,
1, ,32, ,
1, ,32, ,
1, ,32, ,
1, ,32, ,
1, ,32, ,
1, ,32, ,
1, ,32, ,
1, ,32, ,
1, ,32, ,
0, ,32, ,
0, ,32, ,
1, ,32, ,
1, ,32, ,
1, ,32, ,
1, ,32, ,
1, ,32, ,
1, ,32, ,
1, ,32, ,
1, ,32, ,
1, ,32, ,
0, ,32, ,
0, ,32, ,
-1, ,32, ,
0, ,32, ,
-2, ,32, ,
25, ,32, ,
57, ,32, ,
98, ,32, ,
125, ,32, ,
120, ,32, ,
82, ,32, ,
22, ,32, ,
-8, ,32, ,
72, ,32, ,
120, ,32, ,
125, ,32, ,
125, ,32, ,
125, ,32, ,
125, ,32, ,
125, ,32, ,
125, ,32, ,
124, ,32, ,
119, ,32, ,
113, ,32, ,
109, ,32, ,
102, ,32, ,
99, ,32, ,
96, ,32, ,
93, ,32, ,
85, ,32, ,
82, ,32, ,
79, ,32, ,
76, ,32, ,
70, ,32, ,
68, ,32, ,
65, ,32, ,
62, ,32, ,
57, ,32, ,
55, ,32, ,
53, ,32, ,
50, ,32, ,
46, ,32, ,
45, ,32, ,
42, ,32, ,
41, ,32, ,
37, ,32, ,
36, ,32, ,
34, ,32, ,
32, ,32, ,
29, ,32, ,
28, ,32, ,
26, ,32, ,
26, ,32, ,
25, ,32, ,
23, ,32, ,
22, ,32, ,
21, ,32, ,
19, ,32, ,
18, ,32, ,
18, ,32, ,
16, ,32, ,
15, ,32, ,
14, ,32, ,
13, ,32, ,
13, ,32, ,
11, ,32, ,
11, ,32, ,
10, ,32, ,
10, ,32, ,
9, ,32, ,
8, ,32, ,
7, ,32, ,
7, ,32, ,
7, ,32, ,
6, ,32, ,
6, ,32, ,
5, ,32, ,
4, ,32, ,
4, ,32, ,
4, ,32, ,
3, ,32, ,
3, ,32, ,
3, ,32, ,
2, ,32, ,
2, ,32, ,
2, ,32, ,
1, ,32, ,
1, ,32, ,
1, ,32, ,
1, ,32, ,
1, ,32, ,
1, ,32, ,
0, ,32, ,
0, ,32, ,
0, ,32, ,
0, ,32, ,
0, ,32, ,
0, ,32, ,
0, ,32, ,
0, ,32, ,
0, ,32, ,
0, ,32, ,
-1, ,32, ,
-1, ,32, ,
-1, ,32, ,
-1, ,32, ,
-1, ,32, ,
-1, ,32, ,
-1, ,32, ,
-1, ,32, ,
-1, ,32, ,
-1, ,32, ,
-1, ,32, ,
-1, ,32, ,
-1, ,32, ,
-1, ,32, ,
-1, ,32, ,
-1, ,32, ,
-1, ,32, ,
-1, ,32, ,
-1, ,32, ,
-1, ,32, ,
-1, ,32, ,
-1, ,32, ,
-1, ,32, ,
-1, ,32, ,
-1, ,32, ,
-1, ,32, ,
-1, ,32, ,
-1, ,32, ,
-1, ,32, ,
-1, ,32, ,
-1, ,32, ,
-1, ,32, ,
-1, ,32, ,
-1, ,32, ,
-1, ,32, ,
-1, ,32, ,
-1, ,32, ,
-1, ,32, ,
-1, ,32, ,
-1, ,32, ,
-1, ,32, ,
-1, ,32, ,
-1, ,32, ,
-1, ,32, ,
-1, ,32, ,
-1, ,32, ,
0, ,32, ,
-1, ,32, ,
-1, ,32, ,
-1, ,32, ,
-1, ,32, ,
-1, ,32, ,
0, ,32, ,
0, ,32, ,
0, ,32, ,
-1, ,32, ,
-1, ,32, ,
-1, ,32, ,
0, ,32, ,
-1, ,32, ,
-1, ,32, ,
-1, ,32, ,
0, ,32, ,
0, ,32, ,
0, ,32, ,
0, ,32, ,
0, ,32, ,
0, ,32, ,
0, ,32, ,
0, ,32, ,
0, ,32, ,
0, ,32, ,
-1, ,32, ,
-1, ,32, ,
-1, ,32, ,
0, ,32, ,
0, ,32, ,
0, ,32, ,
0, ,32, ,
0, ,32, ,
0, ,32, ,
0, ,32, ,
0, ,32, ,
0, ,32, ,
0, ,32, ,
0, ,32, ,
0, ,32, ,
0, ,32, ,
0, ,32, ,
0, ,32, ,
0, ,32, ,
0, ,32, ,
0, ,32, ,
0, ,32, ,
0, ,32, ,
0, ,32, ,
0, ,32, ,
0, ,32, ,
0, ,32, ,
0, ,32, ,
1, ,32, ,
1, ,32, ,
0, ,32, ,
0, ,32, ,
0, ,32, ,
0, ,32, ,
0, ,32, ,
0, ,32, ,
0, ,32, ,
0, ,32, ,
0, ,32, ,
0, ,32, ,
0, ,32, ,
0, ,32, ,
0, ,32, ,
0, ,32, ,
0, ,32, ,
0, ,32, ,
1, ,32, ,
0, ,32, ,
0, ,32, ,
0, ,32, ,
0, ,32, ,
0, ,32, ,
0, ,32, ,
0, ,32, ,
0, ,32, ,
0, ,32, ,
0, ,32, ,
0, ,32, ,
0, ,32, ,
0, ,32, ,
0, ,32, ,
0, ,32, ,
1, ,32, ,
1, ,32, ,
0, ,32, ,
0, ,32, ,
0, ,32, ,
1, ,32, ,
0, ,32, ,
0, ,32, ,
0, ,32, ,
0, ,32, ,
0, ,32, ,
1, ,32, ,
0, ,32, ,
0, ,32, ,
1, ,32, ,
1, ,32, ,
1, ,32, ,
1, ,32, ,
1, ,32, ,
1, ,32, ,
1, ,32, ,
0, ,32, ,
0, ,32, ,
0, ,32, ,
1, ,32, ,
1, ,32, ,
1, ,32, ,
1, ,32, ,
1, ,32, ,
0, ,32, ,
0, ,32, ,
0, ,32, ,
0, ,32, ,
0, ,32, ,
0, ,32, ,
0, ,32, ,
-1, ,32, ,
-1, ,32, ,
-1, ,32, ,
-2, ,32, ,
-3, ,32, ,
-5, ,32, ,
-7, ,32, ,
-9, ,32, ,
-12, ,32, ,
-16, ,32, ,
-16, ,32, ,
-16, ,32, ,
-13, ,32, ,
-9, ,32, ,
-6, ,32, ,
-4, ,32, ,
-3, ,32, ,
0, ,32, ,
1, ,32, ,
2, ,32, ,
2, ,32, ,
3, ,32, ,
3, ,32, ,
3, ,32, ,
3, ,32, ,
3, ,32, ,
3, ,32, ,
2, ,32, ,
2, ,32, ,
1, ,32, ,
0, ,32, ,
0, ,32, ,
0, ,32, ,
0, ,32, ,
1, ,32, ,
1, ,32, ,
1, ,32, ,
2, ,32, ,
2, ,32, ,
3, ,32, ,
3, ,32, ,
3, ,32, ,
3, ,32, ,
3, ,32, ,
3, ,32, ,
3, ,32, ,
3, ,32, ,
3, ,32, ,
2, ,32, ,
2, ,32, ,
3, ,32, ,
2, ,32, ,
2, ,32, ,
2, ,32, ,
2, ,32, ,
2, ,32, ,
2, ,32, ,
2, ,32, ,
2, ,32, ,
2, ,32, ,
2, ,32, ,
2, ,32, ,
2, ,32, ,
2, ,32, ,
1, ,32, ,
0, ,32, ,
0, ,32, ,
0, ,32, ,
0, ,32, ,
0, ,32, ,
0, ,32, ,
0, ,32, ,
0, ,32, ,
0, ,32, ,
0, ,32, ,
0, ,32, ,
0, ,32, ,
0, ,32, ,
0, ,32, ,
1, ,32, ,
0, ,32, ,
-1, ,32, ,
-1, ,32, ,
-2, ,32, ,
-2, ,32, ,
-4, ,32, ,
-4, ,32, ,
-5, ,32, ,
-7, ,32, ,
-8, ,32, ,
-8, ,32, ,
-8, ,32, ,
-8, ,32, ,
-8, ,32, ,
-8, ,32, ,
-7, ,32, ,
-7, ,32, ,
-5, ,32, ,
-4, ,32, ,
-4, ,32, ,
-3, ,32, ,
-4, ,32, ,
-4, ,32, ,
-4, ,32, ,
-6, ,32, ,
-8, ,32, ,
-11, ,32, ,
-14, ,32, ,
-16, ,32, ,
-25, ,32, ,
-27, ,32, ,
-32, ,32, ,
-35, ,32, ,
-38, ,32, ,
-37, ,32, ,
-37, ,32, ,
-36, ,32, ,
-32, ,32, ,
-31, ,32, ,
-29, ,32, ,
-26, ,32, ,
-25, ,32, ,
-22, ,32, ,
-22, ,32, ,
-21, ,32, ,
-21, ,32, ,
-21, ,32, ,
-21, ,32, ,
-21, ,32, ,
-22, ,32, ,
-22, ,32, ,
-22, ,32, ,
-22, ,32, ,
-21, ,32, ,
-21, ,32, ,
-21, ,32, ,
-21, ,32, ,
-20, ,32, ,
-20, ,32, ,
-19, ,32, ,
-19, ,32, ,
-18, ,32, ,
-18, ,32, ,
-18, ,32, ,
-17, ,32, ,
-15, ,32, ,
-13, ,32, ,
-11, ,32, ,
-9, ,32, ,
-4, ,32, ,
-2, ,32, ,
1, ,32, ,
3, ,32, ,
7, ,32, ,
10, ,32, ,
12, ,32, ,
14, ,32, ,
17, ,32, ,
18, ,32, ,
19, ,32, ,
20, ,32, ,
20, ,32, ,
20, ,32, ,
20, ,32, ,
20, ,32, ,
18, ,32, ,
17, ,32, ,
16, ,32, ,
16, ,32, ,
13, ,32, ,
13, ,32, ,
11, ,32, ,
10, ,32, ,
8, ,32, ,
7, ,32, ,
6, ,32, ,
4, ,32, ,
2, ,32, ,
0, ,32, ,
-1, ,32, ,
-2, ,32, ,
-4, ,32, ,
-5, ,32, ,
-5, ,32, ,
-6, ,32, ,
-5, ,32, ,
-5, ,32, ,
-5, ,32, ,
-5, ,32, ,
-4, ,32, ,
-4, ,32, ,
-3, ,32, ,
-3, ,32, ,
-1, ,32, ,
0, ,32, ,
0, ,32, ,
1, ,32, ,
1, ,32, ,
1, ,32, ,
0, ,32, ,
0, ,32, ,
-2, ,32, ,
-3, ,32, ,
-5, ,32, ,
-7, ,32, ,
-12, ,32, ,
-15, ,32, ,
-17, ,32, ,
-20, ,32, ,
-25, ,32, ,
-26, ,32, ,
-28, ,32, ,
-30, ,32, ,
-31, ,32, ,
-31, ,32, ,
-31, ,32, ,
-31, ,32, ,
-30, ,32, ,
-29, ,32, ,
-28, ,32, ,
-27, ,32, ,
-25, ,32, ,
-24, ,32, ,
-22, ,32, ,
-20, ,32, ,
-15, ,32, ,
-12, ,32, ,
-9, ,32, ,
-6, ,32, ,
0, ,32, ,
3, ,32, ,
6, ,32, ,
7, ,32, ,
11, ,32, ,
12, ,32, ,
13, ,32, ,
13, ,32, ,
12, ,32, ,
11, ,32, ,
10, ,32, ,
8, ,32, ,
4, ,32, ,
2, ,32, ,
0, ,32, ,
-3, ,32, ,
-7, ,32, ,
-9, ,32, ,
-11, ,32, ,
-13, ,32, ,
-15, ,32, ,
-15, ,32, ,
-15, ,32, ,
-15, ,32, ,
-14, ,32, ,
-13, ,32, ,
-11, ,32, ,
-9, ,32, ,
-6, ,32, ,
-4, ,32, ,
-3, ,32, ,
-2, ,32, ,
-1, ,32, ,
-2, ,32, ,
-2, ,32, ,
-3, ,32, ,
-5, ,32, ,
-7, ,32, ,
-9, ,32, ,
-10, ,32, ,
-13, ,32, ,
-14, ,32, ,
-16, ,32, ,
-16, ,32, ,
-16, ,32, ,
-16, ,32, ,
-16, ,32, ,
-14, ,32, ,
-12, ,32, ,
-10, ,32, ,
-8, ,32, ,
-5, ,32, ,
0, ,32, ,
3, ,32, ,
5, ,32, ,
8, ,32, ,
11, ,32, ,
12, ,32, ,
13, ,32, ,
13, ,32, ,
12, ,32, ,
11, ,32, ,
9, ,32, ,
7, ,32, ,
3, ,32, ,
0, ,32, ,
-2, ,32, ,
-4, ,32, ,
-8, ,32, ,
-9, ,32, ,
-10, ,32, ,
-9, ,32, ,
-8, ,32, ,
-7, ,32, ,
-5, ,32, ,
-3, ,32, ,
3, ,32, ,
5, ,32, ,
8, ,32, ,
10, ,32, ,
14, ,32, ,
14, ,32, ,
13, ,32, ,
13, ,32, ,
10, ,32, ,
9, ,32, ,
6, ,32, ,
4, ,32, ,
-2, ,32, ,
-6, ,32, ,
-8, ,32, ,
-11, ,32, ,
-14, ,32, ,
-13, ,32, ,
-14, ,32, ,
-12, ,32, ,
-7, ,32, ,
-4, ,32, ,
0, ,32, ,
4, ,32, ,
12, ,32, ,
16, ,32, ,
19, ,32, ,
22, ,32, ,
24, ,32, ,
23, ,32, ,
22, ,32, ,
19, ,32, ,
11, ,32, ,
5, ,32, ,
-2, ,32, ,
-11, ,32, ,
-28, ,32, ,
-38, ,32, ,
-47, ,32, ,
-57, ,32, ,
-73, ,32, ,
-78, ,32, ,
-84, ,32, ,
-88, ,32, ,
-93, ,32, ,
-93, ,32, ,
-92, ,32, ,
-90, ,32, ,
-80, ,32, ,
-74, ,32, ,
-67, ,32, ,
-57, ,32, ,
-36, ,32, ,
-25, ,32, ,
-14, ,32, ,
-2, ,32, ,
24, ,32, ,
35, ,32, ,
46, ,32, ,
56, ,32, ,
74, ,32, ,
79, ,32, ,
84, ,32, ,
87, ,32, ,
88, ,32, ,
88, ,32, ,
87, ,32, ,
84, ,32, ,
76, ,32, ,
71, ,32, ,
63, ,32, ,
52, ,32, ,
23, ,32, ,
4, ,32, ,
-15, ,32, ,
-33, ,32, ,
-67, ,32, ,
-80, ,32, ,
-91, ,32, ,
-100, ,32, ,
-111, ,32, ,
-113, ,32, ,
-113, ,32, ,
-113, ,32, ,
-110, ,32, ,
-105, ,32, ,
-95, ,32, ,
-82, ,32, ,
-56, ,32, ,
-44, ,32, ,
-33, ,32, ,
-22, ,32, ,
-1, ,32, ,
9, ,32, ,
19, ,32, ,
26, ,32, ,
40, ,32, ,
46, ,32, ,
51, ,32, ,
56, ,32, ,
63, ,32, ,
64, ,32, ,
64, ,32, ,
63, ,32, ,
60, ,32, ,
57, ,32, ,
54, ,32, ,
50, ,32, ,
40, ,32, ,
34, ,32, ,
28, ,32, ,
23, ,32, ,
13, ,32, ,
8, ,32, ,
4, ,32, ,
2, ,32, ,
-1, ,32, ,
-1, ,32, ,
0, ,32, ,
0, ,32, ,
3, ,32, ,
5, ,32, ,
7, ,32, ,
8, ,32, ,
12, ,32, ,
12, ,32, ,
12, ,32, ,
11, ,32, ,
9, ,32, ,
8, ,32, ,
5, ,32, ,
3, ,32, ,
-4, ,32, ,
-9, ,32, ,
-12, ,32, ,
-17, ,32, ,
-26, ,32, ,
-30, ,32, ,
-35, ,32, ,
-39, ,32, ,
-45, ,32, ,
-47, ,32, ,
-47, ,32, ,
-48, ,32, ,
-45, ,32, ,
-42, ,32, ,
-39, ,32, ,
-34, ,32, ,
-24, ,32, ,
-17, ,32, ,
-11, ,32, ,
-4, ,32, ,
9, ,32, ,
15, ,32, ,
21, ,32, ,
25, ,32, ,
34, ,32, ,
37, ,32, ,
40, ,32, ,
41, ,32, ,
40, ,32, ,
39, ,32, ,
37, ,32, ,
34, ,32, ,
25, ,32, ,
19, ,32, ,
12, ,32, ,
3, ,32, ,
-15, ,32, ,
-24, ,32, ,
-33, ,32, ,
-42, ,32, ,
-60, ,32, ,
-68, ,32, ,
-74, ,32, ,
-79, ,32, ,
-86, ,32, ,
-86, ,32, ,
-85, ,32, ,
-83, ,32, ,
-72, ,32, ,
-63, ,32, ,
-52, ,32, ,
-41, ,32, ,
-18, ,32, ,
-6, ,32, ,
5, ,32, ,
16, ,32, ,
31, ,32, ,
37, ,32, ,
42, ,32, ,
44, ,32, ,
44, ,32, ,
42, ,32, ,
39, ,32, ,
34, ,32, ,
24, ,32, ,
16, ,32, ,
9, ,32, ,
2, ,32, ,
-12, ,32, ,
-18, ,32, ,
-23, ,32, ,
-26, ,32, ,
-30, ,32, ,
-31, ,32, ,
-29, ,32, ,
-28, ,32, ,
-22, ,32, ,
-17, ,32, ,
-12, ,32, ,
-6, ,32, ,
7, ,32, ,
13, ,32, ,
19, ,32, ,
24, ,32, ,
33, ,32, ,
37, ,32, ,
40, ,32, ,
43, ,32, ,
45, ,32, ,
44, ,32, ,
44, ,32, ,
41, ,32, ,
35, ,32, ,
30, ,32, ,
25, ,32, ,
19, ,32, ,
6, ,32, ,
-2, ,32, ,
-8, ,32, ,
-16, ,32, ,
-27, ,32, ,
-33, ,32, ,
-38, ,32, ,
-41, ,32, ,
-47, ,32, ,
-49, ,32, ,
-49, ,32, ,
-49, ,32, ,
-47, ,32, ,
-45, ,32, ,
-43, ,32, ,
-40, ,32, ,
-34, ,32, ,
-31, ,32, ,
-27, ,32, ,
-25, ,32, ,
-18, ,32, ,
-15, ,32, ,
-12, ,32, ,
-9, ,32, ,
-3, ,32, ,
-1, ,32, ,
3, ,32, ,
6, ,32, ,
11, ,32, ,
15, ,32, ,
17, ,32, ,
20, ,32, ,
25, ,32, ,
26, ,32, ,
29, ,32, ,
31, ,32, ,
34, ,32, ,
35, ,32, ,
35, ,32, ,
37, ,32, ,
36, ,32, ,
35, ,32, ,
35, ,32, ,
34, ,32, ,
30, ,32, ,
28, ,32, ,
26, ,32, ,
24, ,32, ,
18, ,32, ,
13, ,32, ,
10, ,32, ,
6, ,32, ,
-2, ,32, ,
-6, ,32, ,
-10, ,32, ,
-14, ,32, ,
-20, ,32, ,
-22, ,32, ,
-24, ,32, ,
-25, ,32, ,
-25, ,32, ,
-25, ,32, ,
-24, ,32, ,
-22, ,32, ,
-19, ,32, ,
-18, ,32, ,
-16, ,32, ,
-14, ,32, ,
-11, ,32, ,
-10, ,32, ,
-11, ,32, ,
-11, ,32, ,
-13, ,32, ,
-15, ,32, ,
-17, ,32, ,
-20, ,32, ,
-25, ,32, ,
-27, ,32, ,
-31, ,32, ,
-34, ,32, ,
-39, ,32, ,
-41, ,32, ,
-41, ,32, ,
-42, ,32, ,
-40, ,32, ,
-37, ,32, ,
-34, ,32, ,
-30, ,32, ,
-20, ,32, ,
-15, ,32, ,
-8, ,32, ,
0, ,32, ,
14, ,32, ,
21, ,32, ,
26, ,32, ,
33, ,32, ,
44, ,32, ,
48, ,32, ,
51, ,32, ,
53, ,32, ,
53, ,32, ,
53, ,32, ,
51, ,32, ,
49, ,32, ,
40, ,32, ,
35, ,32, ,
30, ,32, ,
24, ,32, ,
12, ,32, ,
6, ,32, ,
0, ,32, ,
-5, ,32, ,
-14, ,32, ,
-18, ,32, ,
-21, ,32, ,
-23, ,32, ,
-24, ,32, ,
-24, ,32, ,
-23, ,32, ,
-22, ,32, ,
-19, ,32, ,
-18, ,32, ,
-15, ,32, ,
-14, ,32, ,
-10, ,32, ,
-8, ,32, ,
-8, ,32, ,
-7, ,32, ,
-6, ,32, ,
-7, ,32, ,
-7, ,32, ,
-7, ,32, ,
-8, ,32, ,
-9, ,32, ,
-10, ,32, ,
-11, ,32, ,
-12, ,32, ,
-12, ,32, ,
-12, ,32, ,
-13, ,32, ,
-13, ,32, ,
-12, ,32, ,
-12, ,32, ,
-11, ,32, ,
-10, ,32, ,
-8, ,32, ,
-7, ,32, ,
-6, ,32, ,
-2, ,32, ,
0, ,32, ,
1, ,32, ,
4, ,32, ,
7, ,32, ,
9, ,32, ,
11, ,32, ,
12, ,32, ,
14, ,32, ,
15, ,32, ,
15, ,32, ,
16, ,32, ,
16, ,32, ,
16, ,32, ,
16, ,32, ,
15, ,32, ,
14, ,32, ,
14, ,32, ,
13, ,32, ,
13, ,32, ,
13, ,32, ,
12, ,32, ,
12, ,32, ,
12, ,32, ,
11, ,32, ,
11, ,32, ,
9, ,32, ,
9, ,32, ,
6, ,32, ,
5, ,32, ,
2, ,32, ,
0, ,32, ,
-4, ,32, ,
-6, ,32, ,
-9, ,32, ,
-11, ,32, ,
-15, ,32, ,
-17, ,32, ,
-18, ,32, ,
-20, ,32, ,
-20, ,32, ,
-19, ,32, ,
-19, ,32, ,
-19, ,32, ,
-18, ,32, ,
-18, ,32, ,
-17, ,32, ,
-16, ,32, ,
-15, ,32, ,
-15, ,32, ,
-15, ,32, ,
-15, ,32, ,
-14, ,32, ,
-14, ,32, ,
-14, ,32, ,
-14, ,32, ,
-12, ,32, ,
-12, ,32, ,
-10, ,32, ,
-8, ,32, ,
-4, ,32, ,
-2, ,32, ,
0, ,32, ,
3, ,32, ,
8, ,32, ,
11, ,32, ,
13, ,32, ,
15, ,32, ,
18, ,32, ,
18, ,32, ,
19, ,32, ,
18, ,32, ,
17, ,32, ,
16, ,32, ,
14, ,32, ,
12, ,32, ,
8, ,32, ,
5, ,32, ,
3, ,32, ,
-1, ,32, ,
-5, ,32, ,
-7, ,32, ,
-10, ,32, ,
-11, ,32, ,
-13, ,32, ,
-13, ,32, ,
-13, ,32, ,
-13, ,32, ,
-12, ,32, ,
-10, ,32, ,
-9, ,32, ,
-7, ,32, ,
-3, ,32, ,
-1, ,32, ,
2, ,32, ,
3, ,32, ,
6, ,32, ,
8, ,32, ,
9, ,32, ,
9, ,32, ,
9, ,32, ,
8, ,32, ,
8, ,32, ,
6, ,32, ,
4, ,32, ,
1, ,32, ,
0, ,32, ,
-2, ,32, ,
-5, ,32, ,
-6, ,32, ,
-6, ,32, ,
-6, ,32, ,
-6, ,32, ,
-6, ,32, ,
-5, ,32, ,
-4, ,32, ,
-3, ,32, ,
-2, ,32, ,
-1, ,32, ,
-1, ,32, ,
-1, ,32, ,
-1, ,32, ,
-2, ,32, ,
-2, ,32, ,
-5, ,32, ,
-6, ,32, ,
-7, ,32, ,
-9, ,32, ,
-10, ,32, ,
-11, ,32, ,
-11, ,32, ,
-11, ,32, ,
-10, ,32, ,
-10, ,32, ,
-9, ,32, ,
-8, ,32, ,
-6, ,32, ,
-5, ,32, ,
-4, ,32, ,
-3, ,32, ,
-1, ,32, ,
0, ,32, ,
0, ,32, ,
1, ,32, ,
0, ,32, ,
0, ,32, ,
-1, ,32, ,
-1, ,32, ,
-2, ,32, ,
-2, ,32, ,
-2, ,32, ,
-3, ,32, ,
-4, ,32, ,
-4, ,32, ,
-4, ,32, ,
-4, ,32, ,
-4, ,32, ,
-5, ,32, ,
-5, ,32, ,
-5, ,32, ,
-6, ,32, ,
-6, ,32, ,
-6, ,32, ,
-7, ,32, ,
-8, ,32, ,
-8, ,32, ,
-8, ,32, ,
-8, ,32, ,
-8, ,32, ,
-8, ,32, ,
-8, ,32, ,
-7, ,32, ,
-6, ,32, ,
-4, ,32, ,
-3, ,32, ,
-3, ,32, ,
0, ,32, ,
2, ,32, ,
3, ,32, ,
5, ,32, ,
7, ,32, ,
9, ,32, ,
10, ,32, ,
10, ,32, ,
12, ,32, ,
13, ,32, ,
13, ,32, ,
14, ,32, ,
15, ,32, ,
15, ,32, ,
15, ,32, ,
15, ,32, ,
14, ,32, ,
13, ,32, ,
12, ,32, ,
12, ,32, ,
9, ,32, ,
7, ,32, ,
6, ,32, ,
3, ,32, ,
-1, ,32, ,
-4, ,32, ,
-6, ,32, ,
-8, ,32, ,
-13, ,32, ,
-15, ,32, ,
-17, ,32, ,
-18, ,32, ,
-18, ,32, ,
-17, ,32, ,
-17, ,32, ,
-16, ,32, ,
-13, ,32, ,
-11, ,32, ,
-9, ,32, ,
-7, ,32, ,
-3, ,32, ,
-1, ,32, ,
1, ,32, ,
2, ,32, ,
4, ,32, ,
5, ,32, ,
5, ,32, ,
4, ,32, ,
3, ,32, ,
2, ,32, ,
1, ,32, ,
0, ,32, ,
-2, ,32, ,
-4, ,32, ,
-5, ,32, ,
-6, ,32, ,
-7, ,32, ,
-7, ,32, ,
-7, ,32, ,
-7, ,32, ,
-6, ,32, ,
-5, ,32, ,
-4, ,32, ,
-3, ,32, ,
1, ,32, ,
3, ,32, ,
5, ,32, ,
8, ,32, ,
13, ,32, ,
15, ,32, ,
18, ,32, ,
19, ,32, ,
23, ,32, ,
23, ,32, ,
23, ,32, ,
23, ,32, ,
22, ,32, ,
20, ,32, ,
19, ,32, ,
16, ,32, ,
11, ,32, ,
8, ,32, ,
4, ,32, ,
2, ,32, ,
-5, ,32, ,
-9, ,32, ,
-11, ,32, ,
-14, ,32, ,
-18, ,32, ,
-20, ,32, ,
-21, ,32, ,
-21, ,32, ,
-21, ,32, ,
-20, ,32, ,
-19, ,32, ,
-18, ,32, ,
-13, ,32, ,
-11, ,32, ,
-8, ,32, ,
-6, ,32, ,
0, ,32, ,
2, ,32, ,
5, ,32, ,
7, ,32, ,
12, ,32, ,
14, ,32, ,
14, ,32, ,
15, ,32, ,
15, ,32, ,
13, ,32, ,
13, ,32, ,
11, ,32, ,
6, ,32, ,
4, ,32, ,
1, ,32, ,
-2, ,32, ,
-8, ,32, ,
-10, ,32, ,
-13, ,32, ,
-15, ,32, ,
-18, ,32, ,
-18, ,32, ,
-18, ,32, ,
-18, ,32, ,
-16, ,32, ,
-15, ,32, ,
-13, ,32, ,
-11, ,32, ,
-7, ,32, ,
-4, ,32, ,
-2, ,32, ,
1, ,32, ,
5, ,32, ,
6, ,32, ,
8, ,32, ,
9, ,32, ,
10, ,32, ,
10, ,32, ,
9, ,32, ,
9, ,32, ,
8, ,32, ,
7, ,32, ,
7, ,32, ,
6, ,32, ,
6, ,32, ,
6, ,32, ,
5, ,32, ,
5, ,32, ,
3, ,32, ,
2, ,32, ,
2, ,32, ,
1, ,32, ,
0, ,32, ,
-1, ,32, ,
-1, ,32, ,
-2, ,32, ,
-3, ,32, ,
-3, ,32, ,
-3, ,32, ,
-3, ,32, ,
-3, ,32, ,
-2, ,32, ,
-2, ,32, ,
-1, ,32, ,
0, ,32, ,
1, ,32, ,
1, ,32, ,
2, ,32, ,
2, ,32, ,
3, ,32, ,
2, ,32, ,
2, ,32, ,
2, ,32, ,
2, ,32, ,
2, ,32, ,
1, ,32, ,
1, ,32, ,
2, ,32, ,
2, ,32, ,
2, ,32, ,
3, ,32, ,
3, ,32, ,
3, ,32, ,
3, ,32, ,
2, ,32, ,
2, ,32, ,
0, ,32, ,
0, ,32, ,
-3, ,32, ,
-5, ,32, ,
-7, ,32, ,
-10, ,32, ,
-15, ,32, ,
-16, ,32, ,
-19, ,32, ,
-21, ,32, ,
-23, ,32, ,
-23, ,32, ,
-23, ,32, ,
-22, ,32, ,
-19, ,32, ,
-16, ,32, ,
-14, ,32, ,
-10, ,32, ,
-2, ,32, ,
1, ,32, ,
6, ,32, ,
9, ,32, ,
15, ,32, ,
18, ,32, ,
20, ,32, ,
22, ,32, ,
23, ,32, ,
23, ,32, ,
23, ,32, ,
22, ,32, ,
20, ,32, ,
19, ,32, ,
17, ,32, ,
15, ,32, ,
13, ,32, ,
11, ,32, ,
10, ,32, ,
9, ,32, ,
6, ,32, ,
5, ,32, ,
4, ,32, ,
3, ,32, ,
1, ,32, ,
0, ,32, ,
-1, ,32, ,
-3, ,32, ,
-4, ,32, ,
-6, ,32, ,
-7, ,32, ,
-8, ,32, ,
-9, ,32, ,
-10, ,32, ,
-11, ,32, ,
-11, ,32, ,
-11, ,32, ,
-10, ,32, ,
-10, ,32, ,
-9, ,32, ,
-8, ,32, ,
-8, ,32, ,
-6, ,32, ,
-6, ,32, ,
-4, ,32, ,
-3, ,32, ,
-3, ,32, ,
-2, ,32, ,
-1, ,32, ,
-1, ,32, ,
-1, ,32, ,
-1, ,32, ,
0, ,32, ,
0, ,32, ,
0, ,32, ,
0, ,32, ,
1, ,32, ,
1, ,32, ,
2, ,32, ,
3, ,32, ,
5, ,32, ,
6, ,32, ,
8, ,32, ,
9, ,32, ,
12, ,32, ,
13, ,32, ,
14, ,32, ,
15, ,32, ,
16, ,32, ,
16, ,32, ,
16, ,32, ,
16, ,32, ,
14, ,32, ,
13, ,32, ,
12, ,32, ,
10, ,32, ,
5, ,32, ,
3, ,32, ,
0, ,32, ,
-3, ,32, ,
-8, ,32, ,
-11, ,32, ,
-13, ,32, ,
-15, ,32, ,
-18, ,32, ,
-18, ,32, ,
-19, ,32, ,
-18, ,32, ,
-17, ,32, ,
-17, ,32, ,
-15, ,32, ,
-13, ,32, ,
-9, ,32, ,
-7, ,32, ,
-5, ,32, ,
-4, ,32, ,
1, ,32, ,
1, ,32, ,
3, ,32, ,
3, ,32, ,
3, ,32, ,
2, ,32, ,
2, ,32, ,
1, ,32, ,
0, ,32, ,
-2, ,32, ,
-2, ,32, ,
-2, ,32, ,
-3, ,32, ,
-3, ,32, ,
-3, ,32, ,
-2, ,32, ,
0, ,32, ,
0, ,32, ,
2, ,32, ,
3, ,32, ,
6, ,32, ,
8, ,32, ,
8, ,32, ,
11, ,32, ,
12, ,32, ,
13, ,32, ,
13, ,32, ,
13, ,32, ,
12, ,32, ,
12, ,32, ,
10, ,32, ,
9, ,32, ,
7, ,32, ,
5, ,32, ,
4, ,32, ,
1, ,32, ,
-3, ,32, ,
-5, ,32, ,
-7, ,32, ,
-9, ,32, ,
-12, ,32, ,
-13, ,32, ,
-14, ,32, ,
-14, ,32, ,
-14, ,32, ,
-13, ,32, ,
-12, ,32, ,
-11, ,32, ,
-7, ,32, ,
-5, ,32, ,
-2, ,32, ,
0, ,32, ,
5, ,32, ,
7, ,32, ,
8, ,32, ,
11, ,32, ,
13, ,32, ,
13, ,32, ,
13, ,32, ,
11, ,32, ,
9, ,32, ,
8, ,32, ,
5, ,32, ,
3, ,32, ,
-2, ,32, ,
-5, ,32, ,
-6, ,32, ,
-8, ,32, ,
-12, ,32, ,
-13, ,32, ,
-14, ,32, ,
-14, ,32, ,
-13, ,32, ,
-12, ,32, ,
-11, ,32, ,
-9, ,32, ,
-5, ,32, ,
-3, ,32, ,
-2, ,32, ,
1, ,32, ,
5, ,32, ,
7, ,32, ,
9, ,32, ,
11, ,32, ,
13, ,32, ,
14, ,32, ,
14, ,32, ,
13, ,32, ,
12, ,32, ,
11, ,32, ,
10, ,32, ,
8, ,32, ,
5, ,32, ,
3, ,32, ,
1, ,32, ,
-1, ,32, ,
-4, ,32, ,
-6, ,32, ,
-6, ,32, ,
-8, ,32, ,
-7, ,32, ,
-7, ,32, ,
-7, ,32, ,
-5, ,32, ,
-4, ,32, ,
-3, ,32, ,
-1, ,32, ,
-1, ,32, ,
1, ,32, ,
2, ,32, ,
2, ,32, ,
2, ,32, ,
1, ,32, ,
0, ,32, ,
0, ,32, ,
-2, ,32, ,
-5, ,32, ,
-6, ,32, ,
-8, ,32, ,
-9, ,32, ,
-11, ,32, ,
-11, ,32, ,
-11, ,32, ,
-11, ,32, ,
-11, ,32, ,
-10, ,32, ,
-10, ,32, ,
-9, ,32, ,
-7, ,32, ,
-5, ,32, ,
-3, ,32, ,
-2, ,32, ,
1, ,32, ,
3, ,32, ,
5, ,32, ,
7, ,32, ,
10, ,32, ,
11, ,32, ,
12, ,32, ,
12, ,32, ,
14, ,32, ,
13, ,32, ,
13, ,32, ,
12, ,32, ,
10, ,32, ,
8, ,32, ,
8, ,32, ,
6, ,32, ,
2, ,32, ,
1, ,32, ,
-2, ,32, ,
-3, ,32, ,
-6, ,32, ,
