raw_data/75% Glycerol, Impulsion 2Hz, Sonde 5MHz, Rampe 0.7Hz/temp0000211.CSV

Format,1.0B,
Memory Length,10000,Memory Length,10000,
IntpDistance,0,IntpDistance,0,
Trigger Address,159,Trigger Address,159,
Trigger Level,2.720E-01,Trigger Level,2.720E-01,
Source,CH1,Source,CH2,
Vertical Units,V,Vertical Units,V,
Vertical Units Div,0,Vertical Units Div,0,
Vertical Units Extend Div,16,Vertical Units Extend Div,16,
Label,,Label,,
Probe Type,0,Probe Type,0,
Probe Ratio,1.000e+00,Probe Ratio,1.000e+00,
Vertical Scale,5.000e-01,Vertical Scale,2.000e+00,
Vertical Position,0.000e+00,Vertical Position,0.000e+00,
Horizontal Units,S,Horizontal Units,S,
Horizontal Scale,5.000E-06,Horizontal Scale,5.000E-06,
Horizontal Position,2.420E-05,Horizontal Position,2.420E-05,
Horizontal Mode,Main,Horizontal Mode,Main,
SincET Mode,Real Time,SincET Mode,Real Time,
Sampling Period,5.000e-09,Sampling Period,5.000e-09,
Horizontal Old Scale,5.000E-06,Horizontal Old Scale,5.000E-06,
Horizontal Old Position,2.420E-05,Horizontal Old Position,2.420E-05,
Firmware,V1.32,Firmware,V1.32,
Mode,Fast,Mode,Fast,
Waveform Data,,Waveform Data,,
1, ,33, ,
1, ,33, ,
1, ,33, ,
1, ,33, ,
1, ,33, ,
1, ,33, ,
1, ,33, ,
1, ,33, ,
1, ,33, ,
1, ,33, ,
1, ,33, ,
1, ,33, ,
1, ,33, ,
1, ,33, ,
1, ,33, ,
0, ,33, ,
0, ,33, ,
0, ,33, ,
1, ,33, ,
0, ,33, ,
0, ,33, ,
1, ,33, ,
1, ,33, ,
1, ,33, ,
1, ,33, ,
1, ,33, ,
1, ,33, ,
1, ,33, ,
0, ,33, ,
0, ,33, ,
0, ,33, ,
1, ,33, ,
1, ,33, ,
1, ,33, ,
1, ,33, ,
1, ,33, ,
1, ,33, ,
1, ,33, ,
1, ,33, ,
1, ,33, ,
1, ,33, ,
1, ,33, ,
1, ,33, ,
1, ,33, ,
1, ,33, ,
1, ,33, ,
0, ,33, ,
1, ,33, ,
1, ,33, ,
1, ,33, ,
1, ,33, ,
1, ,33, ,
1, ,33, ,
1, ,33, ,
1, ,33, ,
1, ,33, ,
1, ,33, ,
1, ,33, ,
1, ,33, ,
1, ,33, ,
1, ,33, ,
1, ,33, ,
0, ,33, ,
0, ,33, ,
1, ,33, ,
1, ,33, ,
1, ,33, ,
1, ,33, ,
1, ,33, ,
1, ,33, ,
1, ,33, ,
1, ,33, ,
1, ,33, ,
1, ,33, ,
1, ,33, ,
1, ,33, ,
0, ,33, ,
0, ,33, ,
0, ,33, ,
1, ,33, ,
1, ,33, ,
1, ,33, ,
1, ,33, ,
0, ,33, ,
0, ,33, ,
1, ,33, ,
1, ,33, ,
0, ,33, ,
0, ,33, ,
0, ,33, ,
1, ,33, ,
1, ,33, ,
1, ,33, ,
1, ,33, ,
0, ,33, ,
1, ,33, ,
1, ,33, ,
0, ,33, ,
1, ,33, ,
0, ,33, ,
0, ,33, ,
1, ,33, ,
1, ,33, ,
1, ,33, ,
1, ,33, ,
0, ,33, ,
0, ,33, ,
1, ,33, ,
0, ,33, ,
0, ,33, ,
0, ,33, ,
0, ,33, ,
1, ,33, ,
1, ,33, ,
1, ,33, ,
0, ,33, ,
0, ,33, ,
1, ,33, ,
1, ,33, ,
1, ,33, ,
1, ,33, ,
1, ,33, ,
1, ,33, ,
0, ,33, ,
0, ,33, ,
0, ,33, ,
0, ,33, ,
1, ,33, ,
1, ,33, ,
0, ,33, ,
0, ,33, ,
1, ,33, ,
1, ,33, ,
1, ,33, ,
0, ,33, ,
0, ,33, ,
1, ,33, ,
1, ,33, ,
1, ,33, ,
1, ,33, ,
1, ,33, ,
1, ,33, ,
1, ,33, ,
1, ,33, ,
1, ,33, ,
1, ,33, ,
1, ,33, ,
1, ,33, ,
1, ,33, ,
1, ,33, ,
1, ,33, ,
1, ,33, ,
1, ,33, ,
0, ,33, ,
0, ,33, ,
1, ,33, ,
0, ,33, ,
0, ,33, ,
0, ,33, ,
0, ,33, ,
1, ,33, ,
1, ,33, ,
1, ,33, ,
1, ,33, ,
1, ,33, ,
0, ,33, ,
-1, ,33, ,
0, ,33, ,
9, ,33, ,
29, ,33, ,
66, ,33, ,
125, ,33, ,
123, ,33, ,
119, ,33, ,
72, ,33, ,
-7, ,33, ,
26, ,33, ,
81, ,33, ,
125, ,33, ,
125, ,33, ,
125, ,33, ,
125, ,33, ,
125, ,33, ,
124, ,33, ,
124, ,33, ,
123, ,33, ,
119, ,33, ,
108, ,33, ,
104, ,33, ,
102, ,33, ,
99, ,33, ,
92, ,33, ,
88, ,33, ,
84, ,33, ,
82, ,33, ,
76, ,33, ,
73, ,33, ,
71, ,33, ,
68, ,33, ,
61, ,33, ,
60, ,33, ,
56, ,33, ,
56, ,33, ,
50, ,33, ,
48, ,33, ,
46, ,33, ,
44, ,33, ,
40, ,33, ,
39, ,33, ,
37, ,33, ,
36, ,33, ,
33, ,33, ,
31, ,33, ,
29, ,33, ,
27, ,33, ,
25, ,33, ,
25, ,33, ,
24, ,33, ,
23, ,33, ,
21, ,33, ,
20, ,33, ,
19, ,33, ,
18, ,33, ,
16, ,33, ,
15, ,33, ,
15, ,33, ,
14, ,33, ,
13, ,33, ,
11, ,33, ,
11, ,33, ,
10, ,33, ,
9, ,33, ,
9, ,33, ,
8, ,33, ,
8, ,33, ,
7, ,33, ,
7, ,33, ,
6, ,33, ,
6, ,33, ,
5, ,33, ,
5, ,33, ,
4, ,33, ,
4, ,33, ,
4, ,33, ,
3, ,33, ,
3, ,33, ,
3, ,33, ,
2, ,33, ,
2, ,33, ,
2, ,33, ,
2, ,33, ,
1, ,33, ,
1, ,33, ,
1, ,33, ,
0, ,33, ,
0, ,33, ,
1, ,33, ,
1, ,33, ,
1, ,33, ,
0, ,33, ,
0, ,33, ,
0, ,33, ,
0, ,33, ,
0, ,33, ,
0, ,33, ,
-1, ,33, ,
-1, ,33, ,
-1, ,33, ,
-1, ,33, ,
-1, ,33, ,
-1, ,33, ,
-1, ,33, ,
-1, ,33, ,
-1, ,33, ,
-1, ,33, ,
-1, ,33, ,
-1, ,33, ,
-1, ,33, ,
-1, ,33, ,
-1, ,33, ,
-1, ,33, ,
-1, ,33, ,
-1, ,33, ,
-1, ,33, ,
-1, ,33, ,
-1, ,33, ,
-1, ,33, ,
-1, ,33, ,
-1, ,33, ,
-1, ,33, ,
-1, ,33, ,
-1, ,33, ,
-1, ,33, ,
-1, ,33, ,
-1, ,33, ,
-1, ,33, ,
-1, ,33, ,
-1, ,33, ,
-1, ,33, ,
-1, ,33, ,
-1, ,33, ,
-1, ,33, ,
-1, ,33, ,
-1, ,33, ,
-1, ,33, ,
-1, ,33, ,
-1, ,33, ,
-1, ,33, ,
-1, ,33, ,
-1, ,33, ,
-1, ,33, ,
-1, ,33, ,
-1, ,33, ,
-1, ,33, ,
-1, ,33, ,
-1, ,33, ,
-1, ,33, ,
-1, ,33, ,
-1, ,33, ,
0, ,33, ,
-1, ,33, ,
-1, ,33, ,
-1, ,33, ,
0, ,33, ,
0, ,33, ,
0, ,33, ,
-1, ,33, ,
-1, ,33, ,
0, ,33, ,
0, ,33, ,
0, ,33, ,
0, ,33, ,
0, ,33, ,
0, ,33, ,
0, ,33, ,
0, ,33, ,
0, ,33, ,
0, ,33, ,
0, ,33, ,
0, ,33, ,
0, ,33, ,
0, ,33, ,
0, ,33, ,
0, ,33, ,
0, ,33, ,
0, ,33, ,
0, ,33, ,
0, ,33, ,
0, ,33, ,
0, ,33, ,
0, ,33, ,
0, ,33, ,
0, ,33, ,
0, ,33, ,
0, ,33, ,
0, ,33, ,
0, ,33, ,
0, ,33, ,
0, ,33, ,
0, ,33, ,
0, ,33, ,
0, ,33, ,
0, ,33, ,
0, ,33, ,
1, ,33, ,
1, ,33, ,
0, ,33, ,
0, ,33, ,
0, ,33, ,
0, ,33, ,
1, ,33, ,
0, ,33, ,
0, ,33, ,
0, ,33, ,
0, ,33, ,
0, ,33, ,
0, ,33, ,
0, ,33, ,
0, ,33, ,
0, ,33, ,
0, ,33, ,
0, ,33, ,
0, ,33, ,
0, ,33, ,
0, ,33, ,
0, ,33, ,
0, ,33, ,
0, ,33, ,
0, ,33, ,
0, ,33, ,
0, ,33, ,
0, ,33, ,
0, ,33, ,
0, ,33, ,
0, ,33, ,
1, ,33, ,
0, ,33, ,
0, ,33, ,
0, ,33, ,
0, ,33, ,
0, ,33, ,
0, ,33, ,
0, ,33, ,
1, ,33, ,
1, ,33, ,
1, ,33, ,
0, ,33, ,
0, ,33, ,
1, ,33, ,
0, ,33, ,
0, ,33, ,
0, ,33, ,
0, ,33, ,
0, ,33, ,
0, ,33, ,
1, ,33, ,
1, ,33, ,
1, ,33, ,
1, ,33, ,
1, ,33, ,
1, ,33, ,
1, ,33, ,
0, ,33, ,
0, ,33, ,
1, ,33, ,
1, ,33, ,
1, ,33, ,
0, ,33, ,
0, ,33, ,
1, ,33, ,
1, ,33, ,
0, ,33, ,
0, ,33, ,
0, ,33, ,
0, ,33, ,
0, ,33, ,
-1, ,33, ,
-1, ,33, ,
-3, ,33, ,
-4, ,33, ,
-7, ,33, ,
-10, ,33, ,
-13, ,33, ,
-23, ,33, ,
-26, ,33, ,
-28, ,33, ,
-28, ,33, ,
-24, ,33, ,
-19, ,33, ,
-14, ,33, ,
-9, ,33, ,
-3, ,33, ,
-2, ,33, ,
1, ,33, ,
2, ,33, ,
4, ,33, ,
5, ,33, ,
5, ,33, ,
5, ,33, ,
5, ,33, ,
4, ,33, ,
4, ,33, ,
3, ,33, ,
2, ,33, ,
2, ,33, ,
2, ,33, ,
2, ,33, ,
3, ,33, ,
3, ,33, ,
3, ,33, ,
4, ,33, ,
5, ,33, ,
5, ,33, ,
5, ,33, ,
6, ,33, ,
6, ,33, ,
6, ,33, ,
6, ,33, ,
6, ,33, ,
6, ,33, ,
6, ,33, ,
6, ,33, ,
5, ,33, ,
5, ,33, ,
4, ,33, ,
4, ,33, ,
3, ,33, ,
3, ,33, ,
3, ,33, ,
2, ,33, ,
2, ,33, ,
2, ,33, ,
2, ,33, ,
3, ,33, ,
3, ,33, ,
3, ,33, ,
3, ,33, ,
3, ,33, ,
3, ,33, ,
3, ,33, ,
2, ,33, ,
2, ,33, ,
2, ,33, ,
2, ,33, ,
2, ,33, ,
2, ,33, ,
2, ,33, ,
2, ,33, ,
2, ,33, ,
2, ,33, ,
2, ,33, ,
2, ,33, ,
2, ,33, ,
2, ,33, ,
2, ,33, ,
1, ,33, ,
1, ,33, ,
1, ,33, ,
0, ,33, ,
-2, ,33, ,
-3, ,33, ,
-4, ,33, ,
-6, ,33, ,
-9, ,33, ,
-12, ,33, ,
-13, ,33, ,
-14, ,33, ,
-15, ,33, ,
-14, ,33, ,
-15, ,33, ,
-13, ,33, ,
-11, ,33, ,
-9, ,33, ,
-8, ,33, ,
-7, ,33, ,
-5, ,33, ,
-5, ,33, ,
-5, ,33, ,
-6, ,33, ,
-7, ,33, ,
-9, ,33, ,
-12, ,33, ,
-15, ,33, ,
-23, ,33, ,
-25, ,33, ,
-30, ,33, ,
-35, ,33, ,
-39, ,33, ,
-40, ,33, ,
-39, ,33, ,
-39, ,33, ,
-36, ,33, ,
-33, ,33, ,
-32, ,33, ,
-29, ,33, ,
-25, ,33, ,
-24, ,33, ,
-22, ,33, ,
-21, ,33, ,
-20, ,33, ,
-20, ,33, ,
-20, ,33, ,
-19, ,33, ,
-19, ,33, ,
-19, ,33, ,
-19, ,33, ,
-18, ,33, ,
-17, ,33, ,
-16, ,33, ,
-15, ,33, ,
-14, ,33, ,
-13, ,33, ,
-11, ,33, ,
-10, ,33, ,
-10, ,33, ,
-8, ,33, ,
-8, ,33, ,
-8, ,33, ,
-7, ,33, ,
-7, ,33, ,
-6, ,33, ,
-5, ,33, ,
-4, ,33, ,
-1, ,33, ,
0, ,33, ,
2, ,33, ,
4, ,33, ,
7, ,33, ,
8, ,33, ,
10, ,33, ,
10, ,33, ,
11, ,33, ,
11, ,33, ,
10, ,33, ,
9, ,33, ,
7, ,33, ,
5, ,33, ,
4, ,33, ,
2, ,33, ,
-2, ,33, ,
-3, ,33, ,
-5, ,33, ,
-6, ,33, ,
-6, ,33, ,
-6, ,33, ,
-5, ,33, ,
-4, ,33, ,
-1, ,33, ,
1, ,33, ,
2, ,33, ,
4, ,33, ,
7, ,33, ,
7, ,33, ,
9, ,33, ,
9, ,33, ,
9, ,33, ,
9, ,33, ,
9, ,33, ,
9, ,33, ,
8, ,33, ,
7, ,33, ,
7, ,33, ,
7, ,33, ,
7, ,33, ,
7, ,33, ,
7, ,33, ,
7, ,33, ,
8, ,33, ,
8, ,33, ,
8, ,33, ,
8, ,33, ,
8, ,33, ,
8, ,33, ,
7, ,33, ,
7, ,33, ,
6, ,33, ,
4, ,33, ,
3, ,33, ,
1, ,33, ,
-2, ,33, ,
-4, ,33, ,
-6, ,33, ,
-8, ,33, ,
-12, ,33, ,
-13, ,33, ,
-15, ,33, ,
-16, ,33, ,
-18, ,33, ,
-18, ,33, ,
-18, ,33, ,
-19, ,33, ,
-19, ,33, ,
-20, ,33, ,
-20, ,33, ,
-22, ,33, ,
-23, ,33, ,
-24, ,33, ,
-25, ,33, ,
-25, ,33, ,
-25, ,33, ,
-25, ,33, ,
-25, ,33, ,
-25, ,33, ,
-24, ,33, ,
-22, ,33, ,
-21, ,33, ,
-20, ,33, ,
-17, ,33, ,
-15, ,33, ,
-14, ,33, ,
-13, ,33, ,
-11, ,33, ,
-10, ,33, ,
-10, ,33, ,
-9, ,33, ,
-9, ,33, ,
-10, ,33, ,
-10, ,33, ,
-11, ,33, ,
-12, ,33, ,
-12, ,33, ,
-13, ,33, ,
-13, ,33, ,
-13, ,33, ,
-13, ,33, ,
-13, ,33, ,
-13, ,33, ,
-12, ,33, ,
-11, ,33, ,
-10, ,33, ,
-9, ,33, ,
-5, ,33, ,
-5, ,33, ,
-2, ,33, ,
-1, ,33, ,
3, ,33, ,
4, ,33, ,
5, ,33, ,
6, ,33, ,
7, ,33, ,
7, ,33, ,
6, ,33, ,
6, ,33, ,
5, ,33, ,
5, ,33, ,
4, ,33, ,
4, ,33, ,
3, ,33, ,
1, ,33, ,
1, ,33, ,
0, ,33, ,
-2, ,33, ,
-3, ,33, ,
-5, ,33, ,
-6, ,33, ,
-8, ,33, ,
-10, ,33, ,
-10, ,33, ,
-12, ,33, ,
-14, ,33, ,
-14, ,33, ,
-14, ,33, ,
-13, ,33, ,
-12, ,33, ,
-12, ,33, ,
-10, ,33, ,
-9, ,33, ,
-5, ,33, ,
-3, ,33, ,
-2, ,33, ,
2, ,33, ,
7, ,33, ,
9, ,33, ,
12, ,33, ,
13, ,33, ,
19, ,33, ,
21, ,33, ,
23, ,33, ,
24, ,33, ,
25, ,33, ,
25, ,33, ,
26, ,33, ,
25, ,33, ,
24, ,33, ,
22, ,33, ,
21, ,33, ,
19, ,33, ,
14, ,33, ,
10, ,33, ,
8, ,33, ,
4, ,33, ,
-2, ,33, ,
-5, ,33, ,
-9, ,33, ,
-12, ,33, ,
-18, ,33, ,
-22, ,33, ,
-24, ,33, ,
-26, ,33, ,
-29, ,33, ,
-30, ,33, ,
-31, ,33, ,
-31, ,33, ,
-30, ,33, ,
-30, ,33, ,
-28, ,33, ,
-27, ,33, ,
-25, ,33, ,
-22, ,33, ,
-20, ,33, ,
-17, ,33, ,
-11, ,33, ,
-10, ,33, ,
-6, ,33, ,
-4, ,33, ,
1, ,33, ,
3, ,33, ,
4, ,33, ,
6, ,33, ,
7, ,33, ,
7, ,33, ,
6, ,33, ,
6, ,33, ,
3, ,33, ,
2, ,33, ,
-1, ,33, ,
-4, ,33, ,
-9, ,33, ,
-13, ,33, ,
-16, ,33, ,
-19, ,33, ,
-24, ,33, ,
-25, ,33, ,
-27, ,33, ,
-28, ,33, ,
-28, ,33, ,
-29, ,33, ,
-27, ,33, ,
-28, ,33, ,
-25, ,33, ,
-24, ,33, ,
-23, ,33, ,
-22, ,33, ,
-19, ,33, ,
-18, ,33, ,
-17, ,33, ,
-17, ,33, ,
-16, ,33, ,
-16, ,33, ,
-16, ,33, ,
-15, ,33, ,
-14, ,33, ,
-15, ,33, ,
-13, ,33, ,
-13, ,33, ,
-12, ,33, ,
-9, ,33, ,
-10, ,33, ,
-8, ,33, ,
-5, ,33, ,
-3, ,33, ,
-2, ,33, ,
0, ,33, ,
3, ,33, ,
4, ,33, ,
6, ,33, ,
8, ,33, ,
10, ,33, ,
11, ,33, ,
11, ,33, ,
12, ,33, ,
12, ,33, ,
12, ,33, ,
11, ,33, ,
11, ,33, ,
10, ,33, ,
8, ,33, ,
8, ,33, ,
7, ,33, ,
7, ,33, ,
7, ,33, ,
7, ,33, ,
7, ,33, ,
7, ,33, ,
7, ,33, ,
8, ,33, ,
7, ,33, ,
9, ,33, ,
11, ,33, ,
11, ,33, ,
12, ,33, ,
14, ,33, ,
14, ,33, ,
14, ,33, ,
15, ,33, ,
16, ,33, ,
16, ,33, ,
15, ,33, ,
15, ,33, ,
14, ,33, ,
12, ,33, ,
12, ,33, ,
10, ,33, ,
7, ,33, ,
6, ,33, ,
3, ,33, ,
2, ,33, ,
-2, ,33, ,
-4, ,33, ,
-6, ,33, ,
-9, ,33, ,
-12, ,33, ,
-14, ,33, ,
-16, ,33, ,
-17, ,33, ,
-20, ,33, ,
-22, ,33, ,
-23, ,33, ,
-24, ,33, ,
-24, ,33, ,
-24, ,33, ,
-24, ,33, ,
-22, ,33, ,
-20, ,33, ,
-19, ,33, ,
-18, ,33, ,
-15, ,33, ,
-13, ,33, ,
-11, ,33, ,
-9, ,33, ,
-7, ,33, ,
-6, ,33, ,
-5, ,33, ,
-5, ,33, ,
-5, ,33, ,
-6, ,33, ,
-6, ,33, ,
-7, ,33, ,
-7, ,33, ,
-9, ,33, ,
-10, ,33, ,
-11, ,33, ,
-12, ,33, ,
-13, ,33, ,
-13, ,33, ,
-13, ,33, ,
-13, ,33, ,
-12, ,33, ,
-12, ,33, ,
-11, ,33, ,
-11, ,33, ,
-11, ,33, ,
-11, ,33, ,
-11, ,33, ,
-10, ,33, ,
-11, ,33, ,
-12, ,33, ,
-12, ,33, ,
-12, ,33, ,
-13, ,33, ,
-13, ,33, ,
-14, ,33, ,
-14, ,33, ,
-14, ,33, ,
-14, ,33, ,
-14, ,33, ,
-14, ,33, ,
-13, ,33, ,
-12, ,33, ,
-11, ,33, ,
-10, ,33, ,
-7, ,33, ,
-7, ,33, ,
-5, ,33, ,
-4, ,33, ,
-1, ,33, ,
0, ,33, ,
1, ,33, ,
3, ,33, ,
5, ,33, ,
6, ,33, ,
7, ,33, ,
7, ,33, ,
7, ,33, ,
7, ,33, ,
6, ,33, ,
5, ,33, ,
3, ,33, ,
2, ,33, ,
0, ,33, ,
-1, ,33, ,
-4, ,33, ,
-5, ,33, ,
-6, ,33, ,
-6, ,33, ,
-6, ,33, ,
-6, ,33, ,
-6, ,33, ,
-6, ,33, ,
-3, ,33, ,
-2, ,33, ,
-1, ,33, ,
1, ,33, ,
4, ,33, ,
6, ,33, ,
7, ,33, ,
8, ,33, ,
11, ,33, ,
11, ,33, ,
11, ,33, ,
11, ,33, ,
10, ,33, ,
9, ,33, ,
8, ,33, ,
6, ,33, ,
4, ,33, ,
3, ,33, ,
1, ,33, ,
-2, ,33, ,
-5, ,33, ,
-6, ,33, ,
-8, ,33, ,
-9, ,33, ,
-12, ,33, ,
-13, ,33, ,
-14, ,33, ,
-14, ,33, ,
-14, ,33, ,
-13, ,33, ,
-13, ,33, ,
-13, ,33, ,
-11, ,33, ,
-10, ,33, ,
-9, ,33, ,
-6, ,33, ,
-3, ,33, ,
-2, ,33, ,
0, ,33, ,
1, ,33, ,
4, ,33, ,
5, ,33, ,
6, ,33, ,
7, ,33, ,
7, ,33, ,
7, ,33, ,
7, ,33, ,
7, ,33, ,
5, ,33, ,
5, ,33, ,
3, ,33, ,
3, ,33, ,
-1, ,33, ,
-2, ,33, ,
-3, ,33, ,
-4, ,33, ,
-6, ,33, ,
-7, ,33, ,
-8, ,33, ,
-8, ,33, ,
-8, ,33, ,
-9, ,33, ,
-9, ,33, ,
-9, ,33, ,
-8, ,33, ,
-7, ,33, ,
-7, ,33, ,
-6, ,33, ,
-5, ,33, ,
-5, ,33, ,
-4, ,33, ,
-4, ,33, ,
-2, ,33, ,
-2, ,33, ,
-2, ,33, ,
-2, ,33, ,
-1, ,33, ,
-2, ,33, ,
-1, ,33, ,
-2, ,33, ,
-1, ,33, ,
0, ,33, ,
0, ,33, ,
1, ,33, ,
2, ,33, ,
3, ,33, ,
3, ,33, ,
4, ,33, ,
5, ,33, ,
6, ,33, ,
6, ,33, ,
7, ,33, ,
6, ,33, ,
6, ,33, ,
6, ,33, ,
6, ,33, ,
5, ,33, ,
4, ,33, ,
2, ,33, ,
1, ,33, ,
0, ,33, ,
-1, ,33, ,
-2, ,33, ,
-3, ,33, ,
-5, ,33, ,
-5, ,33, ,
-5, ,33, ,
-5, ,33, ,
-5, ,33, ,
-5, ,33, ,
-5, ,33, ,
-5, ,33, ,
-5, ,33, ,
-4, ,33, ,
-4, ,33, ,
-4, ,33, ,
-3, ,33, ,
-4, ,33, ,
-3, ,33, ,
-3, ,33, ,
-2, ,33, ,
-2, ,33, ,
-2, ,33, ,
-1, ,33, ,
-1, ,33, ,
0, ,33, ,
0, ,33, ,
0, ,33, ,
1, ,33, ,
1, ,33, ,
2, ,33, ,
2, ,33, ,
2, ,33, ,
2, ,33, ,
2, ,33, ,
1, ,33, ,
0, ,33, ,
0, ,33, ,
-1, ,33, ,
-1, ,33, ,
-3, ,33, ,
-3, ,33, ,
-4, ,33, ,
-5, ,33, ,
-6, ,33, ,
-7, ,33, ,
-7, ,33, ,
-7, ,33, ,
-7, ,33, ,
-7, ,33, ,
-6, ,33, ,
-7, ,33, ,
-5, ,33, ,
-5, ,33, ,
-4, ,33, ,
-3, ,33, ,
-2, ,33, ,
-1, ,33, ,
0, ,33, ,
0, ,33, ,
1, ,33, ,
2, ,33, ,
2, ,33, ,
2, ,33, ,
3, ,33, ,
3, ,33, ,
3, ,33, ,
3, ,33, ,
4, ,33, ,
4, ,33, ,
4, ,33, ,
4, ,33, ,
4, ,33, ,
3, ,33, ,
3, ,33, ,
3, ,33, ,
2, ,33, ,
1, ,33, ,
1, ,33, ,
1, ,33, ,
0, ,33, ,
-1, ,33, ,
-1, ,33, ,
-2, ,33, ,
-3, ,33, ,
-3, ,33, ,
-3, ,33, ,
-4, ,33, ,
-4, ,33, ,
-4, ,33, ,
-4, ,33, ,
-4, ,33, ,
-4, ,33, ,
-4, ,33, ,
-3, ,33, ,
-3, ,33, ,
-2, ,33, ,
-2, ,33, ,
-1, ,33, ,
0, ,33, ,
1, ,33, ,
2, ,33, ,
3, ,33, ,
4, ,33, ,
6, ,33, ,
6, ,33, ,
7, ,33, ,
7, ,33, ,
6, ,33, ,
6, ,33, ,
5, ,33, ,
4, ,33, ,
3, ,33, ,
1, ,33, ,
-1, ,33, ,
-2, ,33, ,
-5, ,33, ,
-6, ,33, ,
-8, ,33, ,
-8, ,33, ,
-9, ,33, ,
-10, ,33, ,
-10, ,33, ,
-10, ,33, ,
-9, ,33, ,
-8, ,33, ,
-8, ,33, ,
-7, ,33, ,
-5, ,33, ,
-5, ,33, ,
-3, ,33, ,
-3, ,33, ,
-2, ,33, ,
-1, ,33, ,
-1, ,33, ,
-1, ,33, ,
-1, ,33, ,
-1, ,33, ,
-1, ,33, ,
-1, ,33, ,
-2, ,33, ,
-2, ,33, ,
-3, ,33, ,
-3, ,33, ,
-4, ,33, ,
-4, ,33, ,
-4, ,33, ,
-5, ,33, ,
-5, ,33, ,
-4, ,33, ,
-4, ,33, ,
-4, ,33, ,
-3, ,33, ,
-3, ,33, ,
-2, ,33, ,
-2, ,33, ,
-1, ,33, ,
1, ,33, ,
1, ,33, ,
1, ,33, ,
2, ,33, ,
2, ,33, ,
3, ,33, ,
3, ,33, ,
2, ,33, ,
1, ,33, ,
0, ,33, ,
0, ,33, ,
-2, ,33, ,
-3, ,33, ,
-4, ,33, ,
-5, ,33, ,
-7, ,33, ,
-7, ,33, ,
-8, ,33, ,
-8, ,33, ,
-9, ,33, ,
-9, ,33, ,
-8, ,33, ,
-8, ,33, ,
-7, ,33, ,
-6, ,33, ,
-5, ,33, ,
-4, ,33, ,
-2, ,33, ,
-1, ,33, ,
1, ,33, ,
2, ,33, ,
4, ,33, ,
6, ,33, ,
6, ,33, ,
8, ,33, ,
8, ,33, ,
8, ,33, ,
8, ,33, ,
7, ,33, ,
6, ,33, ,
6, ,33, ,
4, ,33, ,
3, ,33, ,
1, ,33, ,
-1, ,33, ,
-2, ,33, ,
-4, ,33, ,
-6, ,33, ,
-8, ,33, ,
-9, ,33, ,
-10, ,33, ,
-11, ,33, ,
-11, ,33, ,
-12, ,33, ,
-12, ,33, ,
-11, ,33, ,
-11, ,33, ,
-11, ,33, ,
-10, ,33, ,
-9, ,33, ,
-8, ,33, ,
-6, ,33, ,
-6, ,33, ,
-4, ,33, ,
-4, ,33, ,
-3, ,33, ,
-2, ,33, ,
-1, ,33, ,
-1, ,33, ,
-1, ,33, ,
0, ,33, ,
-1, ,33, ,
-1, ,33, ,
-1, ,33, ,
-2, ,33, ,
-3, ,33, ,
-3, ,33, ,
-4, ,33, ,
-5, ,33, ,
-6, ,33, ,
-6, ,33, ,
-6, ,33, ,
-6, ,33, ,
-5, ,33, ,
-6, ,33, ,
-4, ,33, ,
-3, ,33, ,
-1, ,33, ,
0, ,33, ,
2, ,33, ,
4, ,33, ,
8, ,33, ,
9, ,33, ,
10, ,33, ,
12, ,33, ,
14, ,33, ,
15, ,33, ,
15, ,33, ,
14, ,33, ,
13, ,33, ,
12, ,33, ,
12, ,33, ,
10, ,33, ,
8, ,33, ,
6, ,33, ,
5, ,33, ,
2, ,33, ,
1, ,33, ,
0, ,33, ,
-1, ,33, ,
-2, ,33, ,
-2, ,33, ,
-2, ,33, ,
-3, ,33, ,
-3, ,33, ,
-3, ,33, ,
-3, ,33, ,
-3, ,33, ,
-4, ,33, ,
-4, ,33, ,
-4, ,33, ,
-5, ,33, ,
-5, ,33, ,
-6, ,33, ,
-6, ,33, ,
-6, ,33, ,
-7, ,33, ,
-8, ,33, ,
-8, ,33, ,
-9, ,33, ,
-9, ,33, ,
-9, ,33, ,
-9, ,33, ,
-8, ,33, ,
-9, ,33, ,
-7, ,33, ,
-6, ,33, ,
-6, ,33, ,
-5, ,33, ,
-2, ,33, ,
-1, ,33, ,
0, ,33, ,
2, ,33, ,
5, ,33, ,
7, ,33, ,
8, ,33, ,
9, ,33, ,
12, ,33, ,
12, ,33, ,
13, ,33, ,
13, ,33, ,
14, ,33, ,
13, ,33, ,
13, ,33, ,
12, ,33, ,
11, ,33, ,
10, ,33, ,
9, ,33, ,
7, ,33, ,
5, ,33, ,
5, ,33, ,
3, ,33, ,
2, ,33, ,
0, ,33, ,
-1, ,33, ,
-2, ,33, ,
-3, ,33, ,
-4, ,33, ,
-4, ,33, ,
-5, ,33, ,
-5, ,33, ,
-6, ,33, ,
-6, ,33, ,
-7, ,33, ,
-7, ,33, ,
-7, ,33, ,
-7, ,33, ,
-7, ,33, ,
-7, ,33, ,
-7, ,33, ,
-7, ,33, ,
-6, ,33, ,
-6, ,33, ,
-5, ,33, ,
-4, ,33, ,
-4, ,33, ,
-2, ,33, ,
-1, ,33, ,
0, ,33, ,
1, ,33, ,
2, ,33, ,
3, ,33, ,
4, ,33, ,
4, ,33, ,
4, ,33, ,
4, ,33, ,
3, ,33, ,
3, ,33, ,
2, ,33, ,
1, ,33, ,
0, ,33, ,
-1, ,33, ,
-1, ,33, ,
-3, ,33, ,
-4, ,33, ,
-5, ,33, ,
-5, ,33, ,
-5, ,33, ,
-5, ,33, ,
-5, ,33, ,
-5, ,33, ,
-4, ,33, ,
-4, ,33, ,
-3, ,33, ,
-3, ,33, ,
-3, ,33, ,
-3, ,33, ,
-3, ,33, ,
-2, ,33, ,
-3, ,33, ,
-3, ,33, ,
-3, ,33, ,
-3, ,33, ,
-3, ,33, ,
-3, ,33, ,
-3, ,33, ,
-2, ,33, ,
-2, ,33, ,
-2, ,33, ,
-1, ,33, ,
-1, ,33, ,
1, ,33, ,
2, ,33, ,
2, ,33, ,
3, ,33, ,
5, ,33, ,
6, ,33, ,
7, ,33, ,
7, ,33, ,
9, ,33, ,
9, ,33, ,
9, ,33, ,
9, ,33, ,
9, ,33, ,
8, ,33, ,
7, ,33, ,
6, ,33, ,
5, ,33, ,
4, ,33, ,
2, ,33, ,
2, ,33, ,
0, ,33, ,
-2, ,33, ,
-3, ,33, ,
-4, ,33, ,
-6, ,33, ,
-7, ,33, ,
-8, ,33, ,
-8, ,33, ,
-7, ,33, ,
-7, ,33, ,
-7, ,33, ,
-6, ,33, ,
-5, ,33, ,
-3, ,33, ,
-2, ,33, ,
-1, ,33, ,
2, ,33, ,
3, ,33, ,
5, ,33, ,
6, ,33, ,
8, ,33, ,
10, ,33, ,
10, ,33, ,
11, ,33, ,
11, ,33, ,
10, ,33, ,
10, ,33, ,
8, ,33, ,
6, ,33, ,
5, ,33, ,
3, ,33, ,
2, ,33, ,
-2, ,33, ,
-4, ,33, ,
-5, ,33, ,
-7, ,33, ,
-11, ,33, ,
-11, ,33, ,
-12, ,33, ,
-12, ,33, ,
-13, ,33, ,
-13, ,33, ,
-12, ,33, ,
-11, ,33, ,
-9, ,33, ,
-8, ,33, ,
-7, ,33, ,
-6, ,33, ,
-3, ,33, ,
-2, ,33, ,
-1, ,33, ,
0, ,33, ,
2, ,33, ,
3, ,33, ,
4, ,33, ,
5, ,33, ,
7, ,33, ,
7, ,33, ,
8, ,33, ,
8, ,33, ,
8, ,33, ,
9, ,33, ,
9, ,33, ,
9, ,33, ,
8, ,33, ,
7, ,33, ,
7, ,33, ,
7, ,33, ,
6, ,33, ,
5, ,33, ,
4, ,33, ,
4, ,33, ,
2, ,33, ,
2, ,33, ,
1, ,33, ,
1, ,33, ,
0, ,33, ,
-1, ,33, ,
-1, ,33, ,
-1, ,33, ,
-2, ,33, ,
-2, ,33, ,
-2, ,33, ,
-3, ,33, ,
-4, ,33, ,
-3, ,33, ,
-3, ,33, ,
-3, ,33, ,
-3, ,33, ,
-3, ,33, ,
-3, ,33, ,
-3, ,33, ,
-2, ,33, ,
-1, ,33, ,
-1, ,33, ,
0, ,33, ,
0, ,33, ,
1, ,33, ,
1, ,33, ,
2, ,33, ,
3, ,33, ,
3, ,33, ,
4, ,33, ,
4, ,33, ,
5, ,33, ,
5, ,33, ,
5, ,33, ,
5, ,33, ,
4, ,33, ,
4, ,33, ,
4, ,33, ,
3, ,33, ,
3, ,33, ,
2, ,33, ,
2, ,33, ,
1, ,33, ,
1, ,33, ,
1, ,33, ,
0, ,33, ,
-1, ,33, ,
-1, ,33, ,
-2, ,33, ,
-2, ,33, ,
-2, ,33, ,
-2, ,33, ,
-2, ,33, ,
-2, ,33, ,
-2, ,33, ,
-2, ,33, ,
-2, ,33, ,
-2, ,33, ,
-2, ,33, ,
-2, ,33, ,
-1, ,33, ,
-1, ,33, ,
-1, ,33, ,
-1, ,33, ,
-1, ,33, ,
0, ,33, ,
0, ,33, ,
0, ,33, ,
0, ,33, ,
0, ,33, ,
0, ,33, ,
0, ,33, ,
-1, ,33, ,
-1, ,33, ,
-1, ,33, ,
-1, ,33, ,
-1, ,33, ,
-1, ,33, ,
0, ,33, ,
0, ,33, ,
0, ,33, ,
1, ,33, ,
1, ,33, ,
1, ,33, ,
2, ,33, ,
2, ,33, ,
2, ,33, ,
3, ,33, ,
3, ,33, ,
3, ,33, ,
3, ,33, ,
2, ,33, ,
2, ,33, ,
1, ,33, ,
1, ,33, ,
-1, ,33, ,
-2, ,33, ,
-2, ,33, ,
-3, ,33, ,
-5, ,33, ,
-6, ,33, ,
-6, ,33, ,
-7, ,33, ,
-8, ,33, ,
-8, ,33, ,
-8, ,33, ,
-8, ,33, ,
-7, ,33, ,
-7, ,33, ,
-6, ,33, ,
-6, ,33, ,
-4, ,33, ,
-4, ,33, ,
-3, ,33, ,
-2, ,33, ,
0, ,33, ,
1, ,33, ,
1, ,33, ,
2, ,33, ,
2, ,33, ,
4, ,33, ,
4, ,33, ,
4, ,33, ,
4, ,33, ,
4, ,33, ,
4, ,33, ,
4, ,33, ,
4, ,33, ,
4, ,33, ,
4, ,33, ,
4, ,33, ,
5, ,33, ,
5, ,33, ,
5, ,33, ,
5, ,33, ,
5, ,33, ,
5, ,33, ,
6, ,33, ,
6, ,33, ,
6, ,33, ,
6, ,33, ,
6, ,33, ,
6, ,33, ,
6, ,33, ,
6, ,33, ,
6, ,33, ,
5, ,33, ,
4, ,33, ,
3, ,33, ,
3, ,33, ,
2, ,33, ,
1, ,33, ,
-1, ,33, ,
-1, ,33, ,
-2, ,33, ,
-4, ,33, ,
-4, ,33, ,
-6, ,33, ,
-6, ,33, ,
-8, ,33, ,
-9, ,33, ,
-9, ,33, ,
-10, ,33, ,
-10, ,33, ,
-11, ,33, ,
-11, ,33, ,
-11, ,33, ,
-10, ,33, ,
-9, ,33, ,
-9, ,33, ,
-9, ,33, ,
-6, ,33, ,
-5, ,33, ,
-4, ,33, ,
-3, ,33, ,
0, ,33, ,
1, ,33, ,
2, ,33, ,
3, ,33, ,
4, ,33, ,
5, ,33, ,
5, ,33, ,
6, ,33, ,
5, ,33, ,
5, ,33, ,
5, ,33, ,
4, ,33, ,
3, ,33, ,
3, ,33, ,
3, ,33, ,
3, ,33, ,
3, ,33, ,
3, ,33, ,
4, ,33, ,
4, ,33, ,
5, ,33, ,
5, ,33, ,
6, ,33, ,
6, ,33, ,
7, ,33, ,
7, ,33, ,
7, ,33, ,
8, ,33, ,
7, ,33, ,
7, ,33, ,
6, ,33, ,
6, ,33, ,
5, ,33, ,
4, ,33, ,
4, ,33, ,
2, ,33, ,
1, ,33, ,
1, ,33, ,
-1, ,33, ,
-1, ,33, ,
-3, ,33, ,
-4, ,33, ,
-4, ,33, ,
-5, ,33, ,
-6, ,33, ,
-7, ,33, ,
-8, ,33, ,
-8, ,33, ,
-9, ,33, ,
-9, ,33, ,
-8, ,33, ,
-8, ,33, ,
-8, ,33, ,
-8, ,33, ,
-8, ,33, ,
-7, ,33, ,
-7, ,33, ,
-7, ,33, ,
-6, ,33, ,
-6, ,33, ,
