raw_data/75% Glycerol, Impulsion 2Hz, Sonde 5MHz, Rampe 0.7Hz/temp0000388.CSV

Format,1.0B,
Memory Length,10000,Memory Length,10000,
IntpDistance,0,IntpDistance,0,
Trigger Address,159,Trigger Address,159,
Trigger Level,2.720E-01,Trigger Level,2.720E-01,
Source,CH1,Source,CH2,
Vertical Units,V,Vertical Units,V,
Vertical Units Div,0,Vertical Units Div,0,
Vertical Units Extend Div,16,Vertical Units Extend Div,16,
Label,,Label,,
Probe Type,0,Probe Type,0,
Probe Ratio,1.000e+00,Probe Ratio,1.000e+00,
Vertical Scale,5.000e-01,Vertical Scale,2.000e+00,
Vertical Position,0.000e+00,Vertical Position,0.000e+00,
Horizontal Units,S,Horizontal Units,S,
Horizontal Scale,5.000E-06,Horizontal Scale,5.000E-06,
Horizontal Position,2.420E-05,Horizontal Position,2.420E-05,
Horizontal Mode,Main,Horizontal Mode,Main,
SincET Mode,Real Time,SincET Mode,Real Time,
Sampling Period,5.000e-09,Sampling Period,5.000e-09,
Horizontal Old Scale,5.000E-06,Horizontal Old Scale,5.000E-06,
Horizontal Old Position,2.420E-05,Horizontal Old Position,2.420E-05,
Firmware,V1.32,Firmware,V1.32,
Mode,Fast,Mode,Fast,
Waveform Data,,Waveform Data,,
1, ,-26, ,
1, ,-26, ,
1, ,-26, ,
1, ,-26, ,
0, ,-26, ,
0, ,-26, ,
1, ,-26, ,
1, ,-26, ,
1, ,-26, ,
1, ,-26, ,
1, ,-26, ,
1, ,-26, ,
1, ,-26, ,
1, ,-26, ,
1, ,-26, ,
1, ,-26, ,
1, ,-26, ,
1, ,-26, ,
1, ,-26, ,
1, ,-26, ,
1, ,-26, ,
1, ,-26, ,
1, ,-26, ,
1, ,-26, ,
1, ,-26, ,
1, ,-26, ,
1, ,-26, ,
1, ,-26, ,
1, ,-26, ,
1, ,-26, ,
1, ,-26, ,
1, ,-26, ,
1, ,-26, ,
1, ,-26, ,
1, ,-26, ,
1, ,-26, ,
1, ,-26, ,
1, ,-26, ,
1, ,-26, ,
1, ,-26, ,
0, ,-26, ,
0, ,-26, ,
1, ,-26, ,
1, ,-26, ,
1, ,-26, ,
1, ,-26, ,
1, ,-26, ,
1, ,-26, ,
1, ,-26, ,
0, ,-26, ,
0, ,-26, ,
0, ,-26, ,
1, ,-26, ,
1, ,-26, ,
1, ,-26, ,
1, ,-26, ,
1, ,-26, ,
0, ,-26, ,
0, ,-26, ,
0, ,-26, ,
1, ,-26, ,
1, ,-26, ,
1, ,-26, ,
1, ,-26, ,
1, ,-26, ,
1, ,-26, ,
1, ,-26, ,
1, ,-26, ,
1, ,-26, ,
0, ,-26, ,
0, ,-26, ,
0, ,-26, ,
0, ,-26, ,
0, ,-26, ,
1, ,-26, ,
1, ,-26, ,
1, ,-26, ,
1, ,-26, ,
1, ,-26, ,
1, ,-26, ,
1, ,-26, ,
1, ,-26, ,
1, ,-26, ,
1, ,-26, ,
1, ,-26, ,
1, ,-26, ,
1, ,-26, ,
1, ,-26, ,
1, ,-26, ,
1, ,-26, ,
1, ,-26, ,
1, ,-26, ,
1, ,-26, ,
0, ,-26, ,
0, ,-26, ,
1, ,-26, ,
1, ,-26, ,
1, ,-26, ,
1, ,-26, ,
1, ,-26, ,
1, ,-26, ,
1, ,-26, ,
0, ,-26, ,
0, ,-26, ,
0, ,-26, ,
0, ,-26, ,
0, ,-26, ,
0, ,-26, ,
1, ,-26, ,
0, ,-26, ,
0, ,-26, ,
0, ,-26, ,
1, ,-26, ,
1, ,-26, ,
1, ,-26, ,
1, ,-26, ,
1, ,-26, ,
1, ,-26, ,
1, ,-26, ,
1, ,-26, ,
1, ,-26, ,
1, ,-26, ,
1, ,-26, ,
1, ,-26, ,
1, ,-26, ,
1, ,-26, ,
0, ,-26, ,
0, ,-26, ,
0, ,-26, ,
1, ,-26, ,
1, ,-26, ,
1, ,-26, ,
1, ,-26, ,
1, ,-26, ,
1, ,-26, ,
1, ,-26, ,
1, ,-26, ,
1, ,-26, ,
1, ,-26, ,
1, ,-26, ,
1, ,-26, ,
1, ,-26, ,
0, ,-26, ,
0, ,-26, ,
0, ,-26, ,
1, ,-26, ,
1, ,-26, ,
1, ,-26, ,
1, ,-26, ,
1, ,-26, ,
1, ,-26, ,
1, ,-26, ,
1, ,-26, ,
1, ,-26, ,
1, ,-26, ,
1, ,-26, ,
1, ,-26, ,
1, ,-26, ,
1, ,-26, ,
1, ,-26, ,
1, ,-26, ,
1, ,-26, ,
1, ,-26, ,
1, ,-26, ,
2, ,-26, ,
0, ,-26, ,
-1, ,-26, ,
1, ,-26, ,
12, ,-26, ,
75, ,-26, ,
114, ,-26, ,
124, ,-26, ,
122, ,-26, ,
58, ,-26, ,
4, ,-26, ,
-3, ,-26, ,
38, ,-26, ,
125, ,-26, ,
125, ,-26, ,
125, ,-26, ,
125, ,-26, ,
125, ,-26, ,
125, ,-26, ,
124, ,-26, ,
124, ,-26, ,
117, ,-26, ,
112, ,-26, ,
107, ,-26, ,
104, ,-26, ,
98, ,-26, ,
95, ,-26, ,
91, ,-26, ,
87, ,-26, ,
81, ,-26, ,
78, ,-26, ,
75, ,-26, ,
73, ,-26, ,
67, ,-26, ,
64, ,-26, ,
62, ,-26, ,
59, ,-26, ,
54, ,-26, ,
52, ,-26, ,
50, ,-26, ,
48, ,-26, ,
44, ,-26, ,
41, ,-26, ,
41, ,-26, ,
38, ,-26, ,
35, ,-26, ,
34, ,-26, ,
32, ,-26, ,
31, ,-26, ,
28, ,-26, ,
26, ,-26, ,
25, ,-26, ,
25, ,-26, ,
23, ,-26, ,
22, ,-26, ,
20, ,-26, ,
20, ,-26, ,
18, ,-26, ,
17, ,-26, ,
17, ,-26, ,
15, ,-26, ,
14, ,-26, ,
13, ,-26, ,
12, ,-26, ,
12, ,-26, ,
10, ,-26, ,
10, ,-26, ,
9, ,-26, ,
9, ,-26, ,
8, ,-26, ,
7, ,-26, ,
7, ,-26, ,
7, ,-26, ,
6, ,-26, ,
5, ,-26, ,
5, ,-26, ,
4, ,-26, ,
4, ,-26, ,
4, ,-26, ,
3, ,-26, ,
3, ,-26, ,
3, ,-26, ,
2, ,-26, ,
2, ,-26, ,
1, ,-26, ,
1, ,-26, ,
1, ,-26, ,
1, ,-26, ,
2, ,-26, ,
1, ,-26, ,
1, ,-26, ,
1, ,-26, ,
1, ,-26, ,
0, ,-26, ,
0, ,-26, ,
0, ,-26, ,
0, ,-26, ,
0, ,-26, ,
0, ,-26, ,
0, ,-26, ,
-1, ,-26, ,
-1, ,-26, ,
-1, ,-26, ,
-1, ,-26, ,
-1, ,-26, ,
-1, ,-26, ,
-1, ,-26, ,
-1, ,-26, ,
-1, ,-26, ,
-1, ,-26, ,
-1, ,-26, ,
-1, ,-26, ,
-1, ,-26, ,
-1, ,-26, ,
-1, ,-26, ,
-1, ,-26, ,
-1, ,-26, ,
-1, ,-26, ,
-1, ,-26, ,
-1, ,-26, ,
-1, ,-26, ,
-1, ,-26, ,
-1, ,-26, ,
-1, ,-26, ,
-1, ,-26, ,
-1, ,-26, ,
-1, ,-26, ,
-1, ,-26, ,
-1, ,-26, ,
-1, ,-26, ,
-1, ,-26, ,
-1, ,-26, ,
-1, ,-26, ,
-1, ,-26, ,
-1, ,-26, ,
-1, ,-26, ,
-1, ,-26, ,
-1, ,-26, ,
-1, ,-26, ,
-1, ,-26, ,
-1, ,-26, ,
-1, ,-26, ,
-1, ,-26, ,
-1, ,-26, ,
-1, ,-26, ,
-1, ,-26, ,
-1, ,-26, ,
0, ,-26, ,
-1, ,-26, ,
-1, ,-26, ,
-1, ,-26, ,
-1, ,-26, ,
-1, ,-26, ,
0, ,-26, ,
0, ,-26, ,
0, ,-26, ,
0, ,-26, ,
-1, ,-26, ,
-1, ,-26, ,
-1, ,-26, ,
-1, ,-26, ,
0, ,-26, ,
0, ,-26, ,
0, ,-26, ,
-1, ,-26, ,
-1, ,-26, ,
0, ,-26, ,
0, ,-26, ,
0, ,-26, ,
0, ,-26, ,
0, ,-26, ,
0, ,-26, ,
0, ,-26, ,
0, ,-26, ,
0, ,-26, ,
0, ,-26, ,
0, ,-26, ,
0, ,-26, ,
0, ,-26, ,
0, ,-26, ,
0, ,-26, ,
0, ,-26, ,
0, ,-26, ,
0, ,-26, ,
0, ,-26, ,
0, ,-26, ,
0, ,-26, ,
0, ,-26, ,
0, ,-26, ,
0, ,-26, ,
0, ,-26, ,
0, ,-26, ,
0, ,-26, ,
0, ,-26, ,
0, ,-26, ,
0, ,-26, ,
1, ,-26, ,
0, ,-26, ,
0, ,-26, ,
0, ,-26, ,
0, ,-26, ,
0, ,-26, ,
0, ,-26, ,
0, ,-26, ,
0, ,-26, ,
0, ,-26, ,
0, ,-26, ,
0, ,-26, ,
0, ,-26, ,
0, ,-26, ,
0, ,-26, ,
0, ,-26, ,
0, ,-26, ,
0, ,-26, ,
0, ,-26, ,
0, ,-26, ,
0, ,-26, ,
0, ,-26, ,
0, ,-26, ,
0, ,-26, ,
0, ,-26, ,
0, ,-26, ,
0, ,-26, ,
0, ,-26, ,
1, ,-26, ,
0, ,-26, ,
0, ,-26, ,
0, ,-26, ,
0, ,-26, ,
0, ,-26, ,
1, ,-26, ,
1, ,-26, ,
1, ,-26, ,
1, ,-26, ,
1, ,-26, ,
1, ,-26, ,
1, ,-26, ,
0, ,-26, ,
1, ,-26, ,
1, ,-26, ,
1, ,-26, ,
0, ,-26, ,
0, ,-26, ,
0, ,-26, ,
0, ,-26, ,
0, ,-26, ,
0, ,-26, ,
0, ,-26, ,
0, ,-26, ,
0, ,-26, ,
0, ,-26, ,
1, ,-26, ,
1, ,-26, ,
1, ,-26, ,
1, ,-26, ,
0, ,-26, ,
0, ,-26, ,
1, ,-26, ,
1, ,-26, ,
1, ,-26, ,
1, ,-26, ,
1, ,-26, ,
1, ,-26, ,
0, ,-26, ,
0, ,-26, ,
0, ,-26, ,
0, ,-26, ,
0, ,-26, ,
0, ,-26, ,
0, ,-26, ,
0, ,-26, ,
-1, ,-26, ,
-1, ,-26, ,
-2, ,-26, ,
-3, ,-26, ,
-4, ,-26, ,
-6, ,-26, ,
-12, ,-26, ,
-15, ,-26, ,
-19, ,-26, ,
-22, ,-26, ,
-22, ,-26, ,
-20, ,-26, ,
-17, ,-26, ,
-12, ,-26, ,
-5, ,-26, ,
-2, ,-26, ,
0, ,-26, ,
1, ,-26, ,
3, ,-26, ,
4, ,-26, ,
5, ,-26, ,
5, ,-26, ,
6, ,-26, ,
6, ,-26, ,
6, ,-26, ,
6, ,-26, ,
6, ,-26, ,
5, ,-26, ,
5, ,-26, ,
4, ,-26, ,
4, ,-26, ,
4, ,-26, ,
4, ,-26, ,
3, ,-26, ,
3, ,-26, ,
3, ,-26, ,
3, ,-26, ,
3, ,-26, ,
4, ,-26, ,
4, ,-26, ,
4, ,-26, ,
4, ,-26, ,
4, ,-26, ,
4, ,-26, ,
4, ,-26, ,
3, ,-26, ,
3, ,-26, ,
3, ,-26, ,
3, ,-26, ,
3, ,-26, ,
3, ,-26, ,
2, ,-26, ,
2, ,-26, ,
2, ,-26, ,
1, ,-26, ,
1, ,-26, ,
1, ,-26, ,
1, ,-26, ,
1, ,-26, ,
1, ,-26, ,
1, ,-26, ,
0, ,-26, ,
0, ,-26, ,
-1, ,-26, ,
-1, ,-26, ,
-2, ,-26, ,
-2, ,-26, ,
-2, ,-26, ,
-2, ,-26, ,
-3, ,-26, ,
-3, ,-26, ,
-1, ,-26, ,
-1, ,-26, ,
-1, ,-26, ,
0, ,-26, ,
1, ,-26, ,
1, ,-26, ,
1, ,-26, ,
2, ,-26, ,
2, ,-26, ,
2, ,-26, ,
2, ,-26, ,
1, ,-26, ,
0, ,-26, ,
0, ,-26, ,
-1, ,-26, ,
-2, ,-26, ,
-3, ,-26, ,
-4, ,-26, ,
-5, ,-26, ,
-7, ,-26, ,
-8, ,-26, ,
-8, ,-26, ,
-9, ,-26, ,
-9, ,-26, ,
-8, ,-26, ,
-8, ,-26, ,
-7, ,-26, ,
-7, ,-26, ,
-6, ,-26, ,
-6, ,-26, ,
-6, ,-26, ,
-7, ,-26, ,
-7, ,-26, ,
-8, ,-26, ,
-9, ,-26, ,
-12, ,-26, ,
-14, ,-26, ,
-16, ,-26, ,
-18, ,-26, ,
-21, ,-26, ,
-22, ,-26, ,
-22, ,-26, ,
-21, ,-26, ,
-20, ,-26, ,
-19, ,-26, ,
-18, ,-26, ,
-18, ,-26, ,
-17, ,-26, ,
-17, ,-26, ,
-18, ,-26, ,
-18, ,-26, ,
-21, ,-26, ,
-25, ,-26, ,
-26, ,-26, ,
-29, ,-26, ,
-35, ,-26, ,
-37, ,-26, ,
-40, ,-26, ,
-41, ,-26, ,
-42, ,-26, ,
-42, ,-26, ,
-41, ,-26, ,
-40, ,-26, ,
-37, ,-26, ,
-34, ,-26, ,
-32, ,-26, ,
-30, ,-26, ,
-25, ,-26, ,
-25, ,-26, ,
-22, ,-26, ,
-20, ,-26, ,
-17, ,-26, ,
-15, ,-26, ,
-14, ,-26, ,
-10, ,-26, ,
-7, ,-26, ,
-4, ,-26, ,
-1, ,-26, ,
1, ,-26, ,
7, ,-26, ,
11, ,-26, ,
13, ,-26, ,
15, ,-26, ,
20, ,-26, ,
21, ,-26, ,
22, ,-26, ,
23, ,-26, ,
24, ,-26, ,
24, ,-26, ,
23, ,-26, ,
23, ,-26, ,
21, ,-26, ,
19, ,-26, ,
19, ,-26, ,
17, ,-26, ,
15, ,-26, ,
14, ,-26, ,
12, ,-26, ,
12, ,-26, ,
12, ,-26, ,
11, ,-26, ,
11, ,-26, ,
11, ,-26, ,
12, ,-26, ,
11, ,-26, ,
11, ,-26, ,
10, ,-26, ,
9, ,-26, ,
8, ,-26, ,
8, ,-26, ,
6, ,-26, ,
3, ,-26, ,
3, ,-26, ,
0, ,-26, ,
-2, ,-26, ,
-4, ,-26, ,
-6, ,-26, ,
-7, ,-26, ,
-9, ,-26, ,
-11, ,-26, ,
-12, ,-26, ,
-13, ,-26, ,
-14, ,-26, ,
-15, ,-26, ,
-16, ,-26, ,
-16, ,-26, ,
-18, ,-26, ,
-19, ,-26, ,
-20, ,-26, ,
-20, ,-26, ,
-21, ,-26, ,
-22, ,-26, ,
-23, ,-26, ,
-23, ,-26, ,
-24, ,-26, ,
-24, ,-26, ,
-23, ,-26, ,
-23, ,-26, ,
-22, ,-26, ,
-20, ,-26, ,
-19, ,-26, ,
-16, ,-26, ,
-16, ,-26, ,
-12, ,-26, ,
-10, ,-26, ,
-9, ,-26, ,
-8, ,-26, ,
-7, ,-26, ,
-8, ,-26, ,
-8, ,-26, ,
-9, ,-26, ,
-10, ,-26, ,
-11, ,-26, ,
-11, ,-26, ,
-11, ,-26, ,
-11, ,-26, ,
-11, ,-26, ,
-11, ,-26, ,
-11, ,-26, ,
-10, ,-26, ,
-9, ,-26, ,
-8, ,-26, ,
-7, ,-26, ,
-5, ,-26, ,
-4, ,-26, ,
-3, ,-26, ,
-2, ,-26, ,
0, ,-26, ,
1, ,-26, ,
1, ,-26, ,
3, ,-26, ,
4, ,-26, ,
4, ,-26, ,
4, ,-26, ,
4, ,-26, ,
4, ,-26, ,
4, ,-26, ,
3, ,-26, ,
2, ,-26, ,
1, ,-26, ,
0, ,-26, ,
-2, ,-26, ,
-2, ,-26, ,
-5, ,-26, ,
-5, ,-26, ,
-6, ,-26, ,
-6, ,-26, ,
-8, ,-26, ,
-9, ,-26, ,
-9, ,-26, ,
-10, ,-26, ,
-13, ,-26, ,
-13, ,-26, ,
-15, ,-26, ,
-16, ,-26, ,
-18, ,-26, ,
-19, ,-26, ,
-21, ,-26, ,
-22, ,-26, ,
-22, ,-26, ,
-22, ,-26, ,
-22, ,-26, ,
-21, ,-26, ,
-21, ,-26, ,
-20, ,-26, ,
-19, ,-26, ,
-19, ,-26, ,
-17, ,-26, ,
-15, ,-26, ,
-14, ,-26, ,
-12, ,-26, ,
-9, ,-26, ,
-8, ,-26, ,
-6, ,-26, ,
-5, ,-26, ,
-1, ,-26, ,
2, ,-26, ,
3, ,-26, ,
6, ,-26, ,
10, ,-26, ,
13, ,-26, ,
15, ,-26, ,
17, ,-26, ,
20, ,-26, ,
22, ,-26, ,
24, ,-26, ,
25, ,-26, ,
25, ,-26, ,
26, ,-26, ,
26, ,-26, ,
25, ,-26, ,
25, ,-26, ,
24, ,-26, ,
23, ,-26, ,
21, ,-26, ,
18, ,-26, ,
16, ,-26, ,
14, ,-26, ,
12, ,-26, ,
8, ,-26, ,
7, ,-26, ,
4, ,-26, ,
3, ,-26, ,
0, ,-26, ,
-1, ,-26, ,
-3, ,-26, ,
-4, ,-26, ,
-7, ,-26, ,
-8, ,-26, ,
-8, ,-26, ,
-9, ,-26, ,
-11, ,-26, ,
-12, ,-26, ,
-13, ,-26, ,
-14, ,-26, ,
-14, ,-26, ,
-14, ,-26, ,
-15, ,-26, ,
-14, ,-26, ,
-14, ,-26, ,
-14, ,-26, ,
-14, ,-26, ,
-14, ,-26, ,
-14, ,-26, ,
-14, ,-26, ,
-14, ,-26, ,
-14, ,-26, ,
-16, ,-26, ,
-17, ,-26, ,
-17, ,-26, ,
-19, ,-26, ,
-21, ,-26, ,
-22, ,-26, ,
-23, ,-26, ,
-25, ,-26, ,
-25, ,-26, ,
-26, ,-26, ,
-27, ,-26, ,
-27, ,-26, ,
-27, ,-26, ,
-27, ,-26, ,
-27, ,-26, ,
-25, ,-26, ,
-25, ,-26, ,
-24, ,-26, ,
-22, ,-26, ,
-21, ,-26, ,
-18, ,-26, ,
-17, ,-26, ,
-16, ,-26, ,
-14, ,-26, ,
-12, ,-26, ,
-11, ,-26, ,
-10, ,-26, ,
-10, ,-26, ,
-8, ,-26, ,
-8, ,-26, ,
-7, ,-26, ,
-7, ,-26, ,
-6, ,-26, ,
-5, ,-26, ,
-5, ,-26, ,
-5, ,-26, ,
-4, ,-26, ,
-4, ,-26, ,
-4, ,-26, ,
-4, ,-26, ,
-4, ,-26, ,
-4, ,-26, ,
-4, ,-26, ,
-5, ,-26, ,
-6, ,-26, ,
-6, ,-26, ,
-6, ,-26, ,
-6, ,-26, ,
-7, ,-26, ,
-7, ,-26, ,
-6, ,-26, ,
-6, ,-26, ,
-4, ,-26, ,
-2, ,-26, ,
-1, ,-26, ,
1, ,-26, ,
4, ,-26, ,
6, ,-26, ,
7, ,-26, ,
8, ,-26, ,
11, ,-26, ,
12, ,-26, ,
13, ,-26, ,
13, ,-26, ,
13, ,-26, ,
13, ,-26, ,
13, ,-26, ,
11, ,-26, ,
10, ,-26, ,
10, ,-26, ,
9, ,-26, ,
8, ,-26, ,
7, ,-26, ,
7, ,-26, ,
5, ,-26, ,
5, ,-26, ,
3, ,-26, ,
3, ,-26, ,
3, ,-26, ,
3, ,-26, ,
2, ,-26, ,
2, ,-26, ,
2, ,-26, ,
3, ,-26, ,
3, ,-26, ,
4, ,-26, ,
4, ,-26, ,
5, ,-26, ,
6, ,-26, ,
6, ,-26, ,
7, ,-26, ,
8, ,-26, ,
9, ,-26, ,
9, ,-26, ,
9, ,-26, ,
9, ,-26, ,
8, ,-26, ,
7, ,-26, ,
7, ,-26, ,
5, ,-26, ,
2, ,-26, ,
1, ,-26, ,
-1, ,-26, ,
-3, ,-26, ,
-7, ,-26, ,
-9, ,-26, ,
-11, ,-26, ,
-13, ,-26, ,
-16, ,-26, ,
-17, ,-26, ,
-19, ,-26, ,
-19, ,-26, ,
-22, ,-26, ,
-22, ,-26, ,
-22, ,-26, ,
-23, ,-26, ,
-23, ,-26, ,
-23, ,-26, ,
-23, ,-26, ,
-23, ,-26, ,
-23, ,-26, ,
-23, ,-26, ,
-22, ,-26, ,
-23, ,-26, ,
-21, ,-26, ,
-20, ,-26, ,
-20, ,-26, ,
-18, ,-26, ,
-16, ,-26, ,
-15, ,-26, ,
-14, ,-26, ,
-13, ,-26, ,
-10, ,-26, ,
-8, ,-26, ,
-6, ,-26, ,
-4, ,-26, ,
-1, ,-26, ,
-1, ,-26, ,
1, ,-26, ,
1, ,-26, ,
2, ,-26, ,
2, ,-26, ,
1, ,-26, ,
1, ,-26, ,
-1, ,-26, ,
-2, ,-26, ,
-3, ,-26, ,
-5, ,-26, ,
-8, ,-26, ,
-10, ,-26, ,
-12, ,-26, ,
-13, ,-26, ,
-15, ,-26, ,
-17, ,-26, ,
-17, ,-26, ,
-17, ,-26, ,
-16, ,-26, ,
-15, ,-26, ,
-15, ,-26, ,
-14, ,-26, ,
-10, ,-26, ,
-9, ,-26, ,
-6, ,-26, ,
-5, ,-26, ,
-1, ,-26, ,
1, ,-26, ,
2, ,-26, ,
4, ,-26, ,
6, ,-26, ,
6, ,-26, ,
7, ,-26, ,
7, ,-26, ,
6, ,-26, ,
6, ,-26, ,
5, ,-26, ,
5, ,-26, ,
2, ,-26, ,
2, ,-26, ,
1, ,-26, ,
0, ,-26, ,
-1, ,-26, ,
-1, ,-26, ,
-2, ,-26, ,
-2, ,-26, ,
-3, ,-26, ,
-4, ,-26, ,
-4, ,-26, ,
-5, ,-26, ,
-6, ,-26, ,
-6, ,-26, ,
-6, ,-26, ,
-7, ,-26, ,
-7, ,-26, ,
-7, ,-26, ,
-7, ,-26, ,
-7, ,-26, ,
-6, ,-26, ,
-6, ,-26, ,
-6, ,-26, ,
-5, ,-26, ,
-4, ,-26, ,
-4, ,-26, ,
-3, ,-26, ,
-3, ,-26, ,
-1, ,-26, ,
1, ,-26, ,
1, ,-26, ,
2, ,-26, ,
4, ,-26, ,
4, ,-26, ,
5, ,-26, ,
5, ,-26, ,
6, ,-26, ,
7, ,-26, ,
7, ,-26, ,
7, ,-26, ,
8, ,-26, ,
7, ,-26, ,
7, ,-26, ,
6, ,-26, ,
5, ,-26, ,
5, ,-26, ,
4, ,-26, ,
4, ,-26, ,
2, ,-26, ,
2, ,-26, ,
1, ,-26, ,
1, ,-26, ,
0, ,-26, ,
0, ,-26, ,
0, ,-26, ,
0, ,-26, ,
-1, ,-26, ,
-1, ,-26, ,
-1, ,-26, ,
-2, ,-26, ,
-3, ,-26, ,
-3, ,-26, ,
-3, ,-26, ,
-3, ,-26, ,
-4, ,-26, ,
-4, ,-26, ,
-4, ,-26, ,
-4, ,-26, ,
-5, ,-26, ,
-5, ,-26, ,
-5, ,-26, ,
-5, ,-26, ,
-6, ,-26, ,
-7, ,-26, ,
-7, ,-26, ,
-7, ,-26, ,
-8, ,-26, ,
-8, ,-26, ,
-9, ,-26, ,
-9, ,-26, ,
-9, ,-26, ,
-10, ,-26, ,
-10, ,-26, ,
-10, ,-26, ,
-9, ,-26, ,
-8, ,-26, ,
-8, ,-26, ,
-7, ,-26, ,
-5, ,-26, ,
-4, ,-26, ,
-3, ,-26, ,
-2, ,-26, ,
-1, ,-26, ,
1, ,-26, ,
1, ,-26, ,
3, ,-26, ,
4, ,-26, ,
4, ,-26, ,
5, ,-26, ,
5, ,-26, ,
5, ,-26, ,
5, ,-26, ,
5, ,-26, ,
5, ,-26, ,
4, ,-26, ,
3, ,-26, ,
3, ,-26, ,
2, ,-26, ,
1, ,-26, ,
1, ,-26, ,
1, ,-26, ,
1, ,-26, ,
1, ,-26, ,
1, ,-26, ,
1, ,-26, ,
0, ,-26, ,
0, ,-26, ,
0, ,-26, ,
-1, ,-26, ,
-1, ,-26, ,
-2, ,-26, ,
-3, ,-26, ,
-3, ,-26, ,
-4, ,-26, ,
-5, ,-26, ,
-5, ,-26, ,
-6, ,-26, ,
-6, ,-26, ,
-7, ,-26, ,
-8, ,-26, ,
-8, ,-26, ,
-8, ,-26, ,
-8, ,-26, ,
-8, ,-26, ,
-8, ,-26, ,
-7, ,-26, ,
-6, ,-26, ,
-6, ,-26, ,
-5, ,-26, ,
-5, ,-26, ,
-4, ,-26, ,
-3, ,-26, ,
-3, ,-26, ,
-2, ,-26, ,
-2, ,-26, ,
-2, ,-26, ,
-2, ,-26, ,
-2, ,-26, ,
-2, ,-26, ,
-1, ,-26, ,
-1, ,-26, ,
-1, ,-26, ,
0, ,-26, ,
0, ,-26, ,
1, ,-26, ,
1, ,-26, ,
3, ,-26, ,
3, ,-26, ,
4, ,-26, ,
6, ,-26, ,
7, ,-26, ,
8, ,-26, ,
10, ,-26, ,
11, ,-26, ,
11, ,-26, ,
12, ,-26, ,
12, ,-26, ,
12, ,-26, ,
12, ,-26, ,
12, ,-26, ,
11, ,-26, ,
11, ,-26, ,
9, ,-26, ,
9, ,-26, ,
8, ,-26, ,
8, ,-26, ,
7, ,-26, ,
5, ,-26, ,
5, ,-26, ,
4, ,-26, ,
2, ,-26, ,
2, ,-26, ,
0, ,-26, ,
0, ,-26, ,
-2, ,-26, ,
-4, ,-26, ,
-5, ,-26, ,
-7, ,-26, ,
-9, ,-26, ,
-11, ,-26, ,
-13, ,-26, ,
-13, ,-26, ,
-16, ,-26, ,
-17, ,-26, ,
-17, ,-26, ,
-18, ,-26, ,
-18, ,-26, ,
-17, ,-26, ,
-17, ,-26, ,
-16, ,-26, ,
-14, ,-26, ,
-14, ,-26, ,
-12, ,-26, ,
-12, ,-26, ,
-10, ,-26, ,
-8, ,-26, ,
-8, ,-26, ,
-7, ,-26, ,
-6, ,-26, ,
-6, ,-26, ,
-6, ,-26, ,
-6, ,-26, ,
-7, ,-26, ,
-7, ,-26, ,
-7, ,-26, ,
-7, ,-26, ,
-7, ,-26, ,
-7, ,-26, ,
-6, ,-26, ,
-6, ,-26, ,
-5, ,-26, ,
-4, ,-26, ,
-3, ,-26, ,
-2, ,-26, ,
1, ,-26, ,
2, ,-26, ,
4, ,-26, ,
6, ,-26, ,
9, ,-26, ,
11, ,-26, ,
13, ,-26, ,
14, ,-26, ,
17, ,-26, ,
17, ,-26, ,
18, ,-26, ,
19, ,-26, ,
19, ,-26, ,
19, ,-26, ,
19, ,-26, ,
18, ,-26, ,
17, ,-26, ,
15, ,-26, ,
15, ,-26, ,
13, ,-26, ,
11, ,-26, ,
11, ,-26, ,
9, ,-26, ,
7, ,-26, ,
5, ,-26, ,
3, ,-26, ,
2, ,-26, ,
1, ,-26, ,
-2, ,-26, ,
-3, ,-26, ,
-4, ,-26, ,
-5, ,-26, ,
-8, ,-26, ,
-9, ,-26, ,
-10, ,-26, ,
-12, ,-26, ,
-14, ,-26, ,
-14, ,-26, ,
-16, ,-26, ,
-17, ,-26, ,
-19, ,-26, ,
-20, ,-26, ,
-20, ,-26, ,
-21, ,-26, ,
-21, ,-26, ,
-20, ,-26, ,
-20, ,-26, ,
-19, ,-26, ,
-17, ,-26, ,
-16, ,-26, ,
-13, ,-26, ,
-12, ,-26, ,
-8, ,-26, ,
-5, ,-26, ,
-3, ,-26, ,
0, ,-26, ,
5, ,-26, ,
6, ,-26, ,
9, ,-26, ,
10, ,-26, ,
12, ,-26, ,
12, ,-26, ,
11, ,-26, ,
11, ,-26, ,
8, ,-26, ,
6, ,-26, ,
4, ,-26, ,
1, ,-26, ,
-4, ,-26, ,
-6, ,-26, ,
-9, ,-26, ,
-12, ,-26, ,
-15, ,-26, ,
-18, ,-26, ,
-18, ,-26, ,
-18, ,-26, ,
-18, ,-26, ,
-18, ,-26, ,
-16, ,-26, ,
-15, ,-26, ,
-13, ,-26, ,
-11, ,-26, ,
-8, ,-26, ,
-7, ,-26, ,
-4, ,-26, ,
-2, ,-26, ,
-2, ,-26, ,
0, ,-26, ,
2, ,-26, ,
2, ,-26, ,
2, ,-26, ,
2, ,-26, ,
2, ,-26, ,
2, ,-26, ,
2, ,-26, ,
2, ,-26, ,
2, ,-26, ,
2, ,-26, ,
2, ,-26, ,
2, ,-26, ,
3, ,-26, ,
3, ,-26, ,
3, ,-26, ,
3, ,-26, ,
3, ,-26, ,
3, ,-26, ,
3, ,-26, ,
3, ,-26, ,
3, ,-26, ,
3, ,-26, ,
3, ,-26, ,
3, ,-26, ,
3, ,-26, ,
3, ,-26, ,
4, ,-26, ,
4, ,-26, ,
5, ,-26, ,
6, ,-26, ,
6, ,-26, ,
7, ,-26, ,
8, ,-26, ,
8, ,-26, ,
9, ,-26, ,
9, ,-26, ,
8, ,-26, ,
8, ,-26, ,
7, ,-26, ,
7, ,-26, ,
4, ,-26, ,
3, ,-26, ,
2, ,-26, ,
0, ,-26, ,
-2, ,-26, ,
-4, ,-26, ,
-5, ,-26, ,
-7, ,-26, ,
-9, ,-26, ,
-11, ,-26, ,
-12, ,-26, ,
-13, ,-26, ,
-14, ,-26, ,
-15, ,-26, ,
-15, ,-26, ,
-14, ,-26, ,
-14, ,-26, ,
-14, ,-26, ,
-13, ,-26, ,
-13, ,-26, ,
-11, ,-26, ,
-8, ,-26, ,
-7, ,-26, ,
-6, ,-26, ,
-2, ,-26, ,
0, ,-26, ,
2, ,-26, ,
3, ,-26, ,
7, ,-26, ,
8, ,-26, ,
9, ,-26, ,
11, ,-26, ,
13, ,-26, ,
13, ,-26, ,
13, ,-26, ,
12, ,-26, ,
11, ,-26, ,
11, ,-26, ,
10, ,-26, ,
9, ,-26, ,
6, ,-26, ,
5, ,-26, ,
4, ,-26, ,
2, ,-26, ,
1, ,-26, ,
0, ,-26, ,
-2, ,-26, ,
-2, ,-26, ,
-2, ,-26, ,
-2, ,-26, ,
-2, ,-26, ,
-2, ,-26, ,
-2, ,-26, ,
-1, ,-26, ,
-1, ,-26, ,
0, ,-26, ,
1, ,-26, ,
1, ,-26, ,
2, ,-26, ,
2, ,-26, ,
3, ,-26, ,
3, ,-26, ,
3, ,-26, ,
3, ,-26, ,
2, ,-26, ,
2, ,-26, ,
2, ,-26, ,
1, ,-26, ,
0, ,-26, ,
0, ,-26, ,
-1, ,-26, ,
-1, ,-26, ,
-3, ,-26, ,
-3, ,-26, ,
-4, ,-26, ,
-5, ,-26, ,
-6, ,-26, ,
-6, ,-26, ,
-6, ,-26, ,
-6, ,-26, ,
-5, ,-26, ,
-5, ,-26, ,
-4, ,-26, ,
-4, ,-26, ,
-2, ,-26, ,
0, ,-26, ,
0, ,-26, ,
2, ,-26, ,
5, ,-26, ,
6, ,-26, ,
7, ,-26, ,
8, ,-26, ,
9, ,-26, ,
8, ,-26, ,
8, ,-26, ,
7, ,-26, ,
5, ,-26, ,
4, ,-26, ,
3, ,-26, ,
0, ,-26, ,
-3, ,-26, ,
-5, ,-26, ,
-7, ,-26, ,
-8, ,-26, ,
-11, ,-26, ,
-12, ,-26, ,
-12, ,-26, ,
-12, ,-26, ,
-12, ,-26, ,
-12, ,-26, ,
-11, ,-26, ,
-10, ,-26, ,
-8, ,-26, ,
-7, ,-26, ,
-5, ,-26, ,
-4, ,-26, ,
-1, ,-26, ,
0, ,-26, ,
1, ,-26, ,
2, ,-26, ,
4, ,-26, ,
4, ,-26, ,
4, ,-26, ,
4, ,-26, ,
3, ,-26, ,
3, ,-26, ,
2, ,-26, ,
2, ,-26, ,
0, ,-26, ,
0, ,-26, ,
-1, ,-26, ,
-1, ,-26, ,
-1, ,-26, ,
-1, ,-26, ,
-1, ,-26, ,
-1, ,-26, ,
0, ,-26, ,
1, ,-26, ,
2, ,-26, ,
3, ,-26, ,
6, ,-26, ,
7, ,-26, ,
9, ,-26, ,
11, ,-26, ,
13, ,-26, ,
15, ,-26, ,
16, ,-26, ,
16, ,-26, ,
17, ,-26, ,
16, ,-26, ,
16, ,-26, ,
15, ,-26, ,
13, ,-26, ,
11, ,-26, ,
9, ,-26, ,
7, ,-26, ,
2, ,-26, ,
-1, ,-26, ,
-4, ,-26, ,
-6, ,-26, ,
-11, ,-26, ,
-14, ,-26, ,
-15, ,-26, ,
-18, ,-26, ,
-21, ,-26, ,
-21, ,-26, ,
-21, ,-26, ,
-21, ,-26, ,
-20, ,-26, ,
-19, ,-26, ,
-18, ,-26, ,
-17, ,-26, ,
-12, ,-26, ,
-10, ,-26, ,
-9, ,-26, ,
-6, ,-26, ,
-2, ,-26, ,
0, ,-26, ,
2, ,-26, ,
3, ,-26, ,
5, ,-26, ,
6, ,-26, ,
6, ,-26, ,
6, ,-26, ,
6, ,-26, ,
5, ,-26, ,
5, ,-26, ,
4, ,-26, ,
3, ,-26, ,
2, ,-26, ,
1, ,-26, ,
1, ,-26, ,
1, ,-26, ,
0, ,-26, ,
0, ,-26, ,
0, ,-26, ,
1, ,-26, ,
1, ,-26, ,
1, ,-26, ,
1, ,-26, ,
1, ,-26, ,
1, ,-26, ,
1, ,-26, ,
2, ,-26, ,
2, ,-26, ,
2, ,-26, ,
2, ,-26, ,
2, ,-26, ,
2, ,-26, ,
2, ,-26, ,
3, ,-26, ,
3, ,-26, ,
3, ,-26, ,
4, ,-26, ,
4, ,-26, ,
4, ,-26, ,
5, ,-26, ,
5, ,-26, ,
6, ,-26, ,
6, ,-26, ,
7, ,-26, ,
7, ,-26, ,
7, ,-26, ,
7, ,-26, ,
8, ,-26, ,
8, ,-26, ,
8, ,-26, ,
7, ,-26, ,
7, ,-26, ,
7, ,-26, ,
6, ,-26, ,
6, ,-26, ,
6, ,-26, ,
5, ,-26, ,
5, ,-26, ,
4, ,-26, ,
3, ,-26, ,
3, ,-26, ,
2, ,-26, ,
2, ,-26, ,
1, ,-26, ,
1, ,-26, ,
1, ,-26, ,
1, ,-26, ,
0, ,-26, ,
-1, ,-26, ,
-1, ,-26, ,
-1, ,-26, ,
-2, ,-26, ,
-4, ,-26, ,
-4, ,-26, ,
-5, ,-26, ,
-7, ,-26, ,
-7, ,-26, ,
-8, ,-26, ,
-9, ,-26, ,
-10, ,-26, ,
-12, ,-26, ,
-12, ,-26, ,
-12, ,-26, ,
-13, ,-26, ,
-13, ,-26, ,
-13, ,-26, ,
-12, ,-26, ,
-11, ,-26, ,
-11, ,-26, ,
-10, ,-26, ,
-10, ,-26, ,
-7, ,-26, ,
-6, ,-26, ,
-5, ,-26, ,
-3, ,-26, ,
0, ,-26, ,
1, ,-26, ,
3, ,-26, ,
4, ,-26, ,
6, ,-26, ,
8, ,-26, ,
8, ,-26, ,
9, ,-26, ,
11, ,-26, ,
11, ,-26, ,
11, ,-26, ,
11, ,-26, ,
11, ,-26, ,
11, ,-26, ,
10, ,-26, ,
10, ,-26, ,
8, ,-26, ,
8, ,-26, ,
7, ,-26, ,
5, ,-26, ,
3, ,-26, ,
2, ,-26, ,
1, ,-26, ,
0, ,-26, ,
-1, ,-26, ,
-3, ,-26, ,
-3, ,-26, ,
-4, ,-26, ,
-4, ,-26, ,
-3, ,-26, ,
-3, ,-26, ,
-2, ,-26, ,
-1, ,-26, ,
-1, ,-26, ,
0, ,-26, ,
1, ,-26, ,
2, ,-26, ,
4, ,-26, ,
5, ,-26, ,
6, ,-26, ,
6, ,-26, ,
6, ,-26, ,
7, ,-26, ,
7, ,-26, ,
6, ,-26, ,
