raw_data/75% Glycerol, Impulsion 2Hz, Sonde 5MHz, Rampe 0.7Hz/temp0000206.CSV

Format,1.0B,
Memory Length,10000,Memory Length,10000,
IntpDistance,0,IntpDistance,0,
Trigger Address,159,Trigger Address,159,
Trigger Level,2.720E-01,Trigger Level,2.720E-01,
Source,CH1,Source,CH2,
Vertical Units,V,Vertical Units,V,
Vertical Units Div,0,Vertical Units Div,0,
Vertical Units Extend Div,16,Vertical Units Extend Div,16,
Label,,Label,,
Probe Type,0,Probe Type,0,
Probe Ratio,1.000e+00,Probe Ratio,1.000e+00,
Vertical Scale,5.000e-01,Vertical Scale,2.000e+00,
Vertical Position,0.000e+00,Vertical Position,0.000e+00,
Horizontal Units,S,Horizontal Units,S,
Horizontal Scale,5.000E-06,Horizontal Scale,5.000E-06,
Horizontal Position,2.420E-05,Horizontal Position,2.420E-05,
Horizontal Mode,Main,Horizontal Mode,Main,
SincET Mode,Real Time,SincET Mode,Real Time,
Sampling Period,5.000e-09,Sampling Period,5.000e-09,
Horizontal Old Scale,5.000E-06,Horizontal Old Scale,5.000E-06,
Horizontal Old Position,2.420E-05,Horizontal Old Position,2.420E-05,
Firmware,V1.32,Firmware,V1.32,
Mode,Fast,Mode,Fast,
Waveform Data,,Waveform Data,,
1, ,-1, ,
1, ,-1, ,
0, ,-1, ,
0, ,-1, ,
1, ,-1, ,
1, ,-1, ,
1, ,-1, ,
1, ,-1, ,
1, ,-1, ,
1, ,-1, ,
1, ,-1, ,
1, ,-1, ,
0, ,-1, ,
0, ,-1, ,
0, ,-1, ,
0, ,-1, ,
0, ,-1, ,
0, ,-1, ,
0, ,-1, ,
1, ,-1, ,
1, ,-1, ,
1, ,-1, ,
1, ,-1, ,
1, ,-1, ,
1, ,-1, ,
1, ,-1, ,
0, ,-1, ,
0, ,-1, ,
1, ,-1, ,
1, ,-1, ,
1, ,-1, ,
1, ,-1, ,
1, ,-1, ,
1, ,-1, ,
1, ,-1, ,
1, ,-1, ,
1, ,-1, ,
1, ,-1, ,
0, ,-1, ,
0, ,-1, ,
0, ,-1, ,
0, ,-1, ,
0, ,-1, ,
0, ,-1, ,
1, ,-1, ,
0, ,-1, ,
0, ,-1, ,
0, ,-1, ,
1, ,-1, ,
1, ,-1, ,
0, ,-1, ,
0, ,-1, ,
0, ,-1, ,
0, ,-1, ,
1, ,-1, ,
1, ,-1, ,
0, ,-1, ,
0, ,-1, ,
0, ,-1, ,
0, ,-1, ,
1, ,-1, ,
1, ,-1, ,
1, ,-1, ,
1, ,-1, ,
0, ,-1, ,
0, ,-1, ,
0, ,-1, ,
1, ,-1, ,
1, ,-1, ,
0, ,-1, ,
0, ,-1, ,
0, ,-1, ,
0, ,-1, ,
0, ,-1, ,
1, ,-1, ,
1, ,-1, ,
0, ,-1, ,
0, ,-1, ,
1, ,-1, ,
1, ,-1, ,
0, ,-1, ,
0, ,-1, ,
0, ,-1, ,
1, ,-1, ,
0, ,-1, ,
0, ,-1, ,
1, ,-1, ,
1, ,-1, ,
1, ,-1, ,
1, ,-1, ,
1, ,-1, ,
1, ,-1, ,
1, ,-1, ,
0, ,-1, ,
0, ,-1, ,
0, ,-1, ,
1, ,-1, ,
0, ,-1, ,
0, ,-1, ,
0, ,-1, ,
1, ,-1, ,
1, ,-1, ,
1, ,-1, ,
1, ,-1, ,
1, ,-1, ,
1, ,-1, ,
1, ,-1, ,
1, ,-1, ,
1, ,-1, ,
0, ,-1, ,
0, ,-1, ,
0, ,-1, ,
1, ,-1, ,
1, ,-1, ,
0, ,-1, ,
0, ,-1, ,
0, ,-1, ,
0, ,-1, ,
0, ,-1, ,
0, ,-1, ,
1, ,-1, ,
1, ,-1, ,
1, ,-1, ,
1, ,-1, ,
1, ,-1, ,
0, ,-1, ,
0, ,-1, ,
0, ,-1, ,
1, ,-1, ,
1, ,-1, ,
0, ,-1, ,
1, ,-1, ,
0, ,-1, ,
0, ,-1, ,
1, ,-1, ,
1, ,-1, ,
0, ,-1, ,
0, ,-1, ,
0, ,-1, ,
1, ,-1, ,
0, ,-1, ,
0, ,-1, ,
0, ,-1, ,
0, ,-1, ,
0, ,-1, ,
0, ,-1, ,
0, ,-1, ,
0, ,-1, ,
1, ,-1, ,
1, ,-1, ,
1, ,-1, ,
0, ,-1, ,
0, ,-1, ,
0, ,-1, ,
1, ,-1, ,
1, ,-1, ,
1, ,-1, ,
1, ,-1, ,
1, ,-1, ,
1, ,-1, ,
0, ,-1, ,
0, ,-1, ,
0, ,-1, ,
1, ,-1, ,
1, ,-1, ,
-1, ,-1, ,
0, ,-1, ,
-2, ,-1, ,
18, ,-1, ,
48, ,-1, ,
88, ,-1, ,
125, ,-1, ,
121, ,-1, ,
95, ,-1, ,
35, ,-1, ,
-5, ,-1, ,
58, ,-1, ,
110, ,-1, ,
125, ,-1, ,
125, ,-1, ,
125, ,-1, ,
125, ,-1, ,
125, ,-1, ,
125, ,-1, ,
124, ,-1, ,
121, ,-1, ,
115, ,-1, ,
110, ,-1, ,
103, ,-1, ,
99, ,-1, ,
97, ,-1, ,
93, ,-1, ,
85, ,-1, ,
83, ,-1, ,
79, ,-1, ,
76, ,-1, ,
71, ,-1, ,
68, ,-1, ,
65, ,-1, ,
63, ,-1, ,
58, ,-1, ,
56, ,-1, ,
53, ,-1, ,
51, ,-1, ,
47, ,-1, ,
45, ,-1, ,
43, ,-1, ,
41, ,-1, ,
38, ,-1, ,
36, ,-1, ,
35, ,-1, ,
33, ,-1, ,
30, ,-1, ,
28, ,-1, ,
27, ,-1, ,
26, ,-1, ,
24, ,-1, ,
23, ,-1, ,
22, ,-1, ,
21, ,-1, ,
19, ,-1, ,
18, ,-1, ,
18, ,-1, ,
17, ,-1, ,
15, ,-1, ,
15, ,-1, ,
13, ,-1, ,
13, ,-1, ,
12, ,-1, ,
10, ,-1, ,
10, ,-1, ,
9, ,-1, ,
8, ,-1, ,
8, ,-1, ,
7, ,-1, ,
7, ,-1, ,
6, ,-1, ,
5, ,-1, ,
5, ,-1, ,
5, ,-1, ,
4, ,-1, ,
4, ,-1, ,
4, ,-1, ,
4, ,-1, ,
3, ,-1, ,
3, ,-1, ,
3, ,-1, ,
2, ,-1, ,
2, ,-1, ,
2, ,-1, ,
1, ,-1, ,
1, ,-1, ,
1, ,-1, ,
1, ,-1, ,
0, ,-1, ,
0, ,-1, ,
0, ,-1, ,
0, ,-1, ,
0, ,-1, ,
0, ,-1, ,
0, ,-1, ,
-1, ,-1, ,
-1, ,-1, ,
-1, ,-1, ,
-1, ,-1, ,
0, ,-1, ,
-1, ,-1, ,
-1, ,-1, ,
-1, ,-1, ,
-1, ,-1, ,
-1, ,-1, ,
-1, ,-1, ,
-1, ,-1, ,
-1, ,-1, ,
-1, ,-1, ,
-1, ,-1, ,
-1, ,-1, ,
-1, ,-1, ,
-1, ,-1, ,
-1, ,-1, ,
-2, ,-1, ,
-2, ,-1, ,
-2, ,-1, ,
-1, ,-1, ,
-1, ,-1, ,
-2, ,-1, ,
-2, ,-1, ,
-2, ,-1, ,
-1, ,-1, ,
-1, ,-1, ,
-1, ,-1, ,
-1, ,-1, ,
-1, ,-1, ,
-1, ,-1, ,
-1, ,-1, ,
-1, ,-1, ,
-1, ,-1, ,
-1, ,-1, ,
-1, ,-1, ,
-1, ,-1, ,
-1, ,-1, ,
-1, ,-1, ,
-1, ,-1, ,
-1, ,-1, ,
-1, ,-1, ,
-1, ,-1, ,
-1, ,-1, ,
-1, ,-1, ,
-1, ,-1, ,
-1, ,-1, ,
-1, ,-1, ,
-1, ,-1, ,
-1, ,-1, ,
-1, ,-1, ,
-1, ,-1, ,
-1, ,-1, ,
-1, ,-1, ,
0, ,-1, ,
0, ,-1, ,
-1, ,-1, ,
-1, ,-1, ,
-1, ,-1, ,
-1, ,-1, ,
-1, ,-1, ,
-1, ,-1, ,
-1, ,-1, ,
-1, ,-1, ,
0, ,-1, ,
-1, ,-1, ,
-1, ,-1, ,
-1, ,-1, ,
0, ,-1, ,
0, ,-1, ,
-1, ,-1, ,
-1, ,-1, ,
-1, ,-1, ,
0, ,-1, ,
0, ,-1, ,
0, ,-1, ,
0, ,-1, ,
0, ,-1, ,
0, ,-1, ,
0, ,-1, ,
0, ,-1, ,
0, ,-1, ,
0, ,-1, ,
0, ,-1, ,
0, ,-1, ,
0, ,-1, ,
0, ,-1, ,
0, ,-1, ,
0, ,-1, ,
0, ,-1, ,
0, ,-1, ,
0, ,-1, ,
0, ,-1, ,
0, ,-1, ,
0, ,-1, ,
0, ,-1, ,
0, ,-1, ,
0, ,-1, ,
0, ,-1, ,
0, ,-1, ,
0, ,-1, ,
0, ,-1, ,
0, ,-1, ,
0, ,-1, ,
0, ,-1, ,
0, ,-1, ,
0, ,-1, ,
0, ,-1, ,
0, ,-1, ,
0, ,-1, ,
0, ,-1, ,
0, ,-1, ,
0, ,-1, ,
0, ,-1, ,
0, ,-1, ,
0, ,-1, ,
0, ,-1, ,
0, ,-1, ,
0, ,-1, ,
0, ,-1, ,
0, ,-1, ,
0, ,-1, ,
0, ,-1, ,
0, ,-1, ,
0, ,-1, ,
0, ,-1, ,
0, ,-1, ,
0, ,-1, ,
0, ,-1, ,
0, ,-1, ,
0, ,-1, ,
1, ,-1, ,
1, ,-1, ,
0, ,-1, ,
0, ,-1, ,
0, ,-1, ,
0, ,-1, ,
0, ,-1, ,
0, ,-1, ,
0, ,-1, ,
0, ,-1, ,
0, ,-1, ,
0, ,-1, ,
0, ,-1, ,
0, ,-1, ,
0, ,-1, ,
0, ,-1, ,
0, ,-1, ,
0, ,-1, ,
0, ,-1, ,
0, ,-1, ,
0, ,-1, ,
0, ,-1, ,
0, ,-1, ,
0, ,-1, ,
0, ,-1, ,
0, ,-1, ,
1, ,-1, ,
1, ,-1, ,
1, ,-1, ,
0, ,-1, ,
0, ,-1, ,
0, ,-1, ,
0, ,-1, ,
0, ,-1, ,
0, ,-1, ,
0, ,-1, ,
0, ,-1, ,
0, ,-1, ,
0, ,-1, ,
0, ,-1, ,
0, ,-1, ,
0, ,-1, ,
-1, ,-1, ,
-1, ,-1, ,
-2, ,-1, ,
-2, ,-1, ,
-5, ,-1, ,
-6, ,-1, ,
-8, ,-1, ,
-10, ,-1, ,
-15, ,-1, ,
-16, ,-1, ,
-15, ,-1, ,
-15, ,-1, ,
-10, ,-1, ,
-7, ,-1, ,
-6, ,-1, ,
-3, ,-1, ,
-1, ,-1, ,
0, ,-1, ,
1, ,-1, ,
1, ,-1, ,
2, ,-1, ,
3, ,-1, ,
3, ,-1, ,
3, ,-1, ,
2, ,-1, ,
1, ,-1, ,
1, ,-1, ,
0, ,-1, ,
-1, ,-1, ,
-1, ,-1, ,
-1, ,-1, ,
0, ,-1, ,
1, ,-1, ,
1, ,-1, ,
1, ,-1, ,
2, ,-1, ,
3, ,-1, ,
3, ,-1, ,
4, ,-1, ,
4, ,-1, ,
4, ,-1, ,
4, ,-1, ,
4, ,-1, ,
4, ,-1, ,
3, ,-1, ,
3, ,-1, ,
3, ,-1, ,
3, ,-1, ,
2, ,-1, ,
2, ,-1, ,
2, ,-1, ,
2, ,-1, ,
2, ,-1, ,
2, ,-1, ,
2, ,-1, ,
2, ,-1, ,
2, ,-1, ,
2, ,-1, ,
2, ,-1, ,
2, ,-1, ,
2, ,-1, ,
2, ,-1, ,
1, ,-1, ,
1, ,-1, ,
0, ,-1, ,
0, ,-1, ,
0, ,-1, ,
0, ,-1, ,
0, ,-1, ,
0, ,-1, ,
0, ,-1, ,
0, ,-1, ,
1, ,-1, ,
1, ,-1, ,
1, ,-1, ,
1, ,-1, ,
1, ,-1, ,
2, ,-1, ,
2, ,-1, ,
2, ,-1, ,
2, ,-1, ,
1, ,-1, ,
1, ,-1, ,
1, ,-1, ,
0, ,-1, ,
0, ,-1, ,
-1, ,-1, ,
-2, ,-1, ,
-5, ,-2, ,
-7, ,-2, ,
-8, ,-1, ,
-10, ,-1, ,
-13, ,-1, ,
-14, ,-1, ,
-14, ,-1, ,
-14, ,-1, ,
-13, ,-1, ,
-13, ,-1, ,
-12, ,-1, ,
-11, ,-1, ,
-10, ,-1, ,
-9, ,-1, ,
-9, ,-1, ,
-9, ,-1, ,
-11, ,-1, ,
-12, ,-1, ,
-13, ,-1, ,
-15, ,-1, ,
-20, ,-1, ,
-21, ,-1, ,
-24, ,-1, ,
-25, ,-1, ,
-26, ,-1, ,
-28, ,-1, ,
-28, ,-1, ,
-28, ,-1, ,
-28, ,-1, ,
-28, ,-1, ,
-29, ,-1, ,
-29, ,-1, ,
-32, ,-1, ,
-33, ,-1, ,
-34, ,-1, ,
-36, ,-1, ,
-40, ,-1, ,
-41, ,-1, ,
-42, ,-1, ,
-42, ,-1, ,
-40, ,-1, ,
-40, ,-1, ,
-37, ,-1, ,
-34, ,-1, ,
-27, ,-1, ,
-23, ,-1, ,
-20, ,-1, ,
-15, ,-1, ,
-8, ,-1, ,
-4, ,-1, ,
-1, ,-1, ,
1, ,-1, ,
4, ,-1, ,
6, ,-1, ,
6, ,-1, ,
7, ,-1, ,
8, ,-1, ,
8, ,-1, ,
8, ,-1, ,
7, ,-1, ,
7, ,-1, ,
8, ,-1, ,
8, ,-1, ,
8, ,-1, ,
8, ,-1, ,
7, ,-1, ,
7, ,-1, ,
7, ,-1, ,
6, ,-1, ,
5, ,-1, ,
5, ,-1, ,
4, ,-1, ,
1, ,-1, ,
0, ,-1, ,
-2, ,-1, ,
-4, ,-1, ,
-6, ,-1, ,
-7, ,-1, ,
-8, ,-1, ,
-8, ,-1, ,
-8, ,-1, ,
-7, ,-1, ,
-6, ,-1, ,
-5, ,-1, ,
-2, ,-1, ,
1, ,-1, ,
3, ,-1, ,
5, ,-1, ,
10, ,-1, ,
11, ,-1, ,
13, ,-1, ,
15, ,-1, ,
18, ,-1, ,
19, ,-1, ,
20, ,-1, ,
21, ,-1, ,
21, ,-1, ,
20, ,-1, ,
20, ,-1, ,
19, ,-1, ,
17, ,-1, ,
16, ,-1, ,
14, ,-1, ,
12, ,-1, ,
9, ,-1, ,
7, ,-1, ,
4, ,-1, ,
2, ,-1, ,
-2, ,-1, ,
-4, ,-1, ,
-7, ,-1, ,
-9, ,-1, ,
-13, ,-1, ,
-15, ,-1, ,
-17, ,-1, ,
-19, ,-1, ,
-23, ,-1, ,
-24, ,-1, ,
-25, ,-1, ,
-26, ,-1, ,
-27, ,-1, ,
-28, ,-1, ,
-27, ,-1, ,
-28, ,-1, ,
-26, ,-1, ,
-25, ,-1, ,
-24, ,-1, ,
-23, ,-1, ,
-21, ,-1, ,
-20, ,-1, ,
-19, ,-1, ,
-18, ,-1, ,
-18, ,-1, ,
-17, ,-1, ,
-17, ,-1, ,
-17, ,-1, ,
-17, ,-1, ,
-17, ,-1, ,
-17, ,-1, ,
-17, ,-1, ,
-17, ,-1, ,
-17, ,-1, ,
-17, ,-1, ,
-17, ,-1, ,
-16, ,-1, ,
-15, ,-1, ,
-14, ,-1, ,
-14, ,-1, ,
-11, ,-1, ,
-9, ,-1, ,
-8, ,-1, ,
-6, ,-1, ,
-2, ,-1, ,
0, ,-1, ,
2, ,-1, ,
3, ,-1, ,
6, ,-1, ,
7, ,-1, ,
8, ,-1, ,
8, ,-1, ,
8, ,-1, ,
7, ,-1, ,
7, ,-1, ,
5, ,-1, ,
4, ,-1, ,
4, ,-1, ,
3, ,-1, ,
3, ,-1, ,
3, ,-1, ,
2, ,-1, ,
2, ,-1, ,
2, ,-1, ,
2, ,-1, ,
1, ,-1, ,
1, ,-1, ,
0, ,-1, ,
-1, ,-1, ,
-1, ,-1, ,
-2, ,-1, ,
-4, ,-1, ,
-6, ,-1, ,
-7, ,-1, ,
-9, ,-1, ,
-11, ,-1, ,
-15, ,-1, ,
-18, ,-1, ,
-19, ,-1, ,
-21, ,-1, ,
-25, ,-1, ,
-25, ,-1, ,
-27, ,-1, ,
-27, ,-1, ,
-27, ,-1, ,
-27, ,-1, ,
-25, ,-1, ,
-25, ,-1, ,
-22, ,-1, ,
-18, ,-1, ,
-16, ,-1, ,
-14, ,-1, ,
-7, ,-1, ,
-4, ,-1, ,
-1, ,-1, ,
2, ,-1, ,
7, ,-1, ,
10, ,-1, ,
12, ,-1, ,
14, ,-1, ,
16, ,-1, ,
17, ,-1, ,
18, ,-1, ,
18, ,-1, ,
17, ,-1, ,
17, ,-1, ,
16, ,-1, ,
15, ,-1, ,
14, ,-1, ,
13, ,-1, ,
12, ,-1, ,
10, ,-1, ,
9, ,-1, ,
8, ,-1, ,
7, ,-1, ,
7, ,-1, ,
6, ,-1, ,
6, ,-1, ,
7, ,-1, ,
7, ,-1, ,
7, ,-1, ,
7, ,-1, ,
7, ,-1, ,
7, ,-1, ,
6, ,-1, ,
5, ,-1, ,
5, ,-1, ,
3, ,-1, ,
1, ,-1, ,
0, ,-1, ,
-1, ,-1, ,
-2, ,-1, ,
-6, ,-1, ,
-8, ,-1, ,
-9, ,-1, ,
-11, ,-1, ,
-13, ,-1, ,
-14, ,-1, ,
-15, ,-1, ,
-15, ,-1, ,
-16, ,-1, ,
-17, ,-1, ,
-17, ,-1, ,
-17, ,-1, ,
-17, ,-1, ,
-17, ,-1, ,
-18, ,-1, ,
-18, ,-1, ,
-19, ,-1, ,
-19, ,-1, ,
-19, ,-1, ,
-20, ,-1, ,
-21, ,-1, ,
-22, ,-1, ,
-23, ,-1, ,
-24, ,-1, ,
-25, ,-1, ,
-26, ,-1, ,
-27, ,-1, ,
-28, ,-1, ,
-29, ,-1, ,
-29, ,-1, ,
-30, ,-1, ,
-30, ,-1, ,
-29, ,-1, ,
-28, ,-1, ,
-28, ,-1, ,
-27, ,-1, ,
-25, ,-1, ,
-24, ,-1, ,
-23, ,-1, ,
-22, ,-1, ,
-18, ,-1, ,
-16, ,-1, ,
-13, ,-1, ,
-11, ,-1, ,
-7, ,-1, ,
-5, ,-1, ,
-3, ,-1, ,
-1, ,-1, ,
2, ,-1, ,
3, ,-1, ,
5, ,-1, ,
5, ,-1, ,
7, ,-1, ,
7, ,-1, ,
6, ,-1, ,
6, ,-1, ,
6, ,-1, ,
5, ,-1, ,
4, ,-1, ,
4, ,-1, ,
2, ,-1, ,
2, ,-1, ,
2, ,-1, ,
2, ,-1, ,
2, ,-1, ,
2, ,-1, ,
2, ,-1, ,
2, ,-1, ,
2, ,-1, ,
2, ,-1, ,
2, ,-1, ,
2, ,-1, ,
3, ,-1, ,
3, ,-1, ,
3, ,-1, ,
4, ,-1, ,
5, ,-1, ,
6, ,-1, ,
6, ,-1, ,
8, ,-1, ,
9, ,-1, ,
9, ,-1, ,
10, ,-1, ,
10, ,-1, ,
11, ,-1, ,
11, ,-1, ,
10, ,-1, ,
10, ,-1, ,
9, ,-1, ,
8, ,-1, ,
8, ,-1, ,
6, ,-1, ,
4, ,-1, ,
3, ,-1, ,
2, ,-1, ,
2, ,-1, ,
-1, ,-1, ,
-2, ,-1, ,
-3, ,-1, ,
-3, ,-1, ,
-3, ,-1, ,
-3, ,-1, ,
-3, ,-1, ,
-2, ,-1, ,
0, ,-1, ,
0, ,-1, ,
1, ,-1, ,
2, ,-1, ,
4, ,-1, ,
6, ,-1, ,
7, ,-1, ,
8, ,-1, ,
8, ,-1, ,
8, ,-1, ,
8, ,-1, ,
7, ,-1, ,
5, ,-1, ,
5, ,-1, ,
3, ,-1, ,
1, ,-1, ,
-3, ,-1, ,
-6, ,-1, ,
-9, ,-1, ,
-12, ,-1, ,
-17, ,-1, ,
-20, ,-1, ,
-21, ,-1, ,
-23, ,-1, ,
-26, ,-1, ,
-27, ,-1, ,
-28, ,-1, ,
-28, ,-1, ,
-27, ,-1, ,
-27, ,-1, ,
-27, ,-1, ,
-26, ,-1, ,
-25, ,-1, ,
-25, ,-1, ,
-24, ,-1, ,
-24, ,-1, ,
-22, ,-1, ,
-22, ,-1, ,
-21, ,-1, ,
-21, ,-1, ,
-21, ,-1, ,
-20, ,-1, ,
-20, ,-1, ,
-20, ,-1, ,
-20, ,-1, ,
-19, ,-1, ,
-19, ,-1, ,
-19, ,-1, ,
-17, ,-1, ,
-17, ,-1, ,
-17, ,-1, ,
-16, ,-1, ,
-14, ,-1, ,
-13, ,-1, ,
-12, ,-1, ,
-10, ,-1, ,
-8, ,-1, ,
-7, ,-1, ,
-5, ,-1, ,
-4, ,-1, ,
-1, ,-1, ,
1, ,-1, ,
2, ,-1, ,
4, ,-1, ,
7, ,-1, ,
8, ,-1, ,
10, ,-1, ,
11, ,-1, ,
13, ,-1, ,
14, ,-1, ,
15, ,-1, ,
16, ,-1, ,
16, ,-1, ,
16, ,-1, ,
16, ,-1, ,
15, ,-1, ,
14, ,-1, ,
13, ,-1, ,
12, ,-1, ,
11, ,-1, ,
8, ,-1, ,
7, ,-1, ,
6, ,-1, ,
4, ,-1, ,
1, ,-1, ,
0, ,-1, ,
-2, ,-1, ,
-3, ,-1, ,
-6, ,-1, ,
-7, ,-1, ,
-8, ,-1, ,
-9, ,-1, ,
-10, ,-1, ,
-10, ,-1, ,
-10, ,-1, ,
-10, ,-1, ,
-10, ,-1, ,
-10, ,-1, ,
-9, ,-1, ,
-9, ,-1, ,
-8, ,-1, ,
-7, ,-1, ,
-7, ,-1, ,
-6, ,-1, ,
-6, ,-1, ,
-5, ,-1, ,
-5, ,-1, ,
-5, ,-1, ,
-6, ,-1, ,
-6, ,-1, ,
-7, ,-1, ,
-7, ,-1, ,
-9, ,-1, ,
-10, ,-1, ,
-10, ,-1, ,
-11, ,-1, ,
-12, ,-1, ,
-12, ,-1, ,
-13, ,-1, ,
-13, ,-1, ,
-13, ,-1, ,
-13, ,-1, ,
-11, ,-1, ,
-11, ,-1, ,
-9, ,-1, ,
-7, ,-1, ,
-6, ,-1, ,
-4, ,-1, ,
0, ,-1, ,
2, ,-1, ,
4, ,-1, ,
6, ,-1, ,
10, ,-1, ,
13, ,-1, ,
14, ,-1, ,
16, ,-1, ,
17, ,-1, ,
18, ,-1, ,
18, ,-1, ,
17, ,-1, ,
15, ,-1, ,
15, ,-1, ,
14, ,-1, ,
13, ,-1, ,
10, ,-1, ,
8, ,-1, ,
7, ,-1, ,
5, ,-1, ,
2, ,-1, ,
1, ,-1, ,
0, ,-1, ,
-1, ,-1, ,
-3, ,-1, ,
-4, ,-1, ,
-4, ,-1, ,
-5, ,-1, ,
-5, ,-1, ,
-5, ,-1, ,
-6, ,-1, ,
-6, ,-1, ,
-7, ,-1, ,
-7, ,-1, ,
-8, ,-1, ,
-8, ,-1, ,
-9, ,-1, ,
-9, ,-1, ,
-9, ,-1, ,
-9, ,-1, ,
-10, ,-1, ,
-10, ,-1, ,
-10, ,-1, ,
-10, ,-1, ,
-10, ,-1, ,
-10, ,-1, ,
-10, ,-1, ,
-10, ,-1, ,
-10, ,-1, ,
-10, ,-1, ,
-9, ,-1, ,
-10, ,-1, ,
-9, ,-1, ,
-8, ,-1, ,
-8, ,-1, ,
-7, ,-1, ,
-6, ,-1, ,
-5, ,-1, ,
-4, ,-1, ,
-4, ,-1, ,
-1, ,-1, ,
0, ,-1, ,
1, ,-1, ,
3, ,-1, ,
6, ,-1, ,
6, ,-1, ,
7, ,-1, ,
8, ,-1, ,
10, ,-1, ,
11, ,-1, ,
11, ,-1, ,
11, ,-1, ,
10, ,-1, ,
9, ,-1, ,
8, ,-1, ,
6, ,-1, ,
4, ,-1, ,
3, ,-1, ,
1, ,-1, ,
0, ,-1, ,
-2, ,-1, ,
-4, ,-1, ,
-4, ,-1, ,
-4, ,-1, ,
-4, ,-1, ,
-4, ,-1, ,
-4, ,-1, ,
-3, ,-1, ,
-2, ,-1, ,
-2, ,-1, ,
-1, ,-1, ,
0, ,-1, ,
0, ,-1, ,
0, ,-1, ,
0, ,-1, ,
1, ,-1, ,
0, ,-1, ,
-1, ,-1, ,
-1, ,-1, ,
-2, ,-1, ,
-2, ,-1, ,
-3, ,-1, ,
-3, ,-1, ,
-3, ,-1, ,
-2, ,-1, ,
-3, ,-1, ,
-3, ,-1, ,
-3, ,-1, ,
-3, ,-1, ,
-3, ,-1, ,
-3, ,-1, ,
-3, ,-1, ,
-3, ,-1, ,
-5, ,-1, ,
-5, ,-1, ,
-6, ,-1, ,
-8, ,-1, ,
-8, ,-1, ,
-9, ,-1, ,
-10, ,-1, ,
-11, ,-1, ,
-12, ,-1, ,
-12, ,-1, ,
-12, ,-1, ,
-12, ,-1, ,
-11, ,-1, ,
-10, ,-1, ,
-9, ,-1, ,
-7, ,-1, ,
-6, ,-1, ,
-4, ,-1, ,
-2, ,-1, ,
2, ,-1, ,
4, ,-1, ,
6, ,-1, ,
7, ,-1, ,
10, ,-1, ,
11, ,-1, ,
12, ,-1, ,
12, ,-1, ,
12, ,-1, ,
12, ,-1, ,
11, ,-1, ,
11, ,-1, ,
9, ,-1, ,
7, ,-1, ,
7, ,-1, ,
5, ,-1, ,
3, ,-1, ,
2, ,-1, ,
1, ,-1, ,
1, ,-1, ,
-1, ,-1, ,
-1, ,-1, ,
-1, ,-1, ,
-2, ,-1, ,
-2, ,-1, ,
-1, ,-1, ,
-2, ,-1, ,
-2, ,-1, ,
-2, ,-1, ,
-2, ,-1, ,
-1, ,-1, ,
-2, ,-1, ,
-2, ,-1, ,
-1, ,-1, ,
-2, ,-1, ,
-2, ,-1, ,
-1, ,-1, ,
-1, ,-1, ,
-1, ,-1, ,
-1, ,-1, ,
0, ,-1, ,
0, ,-1, ,
0, ,-1, ,
0, ,-1, ,
0, ,-1, ,
-1, ,-1, ,
-1, ,-1, ,
-1, ,-1, ,
-1, ,-1, ,
-1, ,-1, ,
-2, ,-1, ,
-2, ,-1, ,
-4, ,-1, ,
-5, ,-1, ,
-6, ,-1, ,
-7, ,-1, ,
-9, ,-1, ,
-9, ,-1, ,
-10, ,-1, ,
-10, ,-1, ,
-11, ,-1, ,
-11, ,-1, ,
-10, ,-1, ,
-10, ,-1, ,
-10, ,-1, ,
-9, ,-1, ,
-8, ,-1, ,
-6, ,-1, ,
-5, ,-1, ,
-3, ,-1, ,
-1, ,-1, ,
-1, ,-1, ,
0, ,-1, ,
2, ,-1, ,
3, ,-1, ,
3, ,-1, ,
3, ,-1, ,
2, ,-1, ,
2, ,-1, ,
1, ,-1, ,
-1, ,-1, ,
-2, ,-1, ,
-3, ,-1, ,
-4, ,-1, ,
-6, ,-1, ,
-7, ,-1, ,
-8, ,-1, ,
-9, ,-1, ,
-9, ,-1, ,
-9, ,-1, ,
-9, ,-1, ,
-9, ,-1, ,
-7, ,-1, ,
-7, ,-1, ,
-6, ,-1, ,
-5, ,-1, ,
-3, ,-1, ,
-1, ,-1, ,
0, ,-1, ,
1, ,-1, ,
2, ,-1, ,
3, ,-1, ,
4, ,-1, ,
3, ,-1, ,
3, ,-1, ,
3, ,-1, ,
3, ,-1, ,
3, ,-1, ,
2, ,-1, ,
1, ,-1, ,
1, ,-1, ,
0, ,-1, ,
0, ,-1, ,
0, ,-1, ,
0, ,-1, ,
0, ,-1, ,
1, ,-1, ,
2, ,-1, ,
2, ,-1, ,
2, ,-1, ,
3, ,-1, ,
4, ,-1, ,
4, ,-1, ,
4, ,-1, ,
3, ,-1, ,
2, ,-1, ,
2, ,-1, ,
1, ,-1, ,
-1, ,-1, ,
-1, ,-1, ,
-2, ,-1, ,
-3, ,-1, ,
-4, ,-1, ,
-5, ,-1, ,
-5, ,-1, ,
-5, ,-1, ,
-5, ,-1, ,
-5, ,-1, ,
-5, ,-1, ,
-5, ,-1, ,
-4, ,-1, ,
-5, ,-1, ,
-5, ,-1, ,
-5, ,-1, ,
-6, ,-1, ,
-6, ,-1, ,
-7, ,-1, ,
-7, ,-1, ,
-9, ,-1, ,
-10, ,-1, ,
-10, ,-1, ,
-12, ,-1, ,
-12, ,-1, ,
-12, ,-1, ,
-13, ,-1, ,
-13, ,-1, ,
-12, ,-1, ,
-12, ,-1, ,
-11, ,-1, ,
-12, ,-1, ,
-11, ,-1, ,
-9, ,-1, ,
-9, ,-1, ,
-7, ,-1, ,
-6, ,-1, ,
-5, ,-1, ,
-4, ,-1, ,
-3, ,-1, ,
-1, ,-1, ,
0, ,-1, ,
1, ,-1, ,
2, ,-1, ,
4, ,-1, ,
5, ,-1, ,
6, ,-1, ,
6, ,-1, ,
7, ,-1, ,
8, ,-1, ,
9, ,-1, ,
9, ,-1, ,
8, ,-1, ,
7, ,-1, ,
7, ,-1, ,
6, ,-1, ,
5, ,-1, ,
5, ,-1, ,
4, ,-1, ,
3, ,-1, ,
2, ,-1, ,
2, ,-1, ,
2, ,-1, ,
2, ,-1, ,
2, ,-1, ,
4, ,-1, ,
4, ,-1, ,
5, ,-1, ,
7, ,-1, ,
7, ,-1, ,
9, ,-1, ,
9, ,-1, ,
11, ,-1, ,
12, ,-1, ,
12, ,-1, ,
12, ,-1, ,
11, ,-1, ,
11, ,-1, ,
10, ,-1, ,
9, ,-1, ,
7, ,-1, ,
6, ,-1, ,
5, ,-1, ,
4, ,-1, ,
1, ,-1, ,
0, ,-1, ,
-1, ,-1, ,
-3, ,-1, ,
-5, ,-1, ,
-6, ,-1, ,
-8, ,-1, ,
-9, ,-1, ,
-10, ,-1, ,
-12, ,-1, ,
-12, ,-1, ,
-13, ,-1, ,
-14, ,-1, ,
-14, ,-1, ,
-14, ,-1, ,
-13, ,-1, ,
-12, ,-1, ,
-12, ,-1, ,
-10, ,-1, ,
-10, ,-1, ,
-7, ,-1, ,
-6, ,-1, ,
-5, ,-1, ,
-4, ,-1, ,
-1, ,-1, ,
-1, ,-1, ,
1, ,-1, ,
1, ,-1, ,
2, ,-1, ,
4, ,-1, ,
4, ,-1, ,
4, ,-1, ,
4, ,-1, ,
3, ,-1, ,
3, ,-1, ,
3, ,-1, ,
2, ,-1, ,
2, ,-1, ,
1, ,-1, ,
1, ,-1, ,
0, ,-1, ,
0, ,-1, ,
0, ,-1, ,
0, ,-1, ,
-1, ,-1, ,
-1, ,-1, ,
-1, ,-1, ,
-1, ,-1, ,
-1, ,-1, ,
-1, ,-1, ,
0, ,-1, ,
0, ,-1, ,
0, ,-1, ,
1, ,-1, ,
2, ,-1, ,
2, ,-1, ,
3, ,-1, ,
3, ,-1, ,
3, ,-1, ,
4, ,-1, ,
4, ,-1, ,
5, ,-1, ,
5, ,-1, ,
5, ,-1, ,
6, ,-1, ,
5, ,-1, ,
6, ,-1, ,
6, ,-1, ,
6, ,-1, ,
6, ,-1, ,
6, ,-1, ,
6, ,-1, ,
5, ,-1, ,
4, ,-1, ,
4, ,-1, ,
3, ,-1, ,
0, ,-1, ,
0, ,-1, ,
-1, ,-1, ,
-2, ,-1, ,
-4, ,-1, ,
-6, ,-1, ,
-6, ,-1, ,
-7, ,-1, ,
-8, ,-1, ,
-8, ,-1, ,
-8, ,-1, ,
-8, ,-1, ,
-7, ,-1, ,
-7, ,-1, ,
-6, ,-1, ,
-5, ,-1, ,
-4, ,-1, ,
-3, ,-1, ,
-3, ,-1, ,
-1, ,-1, ,
-1, ,-1, ,
0, ,-1, ,
0, ,-1, ,
0, ,-1, ,
0, ,-1, ,
0, ,-1, ,
0, ,-1, ,
0, ,-1, ,
-1, ,-1, ,
-2, ,-1, ,
-2, ,-1, ,
-3, ,-1, ,
-3, ,-1, ,
-3, ,-1, ,
-4, ,-1, ,
-4, ,-1, ,
-4, ,-1, ,
-5, ,-1, ,
-5, ,-1, ,
-5, ,-1, ,
-5, ,-1, ,
-5, ,-1, ,
-5, ,-1, ,
-5, ,-1, ,
-4, ,-1, ,
-4, ,-1, ,
-4, ,-1, ,
-3, ,-1, ,
-2, ,-1, ,
-1, ,-1, ,
0, ,-1, ,
1, ,-1, ,
3, ,-1, ,
4, ,-1, ,
5, ,-1, ,
6, ,-1, ,
8, ,-1, ,
10, ,-1, ,
9, ,-1, ,
11, ,-1, ,
11, ,-1, ,
11, ,-1, ,
12, ,-1, ,
11, ,-1, ,
10, ,-1, ,
10, ,-1, ,
9, ,-1, ,
8, ,-1, ,
6, ,-1, ,
4, ,-1, ,
3, ,-1, ,
1, ,-1, ,
-2, ,-1, ,
-2, ,-1, ,
-4, ,-1, ,
-5, ,-1, ,
-7, ,-1, ,
-7, ,-1, ,
-7, ,-1, ,
-7, ,-1, ,
-7, ,-1, ,
-5, ,-1, ,
-5, ,-1, ,
-4, ,-1, ,
-3, ,-1, ,
-2, ,-1, ,
0, ,-1, ,
-1, ,-1, ,
1, ,-1, ,
2, ,-1, ,
2, ,-1, ,
3, ,-1, ,
2, ,-1, ,
1, ,-1, ,
1, ,-1, ,
0, ,-1, ,
-1, ,-1, ,
-2, ,-1, ,
-3, ,-1, ,
-3, ,-1, ,
-5, ,-1, ,
-6, ,-1, ,
-6, ,-1, ,
-7, ,-1, ,
-7, ,-1, ,
-6, ,-1, ,
-7, ,-1, ,
-7, ,-1, ,
-6, ,-1, ,
-6, ,-1, ,
-4, ,-1, ,
-4, ,-1, ,
-3, ,-1, ,
-1, ,-1, ,
-1, ,-1, ,
1, ,-1, ,
2, ,-1, ,
3, ,-1, ,
4, ,-1, ,
4, ,-1, ,
6, ,-1, ,
7, ,-1, ,
6, ,-1, ,
8, ,-1, ,
9, ,-1, ,
9, ,-1, ,
9, ,-1, ,
9, ,-1, ,
9, ,-1, ,
9, ,-1, ,
8, ,-1, ,
8, ,-1, ,
7, ,-1, ,
6, ,-1, ,
6, ,-1, ,
5, ,-1, ,
3, ,-1, ,
3, ,-1, ,
2, ,-1, ,
2, ,-1, ,
1, ,-1, ,
0, ,-1, ,
0, ,-1, ,
0, ,-1, ,
0, ,-1, ,
0, ,-1, ,
0, ,-1, ,
1, ,-1, ,
1, ,-1, ,
1, ,-1, ,
1, ,-1, ,
1, ,-1, ,
1, ,-1, ,
1, ,-1, ,
0, ,-1, ,
0, ,-1, ,
-1, ,-1, ,
-2, ,-1, ,
-3, ,-1, ,
-3, ,-1, ,
-4, ,-1, ,
-5, ,-1, ,
-5, ,-1, ,
-5, ,-1, ,
-5, ,-1, ,
-6, ,-1, ,
-6, ,-1, ,
-6, ,-1, ,
-5, ,-1, ,
-5, ,-1, ,
-4, ,-1, ,
-4, ,-1, ,
-3, ,-1, ,
-3, ,-1, ,
-2, ,-1, ,
-2, ,-1, ,
-1, ,-1, ,
-1, ,-1, ,
-1, ,-1, ,
0, ,-1, ,
0, ,-1, ,
0, ,-1, ,
1, ,-1, ,
1, ,-1, ,
1, ,-1, ,
1, ,-1, ,
1, ,-1, ,
1, ,-1, ,
1, ,-1, ,
1, ,-1, ,
1, ,-1, ,
1, ,-1, ,
1, ,-1, ,
1, ,-1, ,
0, ,-1, ,
0, ,-1, ,
0, ,-1, ,
0, ,-1, ,
0, ,-1, ,
0, ,-1, ,
0, ,-1, ,
0, ,-1, ,
0, ,-1, ,
0, ,-1, ,
1, ,-1, ,
1, ,-1, ,
1, ,-1, ,
1, ,-1, ,
1, ,-1, ,
1, ,-1, ,
1, ,-1, ,
0, ,-1, ,
0, ,-1, ,
-1, ,-1, ,
-1, ,-1, ,
-1, ,-1, ,
-2, ,-1, ,
-2, ,-1, ,
-2, ,-1, ,
-1, ,-1, ,
-2, ,-1, ,
-2, ,-1, ,
-1, ,-1, ,
-1, ,-1, ,
0, ,-1, ,
1, ,-1, ,
2, ,-1, ,
2, ,-1, ,
4, ,-1, ,
4, ,-1, ,
5, ,-1, ,
5, ,-1, ,
6, ,-1, ,
6, ,-1, ,
6, ,-1, ,
6, ,-1, ,
5, ,-1, ,
4, ,-1, ,
4, ,-1, ,
2, ,-1, ,
1, ,-1, ,
0, ,-1, ,
-2, ,-1, ,
-3, ,-1, ,
-6, ,-1, ,
-6, ,-1, ,
-8, ,-1, ,
-9, ,-1, ,
-11, ,-1, ,
-11, ,-1, ,
-11, ,-1, ,
-11, ,-1, ,
-10, ,-1, ,
-10, ,-1, ,
-9, ,-1, ,
-7, ,-1, ,
-5, ,-1, ,
-3, ,-1, ,
-2, ,-1, ,
0, ,-1, ,
3, ,-1, ,
5, ,-1, ,
7, ,-1, ,
8, ,-1, ,
9, ,-1, ,
10, ,-1, ,
9, ,-1, ,
9, ,-1, ,
9, ,-1, ,
8, ,-1, ,
6, ,-1, ,
6, ,-1, ,
3, ,-1, ,
2, ,-1, ,
1, ,-1, ,
0, ,-1, ,
-3, ,-1, ,
-4, ,-1, ,
-4, ,-1, ,
-5, ,-1, ,
-6, ,-1, ,
-6, ,-1, ,
-6, ,-1, ,
-5, ,-1, ,
-5, ,-1, ,
-5, ,-1, ,
-4, ,-1, ,
-3, ,-1, ,
-3, ,-1, ,
-1, ,-1, ,
-1, ,-1, ,
0, ,-1, ,
0, ,-1, ,
1, ,-1, ,
2, ,-1, ,
2, ,-1, ,
3, ,-1, ,
3, ,-1, ,
3, ,-1, ,
3, ,-1, ,
3, ,-1, ,
3, ,-1, ,
4, ,-1, ,
3, ,-1, ,
3, ,-1, ,
3, ,-1, ,
3, ,-1, ,
2, ,-1, ,
2, ,-1, ,
2, ,-1, ,
2, ,-1, ,
2, ,-1, ,
1, ,-1, ,
1, ,-1, ,
0, ,-1, ,
0, ,-1, ,
-1, ,-1, ,
-1, ,-1, ,
-1, ,-1, ,
-1, ,-1, ,
-1, ,-1, ,
-1, ,-1, ,
-1, ,-1, ,
-1, ,-1, ,
0, ,-1, ,
0, ,-1, ,
1, ,-1, ,
2, ,-1, ,
3, ,-1, ,
3, ,-1, ,
3, ,-1, ,
4, ,-1, ,
4, ,-1, ,
3, ,-1, ,
3, ,-1, ,
2, ,-1, ,
0, ,-1, ,
-1, ,-1, ,
-2, ,-1, ,
-3, ,-1, ,
-5, ,-1, ,
-7, ,-1, ,
-8, ,-1, ,
-8, ,-1, ,
-9, ,-1, ,
-9, ,-1, ,
-9, ,-1, ,
-9, ,-1, ,
-7, ,-1, ,
-8, ,-1, ,
-6, ,-1, ,
-5, ,-1, ,
-2, ,-1, ,
-1, ,-1, ,
0, ,-1, ,
2, ,-1, ,
5, ,-1, ,
5, ,-1, ,
6, ,-1, ,
7, ,-1, ,
8, ,-1, ,
