raw_data/75% Glycerol, Impulsion 2Hz, Sonde 5MHz, Rampe 0.7Hz/temp0000271.CSV

Format,1.0B,
Memory Length,10000,Memory Length,10000,
IntpDistance,0,IntpDistance,0,
Trigger Address,159,Trigger Address,159,
Trigger Level,2.720E-01,Trigger Level,2.720E-01,
Source,CH1,Source,CH2,
Vertical Units,V,Vertical Units,V,
Vertical Units Div,0,Vertical Units Div,0,
Vertical Units Extend Div,16,Vertical Units Extend Div,16,
Label,,Label,,
Probe Type,0,Probe Type,0,
Probe Ratio,1.000e+00,Probe Ratio,1.000e+00,
Vertical Scale,5.000e-01,Vertical Scale,2.000e+00,
Vertical Position,0.000e+00,Vertical Position,0.000e+00,
Horizontal Units,S,Horizontal Units,S,
Horizontal Scale,5.000E-06,Horizontal Scale,5.000E-06,
Horizontal Position,2.420E-05,Horizontal Position,2.420E-05,
Horizontal Mode,Main,Horizontal Mode,Main,
SincET Mode,Real Time,SincET Mode,Real Time,
Sampling Period,5.000e-09,Sampling Period,5.000e-09,
Horizontal Old Scale,5.000E-06,Horizontal Old Scale,5.000E-06,
Horizontal Old Position,2.420E-05,Horizontal Old Position,2.420E-05,
Firmware,V1.32,Firmware,V1.32,
Mode,Fast,Mode,Fast,
Waveform Data,,Waveform Data,,
0, ,32, ,
0, ,32, ,
0, ,32, ,
0, ,32, ,
1, ,32, ,
1, ,32, ,
1, ,32, ,
0, ,32, ,
0, ,32, ,
0, ,32, ,
0, ,32, ,
1, ,32, ,
1, ,32, ,
1, ,32, ,
1, ,32, ,
1, ,32, ,
1, ,32, ,
1, ,32, ,
1, ,32, ,
0, ,32, ,
0, ,32, ,
1, ,32, ,
0, ,32, ,
0, ,32, ,
1, ,32, ,
1, ,32, ,
1, ,32, ,
1, ,32, ,
1, ,32, ,
1, ,32, ,
1, ,32, ,
1, ,32, ,
1, ,32, ,
0, ,32, ,
0, ,32, ,
1, ,32, ,
1, ,32, ,
1, ,32, ,
0, ,32, ,
0, ,32, ,
0, ,32, ,
0, ,32, ,
0, ,32, ,
1, ,32, ,
1, ,32, ,
1, ,32, ,
0, ,32, ,
0, ,32, ,
1, ,32, ,
1, ,32, ,
1, ,32, ,
1, ,32, ,
0, ,32, ,
0, ,32, ,
0, ,32, ,
1, ,32, ,
1, ,32, ,
1, ,32, ,
1, ,32, ,
1, ,32, ,
0, ,32, ,
0, ,32, ,
0, ,32, ,
0, ,32, ,
1, ,32, ,
1, ,32, ,
1, ,32, ,
0, ,32, ,
0, ,32, ,
0, ,32, ,
1, ,32, ,
0, ,32, ,
0, ,32, ,
0, ,32, ,
1, ,32, ,
0, ,32, ,
0, ,32, ,
1, ,32, ,
0, ,32, ,
0, ,32, ,
1, ,32, ,
0, ,32, ,
0, ,32, ,
0, ,32, ,
0, ,32, ,
0, ,32, ,
1, ,32, ,
1, ,32, ,
1, ,32, ,
1, ,32, ,
1, ,32, ,
1, ,32, ,
0, ,32, ,
0, ,32, ,
0, ,32, ,
0, ,32, ,
0, ,32, ,
0, ,32, ,
1, ,32, ,
1, ,32, ,
0, ,32, ,
0, ,32, ,
0, ,32, ,
1, ,32, ,
1, ,32, ,
1, ,32, ,
0, ,32, ,
0, ,32, ,
0, ,32, ,
0, ,32, ,
0, ,32, ,
0, ,32, ,
0, ,32, ,
0, ,32, ,
0, ,32, ,
0, ,32, ,
0, ,32, ,
0, ,32, ,
0, ,32, ,
0, ,32, ,
1, ,32, ,
1, ,32, ,
1, ,32, ,
1, ,32, ,
0, ,32, ,
0, ,32, ,
0, ,32, ,
1, ,32, ,
1, ,32, ,
1, ,32, ,
1, ,32, ,
1, ,32, ,
1, ,32, ,
1, ,32, ,
0, ,32, ,
0, ,32, ,
1, ,32, ,
0, ,32, ,
0, ,32, ,
0, ,32, ,
0, ,32, ,
0, ,32, ,
0, ,32, ,
1, ,32, ,
1, ,32, ,
1, ,32, ,
1, ,32, ,
1, ,32, ,
0, ,32, ,
0, ,32, ,
0, ,32, ,
0, ,32, ,
0, ,32, ,
1, ,32, ,
0, ,32, ,
0, ,32, ,
1, ,32, ,
0, ,32, ,
0, ,32, ,
0, ,32, ,
0, ,32, ,
0, ,32, ,
0, ,32, ,
1, ,32, ,
1, ,32, ,
0, ,32, ,
0, ,32, ,
0, ,32, ,
14, ,32, ,
40, ,32, ,
79, ,32, ,
124, ,32, ,
122, ,32, ,
106, ,32, ,
49, ,32, ,
0, ,32, ,
46, ,32, ,
99, ,32, ,
125, ,32, ,
125, ,32, ,
125, ,32, ,
125, ,32, ,
125, ,32, ,
124, ,32, ,
124, ,32, ,
122, ,32, ,
117, ,32, ,
107, ,32, ,
103, ,32, ,
101, ,32, ,
97, ,32, ,
90, ,32, ,
87, ,32, ,
83, ,32, ,
80, ,32, ,
75, ,32, ,
71, ,32, ,
69, ,32, ,
66, ,32, ,
61, ,32, ,
59, ,32, ,
56, ,32, ,
54, ,32, ,
49, ,32, ,
47, ,32, ,
45, ,32, ,
43, ,32, ,
39, ,32, ,
38, ,32, ,
37, ,32, ,
35, ,32, ,
32, ,32, ,
30, ,32, ,
29, ,32, ,
27, ,32, ,
25, ,32, ,
24, ,32, ,
23, ,32, ,
23, ,32, ,
20, ,32, ,
19, ,32, ,
19, ,32, ,
17, ,32, ,
16, ,32, ,
15, ,32, ,
14, ,32, ,
14, ,32, ,
12, ,32, ,
11, ,32, ,
11, ,32, ,
10, ,32, ,
9, ,32, ,
8, ,32, ,
8, ,32, ,
7, ,32, ,
6, ,32, ,
6, ,32, ,
6, ,32, ,
6, ,32, ,
5, ,32, ,
4, ,32, ,
4, ,32, ,
4, ,32, ,
3, ,32, ,
3, ,32, ,
3, ,32, ,
2, ,32, ,
2, ,32, ,
2, ,32, ,
2, ,32, ,
1, ,32, ,
1, ,32, ,
1, ,32, ,
1, ,32, ,
1, ,32, ,
0, ,32, ,
0, ,32, ,
0, ,32, ,
0, ,32, ,
0, ,32, ,
0, ,32, ,
0, ,32, ,
0, ,32, ,
-1, ,32, ,
0, ,32, ,
-1, ,32, ,
0, ,32, ,
-1, ,32, ,
-1, ,32, ,
-1, ,32, ,
-1, ,32, ,
-1, ,32, ,
-1, ,32, ,
-1, ,32, ,
-1, ,32, ,
-1, ,32, ,
-1, ,32, ,
-1, ,32, ,
-1, ,32, ,
-1, ,32, ,
-1, ,32, ,
-1, ,32, ,
-1, ,32, ,
-1, ,32, ,
-1, ,32, ,
-1, ,32, ,
-1, ,32, ,
-1, ,32, ,
-1, ,32, ,
-2, ,32, ,
-2, ,32, ,
-1, ,32, ,
-1, ,32, ,
-1, ,32, ,
-1, ,32, ,
-1, ,32, ,
-1, ,32, ,
-1, ,32, ,
-1, ,32, ,
-1, ,32, ,
-1, ,32, ,
-1, ,32, ,
-1, ,32, ,
-1, ,32, ,
-1, ,32, ,
-1, ,32, ,
-1, ,32, ,
-1, ,32, ,
-1, ,32, ,
-1, ,32, ,
-1, ,32, ,
-1, ,32, ,
-1, ,32, ,
-1, ,32, ,
-1, ,32, ,
0, ,32, ,
-1, ,32, ,
-1, ,32, ,
-1, ,32, ,
-1, ,32, ,
-1, ,32, ,
-1, ,32, ,
-1, ,32, ,
0, ,32, ,
0, ,32, ,
0, ,32, ,
-1, ,32, ,
-1, ,32, ,
0, ,32, ,
0, ,32, ,
0, ,32, ,
0, ,32, ,
0, ,32, ,
0, ,32, ,
0, ,32, ,
0, ,32, ,
0, ,32, ,
0, ,32, ,
0, ,32, ,
-1, ,32, ,
-1, ,32, ,
0, ,32, ,
0, ,32, ,
0, ,32, ,
0, ,32, ,
0, ,32, ,
0, ,32, ,
0, ,32, ,
0, ,32, ,
0, ,32, ,
0, ,32, ,
0, ,32, ,
0, ,32, ,
0, ,32, ,
0, ,32, ,
0, ,32, ,
0, ,32, ,
0, ,32, ,
0, ,32, ,
0, ,32, ,
0, ,32, ,
0, ,32, ,
0, ,32, ,
0, ,32, ,
0, ,32, ,
0, ,32, ,
0, ,32, ,
0, ,32, ,
0, ,32, ,
0, ,32, ,
0, ,32, ,
0, ,32, ,
0, ,32, ,
0, ,32, ,
0, ,32, ,
0, ,32, ,
0, ,32, ,
0, ,32, ,
0, ,32, ,
0, ,32, ,
0, ,32, ,
0, ,32, ,
0, ,32, ,
0, ,32, ,
0, ,32, ,
0, ,32, ,
0, ,32, ,
0, ,32, ,
0, ,32, ,
0, ,32, ,
0, ,32, ,
0, ,32, ,
0, ,32, ,
0, ,32, ,
0, ,32, ,
1, ,32, ,
0, ,32, ,
0, ,32, ,
0, ,32, ,
0, ,32, ,
0, ,32, ,
0, ,32, ,
1, ,32, ,
0, ,32, ,
0, ,32, ,
0, ,32, ,
0, ,32, ,
0, ,32, ,
0, ,32, ,
0, ,32, ,
0, ,32, ,
0, ,32, ,
0, ,32, ,
0, ,32, ,
0, ,32, ,
0, ,32, ,
0, ,32, ,
0, ,32, ,
0, ,32, ,
1, ,32, ,
1, ,32, ,
1, ,32, ,
0, ,32, ,
0, ,32, ,
1, ,32, ,
1, ,32, ,
1, ,32, ,
0, ,32, ,
0, ,32, ,
0, ,32, ,
0, ,32, ,
0, ,32, ,
0, ,32, ,
0, ,32, ,
0, ,32, ,
0, ,32, ,
-1, ,32, ,
-1, ,32, ,
-2, ,32, ,
-4, ,32, ,
-5, ,32, ,
-8, ,32, ,
-11, ,32, ,
-20, ,32, ,
-23, ,32, ,
-23, ,32, ,
-23, ,32, ,
-17, ,32, ,
-13, ,32, ,
-9, ,32, ,
-6, ,32, ,
-1, ,32, ,
0, ,32, ,
2, ,32, ,
2, ,32, ,
4, ,32, ,
4, ,32, ,
5, ,32, ,
5, ,32, ,
5, ,32, ,
5, ,32, ,
5, ,32, ,
4, ,32, ,
3, ,32, ,
3, ,32, ,
3, ,32, ,
3, ,32, ,
2, ,32, ,
2, ,32, ,
2, ,32, ,
2, ,32, ,
2, ,32, ,
3, ,32, ,
3, ,32, ,
3, ,32, ,
4, ,32, ,
4, ,32, ,
3, ,32, ,
3, ,32, ,
3, ,32, ,
3, ,32, ,
3, ,32, ,
2, ,32, ,
2, ,32, ,
2, ,32, ,
2, ,32, ,
1, ,32, ,
1, ,32, ,
2, ,32, ,
2, ,32, ,
2, ,32, ,
2, ,32, ,
2, ,32, ,
3, ,32, ,
2, ,32, ,
2, ,32, ,
2, ,32, ,
2, ,32, ,
2, ,32, ,
2, ,32, ,
1, ,32, ,
1, ,32, ,
1, ,32, ,
0, ,32, ,
0, ,32, ,
0, ,32, ,
0, ,32, ,
1, ,32, ,
0, ,32, ,
0, ,32, ,
0, ,32, ,
0, ,32, ,
1, ,32, ,
0, ,32, ,
0, ,32, ,
0, ,32, ,
0, ,32, ,
-1, ,32, ,
-1, ,32, ,
-3, ,32, ,
-3, ,32, ,
-5, ,32, ,
-6, ,32, ,
-8, ,32, ,
-9, ,32, ,
-10, ,32, ,
-11, ,32, ,
-11, ,32, ,
-11, ,32, ,
-11, ,32, ,
-10, ,32, ,
-9, ,32, ,
-9, ,32, ,
-7, ,32, ,
-7, ,32, ,
-6, ,32, ,
-5, ,32, ,
-6, ,32, ,
-6, ,32, ,
-7, ,32, ,
-8, ,32, ,
-9, ,32, ,
-10, ,32, ,
-13, ,32, ,
-15, ,32, ,
-17, ,32, ,
-18, ,32, ,
-20, ,32, ,
-20, ,32, ,
-21, ,32, ,
-21, ,32, ,
-21, ,32, ,
-21, ,32, ,
-22, ,32, ,
-22, ,32, ,
-24, ,32, ,
-25, ,32, ,
-26, ,32, ,
-28, ,32, ,
-32, ,32, ,
-35, ,32, ,
-38, ,32, ,
-39, ,32, ,
-41, ,32, ,
-41, ,32, ,
-41, ,32, ,
-41, ,32, ,
-38, ,32, ,
-36, ,32, ,
-34, ,32, ,
-31, ,32, ,
-26, ,32, ,
-24, ,32, ,
-21, ,32, ,
-19, ,32, ,
-13, ,32, ,
-11, ,32, ,
-9, ,32, ,
-7, ,32, ,
-3, ,32, ,
-1, ,32, ,
1, ,32, ,
2, ,32, ,
5, ,32, ,
7, ,32, ,
8, ,32, ,
9, ,32, ,
12, ,32, ,
12, ,32, ,
12, ,32, ,
12, ,32, ,
11, ,32, ,
11, ,32, ,
10, ,32, ,
10, ,32, ,
9, ,32, ,
9, ,32, ,
8, ,32, ,
8, ,32, ,
8, ,32, ,
9, ,32, ,
9, ,32, ,
10, ,32, ,
11, ,32, ,
12, ,32, ,
13, ,32, ,
13, ,32, ,
15, ,32, ,
15, ,32, ,
15, ,32, ,
15, ,32, ,
14, ,32, ,
12, ,32, ,
11, ,32, ,
10, ,32, ,
7, ,32, ,
5, ,32, ,
3, ,32, ,
1, ,32, ,
-4, ,32, ,
-6, ,32, ,
-8, ,32, ,
-10, ,32, ,
-15, ,32, ,
-17, ,32, ,
-19, ,32, ,
-20, ,32, ,
-22, ,32, ,
-22, ,32, ,
-22, ,32, ,
-22, ,32, ,
-20, ,32, ,
-19, ,32, ,
-17, ,32, ,
-16, ,32, ,
-12, ,32, ,
-9, ,32, ,
-7, ,32, ,
-5, ,32, ,
-2, ,32, ,
0, ,32, ,
1, ,32, ,
2, ,32, ,
4, ,32, ,
4, ,32, ,
4, ,32, ,
4, ,32, ,
3, ,32, ,
2, ,32, ,
1, ,32, ,
0, ,32, ,
-4, ,32, ,
-5, ,32, ,
-7, ,32, ,
-9, ,32, ,
-14, ,32, ,
-17, ,32, ,
-18, ,32, ,
-21, ,32, ,
-23, ,32, ,
-24, ,32, ,
-24, ,32, ,
-23, ,32, ,
-22, ,32, ,
-21, ,32, ,
-20, ,32, ,
-18, ,32, ,
-15, ,32, ,
-14, ,32, ,
-12, ,32, ,
-11, ,32, ,
-9, ,32, ,
-8, ,32, ,
-8, ,32, ,
-7, ,32, ,
-7, ,32, ,
-7, ,32, ,
-7, ,32, ,
-8, ,32, ,
-9, ,32, ,
-9, ,32, ,
-10, ,32, ,
-11, ,32, ,
-11, ,32, ,
-12, ,32, ,
-12, ,32, ,
-13, ,32, ,
-13, ,32, ,
-13, ,32, ,
-12, ,32, ,
-12, ,32, ,
-10, ,32, ,
-10, ,32, ,
-8, ,32, ,
-7, ,32, ,
-5, ,32, ,
-4, ,32, ,
-3, ,32, ,
-2, ,32, ,
-1, ,32, ,
-1, ,32, ,
-1, ,32, ,
-1, ,32, ,
0, ,32, ,
0, ,32, ,
1, ,32, ,
1, ,32, ,
1, ,32, ,
1, ,32, ,
1, ,32, ,
1, ,32, ,
0, ,32, ,
0, ,32, ,
-1, ,32, ,
-1, ,32, ,
-3, ,32, ,
-4, ,32, ,
-4, ,32, ,
-5, ,32, ,
-6, ,32, ,
-6, ,32, ,
-6, ,32, ,
-7, ,32, ,
-7, ,32, ,
-6, ,32, ,
-6, ,32, ,
-6, ,32, ,
-5, ,32, ,
-4, ,32, ,
-3, ,32, ,
-2, ,32, ,
0, ,32, ,
1, ,32, ,
3, ,32, ,
4, ,32, ,
7, ,32, ,
9, ,32, ,
9, ,32, ,
11, ,32, ,
13, ,32, ,
14, ,32, ,
15, ,32, ,
15, ,32, ,
14, ,32, ,
14, ,32, ,
13, ,32, ,
13, ,32, ,
10, ,32, ,
10, ,32, ,
8, ,32, ,
7, ,32, ,
4, ,32, ,
2, ,32, ,
2, ,32, ,
1, ,32, ,
-1, ,32, ,
-2, ,32, ,
-2, ,32, ,
-2, ,32, ,
-2, ,32, ,
-2, ,32, ,
-2, ,32, ,
-2, ,32, ,
-2, ,32, ,
-3, ,32, ,
-3, ,32, ,
-4, ,32, ,
-6, ,32, ,
-7, ,32, ,
-9, ,32, ,
-10, ,32, ,
-13, ,32, ,
-16, ,32, ,
-18, ,32, ,
-21, ,32, ,
-25, ,32, ,
-26, ,32, ,
-28, ,32, ,
-29, ,32, ,
-34, ,32, ,
-35, ,32, ,
-35, ,32, ,
-36, ,32, ,
-36, ,32, ,
-35, ,32, ,
-34, ,32, ,
-35, ,32, ,
-31, ,32, ,
-30, ,32, ,
-28, ,32, ,
-26, ,32, ,
-23, ,32, ,
-21, ,32, ,
-18, ,32, ,
-16, ,32, ,
-12, ,32, ,
-11, ,32, ,
-9, ,32, ,
-8, ,32, ,
-6, ,32, ,
-5, ,32, ,
-6, ,32, ,
-6, ,32, ,
-7, ,32, ,
-7, ,32, ,
-8, ,32, ,
-8, ,32, ,
-8, ,32, ,
-9, ,32, ,
-9, ,32, ,
-9, ,32, ,
-7, ,32, ,
-7, ,32, ,
-6, ,32, ,
-5, ,32, ,
-3, ,32, ,
-1, ,32, ,
0, ,32, ,
1, ,32, ,
4, ,32, ,
5, ,32, ,
6, ,32, ,
7, ,32, ,
8, ,32, ,
9, ,32, ,
10, ,32, ,
10, ,32, ,
11, ,32, ,
10, ,32, ,
10, ,32, ,
9, ,32, ,
8, ,32, ,
8, ,32, ,
7, ,32, ,
6, ,32, ,
4, ,32, ,
2, ,32, ,
1, ,32, ,
0, ,32, ,
-3, ,32, ,
-3, ,32, ,
-4, ,32, ,
-4, ,32, ,
-4, ,32, ,
-4, ,32, ,
-3, ,32, ,
-3, ,32, ,
-1, ,32, ,
0, ,32, ,
1, ,32, ,
3, ,32, ,
7, ,32, ,
8, ,32, ,
10, ,32, ,
12, ,32, ,
14, ,32, ,
16, ,32, ,
17, ,32, ,
18, ,32, ,
17, ,32, ,
16, ,32, ,
15, ,32, ,
13, ,32, ,
10, ,32, ,
8, ,32, ,
5, ,32, ,
2, ,32, ,
-4, ,32, ,
-7, ,32, ,
-9, ,32, ,
-12, ,32, ,
-15, ,32, ,
-17, ,32, ,
-18, ,32, ,
-18, ,32, ,
-17, ,32, ,
-17, ,32, ,
-16, ,32, ,
-15, ,32, ,
-13, ,32, ,
-10, ,32, ,
-10, ,32, ,
-9, ,32, ,
-6, ,32, ,
-5, ,32, ,
-4, ,32, ,
-4, ,32, ,
-5, ,32, ,
-5, ,32, ,
-6, ,32, ,
-7, ,32, ,
-9, ,32, ,
-10, ,32, ,
-11, ,32, ,
-14, ,32, ,
-17, ,32, ,
-18, ,32, ,
-20, ,32, ,
-21, ,32, ,
-23, ,32, ,
-24, ,32, ,
-25, ,32, ,
-25, ,32, ,
-24, ,32, ,
-24, ,32, ,
-23, ,32, ,
-22, ,32, ,
-19, ,32, ,
-17, ,32, ,
-14, ,32, ,
-12, ,32, ,
-6, ,32, ,
-3, ,32, ,
-2, ,32, ,
0, ,32, ,
4, ,32, ,
5, ,32, ,
6, ,32, ,
5, ,32, ,
4, ,32, ,
2, ,32, ,
0, ,32, ,
-2, ,32, ,
-7, ,32, ,
-9, ,32, ,
-11, ,32, ,
-13, ,32, ,
-18, ,32, ,
-19, ,32, ,
-20, ,32, ,
-20, ,32, ,
-20, ,32, ,
-19, ,32, ,
-18, ,32, ,
-16, ,32, ,
-13, ,32, ,
-10, ,32, ,
-9, ,32, ,
-6, ,32, ,
-2, ,32, ,
-1, ,32, ,
1, ,32, ,
2, ,32, ,
4, ,32, ,
4, ,32, ,
4, ,32, ,
5, ,32, ,
4, ,32, ,
4, ,32, ,
4, ,32, ,
4, ,32, ,
4, ,32, ,
5, ,32, ,
4, ,32, ,
4, ,32, ,
4, ,32, ,
4, ,32, ,
5, ,32, ,
5, ,32, ,
4, ,32, ,
4, ,32, ,
4, ,32, ,
4, ,32, ,
4, ,32, ,
4, ,32, ,
4, ,32, ,
4, ,32, ,
5, ,32, ,
5, ,32, ,
5, ,32, ,
5, ,32, ,
5, ,32, ,
5, ,32, ,
5, ,32, ,
4, ,32, ,
3, ,32, ,
3, ,32, ,
2, ,32, ,
2, ,32, ,
0, ,32, ,
-1, ,32, ,
-2, ,32, ,
-3, ,32, ,
-4, ,32, ,
-5, ,32, ,
-5, ,32, ,
-6, ,32, ,
-6, ,32, ,
-7, ,32, ,
-7, ,32, ,
-8, ,32, ,
-9, ,32, ,
-10, ,32, ,
-11, ,32, ,
-11, ,32, ,
-12, ,32, ,
-14, ,32, ,
-14, ,32, ,
-15, ,32, ,
-16, ,32, ,
-16, ,32, ,
-16, ,32, ,
-16, ,32, ,
-15, ,32, ,
-15, ,32, ,
-13, ,32, ,
-12, ,32, ,
-9, ,32, ,
-8, ,32, ,
-7, ,32, ,
-5, ,32, ,
-1, ,32, ,
0, ,32, ,
2, ,32, ,
3, ,32, ,
6, ,32, ,
7, ,32, ,
8, ,32, ,
8, ,32, ,
10, ,32, ,
10, ,32, ,
10, ,32, ,
9, ,32, ,
8, ,32, ,
8, ,32, ,
7, ,32, ,
6, ,32, ,
5, ,32, ,
3, ,32, ,
3, ,32, ,
2, ,32, ,
0, ,32, ,
0, ,32, ,
0, ,32, ,
0, ,32, ,
0, ,32, ,
1, ,32, ,
1, ,32, ,
1, ,32, ,
2, ,32, ,
3, ,32, ,
3, ,32, ,
4, ,32, ,
5, ,32, ,
5, ,32, ,
5, ,32, ,
6, ,32, ,
8, ,32, ,
8, ,32, ,
8, ,32, ,
8, ,32, ,
8, ,32, ,
7, ,32, ,
7, ,32, ,
6, ,32, ,
5, ,32, ,
4, ,32, ,
2, ,32, ,
1, ,32, ,
-3, ,32, ,
-5, ,32, ,
-7, ,32, ,
-10, ,32, ,
-14, ,32, ,
-17, ,32, ,
-19, ,32, ,
-21, ,32, ,
-24, ,32, ,
-25, ,32, ,
-25, ,32, ,
-25, ,32, ,
-25, ,32, ,
-24, ,32, ,
-23, ,32, ,
-22, ,32, ,
-18, ,32, ,
-16, ,32, ,
-13, ,32, ,
-11, ,32, ,
-6, ,32, ,
-3, ,32, ,
-1, ,32, ,
1, ,32, ,
4, ,32, ,
6, ,32, ,
7, ,32, ,
7, ,32, ,
8, ,32, ,
8, ,32, ,
7, ,32, ,
7, ,32, ,
8, ,32, ,
8, ,32, ,
8, ,32, ,
8, ,32, ,
8, ,32, ,
9, ,32, ,
9, ,32, ,
10, ,32, ,
11, ,32, ,
11, ,32, ,
11, ,32, ,
11, ,32, ,
10, ,32, ,
10, ,32, ,
8, ,32, ,
8, ,32, ,
6, ,32, ,
5, ,32, ,
3, ,32, ,
2, ,32, ,
-1, ,32, ,
-3, ,32, ,
-5, ,32, ,
-6, ,32, ,
-9, ,32, ,
-10, ,32, ,
-11, ,32, ,
-11, ,32, ,
-12, ,32, ,
-12, ,32, ,
-12, ,32, ,
-11, ,32, ,
-10, ,32, ,
-10, ,32, ,
-9, ,32, ,
-8, ,32, ,
-6, ,32, ,
-4, ,32, ,
-3, ,32, ,
-2, ,32, ,
1, ,32, ,
3, ,32, ,
4, ,32, ,
5, ,32, ,
7, ,32, ,
7, ,32, ,
8, ,32, ,
8, ,32, ,
8, ,32, ,
7, ,32, ,
7, ,32, ,
6, ,32, ,
5, ,32, ,
5, ,32, ,
3, ,32, ,
3, ,32, ,
2, ,32, ,
1, ,32, ,
1, ,32, ,
0, ,32, ,
-1, ,32, ,
-1, ,32, ,
-1, ,32, ,
-1, ,32, ,
-2, ,32, ,
-3, ,32, ,
-3, ,32, ,
-4, ,32, ,
-5, ,32, ,
-6, ,32, ,
-7, ,32, ,
-7, ,32, ,
-9, ,32, ,
-10, ,32, ,
-10, ,32, ,
-11, ,32, ,
-12, ,32, ,
-11, ,32, ,
-11, ,32, ,
-10, ,32, ,
-9, ,32, ,
-9, ,32, ,
-8, ,32, ,
-8, ,32, ,
-6, ,32, ,
-4, ,32, ,
-4, ,32, ,
-2, ,32, ,
0, ,32, ,
1, ,32, ,
2, ,32, ,
2, ,32, ,
4, ,32, ,
4, ,32, ,
4, ,32, ,
4, ,32, ,
4, ,32, ,
4, ,32, ,
4, ,32, ,
4, ,32, ,
3, ,32, ,
3, ,32, ,
2, ,32, ,
2, ,32, ,
1, ,32, ,
0, ,32, ,
0, ,32, ,
-1, ,32, ,
-2, ,32, ,
-2, ,32, ,
-3, ,32, ,
-3, ,32, ,
-3, ,32, ,
-3, ,32, ,
-3, ,32, ,
-3, ,32, ,
-3, ,32, ,
-2, ,32, ,
-2, ,32, ,
-2, ,32, ,
-2, ,32, ,
-2, ,32, ,
-2, ,32, ,
-2, ,32, ,
-2, ,32, ,
-2, ,32, ,
-2, ,32, ,
-2, ,32, ,
-3, ,32, ,
-3, ,32, ,
-2, ,32, ,
-2, ,32, ,
-2, ,32, ,
-1, ,32, ,
-1, ,32, ,
0, ,32, ,
0, ,32, ,
1, ,32, ,
1, ,32, ,
1, ,32, ,
1, ,32, ,
0, ,32, ,
0, ,32, ,
-1, ,32, ,
-2, ,32, ,
-3, ,32, ,
-3, ,32, ,
-4, ,32, ,
-5, ,32, ,
-6, ,32, ,
-7, ,32, ,
-7, ,32, ,
-7, ,32, ,
-7, ,32, ,
-7, ,32, ,
-7, ,32, ,
-7, ,32, ,
-6, ,32, ,
-6, ,32, ,
-5, ,32, ,
-5, ,32, ,
-5, ,32, ,
-5, ,32, ,
-5, ,32, ,
-5, ,32, ,
-5, ,32, ,
-6, ,32, ,
-6, ,32, ,
-6, ,32, ,
-6, ,32, ,
-6, ,32, ,
-6, ,32, ,
-6, ,32, ,
-6, ,32, ,
-6, ,32, ,
-6, ,32, ,
-6, ,32, ,
-6, ,32, ,
-6, ,32, ,
-6, ,32, ,
-6, ,32, ,
-6, ,32, ,
-6, ,32, ,
-5, ,32, ,
-4, ,32, ,
-4, ,32, ,
-3, ,32, ,
-2, ,32, ,
0, ,32, ,
1, ,32, ,
2, ,32, ,
4, ,32, ,
6, ,32, ,
7, ,32, ,
8, ,32, ,
8, ,32, ,
9, ,32, ,
10, ,32, ,
9, ,32, ,
9, ,32, ,
8, ,32, ,
7, ,32, ,
7, ,32, ,
5, ,32, ,
4, ,32, ,
3, ,32, ,
2, ,32, ,
1, ,32, ,
-1, ,32, ,
-2, ,32, ,
-3, ,32, ,
-4, ,32, ,
-5, ,32, ,
-5, ,32, ,
-6, ,32, ,
-6, ,32, ,
-6, ,32, ,
-6, ,32, ,
-6, ,32, ,
-6, ,32, ,
-6, ,32, ,
-5, ,32, ,
-5, ,32, ,
-5, ,32, ,
-3, ,32, ,
-4, ,32, ,
-2, ,32, ,
-2, ,32, ,
-1, ,32, ,
-1, ,32, ,
-1, ,32, ,
0, ,32, ,
1, ,32, ,
0, ,32, ,
1, ,32, ,
0, ,32, ,
1, ,32, ,
1, ,32, ,
1, ,32, ,
1, ,32, ,
1, ,32, ,
1, ,32, ,
2, ,32, ,
2, ,32, ,
4, ,32, ,
5, ,32, ,
5, ,32, ,
6, ,32, ,
8, ,32, ,
9, ,32, ,
10, ,32, ,
11, ,32, ,
13, ,32, ,
13, ,32, ,
13, ,32, ,
13, ,32, ,
12, ,32, ,
11, ,32, ,
11, ,32, ,
9, ,32, ,
6, ,32, ,
6, ,32, ,
3, ,32, ,
1, ,32, ,
-3, ,32, ,
-5, ,32, ,
-6, ,32, ,
-9, ,32, ,
-13, ,32, ,
-14, ,32, ,
-15, ,32, ,
-17, ,32, ,
-18, ,32, ,
-18, ,32, ,
-17, ,32, ,
-17, ,32, ,
-15, ,32, ,
-14, ,32, ,
-12, ,32, ,
-11, ,32, ,
-7, ,32, ,
-6, ,32, ,
-3, ,32, ,
-2, ,32, ,
1, ,32, ,
4, ,32, ,
4, ,32, ,
6, ,32, ,
8, ,32, ,
8, ,32, ,
8, ,32, ,
8, ,32, ,
7, ,32, ,
7, ,32, ,
5, ,32, ,
5, ,32, ,
4, ,32, ,
3, ,32, ,
3, ,32, ,
2, ,32, ,
1, ,32, ,
1, ,32, ,
1, ,32, ,
1, ,32, ,
2, ,32, ,
2, ,32, ,
2, ,32, ,
2, ,32, ,
2, ,32, ,
2, ,32, ,
2, ,32, ,
2, ,32, ,
1, ,32, ,
1, ,32, ,
1, ,32, ,
0, ,32, ,
-1, ,32, ,
-1, ,32, ,
-2, ,32, ,
-2, ,32, ,
-3, ,32, ,
-3, ,32, ,
-3, ,32, ,
-3, ,32, ,
-3, ,32, ,
-3, ,32, ,
-3, ,32, ,
-2, ,32, ,
-1, ,32, ,
-1, ,32, ,
-1, ,32, ,
-1, ,32, ,
0, ,32, ,
0, ,32, ,
0, ,32, ,
0, ,32, ,
0, ,32, ,
0, ,32, ,
-1, ,32, ,
-1, ,32, ,
-2, ,32, ,
-2, ,32, ,
-3, ,32, ,
-3, ,32, ,
-3, ,32, ,
-3, ,32, ,
-3, ,32, ,
-3, ,32, ,
-3, ,32, ,
-3, ,32, ,
-3, ,32, ,
-3, ,32, ,
-2, ,32, ,
-2, ,32, ,
-1, ,32, ,
-1, ,32, ,
0, ,32, ,
0, ,32, ,
1, ,32, ,
1, ,32, ,
1, ,32, ,
2, ,32, ,
2, ,32, ,
2, ,32, ,
2, ,32, ,
3, ,32, ,
3, ,32, ,
3, ,32, ,
4, ,32, ,
4, ,32, ,
5, ,32, ,
5, ,32, ,
6, ,32, ,
6, ,32, ,
6, ,32, ,
7, ,32, ,
7, ,32, ,
7, ,32, ,
7, ,32, ,
7, ,32, ,
6, ,32, ,
6, ,32, ,
5, ,32, ,
5, ,32, ,
3, ,32, ,
2, ,32, ,
1, ,32, ,
1, ,32, ,
-2, ,32, ,
-2, ,32, ,
-4, ,32, ,
-5, ,32, ,
-7, ,32, ,
-8, ,32, ,
-9, ,32, ,
-10, ,32, ,
-12, ,32, ,
-12, ,32, ,
-13, ,32, ,
-14, ,32, ,
-14, ,32, ,
-14, ,32, ,
-13, ,32, ,
-13, ,32, ,
-12, ,32, ,
-10, ,32, ,
-9, ,32, ,
-8, ,32, ,
-4, ,32, ,
-3, ,32, ,
-1, ,32, ,
0, ,32, ,
3, ,32, ,
5, ,32, ,
6, ,32, ,
7, ,32, ,
9, ,32, ,
9, ,32, ,
10, ,32, ,
9, ,32, ,
9, ,32, ,
9, ,32, ,
8, ,32, ,
8, ,32, ,
7, ,32, ,
5, ,32, ,
5, ,32, ,
4, ,32, ,
3, ,32, ,
3, ,32, ,
2, ,32, ,
2, ,32, ,
2, ,32, ,
2, ,32, ,
2, ,32, ,
2, ,32, ,
2, ,32, ,
3, ,32, ,
4, ,32, ,
4, ,32, ,
5, ,32, ,
5, ,32, ,
6, ,32, ,
6, ,32, ,
6, ,32, ,
6, ,32, ,
5, ,32, ,
5, ,32, ,
5, ,32, ,
4, ,32, ,
4, ,32, ,
2, ,32, ,
1, ,32, ,
1, ,32, ,
0, ,32, ,
0, ,32, ,
-2, ,32, ,
-3, ,32, ,
-3, ,32, ,
-4, ,32, ,
-4, ,32, ,
-4, ,32, ,
-4, ,32, ,
-4, ,32, ,
-3, ,32, ,
-3, ,32, ,
-3, ,32, ,
-3, ,32, ,
-2, ,32, ,
-2, ,32, ,
-2, ,32, ,
-1, ,32, ,
-1, ,32, ,
-1, ,32, ,
-1, ,32, ,
-2, ,32, ,
-3, ,32, ,
-3, ,32, ,
-3, ,32, ,
-3, ,32, ,
-4, ,32, ,
-4, ,32, ,
-4, ,32, ,
-4, ,32, ,
-3, ,32, ,
-3, ,32, ,
-2, ,32, ,
-2, ,32, ,
-1, ,32, ,
-1, ,32, ,
-1, ,32, ,
0, ,32, ,
1, ,32, ,
1, ,32, ,
1, ,32, ,
2, ,32, ,
3, ,32, ,
4, ,32, ,
4, ,32, ,
4, ,32, ,
5, ,32, ,
6, ,32, ,
7, ,32, ,
7, ,32, ,
8, ,32, ,
8, ,32, ,
9, ,32, ,
9, ,32, ,
9, ,32, ,
8, ,32, ,
8, ,32, ,
8, ,32, ,
7, ,32, ,
6, ,32, ,
6, ,32, ,
5, ,32, ,
3, ,32, ,
2, ,32, ,
1, ,32, ,
-1, ,32, ,
-4, ,32, ,
-5, ,32, ,
-6, ,32, ,
-8, ,32, ,
-10, ,32, ,
-10, ,32, ,
-11, ,32, ,
-12, ,32, ,
-11, ,32, ,
-11, ,32, ,
-11, ,32, ,
-11, ,32, ,
-10, ,32, ,
-9, ,32, ,
-8, ,32, ,
-7, ,32, ,
-6, ,32, ,
-5, ,32, ,
-3, ,32, ,
-3, ,32, ,
-1, ,32, ,
-1, ,32, ,
-1, ,32, ,
0, ,32, ,
0, ,32, ,
0, ,32, ,
0, ,32, ,
0, ,32, ,
0, ,32, ,
0, ,32, ,
0, ,32, ,
0, ,32, ,
1, ,32, ,
1, ,32, ,
1, ,32, ,
1, ,32, ,
2, ,32, ,
2, ,32, ,
2, ,32, ,
3, ,32, ,
4, ,32, ,
4, ,32, ,
5, ,32, ,
5, ,32, ,
7, ,32, ,
7, ,32, ,
8, ,32, ,
8, ,32, ,
9, ,32, ,
8, ,32, ,
8, ,32, ,
8, ,32, ,
8, ,32, ,
8, ,32, ,
7, ,32, ,
7, ,32, ,
7, ,32, ,
5, ,32, ,
5, ,32, ,
4, ,32, ,
2, ,32, ,
1, ,32, ,
1, ,32, ,
0, ,32, ,
-1, ,32, ,
-2, ,32, ,
-2, ,32, ,
-3, ,32, ,
-4, ,32, ,
-4, ,32, ,
-5, ,32, ,
-5, ,32, ,
-7, ,32, ,
-7, ,32, ,
-8, ,32, ,
-8, ,32, ,
-10, ,32, ,
-10, ,32, ,
-11, ,32, ,
-11, ,32, ,
-12, ,32, ,
-13, ,32, ,
-13, ,32, ,
-13, ,32, ,
-13, ,32, ,
-12, ,32, ,
-12, ,32, ,
-11, ,32, ,
-9, ,32, ,
-9, ,32, ,
-7, ,32, ,
-6, ,32, ,
-4, ,32, ,
-2, ,32, ,
-1, ,32, ,
1, ,32, ,
3, ,32, ,
5, ,32, ,
6, ,32, ,
6, ,32, ,
8, ,32, ,
9, ,32, ,
9, ,32, ,
10, ,32, ,
11, ,32, ,
11, ,32, ,
11, ,32, ,
11, ,32, ,
11, ,32, ,
11, ,32, ,
10, ,32, ,
10, ,32, ,
9, ,32, ,
9, ,32, ,
8, ,32, ,
8, ,32, ,
7, ,32, ,
6, ,32, ,
5, ,32, ,
5, ,32, ,
3, ,32, ,
3, ,32, ,
2, ,32, ,
2, ,32, ,
1, ,32, ,
1, ,32, ,
0, ,32, ,
0, ,32, ,
-1, ,32, ,
-2, ,32, ,
-2, ,32, ,
-3, ,32, ,
-4, ,32, ,
-4, ,32, ,
-5, ,32, ,
-6, ,32, ,
-7, ,32, ,
-8, ,32, ,
-8, ,32, ,
-8, ,32, ,
-8, ,32, ,
-8, ,32, ,
-8, ,32, ,
-8, ,32, ,
-7, ,32, ,
-7, ,32, ,
-6, ,32, ,
-5, ,32, ,
-4, ,32, ,
-2, ,32, ,
-2, ,32, ,
0, ,32, ,
2, ,32, ,
3, ,32, ,
3, ,32, ,
4, ,32, ,
5, ,32, ,
6, ,32, ,
6, ,32, ,
6, ,32, ,
6, ,32, ,
5, ,32, ,
5, ,32, ,
4, ,32, ,
2, ,32, ,
2, ,32, ,
0, ,32, ,
-1, ,32, ,
