raw_data/75% Glycerol, Impulsion 2Hz, Sonde 5MHz, Rampe 0.7Hz/temp0000318.CSV

Format,1.0B,
Memory Length,10000,Memory Length,10000,
IntpDistance,0,IntpDistance,0,
Trigger Address,159,Trigger Address,159,
Trigger Level,2.720E-01,Trigger Level,2.720E-01,
Source,CH1,Source,CH2,
Vertical Units,V,Vertical Units,V,
Vertical Units Div,0,Vertical Units Div,0,
Vertical Units Extend Div,16,Vertical Units Extend Div,16,
Label,,Label,,
Probe Type,0,Probe Type,0,
Probe Ratio,1.000e+00,Probe Ratio,1.000e+00,
Vertical Scale,5.000e-01,Vertical Scale,2.000e+00,
Vertical Position,0.000e+00,Vertical Position,0.000e+00,
Horizontal Units,S,Horizontal Units,S,
Horizontal Scale,5.000E-06,Horizontal Scale,5.000E-06,
Horizontal Position,2.420E-05,Horizontal Position,2.420E-05,
Horizontal Mode,Main,Horizontal Mode,Main,
SincET Mode,Real Time,SincET Mode,Real Time,
Sampling Period,5.000e-09,Sampling Period,5.000e-09,
Horizontal Old Scale,5.000E-06,Horizontal Old Scale,5.000E-06,
Horizontal Old Position,2.420E-05,Horizontal Old Position,2.420E-05,
Firmware,V1.32,Firmware,V1.32,
Mode,Fast,Mode,Fast,
Waveform Data,,Waveform Data,,
1, ,31, ,
1, ,31, ,
1, ,31, ,
0, ,31, ,
0, ,31, ,
1, ,31, ,
0, ,31, ,
0, ,31, ,
0, ,31, ,
0, ,31, ,
0, ,31, ,
0, ,31, ,
1, ,31, ,
0, ,31, ,
0, ,31, ,
1, ,31, ,
1, ,31, ,
1, ,31, ,
1, ,31, ,
1, ,31, ,
1, ,31, ,
1, ,31, ,
1, ,31, ,
1, ,31, ,
1, ,31, ,
1, ,31, ,
1, ,31, ,
1, ,31, ,
1, ,31, ,
0, ,31, ,
0, ,31, ,
1, ,31, ,
1, ,31, ,
1, ,31, ,
1, ,31, ,
1, ,31, ,
1, ,31, ,
1, ,31, ,
1, ,31, ,
1, ,31, ,
1, ,31, ,
1, ,31, ,
1, ,31, ,
1, ,31, ,
1, ,31, ,
1, ,31, ,
0, ,31, ,
1, ,31, ,
0, ,31, ,
1, ,31, ,
1, ,31, ,
1, ,31, ,
1, ,31, ,
1, ,31, ,
1, ,31, ,
0, ,31, ,
0, ,31, ,
1, ,31, ,
1, ,31, ,
1, ,31, ,
1, ,31, ,
1, ,31, ,
0, ,31, ,
0, ,31, ,
0, ,31, ,
0, ,31, ,
1, ,31, ,
0, ,31, ,
0, ,31, ,
1, ,31, ,
1, ,31, ,
1, ,31, ,
1, ,31, ,
1, ,31, ,
1, ,31, ,
1, ,31, ,
1, ,31, ,
1, ,32, ,
1, ,31, ,
1, ,31, ,
0, ,31, ,
0, ,31, ,
1, ,31, ,
1, ,31, ,
0, ,31, ,
0, ,31, ,
0, ,31, ,
0, ,31, ,
0, ,31, ,
1, ,31, ,
1, ,31, ,
1, ,31, ,
1, ,31, ,
1, ,31, ,
1, ,31, ,
1, ,31, ,
0, ,31, ,
0, ,31, ,
1, ,31, ,
0, ,31, ,
0, ,31, ,
1, ,31, ,
1, ,31, ,
1, ,31, ,
1, ,31, ,
1, ,31, ,
1, ,31, ,
1, ,31, ,
1, ,31, ,
1, ,31, ,
1, ,31, ,
1, ,31, ,
1, ,31, ,
1, ,31, ,
1, ,31, ,
1, ,31, ,
1, ,31, ,
1, ,31, ,
1, ,31, ,
1, ,31, ,
1, ,31, ,
1, ,31, ,
1, ,31, ,
0, ,31, ,
0, ,31, ,
0, ,31, ,
0, ,31, ,
1, ,31, ,
1, ,31, ,
1, ,31, ,
1, ,31, ,
1, ,31, ,
1, ,31, ,
1, ,31, ,
0, ,31, ,
0, ,31, ,
0, ,31, ,
1, ,31, ,
1, ,31, ,
1, ,31, ,
1, ,31, ,
1, ,31, ,
1, ,31, ,
1, ,31, ,
1, ,31, ,
1, ,31, ,
1, ,31, ,
1, ,31, ,
1, ,31, ,
0, ,31, ,
0, ,31, ,
1, ,31, ,
1, ,31, ,
1, ,31, ,
1, ,31, ,
0, ,31, ,
0, ,31, ,
0, ,31, ,
0, ,31, ,
0, ,31, ,
0, ,31, ,
0, ,31, ,
1, ,31, ,
0, ,31, ,
0, ,31, ,
-1, ,31, ,
1, ,31, ,
-1, ,31, ,
7, ,31, ,
60, ,31, ,
102, ,31, ,
125, ,31, ,
123, ,31, ,
78, ,31, ,
18, ,31, ,
-7, ,31, ,
22, ,31, ,
124, ,31, ,
125, ,31, ,
125, ,31, ,
125, ,31, ,
125, ,31, ,
125, ,31, ,
125, ,31, ,
124, ,31, ,
119, ,31, ,
114, ,31, ,
108, ,31, ,
105, ,31, ,
100, ,31, ,
95, ,31, ,
92, ,31, ,
88, ,31, ,
81, ,31, ,
79, ,31, ,
75, ,31, ,
74, ,31, ,
68, ,31, ,
65, ,31, ,
63, ,31, ,
60, ,31, ,
55, ,31, ,
53, ,31, ,
50, ,31, ,
48, ,31, ,
45, ,31, ,
42, ,31, ,
41, ,31, ,
39, ,31, ,
36, ,31, ,
34, ,31, ,
33, ,31, ,
32, ,31, ,
28, ,31, ,
26, ,31, ,
25, ,31, ,
25, ,31, ,
23, ,31, ,
22, ,31, ,
21, ,31, ,
20, ,31, ,
17, ,31, ,
17, ,31, ,
16, ,31, ,
16, ,31, ,
13, ,31, ,
13, ,31, ,
12, ,31, ,
12, ,31, ,
11, ,31, ,
10, ,31, ,
10, ,31, ,
8, ,31, ,
7, ,31, ,
7, ,31, ,
6, ,31, ,
6, ,31, ,
6, ,31, ,
5, ,31, ,
5, ,31, ,
5, ,31, ,
4, ,31, ,
4, ,31, ,
4, ,31, ,
3, ,31, ,
3, ,31, ,
2, ,31, ,
2, ,31, ,
2, ,31, ,
2, ,31, ,
2, ,31, ,
1, ,31, ,
1, ,31, ,
1, ,31, ,
1, ,31, ,
1, ,31, ,
0, ,31, ,
0, ,31, ,
0, ,31, ,
0, ,31, ,
0, ,31, ,
-1, ,31, ,
-1, ,31, ,
-1, ,31, ,
-1, ,31, ,
-1, ,31, ,
-1, ,31, ,
-1, ,31, ,
-1, ,31, ,
-1, ,31, ,
-1, ,31, ,
-1, ,31, ,
-1, ,31, ,
-1, ,31, ,
-1, ,31, ,
-1, ,31, ,
-1, ,31, ,
-1, ,31, ,
-1, ,31, ,
-1, ,31, ,
-1, ,31, ,
-1, ,31, ,
-1, ,31, ,
-2, ,31, ,
-2, ,31, ,
-1, ,31, ,
-1, ,31, ,
-1, ,31, ,
-1, ,31, ,
-1, ,31, ,
-1, ,31, ,
-1, ,31, ,
-1, ,31, ,
-2, ,31, ,
-2, ,31, ,
-1, ,31, ,
-1, ,31, ,
-1, ,31, ,
-1, ,31, ,
-1, ,31, ,
-1, ,31, ,
-1, ,31, ,
-1, ,31, ,
-1, ,31, ,
-1, ,31, ,
-1, ,31, ,
0, ,31, ,
-1, ,31, ,
-1, ,31, ,
-1, ,31, ,
-1, ,31, ,
-1, ,31, ,
-1, ,31, ,
-1, ,31, ,
-1, ,31, ,
-1, ,31, ,
-1, ,31, ,
-1, ,31, ,
-1, ,31, ,
-1, ,31, ,
-1, ,31, ,
0, ,31, ,
0, ,31, ,
0, ,31, ,
0, ,31, ,
0, ,31, ,
0, ,31, ,
0, ,31, ,
-1, ,31, ,
-1, ,31, ,
0, ,31, ,
-1, ,31, ,
-1, ,31, ,
0, ,31, ,
0, ,31, ,
0, ,31, ,
0, ,31, ,
0, ,31, ,
0, ,31, ,
0, ,31, ,
0, ,31, ,
0, ,31, ,
0, ,31, ,
0, ,31, ,
0, ,31, ,
0, ,31, ,
0, ,31, ,
0, ,31, ,
0, ,31, ,
0, ,31, ,
0, ,31, ,
0, ,31, ,
0, ,31, ,
0, ,31, ,
0, ,31, ,
0, ,31, ,
0, ,31, ,
0, ,31, ,
0, ,31, ,
0, ,31, ,
0, ,31, ,
0, ,31, ,
0, ,31, ,
0, ,31, ,
0, ,31, ,
0, ,31, ,
0, ,31, ,
0, ,31, ,
0, ,31, ,
0, ,31, ,
0, ,31, ,
0, ,31, ,
0, ,31, ,
0, ,31, ,
0, ,31, ,
0, ,31, ,
0, ,31, ,
1, ,31, ,
1, ,31, ,
0, ,31, ,
0, ,31, ,
0, ,31, ,
0, ,31, ,
0, ,31, ,
0, ,31, ,
0, ,31, ,
0, ,31, ,
0, ,31, ,
0, ,31, ,
0, ,31, ,
0, ,31, ,
0, ,31, ,
0, ,31, ,
1, ,31, ,
1, ,31, ,
0, ,31, ,
0, ,31, ,
0, ,31, ,
0, ,31, ,
0, ,31, ,
0, ,31, ,
0, ,31, ,
1, ,31, ,
0, ,31, ,
0, ,31, ,
0, ,31, ,
0, ,31, ,
0, ,31, ,
0, ,31, ,
0, ,31, ,
0, ,31, ,
0, ,31, ,
0, ,31, ,
0, ,31, ,
0, ,31, ,
0, ,31, ,
0, ,31, ,
0, ,31, ,
0, ,31, ,
0, ,31, ,
0, ,31, ,
0, ,31, ,
0, ,31, ,
0, ,31, ,
0, ,31, ,
0, ,31, ,
0, ,31, ,
0, ,31, ,
0, ,31, ,
0, ,31, ,
0, ,31, ,
0, ,31, ,
0, ,31, ,
0, ,31, ,
0, ,31, ,
0, ,31, ,
0, ,31, ,
0, ,31, ,
0, ,31, ,
0, ,31, ,
-1, ,31, ,
-2, ,31, ,
-2, ,31, ,
-3, ,31, ,
-3, ,31, ,
-3, ,31, ,
-3, ,31, ,
-3, ,31, ,
-3, ,31, ,
-2, ,31, ,
-1, ,31, ,
-1, ,31, ,
0, ,31, ,
1, ,31, ,
1, ,31, ,
1, ,31, ,
1, ,31, ,
1, ,31, ,
2, ,31, ,
1, ,31, ,
1, ,31, ,
0, ,31, ,
0, ,31, ,
0, ,31, ,
-1, ,31, ,
-1, ,31, ,
-1, ,31, ,
-1, ,31, ,
-1, ,31, ,
-1, ,31, ,
-1, ,31, ,
0, ,31, ,
-1, ,31, ,
1, ,31, ,
1, ,31, ,
1, ,31, ,
1, ,31, ,
1, ,31, ,
1, ,31, ,
1, ,31, ,
0, ,31, ,
0, ,31, ,
0, ,31, ,
-1, ,31, ,
-1, ,31, ,
-1, ,31, ,
-2, ,31, ,
-2, ,31, ,
-2, ,31, ,
-1, ,31, ,
-1, ,31, ,
-1, ,31, ,
0, ,31, ,
1, ,31, ,
1, ,31, ,
1, ,31, ,
1, ,31, ,
1, ,31, ,
1, ,31, ,
1, ,31, ,
1, ,31, ,
1, ,31, ,
1, ,31, ,
1, ,31, ,
1, ,31, ,
1, ,31, ,
2, ,31, ,
2, ,31, ,
2, ,31, ,
2, ,31, ,
2, ,31, ,
2, ,31, ,
2, ,31, ,
2, ,31, ,
2, ,31, ,
2, ,31, ,
2, ,31, ,
2, ,31, ,
1, ,31, ,
1, ,31, ,
0, ,31, ,
-1, ,31, ,
-1, ,31, ,
-3, ,31, ,
-3, ,31, ,
-5, ,31, ,
-7, ,31, ,
-8, ,31, ,
-9, ,31, ,
-11, ,31, ,
-11, ,31, ,
-11, ,31, ,
-11, ,31, ,
-12, ,31, ,
-12, ,31, ,
-11, ,31, ,
-12, ,31, ,
-13, ,31, ,
-13, ,31, ,
-15, ,31, ,
-17, ,31, ,
-22, ,31, ,
-25, ,31, ,
-26, ,31, ,
-30, ,31, ,
-35, ,31, ,
-36, ,31, ,
-37, ,31, ,
-37, ,31, ,
-35, ,31, ,
-34, ,31, ,
-33, ,31, ,
-32, ,31, ,
-28, ,31, ,
-27, ,31, ,
-26, ,31, ,
-26, ,31, ,
-26, ,31, ,
-27, ,31, ,
-27, ,31, ,
-28, ,31, ,
-28, ,31, ,
-28, ,31, ,
-28, ,31, ,
-28, ,31, ,
-27, ,31, ,
-26, ,31, ,
-25, ,31, ,
-25, ,31, ,
-21, ,31, ,
-19, ,31, ,
-17, ,31, ,
-15, ,31, ,
-11, ,31, ,
-10, ,31, ,
-9, ,31, ,
-7, ,31, ,
-5, ,31, ,
-3, ,31, ,
-2, ,31, ,
0, ,31, ,
3, ,31, ,
4, ,31, ,
7, ,31, ,
8, ,31, ,
12, ,31, ,
13, ,31, ,
14, ,31, ,
16, ,31, ,
17, ,31, ,
17, ,31, ,
18, ,31, ,
18, ,31, ,
17, ,31, ,
16, ,31, ,
16, ,31, ,
15, ,31, ,
14, ,31, ,
12, ,31, ,
12, ,31, ,
11, ,31, ,
11, ,31, ,
11, ,31, ,
11, ,31, ,
11, ,31, ,
12, ,31, ,
12, ,31, ,
12, ,31, ,
11, ,31, ,
10, ,31, ,
10, ,31, ,
8, ,31, ,
8, ,31, ,
5, ,31, ,
4, ,31, ,
2, ,31, ,
0, ,31, ,
-4, ,31, ,
-6, ,31, ,
-8, ,31, ,
-10, ,31, ,
-12, ,31, ,
-14, ,31, ,
-14, ,31, ,
-15, ,31, ,
-15, ,31, ,
-14, ,31, ,
-14, ,31, ,
-13, ,31, ,
-12, ,31, ,
-12, ,31, ,
-10, ,31, ,
-10, ,31, ,
-8, ,31, ,
-8, ,31, ,
-7, ,31, ,
-7, ,31, ,
-6, ,31, ,
-7, ,31, ,
-7, ,31, ,
-7, ,31, ,
-8, ,31, ,
-8, ,31, ,
-9, ,31, ,
-9, ,31, ,
-9, ,31, ,
-9, ,31, ,
-9, ,31, ,
-10, ,31, ,
-10, ,31, ,
-10, ,31, ,
-11, ,31, ,
-12, ,31, ,
-13, ,31, ,
-14, ,31, ,
-15, ,31, ,
-16, ,31, ,
-18, ,31, ,
-18, ,31, ,
-18, ,31, ,
-18, ,31, ,
-17, ,31, ,
-17, ,31, ,
-15, ,31, ,
-14, ,31, ,
-11, ,31, ,
-10, ,31, ,
-9, ,31, ,
-7, ,31, ,
-5, ,31, ,
-4, ,31, ,
-4, ,31, ,
-3, ,31, ,
-3, ,31, ,
-2, ,31, ,
-3, ,31, ,
-3, ,31, ,
-3, ,31, ,
-4, ,31, ,
-4, ,31, ,
-5, ,31, ,
-5, ,31, ,
-6, ,31, ,
-6, ,31, ,
-6, ,31, ,
-7, ,31, ,
-7, ,31, ,
-7, ,31, ,
-7, ,31, ,
-7, ,31, ,
-7, ,31, ,
-6, ,31, ,
-6, ,31, ,
-6, ,31, ,
-7, ,31, ,
-7, ,31, ,
-8, ,31, ,
-9, ,31, ,
-10, ,31, ,
-12, ,31, ,
-13, ,31, ,
-15, ,31, ,
-17, ,31, ,
-17, ,31, ,
-18, ,31, ,
-18, ,31, ,
-17, ,31, ,
-17, ,31, ,
-16, ,31, ,
-15, ,31, ,
-14, ,31, ,
-12, ,31, ,
-11, ,31, ,
-8, ,31, ,
-6, ,31, ,
-5, ,31, ,
-3, ,31, ,
1, ,31, ,
2, ,31, ,
4, ,31, ,
5, ,31, ,
9, ,31, ,
11, ,31, ,
12, ,31, ,
14, ,31, ,
15, ,31, ,
16, ,31, ,
16, ,31, ,
15, ,31, ,
14, ,31, ,
14, ,31, ,
13, ,31, ,
13, ,31, ,
11, ,31, ,
10, ,31, ,
9, ,31, ,
9, ,31, ,
8, ,31, ,
8, ,31, ,
8, ,31, ,
8, ,31, ,
8, ,31, ,
8, ,31, ,
8, ,31, ,
8, ,31, ,
7, ,31, ,
7, ,31, ,
6, ,31, ,
6, ,31, ,
6, ,31, ,
4, ,31, ,
3, ,31, ,
2, ,31, ,
0, ,31, ,
-2, ,31, ,
-3, ,31, ,
-4, ,31, ,
-8, ,31, ,
-9, ,31, ,
-9, ,31, ,
-11, ,31, ,
-13, ,31, ,
-14, ,31, ,
-14, ,31, ,
-14, ,31, ,
-15, ,31, ,
-15, ,31, ,
-15, ,31, ,
-15, ,31, ,
-15, ,31, ,
-15, ,31, ,
-15, ,31, ,
-15, ,31, ,
-16, ,31, ,
-17, ,31, ,
-17, ,31, ,
-18, ,31, ,
-19, ,31, ,
-20, ,31, ,
-22, ,31, ,
-22, ,31, ,
-24, ,31, ,
-25, ,31, ,
-25, ,31, ,
-25, ,31, ,
-26, ,31, ,
-26, ,31, ,
-25, ,31, ,
-25, ,31, ,
-25, ,31, ,
-24, ,31, ,
-22, ,31, ,
-21, ,31, ,
-18, ,31, ,
-16, ,31, ,
-14, ,31, ,
-13, ,31, ,
-10, ,31, ,
-9, ,31, ,
-8, ,31, ,
-7, ,31, ,
-7, ,31, ,
-7, ,31, ,
-8, ,31, ,
-8, ,31, ,
-10, ,31, ,
-10, ,31, ,
-11, ,31, ,
-12, ,31, ,
-12, ,31, ,
-12, ,31, ,
-12, ,31, ,
-12, ,31, ,
-10, ,31, ,
-9, ,31, ,
-8, ,31, ,
-7, ,31, ,
-4, ,31, ,
-1, ,31, ,
0, ,31, ,
1, ,31, ,
5, ,31, ,
5, ,31, ,
8, ,31, ,
9, ,31, ,
12, ,31, ,
13, ,31, ,
14, ,31, ,
15, ,31, ,
16, ,31, ,
16, ,31, ,
16, ,31, ,
15, ,31, ,
13, ,31, ,
12, ,31, ,
11, ,31, ,
10, ,31, ,
6, ,31, ,
3, ,31, ,
1, ,31, ,
-1, ,31, ,
-6, ,31, ,
-7, ,31, ,
-9, ,31, ,
-11, ,31, ,
-13, ,31, ,
-13, ,31, ,
-13, ,31, ,
-13, ,31, ,
-11, ,31, ,
-9, ,31, ,
-8, ,31, ,
-5, ,31, ,
-1, ,31, ,
1, ,31, ,
3, ,31, ,
5, ,31, ,
9, ,31, ,
10, ,31, ,
11, ,31, ,
12, ,31, ,
12, ,31, ,
11, ,31, ,
11, ,31, ,
10, ,31, ,
8, ,31, ,
7, ,31, ,
5, ,31, ,
4, ,31, ,
1, ,31, ,
-1, ,31, ,
-2, ,31, ,
-4, ,31, ,
-6, ,31, ,
-7, ,31, ,
-8, ,31, ,
-8, ,31, ,
-8, ,31, ,
-8, ,31, ,
-8, ,31, ,
-8, ,31, ,
-6, ,31, ,
-6, ,31, ,
-4, ,31, ,
-4, ,31, ,
-2, ,31, ,
-2, ,31, ,
0, ,31, ,
0, ,31, ,
1, ,31, ,
1, ,31, ,
0, ,31, ,
0, ,31, ,
-1, ,31, ,
-2, ,31, ,
-3, ,31, ,
-4, ,31, ,
-6, ,31, ,
-8, ,31, ,
-10, ,31, ,
-11, ,31, ,
-15, ,31, ,
-18, ,31, ,
-19, ,31, ,
-22, ,31, ,
-25, ,31, ,
-25, ,31, ,
-25, ,31, ,
-26, ,31, ,
-25, ,31, ,
-25, ,31, ,
-25, ,31, ,
-25, ,31, ,
-24, ,31, ,
-23, ,31, ,
-22, ,31, ,
-21, ,31, ,
-18, ,31, ,
-17, ,31, ,
-16, ,31, ,
-15, ,31, ,
-13, ,31, ,
-12, ,31, ,
-12, ,31, ,
-10, ,31, ,
-9, ,31, ,
-9, ,31, ,
-8, ,31, ,
-8, ,31, ,
-6, ,31, ,
-6, ,31, ,
-5, ,31, ,
-4, ,31, ,
-2, ,31, ,
-1, ,31, ,
1, ,31, ,
1, ,31, ,
4, ,31, ,
7, ,31, ,
7, ,31, ,
9, ,31, ,
11, ,31, ,
12, ,31, ,
13, ,31, ,
12, ,31, ,
12, ,31, ,
11, ,31, ,
11, ,31, ,
9, ,31, ,
7, ,31, ,
5, ,31, ,
3, ,31, ,
0, ,31, ,
-4, ,31, ,
-6, ,31, ,
-8, ,31, ,
-10, ,31, ,
-13, ,31, ,
-15, ,31, ,
-16, ,31, ,
-17, ,31, ,
-17, ,31, ,
-17, ,31, ,
-17, ,31, ,
-16, ,31, ,
-14, ,31, ,
-15, ,31, ,
-13, ,31, ,
-12, ,31, ,
-9, ,31, ,
-8, ,31, ,
-7, ,31, ,
-5, ,31, ,
-3, ,31, ,
-3, ,31, ,
-1, ,31, ,
-1, ,31, ,
2, ,31, ,
2, ,31, ,
4, ,31, ,
5, ,31, ,
7, ,31, ,
8, ,31, ,
10, ,31, ,
11, ,31, ,
13, ,31, ,
15, ,31, ,
16, ,31, ,
17, ,31, ,
19, ,31, ,
19, ,31, ,
19, ,31, ,
19, ,31, ,
18, ,31, ,
17, ,31, ,
17, ,31, ,
16, ,31, ,
14, ,31, ,
12, ,31, ,
10, ,31, ,
8, ,31, ,
4, ,31, ,
3, ,31, ,
0, ,31, ,
-1, ,31, ,
-5, ,31, ,
-7, ,31, ,
-9, ,31, ,
-11, ,31, ,
-14, ,31, ,
-14, ,31, ,
-16, ,31, ,
-16, ,31, ,
-17, ,31, ,
-17, ,31, ,
-17, ,31, ,
-17, ,31, ,
-15, ,31, ,
-14, ,31, ,
-13, ,31, ,
-11, ,31, ,
-9, ,31, ,
-8, ,31, ,
-6, ,31, ,
-5, ,31, ,
-3, ,31, ,
-2, ,31, ,
-1, ,31, ,
-1, ,31, ,
-1, ,31, ,
-1, ,31, ,
-1, ,31, ,
-2, ,31, ,
-3, ,31, ,
-3, ,31, ,
-4, ,31, ,
-5, ,31, ,
-6, ,31, ,
-7, ,31, ,
-8, ,31, ,
-8, ,31, ,
-8, ,31, ,
-8, ,31, ,
-8, ,31, ,
-7, ,31, ,
-7, ,31, ,
-6, ,31, ,
-5, ,31, ,
-5, ,31, ,
-4, ,31, ,
-2, ,31, ,
-2, ,31, ,
-1, ,31, ,
1, ,31, ,
1, ,31, ,
2, ,31, ,
2, ,31, ,
3, ,31, ,
5, ,31, ,
5, ,31, ,
6, ,31, ,
7, ,31, ,
8, ,31, ,
8, ,31, ,
8, ,31, ,
9, ,31, ,
10, ,31, ,
10, ,31, ,
10, ,31, ,
9, ,31, ,
8, ,31, ,
7, ,31, ,
7, ,31, ,
4, ,31, ,
3, ,31, ,
2, ,31, ,
0, ,31, ,
-3, ,31, ,
-4, ,31, ,
-5, ,31, ,
-6, ,31, ,
-9, ,31, ,
-10, ,31, ,
-11, ,31, ,
-11, ,31, ,
-12, ,31, ,
-12, ,31, ,
-11, ,31, ,
-11, ,31, ,
-11, ,31, ,
-10, ,31, ,
-9, ,31, ,
-8, ,31, ,
-7, ,31, ,
-5, ,31, ,
-4, ,31, ,
-4, ,31, ,
-1, ,31, ,
1, ,31, ,
1, ,31, ,
2, ,31, ,
4, ,31, ,
5, ,31, ,
5, ,31, ,
6, ,31, ,
6, ,31, ,
6, ,31, ,
6, ,31, ,
5, ,31, ,
5, ,31, ,
4, ,31, ,
3, ,31, ,
2, ,31, ,
1, ,31, ,
1, ,31, ,
1, ,31, ,
1, ,31, ,
0, ,31, ,
0, ,31, ,
0, ,31, ,
0, ,31, ,
1, ,31, ,
1, ,31, ,
1, ,31, ,
1, ,31, ,
2, ,31, ,
2, ,31, ,
2, ,31, ,
2, ,31, ,
2, ,31, ,
2, ,31, ,
1, ,31, ,
1, ,31, ,
0, ,31, ,
-1, ,31, ,
-2, ,31, ,
-2, ,31, ,
-3, ,31, ,
-4, ,31, ,
-5, ,31, ,
-5, ,31, ,
-5, ,31, ,
-6, ,31, ,
-6, ,31, ,
-6, ,31, ,
-5, ,31, ,
-4, ,31, ,
-4, ,31, ,
-2, ,31, ,
-1, ,31, ,
0, ,31, ,
0, ,31, ,
1, ,31, ,
2, ,31, ,
2, ,31, ,
2, ,31, ,
2, ,31, ,
1, ,31, ,
0, ,31, ,
0, ,31, ,
-2, ,31, ,
-3, ,31, ,
-4, ,31, ,
-5, ,31, ,
-5, ,31, ,
-7, ,31, ,
-8, ,31, ,
-8, ,31, ,
-9, ,31, ,
-9, ,31, ,
-9, ,31, ,
-9, ,31, ,
-9, ,31, ,
-9, ,31, ,
-8, ,31, ,
-7, ,31, ,
-7, ,31, ,
-5, ,31, ,
-4, ,31, ,
-4, ,31, ,
-2, ,31, ,
0, ,31, ,
0, ,31, ,
2, ,31, ,
3, ,31, ,
5, ,31, ,
7, ,31, ,
7, ,31, ,
9, ,31, ,
10, ,31, ,
10, ,31, ,
11, ,31, ,
10, ,31, ,
9, ,31, ,
9, ,31, ,
8, ,31, ,
7, ,31, ,
5, ,31, ,
3, ,31, ,
2, ,31, ,
0, ,31, ,
-3, ,31, ,
-4, ,31, ,
-6, ,31, ,
-7, ,31, ,
-9, ,31, ,
-10, ,31, ,
-10, ,31, ,
-10, ,31, ,
-10, ,31, ,
-10, ,31, ,
-10, ,31, ,
-9, ,31, ,
-8, ,31, ,
-7, ,31, ,
-6, ,31, ,
-6, ,31, ,
-4, ,31, ,
-4, ,31, ,
-4, ,31, ,
-4, ,31, ,
-4, ,31, ,
-4, ,31, ,
-4, ,31, ,
-4, ,31, ,
-5, ,31, ,
-5, ,31, ,
-5, ,31, ,
-5, ,31, ,
-6, ,31, ,
-6, ,31, ,
-6, ,31, ,
-6, ,31, ,
-5, ,31, ,
-5, ,31, ,
-5, ,31, ,
-4, ,31, ,
-4, ,31, ,
-3, ,31, ,
-2, ,31, ,
-3, ,31, ,
-1, ,31, ,
1, ,31, ,
1, ,31, ,
2, ,31, ,
5, ,31, ,
5, ,31, ,
7, ,31, ,
8, ,31, ,
10, ,31, ,
11, ,31, ,
11, ,31, ,
12, ,31, ,
12, ,31, ,
11, ,31, ,
11, ,31, ,
10, ,31, ,
8, ,31, ,
7, ,31, ,
5, ,31, ,
4, ,31, ,
0, ,31, ,
-2, ,31, ,
-4, ,31, ,
-7, ,31, ,
-11, ,31, ,
-13, ,31, ,
-15, ,31, ,
-17, ,31, ,
-21, ,31, ,
-23, ,31, ,
-24, ,31, ,
-25, ,31, ,
-25, ,31, ,
-25, ,31, ,
-25, ,31, ,
-25, ,31, ,
-22, ,31, ,
-21, ,31, ,
-19, ,31, ,
-17, ,31, ,
-12, ,31, ,
-8, ,31, ,
-6, ,31, ,
-2, ,31, ,
3, ,31, ,
6, ,31, ,
9, ,31, ,
11, ,31, ,
14, ,31, ,
16, ,31, ,
17, ,31, ,
17, ,31, ,
17, ,31, ,
16, ,31, ,
15, ,31, ,
14, ,31, ,
11, ,31, ,
9, ,31, ,
7, ,31, ,
5, ,31, ,
1, ,31, ,
-1, ,31, ,
-2, ,31, ,
-4, ,31, ,
-6, ,31, ,
-6, ,31, ,
-6, ,31, ,
-5, ,31, ,
-4, ,31, ,
-2, ,31, ,
-1, ,31, ,
0, ,31, ,
4, ,31, ,
5, ,31, ,
7, ,31, ,
9, ,31, ,
11, ,31, ,
12, ,31, ,
14, ,31, ,
14, ,31, ,
13, ,31, ,
13, ,31, ,
12, ,31, ,
11, ,31, ,
8, ,31, ,
7, ,31, ,
5, ,31, ,
3, ,31, ,
0, ,31, ,
-2, ,31, ,
-4, ,31, ,
-5, ,31, ,
-8, ,31, ,
-10, ,31, ,
-10, ,31, ,
-11, ,31, ,
-12, ,31, ,
-12, ,31, ,
-12, ,31, ,
-12, ,31, ,
-11, ,31, ,
-11, ,31, ,
-10, ,31, ,
-10, ,31, ,
-9, ,31, ,
-7, ,31, ,
-6, ,31, ,
-5, ,31, ,
-3, ,31, ,
-1, ,31, ,
0, ,31, ,
1, ,31, ,
4, ,31, ,
5, ,31, ,
5, ,31, ,
7, ,31, ,
8, ,31, ,
8, ,31, ,
9, ,31, ,
8, ,31, ,
8, ,31, ,
8, ,31, ,
7, ,31, ,
7, ,31, ,
6, ,31, ,
5, ,31, ,
4, ,31, ,
3, ,31, ,
2, ,31, ,
1, ,31, ,
0, ,31, ,
0, ,31, ,
-2, ,31, ,
-2, ,31, ,
-3, ,31, ,
-4, ,31, ,
-5, ,31, ,
-6, ,31, ,
-6, ,31, ,
-7, ,31, ,
-8, ,31, ,
-9, ,31, ,
-9, ,31, ,
-9, ,31, ,
-9, ,31, ,
-9, ,31, ,
-9, ,31, ,
-9, ,31, ,
-8, ,31, ,
-8, ,31, ,
-6, ,31, ,
-6, ,31, ,
-4, ,31, ,
-2, ,31, ,
-2, ,31, ,
-1, ,31, ,
2, ,31, ,
2, ,31, ,
4, ,31, ,
4, ,31, ,
6, ,31, ,
6, ,31, ,
6, ,31, ,
7, ,31, ,
7, ,31, ,
8, ,31, ,
8, ,31, ,
8, ,31, ,
8, ,31, ,
9, ,31, ,
8, ,31, ,
8, ,31, ,
8, ,31, ,
8, ,31, ,
8, ,31, ,
8, ,31, ,
8, ,31, ,
7, ,31, ,
7, ,31, ,
6, ,31, ,
5, ,31, ,
4, ,31, ,
4, ,31, ,
3, ,31, ,
1, ,31, ,
1, ,31, ,
-1, ,31, ,
-2, ,31, ,
-3, ,31, ,
-4, ,31, ,
-4, ,31, ,
-5, ,31, ,
-5, ,31, ,
-5, ,31, ,
-5, ,31, ,
-4, ,31, ,
-4, ,31, ,
-4, ,31, ,
-3, ,31, ,
-3, ,31, ,
-2, ,31, ,
-2, ,31, ,
-2, ,31, ,
-2, ,31, ,
-2, ,31, ,
-3, ,31, ,
-4, ,31, ,
-4, ,31, ,
-5, ,31, ,
-6, ,31, ,
-6, ,31, ,
-7, ,31, ,
-8, ,31, ,
-8, ,31, ,
-8, ,31, ,
-8, ,31, ,
-8, ,31, ,
-8, ,31, ,
-8, ,31, ,
-8, ,31, ,
-7, ,31, ,
-7, ,31, ,
-7, ,31, ,
-7, ,31, ,
-6, ,31, ,
-5, ,31, ,
-5, ,31, ,
-4, ,31, ,
-2, ,31, ,
-2, ,31, ,
0, ,31, ,
0, ,31, ,
2, ,31, ,
4, ,31, ,
4, ,31, ,
6, ,31, ,
7, ,31, ,
9, ,31, ,
10, ,31, ,
10, ,31, ,
11, ,31, ,
11, ,31, ,
12, ,31, ,
12, ,31, ,
11, ,31, ,
11, ,31, ,
10, ,31, ,
10, ,31, ,
7, ,31, ,
7, ,31, ,
5, ,31, ,
5, ,31, ,
2, ,31, ,
1, ,31, ,
1, ,31, ,
0, ,31, ,
-2, ,31, ,
-2, ,31, ,
-2, ,31, ,
-2, ,31, ,
-2, ,31, ,
-2, ,31, ,
-1, ,31, ,
-1, ,31, ,
-1, ,31, ,
0, ,31, ,
1, ,31, ,
2, ,31, ,
3, ,31, ,
3, ,31, ,
4, ,31, ,
4, ,31, ,
4, ,31, ,
4, ,31, ,
3, ,31, ,
3, ,31, ,
1, ,31, ,
1, ,31, ,
0, ,31, ,
-1, ,31, ,
-2, ,31, ,
-3, ,31, ,
-4, ,31, ,
-4, ,31, ,
-5, ,31, ,
-6, ,31, ,
-6, ,31, ,
-6, ,31, ,
-6, ,31, ,
-6, ,31, ,
-6, ,31, ,
-5, ,31, ,
-5, ,31, ,
-5, ,31, ,
-4, ,31, ,
-3, ,31, ,
-2, ,31, ,
0, ,31, ,
0, ,31, ,
1, ,31, ,
2, ,31, ,
3, ,31, ,
3, ,31, ,
3, ,31, ,
4, ,31, ,
4, ,31, ,
4, ,31, ,
3, ,31, ,
3, ,31, ,
2, ,31, ,
2, ,31, ,
1, ,31, ,
1, ,31, ,
1, ,31, ,
0, ,31, ,
1, ,31, ,
1, ,31, ,
1, ,31, ,
2, ,31, ,
2, ,31, ,
4, ,31, ,
5, ,31, ,
4, ,31, ,
6, ,31, ,
7, ,31, ,
7, ,31, ,
7, ,31, ,
7, ,31, ,
7, ,31, ,
7, ,31, ,
6, ,31, ,
6, ,31, ,
4, ,31, ,
3, ,31, ,
3, ,31, ,
1, ,31, ,
0, ,31, ,
-1, ,31, ,
-2, ,31, ,
-3, ,31, ,
-4, ,31, ,
-5, ,31, ,
-5, ,31, ,
-6, ,31, ,
-6, ,31, ,
-6, ,31, ,
-6, ,31, ,
-6, ,31, ,
-6, ,31, ,
-6, ,31, ,
-6, ,31, ,
-6, ,31, ,
-4, ,31, ,
-3, ,31, ,
-3, ,31, ,
-2, ,31, ,
-1, ,31, ,
0, ,31, ,
1, ,31, ,
1, ,31, ,
2, ,31, ,
3, ,31, ,
2, ,31, ,
2, ,31, ,
1, ,31, ,
1, ,31, ,
0, ,31, ,
0, ,31, ,
-1, ,31, ,
-1, ,31, ,
-2, ,31, ,
-2, ,31, ,
-3, ,31, ,
-3, ,31, ,
-3, ,31, ,
-3, ,31, ,
-3, ,31, ,
-2, ,31, ,
-2, ,31, ,
-1, ,31, ,
0, ,31, ,
1, ,31, ,
2, ,31, ,
3, ,31, ,
5, ,31, ,
6, ,31, ,
6, ,31, ,
8, ,31, ,
9, ,31, ,
9, ,31, ,
10, ,31, ,
10, ,31, ,
9, ,31, ,
9, ,31, ,
8, ,31, ,
8, ,31, ,
5, ,31, ,
4, ,31, ,
3, ,31, ,
1, ,31, ,
-2, ,31, ,
-3, ,31, ,
-5, ,31, ,
-6, ,31, ,
-8, ,31, ,
-8, ,31, ,
-8, ,31, ,
-8, ,31, ,
-8, ,31, ,
-8, ,31, ,
-8, ,31, ,
-7, ,31, ,
-6, ,31, ,
-5, ,31, ,
-4, ,31, ,
-4, ,31, ,
-2, ,31, ,
-1, ,31, ,
-1, ,31, ,
0, ,31, ,
1, ,31, ,
0, ,31, ,
1, ,31, ,
1, ,31, ,
2, ,31, ,
2, ,31, ,
2, ,31, ,
2, ,31, ,
2, ,31, ,
2, ,31, ,
2, ,31, ,
2, ,31, ,
3, ,31, ,
3, ,31, ,
2, ,31, ,
2, ,31, ,
2, ,31, ,
2, ,31, ,
2, ,31, ,
1, ,31, ,
0, ,31, ,
0, ,31, ,
-1, ,31, ,
-1, ,31, ,
-2, ,31, ,
-3, ,31, ,
-3, ,31, ,
-4, ,31, ,
-5, ,31, ,
-5, ,31, ,
-5, ,31, ,
-5, ,31, ,
-5, ,31, ,
-5, ,31, ,
-5, ,31, ,
-5, ,31, ,
-3, ,31, ,
-2, ,31, ,
-2, ,31, ,
0, ,31, ,
2, ,31, ,
3, ,31, ,
4, ,31, ,
4, ,31, ,
7, ,31, ,
8, ,31, ,
9, ,31, ,
9, ,31, ,
9, ,31, ,
8, ,31, ,
8, ,31, ,
7, ,31, ,
5, ,31, ,
5, ,31, ,
3, ,31, ,
3, ,31, ,
-1, ,31, ,
-2, ,31, ,
-3, ,31, ,
-4, ,31, ,
-6, ,31, ,
-6, ,31, ,
-6, ,31, ,
-6, ,31, ,
-6, ,31, ,
-5, ,31, ,
-5, ,31, ,
-4, ,31, ,
-3, ,31, ,
-1, ,31, ,
0, ,31, ,
1, ,31, ,
3, ,31, ,
4, ,31, ,
6, ,31, ,
6, ,31, ,
7, ,31, ,
7, ,31, ,
6, ,31, ,
6, ,31, ,
5, ,31, ,
5, ,31, ,
4, ,31, ,
2, ,31, ,
0, ,31, ,
0, ,31, ,
-1, ,31, ,
-2, ,31, ,
-4, ,31, ,
-5, ,31, ,
-5, ,31, ,
-5, ,31, ,
-5, ,31, ,
-5, ,31, ,
-5, ,31, ,
-5, ,31, ,
-4, ,31, ,
-4, ,31, ,
-3, ,31, ,
-3, ,31, ,
-2, ,31, ,
-1, ,31, ,
0, ,31, ,
0, ,31, ,
1, ,31, ,
1, ,31, ,
2, ,31, ,
2, ,31, ,
3, ,31, ,
