raw_data/75% Glycerol, Impulsion 2Hz, Sonde 5MHz, Rampe 0.7Hz/temp0000336.CSV

Format,1.0B,
Memory Length,10000,Memory Length,10000,
IntpDistance,0,IntpDistance,0,
Trigger Address,159,Trigger Address,159,
Trigger Level,2.720E-01,Trigger Level,2.720E-01,
Source,CH1,Source,CH2,
Vertical Units,V,Vertical Units,V,
Vertical Units Div,0,Vertical Units Div,0,
Vertical Units Extend Div,16,Vertical Units Extend Div,16,
Label,,Label,,
Probe Type,0,Probe Type,0,
Probe Ratio,1.000e+00,Probe Ratio,1.000e+00,
Vertical Scale,5.000e-01,Vertical Scale,2.000e+00,
Vertical Position,0.000e+00,Vertical Position,0.000e+00,
Horizontal Units,S,Horizontal Units,S,
Horizontal Scale,5.000E-06,Horizontal Scale,5.000E-06,
Horizontal Position,2.420E-05,Horizontal Position,2.420E-05,
Horizontal Mode,Main,Horizontal Mode,Main,
SincET Mode,Real Time,SincET Mode,Real Time,
Sampling Period,5.000e-09,Sampling Period,5.000e-09,
Horizontal Old Scale,5.000E-06,Horizontal Old Scale,5.000E-06,
Horizontal Old Position,2.420E-05,Horizontal Old Position,2.420E-05,
Firmware,V1.32,Firmware,V1.32,
Mode,Fast,Mode,Fast,
Waveform Data,,Waveform Data,,
1, ,30, ,
0, ,30, ,
0, ,30, ,
1, ,30, ,
0, ,30, ,
0, ,30, ,
1, ,30, ,
0, ,30, ,
0, ,30, ,
0, ,30, ,
1, ,30, ,
1, ,30, ,
1, ,30, ,
1, ,30, ,
1, ,30, ,
0, ,30, ,
0, ,30, ,
0, ,30, ,
0, ,30, ,
0, ,30, ,
0, ,30, ,
0, ,30, ,
1, ,30, ,
0, ,30, ,
0, ,30, ,
0, ,30, ,
1, ,30, ,
1, ,30, ,
1, ,30, ,
1, ,30, ,
0, ,30, ,
0, ,30, ,
1, ,30, ,
1, ,30, ,
0, ,30, ,
0, ,30, ,
0, ,30, ,
0, ,30, ,
0, ,30, ,
0, ,30, ,
1, ,30, ,
0, ,30, ,
0, ,30, ,
1, ,30, ,
0, ,30, ,
0, ,30, ,
1, ,30, ,
0, ,30, ,
0, ,30, ,
0, ,30, ,
0, ,30, ,
1, ,30, ,
0, ,30, ,
0, ,30, ,
0, ,30, ,
0, ,30, ,
1, ,30, ,
1, ,30, ,
1, ,30, ,
1, ,30, ,
1, ,30, ,
1, ,30, ,
1, ,30, ,
1, ,30, ,
1, ,30, ,
0, ,30, ,
0, ,30, ,
1, ,30, ,
0, ,30, ,
0, ,30, ,
1, ,30, ,
1, ,30, ,
1, ,30, ,
0, ,30, ,
0, ,30, ,
0, ,30, ,
0, ,30, ,
0, ,30, ,
1, ,30, ,
0, ,30, ,
0, ,30, ,
0, ,30, ,
1, ,30, ,
1, ,30, ,
0, ,30, ,
0, ,30, ,
1, ,30, ,
1, ,30, ,
1, ,30, ,
1, ,30, ,
0, ,30, ,
0, ,30, ,
0, ,30, ,
0, ,30, ,
0, ,30, ,
0, ,30, ,
0, ,30, ,
0, ,30, ,
0, ,30, ,
1, ,30, ,
0, ,30, ,
0, ,30, ,
0, ,30, ,
0, ,30, ,
0, ,30, ,
0, ,30, ,
0, ,30, ,
0, ,30, ,
0, ,30, ,
0, ,30, ,
1, ,30, ,
0, ,30, ,
0, ,30, ,
0, ,30, ,
1, ,30, ,
1, ,30, ,
0, ,30, ,
0, ,30, ,
0, ,30, ,
0, ,30, ,
1, ,30, ,
1, ,30, ,
0, ,30, ,
0, ,30, ,
0, ,30, ,
1, ,30, ,
0, ,30, ,
0, ,30, ,
1, ,30, ,
0, ,30, ,
0, ,30, ,
0, ,30, ,
0, ,30, ,
1, ,30, ,
0, ,30, ,
0, ,30, ,
0, ,30, ,
0, ,30, ,
0, ,30, ,
0, ,30, ,
0, ,30, ,
0, ,30, ,
1, ,30, ,
1, ,30, ,
1, ,30, ,
0, ,30, ,
0, ,30, ,
0, ,30, ,
0, ,30, ,
0, ,30, ,
0, ,30, ,
0, ,30, ,
1, ,30, ,
0, ,30, ,
0, ,30, ,
0, ,30, ,
0, ,30, ,
0, ,30, ,
0, ,30, ,
0, ,30, ,
1, ,30, ,
1, ,30, ,
0, ,30, ,
0, ,30, ,
0, ,30, ,
-1, ,30, ,
-2, ,30, ,
3, ,30, ,
21, ,30, ,
51, ,30, ,
125, ,30, ,
124, ,30, ,
121, ,30, ,
91, ,30, ,
-6, ,30, ,
11, ,30, ,
63, ,30, ,
114, ,30, ,
125, ,30, ,
125, ,30, ,
125, ,30, ,
125, ,30, ,
125, ,30, ,
124, ,30, ,
124, ,30, ,
120, ,30, ,
109, ,30, ,
106, ,30, ,
102, ,29, ,
100, ,29, ,
93, ,30, ,
89, ,30, ,
86, ,30, ,
82, ,30, ,
75, ,30, ,
74, ,30, ,
71, ,30, ,
68, ,30, ,
63, ,30, ,
60, ,30, ,
58, ,30, ,
55, ,30, ,
51, ,30, ,
49, ,30, ,
46, ,30, ,
44, ,30, ,
41, ,30, ,
39, ,30, ,
38, ,30, ,
36, ,30, ,
33, ,30, ,
31, ,30, ,
29, ,30, ,
28, ,30, ,
26, ,30, ,
25, ,30, ,
25, ,30, ,
23, ,30, ,
21, ,30, ,
21, ,30, ,
19, ,30, ,
18, ,30, ,
17, ,30, ,
15, ,30, ,
15, ,30, ,
14, ,30, ,
12, ,30, ,
12, ,30, ,
11, ,30, ,
11, ,30, ,
10, ,30, ,
9, ,30, ,
9, ,30, ,
8, ,30, ,
7, ,30, ,
7, ,30, ,
6, ,30, ,
6, ,30, ,
5, ,30, ,
5, ,30, ,
5, ,30, ,
4, ,30, ,
3, ,30, ,
3, ,30, ,
3, ,30, ,
3, ,30, ,
2, ,30, ,
2, ,30, ,
2, ,30, ,
2, ,30, ,
1, ,30, ,
1, ,30, ,
1, ,30, ,
1, ,30, ,
1, ,30, ,
0, ,30, ,
0, ,30, ,
0, ,30, ,
0, ,30, ,
0, ,30, ,
-1, ,30, ,
-1, ,30, ,
0, ,30, ,
-1, ,30, ,
-1, ,30, ,
-1, ,30, ,
-1, ,30, ,
-1, ,30, ,
-1, ,30, ,
-1, ,30, ,
-1, ,30, ,
-1, ,30, ,
-1, ,30, ,
-1, ,30, ,
-1, ,30, ,
-1, ,30, ,
-1, ,30, ,
-1, ,30, ,
-1, ,30, ,
-1, ,30, ,
-1, ,30, ,
-1, ,30, ,
-1, ,30, ,
-1, ,30, ,
-1, ,30, ,
-1, ,30, ,
-1, ,30, ,
-1, ,30, ,
-1, ,30, ,
-1, ,30, ,
-1, ,30, ,
-2, ,30, ,
-2, ,30, ,
-2, ,30, ,
-1, ,30, ,
-1, ,30, ,
-1, ,30, ,
-1, ,30, ,
-1, ,30, ,
-1, ,30, ,
-1, ,30, ,
-1, ,30, ,
-1, ,30, ,
-1, ,30, ,
-1, ,30, ,
-1, ,30, ,
-1, ,30, ,
-1, ,30, ,
-1, ,30, ,
-1, ,30, ,
-1, ,30, ,
-1, ,30, ,
-1, ,30, ,
-1, ,30, ,
-1, ,30, ,
-1, ,30, ,
-1, ,30, ,
-1, ,30, ,
0, ,30, ,
-1, ,30, ,
-1, ,30, ,
-1, ,30, ,
0, ,30, ,
0, ,30, ,
0, ,30, ,
0, ,30, ,
0, ,30, ,
0, ,30, ,
0, ,30, ,
0, ,30, ,
0, ,30, ,
0, ,30, ,
-1, ,30, ,
-1, ,30, ,
-1, ,30, ,
-1, ,30, ,
-1, ,30, ,
0, ,30, ,
-1, ,30, ,
0, ,30, ,
0, ,30, ,
0, ,30, ,
0, ,30, ,
0, ,30, ,
0, ,30, ,
0, ,30, ,
0, ,30, ,
0, ,30, ,
0, ,30, ,
0, ,30, ,
-1, ,30, ,
-1, ,30, ,
0, ,30, ,
0, ,30, ,
0, ,30, ,
0, ,30, ,
0, ,30, ,
0, ,30, ,
0, ,30, ,
0, ,30, ,
0, ,30, ,
0, ,30, ,
0, ,30, ,
0, ,30, ,
0, ,30, ,
0, ,30, ,
0, ,30, ,
0, ,30, ,
0, ,30, ,
0, ,30, ,
0, ,30, ,
0, ,30, ,
0, ,30, ,
0, ,30, ,
0, ,30, ,
0, ,30, ,
0, ,30, ,
0, ,30, ,
0, ,30, ,
0, ,30, ,
0, ,30, ,
0, ,30, ,
0, ,30, ,
0, ,30, ,
0, ,30, ,
0, ,30, ,
0, ,30, ,
0, ,30, ,
0, ,30, ,
0, ,30, ,
0, ,30, ,
0, ,30, ,
0, ,30, ,
0, ,30, ,
1, ,30, ,
1, ,30, ,
0, ,30, ,
0, ,30, ,
1, ,30, ,
1, ,30, ,
1, ,30, ,
1, ,30, ,
1, ,30, ,
1, ,30, ,
0, ,30, ,
0, ,30, ,
0, ,30, ,
0, ,30, ,
0, ,30, ,
0, ,30, ,
0, ,30, ,
0, ,30, ,
0, ,30, ,
0, ,30, ,
0, ,30, ,
0, ,30, ,
1, ,30, ,
0, ,30, ,
0, ,30, ,
1, ,30, ,
0, ,30, ,
0, ,30, ,
0, ,30, ,
0, ,30, ,
0, ,30, ,
0, ,30, ,
0, ,30, ,
0, ,30, ,
0, ,30, ,
0, ,30, ,
0, ,30, ,
0, ,30, ,
0, ,30, ,
0, ,30, ,
-1, ,30, ,
-1, ,30, ,
-1, ,30, ,
-1, ,30, ,
-2, ,30, ,
-4, ,30, ,
-4, ,30, ,
-6, ,30, ,
-10, ,30, ,
-12, ,30, ,
-13, ,30, ,
-13, ,30, ,
-12, ,30, ,
-9, ,30, ,
-7, ,30, ,
-5, ,30, ,
-2, ,30, ,
0, ,30, ,
1, ,30, ,
2, ,30, ,
3, ,30, ,
3, ,30, ,
3, ,30, ,
3, ,30, ,
3, ,30, ,
3, ,30, ,
3, ,30, ,
3, ,30, ,
2, ,30, ,
1, ,30, ,
1, ,30, ,
0, ,30, ,
-1, ,30, ,
-1, ,30, ,
-1, ,30, ,
-1, ,30, ,
0, ,30, ,
1, ,30, ,
1, ,30, ,
1, ,30, ,
2, ,30, ,
2, ,30, ,
2, ,30, ,
2, ,30, ,
3, ,30, ,
3, ,30, ,
3, ,30, ,
2, ,30, ,
2, ,30, ,
2, ,30, ,
2, ,30, ,
2, ,30, ,
1, ,30, ,
1, ,30, ,
1, ,30, ,
1, ,30, ,
1, ,30, ,
1, ,30, ,
1, ,30, ,
1, ,30, ,
1, ,30, ,
1, ,30, ,
1, ,30, ,
1, ,30, ,
0, ,30, ,
0, ,30, ,
-1, ,30, ,
-1, ,30, ,
-1, ,30, ,
-2, ,30, ,
-2, ,30, ,
-2, ,30, ,
-1, ,30, ,
-1, ,30, ,
-1, ,30, ,
-1, ,30, ,
0, ,30, ,
0, ,30, ,
1, ,30, ,
1, ,30, ,
1, ,30, ,
1, ,30, ,
1, ,30, ,
1, ,30, ,
1, ,30, ,
0, ,30, ,
0, ,30, ,
-2, ,30, ,
-3, ,30, ,
-4, ,30, ,
-5, ,30, ,
-7, ,30, ,
-8, ,30, ,
-9, ,30, ,
-10, ,30, ,
-10, ,30, ,
-10, ,30, ,
-8, ,30, ,
-8, ,30, ,
-8, ,30, ,
-6, ,30, ,
-6, ,30, ,
-5, ,30, ,
-5, ,30, ,
-6, ,30, ,
-6, ,30, ,
-7, ,30, ,
-7, ,30, ,
-10, ,30, ,
-12, ,30, ,
-13, ,30, ,
-15, ,30, ,
-18, ,30, ,
-20, ,30, ,
-21, ,30, ,
-21, ,30, ,
-23, ,30, ,
-24, ,30, ,
-25, ,30, ,
-25, ,30, ,
-28, ,30, ,
-30, ,30, ,
-33, ,30, ,
-36, ,30, ,
-41, ,30, ,
-46, ,30, ,
-48, ,30, ,
-51, ,30, ,
-54, ,30, ,
-55, ,30, ,
-55, ,30, ,
-54, ,30, ,
-51, ,30, ,
-49, ,30, ,
-45, ,30, ,
-42, ,30, ,
-33, ,30, ,
-29, ,30, ,
-25, ,30, ,
-21, ,30, ,
-12, ,30, ,
-9, ,30, ,
-6, ,30, ,
-2, ,30, ,
4, ,30, ,
6, ,30, ,
9, ,30, ,
11, ,30, ,
16, ,30, ,
16, ,30, ,
19, ,30, ,
21, ,30, ,
23, ,30, ,
24, ,30, ,
24, ,30, ,
24, ,30, ,
23, ,30, ,
23, ,30, ,
22, ,30, ,
20, ,30, ,
18, ,30, ,
16, ,30, ,
14, ,30, ,
13, ,30, ,
8, ,30, ,
6, ,30, ,
4, ,30, ,
2, ,30, ,
-1, ,30, ,
-1, ,30, ,
-2, ,30, ,
-2, ,30, ,
-2, ,30, ,
-2, ,30, ,
-2, ,30, ,
-2, ,30, ,
0, ,30, ,
1, ,30, ,
1, ,30, ,
2, ,30, ,
4, ,30, ,
4, ,30, ,
5, ,30, ,
5, ,30, ,
6, ,30, ,
7, ,30, ,
7, ,30, ,
8, ,30, ,
8, ,30, ,
8, ,30, ,
8, ,30, ,
8, ,30, ,
7, ,29, ,
7, ,29, ,
6, ,30, ,
6, ,30, ,
4, ,30, ,
3, ,30, ,
3, ,30, ,
1, ,30, ,
-2, ,30, ,
-4, ,30, ,
-6, ,30, ,
-8, ,30, ,
-12, ,30, ,
-15, ,30, ,
-18, ,30, ,
-20, ,30, ,
-23, ,30, ,
-24, ,30, ,
-24, ,30, ,
-24, ,30, ,
-23, ,30, ,
-23, ,30, ,
-22, ,30, ,
-21, ,30, ,
-18, ,30, ,
-16, ,30, ,
-16, ,30, ,
-15, ,30, ,
-15, ,30, ,
-16, ,30, ,
-16, ,30, ,
-17, ,30, ,
-18, ,30, ,
-20, ,30, ,
-22, ,30, ,
-22, ,30, ,
-25, ,30, ,
-25, ,30, ,
-26, ,30, ,
-27, ,30, ,
-27, ,30, ,
-27, ,30, ,
-27, ,30, ,
-27, ,30, ,
-25, ,30, ,
-25, ,30, ,
-25, ,30, ,
-22, ,30, ,
-18, ,30, ,
-15, ,30, ,
-13, ,30, ,
-10, ,30, ,
-3, ,30, ,
-1, ,30, ,
2, ,30, ,
4, ,30, ,
9, ,30, ,
11, ,30, ,
11, ,30, ,
13, ,30, ,
14, ,30, ,
15, ,30, ,
15, ,30, ,
13, ,30, ,
12, ,30, ,
11, ,30, ,
10, ,30, ,
10, ,30, ,
6, ,30, ,
3, ,30, ,
2, ,30, ,
0, ,30, ,
-5, ,30, ,
-7, ,30, ,
-9, ,30, ,
-12, ,30, ,
-13, ,30, ,
-14, ,30, ,
-14, ,30, ,
-14, ,30, ,
-13, ,30, ,
-12, ,30, ,
-11, ,30, ,
-9, ,30, ,
-7, ,30, ,
-6, ,30, ,
-5, ,30, ,
-4, ,30, ,
-2, ,30, ,
-2, ,30, ,
-2, ,30, ,
-1, ,30, ,
-1, ,30, ,
-2, ,30, ,
-2, ,30, ,
-2, ,30, ,
-2, ,30, ,
-1, ,30, ,
-1, ,30, ,
0, ,30, ,
1, ,30, ,
1, ,30, ,
3, ,30, ,
4, ,30, ,
6, ,30, ,
6, ,30, ,
8, ,30, ,
9, ,30, ,
11, ,30, ,
12, ,30, ,
13, ,30, ,
13, ,30, ,
13, ,30, ,
13, ,30, ,
12, ,30, ,
12, ,30, ,
11, ,30, ,
10, ,30, ,
9, ,30, ,
7, ,30, ,
6, ,30, ,
4, ,30, ,
3, ,30, ,
2, ,30, ,
0, ,30, ,
-1, ,30, ,
-2, ,30, ,
-2, ,30, ,
-3, ,30, ,
-4, ,30, ,
-4, ,30, ,
-4, ,30, ,
-5, ,30, ,
-6, ,30, ,
-6, ,30, ,
-6, ,30, ,
-8, ,30, ,
-8, ,30, ,
-9, ,30, ,
-9, ,30, ,
-10, ,30, ,
-11, ,30, ,
-13, ,30, ,
-14, ,30, ,
-16, ,30, ,
-16, ,30, ,
-19, ,30, ,
-19, ,30, ,
-22, ,30, ,
-24, ,30, ,
-24, ,30, ,
-25, ,30, ,
-27, ,30, ,
-28, ,30, ,
-29, ,30, ,
-30, ,30, ,
-30, ,30, ,
-30, ,30, ,
-30, ,30, ,
-30, ,30, ,
-28, ,30, ,
-27, ,30, ,
-26, ,30, ,
-25, ,30, ,
-22, ,30, ,
-20, ,30, ,
-18, ,30, ,
-16, ,30, ,
-13, ,30, ,
-10, ,30, ,
-8, ,30, ,
-7, ,30, ,
-4, ,30, ,
-4, ,30, ,
-3, ,30, ,
-3, ,30, ,
-3, ,30, ,
-3, ,30, ,
-5, ,30, ,
-6, ,30, ,
-8, ,30, ,
-9, ,30, ,
-9, ,30, ,
-11, ,30, ,
-12, ,30, ,
-12, ,30, ,
-12, ,30, ,
-12, ,30, ,
-12, ,30, ,
-12, ,30, ,
-11, ,30, ,
-11, ,30, ,
-10, ,30, ,
-9, ,30, ,
-8, ,30, ,
-7, ,30, ,
-5, ,30, ,
-4, ,30, ,
-2, ,30, ,
0, ,30, ,
2, ,30, ,
4, ,30, ,
6, ,30, ,
7, ,30, ,
9, ,30, ,
10, ,30, ,
11, ,30, ,
12, ,30, ,
12, ,30, ,
12, ,30, ,
11, ,30, ,
11, ,30, ,
10, ,30, ,
9, ,30, ,
9, ,30, ,
8, ,30, ,
8, ,30, ,
8, ,30, ,
7, ,30, ,
8, ,30, ,
8, ,30, ,
8, ,30, ,
9, ,30, ,
9, ,30, ,
10, ,30, ,
10, ,30, ,
10, ,30, ,
10, ,30, ,
10, ,30, ,
9, ,30, ,
9, ,30, ,
8, ,30, ,
7, ,30, ,
6, ,30, ,
5, ,30, ,
4, ,30, ,
2, ,30, ,
1, ,30, ,
1, ,30, ,
0, ,30, ,
-1, ,30, ,
-1, ,30, ,
-2, ,30, ,
-2, ,30, ,
-3, ,30, ,
-3, ,30, ,
-3, ,30, ,
-4, ,30, ,
-5, ,30, ,
-5, ,30, ,
-6, ,30, ,
-7, ,30, ,
-9, ,30, ,
-10, ,30, ,
-11, ,30, ,
-11, ,30, ,
-14, ,30, ,
-15, ,30, ,
-17, ,30, ,
-17, ,30, ,
-19, ,30, ,
-20, ,30, ,
-20, ,30, ,
-22, ,30, ,
-23, ,30, ,
-23, ,30, ,
-24, ,30, ,
-25, ,30, ,
-24, ,30, ,
-25, ,30, ,
-24, ,30, ,
-25, ,30, ,
-23, ,30, ,
-23, ,30, ,
-22, ,30, ,
-21, ,30, ,
-18, ,30, ,
-16, ,30, ,
-14, ,30, ,
-13, ,30, ,
-9, ,30, ,
-7, ,30, ,
-5, ,30, ,
-2, ,30, ,
1, ,30, ,
2, ,30, ,
3, ,30, ,
3, ,30, ,
4, ,30, ,
4, ,30, ,
3, ,30, ,
3, ,30, ,
2, ,30, ,
0, ,30, ,
0, ,30, ,
-1, ,30, ,
-3, ,30, ,
-4, ,30, ,
-6, ,30, ,
-6, ,30, ,
-6, ,30, ,
-7, ,30, ,
-7, ,30, ,
-8, ,30, ,
-8, ,30, ,
-8, ,30, ,
-8, ,30, ,
-8, ,30, ,
-8, ,30, ,
-8, ,30, ,
-8, ,30, ,
-8, ,30, ,
-8, ,30, ,
-8, ,30, ,
-8, ,30, ,
-8, ,30, ,
-8, ,30, ,
-8, ,30, ,
-8, ,30, ,
-8, ,30, ,
-7, ,30, ,
-7, ,30, ,
-7, ,30, ,
-6, ,30, ,
-5, ,30, ,
-5, ,30, ,
-4, ,30, ,
-4, ,30, ,
-2, ,29, ,
-2, ,29, ,
-1, ,30, ,
-1, ,30, ,
0, ,30, ,
0, ,30, ,
0, ,30, ,
0, ,30, ,
0, ,30, ,
0, ,30, ,
0, ,30, ,
0, ,30, ,
0, ,30, ,
0, ,30, ,
0, ,30, ,
0, ,30, ,
0, ,30, ,
0, ,30, ,
0, ,30, ,
0, ,30, ,
0, ,30, ,
0, ,30, ,
0, ,30, ,
0, ,30, ,
0, ,30, ,
0, ,30, ,
0, ,30, ,
0, ,30, ,
1, ,30, ,
1, ,30, ,
1, ,30, ,
1, ,30, ,
1, ,30, ,
2, ,30, ,
2, ,30, ,
2, ,30, ,
2, ,30, ,
2, ,30, ,
2, ,30, ,
1, ,30, ,
1, ,30, ,
1, ,30, ,
0, ,30, ,
0, ,30, ,
-1, ,30, ,
-1, ,30, ,
-1, ,30, ,
-1, ,30, ,
-2, ,30, ,
-2, ,30, ,
-2, ,30, ,
-1, ,30, ,
-1, ,30, ,
-1, ,30, ,
0, ,30, ,
0, ,30, ,
0, ,30, ,
1, ,30, ,
1, ,30, ,
2, ,30, ,
3, ,30, ,
3, ,30, ,
3, ,30, ,
3, ,30, ,
3, ,30, ,
3, ,30, ,
2, ,30, ,
1, ,30, ,
0, ,30, ,
-1, ,30, ,
-2, ,30, ,
-3, ,30, ,
-5, ,30, ,
-6, ,30, ,
-7, ,30, ,
-8, ,30, ,
-9, ,30, ,
-9, ,30, ,
-9, ,30, ,
-9, ,30, ,
-9, ,30, ,
-8, ,30, ,
-8, ,30, ,
-7, ,30, ,
-6, ,30, ,
-6, ,30, ,
-5, ,30, ,
-5, ,30, ,
-5, ,30, ,
-5, ,30, ,
-5, ,30, ,
-5, ,30, ,
-6, ,30, ,
-6, ,30, ,
-6, ,30, ,
-6, ,30, ,
-7, ,30, ,
-7, ,30, ,
-7, ,30, ,
-6, ,30, ,
-5, ,30, ,
-4, ,30, ,
-3, ,30, ,
-3, ,30, ,
0, ,30, ,
1, ,30, ,
2, ,30, ,
3, ,30, ,
4, ,30, ,
4, ,30, ,
6, ,30, ,
6, ,30, ,
5, ,30, ,
5, ,30, ,
4, ,29, ,
3, ,29, ,
2, ,29, ,
0, ,30, ,
0, ,30, ,
-3, ,30, ,
-4, ,30, ,
-5, ,30, ,
-6, ,30, ,
-6, ,30, ,
-7, ,30, ,
-7, ,30, ,
-6, ,30, ,
-6, ,30, ,
-5, ,30, ,
-3, ,30, ,
-3, ,30, ,
-2, ,30, ,
1, ,30, ,
2, ,30, ,
4, ,30, ,
4, ,30, ,
6, ,30, ,
7, ,30, ,
7, ,30, ,
7, ,30, ,
7, ,30, ,
6, ,30, ,
6, ,30, ,
5, ,30, ,
3, ,30, ,
2, ,30, ,
1, ,30, ,
0, ,30, ,
-3, ,30, ,
-4, ,30, ,
-5, ,30, ,
-6, ,30, ,
-7, ,30, ,
-7, ,30, ,
-7, ,30, ,
-7, ,30, ,
-7, ,30, ,
-7, ,30, ,
-6, ,30, ,
-6, ,30, ,
-5, ,30, ,
-4, ,30, ,
-4, ,30, ,
-3, ,30, ,
-2, ,30, ,
-2, ,30, ,
-1, ,30, ,
-2, ,30, ,
-1, ,30, ,
-1, ,30, ,
-1, ,30, ,
-1, ,30, ,
-2, ,30, ,
-2, ,30, ,
-2, ,30, ,
-2, ,30, ,
-3, ,30, ,
-3, ,30, ,
-3, ,30, ,
-3, ,30, ,
-3, ,30, ,
-3, ,30, ,
-3, ,30, ,
-3, ,30, ,
-2, ,30, ,
-1, ,30, ,
-1, ,30, ,
0, ,30, ,
1, ,30, ,
1, ,30, ,
2, ,30, ,
2, ,30, ,
4, ,30, ,
4, ,30, ,
5, ,30, ,
5, ,30, ,
6, ,30, ,
6, ,30, ,
6, ,30, ,
6, ,30, ,
5, ,30, ,
5, ,30, ,
5, ,30, ,
4, ,30, ,
3, ,30, ,
2, ,30, ,
2, ,30, ,
1, ,30, ,
1, ,30, ,
1, ,30, ,
-1, ,30, ,
-1, ,30, ,
-2, ,30, ,
-3, ,30, ,
-3, ,30, ,
-3, ,30, ,
-4, ,30, ,
-4, ,30, ,
-4, ,30, ,
-4, ,30, ,
-5, ,30, ,
-5, ,30, ,
-5, ,30, ,
-6, ,30, ,
-6, ,30, ,
-6, ,30, ,
-6, ,30, ,
-6, ,30, ,
-6, ,30, ,
-7, ,30, ,
-7, ,30, ,
-7, ,30, ,
-7, ,30, ,
-7, ,30, ,
-7, ,30, ,
-6, ,30, ,
-6, ,30, ,
-6, ,30, ,
-5, ,30, ,
-5, ,30, ,
-5, ,30, ,
-4, ,30, ,
-4, ,30, ,
-3, ,30, ,
-2, ,30, ,
-2, ,30, ,
-1, ,30, ,
-1, ,30, ,
-1, ,30, ,
-1, ,30, ,
-1, ,30, ,
-1, ,30, ,
-1, ,30, ,
-1, ,30, ,
-2, ,30, ,
-2, ,30, ,
-2, ,30, ,
-2, ,30, ,
-2, ,30, ,
-2, ,30, ,
-3, ,30, ,
-3, ,30, ,
-3, ,30, ,
-4, ,30, ,
-4, ,30, ,
-4, ,30, ,
-5, ,30, ,
-5, ,30, ,
-5, ,30, ,
-5, ,30, ,
-5, ,30, ,
-5, ,30, ,
-5, ,30, ,
-5, ,30, ,
-5, ,30, ,
-5, ,30, ,
-3, ,30, ,
-3, ,30, ,
-2, ,30, ,
-1, ,30, ,
0, ,30, ,
1, ,30, ,
2, ,30, ,
3, ,30, ,
5, ,30, ,
6, ,30, ,
7, ,30, ,
7, ,30, ,
8, ,30, ,
9, ,30, ,
8, ,30, ,
8, ,30, ,
7, ,30, ,
6, ,30, ,
5, ,30, ,
4, ,30, ,
1, ,30, ,
0, ,30, ,
-2, ,30, ,
-3, ,30, ,
-7, ,30, ,
-9, ,30, ,
-11, ,30, ,
-13, ,30, ,
-15, ,30, ,
-16, ,30, ,
-16, ,30, ,
-15, ,30, ,
-15, ,30, ,
-14, ,30, ,
-13, ,30, ,
-13, ,30, ,
-9, ,30, ,
-8, ,30, ,
-6, ,30, ,
-4, ,30, ,
-2, ,30, ,
-1, ,30, ,
0, ,30, ,
0, ,30, ,
0, ,30, ,
0, ,30, ,
-1, ,30, ,
-1, ,30, ,
-2, ,30, ,
-4, ,30, ,
-4, ,30, ,
-5, ,30, ,
-5, ,30, ,
-5, ,30, ,
-5, ,30, ,
-4, ,30, ,
-3, ,30, ,
-2, ,30, ,
-2, ,30, ,
-1, ,30, ,
1, ,30, ,
3, ,30, ,
3, ,30, ,
5, ,30, ,
7, ,30, ,
7, ,30, ,
7, ,30, ,
8, ,30, ,
7, ,30, ,
7, ,30, ,
6, ,30, ,
5, ,30, ,
3, ,30, ,
2, ,30, ,
1, ,29, ,
0, ,29, ,
-3, ,29, ,
-3, ,30, ,
-5, ,30, ,
-6, ,30, ,
-6, ,30, ,
-6, ,30, ,
-6, ,30, ,
-6, ,30, ,
-5, ,30, ,
-5, ,30, ,
-4, ,30, ,
-3, ,30, ,
-1, ,30, ,
0, ,30, ,
1, ,30, ,
1, ,30, ,
3, ,30, ,
4, ,30, ,
4, ,30, ,
5, ,30, ,
5, ,30, ,
4, ,30, ,
4, ,30, ,
3, ,30, ,
2, ,30, ,
1, ,30, ,
0, ,30, ,
0, ,30, ,
-2, ,30, ,
-3, ,30, ,
-3, ,30, ,
-5, ,30, ,
-5, ,30, ,
-5, ,30, ,
-5, ,30, ,
-5, ,30, ,
-3, ,30, ,
-3, ,30, ,
-2, ,30, ,
-1, ,30, ,
1, ,30, ,
3, ,30, ,
4, ,30, ,
6, ,30, ,
9, ,30, ,
10, ,30, ,
11, ,30, ,
12, ,30, ,
13, ,30, ,
13, ,30, ,
13, ,30, ,
13, ,30, ,
11, ,30, ,
10, ,30, ,
9, ,30, ,
7, ,30, ,
4, ,30, ,
3, ,30, ,
1, ,30, ,
-1, ,30, ,
-4, ,30, ,
-6, ,30, ,
-6, ,30, ,
-7, ,30, ,
-9, ,30, ,
-8, ,30, ,
-8, ,30, ,
-8, ,30, ,
-8, ,30, ,
-7, ,30, ,
-6, ,30, ,
-5, ,30, ,
-4, ,30, ,
-3, ,30, ,
-2, ,30, ,
-1, ,30, ,
-1, ,30, ,
-1, ,30, ,
-1, ,30, ,
-1, ,30, ,
-1, ,30, ,
-1, ,30, ,
-2, ,30, ,
-2, ,30, ,
-3, ,30, ,
-4, ,30, ,
-5, ,30, ,
-5, ,30, ,
-7, ,30, ,
-7, ,30, ,
-8, ,30, ,
-8, ,30, ,
-9, ,30, ,
-9, ,30, ,
-9, ,30, ,
-9, ,30, ,
-8, ,30, ,
-8, ,30, ,
-8, ,30, ,
-7, ,30, ,
-6, ,30, ,
-5, ,30, ,
-4, ,30, ,
-3, ,30, ,
-1, ,30, ,
0, ,30, ,
2, ,30, ,
3, ,30, ,
6, ,30, ,
7, ,30, ,
8, ,30, ,
8, ,30, ,
10, ,30, ,
11, ,30, ,
11, ,30, ,
11, ,30, ,
11, ,30, ,
11, ,30, ,
11, ,30, ,
10, ,30, ,
9, ,30, ,
8, ,30, ,
8, ,30, ,
7, ,30, ,
6, ,30, ,
4, ,30, ,
4, ,30, ,
3, ,30, ,
1, ,30, ,
1, ,30, ,
0, ,30, ,
0, ,30, ,
-1, ,30, ,
-2, ,30, ,
-2, ,30, ,
-3, ,30, ,
-3, ,30, ,
-2, ,30, ,
-3, ,30, ,
-3, ,30, ,
-3, ,30, ,
-3, ,30, ,
-3, ,30, ,
-3, ,30, ,
-2, ,30, ,
-2, ,30, ,
-3, ,30, ,
-3, ,30, ,
-3, ,30, ,
-4, ,30, ,
-4, ,30, ,
-5, ,30, ,
-6, ,30, ,
-6, ,30, ,
-7, ,30, ,
-8, ,30, ,
-9, ,30, ,
-10, ,30, ,
-11, ,30, ,
-12, ,30, ,
-13, ,30, ,
-13, ,30, ,
-13, ,30, ,
-13, ,30, ,
-11, ,30, ,
-11, ,30, ,
-10, ,30, ,
-9, ,30, ,
-6, ,30, ,
-4, ,30, ,
-3, ,30, ,
-1, ,30, ,
2, ,30, ,
4, ,30, ,
6, ,30, ,
7, ,30, ,
10, ,30, ,
11, ,30, ,
11, ,30, ,
12, ,30, ,
12, ,30, ,
12, ,30, ,
12, ,30, ,
11, ,30, ,
9, ,30, ,
9, ,30, ,
8, ,30, ,
7, ,30, ,
5, ,30, ,
5, ,30, ,
5, ,30, ,
4, ,30, ,
3, ,30, ,
3, ,30, ,
2, ,30, ,
2, ,30, ,
1, ,30, ,
1, ,30, ,
1, ,30, ,
1, ,30, ,
0, ,30, ,
0, ,30, ,
-1, ,30, ,
-1, ,30, ,
-2, ,30, ,
-2, ,30, ,
-2, ,30, ,
-2, ,30, ,
-2, ,30, ,
-2, ,30, ,
-2, ,30, ,
-1, ,30, ,
-1, ,30, ,
-1, ,30, ,
0, ,30, ,
0, ,30, ,
1, ,30, ,
1, ,30, ,
1, ,30, ,
1, ,30, ,
1, ,30, ,
1, ,30, ,
1, ,30, ,
0, ,30, ,
1, ,30, ,
1, ,30, ,
0, ,30, ,
0, ,30, ,
0, ,30, ,
0, ,30, ,
0, ,30, ,
-1, ,30, ,
-1, ,30, ,
-1, ,30, ,
-1, ,30, ,
-1, ,30, ,
-1, ,30, ,
-1, ,30, ,
-1, ,30, ,
-2, ,30, ,
-2, ,30, ,
-1, ,30, ,
-1, ,30, ,
0, ,30, ,
0, ,30, ,
0, ,30, ,
0, ,30, ,
0, ,30, ,
1, ,30, ,
1, ,30, ,
1, ,30, ,
1, ,30, ,
2, ,30, ,
2, ,30, ,
2, ,30, ,
2, ,30, ,
1, ,30, ,
1, ,30, ,
1, ,30, ,
1, ,30, ,
0, ,30, ,
-1, ,30, ,
-1, ,30, ,
-2, ,30, ,
-3, ,30, ,
-3, ,30, ,
-4, ,30, ,
-4, ,30, ,
-4, ,30, ,
-5, ,30, ,
-5, ,30, ,
-5, ,30, ,
-6, ,30, ,
-6, ,30, ,
-6, ,30, ,
-5, ,30, ,
-5, ,30, ,
-4, ,30, ,
-4, ,30, ,
-4, ,30, ,
-3, ,30, ,
-1, ,30, ,
0, ,30, ,
1, ,30, ,
3, ,30, ,
3, ,30, ,
5, ,30, ,
6, ,30, ,
8, ,30, ,
9, ,30, ,
8, ,30, ,
9, ,30, ,
10, ,30, ,
9, ,30, ,
9, ,30, ,
9, ,30, ,
9, ,30, ,
8, ,30, ,
8, ,30, ,
8, ,30, ,
7, ,30, ,
6, ,30, ,
6, ,30, ,
6, ,30, ,
5, ,30, ,
5, ,30, ,
4, ,30, ,
3, ,30, ,
2, ,30, ,
0, ,30, ,
0, ,30, ,
-2, ,30, ,
-4, ,30, ,
-5, ,30, ,
-7, ,30, ,
-8, ,30, ,
-11, ,30, ,
-12, ,30, ,
-14, ,30, ,
-14, ,30, ,
-15, ,30, ,
-15, ,30, ,
-15, ,30, ,
-15, ,30, ,
-14, ,30, ,
-14, ,30, ,
-12, ,30, ,
-10, ,30, ,
-7, ,30, ,
-5, ,30, ,
-3, ,30, ,
-1, ,30, ,
3, ,30, ,
4, ,30, ,
6, ,30, ,
7, ,30, ,
9, ,30, ,
9, ,30, ,
9, ,30, ,
9, ,30, ,
8, ,30, ,
7, ,30, ,
6, ,30, ,
5, ,30, ,
3, ,30, ,
2, ,30, ,
1, ,30, ,
0, ,30, ,
-2, ,30, ,
-3, ,30, ,
-3, ,30, ,
-3, ,30, ,
-3, ,30, ,
-3, ,30, ,
-3, ,30, ,
-3, ,30, ,
-1, ,30, ,
-1, ,30, ,
0, ,30, ,
0, ,30, ,
2, ,30, ,
2, ,30, ,
3, ,30, ,
4, ,30, ,
5, ,30, ,
5, ,30, ,
5, ,30, ,
5, ,30, ,
5, ,30, ,
5, ,30, ,
4, ,30, ,
4, ,30, ,
3, ,30, ,
2, ,30, ,
2, ,30, ,
1, ,30, ,
-1, ,30, ,
-2, ,30, ,
-3, ,30, ,
-4, ,30, ,
-6, ,30, ,
-7, ,30, ,
-8, ,30, ,
-10, ,30, ,
-11, ,30, ,
-11, ,30, ,
-12, ,30, ,
-12, ,30, ,
-12, ,30, ,
-12, ,30, ,
-11, ,30, ,
-11, ,30, ,
-9, ,30, ,
-7, ,30, ,
-6, ,30, ,
-4, ,30, ,
-1, ,30, ,
1, ,30, ,
3, ,30, ,
4, ,30, ,
7, ,30, ,
9, ,30, ,
10, ,30, ,
11, ,30, ,
13, ,30, ,
13, ,30, ,
13, ,30, ,
13, ,30, ,
12, ,30, ,
12, ,30, ,
11, ,30, ,
11, ,30, ,
8, ,30, ,
7, ,30, ,
6, ,30, ,
4, ,30, ,
1, ,30, ,
0, ,30, ,
-1, ,30, ,
-2, ,30, ,
-5, ,30, ,
-7, ,30, ,
-8, ,30, ,
-8, ,30, ,
-9, ,30, ,
-9, ,30, ,
-9, ,30, ,
-9, ,30, ,
-7, ,30, ,
-7, ,30, ,
-4, ,30, ,
-4, ,30, ,
-1, ,30, ,
1, ,30, ,
2, ,30, ,
3, ,30, ,
6, ,30, ,
7, ,30, ,
8, ,30, ,
8, ,30, ,
8, ,30, ,
8, ,30, ,
7, ,30, ,
7, ,30, ,
6, ,30, ,
4, ,30, ,
3, ,30, ,
2, ,30, ,
-1, ,30, ,
-2, ,30, ,
-4, ,30, ,
-5, ,30, ,
-7, ,30, ,
-9, ,30, ,
-9, ,30, ,
-11, ,30, ,
-13, ,30, ,
-13, ,30, ,
-13, ,30, ,
-13, ,30, ,
-13, ,30, ,
-12, ,30, ,
-12, ,30, ,
-12, ,30, ,
-10, ,30, ,
-8, ,30, ,
-7, ,30, ,
-5, ,30, ,
