raw_data/75% Glycerol, Impulsion 2Hz, Sonde 5MHz, Rampe 0.7Hz/temp0000119.CSV

Format,1.0B,
Memory Length,10000,Memory Length,10000,
IntpDistance,0,IntpDistance,0,
Trigger Address,159,Trigger Address,159,
Trigger Level,2.720E-01,Trigger Level,2.720E-01,
Source,CH1,Source,CH2,
Vertical Units,V,Vertical Units,V,
Vertical Units Div,0,Vertical Units Div,0,
Vertical Units Extend Div,16,Vertical Units Extend Div,16,
Label,,Label,,
Probe Type,0,Probe Type,0,
Probe Ratio,1.000e+00,Probe Ratio,1.000e+00,
Vertical Scale,5.000e-01,Vertical Scale,2.000e+00,
Vertical Position,0.000e+00,Vertical Position,0.000e+00,
Horizontal Units,S,Horizontal Units,S,
Horizontal Scale,5.000E-06,Horizontal Scale,5.000E-06,
Horizontal Position,2.420E-05,Horizontal Position,2.420E-05,
Horizontal Mode,Main,Horizontal Mode,Main,
SincET Mode,Real Time,SincET Mode,Real Time,
Sampling Period,5.000e-09,Sampling Period,5.000e-09,
Horizontal Old Scale,5.000E-06,Horizontal Old Scale,5.000E-06,
Horizontal Old Position,2.420E-05,Horizontal Old Position,2.420E-05,
Firmware,V1.32,Firmware,V1.32,
Mode,Fast,Mode,Fast,
Waveform Data,,Waveform Data,,
0, ,22, ,
0, ,22, ,
0, ,22, ,
0, ,22, ,
0, ,22, ,
1, ,22, ,
0, ,22, ,
0, ,22, ,
0, ,22, ,
0, ,22, ,
0, ,22, ,
1, ,22, ,
0, ,22, ,
0, ,22, ,
0, ,22, ,
0, ,22, ,
0, ,22, ,
0, ,22, ,
0, ,22, ,
0, ,22, ,
0, ,22, ,
1, ,22, ,
0, ,22, ,
0, ,22, ,
0, ,22, ,
0, ,22, ,
1, ,22, ,
1, ,22, ,
1, ,22, ,
1, ,22, ,
1, ,22, ,
0, ,22, ,
0, ,22, ,
0, ,22, ,
0, ,22, ,
0, ,22, ,
0, ,22, ,
0, ,22, ,
1, ,22, ,
0, ,22, ,
0, ,22, ,
0, ,22, ,
0, ,22, ,
1, ,22, ,
0, ,22, ,
0, ,22, ,
0, ,22, ,
1, ,22, ,
0, ,22, ,
0, ,22, ,
0, ,22, ,
0, ,22, ,
1, ,22, ,
0, ,22, ,
0, ,22, ,
0, ,22, ,
0, ,22, ,
0, ,22, ,
0, ,22, ,
0, ,22, ,
0, ,22, ,
1, ,22, ,
0, ,22, ,
0, ,22, ,
0, ,22, ,
1, ,22, ,
0, ,22, ,
0, ,22, ,
0, ,22, ,
1, ,22, ,
1, ,22, ,
0, ,22, ,
0, ,22, ,
0, ,22, ,
1, ,22, ,
1, ,22, ,
1, ,22, ,
1, ,22, ,
1, ,22, ,
1, ,22, ,
1, ,22, ,
1, ,22, ,
1, ,22, ,
1, ,22, ,
0, ,22, ,
0, ,22, ,
1, ,22, ,
1, ,22, ,
0, ,22, ,
0, ,22, ,
1, ,22, ,
1, ,22, ,
0, ,22, ,
0, ,22, ,
1, ,22, ,
1, ,22, ,
1, ,22, ,
1, ,22, ,
1, ,22, ,
1, ,22, ,
0, ,22, ,
0, ,22, ,
0, ,22, ,
0, ,22, ,
0, ,22, ,
0, ,22, ,
0, ,22, ,
0, ,22, ,
0, ,22, ,
0, ,22, ,
0, ,22, ,
0, ,22, ,
1, ,22, ,
1, ,22, ,
0, ,22, ,
0, ,22, ,
0, ,22, ,
1, ,22, ,
1, ,22, ,
0, ,22, ,
1, ,22, ,
0, ,22, ,
0, ,22, ,
0, ,22, ,
0, ,22, ,
0, ,22, ,
1, ,22, ,
1, ,22, ,
1, ,22, ,
1, ,22, ,
1, ,22, ,
1, ,22, ,
0, ,22, ,
0, ,22, ,
0, ,22, ,
0, ,22, ,
1, ,22, ,
1, ,22, ,
0, ,22, ,
0, ,22, ,
0, ,22, ,
0, ,22, ,
0, ,22, ,
0, ,22, ,
0, ,22, ,
0, ,22, ,
0, ,22, ,
0, ,22, ,
0, ,22, ,
1, ,22, ,
1, ,22, ,
1, ,22, ,
1, ,22, ,
1, ,22, ,
1, ,22, ,
0, ,22, ,
0, ,22, ,
0, ,22, ,
1, ,22, ,
1, ,22, ,
1, ,22, ,
0, ,22, ,
0, ,22, ,
0, ,22, ,
-1, ,22, ,
-1, ,22, ,
-2, ,22, ,
4, ,22, ,
23, ,22, ,
54, ,22, ,
125, ,22, ,
124, ,22, ,
120, ,22, ,
87, ,22, ,
-8, ,22, ,
14, ,22, ,
67, ,22, ,
116, ,22, ,
125, ,22, ,
125, ,22, ,
125, ,22, ,
125, ,22, ,
125, ,22, ,
124, ,22, ,
124, ,22, ,
120, ,22, ,
109, ,22, ,
105, ,22, ,
102, ,22, ,
99, ,22, ,
92, ,22, ,
89, ,22, ,
85, ,22, ,
82, ,22, ,
75, ,22, ,
74, ,22, ,
70, ,22, ,
68, ,22, ,
63, ,22, ,
60, ,22, ,
58, ,22, ,
55, ,22, ,
50, ,22, ,
49, ,22, ,
46, ,22, ,
45, ,22, ,
41, ,22, ,
39, ,22, ,
38, ,22, ,
35, ,22, ,
32, ,22, ,
31, ,22, ,
29, ,22, ,
28, ,22, ,
25, ,22, ,
24, ,22, ,
24, ,22, ,
23, ,22, ,
21, ,22, ,
20, ,22, ,
19, ,22, ,
18, ,22, ,
17, ,22, ,
15, ,22, ,
15, ,22, ,
14, ,22, ,
12, ,22, ,
12, ,22, ,
11, ,22, ,
10, ,22, ,
9, ,22, ,
9, ,22, ,
9, ,22, ,
7, ,22, ,
7, ,22, ,
6, ,22, ,
6, ,22, ,
6, ,22, ,
5, ,22, ,
4, ,22, ,
4, ,22, ,
4, ,22, ,
3, ,22, ,
3, ,22, ,
3, ,22, ,
3, ,22, ,
2, ,22, ,
2, ,22, ,
2, ,22, ,
1, ,22, ,
1, ,22, ,
1, ,22, ,
1, ,22, ,
1, ,22, ,
0, ,22, ,
0, ,22, ,
0, ,22, ,
0, ,22, ,
0, ,22, ,
0, ,22, ,
0, ,22, ,
0, ,22, ,
-1, ,22, ,
-1, ,22, ,
-1, ,22, ,
-1, ,22, ,
-1, ,22, ,
-1, ,22, ,
-1, ,22, ,
-1, ,22, ,
-1, ,22, ,
-1, ,22, ,
-1, ,22, ,
-1, ,22, ,
-1, ,22, ,
-1, ,22, ,
-1, ,22, ,
-1, ,22, ,
-1, ,22, ,
-1, ,22, ,
-1, ,22, ,
-2, ,22, ,
-2, ,22, ,
-1, ,22, ,
-1, ,22, ,
-1, ,22, ,
-2, ,22, ,
-2, ,22, ,
-1, ,22, ,
-1, ,22, ,
-2, ,22, ,
-2, ,22, ,
-2, ,22, ,
-1, ,22, ,
-1, ,22, ,
-1, ,22, ,
-1, ,22, ,
-1, ,22, ,
-1, ,22, ,
-1, ,22, ,
-1, ,22, ,
-1, ,22, ,
-1, ,22, ,
-1, ,22, ,
-1, ,22, ,
-1, ,22, ,
-1, ,22, ,
-1, ,22, ,
-1, ,22, ,
-1, ,22, ,
-1, ,22, ,
-1, ,22, ,
-1, ,22, ,
-1, ,22, ,
-1, ,22, ,
-1, ,22, ,
-1, ,22, ,
-1, ,22, ,
-1, ,22, ,
-1, ,22, ,
-1, ,22, ,
-1, ,22, ,
0, ,22, ,
0, ,22, ,
-1, ,22, ,
-1, ,22, ,
-1, ,22, ,
-1, ,22, ,
-1, ,22, ,
-1, ,22, ,
-1, ,22, ,
-1, ,22, ,
-1, ,22, ,
-1, ,22, ,
0, ,22, ,
-1, ,22, ,
-1, ,22, ,
-1, ,22, ,
0, ,22, ,
0, ,22, ,
0, ,22, ,
0, ,22, ,
-1, ,22, ,
0, ,22, ,
0, ,22, ,
0, ,22, ,
0, ,22, ,
0, ,22, ,
0, ,22, ,
0, ,22, ,
0, ,22, ,
0, ,22, ,
0, ,22, ,
0, ,22, ,
0, ,22, ,
0, ,22, ,
0, ,22, ,
0, ,22, ,
0, ,22, ,
0, ,22, ,
0, ,22, ,
0, ,22, ,
0, ,22, ,
0, ,22, ,
0, ,22, ,
0, ,22, ,
0, ,22, ,
0, ,22, ,
0, ,22, ,
0, ,22, ,
0, ,22, ,
0, ,22, ,
0, ,22, ,
0, ,22, ,
0, ,22, ,
0, ,22, ,
0, ,22, ,
0, ,22, ,
0, ,22, ,
0, ,22, ,
0, ,22, ,
0, ,22, ,
0, ,22, ,
0, ,22, ,
0, ,22, ,
0, ,22, ,
0, ,22, ,
0, ,22, ,
0, ,22, ,
0, ,22, ,
0, ,22, ,
0, ,22, ,
0, ,22, ,
0, ,22, ,
0, ,22, ,
0, ,22, ,
0, ,22, ,
0, ,22, ,
0, ,22, ,
0, ,22, ,
0, ,22, ,
1, ,22, ,
0, ,22, ,
0, ,22, ,
0, ,22, ,
0, ,22, ,
0, ,22, ,
0, ,22, ,
0, ,22, ,
0, ,22, ,
0, ,22, ,
0, ,22, ,
0, ,22, ,
0, ,22, ,
0, ,22, ,
0, ,22, ,
1, ,22, ,
1, ,22, ,
1, ,22, ,
1, ,22, ,
1, ,22, ,
1, ,22, ,
0, ,22, ,
0, ,22, ,
0, ,22, ,
0, ,22, ,
0, ,22, ,
0, ,22, ,
0, ,22, ,
0, ,22, ,
0, ,22, ,
0, ,22, ,
0, ,22, ,
0, ,22, ,
0, ,22, ,
0, ,22, ,
0, ,22, ,
0, ,22, ,
0, ,22, ,
-1, ,22, ,
-1, ,22, ,
-2, ,22, ,
-5, ,22, ,
-5, ,22, ,
-7, ,22, ,
-8, ,22, ,
-9, ,22, ,
-9, ,22, ,
-8, ,22, ,
-7, ,22, ,
-4, ,22, ,
-3, ,22, ,
-2, ,22, ,
-2, ,22, ,
0, ,22, ,
0, ,22, ,
1, ,22, ,
1, ,22, ,
1, ,22, ,
1, ,22, ,
0, ,22, ,
0, ,22, ,
-1, ,22, ,
-2, ,22, ,
-2, ,22, ,
-2, ,22, ,
-2, ,22, ,
-2, ,22, ,
-1, ,22, ,
0, ,22, ,
1, ,22, ,
1, ,22, ,
2, ,22, ,
2, ,22, ,
2, ,22, ,
3, ,22, ,
3, ,22, ,
3, ,22, ,
3, ,22, ,
2, ,22, ,
2, ,22, ,
2, ,22, ,
1, ,22, ,
1, ,22, ,
1, ,22, ,
1, ,22, ,
1, ,22, ,
1, ,22, ,
1, ,22, ,
1, ,22, ,
2, ,22, ,
2, ,22, ,
2, ,22, ,
2, ,22, ,
2, ,22, ,
2, ,22, ,
2, ,22, ,
2, ,22, ,
1, ,22, ,
1, ,22, ,
1, ,22, ,
1, ,22, ,
1, ,22, ,
0, ,22, ,
0, ,22, ,
0, ,22, ,
0, ,22, ,
0, ,22, ,
0, ,22, ,
0, ,22, ,
0, ,22, ,
0, ,22, ,
1, ,22, ,
1, ,22, ,
1, ,22, ,
1, ,22, ,
0, ,22, ,
0, ,22, ,
0, ,22, ,
-1, ,22, ,
-1, ,22, ,
-2, ,22, ,
-3, ,22, ,
-3, ,22, ,
-4, ,22, ,
-5, ,22, ,
-7, ,22, ,
-8, ,22, ,
-9, ,22, ,
-10, ,22, ,
-12, ,22, ,
-12, ,22, ,
-13, ,22, ,
-13, ,22, ,
-13, ,22, ,
-14, ,22, ,
-14, ,22, ,
-15, ,22, ,
-16, ,22, ,
-17, ,22, ,
-18, ,22, ,
-20, ,22, ,
-23, ,22, ,
-25, ,22, ,
-26, ,22, ,
-28, ,22, ,
-28, ,22, ,
-27, ,22, ,
-27, ,22, ,
-26, ,22, ,
-24, ,22, ,
-23, ,22, ,
-21, ,22, ,
-20, ,22, ,
-17, ,22, ,
-17, ,22, ,
-17, ,22, ,
-17, ,22, ,
-19, ,22, ,
-19, ,22, ,
-20, ,22, ,
-22, ,22, ,
-25, ,22, ,
-25, ,22, ,
-26, ,22, ,
-28, ,22, ,
-28, ,22, ,
-28, ,22, ,
-28, ,22, ,
-28, ,22, ,
-27, ,22, ,
-26, ,22, ,
-25, ,22, ,
-25, ,22, ,
-23, ,22, ,
-22, ,22, ,
-21, ,22, ,
-21, ,22, ,
-17, ,22, ,
-15, ,22, ,
-13, ,22, ,
-11, ,22, ,
-5, ,22, ,
-2, ,22, ,
1, ,22, ,
4, ,22, ,
10, ,22, ,
14, ,22, ,
16, ,22, ,
19, ,22, ,
22, ,22, ,
23, ,22, ,
24, ,22, ,
24, ,22, ,
24, ,22, ,
24, ,22, ,
23, ,22, ,
23, ,22, ,
20, ,22, ,
18, ,22, ,
16, ,22, ,
14, ,22, ,
11, ,22, ,
8, ,22, ,
6, ,22, ,
5, ,22, ,
1, ,22, ,
0, ,22, ,
-1, ,22, ,
-3, ,22, ,
-3, ,22, ,
-3, ,22, ,
-4, ,22, ,
-4, ,22, ,
-3, ,22, ,
-3, ,22, ,
-2, ,22, ,
-2, ,22, ,
0, ,22, ,
1, ,22, ,
1, ,22, ,
2, ,22, ,
3, ,22, ,
3, ,22, ,
3, ,22, ,
2, ,22, ,
1, ,22, ,
0, ,22, ,
-1, ,22, ,
-1, ,22, ,
-4, ,22, ,
-7, ,22, ,
-8, ,22, ,
-10, ,22, ,
-13, ,22, ,
-16, ,22, ,
-18, ,22, ,
-19, ,22, ,
-23, ,22, ,
-25, ,22, ,
-26, ,22, ,
-27, ,22, ,
-28, ,22, ,
-28, ,22, ,
-28, ,22, ,
-28, ,22, ,
-26, ,22, ,
-25, ,22, ,
-24, ,22, ,
-23, ,22, ,
-19, ,22, ,
-17, ,22, ,
-16, ,22, ,
-13, ,22, ,
-11, ,22, ,
-9, ,22, ,
-8, ,22, ,
-8, ,22, ,
-4, ,22, ,
-2, ,22, ,
-1, ,22, ,
1, ,22, ,
3, ,22, ,
4, ,22, ,
5, ,22, ,
6, ,22, ,
6, ,22, ,
6, ,22, ,
5, ,22, ,
5, ,22, ,
3, ,22, ,
1, ,22, ,
0, ,22, ,
-1, ,22, ,
-4, ,22, ,
-4, ,22, ,
-6, ,22, ,
-6, ,22, ,
-7, ,22, ,
-7, ,22, ,
-7, ,22, ,
-7, ,22, ,
-7, ,22, ,
-7, ,22, ,
-7, ,22, ,
-7, ,22, ,
-6, ,22, ,
-6, ,22, ,
-6, ,22, ,
-6, ,22, ,
-6, ,22, ,
-5, ,22, ,
-6, ,22, ,
-6, ,22, ,
-6, ,22, ,
-7, ,22, ,
-7, ,22, ,
-9, ,22, ,
-11, ,22, ,
-12, ,22, ,
-14, ,22, ,
-15, ,22, ,
-17, ,22, ,
-18, ,22, ,
-19, ,22, ,
-19, ,22, ,
-20, ,22, ,
-20, ,22, ,
-20, ,22, ,
-19, ,22, ,
-19, ,22, ,
-18, ,22, ,
-17, ,22, ,
-17, ,22, ,
-16, ,22, ,
-14, ,22, ,
-14, ,22, ,
-12, ,22, ,
-10, ,22, ,
-9, ,22, ,
-7, ,22, ,
-5, ,22, ,
-2, ,22, ,
0, ,22, ,
1, ,22, ,
3, ,22, ,
8, ,22, ,
9, ,22, ,
11, ,22, ,
13, ,22, ,
17, ,22, ,
18, ,22, ,
19, ,22, ,
21, ,22, ,
24, ,22, ,
24, ,22, ,
25, ,22, ,
25, ,22, ,
24, ,22, ,
23, ,22, ,
23, ,22, ,
22, ,22, ,
19, ,22, ,
17, ,22, ,
15, ,22, ,
13, ,22, ,
8, ,22, ,
6, ,22, ,
3, ,22, ,
0, ,22, ,
-5, ,22, ,
-7, ,22, ,
-9, ,22, ,
-11, ,22, ,
-14, ,22, ,
-14, ,22, ,
-15, ,22, ,
-15, ,22, ,
-14, ,22, ,
-14, ,22, ,
-13, ,22, ,
-12, ,22, ,
-9, ,22, ,
-7, ,22, ,
-6, ,22, ,
-5, ,22, ,
-1, ,22, ,
-1, ,22, ,
0, ,22, ,
0, ,22, ,
-1, ,22, ,
-1, ,22, ,
-3, ,22, ,
-3, ,22, ,
-7, ,22, ,
-9, ,22, ,
-11, ,22, ,
-13, ,22, ,
-18, ,22, ,
-19, ,22, ,
-21, ,22, ,
-23, ,22, ,
-25, ,22, ,
-26, ,22, ,
-27, ,22, ,
-28, ,22, ,
-28, ,22, ,
-27, ,22, ,
-27, ,22, ,
-27, ,22, ,
-27, ,22, ,
-27, ,22, ,
-26, ,22, ,
-26, ,22, ,
-26, ,22, ,
-26, ,22, ,
-26, ,22, ,
-26, ,22, ,
-27, ,22, ,
-27, ,22, ,
-27, ,22, ,
-27, ,22, ,
-26, ,22, ,
-26, ,22, ,
-25, ,22, ,
-25, ,22, ,
-22, ,22, ,
-21, ,22, ,
-20, ,22, ,
-18, ,22, ,
-14, ,22, ,
-12, ,22, ,
-10, ,22, ,
-7, ,22, ,
-4, ,22, ,
-2, ,22, ,
0, ,22, ,
1, ,22, ,
4, ,22, ,
6, ,22, ,
6, ,22, ,
8, ,22, ,
9, ,22, ,
10, ,22, ,
12, ,22, ,
12, ,22, ,
14, ,22, ,
16, ,22, ,
16, ,22, ,
17, ,22, ,
19, ,22, ,
19, ,22, ,
20, ,22, ,
19, ,22, ,
19, ,22, ,
19, ,22, ,
17, ,22, ,
17, ,22, ,
16, ,22, ,
15, ,22, ,
14, ,22, ,
13, ,22, ,
11, ,22, ,
11, ,22, ,
10, ,22, ,
9, ,22, ,
8, ,22, ,
8, ,22, ,
8, ,22, ,
7, ,22, ,
7, ,22, ,
7, ,22, ,
6, ,22, ,
6, ,22, ,
5, ,22, ,
5, ,22, ,
4, ,22, ,
4, ,22, ,
2, ,22, ,
1, ,22, ,
0, ,22, ,
0, ,22, ,
-2, ,22, ,
-4, ,22, ,
-4, ,22, ,
-5, ,22, ,
-7, ,22, ,
-7, ,22, ,
-9, ,22, ,
-9, ,22, ,
-11, ,22, ,
-12, ,22, ,
-12, ,22, ,
-13, ,22, ,
-15, ,22, ,
-15, ,22, ,
-16, ,22, ,
-17, ,22, ,
-17, ,22, ,
-17, ,22, ,
-17, ,22, ,
-17, ,22, ,
-17, ,22, ,
-16, ,22, ,
-16, ,22, ,
-15, ,22, ,
-12, ,22, ,
-12, ,22, ,
-10, ,22, ,
-9, ,22, ,
-7, ,22, ,
-6, ,22, ,
-6, ,22, ,
-5, ,22, ,
-5, ,22, ,
-5, ,22, ,
-6, ,22, ,
-7, ,22, ,
-8, ,22, ,
-10, ,22, ,
-11, ,22, ,
-13, ,22, ,
-16, ,22, ,
-18, ,22, ,
-19, ,22, ,
-21, ,22, ,
-23, ,22, ,
-23, ,22, ,
-23, ,22, ,
-23, ,22, ,
-22, ,22, ,
-22, ,22, ,
-20, ,22, ,
-19, ,22, ,
-14, ,22, ,
-12, ,22, ,
-10, ,22, ,
-8, ,22, ,
-2, ,22, ,
0, ,22, ,
3, ,22, ,
5, ,22, ,
8, ,22, ,
10, ,22, ,
10, ,22, ,
11, ,22, ,
10, ,22, ,
10, ,22, ,
9, ,22, ,
8, ,22, ,
6, ,22, ,
4, ,22, ,
2, ,22, ,
0, ,22, ,
-4, ,22, ,
-6, ,22, ,
-8, ,22, ,
-10, ,22, ,
-13, ,22, ,
-14, ,22, ,
-16, ,22, ,
-16, ,22, ,
-17, ,22, ,
-17, ,22, ,
-17, ,22, ,
-17, ,22, ,
-15, ,22, ,
-14, ,22, ,
-14, ,22, ,
-12, ,22, ,
-9, ,22, ,
-8, ,22, ,
-6, ,22, ,
-5, ,22, ,
-1, ,22, ,
1, ,22, ,
2, ,22, ,
3, ,22, ,
5, ,22, ,
5, ,22, ,
6, ,22, ,
5, ,22, ,
4, ,22, ,
4, ,22, ,
3, ,22, ,
2, ,22, ,
1, ,22, ,
0, ,22, ,
-1, ,22, ,
-2, ,22, ,
-3, ,22, ,
-3, ,22, ,
-4, ,22, ,
-3, ,22, ,
-3, ,22, ,
-3, ,22, ,
-3, ,22, ,
-3, ,22, ,
-3, ,22, ,
-2, ,22, ,
-2, ,22, ,
-1, ,22, ,
1, ,22, ,
1, ,22, ,
2, ,22, ,
2, ,22, ,
4, ,22, ,
5, ,22, ,
6, ,22, ,
8, ,22, ,
9, ,22, ,
8, ,22, ,
8, ,22, ,
8, ,22, ,
7, ,22, ,
7, ,22, ,
5, ,22, ,
5, ,22, ,
2, ,22, ,
0, ,22, ,
-1, ,22, ,
-3, ,22, ,
-5, ,22, ,
-6, ,22, ,
-7, ,22, ,
-8, ,22, ,
-9, ,22, ,
-9, ,22, ,
-9, ,22, ,
-9, ,22, ,
-9, ,22, ,
-8, ,22, ,
-8, ,22, ,
-7, ,22, ,
-7, ,22, ,
-6, ,22, ,
-6, ,22, ,
-6, ,22, ,
-6, ,22, ,
-5, ,22, ,
-5, ,22, ,
-5, ,22, ,
-4, ,22, ,
-4, ,22, ,
-4, ,22, ,
-4, ,22, ,
-4, ,22, ,
-3, ,22, ,
-3, ,22, ,
-3, ,22, ,
-1, ,22, ,
-1, ,22, ,
0, ,22, ,
0, ,22, ,
2, ,22, ,
4, ,22, ,
3, ,22, ,
5, ,22, ,
6, ,22, ,
7, ,22, ,
7, ,22, ,
7, ,22, ,
7, ,22, ,
7, ,22, ,
6, ,22, ,
6, ,22, ,
4, ,22, ,
3, ,22, ,
2, ,22, ,
1, ,22, ,
-2, ,22, ,
-3, ,22, ,
-4, ,22, ,
-5, ,22, ,
-8, ,22, ,
-9, ,22, ,
-10, ,22, ,
-10, ,22, ,
-10, ,22, ,
-10, ,22, ,
-10, ,22, ,
-9, ,22, ,
-8, ,22, ,
-7, ,22, ,
-5, ,22, ,
-5, ,22, ,
-1, ,22, ,
1, ,22, ,
2, ,22, ,
4, ,22, ,
6, ,22, ,
7, ,22, ,
7, ,22, ,
7, ,22, ,
6, ,22, ,
6, ,22, ,
4, ,22, ,
4, ,22, ,
1, ,22, ,
-1, ,22, ,
-2, ,22, ,
-4, ,22, ,
-8, ,22, ,
-9, ,22, ,
-11, ,22, ,
-12, ,22, ,
-15, ,22, ,
-16, ,22, ,
-16, ,22, ,
-16, ,22, ,
-16, ,22, ,
-16, ,22, ,
-16, ,22, ,
-14, ,22, ,
-13, ,22, ,
-12, ,22, ,
-10, ,22, ,
-9, ,22, ,
-7, ,22, ,
-4, ,22, ,
-3, ,22, ,
-1, ,22, ,
3, ,22, ,
4, ,22, ,
6, ,22, ,
8, ,22, ,
11, ,22, ,
13, ,22, ,
14, ,22, ,
15, ,22, ,
16, ,22, ,
17, ,22, ,
16, ,22, ,
16, ,22, ,
14, ,22, ,
14, ,22, ,
12, ,22, ,
11, ,22, ,
7, ,22, ,
5, ,22, ,
3, ,22, ,
1, ,22, ,
-4, ,22, ,
-5, ,22, ,
-7, ,22, ,
-8, ,22, ,
-10, ,22, ,
-10, ,22, ,
-10, ,22, ,
-10, ,22, ,
-9, ,22, ,
-8, ,22, ,
-8, ,22, ,
-6, ,22, ,
-3, ,22, ,
-1, ,22, ,
0, ,22, ,
1, ,22, ,
4, ,22, ,
6, ,22, ,
7, ,22, ,
8, ,22, ,
10, ,22, ,
10, ,22, ,
10, ,22, ,
10, ,22, ,
10, ,22, ,
10, ,22, ,
9, ,22, ,
8, ,22, ,
5, ,22, ,
3, ,22, ,
2, ,22, ,
0, ,22, ,
-5, ,22, ,
-6, ,22, ,
-9, ,22, ,
-11, ,22, ,
-16, ,22, ,
-17, ,22, ,
-19, ,22, ,
-20, ,22, ,
-22, ,22, ,
-22, ,22, ,
-22, ,22, ,
-22, ,22, ,
-21, ,22, ,
-20, ,22, ,
-19, ,22, ,
-18, ,22, ,
-15, ,22, ,
-13, ,22, ,
-11, ,22, ,
-9, ,22, ,
-4, ,22, ,
-3, ,22, ,
-1, ,22, ,
1, ,22, ,
4, ,22, ,
6, ,22, ,
7, ,22, ,
9, ,22, ,
10, ,22, ,
11, ,22, ,
12, ,22, ,
12, ,22, ,
11, ,22, ,
11, ,22, ,
10, ,22, ,
10, ,22, ,
8, ,22, ,
7, ,22, ,
6, ,22, ,
5, ,22, ,
3, ,22, ,
3, ,22, ,
2, ,22, ,
2, ,22, ,
1, ,22, ,
0, ,22, ,
0, ,22, ,
0, ,22, ,
0, ,22, ,
0, ,22, ,
0, ,22, ,
0, ,22, ,
0, ,22, ,
0, ,22, ,
0, ,22, ,
0, ,22, ,
0, ,22, ,
0, ,22, ,
-1, ,22, ,
-1, ,22, ,
-1, ,22, ,
-1, ,22, ,
0, ,22, ,
0, ,22, ,
0, ,22, ,
0, ,22, ,
-1, ,22, ,
-1, ,22, ,
-2, ,22, ,
-2, ,22, ,
-3, ,22, ,
-3, ,22, ,
-5, ,22, ,
-5, ,22, ,
-7, ,22, ,
-7, ,22, ,
-9, ,22, ,
-10, ,22, ,
-10, ,22, ,
-11, ,22, ,
-12, ,22, ,
-12, ,22, ,
-13, ,22, ,
-13, ,22, ,
-13, ,22, ,
-13, ,22, ,
-12, ,22, ,
-12, ,22, ,
-11, ,22, ,
-11, ,22, ,
-11, ,22, ,
-10, ,22, ,
-9, ,22, ,
-9, ,22, ,
-9, ,22, ,
-9, ,22, ,
-7, ,22, ,
-7, ,22, ,
-6, ,22, ,
-5, ,22, ,
-4, ,22, ,
-3, ,22, ,
-2, ,22, ,
-2, ,22, ,
1, ,22, ,
1, ,22, ,
3, ,22, ,
3, ,22, ,
5, ,22, ,
5, ,22, ,
6, ,22, ,
6, ,22, ,
6, ,22, ,
5, ,22, ,
5, ,22, ,
4, ,22, ,
4, ,22, ,
2, ,22, ,
1, ,22, ,
1, ,22, ,
-1, ,22, ,
-1, ,22, ,
-2, ,22, ,
-2, ,22, ,
-2, ,22, ,
-2, ,22, ,
-1, ,22, ,
-1, ,22, ,
1, ,22, ,
1, ,22, ,
2, ,22, ,
4, ,22, ,
6, ,22, ,
6, ,22, ,
7, ,22, ,
8, ,22, ,
8, ,22, ,
8, ,22, ,
7, ,22, ,
7, ,22, ,
5, ,22, ,
3, ,22, ,
3, ,22, ,
0, ,22, ,
-4, ,22, ,
-6, ,22, ,
-8, ,22, ,
-9, ,22, ,
-12, ,22, ,
-13, ,22, ,
-14, ,22, ,
-14, ,22, ,
-14, ,22, ,
-14, ,22, ,
-13, ,22, ,
-12, ,22, ,
-9, ,22, ,
-9, ,22, ,
-7, ,22, ,
-5, ,22, ,
-2, ,22, ,
-1, ,22, ,
1, ,22, ,
2, ,22, ,
4, ,22, ,
4, ,22, ,
5, ,22, ,
5, ,22, ,
6, ,22, ,
6, ,22, ,
5, ,22, ,
5, ,22, ,
5, ,22, ,
4, ,22, ,
4, ,22, ,
2, ,22, ,
1, ,22, ,
0, ,22, ,
0, ,22, ,
-1, ,22, ,
-2, ,22, ,
-3, ,22, ,
-3, ,22, ,
-3, ,22, ,
-2, ,22, ,
-2, ,22, ,
-2, ,22, ,
-2, ,22, ,
1, ,22, ,
1, ,22, ,
3, ,22, ,
4, ,22, ,
6, ,22, ,
8, ,22, ,
9, ,22, ,
10, ,22, ,
11, ,22, ,
11, ,22, ,
11, ,22, ,
10, ,22, ,
9, ,22, ,
9, ,22, ,
8, ,22, ,
7, ,22, ,
5, ,22, ,
3, ,22, ,
1, ,22, ,
0, ,22, ,
-3, ,22, ,
-3, ,22, ,
-5, ,22, ,
-5, ,22, ,
-6, ,22, ,
-8, ,22, ,
-8, ,22, ,
-8, ,22, ,
-9, ,22, ,
-9, ,22, ,
-9, ,22, ,
-9, ,22, ,
-10, ,22, ,
-11, ,22, ,
-11, ,22, ,
-11, ,22, ,
-10, ,22, ,
-10, ,22, ,
-9, ,22, ,
-9, ,22, ,
-8, ,22, ,
-7, ,22, ,
-6, ,22, ,
-5, ,22, ,
-3, ,22, ,
-2, ,22, ,
-1, ,22, ,
1, ,22, ,
2, ,22, ,
4, ,22, ,
5, ,22, ,
6, ,22, ,
8, ,22, ,
8, ,22, ,
10, ,22, ,
11, ,22, ,
12, ,22, ,
12, ,22, ,
12, ,22, ,
12, ,22, ,
12, ,22, ,
12, ,22, ,
11, ,22, ,
11, ,22, ,
9, ,22, ,
8, ,22, ,
7, ,22, ,
6, ,22, ,
2, ,22, ,
1, ,22, ,
-1, ,22, ,
-2, ,22, ,
-5, ,22, ,
-7, ,22, ,
-7, ,22, ,
-8, ,22, ,
-9, ,22, ,
-9, ,22, ,
-9, ,22, ,
-9, ,22, ,
-8, ,22, ,
-8, ,22, ,
-7, ,22, ,
-7, ,22, ,
-5, ,22, ,
-5, ,22, ,
-5, ,22, ,
-4, ,22, ,
-3, ,22, ,
-3, ,22, ,
-3, ,22, ,
-2, ,22, ,
-2, ,22, ,
-2, ,22, ,
-2, ,22, ,
-2, ,22, ,
-2, ,22, ,
-2, ,22, ,
-1, ,22, ,
-1, ,22, ,
0, ,22, ,
0, ,22, ,
0, ,22, ,
0, ,22, ,
1, ,22, ,
1, ,22, ,
1, ,22, ,
1, ,22, ,
1, ,22, ,
1, ,22, ,
0, ,22, ,
0, ,22, ,
0, ,22, ,
0, ,22, ,
0, ,22, ,
0, ,22, ,
0, ,22, ,
0, ,22, ,
0, ,22, ,
0, ,22, ,
0, ,22, ,
0, ,22, ,
0, ,22, ,
1, ,22, ,
1, ,22, ,
1, ,22, ,
1, ,22, ,
1, ,22, ,
2, ,22, ,
2, ,22, ,
2, ,22, ,
2, ,22, ,
2, ,22, ,
2, ,22, ,
2, ,22, ,
2, ,22, ,
1, ,22, ,
1, ,22, ,
1, ,22, ,
1, ,22, ,
0, ,22, ,
0, ,22, ,
0, ,22, ,
0, ,22, ,
-1, ,22, ,
-1, ,22, ,
-1, ,22, ,
-1, ,22, ,
-2, ,22, ,
-2, ,22, ,
-1, ,22, ,
-1, ,22, ,
-1, ,22, ,
-1, ,22, ,
0, ,22, ,
0, ,22, ,
0, ,22, ,
1, ,22, ,
1, ,22, ,
2, ,22, ,
3, ,22, ,
4, ,22, ,
4, ,22, ,
4, ,22, ,
5, ,22, ,
5, ,22, ,
4, ,22, ,
4, ,22, ,
3, ,22, ,
2, ,22, ,
1, ,22, ,
0, ,22, ,
-2, ,22, ,
-2, ,22, ,
-3, ,22, ,
-4, ,22, ,
-6, ,22, ,
-7, ,22, ,
-7, ,22, ,
-7, ,22, ,
-6, ,22, ,
-6, ,22, ,
-6, ,22, ,
-4, ,22, ,
-3, ,22, ,
-1, ,22, ,
0, ,22, ,
1, ,22, ,
4, ,22, ,
6, ,22, ,
6, ,22, ,
8, ,22, ,
10, ,22, ,
10, ,22, ,
10, ,22, ,
10, ,22, ,
9, ,22, ,
9, ,22, ,
8, ,22, ,
8, ,22, ,
5, ,22, ,
3, ,22, ,
2, ,22, ,
0, ,22, ,
-3, ,22, ,
-4, ,22, ,
-6, ,22, ,
-7, ,22, ,
-9, ,22, ,
-9, ,22, ,
-9, ,22, ,
-9, ,22, ,
-8, ,22, ,
-7, ,22, ,
-6, ,22, ,
-5, ,22, ,
-2, ,22, ,
-1, ,22, ,
1, ,22, ,
3, ,22, ,
6, ,22, ,
8, ,22, ,
8, ,22, ,
9, ,22, ,
10, ,22, ,
11, ,22, ,
10, ,22, ,
10, ,22, ,
8, ,22, ,
8, ,22, ,
7, ,22, ,
7, ,22, ,
5, ,22, ,
3, ,22, ,
2, ,22, ,
2, ,22, ,
-1, ,22, ,
-2, ,22, ,
-2, ,22, ,
-3, ,22, ,
-5, ,22, ,
-5, ,22, ,
-5, ,22, ,
-6, ,22, ,
-7, ,22, ,
-7, ,22, ,
-7, ,22, ,
-8, ,22, ,
-8, ,22, ,
-9, ,22, ,
-9, ,22, ,
-9, ,22, ,
-9, ,22, ,
-9, ,22, ,
-9, ,22, ,
-9, ,22, ,
-7, ,22, ,
-7, ,22, ,
-7, ,22, ,
-6, ,22, ,
-4, ,22, ,
-3, ,22, ,
-3, ,22, ,
-2, ,22, ,
0, ,22, ,
0, ,22, ,
2, ,22, ,
2, ,22, ,
3, ,22, ,
4, ,22, ,
4, ,22, ,
5, ,22, ,
6, ,22, ,
6, ,22, ,
7, ,22, ,
7, ,22, ,
8, ,22, ,
8, ,22, ,
8, ,22, ,
8, ,22, ,
7, ,22, ,
7, ,22, ,
7, ,22, ,
6, ,22, ,
5, ,22, ,
5, ,22, ,
4, ,22, ,
3, ,22, ,
2, ,22, ,
1, ,22, ,
1, ,22, ,
0, ,22, ,
-1, ,22, ,
-2, ,22, ,
-2, ,22, ,
-2, ,22, ,
-3, ,22, ,
-3, ,22, ,
-3, ,22, ,
-3, ,22, ,
-3, ,22, ,
-3, ,22, ,
-3, ,22, ,
-2, ,22, ,
-2, ,22, ,
-2, ,22, ,
-2, ,22, ,
-2, ,22, ,
-2, ,22, ,
-2, ,22, ,
-3, ,22, ,
-3, ,22, ,
-3, ,22, ,
-4, ,22, ,
-4, ,22, ,
-4, ,22, ,
-5, ,22, ,
-5, ,22, ,
-5, ,22, ,
-4, ,22, ,
-4, ,22, ,
-4, ,22, ,
-3, ,22, ,
-3, ,22, ,
-2, ,22, ,
-1, ,22, ,
-1, ,22, ,
0, ,22, ,
1, ,22, ,
1, ,22, ,
1, ,22, ,
2, ,22, ,
2, ,22, ,
2, ,22, ,
2, ,22, ,
3, ,22, ,
3, ,22, ,
3, ,22, ,
3, ,22, ,
3, ,22, ,
4, ,22, ,
4, ,22, ,
4, ,22, ,
4, ,22, ,
3, ,22, ,
3, ,22, ,
2, ,22, ,
2, ,22, ,
1, ,22, ,
0, ,22, ,
-1, ,22, ,
-1, ,22, ,
-3, ,22, ,
-4, ,22, ,
-5, ,22, ,
-5, ,22, ,
-6, ,22, ,
-7, ,22, ,
-7, ,22, ,
-7, ,22, ,
-6, ,22, ,
-6, ,22, ,
-5, ,22, ,
-4, ,22, ,
-3, ,22, ,
-1, ,22, ,
-2, ,22, ,
0, ,22, ,
1, ,22, ,
2, ,22, ,
3, ,22, ,
3, ,22, ,
3, ,22, ,
3, ,22, ,
3, ,22, ,
3, ,22, ,
3, ,22, ,
3, ,22, ,
3, ,22, ,
3, ,22, ,
3, ,22, ,
3, ,22, ,
3, ,22, ,
3, ,22, ,
3, ,22, ,
4, ,22, ,
4, ,22, ,
4, ,22, ,
4, ,22, ,
4, ,22, ,
4, ,22, ,
4, ,22, ,
3, ,22, ,
3, ,22, ,
3, ,22, ,
2, ,22, ,
1, ,22, ,
1, ,22, ,
0, ,22, ,
0, ,22, ,
-1, ,22, ,
-1, ,22, ,
0, ,22, ,
-1, ,22, ,
-1, ,22, ,
-1, ,22, ,
-1, ,22, ,
-1, ,22, ,
-2, ,22, ,
-2, ,22, ,
-3, ,22, ,
-3, ,22, ,
-4, ,22, ,
-4, ,22, ,
-6, ,22, ,
-6, ,22, ,
-7, ,22, ,
-8, ,22, ,
-8, ,22, ,
-8, ,22, ,
-8, ,22, ,
-8, ,22, ,
-7, ,22, ,
-7, ,22, ,
-5, ,22, ,
-4, ,22, ,
-4, ,22, ,
-2, ,22, ,
0, ,22, ,
