raw_data/75% Glycerol, Impulsion 2Hz, Sonde 5MHz, Rampe 0.7Hz/temp0000303.CSV

Format,1.0B,
Memory Length,10000,Memory Length,10000,
IntpDistance,0,IntpDistance,0,
Trigger Address,159,Trigger Address,159,
Trigger Level,2.720E-01,Trigger Level,2.720E-01,
Source,CH1,Source,CH2,
Vertical Units,V,Vertical Units,V,
Vertical Units Div,0,Vertical Units Div,0,
Vertical Units Extend Div,16,Vertical Units Extend Div,16,
Label,,Label,,
Probe Type,0,Probe Type,0,
Probe Ratio,1.000e+00,Probe Ratio,1.000e+00,
Vertical Scale,5.000e-01,Vertical Scale,2.000e+00,
Vertical Position,0.000e+00,Vertical Position,0.000e+00,
Horizontal Units,S,Horizontal Units,S,
Horizontal Scale,5.000E-06,Horizontal Scale,5.000E-06,
Horizontal Position,2.420E-05,Horizontal Position,2.420E-05,
Horizontal Mode,Main,Horizontal Mode,Main,
SincET Mode,Real Time,SincET Mode,Real Time,
Sampling Period,5.000e-09,Sampling Period,5.000e-09,
Horizontal Old Scale,5.000E-06,Horizontal Old Scale,5.000E-06,
Horizontal Old Position,2.420E-05,Horizontal Old Position,2.420E-05,
Firmware,V1.32,Firmware,V1.32,
Mode,Fast,Mode,Fast,
Waveform Data,,Waveform Data,,
0, ,39, ,
0, ,39, ,
0, ,39, ,
1, ,39, ,
0, ,39, ,
0, ,39, ,
0, ,39, ,
0, ,39, ,
1, ,39, ,
1, ,39, ,
0, ,39, ,
0, ,39, ,
1, ,39, ,
1, ,39, ,
1, ,39, ,
1, ,39, ,
1, ,39, ,
1, ,40, ,
0, ,39, ,
0, ,39, ,
1, ,39, ,
1, ,39, ,
1, ,40, ,
0, ,39, ,
0, ,39, ,
0, ,40, ,
0, ,40, ,
0, ,39, ,
1, ,39, ,
0, ,39, ,
0, ,40, ,
0, ,39, ,
1, ,39, ,
1, ,39, ,
1, ,39, ,
1, ,39, ,
1, ,39, ,
1, ,39, ,
1, ,40, ,
0, ,40, ,
0, ,40, ,
0, ,40, ,
0, ,40, ,
0, ,40, ,
1, ,40, ,
0, ,40, ,
0, ,40, ,
0, ,40, ,
0, ,40, ,
1, ,40, ,
1, ,40, ,
0, ,40, ,
0, ,40, ,
0, ,39, ,
0, ,39, ,
0, ,40, ,
1, ,39, ,
1, ,39, ,
1, ,39, ,
0, ,40, ,
0, ,39, ,
0, ,39, ,
0, ,39, ,
0, ,39, ,
0, ,39, ,
1, ,39, ,
0, ,39, ,
0, ,39, ,
0, ,40, ,
0, ,40, ,
0, ,40, ,
0, ,39, ,
1, ,39, ,
1, ,39, ,
1, ,39, ,
1, ,39, ,
1, ,39, ,
1, ,39, ,
0, ,40, ,
0, ,40, ,
0, ,39, ,
0, ,39, ,
0, ,39, ,
1, ,39, ,
1, ,39, ,
1, ,40, ,
1, ,40, ,
1, ,40, ,
0, ,40, ,
0, ,39, ,
0, ,39, ,
1, ,39, ,
1, ,39, ,
1, ,39, ,
1, ,39, ,
1, ,40, ,
1, ,39, ,
1, ,39, ,
1, ,39, ,
1, ,39, ,
0, ,40, ,
0, ,40, ,
1, ,39, ,
1, ,39, ,
1, ,39, ,
1, ,40, ,
1, ,40, ,
1, ,40, ,
0, ,40, ,
0, ,40, ,
1, ,40, ,
1, ,39, ,
1, ,39, ,
1, ,39, ,
1, ,40, ,
1, ,40, ,
1, ,40, ,
1, ,40, ,
1, ,40, ,
1, ,40, ,
1, ,40, ,
1, ,40, ,
1, ,39, ,
1, ,39, ,
1, ,40, ,
1, ,40, ,
1, ,40, ,
0, ,39, ,
0, ,39, ,
1, ,39, ,
1, ,39, ,
1, ,39, ,
1, ,40, ,
1, ,40, ,
1, ,40, ,
1, ,40, ,
1, ,40, ,
1, ,40, ,
0, ,40, ,
0, ,39, ,
0, ,39, ,
0, ,39, ,
1, ,39, ,
0, ,39, ,
0, ,39, ,
1, ,39, ,
0, ,39, ,
0, ,39, ,
1, ,39, ,
1, ,39, ,
1, ,40, ,
0, ,40, ,
0, ,39, ,
0, ,39, ,
0, ,39, ,
0, ,39, ,
0, ,39, ,
0, ,39, ,
0, ,40, ,
0, ,40, ,
0, ,40, ,
1, ,40, ,
0, ,39, ,
0, ,39, ,
-1, ,39, ,
0, ,39, ,
-1, ,39, ,
6, ,39, ,
58, ,39, ,
99, ,39, ,
125, ,39, ,
123, ,40, ,
80, ,40, ,
20, ,39, ,
-7, ,39, ,
21, ,39, ,
122, ,39, ,
125, ,39, ,
125, ,39, ,
125, ,39, ,
125, ,39, ,
125, ,40, ,
125, ,40, ,
124, ,40, ,
119, ,40, ,
114, ,40, ,
109, ,39, ,
105, ,39, ,
99, ,39, ,
95, ,39, ,
93, ,40, ,
88, ,39, ,
81, ,39, ,
78, ,40, ,
75, ,40, ,
73, ,39, ,
68, ,39, ,
65, ,39, ,
63, ,39, ,
60, ,39, ,
55, ,39, ,
53, ,39, ,
50, ,39, ,
49, ,39, ,
44, ,39, ,
42, ,39, ,
41, ,40, ,
39, ,39, ,
35, ,39, ,
34, ,40, ,
33, ,39, ,
31, ,39, ,
28, ,40, ,
27, ,40, ,
26, ,39, ,
25, ,39, ,
23, ,39, ,
22, ,39, ,
21, ,39, ,
20, ,40, ,
18, ,40, ,
17, ,40, ,
17, ,39, ,
15, ,39, ,
14, ,39, ,
13, ,39, ,
12, ,39, ,
12, ,39, ,
11, ,40, ,
10, ,39, ,
10, ,39, ,
9, ,40, ,
8, ,40, ,
7, ,39, ,
7, ,39, ,
7, ,40, ,
6, ,39, ,
5, ,39, ,
5, ,39, ,
4, ,39, ,
4, ,39, ,
4, ,39, ,
3, ,39, ,
3, ,39, ,
3, ,40, ,
2, ,40, ,
2, ,39, ,
1, ,39, ,
1, ,39, ,
1, ,39, ,
1, ,39, ,
1, ,40, ,
1, ,39, ,
1, ,39, ,
1, ,39, ,
1, ,39, ,
0, ,39, ,
0, ,40, ,
0, ,40, ,
0, ,40, ,
0, ,40, ,
-1, ,40, ,
-1, ,40, ,
-1, ,40, ,
-1, ,40, ,
-1, ,40, ,
-1, ,40, ,
-1, ,39, ,
-1, ,39, ,
-1, ,39, ,
-1, ,40, ,
-1, ,40, ,
-1, ,40, ,
-1, ,40, ,
-1, ,39, ,
-2, ,39, ,
-2, ,40, ,
-1, ,39, ,
-1, ,39, ,
-1, ,39, ,
-1, ,39, ,
-1, ,39, ,
-1, ,39, ,
-1, ,39, ,
-1, ,39, ,
-1, ,39, ,
-1, ,39, ,
-1, ,39, ,
-1, ,39, ,
-1, ,40, ,
-1, ,40, ,
-1, ,39, ,
-1, ,39, ,
-1, ,39, ,
-1, ,39, ,
-2, ,39, ,
-2, ,39, ,
-1, ,39, ,
-1, ,39, ,
-1, ,39, ,
-1, ,39, ,
-1, ,39, ,
-1, ,39, ,
-1, ,39, ,
-1, ,39, ,
-1, ,40, ,
-1, ,39, ,
-1, ,39, ,
-1, ,40, ,
-1, ,40, ,
-1, ,40, ,
-1, ,39, ,
-1, ,39, ,
-1, ,39, ,
-1, ,39, ,
-1, ,39, ,
-1, ,39, ,
-1, ,39, ,
-1, ,40, ,
-1, ,40, ,
-1, ,39, ,
-1, ,39, ,
-1, ,39, ,
0, ,39, ,
0, ,40, ,
-1, ,40, ,
-1, ,40, ,
-1, ,39, ,
0, ,39, ,
0, ,39, ,
-1, ,40, ,
-1, ,39, ,
0, ,39, ,
0, ,39, ,
0, ,39, ,
0, ,39, ,
0, ,39, ,
0, ,40, ,
0, ,40, ,
0, ,40, ,
0, ,40, ,
0, ,39, ,
0, ,39, ,
0, ,39, ,
0, ,39, ,
0, ,39, ,
0, ,39, ,
0, ,39, ,
0, ,39, ,
0, ,39, ,
0, ,40, ,
0, ,39, ,
0, ,39, ,
0, ,39, ,
0, ,39, ,
0, ,39, ,
0, ,39, ,
0, ,39, ,
0, ,40, ,
0, ,39, ,
0, ,39, ,
0, ,39, ,
0, ,39, ,
0, ,40, ,
0, ,40, ,
0, ,40, ,
1, ,40, ,
1, ,40, ,
0, ,40, ,
0, ,40, ,
0, ,40, ,
0, ,39, ,
0, ,39, ,
0, ,40, ,
0, ,40, ,
0, ,39, ,
0, ,39, ,
0, ,39, ,
0, ,39, ,
0, ,39, ,
0, ,39, ,
0, ,39, ,
0, ,39, ,
0, ,39, ,
0, ,39, ,
0, ,40, ,
0, ,40, ,
0, ,40, ,
0, ,40, ,
0, ,40, ,
0, ,39, ,
0, ,39, ,
0, ,39, ,
0, ,39, ,
0, ,39, ,
0, ,39, ,
0, ,39, ,
0, ,39, ,
0, ,40, ,
0, ,39, ,
0, ,39, ,
0, ,39, ,
0, ,39, ,
0, ,39, ,
0, ,39, ,
0, ,39, ,
0, ,40, ,
0, ,39, ,
0, ,39, ,
0, ,40, ,
0, ,40, ,
0, ,39, ,
0, ,39, ,
0, ,39, ,
0, ,39, ,
0, ,39, ,
1, ,39, ,
1, ,40, ,
1, ,39, ,
1, ,39, ,
0, ,39, ,
0, ,40, ,
0, ,39, ,
0, ,39, ,
0, ,40, ,
0, ,40, ,
0, ,40, ,
0, ,39, ,
0, ,39, ,
0, ,39, ,
0, ,40, ,
0, ,40, ,
0, ,40, ,
0, ,40, ,
0, ,40, ,
0, ,40, ,
0, ,40, ,
0, ,39, ,
1, ,39, ,
1, ,39, ,
1, ,40, ,
1, ,40, ,
1, ,40, ,
1, ,39, ,
1, ,39, ,
0, ,39, ,
0, ,39, ,
0, ,39, ,
-1, ,39, ,
-1, ,39, ,
-3, ,39, ,
-5, ,39, ,
-20, ,39, ,
-32, ,39, ,
-51, ,39, ,
-72, ,40, ,
-105, ,40, ,
-113, ,40, ,
-115, ,40, ,
-114, ,39, ,
-112, ,39, ,
-103, ,39, ,
-77, ,40, ,
-50, ,40, ,
-4, ,40, ,
10, ,40, ,
21, ,39, ,
27, ,39, ,
32, ,39, ,
33, ,40, ,
34, ,40, ,
34, ,40, ,
34, ,40, ,
33, ,40, ,
32, ,40, ,
31, ,40, ,
29, ,40, ,
28, ,40, ,
28, ,40, ,
26, ,39, ,
25, ,39, ,
25, ,40, ,
24, ,40, ,
23, ,40, ,
22, ,40, ,
21, ,40, ,
20, ,39, ,
20, ,39, ,
18, ,40, ,
18, ,40, ,
18, ,40, ,
17, ,40, ,
16, ,39, ,
15, ,39, ,
15, ,39, ,
14, ,39, ,
13, ,39, ,
11, ,40, ,
8, ,40, ,
2, ,40, ,
-23, ,40, ,
-42, ,39, ,
-64, ,39, ,
-83, ,40, ,
-105, ,39, ,
-106, ,39, ,
-104, ,39, ,
-95, ,39, ,
-64, ,39, ,
-44, ,39, ,
-25, ,40, ,
-9, ,40, ,
16, ,39, ,
24, ,39, ,
27, ,39, ,
30, ,39, ,
33, ,39, ,
33, ,40, ,
33, ,40, ,
32, ,40, ,
31, ,40, ,
30, ,39, ,
29, ,39, ,
29, ,40, ,
27, ,40, ,
25, ,40, ,
25, ,40, ,
24, ,40, ,
19, ,39, ,
16, ,39, ,
11, ,39, ,
4, ,39, ,
-15, ,39, ,
-26, ,39, ,
-36, ,39, ,
-48, ,39, ,
-61, ,39, ,
-62, ,39, ,
-63, ,39, ,
-61, ,39, ,
-54, ,40, ,
-48, ,40, ,
-41, ,40, ,
-35, ,39, ,
-21, ,39, ,
-12, ,40, ,
-5, ,40, ,
2, ,39, ,
15, ,39, ,
19, ,39, ,
23, ,39, ,
25, ,39, ,
28, ,39, ,
30, ,39, ,
30, ,39, ,
30, ,39, ,
29, ,39, ,
27, ,39, ,
26, ,40, ,
25, ,40, ,
17, ,40, ,
11, ,40, ,
4, ,39, ,
-4, ,39, ,
-22, ,40, ,
-28, ,39, ,
-34, ,39, ,
-36, ,39, ,
-35, ,39, ,
-32, ,39, ,
-28, ,39, ,
-22, ,39, ,
-8, ,39, ,
-1, ,39, ,
5, ,40, ,
11, ,39, ,
17, ,39, ,
20, ,39, ,
19, ,39, ,
19, ,40, ,
16, ,40, ,
13, ,40, ,
8, ,40, ,
2, ,40, ,
-12, ,39, ,
-21, ,39, ,
-28, ,39, ,
-34, ,40, ,
-46, ,40, ,
-50, ,39, ,
-51, ,39, ,
-52, ,40, ,
-48, ,40, ,
-44, ,40, ,
-39, ,39, ,
-32, ,39, ,
-17, ,39, ,
-8, ,39, ,
0, ,39, ,
9, ,39, ,
23, ,39, ,
29, ,39, ,
34, ,39, ,
38, ,40, ,
42, ,40, ,
42, ,40, ,
43, ,40, ,
43, ,39, ,
42, ,39, ,
40, ,39, ,
39, ,39, ,
37, ,39, ,
31, ,40, ,
26, ,40, ,
22, ,40, ,
14, ,39, ,
-4, ,39, ,
-14, ,39, ,
-25, ,39, ,
-32, ,39, ,
-43, ,39, ,
-45, ,39, ,
-44, ,39, ,
-43, ,40, ,
-35, ,40, ,
-28, ,40, ,
-24, ,39, ,
-17, ,39, ,
-3, ,39, ,
2, ,40, ,
7, ,40, ,
10, ,40, ,
15, ,40, ,
16, ,40, ,
15, ,40, ,
15, ,39, ,
13, ,39, ,
10, ,39, ,
8, ,39, ,
6, ,39, ,
0, ,40, ,
-2, ,40, ,
-5, ,39, ,
-6, ,39, ,
-9, ,40, ,
-9, ,40, ,
-9, ,40, ,
-8, ,40, ,
-6, ,40, ,
-4, ,40, ,
-2, ,39, ,
0, ,39, ,
3, ,40, ,
3, ,40, ,
4, ,40, ,
4, ,39, ,
3, ,39, ,
2, ,39, ,
-1, ,39, ,
-3, ,39, ,
-12, ,39, ,
-17, ,39, ,
-24, ,39, ,
-32, ,40, ,
-51, ,40, ,
-61, ,40, ,
-71, ,40, ,
-81, ,39, ,
-98, ,39, ,
-104, ,39, ,
-107, ,39, ,
-110, ,40, ,
-109, ,40, ,
-106, ,40, ,
-99, ,39, ,
-87, ,39, ,
-57, ,39, ,
-41, ,39, ,
-25, ,39, ,
-9, ,39, ,
23, ,39, ,
36, ,39, ,
46, ,39, ,
56, ,39, ,
68, ,39, ,
71, ,39, ,
74, ,39, ,
74, ,39, ,
73, ,39, ,
71, ,40, ,
69, ,40, ,
67, ,39, ,
62, ,39, ,
58, ,39, ,
55, ,39, ,
52, ,40, ,
44, ,39, ,
41, ,39, ,
36, ,39, ,
30, ,39, ,
18, ,39, ,
11, ,39, ,
3, ,40, ,
-5, ,40, ,
-22, ,40, ,
-28, ,40, ,
-35, ,39, ,
-40, ,39, ,
-47, ,40, ,
-48, ,39, ,
-47, ,39, ,
-46, ,40, ,
-37, ,40, ,
-30, ,40, ,
-24, ,40, ,
-15, ,39, ,
0, ,39, ,
7, ,39, ,
13, ,40, ,
17, ,39, ,
22, ,39, ,
23, ,39, ,
21, ,40, ,
18, ,40, ,
7, ,40, ,
-1, ,40, ,
-9, ,40, ,
-19, ,40, ,
-37, ,39, ,
-46, ,39, ,
-53, ,39, ,
-59, ,39, ,
-64, ,39, ,
-65, ,39, ,
-63, ,39, ,
-59, ,39, ,
-48, ,39, ,
-40, ,39, ,
-31, ,40, ,
-23, ,39, ,
-5, ,39, ,
3, ,39, ,
10, ,40, ,
17, ,40, ,
26, ,39, ,
29, ,39, ,
32, ,39, ,
34, ,39, ,
34, ,39, ,
34, ,39, ,
33, ,39, ,
32, ,40, ,
29, ,40, ,
28, ,40, ,
26, ,39, ,
25, ,39, ,
21, ,39, ,
19, ,39, ,
17, ,39, ,
14, ,40, ,
12, ,40, ,
10, ,40, ,
8, ,40, ,
7, ,39, ,
4, ,39, ,
2, ,39, ,
2, ,40, ,
0, ,40, ,
-2, ,40, ,
-2, ,39, ,
-3, ,39, ,
-5, ,40, ,
-6, ,40, ,
-8, ,40, ,
-10, ,39, ,
-12, ,39, ,
-16, ,40, ,
-19, ,40, ,
-22, ,39, ,
-24, ,39, ,
-29, ,40, ,
-31, ,39, ,
-34, ,39, ,
-36, ,39, ,
-40, ,39, ,
-42, ,39, ,
-43, ,39, ,
-45, ,39, ,
-47, ,40, ,
-48, ,40, ,
-49, ,40, ,
-50, ,40, ,
-50, ,39, ,
-49, ,39, ,
-49, ,39, ,
-48, ,40, ,
-44, ,40, ,
-42, ,40, ,
-39, ,40, ,
-36, ,39, ,
-27, ,39, ,
-23, ,40, ,
-18, ,39, ,
-12, ,39, ,
-1, ,39, ,
4, ,39, ,
9, ,39, ,
14, ,39, ,
23, ,39, ,
26, ,39, ,
30, ,39, ,
33, ,39, ,
38, ,39, ,
39, ,39, ,
41, ,39, ,
42, ,39, ,
43, ,39, ,
44, ,39, ,
43, ,39, ,
43, ,39, ,
43, ,39, ,
42, ,39, ,
41, ,39, ,
40, ,40, ,
38, ,39, ,
36, ,39, ,
34, ,39, ,
32, ,39, ,
25, ,40, ,
21, ,39, ,
15, ,39, ,
10, ,40, ,
-4, ,40, ,
-11, ,40, ,
-19, ,39, ,
-25, ,39, ,
-38, ,39, ,
-45, ,39, ,
-50, ,39, ,
-54, ,39, ,
-62, ,40, ,
-64, ,40, ,
-64, ,40, ,
-64, ,40, ,
-61, ,40, ,
-59, ,40, ,
-56, ,40, ,
-52, ,40, ,
-43, ,40, ,
-37, ,40, ,
-33, ,40, ,
-27, ,39, ,
-16, ,39, ,
-10, ,40, ,
-5, ,40, ,
1, ,40, ,
12, ,40, ,
17, ,40, ,
22, ,40, ,
27, ,39, ,
35, ,39, ,
39, ,40, ,
43, ,40, ,
44, ,40, ,
46, ,40, ,
46, ,40, ,
45, ,40, ,
43, ,40, ,
36, ,39, ,
31, ,39, ,
25, ,39, ,
18, ,40, ,
2, ,40, ,
-8, ,40, ,
-17, ,40, ,
-25, ,40, ,
-41, ,40, ,
-47, ,40, ,
-52, ,40, ,
-56, ,39, ,
-58, ,39, ,
-57, ,40, ,
-54, ,40, ,
-50, ,39, ,
-37, ,39, ,
-29, ,39, ,
-21, ,40, ,
-12, ,40, ,
7, ,39, ,
17, ,39, ,
24, ,39, ,
30, ,39, ,
42, ,39, ,
45, ,39, ,
47, ,39, ,
47, ,39, ,
45, ,39, ,
42, ,39, ,
37, ,40, ,
32, ,40, ,
19, ,40, ,
10, ,40, ,
1, ,40, ,
-8, ,40, ,
-24, ,39, ,
-31, ,39, ,
-36, ,39, ,
-41, ,39, ,
-45, ,39, ,
-46, ,39, ,
-44, ,40, ,
-42, ,39, ,
-33, ,39, ,
-27, ,39, ,
-21, ,39, ,
-14, ,39, ,
0, ,39, ,
6, ,39, ,
11, ,39, ,
16, ,39, ,
20, ,39, ,
20, ,39, ,
18, ,39, ,
16, ,40, ,
9, ,40, ,
3, ,40, ,
-3, ,40, ,
-10, ,39, ,
-21, ,39, ,
-26, ,40, ,
-32, ,40, ,
-36, ,40, ,
-42, ,40, ,
-45, ,39, ,
-46, ,39, ,
-46, ,40, ,
-45, ,39, ,
-43, ,39, ,
-42, ,39, ,
-39, ,39, ,
-34, ,39, ,
-32, ,39, ,
-29, ,40, ,
-28, ,40, ,
-24, ,40, ,
-22, ,40, ,
-21, ,39, ,
-19, ,39, ,
-14, ,39, ,
-13, ,39, ,
-10, ,40, ,
-8, ,40, ,
-2, ,39, ,
2, ,39, ,
6, ,39, ,
9, ,40, ,
16, ,40, ,
19, ,40, ,
22, ,40, ,
24, ,39, ,
28, ,39, ,
29, ,39, ,
31, ,39, ,
31, ,39, ,
33, ,39, ,
32, ,39, ,
32, ,39, ,
31, ,40, ,
29, ,40, ,
28, ,40, ,
26, ,39, ,
25, ,39, ,
21, ,39, ,
19, ,39, ,
16, ,40, ,
13, ,39, ,
8, ,39, ,
6, ,39, ,
3, ,39, ,
0, ,39, ,
-2, ,39, ,
-3, ,39, ,
-3, ,39, ,
-2, ,40, ,
-1, ,39, ,
1, ,39, ,
3, ,39, ,
5, ,39, ,
10, ,39, ,
11, ,39, ,
14, ,39, ,
15, ,39, ,
16, ,39, ,
16, ,40, ,
14, ,39, ,
14, ,39, ,
9, ,39, ,
6, ,39, ,
3, ,39, ,
0, ,40, ,
-6, ,40, ,
-10, ,40, ,
-13, ,39, ,
-15, ,39, ,
-20, ,40, ,
-23, ,40, ,
-24, ,40, ,
-25, ,39, ,
-28, ,39, ,
-29, ,40, ,
-30, ,40, ,
-31, ,40, ,
-32, ,40, ,
-34, ,40, ,
-34, ,40, ,
-36, ,40, ,
-37, ,39, ,
-38, ,39, ,
-39, ,39, ,
-40, ,39, ,
-40, ,40, ,
-40, ,40, ,
-40, ,40, ,
-40, ,39, ,
-39, ,39, ,
-38, ,40, ,
-37, ,40, ,
-35, ,39, ,
-31, ,39, ,
-29, ,39, ,
-26, ,39, ,
-24, ,39, ,
-15, ,39, ,
-10, ,40, ,
-5, ,40, ,
1, ,40, ,
14, ,40, ,
21, ,40, ,
27, ,40, ,
33, ,39, ,
46, ,39, ,
53, ,40, ,
58, ,39, ,
63, ,39, ,
70, ,40, ,
72, ,39, ,
71, ,39, ,
71, ,40, ,
68, ,39, ,
65, ,39, ,
60, ,39, ,
56, ,39, ,
42, ,39, ,
35, ,39, ,
27, ,39, ,
20, ,39, ,
4, ,39, ,
-3, ,40, ,
-10, ,40, ,
-16, ,39, ,
-25, ,39, ,
-29, ,39, ,
-29, ,39, ,
-30, ,39, ,
-29, ,39, ,
-26, ,40, ,
-25, ,39, ,
-20, ,39, ,
-11, ,40, ,
-6, ,40, ,
0, ,40, ,
4, ,39, ,
13, ,39, ,
18, ,39, ,
20, ,40, ,
22, ,40, ,
23, ,40, ,
22, ,39, ,
20, ,39, ,
17, ,40, ,
8, ,40, ,
3, ,40, ,
-4, ,39, ,
-10, ,39, ,
-25, ,39, ,
-31, ,39, ,
-38, ,40, ,
-46, ,39, ,
-55, ,39, ,
-59, ,39, ,
-62, ,40, ,
-63, ,40, ,
-63, ,40, ,
-62, ,40, ,
-59, ,40, ,
-56, ,40, ,
-45, ,39, ,
-40, ,39, ,
-34, ,39, ,
-27, ,39, ,
-13, ,39, ,
-7, ,39, ,
0, ,39, ,
6, ,39, ,
18, ,40, ,
23, ,40, ,
26, ,40, ,
30, ,40, ,
36, ,40, ,
37, ,39, ,
37, ,39, ,
37, ,39, ,
34, ,39, ,
32, ,39, ,
28, ,39, ,
25, ,39, ,
14, ,39, ,
8, ,39, ,
1, ,39, ,
-7, ,40, ,
-20, ,40, ,
-25, ,40, ,
-32, ,39, ,
-37, ,39, ,
-44, ,39, ,
-46, ,39, ,
-45, ,40, ,
-45, ,40, ,
-40, ,40, ,
-34, ,40, ,
-29, ,40, ,
-22, ,39, ,
-5, ,39, ,
3, ,39, ,
14, ,39, ,
23, ,40, ,
40, ,39, ,
48, ,39, ,
55, ,39, ,
62, ,39, ,
71, ,39, ,
73, ,39, ,
74, ,39, ,
74, ,39, ,
70, ,39, ,
67, ,40, ,
61, ,40, ,
55, ,39, ,
38, ,39, ,
28, ,39, ,
18, ,39, ,
7, ,39, ,
-15, ,39, ,
-25, ,40, ,
-35, ,40, ,
-44, ,40, ,
-56, ,40, ,
-61, ,39, ,
-63, ,39, ,
-63, ,39, ,
-59, ,40, ,
-55, ,39, ,
-49, ,39, ,
-42, ,39, ,
-27, ,39, ,
-19, ,39, ,
-10, ,39, ,
-4, ,39, ,
10, ,39, ,
14, ,40, ,
17, ,40, ,
18, ,40, ,
17, ,40, ,
14, ,40, ,
11, ,39, ,
7, ,39, ,
-4, ,39, ,
-9, ,39, ,
-15, ,39, ,
-19, ,39, ,
-27, ,39, ,
-30, ,39, ,
-31, ,39, ,
-31, ,39, ,
-29, ,39, ,
-27, ,39, ,
-25, ,39, ,
-21, ,39, ,
-12, ,40, ,
-8, ,39, ,
-2, ,39, ,
2, ,39, ,
10, ,39, ,
14, ,40, ,
17, ,40, ,
19, ,39, ,
20, ,39, ,
20, ,39, ,
19, ,39, ,
17, ,39, ,
13, ,39, ,
11, ,40, ,
8, ,40, ,
5, ,39, ,
1, ,39, ,
-3, ,39, ,
-4, ,39, ,
-6, ,39, ,
-6, ,39, ,
-6, ,40, ,
-5, ,39, ,
-2, ,39, ,
3, ,39, ,
7, ,39, ,
11, ,40, ,
15, ,39, ,
24, ,39, ,
29, ,39, ,
33, ,40, ,
37, ,40, ,
42, ,40, ,
43, ,39, ,
42, ,39, ,
42, ,39, ,
36, ,39, ,
31, ,39, ,
26, ,39, ,
20, ,39, ,
4, ,40, ,
-5, ,40, ,
-14, ,40, ,
-23, ,39, ,
-39, ,39, ,
-46, ,39, ,
-53, ,39, ,
-57, ,39, ,
-64, ,39, ,
-63, ,39, ,
-64, ,39, ,
-62, ,40, ,
-55, ,40, ,
-50, ,39, ,
-43, ,39, ,
-36, ,40, ,
-24, ,40, ,
-17, ,39, ,
-10, ,39, ,
-5, ,39, ,
5, ,39, ,
9, ,39, ,
12, ,39, ,
13, ,39, ,
14, ,39, ,
13, ,40, ,
13, ,40, ,
11, ,39, ,
7, ,39, ,
5, ,40, ,
2, ,40, ,
0, ,39, ,
-6, ,39, ,
-9, ,39, ,
-12, ,39, ,
-14, ,39, ,
-18, ,39, ,
-19, ,39, ,
-20, ,39, ,
-21, ,39, ,
-20, ,40, ,
-21, ,40, ,
-19, ,39, ,
-18, ,39, ,
-13, ,39, ,
-10, ,39, ,
-7, ,39, ,
-4, ,39, ,
3, ,39, ,
7, ,39, ,
12, ,39, ,
14, ,39, ,
21, ,39, ,
23, ,40, ,
24, ,39, ,
26, ,39, ,
28, ,39, ,
28, ,39, ,
28, ,40, ,
27, ,40, ,
26, ,39, ,
25, ,39, ,
24, ,39, ,
23, ,39, ,
21, ,39, ,
19, ,39, ,
18, ,40, ,
17, ,39, ,
15, ,39, ,
15, ,39, ,
14, ,39, ,
14, ,39, ,
12, ,39, ,
11, ,40, ,
11, ,39, ,
10, ,39, ,
8, ,40, ,
7, ,40, ,
4, ,40, ,
2, ,39, ,
-3, ,39, ,
-6, ,39, ,
-8, ,40, ,
-13, ,39, ,
-19, ,39, ,
-22, ,39, ,
-25, ,39, ,
-27, ,39, ,
-31, ,39, ,
-33, ,39, ,
-33, ,39, ,
-33, ,39, ,
-32, ,39, ,
-29, ,39, ,
-28, ,39, ,
-25, ,40, ,
-18, ,40, ,
-14, ,40, ,
-10, ,40, ,
-6, ,39, ,
2, ,39, ,
4, ,39, ,
6, ,39, ,
8, ,39, ,
8, ,40, ,
6, ,39, ,
4, ,39, ,
2, ,39, ,
-5, ,39, ,
-8, ,39, ,
-11, ,39, ,
-15, ,39, ,
-21, ,39, ,
-24, ,39, ,
-25, ,40, ,
-25, ,39, ,
-25, ,39, ,
-22, ,39, ,
-19, ,39, ,
-15, ,40, ,
-5, ,40, ,
0, ,40, ,
7, ,40, ,
12, ,40, ,
25, ,40, ,
30, ,40, ,
34, ,40, ,
39, ,39, ,
45, ,39, ,
47, ,39, ,
47, ,39, ,
46, ,39, ,
44, ,39, ,
41, ,40, ,
38, ,39, ,
35, ,39, ,
28, ,39, ,
24, ,40, ,
20, ,39, ,
16, ,39, ,
8, ,40, ,
6, ,39, ,
2, ,39, ,
0, ,40, ,
-4, ,40, ,
-6, ,40, ,
-7, ,40, ,
-9, ,40, ,
-12, ,39, ,
-13, ,39, ,
-15, ,39, ,
-15, ,39, ,
-20, ,39, ,
-22, ,39, ,
-24, ,39, ,
-25, ,39, ,
-28, ,39, ,
-29, ,40, ,
-30, ,40, ,
-30, ,40, ,
-30, ,39, ,
-29, ,39, ,
-28, ,39, ,
-27, ,40, ,
-24, ,39, ,
-22, ,39, ,
-21, ,39, ,
-19, ,39, ,
-15, ,39, ,
-15, ,39, ,
-14, ,39, ,
-14, ,39, ,
-15, ,39, ,
-15, ,39, ,
-15, ,39, ,
-14, ,40, ,
-14, ,39, ,
-13, ,39, ,
-11, ,39, ,
-9, ,39, ,
-2, ,39, ,
3, ,39, ,
8, ,39, ,
13, ,39, ,
25, ,39, ,
30, ,39, ,
36, ,39, ,
40, ,39, ,
47, ,39, ,
50, ,39, ,
50, ,39, ,
50, ,39, ,
46, ,39, ,
43, ,39, ,
39, ,40, ,
32, ,39, ,
21, ,39, ,
14, ,39, ,
6, ,39, ,
0, ,39, ,
-13, ,39, ,
-19, ,39, ,
-24, ,40, ,
-28, ,39, ,
-33, ,39, ,
-34, ,39, ,
-34, ,39, ,
-33, ,39, ,
-31, ,39, ,
-30, ,39, ,
-27, ,39, ,
-25, ,40, ,
-20, ,39, ,
-17, ,39, ,
-15, ,39, ,
-12, ,39, ,
-6, ,39, ,
-4, ,39, ,
-1, ,40, ,
1, ,40, ,
6, ,40, ,
8, ,40, ,
10, ,40, ,
13, ,40, ,
15, ,39, ,
17, ,39, ,
18, ,39, ,
18, ,39, ,
19, ,39, ,
18, ,40, ,
18, ,39, ,
17, ,39, ,
15, ,39, ,
13, ,39, ,
13, ,39, ,
12, ,39, ,
11, ,39, ,
11, ,39, ,
11, ,39, ,
11, ,39, ,
11, ,39, ,
11, ,39, ,
12, ,40, ,
11, ,39, ,
10, ,39, ,
10, ,39, ,
9, ,39, ,
8, ,39, ,
4, ,40, ,
1, ,40, ,
-1, ,40, ,
-5, ,39, ,
-10, ,39, ,
-13, ,39, ,
-16, ,39, ,
-18, ,40, ,
-21, ,40, ,
-21, ,40, ,
-20, ,40, ,
-20, ,39, ,
-18, ,39, ,
-14, ,40, ,
-13, ,40, ,
-11, ,40, ,
-5, ,40, ,
-4, ,40, ,
-2, ,39, ,
-1, ,39, ,
-1, ,39, ,
-1, ,39, ,
-2, ,39, ,
-3, ,40, ,
-7, ,39, ,
-9, ,39, ,
-11, ,39, ,
-14, ,39, ,
-17, ,39, ,
-19, ,39, ,
-21, ,39, ,
-21, ,39, ,
-21, ,39, ,
-21, ,39, ,
-20, ,39, ,
-20, ,39, ,
-17, ,39, ,
-15, ,39, ,
-13, ,39, ,
-12, ,40, ,
-8, ,39, ,
-6, ,39, ,
-4, ,39, ,
-3, ,40, ,
1, ,40, ,
3, ,40, ,
5, ,40, ,
8, ,39, ,
13, ,39, ,
15, ,39, ,
18, ,39, ,
19, ,39, ,
25, ,39, ,
26, ,40, ,
28, ,39, ,
30, ,39, ,
32, ,40, ,
33, ,40, ,
33, ,40, ,
32, ,40, ,
31, ,40, ,
30, ,40, ,
28, ,39, ,
26, ,39, ,
23, ,39, ,
20, ,39, ,
18, ,39, ,
15, ,40, ,
9, ,40, ,
7, ,39, ,
4, ,39, ,
1, ,39, ,
-4, ,40, ,
-7, ,40, ,
-8, ,40, ,
-11, ,39, ,
-15, ,39, ,
-16, ,40, ,
-17, ,39, ,
-18, ,39, ,
-18, ,39, ,
-18, ,39, ,
-18, ,39, ,
-18, ,40, ,
-17, ,39, ,
-15, ,39, ,
-14, ,39, ,
-12, ,40, ,
-10, ,40, ,
-9, ,39, ,
-7, ,39, ,
-7, ,39, ,
-4, ,39, ,
-3, ,40, ,
-2, ,40, ,
-1, ,40, ,
0, ,40, ,
1, ,39, ,
2, ,39, ,
2, ,39, ,
3, ,39, ,
4, ,40, ,
4, ,40, ,
5, ,39, ,
5, ,39, ,
6, ,39, ,
6, ,40, ,
6, ,40, ,
5, ,39, ,
5, ,39, ,
4, ,39, ,
4, ,40, ,
3, ,40, ,
2, ,40, ,
2, ,40, ,
2, ,40, ,
1, ,39, ,
1, ,39, ,
1, ,39, ,
1, ,39, ,
1, ,40, ,
1, ,40, ,
1, ,40, ,
1, ,39, ,
1, ,39, ,
1, ,40, ,
0, ,40, ,
0, ,40, ,
-1, ,40, ,
-2, ,40, ,
-3, ,40, ,
-4, ,39, ,
-6, ,39, ,
-7, ,40, ,
-8, ,39, ,
-8, ,39, ,
-8, ,40, ,
-8, ,39, ,
-7, ,39, ,
-7, ,39, ,
-5, ,39, ,
-4, ,39, ,
-4, ,39, ,
-2, ,39, ,
-1, ,39, ,
0, ,39, ,
1, ,39, ,
1, ,40, ,
0, ,40, ,
0, ,39, ,
-1, ,39, ,
-2, ,39, ,
-5, ,39, ,
-7, ,39, ,
-8, ,40, ,
-10, ,39, ,
-13, ,39, ,
-14, ,39, ,
-15, ,39, ,
-15, ,39, ,
-15, ,39, ,
-15, ,40, ,
-15, ,40, ,
-13, ,40, ,
-11, ,40, ,
-9, ,40, ,
-6, ,40, ,
-4, ,40, ,
1, ,39, ,
4, ,39, ,
7, ,39, ,
10, ,39, ,
16, ,39, ,
19, ,40, ,
21, ,40, ,
23, ,39, ,
26, ,39, ,
27, ,39, ,
28, ,40, ,
27, ,40, ,
26, ,39, ,
25, ,39, ,
25, ,39, ,
23, ,39, ,
17, ,39, ,
14, ,39, ,
11, ,40, ,
7, ,39, ,
0, ,39, ,
-2, ,39, ,
-6, ,39, ,
-8, ,39, ,
-12, ,40, ,
-14, ,40, ,
-15, ,40, ,
-15, ,40, ,
-13, ,40, ,
-12, ,40, ,
-11, ,39, ,
-8, ,39, ,
-3, ,39, ,
-1, ,39, ,
1, ,39, ,
3, ,39, ,
6, ,39, ,
8, ,40, ,
9, ,39, ,
9, ,39, ,
8, ,40, ,
7, ,39, ,
6, ,39, ,
4, ,39, ,
1, ,39, ,
-1, ,39, ,
-3, ,39, ,
-5, ,39, ,
-10, ,40, ,
-12, ,39, ,
-14, ,39, ,
-16, ,39, ,
-18, ,39, ,
-19, ,40, ,
-19, ,39, ,
-19, ,39, ,
-18, ,39, ,
-18, ,39, ,
-18, ,39, ,
-17, ,39, ,
-15, ,39, ,
-13, ,40, ,
-12, ,40, ,
-10, ,40, ,
-6, ,40, ,
-4, ,40, ,
-1, ,40, ,
0, ,40, ,
5, ,40, ,
8, ,40, ,
10, ,39, ,
13, ,39, ,
18, ,39, ,
19, ,39, ,
21, ,39, ,
22, ,39, ,
24, ,39, ,
