raw_data/75% Glycerol, Impulsion 2Hz, Sonde 5MHz, Rampe 0.7Hz/temp0000323.CSV

Format,1.0B,
Memory Length,10000,Memory Length,10000,
IntpDistance,0,IntpDistance,0,
Trigger Address,159,Trigger Address,159,
Trigger Level,2.720E-01,Trigger Level,2.720E-01,
Source,CH1,Source,CH2,
Vertical Units,V,Vertical Units,V,
Vertical Units Div,0,Vertical Units Div,0,
Vertical Units Extend Div,16,Vertical Units Extend Div,16,
Label,,Label,,
Probe Type,0,Probe Type,0,
Probe Ratio,1.000e+00,Probe Ratio,1.000e+00,
Vertical Scale,5.000e-01,Vertical Scale,2.000e+00,
Vertical Position,0.000e+00,Vertical Position,0.000e+00,
Horizontal Units,S,Horizontal Units,S,
Horizontal Scale,5.000E-06,Horizontal Scale,5.000E-06,
Horizontal Position,2.420E-05,Horizontal Position,2.420E-05,
Horizontal Mode,Main,Horizontal Mode,Main,
SincET Mode,Real Time,SincET Mode,Real Time,
Sampling Period,5.000e-09,Sampling Period,5.000e-09,
Horizontal Old Scale,5.000E-06,Horizontal Old Scale,5.000E-06,
Horizontal Old Position,2.420E-05,Horizontal Old Position,2.420E-05,
Firmware,V1.32,Firmware,V1.32,
Mode,Fast,Mode,Fast,
Waveform Data,,Waveform Data,,
1, ,0, ,
1, ,0, ,
1, ,0, ,
1, ,0, ,
0, ,1, ,
0, ,0, ,
0, ,0, ,
0, ,1, ,
0, ,0, ,
0, ,0, ,
0, ,1, ,
0, ,1, ,
0, ,0, ,
0, ,0, ,
0, ,1, ,
0, ,1, ,
0, ,0, ,
0, ,0, ,
1, ,1, ,
0, ,1, ,
0, ,1, ,
0, ,1, ,
0, ,0, ,
0, ,0, ,
0, ,1, ,
0, ,1, ,
1, ,1, ,
0, ,0, ,
0, ,0, ,
1, ,0, ,
0, ,1, ,
0, ,1, ,
0, ,1, ,
1, ,1, ,
1, ,0, ,
0, ,0, ,
0, ,0, ,
0, ,1, ,
1, ,1, ,
0, ,1, ,
0, ,0, ,
1, ,0, ,
0, ,1, ,
0, ,0, ,
1, ,0, ,
0, ,0, ,
0, ,1, ,
0, ,1, ,
0, ,1, ,
0, ,1, ,
0, ,1, ,
0, ,1, ,
0, ,1, ,
0, ,0, ,
0, ,0, ,
0, ,0, ,
0, ,0, ,
0, ,1, ,
1, ,1, ,
1, ,1, ,
0, ,1, ,
0, ,1, ,
0, ,1, ,
0, ,1, ,
0, ,1, ,
0, ,1, ,
0, ,1, ,
0, ,1, ,
0, ,1, ,
1, ,0, ,
0, ,0, ,
0, ,1, ,
1, ,1, ,
0, ,1, ,
1, ,1, ,
0, ,1, ,
0, ,1, ,
0, ,1, ,
0, ,1, ,
0, ,1, ,
0, ,0, ,
0, ,0, ,
0, ,0, ,
0, ,0, ,
0, ,1, ,
1, ,1, ,
0, ,1, ,
0, ,1, ,
1, ,1, ,
0, ,0, ,
0, ,0, ,
0, ,1, ,
0, ,1, ,
0, ,0, ,
0, ,0, ,
0, ,0, ,
0, ,0, ,
0, ,1, ,
1, ,1, ,
0, ,1, ,
0, ,1, ,
0, ,1, ,
0, ,1, ,
0, ,1, ,
0, ,1, ,
1, ,1, ,
1, ,1, ,
0, ,0, ,
0, ,0, ,
1, ,0, ,
1, ,1, ,
0, ,1, ,
0, ,1, ,
0, ,1, ,
0, ,1, ,
0, ,1, ,
0, ,1, ,
1, ,1, ,
1, ,1, ,
1, ,1, ,
1, ,1, ,
0, ,1, ,
0, ,1, ,
1, ,1, ,
0, ,0, ,
0, ,0, ,
0, ,1, ,
0, ,1, ,
1, ,1, ,
0, ,1, ,
0, ,0, ,
0, ,0, ,
0, ,0, ,
1, ,1, ,
0, ,1, ,
0, ,1, ,
0, ,1, ,
0, ,1, ,
0, ,1, ,
0, ,1, ,
0, ,1, ,
0, ,1, ,
0, ,1, ,
0, ,1, ,
1, ,1, ,
1, ,1, ,
1, ,1, ,
0, ,1, ,
0, ,1, ,
0, ,1, ,
0, ,1, ,
0, ,1, ,
0, ,1, ,
0, ,1, ,
0, ,1, ,
0, ,1, ,
0, ,1, ,
1, ,1, ,
0, ,1, ,
0, ,1, ,
0, ,1, ,
0, ,1, ,
0, ,1, ,
1, ,1, ,
-1, ,1, ,
-2, ,0, ,
-1, ,0, ,
6, ,1, ,
27, ,1, ,
61, ,1, ,
102, ,1, ,
123, ,1, ,
120, ,1, ,
76, ,1, ,
17, ,1, ,
23, ,1, ,
77, ,1, ,
125, ,1, ,
125, ,0, ,
125, ,0, ,
125, ,1, ,
125, ,0, ,
125, ,0, ,
124, ,1, ,
124, ,1, ,
118, ,1, ,
113, ,1, ,
105, ,1, ,
101, ,1, ,
99, ,1, ,
95, ,1, ,
88, ,1, ,
84, ,1, ,
81, ,1, ,
78, ,0, ,
73, ,0, ,
70, ,1, ,
68, ,1, ,
64, ,1, ,
59, ,1, ,
57, ,1, ,
55, ,1, ,
53, ,1, ,
48, ,1, ,
46, ,1, ,
44, ,1, ,
42, ,0, ,
38, ,0, ,
37, ,0, ,
35, ,1, ,
34, ,0, ,
31, ,0, ,
29, ,1, ,
28, ,1, ,
27, ,1, ,
25, ,1, ,
24, ,1, ,
23, ,1, ,
22, ,1, ,
20, ,0, ,
19, ,0, ,
19, ,0, ,
17, ,1, ,
16, ,1, ,
15, ,1, ,
14, ,1, ,
13, ,1, ,
11, ,1, ,
11, ,1, ,
10, ,0, ,
10, ,0, ,
9, ,1, ,
8, ,1, ,
8, ,1, ,
7, ,0, ,
6, ,0, ,
6, ,0, ,
6, ,1, ,
5, ,1, ,
4, ,1, ,
4, ,1, ,
4, ,1, ,
4, ,0, ,
3, ,0, ,
3, ,0, ,
3, ,0, ,
2, ,1, ,
2, ,1, ,
2, ,1, ,
1, ,1, ,
1, ,1, ,
1, ,1, ,
0, ,1, ,
0, ,1, ,
0, ,1, ,
1, ,1, ,
1, ,1, ,
0, ,1, ,
0, ,1, ,
0, ,1, ,
0, ,1, ,
0, ,1, ,
0, ,0, ,
-1, ,0, ,
-1, ,0, ,
-1, ,0, ,
-1, ,1, ,
-1, ,1, ,
-1, ,1, ,
-1, ,1, ,
-1, ,1, ,
-1, ,1, ,
-1, ,1, ,
-1, ,1, ,
-1, ,1, ,
-1, ,1, ,
-1, ,1, ,
-1, ,1, ,
-1, ,0, ,
-1, ,0, ,
-1, ,1, ,
-1, ,1, ,
-1, ,1, ,
-1, ,1, ,
-2, ,1, ,
-2, ,1, ,
-2, ,0, ,
-2, ,0, ,
-2, ,0, ,
-2, ,1, ,
-1, ,1, ,
-2, ,0, ,
-2, ,0, ,
-1, ,0, ,
-2, ,0, ,
-1, ,0, ,
-1, ,0, ,
-2, ,0, ,
-2, ,1, ,
-1, ,1, ,
-1, ,1, ,
-1, ,1, ,
-1, ,1, ,
-1, ,1, ,
-1, ,1, ,
-1, ,1, ,
-1, ,0, ,
-1, ,0, ,
-1, ,1, ,
-1, ,0, ,
-1, ,0, ,
-1, ,1, ,
-1, ,0, ,
-1, ,0, ,
-1, ,0, ,
-1, ,0, ,
-1, ,1, ,
-1, ,1, ,
-1, ,1, ,
-1, ,1, ,
-1, ,1, ,
-1, ,1, ,
-1, ,0, ,
-1, ,0, ,
-1, ,1, ,
-1, ,1, ,
-1, ,1, ,
-1, ,1, ,
-1, ,1, ,
-1, ,1, ,
-1, ,1, ,
-1, ,1, ,
-1, ,1, ,
0, ,1, ,
0, ,1, ,
-1, ,1, ,
-1, ,1, ,
-1, ,1, ,
0, ,1, ,
0, ,1, ,
0, ,1, ,
0, ,1, ,
0, ,1, ,
0, ,1, ,
0, ,1, ,
0, ,1, ,
0, ,1, ,
0, ,1, ,
0, ,1, ,
0, ,1, ,
0, ,1, ,
0, ,1, ,
0, ,1, ,
0, ,1, ,
0, ,1, ,
0, ,1, ,
0, ,1, ,
0, ,1, ,
0, ,1, ,
0, ,1, ,
0, ,1, ,
0, ,1, ,
0, ,1, ,
0, ,1, ,
0, ,1, ,
0, ,1, ,
0, ,1, ,
0, ,1, ,
0, ,1, ,
0, ,1, ,
0, ,1, ,
0, ,1, ,
0, ,1, ,
0, ,0, ,
0, ,0, ,
0, ,1, ,
0, ,1, ,
0, ,1, ,
0, ,1, ,
0, ,1, ,
0, ,1, ,
0, ,1, ,
0, ,1, ,
0, ,1, ,
0, ,1, ,
0, ,1, ,
0, ,0, ,
0, ,0, ,
0, ,1, ,
0, ,1, ,
0, ,0, ,
0, ,0, ,
0, ,0, ,
0, ,0, ,
0, ,0, ,
1, ,1, ,
1, ,1, ,
1, ,1, ,
0, ,1, ,
0, ,1, ,
0, ,1, ,
0, ,1, ,
0, ,1, ,
0, ,1, ,
0, ,1, ,
0, ,1, ,
0, ,1, ,
-1, ,1, ,
-1, ,1, ,
-1, ,1, ,
-1, ,1, ,
0, ,0, ,
0, ,0, ,
0, ,0, ,
0, ,1, ,
0, ,1, ,
0, ,1, ,
0, ,1, ,
0, ,0, ,
1, ,0, ,
1, ,1, ,
1, ,1, ,
0, ,1, ,
0, ,1, ,
0, ,1, ,
0, ,1, ,
0, ,1, ,
0, ,0, ,
0, ,0, ,
0, ,0, ,
0, ,0, ,
0, ,1, ,
0, ,1, ,
0, ,1, ,
0, ,1, ,
0, ,1, ,
0, ,1, ,
0, ,0, ,
-1, ,0, ,
-2, ,1, ,
-2, ,1, ,
-3, ,1, ,
-3, ,1, ,
-5, ,1, ,
-5, ,1, ,
-4, ,1, ,
-4, ,1, ,
-3, ,0, ,
-3, ,0, ,
-2, ,0, ,
-1, ,0, ,
0, ,0, ,
0, ,1, ,
1, ,1, ,
1, ,1, ,
1, ,1, ,
1, ,1, ,
1, ,1, ,
1, ,1, ,
1, ,1, ,
0, ,1, ,
0, ,1, ,
-1, ,1, ,
-2, ,1, ,
-3, ,1, ,
-4, ,1, ,
-6, ,1, ,
-6, ,1, ,
-6, ,1, ,
-5, ,1, ,
-4, ,1, ,
-3, ,1, ,
-2, ,1, ,
-1, ,1, ,
0, ,1, ,
0, ,1, ,
1, ,1, ,
1, ,1, ,
1, ,1, ,
2, ,1, ,
2, ,1, ,
1, ,1, ,
1, ,1, ,
1, ,1, ,
1, ,1, ,
1, ,0, ,
1, ,0, ,
2, ,1, ,
2, ,0, ,
2, ,0, ,
2, ,1, ,
3, ,1, ,
3, ,1, ,
3, ,0, ,
3, ,0, ,
3, ,1, ,
2, ,1, ,
2, ,1, ,
2, ,1, ,
2, ,1, ,
1, ,1, ,
1, ,1, ,
1, ,1, ,
1, ,1, ,
1, ,1, ,
1, ,1, ,
1, ,1, ,
1, ,1, ,
1, ,1, ,
1, ,0, ,
1, ,0, ,
1, ,0, ,
1, ,0, ,
1, ,1, ,
1, ,1, ,
1, ,1, ,
1, ,1, ,
0, ,1, ,
0, ,1, ,
-1, ,1, ,
-2, ,1, ,
-3, ,1, ,
-4, ,1, ,
-9, ,1, ,
-11, ,1, ,
-13, ,1, ,
-16, ,0, ,
-19, ,0, ,
-19, ,0, ,
-19, ,0, ,
-19, ,0, ,
-16, ,1, ,
-14, ,1, ,
-13, ,0, ,
-11, ,0, ,
-8, ,1, ,
-7, ,1, ,
-6, ,1, ,
-5, ,1, ,
-6, ,1, ,
-6, ,1, ,
-7, ,1, ,
-8, ,1, ,
-12, ,1, ,
-13, ,0, ,
-16, ,0, ,
-18, ,1, ,
-23, ,1, ,
-25, ,1, ,
-26, ,1, ,
-28, ,1, ,
-32, ,1, ,
-33, ,1, ,
-35, ,1, ,
-36, ,1, ,
-40, ,1, ,
-41, ,1, ,
-42, ,1, ,
-43, ,1, ,
-43, ,1, ,
-43, ,1, ,
-42, ,1, ,
-40, ,1, ,
-34, ,1, ,
-31, ,1, ,
-27, ,0, ,
-24, ,0, ,
-15, ,1, ,
-11, ,1, ,
-8, ,1, ,
-5, ,1, ,
0, ,1, ,
2, ,1, ,
4, ,1, ,
4, ,1, ,
3, ,1, ,
2, ,1, ,
0, ,1, ,
-1, ,1, ,
-3, ,1, ,
-5, ,1, ,
-6, ,1, ,
-6, ,0, ,
-6, ,0, ,
-5, ,1, ,
-4, ,1, ,
-3, ,1, ,
-1, ,1, ,
1, ,1, ,
2, ,1, ,
4, ,1, ,
5, ,1, ,
7, ,1, ,
7, ,1, ,
8, ,1, ,
8, ,1, ,
8, ,1, ,
8, ,1, ,
8, ,1, ,
9, ,1, ,
9, ,1, ,
9, ,1, ,
10, ,1, ,
11, ,0, ,
11, ,0, ,
13, ,0, ,
13, ,1, ,
15, ,1, ,
16, ,0, ,
16, ,0, ,
16, ,1, ,
16, ,1, ,
15, ,1, ,
13, ,0, ,
13, ,0, ,
10, ,1, ,
9, ,1, ,
7, ,1, ,
5, ,1, ,
1, ,1, ,
-2, ,1, ,
-3, ,1, ,
-6, ,0, ,
-9, ,0, ,
-11, ,0, ,
-13, ,1, ,
-14, ,1, ,
-16, ,1, ,
-16, ,1, ,
-16, ,1, ,
-16, ,0, ,
-16, ,0, ,
-16, ,1, ,
-15, ,1, ,
-15, ,1, ,
-14, ,1, ,
-14, ,1, ,
-14, ,1, ,
-14, ,0, ,
-13, ,0, ,
-13, ,0, ,
-13, ,1, ,
-13, ,1, ,
-10, ,0, ,
-10, ,0, ,
-9, ,0, ,
-8, ,1, ,
-7, ,1, ,
-5, ,1, ,
-5, ,1, ,
-4, ,1, ,
-5, ,1, ,
-5, ,1, ,
-6, ,1, ,
-8, ,1, ,
-9, ,1, ,
-11, ,0, ,
-13, ,0, ,
-14, ,1, ,
-17, ,1, ,
-17, ,1, ,
-18, ,0, ,
-18, ,0, ,
-17, ,1, ,
-17, ,1, ,
-16, ,1, ,
-15, ,1, ,
-13, ,1, ,
-12, ,1, ,
-10, ,1, ,
-10, ,1, ,
-7, ,1, ,
-6, ,1, ,
-5, ,1, ,
-5, ,0, ,
-2, ,0, ,
-2, ,0, ,
-2, ,0, ,
-2, ,0, ,
-3, ,1, ,
-3, ,1, ,
-4, ,1, ,
-4, ,1, ,
-6, ,1, ,
-7, ,0, ,
-9, ,0, ,
-10, ,1, ,
-13, ,1, ,
-14, ,1, ,
-15, ,1, ,
-15, ,1, ,
-16, ,1, ,
-16, ,1, ,
-15, ,1, ,
-15, ,0, ,
-14, ,0, ,
-14, ,0, ,
-13, ,0, ,
-12, ,1, ,
-11, ,1, ,
-11, ,1, ,
-10, ,1, ,
-10, ,0, ,
-8, ,0, ,
-7, ,0, ,
-6, ,1, ,
-5, ,1, ,
-3, ,0, ,
-2, ,0, ,
-2, ,0, ,
-1, ,1, ,
-1, ,1, ,
-2, ,0, ,
-2, ,0, ,
-2, ,1, ,
-3, ,0, ,
-3, ,0, ,
-3, ,0, ,
-3, ,1, ,
-2, ,1, ,
-2, ,0, ,
-1, ,0, ,
-1, ,1, ,
1, ,1, ,
2, ,1, ,
4, ,1, ,
4, ,1, ,
7, ,1, ,
8, ,1, ,
9, ,1, ,
10, ,0, ,
11, ,0, ,
12, ,1, ,
12, ,1, ,
12, ,0, ,
13, ,0, ,
13, ,0, ,
13, ,1, ,
13, ,0, ,
12, ,0, ,
12, ,1, ,
12, ,1, ,
12, ,1, ,
12, ,1, ,
12, ,1, ,
12, ,1, ,
12, ,1, ,
12, ,0, ,
11, ,0, ,
11, ,0, ,
10, ,0, ,
8, ,0, ,
7, ,0, ,
5, ,1, ,
4, ,1, ,
0, ,1, ,
-3, ,1, ,
-5, ,1, ,
-7, ,1, ,
-11, ,1, ,
-13, ,1, ,
-14, ,1, ,
-15, ,1, ,
-17, ,1, ,
-17, ,1, ,
-17, ,1, ,
-17, ,1, ,
-17, ,1, ,
-16, ,1, ,
-16, ,1, ,
-15, ,1, ,
-15, ,1, ,
-16, ,1, ,
-16, ,0, ,
-17, ,0, ,
-18, ,1, ,
-19, ,1, ,
-19, ,1, ,
-20, ,1, ,
-22, ,1, ,
-24, ,1, ,
-25, ,1, ,
-25, ,0, ,
-26, ,0, ,
-27, ,0, ,
-27, ,1, ,
-27, ,1, ,
-27, ,1, ,
-27, ,1, ,
-27, ,1, ,
-27, ,1, ,
-26, ,1, ,
-25, ,1, ,
-25, ,0, ,
-24, ,0, ,
-22, ,1, ,
-20, ,0, ,
-19, ,0, ,
-18, ,1, ,
-16, ,1, ,
-15, ,1, ,
-14, ,1, ,
-14, ,1, ,
-12, ,1, ,
-12, ,1, ,
-12, ,1, ,
-12, ,0, ,
-10, ,0, ,
-10, ,0, ,
-10, ,1, ,
-9, ,1, ,
-8, ,1, ,
-8, ,1, ,
-6, ,1, ,
-6, ,1, ,
-5, ,1, ,
-3, ,1, ,
-3, ,1, ,
-1, ,1, ,
0, ,1, ,
1, ,1, ,
2, ,1, ,
2, ,1, ,
4, ,1, ,
6, ,1, ,
7, ,0, ,
7, ,0, ,
9, ,1, ,
9, ,1, ,
10, ,1, ,
11, ,1, ,
11, ,1, ,
12, ,1, ,
12, ,1, ,
12, ,1, ,
12, ,1, ,
12, ,1, ,
13, ,0, ,
12, ,0, ,
11, ,0, ,
11, ,1, ,
10, ,1, ,
10, ,0, ,
8, ,0, ,
8, ,1, ,
7, ,1, ,
6, ,1, ,
6, ,1, ,
6, ,0, ,
6, ,0, ,
6, ,0, ,
6, ,0, ,
6, ,1, ,
7, ,1, ,
8, ,0, ,
8, ,0, ,
10, ,0, ,
11, ,0, ,
11, ,1, ,
12, ,1, ,
12, ,1, ,
11, ,1, ,
11, ,1, ,
9, ,0, ,
9, ,0, ,
7, ,0, ,
5, ,0, ,
1, ,0, ,
-2, ,0, ,
-4, ,1, ,
-8, ,1, ,
-12, ,1, ,
-15, ,1, ,
-18, ,1, ,
-20, ,0, ,
-24, ,0, ,
-26, ,1, ,
-27, ,1, ,
-28, ,1, ,
-28, ,1, ,
-27, ,0, ,
-27, ,0, ,
-26, ,1, ,
-24, ,1, ,
-23, ,1, ,
-20, ,1, ,
-18, ,1, ,
-13, ,1, ,
-10, ,1, ,
-9, ,1, ,
-7, ,1, ,
-4, ,1, ,
-3, ,1, ,
-2, ,1, ,
-2, ,1, ,
-3, ,1, ,
-4, ,1, ,
-5, ,1, ,
-5, ,1, ,
-8, ,1, ,
-10, ,1, ,
-12, ,1, ,
-13, ,1, ,
-16, ,1, ,
-16, ,0, ,
-17, ,0, ,
-17, ,1, ,
-17, ,1, ,
-18, ,1, ,
-17, ,1, ,
-17, ,1, ,
-15, ,1, ,
-14, ,1, ,
-14, ,1, ,
-12, ,0, ,
-11, ,0, ,
-10, ,1, ,
-8, ,0, ,
-8, ,0, ,
-6, ,1, ,
-4, ,1, ,
-2, ,1, ,
-1, ,1, ,
1, ,1, ,
2, ,1, ,
4, ,1, ,
4, ,1, ,
6, ,1, ,
7, ,1, ,
7, ,1, ,
7, ,1, ,
6, ,1, ,
4, ,1, ,
3, ,1, ,
1, ,1, ,
-2, ,1, ,
-5, ,1, ,
-6, ,1, ,
-8, ,1, ,
-11, ,1, ,
-12, ,1, ,
-13, ,1, ,
-14, ,0, ,
-14, ,0, ,
-14, ,0, ,
-13, ,1, ,
-12, ,1, ,
-10, ,1, ,
-9, ,1, ,
-8, ,1, ,
-6, ,1, ,
-4, ,1, ,
-3, ,1, ,
-2, ,0, ,
-1, ,0, ,
-2, ,0, ,
-2, ,1, ,
-2, ,1, ,
-2, ,1, ,
-2, ,1, ,
-2, ,1, ,
-2, ,1, ,
-2, ,0, ,
-2, ,0, ,
-2, ,0, ,
-1, ,1, ,
-1, ,1, ,
1, ,1, ,
3, ,1, ,
4, ,1, ,
5, ,1, ,
7, ,1, ,
8, ,1, ,
9, ,0, ,
9, ,0, ,
9, ,1, ,
9, ,1, ,
9, ,1, ,
8, ,1, ,
7, ,0, ,
6, ,0, ,
5, ,0, ,
4, ,1, ,
1, ,1, ,
0, ,1, ,
-1, ,1, ,
-2, ,0, ,
-4, ,0, ,
-4, ,1, ,
-5, ,0, ,
-6, ,0, ,
-6, ,1, ,
-6, ,1, ,
-7, ,1, ,
-7, ,1, ,
-7, ,1, ,
-8, ,1, ,
-7, ,1, ,
-8, ,1, ,
-8, ,1, ,
-8, ,0, ,
-8, ,0, ,
-8, ,1, ,
-8, ,1, ,
-8, ,1, ,
-8, ,1, ,
-8, ,0, ,
-8, ,0, ,
-6, ,1, ,
-7, ,1, ,
-7, ,1, ,
-6, ,1, ,
-6, ,1, ,
-6, ,1, ,
-6, ,0, ,
-6, ,0, ,
-5, ,1, ,
-5, ,1, ,
-4, ,1, ,
-3, ,1, ,
-3, ,1, ,
-2, ,1, ,
-2, ,0, ,
-2, ,0, ,
0, ,0, ,
1, ,1, ,
1, ,1, ,
3, ,1, ,
3, ,1, ,
4, ,1, ,
4, ,1, ,
6, ,1, ,
7, ,1, ,
6, ,1, ,
8, ,1, ,
8, ,1, ,
8, ,1, ,
8, ,1, ,
7, ,0, ,
6, ,0, ,
6, ,0, ,
5, ,0, ,
5, ,1, ,
4, ,0, ,
4, ,0, ,
4, ,0, ,
3, ,0, ,
3, ,0, ,
3, ,0, ,
2, ,1, ,
2, ,1, ,
2, ,0, ,
1, ,0, ,
1, ,0, ,
0, ,0, ,
-1, ,0, ,
-2, ,0, ,
-3, ,0, ,
-4, ,0, ,
-6, ,0, ,
-8, ,1, ,
-9, ,1, ,
-11, ,1, ,
-13, ,1, ,
-14, ,1, ,
-15, ,1, ,
-15, ,1, ,
-15, ,1, ,
-15, ,1, ,
-14, ,1, ,
-14, ,1, ,
-11, ,1, ,
-8, ,0, ,
-6, ,0, ,
-4, ,1, ,
1, ,1, ,
2, ,1, ,
5, ,0, ,
7, ,0, ,
11, ,1, ,
12, ,1, ,
12, ,1, ,
13, ,1, ,
12, ,1, ,
10, ,0, ,
10, ,0, ,
7, ,0, ,
3, ,0, ,
0, ,0, ,
-2, ,0, ,
-5, ,1, ,
-10, ,1, ,
-13, ,1, ,
-14, ,1, ,
-16, ,1, ,
-18, ,1, ,
-18, ,1, ,
-18, ,1, ,
-18, ,1, ,
-17, ,1, ,
-16, ,1, ,
-14, ,1, ,
-13, ,1, ,
-10, ,1, ,
-8, ,0, ,
-7, ,0, ,
-5, ,1, ,
-2, ,1, ,
1, ,1, ,
1, ,1, ,
2, ,0, ,
5, ,0, ,
6, ,1, ,
7, ,1, ,
7, ,1, ,
8, ,1, ,
7, ,1, ,
7, ,1, ,
7, ,1, ,
6, ,1, ,
5, ,1, ,
4, ,1, ,
3, ,0, ,
1, ,0, ,
0, ,1, ,
0, ,0, ,
-1, ,0, ,
-1, ,1, ,
-1, ,1, ,
-1, ,1, ,
0, ,1, ,
1, ,1, ,
2, ,1, ,
3, ,1, ,
4, ,1, ,
7, ,1, ,
8, ,1, ,
9, ,1, ,
11, ,1, ,
12, ,0, ,
13, ,0, ,
13, ,0, ,
12, ,0, ,
11, ,0, ,
11, ,0, ,
10, ,1, ,
9, ,1, ,
6, ,1, ,
3, ,1, ,
2, ,1, ,
-1, ,1, ,
-5, ,1, ,
-7, ,1, ,
-10, ,1, ,
-11, ,1, ,
-15, ,1, ,
-17, ,1, ,
-18, ,0, ,
-19, ,0, ,
-20, ,1, ,
-19, ,1, ,
-19, ,1, ,
-18, ,1, ,
-17, ,1, ,
-15, ,1, ,
-14, ,0, ,
-13, ,0, ,
-10, ,1, ,
-7, ,1, ,
-6, ,1, ,
-5, ,1, ,
-1, ,1, ,
-1, ,1, ,
1, ,1, ,
1, ,1, ,
3, ,1, ,
4, ,1, ,
4, ,1, ,
5, ,0, ,
5, ,0, ,
6, ,1, ,
6, ,1, ,
6, ,1, ,
6, ,1, ,
6, ,0, ,
6, ,0, ,
6, ,1, ,
6, ,1, ,
5, ,1, ,
5, ,1, ,
5, ,1, ,
3, ,1, ,
3, ,0, ,
2, ,0, ,
2, ,1, ,
1, ,1, ,
0, ,1, ,
0, ,1, ,
-1, ,1, ,
-3, ,0, ,
-3, ,0, ,
-4, ,0, ,
-5, ,0, ,
-6, ,0, ,
-7, ,1, ,
-7, ,1, ,
-8, ,1, ,
-9, ,1, ,
-9, ,1, ,
-10, ,1, ,
-10, ,1, ,
-9, ,1, ,
-9, ,0, ,
-9, ,0, ,
-9, ,1, ,
-8, ,1, ,
-7, ,0, ,
-7, ,0, ,
-7, ,0, ,
-6, ,0, ,
-6, ,1, ,
-5, ,1, ,
-5, ,1, ,
-5, ,1, ,
-4, ,1, ,
-4, ,1, ,
-3, ,1, ,
-3, ,1, ,
-3, ,1, ,
-3, ,1, ,
-3, ,0, ,
-2, ,0, ,
-2, ,0, ,
-1, ,1, ,
-1, ,1, ,
0, ,1, ,
0, ,1, ,
1, ,1, ,
1, ,0, ,
2, ,0, ,
2, ,1, ,
2, ,1, ,
2, ,1, ,
2, ,1, ,
1, ,1, ,
1, ,1, ,
1, ,0, ,
0, ,0, ,
-1, ,0, ,
-1, ,1, ,
-1, ,0, ,
-2, ,0, ,
-3, ,1, ,
-3, ,1, ,
-4, ,1, ,
-5, ,1, ,
-5, ,1, ,
-6, ,1, ,
-6, ,1, ,
-7, ,1, ,
-7, ,1, ,
-8, ,1, ,
-8, ,0, ,
-9, ,0, ,
-8, ,0, ,
-9, ,0, ,
-9, ,1, ,
-9, ,1, ,
-9, ,1, ,
-8, ,0, ,
-8, ,0, ,
-8, ,1, ,
-6, ,1, ,
-6, ,1, ,
-4, ,1, ,
-3, ,0, ,
-1, ,0, ,
0, ,0, ,
1, ,0, ,
4, ,0, ,
5, ,0, ,
6, ,0, ,
8, ,0, ,
10, ,0, ,
10, ,0, ,
11, ,0, ,
11, ,1, ,
11, ,1, ,
10, ,1, ,
10, ,1, ,
9, ,1, ,
7, ,1, ,
6, ,1, ,
5, ,1, ,
4, ,0, ,
1, ,0, ,
1, ,0, ,
0, ,1, ,
-2, ,0, ,
-3, ,0, ,
-4, ,0, ,
-5, ,1, ,
-6, ,1, ,
-7, ,1, ,
-8, ,0, ,
-8, ,0, ,
-9, ,0, ,
-10, ,0, ,
-10, ,0, ,
-10, ,0, ,
-10, ,0, ,
-10, ,0, ,
-10, ,0, ,
-10, ,1, ,
-10, ,1, ,
-7, ,1, ,
-7, ,1, ,
-6, ,1, ,
-5, ,1, ,
-2, ,1, ,
-1, ,1, ,
0, ,1, ,
2, ,1, ,
3, ,1, ,
4, ,1, ,
5, ,1, ,
5, ,1, ,
4, ,1, ,
4, ,1, ,
3, ,1, ,
2, ,1, ,
1, ,1, ,
0, ,1, ,
-1, ,1, ,
-2, ,1, ,
-3, ,1, ,
-3, ,1, ,
-3, ,1, ,
-2, ,1, ,
-1, ,1, ,
0, ,1, ,
1, ,1, ,
2, ,1, ,
5, ,1, ,
7, ,1, ,
8, ,1, ,
10, ,1, ,
12, ,1, ,
13, ,1, ,
13, ,0, ,
13, ,0, ,
12, ,1, ,
12, ,1, ,
11, ,1, ,
10, ,1, ,
7, ,1, ,
5, ,1, ,
4, ,0, ,
1, ,0, ,
-2, ,1, ,
-3, ,1, ,
-5, ,1, ,
-6, ,0, ,
-7, ,0, ,
-8, ,0, ,
-7, ,1, ,
-7, ,0, ,
-5, ,0, ,
-4, ,0, ,
-4, ,0, ,
-2, ,1, ,
1, ,1, ,
2, ,1, ,
3, ,1, ,
3, ,1, ,
5, ,1, ,
5, ,1, ,
5, ,1, ,
4, ,1, ,
4, ,1, ,
2, ,1, ,
2, ,0, ,
0, ,0, ,
-2, ,1, ,
-3, ,1, ,
-5, ,1, ,
-6, ,1, ,
-9, ,0, ,
-10, ,0, ,
-11, ,0, ,
-12, ,1, ,
-12, ,1, ,
-12, ,1, ,
-12, ,1, ,
-12, ,1, ,
-11, ,1, ,
-10, ,1, ,
-9, ,1, ,
-8, ,1, ,
-6, ,1, ,
-4, ,1, ,
-3, ,1, ,
-2, ,1, ,
0, ,1, ,
1, ,1, ,
2, ,1, ,
2, ,1, ,
4, ,1, ,
4, ,1, ,
4, ,1, ,
4, ,1, ,
4, ,1, ,
3, ,1, ,
3, ,1, ,
3, ,1, ,
3, ,1, ,
3, ,1, ,
3, ,1, ,
3, ,1, ,
3, ,1, ,
3, ,1, ,
3, ,1, ,
3, ,0, ,
3, ,0, ,
3, ,0, ,
3, ,1, ,
3, ,1, ,
2, ,1, ,
2, ,1, ,
2, ,1, ,
1, ,1, ,
1, ,1, ,
1, ,1, ,
1, ,1, ,
1, ,1, ,
1, ,1, ,
1, ,1, ,
1, ,1, ,
1, ,1, ,
1, ,1, ,
2, ,0, ,
1, ,0, ,
2, ,0, ,
2, ,0, ,
1, ,1, ,
1, ,0, ,
0, ,0, ,
-1, ,1, ,
-1, ,0, ,
-2, ,0, ,
-2, ,1, ,
-4, ,1, ,
-5, ,1, ,
-6, ,1, ,
-7, ,0, ,
-8, ,0, ,
-8, ,0, ,
-8, ,1, ,
-8, ,0, ,
-8, ,0, ,
-8, ,1, ,
-7, ,1, ,
-7, ,1, ,
-5, ,1, ,
-4, ,1, ,
-3, ,1, ,
-1, ,1, ,
0, ,1, ,
2, ,1, ,
3, ,1, ,
4, ,1, ,
6, ,1, ,
8, ,1, ,
9, ,1, ,
9, ,0, ,
10, ,0, ,
10, ,1, ,
10, ,1, ,
9, ,1, ,
8, ,1, ,
7, ,1, ,
6, ,1, ,
5, ,1, ,
3, ,1, ,
1, ,1, ,
-1, ,1, ,
-2, ,0, ,
-4, ,0, ,
-5, ,0, ,
-6, ,1, ,
-7, ,0, ,
-7, ,0, ,
-7, ,1, ,
-6, ,1, ,
-7, ,1, ,
-5, ,1, ,
-5, ,1, ,
-5, ,1, ,
-3, ,1, ,
-2, ,0, ,
-1, ,0, ,
0, ,0, ,
0, ,0, ,
1, ,0, ,
2, ,0, ,
2, ,1, ,
2, ,0, ,
3, ,0, ,
3, ,1, ,
3, ,0, ,
3, ,0, ,
2, ,0, ,
3, ,0, ,
3, ,0, ,
2, ,1, ,
2, ,1, ,
1, ,0, ,
1, ,0, ,
0, ,1, ,
-1, ,1, ,
-1, ,1, ,
-2, ,1, ,
-2, ,1, ,
-2, ,0, ,
-2, ,0, ,
-2, ,0, ,
-2, ,0, ,
-2, ,1, ,
0, ,0, ,
0, ,0, ,
0, ,1, ,
3, ,1, ,
3, ,1, ,
4, ,1, ,
4, ,0, ,
6, ,0, ,
6, ,0, ,
5, ,1, ,
5, ,1, ,
4, ,1, ,
3, ,1, ,
2, ,1, ,
1, ,1, ,
-1, ,1, ,
-2, ,1, ,
-3, ,1, ,
-4, ,1, ,
-6, ,0, ,
-7, ,0, ,
-7, ,0, ,
-8, ,0, ,
-8, ,0, ,
-7, ,0, ,
-7, ,1, ,
-6, ,1, ,
-4, ,1, ,
-4, ,1, ,
-2, ,1, ,
-2, ,1, ,
0, ,1, ,
1, ,1, ,
2, ,1, ,
4, ,1, ,
5, ,1, ,
6, ,1, ,
7, ,1, ,
7, ,1, ,
8, ,1, ,
9, ,0, ,
9, ,0, ,
9, ,1, ,
8, ,1, ,
8, ,1, ,
7, ,1, ,
7, ,0, ,
5, ,0, ,
5, ,0, ,
3, ,0, ,
2, ,0, ,
1, ,1, ,
-2, ,1, ,
-2, ,1, ,
-3, ,1, ,
-4, ,1, ,
-4, ,1, ,
-5, ,1, ,
-5, ,1, ,
-5, ,1, ,
-5, ,1, ,
-5, ,1, ,
-4, ,1, ,
-3, ,1, ,
-3, ,1, ,
-2, ,1, ,
-1, ,1, ,
1, ,1, ,
1, ,1, ,
2, ,1, ,
3, ,1, ,
4, ,1, ,
4, ,1, ,
4, ,1, ,
4, ,1, ,
3, ,1, ,
2, ,1, ,
2, ,0, ,
1, ,0, ,
-1, ,1, ,
-1, ,0, ,
-3, ,0, ,
-3, ,1, ,
-6, ,1, ,
-6, ,1, ,
-7, ,1, ,
-7, ,1, ,
-7, ,1, ,
-7, ,1, ,
-7, ,1, ,
-6, ,1, ,
-5, ,1, ,
-5, ,1, ,
-4, ,0, ,
-4, ,0, ,
-2, ,1, ,
-1, ,1, ,
-1, ,1, ,
0, ,1, ,
1, ,1, ,
1, ,1, ,
2, ,1, ,
2, ,1, ,
2, ,1, ,
2, ,0, ,
2, ,0, ,
2, ,1, ,
3, ,1, ,
3, ,1, ,
3, ,0, ,
3, ,0, ,
3, ,1, ,
3, ,1, ,
3, ,1, ,
3, ,1, ,
3, ,1, ,
3, ,1, ,
2, ,1, ,
2, ,1, ,
1, ,1, ,
1, ,0, ,
0, ,0, ,
0, ,1, ,
-1, ,1, ,
-2, ,1, ,
-3, ,1, ,
-3, ,1, ,
-4, ,1, ,
-4, ,0, ,
-4, ,0, ,
-4, ,1, ,
-4, ,0, ,
-5, ,0, ,
-5, ,0, ,
-5, ,1, ,
-4, ,1, ,
-4, ,1, ,
-4, ,1, ,
-3, ,1, ,
-2, ,1, ,
-2, ,1, ,
-2, ,1, ,
-2, ,1, ,
-1, ,1, ,
0, ,1, ,
0, ,1, ,
1, ,0, ,
1, ,0, ,
1, ,1, ,
2, ,1, ,
2, ,0, ,
2, ,0, ,
2, ,0, ,
2, ,1, ,
2, ,1, ,
2, ,1, ,
2, ,1, ,
1, ,1, ,
1, ,1, ,
1, ,1, ,
1, ,0, ,
1, ,0, ,
1, ,1, ,
1, ,1, ,
1, ,1, ,
1, ,1, ,
2, ,1, ,
2, ,1, ,
3, ,1, ,
3, ,1, ,
3, ,1, ,
4, ,1, ,
4, ,1, ,
4, ,1, ,
3, ,1, ,
2, ,1, ,
2, ,1, ,
1, ,1, ,
1, ,1, ,
0, ,1, ,
-1, ,1, ,
-1, ,1, ,
-2, ,1, ,
-3, ,1, ,
-3, ,1, ,
-3, ,1, ,
-3, ,1, ,
-3, ,1, ,
-3, ,1, ,
-3, ,1, ,
-3, ,1, ,
-2, ,1, ,
-1, ,1, ,
-1, ,1, ,
0, ,1, ,
0, ,1, ,
0, ,1, ,
1, ,1, ,
1, ,0, ,
0, ,0, ,
0, ,0, ,
-1, ,1, ,
-1, ,0, ,
-2, ,0, ,
-3, ,0, ,
-3, ,1, ,
-3, ,1, ,
-3, ,1, ,
-3, ,0, ,
-3, ,0, ,
-3, ,1, ,
-2, ,1, ,
-3, ,1, ,
-1, ,0, ,
-2, ,0, ,
0, ,1, ,
1, ,1, ,
1, ,1, ,
2, ,0, ,
3, ,0, ,
3, ,1, ,
4, ,1, ,
4, ,1, ,
4, ,1, ,
4, ,1, ,
4, ,1, ,
4, ,1, ,
3, ,0, ,
3, ,0, ,
3, ,0, ,
2, ,1, ,
2, ,1, ,
1, ,1, ,
1, ,1, ,
0, ,0, ,
0, ,0, ,
-1, ,1, ,
-1, ,1, ,
-1, ,0, ,
-1, ,0, ,
-1, ,1, ,
-1, ,1, ,
-1, ,1, ,
0, ,0, ,
0, ,0, ,
1, ,0, ,
1, ,0, ,
1, ,1, ,
2, ,1, ,
2, ,1, ,
2, ,1, ,
2, ,1, ,
2, ,1, ,
2, ,0, ,
1, ,0, ,
0, ,1, ,
-1, ,1, ,
-2, ,1, ,
-3, ,1, ,
-4, ,1, ,
-6, ,1, ,
-6, ,1, ,
-7, ,1, ,
-8, ,1, ,
-8, ,0, ,
-8, ,0, ,
-7, ,1, ,
-6, ,1, ,
-6, ,1, ,
-5, ,0, ,
-4, ,0, ,
-2, ,0, ,
0, ,0, ,
1, ,1, ,
2, ,1, ,
4, ,1, ,
5, ,1, ,
6, ,1, ,
6, ,1, ,
7, ,1, ,
7, ,1, ,
7, ,1, ,
7, ,0, ,
6, ,0, ,
6, ,1, ,
5, ,0, ,
4, ,0, ,
4, ,1, ,
4, ,1, ,
3, ,1, ,
3, ,1, ,
2, ,1, ,
2, ,1, ,
2, ,1, ,
2, ,1, ,
2, ,1, ,
3, ,1, ,
3, ,1, ,
3, ,1, ,
4, ,1, ,
4, ,1, ,
5, ,1, ,
5, ,1, ,
5, ,1, ,
6, ,0, ,
6, ,0, ,
6, ,0, ,
5, ,0, ,
5, ,0, ,
4, ,0, ,
4, ,1, ,
3, ,1, ,
2, ,1, ,
1, ,1, ,
1, ,1, ,
-1, ,0, ,
-3, ,0, ,
-3, ,0, ,
-5, ,0, ,
-7, ,1, ,
-7, ,0, ,
-8, ,0, ,
-8, ,1, ,
-8, ,0, ,
-9, ,0, ,
-9, ,0, ,
-9, ,1, ,
-7, ,1, ,
-6, ,1, ,
-7, ,1, ,
-5, ,0, ,
-3, ,0, ,
-3, ,1, ,
-2, ,1, ,
-1, ,1, ,
0, ,1, ,
2, ,1, ,
2, ,1, ,
3, ,1, ,
4, ,1, ,
4, ,1, ,
4, ,1, ,
4, ,1, ,
5, ,1, ,
5, ,1, ,
5, ,1, ,
5, ,0, ,
5, ,0, ,
5, ,1, ,
5, ,1, ,
5, ,1, ,
5, ,1, ,
5, ,1, ,
4, ,1, ,
4, ,1, ,
4, ,0, ,
4, ,0, ,
4, ,0, ,
3, ,0, ,
2, ,0, ,
2, ,0, ,
2, ,1, ,
2, ,1, ,
1, ,1, ,
1, ,1, ,
1, ,1, ,
1, ,1, ,
1, ,1, ,
1, ,0, ,
1, ,0, ,
1, ,1, ,
2, ,1, ,
2, ,1, ,
2, ,1, ,
2, ,1, ,
3, ,1, ,
3, ,1, ,
3, ,1, ,
3, ,1, ,
4, ,1, ,
3, ,1, ,
3, ,1, ,
3, ,1, ,
2, ,1, ,
2, ,1, ,
1, ,1, ,
1, ,1, ,
0, ,1, ,
-1, ,1, ,
-1, ,1, ,
-1, ,1, ,
-2, ,1, ,
-2, ,1, ,
-3, ,1, ,
-3, ,1, ,
-4, ,0, ,
-4, ,0, ,
-4, ,0, ,
-4, ,0, ,
-4, ,1, ,
-4, ,1, ,
-4, ,1, ,
-3, ,1, ,
-3, ,1, ,
-3, ,1, ,
-3, ,0, ,
-3, ,0, ,
-2, ,1, ,
-2, ,1, ,
-2, ,1, ,
-1, ,0, ,
-1, ,0, ,
-1, ,0, ,
-1, ,0, ,
-1, ,1, ,
-1, ,1, ,
0, ,1, ,
-1, ,0, ,
0, ,0, ,
0, ,1, ,
-1, ,1, ,
-1, ,1, ,
-1, ,1, ,
-2, ,1, ,
-2, ,1, ,
-2, ,1, ,
-2, ,0, ,
-2, ,0, ,
-2, ,1, ,
-2, ,1, ,
-1, ,1, ,
-1, ,1, ,
0, ,1, ,
0, ,1, ,
0, ,1, ,
