raw_data/75% Glycerol, Impulsion 2Hz, Sonde 5MHz, Rampe 0.7Hz/temp0000369.CSV

Format,1.0B,
Memory Length,10000,Memory Length,10000,
IntpDistance,0,IntpDistance,0,
Trigger Address,159,Trigger Address,159,
Trigger Level,2.720E-01,Trigger Level,2.720E-01,
Source,CH1,Source,CH2,
Vertical Units,V,Vertical Units,V,
Vertical Units Div,0,Vertical Units Div,0,
Vertical Units Extend Div,16,Vertical Units Extend Div,16,
Label,,Label,,
Probe Type,0,Probe Type,0,
Probe Ratio,1.000e+00,Probe Ratio,1.000e+00,
Vertical Scale,5.000e-01,Vertical Scale,2.000e+00,
Vertical Position,0.000e+00,Vertical Position,0.000e+00,
Horizontal Units,S,Horizontal Units,S,
Horizontal Scale,5.000E-06,Horizontal Scale,5.000E-06,
Horizontal Position,2.420E-05,Horizontal Position,2.420E-05,
Horizontal Mode,Main,Horizontal Mode,Main,
SincET Mode,Real Time,SincET Mode,Real Time,
Sampling Period,5.000e-09,Sampling Period,5.000e-09,
Horizontal Old Scale,5.000E-06,Horizontal Old Scale,5.000E-06,
Horizontal Old Position,2.420E-05,Horizontal Old Position,2.420E-05,
Firmware,V1.32,Firmware,V1.32,
Mode,Fast,Mode,Fast,
Waveform Data,,Waveform Data,,
1, ,10, ,
1, ,10, ,
1, ,11, ,
1, ,10, ,
1, ,10, ,
1, ,10, ,
1, ,10, ,
1, ,11, ,
1, ,11, ,
1, ,11, ,
1, ,11, ,
1, ,10, ,
1, ,10, ,
1, ,10, ,
1, ,10, ,
0, ,11, ,
0, ,11, ,
0, ,10, ,
1, ,10, ,
1, ,10, ,
0, ,10, ,
0, ,10, ,
1, ,10, ,
1, ,10, ,
1, ,10, ,
0, ,10, ,
0, ,10, ,
1, ,10, ,
1, ,10, ,
1, ,10, ,
1, ,11, ,
1, ,11, ,
1, ,11, ,
1, ,11, ,
0, ,10, ,
0, ,10, ,
0, ,10, ,
1, ,10, ,
1, ,10, ,
1, ,10, ,
1, ,10, ,
1, ,10, ,
1, ,10, ,
1, ,10, ,
1, ,10, ,
1, ,10, ,
1, ,10, ,
1, ,10, ,
1, ,11, ,
1, ,10, ,
0, ,10, ,
0, ,11, ,
0, ,10, ,
0, ,10, ,
0, ,10, ,
0, ,10, ,
1, ,11, ,
1, ,11, ,
1, ,11, ,
1, ,10, ,
0, ,10, ,
0, ,10, ,
1, ,10, ,
0, ,10, ,
0, ,11, ,
0, ,11, ,
1, ,10, ,
1, ,10, ,
1, ,10, ,
1, ,10, ,
1, ,10, ,
1, ,10, ,
1, ,10, ,
1, ,10, ,
0, ,10, ,
0, ,10, ,
0, ,10, ,
1, ,11, ,
0, ,11, ,
0, ,10, ,
1, ,10, ,
1, ,10, ,
0, ,10, ,
0, ,10, ,
0, ,10, ,
1, ,10, ,
1, ,10, ,
0, ,10, ,
0, ,10, ,
0, ,10, ,
1, ,10, ,
1, ,11, ,
1, ,11, ,
1, ,11, ,
1, ,10, ,
1, ,10, ,
1, ,10, ,
1, ,10, ,
1, ,10, ,
1, ,10, ,
1, ,10, ,
1, ,10, ,
1, ,10, ,
1, ,10, ,
1, ,10, ,
1, ,10, ,
1, ,11, ,
1, ,10, ,
1, ,10, ,
1, ,10, ,
1, ,10, ,
1, ,11, ,
1, ,11, ,
1, ,11, ,
1, ,11, ,
1, ,11, ,
0, ,11, ,
0, ,11, ,
1, ,11, ,
1, ,10, ,
1, ,10, ,
0, ,10, ,
0, ,11, ,
1, ,11, ,
1, ,10, ,
1, ,10, ,
1, ,10, ,
0, ,10, ,
0, ,10, ,
0, ,10, ,
1, ,10, ,
1, ,11, ,
1, ,10, ,
1, ,10, ,
1, ,10, ,
1, ,10, ,
1, ,10, ,
1, ,10, ,
1, ,10, ,
1, ,11, ,
1, ,10, ,
1, ,10, ,
1, ,10, ,
1, ,11, ,
1, ,11, ,
1, ,11, ,
1, ,10, ,
0, ,10, ,
0, ,10, ,
0, ,10, ,
1, ,10, ,
1, ,11, ,
1, ,11, ,
1, ,10, ,
0, ,10, ,
0, ,10, ,
0, ,10, ,
0, ,10, ,
1, ,10, ,
0, ,10, ,
0, ,10, ,
0, ,10, ,
0, ,10, ,
0, ,10, ,
-1, ,11, ,
-1, ,11, ,
-2, ,11, ,
5, ,11, ,
25, ,11, ,
58, ,11, ,
125, ,11, ,
123, ,10, ,
120, ,10, ,
81, ,11, ,
-7, ,11, ,
19, ,10, ,
73, ,10, ,
122, ,10, ,
125, ,11, ,
125, ,11, ,
125, ,10, ,
125, ,10, ,
125, ,10, ,
124, ,10, ,
124, ,10, ,
119, ,10, ,
108, ,10, ,
105, ,10, ,
102, ,10, ,
99, ,10, ,
93, ,11, ,
88, ,11, ,
85, ,11, ,
82, ,11, ,
75, ,11, ,
74, ,11, ,
71, ,10, ,
68, ,10, ,
62, ,10, ,
60, ,11, ,
58, ,11, ,
55, ,11, ,
50, ,11, ,
49, ,10, ,
46, ,10, ,
44, ,10, ,
41, ,10, ,
39, ,10, ,
38, ,11, ,
36, ,11, ,
32, ,11, ,
31, ,10, ,
29, ,10, ,
28, ,11, ,
25, ,10, ,
25, ,10, ,
24, ,10, ,
23, ,10, ,
21, ,10, ,
20, ,10, ,
19, ,10, ,
18, ,11, ,
16, ,11, ,
15, ,11, ,
15, ,11, ,
14, ,11, ,
12, ,11, ,
12, ,10, ,
11, ,10, ,
11, ,10, ,
9, ,10, ,
8, ,10, ,
8, ,10, ,
7, ,10, ,
7, ,10, ,
7, ,11, ,
6, ,10, ,
6, ,10, ,
5, ,10, ,
4, ,11, ,
4, ,11, ,
4, ,10, ,
3, ,10, ,
3, ,10, ,
3, ,10, ,
3, ,11, ,
2, ,11, ,
2, ,10, ,
2, ,10, ,
2, ,10, ,
1, ,10, ,
1, ,10, ,
1, ,10, ,
1, ,10, ,
0, ,10, ,
0, ,10, ,
1, ,11, ,
0, ,10, ,
0, ,10, ,
0, ,10, ,
-1, ,10, ,
-1, ,10, ,
-1, ,10, ,
-1, ,11, ,
-1, ,10, ,
-1, ,10, ,
-1, ,10, ,
-1, ,10, ,
-1, ,10, ,
0, ,10, ,
-1, ,10, ,
-1, ,10, ,
-1, ,10, ,
-2, ,10, ,
-1, ,11, ,
-1, ,10, ,
-1, ,10, ,
-1, ,11, ,
-1, ,11, ,
-2, ,11, ,
-2, ,11, ,
-2, ,11, ,
-1, ,11, ,
-1, ,10, ,
-1, ,10, ,
-1, ,10, ,
-1, ,10, ,
-1, ,10, ,
-1, ,11, ,
-1, ,10, ,
-1, ,10, ,
-1, ,10, ,
-1, ,11, ,
-1, ,10, ,
-1, ,10, ,
-1, ,11, ,
-1, ,10, ,
-1, ,10, ,
-1, ,10, ,
-1, ,10, ,
-1, ,10, ,
-1, ,10, ,
-1, ,10, ,
-1, ,10, ,
-1, ,11, ,
-1, ,10, ,
-1, ,10, ,
-1, ,10, ,
-1, ,11, ,
-1, ,10, ,
-1, ,10, ,
-1, ,10, ,
-1, ,10, ,
-1, ,10, ,
-1, ,11, ,
-1, ,10, ,
-1, ,10, ,
-1, ,10, ,
-1, ,10, ,
-1, ,10, ,
0, ,10, ,
0, ,10, ,
-1, ,10, ,
-1, ,11, ,
-1, ,11, ,
0, ,11, ,
0, ,11, ,
0, ,11, ,
0, ,11, ,
0, ,11, ,
0, ,11, ,
0, ,10, ,
0, ,10, ,
0, ,10, ,
0, ,10, ,
0, ,10, ,
0, ,10, ,
0, ,10, ,
0, ,11, ,
0, ,11, ,
0, ,11, ,
0, ,10, ,
0, ,10, ,
0, ,11, ,
0, ,11, ,
0, ,10, ,
0, ,10, ,
0, ,10, ,
0, ,10, ,
0, ,11, ,
0, ,11, ,
0, ,11, ,
0, ,11, ,
0, ,10, ,
0, ,10, ,
0, ,11, ,
0, ,10, ,
0, ,10, ,
0, ,10, ,
0, ,10, ,
0, ,10, ,
0, ,10, ,
0, ,10, ,
0, ,10, ,
0, ,10, ,
0, ,10, ,
0, ,10, ,
0, ,10, ,
0, ,11, ,
0, ,10, ,
0, ,10, ,
0, ,10, ,
0, ,10, ,
0, ,11, ,
0, ,10, ,
0, ,10, ,
0, ,11, ,
0, ,11, ,
1, ,11, ,
1, ,10, ,
0, ,10, ,
0, ,10, ,
0, ,10, ,
0, ,11, ,
0, ,10, ,
0, ,10, ,
0, ,10, ,
0, ,11, ,
0, ,10, ,
0, ,10, ,
0, ,10, ,
0, ,10, ,
0, ,10, ,
0, ,10, ,
0, ,10, ,
0, ,10, ,
0, ,10, ,
1, ,10, ,
1, ,10, ,
0, ,10, ,
0, ,11, ,
0, ,10, ,
1, ,10, ,
0, ,10, ,
0, ,10, ,
0, ,10, ,
0, ,10, ,
0, ,10, ,
0, ,11, ,
0, ,11, ,
0, ,11, ,
0, ,10, ,
0, ,10, ,
0, ,10, ,
0, ,10, ,
0, ,10, ,
1, ,10, ,
1, ,10, ,
1, ,10, ,
0, ,11, ,
0, ,11, ,
0, ,10, ,
0, ,10, ,
0, ,11, ,
0, ,11, ,
0, ,11, ,
0, ,10, ,
0, ,10, ,
0, ,10, ,
0, ,10, ,
0, ,10, ,
0, ,10, ,
0, ,10, ,
0, ,10, ,
0, ,10, ,
0, ,11, ,
0, ,10, ,
-1, ,10, ,
-2, ,10, ,
-3, ,10, ,
-3, ,10, ,
-4, ,10, ,
-8, ,11, ,
-10, ,11, ,
-11, ,11, ,
-11, ,11, ,
-10, ,10, ,
-9, ,10, ,
-7, ,10, ,
-6, ,10, ,
-3, ,10, ,
-1, ,10, ,
0, ,10, ,
1, ,10, ,
2, ,10, ,
2, ,11, ,
2, ,10, ,
2, ,10, ,
3, ,10, ,
3, ,10, ,
3, ,10, ,
2, ,10, ,
1, ,10, ,
0, ,10, ,
0, ,11, ,
0, ,11, ,
-1, ,10, ,
-1, ,10, ,
-1, ,10, ,
0, ,10, ,
1, ,10, ,
1, ,10, ,
1, ,10, ,
2, ,10, ,
3, ,10, ,
3, ,10, ,
3, ,10, ,
3, ,10, ,
3, ,10, ,
3, ,10, ,
3, ,10, ,
3, ,10, ,
2, ,10, ,
2, ,11, ,
2, ,11, ,
2, ,11, ,
2, ,11, ,
2, ,10, ,
2, ,10, ,
2, ,10, ,
2, ,10, ,
2, ,11, ,
2, ,11, ,
2, ,11, ,
2, ,11, ,
2, ,11, ,
2, ,11, ,
2, ,10, ,
1, ,10, ,
1, ,11, ,
1, ,10, ,
1, ,10, ,
0, ,10, ,
0, ,10, ,
0, ,11, ,
-1, ,11, ,
-1, ,11, ,
-1, ,10, ,
-1, ,10, ,
-1, ,10, ,
-1, ,10, ,
-1, ,10, ,
0, ,10, ,
0, ,11, ,
-1, ,10, ,
-1, ,10, ,
-1, ,10, ,
-1, ,10, ,
-2, ,10, ,
-3, ,10, ,
-3, ,10, ,
-5, ,10, ,
-6, ,10, ,
-8, ,10, ,
-8, ,10, ,
-9, ,11, ,
-10, ,11, ,
-10, ,10, ,
-10, ,10, ,
-10, ,10, ,
-8, ,11, ,
-8, ,11, ,
-7, ,11, ,
-6, ,10, ,
-5, ,10, ,
-5, ,10, ,
-4, ,10, ,
-5, ,10, ,
-5, ,10, ,
-5, ,10, ,
-7, ,10, ,
-8, ,11, ,
-10, ,10, ,
-12, ,10, ,
-13, ,10, ,
-15, ,10, ,
-18, ,10, ,
-18, ,10, ,
-19, ,11, ,
-20, ,11, ,
-21, ,11, ,
-22, ,11, ,
-22, ,10, ,
-23, ,10, ,
-25, ,10, ,
-26, ,10, ,
-29, ,10, ,
-32, ,11, ,
-37, ,10, ,
-40, ,10, ,
-43, ,10, ,
-44, ,10, ,
-47, ,10, ,
-47, ,10, ,
-46, ,10, ,
-45, ,10, ,
-42, ,10, ,
-39, ,10, ,
-36, ,10, ,
-33, ,10, ,
-26, ,10, ,
-24, ,10, ,
-21, ,10, ,
-18, ,11, ,
-14, ,10, ,
-12, ,10, ,
-11, ,11, ,
-9, ,10, ,
-6, ,10, ,
-4, ,10, ,
-3, ,10, ,
-2, ,10, ,
3, ,10, ,
4, ,10, ,
6, ,10, ,
9, ,10, ,
12, ,11, ,
15, ,10, ,
15, ,10, ,
17, ,10, ,
20, ,10, ,
20, ,10, ,
20, ,11, ,
20, ,10, ,
20, ,10, ,
19, ,10, ,
19, ,10, ,
18, ,10, ,
16, ,10, ,
15, ,10, ,
15, ,10, ,
13, ,10, ,
12, ,10, ,
11, ,10, ,
11, ,10, ,
10, ,10, ,
9, ,11, ,
9, ,10, ,
9, ,10, ,
7, ,10, ,
6, ,10, ,
5, ,10, ,
3, ,10, ,
2, ,10, ,
-1, ,10, ,
-2, ,10, ,
-4, ,10, ,
-5, ,10, ,
-8, ,10, ,
-10, ,11, ,
-11, ,11, ,
-12, ,11, ,
-13, ,10, ,
-14, ,10, ,
-14, ,11, ,
-14, ,11, ,
-13, ,10, ,
-12, ,10, ,
-12, ,10, ,
-11, ,10, ,
-9, ,10, ,
-9, ,10, ,
-7, ,10, ,
-6, ,10, ,
-5, ,10, ,
-5, ,10, ,
-5, ,10, ,
-5, ,10, ,
-7, ,11, ,
-8, ,10, ,
-8, ,10, ,
-10, ,10, ,
-12, ,10, ,
-13, ,10, ,
-14, ,11, ,
-15, ,11, ,
-16, ,11, ,
-16, ,11, ,
-16, ,10, ,
-16, ,10, ,
-16, ,10, ,
-16, ,10, ,
-15, ,10, ,
-15, ,11, ,
-15, ,11, ,
-14, ,10, ,
-13, ,10, ,
-13, ,10, ,
-11, ,10, ,
-10, ,10, ,
-10, ,10, ,
-8, ,10, ,
-5, ,10, ,
-4, ,10, ,
-3, ,10, ,
-3, ,10, ,
-1, ,10, ,
-1, ,10, ,
-1, ,11, ,
-1, ,11, ,
-1, ,10, ,
-2, ,10, ,
-2, ,11, ,
-3, ,11, ,
-5, ,11, ,
-5, ,11, ,
-7, ,10, ,
-8, ,10, ,
-10, ,10, ,
-11, ,10, ,
-12, ,11, ,
-13, ,11, ,
-15, ,11, ,
-16, ,10, ,
-17, ,10, ,
-17, ,10, ,
-17, ,10, ,
-17, ,10, ,
-17, ,10, ,
-17, ,11, ,
-15, ,11, ,
-14, ,10, ,
-13, ,10, ,
-11, ,10, ,
-9, ,10, ,
-8, ,11, ,
-7, ,10, ,
-6, ,10, ,
-6, ,10, ,
-6, ,10, ,
-7, ,10, ,
-7, ,10, ,
-8, ,11, ,
-8, ,10, ,
-8, ,10, ,
-9, ,10, ,
-8, ,10, ,
-8, ,10, ,
-8, ,10, ,
-8, ,10, ,
-6, ,10, ,
-6, ,10, ,
-5, ,11, ,
-4, ,10, ,
-2, ,10, ,
0, ,10, ,
1, ,10, ,
3, ,11, ,
6, ,11, ,
7, ,10, ,
8, ,10, ,
9, ,10, ,
11, ,10, ,
12, ,11, ,
12, ,10, ,
13, ,10, ,
13, ,10, ,
13, ,10, ,
13, ,10, ,
13, ,10, ,
12, ,11, ,
11, ,11, ,
11, ,10, ,
11, ,10, ,
11, ,10, ,
10, ,10, ,
10, ,10, ,
9, ,10, ,
8, ,11, ,
7, ,11, ,
6, ,10, ,
5, ,10, ,
4, ,10, ,
2, ,10, ,
0, ,11, ,
-1, ,10, ,
-4, ,10, ,
-4, ,10, ,
-6, ,10, ,
-7, ,11, ,
-9, ,10, ,
-10, ,10, ,
-10, ,10, ,
-10, ,10, ,
-10, ,10, ,
-10, ,11, ,
-10, ,10, ,
-9, ,10, ,
-8, ,10, ,
-7, ,10, ,
-6, ,10, ,
-6, ,10, ,
-3, ,10, ,
-3, ,10, ,
-1, ,10, ,
-1, ,10, ,
-1, ,10, ,
-1, ,11, ,
-1, ,11, ,
-1, ,10, ,
-4, ,10, ,
-4, ,10, ,
-5, ,10, ,
-7, ,10, ,
-10, ,10, ,
-12, ,10, ,
-13, ,10, ,
-15, ,10, ,
-18, ,11, ,
-19, ,10, ,
-21, ,10, ,
-21, ,10, ,
-23, ,10, ,
-23, ,10, ,
-23, ,11, ,
-23, ,11, ,
-23, ,10, ,
-23, ,10, ,
-23, ,10, ,
-23, ,10, ,
-23, ,10, ,
-23, ,10, ,
-23, ,10, ,
-24, ,10, ,
-24, ,11, ,
-25, ,10, ,
-25, ,10, ,
-25, ,10, ,
-25, ,10, ,
-26, ,10, ,
-26, ,10, ,
-26, ,10, ,
-25, ,10, ,
-25, ,10, ,
-25, ,10, ,
-25, ,10, ,
-23, ,10, ,
-21, ,10, ,
-21, ,10, ,
-20, ,10, ,
-16, ,11, ,
-15, ,10, ,
-13, ,10, ,
-12, ,11, ,
-10, ,11, ,
-10, ,10, ,
-9, ,10, ,
-8, ,11, ,
-6, ,11, ,
-5, ,11, ,
-5, ,10, ,
-4, ,10, ,
-1, ,10, ,
1, ,10, ,
3, ,10, ,
4, ,10, ,
9, ,10, ,
12, ,10, ,
14, ,10, ,
16, ,10, ,
20, ,10, ,
22, ,10, ,
24, ,10, ,
25, ,10, ,
26, ,11, ,
26, ,11, ,
26, ,11, ,
26, ,11, ,
25, ,11, ,
25, ,10, ,
25, ,10, ,
25, ,10, ,
23, ,11, ,
22, ,10, ,
21, ,10, ,
21, ,10, ,
19, ,10, ,
18, ,10, ,
17, ,10, ,
16, ,10, ,
13, ,10, ,
12, ,10, ,
10, ,11, ,
8, ,10, ,
5, ,10, ,
3, ,11, ,
2, ,11, ,
-1, ,11, ,
-4, ,11, ,
-5, ,10, ,
-7, ,10, ,
-8, ,11, ,
-11, ,11, ,
-11, ,10, ,
-11, ,10, ,
-12, ,11, ,
-13, ,11, ,
-13, ,11, ,
-13, ,11, ,
-13, ,11, ,
-14, ,11, ,
-14, ,11, ,
-14, ,11, ,
-16, ,11, ,
-18, ,10, ,
-18, ,10, ,
-20, ,10, ,
-20, ,11, ,
-21, ,10, ,
-22, ,10, ,
-22, ,11, ,
-23, ,10, ,
-22, ,10, ,
-21, ,11, ,
-21, ,10, ,
-19, ,10, ,
-18, ,10, ,
-17, ,10, ,
-15, ,10, ,
-14, ,10, ,
-12, ,11, ,
-11, ,10, ,
-10, ,10, ,
-10, ,10, ,
-9, ,10, ,
-9, ,10, ,
-10, ,10, ,
-10, ,10, ,
-11, ,10, ,
-11, ,10, ,
-12, ,11, ,
-12, ,11, ,
-11, ,10, ,
-11, ,10, ,
-11, ,10, ,
-10, ,10, ,
-8, ,11, ,
-6, ,10, ,
-4, ,10, ,
-2, ,11, ,
2, ,11, ,
3, ,11, ,
6, ,11, ,
7, ,11, ,
8, ,11, ,
10, ,11, ,
9, ,11, ,
9, ,11, ,
7, ,11, ,
6, ,10, ,
5, ,10, ,
2, ,10, ,
-2, ,10, ,
-3, ,10, ,
-6, ,10, ,
-8, ,11, ,
-12, ,11, ,
-14, ,11, ,
-15, ,11, ,
-17, ,10, ,
-18, ,10, ,
-18, ,11, ,
-18, ,11, ,
-18, ,11, ,
-17, ,10, ,
-17, ,10, ,
-16, ,10, ,
-16, ,10, ,
-15, ,11, ,
-14, ,11, ,
-13, ,11, ,
-12, ,10, ,
-11, ,10, ,
-11, ,10, ,
-9, ,11, ,
-9, ,11, ,
-8, ,10, ,
-7, ,10, ,
-7, ,10, ,
-6, ,10, ,
-5, ,10, ,
-4, ,10, ,
-4, ,10, ,
-3, ,10, ,
-2, ,11, ,
-2, ,11, ,
-1, ,11, ,
-1, ,11, ,
1, ,11, ,
2, ,10, ,
3, ,10, ,
4, ,10, ,
6, ,10, ,
7, ,10, ,
8, ,11, ,
9, ,11, ,
11, ,11, ,
11, ,10, ,
12, ,10, ,
12, ,10, ,
11, ,11, ,
11, ,11, ,
10, ,10, ,
10, ,10, ,
7, ,10, ,
6, ,10, ,
5, ,10, ,
4, ,10, ,
1, ,10, ,
0, ,10, ,
-1, ,11, ,
-2, ,10, ,
-2, ,10, ,
-3, ,11, ,
-3, ,11, ,
-3, ,11, ,
-2, ,11, ,
-1, ,11, ,
-1, ,11, ,
-1, ,11, ,
0, ,11, ,
0, ,11, ,
0, ,11, ,
-1, ,10, ,
-2, ,10, ,
-2, ,10, ,
-3, ,11, ,
-3, ,10, ,
-6, ,10, ,
-7, ,10, ,
-8, ,10, ,
-9, ,10, ,
-11, ,11, ,
-12, ,10, ,
-13, ,10, ,
-13, ,10, ,
-13, ,10, ,
-13, ,10, ,
-13, ,10, ,
-12, ,10, ,
-11, ,11, ,
-9, ,11, ,
-8, ,11, ,
-7, ,10, ,
-3, ,10, ,
-1, ,11, ,
1, ,11, ,
3, ,11, ,
7, ,11, ,
9, ,11, ,
10, ,11, ,
13, ,11, ,
15, ,10, ,
15, ,10, ,
16, ,10, ,
15, ,10, ,
14, ,10, ,
13, ,10, ,
12, ,10, ,
11, ,10, ,
7, ,10, ,
5, ,11, ,
3, ,11, ,
1, ,11, ,
-4, ,11, ,
-7, ,10, ,
-9, ,10, ,
-11, ,10, ,
-15, ,10, ,
-17, ,10, ,
-17, ,10, ,
-18, ,11, ,
-18, ,11, ,
-18, ,11, ,
-18, ,10, ,
-17, ,10, ,
-14, ,10, ,
-12, ,11, ,
-10, ,11, ,
-8, ,11, ,
-3, ,10, ,
-2, ,10, ,
1, ,10, ,
3, ,10, ,
6, ,10, ,
7, ,10, ,
7, ,10, ,
6, ,11, ,
5, ,11, ,
5, ,10, ,
3, ,10, ,
2, ,10, ,
-1, ,10, ,
-4, ,10, ,
-6, ,10, ,
-8, ,10, ,
-11, ,11, ,
-12, ,10, ,
-13, ,10, ,
-14, ,10, ,
-14, ,10, ,
-13, ,10, ,
-13, ,11, ,
-12, ,10, ,
-9, ,10, ,
-7, ,10, ,
-5, ,11, ,
-3, ,10, ,
1, ,10, ,
4, ,11, ,
6, ,11, ,
8, ,11, ,
10, ,11, ,
13, ,11, ,
13, ,11, ,
13, ,11, ,
13, ,11, ,
12, ,11, ,
11, ,10, ,
10, ,10, ,
7, ,10, ,
6, ,11, ,
3, ,11, ,
2, ,11, ,
-1, ,10, ,
-3, ,10, ,
-4, ,10, ,
-5, ,10, ,
-6, ,10, ,
-6, ,11, ,
-6, ,11, ,
-5, ,11, ,
-4, ,10, ,
-3, ,10, ,
-2, ,10, ,
-1, ,10, ,
2, ,11, ,
4, ,10, ,
4, ,10, ,
7, ,10, ,
8, ,10, ,
8, ,10, ,
9, ,10, ,
8, ,10, ,
7, ,10, ,
7, ,11, ,
6, ,11, ,
5, ,11, ,
2, ,11, ,
0, ,11, ,
-2, ,11, ,
-4, ,11, ,
-7, ,11, ,
-8, ,10, ,
-9, ,10, ,
-10, ,10, ,
-10, ,10, ,
-10, ,10, ,
-10, ,10, ,
-9, ,10, ,
-8, ,10, ,
-7, ,10, ,
-7, ,10, ,
-6, ,10, ,
-4, ,10, ,
-4, ,10, ,
-4, ,10, ,
-4, ,10, ,
-4, ,10, ,
-5, ,10, ,
-5, ,10, ,
-5, ,10, ,
-6, ,10, ,
-7, ,10, ,
-7, ,10, ,
-7, ,10, ,
-7, ,10, ,
-6, ,10, ,
-6, ,10, ,
-5, ,10, ,
-4, ,10, ,
-3, ,10, ,
-2, ,11, ,
-1, ,10, ,
2, ,10, ,
4, ,11, ,
4, ,10, ,
5, ,10, ,
6, ,10, ,
6, ,10, ,
6, ,10, ,
6, ,10, ,
6, ,11, ,
6, ,10, ,
5, ,10, ,
5, ,10, ,
4, ,10, ,
3, ,10, ,
3, ,10, ,
2, ,10, ,
1, ,10, ,
1, ,11, ,
1, ,11, ,
0, ,11, ,
-1, ,11, ,
-1, ,11, ,
-1, ,10, ,
-2, ,10, ,
-3, ,10, ,
-3, ,10, ,
-4, ,10, ,
-4, ,11, ,
-5, ,10, ,
-6, ,10, ,
-6, ,11, ,
-6, ,11, ,
-6, ,11, ,
-6, ,10, ,
-6, ,10, ,
-5, ,10, ,
-4, ,10, ,
-4, ,10, ,
-2, ,10, ,
-2, ,10, ,
-1, ,10, ,
1, ,10, ,
2, ,10, ,
2, ,10, ,
4, ,10, ,
4, ,10, ,
5, ,10, ,
4, ,10, ,
4, ,10, ,
4, ,11, ,
3, ,11, ,
2, ,11, ,
1, ,10, ,
1, ,10, ,
0, ,10, ,
-1, ,10, ,
-3, ,11, ,
-3, ,10, ,
-4, ,10, ,
-4, ,11, ,
-6, ,10, ,
-7, ,10, ,
-8, ,10, ,
-9, ,10, ,
-11, ,10, ,
-11, ,10, ,
-13, ,10, ,
-13, ,10, ,
-15, ,10, ,
-15, ,10, ,
-15, ,10, ,
-15, ,10, ,
-15, ,10, ,
-14, ,10, ,
-13, ,10, ,
-12, ,11, ,
-9, ,10, ,
-7, ,10, ,
-5, ,11, ,
-3, ,11, ,
1, ,10, ,
3, ,10, ,
4, ,10, ,
5, ,10, ,
8, ,10, ,
8, ,10, ,
8, ,10, ,
8, ,10, ,
7, ,11, ,
6, ,10, ,
5, ,10, ,
5, ,10, ,
2, ,11, ,
1, ,10, ,
-1, ,10, ,
-2, ,10, ,
-5, ,10, ,
-7, ,10, ,
-8, ,10, ,
-9, ,10, ,
-10, ,10, ,
-11, ,10, ,
-11, ,10, ,
-11, ,10, ,
-11, ,10, ,
-10, ,10, ,
-9, ,10, ,
-7, ,10, ,
-5, ,11, ,
-4, ,10, ,
-1, ,10, ,
0, ,10, ,
4, ,11, ,
6, ,11, ,
7, ,11, ,
8, ,10, ,
10, ,10, ,
10, ,11, ,
10, ,10, ,
10, ,10, ,
9, ,10, ,
8, ,10, ,
6, ,10, ,
5, ,10, ,
2, ,10, ,
-1, ,10, ,
-1, ,10, ,
-4, ,10, ,
-6, ,11, ,
-7, ,10, ,
-10, ,10, ,
-10, ,10, ,
-11, ,10, ,
-11, ,10, ,
-10, ,10, ,
-10, ,10, ,
-9, ,10, ,
-9, ,10, ,
-8, ,10, ,
-7, ,11, ,
-5, ,10, ,
-4, ,10, ,
-3, ,10, ,
-3, ,10, ,
-1, ,10, ,
1, ,10, ,
1, ,10, ,
2, ,11, ,
3, ,11, ,
3, ,10, ,
4, ,10, ,
4, ,10, ,
4, ,11, ,
5, ,10, ,
5, ,10, ,
4, ,10, ,
4, ,11, ,
4, ,10, ,
3, ,10, ,
2, ,10, ,
1, ,11, ,
0, ,11, ,
-1, ,11, ,
-2, ,11, ,
-3, ,10, ,
-4, ,10, ,
-4, ,10, ,
-5, ,10, ,
-5, ,10, ,
-5, ,10, ,
-5, ,10, ,
-4, ,10, ,
-3, ,10, ,
-3, ,10, ,
-2, ,10, ,
-1, ,10, ,
1, ,10, ,
2, ,10, ,
2, ,10, ,
4, ,10, ,
5, ,10, ,
5, ,10, ,
6, ,10, ,
6, ,10, ,
7, ,11, ,
7, ,10, ,
6, ,10, ,
6, ,11, ,
6, ,10, ,
5, ,10, ,
5, ,11, ,
5, ,10, ,
4, ,10, ,
4, ,11, ,
4, ,10, ,
4, ,10, ,
4, ,10, ,
3, ,10, ,
3, ,10, ,
3, ,10, ,
2, ,11, ,
2, ,11, ,
1, ,11, ,
0, ,11, ,
-1, ,11, ,
-2, ,10, ,
-2, ,10, ,
-3, ,11, ,
-5, ,11, ,
-6, ,11, ,
-7, ,10, ,
-7, ,10, ,
-8, ,10, ,
-9, ,11, ,
-9, ,11, ,
-9, ,11, ,
-9, ,11, ,
-8, ,10, ,
-8, ,10, ,
-7, ,10, ,
-5, ,11, ,
-5, ,10, ,
-3, ,10, ,
-2, ,10, ,
0, ,10, ,
1, ,11, ,
1, ,10, ,
2, ,10, ,
3, ,10, ,
3, ,10, ,
3, ,10, ,
3, ,10, ,
2, ,10, ,
2, ,11, ,
1, ,10, ,
1, ,10, ,
-1, ,10, ,
-1, ,10, ,
-2, ,10, ,
-2, ,10, ,
-3, ,10, ,
-3, ,10, ,
-3, ,10, ,
-3, ,10, ,
-3, ,10, ,
-3, ,10, ,
-3, ,10, ,
-3, ,10, ,
-2, ,10, ,
-2, ,11, ,
-2, ,10, ,
-1, ,10, ,
0, ,10, ,
1, ,10, ,
1, ,11, ,
2, ,11, ,
3, ,11, ,
3, ,10, ,
4, ,10, ,
4, ,10, ,
5, ,10, ,
4, ,10, ,
4, ,10, ,
4, ,10, ,
4, ,10, ,
4, ,11, ,
4, ,11, ,
4, ,11, ,
4, ,11, ,
4, ,11, ,
3, ,10, ,
3, ,10, ,
3, ,10, ,
3, ,11, ,
3, ,10, ,
3, ,10, ,
3, ,10, ,
2, ,11, ,
2, ,11, ,
2, ,10, ,
2, ,10, ,
2, ,10, ,
1, ,10, ,
1, ,10, ,
1, ,10, ,
0, ,10, ,
0, ,10, ,
0, ,10, ,
-1, ,10, ,
-2, ,11, ,
-2, ,11, ,
-2, ,11, ,
-3, ,11, ,
-4, ,10, ,
-4, ,10, ,
-4, ,10, ,
-3, ,11, ,
-3, ,10, ,
-3, ,10, ,
-3, ,10, ,
-2, ,10, ,
-2, ,11, ,
-1, ,11, ,
-1, ,10, ,
-1, ,10, ,
-1, ,11, ,
-1, ,10, ,
-1, ,10, ,
-2, ,10, ,
-2, ,11, ,
-3, ,11, ,
-4, ,11, ,
-5, ,11, ,
-6, ,10, ,
-7, ,10, ,
-7, ,11, ,
-8, ,10, ,
-9, ,10, ,
-9, ,11, ,
-10, ,10, ,
-9, ,10, ,
-9, ,11, ,
-10, ,11, ,
-8, ,10, ,
-6, ,10, ,
-5, ,10, ,
-4, ,10, ,
-4, ,10, ,
-1, ,10, ,
1, ,10, ,
1, ,10, ,
3, ,10, ,
4, ,11, ,
5, ,10, ,
5, ,10, ,
5, ,10, ,
5, ,10, ,
5, ,10, ,
5, ,10, ,
5, ,11, ,
4, ,10, ,
4, ,10, ,
4, ,10, ,
4, ,10, ,
3, ,10, ,
3, ,10, ,
3, ,10, ,
3, ,10, ,
3, ,10, ,
3, ,11, ,
3, ,11, ,
3, ,10, ,
3, ,10, ,
3, ,11, ,
3, ,10, ,
3, ,10, ,
3, ,10, ,
3, ,11, ,
3, ,11, ,
3, ,10, ,
4, ,10, ,
4, ,10, ,
4, ,10, ,
4, ,10, ,
4, ,10, ,
4, ,10, ,
4, ,10, ,
4, ,10, ,
4, ,10, ,
4, ,10, ,
4, ,10, ,
4, ,10, ,
3, ,10, ,
2, ,11, ,
2, ,11, ,
2, ,11, ,
1, ,11, ,
1, ,10, ,
1, ,10, ,
1, ,10, ,
0, ,11, ,
0, ,10, ,
0, ,10, ,
0, ,11, ,
0, ,11, ,
0, ,11, ,
0, ,11, ,
0, ,11, ,
0, ,10, ,
0, ,10, ,
0, ,10, ,
0, ,10, ,
-1, ,10, ,
-1, ,11, ,
-1, ,11, ,
-1, ,11, ,
-2, ,11, ,
-3, ,11, ,
-3, ,11, ,
-3, ,10, ,
-3, ,10, ,
-4, ,10, ,
-4, ,10, ,
-4, ,11, ,
-4, ,11, ,
-4, ,11, ,
-4, ,11, ,
-4, ,11, ,
-4, ,11, ,
-4, ,10, ,
-4, ,10, ,
-3, ,10, ,
-2, ,10, ,
-2, ,10, ,
-1, ,10, ,
-1, ,10, ,
0, ,10, ,
1, ,10, ,
2, ,10, ,
2, ,11, ,
3, ,11, ,
4, ,10, ,
5, ,10, ,
5, ,10, ,
6, ,10, ,
6, ,11, ,
6, ,11, ,
6, ,11, ,
7, ,10, ,
7, ,10, ,
6, ,10, ,
6, ,10, ,
5, ,10, ,
4, ,10, ,
4, ,10, ,
3, ,11, ,
2, ,10, ,
0, ,10, ,
-1, ,10, ,
-2, ,10, ,
-4, ,11, ,
-5, ,11, ,
-7, ,11, ,
-7, ,11, ,
-9, ,11, ,
-10, ,11, ,
-10, ,11, ,
-11, ,11, ,
-11, ,11, ,
-11, ,11, ,
-11, ,11, ,
-10, ,11, ,
-8, ,11, ,
-7, ,11, ,
-6, ,11, ,
-5, ,11, ,
-1, ,11, ,
1, ,11, ,
2, ,10, ,
3, ,10, ,
6, ,10, ,
8, ,10, ,
9, ,10, ,
9, ,10, ,
11, ,10, ,
11, ,10, ,
11, ,10, ,
11, ,10, ,
10, ,10, ,
10, ,10, ,
9, ,10, ,
8, ,10, ,
6, ,11, ,
5, ,11, ,
5, ,10, ,
4, ,10, ,
1, ,10, ,
0, ,10, ,
-1, ,10, ,
-2, ,11, ,
-4, ,11, ,
-4, ,11, ,
-4, ,10, ,
-5, ,10, ,
-5, ,10, ,
-5, ,10, ,
-5, ,11, ,
-5, ,11, ,
-5, ,11, ,
-5, ,10, ,
-5, ,10, ,
-5, ,10, ,
-6, ,10, ,
-5, ,10, ,
-5, ,11, ,
-5, ,11, ,
-5, ,11, ,
-5, ,11, ,
-5, ,11, ,
-4, ,11, ,
-3, ,10, ,
-3, ,10, ,
-3, ,11, ,
-2, ,10, ,
-2, ,10, ,
0, ,11, ,
0, ,10, ,
1, ,10, ,
2, ,10, ,
2, ,10, ,
3, ,10, ,
3, ,11, ,
3, ,11, ,
3, ,11, ,
3, ,10, ,
3, ,10, ,
3, ,10, ,
2, ,10, ,
2, ,10, ,
2, ,10, ,
1, ,10, ,
1, ,10, ,
1, ,10, ,
1, ,11, ,
1, ,10, ,
1, ,10, ,
1, ,10, ,
1, ,10, ,
1, ,11, ,
0, ,10, ,
0, ,10, ,
0, ,10, ,
0, ,10, ,
-1, ,10, ,
-1, ,10, ,
-2, ,10, ,
-2, ,10, ,
-2, ,10, ,
-2, ,10, ,
-2, ,10, ,
-2, ,10, ,
-2, ,10, ,
-2, ,10, ,
-1, ,11, ,
0, ,10, ,
1, ,10, ,
1, ,11, ,
2, ,10, ,
3, ,10, ,
4, ,10, ,
4, ,10, ,
4, ,10, ,
5, ,11, ,
5, ,11, ,
4, ,11, ,
4, ,11, ,
3, ,11, ,
2, ,11, ,
2, ,11, ,
1, ,10, ,
0, ,10, ,
0, ,11, ,
-2, ,11, ,
-2, ,11, ,
-3, ,11, ,
-3, ,10, ,
-3, ,10, ,
-3, ,10, ,
-3, ,10, ,
-2, ,11, ,
-2, ,11, ,
-2, ,11, ,
-1, ,11, ,
-1, ,11, ,
0, ,11, ,
1, ,10, ,
1, ,10, ,
2, ,10, ,
2, ,10, ,
2, ,10, ,
1, ,10, ,
0, ,10, ,
0, ,10, ,
-1, ,10, ,
-2, ,11, ,
-2, ,11, ,
-3, ,10, ,
-3, ,10, ,
-4, ,10, ,
-5, ,10, ,
-5, ,11, ,
-6, ,11, ,
-7, ,10, ,
-7, ,10, ,
-7, ,10, ,
-6, ,10, ,
-6, ,10, ,
-6, ,11, ,
-5, ,10, ,
-4, ,10, ,
-2, ,10, ,
0, ,11, ,
1, ,11, ,
3, ,11, ,
5, ,10, ,
6, ,10, ,
8, ,10, ,
9, ,10, ,
10, ,10, ,
10, ,11, ,
10, ,11, ,
10, ,11, ,
9, ,11, ,
8, ,10, ,
7, ,10, ,
