raw_data/75% Glycerol, Impulsion 2Hz, Sonde 5MHz, Rampe 0.7Hz/temp0000197.CSV

Format,1.0B,
Memory Length,10000,Memory Length,10000,
IntpDistance,0,IntpDistance,0,
Trigger Address,159,Trigger Address,159,
Trigger Level,2.720E-01,Trigger Level,2.720E-01,
Source,CH1,Source,CH2,
Vertical Units,V,Vertical Units,V,
Vertical Units Div,0,Vertical Units Div,0,
Vertical Units Extend Div,16,Vertical Units Extend Div,16,
Label,,Label,,
Probe Type,0,Probe Type,0,
Probe Ratio,1.000e+00,Probe Ratio,1.000e+00,
Vertical Scale,5.000e-01,Vertical Scale,2.000e+00,
Vertical Position,0.000e+00,Vertical Position,0.000e+00,
Horizontal Units,S,Horizontal Units,S,
Horizontal Scale,5.000E-06,Horizontal Scale,5.000E-06,
Horizontal Position,2.420E-05,Horizontal Position,2.420E-05,
Horizontal Mode,Main,Horizontal Mode,Main,
SincET Mode,Real Time,SincET Mode,Real Time,
Sampling Period,5.000e-09,Sampling Period,5.000e-09,
Horizontal Old Scale,5.000E-06,Horizontal Old Scale,5.000E-06,
Horizontal Old Position,2.420E-05,Horizontal Old Position,2.420E-05,
Firmware,V1.32,Firmware,V1.32,
Mode,Fast,Mode,Fast,
Waveform Data,,Waveform Data,,
1, ,15, ,
1, ,15, ,
1, ,15, ,
1, ,15, ,
1, ,15, ,
1, ,15, ,
1, ,15, ,
1, ,15, ,
1, ,15, ,
0, ,15, ,
0, ,15, ,
1, ,15, ,
0, ,15, ,
0, ,15, ,
0, ,15, ,
0, ,15, ,
0, ,15, ,
1, ,15, ,
0, ,15, ,
0, ,15, ,
0, ,15, ,
1, ,15, ,
1, ,15, ,
0, ,15, ,
0, ,15, ,
1, ,15, ,
0, ,15, ,
0, ,15, ,
0, ,15, ,
1, ,15, ,
1, ,15, ,
1, ,15, ,
1, ,15, ,
1, ,15, ,
0, ,15, ,
0, ,15, ,
0, ,15, ,
0, ,15, ,
0, ,15, ,
0, ,15, ,
1, ,15, ,
0, ,15, ,
0, ,15, ,
0, ,15, ,
0, ,15, ,
1, ,15, ,
1, ,15, ,
0, ,15, ,
0, ,15, ,
1, ,15, ,
1, ,15, ,
1, ,15, ,
0, ,15, ,
0, ,15, ,
0, ,15, ,
0, ,15, ,
1, ,15, ,
1, ,15, ,
0, ,15, ,
0, ,15, ,
0, ,15, ,
1, ,15, ,
1, ,15, ,
1, ,15, ,
1, ,15, ,
1, ,15, ,
0, ,15, ,
0, ,15, ,
0, ,15, ,
0, ,15, ,
0, ,15, ,
0, ,15, ,
1, ,15, ,
1, ,15, ,
1, ,15, ,
1, ,15, ,
1, ,15, ,
1, ,15, ,
1, ,15, ,
0, ,15, ,
0, ,15, ,
1, ,15, ,
1, ,15, ,
1, ,15, ,
1, ,15, ,
1, ,15, ,
1, ,15, ,
1, ,15, ,
1, ,15, ,
1, ,15, ,
0, ,15, ,
0, ,15, ,
0, ,15, ,
0, ,15, ,
0, ,15, ,
0, ,15, ,
0, ,15, ,
1, ,15, ,
0, ,15, ,
0, ,15, ,
0, ,15, ,
0, ,15, ,
1, ,15, ,
1, ,15, ,
1, ,15, ,
0, ,15, ,
0, ,15, ,
1, ,15, ,
1, ,15, ,
1, ,15, ,
1, ,15, ,
0, ,15, ,
0, ,15, ,
0, ,15, ,
0, ,15, ,
0, ,15, ,
0, ,15, ,
1, ,15, ,
1, ,15, ,
0, ,15, ,
0, ,15, ,
1, ,15, ,
1, ,15, ,
1, ,15, ,
0, ,15, ,
0, ,15, ,
1, ,15, ,
0, ,15, ,
0, ,15, ,
1, ,15, ,
1, ,15, ,
1, ,15, ,
0, ,15, ,
0, ,15, ,
1, ,15, ,
1, ,15, ,
1, ,15, ,
1, ,15, ,
1, ,15, ,
1, ,15, ,
0, ,15, ,
0, ,15, ,
1, ,15, ,
0, ,15, ,
0, ,15, ,
0, ,15, ,
0, ,15, ,
0, ,15, ,
1, ,15, ,
1, ,15, ,
1, ,15, ,
0, ,15, ,
0, ,15, ,
0, ,15, ,
0, ,15, ,
1, ,15, ,
1, ,15, ,
0, ,15, ,
0, ,15, ,
0, ,15, ,
1, ,15, ,
1, ,15, ,
0, ,15, ,
0, ,15, ,
-1, ,15, ,
0, ,15, ,
-2, ,15, ,
6, ,15, ,
25, ,15, ,
100, ,15, ,
125, ,15, ,
123, ,15, ,
120, ,15, ,
20, ,15, ,
-8, ,15, ,
20, ,15, ,
74, ,15, ,
125, ,15, ,
125, ,15, ,
125, ,15, ,
125, ,15, ,
125, ,15, ,
125, ,15, ,
124, ,15, ,
124, ,15, ,
114, ,15, ,
108, ,15, ,
105, ,15, ,
102, ,15, ,
95, ,15, ,
93, ,15, ,
88, ,15, ,
85, ,15, ,
78, ,15, ,
75, ,15, ,
74, ,15, ,
70, ,15, ,
64, ,15, ,
63, ,15, ,
60, ,15, ,
57, ,15, ,
53, ,15, ,
50, ,15, ,
49, ,15, ,
46, ,15, ,
43, ,15, ,
40, ,15, ,
39, ,15, ,
38, ,15, ,
34, ,15, ,
32, ,15, ,
31, ,15, ,
29, ,15, ,
27, ,15, ,
25, ,15, ,
25, ,15, ,
24, ,15, ,
22, ,15, ,
20, ,15, ,
20, ,15, ,
19, ,15, ,
17, ,15, ,
16, ,15, ,
15, ,15, ,
15, ,15, ,
13, ,15, ,
12, ,15, ,
12, ,15, ,
11, ,15, ,
10, ,15, ,
10, ,15, ,
9, ,15, ,
8, ,15, ,
7, ,15, ,
7, ,15, ,
6, ,15, ,
6, ,15, ,
5, ,15, ,
5, ,15, ,
5, ,15, ,
5, ,15, ,
4, ,15, ,
3, ,15, ,
3, ,15, ,
3, ,15, ,
2, ,15, ,
2, ,15, ,
2, ,15, ,
2, ,15, ,
1, ,15, ,
1, ,15, ,
1, ,15, ,
1, ,15, ,
0, ,15, ,
0, ,15, ,
0, ,15, ,
0, ,15, ,
0, ,15, ,
-1, ,15, ,
-1, ,15, ,
-1, ,15, ,
-1, ,15, ,
-1, ,15, ,
-1, ,15, ,
-1, ,15, ,
-1, ,15, ,
-1, ,15, ,
-1, ,15, ,
-1, ,15, ,
-1, ,15, ,
-1, ,15, ,
-1, ,15, ,
-1, ,15, ,
-1, ,15, ,
-2, ,15, ,
-2, ,15, ,
-2, ,15, ,
-1, ,15, ,
-1, ,15, ,
-1, ,15, ,
-1, ,15, ,
-1, ,15, ,
-1, ,15, ,
-1, ,15, ,
-1, ,15, ,
-1, ,15, ,
-1, ,15, ,
-1, ,15, ,
-1, ,15, ,
-1, ,15, ,
-1, ,15, ,
-1, ,15, ,
-1, ,15, ,
-1, ,15, ,
-1, ,15, ,
-1, ,15, ,
-1, ,15, ,
-1, ,15, ,
-1, ,15, ,
-1, ,15, ,
-1, ,15, ,
-1, ,15, ,
-1, ,15, ,
-1, ,15, ,
-1, ,15, ,
-1, ,15, ,
-1, ,15, ,
-1, ,15, ,
-1, ,15, ,
-1, ,15, ,
-1, ,15, ,
-1, ,15, ,
-1, ,15, ,
-1, ,15, ,
-1, ,15, ,
-1, ,15, ,
-1, ,15, ,
-1, ,15, ,
-1, ,15, ,
-1, ,15, ,
-1, ,15, ,
-1, ,15, ,
0, ,15, ,
-1, ,15, ,
-1, ,15, ,
0, ,15, ,
0, ,15, ,
0, ,15, ,
0, ,15, ,
0, ,15, ,
0, ,15, ,
0, ,15, ,
0, ,15, ,
0, ,15, ,
0, ,15, ,
0, ,15, ,
0, ,15, ,
0, ,15, ,
0, ,15, ,
0, ,15, ,
0, ,15, ,
0, ,15, ,
0, ,15, ,
0, ,15, ,
0, ,15, ,
0, ,15, ,
-1, ,15, ,
0, ,15, ,
0, ,15, ,
0, ,15, ,
0, ,15, ,
0, ,15, ,
0, ,15, ,
0, ,15, ,
0, ,15, ,
0, ,15, ,
0, ,15, ,
0, ,15, ,
0, ,15, ,
0, ,15, ,
0, ,15, ,
0, ,15, ,
0, ,15, ,
0, ,15, ,
0, ,15, ,
0, ,15, ,
0, ,15, ,
0, ,15, ,
0, ,15, ,
0, ,15, ,
0, ,15, ,
0, ,15, ,
0, ,15, ,
0, ,15, ,
0, ,15, ,
0, ,15, ,
0, ,15, ,
0, ,15, ,
0, ,15, ,
0, ,15, ,
0, ,15, ,
0, ,15, ,
0, ,15, ,
0, ,15, ,
0, ,15, ,
0, ,15, ,
-1, ,15, ,
-1, ,15, ,
-2, ,15, ,
-2, ,15, ,
-1, ,15, ,
-1, ,15, ,
-1, ,15, ,
-1, ,15, ,
0, ,15, ,
0, ,15, ,
0, ,15, ,
0, ,15, ,
0, ,15, ,
0, ,15, ,
0, ,15, ,
0, ,15, ,
0, ,15, ,
1, ,15, ,
1, ,15, ,
1, ,15, ,
1, ,15, ,
1, ,15, ,
1, ,15, ,
1, ,15, ,
1, ,15, ,
1, ,15, ,
0, ,15, ,
0, ,15, ,
1, ,15, ,
1, ,15, ,
1, ,15, ,
1, ,15, ,
1, ,15, ,
0, ,15, ,
0, ,15, ,
-9, ,15, ,
-32, ,15, ,
-76, ,15, ,
-118, ,15, ,
-118, ,15, ,
-114, ,15, ,
-113, ,15, ,
-116, ,15, ,
-117, ,15, ,
-118, ,15, ,
-118, ,15, ,
-119, ,15, ,
-120, ,15, ,
-120, ,15, ,
-121, ,15, ,
-121, ,15, ,
-121, ,15, ,
-122, ,15, ,
-122, ,15, ,
-122, ,15, ,
-122, ,15, ,
-123, ,15, ,
-124, ,15, ,
-124, ,15, ,
-93, ,15, ,
51, ,15, ,
122, ,15, ,
125, ,15, ,
125, ,15, ,
125, ,15, ,
125, ,15, ,
125, ,15, ,
124, ,15, ,
122, ,15, ,
116, ,15, ,
112, ,15, ,
105, ,15, ,
102, ,15, ,
99, ,15, ,
95, ,15, ,
88, ,15, ,
82, ,15, ,
73, ,15, ,
61, ,15, ,
22, ,15, ,
4, ,15, ,
-7, ,15, ,
-10, ,15, ,
9, ,15, ,
24, ,15, ,
34, ,15, ,
44, ,15, ,
53, ,15, ,
54, ,15, ,
54, ,15, ,
54, ,15, ,
52, ,15, ,
49, ,15, ,
45, ,15, ,
39, ,15, ,
17, ,15, ,
0, ,15, ,
-20, ,15, ,
-39, ,15, ,
-69, ,15, ,
-76, ,15, ,
-82, ,15, ,
-85, ,15, ,
-84, ,15, ,
-83, ,15, ,
-77, ,15, ,
-73, ,15, ,
-58, ,15, ,
-49, ,15, ,
-41, ,15, ,
-30, ,15, ,
-9, ,15, ,
3, ,15, ,
15, ,15, ,
25, ,15, ,
44, ,15, ,
53, ,15, ,
58, ,15, ,
62, ,15, ,
64, ,15, ,
63, ,15, ,
63, ,15, ,
61, ,15, ,
58, ,15, ,
56, ,15, ,
53, ,15, ,
51, ,15, ,
45, ,15, ,
40, ,15, ,
38, ,15, ,
35, ,15, ,
30, ,15, ,
28, ,15, ,
28, ,15, ,
28, ,15, ,
28, ,15, ,
28, ,15, ,
29, ,15, ,
29, ,15, ,
30, ,15, ,
30, ,15, ,
29, ,15, ,
29, ,15, ,
29, ,15, ,
28, ,15, ,
28, ,15, ,
26, ,15, ,
25, ,15, ,
25, ,15, ,
24, ,15, ,
24, ,15, ,
21, ,15, ,
19, ,15, ,
17, ,15, ,
14, ,15, ,
5, ,15, ,
0, ,15, ,
-8, ,15, ,
-16, ,15, ,
-31, ,15, ,
-36, ,15, ,
-38, ,15, ,
-39, ,15, ,
-33, ,15, ,
-28, ,15, ,
-23, ,15, ,
-17, ,15, ,
-6, ,15, ,
-2, ,15, ,
1, ,15, ,
3, ,15, ,
2, ,15, ,
1, ,15, ,
-1, ,15, ,
-4, ,15, ,
-13, ,15, ,
-19, ,15, ,
-24, ,15, ,
-27, ,15, ,
-32, ,15, ,
-32, ,15, ,
-32, ,15, ,
-29, ,15, ,
-25, ,15, ,
-22, ,15, ,
-19, ,15, ,
-17, ,15, ,
-12, ,15, ,
-10, ,15, ,
-11, ,15, ,
-11, ,15, ,
-14, ,15, ,
-15, ,15, ,
-18, ,15, ,
-21, ,15, ,
-25, ,15, ,
-27, ,15, ,
-30, ,15, ,
-30, ,15, ,
-29, ,15, ,
-28, ,15, ,
-27, ,15, ,
-25, ,15, ,
-22, ,15, ,
-20, ,15, ,
-20, ,15, ,
-19, ,15, ,
-20, ,15, ,
-23, ,15, ,
-25, ,15, ,
-28, ,15, ,
-39, ,15, ,
-44, ,15, ,
-50, ,15, ,
-55, ,15, ,
-65, ,15, ,
-69, ,15, ,
-71, ,15, ,
-71, ,15, ,
-67, ,15, ,
-61, ,15, ,
-54, ,15, ,
-44, ,15, ,
-22, ,15, ,
-10, ,15, ,
4, ,15, ,
16, ,15, ,
37, ,15, ,
47, ,15, ,
54, ,15, ,
60, ,15, ,
67, ,15, ,
68, ,15, ,
68, ,15, ,
67, ,15, ,
65, ,15, ,
64, ,15, ,
61, ,15, ,
60, ,15, ,
56, ,15, ,
52, ,15, ,
51, ,15, ,
49, ,15, ,
46, ,15, ,
46, ,15, ,
45, ,15, ,
45, ,15, ,
44, ,15, ,
43, ,15, ,
42, ,15, ,
41, ,15, ,
39, ,15, ,
39, ,15, ,
37, ,15, ,
36, ,15, ,
33, ,15, ,
30, ,15, ,
28, ,15, ,
24, ,15, ,
12, ,15, ,
1, ,15, ,
-11, ,15, ,
-24, ,15, ,
-48, ,15, ,
-59, ,15, ,
-68, ,15, ,
-72, ,15, ,
-75, ,15, ,
-74, ,15, ,
-71, ,15, ,
-68, ,15, ,
-57, ,15, ,
-52, ,15, ,
-45, ,15, ,
-41, ,15, ,
-33, ,15, ,
-31, ,15, ,
-30, ,15, ,
-30, ,15, ,
-35, ,15, ,
-37, ,15, ,
-41, ,15, ,
-45, ,15, ,
-53, ,15, ,
-57, ,15, ,
-60, ,15, ,
-63, ,15, ,
-66, ,15, ,
-66, ,15, ,
-65, ,15, ,
-64, ,15, ,
-60, ,15, ,
-56, ,15, ,
-51, ,15, ,
-47, ,15, ,
-35, ,15, ,
-27, ,15, ,
-20, ,15, ,
-13, ,15, ,
5, ,15, ,
14, ,15, ,
22, ,15, ,
29, ,15, ,
42, ,15, ,
47, ,15, ,
52, ,15, ,
56, ,15, ,
60, ,15, ,
60, ,15, ,
59, ,15, ,
59, ,15, ,
54, ,15, ,
49, ,15, ,
45, ,15, ,
39, ,15, ,
25, ,15, ,
18, ,15, ,
10, ,15, ,
3, ,15, ,
-12, ,15, ,
-20, ,15, ,
-25, ,15, ,
-29, ,15, ,
-36, ,15, ,
-37, ,15, ,
-38, ,15, ,
-37, ,15, ,
-34, ,15, ,
-30, ,15, ,
-26, ,15, ,
-23, ,15, ,
-11, ,15, ,
-4, ,15, ,
1, ,15, ,
8, ,15, ,
18, ,15, ,
22, ,15, ,
25, ,15, ,
27, ,15, ,
31, ,15, ,
33, ,15, ,
32, ,15, ,
32, ,15, ,
30, ,15, ,
29, ,15, ,
28, ,15, ,
25, ,15, ,
21, ,15, ,
18, ,15, ,
15, ,15, ,
11, ,15, ,
2, ,15, ,
-1, ,15, ,
-6, ,15, ,
-10, ,15, ,
-17, ,15, ,
-21, ,15, ,
-23, ,15, ,
-25, ,15, ,
-25, ,15, ,
-25, ,15, ,
-23, ,15, ,
-20, ,15, ,
-10, ,15, ,
-2, ,15, ,
5, ,15, ,
13, ,15, ,
28, ,15, ,
35, ,15, ,
42, ,15, ,
46, ,15, ,
53, ,15, ,
54, ,15, ,
53, ,15, ,
54, ,15, ,
48, ,15, ,
44, ,15, ,
38, ,15, ,
28, ,15, ,
2, ,15, ,
-15, ,15, ,
-33, ,15, ,
-52, ,15, ,
-87, ,15, ,
-101, ,15, ,
-112, ,15, ,
-116, ,15, ,
-116, ,15, ,
-116, ,15, ,
-116, ,15, ,
-117, ,15, ,
-118, ,15, ,
-119, ,15, ,
-119, ,15, ,
-119, ,15, ,
-110, ,15, ,
-65, ,15, ,
-25, ,15, ,
6, ,15, ,
36, ,15, ,
48, ,15, ,
59, ,15, ,
68, ,15, ,
79, ,15, ,
83, ,15, ,
82, ,15, ,
82, ,15, ,
76, ,15, ,
72, ,15, ,
67, ,15, ,
60, ,15, ,
44, ,15, ,
36, ,15, ,
27, ,15, ,
19, ,15, ,
2, ,15, ,
-7, ,15, ,
-14, ,15, ,
-21, ,15, ,
-31, ,15, ,
-36, ,15, ,
-41, ,15, ,
-44, ,15, ,
-50, ,15, ,
-52, ,15, ,
-55, ,15, ,
-57, ,15, ,
-60, ,15, ,
-61, ,15, ,
-62, ,15, ,
-62, ,15, ,
-61, ,15, ,
-60, ,15, ,
-59, ,15, ,
-56, ,15, ,
-50, ,15, ,
-43, ,15, ,
-38, ,15, ,
-32, ,15, ,
-16, ,15, ,
-8, ,15, ,
2, ,15, ,
11, ,15, ,
30, ,15, ,
40, ,15, ,
49, ,15, ,
58, ,15, ,
74, ,15, ,
80, ,15, ,
87, ,15, ,
91, ,15, ,
97, ,15, ,
98, ,15, ,
97, ,15, ,
97, ,15, ,
94, ,15, ,
91, ,15, ,
89, ,15, ,
85, ,15, ,
75, ,15, ,
70, ,15, ,
60, ,15, ,
49, ,15, ,
20, ,15, ,
0, ,15, ,
-18, ,15, ,
-36, ,15, ,
-66, ,15, ,
-76, ,15, ,
-87, ,15, ,
-96, ,15, ,
-106, ,15, ,
-108, ,15, ,
-108, ,15, ,
-108, ,15, ,
-103, ,15, ,
-97, ,15, ,
-87, ,15, ,
-77, ,15, ,
-57, ,15, ,
-48, ,15, ,
-38, ,15, ,
-29, ,15, ,
-11, ,15, ,
-1, ,15, ,
6, ,15, ,
14, ,15, ,
25, ,15, ,
28, ,15, ,
33, ,15, ,
35, ,15, ,
35, ,15, ,
35, ,15, ,
31, ,15, ,
27, ,15, ,
17, ,15, ,
9, ,15, ,
1, ,15, ,
-10, ,15, ,
-29, ,15, ,
-39, ,15, ,
-49, ,15, ,
-58, ,15, ,
-72, ,15, ,
-77, ,15, ,
-81, ,15, ,
-82, ,15, ,
-79, ,15, ,
-75, ,15, ,
-70, ,15, ,
-61, ,15, ,
-39, ,15, ,
-28, ,15, ,
-16, ,15, ,
-2, ,15, ,
25, ,15, ,
37, ,15, ,
47, ,15, ,
57, ,15, ,
75, ,15, ,
81, ,15, ,
87, ,15, ,
91, ,15, ,
96, ,15, ,
96, ,15, ,
96, ,15, ,
95, ,15, ,
90, ,15, ,
86, ,15, ,
82, ,15, ,
75, ,15, ,
61, ,15, ,
50, ,15, ,
39, ,15, ,
27, ,15, ,
2, ,15, ,
-12, ,15, ,
-25, ,15, ,
-38, ,15, ,
-60, ,15, ,
-70, ,15, ,
-77, ,15, ,
-84, ,15, ,
-95, ,15, ,
-97, ,15, ,
-98, ,15, ,
-98, ,15, ,
-93, ,15, ,
-89, ,15, ,
-83, ,15, ,
-76, ,15, ,
-62, ,15, ,
-54, ,15, ,
-46, ,15, ,
-38, ,15, ,
-23, ,15, ,
-15, ,15, ,
-10, ,15, ,
-4, ,15, ,
5, ,15, ,
8, ,15, ,
11, ,15, ,
13, ,15, ,
17, ,15, ,
18, ,15, ,
18, ,15, ,
19, ,15, ,
19, ,15, ,
18, ,15, ,
18, ,15, ,
17, ,15, ,
16, ,15, ,
16, ,15, ,
15, ,15, ,
15, ,15, ,
14, ,15, ,
13, ,15, ,
12, ,15, ,
11, ,15, ,
9, ,15, ,
9, ,15, ,
8, ,15, ,
7, ,15, ,
6, ,15, ,
5, ,15, ,
5, ,15, ,
5, ,15, ,
5, ,15, ,
6, ,15, ,
6, ,15, ,
7, ,15, ,
8, ,15, ,
8, ,15, ,
9, ,15, ,
8, ,15, ,
7, ,15, ,
7, ,15, ,
6, ,15, ,
4, ,15, ,
-1, ,15, ,
-5, ,15, ,
-8, ,15, ,
-12, ,15, ,
-21, ,15, ,
-25, ,15, ,
-28, ,15, ,
-31, ,15, ,
-33, ,15, ,
-34, ,15, ,
-32, ,15, ,
-30, ,15, ,
-23, ,15, ,
-18, ,15, ,
-12, ,15, ,
-5, ,15, ,
10, ,15, ,
17, ,15, ,
25, ,15, ,
30, ,15, ,
41, ,15, ,
45, ,15, ,
48, ,15, ,
49, ,15, ,
48, ,15, ,
46, ,15, ,
43, ,15, ,
38, ,15, ,
28, ,15, ,
23, ,15, ,
17, ,15, ,
11, ,15, ,
-1, ,15, ,
-6, ,15, ,
-11, ,15, ,
-16, ,15, ,
-21, ,15, ,
-22, ,15, ,
-23, ,15, ,
-22, ,15, ,
-20, ,15, ,
-18, ,15, ,
-15, ,15, ,
-12, ,15, ,
-6, ,15, ,
-2, ,15, ,
1, ,15, ,
4, ,15, ,
9, ,15, ,
9, ,15, ,
10, ,15, ,
9, ,15, ,
7, ,15, ,
6, ,15, ,
2, ,15, ,
-1, ,15, ,
-9, ,15, ,
-15, ,15, ,
-20, ,15, ,
-25, ,15, ,
-36, ,15, ,
-41, ,15, ,
-47, ,15, ,
-51, ,15, ,
-57, ,15, ,
-58, ,15, ,
-58, ,15, ,
-59, ,15, ,
-55, ,15, ,
-51, ,15, ,
-47, ,15, ,
-41, ,15, ,
-28, ,15, ,
-21, ,15, ,
-13, ,15, ,
-5, ,15, ,
10, ,15, ,
18, ,15, ,
25, ,15, ,
29, ,15, ,
38, ,15, ,
41, ,15, ,
43, ,15, ,
43, ,15, ,
41, ,15, ,
40, ,15, ,
38, ,15, ,
35, ,15, ,
28, ,15, ,
25, ,15, ,
22, ,15, ,
18, ,15, ,
13, ,15, ,
10, ,15, ,
9, ,15, ,
8, ,15, ,
8, ,15, ,
8, ,15, ,
9, ,15, ,
9, ,15, ,
11, ,15, ,
11, ,15, ,
10, ,15, ,
10, ,15, ,
9, ,15, ,
7, ,15, ,
5, ,15, ,
1, ,15, ,
-5, ,15, ,
-8, ,15, ,
-13, ,15, ,
-16, ,15, ,
-24, ,15, ,
-27, ,15, ,
-30, ,15, ,
-33, ,15, ,
-38, ,15, ,
-38, ,15, ,
-38, ,15, ,
-38, ,15, ,
-36, ,15, ,
-35, ,15, ,
-32, ,15, ,
-30, ,15, ,
-25, ,15, ,
-22, ,15, ,
-20, ,15, ,
-16, ,15, ,
-9, ,15, ,
-6, ,15, ,
-3, ,15, ,
0, ,15, ,
7, ,15, ,
11, ,15, ,
13, ,15, ,
16, ,15, ,
22, ,15, ,
24, ,15, ,
26, ,15, ,
26, ,15, ,
29, ,15, ,
31, ,15, ,
31, ,15, ,
31, ,15, ,
29, ,15, ,
28, ,15, ,
26, ,15, ,
25, ,15, ,
21, ,15, ,
18, ,15, ,
16, ,15, ,
14, ,15, ,
9, ,15, ,
6, ,15, ,
5, ,15, ,
4, ,15, ,
3, ,15, ,
4, ,15, ,
4, ,15, ,
6, ,15, ,
8, ,15, ,
9, ,15, ,
10, ,15, ,
11, ,15, ,
10, ,15, ,
10, ,15, ,
8, ,15, ,
6, ,15, ,
-1, ,15, ,
-5, ,15, ,
-11, ,15, ,
-17, ,15, ,
-30, ,15, ,
-36, ,15, ,
-44, ,15, ,
-50, ,15, ,
-61, ,15, ,
-66, ,15, ,
-69, ,15, ,
-71, ,15, ,
-71, ,15, ,
-68, ,15, ,
-65, ,15, ,
-59, ,15, ,
-45, ,15, ,
-35, ,15, ,
-25, ,15, ,
-15, ,15, ,
8, ,15, ,
18, ,15, ,
27, ,15, ,
37, ,15, ,
54, ,15, ,
60, ,15, ,
65, ,15, ,
69, ,15, ,
73, ,15, ,
73, ,15, ,
72, ,15, ,
71, ,15, ,
63, ,15, ,
57, ,15, ,
52, ,15, ,
45, ,15, ,
30, ,15, ,
23, ,15, ,
14, ,15, ,
7, ,15, ,
-7, ,15, ,
-14, ,15, ,
-19, ,15, ,
-24, ,15, ,
-29, ,15, ,
-31, ,15, ,
-31, ,15, ,
-31, ,15, ,
-28, ,15, ,
-27, ,15, ,
-25, ,15, ,
-23, ,15, ,
-19, ,15, ,
-16, ,15, ,
-15, ,15, ,
-15, ,15, ,
-15, ,15, ,
-15, ,15, ,
-17, ,15, ,
-17, ,15, ,
-21, ,15, ,
-22, ,15, ,
-25, ,15, ,
-25, ,15, ,
-27, ,15, ,
-27, ,15, ,
-26, ,15, ,
-26, ,15, ,
-24, ,15, ,
-22, ,15, ,
-20, ,15, ,
-17, ,15, ,
-11, ,15, ,
-8, ,15, ,
-6, ,15, ,
-4, ,15, ,
-1, ,15, ,
0, ,15, ,
-1, ,15, ,
-1, ,15, ,
-3, ,15, ,
-4, ,15, ,
-6, ,15, ,
-7, ,15, ,
-12, ,15, ,
-13, ,15, ,
-15, ,15, ,
-16, ,15, ,
-15, ,15, ,
-15, ,15, ,
-13, ,15, ,
-12, ,15, ,
-6, ,15, ,
-2, ,15, ,
3, ,15, ,
8, ,15, ,
17, ,15, ,
22, ,15, ,
25, ,15, ,
29, ,15, ,
36, ,15, ,
38, ,15, ,
38, ,15, ,
37, ,15, ,
35, ,15, ,
32, ,15, ,
29, ,15, ,
24, ,15, ,
14, ,15, ,
7, ,15, ,
0, ,15, ,
-6, ,15, ,
-20, ,15, ,
-25, ,15, ,
-30, ,15, ,
-36, ,15, ,
-42, ,15, ,
-43, ,15, ,
-43, ,15, ,
-42, ,15, ,
-37, ,15, ,
-34, ,15, ,
-29, ,15, ,
-24, ,15, ,
-11, ,15, ,
-3, ,15, ,
3, ,15, ,
10, ,15, ,
21, ,15, ,
25, ,15, ,
29, ,15, ,
31, ,15, ,
34, ,15, ,
34, ,15, ,
32, ,15, ,
31, ,15, ,
26, ,15, ,
23, ,15, ,
20, ,15, ,
16, ,15, ,
8, ,15, ,
4, ,15, ,
1, ,15, ,
-2, ,15, ,
-7, ,15, ,
-9, ,15, ,
-9, ,15, ,
-9, ,15, ,
-9, ,15, ,
-8, ,15, ,
-9, ,15, ,
-7, ,15, ,
-7, ,15, ,
-7, ,15, ,
-7, ,15, ,
-7, ,15, ,
-8, ,15, ,
-9, ,15, ,
-10, ,15, ,
-11, ,15, ,
-12, ,15, ,
-13, ,15, ,
-13, ,15, ,
-13, ,15, ,
-12, ,15, ,
-9, ,15, ,
-8, ,15, ,
-6, ,15, ,
0, ,15, ,
3, ,15, ,
6, ,15, ,
10, ,15, ,
16, ,15, ,
20, ,15, ,
22, ,15, ,
24, ,15, ,
27, ,15, ,
27, ,15, ,
26, ,15, ,
26, ,15, ,
24, ,15, ,
22, ,15, ,
19, ,15, ,
17, ,15, ,
10, ,15, ,
6, ,15, ,
3, ,15, ,
-2, ,15, ,
-8, ,15, ,
-12, ,15, ,
-14, ,15, ,
-17, ,15, ,
-20, ,15, ,
-21, ,15, ,
-21, ,15, ,
-21, ,15, ,
-20, ,15, ,
-18, ,15, ,
-17, ,15, ,
-15, ,15, ,
-10, ,15, ,
-9, ,15, ,
-7, ,15, ,
-5, ,15, ,
-2, ,15, ,
-1, ,15, ,
-1, ,15, ,
0, ,15, ,
-1, ,15, ,
-2, ,15, ,
-2, ,15, ,
-3, ,15, ,
-6, ,15, ,
-6, ,15, ,
-7, ,15, ,
-7, ,15, ,
-9, ,15, ,
-9, ,15, ,
-8, ,15, ,
-8, ,15, ,
-8, ,15, ,
-7, ,15, ,
-6, ,15, ,
-5, ,15, ,
-5, ,15, ,
-5, ,15, ,
-5, ,15, ,
-6, ,15, ,
-7, ,15, ,
-7, ,15, ,
-8, ,15, ,
-8, ,15, ,
-10, ,15, ,
-10, ,15, ,
-10, ,15, ,
-10, ,15, ,
-7, ,15, ,
-6, ,15, ,
-3, ,15, ,
0, ,15, ,
7, ,15, ,
10, ,15, ,
15, ,15, ,
19, ,15, ,
26, ,15, ,
29, ,15, ,
32, ,15, ,
34, ,15, ,
34, ,15, ,
34, ,15, ,
33, ,15, ,
30, ,15, ,
24, ,15, ,
20, ,15, ,
15, ,15, ,
9, ,15, ,
-2, ,15, ,
-8, ,15, ,
-13, ,15, ,
-19, ,15, ,
-27, ,15, ,
-30, ,15, ,
-33, ,15, ,
-34, ,15, ,
-33, ,15, ,
-34, ,15, ,
-32, ,15, ,
-29, ,15, ,
-24, ,15, ,
-19, ,15, ,
-15, ,15, ,
-11, ,15, ,
-1, ,15, ,
3, ,15, ,
7, ,15, ,
10, ,15, ,
16, ,15, ,
18, ,15, ,
19, ,15, ,
20, ,15, ,
19, ,15, ,
17, ,15, ,
15, ,15, ,
13, ,15, ,
7, ,15, ,
4, ,15, ,
0, ,15, ,
-2, ,15, ,
-10, ,15, ,
-13, ,15, ,
-16, ,15, ,
-19, ,15, ,
-21, ,15, ,
-21, ,15, ,
-21, ,15, ,
-21, ,15, ,
-17, ,15, ,
-16, ,15, ,
-12, ,15, ,
-9, ,15, ,
-2, ,15, ,
2, ,15, ,
5, ,15, ,
9, ,15, ,
15, ,15, ,
17, ,15, ,
20, ,15, ,
21, ,15, ,
23, ,15, ,
23, ,15, ,
23, ,15, ,
23, ,15, ,
22, ,15, ,
20, ,15, ,
20, ,15, ,
18, ,15, ,
17, ,15, ,
17, ,15, ,
17, ,15, ,
18, ,15, ,
19, ,15, ,
18, ,15, ,
21, ,15, ,
22, ,15, ,
24, ,15, ,
25, ,15, ,
25, ,15, ,
25, ,15, ,
25, ,15, ,
25, ,15, ,
24, ,15, ,
21, ,15, ,
16, ,15, ,
13, ,15, ,
9, ,15, ,
4, ,15, ,
-6, ,15, ,
-12, ,15, ,
-18, ,15, ,
-24, ,15, ,
-35, ,15, ,
-40, ,15, ,
-45, ,15, ,
-49, ,15, ,
-55, ,15, ,
-56, ,15, ,
-57, ,15, ,
-57, ,15, ,
-54, ,15, ,
-52, ,15, ,
-49, ,15, ,
-46, ,15, ,
-38, ,15, ,
-34, ,15, ,
-29, ,15, ,
-25, ,15, ,
-18, ,15, ,
-14, ,15, ,
-10, ,15, ,
-7, ,15, ,
-1, ,15, ,
1, ,15, ,
3, ,15, ,
5, ,15, ,
10, ,15, ,
12, ,15, ,
14, ,15, ,
16, ,15, ,
21, ,15, ,
24, ,15, ,
25, ,15, ,
27, ,15, ,
32, ,15, ,
35, ,15, ,
37, ,15, ,
39, ,15, ,
41, ,15, ,
40, ,15, ,
40, ,15, ,
39, ,15, ,
36, ,15, ,
34, ,15, ,
31, ,15, ,
28, ,15, ,
20, ,15, ,
16, ,15, ,
10, ,15, ,
6, ,15, ,
-5, ,15, ,
-10, ,15, ,
-15, ,15, ,
-19, ,15, ,
-27, ,15, ,
-30, ,15, ,
-33, ,15, ,
-36, ,15, ,
-37, ,15, ,
-37, ,15, ,
-37, ,15, ,
-35, ,15, ,
-31, ,15, ,
-28, ,15, ,
-25, ,15, ,
-21, ,15, ,
-11, ,15, ,
-6, ,15, ,
-1, ,15, ,
4, ,15, ,
14, ,15, ,
18, ,15, ,
22, ,15, ,
25, ,15, ,
29, ,15, ,
31, ,15, ,
31, ,15, ,
31, ,15, ,
28, ,15, ,
26, ,15, ,
24, ,15, ,
20, ,15, ,
12, ,15, ,
7, ,15, ,
2, ,15, ,
-2, ,15, ,
-11, ,15, ,
-15, ,15, ,
-18, ,15, ,
-20, ,15, ,
-23, ,15, ,
-23, ,15, ,
-22, ,15, ,
-21, ,15, ,
-16, ,15, ,
-13, ,15, ,
-9, ,15, ,
-5, ,15, ,
3, ,15, ,
8, ,15, ,
11, ,15, ,
15, ,15, ,
19, ,15, ,
20, ,15, ,
20, ,15, ,
18, ,15, ,
15, ,15, ,
12, ,15, ,
8, ,15, ,
4, ,15, ,
-6, ,15, ,
-11, ,15, ,
-17, ,15, ,
-22, ,15, ,
-29, ,15, ,
-33, ,15, ,
-35, ,15, ,
-36, ,15, ,
-35, ,15, ,
-33, ,15, ,
-31, ,15, ,
-27, ,15, ,
-17, ,15, ,
-10, ,15, ,
-4, ,15, ,
3, ,15, ,
16, ,15, ,
22, ,15, ,
27, ,15, ,
32, ,15, ,
39, ,15, ,
42, ,15, ,
42, ,15, ,
42, ,15, ,
40, ,15, ,
37, ,15, ,
34, ,15, ,
29, ,15, ,
21, ,15, ,
16, ,15, ,
10, ,15, ,
4, ,15, ,
-5, ,15, ,
-10, ,15, ,
-13, ,15, ,
-17, ,15, ,
-23, ,15, ,
-24, ,15, ,
-24, ,15, ,
-24, ,15, ,
-22, ,15, ,
-21, ,15, ,
-18, ,15, ,
-16, ,15, ,
-11, ,15, ,
-7, ,15, ,
-4, ,15, ,
0, ,15, ,
5, ,15, ,
8, ,15, ,
10, ,15, ,
12, ,15, ,
14, ,15, ,
15, ,15, ,
14, ,15, ,
14, ,15, ,
13, ,15, ,
11, ,15, ,
10, ,15, ,
8, ,15, ,
5, ,15, ,
4, ,15, ,
2, ,15, ,
0, ,15, ,
-2, ,15, ,
-4, ,15, ,
-4, ,15, ,
-4, ,15, ,
-4, ,15, ,
-4, ,15, ,
-4, ,15, ,
-4, ,15, ,
-3, ,15, ,
-3, ,15, ,
-3, ,15, ,
-3, ,15, ,
-3, ,15, ,
-3, ,15, ,
-4, ,15, ,
-4, ,15, ,
-7, ,15, ,
-8, ,15, ,
-9, ,15, ,
-10, ,15, ,
-13, ,15, ,
-15, ,15, ,
-17, ,15, ,
-19, ,15, ,
-22, ,15, ,
-24, ,15, ,
-25, ,15, ,
-26, ,15, ,
-28, ,15, ,
-27, ,15, ,
-28, ,15, ,
-26, ,15, ,
-25, ,15, ,
-23, ,15, ,
-21, ,15, ,
-18, ,15, ,
-10, ,15, ,
-6, ,15, ,
-1, ,15, ,
4, ,15, ,
13, ,15, ,
17, ,15, ,
