raw_data/75% Glycerol, Impulsion 2Hz, Sonde 5MHz, Rampe 0.7Hz/temp0000172.CSV

Format,1.0B,
Memory Length,10000,Memory Length,10000,
IntpDistance,0,IntpDistance,0,
Trigger Address,159,Trigger Address,159,
Trigger Level,2.720E-01,Trigger Level,2.720E-01,
Source,CH1,Source,CH2,
Vertical Units,V,Vertical Units,V,
Vertical Units Div,0,Vertical Units Div,0,
Vertical Units Extend Div,16,Vertical Units Extend Div,16,
Label,,Label,,
Probe Type,0,Probe Type,0,
Probe Ratio,1.000e+00,Probe Ratio,1.000e+00,
Vertical Scale,5.000e-01,Vertical Scale,2.000e+00,
Vertical Position,0.000e+00,Vertical Position,0.000e+00,
Horizontal Units,S,Horizontal Units,S,
Horizontal Scale,5.000E-06,Horizontal Scale,5.000E-06,
Horizontal Position,2.420E-05,Horizontal Position,2.420E-05,
Horizontal Mode,Main,Horizontal Mode,Main,
SincET Mode,Real Time,SincET Mode,Real Time,
Sampling Period,5.000e-09,Sampling Period,5.000e-09,
Horizontal Old Scale,5.000E-06,Horizontal Old Scale,5.000E-06,
Horizontal Old Position,2.420E-05,Horizontal Old Position,2.420E-05,
Firmware,V1.32,Firmware,V1.32,
Mode,Fast,Mode,Fast,
Waveform Data,,Waveform Data,,
0, ,-34, ,
0, ,-34, ,
0, ,-34, ,
0, ,-33, ,
0, ,-33, ,
0, ,-33, ,
0, ,-33, ,
0, ,-34, ,
0, ,-34, ,
0, ,-34, ,
0, ,-33, ,
0, ,-33, ,
0, ,-34, ,
0, ,-34, ,
1, ,-33, ,
0, ,-33, ,
0, ,-33, ,
0, ,-33, ,
0, ,-33, ,
0, ,-33, ,
0, ,-33, ,
0, ,-33, ,
0, ,-33, ,
0, ,-33, ,
0, ,-33, ,
0, ,-33, ,
0, ,-33, ,
0, ,-33, ,
0, ,-33, ,
0, ,-34, ,
0, ,-34, ,
0, ,-34, ,
0, ,-33, ,
0, ,-33, ,
0, ,-33, ,
0, ,-33, ,
0, ,-33, ,
0, ,-33, ,
0, ,-33, ,
0, ,-33, ,
0, ,-33, ,
0, ,-33, ,
0, ,-33, ,
0, ,-33, ,
0, ,-33, ,
0, ,-33, ,
0, ,-33, ,
0, ,-34, ,
0, ,-34, ,
1, ,-34, ,
0, ,-33, ,
0, ,-33, ,
1, ,-33, ,
0, ,-33, ,
0, ,-34, ,
1, ,-34, ,
1, ,-33, ,
1, ,-34, ,
0, ,-34, ,
0, ,-33, ,
0, ,-34, ,
0, ,-34, ,
0, ,-33, ,
1, ,-33, ,
0, ,-33, ,
0, ,-33, ,
0, ,-34, ,
0, ,-34, ,
0, ,-34, ,
0, ,-33, ,
0, ,-34, ,
1, ,-34, ,
0, ,-33, ,
0, ,-33, ,
0, ,-33, ,
0, ,-33, ,
0, ,-33, ,
0, ,-33, ,
0, ,-33, ,
0, ,-34, ,
0, ,-34, ,
0, ,-34, ,
0, ,-34, ,
0, ,-33, ,
1, ,-33, ,
1, ,-33, ,
1, ,-34, ,
1, ,-34, ,
0, ,-33, ,
0, ,-33, ,
0, ,-33, ,
0, ,-33, ,
1, ,-33, ,
0, ,-33, ,
0, ,-33, ,
0, ,-33, ,
0, ,-33, ,
0, ,-33, ,
0, ,-34, ,
0, ,-34, ,
0, ,-34, ,
0, ,-33, ,
0, ,-33, ,
0, ,-33, ,
0, ,-33, ,
0, ,-33, ,
0, ,-33, ,
0, ,-33, ,
0, ,-33, ,
0, ,-33, ,
0, ,-33, ,
0, ,-33, ,
1, ,-33, ,
0, ,-34, ,
0, ,-34, ,
0, ,-34, ,
0, ,-34, ,
0, ,-33, ,
0, ,-33, ,
0, ,-33, ,
0, ,-33, ,
0, ,-33, ,
1, ,-33, ,
1, ,-33, ,
1, ,-33, ,
0, ,-33, ,
0, ,-33, ,
0, ,-34, ,
0, ,-34, ,
0, ,-34, ,
0, ,-33, ,
0, ,-33, ,
0, ,-33, ,
0, ,-33, ,
1, ,-33, ,
0, ,-33, ,
0, ,-33, ,
0, ,-33, ,
0, ,-34, ,
0, ,-34, ,
1, ,-34, ,
1, ,-34, ,
1, ,-33, ,
0, ,-34, ,
0, ,-34, ,
0, ,-34, ,
0, ,-34, ,
0, ,-33, ,
0, ,-33, ,
0, ,-33, ,
0, ,-33, ,
0, ,-33, ,
0, ,-33, ,
0, ,-33, ,
0, ,-33, ,
0, ,-33, ,
1, ,-34, ,
1, ,-34, ,
1, ,-34, ,
0, ,-34, ,
0, ,-33, ,
0, ,-33, ,
0, ,-34, ,
0, ,-34, ,
-1, ,-34, ,
-1, ,-34, ,
0, ,-34, ,
7, ,-34, ,
25, ,-33, ,
60, ,-34, ,
100, ,-34, ,
123, ,-33, ,
120, ,-34, ,
78, ,-34, ,
19, ,-33, ,
21, ,-34, ,
75, ,-34, ,
123, ,-34, ,
125, ,-33, ,
125, ,-33, ,
125, ,-33, ,
125, ,-33, ,
125, ,-33, ,
124, ,-33, ,
124, ,-33, ,
119, ,-33, ,
112, ,-33, ,
104, ,-33, ,
102, ,-34, ,
98, ,-34, ,
96, ,-33, ,
88, ,-33, ,
85, ,-33, ,
81, ,-33, ,
79, ,-34, ,
73, ,-34, ,
71, ,-34, ,
67, ,-33, ,
64, ,-33, ,
60, ,-33, ,
57, ,-33, ,
55, ,-33, ,
52, ,-33, ,
48, ,-33, ,
46, ,-34, ,
44, ,-34, ,
43, ,-33, ,
39, ,-33, ,
37, ,-33, ,
36, ,-34, ,
34, ,-34, ,
30, ,-33, ,
29, ,-33, ,
28, ,-33, ,
27, ,-33, ,
25, ,-33, ,
24, ,-33, ,
23, ,-33, ,
22, ,-33, ,
19, ,-33, ,
19, ,-34, ,
18, ,-34, ,
17, ,-33, ,
16, ,-34, ,
14, ,-34, ,
14, ,-34, ,
13, ,-34, ,
11, ,-34, ,
11, ,-34, ,
10, ,-33, ,
10, ,-34, ,
9, ,-34, ,
8, ,-33, ,
8, ,-33, ,
7, ,-33, ,
6, ,-33, ,
6, ,-34, ,
5, ,-34, ,
5, ,-33, ,
4, ,-33, ,
4, ,-33, ,
4, ,-33, ,
4, ,-33, ,
3, ,-33, ,
3, ,-33, ,
2, ,-33, ,
2, ,-33, ,
2, ,-33, ,
1, ,-33, ,
1, ,-33, ,
1, ,-33, ,
1, ,-33, ,
1, ,-34, ,
1, ,-34, ,
1, ,-33, ,
0, ,-33, ,
0, ,-33, ,
0, ,-33, ,
0, ,-33, ,
0, ,-33, ,
-1, ,-33, ,
-1, ,-33, ,
-1, ,-34, ,
-1, ,-34, ,
-1, ,-33, ,
-1, ,-33, ,
-1, ,-33, ,
-1, ,-33, ,
-1, ,-34, ,
-1, ,-34, ,
-1, ,-33, ,
-1, ,-34, ,
-1, ,-34, ,
-1, ,-34, ,
-1, ,-33, ,
-2, ,-33, ,
-2, ,-33, ,
-2, ,-33, ,
-1, ,-33, ,
-1, ,-33, ,
-1, ,-33, ,
-1, ,-33, ,
-1, ,-34, ,
-1, ,-34, ,
-1, ,-34, ,
-2, ,-34, ,
-2, ,-34, ,
-1, ,-33, ,
-2, ,-33, ,
-2, ,-33, ,
-2, ,-33, ,
-2, ,-33, ,
-2, ,-33, ,
-2, ,-33, ,
-1, ,-34, ,
-1, ,-34, ,
-1, ,-33, ,
-1, ,-34, ,
-1, ,-34, ,
-2, ,-33, ,
-2, ,-33, ,
-2, ,-33, ,
-1, ,-33, ,
-1, ,-33, ,
-1, ,-33, ,
-1, ,-33, ,
-1, ,-33, ,
-1, ,-33, ,
-1, ,-33, ,
-1, ,-33, ,
-1, ,-33, ,
-1, ,-34, ,
-1, ,-34, ,
-1, ,-34, ,
-1, ,-34, ,
-1, ,-33, ,
-1, ,-33, ,
-1, ,-33, ,
-1, ,-33, ,
-1, ,-34, ,
-1, ,-34, ,
-1, ,-34, ,
-1, ,-33, ,
0, ,-33, ,
0, ,-33, ,
0, ,-33, ,
0, ,-33, ,
0, ,-33, ,
-1, ,-33, ,
-1, ,-34, ,
-1, ,-34, ,
-1, ,-33, ,
-1, ,-34, ,
-1, ,-34, ,
-1, ,-33, ,
0, ,-33, ,
0, ,-33, ,
-1, ,-33, ,
-1, ,-33, ,
-1, ,-33, ,
0, ,-33, ,
0, ,-33, ,
0, ,-33, ,
0, ,-33, ,
0, ,-33, ,
0, ,-33, ,
0, ,-34, ,
0, ,-34, ,
0, ,-34, ,
0, ,-34, ,
0, ,-33, ,
0, ,-33, ,
0, ,-33, ,
0, ,-33, ,
-1, ,-33, ,
0, ,-33, ,
0, ,-33, ,
0, ,-33, ,
0, ,-34, ,
0, ,-34, ,
0, ,-33, ,
0, ,-33, ,
0, ,-34, ,
0, ,-34, ,
0, ,-34, ,
0, ,-33, ,
0, ,-34, ,
0, ,-34, ,
0, ,-33, ,
0, ,-33, ,
0, ,-33, ,
0, ,-33, ,
0, ,-33, ,
0, ,-33, ,
0, ,-34, ,
0, ,-34, ,
0, ,-33, ,
0, ,-34, ,
0, ,-34, ,
0, ,-33, ,
0, ,-34, ,
0, ,-34, ,
0, ,-33, ,
0, ,-33, ,
0, ,-33, ,
0, ,-33, ,
0, ,-33, ,
0, ,-33, ,
0, ,-33, ,
0, ,-33, ,
0, ,-34, ,
0, ,-34, ,
0, ,-33, ,
0, ,-33, ,
0, ,-34, ,
0, ,-34, ,
0, ,-34, ,
0, ,-33, ,
0, ,-33, ,
1, ,-33, ,
0, ,-33, ,
0, ,-33, ,
0, ,-33, ,
0, ,-33, ,
0, ,-33, ,
0, ,-33, ,
0, ,-33, ,
0, ,-33, ,
0, ,-33, ,
0, ,-34, ,
0, ,-34, ,
0, ,-33, ,
0, ,-33, ,
0, ,-33, ,
0, ,-33, ,
0, ,-33, ,
0, ,-33, ,
0, ,-33, ,
0, ,-33, ,
0, ,-33, ,
0, ,-33, ,
0, ,-33, ,
1, ,-34, ,
0, ,-34, ,
0, ,-33, ,
0, ,-34, ,
0, ,-34, ,
0, ,-33, ,
0, ,-34, ,
0, ,-34, ,
1, ,-33, ,
0, ,-33, ,
0, ,-33, ,
0, ,-33, ,
0, ,-33, ,
0, ,-33, ,
0, ,-33, ,
-1, ,-33, ,
-1, ,-33, ,
-2, ,-33, ,
-3, ,-33, ,
-4, ,-33, ,
-6, ,-34, ,
-10, ,-34, ,
-11, ,-34, ,
-12, ,-34, ,
-12, ,-33, ,
-10, ,-33, ,
-8, ,-34, ,
-6, ,-34, ,
-5, ,-33, ,
-2, ,-33, ,
-1, ,-33, ,
0, ,-33, ,
0, ,-33, ,
2, ,-33, ,
2, ,-33, ,
2, ,-33, ,
2, ,-34, ,
1, ,-34, ,
1, ,-34, ,
0, ,-33, ,
0, ,-33, ,
-3, ,-33, ,
-4, ,-33, ,
-5, ,-33, ,
-5, ,-34, ,
-5, ,-34, ,
-4, ,-34, ,
-4, ,-33, ,
-3, ,-34, ,
-1, ,-34, ,
0, ,-33, ,
1, ,-33, ,
1, ,-33, ,
3, ,-33, ,
3, ,-34, ,
3, ,-34, ,
4, ,-33, ,
4, ,-33, ,
4, ,-33, ,
4, ,-33, ,
4, ,-34, ,
4, ,-34, ,
4, ,-34, ,
4, ,-33, ,
4, ,-34, ,
3, ,-34, ,
3, ,-34, ,
3, ,-34, ,
3, ,-33, ,
3, ,-33, ,
3, ,-33, ,
3, ,-33, ,
3, ,-34, ,
3, ,-34, ,
2, ,-33, ,
3, ,-33, ,
2, ,-34, ,
1, ,-34, ,
1, ,-34, ,
1, ,-33, ,
1, ,-33, ,
0, ,-33, ,
0, ,-33, ,
0, ,-34, ,
0, ,-34, ,
0, ,-33, ,
1, ,-33, ,
1, ,-33, ,
1, ,-33, ,
1, ,-33, ,
1, ,-33, ,
1, ,-33, ,
1, ,-33, ,
0, ,-33, ,
0, ,-33, ,
-1, ,-33, ,
-1, ,-34, ,
-2, ,-34, ,
-3, ,-33, ,
-5, ,-33, ,
-7, ,-33, ,
-12, ,-33, ,
-15, ,-33, ,
-18, ,-33, ,
-21, ,-33, ,
-25, ,-34, ,
-25, ,-34, ,
-25, ,-34, ,
-25, ,-33, ,
-21, ,-33, ,
-19, ,-33, ,
-17, ,-33, ,
-15, ,-34, ,
-10, ,-34, ,
-9, ,-34, ,
-7, ,-34, ,
-6, ,-34, ,
-7, ,-33, ,
-7, ,-33, ,
-8, ,-33, ,
-9, ,-33, ,
-13, ,-34, ,
-14, ,-34, ,
-17, ,-34, ,
-19, ,-33, ,
-22, ,-33, ,
-22, ,-33, ,
-22, ,-33, ,
-22, ,-33, ,
-21, ,-33, ,
-21, ,-33, ,
-20, ,-34, ,
-19, ,-34, ,
-18, ,-33, ,
-18, ,-33, ,
-17, ,-33, ,
-17, ,-33, ,
-18, ,-34, ,
-18, ,-34, ,
-18, ,-34, ,
-18, ,-34, ,
-17, ,-34, ,
-16, ,-34, ,
-16, ,-33, ,
-14, ,-33, ,
-12, ,-33, ,
-11, ,-33, ,
-11, ,-34, ,
-10, ,-34, ,
-9, ,-33, ,
-9, ,-33, ,
-10, ,-33, ,
-10, ,-33, ,
-12, ,-34, ,
-13, ,-34, ,
-15, ,-34, ,
-17, ,-33, ,
-20, ,-33, ,
-21, ,-33, ,
-21, ,-33, ,
-21, ,-33, ,
-20, ,-33, ,
-19, ,-33, ,
-18, ,-33, ,
-16, ,-33, ,
-10, ,-33, ,
-7, ,-34, ,
-4, ,-34, ,
0, ,-33, ,
5, ,-33, ,
8, ,-33, ,
11, ,-33, ,
12, ,-33, ,
16, ,-33, ,
17, ,-33, ,
17, ,-33, ,
18, ,-33, ,
17, ,-33, ,
16, ,-33, ,
16, ,-33, ,
15, ,-34, ,
14, ,-34, ,
13, ,-33, ,
11, ,-33, ,
10, ,-33, ,
8, ,-33, ,
7, ,-33, ,
6, ,-33, ,
4, ,-33, ,
2, ,-33, ,
1, ,-33, ,
-1, ,-33, ,
-1, ,-33, ,
-2, ,-33, ,
-2, ,-33, ,
-2, ,-33, ,
-2, ,-33, ,
-1, ,-33, ,
-1, ,-33, ,
-1, ,-33, ,
0, ,-33, ,
0, ,-34, ,
0, ,-34, ,
0, ,-34, ,
0, ,-33, ,
0, ,-33, ,
-1, ,-33, ,
-1, ,-33, ,
-2, ,-33, ,
-3, ,-33, ,
-4, ,-33, ,
-5, ,-33, ,
-6, ,-33, ,
-9, ,-33, ,
-10, ,-34, ,
-12, ,-34, ,
-13, ,-33, ,
-17, ,-33, ,
-19, ,-33, ,
-20, ,-34, ,
-23, ,-34, ,
-25, ,-33, ,
-26, ,-33, ,
-26, ,-33, ,
-27, ,-34, ,
-26, ,-34, ,
-26, ,-33, ,
-26, ,-34, ,
-25, ,-34, ,
-24, ,-33, ,
-22, ,-34, ,
-22, ,-34, ,
-20, ,-33, ,
-17, ,-34, ,
-16, ,-34, ,
-13, ,-34, ,
-12, ,-33, ,
-8, ,-33, ,
-6, ,-34, ,
-5, ,-34, ,
-3, ,-34, ,
1, ,-34, ,
1, ,-33, ,
3, ,-33, ,
3, ,-33, ,
3, ,-33, ,
2, ,-33, ,
1, ,-33, ,
1, ,-33, ,
-2, ,-33, ,
-3, ,-33, ,
-4, ,-33, ,
-5, ,-34, ,
-8, ,-34, ,
-9, ,-34, ,
-10, ,-33, ,
-10, ,-33, ,
-10, ,-33, ,
-9, ,-33, ,
-9, ,-33, ,
-9, ,-33, ,
-8, ,-33, ,
-7, ,-33, ,
-7, ,-33, ,
-5, ,-33, ,
-3, ,-33, ,
-1, ,-33, ,
0, ,-33, ,
0, ,-33, ,
3, ,-33, ,
5, ,-33, ,
5, ,-33, ,
6, ,-34, ,
6, ,-34, ,
5, ,-33, ,
4, ,-33, ,
3, ,-33, ,
0, ,-33, ,
-2, ,-33, ,
-4, ,-33, ,
-6, ,-33, ,
-10, ,-34, ,
-13, ,-34, ,
-14, ,-34, ,
-16, ,-34, ,
-20, ,-34, ,
-20, ,-34, ,
-22, ,-33, ,
-23, ,-34, ,
-23, ,-34, ,
-23, ,-33, ,
-23, ,-33, ,
-23, ,-33, ,
-22, ,-33, ,
-21, ,-33, ,
-20, ,-33, ,
-18, ,-33, ,
-15, ,-33, ,
-13, ,-33, ,
-10, ,-33, ,
-8, ,-33, ,
-3, ,-33, ,
1, ,-33, ,
2, ,-33, ,
5, ,-33, ,
11, ,-33, ,
13, ,-33, ,
16, ,-33, ,
18, ,-33, ,
21, ,-33, ,
23, ,-34, ,
24, ,-34, ,
25, ,-33, ,
25, ,-34, ,
24, ,-34, ,
24, ,-34, ,
23, ,-33, ,
19, ,-33, ,
18, ,-33, ,
16, ,-33, ,
13, ,-34, ,
9, ,-34, ,
6, ,-33, ,
3, ,-33, ,
0, ,-33, ,
-4, ,-33, ,
-6, ,-33, ,
-8, ,-33, ,
-10, ,-33, ,
-12, ,-33, ,
-12, ,-33, ,
-12, ,-33, ,
-13, ,-33, ,
-13, ,-33, ,
-12, ,-34, ,
-12, ,-34, ,
-11, ,-33, ,
-10, ,-33, ,
-11, ,-33, ,
-9, ,-34, ,
-9, ,-34, ,
-9, ,-33, ,
-8, ,-33, ,
-8, ,-33, ,
-8, ,-33, ,
-9, ,-33, ,
-9, ,-33, ,
-9, ,-33, ,
-9, ,-34, ,
-10, ,-34, ,
-10, ,-34, ,
-11, ,-33, ,
-11, ,-33, ,
-11, ,-34, ,
-13, ,-34, ,
-13, ,-34, ,
-14, ,-33, ,
-16, ,-34, ,
-16, ,-34, ,
-17, ,-34, ,
-17, ,-33, ,
-19, ,-33, ,
-19, ,-33, ,
-21, ,-33, ,
-21, ,-33, ,
-22, ,-33, ,
-23, ,-33, ,
-23, ,-33, ,
-23, ,-33, ,
-23, ,-34, ,
-23, ,-34, ,
-22, ,-34, ,
-21, ,-33, ,
-20, ,-33, ,
-18, ,-34, ,
-17, ,-34, ,
-15, ,-33, ,
-12, ,-33, ,
-11, ,-33, ,
-9, ,-33, ,
-8, ,-33, ,
-5, ,-33, ,
-4, ,-34, ,
-5, ,-34, ,
-4, ,-33, ,
-4, ,-33, ,
-5, ,-33, ,
-5, ,-34, ,
-6, ,-34, ,
-8, ,-33, ,
-8, ,-33, ,
-10, ,-33, ,
-10, ,-33, ,
-13, ,-34, ,
-14, ,-34, ,
-14, ,-34, ,
-15, ,-33, ,
-15, ,-33, ,
-15, ,-33, ,
-15, ,-33, ,
-14, ,-33, ,
-11, ,-33, ,
-11, ,-33, ,
-8, ,-33, ,
-7, ,-33, ,
-2, ,-33, ,
1, ,-34, ,
2, ,-34, ,
5, ,-33, ,
9, ,-34, ,
11, ,-34, ,
12, ,-34, ,
12, ,-34, ,
15, ,-34, ,
15, ,-34, ,
15, ,-33, ,
15, ,-33, ,
14, ,-33, ,
14, ,-33, ,
14, ,-33, ,
13, ,-33, ,
12, ,-33, ,
12, ,-33, ,
11, ,-33, ,
11, ,-33, ,
10, ,-33, ,
9, ,-33, ,
8, ,-33, ,
8, ,-33, ,
7, ,-33, ,
7, ,-33, ,
6, ,-33, ,
5, ,-34, ,
4, ,-34, ,
4, ,-33, ,
3, ,-34, ,
2, ,-34, ,
2, ,-33, ,
1, ,-34, ,
1, ,-34, ,
0, ,-34, ,
-1, ,-34, ,
-1, ,-33, ,
-1, ,-33, ,
-2, ,-33, ,
-3, ,-33, ,
-3, ,-33, ,
-3, ,-33, ,
-3, ,-34, ,
-4, ,-34, ,
-4, ,-33, ,
-4, ,-33, ,
-5, ,-33, ,
-5, ,-33, ,
-5, ,-33, ,
-5, ,-33, ,
-5, ,-33, ,
-5, ,-34, ,
-4, ,-34, ,
-4, ,-34, ,
-4, ,-33, ,
-3, ,-33, ,
-2, ,-33, ,
-2, ,-33, ,
-1, ,-33, ,
0, ,-33, ,
0, ,-33, ,
-1, ,-34, ,
-1, ,-34, ,
-2, ,-34, ,
-3, ,-33, ,
-5, ,-33, ,
-6, ,-33, ,
-11, ,-34, ,
-14, ,-34, ,
-16, ,-34, ,
-20, ,-33, ,
-25, ,-33, ,
-28, ,-34, ,
-32, ,-34, ,
-34, ,-33, ,
-39, ,-33, ,
-42, ,-33, ,
-43, ,-34, ,
-44, ,-34, ,
-44, ,-33, ,
-42, ,-34, ,
-42, ,-34, ,
-40, ,-33, ,
-37, ,-33, ,
-34, ,-33, ,
-31, ,-33, ,
-28, ,-34, ,
-22, ,-34, ,
-18, ,-34, ,
-16, ,-33, ,
-12, ,-33, ,
-6, ,-33, ,
-4, ,-33, ,
0, ,-33, ,
2, ,-33, ,
7, ,-33, ,
9, ,-34, ,
10, ,-34, ,
12, ,-34, ,
15, ,-34, ,
15, ,-34, ,
16, ,-34, ,
16, ,-34, ,
15, ,-33, ,
14, ,-33, ,
13, ,-33, ,
13, ,-34, ,
10, ,-34, ,
9, ,-33, ,
8, ,-33, ,
6, ,-33, ,
4, ,-33, ,
2, ,-34, ,
2, ,-34, ,
1, ,-33, ,
0, ,-34, ,
-1, ,-34, ,
-1, ,-34, ,
-1, ,-33, ,
-1, ,-34, ,
-1, ,-34, ,
-1, ,-34, ,
0, ,-33, ,
0, ,-33, ,
0, ,-33, ,
0, ,-34, ,
0, ,-34, ,
0, ,-33, ,
1, ,-33, ,
0, ,-33, ,
0, ,-33, ,
0, ,-33, ,
-1, ,-33, ,
-1, ,-33, ,
-2, ,-34, ,
-3, ,-34, ,
-3, ,-34, ,
-4, ,-33, ,
-4, ,-33, ,
-5, ,-33, ,
-6, ,-33, ,
-6, ,-33, ,
-6, ,-34, ,
-7, ,-34, ,
-7, ,-34, ,
-7, ,-34, ,
-7, ,-33, ,
-6, ,-33, ,
-6, ,-33, ,
-6, ,-33, ,
-6, ,-34, ,
-5, ,-34, ,
-4, ,-34, ,
-4, ,-33, ,
-3, ,-33, ,
-2, ,-33, ,
-1, ,-33, ,
-1, ,-33, ,
-1, ,-33, ,
1, ,-33, ,
1, ,-33, ,
1, ,-33, ,
1, ,-33, ,
2, ,-34, ,
1, ,-34, ,
1, ,-34, ,
0, ,-34, ,
0, ,-34, ,
-1, ,-34, ,
-1, ,-33, ,
-2, ,-33, ,
-3, ,-33, ,
-4, ,-33, ,
-4, ,-33, ,
-5, ,-33, ,
-6, ,-33, ,
-7, ,-34, ,
-8, ,-34, ,
-8, ,-33, ,
-8, ,-34, ,
-9, ,-34, ,
-9, ,-34, ,
-9, ,-34, ,
-9, ,-34, ,
-9, ,-34, ,
-9, ,-33, ,
-9, ,-34, ,
-7, ,-34, ,
-6, ,-34, ,
-5, ,-34, ,
-5, ,-33, ,
-3, ,-33, ,
-2, ,-33, ,
-1, ,-33, ,
1, ,-33, ,
2, ,-34, ,
3, ,-34, ,
4, ,-34, ,
4, ,-34, ,
6, ,-33, ,
8, ,-33, ,
8, ,-33, ,
8, ,-33, ,
9, ,-33, ,
8, ,-33, ,
8, ,-34, ,
8, ,-34, ,
8, ,-33, ,
7, ,-33, ,
7, ,-33, ,
6, ,-33, ,
5, ,-34, ,
4, ,-34, ,
4, ,-34, ,
2, ,-33, ,
0, ,-33, ,
0, ,-34, ,
-2, ,-34, ,
-3, ,-34, ,
-4, ,-34, ,
-4, ,-33, ,
-4, ,-33, ,
-4, ,-33, ,
-4, ,-33, ,
-4, ,-33, ,
-4, ,-34, ,
-3, ,-34, ,
-2, ,-33, ,
-2, ,-33, ,
-2, ,-33, ,
-2, ,-33, ,
-1, ,-33, ,
0, ,-33, ,
0, ,-33, ,
0, ,-33, ,
1, ,-33, ,
1, ,-33, ,
1, ,-34, ,
0, ,-34, ,
0, ,-33, ,
0, ,-33, ,
-2, ,-33, ,
-2, ,-34, ,
-4, ,-34, ,
-5, ,-34, ,
-5, ,-34, ,
-7, ,-33, ,
-9, ,-33, ,
-9, ,-33, ,
-11, ,-33, ,
-12, ,-33, ,
-13, ,-33, ,
-13, ,-33, ,
-13, ,-33, ,
-13, ,-33, ,
-13, ,-33, ,
-13, ,-33, ,
-13, ,-33, ,
-12, ,-33, ,
-10, ,-33, ,
-10, ,-33, ,
-8, ,-33, ,
-7, ,-34, ,
-5, ,-34, ,
-4, ,-34, ,
-3, ,-34, ,
-2, ,-33, ,
0, ,-33, ,
0, ,-33, ,
1, ,-34, ,
1, ,-34, ,
3, ,-34, ,
3, ,-34, ,
3, ,-33, ,
4, ,-33, ,
4, ,-33, ,
4, ,-33, ,
4, ,-33, ,
4, ,-34, ,
5, ,-34, ,
6, ,-34, ,
6, ,-33, ,
7, ,-33, ,
8, ,-33, ,
8, ,-33, ,
9, ,-34, ,
9, ,-34, ,
9, ,-33, ,
9, ,-33, ,
7, ,-33, ,
7, ,-33, ,
5, ,-33, ,
4, ,-33, ,
3, ,-34, ,
1, ,-34, ,
-2, ,-33, ,
-2, ,-33, ,
-4, ,-33, ,
-5, ,-34, ,
-7, ,-34, ,
-7, ,-34, ,
-7, ,-34, ,
-7, ,-34, ,
-7, ,-34, ,
-7, ,-34, ,
-7, ,-34, ,
-6, ,-33, ,
-5, ,-34, ,
-5, ,-34, ,
-4, ,-34, ,
-5, ,-33, ,
-4, ,-33, ,
-3, ,-33, ,
-3, ,-33, ,
-2, ,-34, ,
-1, ,-34, ,
0, ,-33, ,
0, ,-34, ,
0, ,-34, ,
2, ,-33, ,
2, ,-34, ,
3, ,-34, ,
3, ,-33, ,
5, ,-33, ,
5, ,-33, ,
6, ,-33, ,
6, ,-33, ,
6, ,-33, ,
6, ,-33, ,
6, ,-33, ,
6, ,-33, ,
5, ,-33, ,
4, ,-33, ,
4, ,-33, ,
2, ,-33, ,
1, ,-33, ,
0, ,-33, ,
-1, ,-33, ,
-1, ,-33, ,
-4, ,-33, ,
-5, ,-33, ,
-5, ,-33, ,
-7, ,-34, ,
-8, ,-34, ,
-8, ,-34, ,
-9, ,-33, ,
-9, ,-34, ,
-8, ,-34, ,
-8, ,-34, ,
-7, ,-34, ,
-8, ,-33, ,
-6, ,-33, ,
-5, ,-33, ,
-5, ,-34, ,
-4, ,-34, ,
-2, ,-34, ,
-2, ,-34, ,
-1, ,-34, ,
-1, ,-33, ,
-2, ,-33, ,
-2, ,-33, ,
-2, ,-33, ,
-3, ,-33, ,
-4, ,-33, ,
-5, ,-33, ,
-5, ,-33, ,
-6, ,-33, ,
-6, ,-33, ,
-6, ,-34, ,
-7, ,-34, ,
-7, ,-33, ,
-6, ,-33, ,
-6, ,-33, ,
-6, ,-33, ,
-6, ,-33, ,
-6, ,-33, ,
-5, ,-33, ,
-5, ,-33, ,
-5, ,-33, ,
-4, ,-33, ,
-4, ,-33, ,
-4, ,-33, ,
-4, ,-33, ,
-3, ,-33, ,
-3, ,-34, ,
-3, ,-34, ,
-2, ,-33, ,
-1, ,-33, ,
-2, ,-33, ,
-2, ,-33, ,
-2, ,-33, ,
-2, ,-33, ,
-2, ,-33, ,
-2, ,-33, ,
-2, ,-33, ,
-1, ,-33, ,
-1, ,-33, ,
-1, ,-33, ,
-1, ,-33, ,
-1, ,-33, ,
-1, ,-34, ,
0, ,-34, ,
0, ,-33, ,
0, ,-33, ,
1, ,-33, ,
1, ,-33, ,
1, ,-33, ,
2, ,-33, ,
2, ,-33, ,
2, ,-33, ,
2, ,-33, ,
3, ,-33, ,
2, ,-33, ,
2, ,-34, ,
2, ,-34, ,
1, ,-33, ,
1, ,-33, ,
0, ,-33, ,
0, ,-33, ,
-1, ,-33, ,
-2, ,-33, ,
-3, ,-33, ,
-3, ,-33, ,
-4, ,-33, ,
-4, ,-33, ,
-5, ,-33, ,
-5, ,-33, ,
-6, ,-33, ,
-6, ,-33, ,
-5, ,-33, ,
-5, ,-33, ,
-5, ,-33, ,
-5, ,-33, ,
-5, ,-33, ,
-5, ,-33, ,
-4, ,-33, ,
-4, ,-33, ,
-4, ,-33, ,
-4, ,-33, ,
-4, ,-33, ,
-4, ,-33, ,
-4, ,-33, ,
-4, ,-33, ,
-3, ,-33, ,
-4, ,-33, ,
-4, ,-33, ,
-4, ,-34, ,
-4, ,-34, ,
-3, ,-34, ,
-3, ,-33, ,
-3, ,-33, ,
-3, ,-34, ,
-3, ,-34, ,
-2, ,-34, ,
-2, ,-34, ,
-2, ,-34, ,
-2, ,-34, ,
-2, ,-33, ,
-2, ,-34, ,
-2, ,-34, ,
-2, ,-34, ,
-2, ,-34, ,
-2, ,-33, ,
-2, ,-33, ,
-2, ,-34, ,
-2, ,-34, ,
-2, ,-33, ,
-2, ,-33, ,
-2, ,-33, ,
-2, ,-33, ,
-1, ,-33, ,
-1, ,-33, ,
-1, ,-33, ,
0, ,-33, ,
0, ,-34, ,
1, ,-34, ,
1, ,-34, ,
2, ,-34, ,
2, ,-34, ,
2, ,-34, ,
3, ,-33, ,
3, ,-33, ,
3, ,-33, ,
3, ,-33, ,
3, ,-33, ,
3, ,-33, ,
3, ,-33, ,
2, ,-33, ,
2, ,-33, ,
2, ,-33, ,
2, ,-33, ,
1, ,-34, ,
0, ,-34, ,
0, ,-34, ,
0, ,-33, ,
-1, ,-33, ,
-1, ,-33, ,
-1, ,-33, ,
-1, ,-33, ,
-1, ,-33, ,
-1, ,-33, ,
-1, ,-33, ,
-1, ,-33, ,
-1, ,-33, ,
0, ,-33, ,
0, ,-33, ,
0, ,-33, ,
1, ,-33, ,
1, ,-33, ,
1, ,-34, ,
1, ,-34, ,
1, ,-33, ,
2, ,-33, ,
2, ,-33, ,
2, ,-33, ,
2, ,-33, ,
2, ,-33, ,
2, ,-33, ,
2, ,-33, ,
2, ,-33, ,
2, ,-33, ,
2, ,-33, ,
2, ,-33, ,
2, ,-34, ,
2, ,-34, ,
3, ,-34, ,
3, ,-33, ,
3, ,-33, ,
3, ,-33, ,
3, ,-33, ,
4, ,-33, ,
4, ,-33, ,
3, ,-33, ,
3, ,-33, ,
3, ,-33, ,
3, ,-33, ,
2, ,-33, ,
2, ,-33, ,
1, ,-34, ,
0, ,-34, ,
-1, ,-34, ,
-1, ,-34, ,
-2, ,-33, ,
-3, ,-34, ,
-4, ,-34, ,
-4, ,-34, ,
-4, ,-33, ,
-4, ,-33, ,
-4, ,-33, ,
-3, ,-33, ,
-3, ,-33, ,
-2, ,-33, ,
-2, ,-33, ,
-1, ,-33, ,
-1, ,-34, ,
0, ,-34, ,
0, ,-34, ,
0, ,-33, ,
0, ,-33, ,
-1, ,-33, ,
-1, ,-33, ,
-2, ,-33, ,
-2, ,-34, ,
-4, ,-34, ,
-5, ,-34, ,
-6, ,-34, ,
-6, ,-34, ,
-8, ,-34, ,
-9, ,-34, ,
-9, ,-33, ,
-9, ,-34, ,
-10, ,-34, ,
-10, ,-33, ,
-10, ,-34, ,
-10, ,-34, ,
-9, ,-33, ,
-9, ,-34, ,
-8, ,-34, ,
-7, ,-33, ,
-5, ,-33, ,
-5, ,-33, ,
-3, ,-33, ,
-2, ,-33, ,
1, ,-33, ,
2, ,-33, ,
3, ,-33, ,
5, ,-33, ,
7, ,-33, ,
8, ,-33, ,
10, ,-33, ,
11, ,-33, ,
12, ,-33, ,
13, ,-34, ,
14, ,-34, ,
14, ,-34, ,
14, ,-34, ,
14, ,-34, ,
13, ,-34, ,
13, ,-33, ,
12, ,-33, ,
11, ,-33, ,
10, ,-33, ,
10, ,-33, ,
9, ,-33, ,
8, ,-33, ,
8, ,-33, ,
6, ,-33, ,
6, ,-33, ,
6, ,-33, ,
5, ,-33, ,
5, ,-33, ,
3, ,-33, ,
3, ,-33, ,
2, ,-33, ,
1, ,-33, ,
-2, ,-33, ,
-2, ,-33, ,
-4, ,-33, ,
-5, ,-33, ,
-7, ,-33, ,
-9, ,-33, ,
-10, ,-33, ,
-11, ,-34, ,
-13, ,-34, ,
-14, ,-34, ,
-15, ,-34, ,
-15, ,-33, ,
-16, ,-33, ,
-16, ,-33, ,
-16, ,-33, ,
-16, ,-33, ,
-15, ,-34, ,
-15, ,-34, ,
-15, ,-34, ,
-15, ,-33, ,
-15, ,-34, ,
-15, ,-34, ,
-14, ,-34, ,
-14, ,-33, ,
-13, ,-33, ,
-12, ,-33, ,
-12, ,-33, ,
-10, ,-34, ,
-8, ,-34, ,
-7, ,-33, ,
-4, ,-33, ,
-3, ,-34, ,
1, ,-34, ,
3, ,-34, ,
5, ,-33, ,
6, ,-33, ,
10, ,-33, ,
11, ,-33, ,
12, ,-33, ,
13, ,-33, ,
14, ,-33, ,
14, ,-33, ,
13, ,-33, ,
13, ,-33, ,
12, ,-34, ,
10, ,-34, ,
10, ,-34, ,
8, ,-33, ,
6, ,-33, ,
5, ,-33, ,
4, ,-33, ,
4, ,-34, ,
3, ,-34, ,
3, ,-33, ,
3, ,-33, ,
3, ,-33, ,
4, ,-33, ,
5, ,-33, ,
6, ,-33, ,
7, ,-33, ,
8, ,-33, ,
9, ,-33, ,
10, ,-33, ,
10, ,-33, ,
11, ,-33, ,
10, ,-33, ,
10, ,-33, ,
10, ,-34, ,
9, ,-34, ,
7, ,-33, ,
6, ,-33, ,
5, ,-33, ,
2, ,-33, ,
1, ,-33, ,
-1, ,-33, ,
-2, ,-33, ,
-5, ,-34, ,
-7, ,-34, ,
-7, ,-34, ,
-9, ,-34, ,
-10, ,-34, ,
-10, ,-34, ,
-10, ,-34, ,
-10, ,-33, ,
-10, ,-33, ,
-10, ,-33, ,
-9, ,-33, ,
-9, ,-33, ,
-7, ,-33, ,
-7, ,-33, ,
-6, ,-33, ,
-5, ,-33, ,
-3, ,-33, ,
-2, ,-33, ,
-1, ,-33, ,
0, ,-33, ,
1, ,-33, ,
2, ,-33, ,
2, ,-33, ,
3, ,-33, ,
4, ,-33, ,
4, ,-33, ,
4, ,-33, ,
4, ,-33, ,
4, ,-33, ,
3, ,-34, ,
2, ,-34, ,
2, ,-33, ,
1, ,-33, ,
0, ,-33, ,
0, ,-33, ,
-2, ,-33, ,
-3, ,-33, ,
-3, ,-33, ,
-4, ,-33, ,
-4, ,-33, ,
-4, ,-33, ,
-4, ,-33, ,
-4, ,-34, ,
-3, ,-34, ,
-2, ,-33, ,
-1, ,-33, ,
0, ,-33, ,
0, ,-33, ,
3, ,-33, ,
3, ,-33, ,
5, ,-33, ,
5, ,-33, ,
6, ,-33, ,
7, ,-33, ,
7, ,-33, ,
7, ,-34, ,
6, ,-34, ,
5, ,-33, ,
5, ,-33, ,
4, ,-33, ,
2, ,-33, ,
1, ,-33, ,
0, ,-33, ,
0, ,-33, ,
-2, ,-33, ,
-3, ,-33, ,
-3, ,-33, ,
-4, ,-33, ,
-4, ,-33, ,
-4, ,-33, ,
-4, ,-33, ,
-4, ,-33, ,
-3, ,-33, ,
-4, ,-33, ,
-3, ,-33, ,
-3, ,-34, ,
-2, ,-34, ,
-1, ,-34, ,
-1, ,-33, ,
-1, ,-33, ,
0, ,-34, ,
-1, ,-34, ,
-1, ,-34, ,
-1, ,-33, ,
0, ,-33, ,
0, ,-33, ,
0, ,-33, ,
0, ,-33, ,
0, ,-33, ,
0, ,-33, ,
0, ,-33, ,
0, ,-34, ,
0, ,-34, ,
0, ,-34, ,
0, ,-33, ,
0, ,-33, ,
0, ,-34, ,
-1, ,-34, ,
