raw_data/75% Glycerol, Impulsion 2Hz, Sonde 5MHz, Rampe 0.7Hz/temp0000199.CSV

Format,1.0B,
Memory Length,10000,Memory Length,10000,
IntpDistance,0,IntpDistance,0,
Trigger Address,159,Trigger Address,159,
Trigger Level,2.720E-01,Trigger Level,2.720E-01,
Source,CH1,Source,CH2,
Vertical Units,V,Vertical Units,V,
Vertical Units Div,0,Vertical Units Div,0,
Vertical Units Extend Div,16,Vertical Units Extend Div,16,
Label,,Label,,
Probe Type,0,Probe Type,0,
Probe Ratio,1.000e+00,Probe Ratio,1.000e+00,
Vertical Scale,5.000e-01,Vertical Scale,2.000e+00,
Vertical Position,0.000e+00,Vertical Position,0.000e+00,
Horizontal Units,S,Horizontal Units,S,
Horizontal Scale,5.000E-06,Horizontal Scale,5.000E-06,
Horizontal Position,2.420E-05,Horizontal Position,2.420E-05,
Horizontal Mode,Main,Horizontal Mode,Main,
SincET Mode,Real Time,SincET Mode,Real Time,
Sampling Period,5.000e-09,Sampling Period,5.000e-09,
Horizontal Old Scale,5.000E-06,Horizontal Old Scale,5.000E-06,
Horizontal Old Position,2.420E-05,Horizontal Old Position,2.420E-05,
Firmware,V1.32,Firmware,V1.32,
Mode,Fast,Mode,Fast,
Waveform Data,,Waveform Data,,
1, ,-7, ,
0, ,-7, ,
0, ,-7, ,
1, ,-7, ,
1, ,-7, ,
0, ,-7, ,
0, ,-7, ,
1, ,-7, ,
1, ,-7, ,
1, ,-7, ,
1, ,-7, ,
1, ,-7, ,
1, ,-7, ,
1, ,-7, ,
1, ,-7, ,
1, ,-7, ,
1, ,-7, ,
1, ,-7, ,
1, ,-7, ,
1, ,-7, ,
0, ,-7, ,
0, ,-7, ,
1, ,-7, ,
1, ,-7, ,
1, ,-7, ,
1, ,-7, ,
0, ,-7, ,
0, ,-7, ,
0, ,-7, ,
1, ,-7, ,
1, ,-7, ,
1, ,-7, ,
1, ,-7, ,
1, ,-7, ,
0, ,-7, ,
0, ,-7, ,
0, ,-7, ,
1, ,-7, ,
1, ,-7, ,
1, ,-7, ,
1, ,-7, ,
1, ,-7, ,
1, ,-7, ,
1, ,-7, ,
1, ,-7, ,
1, ,-7, ,
0, ,-7, ,
0, ,-7, ,
1, ,-7, ,
0, ,-7, ,
0, ,-7, ,
0, ,-7, ,
0, ,-7, ,
1, ,-7, ,
1, ,-7, ,
1, ,-7, ,
1, ,-7, ,
0, ,-7, ,
1, ,-7, ,
1, ,-7, ,
0, ,-7, ,
0, ,-7, ,
1, ,-7, ,
0, ,-7, ,
0, ,-7, ,
0, ,-7, ,
1, ,-7, ,
1, ,-7, ,
1, ,-7, ,
1, ,-7, ,
1, ,-7, ,
1, ,-7, ,
1, ,-7, ,
1, ,-7, ,
1, ,-7, ,
1, ,-7, ,
1, ,-7, ,
1, ,-7, ,
1, ,-7, ,
0, ,-7, ,
1, ,-7, ,
0, ,-7, ,
1, ,-7, ,
1, ,-7, ,
1, ,-7, ,
1, ,-7, ,
1, ,-7, ,
0, ,-7, ,
0, ,-7, ,
0, ,-7, ,
1, ,-7, ,
1, ,-7, ,
0, ,-7, ,
0, ,-7, ,
0, ,-7, ,
0, ,-7, ,
0, ,-7, ,
0, ,-7, ,
1, ,-7, ,
1, ,-7, ,
1, ,-7, ,
1, ,-7, ,
1, ,-7, ,
0, ,-7, ,
0, ,-7, ,
0, ,-7, ,
1, ,-7, ,
1, ,-7, ,
0, ,-7, ,
1, ,-7, ,
1, ,-7, ,
0, ,-7, ,
0, ,-7, ,
1, ,-7, ,
1, ,-7, ,
1, ,-7, ,
0, ,-7, ,
1, ,-7, ,
1, ,-7, ,
1, ,-7, ,
1, ,-7, ,
1, ,-7, ,
1, ,-7, ,
1, ,-7, ,
1, ,-7, ,
1, ,-7, ,
1, ,-7, ,
1, ,-7, ,
1, ,-7, ,
1, ,-7, ,
1, ,-7, ,
1, ,-7, ,
0, ,-7, ,
0, ,-7, ,
0, ,-7, ,
0, ,-7, ,
1, ,-7, ,
0, ,-7, ,
0, ,-7, ,
1, ,-7, ,
1, ,-7, ,
1, ,-7, ,
1, ,-7, ,
1, ,-7, ,
1, ,-7, ,
1, ,-7, ,
1, ,-7, ,
1, ,-7, ,
1, ,-7, ,
1, ,-7, ,
1, ,-7, ,
1, ,-7, ,
1, ,-7, ,
1, ,-7, ,
1, ,-7, ,
1, ,-7, ,
1, ,-7, ,
1, ,-7, ,
1, ,-7, ,
1, ,-7, ,
1, ,-7, ,
0, ,-7, ,
0, ,-7, ,
0, ,-7, ,
0, ,-7, ,
-1, ,-7, ,
-2, ,-7, ,
2, ,-7, ,
20, ,-7, ,
50, ,-7, ,
125, ,-7, ,
124, ,-7, ,
121, ,-7, ,
92, ,-7, ,
-6, ,-7, ,
10, ,-7, ,
62, ,-7, ,
112, ,-7, ,
125, ,-7, ,
125, ,-7, ,
125, ,-7, ,
125, ,-7, ,
125, ,-7, ,
124, ,-7, ,
124, ,-7, ,
120, ,-7, ,
109, ,-7, ,
106, ,-7, ,
102, ,-7, ,
100, ,-7, ,
93, ,-7, ,
89, ,-7, ,
86, ,-7, ,
82, ,-7, ,
75, ,-7, ,
74, ,-7, ,
71, ,-7, ,
69, ,-7, ,
63, ,-7, ,
60, ,-7, ,
59, ,-7, ,
55, ,-7, ,
51, ,-7, ,
49, ,-7, ,
47, ,-7, ,
45, ,-7, ,
41, ,-7, ,
39, ,-7, ,
38, ,-7, ,
36, ,-7, ,
33, ,-7, ,
32, ,-7, ,
30, ,-7, ,
29, ,-7, ,
26, ,-7, ,
25, ,-7, ,
24, ,-7, ,
23, ,-7, ,
21, ,-7, ,
21, ,-7, ,
19, ,-7, ,
19, ,-7, ,
17, ,-7, ,
16, ,-7, ,
15, ,-7, ,
14, ,-7, ,
12, ,-7, ,
12, ,-7, ,
11, ,-7, ,
11, ,-7, ,
10, ,-7, ,
9, ,-7, ,
9, ,-7, ,
8, ,-7, ,
7, ,-7, ,
7, ,-7, ,
6, ,-7, ,
6, ,-7, ,
5, ,-7, ,
5, ,-7, ,
5, ,-7, ,
4, ,-7, ,
3, ,-7, ,
3, ,-7, ,
3, ,-7, ,
3, ,-7, ,
2, ,-7, ,
2, ,-7, ,
2, ,-7, ,
1, ,-7, ,
1, ,-7, ,
1, ,-7, ,
1, ,-7, ,
1, ,-7, ,
1, ,-7, ,
0, ,-7, ,
0, ,-7, ,
0, ,-7, ,
0, ,-7, ,
0, ,-7, ,
0, ,-7, ,
0, ,-7, ,
-1, ,-7, ,
-1, ,-7, ,
-1, ,-7, ,
-1, ,-7, ,
-1, ,-7, ,
-1, ,-7, ,
-1, ,-7, ,
-1, ,-7, ,
-1, ,-7, ,
-1, ,-7, ,
-1, ,-7, ,
-1, ,-7, ,
-1, ,-7, ,
-1, ,-7, ,
-1, ,-7, ,
-1, ,-7, ,
-1, ,-7, ,
-2, ,-7, ,
-2, ,-7, ,
-2, ,-7, ,
-2, ,-7, ,
-1, ,-7, ,
-1, ,-7, ,
-1, ,-7, ,
-1, ,-7, ,
-1, ,-7, ,
-1, ,-7, ,
-1, ,-7, ,
-1, ,-7, ,
-1, ,-7, ,
-1, ,-7, ,
-1, ,-7, ,
-1, ,-7, ,
-1, ,-7, ,
-1, ,-7, ,
-1, ,-7, ,
-1, ,-7, ,
-1, ,-7, ,
-1, ,-7, ,
-1, ,-7, ,
-1, ,-7, ,
-1, ,-7, ,
-1, ,-7, ,
-1, ,-7, ,
-2, ,-7, ,
-1, ,-7, ,
-1, ,-7, ,
-1, ,-7, ,
-1, ,-7, ,
-1, ,-7, ,
-1, ,-7, ,
-1, ,-7, ,
-1, ,-7, ,
-1, ,-7, ,
-1, ,-7, ,
0, ,-7, ,
-1, ,-7, ,
-1, ,-7, ,
-1, ,-7, ,
-1, ,-7, ,
0, ,-7, ,
0, ,-7, ,
0, ,-7, ,
0, ,-7, ,
0, ,-7, ,
0, ,-7, ,
0, ,-7, ,
0, ,-7, ,
0, ,-7, ,
0, ,-7, ,
0, ,-7, ,
0, ,-7, ,
0, ,-7, ,
0, ,-7, ,
0, ,-7, ,
0, ,-7, ,
0, ,-7, ,
0, ,-7, ,
0, ,-7, ,
0, ,-7, ,
0, ,-7, ,
0, ,-7, ,
0, ,-7, ,
0, ,-7, ,
0, ,-7, ,
0, ,-7, ,
0, ,-7, ,
0, ,-7, ,
0, ,-7, ,
0, ,-7, ,
0, ,-7, ,
0, ,-7, ,
0, ,-7, ,
0, ,-7, ,
0, ,-7, ,
0, ,-7, ,
0, ,-7, ,
0, ,-7, ,
0, ,-7, ,
0, ,-7, ,
0, ,-7, ,
0, ,-7, ,
0, ,-7, ,
0, ,-7, ,
0, ,-7, ,
0, ,-7, ,
0, ,-7, ,
0, ,-7, ,
0, ,-7, ,
0, ,-7, ,
0, ,-7, ,
0, ,-7, ,
0, ,-7, ,
0, ,-7, ,
0, ,-7, ,
0, ,-7, ,
0, ,-7, ,
0, ,-7, ,
0, ,-7, ,
0, ,-7, ,
0, ,-7, ,
0, ,-7, ,
1, ,-7, ,
0, ,-7, ,
0, ,-7, ,
0, ,-7, ,
0, ,-7, ,
0, ,-7, ,
1, ,-7, ,
0, ,-7, ,
0, ,-7, ,
0, ,-7, ,
0, ,-7, ,
0, ,-7, ,
0, ,-7, ,
1, ,-7, ,
0, ,-7, ,
0, ,-7, ,
1, ,-7, ,
0, ,-7, ,
0, ,-7, ,
0, ,-7, ,
0, ,-7, ,
0, ,-7, ,
0, ,-7, ,
0, ,-7, ,
0, ,-7, ,
0, ,-7, ,
0, ,-7, ,
0, ,-7, ,
0, ,-7, ,
0, ,-7, ,
1, ,-7, ,
0, ,-7, ,
0, ,-7, ,
0, ,-7, ,
1, ,-7, ,
1, ,-7, ,
0, ,-7, ,
0, ,-7, ,
1, ,-7, ,
0, ,-7, ,
0, ,-7, ,
0, ,-7, ,
1, ,-7, ,
1, ,-7, ,
1, ,-7, ,
1, ,-7, ,
0, ,-7, ,
0, ,-7, ,
1, ,-7, ,
0, ,-7, ,
0, ,-7, ,
0, ,-7, ,
-1, ,-7, ,
-1, ,-7, ,
-1, ,-7, ,
-2, ,-7, ,
-2, ,-7, ,
-5, ,-7, ,
-8, ,-7, ,
-11, ,-7, ,
-13, ,-7, ,
-15, ,-7, ,
-14, ,-7, ,
-13, ,-7, ,
-11, ,-7, ,
-9, ,-7, ,
-5, ,-7, ,
-3, ,-7, ,
-2, ,-7, ,
-1, ,-7, ,
1, ,-7, ,
1, ,-7, ,
2, ,-7, ,
1, ,-7, ,
1, ,-7, ,
1, ,-7, ,
0, ,-7, ,
0, ,-7, ,
-1, ,-7, ,
-2, ,-7, ,
-2, ,-7, ,
-3, ,-7, ,
-3, ,-7, ,
-3, ,-7, ,
-2, ,-7, ,
-1, ,-7, ,
1, ,-7, ,
1, ,-7, ,
2, ,-7, ,
3, ,-7, ,
4, ,-7, ,
4, ,-7, ,
4, ,-7, ,
4, ,-7, ,
4, ,-7, ,
4, ,-7, ,
5, ,-7, ,
4, ,-7, ,
4, ,-7, ,
4, ,-7, ,
4, ,-7, ,
4, ,-7, ,
4, ,-7, ,
3, ,-7, ,
3, ,-7, ,
3, ,-7, ,
4, ,-7, ,
4, ,-7, ,
3, ,-7, ,
3, ,-7, ,
3, ,-7, ,
3, ,-7, ,
3, ,-7, ,
3, ,-7, ,
2, ,-7, ,
2, ,-7, ,
2, ,-7, ,
2, ,-7, ,
1, ,-7, ,
0, ,-7, ,
0, ,-7, ,
0, ,-7, ,
0, ,-7, ,
0, ,-7, ,
0, ,-7, ,
0, ,-7, ,
0, ,-7, ,
0, ,-7, ,
0, ,-7, ,
0, ,-7, ,
0, ,-7, ,
1, ,-7, ,
0, ,-7, ,
0, ,-7, ,
-1, ,-7, ,
-1, ,-7, ,
-2, ,-7, ,
-3, ,-7, ,
-6, ,-7, ,
-7, ,-7, ,
-10, ,-7, ,
-12, ,-7, ,
-17, ,-7, ,
-20, ,-7, ,
-21, ,-7, ,
-23, ,-7, ,
-23, ,-7, ,
-21, ,-7, ,
-21, ,-7, ,
-19, ,-7, ,
-17, ,-7, ,
-15, ,-7, ,
-12, ,-7, ,
-11, ,-7, ,
-9, ,-7, ,
-9, ,-7, ,
-9, ,-7, ,
-9, ,-7, ,
-11, ,-7, ,
-12, ,-7, ,
-13, ,-7, ,
-14, ,-7, ,
-17, ,-7, ,
-17, ,-7, ,
-19, ,-7, ,
-19, ,-7, ,
-20, ,-7, ,
-20, ,-7, ,
-20, ,-7, ,
-21, ,-7, ,
-22, ,-7, ,
-22, ,-7, ,
-24, ,-7, ,
-24, ,-7, ,
-25, ,-7, ,
-27, ,-7, ,
-27, ,-7, ,
-27, ,-7, ,
-27, ,-7, ,
-27, ,-7, ,
-27, ,-7, ,
-25, ,-7, ,
-23, ,-7, ,
-22, ,-7, ,
-20, ,-7, ,
-19, ,-7, ,
-15, ,-7, ,
-13, ,-7, ,
-12, ,-7, ,
-11, ,-7, ,
-8, ,-7, ,
-8, ,-7, ,
-7, ,-7, ,
-7, ,-7, ,
-6, ,-7, ,
-5, ,-7, ,
-5, ,-7, ,
-4, ,-7, ,
-2, ,-7, ,
-1, ,-7, ,
0, ,-7, ,
1, ,-7, ,
5, ,-7, ,
6, ,-7, ,
7, ,-7, ,
9, ,-7, ,
11, ,-7, ,
12, ,-7, ,
12, ,-7, ,
11, ,-7, ,
10, ,-7, ,
10, ,-7, ,
9, ,-7, ,
8, ,-7, ,
5, ,-7, ,
3, ,-7, ,
3, ,-7, ,
0, ,-7, ,
-3, ,-7, ,
-3, ,-7, ,
-5, ,-7, ,
-5, ,-7, ,
-6, ,-7, ,
-6, ,-7, ,
-6, ,-7, ,
-6, ,-7, ,
-5, ,-7, ,
-4, ,-7, ,
-2, ,-7, ,
-2, ,-7, ,
1, ,-7, ,
2, ,-7, ,
4, ,-7, ,
5, ,-7, ,
8, ,-7, ,
9, ,-7, ,
10, ,-7, ,
11, ,-7, ,
11, ,-7, ,
11, ,-7, ,
11, ,-7, ,
11, ,-7, ,
9, ,-7, ,
8, ,-7, ,
7, ,-7, ,
6, ,-7, ,
3, ,-7, ,
1, ,-7, ,
-1, ,-7, ,
-3, ,-7, ,
-7, ,-7, ,
-9, ,-7, ,
-10, ,-7, ,
-12, ,-7, ,
-15, ,-7, ,
-17, ,-7, ,
-18, ,-7, ,
-18, ,-7, ,
-19, ,-7, ,
-19, ,-7, ,
-19, ,-7, ,
-18, ,-7, ,
-16, ,-7, ,
-16, ,-7, ,
-14, ,-7, ,
-14, ,-7, ,
-11, ,-7, ,
-9, ,-7, ,
-9, ,-7, ,
-8, ,-7, ,
-8, ,-7, ,
-8, ,-7, ,
-8, ,-7, ,
-9, ,-7, ,
-10, ,-7, ,
-11, ,-7, ,
-11, ,-7, ,
-12, ,-7, ,
-13, ,-7, ,
-14, ,-7, ,
-15, ,-7, ,
-15, ,-7, ,
-16, ,-7, ,
-17, ,-7, ,
-17, ,-7, ,
-17, ,-7, ,
-16, ,-7, ,
-17, ,-7, ,
-15, ,-7, ,
-15, ,-7, ,
-13, ,-7, ,
-11, ,-7, ,
-11, ,-7, ,
-9, ,-7, ,
-6, ,-7, ,
-5, ,-7, ,
-3, ,-7, ,
-3, ,-7, ,
-1, ,-7, ,
-1, ,-7, ,
-2, ,-7, ,
-2, ,-7, ,
-3, ,-7, ,
-4, ,-7, ,
-5, ,-7, ,
-6, ,-7, ,
-8, ,-7, ,
-8, ,-7, ,
-9, ,-7, ,
-10, ,-7, ,
-12, ,-7, ,
-14, ,-7, ,
-14, ,-7, ,
-16, ,-7, ,
-18, ,-7, ,
-18, ,-7, ,
-18, ,-7, ,
-18, ,-7, ,
-17, ,-7, ,
-17, ,-7, ,
-16, ,-7, ,
-14, ,-7, ,
-11, ,-7, ,
-9, ,-7, ,
-6, ,-7, ,
-5, ,-7, ,
-1, ,-7, ,
0, ,-7, ,
2, ,-7, ,
3, ,-7, ,
4, ,-7, ,
5, ,-7, ,
5, ,-7, ,
5, ,-7, ,
4, ,-7, ,
4, ,-7, ,
4, ,-7, ,
3, ,-7, ,
3, ,-7, ,
3, ,-7, ,
3, ,-7, ,
4, ,-7, ,
4, ,-7, ,
5, ,-7, ,
5, ,-7, ,
6, ,-7, ,
9, ,-7, ,
10, ,-7, ,
10, ,-7, ,
12, ,-7, ,
15, ,-7, ,
16, ,-7, ,
17, ,-7, ,
17, ,-7, ,
18, ,-7, ,
18, ,-7, ,
18, ,-7, ,
17, ,-7, ,
16, ,-7, ,
15, ,-7, ,
14, ,-7, ,
12, ,-7, ,
9, ,-7, ,
7, ,-7, ,
5, ,-7, ,
4, ,-7, ,
-1, ,-7, ,
-3, ,-7, ,
-5, ,-7, ,
-8, ,-7, ,
-11, ,-7, ,
-12, ,-7, ,
-14, ,-7, ,
-15, ,-7, ,
-16, ,-7, ,
-16, ,-7, ,
-16, ,-7, ,
-16, ,-7, ,
-15, ,-7, ,
-14, ,-7, ,
-13, ,-7, ,
-13, ,-7, ,
-11, ,-7, ,
-11, ,-7, ,
-11, ,-7, ,
-11, ,-7, ,
-12, ,-7, ,
-12, ,-7, ,
-14, ,-7, ,
-14, ,-7, ,
-17, ,-7, ,
-19, ,-7, ,
-20, ,-7, ,
-23, ,-7, ,
-25, ,-7, ,
-26, ,-7, ,
-28, ,-7, ,
-29, ,-7, ,
-30, ,-7, ,
-30, ,-7, ,
-30, ,-7, ,
-30, ,-7, ,
-28, ,-7, ,
-26, ,-7, ,
-25, ,-7, ,
-25, ,-7, ,
-21, ,-7, ,
-18, ,-7, ,
-16, ,-7, ,
-14, ,-7, ,
-10, ,-7, ,
-8, ,-7, ,
-6, ,-7, ,
-3, ,-7, ,
0, ,-7, ,
1, ,-7, ,
2, ,-7, ,
2, ,-7, ,
2, ,-7, ,
1, ,-7, ,
1, ,-7, ,
-1, ,-7, ,
-3, ,-7, ,
-4, ,-7, ,
-5, ,-7, ,
-8, ,-7, ,
-10, ,-7, ,
-10, ,-7, ,
-13, ,-7, ,
-13, ,-7, ,
-14, ,-7, ,
-15, ,-7, ,
-15, ,-7, ,
-15, ,-7, ,
-15, ,-7, ,
-14, ,-7, ,
-14, ,-7, ,
-13, ,-7, ,
-11, ,-7, ,
-10, ,-7, ,
-9, ,-7, ,
-8, ,-7, ,
-4, ,-7, ,
-2, ,-7, ,
-1, ,-7, ,
2, ,-7, ,
5, ,-7, ,
6, ,-7, ,
8, ,-7, ,
9, ,-7, ,
11, ,-7, ,
14, ,-7, ,
15, ,-7, ,
16, ,-7, ,
18, ,-7, ,
18, ,-7, ,
20, ,-7, ,
20, ,-7, ,
21, ,-7, ,
22, ,-7, ,
21, ,-7, ,
21, ,-7, ,
20, ,-7, ,
19, ,-7, ,
18, ,-7, ,
17, ,-7, ,
15, ,-7, ,
13, ,-7, ,
11, ,-7, ,
10, ,-7, ,
7, ,-7, ,
4, ,-7, ,
3, ,-7, ,
0, ,-7, ,
-3, ,-7, ,
-4, ,-7, ,
-6, ,-7, ,
-7, ,-7, ,
-9, ,-7, ,
-10, ,-7, ,
-10, ,-7, ,
-10, ,-7, ,
-10, ,-7, ,
-10, ,-7, ,
-10, ,-7, ,
-10, ,-7, ,
-9, ,-7, ,
-9, ,-7, ,
-9, ,-7, ,
-9, ,-7, ,
-9, ,-7, ,
-9, ,-7, ,
-9, ,-7, ,
-9, ,-7, ,
-9, ,-7, ,
-9, ,-7, ,
-9, ,-7, ,
-9, ,-7, ,
-9, ,-7, ,
-8, ,-7, ,
-8, ,-7, ,
-7, ,-7, ,
-5, ,-7, ,
-5, ,-7, ,
-4, ,-7, ,
-4, ,-7, ,
-3, ,-7, ,
-3, ,-7, ,
-4, ,-7, ,
-4, ,-7, ,
-6, ,-7, ,
-8, ,-7, ,
-8, ,-7, ,
-11, ,-7, ,
-15, ,-7, ,
-17, ,-7, ,
-20, ,-7, ,
-22, ,-7, ,
-26, ,-7, ,
-28, ,-7, ,
-30, ,-7, ,
-32, ,-7, ,
-34, ,-7, ,
-34, ,-7, ,
-34, ,-7, ,
-33, ,-7, ,
-29, ,-7, ,
-28, ,-7, ,
-25, ,-7, ,
-23, ,-7, ,
-16, ,-7, ,
-13, ,-7, ,
-10, ,-7, ,
-5, ,-7, ,
1, ,-7, ,
4, ,-7, ,
8, ,-7, ,
9, ,-7, ,
13, ,-7, ,
15, ,-7, ,
15, ,-7, ,
15, ,-7, ,
14, ,-7, ,
12, ,-7, ,
11, ,-7, ,
10, ,-7, ,
5, ,-7, ,
4, ,-7, ,
1, ,-7, ,
0, ,-7, ,
-4, ,-7, ,
-6, ,-7, ,
-8, ,-7, ,
-9, ,-7, ,
-10, ,-7, ,
-10, ,-7, ,
-10, ,-7, ,
-9, ,-7, ,
-8, ,-7, ,
-8, ,-7, ,
-6, ,-7, ,
-6, ,-7, ,
-4, ,-7, ,
-2, ,-7, ,
-1, ,-7, ,
0, ,-7, ,
2, ,-7, ,
3, ,-7, ,
4, ,-7, ,
4, ,-7, ,
5, ,-7, ,
5, ,-7, ,
4, ,-7, ,
4, ,-7, ,
3, ,-7, ,
2, ,-7, ,
2, ,-7, ,
0, ,-7, ,
-3, ,-7, ,
-4, ,-7, ,
-6, ,-7, ,
-6, ,-7, ,
-9, ,-7, ,
-10, ,-7, ,
-11, ,-7, ,
-12, ,-7, ,
-12, ,-7, ,
-12, ,-7, ,
-12, ,-7, ,
-11, ,-7, ,
-10, ,-7, ,
-10, ,-7, ,
-9, ,-7, ,
-8, ,-7, ,
-7, ,-7, ,
-5, ,-7, ,
-5, ,-7, ,
-4, ,-7, ,
-2, ,-7, ,
-2, ,-7, ,
0, ,-7, ,
0, ,-7, ,
1, ,-7, ,
3, ,-7, ,
3, ,-7, ,
4, ,-7, ,
6, ,-7, ,
6, ,-7, ,
8, ,-7, ,
8, ,-7, ,
10, ,-7, ,
11, ,-7, ,
12, ,-7, ,
12, ,-7, ,
12, ,-7, ,
12, ,-7, ,
12, ,-7, ,
11, ,-7, ,
9, ,-7, ,
9, ,-7, ,
7, ,-7, ,
6, ,-7, ,
3, ,-7, ,
1, ,-7, ,
-1, ,-7, ,
-3, ,-7, ,
-6, ,-7, ,
-7, ,-7, ,
-9, ,-7, ,
-10, ,-7, ,
-12, ,-7, ,
-12, ,-7, ,
-12, ,-7, ,
-12, ,-7, ,
-11, ,-7, ,
-9, ,-7, ,
-8, ,-7, ,
-7, ,-7, ,
-4, ,-7, ,
-3, ,-7, ,
-2, ,-7, ,
-1, ,-7, ,
0, ,-7, ,
2, ,-7, ,
2, ,-7, ,
2, ,-7, ,
1, ,-7, ,
0, ,-7, ,
0, ,-7, ,
-2, ,-7, ,
-3, ,-7, ,
-4, ,-7, ,
-6, ,-7, ,
-6, ,-7, ,
-8, ,-7, ,
-9, ,-7, ,
-10, ,-7, ,
-10, ,-7, ,
-9, ,-7, ,
-9, ,-7, ,
-8, ,-7, ,
-8, ,-7, ,
-6, ,-7, ,
-4, ,-7, ,
-3, ,-7, ,
-1, ,-7, ,
2, ,-7, ,
4, ,-7, ,
5, ,-7, ,
7, ,-7, ,
8, ,-7, ,
10, ,-7, ,
10, ,-7, ,
10, ,-7, ,
9, ,-7, ,
9, ,-7, ,
8, ,-7, ,
8, ,-7, ,
5, ,-7, ,
4, ,-7, ,
3, ,-7, ,
1, ,-7, ,
-2, ,-7, ,
-3, ,-7, ,
-5, ,-7, ,
-6, ,-7, ,
-8, ,-7, ,
-10, ,-7, ,
-11, ,-7, ,
-12, ,-7, ,
-14, ,-7, ,
-14, ,-7, ,
-14, ,-7, ,
-14, ,-7, ,
-14, ,-7, ,
-14, ,-7, ,
-13, ,-7, ,
-13, ,-7, ,
-10, ,-7, ,
-9, ,-7, ,
-8, ,-7, ,
-6, ,-7, ,
-3, ,-7, ,
-1, ,-7, ,
1, ,-7, ,
2, ,-7, ,
6, ,-7, ,
8, ,-7, ,
9, ,-7, ,
11, ,-7, ,
12, ,-7, ,
13, ,-7, ,
13, ,-7, ,
12, ,-7, ,
11, ,-7, ,
11, ,-7, ,
9, ,-7, ,
8, ,-7, ,
5, ,-7, ,
3, ,-7, ,
2, ,-7, ,
0, ,-7, ,
-4, ,-7, ,
-5, ,-7, ,
-8, ,-7, ,
-8, ,-7, ,
-10, ,-7, ,
-10, ,-7, ,
-10, ,-7, ,
-10, ,-7, ,
-9, ,-7, ,
-8, ,-7, ,
-7, ,-7, ,
-5, ,-7, ,
-2, ,-7, ,
-1, ,-7, ,
1, ,-7, ,
2, ,-7, ,
4, ,-7, ,
6, ,-7, ,
6, ,-7, ,
7, ,-7, ,
7, ,-7, ,
6, ,-7, ,
6, ,-7, ,
5, ,-7, ,
4, ,-7, ,
4, ,-7, ,
3, ,-7, ,
3, ,-7, ,
1, ,-7, ,
0, ,-7, ,
0, ,-7, ,
0, ,-7, ,
-1, ,-7, ,
-1, ,-7, ,
-2, ,-7, ,
-2, ,-7, ,
-2, ,-7, ,
-2, ,-7, ,
-2, ,-7, ,
-2, ,-7, ,
-2, ,-7, ,
-2, ,-7, ,
-2, ,-7, ,
-2, ,-7, ,
-2, ,-7, ,
-2, ,-7, ,
-1, ,-7, ,
-1, ,-7, ,
0, ,-7, ,
1, ,-7, ,
1, ,-7, ,
1, ,-7, ,
2, ,-7, ,
1, ,-7, ,
1, ,-7, ,
0, ,-7, ,
-2, ,-7, ,
-2, ,-7, ,
-3, ,-7, ,
-4, ,-7, ,
-7, ,-7, ,
-8, ,-7, ,
-9, ,-7, ,
-10, ,-7, ,
-13, ,-7, ,
-13, ,-7, ,
-14, ,-7, ,
-14, ,-7, ,
-14, ,-7, ,
-13, ,-7, ,
-12, ,-7, ,
-12, ,-7, ,
-9, ,-7, ,
-8, ,-7, ,
-7, ,-7, ,
-5, ,-7, ,
-2, ,-7, ,
0, ,-7, ,
1, ,-7, ,
2, ,-7, ,
4, ,-7, ,
6, ,-7, ,
6, ,-7, ,
8, ,-7, ,
9, ,-7, ,
8, ,-7, ,
9, ,-7, ,
8, ,-7, ,
7, ,-7, ,
7, ,-7, ,
6, ,-7, ,
5, ,-7, ,
4, ,-7, ,
2, ,-7, ,
1, ,-7, ,
0, ,-7, ,
-3, ,-7, ,
-4, ,-7, ,
-5, ,-7, ,
-6, ,-7, ,
-8, ,-7, ,
-9, ,-7, ,
-9, ,-7, ,
-9, ,-7, ,
-9, ,-7, ,
-9, ,-7, ,
-8, ,-7, ,
-7, ,-7, ,
-4, ,-7, ,
-4, ,-7, ,
-2, ,-7, ,
-1, ,-7, ,
2, ,-7, ,
3, ,-7, ,
5, ,-7, ,
6, ,-7, ,
9, ,-7, ,
9, ,-7, ,
10, ,-7, ,
9, ,-7, ,
9, ,-7, ,
9, ,-7, ,
7, ,-7, ,
7, ,-7, ,
3, ,-7, ,
2, ,-7, ,
0, ,-7, ,
-2, ,-7, ,
-6, ,-7, ,
-9, ,-7, ,
-11, ,-7, ,
-13, ,-7, ,
-16, ,-7, ,
-18, ,-7, ,
-19, ,-7, ,
-20, ,-7, ,
-20, ,-7, ,
-19, ,-7, ,
-19, ,-7, ,
-18, ,-7, ,
-14, ,-7, ,
-12, ,-7, ,
-10, ,-7, ,
-8, ,-7, ,
-3, ,-7, ,
0, ,-7, ,
2, ,-7, ,
5, ,-7, ,
9, ,-7, ,
11, ,-7, ,
12, ,-7, ,
12, ,-7, ,
11, ,-7, ,
11, ,-7, ,
10, ,-7, ,
9, ,-7, ,
5, ,-7, ,
2, ,-7, ,
0, ,-7, ,
-2, ,-7, ,
-8, ,-7, ,
-9, ,-7, ,
-12, ,-7, ,
-13, ,-7, ,
-17, ,-7, ,
-17, ,-7, ,
-17, ,-7, ,
-17, ,-7, ,
-15, ,-7, ,
-14, ,-7, ,
-13, ,-7, ,
-11, ,-7, ,
-7, ,-7, ,
-4, ,-7, ,
-1, ,-7, ,
1, ,-7, ,
6, ,-7, ,
8, ,-7, ,
9, ,-7, ,
12, ,-7, ,
14, ,-7, ,
14, ,-7, ,
14, ,-7, ,
13, ,-7, ,
12, ,-7, ,
11, ,-7, ,
10, ,-7, ,
9, ,-7, ,
6, ,-7, ,
3, ,-7, ,
2, ,-7, ,
1, ,-7, ,
-3, ,-7, ,
-4, ,-7, ,
-6, ,-7, ,
-7, ,-7, ,
-9, ,-7, ,
-9, ,-7, ,
-10, ,-7, ,
-10, ,-7, ,
-9, ,-7, ,
-9, ,-7, ,
-8, ,-7, ,
-7, ,-7, ,
-5, ,-7, ,
-5, ,-7, ,
-4, ,-7, ,
-3, ,-7, ,
0, ,-7, ,
1, ,-7, ,
1, ,-7, ,
3, ,-7, ,
5, ,-7, ,
5, ,-7, ,
6, ,-7, ,
6, ,-7, ,
6, ,-7, ,
6, ,-7, ,
5, ,-7, ,
5, ,-7, ,
4, ,-7, ,
3, ,-7, ,
3, ,-7, ,
1, ,-7, ,
0, ,-7, ,
-1, ,-7, ,
-2, ,-7, ,
-2, ,-7, ,
-3, ,-7, ,
-4, ,-7, ,
-4, ,-7, ,
-4, ,-7, ,
-4, ,-7, ,
-3, ,-7, ,
-2, ,-7, ,
-2, ,-7, ,
0, ,-7, ,
0, ,-7, ,
2, ,-7, ,
3, ,-7, ,
5, ,-7, ,
6, ,-7, ,
7, ,-7, ,
8, ,-7, ,
9, ,-7, ,
9, ,-7, ,
9, ,-7, ,
8, ,-7, ,
7, ,-7, ,
6, ,-7, ,
5, ,-7, ,
4, ,-7, ,
2, ,-7, ,
-1, ,-7, ,
-2, ,-7, ,
-3, ,-7, ,
-6, ,-7, ,
-7, ,-7, ,
-9, ,-7, ,
-10, ,-7, ,
-11, ,-7, ,
-11, ,-7, ,
-11, ,-7, ,
-11, ,-7, ,
-10, ,-7, ,
-8, ,-7, ,
-8, ,-7, ,
-6, ,-7, ,
-4, ,-7, ,
-3, ,-7, ,
-1, ,-7, ,
0, ,-7, ,
4, ,-7, ,
5, ,-7, ,
6, ,-7, ,
7, ,-7, ,
9, ,-7, ,
9, ,-7, ,
9, ,-7, ,
9, ,-7, ,
8, ,-7, ,
8, ,-7, ,
7, ,-7, ,
7, ,-7, ,
5, ,-7, ,
3, ,-7, ,
2, ,-7, ,
1, ,-7, ,
0, ,-7, ,
-1, ,-7, ,
-2, ,-7, ,
-2, ,-7, ,
-3, ,-7, ,
-3, ,-7, ,
-3, ,-7, ,
-3, ,-7, ,
-2, ,-7, ,
-2, ,-7, ,
-2, ,-7, ,
-1, ,-7, ,
0, ,-7, ,
0, ,-7, ,
0, ,-7, ,
1, ,-7, ,
1, ,-7, ,
1, ,-7, ,
0, ,-7, ,
0, ,-7, ,
-1, ,-7, ,
-2, ,-7, ,
-2, ,-7, ,
-3, ,-7, ,
-4, ,-7, ,
-4, ,-7, ,
-5, ,-7, ,
-5, ,-7, ,
-5, ,-7, ,
-6, ,-7, ,
-6, ,-7, ,
-6, ,-7, ,
-6, ,-7, ,
-5, ,-7, ,
-5, ,-7, ,
-4, ,-7, ,
-3, ,-7, ,
-3, ,-7, ,
-2, ,-7, ,
-3, ,-7, ,
-2, ,-7, ,
-1, ,-7, ,
-1, ,-7, ,
0, ,-7, ,
-1, ,-7, ,
-1, ,-7, ,
-1, ,-7, ,
-1, ,-7, ,
-2, ,-7, ,
-2, ,-7, ,
-2, ,-7, ,
-2, ,-7, ,
-3, ,-7, ,
-3, ,-7, ,
-3, ,-7, ,
-3, ,-7, ,
-3, ,-7, ,
-3, ,-7, ,
-3, ,-7, ,
-2, ,-7, ,
-1, ,-7, ,
-1, ,-7, ,
0, ,-7, ,
1, ,-7, ,
2, ,-7, ,
3, ,-7, ,
4, ,-7, ,
5, ,-7, ,
7, ,-7, ,
8, ,-7, ,
9, ,-7, ,
9, ,-7, ,
11, ,-7, ,
12, ,-7, ,
12, ,-7, ,
13, ,-7, ,
13, ,-7, ,
13, ,-7, ,
13, ,-7, ,
13, ,-7, ,
11, ,-7, ,
11, ,-7, ,
10, ,-7, ,
9, ,-7, ,
6, ,-7, ,
4, ,-7, ,
3, ,-7, ,
1, ,-7, ,
-2, ,-7, ,
-3, ,-7, ,
-5, ,-7, ,
-7, ,-7, ,
-8, ,-7, ,
-10, ,-7, ,
-11, ,-7, ,
-12, ,-7, ,
-12, ,-7, ,
-12, ,-7, ,
-12, ,-7, ,
-12, ,-7, ,
-12, ,-7, ,
-11, ,-7, ,
-10, ,-7, ,
-10, ,-7, ,
-8, ,-7, ,
-6, ,-7, ,
-5, ,-7, ,
-3, ,-7, ,
0, ,-7, ,
1, ,-7, ,
3, ,-7, ,
4, ,-7, ,
6, ,-7, ,
7, ,-7, ,
7, ,-7, ,
8, ,-7, ,
7, ,-7, ,
6, ,-7, ,
6, ,-7, ,
5, ,-7, ,
3, ,-7, ,
2, ,-7, ,
0, ,-7, ,
-1, ,-7, ,
-5, ,-7, ,
-6, ,-7, ,
-7, ,-7, ,
-9, ,-7, ,
-10, ,-7, ,
-10, ,-7, ,
-10, ,-7, ,
-10, ,-7, ,
-9, ,-7, ,
-8, ,-7, ,
-7, ,-7, ,
-5, ,-7, ,
-2, ,-7, ,
0, ,-7, ,
2, ,-7, ,
4, ,-7, ,
8, ,-7, ,
9, ,-7, ,
11, ,-7, ,
12, ,-7, ,
15, ,-7, ,
16, ,-7, ,
16, ,-7, ,
16, ,-7, ,
16, ,-7, ,
15, ,-7, ,
15, ,-7, ,
13, ,-7, ,
11, ,-7, ,
10, ,-7, ,
7, ,-7, ,
6, ,-7, ,
2, ,-7, ,
0, ,-7, ,
-1, ,-7, ,
-3, ,-7, ,
-7, ,-7, ,
-7, ,-7, ,
-8, ,-7, ,
-8, ,-7, ,
-8, ,-7, ,
-8, ,-7, ,
-7, ,-7, ,
-7, ,-7, ,
-5, ,-7, ,
-4, ,-7, ,
-3, ,-7, ,
-2, ,-7, ,
1, ,-7, ,
1, ,-7, ,
3, ,-7, ,
3, ,-7, ,
4, ,-7, ,
5, ,-7, ,
4, ,-7, ,
4, ,-7, ,
2, ,-7, ,
2, ,-7, ,
1, ,-7, ,
0, ,-7, ,
-2, ,-7, ,
-2, ,-7, ,
-3, ,-7, ,
-3, ,-7, ,
-4, ,-7, ,
-5, ,-7, ,
-4, ,-7, ,
-5, ,-7, ,
-5, ,-7, ,
-4, ,-7, ,
-4, ,-7, ,
-3, ,-7, ,
-2, ,-7, ,
-2, ,-7, ,
-2, ,-7, ,
-2, ,-7, ,
0, ,-7, ,
-1, ,-7, ,
-1, ,-7, ,
-1, ,-7, ,
-1, ,-7, ,
-1, ,-7, ,
-1, ,-7, ,
-1, ,-7, ,
-1, ,-7, ,
-1, ,-7, ,
-1, ,-7, ,
-1, ,-7, ,
0, ,-7, ,
0, ,-7, ,
1, ,-7, ,
1, ,-7, ,
3, ,-7, ,
4, ,-7, ,
5, ,-7, ,
6, ,-7, ,
8, ,-7, ,
8, ,-7, ,
9, ,-7, ,
9, ,-7, ,
9, ,-7, ,
9, ,-7, ,
9, ,-7, ,
9, ,-7, ,
8, ,-7, ,
6, ,-7, ,
6, ,-7, ,
4, ,-7, ,
2, ,-7, ,
1, ,-7, ,
0, ,-7, ,
-1, ,-7, ,
-2, ,-7, ,
-4, ,-7, ,
-4, ,-7, ,
-5, ,-7, ,
-7, ,-7, ,
-7, ,-7, ,
-8, ,-7, ,
-8, ,-7, ,
-9, ,-7, ,
-10, ,-7, ,
-10, ,-7, ,
-11, ,-7, ,
-11, ,-7, ,
-11, ,-7, ,
-11, ,-7, ,
-11, ,-7, ,
-9, ,-7, ,
-9, ,-7, ,
-7, ,-7, ,
-7, ,-7, ,
-5, ,-7, ,
-3, ,-7, ,
-2, ,-7, ,
-1, ,-7, ,
1, ,-7, ,
2, ,-7, ,
3, ,-7, ,
3, ,-7, ,
5, ,-7, ,
5, ,-7, ,
6, ,-7, ,
6, ,-7, ,
7, ,-7, ,
7, ,-7, ,
8, ,-7, ,
8, ,-7, ,
8, ,-7, ,
9, ,-7, ,
9, ,-7, ,
9, ,-7, ,
10, ,-7, ,
9, ,-7, ,
9, ,-7, ,
9, ,-7, ,
8, ,-7, ,
8, ,-7, ,
7, ,-7, ,
7, ,-7, ,
6, ,-7, ,
5, ,-7, ,
4, ,-7, ,
3, ,-7, ,
0, ,-7, ,
0, ,-7, ,
-1, ,-7, ,
-2, ,-7, ,
-5, ,-7, ,
-6, ,-7, ,
-7, ,-7, ,
-9, ,-7, ,
-11, ,-7, ,
-11, ,-7, ,
-13, ,-7, ,
-13, ,-7, ,
-13, ,-7, ,
-14, ,-7, ,
-14, ,-7, ,
-13, ,-7, ,
-13, ,-7, ,
-12, ,-7, ,
-11, ,-7, ,
-10, ,-7, ,
-8, ,-7, ,
-6, ,-7, ,
-5, ,-7, ,
-3, ,-7, ,
0, ,-7, ,
1, ,-7, ,
2, ,-7, ,
4, ,-7, ,
6, ,-7, ,
5, ,-7, ,
5, ,-7, ,
5, ,-7, ,
4, ,-7, ,
4, ,-7, ,
3, ,-7, ,
3, ,-7, ,
2, ,-7, ,
1, ,-7, ,
1, ,-7, ,
0, ,-7, ,
0, ,-7, ,
0, ,-7, ,
0, ,-7, ,
1, ,-7, ,
2, ,-7, ,
2, ,-7, ,
3, ,-7, ,
3, ,-7, ,
5, ,-7, ,
6, ,-7, ,
7, ,-7, ,
8, ,-7, ,
9, ,-7, ,
10, ,-7, ,
10, ,-7, ,
10, ,-7, ,
10, ,-7, ,
10, ,-7, ,
10, ,-7, ,
10, ,-7, ,
9, ,-7, ,
8, ,-7, ,
7, ,-7, ,
7, ,-7, ,
5, ,-7, ,
4, ,-7, ,
4, ,-7, ,
3, ,-7, ,
2, ,-7, ,
0, ,-7, ,
0, ,-7, ,
-1, ,-7, ,
-3, ,-7, ,
-3, ,-7, ,
-4, ,-7, ,
-4, ,-7, ,
-4, ,-7, ,
-5, ,-7, ,
-5, ,-7, ,
-6, ,-7, ,
-6, ,-7, ,
-6, ,-7, ,
-7, ,-7, ,
-7, ,-7, ,
