raw_data/75% Glycerol, Impulsion 2Hz, Sonde 5MHz, Rampe 0.7Hz/temp0000024.CSV

Format,1.0B,
Memory Length,10000,Memory Length,10000,
IntpDistance,0,IntpDistance,0,
Trigger Address,159,Trigger Address,159,
Trigger Level,2.720E-01,Trigger Level,2.720E-01,
Source,CH1,Source,CH2,
Vertical Units,V,Vertical Units,V,
Vertical Units Div,0,Vertical Units Div,0,
Vertical Units Extend Div,16,Vertical Units Extend Div,16,
Label,,Label,,
Probe Type,0,Probe Type,0,
Probe Ratio,1.000e+00,Probe Ratio,1.000e+00,
Vertical Scale,5.000e-01,Vertical Scale,2.000e+00,
Vertical Position,0.000e+00,Vertical Position,0.000e+00,
Horizontal Units,S,Horizontal Units,S,
Horizontal Scale,5.000E-06,Horizontal Scale,5.000E-06,
Horizontal Position,2.420E-05,Horizontal Position,2.420E-05,
Horizontal Mode,Main,Horizontal Mode,Main,
SincET Mode,Real Time,SincET Mode,Real Time,
Sampling Period,5.000e-09,Sampling Period,5.000e-09,
Horizontal Old Scale,5.000E-06,Horizontal Old Scale,5.000E-06,
Horizontal Old Position,2.420E-05,Horizontal Old Position,2.420E-05,
Firmware,V1.32,Firmware,V1.32,
Mode,Fast,Mode,Fast,
Waveform Data,,Waveform Data,,
0, ,29, ,
1, ,29, ,
1, ,29, ,
1, ,29, ,
1, ,29, ,
0, ,29, ,
0, ,29, ,
1, ,29, ,
1, ,29, ,
1, ,29, ,
1, ,29, ,
0, ,29, ,
0, ,29, ,
0, ,29, ,
0, ,29, ,
1, ,29, ,
1, ,29, ,
1, ,29, ,
0, ,29, ,
0, ,29, ,
1, ,29, ,
0, ,29, ,
0, ,29, ,
1, ,29, ,
1, ,29, ,
0, ,29, ,
0, ,29, ,
1, ,29, ,
1, ,29, ,
1, ,29, ,
0, ,29, ,
0, ,29, ,
0, ,29, ,
0, ,29, ,
1, ,29, ,
1, ,29, ,
1, ,29, ,
0, ,29, ,
0, ,29, ,
0, ,29, ,
1, ,29, ,
1, ,29, ,
1, ,29, ,
1, ,29, ,
1, ,29, ,
0, ,29, ,
0, ,29, ,
1, ,29, ,
0, ,29, ,
0, ,29, ,
1, ,29, ,
1, ,29, ,
1, ,29, ,
1, ,29, ,
1, ,29, ,
1, ,29, ,
0, ,29, ,
0, ,29, ,
1, ,29, ,
1, ,29, ,
1, ,29, ,
0, ,29, ,
0, ,29, ,
1, ,29, ,
1, ,29, ,
1, ,29, ,
1, ,29, ,
1, ,29, ,
1, ,29, ,
1, ,29, ,
0, ,29, ,
0, ,29, ,
0, ,29, ,
1, ,29, ,
1, ,29, ,
0, ,29, ,
0, ,29, ,
0, ,29, ,
1, ,29, ,
1, ,29, ,
0, ,29, ,
0, ,29, ,
1, ,29, ,
1, ,29, ,
1, ,29, ,
1, ,29, ,
0, ,29, ,
0, ,29, ,
0, ,29, ,
0, ,29, ,
1, ,29, ,
1, ,29, ,
0, ,29, ,
0, ,29, ,
0, ,29, ,
0, ,29, ,
0, ,29, ,
1, ,29, ,
1, ,29, ,
0, ,29, ,
0, ,29, ,
0, ,29, ,
1, ,29, ,
1, ,29, ,
1, ,29, ,
1, ,29, ,
0, ,29, ,
0, ,29, ,
0, ,29, ,
0, ,29, ,
1, ,29, ,
1, ,29, ,
0, ,29, ,
0, ,29, ,
1, ,29, ,
1, ,29, ,
1, ,29, ,
0, ,29, ,
0, ,29, ,
1, ,29, ,
0, ,29, ,
0, ,29, ,
1, ,29, ,
0, ,29, ,
0, ,29, ,
0, ,29, ,
0, ,29, ,
1, ,29, ,
0, ,29, ,
0, ,29, ,
1, ,29, ,
0, ,29, ,
0, ,29, ,
0, ,29, ,
0, ,29, ,
1, ,29, ,
0, ,29, ,
0, ,29, ,
0, ,29, ,
0, ,29, ,
0, ,29, ,
0, ,29, ,
0, ,29, ,
1, ,29, ,
1, ,29, ,
1, ,29, ,
1, ,29, ,
0, ,29, ,
0, ,29, ,
0, ,29, ,
1, ,29, ,
1, ,29, ,
0, ,29, ,
0, ,29, ,
1, ,29, ,
0, ,29, ,
0, ,29, ,
0, ,29, ,
0, ,29, ,
1, ,29, ,
1, ,29, ,
1, ,29, ,
1, ,29, ,
0, ,29, ,
1, ,29, ,
-1, ,29, ,
-1, ,29, ,
0, ,29, ,
10, ,29, ,
33, ,29, ,
109, ,29, ,
124, ,29, ,
123, ,29, ,
117, ,29, ,
9, ,29, ,
-5, ,29, ,
31, ,29, ,
86, ,29, ,
125, ,29, ,
125, ,29, ,
125, ,29, ,
125, ,29, ,
125, ,29, ,
125, ,29, ,
124, ,29, ,
124, ,29, ,
112, ,29, ,
107, ,29, ,
104, ,29, ,
101, ,29, ,
94, ,29, ,
92, ,29, ,
87, ,29, ,
84, ,29, ,
78, ,29, ,
75, ,29, ,
73, ,29, ,
70, ,29, ,
64, ,29, ,
61, ,29, ,
59, ,29, ,
57, ,29, ,
52, ,29, ,
50, ,29, ,
48, ,29, ,
46, ,29, ,
42, ,29, ,
41, ,29, ,
38, ,29, ,
37, ,29, ,
34, ,29, ,
32, ,29, ,
31, ,29, ,
29, ,29, ,
27, ,29, ,
25, ,29, ,
25, ,29, ,
24, ,29, ,
22, ,29, ,
21, ,29, ,
20, ,29, ,
19, ,29, ,
17, ,29, ,
16, ,29, ,
16, ,29, ,
14, ,29, ,
13, ,29, ,
12, ,29, ,
12, ,29, ,
11, ,29, ,
9, ,29, ,
9, ,29, ,
9, ,29, ,
8, ,29, ,
7, ,29, ,
6, ,29, ,
6, ,29, ,
6, ,29, ,
5, ,29, ,
5, ,29, ,
5, ,29, ,
4, ,29, ,
4, ,29, ,
3, ,29, ,
3, ,29, ,
3, ,29, ,
2, ,29, ,
2, ,29, ,
2, ,29, ,
2, ,29, ,
1, ,29, ,
1, ,29, ,
1, ,29, ,
1, ,29, ,
0, ,29, ,
0, ,29, ,
0, ,29, ,
0, ,29, ,
0, ,29, ,
0, ,29, ,
0, ,29, ,
0, ,29, ,
-1, ,29, ,
-1, ,29, ,
0, ,29, ,
-1, ,29, ,
-1, ,29, ,
-1, ,29, ,
-1, ,29, ,
-1, ,29, ,
-1, ,29, ,
-1, ,29, ,
-1, ,29, ,
-1, ,29, ,
-1, ,29, ,
-1, ,29, ,
-1, ,29, ,
-1, ,29, ,
-1, ,29, ,
-1, ,29, ,
-1, ,29, ,
-1, ,29, ,
-2, ,29, ,
-2, ,29, ,
-1, ,29, ,
-1, ,29, ,
-1, ,29, ,
-1, ,29, ,
-1, ,29, ,
-1, ,29, ,
-1, ,29, ,
-1, ,29, ,
-1, ,29, ,
-1, ,29, ,
-1, ,29, ,
-1, ,29, ,
-1, ,29, ,
-1, ,29, ,
-1, ,29, ,
-1, ,29, ,
-1, ,29, ,
-1, ,29, ,
-1, ,29, ,
-1, ,29, ,
-1, ,29, ,
-1, ,29, ,
-1, ,29, ,
-1, ,29, ,
-1, ,29, ,
-1, ,29, ,
-1, ,29, ,
-1, ,29, ,
-1, ,29, ,
-1, ,29, ,
0, ,29, ,
-1, ,29, ,
-1, ,29, ,
-1, ,29, ,
0, ,29, ,
0, ,29, ,
0, ,29, ,
0, ,29, ,
-1, ,29, ,
-1, ,29, ,
0, ,29, ,
0, ,29, ,
-1, ,29, ,
-1, ,29, ,
-1, ,29, ,
0, ,29, ,
0, ,29, ,
-1, ,29, ,
0, ,29, ,
0, ,29, ,
0, ,29, ,
0, ,29, ,
0, ,29, ,
0, ,29, ,
0, ,29, ,
0, ,29, ,
0, ,29, ,
0, ,29, ,
0, ,29, ,
0, ,29, ,
0, ,29, ,
0, ,29, ,
0, ,29, ,
0, ,29, ,
0, ,29, ,
0, ,29, ,
0, ,29, ,
0, ,29, ,
0, ,29, ,
0, ,29, ,
0, ,29, ,
0, ,29, ,
0, ,29, ,
0, ,29, ,
0, ,29, ,
0, ,29, ,
0, ,29, ,
0, ,29, ,
0, ,29, ,
0, ,29, ,
0, ,29, ,
0, ,29, ,
0, ,29, ,
0, ,29, ,
0, ,29, ,
0, ,29, ,
0, ,29, ,
0, ,29, ,
0, ,29, ,
0, ,29, ,
0, ,29, ,
0, ,29, ,
0, ,29, ,
0, ,29, ,
0, ,29, ,
0, ,29, ,
0, ,29, ,
0, ,29, ,
0, ,29, ,
0, ,29, ,
0, ,29, ,
0, ,29, ,
0, ,29, ,
0, ,29, ,
0, ,29, ,
0, ,29, ,
0, ,29, ,
0, ,29, ,
0, ,29, ,
0, ,29, ,
1, ,29, ,
0, ,29, ,
0, ,29, ,
0, ,29, ,
0, ,29, ,
0, ,29, ,
0, ,29, ,
0, ,29, ,
0, ,29, ,
0, ,29, ,
1, ,29, ,
0, ,29, ,
0, ,29, ,
0, ,29, ,
0, ,29, ,
0, ,29, ,
1, ,29, ,
0, ,29, ,
0, ,29, ,
0, ,29, ,
0, ,29, ,
1, ,29, ,
1, ,29, ,
1, ,29, ,
1, ,29, ,
1, ,29, ,
1, ,29, ,
0, ,29, ,
0, ,29, ,
0, ,29, ,
0, ,29, ,
0, ,29, ,
0, ,29, ,
0, ,29, ,
0, ,29, ,
0, ,29, ,
0, ,29, ,
0, ,29, ,
0, ,29, ,
0, ,29, ,
-1, ,29, ,
-1, ,29, ,
-1, ,29, ,
-2, ,29, ,
-2, ,29, ,
-3, ,29, ,
-3, ,29, ,
-4, ,29, ,
-7, ,29, ,
-8, ,29, ,
-10, ,29, ,
-11, ,29, ,
-11, ,29, ,
-9, ,29, ,
-8, ,29, ,
-6, ,29, ,
-3, ,29, ,
-2, ,29, ,
0, ,29, ,
0, ,29, ,
1, ,29, ,
2, ,29, ,
2, ,29, ,
3, ,29, ,
3, ,29, ,
2, ,29, ,
2, ,29, ,
2, ,29, ,
2, ,29, ,
2, ,29, ,
1, ,29, ,
1, ,29, ,
1, ,29, ,
1, ,29, ,
1, ,29, ,
1, ,29, ,
2, ,29, ,
2, ,29, ,
2, ,29, ,
3, ,29, ,
3, ,29, ,
3, ,29, ,
3, ,29, ,
3, ,29, ,
2, ,29, ,
2, ,29, ,
2, ,29, ,
2, ,29, ,
2, ,29, ,
1, ,29, ,
1, ,29, ,
1, ,29, ,
1, ,29, ,
1, ,29, ,
1, ,29, ,
1, ,29, ,
1, ,29, ,
1, ,29, ,
1, ,29, ,
1, ,29, ,
1, ,29, ,
1, ,29, ,
1, ,29, ,
1, ,29, ,
1, ,29, ,
0, ,29, ,
0, ,29, ,
0, ,29, ,
-1, ,29, ,
-1, ,29, ,
-1, ,29, ,
-1, ,29, ,
-1, ,29, ,
0, ,29, ,
0, ,29, ,
0, ,29, ,
1, ,29, ,
1, ,29, ,
1, ,29, ,
1, ,29, ,
1, ,29, ,
1, ,29, ,
1, ,29, ,
1, ,29, ,
0, ,29, ,
0, ,29, ,
-1, ,29, ,
-1, ,29, ,
-2, ,29, ,
-3, ,29, ,
-3, ,29, ,
-4, ,29, ,
-5, ,29, ,
-6, ,29, ,
-7, ,29, ,
-7, ,29, ,
-8, ,29, ,
-9, ,29, ,
-9, ,29, ,
-9, ,29, ,
-10, ,29, ,
-11, ,29, ,
-11, ,29, ,
-12, ,29, ,
-14, ,29, ,
-16, ,29, ,
-18, ,29, ,
-20, ,29, ,
-25, ,29, ,
-26, ,29, ,
-29, ,29, ,
-30, ,29, ,
-30, ,29, ,
-30, ,29, ,
-29, ,29, ,
-27, ,29, ,
-23, ,29, ,
-22, ,29, ,
-20, ,29, ,
-17, ,29, ,
-15, ,29, ,
-15, ,29, ,
-15, ,29, ,
-16, ,29, ,
-18, ,29, ,
-20, ,29, ,
-23, ,29, ,
-25, ,29, ,
-30, ,29, ,
-32, ,29, ,
-34, ,29, ,
-37, ,29, ,
-37, ,29, ,
-36, ,29, ,
-36, ,29, ,
-35, ,29, ,
-31, ,29, ,
-28, ,29, ,
-25, ,29, ,
-23, ,29, ,
-17, ,29, ,
-14, ,29, ,
-11, ,29, ,
-9, ,29, ,
-4, ,29, ,
-2, ,29, ,
0, ,29, ,
1, ,29, ,
5, ,29, ,
7, ,29, ,
7, ,29, ,
9, ,29, ,
11, ,29, ,
12, ,29, ,
12, ,29, ,
13, ,29, ,
13, ,29, ,
13, ,29, ,
13, ,29, ,
13, ,29, ,
12, ,29, ,
12, ,29, ,
12, ,29, ,
12, ,29, ,
11, ,29, ,
11, ,29, ,
11, ,29, ,
11, ,29, ,
12, ,29, ,
12, ,29, ,
12, ,29, ,
12, ,29, ,
11, ,29, ,
11, ,29, ,
10, ,29, ,
10, ,29, ,
8, ,29, ,
6, ,29, ,
5, ,29, ,
3, ,29, ,
0, ,29, ,
-1, ,29, ,
-2, ,29, ,
-3, ,29, ,
-5, ,29, ,
-6, ,29, ,
-6, ,29, ,
-6, ,29, ,
-5, ,29, ,
-5, ,29, ,
-5, ,29, ,
-4, ,29, ,
-3, ,29, ,
-3, ,29, ,
-3, ,29, ,
-3, ,29, ,
-3, ,29, ,
-3, ,29, ,
-4, ,29, ,
-4, ,29, ,
-5, ,29, ,
-5, ,29, ,
-5, ,29, ,
-6, ,29, ,
-7, ,29, ,
-7, ,29, ,
-8, ,29, ,
-9, ,29, ,
-10, ,29, ,
-11, ,29, ,
-11, ,29, ,
-13, ,29, ,
-15, ,29, ,
-16, ,29, ,
-17, ,29, ,
-18, ,29, ,
-22, ,29, ,
-24, ,29, ,
-25, ,29, ,
-27, ,29, ,
-31, ,29, ,
-32, ,29, ,
-35, ,29, ,
-35, ,29, ,
-35, ,29, ,
-35, ,29, ,
-35, ,29, ,
-33, ,29, ,
-29, ,29, ,
-26, ,29, ,
-25, ,29, ,
-22, ,29, ,
-17, ,29, ,
-15, ,29, ,
-13, ,29, ,
-10, ,29, ,
-6, ,29, ,
-4, ,29, ,
-3, ,29, ,
-1, ,29, ,
1, ,29, ,
2, ,29, ,
4, ,29, ,
5, ,29, ,
6, ,29, ,
8, ,29, ,
9, ,29, ,
9, ,29, ,
10, ,29, ,
10, ,29, ,
10, ,29, ,
10, ,29, ,
9, ,29, ,
9, ,29, ,
9, ,29, ,
9, ,29, ,
9, ,29, ,
9, ,29, ,
9, ,29, ,
9, ,29, ,
10, ,29, ,
10, ,29, ,
10, ,29, ,
10, ,29, ,
9, ,29, ,
8, ,29, ,
7, ,29, ,
6, ,29, ,
3, ,29, ,
1, ,29, ,
0, ,29, ,
-2, ,29, ,
-6, ,29, ,
-9, ,29, ,
-12, ,29, ,
-14, ,29, ,
-19, ,29, ,
-21, ,29, ,
-23, ,29, ,
-25, ,29, ,
-26, ,29, ,
-26, ,29, ,
-26, ,29, ,
-25, ,29, ,
-25, ,29, ,
-23, ,29, ,
-23, ,29, ,
-20, ,29, ,
-17, ,29, ,
-15, ,29, ,
-14, ,29, ,
-12, ,29, ,
-8, ,29, ,
-6, ,29, ,
-5, ,29, ,
-3, ,29, ,
-1, ,29, ,
0, ,29, ,
2, ,29, ,
3, ,29, ,
6, ,29, ,
7, ,29, ,
9, ,29, ,
10, ,29, ,
14, ,29, ,
14, ,29, ,
16, ,29, ,
17, ,29, ,
17, ,29, ,
17, ,29, ,
17, ,29, ,
16, ,29, ,
14, ,29, ,
12, ,29, ,
10, ,29, ,
7, ,29, ,
4, ,29, ,
1, ,29, ,
-1, ,29, ,
-3, ,29, ,
-6, ,29, ,
-9, ,29, ,
-10, ,29, ,
-10, ,29, ,
-10, ,29, ,
-10, ,29, ,
-9, ,29, ,
-8, ,29, ,
-5, ,29, ,
-4, ,29, ,
-1, ,29, ,
-1, ,29, ,
2, ,29, ,
3, ,29, ,
3, ,29, ,
3, ,29, ,
2, ,29, ,
1, ,29, ,
0, ,29, ,
-2, ,29, ,
-5, ,29, ,
-7, ,29, ,
-8, ,29, ,
-11, ,29, ,
-15, ,29, ,
-17, ,29, ,
-19, ,29, ,
-21, ,29, ,
-24, ,29, ,
-25, ,29, ,
-26, ,29, ,
-27, ,29, ,
-28, ,29, ,
-28, ,29, ,
-28, ,29, ,
-28, ,29, ,
-28, ,29, ,
-27, ,29, ,
-27, ,29, ,
-26, ,29, ,
-24, ,29, ,
-21, ,29, ,
-19, ,29, ,
-18, ,29, ,
-14, ,29, ,
-12, ,29, ,
-9, ,29, ,
-8, ,29, ,
-4, ,29, ,
-4, ,29, ,
-3, ,29, ,
-2, ,29, ,
-3, ,29, ,
-4, ,29, ,
-4, ,29, ,
-5, ,29, ,
-7, ,29, ,
-9, ,29, ,
-9, ,29, ,
-11, ,29, ,
-13, ,29, ,
-14, ,29, ,
-15, ,29, ,
-15, ,29, ,
-15, ,29, ,
-14, ,29, ,
-14, ,29, ,
-13, ,29, ,
-10, ,29, ,
-9, ,29, ,
-7, ,29, ,
-5, ,29, ,
-2, ,29, ,
-1, ,29, ,
0, ,29, ,
1, ,29, ,
2, ,29, ,
3, ,29, ,
3, ,29, ,
3, ,29, ,
2, ,29, ,
1, ,29, ,
1, ,29, ,
1, ,29, ,
1, ,29, ,
2, ,29, ,
3, ,29, ,
4, ,29, ,
7, ,29, ,
8, ,29, ,
10, ,29, ,
12, ,29, ,
16, ,29, ,
18, ,29, ,
20, ,29, ,
21, ,29, ,
24, ,29, ,
25, ,29, ,
25, ,29, ,
25, ,29, ,
24, ,29, ,
23, ,29, ,
22, ,29, ,
21, ,29, ,
18, ,29, ,
15, ,29, ,
13, ,29, ,
11, ,29, ,
6, ,29, ,
4, ,29, ,
1, ,29, ,
-1, ,29, ,
-6, ,29, ,
-8, ,29, ,
-10, ,29, ,
-12, ,29, ,
-14, ,29, ,
-16, ,29, ,
-17, ,29, ,
-17, ,29, ,
-17, ,29, ,
-17, ,29, ,
-17, ,29, ,
-16, ,29, ,
-15, ,29, ,
-13, ,29, ,
-12, ,29, ,
-11, ,29, ,
-7, ,29, ,
-6, ,29, ,
-5, ,29, ,
-4, ,29, ,
-3, ,29, ,
-3, ,29, ,
-3, ,29, ,
-4, ,29, ,
-5, ,29, ,
-7, ,29, ,
-8, ,29, ,
-11, ,29, ,
-16, ,29, ,
-18, ,29, ,
-21, ,29, ,
-24, ,29, ,
-27, ,29, ,
-29, ,29, ,
-31, ,29, ,
-32, ,29, ,
-33, ,29, ,
-33, ,29, ,
-32, ,29, ,
-31, ,29, ,
-28, ,29, ,
-26, ,29, ,
-24, ,29, ,
-21, ,29, ,
-15, ,29, ,
-12, ,29, ,
-9, ,29, ,
-6, ,29, ,
-1, ,29, ,
0, ,29, ,
1, ,29, ,
3, ,29, ,
4, ,29, ,
3, ,29, ,
3, ,29, ,
3, ,29, ,
2, ,29, ,
1, ,29, ,
0, ,29, ,
-1, ,29, ,
-2, ,29, ,
-2, ,29, ,
-3, ,29, ,
-3, ,29, ,
-3, ,29, ,
-4, ,29, ,
-3, ,29, ,
-2, ,29, ,
-2, ,29, ,
-1, ,29, ,
-1, ,29, ,
0, ,29, ,
1, ,29, ,
2, ,29, ,
3, ,29, ,
2, ,29, ,
4, ,29, ,
4, ,29, ,
4, ,29, ,
4, ,29, ,
4, ,29, ,
4, ,29, ,
3, ,29, ,
3, ,29, ,
1, ,29, ,
1, ,29, ,
-1, ,29, ,
-2, ,29, ,
-3, ,29, ,
-5, ,29, ,
-5, ,29, ,
-7, ,29, ,
-8, ,29, ,
-8, ,29, ,
-9, ,29, ,
-9, ,29, ,
-9, ,29, ,
-9, ,29, ,
-8, ,29, ,
-8, ,29, ,
-7, ,29, ,
-6, ,29, ,
-6, ,29, ,
-5, ,29, ,
-3, ,29, ,
-3, ,29, ,
-2, ,29, ,
-2, ,29, ,
-2, ,29, ,
-1, ,29, ,
-2, ,29, ,
-2, ,29, ,
-2, ,29, ,
-3, ,29, ,
-3, ,29, ,
-3, ,29, ,
-4, ,29, ,
-4, ,29, ,
-4, ,29, ,
-3, ,29, ,
-3, ,29, ,
-2, ,29, ,
-1, ,29, ,
-1, ,29, ,
1, ,29, ,
2, ,29, ,
3, ,29, ,
4, ,29, ,
6, ,29, ,
6, ,29, ,
7, ,29, ,
7, ,29, ,
8, ,29, ,
7, ,29, ,
7, ,29, ,
6, ,29, ,
6, ,29, ,
5, ,29, ,
5, ,29, ,
3, ,29, ,
2, ,29, ,
1, ,29, ,
0, ,29, ,
0, ,29, ,
-1, ,29, ,
-2, ,29, ,
-2, ,29, ,
-3, ,29, ,
-4, ,29, ,
-4, ,29, ,
-5, ,29, ,
-5, ,29, ,
-6, ,29, ,
-7, ,29, ,
-7, ,29, ,
-8, ,29, ,
-9, ,29, ,
-9, ,29, ,
-9, ,29, ,
-9, ,29, ,
-9, ,29, ,
-9, ,29, ,
-9, ,29, ,
-9, ,29, ,
-8, ,29, ,
-7, ,29, ,
-7, ,29, ,
-6, ,29, ,
-4, ,29, ,
-4, ,29, ,
-3, ,29, ,
-3, ,29, ,
-3, ,29, ,
-2, ,29, ,
-2, ,29, ,
-2, ,29, ,
-2, ,29, ,
-1, ,29, ,
-1, ,29, ,
-1, ,29, ,
1, ,29, ,
2, ,29, ,
3, ,29, ,
4, ,29, ,
5, ,29, ,
6, ,29, ,
7, ,29, ,
7, ,29, ,
7, ,29, ,
7, ,29, ,
7, ,29, ,
6, ,29, ,
5, ,29, ,
4, ,29, ,
3, ,29, ,
2, ,29, ,
0, ,29, ,
0, ,29, ,
-1, ,29, ,
-1, ,29, ,
-2, ,29, ,
-2, ,29, ,
-2, ,29, ,
-2, ,29, ,
-2, ,29, ,
-1, ,29, ,
-1, ,29, ,
-1, ,29, ,
0, ,29, ,
0, ,29, ,
1, ,29, ,
1, ,29, ,
1, ,29, ,
1, ,29, ,
0, ,29, ,
0, ,29, ,
0, ,29, ,
-1, ,29, ,
-1, ,29, ,
-2, ,29, ,
-3, ,29, ,
-3, ,29, ,
-4, ,29, ,
-5, ,29, ,
-6, ,29, ,
-7, ,29, ,
-8, ,29, ,
-8, ,29, ,
-10, ,29, ,
-10, ,29, ,
-11, ,29, ,
-11, ,29, ,
-11, ,29, ,
-11, ,29, ,
-11, ,29, ,
-10, ,29, ,
-9, ,29, ,
-8, ,29, ,
-7, ,29, ,
-6, ,29, ,
-4, ,29, ,
-3, ,29, ,
-2, ,29, ,
-1, ,29, ,
1, ,29, ,
1, ,29, ,
2, ,29, ,
3, ,29, ,
4, ,29, ,
4, ,29, ,
4, ,29, ,
4, ,29, ,
5, ,29, ,
5, ,29, ,
5, ,29, ,
5, ,29, ,
6, ,29, ,
6, ,29, ,
7, ,29, ,
8, ,29, ,
9, ,29, ,
10, ,29, ,
10, ,29, ,
10, ,29, ,
11, ,29, ,
10, ,29, ,
10, ,29, ,
9, ,29, ,
8, ,29, ,
6, ,29, ,
5, ,29, ,
3, ,29, ,
1, ,29, ,
-1, ,29, ,
-3, ,29, ,
-5, ,29, ,
-7, ,29, ,
-8, ,29, ,
-10, ,29, ,
-10, ,29, ,
-11, ,29, ,
-11, ,29, ,
-10, ,29, ,
-10, ,29, ,
-9, ,29, ,
-7, ,29, ,
-7, ,29, ,
-6, ,29, ,
-4, ,29, ,
-4, ,29, ,
-4, ,29, ,
-4, ,29, ,
-3, ,29, ,
-4, ,29, ,
-4, ,29, ,
-5, ,29, ,
-6, ,29, ,
-7, ,29, ,
-8, ,29, ,
-8, ,29, ,
-9, ,29, ,
-10, ,29, ,
-10, ,29, ,
-10, ,29, ,
-9, ,29, ,
-9, ,29, ,
-8, ,29, ,
-7, ,29, ,
-6, ,29, ,
-5, ,29, ,
-3, ,29, ,
-2, ,29, ,
0, ,29, ,
2, ,29, ,
3, ,29, ,
4, ,29, ,
6, ,29, ,
7, ,29, ,
7, ,29, ,
8, ,29, ,
10, ,29, ,
10, ,29, ,
10, ,29, ,
10, ,29, ,
10, ,29, ,
10, ,29, ,
10, ,29, ,
10, ,29, ,
10, ,29, ,
9, ,29, ,
9, ,29, ,
8, ,29, ,
6, ,29, ,
6, ,29, ,
4, ,29, ,
3, ,29, ,
2, ,29, ,
1, ,29, ,
-1, ,29, ,
-1, ,29, ,
-3, ,29, ,
-3, ,29, ,
-4, ,29, ,
-4, ,29, ,
-5, ,29, ,
-6, ,29, ,
-6, ,29, ,
-8, ,29, ,
-9, ,29, ,
-9, ,29, ,
-10, ,29, ,
-11, ,29, ,
-12, ,29, ,
-13, ,29, ,
-14, ,29, ,
-15, ,29, ,
-16, ,29, ,
-16, ,29, ,
-16, ,29, ,
-15, ,29, ,
-15, ,29, ,
-14, ,29, ,
-13, ,29, ,
-12, ,29, ,
-9, ,29, ,
-7, ,29, ,
-6, ,29, ,
-4, ,29, ,
-1, ,29, ,
-1, ,29, ,
1, ,29, ,
1, ,29, ,
2, ,29, ,
2, ,29, ,
1, ,29, ,
0, ,29, ,
-1, ,29, ,
-2, ,29, ,
-2, ,29, ,
-3, ,29, ,
-3, ,29, ,
-3, ,29, ,
-3, ,29, ,
-3, ,29, ,
-3, ,29, ,
-2, ,29, ,
-2, ,29, ,
-1, ,29, ,
1, ,29, ,
2, ,29, ,
2, ,29, ,
4, ,29, ,
5, ,29, ,
5, ,29, ,
5, ,29, ,
5, ,29, ,
5, ,29, ,
5, ,29, ,
4, ,29, ,
3, ,29, ,
3, ,29, ,
1, ,29, ,
1, ,29, ,
-1, ,29, ,
-2, ,29, ,
-3, ,29, ,
-4, ,29, ,
-4, ,29, ,
-7, ,29, ,
-7, ,29, ,
-8, ,29, ,
-9, ,29, ,
-9, ,29, ,
-9, ,29, ,
-9, ,29, ,
-9, ,29, ,
-9, ,29, ,
-9, ,29, ,
-8, ,29, ,
-8, ,29, ,
-7, ,29, ,
-6, ,29, ,
-6, ,29, ,
-4, ,29, ,
-4, ,29, ,
-4, ,29, ,
-2, ,29, ,
-2, ,29, ,
-1, ,29, ,
0, ,29, ,
0, ,29, ,
0, ,29, ,
1, ,29, ,
2, ,29, ,
2, ,29, ,
2, ,29, ,
3, ,29, ,
4, ,29, ,
5, ,29, ,
6, ,29, ,
7, ,29, ,
8, ,29, ,
9, ,29, ,
9, ,29, ,
10, ,29, ,
10, ,29, ,
10, ,29, ,
10, ,29, ,
10, ,29, ,
9, ,29, ,
8, ,29, ,
8, ,29, ,
6, ,29, ,
5, ,29, ,
4, ,29, ,
4, ,29, ,
2, ,29, ,
1, ,29, ,
0, ,29, ,
-2, ,29, ,
-4, ,29, ,
-4, ,29, ,
-5, ,29, ,
-5, ,29, ,
-6, ,29, ,
-6, ,29, ,
-6, ,29, ,
-6, ,29, ,
-6, ,29, ,
-5, ,29, ,
-5, ,29, ,
-5, ,29, ,
-4, ,29, ,
-4, ,29, ,
-2, ,29, ,
-2, ,29, ,
-1, ,29, ,
0, ,29, ,
0, ,29, ,
1, ,29, ,
1, ,29, ,
1, ,29, ,
1, ,29, ,
0, ,29, ,
-1, ,29, ,
-1, ,29, ,
-2, ,29, ,
-2, ,29, ,
-4, ,29, ,
-4, ,29, ,
-5, ,29, ,
-6, ,29, ,
-8, ,29, ,
-8, ,29, ,
-8, ,29, ,
-8, ,29, ,
-8, ,29, ,
-8, ,29, ,
-7, ,29, ,
-6, ,29, ,
-3, ,29, ,
-2, ,29, ,
-1, ,29, ,
2, ,29, ,
4, ,29, ,
6, ,29, ,
8, ,29, ,
9, ,29, ,
12, ,29, ,
13, ,29, ,
13, ,29, ,
13, ,29, ,
12, ,29, ,
11, ,29, ,
10, ,29, ,
9, ,29, ,
6, ,29, ,
4, ,29, ,
2, ,29, ,
1, ,29, ,
-2, ,29, ,
-4, ,29, ,
-5, ,29, ,
-7, ,29, ,
-7, ,29, ,
-7, ,29, ,
-7, ,29, ,
-7, ,29, ,
-6, ,29, ,
-5, ,29, ,
-4, ,29, ,
-3, ,29, ,
0, ,29, ,
1, ,29, ,
3, ,29, ,
5, ,29, ,
7, ,29, ,
8, ,29, ,
8, ,29, ,
9, ,29, ,
9, ,29, ,
9, ,29, ,
9, ,29, ,
9, ,29, ,
7, ,29, ,
6, ,29, ,
5, ,29, ,
4, ,29, ,
1, ,29, ,
-1, ,29, ,
-3, ,29, ,
-4, ,29, ,
-7, ,29, ,
-9, ,29, ,
-10, ,29, ,
-12, ,29, ,
-14, ,29, ,
-15, ,29, ,
-16, ,29, ,
-16, ,29, ,
-15, ,29, ,
-15, ,29, ,
-15, ,29, ,
-15, ,29, ,
-13, ,29, ,
-12, ,29, ,
-11, ,29, ,
-10, ,29, ,
-7, ,29, ,
-7, ,29, ,
-5, ,29, ,
-4, ,29, ,
-2, ,29, ,
-1, ,29, ,
0, ,29, ,
1, ,29, ,
3, ,29, ,
4, ,29, ,
5, ,29, ,
5, ,29, ,
7, ,29, ,
8, ,29, ,
8, ,29, ,
9, ,29, ,
10, ,29, ,
10, ,29, ,
11, ,29, ,
11, ,29, ,
11, ,29, ,
11, ,29, ,
11, ,29, ,
10, ,29, ,
9, ,29, ,
8, ,29, ,
8, ,29, ,
7, ,29, ,
5, ,29, ,
5, ,29, ,
3, ,29, ,
2, ,29, ,
1, ,29, ,
0, ,29, ,
0, ,29, ,
-2, ,29, ,
-2, ,29, ,
-2, ,29, ,
-3, ,29, ,
-3, ,29, ,
-3, ,29, ,
-3, ,29, ,
-3, ,29, ,
-2, ,29, ,
-2, ,29, ,
-2, ,29, ,
-2, ,29, ,
-1, ,29, ,
-1, ,29, ,
-1, ,29, ,
-2, ,29, ,
-2, ,29, ,
-2, ,29, ,
-2, ,29, ,
-3, ,29, ,
-3, ,29, ,
-4, ,29, ,
-5, ,29, ,
-5, ,29, ,
-6, ,29, ,
-7, ,29, ,
-8, ,29, ,
-8, ,29, ,
-8, ,29, ,
-8, ,29, ,
-8, ,29, ,
-7, ,29, ,
-7, ,29, ,
-5, ,29, ,
-3, ,29, ,
-2, ,29, ,
-1, ,29, ,
2, ,29, ,
3, ,29, ,
4, ,29, ,
5, ,29, ,
7, ,29, ,
8, ,29, ,
8, ,29, ,
9, ,29, ,
8, ,29, ,
7, ,29, ,
7, ,29, ,
6, ,29, ,
5, ,29, ,
4, ,29, ,
3, ,29, ,
2, ,29, ,
0, ,29, ,
-1, ,29, ,
-2, ,29, ,
-3, ,29, ,
-3, ,29, ,
-3, ,29, ,
-3, ,29, ,
-3, ,29, ,
-2, ,29, ,
-1, ,29, ,
-1, ,29, ,
0, ,29, ,
1, ,29, ,
2, ,29, ,
2, ,29, ,
3, ,29, ,
4, ,29, ,
4, ,29, ,
4, ,29, ,
4, ,29, ,
3, ,29, ,
3, ,29, ,
2, ,29, ,
2, ,29, ,
1, ,29, ,
0, ,29, ,
0, ,29, ,
0, ,29, ,
-1, ,29, ,
-1, ,29, ,
-1, ,29, ,
0, ,29, ,
0, ,29, ,
0, ,29, ,
1, ,29, ,
2, ,29, ,
3, ,29, ,
4, ,29, ,
5, ,29, ,
6, ,29, ,
7, ,29, ,
7, ,29, ,
8, ,29, ,
8, ,29, ,
8, ,29, ,
8, ,29, ,
7, ,29, ,
7, ,29, ,
6, ,29, ,
5, ,29, ,
4, ,29, ,
3, ,29, ,
-1, ,29, ,
-2, ,29, ,
-4, ,29, ,
-5, ,29, ,
-8, ,29, ,
-9, ,29, ,
-9, ,29, ,
-11, ,29, ,
-11, ,29, ,
-11, ,29, ,
-11, ,29, ,
-11, ,29, ,
-10, ,29, ,
-10, ,29, ,
-8, ,29, ,
-8, ,29, ,
-6, ,29, ,
-4, ,29, ,
-2, ,29, ,
-1, ,29, ,
1, ,29, ,
2, ,29, ,
3, ,29, ,
4, ,29, ,
5, ,29, ,
5, ,29, ,
4, ,29, ,
4, ,29, ,
3, ,29, ,
2, ,29, ,
2, ,29, ,
2, ,29, ,
1, ,29, ,
1, ,29, ,
0, ,29, ,
0, ,29, ,
0, ,29, ,
0, ,29, ,
0, ,29, ,
0, ,29, ,
1, ,29, ,
1, ,29, ,
2, ,29, ,
3, ,29, ,
3, ,29, ,
3, ,29, ,
4, ,29, ,
4, ,29, ,
4, ,29, ,
5, ,29, ,
5, ,29, ,
4, ,29, ,
4, ,29, ,
4, ,29, ,
3, ,29, ,
3, ,29, ,
2, ,29, ,
2, ,29, ,
2, ,29, ,
2, ,29, ,
1, ,29, ,
0, ,29, ,
0, ,29, ,
-1, ,29, ,
-3, ,29, ,
-3, ,29, ,
-4, ,29, ,
-5, ,29, ,
-6, ,29, ,
-7, ,29, ,
-8, ,29, ,
-8, ,29, ,
-8, ,29, ,
-8, ,29, ,
-8, ,29, ,
-8, ,29, ,
-6, ,29, ,
-6, ,29, ,
-4, ,29, ,
-4, ,29, ,
-2, ,29, ,
-1, ,29, ,
1, ,29, ,
2, ,29, ,
3, ,29, ,
3, ,29, ,
4, ,29, ,
4, ,29, ,
4, ,29, ,
4, ,29, ,
3, ,29, ,
3, ,29, ,
2, ,29, ,
2, ,29, ,
2, ,29, ,
1, ,29, ,
1, ,29, ,
1, ,29, ,
1, ,29, ,
1, ,29, ,
1, ,29, ,
1, ,29, ,
1, ,29, ,
1, ,29, ,
2, ,29, ,
2, ,29, ,
1, ,29, ,
1, ,29, ,
1, ,29, ,
0, ,29, ,
-1, ,29, ,
-1, ,29, ,
-2, ,29, ,
-2, ,29, ,
-2, ,29, ,
-2, ,29, ,
-3, ,29, ,
-3, ,29, ,
-3, ,29, ,
-3, ,29, ,
-3, ,29, ,
-2, ,29, ,
-2, ,29, ,
-2, ,29, ,
-1, ,29, ,
-2, ,29, ,
-1, ,29, ,
-1, ,29, ,
0, ,29, ,
0, ,29, ,
-1, ,29, ,
-1, ,29, ,
-1, ,29, ,
-1, ,29, ,
-2, ,29, ,
-2, ,29, ,
-2, ,29, ,
-2, ,29, ,
-2, ,29, ,
-2, ,29, ,
-2, ,29, ,
-2, ,29, ,
-1, ,29, ,
-1, ,29, ,
-1, ,29, ,
0, ,29, ,
0, ,29, ,
1, ,29, ,
1, ,29, ,
1, ,29, ,
2, ,29, ,
2, ,29, ,
2, ,29, ,
2, ,29, ,
3, ,29, ,
3, ,29, ,
4, ,29, ,
4, ,29, ,
4, ,29, ,
5, ,29, ,
5, ,29, ,
6, ,29, ,
6, ,29, ,
7, ,29, ,
8, ,29, ,
9, ,29, ,
9, ,29, ,
9, ,29, ,
10, ,29, ,
10, ,29, ,
10, ,29, ,
10, ,29, ,
9, ,29, ,
8, ,29, ,
8, ,29, ,
6, ,29, ,
4, ,29, ,
3, ,29, ,
1, ,29, ,
0, ,29, ,
-3, ,29, ,
-5, ,29, ,
-6, ,29, ,
-8, ,29, ,
-10, ,29, ,
-11, ,29, ,
-12, ,29, ,
-13, ,29, ,
-15, ,29, ,
-15, ,29, ,
-15, ,29, ,
-15, ,29, ,
-15, ,29, ,
-15, ,29, ,
-15, ,29, ,
-14, ,29, ,
-13, ,29, ,
-13, ,29, ,
-11, ,29, ,
-11, ,29, ,
-8, ,29, ,
